Date,High,Low,Open,Close,Volume
2019-12-31,21.5,21.40999984741211,21.450000762939453,21.5,208800.0
2020-01-02,21.530000686645508,21.459999084472656,21.459999084472656,21.475000381469727,122200.0
2020-01-03,21.57999992370605,21.46999931335449,21.57999992370605,21.524999618530273,175800.0
2020-01-06,21.540000915527344,21.479999542236328,21.540000915527344,21.51499938964844,145200.0
2020-01-07,21.530000686645508,21.46999931335449,21.530000686645508,21.51000022888184,138600.0
2020-01-08,21.530000686645508,21.459999084472656,21.520000457763672,21.489999771118164,111100.0
2020-01-09,21.51000022888184,21.450000762939453,21.459999084472656,21.488000869750977,144900.0
2020-01-10,21.540000915527344,21.499000549316406,21.5,21.524999618530273,151700.0
2020-01-13,21.530000686645508,21.5,21.530000686645508,21.51499938964844,89300.0
2020-01-14,21.549999237060547,21.503999710083008,21.51000022888184,21.53700065612793,154000.0
2020-01-15,21.559999465942386,21.5,21.559999465942386,21.559999465942386,1038200.0
2020-01-16,21.56999969482422,21.520000457763672,21.559999465942386,21.56999969482422,330000.0
2020-01-17,21.56999969482422,21.540000915527344,21.559999465942386,21.55500030517578,82600.0
2020-01-21,21.559999465942386,21.5,21.549999237060547,21.549999237060547,250300.0
2020-01-22,21.57999992370605,21.549999237060547,21.56999969482422,21.565000534057614,202900.0
2020-01-23,21.600000381469727,21.549999237060547,21.57999992370605,21.57999992370605,96900.0
2020-01-24,21.6299991607666,21.575000762939453,21.6200008392334,21.600000381469727,160000.0
2020-01-27,21.65999984741211,21.6299991607666,21.65999984741211,21.649999618530273,83300.0
2020-01-28,21.65999984741211,21.61000061035156,21.65999984741211,21.645000457763672,166400.0
2020-01-29,21.71999931335449,21.643999099731445,21.65999984741211,21.70499992370605,194500.0
2020-01-30,21.739999771118164,21.68400001525879,21.709999084472656,21.70499992370605,129200.0
2020-01-31,21.770000457763672,21.71999931335449,21.75,21.770000457763672,308000.0
2020-02-03,21.780000686645508,21.70800018310547,21.729999542236328,21.780000686645508,199000.0
2020-02-04,21.729999542236328,21.65999984741211,21.729999542236328,21.70499992370605,133600.0
2020-02-05,21.709999084472656,21.670000076293945,21.700000762939453,21.690000534057614,118400.0
2020-02-06,21.700000762939453,21.670000076293945,21.690000534057614,21.68000030517578,93100.0
2020-02-07,21.739999771118164,21.68000030517578,21.71999931335449,21.725000381469727,115500.0
2020-02-10,21.770000457763672,21.725000381469727,21.739999771118164,21.76499938964844,129100.0
2020-02-11,21.770000457763672,21.733999252319336,21.770000457763672,21.76000022888184,109500.0
2020-02-12,21.739999771118164,21.709999084472656,21.739999771118164,21.7189998626709,109900.0
2020-02-13,21.75,21.709999084472656,21.75,21.711000442504886,104100.0
2020-02-14,21.770000457763672,21.709999084472656,21.75,21.71999931335449,130900.0
2020-02-18,21.780000686645508,21.729999542236328,21.729999542236328,21.76000022888184,88500.0
2020-02-19,21.770000457763672,21.75,21.770000457763672,21.76000022888184,125500.0
2020-02-20,21.799999237060547,21.753999710083008,21.76000022888184,21.79199981689453,141700.0
2020-02-21,21.86000061035156,21.790000915527344,21.799999237060547,21.815000534057614,96500.0
2020-02-24,21.82999992370605,21.780000686645508,21.82999992370605,21.795000076293945,76000.0
2020-02-25,21.86000061035156,21.780000686645508,21.799999237060547,21.815000534057614,120100.0
2020-02-26,21.86000061035156,21.80299949645996,21.82999992370605,21.834999084472656,79100.0
2020-02-27,21.8700008392334,21.76000022888184,21.8700008392334,21.780000686645508,469800.0
2020-02-28,21.899999618530273,21.799999237060547,21.86000061035156,21.875,90900.0
2020-03-02,21.979999542236328,21.86000061035156,21.959999084472656,21.86000061035156,112400.0
2020-03-03,22.11000061035156,21.90699958801269,21.90999984741211,22.030000686645508,122000.0
2020-03-04,22.149999618530273,22.06999969482422,22.06999969482422,22.11000061035156,399500.0
2020-03-05,22.15999984741211,22.049999237060547,22.15999984741211,22.065000534057614,67800.0
2020-03-06,22.089000701904297,21.940000534057614,22.06999969482422,22.020000457763672,243200.0
2020-03-09,22.0,21.6200008392334,21.6200008392334,21.709999084472656,105500.0
2020-03-10,21.670000076293945,21.459999084472656,21.59000015258789,21.459999084472656,341100.0
2020-03-11,21.459999084472656,20.981000900268555,21.459999084472656,21.045000076293945,133100.0
2020-03-12,21.0,19.75,20.65999984741211,20.489999771118164,138200.0
2020-03-13,20.790000915527344,20.38999938964844,20.38999938964844,20.75,574000.0
2020-03-16,20.57999992370605,19.31999969482422,19.31999969482422,20.520000457763672,137900.0
2020-03-17,20.420000076293945,19.96999931335449,20.190000534057614,20.059999465942386,391800.0
2020-03-18,19.812000274658203,19.1299991607666,19.690000534057614,19.309999465942386,270400.0
2020-03-19,19.37700080871582,18.600000381469727,19.270000457763672,18.839000701904297,388800.0
2020-03-20,19.1200008392334,18.61100006103516,18.88999938964844,18.673999786376953,226900.0
2020-03-23,19.565000534057614,19.170000076293945,19.170000076293945,19.46999931335449,174200.0
2020-03-24,19.799999237060547,19.34000015258789,19.56999969482422,19.552000045776367,206000.0
2020-03-25,20.18000030517578,19.71999931335449,19.790000915527344,20.13999938964844,129500.0
2020-03-26,20.239999771118164,20.030000686645508,20.06999969482422,20.22599983215332,189200.0
2020-03-27,20.38999938964844,20.10099983215332,20.229999542236328,20.280000686645508,103100.0
2020-03-30,20.51499938964844,20.270000457763672,20.36000061035156,20.489999771118164,86600.0
2020-03-31,20.690000534057614,20.517000198364254,20.690000534057614,20.56999969482422,98900.0
2020-04-01,20.6200008392334,20.459999084472656,20.5,20.489999771118164,91400.0
2020-04-02,20.57999992370605,20.420000076293945,20.48200035095215,20.49799919128418,52800.0
2020-04-03,20.549999237060547,20.424999237060547,20.549999237060547,20.45400047302246,110900.0
2020-04-06,20.6200008392334,20.51300048828125,20.53499984741211,20.6200008392334,110500.0
2020-04-07,20.770000457763672,20.68000030517578,20.770000457763672,20.700000762939453,131300.0
2020-04-08,20.959999084472656,20.670000076293945,20.690000534057614,20.93000030517578,160200.0
2020-04-09,21.51000022888184,21.100000381469727,21.15999984741211,21.5049991607666,474800.0
2020-04-13,21.57999992370605,21.36199951171875,21.459999084472656,21.530000686645508,208800.0
2020-04-14,21.63999938964844,21.500999450683594,21.51000022888184,21.63999938964844,301400.0
2020-04-15,21.684999465942386,21.420000076293945,21.450000762939453,21.520000457763672,724300.0
2020-04-16,21.649999618530273,21.46999931335449,21.540000915527344,21.57999992370605,89500.0
2020-04-17,21.690000534057614,21.511999130249023,21.549999237060547,21.6200008392334,121900.0
2020-04-20,21.54599952697754,21.3799991607666,21.530000686645508,21.44300079345703,142300.0
2020-04-21,21.40999984741211,21.299999237060547,21.38999938964844,21.32999992370605,67400.0
2020-04-22,21.450000762939453,21.299999237060547,21.399999618530273,21.399999618530273,140200.0
2020-04-23,21.479999542236328,21.32999992370605,21.440000534057614,21.43000030517578,103800.0
2020-04-24,21.5,21.34000015258789,21.479999542236328,21.459999084472656,144400.0
2020-04-27,21.459999084472656,21.350000381469727,21.459999084472656,21.40999984741211,540900.0
2020-04-28,21.46999931335449,21.350000381469727,21.3799991607666,21.399999618530273,106600.0
2020-04-29,21.540000915527344,21.399999618530273,21.399999618530273,21.459999084472656,105000.0
2020-04-30,21.549999237060547,21.46999931335449,21.540000915527344,21.530000686645508,85600.0
2020-05-01,21.530000686645508,21.43000030517578,21.530000686645508,21.46999931335449,167000.0
2020-05-04,21.527000427246094,21.44700050354004,21.46999931335449,21.46999931335449,65100.0
2020-05-05,21.540000915527344,21.43000030517578,21.520000457763672,21.51000022888184,110800.0
2020-05-06,21.530000686645508,21.43000030517578,21.530000686645508,21.459999084472656,111600.0
2020-05-07,21.540000915527344,21.43000030517578,21.450000762939453,21.51000022888184,92600.0
2020-05-08,21.540000915527344,21.459999084472656,21.51000022888184,21.4950008392334,144000.0
2020-05-11,21.5,21.43000030517578,21.5,21.489999771118164,171400.0
2020-05-12,21.558000564575195,21.440000534057614,21.5,21.44499969482422,155100.0
2020-05-13,21.59000015258789,21.5,21.5,21.56800079345703,157800.0
2020-05-14,21.600000381469727,21.5,21.5,21.575000762939453,84500.0
2020-05-15,21.6200008392334,21.51000022888184,21.61000061035156,21.549999237060547,65700.0
2020-05-18,21.6299991607666,21.51000022888184,21.549999237060547,21.584999084472656,179400.0
2020-05-19,21.709999084472656,21.57999992370605,21.68000030517578,21.700000762939453,253000.0
2020-05-20,21.809999465942386,21.65999984741211,21.68000030517578,21.795000076293945,92700.0
2020-05-21,21.809999465942386,21.75,21.809999465942386,21.79199981689453,89500.0
2020-05-22,21.82999992370605,21.770000457763672,21.809999465942386,21.80500030517578,46000.0
2020-05-26,21.88999938964844,21.790000915527344,21.8700008392334,21.88999938964844,166700.0
2020-05-27,21.920000076293945,21.84000015258789,21.920000076293945,21.902000427246094,102400.0
2020-05-28,21.950000762939453,21.84000015258789,21.90999984741211,21.90999984741211,120300.0
2020-05-29,22.030000686645508,21.90999984741211,21.93000030517578,21.989999771118164,112300.0
2020-06-01,22.07999992370605,21.93000030517578,22.06999969482422,22.06999969482422,109800.0
2020-06-02,22.1299991607666,21.979999542236328,22.042999267578125,22.117000579833984,110900.0
2020-06-03,22.15999984741211,22.01000022888184,22.15999984741211,22.100000381469727,140200.0
2020-06-04,22.149999618530273,22.020000457763672,22.13999938964844,22.12700080871582,127100.0
2020-06-05,22.170000076293945,22.0629997253418,22.1299991607666,22.149999618530273,76600.0
2020-06-08,22.21999931335449,22.100000381469727,22.190000534057614,22.18000030517578,91400.0
2020-06-09,22.209999084472656,22.15999984741211,22.200000762939453,22.18600082397461,98200.0
2020-06-10,22.229999542236328,22.1299991607666,22.200000762939453,22.201000213623047,180800.0
2020-06-11,22.13999938964844,22.049999237060547,22.049999237060547,22.059999465942386,89800.0
2020-06-12,22.11000061035156,22.0,22.0,22.0939998626709,136300.0
2020-06-15,22.25,21.959999084472656,21.959999084472656,22.21999931335449,102300.0
2020-06-16,22.34000015258789,22.226999282836914,22.31999969482422,22.34000015258789,106100.0
2020-06-17,22.34000015258789,22.209999084472656,22.34000015258789,22.26499938964844,181500.0
2020-06-18,22.290000915527344,22.229999542236328,22.290000915527344,22.25,92818.0
2020-06-19,22.290000915527344,22.239999771118164,22.2450008392334,22.2549991607666,121841.0
2020-06-22,22.229999542236328,22.190000534057614,22.229999542236328,22.200000762939453,93791.0
2020-06-23,22.21999931335449,22.170000076293945,22.200000762939453,22.200000762939453,135754.0
2020-06-24,22.190000534057614,22.149999618530273,22.190000534057614,22.169099807739254,100965.0
2020-06-25,22.199499130249023,22.149999618530273,22.190000534057614,22.184999465942386,142511.0
2020-06-26,22.200000762939453,22.1299991607666,22.200000762939453,22.13999938964844,101517.0
2020-06-29,22.21999931335449,22.149999618530273,22.15999984741211,22.21999931335449,121402.0
2020-06-30,22.270000457763672,22.21999931335449,22.229999542236328,22.21999931335449,113202.0
2020-07-01,22.25,22.200000762939453,22.229999542236328,22.21999931335449,120197.0
2020-07-02,22.280000686645508,22.239999771118164,22.26000022888184,22.26000022888184,120946.0
2020-07-06,22.31999969482422,22.270000457763672,22.270000457763672,22.30500030517578,123700.0
2020-07-07,22.309999465942386,22.270000457763672,22.280000686645508,22.290000915527344,264400.0
2020-07-08,22.31999969482422,22.26000022888184,22.299999237060547,22.299999237060547,171400.0
2020-07-09,22.31999969482422,22.280000686645508,22.290000915527344,22.309999465942386,115200.0
2020-07-10,22.309999465942386,22.270000457763672,22.299999237060547,22.285999298095703,175700.0
2020-07-13,22.315000534057614,22.290000915527344,22.299999237060547,22.30500030517578,86400.0
2020-07-14,22.32999992370605,22.280000686645508,22.299999237060547,22.31999969482422,141500.0
2020-07-15,22.350000381469727,22.299999237060547,22.34000015258789,22.3439998626709,155600.0
2020-07-16,22.36000061035156,22.34000015258789,22.34000015258789,22.350000381469727,119800.0
2020-07-17,22.3799991607666,22.31999969482422,22.31999969482422,22.3799991607666,85900.0
2020-07-20,22.38999938964844,22.309999465942386,22.350000381469727,22.350000381469727,152900.0
2020-07-21,22.3799991607666,22.32999992370605,22.36000061035156,22.36100006103516,202400.0
2020-07-22,22.399999618530273,22.363000869750977,22.38999938964844,22.38500022888184,91900.0
2020-07-23,22.399999618530273,22.350000381469727,22.38999938964844,22.3799991607666,152600.0
2020-07-24,22.399999618530273,22.36000061035156,22.3799991607666,22.38500022888184,114400.0
2020-07-27,22.43000030517578,22.36000061035156,22.3700008392334,22.364999771118164,155100.0
2020-07-28,22.399999618530273,22.350000381469727,22.36000061035156,22.3799991607666,105400.0
2020-07-29,22.440000534057614,22.36000061035156,22.3700008392334,22.43099975585937,117500.0
2020-07-30,22.459999084472656,22.399999618530273,22.420000076293945,22.450000762939453,100500.0
2020-07-31,22.479999542236328,22.420000076293945,22.440000534057614,22.479999542236328,129700.0
2020-08-03,22.5,22.450000762939453,22.479999542236328,22.5,92800.0
2020-08-04,22.520000457763672,22.46999931335449,22.5,22.51000022888184,107800.0
2020-08-05,22.53000068664551,22.5,22.520000457763672,22.51000022888184,111100.0
2020-08-06,22.54999923706055,22.49099922180176,22.53000068664551,22.540000915527344,109100.0
2020-08-07,22.54999923706055,22.53000068664551,22.540000915527344,22.53499984741211,93800.0
2020-08-10,22.54999923706055,22.520000457763672,22.53000068664551,22.53499984741211,119400.0
2020-08-11,22.51000022888184,22.489999771118164,22.51000022888184,22.4950008392334,185100.0
2020-08-12,22.489999771118164,22.46199989318848,22.46999931335449,22.489999771118164,119200.0
2020-08-13,22.489999771118164,22.420000076293945,22.459999084472656,22.43000030517578,232400.0
2020-08-14,22.450000762939453,22.399999618530273,22.440000534057614,22.420000076293945,247200.0
2020-08-17,22.440000534057614,22.40999984741211,22.420000076293945,22.440000534057614,150900.0
2020-08-18,22.46999931335449,22.420000076293945,22.420000076293945,22.459999084472656,449700.0
2020-08-19,22.464000701904297,22.43000030517578,22.450000762939453,22.44499969482422,1044300.0
2020-08-20,22.46999931335449,22.4379997253418,22.450000762939453,22.46500015258789,133500.0
2020-08-21,22.479999542236328,22.450000762939453,22.46999931335449,22.46999931335449,109900.0
2020-08-24,22.43400001525879,22.399999618530273,22.43000030517578,22.43000030517578,212400.0
2020-08-25,22.420000076293945,22.3799991607666,22.399999618530273,22.38999938964844,73574.0
