Date,High,Low,Open,Close,Volume
2019-09-12,19.96999931335449,19.96999931335449,19.96999931335449,19.96999931335449,0.0
2019-09-13,19.84000015258789,19.799999237060547,19.84000015258789,19.799999237060547,2253.0
2019-09-16,19.8700008392334,19.8700008392334,19.8700008392334,19.8700008392334,0.0
2019-09-17,19.950000762939453,19.90329933166504,19.938100814819336,19.920700073242188,6803.0
2019-09-18,20.011999130249023,19.94890022277832,20.0,19.94890022277832,2290.0
2019-09-19,20.030000686645508,19.965700149536133,20.030000686645508,19.965700149536133,3305.0
2019-09-20,20.0846004486084,20.049999237060547,20.049999237060547,20.0846004486084,884.0
2019-09-23,20.13999938964844,20.104999542236328,20.13999938964844,20.104999542236328,7800.0
2019-09-24,20.209999084472656,20.184999465942386,20.209999084472656,20.184999465942386,955.0
2019-09-25,20.07999992370605,20.053800582885746,20.075000762939453,20.053800582885746,443.0
2019-09-26,20.13999938964844,20.09499931335449,20.12669944763184,20.09499931335449,2141.0
2019-09-27,20.1299991607666,20.105199813842773,20.1299991607666,20.105199813842773,1147.0
2019-09-30,20.170000076293945,20.165000915527344,20.165000915527344,20.165000915527344,2122.0
2019-10-01,20.200000762939453,20.184999465942386,20.200000762939453,20.184999465942386,301.0
2019-10-02,20.229999542236328,20.20499992370605,20.21999931335449,20.20499992370605,3109.0
2019-10-03,20.32999992370605,20.30500030517578,20.32979965209961,20.30500030517578,503.0
2019-10-04,20.3700008392334,20.354999542236328,20.3700008392334,20.354999542236328,766.0
2019-10-07,20.299999237060547,20.26499938964844,20.299999237060547,20.26499938964844,680.0
2019-10-08,20.309999465942386,20.28400039672852,20.309999465942386,20.28400039672852,287.0
2019-10-09,20.299999237060547,20.238100051879886,20.299999237060547,20.25670051574707,815.0
2019-10-10,20.170000076293945,20.15999984741211,20.170000076293945,20.15999984741211,100.0
2019-10-11,20.100000381469727,20.0674991607666,20.100000381469727,20.0674991607666,1377.0
2019-10-14,20.1299991607666,20.1200008392334,20.1200008392334,20.125,6675.0
2019-10-15,20.100000381469727,20.084999084472656,20.100000381469727,20.084999084472656,9790.0
2019-10-16,20.13999938964844,20.100000381469727,20.100000381469727,20.1200008392334,2613.0
2019-10-17,20.13500022888184,20.13500022888184,20.13500022888184,20.13500022888184,13.0
2019-10-18,20.190000534057614,20.174999237060547,20.190000534057614,20.174999237060547,5034.0
2019-10-21,20.09000015258789,20.07999992370605,20.09000015258789,20.09000015258789,12916.0
2019-10-22,20.1299991607666,20.09000015258789,20.1200008392334,20.09600067138672,4600.0
2019-10-23,20.104999542236328,20.10110092163086,20.10110092163086,20.104999542236328,1688.0
2019-10-24,20.18000030517578,20.13500022888184,20.18000030517578,20.13500022888184,2474.0
2019-10-25,20.13999938964844,20.114999771118164,20.13999938964844,20.114999771118164,4045.0
2019-10-28,20.100000381469727,20.06999969482422,20.099000930786133,20.06999969482422,1917.0
2019-10-29,20.09000015258789,20.065000534057614,20.09000015258789,20.065000534057614,2104.0
2019-10-30,20.13999938964844,20.06999969482422,20.06999969482422,20.1200008392334,1752.0
2019-10-31,20.270000457763672,20.180099487304688,20.200000762939453,20.23500061035156,3356.0
2019-11-01,20.26000022888184,20.209999084472656,20.26000022888184,20.21999931335449,6362.0
2019-11-04,20.165000915527344,20.1299991607666,20.165000915527344,20.15999984741211,1907.0
2019-11-05,20.049999237060547,20.020000457763672,20.049999237060547,20.03499984741211,3443.0
2019-11-06,20.11000061035156,20.09499931335449,20.11000061035156,20.09499931335449,270.0
2019-11-07,20.020000457763672,19.950000762939453,20.018999099731445,19.97450065612793,1961.0
2019-11-08,19.997299194335934,19.94499969482422,19.989999771118164,19.95989990234375,1722.0
2019-11-11,19.975000381469727,19.959999084472656,19.959999084472656,19.975000381469727,100.0
2019-11-12,20.0,19.954500198364254,19.96999931335449,19.975000381469727,5491.0
2019-11-13,20.05990028381348,20.01499938964844,20.05990028381348,20.01499938964844,2000.0
2019-11-14,20.13999938964844,20.07999992370605,20.1200008392334,20.09499931335449,8454.0
2019-11-15,20.1200008392334,20.06060028076172,20.100000381469727,20.084999084472656,3851.0
2019-11-18,20.11000061035156,20.075000762939453,20.101999282836914,20.075000762939453,3414.0
2019-11-19,20.1299991607666,20.09000015258789,20.09000015258789,20.1200008392334,11070.0
2019-11-20,20.170000076293945,20.13500022888184,20.149999618530273,20.145000457763672,1490.0
2019-11-21,20.118000030517575,20.09499931335449,20.118000030517575,20.09499931335449,195.0
2019-11-22,20.149999618530273,20.100000381469727,20.100000381469727,20.13500022888184,4162.0
2019-11-25,20.173099517822266,20.165000915527344,20.173099517822266,20.165000915527344,1608.0
2019-11-26,20.229999542236328,20.209299087524414,20.21999931335449,20.209299087524414,791.0
2019-11-27,20.21999931335449,20.184999465942386,20.209999084472656,20.184999465942386,4114.0
2019-11-29,20.200000762939453,20.170000076293945,20.190000534057614,20.170000076293945,1470.0
2019-12-02,20.1200008392334,20.100000381469727,20.1200008392334,20.100000381469727,7993.0
2019-12-03,20.25309944152832,20.23500061035156,20.25309944152832,20.23500061035156,2729.0
2019-12-04,20.200000762939453,20.19499969482422,20.200000762939453,20.19499969482422,250.0
2019-12-05,20.184999465942386,20.15999984741211,20.15999984741211,20.184999465942386,203.0
2019-12-06,20.175500869750977,20.13450050354004,20.13450050354004,20.165000915527344,4771.0
2019-12-09,20.19499969482422,20.15010070800781,20.19499969482422,20.174999237060547,2099.0
2019-12-10,20.18000030517578,20.145000457763672,20.18000030517578,20.145000457763672,360.0
2019-12-11,20.23500061035156,20.18320083618164,20.18320083618164,20.23500061035156,1486.0
2019-12-12,20.149999618530273,20.100000381469727,20.149999618530273,20.1200008392334,7594.0
2019-12-13,20.26000022888184,20.224899291992188,20.249000549316406,20.234899520874023,6752.0
2019-12-16,20.229999542236328,20.190000534057614,20.229999542236328,20.19499969482422,4402.0
2019-12-17,20.193500518798828,20.18000030517578,20.18000030517578,20.190000534057614,1905.0
2019-12-18,20.190000534057614,20.13999938964844,20.13999938964844,20.15999984741211,6247.0
2019-12-19,20.200000762939453,20.15999984741211,20.190000534057614,20.18000030517578,11411.0
2019-12-20,20.200000762939453,20.142099380493164,20.18000030517578,20.190000534057614,11115.0
2019-12-23,20.13999938964844,20.100000381469727,20.13999938964844,20.104999542236328,28773.0
2019-12-24,20.13999938964844,20.100000381469727,20.100000381469727,20.13039970397949,4005.0
2019-12-26,20.18000030517578,20.13500022888184,20.170000076293945,20.165000915527344,17085.0
2019-12-27,20.229999542236328,20.17650032043457,20.209999084472656,20.19499969482422,32113.0
2019-12-30,20.21500015258789,20.1200008392334,20.13999938964844,20.21500015258789,19199.0
2019-12-31,20.21500015258789,20.1200008392334,20.13999938964844,20.21500015258789,19199.0
2020-01-02,20.270000457763672,20.190900802612305,20.270000457763672,20.19499969482422,5532.0
2020-01-03,20.31999969482422,20.23740005493164,20.26000022888184,20.280000686645508,18313.0
2020-01-06,20.31999969482422,20.25,20.31999969482422,20.290000915527344,17444.0
2020-01-07,20.26000022888184,20.23500061035156,20.26000022888184,20.23539924621582,7360.0
2020-01-08,20.239999771118164,20.1781005859375,20.239999771118164,20.184999465942386,120121.0
2020-01-09,20.2450008392334,20.190000534057614,20.209999084472656,20.2450008392334,10907.0
2020-01-10,20.31999969482422,20.276100158691406,20.309999465942386,20.299999237060547,6834.0
2020-01-13,20.299999237060547,20.26000022888184,20.299999237060547,20.26499938964844,8399.0
2020-01-14,20.299999237060547,20.24029922485352,20.280000686645508,20.280000686645508,23046.0
2020-01-15,20.690000534057614,20.29010009765625,20.32999992370605,20.34000015258789,116718.0
2020-01-16,20.399999618530273,20.28499984741211,20.344900131225586,20.315000534057614,15783.0
2020-01-17,20.31999969482422,20.28499984741211,20.31719970703125,20.290000915527344,1785.0
2020-01-21,20.350000381469727,20.299999237060547,20.299999237060547,20.31999969482422,26454.0
2020-01-22,20.35740089416504,20.309999465942386,20.35740089416504,20.334999084472656,5650.0
2020-01-23,20.38999938964844,20.36000061035156,20.3799991607666,20.364999771118164,44673.0
2020-01-24,20.420000076293945,20.3799991607666,20.386600494384766,20.38010025024414,8534.0
2020-01-27,20.47949981689453,20.450000762939453,20.456600189208984,20.450000762939453,3127.0
2020-01-28,20.459999084472656,20.432600021362305,20.450000762939453,20.459999084472656,6785.0
2020-01-29,20.540000915527344,20.459999084472656,20.499000549316406,20.5,54978.0
2020-01-30,20.559999465942386,20.489999771118164,20.489999771118164,20.540000915527344,11673.0
2020-01-31,20.579700469970703,20.520000457763672,20.542600631713867,20.579700469970703,7484.0
2020-02-03,20.61000061035156,20.51000022888184,20.559999465942386,20.61000061035156,25908.0
2020-02-04,20.540000915527344,20.506000518798828,20.520000457763672,20.53499984741211,16736.0
2020-02-05,20.520000457763672,20.488100051879886,20.520000457763672,20.509700775146484,23613.0
2020-02-06,20.540000915527344,20.48500061035156,20.50979995727539,20.48500061035156,13949.0
2020-02-07,20.59000015258789,20.53059959411621,20.59000015258789,20.549800872802734,8844.0
2020-02-10,20.63990020751953,20.56999969482422,20.6200008392334,20.61000061035156,8617.0
2020-02-11,20.600000381469727,20.58609962463379,20.59000015258789,20.59000015258789,2783.0
2020-02-12,20.56999969482422,20.520099639892575,20.56999969482422,20.53499984741211,10403.0
2020-02-13,20.56999969482422,20.5492000579834,20.56999969482422,20.569499969482425,12307.0
2020-02-14,20.61000061035156,20.565000534057614,20.61000061035156,20.565000534057614,5175.0
2020-02-18,20.65999984741211,20.611299514770508,20.6299991607666,20.625,6831.0
2020-02-19,20.649900436401367,20.600000381469727,20.6299991607666,20.604999542236328,8936.0
2020-02-20,20.68000030517578,20.625999450683594,20.64900016784668,20.665000915527344,20736.0
2020-02-21,20.75,20.693899154663086,20.71529960632324,20.725000381469727,10974.0
2020-02-24,20.76000022888184,20.709999084472656,20.709999084472656,20.71500015258789,12870.0
2020-02-25,20.76650047302246,20.725000381469727,20.76650047302246,20.725000381469727,6655.0
2020-02-26,20.75,20.699199676513672,20.71999931335449,20.714599609375,5909.0
2020-02-27,20.690000534057614,20.61000061035156,20.690000534057614,20.61000061035156,7647.0
2020-02-28,20.81999969482422,20.6781005859375,20.6781005859375,20.81999969482422,5259.0
2020-03-02,20.93000030517578,20.780000686645508,20.82999992370605,20.79450035095215,19702.0
2020-03-03,21.100000381469727,20.799999237060547,20.799999237060547,21.015300750732425,37976.0
2020-03-04,21.13599967956543,21.065000534057614,21.06999969482422,21.065000534057614,1997.0
2020-03-05,21.18000030517578,21.09140014648437,21.12649917602539,21.09910011291504,15025.0
2020-03-06,21.200000762939453,21.040000915527344,21.189899444580078,21.09000015258789,33249.0
2020-03-09,20.88999938964844,20.739999771118164,20.739999771118164,20.77560043334961,19990.0
2020-03-10,20.700000762939453,20.40239906311035,20.700000762939453,20.40239906311035,12903.0
2020-03-11,20.295000076293945,19.810800552368164,20.270000457763672,19.810800552368164,4493.0
2020-03-12,19.5,19.0,19.5,19.0,9517.0
2020-03-13,19.71310043334961,19.270000457763672,19.31999969482422,19.56999969482422,16246.0
2020-03-16,19.51499938964844,19.01000022888184,19.01000022888184,19.48579978942871,6326.0
2020-03-17,19.274999618530273,18.756099700927734,19.200000762939453,18.891000747680664,5069.0
2020-03-18,18.530000686645508,17.8700008392334,18.530000686645508,17.920000076293945,10640.0
2020-03-19,18.0,17.299999237060547,18.0,17.334999084472653,12200.0
2020-03-20,17.544000625610348,17.207500457763672,17.544000625610348,17.207500457763672,446.0
2020-03-23,18.14900016784668,17.739999771118164,18.0,18.14900016784668,1013.0
2020-03-24,18.424999237060547,18.059999465942386,18.424999237060547,18.184999465942386,5085.0
2020-03-25,18.829200744628906,18.440099716186523,18.489999771118164,18.829200744628906,4558.0
2020-03-26,18.82999992370605,18.65999984741211,18.729000091552734,18.82999992370605,3504.0
2020-03-27,18.797199249267575,18.6200008392334,18.6294002532959,18.797199249267575,5822.0
2020-03-30,19.149999618530273,18.8799991607666,18.8799991607666,19.04459953308105,9165.0
2020-03-31,19.21999931335449,19.09499931335449,19.15999984741211,19.1200008392334,10128.0
2020-04-01,18.989999771118164,18.920499801635746,18.979000091552734,18.920499801635746,4983.0
2020-04-02,19.07999992370605,18.96999931335449,18.96999931335449,19.008100509643555,3342.0
2020-04-03,18.989999771118164,17.68000030517578,18.98900032043457,18.9192008972168,20348.0
2020-04-06,19.18079948425293,19.07999992370605,19.11000061035156,19.18079948425293,2593.0
2020-04-07,19.218000411987305,19.19849967956543,19.19849967956543,19.214599609375,4249.0
2020-04-08,19.5,19.28499984741211,19.28499984741211,19.4773006439209,3896.0
2020-04-09,20.299999237060547,19.93939971923828,19.948999404907227,20.174999237060547,15042.0
2020-04-13,22.149999618530273,20.0049991607666,20.03499984741211,20.170700073242188,20982.0
2020-04-14,20.26000022888184,18.8700008392334,20.239999771118164,20.13999938964844,155125.0
2020-04-15,20.299999237060547,19.979999542236328,19.979999542236328,20.26499938964844,12837.0
2020-04-16,20.299999237060547,20.277999877929688,20.290000915527344,20.280000686645508,6943.0
2020-04-17,20.479999542236328,20.270000457763672,20.479999542236328,20.34000015258789,6156.0
2020-04-20,20.36000061035156,20.10169982910156,20.36000061035156,20.209999084472656,19510.0
2020-04-21,20.190000534057614,20.100000381469727,20.135799407958984,20.184999465942386,18166.0
2020-04-22,20.209999084472656,20.1299991607666,20.190000534057614,20.209999084472656,5653.0
2020-04-23,20.299999237060547,20.220600128173828,20.26000022888184,20.280000686645508,3092.0
2020-04-24,20.290000915527344,20.239999771118164,20.290000915527344,20.27059936523437,15009.0
2020-04-27,20.209999084472656,20.170000076293945,20.192699432373047,20.17300033569336,7565.0
2020-04-28,20.26000022888184,20.200000762939453,20.209999084472656,20.21999931335449,24054.0
2020-04-29,20.36000061035156,20.23500061035156,20.291900634765625,20.36000061035156,10868.0
2020-04-30,20.36000061035156,20.280000686645508,20.350000381469727,20.31999969482422,8632.0
2020-05-01,20.21999931335449,20.209999084472656,20.21999931335449,20.209999084472656,849.0
2020-05-04,20.281099319458008,20.258100509643555,20.258100509643555,20.281099319458008,8263.0
2020-05-05,20.299999237060547,20.270000457763672,20.270000457763672,20.290000915527344,9856.0
2020-05-06,20.13999938964844,20.104999542236328,20.13999938964844,20.104999542236328,1184.0
2020-05-07,20.19969940185547,20.18000030517578,20.18000030517578,20.18000030517578,5021.0
2020-05-08,20.15999984741211,20.068599700927734,20.15999984741211,20.11000061035156,3866.0
2020-05-11,20.09000015258789,20.01000022888184,20.059799194335934,20.059999465942386,5177.0
2020-05-12,20.190000534057614,20.040000915527344,20.040000915527344,20.13500022888184,4274.0
2020-05-13,20.209999084472656,20.149999618530273,20.149999618530273,20.165000915527344,1665.0
2020-05-14,20.239999771118164,20.1200008392334,20.1200008392334,20.229999542236328,5251.0
2020-05-15,20.190000534057614,20.13999938964844,20.190000534057614,20.13999938964844,2412.0
2020-05-18,20.350000381469727,20.209999084472656,20.34000015258789,20.280000686645508,8116.0
2020-05-19,20.420000076293945,20.229999542236328,20.229999542236328,20.420000076293945,4711.0
2020-05-20,20.540000915527344,20.40399932861328,20.40399932861328,20.51000022888184,6709.0
2020-05-21,20.61000061035156,20.520099639892575,20.55990028381348,20.600000381469727,2587.0
2020-05-22,20.6200008392334,20.55459976196289,20.61000061035156,20.6200008392334,3606.0
2020-05-26,20.670000076293945,20.6299991607666,20.649999618530273,20.670000076293945,4893.0
2020-05-27,20.690000534057614,20.60330009460449,20.649999618530273,20.690000534057614,4111.0
2020-05-28,20.670000076293945,20.61000061035156,20.649999618530273,20.670000076293945,7482.0
2020-05-29,20.768999099731445,20.68409919738769,20.70499992370605,20.75,1728.0
2020-06-01,20.82999992370605,20.686500549316406,20.709999084472656,20.770000457763672,10973.0
2020-06-02,20.875,20.83329963684082,20.849000930786133,20.875,1183.0
2020-06-03,20.96489906311035,20.920000076293945,20.93000030517578,20.934999465942386,13997.0
2020-06-04,20.959999084472656,20.920000076293945,20.950000762939453,20.940000534057614,5126.0
2020-06-05,20.950000762939453,20.80270004272461,20.899999618530273,20.950000762939453,3503.0
2020-06-08,21.030000686645508,20.97769927978516,21.020000457763672,21.020000457763672,3599.0
2020-06-09,21.059999465942386,20.954200744628906,21.059999465942386,21.059999465942386,7092.0
2020-06-10,21.13500022888184,20.975000381469727,21.059999465942386,21.13500022888184,2800.0
2020-06-11,21.020000457763672,20.911699295043945,21.020000457763672,20.920000076293945,5716.0
2020-06-12,21.01000022888184,20.93000030517578,21.01000022888184,20.99239921569824,1183.0
2020-06-15,21.200000762939453,21.01000022888184,21.03899955749512,21.200000762939453,9742.0
2020-06-16,21.290000915527344,21.219900131225586,21.259899139404297,21.290000915527344,3623.0
2020-06-17,21.31999969482422,21.22100067138672,21.239999771118164,21.309999465942386,11169.0
2020-06-18,21.26000022888184,21.18000030517578,21.238100051879886,21.229999542236328,4324.0
2020-06-19,21.270000457763672,21.200000762939453,21.270000457763672,21.21529960632324,2826.0
2020-06-22,21.209999084472656,21.13999938964844,21.200000762939453,21.149999618530273,6478.0
2020-06-23,21.170000076293945,21.104900360107425,21.13409996032715,21.155000686645508,9880.0
2020-06-24,21.1200008392334,21.039499282836914,21.07999992370605,21.084999084472656,18062.0
2020-06-25,21.11000061035156,21.058000564575195,21.09499931335449,21.072200775146484,19357.0
2020-06-26,21.100000381469727,21.059799194335934,21.09000015258789,21.059799194335934,3045.0
2020-06-29,21.17989921569824,21.100000381469727,21.11000061035156,21.165000915527344,7159.0
2020-06-30,21.210599899291992,21.169099807739254,21.18000030517578,21.210599899291992,3033.0
2020-07-01,21.25,21.18000030517578,21.200000762939453,21.2450008392334,4817.0
2020-07-02,21.309999465942386,21.273799896240234,21.299999237060547,21.27750015258789,3594.0
2020-07-08,21.36370086669922,21.34000015258789,21.350000381469727,21.34499931335449,4790.0
2020-07-09,21.420000076293945,21.36000061035156,21.36000061035156,21.40999984741211,2663.0
2020-07-10,21.36079978942871,21.350000381469727,21.350000381469727,21.36079978942871,628.0
2020-07-13,21.40999984741211,21.356000900268555,21.399999618530273,21.36240005493164,5701.0
2020-07-14,21.46999931335449,21.399999618530273,21.399999618530273,21.434999465942386,4369.0
2020-07-15,21.45499992370605,21.42230033874512,21.450000762939453,21.45499992370605,3235.0
2020-07-16,21.52989959716797,21.48189926147461,21.5,21.4950008392334,3802.0
2020-07-17,21.549999237060547,21.524999618530273,21.530000686645508,21.524999618530273,2724.0
2020-07-20,21.559999465942386,21.521699905395508,21.521699905395508,21.545000076293945,8281.0
2020-07-21,21.63999938964844,21.58270072937012,21.61000061035156,21.59189987182617,4452.0
2020-07-22,21.670000076293945,21.614999771118164,21.65999984741211,21.63500022888184,3501.0
2020-07-23,21.670000076293945,21.61000061035156,21.65999984741211,21.645000457763672,7112.0
2020-07-24,21.649999618530273,21.604999542236328,21.649999618530273,21.604999542236328,3334.0
2020-07-27,21.6200008392334,21.56999969482422,21.56999969482422,21.57999992370605,4358.0
2020-07-28,21.670000076293945,21.54759979248047,21.59269905090332,21.57999992370605,7891.0
2020-07-29,21.690000534057614,21.584999084472656,21.61000061035156,21.666099548339844,12196.0
2020-07-30,21.709999084472656,21.63999938964844,21.68000030517578,21.68000030517578,8134.0
2020-07-31,21.75,21.68000030517578,21.71999931335449,21.721200942993164,4644.0
2020-08-03,21.76000022888184,21.700000762939453,21.75,21.7549991607666,4240.0
2020-08-04,21.82999992370605,21.76020050048828,21.809999465942386,21.80500030517578,5021.0
2020-08-05,21.819000244140625,21.78499984741211,21.799999237060547,21.790000915527344,4079.0
2020-08-06,21.8799991607666,21.850000381469727,21.850000381469727,21.86000061035156,28083.0
2020-08-07,21.8799991607666,21.795000076293945,21.8700008392334,21.795000076293945,21645.0
2020-08-10,21.82999992370605,21.739999771118164,21.82999992370605,21.76000022888184,7721.0
2020-08-11,21.709999084472656,21.668699264526367,21.68000030517578,21.674800872802734,20200.0
2020-08-12,21.670000076293945,21.619600296020508,21.670000076293945,21.63999938964844,14397.0
2020-08-13,21.6200008392334,21.519899368286133,21.600000381469727,21.530000686645508,3459.0
2020-08-14,21.57999992370605,21.470500946044922,21.539600372314453,21.475000381469727,11124.0
2020-08-17,21.530000686645508,21.479999542236328,21.51000022888184,21.51499938964844,36403.0
2020-08-18,21.57999992370605,21.540000915527344,21.540000915527344,21.559999465942386,3893.0
2020-08-19,21.579500198364254,21.520000457763672,21.579500198364254,21.520000457763672,5488.0
2020-08-20,21.61000061035156,21.549999237060547,21.57999992370605,21.581300735473636,1613.0
2020-08-21,21.65999984741211,21.56999969482422,21.6299991607666,21.6299991607666,7211.0
2020-08-24,21.599899291992188,21.549999237060547,21.59000015258789,21.55500030517578,17146.0
2020-08-25,21.479999542236328,21.43000030517578,21.46999931335449,21.43000030517578,3801.0
