Date,High,Low,Open,Close,Volume
2019-12-31,24.68000030517578,24.63999938964844,24.65999984741211,24.649999618530273,308300.0
2020-01-02,24.729999542236328,24.68000030517578,24.729999542236328,24.690000534057614,329900.0
2020-01-03,24.71999931335449,24.649999618530273,24.690000534057614,24.690000534057614,245300.0
2020-01-06,24.709999084472656,24.67499923706055,24.690000534057614,24.690000534057614,227300.0
2020-01-07,24.729999542236328,24.70000076293945,24.71999931335449,24.71999931335449,606100.0
2020-01-08,24.75,24.71999931335449,24.75,24.75,382700.0
2020-01-09,24.840999603271484,24.709999084472656,24.75,24.78000068664551,422800.0
2020-01-10,24.790000915527344,24.75,24.790000915527344,24.790000915527344,314100.0
2020-01-13,24.81999969482422,24.78000068664551,24.809999465942386,24.790000915527344,201800.0
2020-01-14,24.809999465942386,24.78000068664551,24.790000915527344,24.809999465942386,1040200.0
2020-01-15,24.82999992370605,24.78000068664551,24.79999923706055,24.79999923706055,593400.0
2020-01-16,24.84499931335449,24.809999465942386,24.82999992370605,24.815000534057614,243100.0
2020-01-17,24.84000015258789,24.79999923706055,24.81999969482422,24.81999969482422,434600.0
2020-01-21,24.783000946044922,24.709999084472656,24.739999771118164,24.709999084472656,551000.0
2020-01-22,24.739999771118164,24.70499992370605,24.739999771118164,24.71999931335449,363400.0
2020-01-23,24.7450008392334,24.68000030517578,24.709999084472656,24.690000534057614,262000.0
2020-01-24,24.71999931335449,24.63999938964844,24.71999931335449,24.65999984741211,854500.0
2020-01-27,24.6200008392334,24.53000068664551,24.6200008392334,24.56999969482422,280700.0
2020-01-28,24.63999938964844,24.54999923706055,24.57999992370605,24.63999938964844,340400.0
2020-01-29,24.65999984741211,24.6299991607666,24.649999618530273,24.65999984741211,351500.0
2020-01-30,24.649999618530273,24.59000015258789,24.6299991607666,24.6299991607666,270800.0
2020-01-31,24.6560001373291,24.56999969482422,24.63999938964844,24.60000038146973,501400.0
2020-02-03,24.649999618530273,24.60000038146973,24.6299991607666,24.649999618530273,671500.0
2020-02-04,24.690000534057614,24.61000061035156,24.690000534057614,24.649999618530273,281900.0
2020-02-05,24.690000534057614,24.63500022888184,24.65999984741211,24.690000534057614,387100.0
2020-02-06,24.709999084472656,24.65999984741211,24.690000534057614,24.709999084472656,472200.0
2020-02-07,24.729999542236328,24.649999618530273,24.649999618530273,24.687000274658203,370800.0
2020-02-10,24.690000534057614,24.670000076293945,24.68000030517578,24.690000534057614,197300.0
2020-02-11,24.71999931335449,24.690000534057614,24.70000076293945,24.70000076293945,173400.0
2020-02-12,24.739999771118164,24.70000076293945,24.709999084472656,24.71999931335449,438400.0
2020-02-13,24.729999542236328,24.690000534057614,24.70000076293945,24.71999931335449,330800.0
2020-02-14,24.739999771118164,24.690000534057614,24.71999931335449,24.71999931335449,297300.0
2020-02-18,24.71500015258789,24.68000030517578,24.690000534057614,24.70000076293945,216300.0
2020-02-19,24.729999542236328,24.70000076293945,24.709999084472656,24.729999542236328,276400.0
2020-02-20,24.739999771118164,24.67099952697754,24.71999931335449,24.709999084472656,304100.0
2020-02-21,24.691999435424805,24.649999618530273,24.690000534057614,24.690000534057614,265900.0
2020-02-24,24.54999923706055,24.433000564575195,24.51000022888184,24.479999542236328,450700.0
2020-02-25,24.59000015258789,24.29999923706055,24.51000022888184,24.38999938964844,443300.0
2020-02-26,24.47599983215332,24.34000015258789,24.3799991607666,24.40999984741211,351800.0
2020-02-27,24.341999053955078,24.15999984741211,24.29999923706055,24.190000534057614,826700.0
2020-02-28,24.190000534057614,23.96999931335449,24.170000076293945,24.11000061035156,1303800.0
2020-03-02,24.30299949645996,24.07999992370605,24.11000061035156,24.270000457763672,1055400.0
2020-03-03,24.36000061035156,24.114999771118164,24.270000457763672,24.21999931335449,1601100.0
2020-03-04,24.3700008392334,24.25,24.25,24.3700008392334,743100.0
2020-03-05,24.29999923706055,24.11000061035156,24.18000030517578,24.190000534057614,352200.0
2020-03-06,24.06999969482422,23.858999252319336,24.01000022888184,24.03000068664551,679400.0
2020-03-09,23.20000076293945,22.209999084472656,22.71999931335449,23.020000457763672,1198900.0
2020-03-10,23.5,23.11000061035156,23.309999465942386,23.479999542236328,416900.0
2020-03-11,23.28000068664551,23.0,23.1200008392334,23.11000061035156,519000.0
2020-03-12,22.899999618530273,21.520000457763672,21.700000762939453,22.44499969482422,1332200.0
2020-03-13,23.0,22.520000457763672,22.520000457763672,22.959999084472656,904200.0
2020-03-16,22.315000534057614,20.059999465942386,20.059999465942386,21.86000061035156,1183700.0
2020-03-17,22.07999992370605,21.489999771118164,21.489999771118164,21.81999969482422,574200.0
2020-03-18,21.6200008392334,20.809999465942386,21.31999969482422,21.1200008392334,978800.0
2020-03-19,21.32999992370605,20.040000915527344,20.5,20.975000381469727,835200.0
2020-03-20,21.13999938964844,20.420000076293945,20.799999237060547,20.56999969482422,629600.0
2020-03-23,20.582000732421875,19.809999465942386,20.209999084472656,20.023000717163086,763700.0
2020-03-24,20.655000686645508,19.851999282836914,20.01000022888184,20.524999618530273,394800.0
2020-03-25,21.41200065612793,20.540000915527344,20.63999938964844,21.100000381469727,328800.0
2020-03-26,22.040000915527344,21.31999969482422,21.31999969482422,21.899999618530273,689600.0
2020-03-27,21.989999771118164,21.280000686645508,21.6200008392334,21.75,880800.0
2020-03-30,22.13400077819824,21.65999984741211,21.71999931335449,22.040000915527344,222500.0
2020-03-31,22.21999931335449,21.90999984741211,22.200000762939453,22.13999938964844,192300.0
2020-04-01,22.01000022888184,21.631000518798828,21.899999618530273,21.790000915527344,196000.0
2020-04-02,22.0,21.530000686645508,21.790000915527344,21.700000762939453,382400.0
2020-04-03,21.920000076293945,21.333999633789066,21.63999938964844,21.46999931335449,320700.0
2020-04-06,21.81999969482422,21.5,21.5,21.799999237060547,342700.0
2020-04-07,22.13999938964844,21.709999084472656,21.940000534057614,21.8700008392334,516900.0
2020-04-08,22.239999771118164,21.92799949645996,21.989999771118164,22.200000762939453,293800.0
2020-04-09,23.45000076293945,22.54999923706055,22.690000534057614,23.09000015258789,2023200.0
2020-04-13,22.98200035095215,22.518999099731445,22.95000076293945,22.670000076293945,589600.0
2020-04-14,23.03499984741211,22.56999969482422,22.670000076293945,22.670000076293945,1005500.0
2020-04-15,22.68000030517578,22.15999984741211,22.40999984741211,22.61000061035156,722900.0
2020-04-16,22.71999931335449,22.450000762939453,22.53000068664551,22.71999931335449,557100.0
2020-04-17,22.867000579833984,22.6200008392334,22.78000068664551,22.770000457763672,543700.0
2020-04-20,22.77199935913086,22.440000534057614,22.57999992370605,22.489999771118164,437900.0
2020-04-21,22.399999618530273,22.149999618530273,22.399999618530273,22.209999084472656,341500.0
2020-04-22,22.40999984741211,22.270000457763672,22.270000457763672,22.34000015258789,197800.0
2020-04-23,22.437000274658203,22.290000915527344,22.420000076293945,22.309999465942386,278400.0
2020-04-24,22.34000015258789,22.190000534057614,22.34000015258789,22.200000762939453,313000.0
2020-04-27,22.309999465942386,22.200000762939453,22.280000686645508,22.25,169500.0
2020-04-28,22.38999938964844,22.200000762939453,22.34000015258789,22.280000686645508,213000.0
2020-04-29,22.51000022888184,22.25,22.31999969482422,22.440000534057614,337500.0
2020-04-30,22.57999992370605,22.3700008392334,22.489999771118164,22.489999771118164,197200.0
2020-05-01,22.450000762939453,22.270000457763672,22.450000762939453,22.280000686645508,229700.0
2020-05-04,22.36199951171875,22.239999771118164,22.299999237060547,22.31999969482422,162500.0
2020-05-05,22.53000068664551,22.350000381469727,22.40999984741211,22.43000030517578,700900.0
2020-05-06,22.459999084472656,22.339000701904297,22.459999084472656,22.38999938964844,514400.0
2020-05-07,22.489999771118164,22.420000076293945,22.440000534057614,22.46999931335449,160800.0
2020-05-08,22.53000068664551,22.36100006103516,22.53000068664551,22.5,404600.0
2020-05-11,22.54999923706055,22.459999084472656,22.489999771118164,22.479999542236328,129900.0
2020-05-12,22.65999984741211,22.399999618530273,22.61000061035156,22.420000076293945,182300.0
2020-05-13,22.440000534057614,22.25,22.420000076293945,22.309999465942386,345300.0
2020-05-14,22.299999237060547,22.149999618530273,22.270000457763672,22.229999542236328,526900.0
2020-05-15,22.299999237060547,22.152000427246094,22.200000762939453,22.25,184800.0
2020-05-18,22.440000534057614,22.290000915527344,22.309999465942386,22.34000015258789,201700.0
2020-05-19,22.420000076293945,22.32999992370605,22.350000381469727,22.399999618530273,283300.0
2020-05-20,22.56999969482422,22.3799991607666,22.38999938964844,22.56999969482422,339800.0
2020-05-21,22.649999618530273,22.46500015258789,22.540000915527344,22.520000457763672,344000.0
2020-05-22,22.6200008392334,22.5,22.51000022888184,22.60000038146973,258600.0
2020-05-26,22.79999923706055,22.63999938964844,22.65999984741211,22.729999542236328,349300.0
2020-05-27,22.82999992370605,22.70499992370605,22.82999992370605,22.76000022888184,687800.0
2020-05-28,22.82999992370605,22.71999931335449,22.76000022888184,22.739999771118164,1669600.0
2020-05-29,22.8799991607666,22.649999618530273,22.729999542236328,22.78000068664551,559700.0
2020-06-01,22.81999969482422,22.75,22.770000457763672,22.81999969482422,277800.0
2020-06-02,23.440000534057614,22.78000068664551,23.114999771118164,23.01000022888184,602300.0
2020-06-03,23.11000061035156,23.03000068664551,23.04999923706055,23.06999969482422,691600.0
2020-06-04,23.13999938964844,22.88999938964844,23.059999465942386,22.95000076293945,395300.0
2020-06-05,23.20000076293945,23.040000915527344,23.040000915527344,23.13999938964844,562700.0
2020-06-08,23.18000030517578,23.059999465942386,23.10000038146973,23.1299991607666,501000.0
2020-06-09,23.06100082397461,22.96999931335449,23.040000915527344,22.989999771118164,219800.0
2020-06-10,23.07999992370605,22.85000038146973,22.979999542236328,22.989999771118164,301700.0
2020-06-11,22.95000076293945,22.54999923706055,22.8799991607666,22.559999465942386,993200.0
2020-06-12,22.8700008392334,22.645000457763672,22.76000022888184,22.71999931335449,521400.0
2020-06-15,22.920000076293945,22.68000030517578,22.70000076293945,22.8700008392334,335600.0
2020-06-16,23.09000015258789,22.940000534057614,23.04999923706055,22.95000076293945,262800.0
2020-06-17,22.989999771118164,22.920000076293945,22.979999542236328,22.920000076293945,139900.0
2020-06-18,22.959999084472656,22.8700008392334,22.88999938964844,22.8799991607666,177628.0
2020-06-19,23.0,22.895000457763672,22.93000030517578,22.90999984741211,271705.0
2020-06-22,22.8700008392334,22.75,22.8700008392334,22.82999992370605,240228.0
2020-06-23,22.88999938964844,22.78009986877441,22.8799991607666,22.86000061035156,318357.0
2020-06-24,22.85000038146973,22.65999984741211,22.85000038146973,22.75,611539.0
2020-06-25,22.78000068664551,22.65999984741211,22.739999771118164,22.739999771118164,519564.0
2020-06-26,22.76989936828613,22.636999130249023,22.739999771118164,22.66510009765625,434326.0
2020-06-29,22.68000030517578,22.57999992370605,22.670000076293945,22.60000038146973,515571.0
2020-06-30,22.709999084472656,22.60000038146973,22.61000061035156,22.690000534057614,260643.0
2020-07-01,22.790000915527344,22.70000076293945,22.70000076293945,22.770000457763672,294075.0
2020-07-02,22.86000061035156,22.8031005859375,22.81999969482422,22.84000015258789,220733.0
2020-07-06,22.90999984741211,22.84000015258789,22.88999938964844,22.90999984741211,118300.0
2020-07-07,22.93000030517578,22.84000015258789,22.8700008392334,22.8700008392334,330900.0
2020-07-08,22.899999618530273,22.790000915527344,22.85000038146973,22.79999923706055,330200.0
2020-07-09,22.84000015258789,22.76000022888184,22.81999969482422,22.790000915527344,287800.0
2020-07-10,22.84000015258789,22.770000457763672,22.770000457763672,22.84000015258789,204700.0
2020-07-13,22.93000030517578,22.809999465942386,22.86000061035156,22.84000015258789,190600.0
2020-07-14,22.93000030517578,22.82999992370605,22.84000015258789,22.88999938964844,194700.0
2020-07-15,23.040000915527344,22.920000076293945,22.96999931335449,23.01000022888184,247600.0
2020-07-16,23.02300071716309,22.93000030517578,22.96999931335449,23.020000457763672,226000.0
2020-07-17,23.059999465942386,22.993000030517575,23.01000022888184,23.059999465942386,143400.0
2020-07-20,23.04999923706055,22.979999542236328,22.989999771118164,23.04999923706055,219700.0
2020-07-21,23.10000038146973,23.03899955749512,23.040000915527344,23.10000038146973,358500.0
2020-07-22,23.11000061035156,23.07999992370605,23.07999992370605,23.11000061035156,167900.0
2020-07-23,23.1299991607666,23.020000457763672,23.10000038146973,23.06999969482422,168600.0
2020-07-24,23.10000038146973,23.03000068664551,23.03000068664551,23.09000015258789,119800.0
2020-07-27,23.09000015258789,23.06999969482422,23.09000015258789,23.09000015258789,128800.0
2020-07-28,23.09700012207031,23.059999465942386,23.07999992370605,23.06999969482422,115800.0
2020-07-29,23.11000061035156,23.059999465942386,23.07999992370605,23.11000061035156,90300.0
2020-07-30,23.13500022888184,23.07900047302246,23.07999992370605,23.13500022888184,215700.0
2020-07-31,23.15999984741211,23.059999465942386,23.1299991607666,23.15999984741211,223100.0
2020-08-03,23.20000076293945,23.1299991607666,23.15999984741211,23.15999984741211,260200.0
2020-08-04,23.15999984741211,23.10000038146973,23.10000038146973,23.13999938964844,141300.0
2020-08-05,23.15999984741211,23.10300064086914,23.149999618530273,23.149999618530273,137700.0
2020-08-06,23.15999984741211,23.1200008392334,23.13999938964844,23.15999984741211,229400.0
2020-08-07,23.149999618530273,23.1200008392334,23.1200008392334,23.13999938964844,129200.0
2020-08-10,23.143999099731445,23.09000015258789,23.1200008392334,23.13999938964844,180100.0
2020-08-11,23.13999938964844,23.06999969482422,23.13999938964844,23.07999992370605,124400.0
2020-08-12,23.10000038146973,23.059999465942386,23.10000038146973,23.07999992370605,166800.0
2020-08-13,23.10000038146973,23.03000068664551,23.040000915527344,23.04999923706055,91400.0
2020-08-14,23.03499984741211,22.96999931335449,23.020000457763672,22.989999771118164,176700.0
2020-08-17,23.06999969482422,22.96999931335449,22.989999771118164,23.06999969482422,108600.0
2020-08-18,23.10000038146973,23.04999923706055,23.04999923706055,23.09000015258789,229600.0
2020-08-19,23.10000038146973,23.040000915527344,23.09000015258789,23.06999969482422,155100.0
2020-08-20,23.10000038146973,23.040000915527344,23.040000915527344,23.10000038146973,140400.0
2020-08-21,23.11000061035156,23.059999465942386,23.09000015258789,23.10000038146973,219600.0
2020-08-24,23.06999969482422,23.03499984741211,23.04999923706055,23.059999465942386,173800.0
2020-08-25,23.07999992370605,23.059999465942386,23.059999465942386,23.076099395751953,35419.0
