Date,High,Low,Open,Close,Volume
2019-09-27,25.01000022888184,25.01000022888184,25.01000022888184,25.01000022888184,200.0
2019-09-30,25.01000022888184,25.01000022888184,25.01000022888184,25.01000022888184,0.0
2019-10-01,25.01000022888184,25.01000022888184,25.01000022888184,25.01000022888184,0.0
2019-10-02,25.03000068664551,25.03000068664551,25.03000068664551,25.03000068664551,500.0
2019-10-03,25.03000068664551,25.03000068664551,25.03000068664551,25.03000068664551,0.0
2019-10-04,25.03000068664551,25.03000068664551,25.03000068664551,25.03000068664551,0.0
2019-10-07,25.03000068664551,25.03000068664551,25.03000068664551,25.03000068664551,0.0
2019-10-08,25.03000068664551,25.03000068664551,25.03000068664551,25.03000068664551,0.0
2019-10-09,25.09600067138672,25.082000732421875,25.09600067138672,25.084999084472656,1300.0
2019-10-10,25.084999084472656,25.084999084472656,25.084999084472656,25.084999084472656,0.0
2019-10-11,25.084999084472656,25.084999084472656,25.084999084472656,25.084999084472656,0.0
2019-10-14,25.084999084472656,25.084999084472656,25.084999084472656,25.084999084472656,0.0
2019-10-15,25.13999938964844,25.06999969482422,25.06999969482422,25.07999992370605,15000.0
2019-10-16,25.07999992370605,25.07999992370605,25.07999992370605,25.07999992370605,400.0
2019-10-17,25.07999992370605,25.07999992370605,25.07999992370605,25.07999992370605,100.0
2019-10-18,25.07999992370605,25.07999992370605,25.07999992370605,25.07999992370605,0.0
2019-10-21,25.03000068664551,25.011999130249023,25.011999130249023,25.01499938964844,1100.0
2019-10-22,25.01000022888184,25.01000022888184,25.01000022888184,25.01000022888184,400.0
2019-10-23,25.040000915527344,25.01499938964844,25.03000068664551,25.033000946044922,2400.0
2019-10-24,25.03000068664551,24.99600028991699,25.03000068664551,24.99600028991699,2700.0
2019-10-25,24.979999542236328,24.979999542236328,24.979999542236328,24.979999542236328,1200.0
2019-10-28,25.01000022888184,25.0,25.01000022888184,25.01000022888184,4000.0
2019-10-29,25.03000068664551,25.020000457763672,25.03000068664551,25.020000457763672,1000.0
2019-10-30,25.040000915527344,24.9950008392334,24.9950008392334,25.03000068664551,6700.0
2019-10-31,25.07999992370605,25.05900001525879,25.05900001525879,25.07999992370605,8400.0
2019-11-01,25.048999786376953,25.048999786376953,25.048999786376953,25.048999786376953,1600.0
2019-11-04,25.048999786376953,25.048999786376953,25.048999786376953,25.048999786376953,0.0
2019-11-05,25.040000915527344,25.040000915527344,25.040000915527344,25.040000915527344,100.0
2019-11-06,25.059999465942386,25.059999465942386,25.059999465942386,25.059999465942386,19700.0
2019-11-07,25.040000915527344,25.013999938964844,25.040000915527344,25.020000457763672,3300.0
2019-11-08,25.035999298095703,25.035999298095703,25.035999298095703,25.035999298095703,200.0
2019-11-11,25.035999298095703,25.035999298095703,25.035999298095703,25.035999298095703,100.0
2019-11-12,25.035999298095703,25.035999298095703,25.035999298095703,25.035999298095703,0.0
2019-11-13,25.04999923706055,25.040000915527344,25.042999267578125,25.04999923706055,2700.0
2019-11-14,25.04999923706055,25.04999923706055,25.04999923706055,25.04999923706055,800.0
2019-11-15,25.04999923706055,25.04999923706055,25.04999923706055,25.04999923706055,300.0
2019-11-18,25.02300071716309,25.0049991607666,25.02300071716309,25.01499938964844,2200.0
2019-11-19,25.04999923706055,25.01499938964844,25.04999923706055,25.01499938964844,2900.0
2019-11-20,25.059999465942386,25.03400039672852,25.03400039672852,25.03499984741211,14000.0
2019-11-21,25.02799987792969,25.01499938964844,25.01499938964844,25.02799987792969,300.0
2019-11-22,25.040000915527344,25.020000457763672,25.03000068664551,25.020000457763672,2000.0
2019-11-25,25.03000068664551,25.03000068664551,25.03000068664551,25.03000068664551,16200.0
2019-11-26,25.04999923706055,25.03499984741211,25.041000366210934,25.03499984741211,2000.0
2019-11-27,25.04999923706055,25.04999923706055,25.04999923706055,25.04999923706055,8100.0
2019-11-29,25.059999465942386,25.059999465942386,25.059999465942386,25.059999465942386,100.0
2019-12-02,25.040000915527344,25.020000457763672,25.020000457763672,25.040000915527344,1000.0
2019-12-03,25.06999969482422,25.059999465942386,25.059999465942386,25.06999969482422,500.0
2019-12-04,25.06999969482422,25.06999969482422,25.06999969482422,25.06999969482422,0.0
2019-12-05,25.06999969482422,25.04599952697754,25.06999969482422,25.05500030517578,600.0
2019-12-06,25.07999992370605,25.059999465942386,25.07999992370605,25.059999465942386,1400.0
2019-12-09,25.09000015258789,25.065000534057614,25.084999084472656,25.065000534057614,500.0
2019-12-10,25.09000015258789,25.065000534057614,25.06999969482422,25.065000534057614,1100.0
2019-12-11,25.10000038146973,25.059999465942386,25.10000038146973,25.07999992370605,1500.0
2019-12-12,25.09000015258789,25.084999084472656,25.08699989318848,25.084999084472656,800.0
2019-12-13,25.10000038146973,25.084999084472656,25.084999084472656,25.09000015258789,3000.0
2019-12-16,25.09499931335449,25.08699989318848,25.08699989318848,25.09499931335449,1000.0
2019-12-17,25.11000061035156,25.09900093078613,25.10000038146973,25.104999542236328,11900.0
2019-12-18,25.11000061035156,25.10300064086914,25.11000061035156,25.104999542236328,7900.0
2019-12-19,25.11000061035156,25.10000038146973,25.10000038146973,25.10000038146973,9800.0
2019-12-20,25.11000061035156,25.09499931335449,25.10000038146973,25.09499931335449,4000.0
2019-12-23,25.09000015258789,25.06999969482422,25.09000015258789,25.07500076293945,13600.0
2019-12-24,25.07500076293945,25.07500076293945,25.07500076293945,25.07500076293945,0.0
2019-12-26,25.07699966430664,25.065000534057614,25.07699966430664,25.065000534057614,100.0
2019-12-27,25.06999969482422,25.04999923706055,25.06599998474121,25.06999969482422,2300.0
2019-12-30,25.06999969482422,25.05500030517578,25.06999969482422,25.059999465942386,2400.0
2019-12-31,25.10000038146973,25.07500076293945,25.10000038146973,25.07500076293945,5500.0
2020-01-02,25.09000015258789,25.084999084472656,25.084999084472656,25.084999084472656,4800.0
2020-01-03,25.1299991607666,25.093000411987305,25.1299991607666,25.10000038146973,3700.0
2020-01-06,25.13999938964844,25.11000061035156,25.1299991607666,25.1299991607666,34600.0
2020-01-07,25.13999938964844,25.1200008392334,25.13999938964844,25.1200008392334,500.0
2020-01-08,25.15999984741211,25.13999938964844,25.149999618530273,25.149999618530273,12100.0
2020-01-09,25.13999938964844,25.131999969482425,25.13999938964844,25.13500022888184,4700.0
2020-01-10,25.13500022888184,25.13500022888184,25.13500022888184,25.13500022888184,0.0
2020-01-13,25.15999984741211,25.1299991607666,25.15999984741211,25.1299991607666,6900.0
2020-01-14,25.149999618530273,25.13999938964844,25.13999938964844,25.13999938964844,1100.0
2020-01-15,25.170000076293945,25.1299991607666,25.170000076293945,25.15999984741211,13600.0
2020-01-16,25.18000030517578,25.17700004577637,25.18000030517578,25.18000030517578,2000.0
2020-01-17,25.18000030517578,25.15999984741211,25.16399955749512,25.15999984741211,4800.0
2020-01-21,25.15200042724609,25.149999618530273,25.15200042724609,25.149999618530273,200.0
2020-01-22,25.18000030517578,25.170000076293945,25.170000076293945,25.18000030517578,2700.0
2020-01-23,25.190000534057614,25.17700004577637,25.17700004577637,25.17700004577637,3400.0
2020-01-24,25.20000076293945,25.18000030517578,25.187000274658203,25.18000030517578,800.0
2020-01-27,25.209999084472656,25.19599914550781,25.19700050354004,25.19599914550781,4800.0
2020-01-28,25.209999084472656,25.170000076293945,25.209999084472656,25.18899917602539,700.0
2020-01-29,25.229999542236328,25.20400047302246,25.20400047302246,25.21500015258789,4100.0
2020-01-30,25.229999542236328,25.21500015258789,25.229999542236328,25.21500015258789,6900.0
2020-01-31,25.229999542236328,25.209999084472656,25.209999084472656,25.21500015258789,2600.0
2020-02-03,25.21999931335449,25.20499992370605,25.21999931335449,25.20499992370605,1900.0
2020-02-04,25.20499992370605,25.20499992370605,25.20499992370605,25.20499992370605,0.0
2020-02-05,25.20000076293945,25.184999465942386,25.20000076293945,25.184999465942386,1800.0
2020-02-06,25.20000076293945,25.17499923706055,25.20000076293945,25.17499923706055,200.0
2020-02-07,25.21999931335449,25.20000076293945,25.21999931335449,25.20000076293945,800.0
2020-02-10,25.190000534057614,25.18400001525879,25.18400001525879,25.190000534057614,300.0
2020-02-11,25.21999931335449,25.19499969482422,25.208999633789066,25.19499969482422,5600.0
2020-02-12,25.208999633789066,25.170000076293945,25.208999633789066,25.190000534057614,2500.0
2020-02-13,25.209999084472656,25.190000534057614,25.20000076293945,25.190000534057614,2000.0
2020-02-14,25.21999931335449,25.21299934387207,25.21999931335449,25.21500015258789,4300.0
2020-02-18,25.21999931335449,25.20499992370605,25.21999931335449,25.20499992370605,6400.0
2020-02-19,25.239999771118164,25.21199989318848,25.239999771118164,25.239999771118164,29600.0
2020-02-20,25.239999771118164,25.22599983215332,25.239999771118164,25.229999542236328,2300.0
2020-02-21,25.270000457763672,25.25,25.26000022888184,25.25,1300.0
2020-02-24,25.290000915527344,25.270000457763672,25.290000915527344,25.270000457763672,10500.0
2020-02-25,25.290000915527344,25.270000457763672,25.290000915527344,25.270000457763672,2600.0
2020-02-26,25.290000915527344,25.270000457763672,25.290000915527344,25.270000457763672,300.0
2020-02-27,25.29999923706055,25.261999130249023,25.28000068664551,25.270000457763672,9200.0
2020-02-28,25.270000457763672,25.26000022888184,25.270000457763672,25.261999130249023,1600.0
2020-03-02,25.261999130249023,25.261999130249023,25.261999130249023,25.261999130249023,0.0
2020-03-03,25.31999969482422,25.29199981689453,25.31999969482422,25.29999923706055,2200.0
2020-03-04,25.295000076293945,25.28000068664551,25.28000068664551,25.295000076293945,3300.0
2020-03-05,25.32999992370605,25.290000915527344,25.32999992370605,25.31999969482422,3300.0
2020-03-06,25.34000015258789,25.34000015258789,25.34000015258789,25.34000015258789,6200.0
2020-03-09,25.43000030517578,25.399999618530273,25.420000076293945,25.399999618530273,600.0
2020-03-10,25.357999801635746,25.309999465942386,25.357999801635746,25.309999465942386,1100.0
2020-03-11,25.29999923706055,25.229999542236328,25.29999923706055,25.229999542236328,4300.0
2020-03-12,24.90999984741211,24.88999938964844,24.90699958801269,24.88999938964844,7000.0
2020-03-13,25.11000061035156,25.020000457763672,25.11000061035156,25.020000457763672,1600.0
2020-03-16,24.920000076293945,24.88999938964844,24.90999984741211,24.88999938964844,1400.0
2020-03-17,24.856000900268555,24.81999969482422,24.856000900268555,24.834999084472656,4200.0
2020-03-18,24.739999771118164,24.6200008392334,24.729999542236328,24.6200008392334,2100.0
2020-03-19,24.6200008392334,24.26499938964844,24.36000061035156,24.26499938964844,12600.0
2020-03-20,24.28000068664551,24.114999771118164,24.28000068664551,24.114999771118164,1000.0
2020-03-23,24.209999084472656,23.78499984741211,24.084999084472656,23.98500061035156,3500.0
2020-03-24,24.375999450683594,24.33799934387207,24.34000015258789,24.33799934387207,1200.0
2020-03-25,24.85000038146973,24.649999618530273,24.790000915527344,24.649999618530273,1200.0
2020-03-26,25.10000038146973,24.8799991607666,25.06999969482422,24.895000457763672,2100.0
2020-03-27,25.06999969482422,25.00200080871582,25.0049991607666,25.06999969482422,13000.0
2020-03-30,25.06999969482422,24.89699935913086,25.06999969482422,24.89699935913086,1700.0
2020-03-31,25.059999465942386,24.854999542236328,25.02799987792969,24.854999542236328,3000.0
2020-04-01,24.899999618530273,24.71999931335449,24.899999618530273,24.71999931335449,600.0
2020-04-02,24.86000061035156,24.649999618530273,24.84000015258789,24.649999618530273,2600.0
2020-04-03,24.85000038146973,24.75,24.85000038146973,24.75,2400.0
2020-04-06,24.93000030517578,24.85000038146973,24.899999618530273,24.90500068664551,2800.0
2020-04-07,24.90500068664551,24.90500068664551,24.90500068664551,24.90500068664551,500.0
2020-04-08,24.979999542236328,24.97500038146973,24.979999542236328,24.97500038146973,600.0
2020-04-09,25.07999992370605,24.795000076293945,25.07999992370605,24.934999465942386,6100.0
2020-04-13,25.03000068664551,24.81999969482422,25.03000068664551,25.0049991607666,3800.0
2020-04-14,25.03499984741211,24.98900032043457,24.98900032043457,25.03499984741211,1100.0
2020-04-15,25.02899932861328,25.01499938964844,25.02899932861328,25.01499938964844,400.0
2020-04-16,25.01499938964844,25.01499938964844,25.01499938964844,25.01499938964844,0.0
2020-04-17,25.059999465942386,24.95000076293945,25.059999465942386,24.95000076293945,4500.0
2020-04-20,25.0,24.88999938964844,25.0,24.88999938964844,7900.0
2020-04-21,25.0,24.774999618530273,24.97500038146973,24.899999618530273,3300.0
2020-04-22,24.979999542236328,24.920000076293945,24.979999542236328,24.920000076293945,2800.0
2020-04-23,24.989999771118164,24.92499923706055,24.979999542236328,24.92499923706055,28100.0
2020-04-24,24.94499969482422,24.920000076293945,24.920000076293945,24.920000076293945,4000.0
2020-04-27,25.020000457763672,24.88500022888184,25.0,24.88500022888184,1400.0
2020-04-28,24.88500022888184,24.88500022888184,24.88500022888184,24.88500022888184,600.0
2020-04-29,24.989999771118164,24.78000068664551,24.78000068664551,24.8799991607666,1000.0
2020-04-30,24.979999542236328,24.78000068664551,24.979999542236328,24.96500015258789,7100.0
2020-05-01,25.020000457763672,24.90500068664551,25.020000457763672,24.90500068664551,900.0
2020-05-04,25.06999969482422,24.79999923706055,24.79999923706055,25.06999969482422,9900.0
2020-05-05,25.059999465942386,24.90500068664551,25.059999465942386,24.90500068664551,800.0
2020-05-06,25.059999465942386,24.90500068664551,24.940000534057614,24.90500068664551,800.0
2020-05-07,25.09000015258789,24.90900039672852,24.90900039672852,24.96999931335449,1200.0
2020-05-08,25.104999542236328,24.86599922180176,25.09000015258789,25.0,4700.0
2020-05-11,25.020000457763672,24.99799919128418,24.99799919128418,25.020000457763672,1700.0
2020-05-12,25.149999618530273,25.02199935913086,25.09000015258789,25.02199935913086,13200.0
2020-05-13,25.149999618530273,25.03499984741211,25.13999938964844,25.125,6500.0
2020-05-14,25.18000030517578,25.065000534057614,25.1299991607666,25.065000534057614,9500.0
2020-05-15,25.09000015258789,25.06999969482422,25.09000015258789,25.06999969482422,1200.0
2020-05-18,25.13400077819824,25.114999771118164,25.13400077819824,25.114999771118164,4100.0
2020-05-19,25.190000534057614,25.1200008392334,25.190000534057614,25.1200008392334,4300.0
2020-05-20,25.20000076293945,25.15299987792969,25.18000030517578,25.165000915527344,3500.0
2020-05-21,25.28000068664551,25.170000076293945,25.28000068664551,25.170000076293945,2000.0
2020-05-22,25.184999465942386,25.170000076293945,25.170000076293945,25.184999465942386,2000.0
2020-05-26,25.26000022888184,25.18199920654297,25.229999542236328,25.207000732421875,197500.0
2020-05-27,25.270000457763672,25.11000061035156,25.270000457763672,25.19499969482422,38700.0
2020-05-28,25.26000022888184,25.11000061035156,25.11000061035156,25.190000534057614,14300.0
2020-05-29,25.27899932861328,25.20000076293945,25.226999282836914,25.20000076293945,3700.0
2020-06-01,25.29999923706055,25.13999938964844,25.28000068664551,25.22100067138672,29800.0
2020-06-02,25.290000915527344,25.211000442504886,25.211000442504886,25.21500015258789,2800.0
2020-06-03,25.268999099731445,25.21999931335449,25.26000022888184,25.2450008392334,13700.0
2020-06-04,25.270000457763672,25.20499992370605,25.270000457763672,25.20499992370605,600.0
2020-06-05,25.27599906921387,25.20499992370605,25.270000457763672,25.20499992370605,5600.0
2020-06-08,25.28899955749512,25.21500015258789,25.28899955749512,25.21500015258789,1300.0
2020-06-09,25.290000915527344,25.13999938964844,25.290000915527344,25.21999931335449,13400.0
2020-06-10,25.290000915527344,25.19499969482422,25.290000915527344,25.21999931335449,10800.0
2020-06-11,25.290000915527344,25.23500061035156,25.290000915527344,25.23500061035156,2100.0
2020-06-12,25.290000915527344,25.22500038146973,25.290000915527344,25.22500038146973,3300.0
2020-06-15,25.309999465942386,25.229999542236328,25.309999465942386,25.229999542236328,10300.0
2020-06-16,25.29999923706055,25.19499969482422,25.22500038146973,25.26000022888184,8400.0
2020-06-17,25.28000068664551,25.149999618530273,25.270000457763672,25.21999931335449,900.0
2020-06-18,25.27400016784668,25.160999298095703,25.170000076293945,25.22500038146973,5700.0
2020-06-19,25.270999908447266,25.149999618530273,25.149999618530273,25.21999931335449,11200.0
2020-06-22,25.309999465942386,25.209999084472656,25.309999465942386,25.209999084472656,5500.0
2020-06-23,25.270000457763672,25.209999084472656,25.226999282836914,25.209999084472656,600.0
2020-06-24,25.270000457763672,25.18199920654297,25.270000457763672,25.21500015258789,3800.0
2020-06-25,25.290000915527344,25.22500038146973,25.23900032043457,25.22500038146973,500.0
2020-06-26,25.270000457763672,25.21500015258789,25.270000457763672,25.21500015258789,4800.0
2020-06-29,25.28000068664551,25.19499969482422,25.19499969482422,25.22500038146973,7800.0
2020-06-30,25.28000068664551,25.21999931335449,25.238000869750977,25.21999931335449,4800.0
2020-07-01,25.290000915527344,25.21999931335449,25.28000068664551,25.21999931335449,2400.0
2020-07-02,25.28000068664551,25.23500061035156,25.270000457763672,25.23500061035156,900.0
2020-07-06,25.298999786376953,25.233999252319336,25.23500061035156,25.2549991607666,600.0
2020-07-07,25.291000366210934,25.23900032043457,25.2549991607666,25.2549991607666,8300.0
2020-07-08,25.290000915527344,25.2549991607666,25.290000915527344,25.2549991607666,6500.0
2020-07-09,25.298999786376953,25.246999740600586,25.246999740600586,25.274999618530273,3600.0
2020-07-10,25.309999465942386,25.267000198364254,25.290000915527344,25.28499984741211,9400.0
2020-07-13,25.34900093078613,25.28199958801269,25.309999465942386,25.30500030517578,9300.0
2020-07-14,25.3129997253418,25.309999465942386,25.3129997253418,25.309999465942386,4000.0
2020-07-15,25.3799991607666,25.31999969482422,25.3799991607666,25.31999969482422,3000.0
2020-07-16,25.3799991607666,25.34900093078613,25.351999282836914,25.375,3700.0
2020-07-17,25.3799991607666,25.36000061035156,25.36000061035156,25.37899971008301,5400.0
2020-07-20,25.399999618530273,25.36000061035156,25.3799991607666,25.3700008392334,16900.0
2020-07-21,25.415000915527344,25.25,25.28000068664551,25.32500076293945,143200.0
2020-07-22,25.399999618530273,25.32999992370605,25.3700008392334,25.32999992370605,7500.0
2020-07-23,25.399999618530273,25.32999992370605,25.392000198364254,25.32999992370605,5600.0
2020-07-24,25.40500068664551,25.322999954223636,25.38999938964844,25.40500068664551,9000.0
2020-07-27,25.420000076293945,25.34000015258789,25.40999984741211,25.34499931335449,8400.0
2020-07-28,25.43000030517578,25.38999938964844,25.399999618530273,25.38999938964844,137800.0
2020-07-29,25.51000022888184,25.381000518798828,25.51000022888184,25.395000457763672,17200.0
2020-07-30,25.43899917602539,25.395000457763672,25.43000030517578,25.395000457763672,2000.0
2020-07-31,25.458999633789066,25.40500068664551,25.45000076293945,25.40500068664551,900.0
2020-08-03,25.45000076293945,25.40500068664551,25.433000564575195,25.440000534057614,4200.0
2020-08-04,25.46999931335449,25.39299964904785,25.459999084472656,25.44899940490723,19400.0
2020-08-05,25.46999931335449,25.395000457763672,25.459999084472656,25.40999984741211,8300.0
2020-08-06,25.46999931335449,25.45000076293945,25.459999084472656,25.46999931335449,7100.0
2020-08-07,25.47900009155273,25.415000915527344,25.46999931335449,25.415000915527344,1500.0
2020-08-10,25.489999771118164,25.45000076293945,25.46999931335449,25.45000076293945,11400.0
2020-08-11,25.46999931335449,25.440000534057614,25.46999931335449,25.44499969482422,4200.0
2020-08-12,25.45199966430664,25.43400001525879,25.44300079345703,25.45000076293945,2400.0
2020-08-13,25.489999771118164,25.45199966430664,25.45199966430664,25.459999084472656,4100.0
2020-08-14,25.479999542236328,25.434999465942386,25.434999465942386,25.45000076293945,600.0
2020-08-17,25.46999931335449,25.434999465942386,25.45000076293945,25.44499969482422,7700.0
2020-08-18,25.459999084472656,25.433000564575195,25.434999465942386,25.45000076293945,3900.0
2020-08-19,25.489999771118164,25.4379997253418,25.489999771118164,25.44499969482422,14000.0
2020-08-20,25.459999084472656,25.43000030517578,25.459999084472656,25.44499969482422,4000.0
2020-08-21,25.45499992370605,25.441999435424805,25.45000076293945,25.44499969482422,2000.0
2020-08-24,25.41900062561035,25.35000038146973,25.40999984741211,25.399999618530273,3800.0
