Date,High,Low,Open,Close,Volume
2019-09-25,25.021900177001953,25.021900177001953,25.021900177001953,25.021900177001953,0.0
2019-09-26,25.021900177001953,25.021900177001953,25.021900177001953,25.021900177001953,335.0
2019-09-27,25.021900177001953,25.021900177001953,25.021900177001953,25.021900177001953,0.0
2019-09-30,25.021900177001953,25.021900177001953,25.021900177001953,25.021900177001953,0.0
2019-10-01,25.021900177001953,25.021900177001953,25.021900177001953,25.021900177001953,0.0
2019-10-02,25.09000015258789,25.09000015258789,25.09000015258789,25.09000015258789,339.0
2019-10-03,25.09000015258789,25.09000015258789,25.09000015258789,25.09000015258789,0.0
2019-10-04,25.09000015258789,25.09000015258789,25.09000015258789,25.09000015258789,0.0
2019-10-07,25.09000015258789,25.09000015258789,25.09000015258789,25.09000015258789,0.0
2019-10-08,25.09000015258789,25.09000015258789,25.09000015258789,25.09000015258789,0.0
2019-10-09,25.09000015258789,25.09000015258789,25.09000015258789,25.09000015258789,0.0
2019-10-10,25.09000015258789,25.09000015258789,25.09000015258789,25.09000015258789,0.0
2019-10-11,25.09000015258789,25.09000015258789,25.09000015258789,25.09000015258789,0.0
2019-10-14,25.09000015258789,25.09000015258789,25.09000015258789,25.09000015258789,0.0
2019-10-15,25.09000015258789,25.09000015258789,25.09000015258789,25.09000015258789,0.0
2019-10-16,25.09000015258789,25.09000015258789,25.09000015258789,25.09000015258789,0.0
2019-10-17,25.09000015258789,25.09000015258789,25.09000015258789,25.09000015258789,0.0
2019-10-18,25.09000015258789,25.09000015258789,25.09000015258789,25.09000015258789,0.0
2019-10-21,25.09000015258789,25.09000015258789,25.09000015258789,25.09000015258789,0.0
2019-10-22,25.09000015258789,25.09000015258789,25.09000015258789,25.09000015258789,0.0
2019-10-23,25.09000015258789,25.09000015258789,25.09000015258789,25.09000015258789,0.0
2019-10-24,25.09000015258789,25.09000015258789,25.09000015258789,25.09000015258789,0.0
2019-10-25,25.09000015258789,25.09000015258789,25.09000015258789,25.09000015258789,0.0
2019-10-28,25.09000015258789,25.09000015258789,25.09000015258789,25.09000015258789,0.0
2019-10-29,24.8700008392334,24.858800888061523,24.858800888061523,24.8700008392334,1104.0
2019-10-30,24.8700008392334,24.8700008392334,24.8700008392334,24.8700008392334,2000.0
2019-10-31,24.8700008392334,24.8700008392334,24.8700008392334,24.8700008392334,0.0
2019-11-01,24.8700008392334,24.8700008392334,24.8700008392334,24.8700008392334,0.0
2019-11-04,24.95000076293945,24.940000534057614,24.940000534057614,24.95000076293945,501.0
2019-11-05,24.8700008392334,24.8700008392334,24.8700008392334,24.8700008392334,231.0
2019-11-06,24.8700008392334,24.8700008392334,24.8700008392334,24.8700008392334,0.0
2019-11-07,24.8700008392334,24.8700008392334,24.8700008392334,24.8700008392334,0.0
2019-11-08,24.8700008392334,24.8700008392334,24.8700008392334,24.8700008392334,0.0
2019-11-11,24.8700008392334,24.8700008392334,24.8700008392334,24.8700008392334,0.0
2019-11-12,24.8700008392334,24.8700008392334,24.8700008392334,24.8700008392334,0.0
2019-11-13,24.8799991607666,24.81999969482422,24.81999969482422,24.82999992370605,27896.0
2019-11-14,24.86709976196289,24.86709976196289,24.86709976196289,24.86709976196289,2000.0
2019-11-15,24.86709976196289,24.86709976196289,24.86709976196289,24.86709976196289,0.0
2019-11-18,24.86000061035156,24.84000015258789,24.86000061035156,24.84000015258789,605.0
2019-11-19,24.86000061035156,24.84000015258789,24.85000038146973,24.84000015258789,5905.0
2019-11-20,24.940000534057614,24.90999984741211,24.93000030517578,24.940000534057614,6115.0
2019-11-21,24.940000534057614,24.940000534057614,24.940000534057614,24.940000534057614,0.0
2019-11-22,24.940000534057614,24.940000534057614,24.940000534057614,24.940000534057614,0.0
2019-11-25,24.940000534057614,24.940000534057614,24.940000534057614,24.940000534057614,0.0
2019-11-26,24.90999984741211,24.899999618530273,24.899999618530273,24.90999984741211,2900.0
2019-11-27,24.90999984741211,24.90999984741211,24.90999984741211,24.90999984741211,0.0
2019-11-29,24.90999984741211,24.90999984741211,24.90999984741211,24.90999984741211,0.0
2019-12-02,24.90999984741211,24.90999984741211,24.90999984741211,24.90999984741211,0.0
2019-12-03,24.90999984741211,24.90999984741211,24.90999984741211,24.90999984741211,0.0
2019-12-04,24.90999984741211,24.90999984741211,24.90999984741211,24.90999984741211,0.0
2019-12-05,24.90999984741211,24.90999984741211,24.90999984741211,24.90999984741211,0.0
2019-12-06,24.93000030517578,24.90500068664551,24.921300888061523,24.90500068664551,1300.0
2019-12-09,24.946199417114254,24.934999465942386,24.946199417114254,24.934999465942386,100.0
2019-12-10,24.940000534057614,24.940000534057614,24.940000534057614,24.940000534057614,249.0
2019-12-11,24.940000534057614,24.940000534057614,24.940000534057614,24.940000534057614,0.0
2019-12-12,24.959999084472656,24.940000534057614,24.959999084472656,24.940000534057614,498.0
2019-12-13,24.940000534057614,24.940000534057614,24.940000534057614,24.940000534057614,0.0
2019-12-16,24.940000534057614,24.940000534057614,24.940000534057614,24.940000534057614,0.0
2019-12-17,25.0,24.97500038146973,24.98900032043457,24.97500038146973,10003.0
2019-12-18,24.97500038146973,24.97500038146973,24.97500038146973,24.97500038146973,0.0
2019-12-19,24.979999542236328,24.97649955749512,24.979999542236328,24.979999542236328,345.0
2019-12-20,24.94650077819824,24.940000534057614,24.94650077819824,24.940000534057614,805.0
2019-12-23,24.940000534057614,24.940000534057614,24.940000534057614,24.940000534057614,0.0
2019-12-24,24.940000534057614,24.940000534057614,24.940000534057614,24.940000534057614,0.0
2019-12-26,24.940000534057614,24.93000030517578,24.940000534057614,24.93000030517578,416.0
2019-12-27,24.95000076293945,24.934999465942386,24.95000076293945,24.934999465942386,1129.0
2019-12-30,24.95000076293945,24.947399139404297,24.947399139404297,24.95000076293945,1098.0
2019-12-31,24.95000076293945,24.95000076293945,24.95000076293945,24.95000076293945,0.0
2020-01-02,24.9606990814209,24.953399658203125,24.9606990814209,24.959999084472656,4184.0
2020-01-03,24.959999084472656,24.959999084472656,24.959999084472656,24.959999084472656,0.0
2020-01-06,25.10000038146973,25.084999084472656,25.09000015258789,25.084999084472656,1472.0
2020-01-07,25.084999084472656,25.084999084472656,25.084999084472656,25.084999084472656,0.0
2020-01-08,25.149999618530273,25.1382999420166,25.149999618530273,25.1382999420166,9190.0
2020-01-09,25.145000457763672,25.13999938964844,25.13999938964844,25.145000457763672,1389.0
2020-01-10,25.145000457763672,25.145000457763672,25.145000457763672,25.145000457763672,0.0
2020-01-13,25.145000457763672,25.145000457763672,25.145000457763672,25.145000457763672,0.0
2020-01-14,25.18000030517578,25.15999984741211,25.15999984741211,25.15999984741211,4321.0
2020-01-15,25.15999984741211,25.15999984741211,25.15999984741211,25.15999984741211,0.0
2020-01-16,25.26000022888184,25.2450008392334,25.26000022888184,25.2450008392334,1021.0
2020-01-17,25.28000068664551,25.28000068664551,25.28000068664551,25.28000068664551,521.0
2020-01-21,25.28000068664551,25.28000068664551,25.28000068664551,25.28000068664551,0.0
2020-01-22,25.25,25.229999542236328,25.232200622558594,25.229999542236328,3957.0
2020-01-23,25.229999542236328,25.229999542236328,25.229999542236328,25.229999542236328,0.0
2020-01-24,25.229999542236328,25.229999542236328,25.229999542236328,25.229999542236328,0.0
2020-01-27,25.40999984741211,25.38999938964844,25.40999984741211,25.38999938964844,2000.0
2020-01-28,25.38999938964844,25.38999938964844,25.38999938964844,25.38999938964844,0.0
2020-01-29,25.38999938964844,25.38999938964844,25.38999938964844,25.38999938964844,0.0
2020-01-30,25.452600479125977,25.440000534057614,25.452600479125977,25.440000534057614,1969.0
2020-01-31,25.479999542236328,25.459800720214844,25.479999542236328,25.47500038146973,2148.0
2020-02-03,25.46999931335449,25.440000534057614,25.440000534057614,25.46999931335449,176.0
2020-02-04,25.415000915527344,25.40999984741211,25.415000915527344,25.40999984741211,219.0
2020-02-05,25.399999618530273,25.3700008392334,25.38999938964844,25.3700008392334,759.0
2020-02-06,25.364999771118164,25.364999771118164,25.364999771118164,25.364999771118164,855.0
2020-02-07,25.364999771118164,25.364999771118164,25.364999771118164,25.364999771118164,0.0
2020-02-10,25.479999542236328,25.45000076293945,25.46999931335449,25.45000076293945,2001.0
2020-02-11,25.479999542236328,25.46999931335449,25.479999542236328,25.46999931335449,2196.0
2020-02-12,25.459999084472656,25.45000076293945,25.45000076293945,25.459999084472656,1050.0
2020-02-13,25.459999084472656,25.459999084472656,25.459999084472656,25.459999084472656,100.0
2020-02-14,25.459999084472656,25.459999084472656,25.459999084472656,25.459999084472656,0.0
2020-02-18,25.540000915527344,25.51000022888184,25.53000068664551,25.51000022888184,3150.0
2020-02-19,25.54999923706055,25.53000068664551,25.54980087280273,25.53000068664551,12245.0
2020-02-20,25.57999992370605,25.57990074157715,25.57999992370605,25.57999992370605,1470.0
2020-02-21,25.70000076293945,25.63999938964844,25.63999938964844,25.684999465942386,4630.0
2020-02-24,25.684999465942386,25.684999465942386,25.684999465942386,25.684999465942386,0.0
2020-02-25,25.684999465942386,25.684999465942386,25.684999465942386,25.684999465942386,0.0
2020-02-26,25.82290077209473,25.80710029602051,25.82290077209473,25.80710029602051,403.0
2020-02-27,25.80710029602051,25.80710029602051,25.80710029602051,25.80710029602051,0.0
2020-02-28,25.82999992370605,25.791000366210934,25.791000366210934,25.82810020446777,6769.0
2020-03-02,25.88999938964844,25.88999938964844,25.88999938964844,25.88999938964844,351.0
2020-03-03,25.868000030517575,25.809999465942386,25.868000030517575,25.809999465942386,1384.0
2020-03-04,25.809999465942386,25.790000915527344,25.809999465942386,25.790000915527344,836.0
2020-03-05,25.81999969482422,25.79999923706055,25.79999923706055,25.79999923706055,376.0
2020-03-06,25.79999923706055,25.79999923706055,25.79999923706055,25.79999923706055,0.0
2020-03-09,25.79999923706055,25.79999923706055,25.79999923706055,25.79999923706055,0.0
2020-03-10,25.79999923706055,25.79999923706055,25.79999923706055,25.79999923706055,0.0
2020-03-11,25.79999923706055,25.79999923706055,25.79999923706055,25.79999923706055,0.0
2020-03-12,24.290000915527344,24.21750068664551,24.290000915527344,24.21750068664551,14100.0
2020-03-13,24.21750068664551,24.21750068664551,24.21750068664551,24.21750068664551,0.0
2020-03-16,24.21750068664551,24.21750068664551,24.21750068664551,24.21750068664551,0.0
2020-03-17,24.1299991607666,23.99279975891113,24.1299991607666,23.99279975891113,583.0
2020-03-18,23.84499931335449,23.688800811767575,23.82999992370605,23.688800811767575,1110.0
2020-03-19,23.76000022888184,23.07999992370605,23.76000022888184,23.07999992370605,2870.0
2020-03-20,23.07999992370605,23.07999992370605,23.07999992370605,23.07999992370605,0.0
2020-03-23,22.540000915527344,22.36000061035156,22.540000915527344,22.36000061035156,100.0
2020-03-24,22.81999969482422,22.76000022888184,22.76000022888184,22.790000915527344,2801.0
2020-03-25,22.790000915527344,22.790000915527344,22.790000915527344,22.790000915527344,0.0
2020-03-26,22.790000915527344,22.790000915527344,22.790000915527344,22.790000915527344,0.0
2020-03-27,22.790000915527344,22.790000915527344,22.790000915527344,22.790000915527344,0.0
2020-03-30,24.899999618530273,24.69499969482422,24.899999618530273,24.69499969482422,915.0
2020-03-31,24.79999923706055,24.540000915527344,24.79999923706055,24.540000915527344,3834.0
2020-04-01,24.270000457763672,23.78499984741211,24.270000457763672,23.78499984741211,108.0
2020-04-02,23.78499984741211,23.78499984741211,23.78499984741211,23.78499984741211,0.0
2020-04-03,23.96999931335449,23.795000076293945,23.940000534057614,23.795000076293945,501.0
2020-04-06,23.795000076293945,23.795000076293945,23.795000076293945,23.795000076293945,0.0
2020-04-07,23.795000076293945,23.795000076293945,23.795000076293945,23.795000076293945,0.0
2020-04-08,23.795000076293945,23.795000076293945,23.795000076293945,23.795000076293945,0.0
2020-04-09,24.51000022888184,24.2549991607666,24.5,24.2549991607666,1001.0
2020-04-13,24.2549991607666,24.2549991607666,24.2549991607666,24.2549991607666,0.0
2020-04-14,24.2549991607666,24.2549991607666,24.2549991607666,24.2549991607666,0.0
2020-04-15,24.399999618530273,24.399999618530273,24.399999618530273,24.399999618530273,1877.0
2020-04-16,24.68589973449707,24.51000022888184,24.68589973449707,24.51000022888184,324.0
2020-04-17,24.48500061035156,24.3700008392334,24.3700008392334,24.48500061035156,609.0
2020-04-20,24.48500061035156,24.48500061035156,24.48500061035156,24.48500061035156,0.0
2020-04-21,24.479999542236328,24.27580070495605,24.479999542236328,24.364999771118164,1008.0
2020-04-22,24.364999771118164,24.364999771118164,24.364999771118164,24.364999771118164,0.0
2020-04-23,24.364999771118164,24.364999771118164,24.364999771118164,24.364999771118164,0.0
2020-04-24,24.364999771118164,24.364999771118164,24.364999771118164,24.364999771118164,0.0
2020-04-27,24.364999771118164,24.364999771118164,24.364999771118164,24.364999771118164,0.0
2020-04-28,24.364999771118164,24.364999771118164,24.364999771118164,24.364999771118164,0.0
2020-04-29,24.364999771118164,24.364999771118164,24.364999771118164,24.364999771118164,0.0
2020-04-30,23.85000038146973,23.82390022277832,23.85000038146973,23.82390022277832,883.0
2020-05-01,23.82390022277832,23.82390022277832,23.82390022277832,23.82390022277832,0.0
2020-05-04,24.11000061035156,24.0049991607666,24.11000061035156,24.0049991607666,2558.0
2020-05-05,24.11000061035156,24.0,24.11000061035156,24.0049991607666,1914.0
2020-05-06,24.13999938964844,24.03499984741211,24.13999938964844,24.03499984741211,112.0
2020-05-07,24.03499984741211,24.03499984741211,24.03499984741211,24.03499984741211,0.0
2020-05-08,24.209999084472656,24.1200008392334,24.209999084472656,24.1200008392334,2521.0
2020-05-11,24.21999931335449,24.149999618530273,24.21999931335449,24.149999618530273,503.0
2020-05-12,24.26779937744141,24.11599922180176,24.25,24.15500068664551,3248.0
2020-05-13,24.28000068664551,24.18000030517578,24.28000068664551,24.18000030517578,3207.0
2020-05-14,24.18000030517578,24.18000030517578,24.18000030517578,24.18000030517578,0.0
2020-05-15,24.18000030517578,24.18000030517578,24.18000030517578,24.18000030517578,0.0
2020-05-18,24.40999984741211,24.309999465942386,24.40999984741211,24.309999465942386,1256.0
2020-05-19,24.459999084472656,24.375,24.415000915527344,24.375,2920.0
2020-05-20,24.51000022888184,24.459999084472656,24.51000022888184,24.459999084472656,228.0
2020-05-21,24.459999084472656,24.459999084472656,24.459999084472656,24.459999084472656,0.0
2020-05-22,24.6299991607666,24.59499931335449,24.6299991607666,24.59499931335449,650.0
2020-05-26,24.690000534057614,24.6200008392334,24.690000534057614,24.6200008392334,3613.0
2020-05-27,24.670000076293945,24.670000076293945,24.670000076293945,24.670000076293945,504.0
2020-05-28,24.709999084472656,24.622499465942386,24.70000076293945,24.622499465942386,7505.0
2020-05-29,24.622499465942386,24.622499465942386,24.622499465942386,24.622499465942386,0.0
2020-06-01,24.622499465942386,24.622499465942386,24.622499465942386,24.622499465942386,0.0
2020-06-02,24.82990074157715,24.7549991607666,24.82990074157715,24.7549991607666,398.0
2020-06-03,24.7549991607666,24.7549991607666,24.7549991607666,24.7549991607666,0.0
2020-06-04,24.7549991607666,24.7549991607666,24.7549991607666,24.7549991607666,0.0
2020-06-05,24.86000061035156,24.76000022888184,24.86000061035156,24.76000022888184,370.0
2020-06-08,24.88999938964844,24.80500030517578,24.88999938964844,24.80500030517578,1913.0
2020-06-09,24.91990089416504,24.82999992370605,24.82999992370605,24.85000038146973,5050.0
2020-06-10,24.95989990234375,24.88500022888184,24.90999984741211,24.88500022888184,6128.0
2020-06-11,24.88500022888184,24.88500022888184,24.88500022888184,24.88500022888184,0.0
2020-06-12,24.88500022888184,24.88500022888184,24.88500022888184,24.88500022888184,0.0
2020-06-15,25.040000915527344,25.03000068664551,25.040000915527344,25.03000068664551,326.0
2020-06-16,25.03000068664551,25.03000068664551,25.03000068664551,25.03000068664551,0.0
2020-06-17,25.01000022888184,24.94499969482422,25.01000022888184,24.94499969482422,100.0
2020-06-18,24.94499969482422,24.94499969482422,24.94499969482422,24.94499969482422,0.0
2020-06-19,25.059999465942386,25.0049991607666,25.059999465942386,25.0049991607666,2175.0
2020-06-22,25.0049991607666,25.0049991607666,25.0049991607666,25.0049991607666,0.0
2020-06-23,25.10000038146973,25.03000068664551,25.10000038146973,25.03000068664551,2108.0
2020-06-24,25.097999572753906,25.0049991607666,25.0049991607666,25.020000457763672,1001.0
2020-06-25,25.09000015258789,25.03000068664551,25.09000015258789,25.03000068664551,508.0
2020-06-26,25.11000061035156,25.03499984741211,25.107999801635746,25.03499984741211,4236.0
2020-06-29,25.03499984741211,25.03499984741211,25.03499984741211,25.03499984741211,0.0
2020-06-30,25.03499984741211,25.03499984741211,25.03499984741211,25.03499984741211,0.0
2020-07-01,25.07999992370605,25.05200004577637,25.05200004577637,25.07999992370605,776.0
2020-07-02,25.13999938964844,25.06999969482422,25.1299991607666,25.06999969482422,366.0
2020-07-08,25.1299991607666,25.104999542236328,25.1299991607666,25.104999542236328,4000.0
2020-07-09,25.209999084472656,25.104999542236328,25.170000076293945,25.15999984741211,3445.0
2020-07-10,25.257999420166016,25.170000076293945,25.20000076293945,25.170000076293945,10346.0
2020-07-13,25.239999771118164,25.184999465942386,25.239999771118164,25.184999465942386,3980.0
2020-07-14,25.26000022888184,25.21999931335449,25.25,25.21999931335449,333.0
2020-07-15,25.21999931335449,25.21999931335449,25.21999931335449,25.21999931335449,0.0
2020-07-16,25.21999931335449,25.21999931335449,25.21999931335449,25.21999931335449,0.0
2020-07-17,25.21999931335449,25.21999931335449,25.21999931335449,25.21999931335449,0.0
2020-07-20,25.38999938964844,25.32999992370605,25.38999938964844,25.32999992370605,199.0
2020-07-21,25.32999992370605,25.32999992370605,25.32999992370605,25.32999992370605,0.0
2020-07-22,25.32999992370605,25.32999992370605,25.32999992370605,25.32999992370605,0.0
2020-07-23,25.46999931335449,25.40999984741211,25.46999931335449,25.40999984741211,1143.0
2020-07-24,25.489999771118164,25.434999465942386,25.489999771118164,25.434999465942386,2319.0
2020-07-27,25.434999465942386,25.434999465942386,25.434999465942386,25.434999465942386,0.0
2020-07-28,25.489999771118164,25.45499992370605,25.489999771118164,25.45499992370605,111963.0
2020-07-29,25.45499992370605,25.45499992370605,25.45499992370605,25.45499992370605,0.0
2020-07-30,25.45499992370605,25.45499992370605,25.45499992370605,25.45499992370605,0.0
2020-07-31,25.6299991607666,25.559999465942386,25.60000038146973,25.559999465942386,1174.0
2020-08-03,25.6299991607666,25.56999969482422,25.6299991607666,25.56999969482422,1901.0
2020-08-04,25.649999618530273,25.58289909362793,25.649999618530273,25.60000038146973,152785.0
2020-08-05,25.690000534057614,25.56999969482422,25.649999618530273,25.63500022888184,5994.0
2020-08-06,25.63500022888184,25.63500022888184,25.63500022888184,25.63500022888184,0.0
2020-08-07,25.63500022888184,25.63500022888184,25.63500022888184,25.63500022888184,0.0
2020-08-10,25.75,25.71299934387207,25.75,25.71500015258789,1487.0
2020-08-11,25.71999931335449,25.65999984741211,25.71999931335449,25.709999084472656,3620.0
2020-08-12,25.739999771118164,25.63999938964844,25.729999542236328,25.68000030517578,3609.0
2020-08-13,25.68000030517578,25.68000030517578,25.68000030517578,25.68000030517578,0.0
2020-08-14,25.70000076293945,25.614999771118164,25.690000534057614,25.614999771118164,2728.0
2020-08-17,25.614999771118164,25.614999771118164,25.614999771118164,25.614999771118164,0.0
2020-08-18,25.670000076293945,25.579500198364254,25.63999938964844,25.584999084472656,5728.0
2020-08-19,25.649999618530273,25.55940055847168,25.63999938964844,25.57500076293945,3573.0
2020-08-20,25.63999938964844,25.53000068664551,25.63999938964844,25.53000068664551,884.0
2020-08-21,25.60000038146973,25.51189994812012,25.51499938964844,25.51499938964844,1119.0
2020-08-24,25.5004997253418,25.38999938964844,25.40999984741211,25.489999771118164,4480.0
2020-08-25,25.53000068664551,25.45000076293945,25.45000076293945,25.53000068664551,947.0
