Date,High,Low,Open,Close,Volume
2019-09-25,25.10000038146973,25.01000022888184,25.01000022888184,25.10000038146973,1000.0
2019-09-26,25.10000038146973,25.10000038146973,25.10000038146973,25.10000038146973,0.0
2019-09-27,24.979999542236328,24.96999931335449,24.96999931335449,24.96999931335449,2000.0
2019-09-30,24.96999931335449,24.96999931335449,24.96999931335449,24.96999931335449,0.0
2019-10-01,24.96999931335449,24.96999931335449,24.96999931335449,24.96999931335449,0.0
2019-10-02,24.96999931335449,24.96999931335449,24.96999931335449,24.96999931335449,0.0
2019-10-03,24.96999931335449,24.96999931335449,24.96999931335449,24.96999931335449,0.0
2019-10-04,24.96999931335449,24.96999931335449,24.96999931335449,24.96999931335449,0.0
2019-10-07,24.96999931335449,24.96999931335449,24.96999931335449,24.96999931335449,0.0
2019-10-08,24.96999931335449,24.96999931335449,24.96999931335449,24.96999931335449,0.0
2019-10-09,25.20000076293945,25.20000076293945,25.20000076293945,25.20000076293945,2200.0
2019-10-10,25.20000076293945,25.20000076293945,25.20000076293945,25.20000076293945,0.0
2019-10-11,24.959999084472656,24.959999084472656,24.959999084472656,24.959999084472656,500.0
2019-10-14,24.959999084472656,24.959999084472656,24.959999084472656,24.959999084472656,0.0
2019-10-15,24.959999084472656,24.959999084472656,24.959999084472656,24.959999084472656,100.0
2019-10-16,24.959999084472656,24.959999084472656,24.959999084472656,24.959999084472656,0.0
2019-10-17,24.959999084472656,24.959999084472656,24.959999084472656,24.959999084472656,100.0
2019-10-18,24.959999084472656,24.959999084472656,24.959999084472656,24.959999084472656,0.0
2019-10-21,24.8129997253418,24.8129997253418,24.8129997253418,24.8129997253418,1100.0
2019-10-22,24.8129997253418,24.8129997253418,24.8129997253418,24.8129997253418,100.0
2019-10-23,24.8129997253418,24.8129997253418,24.8129997253418,24.8129997253418,0.0
2019-10-24,24.8129997253418,24.8129997253418,24.8129997253418,24.8129997253418,0.0
2019-10-25,24.770000457763672,24.770000457763672,24.770000457763672,24.770000457763672,1000.0
2019-10-28,24.76000022888184,24.76000022888184,24.76000022888184,24.76000022888184,500.0
2019-10-29,24.76000022888184,24.76000022888184,24.76000022888184,24.76000022888184,0.0
2019-10-30,24.76000022888184,24.76000022888184,24.76000022888184,24.76000022888184,0.0
2019-10-31,24.920000076293945,24.920000076293945,24.920000076293945,24.920000076293945,100.0
2019-11-01,24.8799991607666,24.871999740600586,24.8799991607666,24.871999740600586,1500.0
2019-11-04,24.871999740600586,24.871999740600586,24.871999740600586,24.871999740600586,0.0
2019-11-05,24.871999740600586,24.871999740600586,24.871999740600586,24.871999740600586,100.0
2019-11-06,24.871999740600586,24.871999740600586,24.871999740600586,24.871999740600586,0.0
2019-11-07,24.690000534057614,24.68000030517578,24.68000030517578,24.68000030517578,600.0
2019-11-08,24.6200008392334,24.6200008392334,24.6200008392334,24.6200008392334,1300.0
2019-11-11,24.6200008392334,24.6200008392334,24.6200008392334,24.6200008392334,0.0
2019-11-12,24.6200008392334,24.6200008392334,24.6200008392334,24.6200008392334,0.0
2019-11-13,24.670000076293945,24.65900039672852,24.65999984741211,24.65900039672852,22000.0
2019-11-14,24.65900039672852,24.65900039672852,24.65900039672852,24.65900039672852,0.0
2019-11-15,24.65900039672852,24.65900039672852,24.65900039672852,24.65900039672852,0.0
2019-11-18,24.6200008392334,24.6200008392334,24.6200008392334,24.6200008392334,100.0
2019-11-19,24.729999542236328,24.70000076293945,24.709999084472656,24.70499992370605,23000.0
2019-11-20,24.795000076293945,24.770000457763672,24.770000457763672,24.795000076293945,4400.0
2019-11-21,24.76499938964844,24.76000022888184,24.76499938964844,24.76499938964844,1100.0
2019-11-22,24.76499938964844,24.76499938964844,24.76499938964844,24.76499938964844,100.0
2019-11-25,24.809999465942386,24.795000076293945,24.809999465942386,24.795000076293945,300.0
2019-11-26,24.795000076293945,24.795000076293945,24.795000076293945,24.795000076293945,20200.0
2019-11-27,24.795000076293945,24.795000076293945,24.795000076293945,24.795000076293945,0.0
2019-11-29,24.795000076293945,24.795000076293945,24.795000076293945,24.795000076293945,0.0
2019-12-02,24.82999992370605,24.790000915527344,24.82999992370605,24.790000915527344,300.0
2019-12-03,24.895000457763672,24.84000015258789,24.84000015258789,24.895000457763672,15300.0
2019-12-04,24.86000061035156,24.85000038146973,24.86000061035156,24.85000038146973,200.0
2019-12-05,24.85000038146973,24.85000038146973,24.85000038146973,24.85000038146973,0.0
2019-12-06,24.85000038146973,24.85000038146973,24.85000038146973,24.85000038146973,0.0
2019-12-09,24.88599967956543,24.875,24.88599967956543,24.875,100.0
2019-12-10,24.8799991607666,24.8700008392334,24.8700008392334,24.8799991607666,100.0
2019-12-11,24.8799991607666,24.8799991607666,24.8799991607666,24.8799991607666,0.0
2019-12-12,24.95000076293945,24.88500022888184,24.95000076293945,24.88500022888184,42300.0
2019-12-13,24.88500022888184,24.88500022888184,24.88500022888184,24.88500022888184,0.0
2019-12-16,24.88500022888184,24.88500022888184,24.88500022888184,24.88500022888184,0.0
2019-12-17,24.88500022888184,24.88500022888184,24.88500022888184,24.88500022888184,0.0
2019-12-18,24.88500022888184,24.88500022888184,24.88500022888184,24.88500022888184,0.0
2019-12-19,24.90999984741211,24.899999618530273,24.899999618530273,24.90999984741211,2100.0
2019-12-20,24.88999938964844,24.875,24.875999450683594,24.875,1800.0
2019-12-23,24.82500076293945,24.82500076293945,24.82500076293945,24.82500076293945,2100.0
2019-12-24,24.82500076293945,24.82500076293945,24.82500076293945,24.82500076293945,0.0
2019-12-26,24.82500076293945,24.82500076293945,24.82500076293945,24.82500076293945,0.0
2019-12-27,24.8700008392334,24.854999542236328,24.8700008392334,24.854999542236328,1300.0
2019-12-30,24.90999984741211,24.88999938964844,24.899999618530273,24.88999938964844,2800.0
2019-12-31,24.88999938964844,24.88999938964844,24.88999938964844,24.88999938964844,0.0
2020-01-02,24.899999618530273,24.88999938964844,24.88999938964844,24.88999938964844,4600.0
2020-01-03,25.020000457763672,24.959999084472656,24.959999084472656,25.020000457763672,23000.0
2020-01-06,25.048999786376953,25.045000076293945,25.048999786376953,25.045000076293945,400.0
2020-01-07,25.045000076293945,25.045000076293945,25.045000076293945,25.045000076293945,0.0
2020-01-08,25.045000076293945,25.045000076293945,25.045000076293945,25.045000076293945,0.0
2020-01-09,25.1299991607666,25.11000061035156,25.118999481201172,25.1200008392334,2900.0
2020-01-10,25.1299991607666,25.1200008392334,25.1299991607666,25.1200008392334,6500.0
2020-01-13,25.1200008392334,25.10000038146973,25.1200008392334,25.10000038146973,1800.0
2020-01-14,25.15999984741211,25.13999938964844,25.13999938964844,25.13999938964844,6400.0
2020-01-15,25.209999084472656,25.17700004577637,25.17700004577637,25.190000534057614,5000.0
2020-01-16,25.190000534057614,25.190000534057614,25.190000534057614,25.190000534057614,0.0
2020-01-17,25.239999771118164,25.18000030517578,25.239999771118164,25.18000030517578,3800.0
2020-01-21,25.18000030517578,25.18000030517578,25.18000030517578,25.18000030517578,0.0
2020-01-22,25.18000030517578,25.18000030517578,25.18000030517578,25.18000030517578,0.0
2020-01-23,25.18000030517578,25.18000030517578,25.18000030517578,25.18000030517578,0.0
2020-01-24,25.18000030517578,25.18000030517578,25.18000030517578,25.18000030517578,0.0
2020-01-27,25.40999984741211,25.40500068664551,25.40500068664551,25.40500068664551,1000.0
2020-01-28,25.38999938964844,25.3700008392334,25.38999938964844,25.3700008392334,3500.0
2020-01-29,25.3700008392334,25.3700008392334,25.3700008392334,25.3700008392334,0.0
2020-01-30,25.3700008392334,25.3700008392334,25.3700008392334,25.3700008392334,0.0
2020-01-31,25.51000022888184,25.47900009155273,25.5,25.5049991607666,1100.0
2020-02-03,25.5,25.459999084472656,25.46500015258789,25.5,9900.0
2020-02-04,25.420000076293945,25.40500068664551,25.415000915527344,25.40500068664551,2700.0
2020-02-05,25.40500068664551,25.40500068664551,25.40500068664551,25.40500068664551,0.0
2020-02-06,25.38500022888184,25.3799991607666,25.3799991607666,25.38500022888184,500.0
2020-02-07,25.459999084472656,25.43000030517578,25.43000030517578,25.440000534057614,28600.0
2020-02-10,25.440000534057614,25.440000534057614,25.440000534057614,25.440000534057614,0.0
2020-02-11,25.440000534057614,25.440000534057614,25.440000534057614,25.440000534057614,0.0
2020-02-12,25.459999084472656,25.45000076293945,25.459999084472656,25.45000076293945,400.0
2020-02-13,25.45000076293945,25.45000076293945,25.45000076293945,25.45000076293945,0.0
2020-02-14,25.45000076293945,25.45000076293945,25.45000076293945,25.45000076293945,0.0
2020-02-18,25.52899932861328,25.520000457763672,25.52899932861328,25.520000457763672,500.0
2020-02-19,25.56999969482422,25.54999923706055,25.56999969482422,25.54999923706055,300.0
2020-02-20,25.631999969482425,25.61000061035156,25.61000061035156,25.6200008392334,4400.0
2020-02-21,25.7450008392334,25.7189998626709,25.71999931335449,25.7450008392334,11000.0
2020-02-24,25.899999618530273,25.8799991607666,25.899999618530273,25.8799991607666,500.0
2020-02-25,25.8799991607666,25.8799991607666,25.8799991607666,25.8799991607666,0.0
2020-02-26,25.959999084472656,25.933000564575195,25.959999084472656,25.933000564575195,600.0
2020-02-27,26.0,26.0,26.0,26.0,100.0
2020-02-28,25.98500061035156,25.93000030517578,25.979999542236328,25.958999633789066,5300.0
2020-03-02,26.03000068664551,25.95000076293945,26.03000068664551,25.95000076293945,200.0
2020-03-03,25.95000076293945,25.95000076293945,25.95000076293945,25.95000076293945,0.0
2020-03-04,25.96999931335449,25.95000076293945,25.96999931335449,25.95000076293945,1000.0
2020-03-05,25.96999931335449,25.95000076293945,25.96999931335449,25.95000076293945,200.0
2020-03-06,26.040000915527344,25.99799919128418,26.01000022888184,25.99799919128418,6400.0
2020-03-09,25.99799919128418,25.99799919128418,25.99799919128418,25.99799919128418,0.0
2020-03-10,25.88999938964844,25.78000068664551,25.88999938964844,25.78000068664551,500.0
2020-03-11,25.5,25.3700008392334,25.5,25.3700008392334,200.0
2020-03-12,24.56999969482422,23.98699951171875,24.56999969482422,23.98699951171875,14600.0
2020-03-13,24.45000076293945,24.36000061035156,24.36000061035156,24.434999465942386,35400.0
2020-03-16,24.434999465942386,24.434999465942386,24.434999465942386,24.434999465942386,0.0
2020-03-17,24.101999282836914,23.90500068664551,24.040000915527344,23.90500068664551,2000.0
2020-03-18,23.55100059509277,23.493000030517575,23.55100059509277,23.493000030517575,200.0
2020-03-19,23.61000061035156,22.795000076293945,23.61000061035156,22.795000076293945,19600.0
2020-03-20,22.795000076293945,22.795000076293945,22.795000076293945,22.795000076293945,0.0
2020-03-23,22.03499984741211,21.780000686645508,21.799999237060547,22.03499984741211,2800.0
2020-03-24,22.423999786376953,22.28700065612793,22.40999984741211,22.34000015258789,2100.0
2020-03-25,23.51000022888184,22.8799991607666,22.8799991607666,23.51000022888184,800.0
2020-03-26,23.51000022888184,23.51000022888184,23.51000022888184,23.51000022888184,0.0
2020-03-27,23.51000022888184,23.51000022888184,23.51000022888184,23.51000022888184,0.0
2020-03-30,25.04999923706055,25.04999923706055,25.04999923706055,25.04999923706055,500.0
2020-03-31,24.80100059509277,24.46999931335449,24.80100059509277,24.63500022888184,2000.0
2020-04-01,24.63500022888184,24.63500022888184,24.63500022888184,24.63500022888184,0.0
2020-04-02,23.63999938964844,23.63999938964844,23.63999938964844,23.63999938964844,600.0
2020-04-03,23.729999542236328,23.61000061035156,23.729999542236328,23.61000061035156,200.0
2020-04-06,23.61000061035156,23.61000061035156,23.61000061035156,23.61000061035156,0.0
2020-04-07,23.61000061035156,23.61000061035156,23.61000061035156,23.61000061035156,1000.0
2020-04-08,24.34000015258789,24.22500038146973,24.34000015258789,24.22500038146973,1000.0
2020-04-09,24.22500038146973,24.22500038146973,24.22500038146973,24.22500038146973,0.0
2020-04-13,24.22500038146973,24.22500038146973,24.22500038146973,24.22500038146973,0.0
2020-04-14,24.22500038146973,24.22500038146973,24.22500038146973,24.22500038146973,0.0
2020-04-15,24.8799991607666,24.690000534057614,24.743999481201172,24.690000534057614,600.0
2020-04-16,24.90999984741211,24.718000411987305,24.718000411987305,24.739999771118164,18900.0
2020-04-17,24.739999771118164,24.739999771118164,24.739999771118164,24.739999771118164,0.0
2020-04-20,24.790000915527344,24.5,24.790000915527344,24.604999542236328,3500.0
2020-04-21,24.6299991607666,24.3799991607666,24.55599975585937,24.520000457763672,2800.0
2020-04-22,24.559999465942386,24.45000076293945,24.54999923706055,24.45000076293945,300.0
2020-04-23,24.46999931335449,24.334999084472656,24.46999931335449,24.334999084472656,100.0
2020-04-24,24.32999992370605,24.20499992370605,24.28000068664551,24.20499992370605,1500.0
2020-04-27,24.290000915527344,24.19499969482422,24.290000915527344,24.19499969482422,200.0
2020-04-28,24.28000068664551,24.13999938964844,24.28000068664551,24.13999938964844,300.0
2020-04-29,24.13999938964844,24.13999938964844,24.13999938964844,24.13999938964844,0.0
2020-04-30,24.13999938964844,24.13999938964844,24.13999938964844,24.13999938964844,0.0
2020-05-01,24.13999938964844,24.13999938964844,24.13999938964844,24.13999938964844,0.0
2020-05-04,24.38999938964844,24.28499984741211,24.38999938964844,24.28499984741211,600.0
2020-05-05,24.43000030517578,24.233999252319336,24.43000030517578,24.34499931335449,500.0
2020-05-06,24.34000015258789,24.27300071716309,24.27300071716309,24.34000015258789,100.0
2020-05-07,24.34000015258789,24.34000015258789,24.34000015258789,24.34000015258789,0.0
2020-05-08,24.34000015258789,24.34000015258789,24.34000015258789,24.34000015258789,0.0
2020-05-11,24.34000015258789,24.34000015258789,24.34000015258789,24.34000015258789,0.0
2020-05-12,24.6299991607666,24.524999618530273,24.6200008392334,24.53000068664551,3200.0
2020-05-13,24.6200008392334,24.59499931335449,24.618999481201172,24.59499931335449,2600.0
2020-05-14,24.59499931335449,24.59499931335449,24.59499931335449,24.59499931335449,0.0
2020-05-15,24.59499931335449,24.59499931335449,24.59499931335449,24.59499931335449,0.0
2020-05-18,24.81999969482422,24.70000076293945,24.81999969482422,24.70000076293945,1800.0
2020-05-19,24.8700008392334,24.809999465942386,24.84000015258789,24.82500076293945,2600.0
2020-05-20,24.88999938964844,24.854999542236328,24.88999938964844,24.854999542236328,200.0
2020-05-21,24.98500061035156,24.934999465942386,24.98500061035156,24.934999465942386,100.0
2020-05-22,24.934999465942386,24.934999465942386,24.934999465942386,24.934999465942386,0.0
2020-05-26,25.15999984741211,25.040000915527344,25.040000915527344,25.07999992370605,1600.0
2020-05-27,25.190000534057614,25.104999542236328,25.18000030517578,25.104999542236328,500.0
2020-05-28,25.149999618530273,25.05400085449219,25.149999618530273,25.05400085449219,2500.0
2020-05-29,25.25,25.15999984741211,25.21999931335449,25.15999984741211,8100.0
2020-06-01,25.239999771118164,25.17799949645996,25.239999771118164,25.17799949645996,1200.0
2020-06-02,25.17799949645996,25.17799949645996,25.17799949645996,25.17799949645996,0.0
2020-06-03,25.20000076293945,25.145000457763672,25.170000076293945,25.145000457763672,3400.0
2020-06-04,25.26000022888184,25.184999465942386,25.229999542236328,25.184999465942386,1300.0
2020-06-05,25.190000534057614,25.09900093078613,25.190000534057614,25.09900093078613,300.0
2020-06-08,25.09900093078613,25.09900093078613,25.09900093078613,25.09900093078613,0.0
2020-06-09,25.09900093078613,25.09900093078613,25.09900093078613,25.09900093078613,0.0
2020-06-10,25.34000015258789,25.25399971008301,25.309999465942386,25.25399971008301,5800.0
2020-06-11,25.25399971008301,25.25399971008301,25.25399971008301,25.25399971008301,0.0
2020-06-12,25.32999992370605,25.26000022888184,25.28000068664551,25.32999992370605,8100.0
2020-06-15,25.43000030517578,25.36000061035156,25.43000030517578,25.36000061035156,200.0
2020-06-16,25.36000061035156,25.36000061035156,25.36000061035156,25.36000061035156,100.0
2020-06-17,25.420000076293945,25.35000038146973,25.386999130249023,25.35000038146973,1100.0
2020-06-18,25.440000534057614,25.354999542236328,25.40699958801269,25.354999542236328,4300.0
2020-06-19,25.42300033569336,25.364999771118164,25.420000076293945,25.364999771118164,1600.0
2020-06-22,25.364999771118164,25.364999771118164,25.364999771118164,25.364999771118164,0.0
2020-06-23,25.440000534057614,25.36000061035156,25.440000534057614,25.36000061035156,800.0
2020-06-24,25.36000061035156,25.36000061035156,25.36000061035156,25.36000061035156,0.0
2020-06-25,25.36000061035156,25.354999542236328,25.36000061035156,25.354999542236328,100.0
2020-06-26,25.354999542236328,25.354999542236328,25.354999542236328,25.354999542236328,0.0
2020-06-29,25.354999542236328,25.354999542236328,25.354999542236328,25.354999542236328,0.0
2020-06-30,25.354999542236328,25.354999542236328,25.354999542236328,25.354999542236328,0.0
2020-07-01,25.45000076293945,25.38800048828125,25.440000534057614,25.38800048828125,1700.0
2020-07-02,25.434999465942386,25.40500068664551,25.434999465942386,25.40500068664551,200.0
2020-07-06,25.489999771118164,25.40999984741211,25.489999771118164,25.44499969482422,2100.0
2020-07-07,25.520000457763672,25.489999771118164,25.489999771118164,25.520000457763672,5100.0
2020-07-08,25.520000457763672,25.520000457763672,25.520000457763672,25.520000457763672,0.0
2020-07-09,25.559999465942386,25.520000457763672,25.55699920654297,25.520000457763672,1800.0
2020-07-10,25.520000457763672,25.520000457763672,25.520000457763672,25.520000457763672,0.0
2020-07-13,25.65999984741211,25.65999984741211,25.65999984741211,25.65999984741211,2400.0
2020-07-14,25.65999984741211,25.65999984741211,25.65999984741211,25.65999984741211,0.0
2020-07-15,25.71999931335449,25.71999931335449,25.71999931335449,25.71999931335449,700.0
2020-07-16,25.82999992370605,25.70499992370605,25.75,25.70499992370605,10700.0
2020-07-17,25.809999465942386,25.74799919128418,25.74799919128418,25.78000068664551,10600.0
2020-07-20,25.790000915527344,25.739999771118164,25.790000915527344,25.739999771118164,200.0
2020-07-21,25.739999771118164,25.739999771118164,25.739999771118164,25.739999771118164,0.0
2020-07-22,25.739999771118164,25.739999771118164,25.739999771118164,25.739999771118164,0.0
2020-07-23,25.8700008392334,25.795000076293945,25.8700008392334,25.795000076293945,500.0
2020-07-24,25.88999938964844,25.809999465942386,25.82200050354004,25.809999465942386,600.0
2020-07-27,25.809999465942386,25.809999465942386,25.809999465942386,25.809999465942386,0.0
2020-07-28,25.920000076293945,25.899999618530273,25.899999618530273,25.920000076293945,600.0
2020-07-29,25.920000076293945,25.920000076293945,25.920000076293945,25.920000076293945,0.0
2020-07-30,25.959999084472656,25.895000457763672,25.95000076293945,25.895000457763672,400.0
2020-07-31,25.989999771118164,25.92499923706055,25.92499923706055,25.989999771118164,1000.0
2020-08-03,25.989999771118164,25.87100028991699,25.989999771118164,25.92499923706055,600.0
2020-08-04,26.069000244140625,26.040000915527344,26.040000915527344,26.059999465942386,2500.0
2020-08-05,26.07999992370605,26.01000022888184,26.01000022888184,26.02700042724609,700.0
2020-08-06,26.02700042724609,26.02700042724609,26.02700042724609,26.02700042724609,100.0
2020-08-07,26.02700042724609,26.02700042724609,26.02700042724609,26.02700042724609,0.0
2020-08-10,26.190000534057614,26.107999801635746,26.107999801635746,26.13500022888184,1700.0
2020-08-11,26.13500022888184,26.13500022888184,26.13500022888184,26.13500022888184,0.0
2020-08-12,26.209999084472656,26.12700080871582,26.12700080871582,26.1299991607666,700.0
2020-08-13,26.1299991607666,26.1299991607666,26.1299991607666,26.1299991607666,0.0
2020-08-14,26.190000534057614,26.09000015258789,26.190000534057614,26.09000015258789,500.0
2020-08-17,26.1299991607666,26.11000061035156,26.1299991607666,26.11000061035156,2400.0
2020-08-18,26.1299991607666,26.04999923706055,26.1200008392334,26.04999923706055,6600.0
2020-08-19,26.059999465942386,25.979999542236328,26.059999465942386,25.979999542236328,200.0
2020-08-20,26.059999465942386,25.940000534057614,26.059999465942386,25.940000534057614,300.0
2020-08-21,25.940000534057614,25.940000534057614,25.940000534057614,25.940000534057614,0.0
2020-08-24,25.959999084472656,25.940000534057614,25.959999084472656,25.940000534057614,200.0
2020-08-25,25.809999465942386,25.80200004577637,25.80200004577637,25.80200004577637,752.0
