Date,High,Low,Open,Close,Volume
2016-10-21,25.334999084472656,24.82500076293945,25.020000457763672,25.290000915527344,620807.0
2016-10-24,25.71999931335449,25.35000038146973,25.53000068664551,25.61000061035156,642209.0
2016-10-25,26.03000068664551,25.56999969482422,25.84000015258789,25.709999084472656,615289.0
2016-10-26,25.70120048522949,25.290000915527344,25.60000038146973,25.53000068664551,882328.0
2016-10-27,25.63999938964844,24.959999084472656,25.63999938964844,25.10000038146973,1219398.0
2016-10-28,25.440000534057614,24.84000015258789,25.020000457763672,24.920000076293945,768929.0
2016-10-31,25.21999931335449,24.739999771118164,24.989999771118164,25.1200008392334,826966.0
2016-11-01,25.270000457763672,24.61000061035156,25.059999465942386,24.86000061035156,467834.0
2016-11-02,24.96500015258789,24.54999923706055,24.85000038146973,24.670000076293945,903968.0
2016-11-03,25.11000061035156,24.170000076293945,24.809999465942386,24.25,793497.0
2016-11-04,24.34000015258789,23.96999931335449,24.190000534057614,23.989999771118164,827314.0
2016-11-07,24.68000030517578,24.040000915527344,24.20000076293945,24.3799991607666,781302.0
2016-11-08,24.90999984741211,24.13999938964844,24.239999771118164,24.57999992370605,1047298.0
2016-11-09,24.46999931335449,23.97500038146973,24.420000076293945,24.170000076293945,1972028.0
2016-11-10,24.20000076293945,23.34000015258789,24.20000076293945,23.86000061035156,2467198.0
2016-11-11,23.809999465942386,21.597000122070312,21.649999618530273,23.290000915527344,5228801.0
2016-11-14,23.559999465942386,22.5,23.270000457763672,22.559999465942386,1616705.0
2016-11-15,22.770000457763672,22.06999969482422,22.709999084472656,22.100000381469727,1943306.0
2016-11-16,22.32999992370605,22.01000022888184,22.09000015258789,22.13999938964844,1153010.0
2016-11-17,22.354999542236328,21.93000030517578,22.239999771118164,22.25,1767289.0
2016-11-18,22.53000068664551,22.1200008392334,22.299999237060547,22.38999938964844,1629009.0
2016-11-21,22.90999984741211,22.399999618530273,22.420000076293945,22.729999542236328,1047724.0
2016-11-22,23.51000022888184,22.69499969482422,22.739999771118164,23.21999931335449,1501628.0
2016-11-23,23.559999465942386,23.06999969482422,23.149999618530273,23.54999923706055,1264395.0
2016-11-25,23.729999542236328,23.459999084472656,23.649999618530273,23.65999984741211,550803.0
2016-11-28,23.79999923706055,23.375,23.63999938964844,23.5,1378049.0
2016-11-29,23.5,23.059999465942386,23.38999938964844,23.440000534057614,1039772.0
2016-11-30,23.790000915527344,23.34499931335449,23.56999969482422,23.43000030517578,960766.0
2016-12-01,23.59499931335449,23.10000038146973,23.46999931335449,23.26000022888184,1747403.0
2016-12-02,23.520000457763672,23.09000015258789,23.28000068664551,23.40999984741211,763342.0
2016-12-05,23.959999084472656,23.459999084472656,23.540000915527344,23.920000076293945,707766.0
2016-12-06,23.959999084472656,23.59000015258789,23.940000534057614,23.95000076293945,653382.0
2016-12-07,24.989999771118164,23.85000038146973,23.96999931335449,24.899999618530273,1362871.0
2016-12-08,25.07999992370605,24.45000076293945,25.0,24.520000457763672,881269.0
2016-12-09,24.684999465942386,24.489999771118164,24.649999618530273,24.63999938964844,377499.0
2016-12-12,24.95000076293945,24.559999465942386,24.57999992370605,24.709999084472656,929467.0
2016-12-13,24.979999542236328,24.3799991607666,24.809999465942386,24.809999465942386,822845.0
2016-12-14,24.88999938964844,24.13999938964844,24.790000915527344,24.229999542236328,559651.0
2016-12-15,24.489999771118164,24.170000076293945,24.309999465942386,24.399999618530273,515039.0
2016-12-16,24.989999771118164,24.25,24.25,24.75,1599388.0
2016-12-19,25.0,24.45000076293945,24.8700008392334,24.61000061035156,878219.0
2016-12-20,24.75,24.20000076293945,24.649999618530273,24.479999542236328,603024.0
2016-12-21,24.6299991607666,24.43000030517578,24.479999542236328,24.459999084472656,534317.0
2016-12-22,24.68000030517578,24.07999992370605,24.46999931335449,24.1299991607666,671207.0
2016-12-23,24.20000076293945,23.989999771118164,24.09000015258789,24.020000457763672,574970.0
2016-12-27,24.59000015258789,24.07999992370605,24.07999992370605,24.459999084472656,365597.0
2016-12-28,24.56999969482422,23.979999542236328,24.56999969482422,24.11000061035156,255845.0
2016-12-29,24.22500038146973,24.020000457763672,24.11000061035156,24.20000076293945,308289.0
2016-12-30,24.35000038146973,23.95000076293945,24.149999618530273,24.040000915527344,467194.0
2017-01-03,24.559999465942386,24.0,24.0,24.46999931335449,649579.0
2017-01-04,25.34000015258789,24.54999923706055,24.56999969482422,25.03000068664551,1042476.0
2017-01-05,24.95000076293945,24.059999465942386,24.489999771118164,24.85000038146973,1942482.0
2017-01-06,25.46999931335449,24.731000900268555,24.920000076293945,25.209999084472656,950716.0
2017-01-09,25.54999923706055,25.15999984741211,25.31999969482422,25.32999992370605,860210.0
2017-01-10,25.32999992370605,24.84000015258789,25.290000915527344,24.8799991607666,765723.0
2017-01-11,25.09000015258789,24.670000076293945,24.979999542236328,24.82999992370605,569054.0
2017-01-12,24.989999771118164,24.540000915527344,24.86000061035156,24.81999969482422,756014.0
2017-01-13,25.020000457763672,24.78000068664551,24.8799991607666,24.899999618530273,429588.0
2017-01-17,25.51000022888184,24.84000015258789,24.959999084472656,25.479999542236328,924101.0
2017-01-18,25.6299991607666,25.309999465942386,25.5,25.489999771118164,1058666.0
2017-01-19,25.56999969482422,25.34000015258789,25.489999771118164,25.540000915527344,1147936.0
2017-01-20,25.959999084472656,25.3700008392334,25.5,25.54999923706055,2050061.0
2017-01-23,25.853500366210934,24.60000038146973,25.520000457763672,24.71999931335449,981300.0
2017-01-24,24.95000076293945,24.399999618530273,24.79999923706055,24.8700008392334,828775.0
2017-01-25,25.13999938964844,24.57999992370605,25.0,24.61000061035156,735936.0
2017-01-26,25.479999542236328,24.35000038146973,24.559999465942386,24.57999992370605,728509.0
2017-01-27,24.690000534057614,24.20989990234375,24.54999923706055,24.479999542236328,437669.0
2017-01-30,24.57999992370605,24.059999465942386,24.46999931335449,24.29999923706055,359217.0
2017-01-31,24.45000076293945,24.10000038146973,24.229999542236328,24.25,657555.0
2017-02-01,24.75,24.190000534057614,24.420000076293945,24.670000076293945,839675.0
2017-02-02,25.21999931335449,24.61000061035156,24.71999931335449,25.21999931335449,831231.0
2017-02-03,25.479999542236328,25.209999084472656,25.38999938964844,25.40999984741211,582028.0
2017-02-06,25.43000030517578,24.53000068664551,25.43000030517578,24.70000076293945,492249.0
2017-02-07,25.10000038146973,24.649999618530273,24.739999771118164,24.90999984741211,514496.0
2017-02-08,24.96999931335449,24.31999969482422,24.85000038146973,24.709999084472656,561690.0
2017-02-09,25.31999969482422,24.70000076293945,24.739999771118164,25.270000457763672,607631.0
2017-02-10,25.3700008392334,25.15999984741211,25.3700008392334,25.209999084472656,588217.0
2017-02-13,25.239999771118164,24.790000915527344,25.239999771118164,24.84000015258789,896745.0
2017-02-14,24.93000030517578,24.479999542236328,24.8799991607666,24.79999923706055,562034.0
2017-02-15,25.29999923706055,24.71999931335449,24.78000068664551,25.25,662811.0
2017-02-16,25.290000915527344,24.90999984741211,25.25,25.04999923706055,904076.0
2017-02-17,25.065399169921875,24.459999084472656,24.899999618530273,24.85000038146973,769617.0
2017-02-21,25.190000534057614,24.87929916381836,24.96999931335449,25.13999938964844,757197.0
2017-02-22,25.31999969482422,25.04999923706055,25.1200008392334,25.209999084472656,454224.0
2017-02-23,25.489999771118164,25.1299991607666,25.29999923706055,25.20000076293945,825689.0
2017-02-24,25.209999084472656,24.560400009155273,25.15999984741211,24.95000076293945,682516.0
2017-02-27,24.79999923706055,24.18000030517578,24.79999923706055,24.5,1232338.0
2017-02-28,24.940000534057614,24.36000061035156,24.459999084472656,24.440000534057614,1700315.0
2017-03-01,25.190000534057614,23.79999923706055,25.03000068664551,24.71999931335449,1974265.0
2017-03-02,25.03000068664551,24.45000076293945,24.809999465942386,24.54999923706055,1369399.0
2017-03-03,25.11000061035156,24.14620018005371,24.46999931335449,25.10000038146973,2108899.0
2017-03-06,25.040000915527344,24.51000022888184,25.0,24.54999923706055,1436392.0
2017-03-07,24.79999923706055,24.209999084472656,24.53000068664551,24.420000076293945,1218605.0
2017-03-08,24.649999618530273,24.229999542236328,24.46999931335449,24.3799991607666,1248236.0
2017-03-09,24.649999618530273,24.23749923706055,24.43000030517578,24.56999969482422,1066673.0
2017-03-10,24.895000457763672,24.56999969482422,24.63999938964844,24.59000015258789,812609.0
2017-03-13,24.899999618530273,24.170000076293945,24.540000915527344,24.3700008392334,1010223.0
2017-03-14,24.40999984741211,23.95000076293945,24.34000015258789,24.20000076293945,891046.0
2017-03-15,24.559999465942386,24.209999084472656,24.28000068664551,24.440000534057614,424184.0
2017-03-16,24.559999465942386,24.10000038146973,24.520000457763672,24.15999984741211,865014.0
2017-03-17,24.04999923706055,23.399999618530273,23.459999084472656,23.86000061035156,1973797.0
2017-03-20,23.8799991607666,23.45000076293945,23.76000022888184,23.540000915527344,954249.0
2017-03-21,23.6299991607666,23.239999771118164,23.53000068664551,23.420000076293945,952387.0
2017-03-22,23.54999923706055,23.13999938964844,23.479999542236328,23.239999771118164,997484.0
2017-03-23,23.63999938964844,23.18000030517578,23.18000030517578,23.34000015258789,612078.0
2017-03-24,23.81999969482422,23.190399169921875,23.38999938964844,23.3700008392334,555033.0
2017-03-27,23.71999931335449,22.959999084472656,23.25,23.20000076293945,740323.0
2017-03-28,23.29999923706055,22.92499923706055,23.170000076293945,23.0,876087.0
2017-03-29,23.20000076293945,22.85000038146973,22.979999542236328,23.190000534057614,740385.0
2017-03-30,23.35000038146973,22.979999542236328,23.209999084472656,23.04999923706055,722388.0
2017-03-31,23.26000022888184,22.920000076293945,23.04999923706055,23.0,572958.0
2017-04-03,23.2450008392334,22.809999465942386,23.0,22.82999992370605,1144659.0
2017-04-04,22.96999931335449,22.60000038146973,22.86000061035156,22.84000015258789,1799181.0
2017-04-05,23.36000061035156,22.790000915527344,22.85000038146973,23.290000915527344,1808313.0
2017-04-06,23.84000015258789,22.770000457763672,23.34000015258789,22.85000038146973,1331278.0
2017-04-07,23.020000457763672,22.809999465942386,22.82999992370605,22.90999984741211,1520285.0
2017-04-10,23.26000022888184,22.940000534057614,23.01000022888184,23.10000038146973,1374873.0
2017-04-11,23.209999084472656,22.93000030517578,23.04999923706055,23.07999992370605,1315444.0
2017-04-12,23.32999992370605,23.06999969482422,23.11000061035156,23.149999618530273,604081.0
2017-04-13,23.239999771118164,22.82500076293945,23.170000076293945,22.85000038146973,736866.0
2017-04-17,23.09000015258789,22.7450008392334,22.88999938964844,23.059999465942386,727667.0
2017-04-18,24.5049991607666,23.51000022888184,23.729999542236328,23.989999771118164,2960215.0
2017-04-19,24.20000076293945,23.739999771118164,24.10000038146973,23.90999984741211,1141633.0
2017-04-20,24.15999984741211,23.875,24.01000022888184,24.09000015258789,1284519.0
2017-04-21,24.197999954223636,23.959999084472656,24.149999618530273,24.09000015258789,733536.0
2017-04-24,24.32500076293945,23.809999465942386,24.29999923706055,24.020000457763672,1330801.0
2017-04-25,24.420000076293945,24.10000038146973,24.11000061035156,24.40999984741211,849606.0
2017-04-26,24.60000038146973,24.18000030517578,24.21999931335449,24.540000915527344,780696.0
2017-04-27,24.8799991607666,24.5,24.6200008392334,24.670000076293945,758956.0
2017-04-28,24.690000534057614,24.29999923706055,24.690000534057614,24.649999618530273,825922.0
2017-05-01,24.79999923706055,24.10000038146973,24.75,24.15999984741211,1543230.0
2017-05-02,24.479999542236328,24.09000015258789,24.09000015258789,24.309999465942386,1383416.0
2017-05-03,24.38999938964844,23.82999992370605,24.34000015258789,23.86000061035156,737175.0
2017-05-04,24.479999542236328,23.76000022888184,23.88999938964844,24.40999984741211,1062241.0
2017-05-05,24.920000076293945,24.43000030517578,24.559999465942386,24.90999984741211,930501.0
2017-05-08,25.084999084472656,24.809999465942386,24.95000076293945,25.059999465942386,1144577.0
2017-05-09,25.440000534057614,24.95000076293945,25.020000457763672,25.15999984741211,2594270.0
2017-05-10,24.739999771118164,23.6200008392334,24.60000038146973,23.88999938964844,3249428.0
2017-05-11,24.059999465942386,23.79999923706055,23.8799991607666,23.8700008392334,1961930.0
2017-05-12,24.36000061035156,23.809999465942386,23.940000534057614,23.899999618530273,1387213.0
2017-05-15,24.040000915527344,23.78000068664551,23.84000015258789,23.8799991607666,1109925.0
2017-05-16,24.01000022888184,23.71999931335449,24.01000022888184,23.78000068664551,1525046.0
2017-05-17,23.90999984741211,23.270000457763672,23.65999984741211,23.31999969482422,1886363.0
2017-05-18,23.386999130249023,23.01000022888184,23.309999465942386,23.1299991607666,1336417.0
2017-05-19,23.440000534057614,23.020000457763672,23.15999984741211,23.25,1708386.0
2017-05-22,23.38500022888184,23.10000038146973,23.290000915527344,23.149999618530273,1324749.0
2017-05-23,23.399999618530273,23.0,23.18000030517578,23.36000061035156,1204327.0
2017-05-24,23.70000076293945,23.165000915527344,23.32999992370605,23.649999618530273,701780.0
2017-05-25,23.790000915527344,23.56999969482422,23.709999084472656,23.739999771118164,635631.0
2017-05-26,23.739999771118164,23.399999618530273,23.71999931335449,23.40999984741211,442932.0
2017-05-30,23.440000534057614,23.020000457763672,23.440000534057614,23.21999931335449,662077.0
2017-05-31,23.5,22.989999771118164,23.239999771118164,23.489999771118164,1047936.0
2017-06-01,24.04999923706055,23.420000076293945,23.75,24.020000457763672,1001280.0
2017-06-02,24.3700008392334,23.93000030517578,24.04999923706055,24.15999984741211,1093238.0
2017-06-05,24.29999923706055,23.809999465942386,24.18000030517578,24.059999465942386,812462.0
2017-06-06,24.20000076293945,23.93000030517578,23.96999931335449,24.09000015258789,994769.0
2017-06-07,24.45000076293945,23.790000915527344,24.15999984741211,24.399999618530273,2030982.0
2017-06-08,24.53000068664551,24.290000915527344,24.5,24.43000030517578,949599.0
2017-06-09,24.5,23.90999984741211,24.3799991607666,24.01000022888184,1320083.0
2017-06-12,24.35000038146973,23.84000015258789,23.96999931335449,23.88999938964844,1210244.0
2017-06-13,24.040000915527344,23.70000076293945,23.93000030517578,24.03000068664551,873839.0
2017-06-14,24.29999923706055,23.93000030517578,24.07999992370605,24.020000457763672,916172.0
2017-06-15,23.96500015258789,23.649999618530273,23.959999084472656,23.85000038146973,664415.0
2017-06-16,24.19499969482422,23.56999969482422,23.82999992370605,24.06999969482422,1235122.0
2017-06-19,24.29999923706055,24.01000022888184,24.20000076293945,24.170000076293945,1200455.0
2017-06-20,24.32270050048828,23.649999618530273,24.20000076293945,23.709999084472656,1261396.0
2017-06-21,23.45000076293945,22.524999618530273,23.34000015258789,22.559999465942386,3015860.0
2017-06-22,23.21999931335449,22.280000686645508,22.70000076293945,22.53000068664551,2715843.0
2017-06-23,22.90999984741211,22.25,22.56999969482422,22.26000022888184,4238640.0
2017-06-26,22.729999542236328,22.024999618530273,22.34000015258789,22.26000022888184,1745341.0
2017-06-27,22.25,21.709999084472656,22.170000076293945,21.989999771118164,3816125.0
2017-06-28,22.989999771118164,22.21999931335449,22.21999931335449,22.920000076293945,2149685.0
2017-06-29,23.040000915527344,22.59499931335449,22.85000038146973,22.78000068664551,2392119.0
2017-06-30,23.0,22.75,22.81999969482422,22.809999465942386,1895728.0
2017-07-03,23.145000457763672,22.790000915527344,22.899999618530273,22.940000534057614,595204.0
2017-07-05,23.03000068664551,22.68000030517578,22.96999931335449,22.690000534057614,1384648.0
2017-07-06,22.709999084472656,22.38999938964844,22.60000038146973,22.46999931335449,1339013.0
2017-07-07,22.6299991607666,22.25,22.53000068664551,22.540000915527344,636920.0
2017-07-10,22.649999618530273,22.1299991607666,22.559999465942386,22.13999938964844,1022789.0
2017-07-11,22.38999938964844,21.88999938964844,22.190000534057614,22.350000381469727,1771178.0
2017-07-12,22.670000076293945,22.32999992370605,22.459999084472656,22.54999923706055,867473.0
2017-07-13,22.65999984741211,22.290000915527344,22.46999931335449,22.61000061035156,1198626.0
2017-07-14,23.020000457763672,22.739999771118164,22.739999771118164,22.940000534057614,827581.0
2017-07-17,23.239999771118164,22.899999618530273,23.0,23.01000022888184,1341077.0
2017-07-18,23.09000015258789,22.809999465942386,22.8700008392334,22.95000076293945,1042798.0
2017-07-19,23.13999938964844,22.94599914550781,22.959999084472656,23.09000015258789,976510.0
2017-07-20,23.22500038146973,22.899999618530273,22.989999771118164,23.190000534057614,1104999.0
2017-07-21,23.229999542236328,23.065000534057614,23.229999542236328,23.1200008392334,644748.0
2017-07-24,23.21999931335449,22.88999938964844,23.15999984741211,23.11000061035156,831246.0
2017-07-25,23.10000038146973,22.540000915527344,23.01000022888184,22.93000030517578,1236449.0
2017-07-26,23.11000061035156,22.38999938964844,23.020000457763672,22.420000076293945,1178118.0
2017-07-27,22.899999618530273,22.40999984741211,22.459999084472656,22.86000061035156,1251064.0
2017-07-28,22.809999465942386,22.459999084472656,22.78000068664551,22.690000534057614,876796.0
2017-07-31,22.937599182128906,22.350000381469727,22.71999931335449,22.3700008392334,721664.0
2017-08-01,22.584999084472656,22.09000015258789,22.5,22.149999618530273,2019145.0
2017-08-02,22.420000076293945,21.709999084472656,22.25,22.200000762939453,2138862.0
2017-08-03,22.53499984741211,22.07999992370605,22.209999084472656,22.34000015258789,1571625.0
2017-08-04,22.421899795532227,21.549999237060547,22.3799991607666,21.56999969482422,2390940.0
2017-08-07,22.170000076293945,21.51000022888184,21.549999237060547,21.979999542236328,3539648.0
2017-08-08,22.1200008392334,21.649999618530273,21.670000076293945,21.709999084472656,2489629.0
2017-08-09,24.02899932861328,22.46999931335449,23.399999618530273,23.13999938964844,8090144.0
2017-08-10,23.059999465942386,22.38999938964844,22.920000076293945,22.54999923706055,2975995.0
2017-08-11,23.709999084472656,22.5,22.559999465942386,23.70000076293945,2561578.0
2017-08-14,24.239999771118164,23.93000030517578,23.95000076293945,24.04999923706055,2686640.0
2017-08-15,24.23769950866699,23.86000061035156,24.09000015258789,24.03000068664551,2154544.0
2017-08-16,24.43000030517578,24.01000022888184,24.01000022888184,24.28000068664551,1780844.0
2017-08-17,25.04999923706055,24.040000915527344,24.1200008392334,24.60000038146973,2473147.0
2017-08-18,24.76000022888184,24.489999771118164,24.540000915527344,24.65999984741211,1684938.0
2017-08-21,25.289499282836914,24.82999992370605,25.0,25.239999771118164,2197409.0
2017-08-22,25.71999931335449,25.270000457763672,25.36000061035156,25.56999969482422,2617696.0
2017-08-23,25.97500038146973,25.270000457763672,25.5,25.940000534057614,1563544.0
2017-08-24,26.209999084472656,25.8700008392334,25.899999618530273,25.95000076293945,2012709.0
2017-08-25,26.09000015258789,25.76499938964844,26.09000015258789,25.86000061035156,1213935.0
2017-08-28,26.1299991607666,25.520000457763672,25.920000076293945,25.60000038146973,1416077.0
2017-08-29,25.709999084472656,25.29999923706055,25.540000915527344,25.68000030517578,1202629.0
2017-08-30,25.71500015258789,25.229999542236328,25.559999465942386,25.70000076293945,1438778.0
2017-08-31,25.79999923706055,25.399999618530273,25.709999084472656,25.76000022888184,737100.0
2017-09-01,25.920000076293945,25.61000061035156,25.809999465942386,25.8700008392334,683213.0
2017-09-05,25.96999931335449,25.290000915527344,25.79999923706055,25.420000076293945,1912047.0
2017-09-06,25.729999542236328,25.38999938964844,25.6200008392334,25.63999938964844,1910055.0
2017-09-07,26.06999969482422,25.520000457763672,25.520000457763672,26.0,1466150.0
2017-09-08,26.239999771118164,25.86000061035156,25.989999771118164,26.06999969482422,893544.0
2017-09-11,26.38500022888184,25.88999938964844,26.190000534057614,25.95000076293945,853641.0
2017-09-12,26.07999992370605,25.5,25.82999992370605,25.71999931335449,1700051.0
2017-09-13,26.209999084472656,25.68000030517578,25.690000534057614,25.959999084472656,898784.0
2017-09-14,25.96999931335449,25.489999771118164,25.790000915527344,25.59000015258789,1254337.0
2017-09-15,26.20000076293945,25.78000068664551,26.20000076293945,25.940000534057614,1297984.0
2017-09-18,26.3700008392334,25.96999931335449,25.979999542236328,26.11000061035156,1887944.0
2017-09-19,26.209999084472656,25.81999969482422,26.13999938964844,26.209999084472656,1700289.0
2017-09-20,26.46999931335449,25.79999923706055,26.10000038146973,26.36000061035156,1525415.0
2017-09-21,27.10000038146973,26.149999618530273,26.270000457763672,26.989999771118164,3631177.0
2017-09-22,27.45000076293945,26.989999771118164,26.989999771118164,27.36000061035156,2576527.0
2017-09-25,27.940000534057614,27.15999984741211,27.60000038146973,27.8700008392334,2933773.0
2017-09-26,28.270000457763672,27.75,28.01000022888184,28.18000030517578,2331854.0
2017-09-27,28.59000015258789,27.93000030517578,28.43000030517578,28.31999969482422,2284328.0
2017-09-28,28.959999084472656,28.18000030517578,28.3700008392334,28.54999923706055,1817001.0
2017-09-29,28.584999084472656,28.040000915527344,28.54999923706055,28.35000038146973,1407178.0
2017-10-02,28.690000534057614,28.15999984741211,28.34000015258789,28.520000457763672,1734454.0
2017-10-03,29.01000022888184,28.53000068664551,28.6200008392334,28.649999618530273,2767333.0
2017-10-04,29.15999984741211,28.520000457763672,28.63999938964844,29.0,2893572.0
2017-10-05,29.440000534057614,28.88999938964844,28.989999771118164,29.13999938964844,1564514.0
2017-10-06,29.20000076293945,28.76000022888184,29.03000068664551,29.020000457763672,1098048.0
2017-10-09,29.289899826049805,28.71999931335449,29.1299991607666,29.10000038146973,1389405.0
2017-10-10,29.32999992370605,28.21500015258789,29.309999465942386,28.309999465942386,2293685.0
2017-10-11,28.670000076293945,28.3700008392334,28.53000068664551,28.649999618530273,1223228.0
2017-10-12,28.84499931335449,28.43000030517578,28.53000068664551,28.81999969482422,1050019.0
2017-10-13,29.06999969482422,28.63999938964844,28.90999984741211,29.020000457763672,879636.0
2017-10-16,29.21999931335449,28.79999923706055,28.959999084472656,29.1200008392334,901973.0
2017-10-17,28.53000068664551,27.60000038146973,28.25,28.0,3716781.0
2017-10-18,27.989999771118164,27.665000915527344,27.940000534057614,27.75,2134508.0
2017-10-19,27.96999931335449,27.3700008392334,27.6200008392334,27.90999984741211,1628775.0
2017-10-20,28.59000015258789,27.90999984741211,28.020000457763672,28.28000068664551,1956751.0
2017-10-23,28.790000915527344,28.309999465942386,28.35000038146973,28.54999923706055,862372.0
2017-10-24,28.809999465942386,28.399999618530273,28.559999465942386,28.770000457763672,1183039.0
2017-10-25,29.13999938964844,28.60000038146973,28.75,29.07999992370605,1286200.0
2017-10-26,29.149999618530273,28.54010009765625,29.040000915527344,28.979999542236328,1283027.0
2017-10-27,29.29999923706055,28.809999465942386,28.95000076293945,29.09000015258789,1023064.0
2017-10-30,29.84000015258789,28.520000457763672,29.10000038146973,28.65999984741211,1430608.0
2017-10-31,28.96999931335449,28.270000457763672,28.489999771118164,28.93000030517578,1321192.0
2017-11-01,29.06999969482422,28.020000457763672,28.940000534057614,28.229999542236328,1483543.0
2017-11-02,28.45000076293945,27.8799991607666,28.03000068664551,27.899999618530273,1593696.0
2017-11-03,27.979999542236328,27.209999084472656,27.899999618530273,27.239999771118164,2245383.0
2017-11-06,27.18000030517578,26.61000061035156,26.90999984741211,27.149999618530273,2839988.0
2017-11-07,27.71999931335449,26.420000076293945,27.28000068664551,26.5,3539481.0
2017-11-08,26.979999542236328,25.00349998474121,25.96999931335449,26.81999969482422,3548606.0
2017-11-09,26.80500030517578,26.040000915527344,26.520000457763672,26.38999938964844,2985670.0
2017-11-10,27.43000030517578,26.34000015258789,26.43000030517578,27.18000030517578,1863640.0
2017-11-13,27.489999771118164,26.81999969482422,27.13999938964844,27.3700008392334,1124318.0
2017-11-14,28.3700008392334,27.270000457763672,27.290000915527344,28.34000015258789,2167514.0
2017-11-15,28.34000015258789,27.540000915527344,28.28000068664551,27.85000038146973,1353535.0
2017-11-16,29.1200008392334,27.616199493408203,27.95000076293945,28.989999771118164,1995847.0
2017-11-17,29.420000076293945,28.8700008392334,28.979999542236328,29.059999465942386,1239488.0
2017-11-20,29.3700008392334,28.087099075317386,29.06999969482422,29.09000015258789,1297589.0
2017-11-21,29.565000534057614,28.96999931335449,29.190000534057614,29.5,1363528.0
2017-11-22,30.25,29.489999771118164,29.51000022888184,30.059999465942386,1471546.0
2017-11-24,30.28000068664551,29.75,30.10000038146973,29.989999771118164,417417.0
2017-11-27,30.415000915527344,29.85000038146973,29.959999084472656,30.239999771118164,914091.0
2017-11-28,30.670000076293945,30.170000076293945,30.25,30.57999992370605,1182230.0
2017-11-29,30.979999542236328,30.489999771118164,30.57999992370605,30.63999938964844,1115884.0
2017-11-30,30.8799991607666,30.479999542236328,30.739999771118164,30.709999084472656,1054800.0
2017-12-01,30.790000915527344,30.11000061035156,30.790000915527344,30.209999084472656,1452244.0
2017-12-04,30.61000061035156,30.209999084472656,30.43000030517578,30.290000915527344,1628678.0
2017-12-05,30.65999984741211,30.11000061035156,30.270000457763672,30.649999618530273,1163289.0
2017-12-06,31.61000061035156,30.63999938964844,30.68000030517578,31.43000030517578,1472682.0
2017-12-07,31.770000457763672,31.15999984741211,31.36000061035156,31.70000076293945,1025091.0
2017-12-08,32.47999954223633,31.790000915527344,31.989999771118164,31.95000076293945,1692685.0
2017-12-11,32.56999969482422,31.86000061035156,31.93000030517578,32.490001678466804,941392.0
2017-12-12,32.674301147460945,32.11999893188477,32.529998779296875,32.240001678466804,1121905.0
2017-12-13,32.419998168945305,31.93000030517578,32.40999984741211,31.959999084472656,1187027.0
2017-12-14,31.875,30.93000030517578,31.38999938964844,31.059999465942386,2124636.0
2017-12-15,31.96999931335449,31.020000457763672,31.06999969482422,31.940000534057614,1320836.0
2017-12-18,32.40999984741211,31.899999618530273,32.209999084472656,32.0,1126361.0
2017-12-19,32.31999969482422,31.38999938964844,32.029998779296875,31.5,1751898.0
2017-12-20,31.81999969482422,31.375,31.71999931335449,31.709999084472656,646232.0
2017-12-21,31.8799991607666,31.54999923706055,31.71999931335449,31.8700008392334,448102.0
2017-12-22,32.68000030517578,31.8700008392334,31.979999542236328,32.509998321533196,1029898.0
2017-12-26,32.889999389648445,32.455001831054695,32.61999893188477,32.549999237060554,632314.0
2017-12-27,32.779998779296875,32.22999954223633,32.59999847412109,32.310001373291016,667173.0
2017-12-28,32.72999954223633,31.989999771118164,32.439998626708984,32.68000030517578,679724.0
2017-12-29,33.09000015258789,32.549999237060554,32.639999389648445,32.790000915527344,731289.0
2018-01-02,33.09000015258789,32.40999984741211,32.970001220703125,32.709999084472656,1200596.0
2018-01-03,33.060001373291016,32.419998168945305,32.709999084472656,32.450000762939446,1116868.0
2018-01-04,32.735000610351555,32.139999389648445,32.5,32.59999847412109,2168981.0
2018-01-05,33.400001525878906,32.564998626708984,32.84999847412109,33.11999893188477,1400869.0
2018-01-08,33.419998168945305,32.8489990234375,33.209999084472656,33.139999389648445,1221594.0
2018-01-09,33.630001068115234,33.220001220703125,33.25,33.299999237060554,1030664.0
2018-01-10,33.43000030517578,32.299999237060554,33.34000015258789,32.36999893188477,564680.0
2018-01-11,33.240001678466804,32.470001220703125,32.560001373291016,33.220001220703125,1109765.0
2018-01-12,33.610000610351555,32.950000762939446,33.200000762939446,33.47999954223633,1930853.0
2018-01-16,34.189998626708984,33.279998779296875,33.860000610351555,33.330001831054695,1152595.0
2018-01-17,33.880001068115234,33.22999954223633,33.43000030517578,33.799999237060554,632160.0
2018-01-18,33.950000762939446,32.810001373291016,33.61999893188477,33.450000762939446,860713.0
2018-01-19,33.72999954223633,33.310001373291016,33.630001068115234,33.68000030517578,640402.0
2018-01-22,33.799999237060554,33.52000045776367,33.700000762939446,33.560001373291016,427941.0
2018-01-23,33.669998168945305,33.169998168945305,33.529998779296875,33.209999084472656,523113.0
2018-01-24,33.41899871826172,32.889999389648445,33.36999893188477,33.09000015258789,1381137.0
2018-01-25,33.459999084472656,33.0,33.25,33.139999389648445,698089.0
2018-01-26,33.40999984741211,33.064998626708984,33.130001068115234,33.279998779296875,724286.0
2018-01-29,33.439998626708984,33.005001068115234,33.34999847412109,33.130001068115234,545227.0
2018-01-30,33.310001373291016,32.880001068115234,32.97999954223633,33.09999847412109,1108001.0
2018-01-31,34.310001373291016,33.009998321533196,33.27000045776367,33.97999954223633,1550222.0
2018-02-01,34.27000045776367,33.610000610351555,33.97999954223633,34.15999984741211,903124.0
2018-02-02,34.040000915527344,33.169998168945305,34.040000915527344,33.259998321533196,986242.0
2018-02-05,33.67419815063477,32.30500030517578,33.189998626708984,32.799999237060554,1605463.0
2018-02-06,33.029998779296875,31.46999931335449,32.490001678466804,31.68000030517578,1634476.0
2018-02-07,33.84000015258789,31.68000030517578,31.68000030517578,33.490001678466804,1534884.0
2018-02-08,33.639999389648445,32.25,33.5,32.27000045776367,784687.0
2018-02-09,33.080001831054695,31.46999931335449,32.459999084472656,32.36999893188477,1009565.0
2018-02-12,33.64500045776367,32.529998779296875,32.529998779296875,32.990001678466804,1247405.0
2018-02-13,33.25,32.514999389648445,32.77000045776367,33.049999237060554,783847.0
2018-02-14,35.20000076293945,32.709999084472656,32.779998779296875,34.97999954223633,3321475.0
2018-02-15,35.810001373291016,34.93000030517578,35.22999954223633,35.720001220703125,1600838.0
2018-02-16,35.70000076293945,34.93000030517578,35.59000015258789,35.09000015258789,1224920.0
2018-02-20,35.09999847412109,34.450000762939446,35.09000015258789,34.759998321533196,700940.0
2018-02-21,35.34000015258789,34.75,34.84999847412109,34.799999237060554,811268.0
2018-02-22,35.09999847412109,33.959999084472656,34.97999954223633,34.11999893188477,1459042.0
2018-02-23,40.08000183105469,39.75,39.75,40.0,29710734.0
2018-02-26,40.040000915527344,39.900001525878906,40.0,39.95000076293945,9448942.0
2018-02-27,40.06999969482422,39.93000030517578,39.93000030517578,40.0099983215332,4310091.0
2018-02-28,40.150001525878906,39.9900016784668,40.0099983215332,40.060001373291016,5118191.0
2018-03-01,40.04999923706055,39.88999938964844,40.02000045776367,39.93000030517578,4827088.0
2018-03-02,39.9900016784668,39.849998474121094,39.95000076293945,39.90999984741211,4541430.0
2018-03-05,39.97999954223633,39.83000183105469,39.91999816894531,39.93999862670898,8084877.0
2018-03-06,39.93000030517578,39.79999923706055,39.900001525878906,39.900001525878906,5857467.0
2018-03-07,39.91999816894531,39.81999969482422,39.86000061035156,39.88999938964844,2705233.0
2018-03-08,39.92990112304688,39.84000015258789,39.86000061035156,39.849998474121094,3239862.0
2018-03-09,39.88999938964844,39.775001525878906,39.86000061035156,39.81999969482422,2937976.0
2018-03-12,39.8650016784668,39.79999923706055,39.84000015258789,39.849998474121094,2620974.0
2018-03-13,39.900001525878906,39.84000015258789,39.849998474121094,39.86000061035156,3312550.0
2018-03-14,39.88999938964844,39.84000015258789,39.86000061035156,39.86000061035156,2804121.0
2018-03-15,39.88000106811523,39.79999923706055,39.86000061035156,39.79999923706055,3166233.0
2018-03-16,39.849998474121094,39.790000915527344,39.83000183105469,39.79999923706055,1975773.0
2018-03-19,39.88999938964844,39.81999969482422,39.81999969482422,39.88999938964844,2273186.0
2018-03-20,40.02000045776367,39.86000061035156,39.88000106811523,40.0099983215332,2312941.0
2018-03-21,39.9900016784668,39.900001525878906,39.959999084472656,39.900001525878906,4254243.0
2018-03-22,39.91999816894531,39.84000015258789,39.900001525878906,39.849998474121094,2686615.0
2018-03-23,39.88999938964844,39.83000183105469,39.849998474121094,39.849998474121094,2544465.0
2018-03-26,39.88000106811523,39.7599983215332,39.86999893188477,39.77000045776367,8418728.0
2018-03-27,39.849998474121094,39.77000045776367,39.810001373291016,39.77999877929688,5240126.0
2018-03-28,39.81999969482422,39.75,39.810001373291016,39.77000045776367,3488830.0
2018-03-29,39.81999969482422,39.790000915527344,39.79999923706055,39.810001373291016,2916727.0
2018-04-02,39.88999938964844,39.81999969482422,39.81999969482422,39.86000061035156,7136068.0
2018-04-03,39.95000076293945,39.86000061035156,39.86000061035156,39.88999938964844,4866025.0
2018-04-04,39.93999862670898,39.86999893188477,39.88000106811523,39.93999862670898,8801403.0
2018-04-05,39.93999862670898,39.91999816894531,39.93999862670898,39.93000030517578,1783954.0
2018-04-06,39.97999954223633,39.88000106811523,39.93999862670898,39.91999816894531,3093330.0
2018-04-09,39.97999954223633,39.91999816894531,39.93000030517578,39.959999084472656,2403344.0
2018-04-10,39.97999954223633,39.91999816894531,39.97000122070313,39.93999862670898,3185563.0
2018-04-11,39.959999084472656,39.93000030517578,39.93999862670898,39.93000030517578,1573072.0
2018-04-12,39.959999084472656,39.93999862670898,39.93999862670898,39.95000076293945,1977691.0
2018-04-13,39.97999954223633,39.95000076293945,39.95000076293945,39.97999954223633,885934.0
2018-04-16,39.97999954223633,39.959999084472656,39.959999084472656,39.97999954223633,1560321.0
2018-04-17,40.02999877929688,39.97999954223633,39.97999954223633,40.0099983215332,936397.0
2018-04-18,40.0,39.97999954223633,39.9900016784668,39.97999954223633,723646.0
2018-04-19,40.0,39.83000183105469,39.97999954223633,39.84000015258789,9810519.0
2018-04-20,39.97999954223633,39.95000076293945,39.959999084472656,39.97000122070313,1726279.0
2018-04-23,39.97999954223633,39.93999862670898,39.97999954223633,39.97000122070313,1944429.0
2018-04-24,40.0099983215332,39.900001525878906,39.97000122070313,40.0,6505625.0
2018-04-25,40.0,40.0,40.0,40.0,0.0
2020-02-11,38.099998474121094,37.95000076293945,38.099998474121094,37.98500061035156,53700.0
2020-02-12,38.02999877929688,37.86999893188477,37.97000122070313,37.97999954223633,7900.0
2020-02-13,38.27999877929688,38.099998474121094,38.099998474121094,38.2400016784668,3500.0
2020-02-14,38.48099899291992,38.323001861572266,38.36999893188477,38.48099899291992,5400.0
2020-02-18,38.52000045776367,38.3849983215332,38.52000045776367,38.4640007019043,32600.0
2020-02-19,38.43000030517578,38.262001037597656,38.43000030517578,38.262001037597656,2500.0
2020-02-20,38.23400115966797,38.0,38.23400115966797,38.22700119018555,3300.0
2020-02-21,38.28499984741211,37.93999862670898,37.93999862670898,38.20600128173828,5300.0
2020-02-24,37.87699890136719,37.36999893188477,37.36999893188477,37.56999969482422,10900.0
2020-08-11,31.809999465942386,31.614999771118164,31.739999771118164,31.614999771118164,18400.0
2020-08-12,31.82999992370605,31.743000030517575,31.743000030517575,31.80100059509277,3900.0
2020-08-13,31.85000038146973,31.71299934387207,31.81999969482422,31.75,9700.0
2020-08-14,31.90999984741211,31.70000076293945,31.79400062561035,31.7450008392334,54600.0
2020-08-17,32.110000610351555,31.75,32.110000610351555,31.84000015258789,32300.0
2020-08-18,31.8799991607666,31.790000915527344,31.8799991607666,31.854999542236328,17200.0
2020-08-19,31.989999771118164,31.79999923706055,31.989999771118164,31.82999992370605,14300.0
2020-08-20,31.989999771118164,31.774999618530273,31.78000068664551,31.822999954223636,15500.0
2020-08-21,31.84499931335449,31.78499984741211,31.81999969482422,31.84499931335449,1700.0
2020-08-24,31.989999771118164,31.790000915527344,31.915000915527344,31.790000915527344,20200.0
2020-08-25,31.959999084472656,31.890100479125977,31.940000534057614,31.90500068664551,5163.0
