Date,High,Low,Open,Close,Volume
2016-04-26,24.434999465942386,24.434999465942386,24.434999465942386,24.434999465942386,300.0
2016-04-27,24.434999465942386,24.434999465942386,24.434999465942386,24.434999465942386,0.0
2016-04-28,24.434999465942386,24.434999465942386,24.434999465942386,24.434999465942386,0.0
2016-04-29,24.434999465942386,24.434999465942386,24.434999465942386,24.434999465942386,0.0
2016-05-02,24.434999465942386,24.434999465942386,24.434999465942386,24.434999465942386,0.0
2016-05-03,23.82999992370605,23.82999992370605,23.82999992370605,23.82999992370605,200.0
2016-05-04,23.82999992370605,23.82999992370605,23.82999992370605,23.82999992370605,0.0
2016-05-05,23.82999992370605,23.82999992370605,23.82999992370605,23.82999992370605,0.0
2016-05-06,23.82999992370605,23.82999992370605,23.82999992370605,23.82999992370605,0.0
2016-05-09,23.82999992370605,23.82999992370605,23.82999992370605,23.82999992370605,0.0
2016-05-10,23.82999992370605,23.82999992370605,23.82999992370605,23.82999992370605,0.0
2016-05-11,23.82999992370605,23.82999992370605,23.82999992370605,23.82999992370605,0.0
2016-05-12,23.82999992370605,23.82999992370605,23.82999992370605,23.82999992370605,0.0
2016-05-13,23.82999992370605,23.82999992370605,23.82999992370605,23.82999992370605,0.0
2016-05-16,23.82999992370605,23.82999992370605,23.82999992370605,23.82999992370605,0.0
2016-05-17,23.82999992370605,23.82999992370605,23.82999992370605,23.82999992370605,0.0
2016-05-18,23.82999992370605,23.82999992370605,23.82999992370605,23.82999992370605,0.0
2016-05-19,23.82999992370605,23.82999992370605,23.82999992370605,23.82999992370605,0.0
2016-05-20,23.82999992370605,23.82999992370605,23.82999992370605,23.82999992370605,0.0
2016-05-23,23.82999992370605,23.82999992370605,23.82999992370605,23.82999992370605,0.0
2016-05-24,23.82999992370605,23.82999992370605,23.82999992370605,23.82999992370605,0.0
2016-05-25,24.149999618530273,24.149999618530273,24.149999618530273,24.149999618530273,100.0
2016-05-26,24.149999618530273,24.149999618530273,24.149999618530273,24.149999618530273,0.0
2016-05-27,24.149999618530273,24.149999618530273,24.149999618530273,24.149999618530273,0.0
2016-05-31,24.149999618530273,24.149999618530273,24.149999618530273,24.149999618530273,0.0
2016-06-01,24.149999618530273,24.149999618530273,24.149999618530273,24.149999618530273,0.0
2016-06-02,23.979999542236328,23.979999542236328,23.979999542236328,23.979999542236328,100.0
2016-06-03,23.979999542236328,23.979999542236328,23.979999542236328,23.979999542236328,0.0
2016-06-06,23.979999542236328,23.979999542236328,23.979999542236328,23.979999542236328,0.0
2016-06-07,23.979999542236328,23.979999542236328,23.979999542236328,23.979999542236328,0.0
2016-06-08,24.3799991607666,24.3700008392334,24.3799991607666,24.3700008392334,300.0
2016-06-09,24.3700008392334,24.3700008392334,24.3700008392334,24.3700008392334,0.0
2016-06-10,24.3700008392334,24.3700008392334,24.3700008392334,24.3700008392334,0.0
2016-06-13,24.3700008392334,24.3700008392334,24.3700008392334,24.3700008392334,0.0
2016-06-14,24.3700008392334,24.3700008392334,24.3700008392334,24.3700008392334,0.0
2016-06-15,24.3700008392334,24.3700008392334,24.3700008392334,24.3700008392334,0.0
2016-06-16,24.3700008392334,24.3700008392334,24.3700008392334,24.3700008392334,0.0
2016-06-17,24.3700008392334,24.3700008392334,24.3700008392334,24.3700008392334,0.0
2016-06-20,24.3700008392334,24.3700008392334,24.3700008392334,24.3700008392334,0.0
2016-06-21,24.3700008392334,24.3700008392334,24.3700008392334,24.3700008392334,0.0
2016-06-22,24.3700008392334,24.3700008392334,24.3700008392334,24.3700008392334,6900.0
2016-06-23,24.3700008392334,24.3700008392334,24.3700008392334,24.3700008392334,0.0
2016-06-24,24.3700008392334,24.3700008392334,24.3700008392334,24.3700008392334,0.0
2016-06-27,22.01000022888184,21.81999969482422,21.81999969482422,21.989999771118164,12500.0
2016-06-28,22.60000038146973,22.57999992370605,22.57999992370605,22.59000015258789,4200.0
2016-06-29,22.59000015258789,22.59000015258789,22.59000015258789,22.59000015258789,0.0
2016-06-30,22.59000015258789,22.59000015258789,22.59000015258789,22.59000015258789,0.0
2016-07-01,22.59000015258789,22.59000015258789,22.59000015258789,22.59000015258789,0.0
2016-07-05,23.209999084472656,23.10000038146973,23.209999084472656,23.10000038146973,1000.0
2016-07-06,22.479999542236328,22.299999237060547,22.32999992370605,22.450000762939453,12100.0
2016-07-07,22.450000762939453,22.450000762939453,22.450000762939453,22.450000762939453,0.0
2016-07-08,22.450000762939453,22.450000762939453,22.450000762939453,22.450000762939453,0.0
2016-07-11,22.450000762939453,22.450000762939453,22.450000762939453,22.450000762939453,100.0
2016-07-12,22.450000762939453,22.450000762939453,22.450000762939453,22.450000762939453,0.0
2016-07-13,22.450000762939453,22.450000762939453,22.450000762939453,22.450000762939453,0.0
2016-07-14,22.450000762939453,22.450000762939453,22.450000762939453,22.450000762939453,100.0
2016-07-15,22.450000762939453,22.450000762939453,22.450000762939453,22.450000762939453,0.0
2016-07-18,22.450000762939453,22.450000762939453,22.450000762939453,22.450000762939453,0.0
2016-07-19,22.450000762939453,22.450000762939453,22.450000762939453,22.450000762939453,0.0
2016-07-20,22.450000762939453,22.450000762939453,22.450000762939453,22.450000762939453,0.0
2016-07-21,22.450000762939453,22.450000762939453,22.450000762939453,22.450000762939453,0.0
2016-07-22,23.75,23.75,23.75,23.75,0.0
2016-07-25,23.75,23.75,23.75,23.75,500.0
2016-07-26,23.75,23.75,23.75,23.75,0.0
2016-07-27,23.75,23.75,23.75,23.75,0.0
2016-07-28,23.69499969482422,23.67600059509277,23.69499969482422,23.67600059509277,400.0
2016-07-29,23.67600059509277,23.67600059509277,23.67600059509277,23.67600059509277,0.0
2016-08-01,23.67600059509277,23.67600059509277,23.67600059509277,23.67600059509277,0.0
2016-08-02,23.45400047302246,23.43000030517578,23.45400047302246,23.43000030517578,500.0
2016-08-03,23.437000274658203,23.437000274658203,23.437000274658203,23.437000274658203,100.0
2016-08-04,23.59000015258789,23.59000015258789,23.59000015258789,23.59000015258789,100.0
2016-08-05,23.81999969482422,23.79999923706055,23.79999923706055,23.81999969482422,300.0
2016-08-08,23.81999969482422,23.81999969482422,23.81999969482422,23.81999969482422,0.0
2016-08-09,23.81999969482422,23.81999969482422,23.81999969482422,23.81999969482422,0.0
2016-08-10,24.1200008392334,24.1200008392334,24.1200008392334,24.1200008392334,100.0
2016-08-11,24.28499984741211,24.209999084472656,24.209999084472656,24.283000946044922,400.0
2016-08-12,24.283000946044922,24.283000946044922,24.283000946044922,24.283000946044922,0.0
2016-08-15,24.283000946044922,24.283000946044922,24.283000946044922,24.283000946044922,0.0
2016-08-16,24.166000366210934,24.166000366210934,24.166000366210934,24.166000366210934,100.0
2016-08-17,24.166000366210934,24.166000366210934,24.166000366210934,24.166000366210934,5000.0
2016-08-18,24.166000366210934,24.166000366210934,24.166000366210934,24.166000366210934,0.0
2016-08-19,24.166000366210934,24.166000366210934,24.166000366210934,24.166000366210934,0.0
2016-08-22,24.166000366210934,24.166000366210934,24.166000366210934,24.166000366210934,0.0
2016-08-23,24.166000366210934,24.166000366210934,24.166000366210934,24.166000366210934,0.0
2016-08-24,24.36000061035156,24.36000061035156,24.36000061035156,24.36000061035156,100.0
2016-08-25,24.36000061035156,24.36000061035156,24.36000061035156,24.36000061035156,0.0
2016-08-26,23.940000534057614,23.940000534057614,23.940000534057614,23.940000534057614,200.0
2016-08-29,23.940000534057614,23.940000534057614,23.940000534057614,23.940000534057614,0.0
2016-08-30,23.940000534057614,23.940000534057614,23.940000534057614,23.940000534057614,0.0
2016-08-31,24.06800079345703,24.06800079345703,24.06800079345703,24.06800079345703,100.0
2016-09-01,24.06800079345703,24.06800079345703,24.06800079345703,24.06800079345703,0.0
2016-09-02,24.06800079345703,24.06800079345703,24.06800079345703,24.06800079345703,0.0
2016-09-06,24.06800079345703,24.06800079345703,24.06800079345703,24.06800079345703,0.0
2016-09-07,24.06800079345703,24.06800079345703,24.06800079345703,24.06800079345703,0.0
2016-09-08,24.06800079345703,24.06800079345703,24.06800079345703,24.06800079345703,0.0
2016-09-09,24.36000061035156,24.36000061035156,24.36000061035156,24.36000061035156,100.0
2016-09-12,24.36000061035156,24.36000061035156,24.36000061035156,24.36000061035156,0.0
2016-09-13,24.36000061035156,24.36000061035156,24.36000061035156,24.36000061035156,0.0
2016-09-14,24.36000061035156,24.36000061035156,24.36000061035156,24.36000061035156,0.0
2016-09-15,24.36000061035156,24.36000061035156,24.36000061035156,24.36000061035156,0.0
2016-09-16,24.36000061035156,24.36000061035156,24.36000061035156,24.36000061035156,0.0
2016-09-19,24.36000061035156,24.36000061035156,24.36000061035156,24.36000061035156,0.0
2016-09-20,24.36000061035156,24.36000061035156,24.36000061035156,24.36000061035156,0.0
2016-09-21,24.36000061035156,24.36000061035156,24.36000061035156,24.36000061035156,0.0
2016-09-22,24.36000061035156,24.36000061035156,24.36000061035156,24.36000061035156,0.0
2016-09-23,24.437000274658203,24.437000274658203,24.437000274658203,24.437000274658203,100.0
2016-09-26,24.437000274658203,24.437000274658203,24.437000274658203,24.437000274658203,0.0
2016-09-27,24.437000274658203,24.437000274658203,24.437000274658203,24.437000274658203,0.0
2016-09-28,24.437000274658203,24.437000274658203,24.437000274658203,24.437000274658203,0.0
2016-09-29,24.437000274658203,24.437000274658203,24.437000274658203,24.437000274658203,0.0
2016-09-30,24.437000274658203,24.437000274658203,24.437000274658203,24.437000274658203,0.0
2016-10-03,24.29999923706055,24.29999923706055,24.29999923706055,24.29999923706055,100.0
2016-10-04,24.29999923706055,24.29999923706055,24.29999923706055,24.29999923706055,0.0
2016-10-05,24.440000534057614,24.440000534057614,24.440000534057614,24.440000534057614,1000.0
2016-10-06,24.440000534057614,24.440000534057614,24.440000534057614,24.440000534057614,0.0
2016-10-07,24.440000534057614,24.440000534057614,24.440000534057614,24.440000534057614,0.0
2016-10-10,24.440000534057614,24.440000534057614,24.440000534057614,24.440000534057614,0.0
2016-10-11,24.440000534057614,24.440000534057614,24.440000534057614,24.440000534057614,0.0
2016-10-12,24.440000534057614,24.440000534057614,24.440000534057614,24.440000534057614,0.0
2016-10-13,24.440000534057614,24.440000534057614,24.440000534057614,24.440000534057614,0.0
2016-10-14,24.149999618530273,24.040000915527344,24.149999618530273,24.09000015258789,4500.0
2016-10-17,23.94700050354004,23.940000534057614,23.940000534057614,23.94700050354004,3700.0
2016-10-18,23.94700050354004,23.94700050354004,23.94700050354004,23.94700050354004,0.0
2016-10-19,23.94700050354004,23.94700050354004,23.94700050354004,23.94700050354004,0.0
2016-10-20,23.94700050354004,23.94700050354004,23.94700050354004,23.94700050354004,0.0
2016-10-21,24.209999084472656,24.18000030517578,24.209999084472656,24.18000030517578,300.0
2016-10-24,24.263999938964844,24.239999771118164,24.239999771118164,24.263999938964844,1400.0
2016-10-25,24.263999938964844,24.263999938964844,24.263999938964844,24.263999938964844,0.0
2016-10-26,24.263999938964844,24.263999938964844,24.263999938964844,24.263999938964844,0.0
2016-10-27,24.263999938964844,24.263999938964844,24.263999938964844,24.263999938964844,0.0
2016-10-28,24.263999938964844,24.263999938964844,24.263999938964844,24.263999938964844,0.0
2016-10-31,24.149999618530273,24.09000015258789,24.09000015258789,24.1299991607666,5700.0
2016-11-01,23.940000534057614,23.940000534057614,23.940000534057614,23.940000534057614,100.0
2016-11-02,23.940000534057614,23.940000534057614,23.940000534057614,23.940000534057614,0.0
2016-11-03,23.76000022888184,23.7549991607666,23.757999420166016,23.757999420166016,800.0
2016-11-04,23.757999420166016,23.757999420166016,23.757999420166016,23.757999420166016,0.0
2016-11-07,23.757999420166016,23.757999420166016,23.757999420166016,23.757999420166016,0.0
2016-11-08,23.757999420166016,23.757999420166016,23.757999420166016,23.757999420166016,0.0
2016-11-09,23.81999969482422,23.81999969482422,23.81999969482422,23.81999969482422,200.0
2016-11-10,24.10000038146973,23.92600059509277,24.10000038146973,23.93000030517578,600.0
2016-11-11,23.93000030517578,23.93000030517578,23.93000030517578,23.93000030517578,0.0
2016-11-14,23.82999992370605,23.75,23.75,23.82999992370605,300.0
2016-11-15,23.82999992370605,23.82999992370605,23.82999992370605,23.82999992370605,0.0
2016-11-16,23.82999992370605,23.82999992370605,23.82999992370605,23.82999992370605,0.0
2016-11-17,23.88999938964844,23.88999938964844,23.88999938964844,23.88999938964844,200.0
2016-11-18,23.770000457763672,23.770000457763672,23.770000457763672,23.770000457763672,500.0
2016-11-21,23.770000457763672,23.770000457763672,23.770000457763672,23.770000457763672,0.0
2016-11-22,23.770000457763672,23.770000457763672,23.770000457763672,23.770000457763672,0.0
2016-11-23,23.770000457763672,23.770000457763672,23.770000457763672,23.770000457763672,0.0
2016-11-25,23.770000457763672,23.770000457763672,23.770000457763672,23.770000457763672,0.0
2016-11-28,23.989999771118164,23.93000030517578,23.989999771118164,23.93000030517578,700.0
2016-11-29,23.93000030517578,23.93000030517578,23.93000030517578,23.93000030517578,0.0
2016-11-30,23.93000030517578,23.93000030517578,23.93000030517578,23.93000030517578,0.0
2016-12-01,23.93000030517578,23.93000030517578,23.93000030517578,23.93000030517578,0.0
2016-12-02,23.93000030517578,23.93000030517578,23.93000030517578,23.93000030517578,0.0
2016-12-05,23.93000030517578,23.93000030517578,23.93000030517578,23.93000030517578,0.0
2016-12-06,23.93000030517578,23.93000030517578,23.93000030517578,23.93000030517578,0.0
2016-12-07,23.93000030517578,23.93000030517578,23.93000030517578,23.93000030517578,0.0
2016-12-08,23.93000030517578,23.93000030517578,23.93000030517578,23.93000030517578,0.0
2016-12-09,23.93000030517578,23.93000030517578,23.93000030517578,23.93000030517578,0.0
2016-12-12,23.93000030517578,23.93000030517578,23.93000030517578,23.93000030517578,0.0
2016-12-13,25.033000946044922,25.033000946044922,25.033000946044922,25.033000946044922,200.0
2016-12-14,25.033000946044922,25.033000946044922,25.033000946044922,25.033000946044922,0.0
2016-12-15,25.033000946044922,25.033000946044922,25.033000946044922,25.033000946044922,0.0
2016-12-16,25.033000946044922,25.033000946044922,25.033000946044922,25.033000946044922,0.0
2016-12-19,25.033000946044922,25.033000946044922,25.033000946044922,25.033000946044922,0.0
2016-12-20,25.033000946044922,25.033000946044922,25.033000946044922,25.033000946044922,0.0
2016-12-21,25.033000946044922,25.033000946044922,25.033000946044922,25.033000946044922,0.0
2016-12-22,25.033000946044922,25.033000946044922,25.033000946044922,25.033000946044922,0.0
2016-12-23,25.033000946044922,25.033000946044922,25.033000946044922,25.033000946044922,0.0
2016-12-27,25.033000946044922,25.033000946044922,25.033000946044922,25.033000946044922,0.0
2016-12-28,24.68000030517578,24.68000030517578,24.68000030517578,24.68000030517578,400.0
2016-12-29,24.59900093078613,24.584999084472656,24.59900093078613,24.584999084472656,1400.0
2016-12-30,24.584999084472656,24.584999084472656,24.584999084472656,24.584999084472656,0.0
2017-01-03,24.99799919128418,24.99799919128418,24.99799919128418,24.99799919128418,200.0
2017-01-04,24.99799919128418,24.99799919128418,24.99799919128418,24.99799919128418,0.0
2017-01-05,24.99799919128418,24.99799919128418,24.99799919128418,24.99799919128418,100.0
2017-01-06,25.229999542236328,25.229999542236328,25.229999542236328,25.229999542236328,200.0
2017-01-09,25.149999618530273,25.10000038146973,25.10000038146973,25.125999450683594,2600.0
2017-01-10,25.18000030517578,25.10000038146973,25.10000038146973,25.1299991607666,1400.0
2017-01-11,25.1299991607666,25.1299991607666,25.1299991607666,25.1299991607666,0.0
2017-01-12,25.1299991607666,25.1299991607666,25.1299991607666,25.1299991607666,0.0
2017-01-13,25.1299991607666,25.1299991607666,25.1299991607666,25.1299991607666,0.0
2017-01-17,25.1299991607666,25.1299991607666,25.1299991607666,25.1299991607666,10000.0
2017-01-18,24.959999084472656,24.959999084472656,24.959999084472656,24.959999084472656,400.0
2017-01-19,24.959999084472656,24.959999084472656,24.959999084472656,24.959999084472656,0.0
2017-01-20,25.040000915527344,25.03000068664551,25.040000915527344,25.03000068664551,3500.0
2017-01-23,25.03000068664551,25.03000068664551,25.03000068664551,25.03000068664551,0.0
2017-01-24,25.03000068664551,25.03000068664551,25.03000068664551,25.03000068664551,0.0
2017-01-25,25.03000068664551,25.03000068664551,25.03000068664551,25.03000068664551,0.0
2017-01-26,25.03000068664551,25.03000068664551,25.03000068664551,25.03000068664551,0.0
2017-01-27,25.03000068664551,25.03000068664551,25.03000068664551,25.03000068664551,0.0
2017-01-30,25.03000068664551,25.03000068664551,25.03000068664551,25.03000068664551,0.0
2017-01-31,25.03000068664551,25.03000068664551,25.03000068664551,25.03000068664551,0.0
2017-02-01,25.03000068664551,25.03000068664551,25.03000068664551,25.03000068664551,0.0
2017-02-02,24.9950008392334,24.9950008392334,24.9950008392334,24.9950008392334,200.0
2017-02-03,25.141000747680664,25.141000747680664,25.141000747680664,25.141000747680664,400.0
2017-02-06,25.141000747680664,25.141000747680664,25.141000747680664,25.141000747680664,0.0
2017-02-07,25.141000747680664,25.141000747680664,25.141000747680664,25.141000747680664,0.0
2017-02-08,25.141000747680664,25.141000747680664,25.141000747680664,25.141000747680664,0.0
2017-02-09,25.141000747680664,25.141000747680664,25.141000747680664,25.141000747680664,0.0
2017-02-10,25.141000747680664,25.141000747680664,25.141000747680664,25.141000747680664,0.0
2017-02-13,25.141000747680664,25.141000747680664,25.141000747680664,25.141000747680664,0.0
2017-02-14,25.141000747680664,25.141000747680664,25.141000747680664,25.141000747680664,0.0
2017-02-15,25.141000747680664,25.141000747680664,25.141000747680664,25.141000747680664,0.0
2017-02-16,25.46500015258789,25.440000534057614,25.457000732421875,25.46500015258789,1900.0
2017-02-17,25.46500015258789,25.46500015258789,25.46500015258789,25.46500015258789,0.0
2017-02-21,25.46500015258789,25.46500015258789,25.46500015258789,25.46500015258789,0.0
2017-02-22,25.46500015258789,25.46500015258789,25.46500015258789,25.46500015258789,0.0
2017-02-23,25.46500015258789,25.46500015258789,25.46500015258789,25.46500015258789,0.0
2017-02-24,25.43000030517578,25.3799991607666,25.399999618530273,25.399999618530273,800.0
2017-02-27,25.399999618530273,25.399999618530273,25.399999618530273,25.399999618530273,0.0
2017-02-28,25.399999618530273,25.399999618530273,25.399999618530273,25.399999618530273,100.0
2017-03-01,25.399999618530273,25.399999618530273,25.399999618530273,25.399999618530273,100.0
2017-03-02,25.399999618530273,25.399999618530273,25.399999618530273,25.399999618530273,0.0
2017-03-03,25.399999618530273,25.399999618530273,25.399999618530273,25.399999618530273,0.0
2017-03-06,25.399999618530273,25.399999618530273,25.399999618530273,25.399999618530273,0.0
2017-03-07,25.399999618530273,25.399999618530273,25.399999618530273,25.399999618530273,0.0
2017-03-08,25.399999618530273,25.399999618530273,25.399999618530273,25.399999618530273,0.0
2017-03-09,25.399999618530273,25.399999618530273,25.399999618530273,25.399999618530273,0.0
2017-03-10,25.399999618530273,25.399999618530273,25.399999618530273,25.399999618530273,0.0
2017-03-13,25.399999618530273,25.399999618530273,25.399999618530273,25.399999618530273,0.0
2017-03-14,25.834999084472656,25.76000022888184,25.81999969482422,25.76799964904785,700.0
2017-03-15,25.76799964904785,25.76799964904785,25.76799964904785,25.76799964904785,0.0
2017-03-16,25.76799964904785,25.76799964904785,25.76799964904785,25.76799964904785,0.0
2017-03-17,25.76799964904785,25.76799964904785,25.76799964904785,25.76799964904785,0.0
2017-03-20,25.76799964904785,25.76799964904785,25.76799964904785,25.76799964904785,0.0
2017-03-21,26.20000076293945,26.20000076293945,26.20000076293945,26.20000076293945,200.0
2017-03-22,26.20000076293945,26.20000076293945,26.20000076293945,26.20000076293945,0.0
2017-03-23,26.20000076293945,26.20000076293945,26.20000076293945,26.20000076293945,0.0
2017-03-24,26.20000076293945,26.20000076293945,26.20000076293945,26.20000076293945,0.0
2017-03-27,26.20000076293945,26.20000076293945,26.20000076293945,26.20000076293945,0.0
2017-03-28,26.20000076293945,26.20000076293945,26.20000076293945,26.20000076293945,0.0
2017-03-29,26.20000076293945,26.20000076293945,26.20000076293945,26.20000076293945,0.0
2017-03-30,26.20000076293945,26.20000076293945,26.20000076293945,26.20000076293945,0.0
2017-03-31,26.20000076293945,26.20000076293945,26.20000076293945,26.20000076293945,0.0
2017-04-03,26.20000076293945,26.20000076293945,26.20000076293945,26.20000076293945,0.0
2017-04-04,26.20000076293945,26.20000076293945,26.20000076293945,26.20000076293945,0.0
2017-04-05,26.20000076293945,26.20000076293945,26.20000076293945,26.20000076293945,0.0
2017-04-06,26.20000076293945,26.20000076293945,26.20000076293945,26.20000076293945,0.0
2017-04-07,26.20000076293945,26.20000076293945,26.20000076293945,26.20000076293945,0.0
2017-04-10,26.10000038146973,26.10000038146973,26.10000038146973,26.10000038146973,100.0
2017-04-11,26.10000038146973,26.10000038146973,26.10000038146973,26.10000038146973,0.0
2017-04-12,26.10000038146973,26.10000038146973,26.10000038146973,26.10000038146973,0.0
2017-04-13,26.10000038146973,26.10000038146973,26.10000038146973,26.10000038146973,0.0
2017-04-17,26.10000038146973,26.10000038146973,26.10000038146973,26.10000038146973,0.0
2017-04-18,26.10000038146973,26.10000038146973,26.10000038146973,26.10000038146973,0.0
2017-04-19,26.10000038146973,26.10000038146973,26.10000038146973,26.10000038146973,0.0
2017-04-20,25.86000061035156,25.85000038146973,25.85000038146973,25.86000061035156,600.0
2017-04-21,25.86000061035156,25.86000061035156,25.86000061035156,25.86000061035156,0.0
2017-04-24,25.86000061035156,25.86000061035156,25.86000061035156,25.86000061035156,0.0
2017-04-25,26.770000457763672,26.770000457763672,26.770000457763672,26.770000457763672,100.0
2017-04-26,26.770000457763672,26.770000457763672,26.770000457763672,26.770000457763672,0.0
2017-04-27,26.770000457763672,26.770000457763672,26.770000457763672,26.770000457763672,0.0
2017-04-28,26.770000457763672,26.770000457763672,26.770000457763672,26.770000457763672,0.0
2017-05-01,26.770000457763672,26.770000457763672,26.770000457763672,26.770000457763672,0.0
2017-05-02,26.770000457763672,26.770000457763672,26.770000457763672,26.770000457763672,0.0
2017-05-03,26.770000457763672,26.770000457763672,26.770000457763672,26.770000457763672,0.0
2017-05-04,26.770000457763672,26.770000457763672,26.770000457763672,26.770000457763672,0.0
2017-05-05,26.770000457763672,26.770000457763672,26.770000457763672,26.770000457763672,0.0
2017-05-08,26.770000457763672,26.770000457763672,26.770000457763672,26.770000457763672,0.0
2017-05-09,26.770000457763672,26.770000457763672,26.770000457763672,26.770000457763672,0.0
2017-05-10,26.770000457763672,26.770000457763672,26.770000457763672,26.770000457763672,0.0
2017-05-11,26.770000457763672,26.770000457763672,26.770000457763672,26.770000457763672,0.0
2017-05-12,26.770000457763672,26.770000457763672,26.770000457763672,26.770000457763672,0.0
2017-05-15,27.1299991607666,27.1299991607666,27.1299991607666,27.1299991607666,100.0
2017-05-16,27.1299991607666,27.1299991607666,27.1299991607666,27.1299991607666,0.0
2017-05-17,27.1299991607666,27.1299991607666,27.1299991607666,27.1299991607666,0.0
2017-05-18,27.1299991607666,27.1299991607666,27.1299991607666,27.1299991607666,100.0
2017-05-19,27.1299991607666,27.1299991607666,27.1299991607666,27.1299991607666,0.0
2017-05-22,27.1299991607666,27.1299991607666,27.1299991607666,27.1299991607666,100.0
2017-05-23,27.1299991607666,27.1299991607666,27.1299991607666,27.1299991607666,0.0
2017-05-24,27.1299991607666,27.1299991607666,27.1299991607666,27.1299991607666,0.0
2017-05-25,27.1299991607666,27.1299991607666,27.1299991607666,27.1299991607666,0.0
2017-05-26,27.1299991607666,27.1299991607666,27.1299991607666,27.1299991607666,0.0
2017-05-30,27.1299991607666,27.1299991607666,27.1299991607666,27.1299991607666,0.0
2017-05-31,27.1299991607666,27.1299991607666,27.1299991607666,27.1299991607666,0.0
2017-06-01,27.1299991607666,27.1299991607666,27.1299991607666,27.1299991607666,0.0
2017-06-02,27.1299991607666,27.1299991607666,27.1299991607666,27.1299991607666,0.0
2017-06-05,27.1299991607666,27.1299991607666,27.1299991607666,27.1299991607666,0.0
2017-06-06,27.1299991607666,27.1299991607666,27.1299991607666,27.1299991607666,0.0
2017-06-07,27.1299991607666,27.1299991607666,27.1299991607666,27.1299991607666,0.0
2017-06-08,27.1299991607666,27.1299991607666,27.1299991607666,27.1299991607666,0.0
2017-06-09,27.1299991607666,27.1299991607666,27.1299991607666,27.1299991607666,0.0
2017-06-12,27.1299991607666,27.1299991607666,27.1299991607666,27.1299991607666,0.0
2017-06-13,27.1299991607666,27.1299991607666,27.1299991607666,27.1299991607666,0.0
2017-06-14,27.1299991607666,27.1299991607666,27.1299991607666,27.1299991607666,0.0
2017-06-15,27.1299991607666,27.1299991607666,27.1299991607666,27.1299991607666,0.0
2017-06-16,27.1299991607666,27.1299991607666,27.1299991607666,27.1299991607666,0.0
2017-06-19,27.1299991607666,27.1299991607666,27.1299991607666,27.1299991607666,0.0
2017-06-20,27.1299991607666,27.1299991607666,27.1299991607666,27.1299991607666,0.0
2017-06-21,27.1299991607666,27.1299991607666,27.1299991607666,27.1299991607666,0.0
2017-06-22,27.1299991607666,27.1299991607666,27.1299991607666,27.1299991607666,0.0
2017-06-23,27.1299991607666,27.1299991607666,27.1299991607666,27.1299991607666,0.0
2017-06-26,27.1299991607666,27.1299991607666,27.1299991607666,27.1299991607666,0.0
2017-06-27,27.1299991607666,27.1299991607666,27.1299991607666,27.1299991607666,0.0
2017-06-28,27.1299991607666,27.1299991607666,27.1299991607666,27.1299991607666,0.0
2017-06-29,27.1299991607666,27.1299991607666,27.1299991607666,27.1299991607666,100.0
2017-06-30,27.1299991607666,27.1299991607666,27.1299991607666,27.1299991607666,100.0
2017-07-03,27.1299991607666,27.1299991607666,27.1299991607666,27.1299991607666,100.0
2017-07-05,27.1299991607666,27.1299991607666,27.1299991607666,27.1299991607666,0.0
2017-07-06,26.69700050354004,26.69700050354004,26.69700050354004,26.69700050354004,0.0
2017-07-07,26.69700050354004,26.69700050354004,26.69700050354004,26.69700050354004,100.0
2017-07-10,26.69700050354004,26.69700050354004,26.69700050354004,26.69700050354004,100.0
2017-07-11,26.69700050354004,26.69700050354004,26.69700050354004,26.69700050354004,0.0
2017-07-12,26.69700050354004,26.69700050354004,26.69700050354004,26.69700050354004,0.0
2017-07-13,26.69700050354004,26.69700050354004,26.69700050354004,26.69700050354004,100.0
2017-07-14,27.395000457763672,27.395000457763672,27.395000457763672,27.395000457763672,200.0
2017-07-17,27.395000457763672,27.395000457763672,27.395000457763672,27.395000457763672,0.0
2017-07-18,27.395000457763672,27.395000457763672,27.395000457763672,27.395000457763672,0.0
2017-07-19,27.440000534057614,27.440000534057614,27.440000534057614,27.440000534057614,600.0
2017-07-20,27.57999992370605,27.57999992370605,27.57999992370605,27.57999992370605,100.0
2017-07-21,27.57999992370605,27.57999992370605,27.57999992370605,27.57999992370605,100.0
2017-07-24,27.57999992370605,27.57999992370605,27.57999992370605,27.57999992370605,0.0
2017-07-25,27.57999992370605,27.57999992370605,27.57999992370605,27.57999992370605,0.0
2017-07-26,27.57999992370605,27.57999992370605,27.57999992370605,27.57999992370605,100.0
2017-07-27,27.57999992370605,27.57999992370605,27.57999992370605,27.57999992370605,0.0
2017-07-28,27.46500015258789,27.46500015258789,27.46500015258789,27.46500015258789,200.0
2017-07-31,27.559999465942386,27.559999465942386,27.559999465942386,27.559999465942386,100.0
2017-08-01,27.559999465942386,27.559999465942386,27.559999465942386,27.559999465942386,0.0
2017-08-02,27.559999465942386,27.559999465942386,27.559999465942386,27.559999465942386,100.0
2017-08-03,27.69700050354004,27.69700050354004,27.69700050354004,27.69700050354004,600.0
2017-08-04,27.69700050354004,27.69700050354004,27.69700050354004,27.69700050354004,100.0
2017-08-07,27.790000915527344,27.78000068664551,27.78000068664551,27.790000915527344,1100.0
2017-08-08,27.790000915527344,27.70000076293945,27.790000915527344,27.70000076293945,1000.0
2017-08-09,27.70000076293945,27.70000076293945,27.70000076293945,27.70000076293945,100.0
2017-08-10,27.30900001525879,27.21999931335449,27.30900001525879,27.21999931335449,700.0
2017-08-11,27.170000076293945,27.170000076293945,27.170000076293945,27.170000076293945,300.0
2017-08-14,27.170000076293945,27.170000076293945,27.170000076293945,27.170000076293945,100.0
2017-08-15,27.170000076293945,27.170000076293945,27.170000076293945,27.170000076293945,100.0
2017-08-16,27.540000915527344,27.540000915527344,27.540000915527344,27.540000915527344,100.0
2017-08-17,27.540000915527344,27.540000915527344,27.540000915527344,27.540000915527344,0.0
2017-08-18,27.35000038146973,27.170000076293945,27.35000038146973,27.170000076293945,300.0
2017-08-21,27.170000076293945,27.170000076293945,27.170000076293945,27.170000076293945,0.0
2017-08-22,27.170000076293945,27.170000076293945,27.170000076293945,27.170000076293945,0.0
2017-08-23,27.36000061035156,27.36000061035156,27.36000061035156,27.36000061035156,200.0
2017-08-24,27.36000061035156,27.36000061035156,27.36000061035156,27.36000061035156,0.0
2017-08-25,27.47400093078613,27.459999084472656,27.459999084472656,27.47400093078613,700.0
2017-08-28,27.47400093078613,27.47400093078613,27.47400093078613,27.47400093078613,0.0
2017-08-29,27.47400093078613,27.47400093078613,27.47400093078613,27.47400093078613,0.0
2017-08-30,27.31999969482422,27.31999969482422,27.31999969482422,27.31999969482422,200.0
2017-08-31,27.31999969482422,27.31999969482422,27.31999969482422,27.31999969482422,0.0
2017-09-01,27.63999938964844,27.63999938964844,27.63999938964844,27.63999938964844,300.0
2017-09-05,27.63999938964844,27.63999938964844,27.63999938964844,27.63999938964844,100.0
2017-09-06,27.63999938964844,27.63999938964844,27.63999938964844,27.63999938964844,0.0
2017-09-07,27.63999938964844,27.63999938964844,27.63999938964844,27.63999938964844,0.0
2017-09-08,27.63999938964844,27.63999938964844,27.63999938964844,27.63999938964844,0.0
2017-09-11,27.63999938964844,27.63999938964844,27.63999938964844,27.63999938964844,100.0
2017-09-12,27.99600028991699,27.99600028991699,27.99600028991699,27.99600028991699,300.0
2017-09-13,27.94899940490723,27.940000534057614,27.940000534057614,27.94899940490723,200.0
2017-09-14,27.937000274658203,27.937000274658203,27.937000274658203,27.937000274658203,300.0
2017-09-15,27.937000274658203,27.937000274658203,27.937000274658203,27.937000274658203,0.0
2017-09-18,28.035999298095703,28.035999298095703,28.035999298095703,28.035999298095703,100.0
2017-09-19,28.1299991607666,28.10000038146973,28.10000038146973,28.1299991607666,900.0
2017-09-20,28.13999938964844,28.13999938964844,28.13999938964844,28.13999938964844,100.0
2017-09-21,28.13999938964844,28.13999938964844,28.13999938964844,28.13999938964844,0.0
2017-09-22,28.13599967956543,28.13599967956543,28.13599967956543,28.13599967956543,100.0
2017-09-25,28.13599967956543,28.13599967956543,28.13599967956543,28.13599967956543,100.0
2017-09-26,28.13599967956543,28.13599967956543,28.13599967956543,28.13599967956543,0.0
2017-09-27,28.13599967956543,28.13599967956543,28.13599967956543,28.13599967956543,0.0
2017-09-28,28.190000534057614,28.190000534057614,28.190000534057614,28.190000534057614,100.0
2017-09-29,28.190000534057614,28.190000534057614,28.190000534057614,28.190000534057614,0.0
2017-10-02,28.33699989318848,28.33699989318848,28.33699989318848,28.33699989318848,100.0
2017-10-03,28.33699989318848,28.33699989318848,28.33699989318848,28.33699989318848,0.0
2017-10-04,28.33699989318848,28.33699989318848,28.33699989318848,28.33699989318848,100.0
2017-10-05,28.46999931335449,28.408000946044922,28.42900085449219,28.46999931335449,3300.0
2017-10-06,28.41900062561035,28.39699935913086,28.41900062561035,28.39699935913086,1500.0
2017-10-09,28.39699935913086,28.39699935913086,28.39699935913086,28.39699935913086,100.0
2017-10-10,28.39699935913086,28.39699935913086,28.39699935913086,28.39699935913086,0.0
2017-10-11,28.572999954223636,28.56999969482422,28.572999954223636,28.572999954223636,800.0
2017-10-12,28.63999938964844,28.63999938964844,28.63999938964844,28.63999938964844,800.0
2017-10-13,28.770000457763672,28.739999771118164,28.739999771118164,28.770000457763672,900.0
2017-10-16,28.770000457763672,28.770000457763672,28.770000457763672,28.770000457763672,0.0
2017-10-17,28.79999923706055,28.79999923706055,28.79999923706055,28.79999923706055,100.0
2017-10-18,28.82900047302246,28.809999465942386,28.82900047302246,28.809999465942386,300.0
2017-10-19,28.809999465942386,28.809999465942386,28.809999465942386,28.809999465942386,0.0
2017-10-20,28.86000061035156,28.86000061035156,28.86000061035156,28.86000061035156,100.0
2017-10-23,28.87400054931641,28.87400054931641,28.87400054931641,28.87400054931641,300.0
2017-10-24,28.83300018310547,28.83300018310547,28.83300018310547,28.83300018310547,200.0
2017-10-25,28.63800048828125,28.6299991607666,28.6299991607666,28.63800048828125,1600.0
2017-10-26,28.63800048828125,28.63800048828125,28.63800048828125,28.63800048828125,100.0
2017-10-27,28.63800048828125,28.63800048828125,28.63800048828125,28.63800048828125,0.0
2017-10-30,28.63800048828125,28.63800048828125,28.63800048828125,28.63800048828125,0.0
2017-10-31,29.020000457763672,29.006999969482425,29.020000457763672,29.006999969482425,1100.0
2017-11-01,29.25,29.25,29.25,29.25,200.0
2017-11-02,29.07999992370605,29.07999992370605,29.07999992370605,29.07999992370605,100.0
2017-11-03,29.07999992370605,29.07999992370605,29.07999992370605,29.07999992370605,100.0
2017-11-06,29.21999931335449,29.190000534057614,29.209999084472656,29.20499992370605,600.0
2017-11-07,29.270000457763672,29.270000457763672,29.270000457763672,29.270000457763672,200.0
2017-11-08,29.270000457763672,29.270000457763672,29.270000457763672,29.270000457763672,0.0
2017-11-09,28.90999984741211,28.90999984741211,28.90999984741211,28.90999984741211,100.0
2017-11-10,28.90999984741211,28.90999984741211,28.90999984741211,28.90999984741211,100.0
2017-11-13,28.790000915527344,28.70000076293945,28.790000915527344,28.70000076293945,300.0
2017-11-14,28.71500015258789,28.71500015258789,28.71500015258789,28.71500015258789,900.0
2017-11-15,28.57999992370605,28.57699966430664,28.57699966430664,28.57999992370605,2300.0
2017-11-16,28.57999992370605,28.57999992370605,28.57999992370605,28.57999992370605,0.0
2017-11-17,28.729999542236328,28.729999542236328,28.729999542236328,28.729999542236328,600.0
2017-11-20,28.729999542236328,28.729999542236328,28.729999542236328,28.729999542236328,0.0
2017-11-21,28.729999542236328,28.729999542236328,28.729999542236328,28.729999542236328,100.0
2017-11-22,28.729999542236328,28.729999542236328,28.729999542236328,28.729999542236328,0.0
2017-11-24,28.729999542236328,28.729999542236328,28.729999542236328,28.729999542236328,100.0
2017-11-27,28.729999542236328,28.729999542236328,28.729999542236328,28.729999542236328,100.0
2017-11-28,29.01499938964844,29.01499938964844,29.01499938964844,29.01499938964844,200.0
2017-11-29,29.01499938964844,29.01499938964844,29.01499938964844,29.01499938964844,0.0
2017-11-30,29.01499938964844,29.01499938964844,29.01499938964844,29.01499938964844,100.0
2017-12-01,29.01499938964844,29.01499938964844,29.01499938964844,29.01499938964844,100.0
2017-12-04,28.979999542236328,28.979999542236328,28.979999542236328,28.979999542236328,200.0
2017-12-05,28.979999542236328,28.979999542236328,28.979999542236328,28.979999542236328,0.0
2017-12-06,28.75,28.75,28.75,28.75,400.0
2017-12-07,28.75,28.75,28.75,28.75,0.0
2017-12-08,28.75,28.75,28.75,28.75,100.0
2017-12-11,28.75,28.75,28.75,28.75,0.0
2017-12-12,29.149999618530273,29.149999618530273,29.149999618530273,29.149999618530273,100.0
2017-12-13,29.149999618530273,29.149999618530273,29.149999618530273,29.149999618530273,0.0
2017-12-14,29.149999618530273,29.149999618530273,29.149999618530273,29.149999618530273,0.0
2017-12-15,29.149999618530273,29.149999618530273,29.149999618530273,29.149999618530273,0.0
2017-12-18,29.29999923706055,29.29999923706055,29.29999923706055,29.29999923706055,100.0
2017-12-19,29.29999923706055,29.29999923706055,29.29999923706055,29.29999923706055,0.0
2017-12-20,29.29999923706055,29.29999923706055,29.29999923706055,29.29999923706055,0.0
2017-12-21,29.29999923706055,29.29999923706055,29.29999923706055,29.29999923706055,100.0
2017-12-22,29.40500068664551,29.35000038146973,29.35000038146973,29.40500068664551,700.0
2017-12-26,29.40500068664551,29.40500068664551,29.40500068664551,29.40500068664551,0.0
2017-12-27,29.40500068664551,29.40500068664551,29.40500068664551,29.40500068664551,0.0
2017-12-28,29.06100082397461,29.06100082397461,29.06100082397461,29.06100082397461,700.0
2017-12-29,29.06100082397461,29.06100082397461,29.06100082397461,29.06100082397461,0.0
2018-01-02,29.06100082397461,29.06100082397461,29.06100082397461,29.06100082397461,0.0
2018-01-03,29.06100082397461,29.06100082397461,29.06100082397461,29.06100082397461,0.0
2018-01-04,29.06100082397461,29.06100082397461,29.06100082397461,29.06100082397461,0.0
2018-01-05,29.79400062561035,29.79400062561035,29.79400062561035,29.79400062561035,300.0
2018-01-08,29.79999923706055,29.79999923706055,29.79999923706055,29.79999923706055,100.0
2018-01-09,29.79999923706055,29.79999923706055,29.79999923706055,29.79999923706055,100.0
2018-01-10,29.79999923706055,29.79999923706055,29.79999923706055,29.79999923706055,0.0
2018-01-11,29.79999923706055,29.79999923706055,29.79999923706055,29.79999923706055,100.0
2018-01-12,29.79999923706055,29.79999923706055,29.79999923706055,29.79999923706055,0.0
2018-01-16,29.79999923706055,29.79999923706055,29.79999923706055,29.79999923706055,0.0
2018-01-17,30.15999984741211,30.15999984741211,30.15999984741211,30.15999984741211,1000.0
2018-01-18,30.15999984741211,30.15999984741211,30.15999984741211,30.15999984741211,0.0
2018-01-19,30.15999984741211,30.15999984741211,30.15999984741211,30.15999984741211,0.0
2018-01-22,30.15999984741211,30.15999984741211,30.15999984741211,30.15999984741211,0.0
2018-01-23,30.15999984741211,30.15999984741211,30.15999984741211,30.15999984741211,0.0
2018-01-24,30.408000946044922,30.399999618530273,30.399999618530273,30.408000946044922,1800.0
2018-01-25,30.45000076293945,30.45000076293945,30.45000076293945,30.45000076293945,100.0
2018-01-26,30.45000076293945,30.45000076293945,30.45000076293945,30.45000076293945,0.0
2018-01-29,30.45000076293945,30.45000076293945,30.45000076293945,30.45000076293945,0.0
2018-01-30,30.45000076293945,30.45000076293945,30.45000076293945,30.45000076293945,0.0
2018-01-31,30.45000076293945,30.45000076293945,30.45000076293945,30.45000076293945,100.0
2018-02-01,30.45000076293945,30.45000076293945,30.45000076293945,30.45000076293945,0.0
2018-02-02,30.45000076293945,30.45000076293945,30.45000076293945,30.45000076293945,100.0
2018-02-05,28.90999984741211,28.90999984741211,28.90999984741211,28.90999984741211,100.0
2018-02-06,28.47500038146973,28.459999084472656,28.459999084472656,28.47500038146973,2200.0
2018-02-07,28.63999938964844,28.63999938964844,28.63999938964844,28.63999938964844,300.0
2018-02-08,28.63999938964844,28.63999938964844,28.63999938964844,28.63999938964844,0.0
2018-02-09,28.04999923706055,28.04999923706055,28.04999923706055,28.04999923706055,100.0
2018-02-12,28.04999923706055,28.04999923706055,28.04999923706055,28.04999923706055,100.0
2018-02-13,28.04999923706055,28.04999923706055,28.04999923706055,28.04999923706055,0.0
2018-02-14,28.04999923706055,28.04999923706055,28.04999923706055,28.04999923706055,0.0
2018-02-15,28.04999923706055,28.04999923706055,28.04999923706055,28.04999923706055,100.0
2018-02-16,28.899999618530273,28.899999618530273,28.899999618530273,28.899999618530273,200.0
2018-02-20,28.899999618530273,28.899999618530273,28.899999618530273,28.899999618530273,0.0
2018-02-21,28.899999618530273,28.899999618530273,28.899999618530273,28.899999618530273,100.0
2018-02-22,28.78000068664551,28.78000068664551,28.78000068664551,28.78000068664551,100.0
2018-02-23,28.84000015258789,28.84000015258789,28.84000015258789,28.84000015258789,100.0
2018-02-26,28.84000015258789,28.84000015258789,28.84000015258789,28.84000015258789,0.0
2018-02-27,28.84000015258789,28.84000015258789,28.84000015258789,28.84000015258789,100.0
2018-02-28,28.989999771118164,28.989999771118164,28.989999771118164,28.989999771118164,0.0
2018-03-01,28.989999771118164,28.989999771118164,28.989999771118164,28.989999771118164,0.0
2018-03-02,28.989999771118164,28.989999771118164,28.989999771118164,28.989999771118164,0.0
2018-03-05,28.989999771118164,28.989999771118164,28.989999771118164,28.989999771118164,0.0
2018-03-06,28.989999771118164,28.989999771118164,28.989999771118164,28.989999771118164,0.0
2018-03-07,28.38599967956543,28.38599967956543,28.38599967956543,28.38599967956543,100.0
2018-03-08,28.38599967956543,28.38599967956543,28.38599967956543,28.38599967956543,0.0
2018-03-09,28.38599967956543,28.38599967956543,28.38599967956543,28.38599967956543,0.0
2018-03-12,28.75,28.75,28.75,28.75,300.0
2018-03-13,28.75,28.75,28.75,28.75,0.0
2018-03-14,28.75,28.75,28.75,28.75,0.0
2018-03-15,28.75,28.75,28.75,28.75,0.0
2018-03-16,28.75,28.75,28.75,28.75,0.0
2018-03-19,28.75,28.75,28.75,28.75,0.0
2018-03-20,28.75,28.75,28.75,28.75,0.0
2018-03-21,28.75,28.75,28.75,28.75,0.0
2018-03-22,27.96500015258789,27.95000076293945,27.95000076293945,27.96500015258789,300.0
2018-03-23,27.96500015258789,27.96500015258789,27.96500015258789,27.96500015258789,0.0
2018-03-26,27.96500015258789,27.96500015258789,27.96500015258789,27.96500015258789,0.0
2018-03-27,27.96500015258789,27.96500015258789,27.96500015258789,27.96500015258789,0.0
2018-03-28,27.81999969482422,27.81999969482422,27.81999969482422,27.81999969482422,0.0
2018-03-29,27.81999969482422,27.81999969482422,27.81999969482422,27.81999969482422,0.0
2018-04-02,27.81999969482422,27.81999969482422,27.81999969482422,27.81999969482422,0.0
2018-04-03,27.81999969482422,27.81999969482422,27.81999969482422,27.81999969482422,0.0
2018-04-04,27.81999969482422,27.81999969482422,27.81999969482422,27.81999969482422,0.0
2018-04-05,27.81999969482422,27.81999969482422,27.81999969482422,27.81999969482422,0.0
2018-04-06,27.81999969482422,27.81999969482422,27.81999969482422,27.81999969482422,0.0
2018-04-09,27.81999969482422,27.81999969482422,27.81999969482422,27.81999969482422,0.0
2018-04-10,27.81999969482422,27.81999969482422,27.81999969482422,27.81999969482422,0.0
2018-04-11,27.81999969482422,27.81999969482422,27.81999969482422,27.81999969482422,0.0
2018-04-12,27.81999969482422,27.81999969482422,27.81999969482422,27.81999969482422,0.0
2018-04-13,27.81999969482422,27.81999969482422,27.81999969482422,27.81999969482422,0.0
2018-04-16,27.81999969482422,27.81999969482422,27.81999969482422,27.81999969482422,0.0
2018-04-17,27.81999969482422,27.81999969482422,27.81999969482422,27.81999969482422,0.0
2018-04-18,27.81999969482422,27.81999969482422,27.81999969482422,27.81999969482422,0.0
2018-04-19,27.81999969482422,27.81999969482422,27.81999969482422,27.81999969482422,0.0
2018-04-20,27.81999969482422,27.81999969482422,27.81999969482422,27.81999969482422,0.0
2018-04-23,27.81999969482422,27.81999969482422,27.81999969482422,27.81999969482422,0.0
2018-04-24,27.81999969482422,27.81999969482422,27.81999969482422,27.81999969482422,0.0
2018-04-25,27.81999969482422,27.81999969482422,27.81999969482422,27.81999969482422,0.0
2018-04-26,27.81999969482422,27.81999969482422,27.81999969482422,27.81999969482422,200.0
2018-04-27,27.81999969482422,27.81999969482422,27.81999969482422,27.81999969482422,0.0
2018-04-30,27.81999969482422,27.81999969482422,27.81999969482422,27.81999969482422,0.0
2018-05-01,29.194000244140625,29.03499984741211,29.190000534057614,29.03499984741211,11900.0
2018-05-02,29.03499984741211,29.03499984741211,29.03499984741211,29.03499984741211,0.0
2018-05-03,29.03499984741211,29.03499984741211,29.03499984741211,29.03499984741211,0.0
2018-05-04,29.03499984741211,29.03499984741211,29.03499984741211,29.03499984741211,0.0
2018-05-07,29.03499984741211,29.03499984741211,29.03499984741211,29.03499984741211,0.0
2018-05-08,29.03499984741211,29.03499984741211,29.03499984741211,29.03499984741211,0.0
2018-05-09,29.03499984741211,29.03499984741211,29.03499984741211,29.03499984741211,0.0
2018-05-10,29.03499984741211,29.03499984741211,29.03499984741211,29.03499984741211,0.0
2018-05-11,29.03499984741211,29.03499984741211,29.03499984741211,29.03499984741211,0.0
2018-05-14,29.03499984741211,29.03499984741211,29.03499984741211,29.03499984741211,0.0
2018-05-15,29.03499984741211,29.03499984741211,29.03499984741211,29.03499984741211,0.0
2018-05-16,29.03499984741211,29.03499984741211,29.03499984741211,29.03499984741211,0.0
2018-05-17,29.03499984741211,29.03499984741211,29.03499984741211,29.03499984741211,0.0
2018-05-18,29.03499984741211,29.03499984741211,29.03499984741211,29.03499984741211,0.0
2018-05-21,29.03499984741211,29.03499984741211,29.03499984741211,29.03499984741211,0.0
2018-05-22,29.03499984741211,29.03499984741211,29.03499984741211,29.03499984741211,0.0
2018-05-23,29.149999618530273,29.149999618530273,29.149999618530273,29.149999618530273,0.0
2018-05-24,29.149999618530273,29.149999618530273,29.149999618530273,29.149999618530273,0.0
2018-05-25,29.149999618530273,29.149999618530273,29.149999618530273,29.149999618530273,0.0
2018-05-29,29.149999618530273,29.149999618530273,29.149999618530273,29.149999618530273,0.0
2018-05-30,29.149999618530273,29.149999618530273,29.149999618530273,29.149999618530273,0.0
2018-05-31,29.149999618530273,29.149999618530273,29.149999618530273,29.149999618530273,0.0
2018-06-01,29.149999618530273,29.149999618530273,29.149999618530273,29.149999618530273,0.0
2018-06-04,29.149999618530273,29.149999618530273,29.149999618530273,29.149999618530273,0.0
2018-06-05,29.149999618530273,29.149999618530273,29.149999618530273,29.149999618530273,0.0
2018-06-06,29.149999618530273,29.149999618530273,29.149999618530273,29.149999618530273,0.0
2018-06-07,29.309999465942386,29.309999465942386,29.309999465942386,29.309999465942386,200.0
2018-06-08,29.309999465942386,29.309999465942386,29.309999465942386,29.309999465942386,0.0
2018-06-11,29.309999465942386,29.309999465942386,29.309999465942386,29.309999465942386,0.0
2018-06-12,29.309999465942386,29.309999465942386,29.309999465942386,29.309999465942386,0.0
2018-06-13,29.309999465942386,29.309999465942386,29.309999465942386,29.309999465942386,100.0
2018-06-14,29.309999465942386,29.309999465942386,29.309999465942386,29.309999465942386,0.0
2018-06-15,29.19499969482422,29.170000076293945,29.18000030517578,29.19499969482422,4200.0
2018-06-18,29.19499969482422,29.19499969482422,29.19499969482422,29.19499969482422,0.0
2018-06-19,29.19499969482422,29.19499969482422,29.19499969482422,29.19499969482422,0.0
2018-06-20,29.19499969482422,29.19499969482422,29.19499969482422,29.19499969482422,0.0
2018-06-21,29.19499969482422,29.19499969482422,29.19499969482422,29.19499969482422,0.0
2018-06-22,29.19499969482422,29.19499969482422,29.19499969482422,29.19499969482422,0.0
2018-06-25,29.19499969482422,29.19499969482422,29.19499969482422,29.19499969482422,0.0
2018-06-26,29.19499969482422,29.19499969482422,29.19499969482422,29.19499969482422,0.0
2018-06-27,29.19499969482422,29.19499969482422,29.19499969482422,29.19499969482422,0.0
2018-06-28,29.19499969482422,29.19499969482422,29.19499969482422,29.19499969482422,0.0
2018-06-29,29.19499969482422,29.19499969482422,29.19499969482422,29.19499969482422,0.0
2018-07-02,29.19499969482422,29.19499969482422,29.19499969482422,29.19499969482422,0.0
2018-07-03,28.21999931335449,28.06999969482422,28.21999931335449,28.06999969482422,200.0
2018-07-05,28.06999969482422,28.06999969482422,28.06999969482422,28.06999969482422,0.0
2018-07-06,28.06999969482422,28.06999969482422,28.06999969482422,28.06999969482422,0.0
2018-07-09,28.416000366210934,28.416000366210934,28.416000366210934,28.416000366210934,900.0
2018-07-10,28.492000579833984,28.489999771118164,28.489999771118164,28.492000579833984,1000.0
2018-07-11,28.492000579833984,28.492000579833984,28.492000579833984,28.492000579833984,100.0
2018-07-12,28.3799991607666,28.3799991607666,28.3799991607666,28.3799991607666,400.0
2018-07-13,28.440000534057614,28.440000534057614,28.440000534057614,28.440000534057614,100.0
2018-07-16,28.440000534057614,28.440000534057614,28.440000534057614,28.440000534057614,0.0
2018-07-17,28.440000534057614,28.440000534057614,28.440000534057614,28.440000534057614,0.0
2018-07-18,28.440000534057614,28.440000534057614,28.440000534057614,28.440000534057614,0.0
2018-07-19,28.440000534057614,28.440000534057614,28.440000534057614,28.440000534057614,0.0
2018-07-20,28.440000534057614,28.440000534057614,28.440000534057614,28.440000534057614,0.0
2018-07-23,28.440000534057614,28.440000534057614,28.440000534057614,28.440000534057614,0.0
2018-07-24,28.440000534057614,28.440000534057614,28.440000534057614,28.440000534057614,0.0
2018-07-25,28.440000534057614,28.440000534057614,28.440000534057614,28.440000534057614,0.0
2018-07-26,28.440000534057614,28.440000534057614,28.440000534057614,28.440000534057614,0.0
2018-07-27,29.03899955749512,29.03899955749512,29.03899955749512,29.03899955749512,500.0
2018-07-30,28.96999931335449,28.95000076293945,28.96999931335449,28.95000076293945,1700.0
2018-07-31,28.95000076293945,28.95000076293945,28.95000076293945,28.95000076293945,0.0
2018-08-01,28.95000076293945,28.95000076293945,28.95000076293945,28.95000076293945,0.0
2018-08-02,28.56999969482422,28.56999969482422,28.56999969482422,28.56999969482422,500.0
2018-08-03,28.56999969482422,28.56999969482422,28.56999969482422,28.56999969482422,0.0
2018-08-06,28.56999969482422,28.56999969482422,28.56999969482422,28.56999969482422,0.0
2018-08-07,28.56999969482422,28.56999969482422,28.56999969482422,28.56999969482422,0.0
2018-08-08,28.809999465942386,28.79999923706055,28.809999465942386,28.79999923706055,200.0
2018-08-09,28.79999923706055,28.79999923706055,28.79999923706055,28.79999923706055,0.0
2018-08-10,28.79999923706055,28.79999923706055,28.79999923706055,28.79999923706055,0.0
2018-08-13,28.31999969482422,28.31999969482422,28.31999969482422,28.31999969482422,300.0
2018-08-14,28.31999969482422,28.31999969482422,28.31999969482422,28.31999969482422,0.0
2018-08-15,28.31999969482422,28.31999969482422,28.31999969482422,28.31999969482422,0.0
2018-08-16,28.31999969482422,28.31999969482422,28.31999969482422,28.31999969482422,0.0
2018-08-17,28.07999992370605,28.04999923706055,28.07999992370605,28.05900001525879,2700.0
2018-08-20,28.05900001525879,28.05900001525879,28.05900001525879,28.05900001525879,0.0
2018-08-21,28.05900001525879,28.05900001525879,28.05900001525879,28.05900001525879,0.0
2018-08-22,28.05900001525879,28.05900001525879,28.05900001525879,28.05900001525879,0.0
2018-08-23,28.3700008392334,28.3700008392334,28.3700008392334,28.3700008392334,400.0
2018-08-24,28.3700008392334,28.3700008392334,28.3700008392334,28.3700008392334,100.0
2018-08-27,28.739999771118164,28.739999771118164,28.739999771118164,28.739999771118164,100.0
2018-08-28,28.739999771118164,28.739999771118164,28.739999771118164,28.739999771118164,0.0
2018-08-29,28.739999771118164,28.739999771118164,28.739999771118164,28.739999771118164,0.0
2018-08-30,28.739999771118164,28.739999771118164,28.739999771118164,28.739999771118164,0.0
2018-08-31,28.739999771118164,28.739999771118164,28.739999771118164,28.739999771118164,0.0
2018-09-04,28.739999771118164,28.739999771118164,28.739999771118164,28.739999771118164,0.0
2018-09-05,28.739999771118164,28.739999771118164,28.739999771118164,28.739999771118164,0.0
2018-09-06,28.739999771118164,28.739999771118164,28.739999771118164,28.739999771118164,0.0
2018-09-07,28.739999771118164,28.739999771118164,28.739999771118164,28.739999771118164,0.0
2018-09-10,28.739999771118164,28.739999771118164,28.739999771118164,28.739999771118164,0.0
2018-09-11,28.739999771118164,28.739999771118164,28.739999771118164,28.739999771118164,0.0
2018-09-12,28.739999771118164,28.739999771118164,28.739999771118164,28.739999771118164,0.0
2018-09-13,28.08300018310547,28.07999992370605,28.07999992370605,28.07999992370605,2600.0
2018-09-14,28.209999084472656,28.18000030517578,28.209999084472656,28.18000030517578,400.0
2018-09-17,28.18000030517578,28.18000030517578,28.18000030517578,28.18000030517578,0.0
2018-09-18,28.399999618530273,28.3700008392334,28.3700008392334,28.399999618530273,175800.0
2018-09-19,28.399999618530273,28.399999618530273,28.399999618530273,28.399999618530273,0.0
2018-09-20,28.73200035095215,28.73200035095215,28.73200035095215,28.73200035095215,500.0
2018-09-21,28.73200035095215,28.73200035095215,28.73200035095215,28.73200035095215,0.0
2018-09-24,28.770000457763672,28.770000457763672,28.770000457763672,28.770000457763672,100.0
2018-09-25,28.95000076293945,28.95000076293945,28.95000076293945,28.95000076293945,500.0
2018-09-26,28.95000076293945,28.95000076293945,28.95000076293945,28.95000076293945,100.0
2018-09-27,28.95000076293945,28.95000076293945,28.95000076293945,28.95000076293945,0.0
2018-09-28,28.790000915527344,28.790000915527344,28.790000915527344,28.790000915527344,100.0
2018-10-01,28.790000915527344,28.790000915527344,28.790000915527344,28.790000915527344,0.0
2018-10-02,28.74799919128418,28.74799919128418,28.74799919128418,28.74799919128418,500.0
2018-10-03,28.74799919128418,28.74799919128418,28.74799919128418,28.74799919128418,0.0
2018-10-04,28.74799919128418,28.74799919128418,28.74799919128418,28.74799919128418,100.0
2018-10-05,28.74799919128418,28.74799919128418,28.74799919128418,28.74799919128418,100.0
2018-10-08,28.74799919128418,28.74799919128418,28.74799919128418,28.74799919128418,0.0
2018-10-09,28.74799919128418,28.74799919128418,28.74799919128418,28.74799919128418,0.0
2018-10-10,27.65999984741211,27.6299991607666,27.6299991607666,27.65999984741211,300.0
2018-10-11,27.0,26.920000076293945,27.0,26.920000076293945,300.0
2018-10-12,27.01000022888184,27.01000022888184,27.01000022888184,27.01000022888184,100.0
2018-10-15,27.09000015258789,26.968000411987305,27.040000915527344,27.05699920654297,2200.0
2018-10-16,27.05699920654297,27.05699920654297,27.05699920654297,27.05699920654297,0.0
2018-10-17,27.05699920654297,27.05699920654297,27.05699920654297,27.05699920654297,0.0
2018-10-18,27.040000915527344,27.040000915527344,27.040000915527344,27.040000915527344,100.0
2018-10-19,27.31999969482422,27.15999984741211,27.31999969482422,27.15999984741211,400.0
2018-10-22,27.290000915527344,27.290000915527344,27.290000915527344,27.290000915527344,100.0
2018-10-23,27.290000915527344,27.290000915527344,27.290000915527344,27.290000915527344,0.0
2018-10-24,27.290000915527344,27.290000915527344,27.290000915527344,27.290000915527344,0.0
2018-10-25,27.290000915527344,27.290000915527344,27.290000915527344,27.290000915527344,0.0
2018-10-26,26.28000068664551,26.04999923706055,26.239999771118164,26.270000457763672,800.0
2018-10-29,26.309999465942386,26.309999465942386,26.309999465942386,26.309999465942386,100.0
2018-10-30,26.309999465942386,26.309999465942386,26.309999465942386,26.309999465942386,0.0
2018-10-31,26.309999465942386,26.309999465942386,26.309999465942386,26.309999465942386,0.0
2018-11-01,26.309999465942386,26.309999465942386,26.309999465942386,26.309999465942386,0.0
2018-11-02,26.309999465942386,26.309999465942386,26.309999465942386,26.309999465942386,0.0
2018-11-05,27.190000534057614,27.190000534057614,27.190000534057614,27.190000534057614,300.0
2018-11-06,27.190000534057614,27.190000534057614,27.190000534057614,27.190000534057614,0.0
2018-11-07,27.190000534057614,27.190000534057614,27.190000534057614,27.190000534057614,0.0
2018-11-08,27.420000076293945,27.38999938964844,27.38999938964844,27.420000076293945,2000.0
2018-11-09,27.420000076293945,27.420000076293945,27.420000076293945,27.420000076293945,0.0
2018-11-12,27.101999282836914,27.101999282836914,27.101999282836914,27.101999282836914,800.0
2018-11-13,26.8700008392334,26.8700008392334,26.8700008392334,26.8700008392334,0.0
2018-11-14,26.8700008392334,26.8700008392334,26.8700008392334,26.8700008392334,100.0
2018-11-15,27.04999923706055,27.04999923706055,27.04999923706055,27.04999923706055,12300.0
2018-11-16,26.989999771118164,26.989999771118164,26.989999771118164,26.989999771118164,100.0
2018-11-19,26.8700008392334,26.729999542236328,26.8700008392334,26.729999542236328,300.0
2018-11-20,26.46999931335449,26.35000038146973,26.35000038146973,26.45000076293945,500.0
2018-11-21,26.790000915527344,26.729999542236328,26.790000915527344,26.729999542236328,200.0
2018-11-23,26.729999542236328,26.729999542236328,26.729999542236328,26.729999542236328,0.0
2018-11-26,26.979999542236328,26.959999084472656,26.959999084472656,26.979999542236328,200.0
2018-11-27,26.979999542236328,26.979999542236328,26.979999542236328,26.979999542236328,0.0
2018-11-28,27.19300079345703,26.899999618530273,26.899999618530273,27.18000030517578,4800.0
2018-11-29,27.149999618530273,27.10000038146973,27.10000038146973,27.1200008392334,600.0
2018-11-30,27.059999465942386,26.959999084472656,26.989999771118164,27.059999465942386,3800.0
2018-12-03,27.059999465942386,27.059999465942386,27.059999465942386,27.059999465942386,0.0
2018-12-04,26.540000915527344,26.239999771118164,26.540000915527344,26.239999771118164,900.0
2018-12-06,26.239999771118164,26.239999771118164,26.239999771118164,26.239999771118164,0.0
2018-12-07,25.75,25.562000274658203,25.75,25.562000274658203,100.0
2018-12-10,25.5,25.48900032043457,25.5,25.48900032043457,100.0
2018-12-11,25.67499923706055,25.5,25.67499923706055,25.558000564575195,200.0
2018-12-12,25.89900016784668,25.89900016784668,25.89900016784668,25.89900016784668,0.0
2018-12-13,25.89900016784668,25.89900016784668,25.89900016784668,25.89900016784668,0.0
2018-12-14,25.89900016784668,25.89900016784668,25.89900016784668,25.89900016784668,0.0
2018-12-17,25.36000061035156,25.291000366210934,25.36000061035156,25.291000366210934,2100.0
2018-12-18,25.291000366210934,25.291000366210934,25.291000366210934,25.291000366210934,0.0
2018-12-19,25.291000366210934,25.291000366210934,25.291000366210934,25.291000366210934,0.0
2018-12-20,24.86000061035156,24.841999053955078,24.86000061035156,24.841999053955078,100.0
2018-12-21,24.63999938964844,24.5,24.61000061035156,24.533000946044922,2200.0
2018-12-24,24.32999992370605,24.15200042724609,24.32999992370605,24.15200042724609,200.0
2018-12-26,24.84000015258789,24.18000030517578,24.18000030517578,24.84000015258789,400.0
2018-12-27,24.714000701904297,24.3700008392334,24.3700008392334,24.714000701904297,100.0
2018-12-28,24.631999969482425,24.56999969482422,24.56999969482422,24.631999969482425,200.0
2018-12-31,24.70000076293945,24.57900047302246,24.70000076293945,24.57900047302246,12300.0
2019-01-02,24.614999771118164,24.489999771118164,24.489999771118164,24.614999771118164,100.0
2019-01-03,24.38999938964844,24.36199951171875,24.38999938964844,24.36199951171875,1100.0
2019-01-04,25.10000038146973,24.96999931335449,24.96999931335449,25.10000038146973,100.0
2019-01-07,25.14299964904785,25.06999969482422,25.06999969482422,25.14299964904785,200.0
2019-01-08,25.34600067138672,25.309999465942386,25.309999465942386,25.34600067138672,100.0
2019-01-09,25.34600067138672,25.34600067138672,25.34600067138672,25.34600067138672,0.0
2019-01-10,25.34600067138672,25.34600067138672,25.34600067138672,25.34600067138672,0.0
2019-01-11,25.34600067138672,25.34600067138672,25.34600067138672,25.34600067138672,0.0
2019-01-14,25.32699966430664,25.32699966430664,25.32699966430664,25.32699966430664,100.0
2019-01-15,25.51000022888184,25.5,25.5,25.5,400.0
2019-01-16,25.5,25.5,25.5,25.5,0.0
2019-01-17,25.5,25.5,25.5,25.5,0.0
2019-01-18,26.06999969482422,26.035999298095703,26.06999969482422,26.035999298095703,200.0
2019-01-22,26.035999298095703,26.035999298095703,26.035999298095703,26.035999298095703,0.0
2019-01-23,25.76000022888184,25.60000038146973,25.76000022888184,25.67900085449219,2500.0
2019-01-24,25.67900085449219,25.67900085449219,25.67900085449219,25.67900085449219,0.0
2019-01-25,25.94099998474121,25.94099998474121,25.94099998474121,25.94099998474121,0.0
2019-01-28,25.67900085449219,25.67900085449219,25.67900085449219,25.67900085449219,0.0
2019-01-29,25.933000564575195,25.933000564575195,25.933000564575195,25.933000564575195,0.0
2019-01-30,26.136999130249023,26.136999130249023,26.136999130249023,26.136999130249023,0.0
2019-01-31,26.158000946044922,26.01000022888184,26.01000022888184,26.158000946044922,500.0
2019-02-01,26.149999618530273,26.09000015258789,26.09000015258789,26.1299991607666,700.0
2019-02-04,26.261999130249023,26.1200008392334,26.1200008392334,26.261999130249023,100.0
2019-02-05,26.520000457763672,26.459999084472656,26.459999084472656,26.49799919128418,900.0
2019-02-06,26.45000076293945,26.40200042724609,26.45000076293945,26.40200042724609,200.0
2019-02-07,26.091999053955078,26.04999923706055,26.059999465942386,26.091999053955078,400.0
2019-02-08,25.96299934387207,25.85000038146973,25.85000038146973,25.96299934387207,1500.0
2019-02-11,26.01099967956543,25.979999542236328,25.979999542236328,26.01099967956543,1000.0
2019-02-12,26.29400062561035,26.28000068664551,26.28000068664551,26.29400062561035,200.0
2019-02-13,26.382999420166016,26.382999420166016,26.382999420166016,26.382999420166016,0.0
2019-02-14,26.3799991607666,26.35000038146973,26.3799991607666,26.35300064086914,200.0
2019-02-15,26.68400001525879,26.61000061035156,26.61000061035156,26.68400001525879,200.0
2019-02-19,26.77599906921387,26.77599906921387,26.77599906921387,26.77599906921387,100.0
2019-02-20,26.93000030517578,26.882999420166016,26.920000076293945,26.882999420166016,500.0
2019-02-21,26.80900001525879,26.80900001525879,26.80900001525879,26.80900001525879,0.0
2019-02-22,26.920000076293945,26.90200042724609,26.920000076293945,26.90200042724609,100.0
2019-02-25,26.989999771118164,26.959999084472656,26.989999771118164,26.959999084472656,1000.0
2019-02-26,27.077999114990234,27.065000534057614,27.065000534057614,27.077999114990234,100.0
2019-02-27,26.98500061035156,26.98500061035156,26.98500061035156,26.98500061035156,0.0
2019-02-28,26.941999435424805,26.941999435424805,26.941999435424805,26.941999435424805,0.0
2019-03-01,27.11000061035156,27.11000061035156,27.11000061035156,27.11000061035156,0.0
2019-03-04,27.02799987792969,26.96999931335449,27.0,27.02799987792969,900.0
2019-03-05,27.118999481201172,27.118999481201172,27.118999481201172,27.118999481201172,0.0
2019-03-06,27.04199981689453,27.04199981689453,27.04199981689453,27.04199981689453,0.0
2019-03-07,26.76000022888184,26.76000022888184,26.76000022888184,26.76000022888184,100.0
2019-03-08,26.714000701904297,26.714000701904297,26.714000701904297,26.714000701904297,0.0
2019-03-11,26.92799949645996,26.92799949645996,26.92799949645996,26.92799949645996,0.0
2019-03-12,26.92799949645996,26.92799949645996,26.92799949645996,26.92799949645996,0.0
2019-03-13,26.92799949645996,26.92799949645996,26.92799949645996,26.92799949645996,0.0
2019-03-14,27.107999801635746,27.107999801635746,27.107999801635746,27.107999801635746,0.0
2019-03-15,27.35700035095215,27.35700035095215,27.35700035095215,27.35700035095215,0.0
2019-03-18,27.472999572753906,27.472999572753906,27.472999572753906,27.472999572753906,0.0
2019-03-19,27.49600028991699,27.49600028991699,27.49600028991699,27.49600028991699,0.0
2019-03-20,27.452999114990234,27.34000015258789,27.34000015258789,27.452999114990234,100.0
2019-03-21,27.51099967956543,27.51099967956543,27.51099967956543,27.51099967956543,0.0
2019-03-22,27.0,27.0,27.0,27.0,200.0
2019-03-25,26.989999771118164,26.989999771118164,26.989999771118164,26.989999771118164,0.0
2019-03-26,27.21999931335449,27.18000030517578,27.21999931335449,27.18000030517578,100.0
2019-03-27,27.18199920654297,27.18199920654297,27.18199920654297,27.18199920654297,0.0
2019-03-28,27.18099975585937,27.18099975585937,27.18099975585937,27.18099975585937,0.0
2019-03-29,27.28000068664551,27.28000068664551,27.28000068664551,27.28000068664551,100.0
2019-04-01,27.618999481201172,27.590999603271484,27.590999603271484,27.618999481201172,500.0
2019-04-02,27.6560001373291,27.6560001373291,27.6560001373291,27.6560001373291,0.0
2019-04-03,27.82500076293945,27.82500076293945,27.82500076293945,27.82500076293945,100.0
2019-04-04,27.8129997253418,27.8129997253418,27.8129997253418,27.8129997253418,0.0
2019-04-05,27.86100006103516,27.86100006103516,27.86100006103516,27.86100006103516,0.0
2019-04-08,27.85000038146973,27.81999969482422,27.84000015258789,27.85000038146973,400.0
2019-04-09,27.69099998474121,27.69099998474121,27.69099998474121,27.69099998474121,0.0
2019-04-10,27.763999938964844,27.763999938964844,27.763999938964844,27.763999938964844,0.0
2019-04-11,27.76799964904785,27.76799964904785,27.76799964904785,27.76799964904785,0.0
2019-04-12,27.90299987792969,27.8700008392334,27.899999618530273,27.90299987792969,2100.0
2019-04-15,27.92900085449219,27.92300033569336,27.92900085449219,27.92300033569336,700.0
2019-04-16,28.006000518798828,28.006000518798828,28.006000518798828,28.006000518798828,0.0
2019-04-17,27.959999084472656,27.959999084472656,27.959999084472656,27.959999084472656,100.0
2019-04-18,28.093000411987305,28.093000411987305,28.093000411987305,28.093000411987305,0.0
2019-04-22,28.05900001525879,28.045000076293945,28.045000076293945,28.05900001525879,300.0
2019-04-23,28.138999938964844,28.12299919128418,28.12299919128418,28.138999938964844,900.0
2019-04-24,27.99799919128418,27.99799919128418,27.99799919128418,27.99799919128418,900.0
2019-04-25,27.959999084472656,27.95000076293945,27.959999084472656,27.959999084472656,2000.0
2019-04-26,28.083999633789066,28.0629997253418,28.0629997253418,28.083999633789066,200.0
2019-04-29,28.17900085449219,28.17900085449219,28.17900085449219,28.17900085449219,0.0
2019-04-30,28.183000564575195,28.170000076293945,28.170000076293945,28.183000564575195,2000.0
2019-05-01,28.20000076293945,28.05699920654297,28.18000030517578,28.05699920654297,4300.0
2019-05-02,27.98500061035156,27.98500061035156,27.98500061035156,27.98500061035156,0.0
2019-05-03,28.231000900268555,28.231000900268555,28.231000900268555,28.231000900268555,0.0
2019-05-06,27.95499992370605,27.729999542236328,27.729999542236328,27.95499992370605,400.0
2019-05-07,27.540000915527344,27.472999572753906,27.540000915527344,27.472999572753906,200.0
2019-05-08,27.51000022888184,27.51000022888184,27.51000022888184,27.51000022888184,0.0
2019-05-09,27.341999053955078,27.15699958801269,27.15699958801269,27.341999053955078,4800.0
2019-05-10,27.507999420166016,27.25,27.25,27.507999420166016,4000.0
2019-05-13,26.93600082397461,26.899999618530273,26.899999618530273,26.93600082397461,300.0
2019-05-14,27.28000068664551,27.207000732421875,27.28000068664551,27.207000732421875,500.0
2019-05-15,27.34700012207031,27.343000411987305,27.34700012207031,27.343000411987305,600.0
2019-05-16,27.558000564575195,27.558000564575195,27.558000564575195,27.558000564575195,200.0
2019-05-17,27.45000076293945,27.45000076293945,27.45000076293945,27.45000076293945,100.0
2019-05-20,27.34600067138672,27.34600067138672,27.34600067138672,27.34600067138672,0.0
2019-05-21,27.518999099731445,27.48500061035156,27.48500061035156,27.518999099731445,500.0
2019-05-22,27.5,27.461000442504886,27.5,27.461000442504886,100.0
2019-05-23,27.13400077819824,27.113000869750977,27.13400077819824,27.113000869750977,200.0
2019-05-24,27.357999801635746,27.357999801635746,27.357999801635746,27.357999801635746,100.0
2019-05-28,27.14699935913086,27.14699935913086,27.14699935913086,27.14699935913086,0.0
2019-05-29,27.00200080871582,27.00200080871582,27.00200080871582,27.00200080871582,0.0
2019-05-30,27.10400009155273,27.10400009155273,27.10400009155273,27.10400009155273,0.0
2019-05-31,26.78899955749512,26.78899955749512,26.78899955749512,26.78899955749512,0.0
2019-06-03,26.87400054931641,26.87400054931641,26.87400054931641,26.87400054931641,100.0
2019-06-04,27.21299934387207,27.21299934387207,27.21299934387207,27.21299934387207,0.0
2019-06-05,27.20499992370605,27.20499992370605,27.20499992370605,27.20499992370605,100.0
2019-06-06,27.315000534057614,27.268999099731445,27.268999099731445,27.315000534057614,500.0
2019-06-07,27.62700080871582,27.62700080871582,27.62700080871582,27.62700080871582,100.0
2019-06-10,27.729999542236328,27.72800064086914,27.729999542236328,27.72800064086914,200.0
2019-06-11,27.85400009155273,27.85400009155273,27.85400009155273,27.85400009155273,0.0
2019-06-12,27.757999420166016,27.670000076293945,27.757999420166016,27.67300033569336,1400.0
2019-06-13,27.69899940490723,27.69899940490723,27.69899940490723,27.69899940490723,0.0
2019-06-14,27.583999633789066,27.583999633789066,27.583999633789066,27.583999633789066,0.0
2019-06-17,27.604999542236328,27.604999542236328,27.604999542236328,27.604999542236328,0.0
2019-06-18,27.979999542236328,27.968000411987305,27.979999542236328,27.968000411987305,700.0
2019-06-19,28.09600067138672,28.09600067138672,28.09600067138672,28.09600067138672,0.0
2019-06-20,28.263999938964844,28.263999938964844,28.263999938964844,28.263999938964844,0.0
2019-06-21,28.13999938964844,27.940000534057614,27.959999084472656,28.1200008392334,1000.0
2019-06-24,28.077999114990234,28.07099914550781,28.07099914550781,28.077999114990234,700.0
2019-06-25,27.99799919128418,27.99799919128418,27.99799919128418,27.99799919128418,0.0
2019-06-26,28.058000564575195,28.058000564575195,28.058000564575195,28.058000564575195,0.0
2019-06-27,28.125,28.125,28.125,28.125,100.0
2019-06-28,28.23900032043457,28.23900032043457,28.23900032043457,28.23900032043457,0.0
2019-07-01,28.59000015258789,28.447999954223636,28.59000015258789,28.447999954223636,400.0
2019-07-02,27.9060001373291,27.9060001373291,27.9060001373291,27.9060001373291,100.0
2019-07-03,28.072999954223636,28.072999954223636,28.072999954223636,28.072999954223636,100.0
2019-07-05,27.8799991607666,27.87700080871582,27.8799991607666,27.87700080871582,800.0
2019-07-08,27.770000457763672,27.76499938964844,27.770000457763672,27.76499938964844,200.0
2019-07-09,27.65200042724609,27.63999938964844,27.63999938964844,27.65200042724609,2600.0
2019-07-10,27.79999923706055,27.702999114990234,27.79999923706055,27.702999114990234,400.0
2019-07-11,27.70000076293945,27.65999984741211,27.670000076293945,27.6879997253418,1300.0
2019-07-12,27.68000030517578,27.68000030517578,27.68000030517578,27.68000030517578,300.0
2019-07-15,27.71999931335449,27.714000701904297,27.71500015258789,27.714000701904297,1000.0
2019-07-16,27.70000076293945,27.65099906921387,27.70000076293945,27.65099906921387,300.0
2019-07-17,27.670000076293945,27.61199951171875,27.649999618530273,27.61199951171875,300.0
2019-07-18,27.631999969482425,27.520000457763672,27.53000068664551,27.631999969482425,400.0
2019-07-19,27.61000061035156,27.569000244140625,27.61000061035156,27.569000244140625,300.0
2019-07-22,27.65999984741211,27.61000061035156,27.61000061035156,27.638999938964844,400.0
2019-07-23,27.83699989318848,27.80599975585937,27.81999969482422,27.83699989318848,200.0
2019-07-24,27.851999282836914,27.809999465942386,27.809999465942386,27.851999282836914,100.0
2019-07-25,27.709999084472656,27.591999053955078,27.709999084472656,27.591999053955078,100.0
2019-07-26,27.739999771118164,27.70000076293945,27.739999771118164,27.70000076293945,1400.0
2019-07-29,27.709999084472656,27.70000076293945,27.709999084472656,27.70800018310547,300.0
2019-07-30,27.38999938964844,27.35700035095215,27.38999938964844,27.35700035095215,100.0
2019-07-31,27.440000534057614,27.23500061035156,27.440000534057614,27.23500061035156,100.0
2019-08-01,27.5,27.12899971008301,27.459999084472656,27.12899971008301,300.0
2019-08-02,26.8700008392334,26.790000915527344,26.8700008392334,26.82500076293945,500.0
2019-08-05,26.132999420166016,26.11000061035156,26.11000061035156,26.132999420166016,600.0
2019-08-06,26.29999923706055,26.28000068664551,26.28000068664551,26.285999298095703,500.0
2019-08-07,26.41399955749512,26.28000068664551,26.28000068664551,26.41399955749512,100.0
2019-08-08,26.65999984741211,26.65999984741211,26.65999984741211,26.65999984741211,200.0
2019-08-09,26.540000915527344,26.399999618530273,26.540000915527344,26.45100021362305,2500.0
2019-08-12,26.35000038146973,26.197999954223636,26.35000038146973,26.197999954223636,400.0
2019-08-13,26.54999923706055,26.524999618530273,26.54999923706055,26.524999618530273,100.0
2019-08-14,25.989999771118164,25.86100006103516,25.989999771118164,25.86100006103516,400.0
2019-08-15,25.952999114990234,25.90999984741211,25.90999984741211,25.952999114990234,1900.0
2019-08-16,26.27599906921387,26.27599906921387,26.27599906921387,26.27599906921387,0.0
2019-08-19,26.489999771118164,26.461000442504886,26.489999771118164,26.461000442504886,100.0
2019-08-20,26.399999618530273,26.33099937438965,26.399999618530273,26.33099937438965,200.0
2019-08-21,26.59000015258789,26.55100059509277,26.59000015258789,26.55100059509277,400.0
2019-08-22,26.52799987792969,26.459999084472656,26.459999084472656,26.52799987792969,300.0
2019-08-23,26.520000457763672,26.04999923706055,26.520000457763672,26.04999923706055,200.0
2019-08-26,26.34900093078613,26.30100059509277,26.34900093078613,26.30100059509277,100.0
2019-08-27,26.363000869750977,26.363000869750977,26.363000869750977,26.363000869750977,200.0
2019-08-28,26.37299919128418,26.37299919128418,26.37299919128418,26.37299919128418,200.0
2019-08-29,26.645000457763672,26.645000457763672,26.645000457763672,26.645000457763672,100.0
2019-08-30,26.78199958801269,26.729999542236328,26.729999542236328,26.78199958801269,300.0
2019-09-03,26.694000244140625,26.694000244140625,26.694000244140625,26.694000244140625,100.0
2019-09-04,27.017000198364254,27.017000198364254,27.017000198364254,27.017000198364254,100.0
2019-09-05,27.191999435424805,27.191999435424805,27.191999435424805,27.191999435424805,100.0
2019-09-06,27.29999923706055,27.28199958801269,27.29999923706055,27.28199958801269,100.0
2019-09-09,27.347999572753906,27.34000015258789,27.34000015258789,27.347999572753906,200.0
2019-09-10,27.37700080871582,27.37700080871582,27.37700080871582,27.37700080871582,100.0
2019-09-11,27.59499931335449,27.59499931335449,27.59499931335449,27.59499931335449,0.0
2019-09-12,27.72599983215332,27.72599983215332,27.72599983215332,27.72599983215332,0.0
2019-09-13,27.827999114990234,27.827999114990234,27.827999114990234,27.827999114990234,0.0
2019-09-16,27.729999542236328,27.645999908447266,27.729999542236328,27.645999908447266,100.0
2019-09-17,27.722999572753906,27.722999572753906,27.722999572753906,27.722999572753906,0.0
2019-09-18,27.690000534057614,27.690000534057614,27.690000534057614,27.690000534057614,0.0
2019-09-19,27.78000068664551,27.78000068664551,27.78000068664551,27.78000068664551,0.0
2019-09-20,27.729999542236328,27.71999931335449,27.71999931335449,27.729999542236328,300.0
2019-09-23,27.65500068664551,27.65500068664551,27.65500068664551,27.65500068664551,0.0
2019-09-24,27.54800033569336,27.54800033569336,27.54800033569336,27.54800033569336,0.0
2019-09-25,27.54400062561035,27.54400062561035,27.54400062561035,27.54400062561035,0.0
2019-09-26,27.67600059509277,27.67600059509277,27.67600059509277,27.67600059509277,0.0
2019-09-27,27.57600021362305,27.57600021362305,27.57600021362305,27.57600021362305,0.0
2019-09-30,27.67499923706055,27.67499923706055,27.67499923706055,27.67499923706055,0.0
2019-10-01,27.40500068664551,27.40500068664551,27.40500068664551,27.40500068664551,0.0
2019-10-02,26.88999938964844,26.822999954223636,26.88999938964844,26.822999954223636,200.0
2019-10-03,26.934999465942386,26.934999465942386,26.934999465942386,26.934999465942386,0.0
2019-10-04,27.19700050354004,27.19700050354004,27.19700050354004,27.19700050354004,0.0
2019-10-07,27.20000076293945,27.20000076293945,27.20000076293945,27.20000076293945,200.0
2019-10-08,26.93899917602539,26.93899917602539,26.93899917602539,26.93899917602539,0.0
2019-10-09,27.15999984741211,27.15999984741211,27.15999984741211,27.15999984741211,0.0
2019-10-10,27.26300048828125,27.22500038146973,27.22500038146973,27.26300048828125,200.0
2019-10-11,27.79999923706055,27.729999542236328,27.79999923706055,27.729999542236328,500.0
2019-10-14,27.645000457763672,27.645000457763672,27.645000457763672,27.645000457763672,0.0
2019-10-15,27.95599937438965,27.95599937438965,27.95599937438965,27.95599937438965,0.0
2019-10-16,27.95400047302246,27.95400047302246,27.95400047302246,27.95400047302246,0.0
2019-10-17,27.96199989318848,27.96199989318848,27.96199989318848,27.96199989318848,0.0
2019-10-18,27.92600059509277,27.92600059509277,27.92600059509277,27.92600059509277,0.0
2019-10-21,28.09000015258789,28.086000442504886,28.09000015258789,28.086000442504886,500.0
2019-10-22,28.13599967956543,28.048999786376953,28.13599967956543,28.048999786376953,600.0
2019-10-23,28.17499923706055,28.17499923706055,28.17499923706055,28.17499923706055,0.0
2019-10-24,28.27199935913086,28.27199935913086,28.27199935913086,28.27199935913086,0.0
2019-10-25,28.30599975585937,28.30599975585937,28.30599975585937,28.30599975585937,0.0
2019-10-28,28.42499923706055,28.42499923706055,28.42499923706055,28.42499923706055,0.0
2019-10-29,28.38800048828125,28.38800048828125,28.38800048828125,28.38800048828125,0.0
2019-10-30,28.48500061035156,28.48500061035156,28.48500061035156,28.48500061035156,0.0
2019-10-31,28.33699989318848,28.32999992370605,28.32999992370605,28.33699989318848,200.0
2019-11-01,28.61100006103516,28.61100006103516,28.61100006103516,28.61100006103516,0.0
2019-11-04,28.8129997253418,28.809999465942386,28.809999465942386,28.8129997253418,100.0
2019-11-05,28.84000015258789,28.82099914550781,28.84000015258789,28.82099914550781,500.0
2019-11-06,28.81999969482422,28.81100082397461,28.81999969482422,28.81100082397461,300.0
2019-11-07,28.915000915527344,28.915000915527344,28.915000915527344,28.915000915527344,0.0
2019-11-08,28.89699935913086,28.89699935913086,28.89699935913086,28.89699935913086,0.0
2019-11-11,28.847999572753906,28.847999572753906,28.847999572753906,28.847999572753906,0.0
2019-11-12,28.864999771118164,28.864999771118164,28.864999771118164,28.864999771118164,0.0
2019-11-13,28.767000198364254,28.767000198364254,28.767000198364254,28.767000198364254,0.0
2019-11-14,28.707000732421875,28.707000732421875,28.707000732421875,28.707000732421875,0.0
2019-11-15,28.840999603271484,28.809999465942386,28.809999465942386,28.840999603271484,200.0
2019-11-18,28.864999771118164,28.864999771118164,28.864999771118164,28.864999771118164,0.0
2019-11-19,28.920000076293945,28.8439998626709,28.920000076293945,28.8439998626709,700.0
2019-11-20,28.739999771118164,28.666000366210934,28.739999771118164,28.666000366210934,100.0
2019-11-21,28.67700004577637,28.6299991607666,28.6299991607666,28.65200042724609,200.0
2019-11-22,28.73900032043457,28.709999084472656,28.709999084472656,28.73900032043457,100.0
2019-11-25,28.96500015258789,28.96500015258789,28.96500015258789,28.96500015258789,0.0
2019-11-26,28.97400093078613,28.97400093078613,28.97400093078613,28.97400093078613,0.0
2019-11-27,29.035999298095703,29.0,29.0,29.035999298095703,100.0
2019-11-29,28.83099937438965,28.83099937438965,28.83099937438965,28.83099937438965,100.0
2019-12-02,28.62800025939941,28.62800025939941,28.62800025939941,28.62800025939941,0.0
2019-12-03,28.517000198364254,28.517000198364254,28.517000198364254,28.517000198364254,0.0
2019-12-04,28.770999908447266,28.770999908447266,28.770999908447266,28.770999908447266,100.0
2019-12-05,28.72800064086914,28.72800064086914,28.72800064086914,28.72800064086914,100.0
2019-12-06,29.0,29.0,29.0,29.0,200.0
2019-12-09,28.833999633789066,28.833999633789066,28.833999633789066,28.833999633789066,0.0
2019-12-10,28.85099983215332,28.85099983215332,28.85099983215332,28.85099983215332,100.0
2019-12-11,28.964000701904297,28.964000701904297,28.964000701904297,28.964000701904297,100.0
2019-12-12,29.190000534057614,29.190000534057614,29.190000534057614,29.190000534057614,100.0
2019-12-13,29.37299919128418,29.37299919128418,29.37299919128418,29.37299919128418,200.0
2019-12-16,29.684999465942386,29.684999465942386,29.684999465942386,29.684999465942386,0.0
2019-12-17,29.61000061035156,29.57600021362305,29.61000061035156,29.57600021362305,1000.0
2019-12-18,29.51499938964844,29.51499938964844,29.51499938964844,29.51499938964844,100.0
2019-12-19,29.53000068664551,29.45400047302246,29.45400047302246,29.49600028991699,400.0
2019-12-20,29.55900001525879,29.55900001525879,29.55900001525879,29.55900001525879,100.0
2019-12-23,29.6299991607666,29.59600067138672,29.6299991607666,29.59600067138672,700.0
2019-12-24,29.23699951171875,29.23699951171875,29.23699951171875,29.23699951171875,100.0
2019-12-26,29.3439998626709,29.3439998626709,29.3439998626709,29.3439998626709,100.0
2019-12-27,29.440000534057614,29.38400077819824,29.43899917602539,29.38400077819824,2400.0
2019-12-30,29.239999771118164,29.13500022888184,29.239999771118164,29.13500022888184,300.0
2019-12-31,29.22100067138672,29.22100067138672,29.22100067138672,29.22100067138672,100.0
2020-01-02,29.52400016784668,29.40999984741211,29.440000534057614,29.52400016784668,49200.0
2020-01-03,29.270000457763672,29.17099952697754,29.270000457763672,29.17099952697754,4200.0
2020-01-06,29.295000076293945,29.25,29.25,29.295000076293945,1400.0
2020-01-07,29.28000068664551,29.13999938964844,29.28000068664551,29.229999542236328,5900.0
2020-01-08,29.375,29.32999992370605,29.375,29.32999992370605,300.0
2020-01-09,29.45000076293945,29.43000030517578,29.45000076293945,29.43199920654297,1100.0
2020-01-10,29.37800025939941,29.30500030517578,29.37800025939941,29.30500030517578,300.0
2020-01-13,29.466999053955078,29.466999053955078,29.466999053955078,29.466999053955078,400.0
2020-01-14,29.520000457763672,29.49799919128418,29.50200080871582,29.49799919128418,2500.0
2020-01-15,29.489999771118164,29.4689998626709,29.489999771118164,29.4689998626709,500.0
2020-01-16,29.61599922180176,29.540000915527344,29.540000915527344,29.61599922180176,300.0
2020-01-17,29.732999801635746,29.68000030517578,29.68000030517578,29.732999801635746,200.0
2020-01-21,29.56999969482422,29.506999969482425,29.56999969482422,29.506999969482425,300.0
2020-01-22,29.559999465942386,29.545000076293945,29.559999465942386,29.55200004577637,800.0
2020-01-23,29.48500061035156,29.309999465942386,29.309999465942386,29.47800064086914,800.0
2020-01-24,29.489999771118164,29.35400009155273,29.489999771118164,29.3799991607666,300.0
2020-01-27,28.82999992370605,28.76000022888184,28.76000022888184,28.770999908447266,1000.0
2020-01-28,29.045000076293945,28.989999771118164,28.989999771118164,29.040000915527344,800.0
2020-01-29,29.101999282836914,29.035999298095703,29.059999465942386,29.035999298095703,4500.0
2020-01-30,29.00399971008301,28.79999923706055,28.79999923706055,29.00399971008301,800.0
2020-01-31,28.57999992370605,28.5,28.57999992370605,28.5,400.0
2020-02-03,28.729999542236328,28.606000900268555,28.729999542236328,28.607999801635746,600.0
2020-02-04,29.1200008392334,29.07699966430664,29.1200008392334,29.07699966430664,200.0
2020-02-05,29.420000076293945,29.31999969482422,29.31999969482422,29.395000457763672,800.0
2020-02-06,29.51300048828125,29.489999771118164,29.4950008392334,29.51300048828125,500.0
2020-02-07,29.34000015258789,29.261999130249023,29.34000015258789,29.261999130249023,800.0
2020-02-10,29.34499931335449,29.270000457763672,29.28000068664551,29.34499931335449,1100.0
2020-02-11,29.54599952697754,29.47400093078613,29.540000915527344,29.48500061035156,1100.0
2020-02-12,29.63800048828125,29.60000038146973,29.60000038146973,29.618000030517575,400.0
2020-02-13,29.459999084472656,29.399999618530273,29.459999084472656,29.399999618530273,700.0
2020-02-14,29.3700008392334,29.334999084472656,29.3700008392334,29.340999603271484,1000.0
2020-02-18,29.190000534057614,29.15200042724609,29.190000534057614,29.190000534057614,900.0
2020-02-19,29.3700008392334,29.3700008392334,29.3700008392334,29.3700008392334,200.0
2020-02-20,29.31999969482422,29.190000534057614,29.31999969482422,29.26000022888184,1700.0
2020-02-21,29.04199981689453,29.01000022888184,29.01000022888184,29.04199981689453,200.0
2020-02-24,28.03000068664551,27.899999618530273,27.979999542236328,27.899999618530273,1400.0
2020-02-25,27.93000030517578,27.413000106811523,27.93000030517578,27.413000106811523,900.0
2020-02-26,27.790000915527344,27.479999542236328,27.790000915527344,27.479999542236328,6800.0
2020-02-27,26.99600028991699,26.604999542236328,26.90999984741211,26.604999542236328,1600.0
2020-02-28,26.209999084472656,25.920000076293945,26.01000022888184,26.208999633789066,1600.0
2020-03-02,26.746999740600586,26.170000076293945,26.170000076293945,26.746999740600586,600.0
2020-03-03,26.81999969482422,26.44499969482422,26.81999969482422,26.457000732421875,300.0
2020-03-04,27.28199958801269,26.899999618530273,26.899999618530273,27.28199958801269,300.0
2020-03-05,26.51499938964844,26.481000900268555,26.51499938964844,26.481000900268555,200.0
2020-03-06,26.11000061035156,25.920000076293945,25.920000076293945,26.07200050354004,1300.0
2020-03-09,24.37899971008301,23.993000030517575,24.37899971008301,23.993000030517575,1400.0
2020-03-10,24.959999084472656,24.78000068664551,24.920000076293945,24.95000076293945,800.0
2020-03-11,23.97400093078613,23.78499984741211,23.95000076293945,23.78499984741211,2800.0
2020-03-12,21.4950008392334,21.270000457763672,21.420000076293945,21.4950008392334,18000.0
2020-03-13,22.51799964904785,21.43400001525879,21.975000381469727,22.51799964904785,19600.0
2020-03-16,20.780000686645508,20.290000915527344,20.290000915527344,20.290000915527344,8400.0
2020-03-17,21.333999633789066,20.559999465942386,20.559999465942386,21.239999771118164,1300.0
2020-03-18,20.3799991607666,19.82999992370605,20.3799991607666,20.263999938964844,52300.0
2020-03-19,21.07999992370605,20.489999771118164,20.489999771118164,20.69700050354004,3100.0
2020-03-20,21.34499931335449,20.53899955749512,21.34499931335449,20.558000564575195,3300.0
2020-03-23,20.540000915527344,20.26000022888184,20.26000022888184,20.36199951171875,900.0
2020-03-24,21.802000045776367,21.670000076293945,21.709999084472656,21.802000045776367,5300.0
2020-03-25,22.732999801635746,22.13999938964844,22.13999938964844,22.489999771118164,3800.0
2020-03-26,23.285999298095703,23.27799987792969,23.285999298095703,23.2810001373291,600.0
2020-03-27,22.54800033569336,22.540000915527344,22.54800033569336,22.540000915527344,700.0
2020-03-30,22.98200035095215,22.8700008392334,22.8700008392334,22.98200035095215,400.0
2020-03-31,22.790000915527344,22.68000030517578,22.790000915527344,22.68000030517578,2700.0
2020-04-01,21.940000534057614,21.84600067138672,21.940000534057614,21.84600067138672,200.0
2020-04-02,22.32900047302246,21.959999084472656,21.959999084472656,22.32900047302246,1200.0
2020-04-03,21.88400077819824,21.799999237060547,21.799999237060547,21.88400077819824,1000.0
2020-04-06,21.88400077819824,21.88400077819824,21.88400077819824,21.88400077819824,0.0
2020-04-07,23.395000457763672,23.09900093078613,23.395000457763672,23.09900093078613,1500.0
2020-04-08,23.28000068664551,23.2549991607666,23.2549991607666,23.28000068664551,200.0
2020-04-09,23.79999923706055,23.690000534057614,23.690000534057614,23.76099967956543,1200.0
2020-04-13,23.48699951171875,23.36000061035156,23.43199920654297,23.48699951171875,1500.0
2020-04-14,23.934999465942386,23.8799991607666,23.88999938964844,23.8799991607666,1500.0
2020-04-15,23.319000244140625,23.170000076293945,23.18899917602539,23.187000274658203,1600.0
2020-04-16,23.26000022888184,23.18000030517578,23.18000030517578,23.26000022888184,700.0
2020-04-17,23.83300018310547,23.670000076293945,23.670000076293945,23.83300018310547,700.0
2020-04-20,23.770000457763672,23.50900077819824,23.770000457763672,23.50900077819824,500.0
2020-04-21,23.50900077819824,23.50900077819824,23.50900077819824,23.50900077819824,0.0
2020-04-22,23.46999931335449,23.38999938964844,23.38999938964844,23.44700050354004,800.0
2020-04-23,23.6299991607666,23.32500076293945,23.57999992370605,23.343000411987305,1400.0
2020-04-24,23.649999618530273,23.440000534057614,23.440000534057614,23.541000366210934,177800.0
2020-04-27,23.920000076293945,23.68000030517578,23.68000030517578,23.868999481201172,900.0
2020-04-28,24.21999931335449,24.02899932861328,24.21999931335449,24.02899932861328,1300.0
2020-04-29,24.60000038146973,24.559999465942386,24.60000038146973,24.57999992370605,2800.0
2020-04-30,24.170000076293945,23.9950008392334,24.170000076293945,24.072999954223636,800.0
2020-05-01,23.59000015258789,23.489999771118164,23.489999771118164,23.541000366210934,2500.0
2020-05-04,23.566999435424805,23.40999984741211,23.43000030517578,23.566999435424805,1700.0
2020-05-05,23.78000068664551,23.6299991607666,23.767000198364254,23.67099952697754,1000.0
2020-05-06,23.6299991607666,23.533000946044922,23.6299991607666,23.533000946044922,400.0
2020-05-07,23.864999771118164,23.864999771118164,23.864999771118164,23.864999771118164,100.0
2020-05-08,24.18000030517578,23.989999771118164,23.989999771118164,24.173999786376953,1200.0
2020-05-11,24.31399917602539,24.30200004577637,24.30200004577637,24.31399917602539,300.0
2020-05-12,24.2810001373291,24.01499938964844,24.2810001373291,24.01499938964844,2300.0
2020-05-13,23.81800079345703,23.76300048828125,23.76300048828125,23.81800079345703,300.0
2020-05-14,23.59900093078613,23.399999618530273,23.399999618530273,23.59900093078613,400.0
2020-05-15,23.618000030517575,23.618000030517575,23.618000030517575,23.618000030517575,100.0
2020-05-18,24.53000068664551,24.270000457763672,24.4379997253418,24.47800064086914,4900.0
2020-05-19,24.31399917602539,24.13400077819824,24.30200004577637,24.13400077819824,1000.0
2020-05-20,24.6200008392334,24.54999923706055,24.54999923706055,24.593000411987305,500.0
2020-05-21,24.354999542236328,24.354999542236328,24.354999542236328,24.354999542236328,100.0
2020-05-22,24.290000915527344,24.20000076293945,24.21999931335449,24.290000915527344,1200.0
2020-05-26,25.0,24.91399955749512,24.96999931335449,24.91399955749512,500.0
2020-05-27,25.24099922180176,25.13999938964844,25.13999938964844,25.24099922180176,300.0
2020-05-28,25.65999984741211,25.45499992370605,25.65999984741211,25.45499992370605,1500.0
2020-05-29,25.34600067138672,25.34600067138672,25.34600067138672,25.34600067138672,100.0
2020-06-01,25.836000442504886,25.836000442504886,25.836000442504886,25.836000442504886,200.0
2020-06-02,26.083999633789066,25.920000076293945,25.920000076293945,26.083999633789066,600.0
2020-06-03,26.67900085449219,26.67900085449219,26.67900085449219,26.67900085449219,100.0
2020-06-04,26.47800064086914,26.47800064086914,26.47800064086914,26.47800064086914,100.0
2020-06-05,27.03000068664551,26.992000579833984,27.03000068664551,26.992000579833984,300.0
2020-06-08,27.27400016784668,26.944000244140625,26.96999931335449,27.27400016784668,4300.0
2020-06-09,26.913000106811523,26.86000061035156,26.86000061035156,26.913000106811523,200.0
2020-06-10,26.899999618530273,26.834999084472656,26.899999618530273,26.834999084472656,300.0
2020-06-11,25.5310001373291,25.39699935913086,25.53000068664551,25.39699935913086,2300.0
2020-06-12,25.95499992370605,25.95499992370605,25.95499992370605,25.95499992370605,200.0
2020-06-15,25.92799949645996,25.92799949645996,25.92799949645996,25.92799949645996,100.0
2020-06-16,26.270000457763672,26.229999542236328,26.270000457763672,26.229999542236328,300.0
2020-06-17,26.5,26.40099906921387,26.45000076293945,26.40099906921387,1200.0
2020-06-18,26.35000038146973,26.29999923706055,26.35000038146973,26.29999923706055,700.0
2020-06-19,26.489999771118164,26.19099998474121,26.45000076293945,26.2189998626709,2500.0
2020-06-22,26.459999084472656,26.29999923706055,26.29999923706055,26.434999465942386,6000.0
2020-06-23,26.57699966430664,26.57699966430664,26.57699966430664,26.57699966430664,100.0
2020-06-24,26.190000534057614,25.899999618530273,26.190000534057614,25.97900009155273,1700.0
2020-06-25,26.34700012207031,25.90999984741211,25.90999984741211,26.34700012207031,900.0
2020-06-26,26.018999099731445,25.979999542236328,25.989999771118164,25.979999542236328,800.0
2020-06-29,26.14800071716309,26.14800071716309,26.14800071716309,26.14800071716309,100.0
2020-06-30,26.165000915527344,26.165000915527344,26.165000915527344,26.165000915527344,100.0
2020-07-01,26.19899940490723,26.11599922180176,26.15999984741211,26.19700050354004,1000.0
2020-07-02,26.20400047302246,26.106000900268555,26.18000030517578,26.106000900268555,500.0
2020-07-06,26.5049991607666,26.40999984741211,26.40999984741211,26.5049991607666,200.0
2020-07-07,26.367000579833984,26.13999938964844,26.31999969482422,26.13999938964844,1100.0
2020-07-08,26.322999954223636,26.209999084472656,26.209999084472656,26.322999954223636,200.0
2020-07-09,26.04999923706055,26.04999923706055,26.04999923706055,26.04999923706055,100.0
2020-07-10,26.31399917602539,26.31399917602539,26.31399917602539,26.31399917602539,200.0
2020-07-13,26.56999969482422,26.170000076293945,26.5,26.170000076293945,600.0
2020-07-14,26.50900077819824,26.50900077819824,26.50900077819824,26.50900077819824,100.0
2020-07-15,26.868999481201172,26.816999435424805,26.868999481201172,26.816999435424805,500.0
2020-07-16,26.65200042724609,26.63400077819824,26.63400077819824,26.65200042724609,700.0
2020-07-17,26.766000747680664,26.649999618530273,26.649999618530273,26.766000747680664,400.0
2020-07-20,26.88400077819824,26.809999465942386,26.809999465942386,26.88400077819824,200.0
2020-07-21,27.0,26.90099906921387,26.93000030517578,26.90099906921387,700.0
2020-07-22,26.96500015258789,26.96500015258789,26.96500015258789,26.96500015258789,100.0
2020-07-23,26.93000030517578,26.73600006103516,26.93000030517578,26.73600006103516,100.0
2020-07-24,26.56100082397461,26.56100082397461,26.56100082397461,26.56100082397461,100.0
2020-07-27,26.854999542236328,26.85000038146973,26.85000038146973,26.854999542236328,600.0
2020-07-28,26.702999114990234,26.702999114990234,26.702999114990234,26.702999114990234,100.0
2020-07-29,26.920000076293945,26.79999923706055,26.79999923706055,26.920000076293945,400.0
2020-07-30,26.53899955749512,26.26000022888184,26.489999771118164,26.53899955749512,500.0
2020-07-31,26.13999938964844,25.957000732421875,26.13999938964844,25.957000732421875,300.0
2020-08-03,26.479999542236328,26.44899940490723,26.479999542236328,26.44899940490723,400.0
2020-08-04,26.62400054931641,26.62400054931641,26.62400054931641,26.62400054931641,0.0
2020-08-05,26.73900032043457,26.718000411987305,26.73900032043457,26.718000411987305,200.0
2020-08-06,26.738000869750977,26.59000015258789,26.670000076293945,26.738000869750977,800.0
2020-08-07,26.63500022888184,26.53000068664551,26.53000068664551,26.63500022888184,600.0
2020-08-10,26.71500015258789,26.690000534057614,26.690000534057614,26.71500015258789,800.0
2020-08-11,27.18000030517578,26.847999572753906,26.979999542236328,26.847999572753906,1000.0
2020-08-12,27.479999542236328,27.42099952697754,27.479999542236328,27.42099952697754,300.0
2020-08-13,27.393999099731445,27.285999298095703,27.3799991607666,27.285999298095703,500.0
2020-08-14,27.11199951171875,27.11199951171875,27.11199951171875,27.11199951171875,100.0
2020-08-17,27.30200004577637,27.270000457763672,27.270000457763672,27.30200004577637,1100.0
2020-08-18,27.32500076293945,27.32500076293945,27.32500076293945,27.32500076293945,200.0
2020-08-19,27.20800018310547,27.20800018310547,27.20800018310547,27.20800018310547,100.0
2020-08-20,27.125,27.091999053955078,27.091999053955078,27.125,600.0
2020-08-21,26.972999572753906,26.8700008392334,26.96999931335449,26.972999572753906,600.0
