Date,High,Low,Open,Close,Volume
2017-08-02,50.20000076293945,49.3380012512207,49.81000137329102,49.3380012512207,2900.0
2017-08-03,49.3380012512207,49.3380012512207,49.3380012512207,49.3380012512207,0.0
2017-08-04,49.3380012512207,49.3380012512207,49.3380012512207,49.3380012512207,0.0
2017-08-07,49.540000915527344,49.540000915527344,49.540000915527344,49.540000915527344,200.0
2017-08-08,49.540000915527344,49.540000915527344,49.540000915527344,49.540000915527344,0.0
2017-08-09,48.77999877929688,48.77999877929688,48.77999877929688,48.77999877929688,1064400.0
2017-08-10,48.45000076293945,48.22999954223633,48.41999816894531,48.22999954223633,5000.0
2017-08-11,48.22999954223633,48.22999954223633,48.22999954223633,48.22999954223633,0.0
2017-08-14,48.22999954223633,48.22999954223633,48.22999954223633,48.22999954223633,0.0
2017-08-15,48.22999954223633,48.22999954223633,48.22999954223633,48.22999954223633,0.0
2017-08-16,48.349998474121094,48.349998474121094,48.349998474121094,48.349998474121094,300.0
2017-08-17,48.1500015258789,47.75,48.1500015258789,47.75,500.0
2017-08-18,47.75,47.75,47.75,47.75,0.0
2017-08-21,47.75,47.75,47.75,47.75,0.0
2017-08-22,47.75,47.75,47.75,47.75,0.0
2017-08-23,47.72999954223633,47.72999954223633,47.72999954223633,47.72999954223633,300.0
2017-08-24,47.72999954223633,47.72999954223633,47.72999954223633,47.72999954223633,0.0
2017-08-25,47.72999954223633,47.72999954223633,47.72999954223633,47.72999954223633,0.0
2017-08-28,47.72999954223633,47.72999954223633,47.72999954223633,47.72999954223633,0.0
2017-08-29,47.72999954223633,47.72999954223633,47.72999954223633,47.72999954223633,0.0
2017-08-30,47.72999954223633,47.72999954223633,47.72999954223633,47.72999954223633,0.0
2017-08-31,47.72999954223633,47.72999954223633,47.72999954223633,47.72999954223633,0.0
2017-09-01,47.72999954223633,47.72999954223633,47.72999954223633,47.72999954223633,0.0
2017-09-05,47.72999954223633,47.72999954223633,47.72999954223633,47.72999954223633,0.0
2017-09-06,47.72999954223633,47.72999954223633,47.72999954223633,47.72999954223633,0.0
2017-09-07,47.72999954223633,47.72999954223633,47.72999954223633,47.72999954223633,0.0
2017-09-08,47.72999954223633,47.72999954223633,47.72999954223633,47.72999954223633,0.0
2017-09-11,47.72999954223633,47.72999954223633,47.72999954223633,47.72999954223633,0.0
2017-09-12,47.72999954223633,47.72999954223633,47.72999954223633,47.72999954223633,0.0
2017-09-13,47.72999954223633,47.72999954223633,47.72999954223633,47.72999954223633,0.0
2017-09-14,47.72999954223633,47.72999954223633,47.72999954223633,47.72999954223633,0.0
2017-09-15,47.72999954223633,47.72999954223633,47.72999954223633,47.72999954223633,0.0
2017-09-18,47.72999954223633,47.72999954223633,47.72999954223633,47.72999954223633,0.0
2017-09-19,47.72999954223633,47.72999954223633,47.72999954223633,47.72999954223633,0.0
2017-09-20,47.72999954223633,47.72999954223633,47.72999954223633,47.72999954223633,0.0
2017-09-21,47.72999954223633,47.72999954223633,47.72999954223633,47.72999954223633,0.0
2017-09-22,47.72999954223633,47.72999954223633,47.72999954223633,47.72999954223633,0.0
2017-09-25,47.72999954223633,47.72999954223633,47.72999954223633,47.72999954223633,0.0
2017-09-26,47.72999954223633,47.72999954223633,47.72999954223633,47.72999954223633,0.0
2017-09-27,47.72999954223633,47.72999954223633,47.72999954223633,47.72999954223633,0.0
2017-09-28,47.72999954223633,47.72999954223633,47.72999954223633,47.72999954223633,0.0
2017-09-29,47.72999954223633,47.72999954223633,47.72999954223633,47.72999954223633,0.0
2017-10-02,52.75,52.75,52.75,52.75,500.0
2017-10-03,52.75,52.75,52.75,52.75,0.0
2017-10-04,52.75,52.75,52.75,52.75,0.0
2017-10-05,52.75,52.75,52.75,52.75,0.0
2017-10-06,52.75,52.75,52.75,52.75,0.0
2017-10-09,52.75,52.75,52.75,52.75,0.0
2017-10-10,52.75,52.75,52.75,52.75,0.0
2017-10-11,52.75,52.75,52.75,52.75,0.0
2017-10-12,52.75,52.75,52.75,52.75,0.0
2017-10-13,52.75,52.75,52.75,52.75,0.0
2017-10-16,52.75,52.75,52.75,52.75,0.0
2017-10-17,52.75,52.75,52.75,52.75,0.0
2017-10-18,52.75,52.75,52.75,52.75,0.0
2017-10-19,52.27999877929688,52.27999877929688,52.27999877929688,52.27999877929688,1900.0
2017-10-20,52.27999877929688,52.27999877929688,52.27999877929688,52.27999877929688,0.0
2017-10-23,52.27999877929688,52.27999877929688,52.27999877929688,52.27999877929688,0.0
2017-10-24,52.27999877929688,52.27999877929688,52.27999877929688,52.27999877929688,0.0
2017-10-25,52.27999877929688,52.27999877929688,52.27999877929688,52.27999877929688,0.0
2017-10-26,52.27999877929688,52.27999877929688,52.27999877929688,52.27999877929688,0.0
2017-10-27,52.27999877929688,52.27999877929688,52.27999877929688,52.27999877929688,0.0
2017-10-30,52.27999877929688,52.27999877929688,52.27999877929688,52.27999877929688,0.0
2017-10-31,52.27999877929688,52.27999877929688,52.27999877929688,52.27999877929688,0.0
2017-11-01,52.27999877929688,52.27999877929688,52.27999877929688,52.27999877929688,0.0
2017-11-02,52.27999877929688,52.27999877929688,52.27999877929688,52.27999877929688,0.0
2017-11-03,52.27999877929688,52.27999877929688,52.27999877929688,52.27999877929688,0.0
2017-11-06,52.27999877929688,52.27999877929688,52.27999877929688,52.27999877929688,0.0
2017-11-07,52.27999877929688,52.27999877929688,52.27999877929688,52.27999877929688,0.0
2017-11-08,52.27999877929688,52.27999877929688,52.27999877929688,52.27999877929688,0.0
2017-11-09,52.27999877929688,52.27999877929688,52.27999877929688,52.27999877929688,0.0
2017-11-10,52.27999877929688,52.27999877929688,52.27999877929688,52.27999877929688,0.0
2017-11-13,52.27999877929688,52.27999877929688,52.27999877929688,52.27999877929688,0.0
2017-11-14,52.27999877929688,52.27999877929688,52.27999877929688,52.27999877929688,0.0
2017-11-15,52.27999877929688,52.27999877929688,52.27999877929688,52.27999877929688,0.0
2017-11-16,52.27999877929688,52.27999877929688,52.27999877929688,52.27999877929688,0.0
2017-11-17,52.27999877929688,52.27999877929688,52.27999877929688,52.27999877929688,0.0
2017-11-20,52.27999877929688,52.27999877929688,52.27999877929688,52.27999877929688,0.0
2017-11-21,52.27999877929688,52.27999877929688,52.27999877929688,52.27999877929688,0.0
2017-11-22,52.27999877929688,52.27999877929688,52.27999877929688,52.27999877929688,0.0
2017-11-24,52.27999877929688,52.27999877929688,52.27999877929688,52.27999877929688,0.0
2017-11-27,52.27999877929688,52.27999877929688,52.27999877929688,52.27999877929688,0.0
2017-11-28,52.27999877929688,52.27999877929688,52.27999877929688,52.27999877929688,0.0
2017-11-29,52.27999877929688,52.27999877929688,52.27999877929688,52.27999877929688,0.0
2017-11-30,52.27999877929688,52.27999877929688,52.27999877929688,52.27999877929688,100.0
2017-12-01,52.27999877929688,52.27999877929688,52.27999877929688,52.27999877929688,0.0
2017-12-04,52.27999877929688,52.27999877929688,52.27999877929688,52.27999877929688,0.0
2017-12-05,52.27999877929688,52.27999877929688,52.27999877929688,52.27999877929688,0.0
2017-12-06,52.27999877929688,52.27999877929688,52.27999877929688,52.27999877929688,0.0
2017-12-07,52.27999877929688,52.27999877929688,52.27999877929688,52.27999877929688,0.0
2017-12-08,52.27999877929688,52.27999877929688,52.27999877929688,52.27999877929688,0.0
2017-12-11,52.27999877929688,52.27999877929688,52.27999877929688,52.27999877929688,0.0
2017-12-12,52.27999877929688,52.27999877929688,52.27999877929688,52.27999877929688,0.0
2017-12-13,52.27999877929688,52.27999877929688,52.27999877929688,52.27999877929688,0.0
2017-12-14,52.27999877929688,52.27999877929688,52.27999877929688,52.27999877929688,0.0
2017-12-15,52.27999877929688,52.27999877929688,52.27999877929688,52.27999877929688,0.0
2017-12-18,54.72000122070313,54.72000122070313,54.72000122070313,54.72000122070313,1400.0
2017-12-19,54.72000122070313,54.72000122070313,54.72000122070313,54.72000122070313,0.0
2017-12-20,54.72000122070313,54.72000122070313,54.72000122070313,54.72000122070313,0.0
2017-12-21,54.72000122070313,54.72000122070313,54.72000122070313,54.72000122070313,0.0
2017-12-22,54.25,54.14500045776367,54.18000030517578,54.20000076293945,5400.0
2017-12-26,54.45000076293945,54.237998962402344,54.34000015258789,54.237998962402344,4400.0
2017-12-27,54.237998962402344,54.237998962402344,54.237998962402344,54.237998962402344,0.0
2017-12-28,54.237998962402344,54.237998962402344,54.237998962402344,54.237998962402344,0.0
2017-12-29,54.290000915527344,54.290000915527344,54.290000915527344,54.290000915527344,300.0
2018-01-02,54.43999862670898,54.43999862670898,54.43999862670898,54.43999862670898,400.0
2018-01-03,54.43999862670898,54.43999862670898,54.43999862670898,54.43999862670898,0.0
2018-01-04,54.43999862670898,54.43999862670898,54.43999862670898,54.43999862670898,0.0
2018-01-05,54.63100051879883,54.41799926757813,54.63100051879883,54.41799926757813,900.0
2018-01-08,54.88000106811523,54.56499862670898,54.56499862670898,54.88000106811523,200.0
2018-01-09,54.88000106811523,54.88000106811523,54.88000106811523,54.88000106811523,0.0
2018-01-10,54.849998474121094,54.82500076293945,54.83000183105469,54.849998474121094,5400.0
2018-01-11,55.86000061035156,55.86000061035156,55.86000061035156,55.86000061035156,800.0
2018-01-12,55.86000061035156,55.86000061035156,55.86000061035156,55.86000061035156,0.0
2018-01-16,55.86000061035156,55.86000061035156,55.86000061035156,55.86000061035156,0.0
2018-01-17,55.86000061035156,55.86000061035156,55.86000061035156,55.86000061035156,0.0
2018-01-18,55.81999969482422,55.81999969482422,55.81999969482422,55.81999969482422,300.0
2018-01-19,55.81999969482422,55.81999969482422,55.81999969482422,55.81999969482422,0.0
2018-01-22,55.81999969482422,55.81999969482422,55.81999969482422,55.81999969482422,0.0
2018-01-23,55.81999969482422,55.81999969482422,55.81999969482422,55.81999969482422,0.0
2018-01-24,55.81999969482422,55.81999969482422,55.81999969482422,55.81999969482422,0.0
2018-01-25,56.0,55.91999816894531,56.0,55.91999816894531,50000.0
2018-01-26,55.91999816894531,55.91999816894531,55.91999816894531,55.91999816894531,0.0
2018-01-29,56.29100036621094,56.290000915527344,56.29100036621094,56.29100036621094,1400.0
2018-01-30,55.81000137329102,55.61000061035156,55.61000061035156,55.79999923706055,5000.0
2018-01-31,55.79999923706055,55.79999923706055,55.79999923706055,55.79999923706055,0.0
2018-02-01,55.79999923706055,55.79999923706055,55.79999923706055,55.79999923706055,0.0
2018-02-02,55.79999923706055,55.79999923706055,55.79999923706055,55.79999923706055,0.0
2018-02-05,55.79999923706055,55.79999923706055,55.79999923706055,55.79999923706055,0.0
2018-02-06,52.59000015258789,51.86999893188477,52.43999862670898,52.43000030517578,10200.0
2018-02-07,52.43000030517578,52.43000030517578,52.43000030517578,52.43000030517578,500.0
2018-02-08,52.20000076293945,52.20000076293945,52.20000076293945,52.20000076293945,36800.0
2018-02-09,52.33000183105469,51.86999893188477,51.88000106811523,52.27000045776367,3600.0
2018-02-12,52.27000045776367,52.27000045776367,52.27000045776367,52.27000045776367,0.0
2018-02-13,52.27000045776367,52.27000045776367,52.27000045776367,52.27000045776367,0.0
2018-02-14,52.27000045776367,52.27000045776367,52.27000045776367,52.27000045776367,0.0
2018-02-15,52.27000045776367,52.27000045776367,52.27000045776367,52.27000045776367,0.0
2018-02-16,52.27000045776367,52.27000045776367,52.27000045776367,52.27000045776367,0.0
2018-02-20,53.56999969482422,53.5099983215332,53.52000045776367,53.5099983215332,300.0
2018-02-21,53.5099983215332,53.5099983215332,53.5099983215332,53.5099983215332,0.0
2018-02-22,53.5099983215332,53.5099983215332,53.5099983215332,53.5099983215332,0.0
2018-02-23,53.5099983215332,53.5099983215332,53.5099983215332,53.5099983215332,0.0
2018-02-26,53.5099983215332,53.5099983215332,53.5099983215332,53.5099983215332,0.0
2018-02-27,53.5099983215332,53.5099983215332,53.5099983215332,53.5099983215332,0.0
2018-02-28,53.5099983215332,53.5099983215332,53.5099983215332,53.5099983215332,0.0
2018-03-01,53.5099983215332,53.5099983215332,53.5099983215332,53.5099983215332,0.0
2018-03-02,53.5099983215332,53.5099983215332,53.5099983215332,53.5099983215332,0.0
2018-03-05,53.5099983215332,53.5099983215332,53.5099983215332,53.5099983215332,0.0
2018-03-06,53.77999877929688,53.61999893188477,53.61999893188477,53.7599983215332,7700.0
2018-03-07,53.7599983215332,53.7599983215332,53.7599983215332,53.7599983215332,0.0
2018-03-08,54.22000122070313,54.209999084472656,54.22000122070313,54.209999084472656,600.0
2018-03-09,54.209999084472656,54.209999084472656,54.209999084472656,54.209999084472656,0.0
2018-03-12,54.209999084472656,54.209999084472656,54.209999084472656,54.209999084472656,0.0
2018-03-13,55.290000915527344,55.18000030517578,55.27000045776367,55.18000030517578,2800.0
2018-03-14,55.18000030517578,55.18000030517578,55.18000030517578,55.18000030517578,0.0
2018-03-15,55.18000030517578,55.18000030517578,55.18000030517578,55.18000030517578,0.0
2018-03-16,54.790000915527344,54.77000045776367,54.77000045776367,54.790000915527344,300.0
2018-03-19,54.790000915527344,54.790000915527344,54.790000915527344,54.790000915527344,0.0
2018-03-20,54.43999862670898,54.28799819946289,54.42499923706055,54.43999862670898,2400.0
2018-03-21,54.43999862670898,54.43999862670898,54.43999862670898,54.43999862670898,0.0
2018-03-22,57.47999954223633,54.09099960327149,54.27000045776367,54.09099960327149,15300.0
2018-03-23,52.77000045776367,52.68000030517578,52.77000045776367,52.68000030517578,200.0
2018-03-26,53.18999862670898,52.72999954223633,52.72999954223633,53.18999862670898,400.0
2018-03-27,53.64199829101562,52.77000045776367,53.64199829101562,52.77000045776367,1700.0
2018-03-28,52.9900016784668,52.84000015258789,52.9900016784668,52.84000015258789,400.0
2018-03-29,53.38000106811523,53.35499954223633,53.35499954223633,53.38000106811523,700.0
2018-04-02,52.97000122070313,52.97000122070313,52.97000122070313,52.97000122070313,600.0
2018-04-03,52.90999984741211,52.81000137329102,52.90999984741211,52.9000015258789,900.0
2018-04-04,52.9000015258789,52.9000015258789,52.9000015258789,52.9000015258789,0.0
2018-04-05,53.63000106811523,53.63000106811523,53.63000106811523,53.63000106811523,100.0
2018-04-06,53.63000106811523,53.63000106811523,53.63000106811523,53.63000106811523,0.0
2018-04-09,53.63000106811523,53.63000106811523,53.63000106811523,53.63000106811523,0.0
2018-04-10,53.7599983215332,53.7400016784668,53.7400016784668,53.7400016784668,4800.0
2018-04-11,53.77099990844727,53.77099990844727,53.77099990844727,53.77099990844727,200.0
2018-04-12,53.77099990844727,53.77099990844727,53.77099990844727,53.77099990844727,0.0
2018-04-13,53.77099990844727,53.77099990844727,53.77099990844727,53.77099990844727,0.0
2018-04-16,54.20000076293945,54.1879997253418,54.1879997253418,54.20000076293945,300.0
2018-04-17,54.56999969482422,54.54499816894531,54.56999969482422,54.54999923706055,5200.0
2018-04-18,54.54999923706055,54.54999923706055,54.54999923706055,54.54999923706055,0.0
2018-04-19,54.54999923706055,54.54999923706055,54.54999923706055,54.54999923706055,0.0
2018-04-20,54.13999938964844,54.13999938964844,54.13999938964844,54.13999938964844,100.0
2018-04-23,54.13999938964844,54.13999938964844,54.13999938964844,54.13999938964844,0.0
2018-04-24,54.31000137329102,54.22900009155274,54.22900009155274,54.290000915527344,5200.0
2018-04-25,54.290000915527344,54.290000915527344,54.290000915527344,54.290000915527344,0.0
2018-04-26,54.290000915527344,54.290000915527344,54.290000915527344,54.290000915527344,0.0
2018-04-27,54.290000915527344,54.290000915527344,54.290000915527344,54.290000915527344,0.0
2018-04-30,53.61000061035156,53.61000061035156,53.61000061035156,53.61000061035156,300.0
2018-05-01,53.15999984741211,53.06000137329102,53.06000137329102,53.15999984741211,5900.0
2018-05-02,53.15999984741211,53.15999984741211,53.15999984741211,53.15999984741211,0.0
2018-05-03,53.15999984741211,53.15999984741211,53.15999984741211,53.15999984741211,0.0
2018-05-04,53.15999984741211,53.15999984741211,53.15999984741211,53.15999984741211,300000.0
2018-05-07,54.06000137329102,54.040000915527344,54.040000915527344,54.040000915527344,16100.0
2018-05-08,54.52199935913086,54.43899917602539,54.52199935913086,54.44499969482422,6300.0
2018-05-09,54.44499969482422,54.44499969482422,54.44499969482422,54.44499969482422,0.0
2018-05-10,54.44499969482422,54.44499969482422,54.44499969482422,54.44499969482422,0.0
2018-05-11,54.44499969482422,54.44499969482422,54.44499969482422,54.44499969482422,0.0
2018-05-14,55.2400016784668,55.13000106811523,55.2400016784668,55.13000106811523,400.0
2018-05-15,55.06000137329102,54.83399963378906,54.86000061035156,55.06000137329102,7100.0
2018-05-16,55.06000137329102,55.06000137329102,55.06000137329102,55.06000137329102,0.0
2018-05-17,55.06000137329102,55.06000137329102,55.06000137329102,55.06000137329102,0.0
2018-05-18,55.06000137329102,55.06000137329102,55.06000137329102,55.06000137329102,0.0
2018-05-21,56.63999938964844,56.58000183105469,56.63999938964844,56.61000061035156,400.0
2018-05-22,56.5099983215332,56.472999572753906,56.5099983215332,56.472999572753906,3600.0
2018-05-23,56.472999572753906,56.472999572753906,56.472999572753906,56.472999572753906,100.0
2018-05-24,56.472999572753906,56.472999572753906,56.472999572753906,56.472999572753906,0.0
2018-05-25,56.099998474121094,56.099998474121094,56.099998474121094,56.099998474121094,900.0
2018-05-29,56.290000915527344,55.790000915527344,56.2400016784668,56.02999877929688,6700.0
2018-05-30,56.02999877929688,56.02999877929688,56.02999877929688,56.02999877929688,0.0
2018-05-31,56.02999877929688,56.02999877929688,56.02999877929688,56.02999877929688,0.0
2018-06-01,56.02999877929688,56.02999877929688,56.02999877929688,56.02999877929688,0.0
2018-06-04,57.33000183105469,57.29199981689453,57.29199981689453,57.32799911499024,2800.0
2018-06-05,57.69599914550781,57.69499969482422,57.69599914550781,57.69499969482422,800.0
2018-06-06,58.10499954223633,58.10499954223633,58.10499954223633,58.10499954223633,200.0
2018-06-07,57.81000137329102,57.76300048828125,57.76300048828125,57.81000137329102,1300.0
2018-06-08,58.18000030517578,58.08000183105469,58.08000183105469,58.15999984741211,1500.0
2018-06-11,58.1619987487793,58.09000015258789,58.1619987487793,58.09000015258789,400.0
2018-06-12,58.47999954223633,58.41999816894531,58.47999954223633,58.41999816894531,900.0
2018-06-13,58.30199813842773,58.27999877929688,58.27999877929688,58.30199813842773,400.0
2018-06-14,58.209999084472656,57.88999938964844,58.209999084472656,57.9000015258789,3400.0
2018-06-15,57.959999084472656,57.81800079345703,57.959999084472656,57.81800079345703,500.0
2018-06-18,58.459999084472656,58.35499954223633,58.35499954223633,58.459999084472656,1300.0
2018-06-19,58.52000045776367,57.98099899291992,58.03799819946289,58.47999954223633,3300.0
2018-06-20,59.02000045776367,58.584999084472656,58.61199951171875,59.02000045776367,1600.0
2018-06-21,58.81000137329102,58.59000015258789,58.81000137329102,58.59000015258789,2500.0
2018-06-22,58.36199951171875,58.124000549316406,58.36199951171875,58.124000549316406,900.0
2018-06-25,57.39500045776367,57.209999084472656,57.39500045776367,57.290000915527344,7800.0
2018-06-26,57.48899841308594,57.33300018310547,57.33300018310547,57.48899841308594,1400.0
2018-06-27,57.84400177001953,57.06999969482422,57.84400177001953,57.06999969482422,1000.0
2018-06-28,56.75799942016602,56.624000549316406,56.75799942016602,56.624000549316406,900.0
2018-06-29,57.599998474121094,57.125,57.36000061035156,57.125,1800.0
2018-07-02,56.42200088500977,56.42200088500977,56.42200088500977,56.42200088500977,1200.0
2018-07-03,57.61000061035156,57.61000061035156,57.61000061035156,57.61000061035156,400.0
2018-07-05,57.70000076293945,57.599998474121094,57.70000076293945,57.599998474121094,500.0
2018-07-06,59.36000061035156,58.4000015258789,58.4000015258789,58.72000122070313,1800.0
2018-07-09,59.06499862670898,58.96500015258789,58.96500015258789,59.06499862670898,700.0
2018-07-10,59.15900039672852,59.13000106811523,59.13000106811523,59.15900039672852,500.0
2018-07-11,58.9000015258789,58.5,58.84199905395508,58.5,800.0
2018-07-12,58.22999954223633,58.19499969482422,58.22700119018555,58.19499969482422,800.0
2018-07-13,58.72000122070313,58.47999954223633,58.72000122070313,58.47999954223633,1600.0
2018-07-16,58.45000076293945,58.45000076293945,58.45000076293945,58.45000076293945,400.0
2018-07-17,58.6500015258789,58.52999877929688,58.6500015258789,58.52999877929688,1200.0
2018-07-18,58.63000106811523,58.63000106811523,58.63000106811523,58.63000106811523,300.0
2018-07-19,59.11000061035156,59.05500030517578,59.05500030517578,59.11000061035156,300.0
2018-07-20,59.19800186157226,59.19800186157226,59.19800186157226,59.19800186157226,600.0
2018-07-23,58.81999969482422,58.72999954223633,58.81999969482422,58.72999954223633,800.0
2018-07-24,58.70000076293945,58.68299865722656,58.68299865722656,58.70000076293945,1100.0
2018-07-25,58.36999893188477,58.35300064086914,58.36999893188477,58.35300064086914,1200.0
2018-07-26,58.35300064086914,58.35300064086914,58.35300064086914,58.35300064086914,0.0
2018-07-27,58.2400016784668,58.21500015258789,58.2400016784668,58.21500015258789,900.0
2018-07-30,58.2400016784668,58.20000076293945,58.20000076293945,58.22999954223633,1200.0
2018-07-31,58.6500015258789,57.93500137329102,57.93500137329102,58.6500015258789,1200.0
2018-08-01,58.47999954223633,58.22000122070313,58.47999954223633,58.349998474121094,1000.0
2018-08-02,59.04999923706055,58.69499969482422,58.69499969482422,59.04999923706055,400.0
2018-08-03,58.84000015258789,58.6349983215332,58.65999984741211,58.790000915527344,2000.0
2018-08-06,59.27000045776367,59.20199966430664,59.20199966430664,59.27000045776367,1000.0
2018-08-07,59.459999084472656,59.3849983215332,59.459999084472656,59.3849983215332,900.0
2018-08-08,60.41999816894531,59.262001037597656,60.41999816894531,59.40999984741211,1200.0
2018-08-09,59.5250015258789,59.4119987487793,59.45000076293945,59.5250015258789,1200.0
2018-08-10,59.599998474121094,59.44499969482422,59.599998474121094,59.47900009155274,1100.0
2018-08-13,58.93000030517578,58.90499877929688,58.90499877929688,58.91299819946289,1600.0
2018-08-14,62.04999923706055,59.70000076293945,60.65999984741211,59.70000076293945,700.0
2018-08-15,59.5,59.09500122070313,59.5,59.099998474121094,800.0
2018-08-16,59.599998474121094,59.5099983215332,59.5099983215332,59.599998474121094,1000.0
2018-08-17,60.06000137329102,59.68000030517578,59.68000030517578,60.06000137329102,600.0
2018-08-20,60.38000106811523,60.06000137329102,60.2400016784668,60.2400016784668,600.0
2018-08-21,61.099998474121094,60.90800094604492,60.90800094604492,61.099998474121094,1200.0
2018-08-22,61.0,60.83399963378906,61.0,60.83399963378906,500.0
2018-08-23,60.94400024414063,60.87699890136719,60.91999816894531,60.87699890136719,700.0
2018-08-24,61.12900161743164,61.00299835205078,61.11999893188477,61.12900161743164,800.0
2018-08-27,61.22000122070313,61.18500137329102,61.20000076293945,61.22000122070313,1100.0
2018-08-28,61.0099983215332,60.95000076293945,61.0099983215332,60.987998962402344,600.0
2018-08-29,61.15999984741211,61.06000137329102,61.125,61.09500122070313,5300.0
2018-08-30,61.18999862670898,60.9739990234375,61.040000915527344,61.18999862670898,2500.0
2018-08-31,61.38000106811523,60.93000030517578,60.93000030517578,61.38000106811523,2900.0
2018-09-04,61.2599983215332,60.9900016784668,61.2599983215332,61.040000915527344,600.0
2018-09-05,60.93000030517578,60.86000061035156,60.89599990844727,60.93000030517578,600.0
2018-09-06,60.75,60.65999984741211,60.75,60.65999984741211,3000.0
2018-09-07,60.76100158691406,60.76100158691406,60.76100158691406,60.76100158691406,100.0
2018-09-10,60.75899887084961,60.5,60.75899887084961,60.5,2100.0
2018-09-11,60.54999923706055,60.38000106811523,60.43999862670898,60.54999923706055,500.0
2018-09-12,60.21900177001953,60.1500015258789,60.1500015258789,60.21900177001953,500.0
2018-09-13,60.70000076293945,60.27999877929688,60.70000076293945,60.40999984741211,400.0
2018-09-14,60.54999923706055,60.54999923706055,60.54999923706055,60.54999923706055,300.0
2018-09-17,60.349998474121094,60.1500015258789,60.349998474121094,60.16999816894531,500.0
2018-09-18,60.43000030517578,60.11000061035156,60.11000061035156,60.38000106811523,1200.0
2018-09-19,60.11000061035156,60.0359992980957,60.11000061035156,60.0359992980957,400.0
2018-09-20,60.29999923706055,60.11999893188477,60.11999893188477,60.29999923706055,900.0
2018-09-21,60.27999877929688,60.23099899291992,60.23099899291992,60.27999877929688,700.0
2018-09-24,59.61999893188477,59.5,59.5,59.61999893188477,1600.0
2018-09-25,59.79999923706055,59.65999984741211,59.65999984741211,59.77799987792969,1600.0
2018-09-26,59.5,59.22900009155274,59.5,59.22900009155274,1600.0
2018-09-27,59.36999893188477,59.36199951171875,59.36999893188477,59.36999893188477,900.0
2018-09-28,59.45600128173828,59.43099975585938,59.43099975585938,59.44200134277344,1700.0
2018-10-01,59.15599822998047,58.959999084472656,59.15599822998047,58.959999084472656,500.0
2018-10-02,58.1500015258789,56.9900016784668,56.9900016784668,58.099998474121094,700.0
2018-10-03,59.13999938964844,58.08000183105469,59.13999938964844,58.571998596191406,700.0
2018-10-04,58.099998474121094,57.70500183105469,58.099998474121094,57.70500183105469,400.0
2018-10-05,58.7599983215332,56.78300094604492,58.7599983215332,56.93999862670898,500.0
2018-10-08,56.86999893188477,56.665000915527344,56.86999893188477,56.709999084472656,400.0
2018-10-09,56.92699813842773,56.92699813842773,56.92699813842773,56.92699813842773,500.0
2018-10-10,56.19499969482422,56.099998474121094,56.099998474121094,56.17499923706055,600.0
2018-10-11,54.9000015258789,54.72200012207031,54.9000015258789,54.85599899291992,600.0
2018-10-12,53.75,53.6349983215332,53.73199844360352,53.75,700.0
2018-10-15,54.34000015258789,53.72000122070313,53.72000122070313,54.34000015258789,1100.0
2018-10-16,54.34000015258789,54.34000015258789,54.34000015258789,54.34000015258789,0.0
2018-10-17,54.34000015258789,54.34000015258789,54.34000015258789,54.34000015258789,0.0
2018-10-18,54.72000122070313,54.72000122070313,54.72000122070313,54.72000122070313,200.0
2018-10-19,54.959999084472656,54.0,54.41400146484375,54.0,19400.0
2018-10-22,54.11000061035156,53.88299942016602,53.88299942016602,54.00600051879883,500.0
2018-10-23,53.81000137329102,53.27799987792969,53.68000030517578,53.75,800.0
2018-10-24,53.01599884033203,53.01599884033203,53.01599884033203,53.01599884033203,200.0
2018-10-25,53.17599868774414,53.15999984741211,53.17599868774414,53.15999984741211,300.0
2018-10-26,52.64899826049805,52.64899826049805,52.64899826049805,52.64899826049805,200.0
2018-10-29,52.64899826049805,52.64899826049805,52.64899826049805,52.64899826049805,100.0
2018-10-30,53.20000076293945,53.20000076293945,53.20000076293945,53.20000076293945,200.0
2018-10-31,53.70000076293945,53.665000915527344,53.70000076293945,53.68999862670898,500.0
2018-11-01,53.91999816894531,53.75500106811523,53.75500106811523,53.91999816894531,400.0
2018-11-02,54.09000015258789,54.09000015258789,54.09000015258789,54.09000015258789,1000.0
2018-11-05,54.09000015258789,54.09000015258789,54.09000015258789,54.09000015258789,100.0
2018-11-06,54.09000015258789,54.09000015258789,54.09000015258789,54.09000015258789,100.0
2018-11-07,54.09000015258789,54.09000015258789,54.09000015258789,54.09000015258789,100.0
2018-11-08,54.09000015258789,54.09000015258789,54.09000015258789,54.09000015258789,100.0
2018-11-09,53.86999893188477,53.86999893188477,53.86999893188477,53.86999893188477,100.0
2018-11-12,53.5,53.5,53.5,53.5,100.0
2018-11-13,53.81999969482422,53.599998474121094,53.599998474121094,53.81999969482422,300.0
2018-11-14,53.1500015258789,53.13999938964844,53.1500015258789,53.13999938964844,9500.0
2018-11-15,53.40299987792969,53.25600051879883,53.25600051879883,53.40299987792969,500.0
2018-11-16,53.52199935913086,53.52199935913086,53.52199935913086,53.52199935913086,300.0
2018-11-19,53.1870002746582,53.125,53.1870002746582,53.125,300.0
2018-11-20,53.125,53.125,53.125,53.125,100.0
2018-11-21,53.15999984741211,53.15999984741211,53.15999984741211,53.15999984741211,100.0
2018-11-23,53.07400131225586,53.07400131225586,53.07400131225586,53.07400131225586,200.0
2018-11-26,53.40999984741211,53.22000122070313,53.40999984741211,53.22000122070313,400.0
2018-11-27,53.01900100708008,52.9900016784668,52.9900016784668,53.01900100708008,400.0
2018-11-28,53.474998474121094,53.0,53.0,53.474998474121094,300.0
2018-11-29,53.474998474121094,53.474998474121094,53.474998474121094,53.474998474121094,100.0
2018-11-30,53.474998474121094,53.474998474121094,53.474998474121094,53.474998474121094,100.0
2018-12-03,54.040000915527344,53.972999572753906,54.040000915527344,53.972999572753906,900.0
2018-12-04,53.972999572753906,53.972999572753906,53.972999572753906,53.972999572753906,200.0
2018-12-06,52.31000137329102,52.13899993896485,52.13899993896485,52.31000137329102,2100.0
2018-12-07,52.67499923706055,52.67499923706055,52.67499923706055,52.67499923706055,400.0
2018-12-10,51.9900016784668,51.69300079345703,51.89500045776367,51.9109992980957,4500.0
2018-12-11,52.1500015258789,51.68999862670898,52.1500015258789,51.96099853515625,500.0
2018-12-12,52.209999084472656,51.96699905395508,52.040000915527344,51.96699905395508,900.0
2018-12-13,51.70000076293945,51.63399887084961,51.70000076293945,51.63399887084961,200.0
2018-12-14,51.72999954223633,51.28200149536133,51.72999954223633,51.28200149536133,700.0
2018-12-17,50.90999984741211,50.33300018310547,50.709999084472656,50.33300018310547,1700.0
2018-12-18,50.61999893188477,50.41299819946289,50.61999893188477,50.48199844360352,500.0
2018-12-19,50.74399948120117,49.90999984741211,50.74399948120117,49.93999862670898,2300.0
2018-12-20,50.0,49.599998474121094,49.61000061035156,49.6870002746582,1600.0
2018-12-21,49.72999954223633,49.21099853515625,49.72999954223633,49.21099853515625,2000.0
2018-12-24,49.24200057983398,48.97000122070313,49.24200057983398,48.97000122070313,500.0
2018-12-26,49.74599838256836,49.74599838256836,49.74599838256836,49.74599838256836,100.0
2018-12-27,49.928001403808594,49.31999969482422,49.84700012207031,49.928001403808594,20700.0
2018-12-28,50.0099983215332,49.9020004272461,50.0,49.97200012207031,8900.0
2018-12-31,50.40999984741211,50.040000915527344,50.1259994506836,50.40999984741211,1000.0
2019-01-02,50.55599975585938,50.55599975585938,50.55599975585938,50.55599975585938,300.0
2019-01-03,50.4000015258789,49.75,50.4000015258789,50.07600021362305,1800.0
2019-01-04,51.36000061035156,51.08399963378906,51.08399963378906,51.165000915527344,2600.0
2019-01-07,51.099998474121094,50.96799850463867,51.099998474121094,50.96799850463867,600.0
2019-01-08,51.97000122070313,51.22000122070313,51.97000122070313,51.52199935913086,3300.0
2019-01-09,52.13999938964844,51.540000915527344,51.540000915527344,51.70500183105469,9500.0
2019-01-10,51.84000015258789,51.63000106811523,51.84000015258789,51.70000076293945,8600.0
2019-01-11,51.56999969482422,51.558998107910156,51.558998107910156,51.56999969482422,100.0
2019-01-14,51.68999862670898,51.45500183105469,51.68999862670898,51.45500183105469,1400.0
2019-01-15,51.45500183105469,51.45500183105469,51.45500183105469,51.45500183105469,0.0
2019-01-16,51.85200119018555,51.84500122070313,51.84700012207031,51.84500122070313,400.0
2019-01-17,52.04999923706055,51.9640007019043,52.04999923706055,51.9640007019043,300.0
2019-01-18,52.31000137329102,52.13199996948242,52.21500015258789,52.13199996948242,1100.0
2019-01-22,52.09000015258789,51.69900131225586,52.09000015258789,51.69900131225586,800.0
2019-01-23,51.6510009765625,51.6510009765625,51.6510009765625,51.6510009765625,400.0
2019-01-24,51.8849983215332,51.74599838256836,51.74599838256836,51.87699890136719,11800.0
2019-01-25,52.15900039672852,52.06399917602539,52.10400009155274,52.10499954223633,500.0
2019-01-28,51.94200134277344,51.93500137329102,51.93500137329102,51.94200134277344,300.0
2019-01-29,52.01399993896485,52.01399993896485,52.01399993896485,52.01399993896485,100.0
2019-01-30,52.28400039672852,52.16299819946289,52.25,52.28400039672852,500.0
2019-01-31,52.61899948120117,52.61899948120117,52.61899948120117,52.61899948120117,100.0
2019-02-01,52.53300094604492,52.53300094604492,52.53300094604492,52.53300094604492,200.0
2019-02-04,52.77799987792969,52.77799987792969,52.77799987792969,52.77799987792969,0.0
2019-02-05,52.88999938964844,52.88999938964844,52.88999938964844,52.88999938964844,100.0
2019-02-06,52.91400146484375,52.8849983215332,52.91400146484375,52.8849983215332,700.0
2019-02-07,52.625,52.54800033569336,52.54800033569336,52.625,300.0
2019-02-08,52.60400009155274,52.47999954223633,52.47999954223633,52.60400009155274,200.0
2019-02-11,52.71599960327149,52.38199996948242,52.45000076293945,52.71599960327149,29900.0
2019-02-12,53.111000061035156,52.75,52.75,53.111000061035156,1300.0
2019-02-13,53.236000061035156,53.236000061035156,53.236000061035156,53.236000061035156,100.0
2019-02-14,53.415000915527344,53.34000015258789,53.34000015258789,53.415000915527344,200.0
2019-02-15,53.75,53.75,53.75,53.75,100.0
2019-02-19,54.099998474121094,53.7599983215332,53.7599983215332,54.00500106811523,500.0
2019-02-20,54.236000061035156,54.14300155639648,54.14300155639648,54.236000061035156,800.0
2019-02-21,54.0629997253418,54.0629997253418,54.0629997253418,54.0629997253418,100.0
2019-02-22,54.18199920654297,54.11700057983398,54.11700057983398,54.18199920654297,1100.0
2019-02-25,54.5099983215332,54.02000045776367,54.43999862670898,54.04999923706055,6000.0
2019-02-26,53.91299819946289,53.86899948120117,53.86899948120117,53.91299819946289,200.0
2019-02-27,53.85900115966797,53.76699829101562,53.76699829101562,53.85900115966797,500.0
2019-02-28,53.749000549316406,53.749000549316406,53.749000549316406,53.749000549316406,100.0
2019-03-01,53.9900016784668,53.86199951171875,53.9900016784668,53.86199951171875,700.0
2019-03-04,53.7599983215332,53.48099899291992,53.7599983215332,53.48099899291992,600.0
2019-03-05,53.41999816894531,53.41600036621094,53.41999816894531,53.41600036621094,300.0
2019-03-06,53.012001037597656,52.69599914550781,53.012001037597656,52.69599914550781,300.0
2019-03-07,52.5,52.33000183105469,52.5,52.33000183105469,200.0
2019-03-08,52.34000015258789,52.29700088500977,52.34000015258789,52.29700088500977,400.0
2019-03-11,52.81900024414063,52.68000030517578,52.68000030517578,52.81900024414063,800.0
2019-03-12,52.86000061035156,52.81399917602539,52.86000061035156,52.81399917602539,400.0
2019-03-13,53.00600051879883,52.987998962402344,53.0,52.987998962402344,300.0
2019-03-14,52.79399871826172,52.74200057983398,52.74200057983398,52.79399871826172,300.0
2019-03-15,52.86999893188477,52.81700134277344,52.86999893188477,52.81700134277344,400.0
2019-03-18,53.00699996948242,52.77999877929688,52.77999877929688,53.00699996948242,300.0
2019-03-19,53.099998474121094,52.79499816894531,53.099998474121094,52.79499816894531,2800.0
2019-03-20,52.63800048828125,52.63800048828125,52.63800048828125,52.63800048828125,300.0
2019-03-21,53.099998474121094,52.9000015258789,52.9000015258789,53.08200073242188,400.0
2019-03-22,51.63999938964844,51.63999938964844,51.63999938964844,51.63999938964844,100.0
2019-03-25,51.80500030517578,51.34000015258789,51.34000015258789,51.80500030517578,400.0
2019-03-26,52.09099960327149,52.09099960327149,52.09099960327149,52.09099960327149,300.0
2019-03-27,52.08300018310547,51.97000122070313,52.040000915527344,52.08300018310547,700.0
2019-03-28,52.39099884033203,52.1500015258789,52.22999954223633,52.39099884033203,700.0
2019-03-29,52.40900039672852,52.36199951171875,52.38399887084961,52.40900039672852,400.0
2019-04-01,52.84000015258789,52.43999862670898,52.43999862670898,52.72700119018555,800.0
2019-04-02,52.62799835205078,52.38000106811523,52.38000106811523,52.62799835205078,600.0
2019-04-03,52.959999084472656,52.63000106811523,52.63000106811523,52.72900009155274,1000.0
2019-04-04,52.98300170898438,52.22999954223633,52.22999954223633,52.98300170898438,1100.0
2019-04-05,53.3120002746582,52.86000061035156,52.86000061035156,53.3120002746582,500.0
2019-04-08,53.236000061035156,53.236000061035156,53.236000061035156,53.236000061035156,100.0
2019-04-09,52.81999969482422,52.80500030517578,52.81999969482422,52.80500030517578,500.0
2019-04-10,53.4020004272461,52.77000045776367,52.77000045776367,53.4020004272461,1000.0
2019-04-11,53.41999816894531,53.15999984741211,53.15999984741211,53.29700088500977,700.0
2019-04-12,53.41799926757813,53.41799926757813,53.41799926757813,53.41799926757813,0.0
2019-04-15,53.30199813842773,53.1500015258789,53.1500015258789,53.30199813842773,300.0
2019-04-16,53.38899993896485,53.16999816894531,53.16999816894531,53.38899993896485,700.0
2019-04-17,53.18500137329102,53.04199981689453,53.11999893188477,53.183998107910156,800.0
2019-04-18,53.09400177001953,53.09400177001953,53.09400177001953,53.09400177001953,100.0
2019-04-22,53.06000137329102,52.70000076293945,53.06000137329102,52.75,700.0
2019-04-23,53.57400131225586,53.57400131225586,53.57400131225586,53.57400131225586,100.0
2019-04-24,53.68999862670898,53.57500076293945,53.57500076293945,53.68999862670898,400.0
2019-04-25,53.27999877929688,53.11999893188477,53.11999893188477,53.27999877929688,300.0
2019-04-26,53.57699966430664,53.459999084472656,53.459999084472656,53.57699966430664,500.0
2019-04-29,53.816001892089844,53.816001892089844,53.816001892089844,53.816001892089844,100.0
2019-04-30,53.80699920654297,53.68999862670898,53.68999862670898,53.73500061035156,400.0
2019-05-01,53.375,53.375,53.375,53.375,100.0
2019-05-02,53.43899917602539,53.43899917602539,53.43899917602539,53.43899917602539,0.0
2019-05-03,54.34500122070313,54.34500122070313,54.34500122070313,54.34500122070313,200.0
2019-05-06,54.39099884033203,53.61999893188477,53.61999893188477,54.39099884033203,1200.0
2019-05-07,53.63000106811523,53.43999862670898,53.63000106811523,53.49599838256836,400.0
2019-05-08,53.61999893188477,53.27799987792969,53.61999893188477,53.27799987792969,500.0
2019-05-09,53.25899887084961,52.54999923706055,52.54999923706055,53.25899887084961,600.0
2019-05-10,53.21699905395508,53.21699905395508,53.21699905395508,53.21699905395508,100.0
2019-05-13,52.0359992980957,52.0359992980957,52.0359992980957,52.0359992980957,100.0
2019-05-14,52.58000183105469,52.47100067138672,52.58000183105469,52.47100067138672,500.0
2019-05-15,52.5,52.45600128173828,52.5,52.45600128173828,400.0
2019-05-16,52.790000915527344,52.67399978637695,52.790000915527344,52.67399978637695,100.0
2019-05-17,52.84000015258789,52.25500106811523,52.84000015258789,52.25500106811523,1300.0
2019-05-20,51.99499893188477,51.97000122070313,51.99499893188477,51.97000122070313,400.0
2019-05-21,52.33000183105469,52.22000122070313,52.33000183105469,52.29100036621094,1000.0
2019-05-22,52.040000915527344,51.98099899291992,51.98099899291992,52.040000915527344,900.0
2019-05-23,51.36000061035156,51.16899871826172,51.36000061035156,51.16899871826172,300.0
2019-05-24,51.584999084472656,51.43000030517578,51.43000030517578,51.584999084472656,300.0
2019-05-28,52.0,51.46799850463867,52.0,51.46799850463867,1100.0
2019-05-29,51.09000015258789,51.00899887084961,51.09000015258789,51.00899887084961,400.0
2019-05-30,50.95500183105469,50.95500183105469,50.95500183105469,50.95500183105469,100.0
2019-05-31,50.66999816894531,50.66999816894531,50.66999816894531,50.66999816894531,100.0
2019-06-03,51.00799942016602,50.89799880981445,50.89799880981445,51.00799942016602,700.0
2019-06-04,51.83000183105469,51.5,51.5,51.83000183105469,300.0
2019-06-05,51.93000030517578,51.65999984741211,51.93000030517578,51.76399993896485,1000.0
2019-06-06,51.64500045776367,51.64500045776367,51.64500045776367,51.64500045776367,200.0
2019-06-07,52.15999984741211,51.89799880981445,52.15999984741211,51.89799880981445,400.0
2019-06-10,52.18899917602539,52.13000106811523,52.13999938964844,52.18899917602539,400.0
2019-06-11,52.08000183105469,51.96900177001953,52.08000183105469,51.96900177001953,500.0
2019-06-12,51.93500137329102,51.93500137329102,51.93500137329102,51.93500137329102,100.0
2019-06-13,52.20000076293945,51.97000122070313,51.9900016784668,52.20000076293945,1000.0
2019-06-14,52.20500183105469,52.0099983215332,52.0099983215332,52.18199920654297,1000.0
2019-06-17,52.04999923706055,52.04999923706055,52.04999923706055,52.04999923706055,100.0
2019-06-18,52.57899856567383,52.15999984741211,52.15999984741211,52.5359992980957,600.0
2019-06-19,52.68999862670898,52.52999877929688,52.52999877929688,52.68999862670898,300.0
2019-06-20,53.06999969482422,52.95500183105469,52.95500183105469,53.06499862670898,500.0
2019-06-21,52.7599983215332,52.44200134277344,52.7599983215332,52.44200134277344,700.0
2019-06-24,52.43000030517578,52.26100158691406,52.43000030517578,52.26100158691406,200.0
2019-06-25,51.91799926757813,51.91799926757813,51.91799926757813,51.91799926757813,200.0
2019-06-26,51.90800094604492,51.90800094604492,51.90800094604492,51.90800094604492,100.0
2019-06-27,52.56399917602539,51.849998474121094,51.849998474121094,52.56399917602539,1500.0
2019-06-28,53.23699951171875,53.23699951171875,53.23699951171875,53.23699951171875,100.0
2019-07-01,53.40999984741211,53.13000106811523,53.40999984741211,53.17499923706055,1400.0
2019-07-02,52.97100067138672,52.95500183105469,52.97100067138672,52.95500183105469,200.0
2019-07-03,53.17900085449219,53.17900085449219,53.17900085449219,53.17900085449219,100.0
2019-07-05,53.349998474121094,53.040000915527344,53.040000915527344,53.349998474121094,700.0
2019-07-08,52.974998474121094,52.91999816894531,52.974998474121094,52.93500137329102,1700.0
2019-07-09,52.88399887084961,52.64699935913086,52.68000030517578,52.88399887084961,1700.0
2019-07-10,53.099998474121094,52.89500045776367,53.099998474121094,52.89500045776367,1200.0
2019-07-11,52.7400016784668,52.65299987792969,52.7400016784668,52.65299987792969,1200.0
2019-07-12,53.15800094604492,53.02000045776367,53.02000045776367,53.15800094604492,100.0
2019-07-15,52.79600143432617,52.78799819946289,52.78799819946289,52.79600143432617,100.0
2019-07-16,52.90999984741211,52.9010009765625,52.90999984741211,52.9010009765625,200.0
2019-07-17,52.75,52.61800003051758,52.75,52.66699981689453,300.0
2019-07-18,52.78799819946289,52.58000183105469,52.63999938964844,52.78799819946289,500.0
2019-07-19,52.97600173950195,52.70100021362305,52.97600173950195,52.70100021362305,500.0
2019-07-22,52.54100036621094,52.54100036621094,52.54100036621094,52.54100036621094,100.0
2019-07-23,52.90999984741211,52.61700057983398,52.61700057983398,52.90999984741211,500.0
2019-07-24,53.66299819946289,53.01499938964844,53.01499938964844,53.66299819946289,700.0
2019-07-25,53.4900016784668,53.17300033569336,53.4900016784668,53.17300033569336,600.0
2019-07-26,53.6609992980957,53.1500015258789,53.15999984741211,53.6609992980957,1200.0
2019-07-29,53.31000137329102,53.28499984741211,53.31000137329102,53.31000137329102,600.0
2019-07-30,53.8129997253418,53.38000106811523,53.38000106811523,53.8129997253418,400.0
2019-07-31,54.290000915527344,53.68999862670898,54.290000915527344,53.68999862670898,400.0
2019-08-01,53.9119987487793,52.790000915527344,53.65999984741211,53.00799942016602,2300.0
2019-08-02,52.553001403808594,52.34000015258789,52.45000076293945,52.553001403808594,900.0
2019-08-05,51.34400177001953,51.22000122070313,51.22000122070313,51.34400177001953,400.0
2019-08-06,51.78499984741211,51.099998474121094,51.099998474121094,51.78499984741211,600.0
2019-08-07,51.861000061035156,51.861000061035156,51.861000061035156,51.861000061035156,800.0
2019-08-08,52.66400146484375,52.27999877929688,52.27999877929688,52.66400146484375,700.0
2019-08-09,52.29999923706055,52.15999984741211,52.29999923706055,52.26399993896485,1300.0
2019-08-12,51.95500183105469,51.95500183105469,51.95500183105469,51.95500183105469,100.0
2019-08-13,52.28499984741211,52.16999816894531,52.28400039672852,52.28499984741211,300.0
2019-08-14,51.70000076293945,51.12900161743164,51.70000076293945,51.12900161743164,1000.0
2019-08-15,51.17100143432617,50.97999954223633,51.17100143432617,51.125,500.0
2019-08-16,51.75699996948242,51.459999084472656,51.70000076293945,51.73699951171875,1200.0
2019-08-19,52.14199829101562,52.14199829101562,52.14199829101562,52.14199829101562,0.0
2019-08-20,51.87900161743164,51.87900161743164,51.87900161743164,51.87900161743164,0.0
2019-08-21,52.25,52.10900115966797,52.1349983215332,52.10900115966797,600.0
2019-08-22,51.9640007019043,51.7599983215332,51.88999938964844,51.9640007019043,900.0
2019-08-23,51.7599983215332,50.95500183105469,51.7599983215332,50.95500183105469,700.0
2019-08-26,51.56900024414063,51.56900024414063,51.56900024414063,51.56900024414063,100.0
2019-08-27,51.23699951171875,51.05099868774414,51.05099868774414,51.23699951171875,200.0
2019-08-28,51.53499984741211,51.44900131225586,51.53200149536133,51.46900177001953,1000.0
2019-08-29,51.86199951171875,51.80699920654297,51.834999084472656,51.86199951171875,500.0
2019-08-30,51.87099838256836,51.28499984741211,51.65999984741211,51.87099838256836,800.0
2019-09-03,51.66999816894531,51.34600067138672,51.66999816894531,51.52299880981445,1100.0
2019-09-04,51.834999084472656,51.20000076293945,51.20000076293945,51.834999084472656,1100.0
2019-09-05,52.459999084472656,52.13899993896485,52.20700073242188,52.17300033569336,2400.0
2019-09-06,52.34500122070313,52.0250015258789,52.0250015258789,52.2859992980957,2100.0
2019-09-09,52.43899917602539,51.70000076293945,52.040000915527344,52.43899917602539,800.0
2019-09-10,52.61700057983398,52.52000045776367,52.52000045776367,52.61700057983398,400.0
2019-09-11,53.09500122070313,52.59000015258789,52.61999893188477,53.09500122070313,1700.0
2019-09-12,53.13999938964844,52.93999862670898,52.93999862670898,53.13999938964844,2100.0
2019-09-13,53.5,53.040000915527344,53.040000915527344,53.16299819946289,1900.0
2019-09-16,53.42499923706055,52.9000015258789,52.9000015258789,53.42499923706055,1000.0
2019-09-17,53.38999938964844,53.21599960327149,53.21599960327149,53.28499984741211,400.0
2019-09-18,53.07300186157226,52.9000015258789,53.06999969482422,53.05500030517578,1100.0
2019-09-19,52.92499923706055,52.92499923706055,52.92499923706055,52.92499923706055,0.0
2019-09-20,53.099998474121094,52.75,52.75,52.9370002746582,900.0
2019-09-23,53.15999984741211,52.77999877929688,53.15999984741211,52.8849983215332,1000.0
2019-09-24,52.75,52.474998474121094,52.68000030517578,52.474998474121094,1600.0
2019-09-25,52.89199829101562,52.62099838256836,52.62099838256836,52.89199829101562,300.0
2019-09-26,52.68000030517578,52.43999862670898,52.47999954223633,52.56499862670898,900.0
2019-09-27,52.35499954223633,52.22900009155274,52.35499954223633,52.22900009155274,200.0
2019-09-30,52.38999938964844,52.3380012512207,52.38999938964844,52.3380012512207,800.0
2019-10-01,52.31999969482422,51.6500015258789,52.31999969482422,51.6500015258789,400.0
2019-10-02,51.34199905395508,51.165000915527344,51.165000915527344,51.34199905395508,300.0
2019-10-03,51.46500015258789,51.30199813842773,51.349998474121094,51.46500015258789,2200.0
2019-10-04,51.816001892089844,51.38000106811523,51.70000076293945,51.816001892089844,1500.0
2019-10-07,51.847999572753906,51.709999084472656,51.709999084472656,51.81000137329102,400.0
2019-10-08,51.43999862670898,50.82500076293945,51.06000137329102,51.22200012207031,1100.0
2019-10-09,51.54999923706055,51.22000122070313,51.29100036621094,51.28300094604492,900.0
2019-10-10,51.38199996948242,51.38199996948242,51.38199996948242,51.38199996948242,0.0
2019-10-11,51.9379997253418,51.93000030517578,51.9379997253418,51.93000030517578,900.0
2019-10-14,51.69599914550781,51.56999969482422,51.56999969482422,51.69599914550781,1100.0
2019-10-15,52.06499862670898,52.02999877929688,52.02999877929688,52.06499862670898,300.0
2019-10-16,52.20399856567383,52.15800094604492,52.20399856567383,52.15800094604492,300.0
2019-10-17,52.45000076293945,52.349998474121094,52.349998474121094,52.45000076293945,300.0
2019-10-18,52.61999893188477,52.16999816894531,52.16999816894531,52.45600128173828,1400.0
2019-10-21,52.6609992980957,52.41999816894531,52.56000137329102,52.6609992980957,500.0
2019-10-22,52.88000106811523,52.52999877929688,52.52999877929688,52.8120002746582,1000.0
2019-10-23,52.9000015258789,52.625,52.9000015258789,52.84700012207031,500.0
2019-10-24,52.83000183105469,52.72999954223633,52.83000183105469,52.80099868774414,1000.0
2019-10-25,53.15999984741211,52.96500015258789,53.13899993896485,53.0250015258789,800.0
2019-10-28,53.38399887084961,53.321998596191406,53.37900161743164,53.321998596191406,600.0
2019-10-29,53.43999862670898,53.43099975585938,53.43099975585938,53.43999862670898,100.0
2019-10-30,53.36000061035156,53.07500076293945,53.07500076293945,53.36000061035156,500.0
2019-10-31,53.0,52.83000183105469,52.97999954223633,52.849998474121094,700.0
2019-11-01,53.4900016784668,53.4900016784668,53.4900016784668,53.4900016784668,0.0
2019-11-04,53.9379997253418,53.9379997253418,53.9379997253418,53.9379997253418,0.0
2019-11-05,54.06999969482422,53.88000106811523,53.88000106811523,54.06999969482422,200.0
2019-11-06,53.70299911499024,53.5,53.5,53.70299911499024,400.0
2019-11-07,54.06000137329102,53.77999877929688,53.77999877929688,53.78300094604492,1100.0
2019-11-08,53.849998474121094,53.43999862670898,53.43999862670898,53.74800109863281,600.0
2019-11-11,53.73099899291992,53.56999969482422,53.56999969482422,53.73099899291992,300.0
2019-11-12,53.70000076293945,53.38999938964844,53.38999938964844,53.70000076293945,800.0
2019-11-13,53.63999938964844,53.38999938964844,53.41999816894531,53.5009994506836,1700.0
2019-11-14,53.77299880981445,53.22999954223633,53.22999954223633,53.4119987487793,700.0
2019-11-15,53.60300064086914,53.60300064086914,53.60300064086914,53.60300064086914,0.0
2019-11-18,53.46799850463867,53.3489990234375,53.3489990234375,53.46799850463867,300.0
2019-11-19,53.540000915527344,53.52000045776367,53.52000045776367,53.540000915527344,300.0
2019-11-20,53.6500015258789,53.099998474121094,53.099998474121094,53.24499893188477,1100.0
2019-11-21,53.07400131225586,52.90800094604492,52.91400146484375,53.07400131225586,900.0
2019-11-22,53.20700073242188,53.20700073242188,53.20700073242188,53.20700073242188,0.0
2019-11-25,54.3390007019043,53.72600173950195,53.72600173950195,54.3390007019043,300.0
2019-11-26,54.31100082397461,54.31100082397461,54.31100082397461,54.31100082397461,0.0
2019-11-27,54.487998962402344,54.487998962402344,54.487998962402344,54.487998962402344,100.0
2019-11-29,54.20299911499024,54.20299911499024,54.20299911499024,54.20299911499024,0.0
2019-12-02,53.86999893188477,53.58100128173828,53.81000137329102,53.58100128173828,700.0
2019-12-03,53.44300079345703,52.27999877929688,52.27999877929688,53.44300079345703,200.0
2019-12-04,53.96900177001953,53.84000015258789,53.84000015258789,53.89599990844727,300.0
2019-12-05,54.0099983215332,53.93899917602539,54.0099983215332,53.93899917602539,100.0
2019-12-06,54.68999862670898,54.68999862670898,54.68999862670898,54.68999862670898,100.0
2019-12-09,54.55699920654297,54.55699920654297,54.55699920654297,54.55699920654297,100.0
2019-12-10,54.68000030517578,54.13000106811523,54.13000106811523,54.32799911499024,1800.0
2019-12-11,54.52099990844727,54.52099990844727,54.52099990844727,54.52099990844727,200.0
2019-12-12,55.06000137329102,54.83200073242188,54.83200073242188,55.06000137329102,200.0
2019-12-13,54.78200149536133,54.6870002746582,54.75199890136719,54.6870002746582,300.0
2019-12-16,54.98699951171875,54.98699951171875,54.98699951171875,54.98699951171875,0.0
2019-12-17,55.38299942016602,54.72000122070313,54.72000122070313,55.38299942016602,900.0
2019-12-18,55.61800003051758,55.06999969482422,55.06999969482422,55.61800003051758,1200.0
2019-12-19,55.7400016784668,55.4000015258789,55.4000015258789,55.7400016784668,500.0
2019-12-20,55.928001403808594,55.43000030517578,55.87900161743164,55.79999923706055,500.0
2019-12-23,55.47999954223633,55.29999923706055,55.29999923706055,55.40999984741211,900.0
2019-12-24,55.540000915527344,55.540000915527344,55.540000915527344,55.540000915527344,100.0
2019-12-26,55.52999877929688,55.52999877929688,55.52999877929688,55.52999877929688,100.0
2019-12-27,55.29299926757813,55.29299926757813,55.29299926757813,55.29299926757813,100.0
2019-12-30,55.40599822998047,54.849998474121094,54.849998474121094,55.07699966430664,600.0
2019-12-31,55.566001892089844,55.566001892089844,55.566001892089844,55.566001892089844,200.0
2020-01-02,55.33000183105469,55.22000122070313,55.22000122070313,55.33000183105469,300.0
2020-01-03,55.4370002746582,55.43099975585938,55.4370002746582,55.43099975585938,100.0
2020-01-06,55.37300109863281,55.37300109863281,55.37300109863281,55.37300109863281,100.0
2020-01-07,55.1500015258789,54.83000183105469,54.83000183105469,55.01100158691406,800.0
2020-01-08,55.191001892089844,55.191001892089844,55.191001892089844,55.191001892089844,100.0
2020-01-09,55.38999938964844,55.308998107910156,55.38999938964844,55.308998107910156,400.0
2020-01-10,54.96599960327149,54.93000030517578,54.93000030517578,54.96599960327149,300.0
2020-01-13,55.53799819946289,55.4900016784668,55.4900016784668,55.53799819946289,300.0
2020-01-14,55.79100036621094,55.77399826049805,55.79100036621094,55.77399826049805,300.0
2020-01-15,56.11399841308594,55.96599960327149,56.11000061035156,55.96599960327149,200.0
2020-01-16,56.69300079345703,56.69300079345703,56.69300079345703,56.69300079345703,100.0
2020-01-17,56.68999862670898,56.31700134277344,56.68999862670898,56.31700134277344,15200.0
2020-01-21,55.99599838256836,55.80599975585938,55.99599838256836,55.80599975585938,500.0
2020-01-22,55.83000183105469,55.83000183105469,55.83000183105469,55.83000183105469,100.0
2020-01-23,55.91999816894531,55.91999816894531,55.91999816894531,55.91999816894531,100.0
2020-01-24,55.38999938964844,55.3380012512207,55.38999938964844,55.3380012512207,300.0
2020-01-27,54.76300048828125,54.76300048828125,54.76300048828125,54.76300048828125,300.0
2020-01-28,55.04999923706055,54.84099960327149,54.93999862670898,54.89099884033203,500.0
2020-01-29,54.597999572753906,54.597999572753906,54.597999572753906,54.597999572753906,100.0
2020-01-30,54.37699890136719,53.90800094604492,53.97999954223633,54.37699890136719,900.0
2020-01-31,53.24200057983398,53.24200057983398,53.24200057983398,53.24200057983398,200.0
2020-02-03,53.69599914550781,53.69599914550781,53.69599914550781,53.69599914550781,200.0
2020-02-04,54.486000061035156,53.7400016784668,53.7400016784668,54.01300048828125,900.0
2020-02-05,55.16799926757813,55.0,55.0,55.16799926757813,400.0
2020-02-06,55.32400131225586,55.32400131225586,55.32400131225586,55.32400131225586,100.0
2020-02-07,54.86000061035156,54.30699920654297,54.40999984741211,54.30699920654297,900.0
2020-02-10,55.34400177001953,53.7599983215332,53.7599983215332,54.71099853515625,13700.0
2020-02-11,56.2140007019043,54.56499862670898,55.68999862670898,55.18500137329102,29900.0
2020-02-12,55.61999893188477,54.90999984741211,55.0099983215332,55.084999084472656,8600.0
2020-02-13,55.54800033569336,55.20000076293945,55.29999923706055,55.54800033569336,5500.0
2020-02-14,55.43000030517578,52.65999984741211,55.2599983215332,54.959999084472656,3400.0
2020-02-18,55.11000061035156,54.7770004272461,55.11000061035156,54.7770004272461,400.0
2020-02-19,55.16600036621094,54.60499954223633,54.709999084472656,54.99700164794922,7800.0
2020-02-20,55.31000137329102,54.790000915527344,55.2599983215332,55.2130012512207,2800.0
2020-02-21,55.11000061035156,54.54999923706055,55.11000061035156,54.959999084472656,1200.0
2020-02-24,53.20000076293945,52.97700119018555,53.20000076293945,52.97700119018555,600.0
2020-02-25,53.31000137329102,51.499000549316406,53.31000137329102,51.499000549316406,400.0
2020-02-26,51.17499923706055,51.17499923706055,51.17499923706055,51.17499923706055,200.0
2020-02-27,50.566001892089844,48.2599983215332,50.290000915527344,49.57899856567383,19000.0
2020-02-28,49.18999862670898,48.61600112915039,49.099998474121094,48.61600112915039,600.0
2020-03-02,50.04600143432617,48.737998962402344,49.40999984741211,49.79899978637695,13100.0
2020-03-03,49.30500030517578,49.30500030517578,49.30500030517578,49.30500030517578,100.0
2020-03-04,49.99499893188477,49.99499893188477,49.99499893188477,49.99499893188477,100.0
2020-03-05,49.540000915527344,49.38299942016602,49.540000915527344,49.38299942016602,400.0
2020-03-06,49.13000106811523,48.84099960327149,48.95000076293945,48.84099960327149,500.0
2020-03-09,49.09700012207031,46.58000183105469,47.64699935913086,47.37300109863281,14700.0
2020-03-10,48.04100036621094,47.584999084472656,47.709999084472656,48.04100036621094,900.0
2020-03-11,47.17499923706055,47.17499923706055,47.17499923706055,47.17499923706055,100.0
2020-03-12,46.7599983215332,46.07500076293945,46.07500076293945,46.7599983215332,2400.0
2020-03-13,48.0,44.59000015258789,44.59000015258789,46.75199890136719,3200.0
2020-03-16,47.81000137329102,43.68000030517578,43.68000030517578,46.762001037597656,3400.0
2020-03-17,47.31000137329102,45.96099853515625,47.31000137329102,45.96099853515625,200.0
2020-03-18,45.84000015258789,44.0,44.90999984741211,44.70500183105469,3200.0
2020-03-19,45.025001525878906,44.81999969482422,45.025001525878906,45.0,2500.0
2020-03-20,45.42599868774414,44.90999984741211,44.91999816894531,45.290000915527344,1800.0
2020-03-23,46.6609992980957,44.97700119018555,45.11600112915039,45.14300155639648,8700.0
2020-03-24,46.040000915527344,45.459999084472656,45.70000076293945,45.46500015258789,2000.0
2020-03-25,45.571998596191406,45.49499893188477,45.56999969482422,45.49499893188477,1100.0
2020-03-26,45.90999984741211,45.90999984741211,45.90999984741211,45.90999984741211,100.0
2020-03-27,45.95000076293945,45.95000076293945,45.95000076293945,45.95000076293945,400.0
2020-03-30,45.95000076293945,45.95000076293945,45.95000076293945,45.95000076293945,0.0
2020-03-31,46.09199905395508,46.09199905395508,46.09199905395508,46.09199905395508,0.0
2020-04-01,45.81999969482422,45.70500183105469,45.81999969482422,45.70500183105469,400.0
2020-04-02,45.70500183105469,45.70500183105469,45.70500183105469,45.70500183105469,0.0
2020-04-03,45.98500061035156,45.98500061035156,45.98500061035156,45.98500061035156,0.0
2020-04-06,46.04499816894531,46.04499816894531,46.04499816894531,46.04499816894531,200.0
2020-04-07,46.06000137329102,46.06000137329102,46.06000137329102,46.06000137329102,300.0
2020-04-08,46.06000137329102,46.06000137329102,46.06000137329102,46.06000137329102,0.0
2020-04-09,46.11000061035156,46.04999923706055,46.04999923706055,46.11000061035156,500.0
2020-04-13,46.30500030517578,46.11000061035156,46.11000061035156,46.1500015258789,400.0
2020-04-14,46.5,46.27999877929688,46.5,46.27999877929688,200.0
2020-04-15,46.29999923706055,46.08000183105469,46.27000045776367,46.1870002746582,20000.0
2020-04-16,46.1870002746582,46.1870002746582,46.1870002746582,46.1870002746582,0.0
2020-04-17,46.39799880981445,46.39799880981445,46.39799880981445,46.39799880981445,0.0
2020-04-20,49.09000015258789,46.334999084472656,49.09000015258789,46.334999084472656,500.0
2020-04-21,46.334999084472656,46.334999084472656,46.334999084472656,46.334999084472656,0.0
2020-04-22,46.51399993896485,46.38999938964844,46.38999938964844,46.51399993896485,1300.0
2020-04-23,46.23099899291992,46.22999954223633,46.22999954223633,46.23099899291992,500.0
2020-04-24,46.23099899291992,46.23099899291992,46.23099899291992,46.23099899291992,0.0
2020-04-27,46.53499984741211,46.36000061035156,46.36000061035156,46.53499984741211,1800.0
2020-04-28,46.52000045776367,46.38999938964844,46.38999938964844,46.52000045776367,400.0
2020-04-29,46.74499893188477,46.65999984741211,46.65999984741211,46.66899871826172,700.0
2020-04-30,46.71099853515625,46.68000030517578,46.71099853515625,46.68000030517578,200.0
2020-05-01,46.47100067138672,46.47000122070313,46.47100067138672,46.47000122070313,500.0
2020-05-04,46.47000122070313,46.47000122070313,46.47000122070313,46.47000122070313,0.0
2020-05-05,46.45500183105469,46.45500183105469,46.45500183105469,46.45500183105469,0.0
2020-05-06,46.52000045776367,46.415000915527344,46.52000045776367,46.45600128173828,1200.0
2020-05-07,46.45600128173828,46.45600128173828,46.45600128173828,46.45600128173828,0.0
2020-05-08,46.70500183105469,46.61999893188477,46.61999893188477,46.63999938964844,1000.0
2020-05-11,46.68999862670898,46.68000030517578,46.68999862670898,46.68000030517578,600.0
2020-05-12,46.57099914550781,46.50400161743164,46.57099914550781,46.50400161743164,500.0
2020-05-13,46.36000061035156,46.34000015258789,46.34000015258789,46.36000061035156,200.0
2020-05-14,46.40999984741211,46.40999984741211,46.40999984741211,46.40999984741211,100.0
2020-05-15,46.40999984741211,45.97999954223633,46.40999984741211,46.32899856567383,4300.0
2020-05-18,46.790000915527344,46.71500015258789,46.76499938964844,46.71500015258789,900.0
2020-05-19,46.51499938964844,46.51499938964844,46.51499938964844,46.51499938964844,100.0
2020-05-20,46.808998107910156,46.709999084472656,46.808998107910156,46.709999084472656,400.0
2020-05-21,46.72999954223633,46.72999954223633,46.72999954223633,46.72999954223633,100.0
2020-05-22,46.90499877929688,46.90499877929688,46.90499877929688,46.90499877929688,100.0
2020-05-26,47.13000106811523,46.97999954223633,46.97999954223633,47.0099983215332,7100.0
2020-05-27,47.19900131225586,47.04700088500977,47.04700088500977,47.19900131225586,500.0
2020-05-28,47.72999954223633,47.37099838256836,47.43000030517578,47.37099838256836,900.0
2020-05-29,47.05500030517578,46.9000015258789,46.959999084472656,47.05500030517578,1000.0
2020-06-01,47.37200164794922,47.2599983215332,47.2599983215332,47.37200164794922,200.0
2020-06-02,47.34500122070313,47.14500045776367,47.25,47.14500045776367,1400.0
2020-06-03,47.45000076293945,47.45000076293945,47.45000076293945,47.45000076293945,200.0
2020-06-04,47.46599960327149,47.46599960327149,47.46599960327149,47.46599960327149,200.0
2020-06-05,47.6870002746582,47.56999969482422,47.56999969482422,47.6870002746582,400.0
2020-06-08,47.43000030517578,46.97000122070313,47.43000030517578,47.33000183105469,3200.0
2020-06-09,47.41699981689453,47.41699981689453,47.41699981689453,47.41699981689453,100.0
2020-06-10,47.51300048828125,47.51300048828125,47.51300048828125,47.51300048828125,100.0
2020-06-11,47.02999877929688,46.736000061035156,47.02999877929688,46.736000061035156,1400.0
2020-06-12,47.15800094604492,47.0099983215332,47.15800094604492,47.125,1000.0
2020-06-15,47.11000061035156,47.06999969482422,47.06999969482422,47.11000061035156,100.0
2020-06-16,48.68999862670898,47.290000915527344,48.68999862670898,47.29999923706055,700.0
2020-06-17,47.24499893188477,47.15999984741211,47.22999954223633,47.15999984741211,300.0
2020-06-18,47.15999984741211,47.15999984741211,47.15999984741211,47.15999984741211,100.0
2020-06-19,47.09099960327149,47.09099960327149,47.09099960327149,47.09099960327149,0.0
2020-06-22,47.15999984741211,46.97000122070313,47.12799835205078,46.97000122070313,500.0
2020-06-23,47.22000122070313,47.1349983215332,47.22000122070313,47.1349983215332,400.0
2020-06-24,46.92200088500977,46.81000137329102,46.81000137329102,46.91999816894531,700.0
2020-06-25,47.01699829101562,46.88999938964844,46.88999938964844,47.01699829101562,100.0
2020-06-26,46.88000106811523,46.88000106811523,46.88000106811523,46.88000106811523,0.0
2020-06-29,47.22999954223633,47.13399887084961,47.22999954223633,47.13399887084961,200.0
2020-06-30,47.2750015258789,47.2750015258789,47.2750015258789,47.2750015258789,100.0
2020-07-01,47.22000122070313,47.20000076293945,47.22000122070313,47.20000076293945,400.0
2020-07-02,46.88999938964844,46.74200057983398,46.88999938964844,46.74200057983398,6000.0
2020-07-06,47.16999816894531,47.16400146484375,47.16999816894531,47.16400146484375,200.0
2020-07-07,47.11999893188477,47.11999893188477,47.11999893188477,47.11999893188477,100.0
2020-07-08,47.14599990844727,47.14599990844727,47.14599990844727,47.14599990844727,100.0
2020-07-09,47.03499984741211,47.0,47.0,47.03499984741211,100.0
2020-07-10,47.165000915527344,47.165000915527344,47.165000915527344,47.165000915527344,0.0
2020-07-13,47.11000061035156,46.9010009765625,47.11000061035156,46.9010009765625,900.0
2020-07-14,47.18500137329102,47.06000137329102,47.06000137329102,47.18500137329102,300.0
2020-07-15,47.47000122070313,47.29999923706055,47.29999923706055,47.43999862670898,400.0
2020-07-16,47.40499877929688,47.38000106811523,47.40499877929688,47.38000106811523,200.0
2020-07-17,47.415000915527344,47.415000915527344,47.415000915527344,47.415000915527344,100.0
2020-07-20,47.36000061035156,47.36000061035156,47.36000061035156,47.36000061035156,100.0
2020-07-21,47.58000183105469,47.58000183105469,47.58000183105469,47.58000183105469,100.0
2020-07-22,47.56499862670898,47.56499862670898,47.56499862670898,47.56499862670898,200.0
2020-07-23,47.54999923706055,47.45299911499024,47.54999923706055,47.45299911499024,500.0
2020-07-24,47.50799942016602,47.50799942016602,47.50799942016602,47.50799942016602,100.0
2020-07-27,47.40999984741211,45.86999893188477,47.40999984741211,46.89599990844727,17900.0
2020-07-28,47.4900016784668,47.15999984741211,47.4900016784668,47.16600036621094,1000.0
2020-07-29,47.56000137329102,47.54999923706055,47.54999923706055,47.56000137329102,500.0
2020-07-30,47.61000061035156,47.39500045776367,47.61000061035156,47.39500045776367,1500.0
2020-07-31,48.1500015258789,47.4000015258789,48.1500015258789,47.67399978637695,800.0
2020-08-03,47.84000015258789,47.84000015258789,47.84000015258789,47.84000015258789,100.0
2020-08-04,47.8849983215332,47.75,47.75,47.8849983215332,300.0
2020-08-05,47.99599838256836,47.790000915527344,47.93999862670898,47.99599838256836,800.0
2020-08-06,48.04499816894531,47.93999862670898,48.04499816894531,48.04499816894531,600.0
2020-08-07,48.02000045776367,47.92300033569336,48.02000045776367,47.92300033569336,500.0
2020-08-10,48.30500030517578,48.30500030517578,48.30500030517578,48.30500030517578,100.0
2020-08-11,48.38399887084961,47.53200149536133,48.27000045776367,47.53200149536133,2800.0
2020-08-12,48.15999984741211,48.07400131225586,48.15999984741211,48.07400131225586,500.0
2020-08-13,48.13000106811523,48.13000106811523,48.13000106811523,48.13000106811523,0.0
2020-08-14,48.08100128173828,47.9020004272461,47.97999954223633,47.9020004272461,600.0
2020-08-17,48.13999938964844,48.13999938964844,48.13999938964844,48.13999938964844,200.0
2020-08-18,48.21799850463867,48.0250015258789,48.0250015258789,48.21799850463867,200.0
2020-08-19,48.0260009765625,48.0260009765625,48.0260009765625,48.0260009765625,100.0
2020-08-20,47.92499923706055,47.92499923706055,47.92499923706055,47.92499923706055,100.0
2020-08-21,47.72999954223633,47.691001892089844,47.72999954223633,47.691001892089844,500.0
2020-08-24,48.20199966430664,48.02000045776367,48.02000045776367,48.20199966430664,200.0
