Date,High,Low,Open,Close,Volume
2019-12-27,25.1200008392334,20.020000457763672,20.020000457763672,25.10400009155273,1206400
2019-12-30,24.93199920654297,24.86400032043457,24.86400032043457,24.93199920654297,100
2019-12-31,25.10000038146973,24.95000076293945,24.959999084472656,25.04999923706055,51600
2020-01-02,25.107999801635746,25.05500030517578,25.05500030517578,25.107999801635746,200
2020-01-03,25.145000457763672,25.011999130249023,25.011999130249023,25.145000457763672,1200
2020-01-06,25.21199989318848,25.170000076293945,25.170000076293945,25.21199989318848,600
2020-01-07,25.31999969482422,25.21999931335449,25.229999542236328,25.29999923706055,2800
2020-01-08,25.46999931335449,25.270000457763672,25.45000076293945,25.36000061035156,2000
2020-01-09,25.56800079345703,25.53000068664551,25.559999465942386,25.56800079345703,2800
2020-01-10,25.6200008392334,25.520999908447266,25.60000038146973,25.520999908447266,2200
2020-01-13,25.920000076293945,25.6299991607666,25.6299991607666,25.85000038146973,24400
2020-01-14,26.0,25.70000076293945,26.0,25.70000076293945,7500
2020-01-15,25.841999053955078,25.74799919128418,25.841999053955078,25.770000457763672,400
2020-01-16,25.770000457763672,25.770000457763672,25.770000457763672,25.770000457763672,0
2020-01-17,26.270000457763672,25.9950008392334,26.020000457763672,26.10000038146973,9200
2020-01-21,26.15999984741211,26.145000457763672,26.145000457763672,26.15999984741211,1800
2020-01-22,26.35000038146973,26.343000411987305,26.343000411987305,26.35000038146973,200
2020-01-23,26.420000076293945,26.25,26.28000068664551,26.420000076293945,1100
2020-01-24,26.35300064086914,26.315000534057614,26.315000534057614,26.35300064086914,200
2020-01-27,26.15500068664551,26.03000068664551,26.03000068664551,26.11000061035156,9300
2020-01-28,26.410999298095703,26.375,26.410999298095703,26.375,200
2020-01-29,26.375,26.375,26.375,26.375,0
2020-01-30,26.52199935913086,26.25,26.25,26.52199935913086,100
2020-01-31,26.170000076293945,26.1200008392334,26.170000076293945,26.1299991607666,6200
2020-02-03,26.36000061035156,25.979999542236328,26.25,26.36000061035156,5700
2020-02-04,26.78000068664551,26.67200088500977,26.690000534057614,26.67200088500977,3800
2020-02-05,26.53000068664551,26.53000068664551,26.53000068664551,26.53000068664551,100
2020-02-06,26.53000068664551,26.48500061035156,26.53000068664551,26.48500061035156,2100
2020-02-07,26.38999938964844,26.382999420166016,26.38999938964844,26.382999420166016,100
2020-02-10,26.62899971008301,26.59000015258789,26.625999450683594,26.62899971008301,1100
2020-02-11,26.62899971008301,26.62899971008301,26.62899971008301,26.62899971008301,0
2020-02-12,26.989999771118164,26.88999938964844,26.989999771118164,26.959999084472656,11700
2020-02-13,27.20000076293945,27.11000061035156,27.20000076293945,27.11000061035156,10900
2020-02-14,27.3799991607666,27.35000038146973,27.35000038146973,27.3799991607666,100
2020-02-18,27.489999771118164,27.382999420166016,27.489999771118164,27.42700004577637,6800
2020-02-19,27.42700004577637,27.42700004577637,27.42700004577637,27.42700004577637,0
2020-02-20,27.45000076293945,27.30900001525879,27.45000076293945,27.34499931335449,11100
2020-02-21,27.34499931335449,27.34499931335449,27.34499931335449,27.34499931335449,0
2020-02-24,26.50300025939941,26.27300071716309,26.38500022888184,26.27300071716309,30800
2020-02-25,26.0,25.48699951171875,26.0,25.48699951171875,7500
2020-02-26,25.48699951171875,25.48699951171875,25.48699951171875,25.48699951171875,0
2020-02-27,24.940000534057614,24.40399932861328,24.81999969482422,24.40399932861328,3800
2020-02-28,24.10000038146973,23.76000022888184,23.940000534057614,24.017000198364254,17500
2020-03-02,25.04599952697754,24.03000068664551,24.09000015258789,25.04599952697754,14900
2020-03-03,24.82999992370605,24.59900093078613,24.82999992370605,24.59900093078613,4100
2020-03-04,25.68000030517578,24.910999298095703,24.940000534057614,25.65500068664551,9100
2020-03-05,25.420000076293945,24.979999542236328,25.420000076293945,25.03700065612793,3100
2020-03-06,24.506999969482425,23.90900039672852,24.5,24.506999969482425,9500
2020-03-09,23.46999931335449,22.64900016784668,23.149999618530273,22.756999969482425,27500
2020-03-10,23.5,22.739999771118164,23.459999084472656,22.920000076293945,2800
2020-03-11,22.280000686645508,22.222000122070312,22.280000686645508,22.222000122070312,400
2020-03-12,20.88999938964844,20.149999618530273,20.149999618530273,20.2189998626709,7100
2020-03-13,21.298999786376953,20.399999618530273,20.530000686645508,21.298999786376953,34900
2020-03-16,20.0,18.621999740600586,20.0,18.621999740600586,1700
2020-03-17,19.173999786376953,19.1200008392334,19.1200008392334,19.173999786376953,100
2020-03-18,18.79400062561035,18.5,18.65999984741211,18.79400062561035,11200
2020-03-19,19.149999618530273,19.13999938964844,19.13999938964844,19.149999618530273,100
2020-03-20,19.358999252319336,18.73699951171875,19.15999984741211,18.73699951171875,24000
2020-03-23,18.729999542236328,18.399999618530273,18.43000030517578,18.489999771118164,40100
2020-03-24,18.670000076293945,18.649999618530273,18.670000076293945,18.649999618530273,100
2020-03-25,18.649999618530273,18.649999618530273,18.649999618530273,18.649999618530273,0
2020-03-26,18.56999969482422,18.524999618530273,18.540000915527344,18.524999618530273,26000
2020-03-27,18.479999542236328,18.299999237060547,18.43000030517578,18.475000381469727,4600
2020-03-30,18.4950008392334,18.450000762939453,18.450000762939453,18.4950008392334,139500
2020-03-31,18.56999969482422,18.53499984741211,18.56999969482422,18.53499984741211,200
2020-04-01,18.56999969482422,18.43000030517578,18.52400016784668,18.489999771118164,3300
2020-04-02,18.47599983215332,18.420000076293945,18.450000762939453,18.444000244140625,7000
2020-04-03,18.444000244140625,18.444000244140625,18.444000244140625,18.444000244140625,0
2020-04-06,18.559999465942386,18.468000411987305,18.559999465942386,18.51499938964844,2200
2020-04-07,18.53899955749512,18.48500061035156,18.53899955749512,18.48500061035156,100
2020-04-08,18.530000686645508,18.44099998474121,18.44099998474121,18.48500061035156,200
2020-04-09,18.530000686645508,18.466999053955078,18.466999053955078,18.48500061035156,1900
2020-04-13,18.48500061035156,18.479999542236328,18.48500061035156,18.479999542236328,100
2020-04-14,18.503999710083008,18.40999984741211,18.440000534057614,18.45499992370605,1600
2020-04-15,18.496000289916992,18.47800064086914,18.496000289916992,18.47800064086914,100
2020-04-16,18.47800064086914,18.47800064086914,18.47800064086914,18.47800064086914,0
2020-04-17,18.540000915527344,18.420000076293945,18.479999542236328,18.468000411987305,5900
2020-04-20,18.5049991607666,18.479999542236328,18.5049991607666,18.479999542236328,1600
2020-04-21,18.670000076293945,18.506000518798828,18.530000686645508,18.530000686645508,10900
2020-04-22,18.530000686645508,18.530000686645508,18.530000686645508,18.530000686645508,0
2020-04-23,18.530000686645508,18.530000686645508,18.530000686645508,18.530000686645508,300
2020-04-24,18.530000686645508,18.5049991607666,18.530000686645508,18.5049991607666,2500
2020-04-27,18.559999465942386,18.50200080871582,18.549999237060547,18.524999618530273,3700
2020-04-28,18.524999618530273,18.524999618530273,18.524999618530273,18.524999618530273,0
2020-04-29,18.489999771118164,18.46500015258789,18.489999771118164,18.46500015258789,1400
2020-04-30,18.489999771118164,18.44700050354004,18.489999771118164,18.44700050354004,600
2020-05-01,18.239999771118164,18.23699951171875,18.239999771118164,18.23699951171875,1900
2020-05-04,18.381000518798828,18.30299949645996,18.3799991607666,18.381000518798828,5400
2020-05-05,18.381000518798828,18.381000518798828,18.381000518798828,18.381000518798828,0
2020-05-06,18.729999542236328,18.64699935913086,18.670000076293945,18.64699935913086,6200
2020-05-07,18.64699935913086,18.64699935913086,18.64699935913086,18.64699935913086,0
2020-05-08,18.64699935913086,18.64699935913086,18.64699935913086,18.64699935913086,0
2020-05-11,19.01000022888184,18.93000030517578,18.93000030517578,18.99799919128418,6800
2020-05-12,19.1299991607666,18.72800064086914,19.0,18.72800064086914,17200
2020-05-13,18.780000686645508,18.299999237060547,18.780000686645508,18.426000595092773,181100
2020-05-14,18.530000686645508,18.38999938964844,18.38999938964844,18.530000686645508,2600
2020-05-15,18.530000686645508,18.530000686645508,18.530000686645508,18.530000686645508,0
2020-05-18,19.21999931335449,19.11000061035156,19.21999931335449,19.11000061035156,5900
2020-05-19,19.20199966430664,19.011999130249023,19.190000534057614,19.011999130249023,17500
2020-05-20,19.155000686645508,19.149999618530273,19.149999618530273,19.155000686645508,1500
2020-05-21,19.100000381469727,19.097999572753906,19.100000381469727,19.097999572753906,1100
2020-05-22,19.21999931335449,19.18000030517578,19.18000030517578,19.207000732421875,8600
2020-05-26,19.25,19.082000732421875,19.25,19.082000732421875,1600
2020-05-27,19.059999465942386,18.940000534057614,19.020000457763672,19.05599975585937,15800
2020-05-28,19.479999542236328,19.198999404907227,19.31999969482422,19.198999404907227,141700
2020-05-29,19.65999984741211,19.295000076293945,19.295000076293945,19.65999984741211,17600
2020-06-01,19.729999542236328,19.625,19.729999542236328,19.625,26400
2020-06-02,19.864999771118164,19.59000015258789,19.690000534057614,19.81999969482422,80600
2020-06-03,20.059999465942386,19.93400001525879,20.01000022888184,20.040000915527344,35500
2020-06-04,20.040000915527344,19.61000061035156,20.040000915527344,19.676000595092773,40900
2020-06-05,20.11000061035156,20.020000457763672,20.020000457763672,20.020000457763672,39500
2020-06-08,20.09000015258789,19.979999542236328,20.059999465942386,20.072999954223636,71900
2020-06-09,20.149999618530273,19.95599937438965,20.020000457763672,19.95599937438965,21400
2020-06-10,20.32999992370605,20.041000366210934,20.06999969482422,20.209999084472656,12400
2020-06-11,19.7450008392334,19.1299991607666,19.68000030517578,19.1299991607666,4000
2020-06-12,19.32999992370605,19.11000061035156,19.290000915527344,19.273000717163086,2500
2020-06-15,19.6200008392334,18.950000762939453,18.950000762939453,19.559999465942386,3700
2020-06-16,20.030000686645508,19.6200008392334,19.96999931335449,19.88999938964844,23000
2020-06-17,20.15999984741211,19.989999771118164,20.07999992370605,20.049999237060547,19600
2020-06-18,20.05500030517578,19.975000381469727,19.975000381469727,20.05500030517578,800
2020-06-19,20.100000381469727,20.03199958801269,20.059999465942386,20.07099914550781,3600
2020-06-22,20.07099914550781,20.07099914550781,20.07099914550781,20.07099914550781,0
2020-06-23,20.6299991607666,20.4950008392334,20.6200008392334,20.4950008392334,29900
2020-06-24,20.4950008392334,20.4950008392334,20.4950008392334,20.4950008392334,0
2020-06-25,20.20599937438965,20.020000457763672,20.020000457763672,20.20599937438965,3400
2020-06-26,20.104999542236328,19.93899917602539,20.104999542236328,19.93899917602539,1000
2020-06-29,20.08699989318848,19.76000022888184,19.850000381469727,20.062000274658203,3200
2020-06-30,20.46999931335449,20.200000762939453,20.200000762939453,20.413000106811523,1800
2020-07-01,20.739999771118164,20.549999237060547,20.549999237060547,20.670000076293945,22900
2020-07-02,20.950000762939453,20.790000915527344,20.93000030517578,20.790000915527344,7400
2020-07-06,21.21999931335449,21.030000686645508,21.11000061035156,21.052000045776367,1000
2020-07-07,21.190000534057614,20.8700008392334,21.06999969482422,20.87299919128418,9400
2020-07-08,21.190000534057614,20.8799991607666,21.13999938964844,21.170000076293945,5900
2020-07-09,21.38999938964844,21.31999969482422,21.38999938964844,21.36000061035156,900
2020-07-10,21.25,21.09000015258789,21.190000534057614,21.21999931335449,4800
2020-07-13,21.479999542236328,20.63999938964844,21.450000762939453,20.64900016784668,4200
2020-07-14,21.024999618530273,20.56999969482422,20.71999931335449,21.024999618530273,1600
2020-07-15,21.309999465942386,21.03499984741211,21.290000915527344,21.29800033569336,2900
2020-07-16,21.24099922180176,21.007999420166016,21.190000534057614,21.18000030517578,4800
2020-07-17,21.417999267578125,21.23900032043457,21.25,21.417999267578125,4400
2020-07-20,21.84000015258789,21.420000076293945,21.56999969482422,21.84000015258789,3900
2020-07-21,21.850000381469727,21.71999931335449,21.850000381469727,21.742000579833984,24300
2020-07-22,22.040000915527344,21.82999992370605,22.040000915527344,21.924999237060547,8000
2020-07-23,22.075000762939453,21.540000915527344,22.075000762939453,21.600000381469727,10100
2020-07-24,21.530000686645508,21.21999931335449,21.21999931335449,21.43899917602539,3700
2020-07-27,21.71999931335449,21.5,21.59000015258789,21.69499969482422,2300
2020-07-28,21.6200008392334,21.40999984741211,21.600000381469727,21.427000045776367,700
2020-07-29,22.059999465942386,21.700000762939453,21.700000762939453,21.957000732421875,1800
2020-07-30,22.26000022888184,21.71999931335449,21.780000686645508,22.197999954223636,2100
2020-07-31,22.350000381469727,22.1299991607666,22.350000381469727,22.229999542236328,800
2020-08-03,22.743000030517575,22.6299991607666,22.6299991607666,22.743000030517575,600
2020-08-04,22.881999969482425,22.757999420166016,22.85000038146973,22.881999969482425,1700
2020-08-05,23.26000022888184,22.90999984741211,22.979999542236328,23.10000038146973,2900
2020-08-06,23.21999931335449,23.10000038146973,23.209999084472656,23.10000038146973,400
2020-08-07,23.54999923706055,23.11000061035156,23.54999923706055,23.190000534057614,1600
2020-08-10,23.01000022888184,22.93000030517578,22.979999542236328,22.993000030517575,9400
2020-08-11,22.729999542236328,22.54999923706055,22.72100067138672,22.55500030517578,1400
2020-08-12,23.03000068664551,22.940000534057614,23.03000068664551,22.97900009155273,200
2020-08-13,22.97900009155273,22.97900009155273,22.97900009155273,22.97900009155273,0
2020-08-14,23.18000030517578,23.18000030517578,23.18000030517578,23.18000030517578,200
2020-08-17,23.51000022888184,23.479999542236328,23.51000022888184,23.479999542236328,100
2020-08-18,23.479999542236328,23.479999542236328,23.479999542236328,23.479999542236328,100
2020-08-19,23.72100067138672,23.5310001373291,23.72100067138672,23.5310001373291,200
2020-08-20,23.67900085449219,23.577999114990234,23.60000038146973,23.67900085449219,1700
2020-08-21,23.67900085449219,23.67900085449219,23.67900085449219,23.67900085449219,0
2020-08-24,23.8700008392334,23.73699951171875,23.8700008392334,23.73699951171875,500
2020-08-25,23.739999771118164,23.6200008392334,23.6200008392334,23.701799392700195,2732
