Date,High,Low,Open,Close,Volume
2020-06-11,49.4900016784668,48.68999862670898,49.4900016784668,48.70800018310547,5100.0
2020-06-12,48.72000122070313,48.625,48.72000122070313,48.65999984741211,700.0
2020-06-15,49.0099983215332,48.7750015258789,49.0099983215332,48.7750015258789,2900.0
2020-06-16,49.16999816894531,48.60599899291992,48.68999862670898,48.60599899291992,2600.0
2020-06-17,49.0,48.60100173950195,49.0,48.60100173950195,500.0
2020-06-18,48.7400016784668,48.68000030517578,48.68000030517578,48.7130012512207,500.0
2020-06-19,48.849998474121094,48.73500061035156,48.849998474121094,48.74499893188477,1600.0
2020-06-22,49.09500122070313,48.77000045776367,49.040000915527344,48.78499984741211,19400.0
2020-06-23,48.65999984741211,48.56499862670898,48.65999984741211,48.56499862670898,300.0
2020-06-24,48.65999984741211,48.52999877929688,48.65999984741211,48.60499954223633,400.0
2020-06-25,48.59000015258789,48.43099975585938,48.59000015258789,48.43099975585938,400.0
2020-06-26,49.11000061035156,48.709999084472656,48.709999084472656,48.7760009765625,2000.0
2020-06-29,48.56999969482422,48.56999969482422,48.56999969482422,48.56999969482422,100.0
2020-06-30,48.7400016784668,48.60499954223633,48.7400016784668,48.61600112915039,200.0
2020-07-01,48.4739990234375,48.4739990234375,48.4739990234375,48.4739990234375,100.0
2020-07-02,48.93000030517578,48.80699920654297,48.83000183105469,48.80699920654297,1500.0
2020-07-06,48.6500015258789,48.540000915527344,48.6500015258789,48.540000915527344,100.0
2020-07-07,48.57500076293945,48.57500076293945,48.57500076293945,48.57500076293945,400.0
2020-07-08,48.67100143432617,48.67100143432617,48.67100143432617,48.67100143432617,100.0
2020-07-09,48.558998107910156,48.4900016784668,48.4900016784668,48.558998107910156,300.0
2020-07-10,48.73400115966797,48.59000015258789,48.59000015258789,48.73400115966797,700.0
2020-07-13,48.75,48.25,48.75,48.6879997253418,5100.0
2020-07-14,49.0359992980957,48.6500015258789,48.6500015258789,48.74200057983398,500.0
2020-07-15,48.7400016784668,48.16999816894531,48.16999816894531,48.66400146484375,300.0
2020-07-16,48.60400009155274,48.60400009155274,48.60400009155274,48.60400009155274,300.0
2020-07-17,48.97999954223633,48.68999862670898,48.97000122070313,48.83000183105469,1400.0
2020-07-20,48.91999816894531,48.683998107910156,48.75,48.683998107910156,10800.0
2020-07-21,48.54700088500977,48.540000915527344,48.540000915527344,48.54700088500977,200.0
2020-07-22,48.59000015258789,48.540000915527344,48.540000915527344,48.5890007019043,300.0
2020-07-23,48.81000137329102,48.39500045776367,48.72000122070313,48.39500045776367,11700.0
2020-07-24,48.14899826049805,48.0099983215332,48.0099983215332,48.14899826049805,600.0
2020-07-27,48.3489990234375,48.34500122070313,48.34500122070313,48.3489990234375,400.0
2020-07-28,48.47999954223633,48.349998474121094,48.47999954223633,48.42100143432617,400.0
2020-07-29,48.691001892089844,48.691001892089844,48.691001892089844,48.691001892089844,100.0
2020-07-30,48.54999923706055,48.349998474121094,48.349998474121094,48.54999923706055,600.0
2020-07-31,48.70399856567383,48.52000045776367,48.61000061035156,48.70399856567383,1100.0
2020-08-03,48.91699981689453,48.915000915527344,48.915000915527344,48.91699981689453,500.0
2020-08-04,49.06999969482422,49.05500030517578,49.06999969482422,49.05500030517578,200.0
2020-08-05,49.26699829101562,49.18000030517578,49.21699905395508,49.26699829101562,1400.0
2020-08-06,49.50299835205078,49.40999984741211,49.40999984741211,49.50299835205078,100.0
2020-08-07,49.52199935913086,49.52199935913086,49.52199935913086,49.52199935913086,100.0
2020-08-10,49.790000915527344,49.59700012207031,49.790000915527344,49.62900161743164,700.0
2020-08-11,49.76300048828125,49.34400177001953,49.72999954223633,49.34400177001953,1200.0
2020-08-12,49.849998474121094,49.74200057983398,49.790000915527344,49.74200057983398,1700.0
2020-08-13,49.93999862670898,49.790000915527344,49.9000015258789,49.790000915527344,1500.0
2020-08-14,49.90999984741211,49.75400161743164,49.790000915527344,49.75400161743164,1300.0
2020-08-17,50.06000137329102,49.89699935913086,50.06000137329102,49.89699935913086,300.0
2020-08-18,50.04999923706055,49.83300018310547,50.040000915527344,49.83300018310547,700.0
2020-08-19,50.11999893188477,49.7140007019043,50.11999893188477,49.7140007019043,700.0
2020-08-20,49.88100051879883,49.77000045776367,49.77000045776367,49.88100051879883,400.0
2020-08-21,50.04399871826172,50.04399871826172,50.04399871826172,50.04399871826172,100.0
2020-08-24,50.25,50.25,50.25,50.25,37.0
