Date,High,Low,Open,Close,Volume
2020-02-21,37.56999969482422,37.31100082397461,37.56999969482422,37.31100082397461,4100.0
2020-08-21,34.097000122070305,33.895999908447266,33.959999084472656,34.097000122070305,2800.0
