Date,High,Low,Open,Close,Volume
2017-11-30,24.989999771118164,24.899999618530273,24.989999771118164,24.899999618530273,2400.0
2017-12-01,24.899999618530273,24.899999618530273,24.899999618530273,24.899999618530273,100.0
2017-12-04,25.077999114990234,25.077999114990234,25.077999114990234,25.077999114990234,100.0
2017-12-05,25.11000061035156,25.11000061035156,25.11000061035156,25.11000061035156,10200.0
2017-12-06,24.90999984741211,24.84000015258789,24.85000038146973,24.8799991607666,2500.0
2017-12-07,24.729999542236328,24.65999984741211,24.68400001525879,24.65999984741211,4100.0
2017-12-08,24.790000915527344,24.75900077819824,24.75900077819824,24.76000022888184,1100.0
2017-12-11,24.940000534057614,24.93000030517578,24.93000030517578,24.940000534057614,500.0
2017-12-12,24.76000022888184,24.75,24.75,24.76000022888184,200.0
2017-12-13,25.209999084472656,25.149999618530273,25.149999618530273,25.209999084472656,400.0
2017-12-14,25.209999084472656,25.209999084472656,25.209999084472656,25.209999084472656,0.0
2017-12-15,25.31999969482422,25.31999969482422,25.31999969482422,25.31999969482422,200.0
2017-12-18,25.520000457763672,25.520000457763672,25.520000457763672,25.520000457763672,100.0
2017-12-19,25.399999618530273,25.38999938964844,25.38999938964844,25.391000747680664,700.0
2017-12-20,25.391000747680664,25.391000747680664,25.391000747680664,25.391000747680664,100.0
2017-12-21,25.391000747680664,25.391000747680664,25.391000747680664,25.391000747680664,100.0
2017-12-22,25.78000068664551,25.768999099731445,25.78000068664551,25.768999099731445,400.0
2017-12-26,25.790000915527344,25.790000915527344,25.790000915527344,25.790000915527344,100.0
2017-12-27,25.899999618530273,25.899999618530273,25.899999618530273,25.899999618530273,200.0
2017-12-28,25.96999931335449,25.96999931335449,25.96999931335449,25.96999931335449,600.0
2017-12-29,26.149999618530273,26.149999618530273,26.149999618530273,26.149999618530273,200.0
2018-01-02,26.48900032043457,26.43000030517578,26.48900032043457,26.43000030517578,300.0
2018-01-03,26.70000076293945,26.690000534057614,26.690000534057614,26.70000076293945,400.0
2018-01-04,26.809999465942386,26.68000030517578,26.68000030517578,26.79999923706055,8100.0
2018-01-05,26.79999923706055,26.79999923706055,26.79999923706055,26.79999923706055,0.0
2018-01-08,27.0,26.93000030517578,26.93000030517578,27.0,600.0
2018-01-09,26.959999084472656,26.93000030517578,26.959999084472656,26.93000030517578,800.0
2018-01-10,26.899999618530273,26.899999618530273,26.899999618530273,26.899999618530273,200.0
2018-01-11,26.95000076293945,26.94899940490723,26.95000076293945,26.95000076293945,3200.0
2018-01-12,26.95000076293945,26.95000076293945,26.95000076293945,26.95000076293945,0.0
2018-01-16,27.209999084472656,27.209999084472656,27.209999084472656,27.209999084472656,300.0
2018-01-17,27.388999938964844,27.388999938964844,27.388999938964844,27.388999938964844,200.0
2018-01-18,27.388999938964844,27.388999938964844,27.388999938964844,27.388999938964844,10100.0
2018-01-19,27.388999938964844,27.388999938964844,27.388999938964844,27.388999938964844,0.0
2018-01-22,27.388999938964844,27.388999938964844,27.388999938964844,27.388999938964844,0.0
2018-01-23,27.79999923706055,27.78000068664551,27.78000068664551,27.79999923706055,300.0
2018-01-24,28.13999938964844,28.05900001525879,28.05900001525879,28.09000015258789,1600.0
2018-01-25,28.170000076293945,28.149999618530273,28.170000076293945,28.149999618530273,1100.0
2018-01-26,28.40999984741211,28.38999938964844,28.38999938964844,28.40999984741211,400.0
2018-01-29,28.07999992370605,28.01000022888184,28.01000022888184,28.06999969482422,700.0
2018-01-30,27.88999938964844,27.82999992370605,27.88999938964844,27.82999992370605,1000.0
2018-01-31,27.82999992370605,27.82999992370605,27.82999992370605,27.82999992370605,0.0
2018-02-01,27.82999992370605,27.79999923706055,27.82999992370605,27.79999923706055,400.0
2018-02-02,27.40999984741211,27.086000442504886,27.40999984741211,27.086000442504886,1500.0
2018-02-05,27.10000038146973,27.09000015258789,27.10000038146973,27.09000015258789,500.0
2018-02-06,26.9060001373291,26.01000022888184,26.01000022888184,26.85000038146973,9600.0
2018-02-07,26.74900054931641,26.73699951171875,26.73699951171875,26.739999771118164,800.0
2018-02-08,26.34000015258789,26.34000015258789,26.34000015258789,26.34000015258789,600.0
2018-02-09,25.79999923706055,25.79999923706055,25.79999923706055,25.79999923706055,400.0
2018-02-12,26.239999771118164,26.239999771118164,26.239999771118164,26.239999771118164,20200.0
2018-02-13,26.5,26.3700008392334,26.3700008392334,26.5,2100.0
2018-02-14,26.93000030517578,26.93000030517578,26.93000030517578,26.93000030517578,100.0
2018-02-15,27.15999984741211,27.15999984741211,27.15999984741211,27.15999984741211,200.0
2018-02-16,27.15999984741211,27.15999984741211,27.15999984741211,27.15999984741211,0.0
2018-02-20,26.899999618530273,26.899999618530273,26.899999618530273,26.899999618530273,300.0
2018-02-21,26.899999618530273,26.899999618530273,26.899999618530273,26.899999618530273,0.0
2018-02-22,26.8799991607666,26.8700008392334,26.8799991607666,26.8700008392334,1600.0
2018-02-23,27.167999267578125,27.15999984741211,27.15999984741211,27.167999267578125,600.0
2018-02-26,27.167999267578125,27.167999267578125,27.167999267578125,27.167999267578125,0.0
2018-02-27,27.11000061035156,26.84900093078613,27.10000038146973,26.84900093078613,600.0
2018-02-28,26.84900093078613,26.84900093078613,26.84900093078613,26.84900093078613,0.0
2018-03-01,26.84900093078613,26.84900093078613,26.84900093078613,26.84900093078613,0.0
2018-03-02,26.84900093078613,26.84900093078613,26.84900093078613,26.84900093078613,0.0
2018-03-05,26.420000076293945,26.420000076293945,26.420000076293945,26.420000076293945,100.0
2018-03-06,26.420000076293945,26.420000076293945,26.420000076293945,26.420000076293945,0.0
2018-03-07,26.420000076293945,26.420000076293945,26.420000076293945,26.420000076293945,0.0
2018-03-08,26.75,26.625,26.625,26.75,600.0
2018-03-09,26.75,26.75,26.75,26.75,0.0
2018-03-12,26.75,26.75,26.75,26.75,0.0
2018-03-13,27.06999969482422,27.06999969482422,27.06999969482422,27.06999969482422,100.0
2018-03-14,27.06999969482422,27.06999969482422,27.06999969482422,27.06999969482422,0.0
2018-03-15,26.84499931335449,26.82999992370605,26.841999053955078,26.84499931335449,800.0
2018-03-16,26.84499931335449,26.84499931335449,26.84499931335449,26.84499931335449,0.0
2018-03-19,26.84499931335449,26.84499931335449,26.84499931335449,26.84499931335449,0.0
2018-03-20,26.82900047302246,26.790000915527344,26.790000915527344,26.79999923706055,2500.0
2018-03-21,26.79999923706055,26.79999923706055,26.79999923706055,26.79999923706055,0.0
2018-03-22,26.54999923706055,26.54999923706055,26.54999923706055,26.54999923706055,700.0
2018-03-23,26.54999923706055,26.54999923706055,26.54999923706055,26.54999923706055,0.0
2018-03-26,26.54999923706055,26.54999923706055,26.54999923706055,26.54999923706055,100.0
2018-03-27,26.54999923706055,26.54999923706055,26.54999923706055,26.54999923706055,0.0
2018-03-28,26.54999923706055,26.54999923706055,26.54999923706055,26.54999923706055,0.0
2018-03-29,26.43899917602539,26.43899917602539,26.43899917602539,26.43899917602539,200.0
2018-04-02,26.43899917602539,26.43899917602539,26.43899917602539,26.43899917602539,0.0
2018-04-03,26.43899917602539,26.43899917602539,26.43899917602539,26.43899917602539,0.0
2018-04-04,26.43899917602539,26.43899917602539,26.43899917602539,26.43899917602539,0.0
2018-04-05,26.440000534057614,26.440000534057614,26.440000534057614,26.440000534057614,100.0
2018-04-06,26.440000534057614,26.440000534057614,26.440000534057614,26.440000534057614,0.0
2018-04-09,26.440000534057614,26.440000534057614,26.440000534057614,26.440000534057614,0.0
2018-04-10,26.040000915527344,26.040000915527344,26.040000915527344,26.040000915527344,1000.0
2018-04-11,26.268999099731445,26.21999931335449,26.268999099731445,26.21999931335449,3800.0
2018-04-12,26.25,26.25,26.25,26.25,2500.0
2018-04-13,26.25,26.25,26.25,26.25,0.0
2018-04-16,26.25,26.25,26.25,26.25,0.0
2018-04-17,26.07999992370605,26.07999992370605,26.07999992370605,26.07999992370605,1000.0
2018-04-18,26.07999992370605,26.07999992370605,26.07999992370605,26.07999992370605,0.0
2018-04-19,26.07999992370605,26.07999992370605,26.07999992370605,26.07999992370605,300.0
2018-04-20,26.07999992370605,26.07999992370605,26.07999992370605,26.07999992370605,0.0
2018-04-23,26.07999992370605,26.07999992370605,26.07999992370605,26.07999992370605,0.0
2018-04-24,25.78000068664551,25.52599906921387,25.78000068664551,25.52599906921387,700.0
2018-04-25,25.52599906921387,25.52599906921387,25.52599906921387,25.52599906921387,0.0
2018-04-26,25.608999252319336,25.608999252319336,25.608999252319336,25.608999252319336,100.0
2018-04-27,25.63999938964844,25.63599967956543,25.63999938964844,25.63599967956543,600.0
2018-04-30,25.641000747680664,25.535999298095703,25.641000747680664,25.535999298095703,1500.0
2018-05-01,25.535999298095703,25.535999298095703,25.535999298095703,25.535999298095703,0.0
2018-05-02,25.36000061035156,25.268999099731445,25.36000061035156,25.32999992370605,900.0
2018-05-03,25.32999992370605,25.32999992370605,25.32999992370605,25.32999992370605,0.0
2018-05-04,25.20000076293945,25.15900039672852,25.15900039672852,25.18899917602539,500.0
2018-05-07,25.18899917602539,25.18899917602539,25.18899917602539,25.18899917602539,0.0
2018-05-08,24.8799991607666,24.8799991607666,24.8799991607666,24.8799991607666,600.0
2018-05-09,24.90999984741211,24.90999984741211,24.90999984741211,24.90999984741211,1000.0
2018-05-10,25.28000068664551,25.26000022888184,25.28000068664551,25.26000022888184,800.0
2018-05-11,25.26000022888184,25.26000022888184,25.26000022888184,25.26000022888184,0.0
2018-05-14,25.34000015258789,25.33300018310547,25.34000015258789,25.33300018310547,200.0
2018-05-15,24.979999542236328,24.979999542236328,24.979999542236328,24.979999542236328,600.0
2018-05-16,25.24099922180176,25.209999084472656,25.21999931335449,25.24099922180176,1700.0
2018-05-17,24.940000534057614,24.920000076293945,24.920000076293945,24.940000534057614,500.0
2018-05-18,24.940000534057614,24.940000534057614,24.940000534057614,24.940000534057614,0.0
2018-05-21,24.8700008392334,24.8700008392334,24.8700008392334,24.8700008392334,200.0
2018-05-22,25.06999969482422,25.01000022888184,25.01000022888184,25.06999969482422,800.0
2018-05-23,25.07900047302246,25.07900047302246,25.07900047302246,25.07900047302246,200.0
2018-05-24,24.940000534057614,24.940000534057614,24.940000534057614,24.940000534057614,100.0
2018-05-25,24.940000534057614,24.940000534057614,24.940000534057614,24.940000534057614,0.0
2018-05-29,24.43600082397461,24.43600082397461,24.43600082397461,24.43600082397461,200.0
2018-05-30,24.43600082397461,24.43600082397461,24.43600082397461,24.43600082397461,0.0
2018-05-31,24.43600082397461,24.43600082397461,24.43600082397461,24.43600082397461,0.0
2018-06-01,24.83300018310547,24.83300018310547,24.83300018310547,24.83300018310547,100.0
2018-06-04,24.83300018310547,24.83300018310547,24.83300018310547,24.83300018310547,0.0
2018-06-05,24.83300018310547,24.83300018310547,24.83300018310547,24.83300018310547,0.0
2018-06-06,25.18000030517578,25.18000030517578,25.18000030517578,25.18000030517578,400.0
2018-06-07,25.01000022888184,25.01000022888184,25.01000022888184,25.01000022888184,600.0
2018-06-08,25.01000022888184,25.01000022888184,25.01000022888184,25.01000022888184,0.0
2018-06-11,25.01000022888184,25.01000022888184,25.01000022888184,25.01000022888184,0.0
2018-06-12,24.70000076293945,24.70000076293945,24.70000076293945,24.70000076293945,400.0
2018-06-13,24.729999542236328,24.729999542236328,24.729999542236328,24.729999542236328,15100.0
2018-06-14,24.65999984741211,24.5,24.638999938964844,24.5,900.0
2018-06-15,24.45000076293945,24.24099922180176,24.45000076293945,24.24099922180176,900.0
2018-06-18,24.06999969482422,23.920000076293945,24.040000915527344,24.06999969482422,2800.0
2018-06-19,23.98600006103516,23.79999923706055,23.79999923706055,23.98600006103516,1000.0
2018-06-20,24.093000411987305,24.07999992370605,24.093000411987305,24.07999992370605,600.0
2018-06-21,24.07999992370605,24.07999992370605,24.07999992370605,24.07999992370605,0.0
2018-06-22,23.959999084472656,23.88999938964844,23.940000534057614,23.95000076293945,1100.0
2018-06-25,23.729999542236328,23.57999992370605,23.70000076293945,23.729999542236328,1100.0
2018-06-26,23.670000076293945,23.670000076293945,23.670000076293945,23.670000076293945,100.0
2018-06-27,23.40699958801269,23.29999923706055,23.40699958801269,23.29999923706055,1400.0
2018-06-28,23.29999923706055,23.29999923706055,23.29999923706055,23.29999923706055,100.0
2018-06-29,23.29999923706055,23.29999923706055,23.29999923706055,23.29999923706055,100.0
2018-07-02,23.35000038146973,23.35000038146973,23.35000038146973,23.35000038146973,100.0
2018-07-03,23.63999938964844,23.63999938964844,23.63999938964844,23.63999938964844,700.0
2018-07-05,23.53499984741211,23.40500068664551,23.40500068664551,23.53499984741211,700.0
2018-07-06,23.670000076293945,23.670000076293945,23.670000076293945,23.670000076293945,1900.0
2018-07-09,23.670000076293945,23.670000076293945,23.670000076293945,23.670000076293945,0.0
2018-07-10,23.86000061035156,23.86000061035156,23.86000061035156,23.86000061035156,100.0
2018-07-11,23.60000038146973,23.60000038146973,23.60000038146973,23.60000038146973,200.0
2018-07-12,23.60000038146973,23.60000038146973,23.60000038146973,23.60000038146973,0.0
2018-07-13,23.768999099731445,23.709999084472656,23.768999099731445,23.709999084472656,500.0
2018-07-16,23.709999084472656,23.709999084472656,23.709999084472656,23.709999084472656,0.0
2018-07-17,23.709999084472656,23.709999084472656,23.709999084472656,23.709999084472656,0.0
2018-07-18,23.790000915527344,23.71999931335449,23.790000915527344,23.72400093078613,1200.0
2018-07-19,23.72400093078613,23.72400093078613,23.72400093078613,23.72400093078613,0.0
2018-07-20,23.72400093078613,23.72400093078613,23.72400093078613,23.72400093078613,0.0
2018-07-23,23.72400093078613,23.72400093078613,23.72400093078613,23.72400093078613,0.0
2018-07-24,24.0,24.0,24.0,24.0,300.0
2018-07-25,24.0,24.0,24.0,24.0,0.0
2018-07-26,24.0,24.0,24.0,24.0,0.0
2018-07-27,24.20199966430664,24.20199966430664,24.20199966430664,24.20199966430664,100.0
2018-07-30,24.458999633789066,24.42799949645996,24.458999633789066,24.42799949645996,1300.0
2018-07-31,24.489999771118164,24.489999771118164,24.489999771118164,24.489999771118164,100.0
2018-08-01,24.489999771118164,24.489999771118164,24.489999771118164,24.489999771118164,0.0
2018-08-02,23.989999771118164,23.989999771118164,23.989999771118164,23.989999771118164,200.0
2018-08-03,24.13999938964844,24.10000038146973,24.10000038146973,24.13999938964844,500.0
2018-08-06,23.91399955749512,23.91399955749512,23.91399955749512,23.91399955749512,200.0
2018-08-07,24.290000915527344,24.290000915527344,24.290000915527344,24.290000915527344,700.0
2018-08-08,24.1200008392334,24.1200008392334,24.1200008392334,24.1200008392334,300.0
2018-08-09,24.03000068664551,24.03000068664551,24.03000068664551,24.03000068664551,400.0
2018-08-10,23.38999938964844,23.28499984741211,23.38999938964844,23.28499984741211,900.0
2018-08-13,23.13999938964844,23.106000900268555,23.13999938964844,23.106000900268555,1000.0
2018-08-14,23.106000900268555,23.106000900268555,23.106000900268555,23.106000900268555,0.0
2018-08-15,22.7450008392334,22.729999542236328,22.7450008392334,22.729999542236328,5200.0
2018-08-16,22.90999984741211,22.82999992370605,22.82999992370605,22.90999984741211,600.0
2018-08-17,23.059999465942386,23.03000068664551,23.03000068664551,23.059999465942386,800.0
2018-08-20,22.979999542236328,22.93000030517578,22.93000030517578,22.979999542236328,700.0
2018-08-21,23.209999084472656,23.15999984741211,23.15999984741211,23.20000076293945,3000.0
2018-08-22,23.20000076293945,23.20000076293945,23.20000076293945,23.20000076293945,0.0
2018-08-23,23.15999984741211,23.000999450683594,23.15999984741211,23.000999450683594,1200.0
2018-08-24,23.229999542236328,23.18000030517578,23.18000030517578,23.229999542236328,10100.0
2018-08-27,23.540000915527344,23.49900054931641,23.49900054931641,23.520000457763672,4600.0
2018-08-28,23.520000457763672,23.520000457763672,23.520000457763672,23.520000457763672,0.0
2018-08-29,23.30200004577637,23.30200004577637,23.30200004577637,23.30200004577637,300.0
2018-08-30,23.25,23.02700042724609,23.25,23.02700042724609,1900.0
2018-08-31,23.32500076293945,23.165000915527344,23.209999084472656,23.31999969482422,2400.0
2018-09-04,22.74099922180176,22.69899940490723,22.74099922180176,22.69899940490723,500.0
2018-09-05,22.60000038146973,22.59000015258789,22.59000015258789,22.60000038146973,500.0
2018-09-06,22.60000038146973,22.60000038146973,22.60000038146973,22.60000038146973,0.0
2018-09-07,22.559999465942386,22.38999938964844,22.450000762939453,22.399999618530273,2000.0
2018-09-10,22.26000022888184,22.149999618530273,22.26000022888184,22.18899917602539,2900.0
2018-09-11,22.07999992370605,22.0,22.020000457763672,22.07999992370605,800.0
2018-09-12,22.07999992370605,22.07999992370605,22.07999992370605,22.07999992370605,0.0
2018-09-13,22.07999992370605,22.07999992370605,22.07999992370605,22.07999992370605,0.0
2018-09-14,22.520000457763672,22.46999931335449,22.520000457763672,22.46999931335449,500.0
2018-09-17,22.47599983215332,22.44499969482422,22.47599983215332,22.45199966430664,2300.0
2018-09-18,22.707000732421875,22.707000732421875,22.707000732421875,22.707000732421875,100.0
2018-09-19,22.707000732421875,22.707000732421875,22.707000732421875,22.707000732421875,0.0
2018-09-20,22.989999771118164,22.94099998474121,22.94099998474121,22.989999771118164,400.0
2018-09-21,23.21999931335449,23.10000038146973,23.15999984741211,23.20000076293945,3900.0
2018-09-24,23.06999969482422,23.0,23.06999969482422,23.0,300.0
2018-09-25,22.97599983215332,22.97599983215332,22.97599983215332,22.97599983215332,200.0
2018-09-26,23.059999465942386,22.899999618530273,22.899999618530273,23.059999465942386,1400.0
2018-09-27,22.989999771118164,22.989999771118164,22.989999771118164,22.989999771118164,700.0
2018-09-28,22.93099975585937,22.84000015258789,22.899999618530273,22.84000015258789,900.0
2018-10-01,22.70000076293945,22.70000076293945,22.70000076293945,22.70000076293945,100.0
2018-10-02,22.70499992370605,22.65999984741211,22.69599914550781,22.65999984741211,800.0
2018-10-03,22.65999984741211,22.65999984741211,22.65999984741211,22.65999984741211,500.0
2018-10-04,22.26000022888184,22.26000022888184,22.26000022888184,22.26000022888184,200.0
2018-10-05,22.26000022888184,22.26000022888184,22.26000022888184,22.26000022888184,0.0
2018-10-08,22.26000022888184,22.26000022888184,22.26000022888184,22.26000022888184,0.0
2018-10-09,22.309999465942386,22.299999237060547,22.309999465942386,22.299999237060547,4200.0
2018-10-10,22.299999237060547,22.299999237060547,22.299999237060547,22.299999237060547,0.0
2018-10-11,22.299999237060547,22.299999237060547,22.299999237060547,22.299999237060547,0.0
2018-10-12,21.858999252319336,21.73500061035156,21.80500030517578,21.73500061035156,1200.0
2018-10-15,21.770000457763672,21.649999618530273,21.649999618530273,21.700000762939453,2800.0
2018-10-16,22.100000381469727,22.100000381469727,22.100000381469727,22.100000381469727,2000.0
2018-10-17,22.100000381469727,22.100000381469727,22.100000381469727,22.100000381469727,0.0
2018-10-18,22.100000381469727,22.100000381469727,22.100000381469727,22.100000381469727,0.0
2018-10-19,22.100000381469727,22.100000381469727,22.100000381469727,22.100000381469727,0.0
2018-10-22,22.100000381469727,22.100000381469727,22.100000381469727,22.100000381469727,0.0
2018-10-23,21.493000030517575,21.493000030517575,21.493000030517575,21.493000030517575,100.0
2018-10-24,21.200000762939453,21.200000762939453,21.200000762939453,21.200000762939453,100.0
2018-10-25,21.200000762939453,21.200000762939453,21.200000762939453,21.200000762939453,0.0
2018-10-26,21.200000762939453,21.200000762939453,21.200000762939453,21.200000762939453,100.0
2018-10-29,21.75,21.75,21.75,21.75,100.0
2018-10-30,21.666000366210934,21.666000366210934,21.666000366210934,21.666000366210934,100.0
2018-10-31,21.857999801635746,21.857999801635746,21.857999801635746,21.857999801635746,1900.0
2018-11-01,21.857999801635746,21.857999801635746,21.857999801635746,21.857999801635746,0.0
2018-11-02,21.857999801635746,21.857999801635746,21.857999801635746,21.857999801635746,0.0
2018-11-05,22.46999931335449,22.46999931335449,22.46999931335449,22.46999931335449,600.0
2018-11-06,22.479999542236328,22.3799991607666,22.479999542236328,22.3799991607666,800.0
2018-11-07,22.559999465942386,22.54999923706055,22.559999465942386,22.54999923706055,800.0
2018-11-08,22.54999923706055,22.54999923706055,22.54999923706055,22.54999923706055,0.0
2018-11-09,22.54999923706055,22.54999923706055,22.54999923706055,22.54999923706055,0.0
2018-11-12,21.90699958801269,21.90699958801269,21.90699958801269,21.90699958801269,1100.0
2018-11-13,21.90699958801269,21.90699958801269,21.90699958801269,21.90699958801269,0.0
2018-11-14,21.90699958801269,21.90699958801269,21.90699958801269,21.90699958801269,0.0
2018-11-15,21.90699958801269,21.90699958801269,21.90699958801269,21.90699958801269,0.0
2018-11-16,22.440000534057614,22.4379997253418,22.4379997253418,22.440000534057614,1100.0
2018-11-19,22.440000534057614,22.440000534057614,22.440000534057614,22.440000534057614,100.0
2018-11-20,21.850000381469727,21.707000732421875,21.850000381469727,21.707000732421875,1100.0
2018-11-21,21.707000732421875,21.707000732421875,21.707000732421875,21.707000732421875,0.0
2018-11-23,22.01000022888184,22.01000022888184,22.01000022888184,22.01000022888184,200.0
2018-11-26,22.01000022888184,22.01000022888184,22.01000022888184,22.01000022888184,0.0
2018-11-27,22.01000022888184,22.01000022888184,22.01000022888184,22.01000022888184,100.0
2018-11-28,22.01000022888184,22.01000022888184,22.01000022888184,22.01000022888184,100.0
2018-11-29,22.3700008392334,22.3700008392334,22.3700008392334,22.3700008392334,200.0
2018-11-30,22.315000534057614,22.315000534057614,22.315000534057614,22.315000534057614,1200.0
2018-12-03,22.53000068664551,22.38999938964844,22.51000022888184,22.496999740600586,6200.0
2018-12-04,22.5,22.5,22.5,22.5,200.0
2018-12-06,22.5,22.5,22.5,22.5,100.0
2018-12-07,22.5,22.5,22.5,22.5,100.0
2018-12-10,21.63599967956543,21.489999771118164,21.489999771118164,21.63599967956543,200.0
2018-12-11,21.63599967956543,21.63599967956543,21.63599967956543,21.63599967956543,0.0
2018-12-12,21.93199920654297,21.93199920654297,21.93199920654297,21.93199920654297,100.0
2018-12-13,21.93199920654297,21.93199920654297,21.93199920654297,21.93199920654297,0.0
2018-12-14,21.75200080871582,21.75200080871582,21.75200080871582,21.75200080871582,100.0
2018-12-17,21.50200080871582,21.465999603271484,21.465999603271484,21.50200080871582,600.0
2018-12-18,21.540000915527344,21.44300079345703,21.540000915527344,21.44300079345703,100.0
2018-12-19,21.44300079345703,21.44300079345703,21.44300079345703,21.44300079345703,0.0
2018-12-20,21.44300079345703,21.44300079345703,21.44300079345703,21.44300079345703,0.0
2018-12-21,21.309999465942386,21.19499969482422,21.309999465942386,21.19499969482422,100.0
2018-12-24,21.19499969482422,21.19499969482422,21.19499969482422,21.19499969482422,0.0
2018-12-26,21.42099952697754,21.24099922180176,21.24099922180176,21.42099952697754,300.0
2018-12-27,21.347999572753906,21.136999130249023,21.136999130249023,21.347999572753906,2500.0
2018-12-28,21.423999786376953,21.420000076293945,21.420000076293945,21.423999786376953,100.0
2018-12-31,21.43000030517578,21.375,21.43000030517578,21.375,300.0
2019-01-02,21.64699935913086,21.6200008392334,21.6200008392334,21.64699935913086,300.0
2019-01-03,21.57999992370605,21.459999084472656,21.459999084472656,21.559999465942386,2600.0
2019-01-04,22.174999237060547,22.174999237060547,22.174999237060547,22.174999237060547,100.0
2019-01-07,22.149999618530273,22.142000198364254,22.149999618530273,22.142000198364254,500.0
2019-01-08,22.23699951171875,22.1299991607666,22.1299991607666,22.23699951171875,100.0
2019-01-09,22.23699951171875,22.23699951171875,22.23699951171875,22.23699951171875,0.0
2019-01-10,22.82200050354004,22.683000564575195,22.683000564575195,22.82200050354004,200.0
2019-01-11,22.8799991607666,22.78000068664551,22.78000068664551,22.8439998626709,10600.0
2019-01-14,22.770999908447266,22.763999938964844,22.770999908447266,22.763999938964844,200.0
2019-01-15,22.763999938964844,22.763999938964844,22.763999938964844,22.763999938964844,0.0
2019-01-16,23.06999969482422,22.979999542236328,22.979999542236328,23.016000747680664,2400.0
2019-01-17,23.033000946044922,22.854999542236328,22.854999542236328,23.033000946044922,200.0
2019-01-18,23.15999984741211,23.131000518798828,23.15999984741211,23.131000518798828,200.0
2019-01-22,22.731000900268555,22.731000900268555,22.731000900268555,22.731000900268555,100.0
2019-01-23,23.149999618530273,23.1200008392334,23.1200008392334,23.13999938964844,300.0
2019-01-24,23.29999923706055,23.19899940490723,23.25,23.28000068664551,800.0
2019-01-25,23.423999786376953,23.327999114990234,23.327999114990234,23.423999786376953,300.0
2019-01-28,23.23500061035156,23.13999938964844,23.13999938964844,23.23200035095215,2000.0
2019-01-29,23.45000076293945,23.38500022888184,23.45000076293945,23.38500022888184,200.0
2019-01-30,23.66399955749512,23.6299991607666,23.6299991607666,23.66399955749512,200.0
2019-01-31,23.93000030517578,23.86000061035156,23.86000061035156,23.93000030517578,2800.0
2019-02-01,23.96999931335449,23.88500022888184,23.96999931335449,23.88500022888184,1000.0
2019-02-04,23.893999099731445,23.86199951171875,23.893999099731445,23.86199951171875,500.0
2019-02-05,24.035999298095703,24.035999298095703,24.035999298095703,24.035999298095703,100.0
2019-02-06,23.729999542236328,23.667999267578125,23.729999542236328,23.667999267578125,600.0
2019-02-07,23.45000076293945,23.34000015258789,23.45000076293945,23.44700050354004,2300.0
2019-02-08,23.40200042724609,23.30500030517578,23.30500030517578,23.40200042724609,100.0
2019-02-11,23.309999465942386,23.18000030517578,23.309999465942386,23.22900009155273,2700.0
2019-02-12,23.565000534057614,23.47400093078613,23.47400093078613,23.47400093078613,4100.0
2019-02-13,23.290000915527344,23.16399955749512,23.290000915527344,23.16399955749512,1300.0
2019-02-14,23.190000534057614,23.059999465942386,23.059999465942386,23.17799949645996,700.0
2019-02-15,23.13500022888184,23.1200008392334,23.1200008392334,23.13500022888184,200.0
2019-02-19,23.354999542236328,23.190000534057614,23.190000534057614,23.3439998626709,500.0
2019-02-20,23.34600067138672,23.34600067138672,23.34600067138672,23.34600067138672,100.0
2019-02-21,23.288000106811523,23.288000106811523,23.288000106811523,23.288000106811523,100.0
2019-02-22,23.51799964904785,23.51799964904785,23.51799964904785,23.51799964904785,100.0
2019-02-25,23.72900009155273,23.697999954223636,23.72900009155273,23.70400047302246,2200.0
2019-02-26,23.687000274658203,23.68000030517578,23.68000030517578,23.687000274658203,200.0
2019-02-27,23.461000442504886,23.45000076293945,23.461000442504886,23.45000076293945,100.0
2019-02-28,23.309999465942386,23.17499923706055,23.22400093078613,23.17499923706055,6500.0
2019-03-01,23.309999465942386,23.256999969482425,23.29999923706055,23.256999969482425,2000.0
2019-03-04,23.386999130249023,23.229999542236328,23.25,23.386999130249023,1100.0
2019-03-05,23.386999130249023,23.34900093078613,23.34900093078613,23.386999130249023,200.0
2019-03-06,23.239999771118164,23.114999771118164,23.239999771118164,23.114999771118164,200.0
2019-03-07,23.0,22.732999801635746,23.0,22.732999801635746,200.0
2019-03-08,22.684999465942386,22.684999465942386,22.684999465942386,22.684999465942386,0.0
2019-03-11,23.006000518798828,23.006000518798828,23.006000518798828,23.006000518798828,0.0
2019-03-12,23.06999969482422,23.01000022888184,23.01000022888184,23.04199981689453,300.0
2019-03-13,23.04199981689453,23.04199981689453,23.04199981689453,23.04199981689453,0.0
2019-03-14,22.81999969482422,22.78000068664551,22.78000068664551,22.816999435424805,1200.0
2019-03-15,23.10000038146973,23.07099914550781,23.10000038146973,23.07099914550781,200.0
2019-03-18,23.364999771118164,23.364999771118164,23.364999771118164,23.364999771118164,100.0
2019-03-19,23.489999771118164,23.37400054931641,23.489999771118164,23.37400054931641,100.0
2019-03-20,23.363000869750977,23.1200008392334,23.15299987792969,23.363000869750977,2800.0
2019-03-21,23.36100006103516,23.36100006103516,23.36100006103516,23.36100006103516,100.0
2019-03-22,22.604999542236328,22.51499938964844,22.604999542236328,22.51499938964844,500.0
2019-03-25,22.67300033569336,22.65399932861328,22.65399932861328,22.67300033569336,200.0
2019-03-26,22.84000015258789,22.732999801635746,22.732999801635746,22.79400062561035,2600.0
2019-03-27,22.67900085449219,22.52700042724609,22.6299991607666,22.52700042724609,2000.0
2019-03-28,22.56100082397461,22.56100082397461,22.56100082397461,22.56100082397461,0.0
2019-03-29,22.770000457763672,22.74900054931641,22.770000457763672,22.74900054931641,500.0
2019-04-01,23.0939998626709,22.958999633789066,23.04999923706055,23.0939998626709,500.0
2019-04-02,23.045000076293945,22.992000579833984,23.01000022888184,22.992000579833984,800.0
2019-04-03,23.143999099731445,23.11400032043457,23.143999099731445,23.11400032043457,200.0
2019-04-04,23.35300064086914,23.332000732421875,23.35300064086914,23.332000732421875,900.0
2019-04-05,23.399999618530273,23.399999618530273,23.399999618530273,23.399999618530273,100.0
2019-04-08,23.375999450683594,23.33300018310547,23.33300018310547,23.375999450683594,1900.0
2019-04-09,23.34000015258789,23.34000015258789,23.34000015258789,23.34000015258789,100.0
2019-04-10,23.433000564575195,23.43000030517578,23.433000564575195,23.43000030517578,300.0
2019-04-11,23.04400062561035,23.04400062561035,23.04400062561035,23.04400062561035,100.0
2019-04-12,23.20000076293945,23.13500022888184,23.20000076293945,23.13500022888184,2200.0
2019-04-15,23.084999084472656,23.084999084472656,23.084999084472656,23.084999084472656,100.0
2019-04-16,23.19499969482422,23.187000274658203,23.19499969482422,23.187000274658203,400.0
2019-04-17,23.29999923706055,23.23600006103516,23.29999923706055,23.23600006103516,3500.0
2019-04-18,23.1200008392334,23.05500030517578,23.082000732421875,23.108999252319336,900.0
2019-04-22,23.062000274658203,23.062000274658203,23.062000274658203,23.062000274658203,0.0
2019-04-23,23.05699920654297,23.024999618530273,23.024999618530273,23.033000946044922,1200.0
2019-04-24,22.71999931335449,22.68000030517578,22.70000076293945,22.69499969482422,3200.0
2019-04-25,22.6299991607666,22.334999084472656,22.450000762939453,22.591999053955078,5300.0
2019-04-26,22.67499923706055,22.63500022888184,22.67499923706055,22.63500022888184,500.0
2019-04-29,22.739999771118164,22.67900085449219,22.739999771118164,22.68400001525879,1200.0
2019-04-30,22.68400001525879,22.584999084472656,22.63999938964844,22.68400001525879,700.0
2019-05-01,22.474000930786133,22.474000930786133,22.474000930786133,22.474000930786133,200.0
2019-05-02,22.520000457763672,22.448999404907227,22.520000457763672,22.448999404907227,100.0
2019-05-03,22.70400047302246,22.660999298095703,22.660999298095703,22.70400047302246,500.0
2019-05-06,22.356000900268555,22.29199981689453,22.29199981689453,22.34000015258789,1100.0
2019-05-07,22.017000198364254,21.958999633789066,22.01499938964844,21.958999633789066,300.0
2019-05-08,22.030000686645508,21.93400001525879,22.030000686645508,21.93400001525879,100.0
2019-05-09,21.67799949645996,21.67799949645996,21.67799949645996,21.67799949645996,200.0
2019-05-10,21.892000198364254,21.780000686645508,21.780000686645508,21.892000198364254,200.0
2019-05-13,21.28700065612793,21.197999954223636,21.27400016784668,21.22599983215332,2100.0
2019-05-14,21.49799919128418,21.461000442504886,21.49799919128418,21.461000442504886,300.0
2019-05-15,21.461000442504886,21.374000549316406,21.374000549316406,21.461000442504886,900.0
2019-05-16,21.295000076293945,21.295000076293945,21.295000076293945,21.295000076293945,100.0
2019-05-17,21.01000022888184,20.927000045776367,21.01000022888184,20.927000045776367,800.0
2019-05-20,20.915000915527344,20.900999069213867,20.900999069213867,20.915000915527344,200.0
2019-05-21,21.125999450683594,21.125999450683594,21.125999450683594,21.125999450683594,0.0
2019-05-22,21.06999969482422,21.01000022888184,21.06100082397461,21.042999267578125,2800.0
2019-05-23,20.84000015258789,20.75,20.78400039672852,20.80699920654297,500.0
2019-05-24,20.958999633789066,20.86100006103516,20.958999633789066,20.86100006103516,300.0
2019-05-28,21.030000686645508,20.923999786376953,21.030000686645508,20.923999786376953,1100.0
2019-05-29,21.152999877929688,21.152999877929688,21.152999877929688,21.152999877929688,500.0
2019-05-30,21.350000381469727,21.299999237060547,21.350000381469727,21.327999114990234,600.0
2019-05-31,21.472000122070312,21.44700050354004,21.44700050354004,21.472000122070312,800.0
2019-06-03,21.43000030517578,21.40699958801269,21.43000030517578,21.42300033569336,700.0
2019-06-04,21.46299934387207,21.3700008392334,21.3700008392334,21.46299934387207,600.0
2019-06-05,21.333999633789066,21.333999633789066,21.333999633789066,21.333999633789066,200.0
2019-06-06,21.30299949645996,21.299999237060547,21.299999237060547,21.30299949645996,100.0
2019-06-07,21.44499969482422,21.44499969482422,21.44499969482422,21.44499969482422,100.0
2019-06-10,21.5629997253418,21.440000534057614,21.5629997253418,21.5,5800.0
2019-06-11,21.73500061035156,21.67799949645996,21.67799949645996,21.73500061035156,500.0
2019-06-12,21.47599983215332,21.47599983215332,21.47599983215332,21.47599983215332,100.0
2019-06-13,21.474000930786133,21.474000930786133,21.474000930786133,21.474000930786133,100.0
2019-06-14,21.40999984741211,21.371000289916992,21.40999984741211,21.371000289916992,400.0
2019-06-17,21.530000686645508,21.46299934387207,21.530000686645508,21.46299934387207,300.0
2019-06-18,21.858999252319336,21.850000381469727,21.850000381469727,21.858999252319336,300.0
2019-06-19,22.11000061035156,22.11000061035156,22.11000061035156,22.11000061035156,0.0
2019-06-20,22.3799991607666,22.35099983215332,22.3799991607666,22.35099983215332,100.0
2019-06-21,22.30500030517578,22.249000549316406,22.249000549316406,22.28499984741211,3200.0
2019-06-24,22.399999618530273,22.32200050354004,22.3700008392334,22.32200050354004,2000.0
2019-06-25,22.229999542236328,22.191999435424805,22.229999542236328,22.191999435424805,200.0
2019-06-26,22.364999771118164,22.364999771118164,22.364999771118164,22.364999771118164,0.0
2019-06-27,22.381000518798828,22.381000518798828,22.381000518798828,22.381000518798828,0.0
2019-06-28,22.40999984741211,22.350000381469727,22.40999984741211,22.36599922180176,700.0
2019-07-01,22.51799964904785,22.51799964904785,22.51799964904785,22.51799964904785,100.0
2019-07-02,22.46999931335449,22.3700008392334,22.46999931335449,22.46199989318848,800.0
2019-07-03,22.468000411987305,22.468000411987305,22.468000411987305,22.468000411987305,100.0
2019-07-05,22.336000442504886,22.336000442504886,22.336000442504886,22.336000442504886,100.0
2019-07-08,22.229999542236328,22.200000762939453,22.209999084472656,22.229999542236328,1300.0
2019-07-09,22.117000579833984,22.117000579833984,22.117000579833984,22.117000579833984,100.0
2019-07-10,22.371999740600586,22.309999465942386,22.309999465942386,22.371999740600586,200.0
2019-07-11,22.423999786376953,22.423999786376953,22.423999786376953,22.423999786376953,100.0
2019-07-12,22.392000198364254,22.392000198364254,22.392000198364254,22.392000198364254,100.0
2019-07-15,22.3799991607666,22.375,22.3799991607666,22.375,1200.0
2019-07-16,22.47800064086914,22.38999938964844,22.459999084472656,22.405000686645508,8400.0
2019-07-17,22.45599937438965,22.44099998474121,22.44099998474121,22.45599937438965,100.0
2019-07-18,22.649999618530273,22.520000457763672,22.520000457763672,22.649999618530273,400.0
2019-07-19,22.5,22.5,22.5,22.5,100.0
2019-07-22,22.46299934387207,22.46299934387207,22.46299934387207,22.46299934387207,100.0
2019-07-23,22.52300071716309,22.46999931335449,22.52300071716309,22.489999771118164,600.0
2019-07-24,22.572999954223636,22.572999954223636,22.572999954223636,22.572999954223636,0.0
2019-07-25,22.56999969482422,22.392000198364254,22.56999969482422,22.392000198364254,3700.0
2019-07-26,22.392000198364254,22.26000022888184,22.38999938964844,22.392000198364254,10000.0
2019-07-29,22.40999984741211,22.325000762939453,22.40999984741211,22.399999618530273,4800.0
2019-07-30,22.3129997253418,22.290000915527344,22.290000915527344,22.3129997253418,200.0
2019-07-31,22.18000030517578,21.78499984741211,22.09499931335449,22.000999450683594,500.0
2019-08-01,21.448999404907227,21.367000579833984,21.448999404907227,21.367000579833984,100.0
2019-08-02,21.290000915527344,21.18000030517578,21.18000030517578,21.23200035095215,1000.0
2019-08-05,20.8700008392334,20.540000915527344,20.8700008392334,20.590999603271484,3800.0
2019-08-06,20.738000869750977,20.709999084472656,20.709999084472656,20.738000869750977,400.0
2019-08-07,20.709999084472656,20.709999084472656,20.709999084472656,20.709999084472656,400.0
2019-08-08,20.93199920654297,20.93199920654297,20.93199920654297,20.93199920654297,1800.0
2019-08-09,20.67300033569336,20.67300033569336,20.67300033569336,20.67300033569336,100.0
2019-08-12,20.363000869750977,20.363000869750977,20.363000869750977,20.363000869750977,500.0
2019-08-13,20.547000885009766,20.547000885009766,20.547000885009766,20.547000885009766,700.0
2019-08-14,19.9950008392334,19.9950008392334,19.9950008392334,19.9950008392334,1800.0
2019-08-15,20.05699920654297,20.05699920654297,20.05699920654297,20.05699920654297,700.0
2019-08-16,20.1879997253418,20.06399917602539,20.15999984741211,20.1879997253418,900.0
2019-08-19,20.24099922180176,20.209999084472656,20.209999084472656,20.24099922180176,1700.0
2019-08-20,20.2450008392334,20.211000442504886,20.211000442504886,20.238000869750977,700.0
2019-08-21,20.38999938964844,20.299999237060547,20.299999237060547,20.350000381469727,2800.0
2019-08-22,20.179000854492188,20.179000854492188,20.179000854492188,20.179000854492188,100.0
2019-08-23,19.86400032043457,19.84000015258789,19.84000015258789,19.86400032043457,200.0
2019-08-26,19.944000244140625,19.920000076293945,19.920000076293945,19.944000244140625,400.0
2019-08-27,20.040000915527344,20.030000686645508,20.030000686645508,20.03899955749512,400.0
2019-08-28,20.18899917602539,20.18899917602539,20.18899917602539,20.18899917602539,100.0
2019-08-29,20.382999420166016,20.382999420166016,20.382999420166016,20.382999420166016,100.0
2019-08-30,20.61100006103516,20.61100006103516,20.61100006103516,20.61100006103516,100.0
2019-09-03,20.459999084472656,20.459999084472656,20.459999084472656,20.459999084472656,100.0
2019-09-04,20.78499984741211,20.78499984741211,20.78499984741211,20.78499984741211,100.0
2019-09-05,20.958999633789066,20.958999633789066,20.958999633789066,20.958999633789066,100.0
2019-09-06,21.11899948120117,21.06399917602539,21.084999084472656,21.06399917602539,900.0
2019-09-09,21.136999130249023,21.136999130249023,21.136999130249023,21.136999130249023,100.0
2019-09-10,21.22800064086914,21.22800064086914,21.22800064086914,21.22800064086914,100.0
2019-09-11,21.52899932861328,21.50900077819824,21.52899932861328,21.50900077819824,200.0
2019-09-12,21.6299991607666,21.62299919128418,21.6299991607666,21.62299919128418,300.0
2019-09-13,21.709999084472656,21.709999084472656,21.709999084472656,21.709999084472656,0.0
2019-09-16,21.670000076293945,21.670000076293945,21.670000076293945,21.670000076293945,0.0
2019-09-17,21.625999450683594,21.625999450683594,21.625999450683594,21.625999450683594,0.0
2019-09-18,21.600000381469727,21.53499984741211,21.600000381469727,21.53499984741211,500.0
2019-09-19,21.434999465942386,21.30599975585937,21.434999465942386,21.30599975585937,100.0
2019-09-20,21.23600006103516,21.23600006103516,21.23600006103516,21.23600006103516,0.0
2019-09-23,21.20599937438965,21.20599937438965,21.20599937438965,21.20599937438965,0.0
2019-09-24,21.02899932861328,21.02899932861328,21.02899932861328,21.02899932861328,0.0
2019-09-25,20.98200035095215,20.850000381469727,20.850000381469727,20.98200035095215,500.0
2019-09-26,20.940000534057614,20.920000076293945,20.920000076293945,20.940000534057614,500.0
2019-09-27,20.826000213623047,20.78700065612793,20.78700065612793,20.826000213623047,300.0
2019-09-30,20.959999084472656,20.952999114990234,20.959999084472656,20.952999114990234,100.0
2019-10-01,20.70599937438965,20.702999114990234,20.702999114990234,20.70599937438965,900.0
2019-10-02,20.60300064086914,20.56999969482422,20.56999969482422,20.60300064086914,200.0
2019-10-03,20.726999282836914,20.726999282836914,20.726999282836914,20.726999282836914,0.0
2019-10-04,20.83699989318848,20.83699989318848,20.83699989318848,20.83699989318848,0.0
2019-10-07,20.69300079345703,20.69300079345703,20.69300079345703,20.69300079345703,0.0
2019-10-08,20.590999603271484,20.590999603271484,20.590999603271484,20.590999603271484,0.0
2019-10-09,20.676000595092773,20.676000595092773,20.676000595092773,20.676000595092773,0.0
2019-10-10,20.88999938964844,20.874000549316406,20.88999938964844,20.874000549316406,100.0
2019-10-11,21.23500061035156,21.16900062561035,21.229999542236328,21.16900062561035,500.0
2019-10-14,21.0310001373291,20.982999801635746,21.0310001373291,20.982999801635746,200.0
2019-10-15,21.100000381469727,21.076000213623047,21.100000381469727,21.076000213623047,300.0
2019-10-16,21.072999954223636,21.042999267578125,21.049999237060547,21.072999954223636,2500.0
2019-10-17,21.18899917602539,21.15999984741211,21.15999984741211,21.18899917602539,100.0
2019-10-18,21.14299964904785,21.14299964904785,21.14299964904785,21.14299964904785,0.0
2019-10-21,21.190000534057614,21.184999465942386,21.190000534057614,21.184999465942386,200.0
2019-10-22,21.33799934387207,21.33099937438965,21.33799934387207,21.33099937438965,200.0
2019-10-23,21.472000122070312,21.399999618530273,21.399999618530273,21.472000122070312,100.0
2019-10-24,21.479999542236328,21.450000762939453,21.479999542236328,21.450000762939453,1300.0
2019-10-25,21.493000030517575,21.3799991607666,21.3799991607666,21.493000030517575,500.0
2019-10-28,21.649999618530273,21.625999450683594,21.649999618530273,21.625999450683594,100.0
2019-10-29,21.577999114990234,21.577999114990234,21.577999114990234,21.577999114990234,0.0
2019-10-30,21.65999984741211,21.483999252319336,21.483999252319336,21.65999984741211,500.0
2019-10-31,21.530000686645508,21.31999969482422,21.530000686645508,21.37299919128418,1200.0
2019-11-01,21.45400047302246,21.444000244140625,21.45400047302246,21.444000244140625,100.0
2019-11-04,21.674999237060547,21.674999237060547,21.674999237060547,21.674999237060547,0.0
2019-11-05,21.799999237060547,21.799999237060547,21.799999237060547,21.799999237060547,500.0
2019-11-06,21.90999984741211,21.82999992370605,21.90999984741211,21.82999992370605,600.0
2019-11-07,21.93000030517578,21.895999908447266,21.93000030517578,21.895999908447266,200.0
2019-11-08,21.8799991607666,21.808000564575195,21.86599922180176,21.808000564575195,10100.0
2019-11-11,21.645000457763672,21.59499931335449,21.61000061035156,21.645000457763672,6900.0
2019-11-12,21.459999084472656,21.459999084472656,21.459999084472656,21.459999084472656,0.0
2019-11-13,21.489999771118164,21.444000244140625,21.46999931335449,21.44599914550781,700.0
2019-11-14,21.399999618530273,21.381999969482425,21.399999618530273,21.381999969482425,700.0
2019-11-15,21.59000015258789,21.52899932861328,21.56999969482422,21.52899932861328,3300.0
2019-11-18,21.57900047302246,21.50900077819824,21.57900047302246,21.50900077819824,500.0
2019-11-19,21.56599998474121,21.56599998474121,21.56599998474121,21.56599998474121,0.0
2019-11-20,21.58099937438965,21.5,21.5,21.58099937438965,200.0
2019-11-21,21.625999450683594,21.559999465942386,21.559999465942386,21.625999450683594,300.0
2019-11-22,21.649999618530273,21.63500022888184,21.649999618530273,21.63500022888184,400.0
2019-11-25,21.86899948120117,21.826000213623047,21.86899948120117,21.826000213623047,800.0
2019-11-26,21.69700050354004,21.624000549316406,21.625,21.69700050354004,400.0
2019-11-27,21.756000518798828,21.756000518798828,21.756000518798828,21.756000518798828,100.0
2019-11-29,21.48200035095215,21.48200035095215,21.48200035095215,21.48200035095215,0.0
2019-12-02,21.23900032043457,21.200000762939453,21.200000762939453,21.23900032043457,100.0
2019-12-03,21.19599914550781,21.15999984741211,21.15999984741211,21.19599914550781,200.0
2019-12-04,21.405000686645508,21.375999450683594,21.405000686645508,21.375999450683594,100.0
2019-12-05,21.530000686645508,21.483999252319336,21.483999252319336,21.523000717163086,800.0
2019-12-06,21.59600067138672,21.59499931335449,21.59600067138672,21.59499931335449,200.0
2019-12-09,21.48500061035156,21.48500061035156,21.48500061035156,21.48500061035156,100.0
2019-12-10,21.566999435424805,21.566999435424805,21.566999435424805,21.566999435424805,100.0
2019-12-11,21.80699920654297,21.690000534057614,21.715999603271484,21.80699920654297,1200.0
2019-12-12,22.084999084472656,21.982999801635746,22.003000259399414,22.084999084472656,400.0
2019-12-13,22.100000381469727,22.0629997253418,22.100000381469727,22.065000534057614,900.0
2019-12-16,22.36899948120117,22.326000213623047,22.354999542236328,22.326000213623047,800.0
2019-12-17,22.4950008392334,22.42799949645996,22.42799949645996,22.4950008392334,200.0
2019-12-18,22.53000068664551,22.44300079345703,22.52799987792969,22.47599983215332,1600.0
2019-12-19,22.5,22.420000076293945,22.450000762939453,22.5,2000.0
2019-12-20,22.53700065612793,22.46999931335449,22.46999931335449,22.51499938964844,1400.0
2019-12-23,22.57999992370605,22.51000022888184,22.540000915527344,22.55100059509277,3500.0
2019-12-24,22.6200008392334,22.562000274658203,22.60000038146973,22.562000274658203,3000.0
2019-12-26,22.795000076293945,22.75,22.75,22.795000076293945,300.0
2019-12-27,22.843000411987305,22.843000411987305,22.843000411987305,22.843000411987305,100.0
2019-12-30,22.8700008392334,22.6299991607666,22.8700008392334,22.6299991607666,1800.0
2019-12-31,22.770000457763672,22.729999542236328,22.770000457763672,22.74600028991699,500.0
2020-01-02,23.077999114990234,22.959999084472656,23.03000068664551,23.077999114990234,400.0
2020-01-03,22.722999572753906,22.707000732421875,22.722999572753906,22.707000732421875,400.0
2020-01-06,22.63999938964844,22.44099998474121,22.57999992370605,22.584999084472656,7600.0
2020-01-07,22.503000259399414,22.4950008392334,22.503000259399414,22.4950008392334,300.0
2020-01-08,22.6200008392334,22.51000022888184,22.51000022888184,22.58099937438965,300.0
2020-01-09,22.70000076293945,22.65999984741211,22.670000076293945,22.65999984741211,1200.0
2020-01-10,22.738000869750977,22.738000869750977,22.738000869750977,22.738000869750977,100.0
2020-01-13,23.04999923706055,22.94899940490723,22.94899940490723,23.04999923706055,1000.0
2020-01-14,22.97100067138672,22.97100067138672,22.97100067138672,22.97100067138672,100.0
2020-01-15,22.940000534057614,22.795000076293945,22.940000534057614,22.85400009155273,2700.0
2020-01-16,22.94599914550781,22.916000366210934,22.94599914550781,22.916000366210934,200.0
2020-01-17,23.06999969482422,23.0,23.0,23.05500030517578,2000.0
2020-01-21,22.62700080871582,22.51000022888184,22.51000022888184,22.542999267578125,1800.0
2020-01-22,22.6200008392334,22.614999771118164,22.6200008392334,22.614999771118164,100.0
2020-01-23,22.450000762939453,22.23600006103516,22.38999938964844,22.422000885009766,4100.0
2020-01-24,22.22800064086914,22.22599983215332,22.22800064086914,22.22599983215332,100.0
2020-01-27,21.558000564575195,21.350000381469727,21.479999542236328,21.506000518798828,7100.0
2020-01-28,21.65900039672852,21.65900039672852,21.65900039672852,21.65900039672852,100.0
2020-01-29,21.70199966430664,21.70199966430664,21.70199966430664,21.70199966430664,100.0
2020-01-30,21.45800018310547,21.239999771118164,21.277999877929688,21.45800018310547,600.0
2020-01-31,21.07999992370605,20.899999618530273,21.05299949645996,20.934999465942386,3100.0
2020-02-03,20.993000030517575,20.993000030517575,20.993000030517575,20.993000030517575,200.0
2020-02-04,21.530000686645508,21.36899948120117,21.36899948120117,21.40900039672852,1900.0
2020-02-05,21.590999603271484,21.549999237060547,21.56999969482422,21.590999603271484,800.0
2020-02-06,21.690000534057614,21.4950008392334,21.690000534057614,21.4950008392334,300.0
2020-02-07,21.11100006103516,21.11100006103516,21.11100006103516,21.11100006103516,200.0
2020-02-10,21.231000900268555,21.170000076293945,21.170000076293945,21.231000900268555,2500.0
2020-02-11,21.450000762939453,21.40699958801269,21.450000762939453,21.40699958801269,600.0
2020-02-12,21.601999282836914,21.5,21.554000854492188,21.601999282836914,1400.0
2020-02-13,21.417999267578125,21.37299919128418,21.417999267578125,21.37299919128418,600.0
2020-02-14,21.405000686645508,21.405000686645508,21.405000686645508,21.405000686645508,100.0
2020-02-18,21.316999435424805,21.27199935913086,21.288000106811523,21.29199981689453,1500.0
2020-02-19,21.33799934387207,21.290000915527344,21.308000564575195,21.30500030517578,3200.0
2020-02-20,21.267000198364254,20.93199920654297,21.200000762939453,21.003999710083008,9700.0
2020-02-21,21.1299991607666,21.069000244140625,21.1299991607666,21.069000244140625,1100.0
2020-02-24,20.416000366210934,20.34000015258789,20.405000686645508,20.381999969482425,4100.0
2020-02-25,20.399999618530273,20.117000579833984,20.399999618530273,20.117000579833984,1700.0
2020-02-26,20.503000259399414,20.27899932861328,20.503000259399414,20.27899932861328,1700.0
2020-02-27,19.989999771118164,19.68199920654297,19.989999771118164,19.68199920654297,2600.0
2020-02-28,19.56999969482422,19.01000022888184,19.170000076293945,19.56999969482422,9800.0
2020-03-02,19.715999603271484,19.270000457763672,19.349000930786133,19.715999603271484,2500.0
2020-03-03,20.0,19.600000381469727,19.600000381469727,19.801000595092773,700.0
2020-03-04,20.05900001525879,19.94499969482422,19.999000549316406,19.94499969482422,1500.0
2020-03-05,19.780000686645508,19.538000106811523,19.780000686645508,19.538000106811523,3500.0
2020-03-06,19.20499992370605,19.20499992370605,19.20499992370605,19.20499992370605,100.0
2020-03-09,18.020000457763672,17.753999710083008,18.020000457763672,17.753999710083008,11200.0
2020-03-10,18.39900016784668,17.948999404907227,17.990999221801758,18.39900016784668,1600.0
2020-03-11,17.64699935913086,17.64699935913086,17.64699935913086,17.64699935913086,100.0
2020-03-12,16.360000610351562,15.847999572753904,16.360000610351562,15.847999572753904,1700.0
2020-03-13,16.589000701904293,16.299999237060547,16.469999313354492,16.589000701904293,15100.0
2020-03-16,15.18000030517578,14.710000038146973,15.0,14.72599983215332,1800.0
2020-03-17,15.35099983215332,14.951000213623047,14.951000213623047,15.35099983215332,1200.0
2020-03-18,14.489999771118164,13.76099967956543,14.489999771118164,14.07800006866455,2800.0
2020-03-19,14.15999984741211,13.81999969482422,13.81999969482422,14.098999977111815,300.0
2020-03-20,14.68000030517578,14.276000022888185,14.649999618530273,14.276000022888185,1100.0
2020-03-23,14.039999961853027,13.899999618530273,14.039999961853027,13.965999603271484,1500.0
2020-03-24,14.819000244140625,14.819000244140625,14.819000244140625,14.819000244140625,100.0
2020-03-25,15.536999702453613,15.460000038146973,15.460000038146973,15.461999893188475,300.0
2020-03-26,16.089000701904293,15.90999984741211,15.970000267028807,16.089000701904293,3600.0
2020-03-27,15.300000190734865,15.199999809265135,15.300000190734865,15.260000228881836,3500.0
2020-03-30,15.4350004196167,15.291000366210938,15.291000366210938,15.4350004196167,100.0
2020-03-31,15.6899995803833,15.538999557495115,15.6899995803833,15.538999557495115,300.0
2020-04-01,15.038999557495115,15.038999557495115,15.038999557495115,15.038999557495115,100.0
2020-04-02,15.600000381469727,15.553999900817873,15.600000381469727,15.553999900817873,600.0
2020-04-03,15.619999885559082,15.42199993133545,15.550000190734865,15.42199993133545,800.0
2020-04-06,16.124000549316403,16.010000228881836,16.010000228881836,16.124000549316403,100.0
2020-04-07,16.299999237060547,16.129999160766598,16.270999908447266,16.222000122070312,7600.0
2020-04-08,16.413000106811527,16.319999694824222,16.323999404907227,16.413000106811527,800.0
2020-04-09,16.493000030517578,16.479999542236328,16.479999542236328,16.493000030517578,200.0
2020-04-13,16.469999313354492,16.360000610351562,16.399999618530273,16.469999313354492,900.0
2020-04-14,16.760000228881836,16.620000839233402,16.760000228881836,16.702999114990234,2900.0
2020-04-15,16.702999114990234,16.702999114990234,16.702999114990234,16.702999114990234,0.0
2020-04-16,16.274999618530273,16.100000381469727,16.200000762939453,16.180999755859375,1000.0
2020-04-17,16.180999755859375,16.180999755859375,16.180999755859375,16.180999755859375,0.0
2020-04-20,16.5,16.290000915527347,16.5,16.325000762939453,1700.0
2020-04-21,15.944000244140625,15.774999618530273,15.93000030517578,15.92199993133545,3000.0
2020-04-22,16.260000228881836,16.200000762939453,16.260000228881836,16.22800064086914,7700.0
2020-04-23,16.22800064086914,16.22800064086914,16.22800064086914,16.22800064086914,0.0
2020-04-24,16.242000579833984,16.242000579833984,16.242000579833984,16.242000579833984,0.0
2020-04-27,16.577999114990234,16.450000762939453,16.450000762939453,16.577999114990234,1000.0
2020-04-28,16.577999114990234,16.577999114990234,16.577999114990234,16.577999114990234,0.0
2020-04-29,17.129999160766598,17.0,17.0,17.129999160766598,400.0
2020-04-30,17.040000915527347,16.804000854492188,17.040000915527347,16.804000854492188,700.0
2020-05-01,16.257999420166016,16.240999221801758,16.240999221801758,16.257999420166016,400.0
2020-05-04,16.48699951171875,16.40999984741211,16.40999984741211,16.48699951171875,500.0
2020-05-05,16.590999603271484,16.58799934387207,16.590999603271484,16.58799934387207,1000.0
2020-05-06,16.58799934387207,16.58799934387207,16.58799934387207,16.58799934387207,0.0
2020-05-07,16.610000610351562,16.540000915527347,16.610000610351562,16.540000915527347,900.0
2020-05-08,16.844999313354492,16.820999145507812,16.844999313354492,16.820999145507812,600.0
2020-05-11,16.70400047302246,16.670000076293945,16.670000076293945,16.70400047302246,700.0
2020-05-12,16.819999694824222,16.611000061035153,16.670000076293945,16.611000061035153,2400.0
2020-05-13,16.516000747680664,16.516000747680664,16.516000747680664,16.516000747680664,100.0
2020-05-14,16.555999755859375,16.555999755859375,16.555999755859375,16.555999755859375,100.0
2020-05-15,16.360000610351562,16.360000610351562,16.360000610351562,16.360000610351562,100.0
2020-05-18,17.007999420166016,16.899999618530273,16.899999618530273,17.007999420166016,600.0
2020-05-19,16.888999938964847,16.888999938964847,16.888999938964847,16.888999938964847,100.0
2020-05-20,17.079999923706055,16.954999923706055,17.079999923706055,17.003000259399414,1100.0
2020-05-21,17.027999877929688,17.027999877929688,17.027999877929688,17.027999877929688,100.0
2020-05-22,16.729999542236328,16.68899917602539,16.729999542236328,16.68899917602539,800.0
2020-05-26,17.139999389648438,17.00200080871582,17.139999389648438,17.00200080871582,2200.0
2020-05-27,17.107999801635742,17.107999801635742,17.107999801635742,17.107999801635742,100.0
2020-05-28,17.03700065612793,17.03700065612793,17.03700065612793,17.03700065612793,100.0
2020-05-29,17.165000915527347,17.165000915527347,17.165000915527347,17.165000915527347,100.0
2020-06-01,17.482999801635742,17.479999542236328,17.479999542236328,17.482999801635742,200.0
2020-06-02,17.482999801635742,17.482999801635742,17.482999801635742,17.482999801635742,0.0
2020-06-03,18.415000915527344,18.1299991607666,18.1299991607666,18.415000915527344,400.0
2020-06-04,18.229999542236328,18.128999710083008,18.229999542236328,18.128999710083008,100.0
2020-06-05,18.600000381469727,18.49399948120117,18.600000381469727,18.49399948120117,600.0
2020-06-08,18.812000274658203,18.649999618530273,18.649999618530273,18.812000274658203,162600.0
2020-06-09,18.700000762939453,18.700000762939453,18.700000762939453,18.700000762939453,300.0
2020-06-10,18.724000930786133,18.57999992370605,18.57999992370605,18.724000930786133,1700.0
2020-06-11,17.767000198364258,17.767000198364258,17.767000198364258,17.767000198364258,400.0
2020-06-12,18.23500061035156,17.959999084472656,18.1200008392334,18.176000595092773,3100.0
2020-06-15,18.09499931335449,18.065000534057614,18.09499931335449,18.076000213623047,500.0
2020-06-16,18.290000915527344,18.12700080871582,18.15999984741211,18.12700080871582,500.0
2020-06-17,18.299999237060547,18.231000900268555,18.299999237060547,18.231000900268555,1700.0
2020-06-18,18.28499984741211,18.267000198364254,18.28499984741211,18.267000198364254,700.0
2020-06-19,18.450000762939453,18.209999084472656,18.38999938964844,18.209999084472656,800.0
2020-06-22,18.41900062561035,18.349000930786133,18.349000930786133,18.35099983215332,1300.0
2020-06-23,18.40999984741211,18.36000061035156,18.40999984741211,18.39299964904785,1000.0
2020-06-24,18.149999618530273,18.149999618530273,18.149999618530273,18.149999618530273,300.0
2020-06-25,18.23500061035156,18.131000518798828,18.131000518798828,18.23500061035156,1000.0
2020-06-26,18.1299991607666,18.062000274658203,18.07999992370605,18.062000274658203,1200.0
2020-06-29,18.179000854492188,18.179000854492188,18.179000854492188,18.179000854492188,200.0
2020-06-30,18.009000778198242,17.961000442504886,17.961000442504886,18.009000778198242,1300.0
2020-07-01,18.114999771118164,18.083999633789066,18.083999633789066,18.114999771118164,600.0
2020-07-02,18.426000595092773,18.426000595092773,18.426000595092773,18.426000595092773,100.0
2020-07-06,19.03899955749512,18.84000015258789,18.84000015258789,19.033000946044922,3100.0
2020-07-07,18.8700008392334,18.7450008392334,18.8700008392334,18.7450008392334,700.0
2020-07-08,18.86899948120117,18.785999298095703,18.785999298095703,18.86899948120117,1700.0
2020-07-09,18.69099998474121,18.69099998474121,18.69099998474121,18.69099998474121,200.0
2020-07-10,18.6200008392334,18.5,18.61899948120117,18.590999603271484,1700.0
2020-07-13,18.770000457763672,18.663000106811523,18.770000457763672,18.663000106811523,400.0
2020-07-14,18.767000198364254,18.767000198364254,18.767000198364254,18.767000198364254,100.0
2020-07-15,18.75900077819824,18.673999786376953,18.75900077819824,18.722000122070312,2300.0
2020-07-16,18.6299991607666,18.6200008392334,18.6299991607666,18.625,1000.0
2020-07-17,18.700000762939453,18.665000915527344,18.690000534057614,18.672000885009766,2000.0
2020-07-20,18.858999252319336,18.770000457763672,18.770000457763672,18.858999252319336,200.0
2020-07-21,18.940000534057614,18.881999969482425,18.940000534057614,18.881999969482425,900.0
2020-07-22,18.916000366210934,18.881000518798828,18.916000366210934,18.881000518798828,800.0
2020-07-23,18.85300064086914,18.74099922180176,18.85300064086914,18.74099922180176,1300.0
2020-07-24,18.742000579833984,18.65999984741211,18.65999984741211,18.742000579833984,2300.0
2020-07-27,18.929000854492188,18.76000022888184,18.76000022888184,18.929000854492188,800.0
2020-07-28,18.63999938964844,18.5,18.63999938964844,18.548999786376953,1800.0
2020-07-29,18.76099967956543,18.691999435424805,18.691999435424805,18.76099967956543,1000.0
2020-07-30,18.57200050354004,18.57200050354004,18.57200050354004,18.57200050354004,300.0
2020-07-31,18.400999069213867,18.400999069213867,18.400999069213867,18.400999069213867,100.0
2020-08-03,18.36000061035156,18.327999114990234,18.36000061035156,18.327999114990234,400.0
2020-08-04,18.43899917602539,18.43899917602539,18.43899917602539,18.43899917602539,0.0
2020-08-05,18.55500030517578,18.40999984741211,18.51000022888184,18.40999984741211,32300.0
2020-08-06,18.410999298095703,18.410999298095703,18.410999298095703,18.410999298095703,200.0
2020-08-07,18.229999542236328,18.224000930786133,18.229999542236328,18.224000930786133,600.0
2020-08-10,18.36199951171875,18.36199951171875,18.36199951171875,18.36199951171875,100.0
2020-08-11,18.423999786376953,18.423999786376953,18.423999786376953,18.423999786376953,200.0
2020-08-12,18.61400032043457,18.61400032043457,18.61400032043457,18.61400032043457,100.0
2020-08-13,18.583999633789066,18.549999237060547,18.583999633789066,18.549999237060547,200.0
2020-08-14,18.55500030517578,18.55500030517578,18.55500030517578,18.55500030517578,100.0
2020-08-17,18.739999771118164,18.65999984741211,18.65999984741211,18.71500015258789,3200.0
2020-08-18,18.638999938964844,18.479999542236328,18.59000015258789,18.6200008392334,6400.0
2020-08-19,18.5939998626709,18.507999420166016,18.5939998626709,18.507999420166016,300.0
2020-08-20,18.395999908447266,18.395999908447266,18.395999908447266,18.395999908447266,100.0
2020-08-21,18.32200050354004,18.32200050354004,18.32200050354004,18.32200050354004,100.0
2020-08-24,18.464000701904297,18.464000701904297,18.464000701904297,18.464000701904297,100.0
