Date,High,Low,Open,Close,Volume
2017-12-18,25.71999931335449,25.71999931335449,25.71999931335449,25.71999931335449,0.0
2017-12-19,25.86000061035156,25.84000015258789,25.84000015258789,25.86000061035156,400.0
2017-12-20,25.86000061035156,25.86000061035156,25.86000061035156,25.86000061035156,100.0
2017-12-21,26.1299991607666,26.1299991607666,26.1299991607666,26.1299991607666,70000.0
2017-12-22,26.15500068664551,26.15500068664551,26.15500068664551,26.15500068664551,300.0
2017-12-26,26.15500068664551,26.15500068664551,26.15500068664551,26.15500068664551,0.0
2017-12-27,26.239999771118164,26.239999771118164,26.239999771118164,26.239999771118164,200.0
2017-12-28,26.239999771118164,26.239999771118164,26.239999771118164,26.239999771118164,0.0
2017-12-29,26.51000022888184,26.479999542236328,26.51000022888184,26.479999542236328,800.0
2018-01-02,26.479999542236328,26.479999542236328,26.479999542236328,26.479999542236328,0.0
2018-01-03,26.989999771118164,26.8799991607666,26.8799991607666,26.989999771118164,500.0
2018-01-04,27.018999099731445,26.899999618530273,26.899999618530273,26.940000534057614,2000.0
2018-01-05,26.920000076293945,26.920000076293945,26.920000076293945,26.920000076293945,800.0
2018-01-08,27.11000061035156,27.11000061035156,27.11000061035156,27.11000061035156,200.0
2018-01-09,27.13999938964844,27.1200008392334,27.1200008392334,27.1299991607666,6400.0
2018-01-10,27.1299991607666,27.07999992370605,27.1299991607666,27.07999992370605,1200.0
2018-01-11,27.22200012207031,27.15999984741211,27.20000076293945,27.209999084472656,1400.0
2018-01-12,27.399999618530273,27.35000038146973,27.35000038146973,27.399999618530273,2800.0
2018-01-16,27.57999992370605,27.479999542236328,27.51000022888184,27.479999542236328,5100.0
2018-01-17,27.70000076293945,27.70000076293945,27.70000076293945,27.70000076293945,400.0
2018-01-18,27.479999542236328,27.3799991607666,27.40999984741211,27.479999542236328,4200.0
2018-01-19,27.479999542236328,27.479999542236328,27.479999542236328,27.479999542236328,0.0
2018-01-22,27.959999084472656,27.8700008392334,27.8700008392334,27.959999084472656,1000.0
2018-01-23,27.95000076293945,27.95000076293945,27.95000076293945,27.95000076293945,200.0
2018-01-24,28.0,27.90999984741211,28.0,27.95000076293945,92600.0
2018-01-25,27.95000076293945,27.95000076293945,27.95000076293945,27.95000076293945,300.0
2018-01-26,27.95000076293945,27.95000076293945,27.95000076293945,27.95000076293945,0.0
2018-01-29,27.65999984741211,27.65999984741211,27.65999984741211,27.65999984741211,200.0
2018-01-30,27.59000015258789,27.57999992370605,27.57999992370605,27.59000015258789,2500.0
2018-01-31,27.79999923706055,27.79999923706055,27.79999923706055,27.79999923706055,100.0
2018-02-01,27.5,27.45000076293945,27.5,27.45000076293945,1300.0
2018-02-02,27.35000038146973,27.28000068664551,27.35000038146973,27.28000068664551,1100.0
2018-02-05,27.0,27.0,27.0,27.0,400.0
2018-02-06,27.0,27.0,27.0,27.0,0.0
2018-02-07,26.104999542236328,26.07999992370605,26.104999542236328,26.07999992370605,300.0
2018-02-08,25.979999542236328,25.979999542236328,25.979999542236328,25.979999542236328,400.0
2018-02-09,25.51000022888184,25.059999465942386,25.51000022888184,25.059999465942386,300.0
2018-02-12,25.059999465942386,25.059999465942386,25.059999465942386,25.059999465942386,0.0
2018-02-13,25.863000869750977,25.85300064086914,25.863000869750977,25.85300064086914,200.0
2018-02-14,26.399999618530273,26.399999618530273,26.399999618530273,26.399999618530273,200.0
2018-02-15,26.399999618530273,26.399999618530273,26.399999618530273,26.399999618530273,0.0
2018-02-16,26.690000534057614,26.690000534057614,26.690000534057614,26.690000534057614,100.0
2018-02-20,26.690000534057614,26.690000534057614,26.690000534057614,26.690000534057614,0.0
2018-02-21,26.809999465942386,26.79999923706055,26.809999465942386,26.79999923706055,700.0
2018-02-22,26.70000076293945,26.70000076293945,26.70000076293945,26.70000076293945,100.0
2018-02-23,26.70000076293945,26.70000076293945,26.70000076293945,26.70000076293945,0.0
2018-02-26,26.70000076293945,26.70000076293945,26.70000076293945,26.70000076293945,0.0
2018-02-27,26.70000076293945,26.70000076293945,26.70000076293945,26.70000076293945,0.0
2018-02-28,26.70000076293945,26.70000076293945,26.70000076293945,26.70000076293945,0.0
2018-03-01,27.04199981689453,27.04199981689453,27.04199981689453,27.04199981689453,1500.0
2018-03-02,26.71999931335449,26.559999465942386,26.559999465942386,26.71999931335449,700.0
2018-03-05,26.6200008392334,26.59000015258789,26.59000015258789,26.6200008392334,3600.0
2018-03-06,26.790000915527344,26.790000915527344,26.790000915527344,26.790000915527344,300.0
2018-03-07,26.4950008392334,26.4950008392334,26.4950008392334,26.4950008392334,200.0
2018-03-08,26.809999465942386,26.809999465942386,26.809999465942386,26.809999465942386,300.0
2018-03-09,27.334999084472656,27.334999084472656,27.334999084472656,27.334999084472656,100.0
2018-03-12,27.334999084472656,27.334999084472656,27.334999084472656,27.334999084472656,0.0
2018-03-13,27.3700008392334,27.3700008392334,27.3700008392334,27.3700008392334,300.0
2018-03-14,27.06100082397461,27.05100059509277,27.05100059509277,27.05100059509277,300.0
2018-03-15,27.05100059509277,27.05100059509277,27.05100059509277,27.05100059509277,0.0
2018-03-16,27.05100059509277,27.05100059509277,27.05100059509277,27.05100059509277,0.0
2018-03-19,26.96999931335449,26.96999931335449,26.96999931335449,26.96999931335449,100.0
2018-03-20,27.28000068664551,27.190000534057614,27.231000900268555,27.190000534057614,600.0
2018-03-21,27.190000534057614,27.190000534057614,27.190000534057614,27.190000534057614,0.0
2018-03-22,27.190000534057614,27.190000534057614,27.190000534057614,27.190000534057614,0.0
2018-03-23,26.040000915527344,26.040000915527344,26.040000915527344,26.040000915527344,400.0
2018-03-26,26.68099975585937,26.68099975585937,26.68099975585937,26.68099975585937,100.0
2018-03-27,26.68099975585937,26.68099975585937,26.68099975585937,26.68099975585937,0.0
2018-03-28,26.68099975585937,26.68099975585937,26.68099975585937,26.68099975585937,0.0
2018-03-29,26.68099975585937,26.68099975585937,26.68099975585937,26.68099975585937,0.0
2018-04-02,26.290000915527344,26.01000022888184,26.290000915527344,26.01000022888184,300.0
2018-04-03,26.01000022888184,26.01000022888184,26.01000022888184,26.01000022888184,0.0
2018-04-04,26.399999618530273,26.399999618530273,26.399999618530273,26.399999618530273,8000.0
2018-04-05,26.399999618530273,26.399999618530273,26.399999618530273,26.399999618530273,0.0
2018-04-06,26.399999618530273,26.399999618530273,26.399999618530273,26.399999618530273,0.0
2018-04-09,26.548999786376953,26.548999786376953,26.548999786376953,26.548999786376953,200.0
2018-04-10,26.76000022888184,26.63999938964844,26.63999938964844,26.76000022888184,800.0
2018-04-11,27.0,27.0,27.0,27.0,200.0
2018-04-12,27.0,27.0,27.0,27.0,0.0
2018-04-13,26.90999984741211,26.90999984741211,26.90999984741211,26.90999984741211,200.0
2018-04-16,26.90999984741211,26.90999984741211,26.90999984741211,26.90999984741211,0.0
2018-04-17,26.90999984741211,26.90999984741211,26.90999984741211,26.90999984741211,0.0
2018-04-18,26.90999984741211,26.90999984741211,26.90999984741211,26.90999984741211,0.0
2018-04-19,26.90999984741211,26.90999984741211,26.90999984741211,26.90999984741211,0.0
2018-04-20,26.90999984741211,26.90999984741211,26.90999984741211,26.90999984741211,0.0
2018-04-23,26.90999984741211,26.90999984741211,26.90999984741211,26.90999984741211,0.0
2018-04-24,26.90999984741211,26.90999984741211,26.90999984741211,26.90999984741211,0.0
2018-04-25,26.90999984741211,26.90999984741211,26.90999984741211,26.90999984741211,0.0
2018-04-26,26.90999984741211,26.90999984741211,26.90999984741211,26.90999984741211,0.0
2018-04-27,26.90999984741211,26.90999984741211,26.90999984741211,26.90999984741211,0.0
2018-04-30,26.90999984741211,26.90999984741211,26.90999984741211,26.90999984741211,0.0
2018-05-01,26.90999984741211,26.90999984741211,26.90999984741211,26.90999984741211,0.0
2018-05-02,26.90999984741211,26.90999984741211,26.90999984741211,26.90999984741211,0.0
2018-05-03,26.90999984741211,26.90999984741211,26.90999984741211,26.90999984741211,0.0
2018-05-04,26.60000038146973,26.45000076293945,26.45000076293945,26.60000038146973,219000.0
2018-05-07,26.32999992370605,26.32999992370605,26.32999992370605,26.32999992370605,400.0
2018-05-08,26.32999992370605,26.32999992370605,26.32999992370605,26.32999992370605,0.0
2018-05-09,26.32999992370605,26.32999992370605,26.32999992370605,26.32999992370605,0.0
2018-05-10,27.13800048828125,27.13800048828125,27.13800048828125,27.13800048828125,200.0
2018-05-11,27.13800048828125,27.13800048828125,27.13800048828125,27.13800048828125,0.0
2018-05-14,27.13800048828125,27.13800048828125,27.13800048828125,27.13800048828125,0.0
2018-05-15,27.13800048828125,27.13800048828125,27.13800048828125,27.13800048828125,0.0
2018-05-16,27.13800048828125,27.13800048828125,27.13800048828125,27.13800048828125,0.0
2018-05-17,27.04400062561035,27.040000915527344,27.040000915527344,27.04400062561035,1000.0
2018-05-18,27.04400062561035,27.04400062561035,27.04400062561035,27.04400062561035,0.0
2018-05-21,27.51000022888184,27.5,27.5,27.51000022888184,7800.0
2018-05-22,27.51000022888184,27.51000022888184,27.51000022888184,27.51000022888184,0.0
2018-05-23,27.20000076293945,27.15999984741211,27.20000076293945,27.15999984741211,300.0
2018-05-24,27.15999984741211,27.15999984741211,27.15999984741211,27.15999984741211,0.0
2018-05-25,27.15999984741211,27.15999984741211,27.15999984741211,27.15999984741211,0.0
2018-05-29,26.88999938964844,26.85400009155273,26.888999938964844,26.85400009155273,2000.0
2018-05-30,27.01000022888184,26.95800018310547,27.01000022888184,26.95800018310547,200.0
2018-05-31,26.95800018310547,26.95800018310547,26.95800018310547,26.95800018310547,0.0
2018-06-01,26.95800018310547,26.95800018310547,26.95800018310547,26.95800018310547,0.0
2018-06-04,27.38999938964844,27.38999938964844,27.38999938964844,27.38999938964844,300.0
2018-06-05,27.38999938964844,27.38999938964844,27.38999938964844,27.38999938964844,0.0
2018-06-06,27.38999938964844,27.38999938964844,27.38999938964844,27.38999938964844,0.0
2018-06-07,27.38999938964844,27.38999938964844,27.38999938964844,27.38999938964844,0.0
2018-06-08,27.38999938964844,27.38999938964844,27.38999938964844,27.38999938964844,0.0
2018-06-11,27.38999938964844,27.38999938964844,27.38999938964844,27.38999938964844,0.0
2018-06-12,27.38999938964844,27.38999938964844,27.38999938964844,27.38999938964844,0.0
2018-06-13,27.38999938964844,27.38999938964844,27.38999938964844,27.38999938964844,0.0
2018-06-14,27.38999938964844,27.38999938964844,27.38999938964844,27.38999938964844,0.0
2018-06-15,27.38999938964844,27.38999938964844,27.38999938964844,27.38999938964844,0.0
2018-06-18,27.38999938964844,27.38999938964844,27.38999938964844,27.38999938964844,0.0
2018-06-19,27.38999938964844,27.38999938964844,27.38999938964844,27.38999938964844,0.0
2018-06-20,27.38999938964844,27.38999938964844,27.38999938964844,27.38999938964844,0.0
2018-06-21,27.38999938964844,27.38999938964844,27.38999938964844,27.38999938964844,0.0
2018-06-22,27.38999938964844,27.38999938964844,27.38999938964844,27.38999938964844,0.0
2018-06-25,25.42900085449219,25.42900085449219,25.42900085449219,25.42900085449219,600.0
2018-06-26,25.42900085449219,25.42900085449219,25.42900085449219,25.42900085449219,0.0
2018-06-27,25.42900085449219,25.42900085449219,25.42900085449219,25.42900085449219,0.0
2018-06-28,25.42900085449219,25.42900085449219,25.42900085449219,25.42900085449219,100.0
2018-06-29,25.420000076293945,25.420000076293945,25.420000076293945,25.420000076293945,200.0
2018-07-02,25.420000076293945,25.420000076293945,25.420000076293945,25.420000076293945,0.0
2018-07-03,25.239999771118164,25.190000534057614,25.239999771118164,25.21199989318848,3200.0
2018-07-05,25.21199989318848,25.21199989318848,25.21199989318848,25.21199989318848,100.0
2018-07-06,25.38999938964844,25.371999740600586,25.38999938964844,25.371999740600586,4100.0
2018-07-09,25.65099906921387,25.604999542236328,25.604999542236328,25.649999618530273,500.0
2018-07-10,25.63999938964844,25.53000068664551,25.63999938964844,25.53000068664551,1000.0
2018-07-11,25.399999618530273,25.23500061035156,25.399999618530273,25.298999786376953,1300.0
2018-07-12,25.399999618530273,25.290000915527344,25.290000915527344,25.399999618530273,1500.0
2018-07-13,25.399999618530273,25.399999618530273,25.399999618530273,25.399999618530273,0.0
2018-07-16,25.5,25.5,25.5,25.5,5100.0
2018-07-17,25.53000068664551,25.53000068664551,25.53000068664551,25.53000068664551,39500.0
2018-07-18,25.3799991607666,25.3799991607666,25.3799991607666,25.3799991607666,300.0
2018-07-19,25.3799991607666,25.3799991607666,25.3799991607666,25.3799991607666,0.0
2018-07-20,25.3799991607666,25.3799991607666,25.3799991607666,25.3799991607666,0.0
2018-07-23,25.3799991607666,25.3799991607666,25.3799991607666,25.3799991607666,0.0
2018-07-24,25.790000915527344,25.729999542236328,25.729999542236328,25.790000915527344,200.0
2018-07-25,25.79999923706055,25.79999923706055,25.79999923706055,25.79999923706055,200.0
2018-07-26,25.79999923706055,25.79999923706055,25.79999923706055,25.79999923706055,0.0
2018-07-27,25.79999923706055,25.79999923706055,25.79999923706055,25.79999923706055,0.0
2018-07-30,25.81999969482422,25.75,25.78000068664551,25.75,2300.0
2018-07-31,25.75,25.75,25.75,25.75,0.0
2018-08-01,25.75,25.75,25.75,25.75,0.0
2018-08-02,25.75,25.75,25.75,25.75,0.0
2018-08-03,25.75,25.75,25.75,25.75,0.0
2018-08-06,25.75,25.75,25.75,25.75,0.0
2018-08-07,25.75,25.75,25.75,25.75,0.0
2018-08-08,25.38999938964844,25.38999938964844,25.38999938964844,25.38999938964844,100.0
2018-08-09,25.63999938964844,25.63999938964844,25.63999938964844,25.63999938964844,100.0
2018-08-10,25.63999938964844,25.63999938964844,25.63999938964844,25.63999938964844,100.0
2018-08-13,25.21999931335449,25.21999931335449,25.21999931335449,25.21999931335449,300.0
2018-08-14,25.25,25.239999771118164,25.25,25.239999771118164,700.0
2018-08-15,24.690000534057614,24.65999984741211,24.690000534057614,24.65999984741211,600.0
2018-08-16,24.79999923706055,24.79999923706055,24.79999923706055,24.79999923706055,300.0
2018-08-17,24.93000030517578,24.93000030517578,24.93000030517578,24.93000030517578,300.0
2018-08-20,24.93000030517578,24.93000030517578,24.93000030517578,24.93000030517578,0.0
2018-08-21,25.31999969482422,25.31999969482422,25.31999969482422,25.31999969482422,200.0
2018-08-22,25.31999969482422,25.31999969482422,25.31999969482422,25.31999969482422,0.0
2018-08-23,25.31999969482422,25.31999969482422,25.31999969482422,25.31999969482422,0.0
2018-08-24,25.31999969482422,25.31999969482422,25.31999969482422,25.31999969482422,0.0
2018-08-27,25.399999618530273,25.399999618530273,25.399999618530273,25.399999618530273,300.0
2018-08-28,25.229999542236328,25.170000076293945,25.170000076293945,25.229999542236328,400.0
2018-08-29,25.229999542236328,25.229999542236328,25.229999542236328,25.229999542236328,0.0
2018-08-30,25.229999542236328,25.229999542236328,25.229999542236328,25.229999542236328,0.0
2018-08-31,25.229999542236328,25.229999542236328,25.229999542236328,25.229999542236328,0.0
2018-09-04,25.229999542236328,25.229999542236328,25.229999542236328,25.229999542236328,0.0
2018-09-05,24.57999992370605,24.57999992370605,24.57999992370605,24.57999992370605,100.0
2018-09-06,24.382999420166016,24.382999420166016,24.382999420166016,24.382999420166016,200.0
2018-09-07,24.382999420166016,24.382999420166016,24.382999420166016,24.382999420166016,0.0
2018-09-10,23.85000038146973,23.827999114990234,23.827999114990234,23.85000038146973,300.0
2018-09-11,23.85000038146973,23.85000038146973,23.85000038146973,23.85000038146973,0.0
2018-09-12,23.85000038146973,23.85000038146973,23.85000038146973,23.85000038146973,0.0
2018-09-13,23.85000038146973,23.85000038146973,23.85000038146973,23.85000038146973,0.0
2018-09-14,23.85000038146973,23.85000038146973,23.85000038146973,23.85000038146973,0.0
2018-09-17,23.85000038146973,23.85000038146973,23.85000038146973,23.85000038146973,0.0
2018-09-18,23.85000038146973,23.85000038146973,23.85000038146973,23.85000038146973,0.0
2018-09-19,23.85000038146973,23.85000038146973,23.85000038146973,23.85000038146973,0.0
2018-09-20,23.85000038146973,23.85000038146973,23.85000038146973,23.85000038146973,0.0
2018-09-21,23.85000038146973,23.85000038146973,23.85000038146973,23.85000038146973,0.0
2018-09-24,23.85000038146973,23.85000038146973,23.85000038146973,23.85000038146973,0.0
2018-09-25,23.85000038146973,23.85000038146973,23.85000038146973,23.85000038146973,0.0
2018-09-26,23.85000038146973,23.85000038146973,23.85000038146973,23.85000038146973,0.0
2018-09-27,25.21999931335449,25.21999931335449,25.21999931335449,25.21999931335449,100.0
2018-09-28,25.21999931335449,25.21999931335449,25.21999931335449,25.21999931335449,0.0
2018-10-01,25.21999931335449,25.21999931335449,25.21999931335449,25.21999931335449,0.0
2018-10-02,25.21999931335449,25.21999931335449,25.21999931335449,25.21999931335449,0.0
2018-10-03,24.3700008392334,24.3700008392334,24.3700008392334,24.3700008392334,100.0
2018-10-04,23.920000076293945,23.920000076293945,23.920000076293945,23.920000076293945,100.0
2018-10-05,23.920000076293945,23.920000076293945,23.920000076293945,23.920000076293945,0.0
2018-10-08,23.920000076293945,23.920000076293945,23.920000076293945,23.920000076293945,0.0
2018-10-09,23.670000076293945,23.670000076293945,23.670000076293945,23.670000076293945,100.0
2018-10-10,23.670000076293945,23.670000076293945,23.670000076293945,23.670000076293945,0.0
2018-10-11,23.670000076293945,23.670000076293945,23.670000076293945,23.670000076293945,0.0
2018-10-12,23.20000076293945,23.20000076293945,23.20000076293945,23.20000076293945,100.0
2018-10-15,23.01499938964844,22.940000534057614,22.940000534057614,22.989999771118164,1000.0
2018-10-16,23.09000015258789,23.09000015258789,23.09000015258789,23.09000015258789,200.0
2018-10-17,22.979999542236328,22.979999542236328,22.979999542236328,22.979999542236328,200.0
2018-10-18,22.979999542236328,22.979999542236328,22.979999542236328,22.979999542236328,0.0
2018-10-19,22.979999542236328,22.979999542236328,22.979999542236328,22.979999542236328,0.0
2018-10-22,23.3700008392334,23.3700008392334,23.3700008392334,23.3700008392334,22000.0
2018-10-23,22.65999984741211,22.65999984741211,22.65999984741211,22.65999984741211,1000.0
2018-10-24,22.65999984741211,22.65999984741211,22.65999984741211,22.65999984741211,100.0
2018-10-25,22.51000022888184,22.51000022888184,22.51000022888184,22.51000022888184,100.0
2018-10-26,22.277999877929688,22.277999877929688,22.277999877929688,22.277999877929688,100.0
2018-10-29,22.049999237060547,22.040000915527344,22.040000915527344,22.049999237060547,400.0
2018-10-30,22.09000015258789,21.989999771118164,21.989999771118164,22.09000015258789,22300.0
2018-10-31,22.09000015258789,22.09000015258789,22.09000015258789,22.09000015258789,0.0
2018-11-01,22.90500068664551,22.868999481201172,22.868999481201172,22.891000747680664,1200.0
2018-11-02,23.709999084472656,23.125,23.520000457763672,23.32999992370605,13600.0
2018-11-05,23.18000030517578,23.170000076293945,23.170000076293945,23.18000030517578,300.0
2018-11-06,23.18000030517578,23.18000030517578,23.18000030517578,23.18000030517578,200.0
2018-11-07,23.18000030517578,23.18000030517578,23.18000030517578,23.18000030517578,200.0
2018-11-08,23.229999542236328,23.059999465942386,23.21999931335449,23.11000061035156,2700.0
2018-11-09,22.739999771118164,22.739999771118164,22.739999771118164,22.739999771118164,1500.0
2018-11-12,22.920000076293945,22.74600028991699,22.809999465942386,22.76000022888184,23500.0
2018-11-13,23.07999992370605,23.07999992370605,23.07999992370605,23.07999992370605,100.0
2018-11-14,23.34000015258789,23.15999984741211,23.34000015258789,23.170000076293945,1700.0
2018-11-15,23.479999542236328,23.479999542236328,23.479999542236328,23.479999542236328,294200.0
2018-11-16,23.70000076293945,23.665000915527344,23.670000076293945,23.69499969482422,700.0
2018-11-19,23.6200008392334,23.559999465942386,23.6200008392334,23.559999465942386,400.0
2018-11-20,23.165000915527344,23.13999938964844,23.165000915527344,23.13999938964844,500.0
2018-11-21,23.40999984741211,23.40999984741211,23.40999984741211,23.40999984741211,200.0
2018-11-23,23.40999984741211,23.40999984741211,23.40999984741211,23.40999984741211,0.0
2018-11-26,23.93000030517578,23.790000915527344,23.790000915527344,23.93000030517578,600.0
2018-11-27,23.93000030517578,23.93000030517578,23.93000030517578,23.93000030517578,100.0
2018-11-28,23.93000030517578,23.93000030517578,23.93000030517578,23.93000030517578,100.0
2018-11-29,23.79999923706055,23.79999923706055,23.79999923706055,23.79999923706055,500.0
2018-11-30,23.809999465942386,23.788000106811523,23.788000106811523,23.79199981689453,500.0
2018-12-03,24.38999938964844,24.38999938964844,24.38999938964844,24.38999938964844,200.0
2018-12-04,24.149999618530273,24.149999618530273,24.149999618530273,24.149999618530273,100.0
2018-12-06,23.79199981689453,23.79199981689453,23.79199981689453,23.79199981689453,500.0
2018-12-07,23.75,23.54999923706055,23.75,23.54999923706055,500.0
2018-12-10,23.415000915527344,23.3700008392334,23.3700008392334,23.415000915527344,400.0
2018-12-11,23.51000022888184,23.48200035095215,23.48200035095215,23.51000022888184,700.0
2018-12-12,23.96500015258789,23.96500015258789,23.96500015258789,23.96500015258789,100.0
2018-12-13,24.00399971008301,24.00399971008301,24.00399971008301,24.00399971008301,100.0
2018-12-14,24.0,24.0,24.0,24.0,100.0
2018-12-17,23.670000076293945,23.670000076293945,23.670000076293945,23.670000076293945,400.0
2018-12-18,23.670000076293945,23.670000076293945,23.670000076293945,23.670000076293945,0.0
2018-12-19,23.90999984741211,23.440000534057614,23.81999969482422,23.50200080871582,800.0
2018-12-20,23.208999633789066,23.208999633789066,23.208999633789066,23.208999633789066,100.0
2018-12-21,23.09000015258789,23.05699920654297,23.09000015258789,23.06399917602539,500.0
2018-12-24,23.06999969482422,22.976999282836914,23.06999969482422,22.976999282836914,200.0
2018-12-26,23.22800064086914,23.048999786376953,23.059999465942386,23.22800064086914,900.0
2018-12-27,23.117000579833984,23.117000579833984,23.117000579833984,23.117000579833984,100.0
2018-12-28,23.25300025939941,23.25300025939941,23.25300025939941,23.25300025939941,100.0
2018-12-31,23.209999084472656,23.209999084472656,23.209999084472656,23.209999084472656,100.0
2019-01-02,22.9689998626709,22.9689998626709,22.9689998626709,22.9689998626709,200.0
2019-01-03,22.85000038146973,22.65299987792969,22.770000457763672,22.65299987792969,13200.0
2019-01-04,23.351999282836914,23.32999992370605,23.32999992370605,23.351999282836914,800.0
2019-01-07,23.434999465942386,23.434999465942386,23.434999465942386,23.434999465942386,100.0
2019-01-08,23.65500068664551,23.61000061035156,23.61000061035156,23.65500068664551,200.0
2019-01-09,24.0049991607666,23.96999931335449,23.96999931335449,24.0049991607666,300.0
2019-01-10,24.229999542236328,24.020999908447266,24.020999908447266,24.229999542236328,300.0
2019-01-11,24.104999542236328,24.059999465942386,24.104999542236328,24.09000015258789,1400.0
2019-01-14,24.06999969482422,23.84000015258789,23.85000038146973,23.981000900268555,1300.0
2019-01-15,24.21999931335449,24.19599914550781,24.21999931335449,24.19599914550781,200.0
2019-01-16,24.516000747680664,24.516000747680664,24.516000747680664,24.516000747680664,100.0
2019-01-17,24.54999923706055,24.31999969482422,24.399999618530273,24.47599983215332,1400.0
2019-01-18,24.643999099731445,24.6299991607666,24.6299991607666,24.643999099731445,100.0
2019-01-22,24.3799991607666,24.290000915527344,24.351999282836914,24.290000915527344,700.0
2019-01-23,24.41699981689453,24.3700008392334,24.3700008392334,24.41699981689453,200.0
2019-01-24,24.59000015258789,24.51000022888184,24.51000022888184,24.56999969482422,1000.0
2019-01-25,24.93400001525879,24.93400001525879,24.93400001525879,24.93400001525879,100.0
2019-01-28,24.739999771118164,24.68099975585937,24.70800018310547,24.739999771118164,700.0
2019-01-29,24.795000076293945,24.795000076293945,24.795000076293945,24.795000076293945,200.0
2019-01-30,25.038000106811523,24.78000068664551,24.78000068664551,25.038000106811523,200.0
2019-01-31,25.29800033569336,25.29800033569336,25.29800033569336,25.29800033569336,100.0
2019-02-01,24.98500061035156,24.98500061035156,24.98500061035156,24.98500061035156,100.0
2019-02-04,25.34000015258789,25.34000015258789,25.34000015258789,25.34000015258789,200.0
2019-02-05,25.601999282836914,25.601999282836914,25.601999282836914,25.601999282836914,100.0
2019-02-06,25.5,25.375,25.5,25.375,2100.0
2019-02-07,25.12899971008301,25.12899971008301,25.12899971008301,25.12899971008301,300.0
2019-02-08,25.459999084472656,25.27400016784668,25.27400016784668,25.459999084472656,2000.0
2019-02-11,25.540000915527344,25.540000915527344,25.540000915527344,25.540000915527344,700.0
2019-02-12,25.90999984741211,25.6299991607666,25.90999984741211,25.6299991607666,1100.0
2019-02-13,25.96299934387207,25.93099975585937,25.96299934387207,25.93099975585937,200.0
2019-02-14,25.97900009155273,25.97900009155273,25.97900009155273,25.97900009155273,200.0
2019-02-15,25.81100082397461,25.78000068664551,25.78000068664551,25.81100082397461,100.0
2019-02-19,26.13400077819824,26.011999130249023,26.011999130249023,26.13400077819824,200.0
2019-02-20,26.420000076293945,26.32999992370605,26.420000076293945,26.32999992370605,200.0
2019-02-21,26.42799949645996,26.40999984741211,26.40999984741211,26.42799949645996,200.0
2019-02-22,26.78000068664551,26.70100021362305,26.78000068664551,26.70100021362305,700.0
2019-02-25,26.790000915527344,26.70400047302246,26.790000915527344,26.71999931335449,700.0
2019-02-26,26.57399940490723,26.51000022888184,26.533000946044922,26.57399940490723,800.0
2019-02-27,26.49600028991699,26.49600028991699,26.49600028991699,26.49600028991699,200.0
2019-02-28,26.45000076293945,26.39699935913086,26.45000076293945,26.39699935913086,200.0
2019-03-01,26.53000068664551,26.479999542236328,26.479999542236328,26.53000068664551,400.0
2019-03-04,26.48699951171875,26.35300064086914,26.35300064086914,26.48699951171875,700.0
2019-03-05,26.53700065612793,26.52599906921387,26.52599906921387,26.53700065612793,200.0
2019-03-06,26.45400047302246,26.45400047302246,26.45400047302246,26.45400047302246,100.0
2019-03-07,26.20000076293945,26.08699989318848,26.145000457763672,26.08699989318848,600.0
2019-03-08,25.854999542236328,25.80200004577637,25.81999969482422,25.854999542236328,500.0
2019-03-11,26.35000038146973,26.25,26.25,26.29800033569336,1500.0
2019-03-12,26.489999771118164,26.42600059509277,26.489999771118164,26.42600059509277,700.0
2019-03-13,26.56999969482422,26.42600059509277,26.506000518798828,26.42600059509277,800.0
2019-03-14,26.34000015258789,26.256999969482425,26.290000915527344,26.31999969482422,11800.0
2019-03-15,26.452999114990234,26.452999114990234,26.452999114990234,26.452999114990234,100.0
2019-03-18,26.71999931335449,26.691999435424805,26.691999435424805,26.71999931335449,400.0
2019-03-19,26.80100059509277,26.73200035095215,26.80100059509277,26.73200035095215,200.0
2019-03-20,26.65500068664551,26.493000030517575,26.493000030517575,26.65500068664551,2500.0
2019-03-21,26.586000442504886,26.44300079345703,26.44300079345703,26.586000442504886,1900.0
2019-03-22,26.2450008392334,26.2450008392334,26.2450008392334,26.2450008392334,200.0
2019-03-25,26.29999923706055,26.2549991607666,26.2549991607666,26.29999923706055,600.0
2019-03-26,26.417999267578125,26.417999267578125,26.417999267578125,26.417999267578125,300.0
2019-03-27,26.479999542236328,26.334999084472656,26.40999984741211,26.420000076293945,1300.0
2019-03-28,26.601999282836914,26.601999282836914,26.601999282836914,26.601999282836914,100.0
2019-03-29,26.959999084472656,26.937000274658203,26.937000274658203,26.959999084472656,800.0
2019-04-01,27.38999938964844,27.312000274658203,27.31599998474121,27.38999938964844,1000.0
2019-04-02,27.559999465942386,27.520000457763672,27.559999465942386,27.520000457763672,1400.0
2019-04-03,27.76000022888184,27.71999931335449,27.72200012207031,27.71999931335449,2100.0
2019-04-04,27.732999801635746,27.732999801635746,27.732999801635746,27.732999801635746,100.0
2019-04-05,27.940000534057614,27.90999984741211,27.940000534057614,27.90999984741211,200.0
2019-04-08,27.645999908447266,27.645999908447266,27.645999908447266,27.645999908447266,300.0
2019-04-09,27.54199981689453,27.5310001373291,27.5310001373291,27.54199981689453,100.0
2019-04-10,27.60099983215332,27.51000022888184,27.51000022888184,27.60099983215332,1100.0
2019-04-11,27.34499931335449,27.32600021362305,27.34499931335449,27.32600021362305,500.0
2019-04-12,27.54999923706055,27.520000457763672,27.54999923706055,27.53499984741211,400.0
2019-04-15,27.489999771118164,27.295000076293945,27.40999984741211,27.295000076293945,2900.0
2019-04-16,27.334999084472656,27.29999923706055,27.29999923706055,27.334999084472656,200.0
2019-04-17,27.27599906921387,27.268999099731445,27.268999099731445,27.27599906921387,1200.0
2019-04-18,27.399999618530273,27.351999282836914,27.399999618530273,27.351999282836914,200.0
2019-04-22,27.23500061035156,27.23500061035156,27.23500061035156,27.23500061035156,200.0
2019-04-23,27.45499992370605,27.319000244140625,27.319000244140625,27.45499992370605,300.0
2019-04-24,27.35000038146973,27.20000076293945,27.35000038146973,27.20000076293945,600.0
2019-04-25,27.11000061035156,27.0,27.06999969482422,27.0,5000.0
2019-04-26,27.229999542236328,27.09000015258789,27.09000015258789,27.229999542236328,4600.0
2019-04-29,27.24099922180176,27.24099922180176,27.24099922180176,27.24099922180176,100.0
2019-04-30,27.20000076293945,27.1299991607666,27.1299991607666,27.20000076293945,1200.0
2019-05-01,27.270000457763672,27.06999969482422,27.21500015258789,27.06999969482422,2500.0
2019-05-02,27.43000030517578,27.28700065612793,27.290000915527344,27.43000030517578,11600.0
2019-05-03,27.85000038146973,27.81999969482422,27.81999969482422,27.85000038146973,500.0
2019-05-06,27.13999938964844,26.8700008392334,26.8700008392334,27.13999938964844,1700.0
2019-05-07,26.790000915527344,26.63500022888184,26.790000915527344,26.75,900.0
2019-05-08,26.69099998474121,26.614999771118164,26.614999771118164,26.69099998474121,900.0
2019-05-09,26.17700004577637,25.910999298095703,25.96999931335449,26.17700004577637,900.0
2019-05-10,26.31999969482422,26.3129997253418,26.31999969482422,26.3129997253418,200.0
2019-05-13,25.770000457763672,25.608999252319336,25.770000457763672,25.636999130249023,500.0
2019-05-14,26.0,25.90999984741211,25.90999984741211,25.91399955749512,600.0
2019-05-15,26.104999542236328,26.06999969482422,26.077999114990234,26.104999542236328,500.0
2019-05-16,26.22200012207031,26.22200012207031,26.22200012207031,26.22200012207031,100.0
2019-05-17,25.8439998626709,25.8439998626709,25.8439998626709,25.8439998626709,100.0
2019-05-20,25.70499992370605,25.665000915527344,25.665000915527344,25.70499992370605,100.0
2019-05-21,25.809999465942386,25.77799987792969,25.77799987792969,25.809999465942386,800.0
2019-05-22,25.9950008392334,25.92700004577637,25.92700004577637,25.9950008392334,200.0
2019-05-23,25.71500015258789,25.68600082397461,25.71500015258789,25.68600082397461,200.0
2019-05-24,25.694000244140625,25.67099952697754,25.67099952697754,25.691999435424805,500.0
2019-05-28,25.832000732421875,25.832000732421875,25.832000732421875,25.832000732421875,0.0
2019-05-29,25.90699958801269,25.81999969482422,25.847999572753906,25.90699958801269,400.0
2019-05-30,25.57399940490723,25.57399940490723,25.57399940490723,25.57399940490723,100.0
2019-05-31,25.35700035095215,25.29999923706055,25.29999923706055,25.35700035095215,300.0
2019-06-03,25.292999267578125,25.292999267578125,25.292999267578125,25.292999267578125,300.0
2019-06-04,25.38400077819824,25.1560001373291,25.1560001373291,25.38400077819824,300.0
2019-06-05,25.45199966430664,25.437000274658203,25.437000274658203,25.45199966430664,300.0
2019-06-06,25.57200050354004,25.558000564575195,25.57200050354004,25.558000564575195,300.0
2019-06-07,25.79999923706055,25.726999282836914,25.729999542236328,25.726999282836914,500.0
2019-06-10,26.18000030517578,26.132999420166016,26.18000030517578,26.132999420166016,100.0
2019-06-11,26.0049991607666,26.0049991607666,26.0049991607666,26.0049991607666,200.0
2019-06-12,25.39800071716309,25.39800071716309,25.39800071716309,25.39800071716309,100.0
2019-06-13,25.44499969482422,25.44499969482422,25.44499969482422,25.44499969482422,100.0
2019-06-14,25.290000915527344,25.246999740600586,25.290000915527344,25.246999740600586,1200.0
2019-06-17,25.391000747680664,25.391000747680664,25.391000747680664,25.391000747680664,300.0
2019-06-18,26.11400032043457,26.082000732421875,26.11400032043457,26.082000732421875,200.0
2019-06-19,26.48900032043457,26.48900032043457,26.48900032043457,26.48900032043457,100.0
2019-06-20,26.774999618530273,26.774999618530273,26.774999618530273,26.774999618530273,200.0
2019-06-21,26.55900001525879,26.55200004577637,26.55200004577637,26.55900001525879,300.0
2019-06-24,26.63400077819824,26.63400077819824,26.63400077819824,26.63400077819824,400.0
2019-06-25,26.46199989318848,26.416000366210934,26.46199989318848,26.416000366210934,500.0
2019-06-26,26.58799934387207,26.584999084472656,26.58799934387207,26.584999084472656,200.0
2019-06-27,26.867000579833984,26.770000457763672,26.770000457763672,26.867000579833984,1200.0
2019-06-28,26.7450008392334,26.7450008392334,26.7450008392334,26.7450008392334,100.0
2019-07-01,27.1200008392334,26.96999931335449,27.1200008392334,26.96999931335449,2300.0
2019-07-02,27.309999465942386,27.18199920654297,27.18199920654297,27.24099922180176,7300.0
2019-07-03,27.38999938964844,27.38999938964844,27.38999938964844,27.38999938964844,500.0
2019-07-05,27.226999282836914,27.226999282836914,27.226999282836914,27.226999282836914,100.0
2019-07-08,27.065000534057614,26.959999084472656,26.96999931335449,27.065000534057614,1400.0
2019-07-09,26.792999267578125,26.792999267578125,26.792999267578125,26.792999267578125,100.0
2019-07-10,26.868000030517575,26.82600021362305,26.86000061035156,26.82600021362305,1300.0
2019-07-11,26.819000244140625,26.819000244140625,26.819000244140625,26.819000244140625,400.0
2019-07-12,27.020000457763672,26.957000732421875,26.957000732421875,26.97200012207031,1100.0
2019-07-15,27.03000068664551,27.00200080871582,27.03000068664551,27.020000457763672,1300.0
2019-07-16,27.09000015258789,27.09000015258789,27.09000015258789,27.09000015258789,200.0
2019-07-17,27.00300025939941,27.00300025939941,27.00300025939941,27.00300025939941,200.0
2019-07-18,27.170000076293945,27.1200008392334,27.132999420166016,27.1200008392334,3100.0
2019-07-19,27.364999771118164,27.36400032043457,27.364999771118164,27.36400032043457,2000.0
2019-07-22,27.018999099731445,27.018999099731445,27.018999099731445,27.018999099731445,300.0
2019-07-23,27.16699981689453,27.165000915527344,27.16699981689453,27.165000915527344,400.0
2019-07-24,27.101999282836914,27.090999603271484,27.090999603271484,27.101999282836914,200.0
2019-07-25,26.81999969482422,26.81999969482422,26.81999969482422,26.81999969482422,100.0
2019-07-26,26.716999053955078,26.716999053955078,26.716999053955078,26.716999053955078,100.0
2019-07-29,26.3799991607666,26.34499931335449,26.3799991607666,26.34499931335449,700.0
2019-07-30,26.15500068664551,26.13999938964844,26.13999938964844,26.15500068664551,300.0
2019-07-31,25.75,25.75,25.75,25.75,1200.0
2019-08-01,25.5,24.972999572753906,25.5,24.972999572753906,700.0
2019-08-02,24.97100067138672,24.95000076293945,24.97100067138672,24.95000076293945,500.0
2019-08-05,24.000999450683594,23.74099922180176,24.000999450683594,23.74099922180176,1000.0
2019-08-06,24.03000068664551,23.959999084472656,24.03000068664551,24.0,2900.0
2019-08-07,24.20000076293945,23.88999938964844,23.88999938964844,24.20000076293945,500.0
2019-08-08,24.479999542236328,24.479999542236328,24.479999542236328,24.479999542236328,400.0
2019-08-09,24.09000015258789,24.05599975585937,24.09000015258789,24.05599975585937,400.0
2019-08-12,23.270000457763672,23.270000457763672,23.270000457763672,23.270000457763672,600.0
2019-08-13,23.51000022888184,23.479999542236328,23.479999542236328,23.51000022888184,800.0
2019-08-14,22.95400047302246,22.940000534057614,22.95000076293945,22.95400047302246,600.0
2019-08-15,23.46999931335449,23.46999931335449,23.46999931335449,23.46999931335449,400.0
2019-08-16,24.03499984741211,24.03499984741211,24.03499984741211,24.03499984741211,0.0
2019-08-19,24.618999481201172,24.57500076293945,24.57500076293945,24.618999481201172,300.0
2019-08-20,24.540000915527344,24.520000457763672,24.540000915527344,24.540000915527344,400.0
2019-08-21,24.660999298095703,24.660999298095703,24.660999298095703,24.660999298095703,100.0
2019-08-22,24.31999969482422,24.30299949645996,24.31999969482422,24.30299949645996,200.0
2019-08-23,23.822999954223636,23.822999954223636,23.822999954223636,23.822999954223636,200.0
2019-08-26,24.0,23.88400077819824,24.0,23.88400077819824,300.0
2019-08-27,24.04999923706055,23.91399955749512,24.04999923706055,23.91399955749512,200.0
2019-08-28,23.93000030517578,23.92300033569336,23.92300033569336,23.93000030517578,400.0
2019-08-29,24.040000915527344,23.982999801635746,24.040000915527344,23.98500061035156,300.0
2019-08-30,23.809999465942386,23.614999771118164,23.809999465942386,23.614999771118164,500.0
2019-09-03,23.47200012207031,23.45000076293945,23.45000076293945,23.47200012207031,1200.0
2019-09-04,24.440000534057614,24.440000534057614,24.440000534057614,24.440000534057614,100.0
2019-09-05,24.51000022888184,24.51000022888184,24.51000022888184,24.51000022888184,200.0
2019-09-06,24.69599914550781,24.57099914550781,24.57099914550781,24.69599914550781,300.0
2019-09-09,24.690000534057614,24.690000534057614,24.690000534057614,24.690000534057614,100.0
2019-09-10,24.76099967956543,24.756000518798828,24.76099967956543,24.756000518798828,300.0
2019-09-11,24.920000076293945,24.90999984741211,24.91399955749512,24.920000076293945,700.0
2019-09-12,24.920000076293945,24.8799991607666,24.8799991607666,24.920000076293945,700.0
2019-09-13,25.170000076293945,25.13999938964844,25.170000076293945,25.13999938964844,400.0
2019-09-16,24.85000038146973,24.78000068664551,24.78000068664551,24.85000038146973,600.0
2019-09-17,24.68000030517578,24.5629997253418,24.5629997253418,24.68000030517578,700.0
2019-09-18,24.45000076293945,24.209999084472656,24.38999938964844,24.45000076293945,7600.0
2019-09-19,24.21999931335449,24.170000076293945,24.17499923706055,24.21999931335449,1300.0
2019-09-20,24.08799934387207,24.020000457763672,24.08799934387207,24.040000915527344,800.0
2019-09-23,23.959999084472656,23.88999938964844,23.959999084472656,23.95000076293945,600.0
2019-09-24,23.89299964904785,23.847999572753906,23.8799991607666,23.847999572753906,1100.0
2019-09-25,23.77300071716309,23.66200065612793,23.66200065612793,23.77300071716309,600.0
2019-09-26,23.658000946044922,23.63999938964844,23.63999938964844,23.658000946044922,300.0
2019-09-27,23.62899971008301,23.559999465942386,23.62899971008301,23.58099937438965,300.0
2019-09-30,23.714000701904297,23.67700004577637,23.714000701904297,23.67700004577637,300.0
2019-10-01,23.354999542236328,23.31999969482422,23.32399940490723,23.354999542236328,200.0
2019-10-02,23.614999771118164,23.60000038146973,23.60000038146973,23.614999771118164,300.0
2019-10-03,23.8799991607666,23.86000061035156,23.86000061035156,23.8799991607666,300.0
2019-10-04,23.582000732421875,23.423999786376953,23.423999786376953,23.582000732421875,400.0
2019-10-07,23.520000457763672,23.483999252319336,23.49900054931641,23.50399971008301,600.0
2019-10-08,23.41399955749512,23.34000015258789,23.41399955749512,23.34000015258789,900.0
2019-10-09,23.33099937438965,23.27599906921387,23.33099937438965,23.27599906921387,500.0
2019-10-10,23.386999130249023,23.32999992370605,23.386999130249023,23.36000061035156,2200.0
2019-10-11,23.920000076293945,23.85000038146973,23.892000198364254,23.8700008392334,1600.0
2019-10-14,23.8700008392334,23.8700008392334,23.8700008392334,23.8700008392334,300.0
2019-10-15,23.934999465942386,23.84000015258789,23.84000015258789,23.934999465942386,2700.0
2019-10-16,24.13999938964844,24.04999923706055,24.04999923706055,24.1200008392334,800.0
2019-10-17,24.270000457763672,24.15999984741211,24.270000457763672,24.209999084472656,1600.0
2019-10-18,24.035999298095703,23.9950008392334,24.03000068664551,24.01000022888184,1200.0
2019-10-21,24.17300033569336,24.059999465942386,24.1200008392334,24.17300033569336,3000.0
2019-10-22,24.239999771118164,24.15999984741211,24.15999984741211,24.20499992370605,2100.0
2019-10-23,24.059999465942386,23.97800064086914,23.979999542236328,24.059999465942386,1700.0
2019-10-24,24.26499938964844,24.16399955749512,24.16399955749512,24.26499938964844,400.0
2019-10-25,24.31800079345703,24.30200004577637,24.30200004577637,24.31800079345703,100.0
2019-10-28,24.70100021362305,24.613000869750977,24.613000869750977,24.70100021362305,1300.0
2019-10-29,24.56999969482422,24.54999923706055,24.559999465942386,24.54999923706055,800.0
2019-10-30,24.60000038146973,24.49099922180176,24.49099922180176,24.60000038146973,700.0
2019-10-31,24.70000076293945,24.660999298095703,24.69599914550781,24.70000076293945,500.0
2019-11-01,25.0,25.0,25.0,25.0,500.0
2019-11-04,25.408000946044922,25.26000022888184,25.26000022888184,25.3700008392334,4200.0
2019-11-05,25.45599937438965,25.420000076293945,25.45599937438965,25.420000076293945,500.0
2019-11-06,25.6299991607666,25.5,25.58799934387207,25.5,4500.0
2019-11-07,25.790000915527344,25.65999984741211,25.729999542236328,25.65999984741211,3000.0
2019-11-08,25.459999084472656,25.45499992370605,25.45499992370605,25.459999084472656,1200.0
2019-11-11,25.011999130249023,25.0,25.011999130249023,25.0,1900.0
2019-11-12,24.86100006103516,24.790000915527344,24.86100006103516,24.790000915527344,600.0
2019-11-13,24.36000061035156,24.36000061035156,24.36000061035156,24.36000061035156,400.0
2019-11-14,24.26000022888184,24.22400093078613,24.26000022888184,24.239999771118164,700.0
2019-11-15,24.26000022888184,24.26000022888184,24.26000022888184,24.26000022888184,300.0
2019-11-18,24.47100067138672,24.38999938964844,24.47100067138672,24.38999938964844,500.0
2019-11-19,24.785999298095703,24.709999084472656,24.785999298095703,24.709999084472656,600.0
2019-11-20,24.53000068664551,24.53000068664551,24.53000068664551,24.53000068664551,300.0
2019-11-21,24.45000076293945,24.45000076293945,24.45000076293945,24.45000076293945,400.0
2019-11-22,24.45000076293945,24.45000076293945,24.45000076293945,24.45000076293945,600.0
2019-11-25,25.006000518798828,24.89699935913086,24.89699935913086,24.95000076293945,1700.0
2019-11-26,24.81100082397461,24.809999465942386,24.81100082397461,24.809999465942386,500.0
2019-11-27,24.84000015258789,24.84000015258789,24.84000015258789,24.84000015258789,300.0
2019-11-29,24.46999931335449,24.46999931335449,24.46999931335449,24.46999931335449,300.0
2019-12-02,24.420000076293945,24.35000038146973,24.420000076293945,24.35000038146973,700.0
2019-12-03,24.22100067138672,24.209999084472656,24.209999084472656,24.21999931335449,1400.0
2019-12-04,24.29999923706055,24.28000068664551,24.28000068664551,24.29999923706055,400.0
2019-12-05,24.31999969482422,24.31999969482422,24.31999969482422,24.31999969482422,100.0
2019-12-06,24.6299991607666,24.59000015258789,24.6299991607666,24.59000015258789,100.0
2019-12-09,24.39800071716309,24.39800071716309,24.39800071716309,24.39800071716309,100.0
2019-12-10,24.35400009155273,24.33699989318848,24.33699989318848,24.34000015258789,600.0
2019-12-11,24.149999618530273,24.149999618530273,24.149999618530273,24.149999618530273,300.0
2019-12-12,24.73600006103516,24.58099937438965,24.58099937438965,24.733999252319336,1400.0
2019-12-13,24.92900085449219,24.875999450683594,24.92900085449219,24.875999450683594,500.0
2019-12-16,25.08799934387207,25.017000198364254,25.08799934387207,25.017000198364254,500.0
2019-12-17,25.158000946044922,25.10000038146973,25.10000038146973,25.142000198364254,900.0
2019-12-18,25.13999938964844,25.040000915527344,25.13999938964844,25.040000915527344,1400.0
2019-12-19,24.8799991607666,24.82399940490723,24.82399940490723,24.8799991607666,500.0
2019-12-20,24.9950008392334,24.96999931335449,24.9950008392334,24.96999931335449,500.0
2019-12-23,24.93000030517578,24.8799991607666,24.8799991607666,24.920000076293945,1100.0
2019-12-24,25.06999969482422,24.93000030517578,25.03000068664551,24.93000030517578,2600.0
2019-12-26,25.229999542236328,24.989999771118164,24.989999771118164,25.06999969482422,14100.0
2019-12-27,25.270000457763672,25.20000076293945,25.23500061035156,25.20000076293945,1600.0
2019-12-30,25.334999084472656,25.18000030517578,25.334999084472656,25.18000030517578,1200.0
2019-12-31,25.270000457763672,25.256999969482425,25.26000022888184,25.270000457763672,400.0
2020-01-02,25.86000061035156,25.86000061035156,25.86000061035156,25.86000061035156,200.0
2020-01-03,25.54999923706055,25.54999923706055,25.54999923706055,25.54999923706055,400.0
2020-01-06,25.53000068664551,25.51000022888184,25.51000022888184,25.53000068664551,400.0
2020-01-07,25.559999465942386,25.51000022888184,25.559999465942386,25.51000022888184,700.0
2020-01-08,25.70499992370605,25.59000015258789,25.70499992370605,25.59000015258789,600.0
2020-01-09,25.864999771118164,25.864999771118164,25.864999771118164,25.864999771118164,100.0
2020-01-10,26.03499984741211,26.020000457763672,26.03499984741211,26.020000457763672,900.0
2020-01-13,26.3799991607666,26.12800025939941,26.12800025939941,26.3799991607666,1500.0
2020-01-14,26.399999618530273,26.309999465942386,26.3799991607666,26.309999465942386,900.0
2020-01-15,26.31100082397461,26.26000022888184,26.31100082397461,26.26000022888184,600.0
2020-01-16,26.53499984741211,26.51000022888184,26.53499984741211,26.51000022888184,1800.0
2020-01-17,26.60300064086914,26.56999969482422,26.60300064086914,26.56999969482422,400.0
2020-01-21,25.54700088500977,25.54700088500977,25.54700088500977,25.54700088500977,100.0
2020-01-22,25.593000411987305,25.593000411987305,25.593000411987305,25.593000411987305,100.0
2020-01-23,25.399999618530273,25.170000076293945,25.18000030517578,25.36000061035156,2000.0
2020-01-24,25.44499969482422,25.09700012207031,25.44499969482422,25.11000061035156,700.0
2020-01-27,24.290000915527344,24.07999992370605,24.26000022888184,24.11100006103516,4000.0
2020-01-28,24.20499992370605,24.1299991607666,24.1299991607666,24.20499992370605,2600.0
2020-01-29,24.520000457763672,24.36000061035156,24.520000457763672,24.40399932861328,309800.0
2020-01-30,24.125,23.76000022888184,23.920000076293945,24.125,6300.0
2020-01-31,23.770000457763672,23.583999633789066,23.770000457763672,23.584999084472656,2800.0
2020-02-03,23.90500068664551,23.854999542236328,23.90500068664551,23.854999542236328,200.0
2020-02-04,24.40999984741211,24.25,24.38999938964844,24.25,1200.0
2020-02-05,24.356000900268555,24.356000900268555,24.356000900268555,24.356000900268555,100.0
2020-02-06,24.670000076293945,24.57999992370605,24.59000015258789,24.65999984741211,900.0
2020-02-07,24.48500061035156,24.44099998474121,24.48500061035156,24.44099998474121,300.0
2020-02-10,24.53000068664551,24.48699951171875,24.48699951171875,24.53000068664551,1200.0
2020-02-11,24.78199958801269,24.690000534057614,24.78199958801269,24.690000534057614,1000.0
2020-02-12,25.04999923706055,25.00900077819824,25.00900077819824,25.04999923706055,500.0
2020-02-13,24.90900039672852,24.81999969482422,24.891000747680664,24.81999969482422,700.0
2020-02-14,24.964000701904297,24.934999465942386,24.95499992370605,24.934999465942386,500.0
2020-02-18,24.7549991607666,24.7549991607666,24.7549991607666,24.7549991607666,200.0
2020-02-19,24.815000534057614,24.815000534057614,24.815000534057614,24.815000534057614,100.0
2020-02-20,24.542999267578125,24.542999267578125,24.542999267578125,24.542999267578125,100.0
2020-02-21,24.513999938964844,24.513999938964844,24.513999938964844,24.513999938964844,100.0
2020-02-24,23.915000915527344,23.770000457763672,23.770000457763672,23.888999938964844,168800.0
2020-02-25,24.03499984741211,23.663000106811523,24.03499984741211,23.663000106811523,3800.0
2020-02-26,23.959999084472656,23.959999084472656,23.959999084472656,23.959999084472656,400.0
2020-02-27,23.875999450683594,23.67900085449219,23.875999450683594,23.67900085449219,9500.0
2020-02-28,23.6879997253418,23.15500068664551,23.57999992370605,23.6879997253418,5400.0
2020-03-02,23.56999969482422,23.26000022888184,23.28000068664551,23.56999969482422,3400.0
2020-03-03,23.687000274658203,23.32500076293945,23.32500076293945,23.38400077819824,1400.0
2020-03-04,23.511999130249023,23.43000030517578,23.43000030517578,23.43000030517578,900.0
2020-03-05,23.742000579833984,23.60000038146973,23.742000579833984,23.60000038146973,500.0
2020-03-06,23.35000038146973,23.13999938964844,23.35000038146973,23.35000038146973,2600.0
2020-03-09,22.489999771118164,22.350000381469727,22.489999771118164,22.350000381469727,3400.0
2020-03-10,23.0,23.0,23.0,23.0,500.0
2020-03-11,22.60000038146973,22.40999984741211,22.58699989318848,22.40999984741211,3400.0
2020-03-12,21.0,20.479999542236328,21.0,20.68899917602539,2200.0
2020-03-13,21.62700080871582,21.11000061035156,21.11000061035156,21.62700080871582,300.0
2020-03-16,19.88999938964844,19.65399932861328,19.88999938964844,19.65399932861328,2300.0
2020-03-17,20.85099983215332,20.239999771118164,20.239999771118164,20.85099983215332,5900.0
2020-03-18,19.833999633789066,19.729999542236328,19.804000854492188,19.833999633789066,1900.0
2020-03-19,19.5,19.0,19.0,19.2810001373291,1100.0
2020-03-20,19.700000762939453,19.29800033569336,19.6299991607666,19.29800033569336,7900.0
2020-03-23,19.01000022888184,18.770999908447266,19.01000022888184,18.871000289916992,700.0
2020-03-24,19.82999992370605,19.3799991607666,19.75,19.82999992370605,2700.0
2020-03-25,20.533000946044922,20.266000747680664,20.38999938964844,20.399999618530273,1000.0
2020-03-26,21.149999618530273,20.88999938964844,20.88999938964844,21.149999618530273,200.0
2020-03-27,20.15999984741211,19.75,20.01000022888184,19.98699951171875,1300.0
2020-03-30,20.3700008392334,20.26499938964844,20.270000457763672,20.3700008392334,1100.0
2020-03-31,20.780000686645508,20.47800064086914,20.780000686645508,20.520000457763672,700.0
2020-04-01,20.405000686645508,20.006999969482425,20.405000686645508,20.006999969482425,100.0
2020-04-02,20.649999618530273,20.325000762939453,20.3799991607666,20.649999618530273,1200.0
2020-04-03,20.56999969482422,20.548999786376953,20.56999969482422,20.548999786376953,300.0
2020-04-06,21.450000762939453,21.01000022888184,21.26000022888184,21.450000762939453,900.0
2020-04-07,21.780000686645508,21.520000457763672,21.780000686645508,21.650999069213867,1900.0
2020-04-08,21.756000518798828,21.47599983215332,21.47599983215332,21.756000518798828,200.0
2020-04-09,21.756000518798828,21.756000518798828,21.756000518798828,21.756000518798828,0.0
2020-04-13,21.725000381469727,21.59000015258789,21.68000030517578,21.725000381469727,1400.0
2020-04-14,22.143999099731445,22.09000015258789,22.09000015258789,22.143999099731445,200.0
2020-04-15,21.81999969482422,21.6200008392334,21.6200008392334,21.798999786376953,2900.0
2020-04-16,21.68600082397461,21.604999542236328,21.604999542236328,21.68600082397461,1000.0
2020-04-17,21.68600082397461,21.68600082397461,21.68600082397461,21.68600082397461,0.0
2020-04-20,22.179000854492188,22.179000854492188,22.179000854492188,22.179000854492188,0.0
2020-04-21,21.32999992370605,21.28199958801269,21.32999992370605,21.28199958801269,400.0
2020-04-22,21.28199958801269,21.28199958801269,21.28199958801269,21.28199958801269,0.0
2020-04-23,21.621000289916992,21.621000289916992,21.621000289916992,21.621000289916992,0.0
2020-04-24,21.64900016784668,21.64900016784668,21.64900016784668,21.64900016784668,0.0
2020-04-27,21.878999710083008,21.878000259399414,21.878000259399414,21.878999710083008,100.0
2020-04-28,22.100000381469727,21.98900032043457,22.100000381469727,21.98900032043457,300.0
2020-04-29,22.21999931335449,22.1299991607666,22.1299991607666,22.211000442504886,500.0
2020-04-30,21.88999938964844,21.88999938964844,21.88999938964844,21.88999938964844,300.0
2020-05-01,21.489999771118164,21.08099937438965,21.489999771118164,21.08099937438965,400.0
2020-05-04,21.08099937438965,21.08099937438965,21.08099937438965,21.08099937438965,0.0
2020-05-05,21.354999542236328,21.354999542236328,21.354999542236328,21.354999542236328,0.0
2020-05-06,21.53400039672852,21.53400039672852,21.53400039672852,21.53400039672852,0.0
2020-05-07,21.68000030517578,21.61400032043457,21.68000030517578,21.61400032043457,400.0
2020-05-08,21.61400032043457,21.61400032043457,21.61400032043457,21.61400032043457,0.0
2020-05-11,22.006999969482425,22.006999969482425,22.006999969482425,22.006999969482425,100.0
2020-05-12,21.816999435424805,21.816999435424805,21.816999435424805,21.816999435424805,100.0
2020-05-13,21.604000091552734,21.604000091552734,21.604000091552734,21.604000091552734,0.0
2020-05-14,21.573999404907227,21.489999771118164,21.507999420166016,21.573999404907227,900.0
2020-05-15,21.347000122070312,21.347000122070312,21.347000122070312,21.347000122070312,100.0
2020-05-18,22.06999969482422,21.940000534057614,21.940000534057614,22.06999969482422,400.0
2020-05-19,22.299999237060547,22.0939998626709,22.11000061035156,22.0939998626709,1500.0
2020-05-20,22.31999969482422,22.31999969482422,22.31999969482422,22.31999969482422,100.0
2020-05-21,21.75,21.45800018310547,21.75,21.54599952697754,1500.0
2020-05-22,20.549999237060547,20.399999618530273,20.483999252319336,20.474000930786133,1800.0
2020-05-26,20.93099975585937,20.724000930786133,20.93000030517578,20.724000930786133,3200.0
2020-05-27,20.441999435424805,20.32999992370605,20.441999435424805,20.420000076293945,1700.0
2020-05-28,20.540000915527344,20.43600082397461,20.489999771118164,20.43600082397461,1500.0
2020-05-29,20.641000747680664,20.319000244140625,20.319000244140625,20.641000747680664,800.0
2020-06-01,21.21999931335449,21.0,21.0,21.21999931335449,1000.0
2020-06-02,21.871999740600586,21.6299991607666,21.6299991607666,21.871999740600586,600.0
2020-06-03,22.1299991607666,21.989999771118164,22.0,22.0,5700.0
2020-06-04,22.06999969482422,21.979999542236328,22.020000457763672,22.023000717163086,500.0
2020-06-05,22.70000076293945,22.70000076293945,22.70000076293945,22.70000076293945,800.0
2020-06-08,22.8799991607666,22.690000534057614,22.69599914550781,22.8799991607666,2600.0
2020-06-09,23.06999969482422,23.06999969482422,23.06999969482422,23.06999969482422,400.0
2020-06-10,22.97100067138672,22.84700012207031,22.899999618530273,22.97100067138672,1500.0
2020-06-11,21.739999771118164,21.739999771118164,21.739999771118164,21.739999771118164,300.0
2020-06-12,22.200000762939453,22.01000022888184,22.01000022888184,22.200000762939453,400.0
2020-06-15,21.96999931335449,21.729999542236328,21.729999542236328,21.96999931335449,500.0
2020-06-16,22.0629997253418,21.979999542236328,21.979999542236328,22.0629997253418,2100.0
2020-06-17,22.30299949645996,22.229999542236328,22.229999542236328,22.30299949645996,300.0
2020-06-18,22.399999618530273,22.399999618530273,22.399999618530273,22.399999618530273,100.0
2020-06-19,22.336000442504886,22.336000442504886,22.336000442504886,22.336000442504886,100.0
2020-06-22,22.65500068664551,22.65500068664551,22.65500068664551,22.65500068664551,100.0
2020-06-23,22.93000030517578,22.85400009155273,22.93000030517578,22.85400009155273,500.0
2020-06-24,22.666000366210934,22.60000038146973,22.60000038146973,22.666000366210934,100.0
2020-06-25,22.76000022888184,22.670000076293945,22.67499923706055,22.76000022888184,800.0
2020-06-26,22.76000022888184,22.76000022888184,22.76000022888184,22.76000022888184,700.0
2020-06-29,22.51000022888184,22.51000022888184,22.51000022888184,22.51000022888184,300.0
2020-06-30,22.54999923706055,22.489999771118164,22.54999923706055,22.489999771118164,600.0
2020-07-01,22.709999084472656,22.61000061035156,22.65999984741211,22.61000061035156,900.0
2020-07-02,23.270000457763672,23.270000457763672,23.270000457763672,23.270000457763672,400.0
2020-07-06,24.45000076293945,24.170000076293945,24.170000076293945,24.3799991607666,10000.0
2020-07-07,23.88999938964844,23.75,23.82999992370605,23.75,1500.0
2020-07-08,24.040000915527344,23.84900093078613,23.84900093078613,24.040000915527344,1000.0
2020-07-09,23.81999969482422,23.670000076293945,23.790000915527344,23.670000076293945,900.0
2020-07-10,23.54999923706055,23.45100021362305,23.5,23.489999771118164,900.0
2020-07-13,23.86000061035156,23.540000915527344,23.61000061035156,23.540000915527344,1900.0
2020-07-14,23.68000030517578,23.46999931335449,23.46999931335449,23.649999618530273,400.0
2020-07-15,23.520000457763672,23.290000915527344,23.520000457763672,23.290000915527344,600.0
2020-07-16,22.84000015258789,22.809999465942386,22.84000015258789,22.809999465942386,600.0
2020-07-17,23.04999923706055,22.90999984741211,23.04999923706055,22.920000076293945,900.0
2020-07-20,22.8799991607666,22.8799991607666,22.8799991607666,22.8799991607666,400.0
2020-07-21,23.25,23.059999465942386,23.25,23.059999465942386,1900.0
2020-07-22,22.809999465942386,22.70800018310547,22.809999465942386,22.75,500.0
2020-07-23,22.78000068664551,22.6299991607666,22.76000022888184,22.6299991607666,500.0
2020-07-24,22.53000068664551,22.43000030517578,22.43000030517578,22.5,1500.0
2020-07-27,22.5,22.350000381469727,22.5,22.427000045776367,300.0
2020-07-28,22.440000534057614,22.440000534057614,22.440000534057614,22.440000534057614,300.0
2020-07-29,22.649999618530273,22.649999618530273,22.649999618530273,22.649999618530273,300.0
2020-07-30,22.649999618530273,22.499000549316406,22.499000549316406,22.649999618530273,900.0
2020-07-31,22.54999923706055,22.3700008392334,22.54999923706055,22.48500061035156,1700.0
2020-08-03,22.64299964904785,22.64299964904785,22.64299964904785,22.64299964904785,100.0
2020-08-04,23.06999969482422,23.06999969482422,23.06999969482422,23.06999969482422,100.0
2020-08-05,23.12299919128418,23.10000038146973,23.10000038146973,23.12299919128418,500.0
2020-08-06,23.03000068664551,23.03000068664551,23.03000068664551,23.03000068664551,100.0
2020-08-07,22.770000457763672,22.729999542236328,22.729999542236328,22.770000457763672,1000.0
2020-08-10,22.899999618530273,22.809999465942386,22.809999465942386,22.899999618530273,500.0
2020-08-11,23.190000534057614,23.06999969482422,23.1299991607666,23.06999969482422,900.0
2020-08-12,23.649999618530273,23.5939998626709,23.649999618530273,23.5939998626709,200.0
2020-08-13,23.649999618530273,23.59000015258789,23.649999618530273,23.59000015258789,700.0
2020-08-14,23.59000015258789,23.57999992370605,23.57999992370605,23.59000015258789,400.0
2020-08-17,23.82999992370605,23.75,23.82999992370605,23.75,700.0
2020-08-18,23.684999465942386,23.59000015258789,23.59000015258789,23.649999618530273,900.0
2020-08-19,23.420000076293945,23.420000076293945,23.420000076293945,23.420000076293945,300.0
2020-08-20,23.28000068664551,23.28000068664551,23.28000068664551,23.28000068664551,200.0
2020-08-21,23.520000457763672,23.479999542236328,23.479999542236328,23.520000457763672,300.0
2020-08-24,23.899999618530273,23.899999618530273,23.899999618530273,23.899999618530273,300.0
2020-08-25,24.01000022888184,23.979999542236328,24.01000022888184,23.979999542236328,757.0
