Date,High,Low,Open,Close,Volume
2019-11-18,30.670000076293945,30.591999053955078,30.61000061035156,30.641000747680664,38900
2019-11-19,30.709999084472656,30.56999969482422,30.64900016784668,30.59700012207031,56500
2019-11-20,30.71999931335449,30.433000564575195,30.71999931335449,30.59000015258789,91700
2019-11-21,30.56999969482422,30.489999771118164,30.538000106811523,30.52400016784668,58700
2019-11-22,30.61000061035156,30.51000022888184,30.608999252319336,30.56999969482422,12400
2019-11-25,30.739999771118164,30.68899917602539,30.71999931335449,30.739999771118164,20400
2019-11-26,30.809999465942386,30.709999084472656,30.809999465942386,30.809999465942386,64600
2019-11-27,30.8799991607666,30.77599906921387,30.819000244140625,30.86000061035156,29200
2019-11-29,30.86000061035156,30.78000068664551,30.86000061035156,30.78000068664551,25200
2019-12-02,30.70499992370605,30.582000732421875,30.70499992370605,30.60300064086914,30900
2019-12-03,30.540000915527344,30.36000061035156,30.459999084472656,30.489999771118164,63300
2019-12-04,30.67499923706055,30.54999923706055,30.61000061035156,30.645000457763672,8200
2019-12-05,30.70000076293945,30.53199958801269,30.6299991607666,30.65999984741211,87300
2019-12-06,30.899999618530273,30.788000106811523,30.788000106811523,30.80500030517578,98500
2019-12-09,30.809999465942386,30.790000915527344,30.79999923706055,30.790000915527344,3200
2019-12-10,30.81999969482422,30.70100021362305,30.78499984741211,30.70100021362305,10500
2019-12-11,30.85000038146973,30.72100067138672,30.72100067138672,30.79999923706055,5500
2019-12-12,31.04999923706055,30.81999969482422,31.01799964904785,30.982999801635746,6400
2019-12-13,31.048999786376953,30.920000076293945,30.98600006103516,30.981000900268555,23900
2019-12-16,32.53300094604492,31.03899955749512,31.03899955749512,32.53300094604492,5700
2019-12-17,31.13999938964844,31.12100028991699,31.13999938964844,31.13800048828125,8600
2019-12-18,31.21999931335449,31.10000038146973,31.209999084472656,31.158000946044922,26300
2019-12-19,31.270000457763672,31.13999938964844,31.17900085449219,31.209999084472656,48400
2019-12-20,31.3700008392334,31.27599906921387,31.35000038146973,31.319000244140625,24200
2019-12-23,31.399999618530273,31.26000022888184,31.399999618530273,31.309999465942386,14600
2019-12-24,31.35000038146973,31.29999923706055,31.309999465942386,31.30500030517578,6200
2019-12-26,31.43000030517578,31.30299949645996,31.30500030517578,31.43000030517578,8900
2019-12-27,31.46999931335449,31.30900001525879,31.30900001525879,31.3799991607666,41200
2019-12-30,31.35000038146973,31.27199935913086,31.27199935913086,31.29400062561035,27500
2019-12-31,31.336000442504886,31.21999931335449,31.28000068664551,31.336000442504886,2100
2020-01-02,31.520000457763672,31.415000915527344,31.51000022888184,31.513999938964844,7700
2020-01-03,31.47900009155273,31.391000747680664,31.417999267578125,31.40099906921387,3300
2020-01-06,31.489999771118164,31.29999923706055,31.29999923706055,31.45000076293945,17900
2020-01-07,31.520000457763672,31.420000076293945,31.520000457763672,31.440000534057614,11500
2020-01-08,31.57999992370605,31.43600082397461,31.540000915527344,31.50200080871582,12300
2020-01-09,31.670000076293945,31.56999969482422,31.649999618530273,31.621999740600586,56600
2020-01-10,31.690000534057614,31.58699989318848,31.60000038146973,31.6299991607666,15900
2020-01-13,31.739999771118164,31.584999084472656,31.670000076293945,31.649999618530273,141200
2020-01-14,31.790000915527344,31.6200008392334,31.636999130249023,31.68899917602539,9000
2020-01-15,31.809999465942386,31.709999084472656,31.78000068664551,31.763999938964844,18400
2020-01-16,31.899999618530273,31.80500030517578,31.815000534057614,31.88599967956543,28300
2020-01-17,31.96999931335449,31.899999618530273,31.899999618530273,31.93600082397461,32500
2020-01-21,31.979999542236328,31.858999252319336,31.979999542236328,31.88999938964844,48800
2020-01-22,31.959999084472656,31.91699981689453,31.95000076293945,31.91900062561035,8000
2020-01-23,31.989999771118164,31.82500076293945,31.85000038146973,31.989999771118164,3900
2020-01-24,31.98900032043457,31.75,31.98900032043457,31.770999908447266,4000
2020-01-27,31.60000038146973,31.46999931335449,31.60000038146973,31.496999740600586,44000
2020-01-28,31.73900032043457,31.642000198364254,31.642000198364254,31.69599914550781,3300
2020-01-29,31.770000457763672,31.673999786376953,31.74900054931641,31.673999786376953,2000
2020-01-30,31.711000442504886,31.46500015258789,31.56399917602539,31.711000442504886,3000
2020-01-31,31.709999084472656,31.354999542236328,31.663000106811523,31.399999618530273,26000
2020-02-03,31.60000038146973,31.45000076293945,31.60000038146973,31.53000068664551,5600
2020-02-04,31.899999618530273,31.73500061035156,31.79999923706055,31.795000076293945,9500
2020-02-05,32.040000915527344,31.895000457763672,31.895000457763672,31.96500015258789,4900
2020-02-06,32.130001068115234,31.989999771118164,32.130001068115234,32.01900100708008,36100
2020-02-07,32.029998779296875,31.90999984741211,31.90999984741211,31.94499969482422,5100
2020-02-10,32.110000610351555,31.81999969482422,31.81999969482422,32.05899810791016,2700
2020-02-11,32.259998321533196,32.03200149536133,32.25,32.095001220703125,66100
2020-02-12,32.25,32.141998291015625,32.141998291015625,32.192001342773445,2600
2020-02-13,32.25,32.150001525878906,32.19900131225586,32.191001892089844,3200
2020-02-14,32.25,32.13100051879883,32.13100051879883,32.185001373291016,1900
2020-02-18,32.25,32.040000915527344,32.040000915527344,32.19499969482422,10400
2020-02-19,32.330001831054695,32.18000030517578,32.290000915527344,32.310001373291016,6600
2020-02-20,32.22999954223633,32.174999237060554,32.22999954223633,32.174999237060554,900
2020-02-21,31.989999771118164,31.989999771118164,31.989999771118164,31.989999771118164,100
2020-02-24,31.59000015258789,31.37800025939941,31.5049991607666,31.41200065612793,16500
2020-02-25,31.31999969482422,30.82999992370605,31.31999969482422,30.908000946044922,187600
2020-02-26,31.21999931335449,30.67600059509277,31.065000534057614,30.809999465942386,72200
2020-02-27,30.709999084472656,29.88999938964844,30.408000946044922,29.88999938964844,555100
2020-02-28,29.746999740600586,29.065000534057614,29.309999465942386,29.542999267578125,112200
2020-03-02,30.68000030517578,29.649999618530273,29.864999771118164,30.68000030517578,246900
2020-03-03,31.40999984741211,29.841999053955078,30.78000068664551,29.940000534057614,70800
2020-03-04,30.93000030517578,30.209999084472656,30.40999984741211,30.93000030517578,62300
2020-03-05,30.4950008392334,29.899999618530273,30.36000061035156,30.040000915527344,44300
2020-03-06,30.024999618530273,29.166000366210934,29.53000068664551,29.72599983215332,88500
2020-03-09,29.72599983215332,28.077999114990234,29.72599983215332,28.36000061035156,105900
2020-03-10,29.01000022888184,27.95000076293945,28.979999542236328,28.88999938964844,49400
2020-03-11,28.60000038146973,27.7549991607666,28.59000015258789,28.0310001373291,76600
2020-03-12,27.582000732421875,24.78000068664551,27.229999542236328,26.18600082397461,97600
2020-03-13,27.35700035095215,23.90500068664551,26.76099967956543,27.35700035095215,16000
2020-03-16,26.756000518798828,25.38500022888184,26.70000076293945,25.395000457763672,24000
2020-03-17,26.40999984741211,24.645000457763672,25.709999084472656,26.21500015258789,68800
2020-03-18,25.46500015258789,24.66699981689453,25.28700065612793,25.142000198364254,26200
2020-03-19,25.908000946044922,25.170000076293945,25.36000061035156,25.548999786376953,2200
2020-03-20,26.11400032043457,24.90999984741211,26.09000015258789,24.90999984741211,9000
2020-03-23,24.80500030517578,23.940000534057614,24.51000022888184,24.590999603271484,58800
2020-03-24,26.13400077819824,25.74099922180176,25.74099922180176,26.13400077819824,1200
2020-03-25,26.84000015258789,26.32200050354004,26.32200050354004,26.333999633789066,4300
2020-03-26,27.229999542236328,26.78000068664551,26.87400054931641,27.229999542236328,24500
2020-03-27,27.059999465942386,26.72400093078613,26.80100059509277,26.756999969482425,4900
2020-03-30,27.34499931335449,27.222999572753906,27.31999969482422,27.28700065612793,3800
2020-03-31,27.57999992370605,27.11000061035156,27.11000061035156,27.26499938964844,7500
2020-04-01,26.56999969482422,26.01099967956543,26.413000106811523,26.218000411987305,3700
2020-04-02,26.642000198364254,26.1299991607666,26.57999992370605,26.642000198364254,29500
2020-04-03,26.540000915527344,26.364999771118164,26.540000915527344,26.40099906921387,3200
2020-04-06,27.731000900268555,27.239999771118164,27.32500076293945,27.731000900268555,5300
2020-04-07,28.07699966430664,27.71500015258789,28.07699966430664,27.71500015258789,102600
2020-04-08,28.215999603271484,27.51000022888184,27.51000022888184,28.215999603271484,18000
2020-04-09,28.729999542236328,28.399999618530273,28.40999984741211,28.516000747680664,10300
2020-04-13,28.29199981689453,28.26000022888184,28.26000022888184,28.29199981689453,200
2020-04-14,28.92900085449219,28.67099952697754,28.67099952697754,28.920000076293945,5200
2020-04-15,28.6299991607666,28.21999931335449,28.309999465942386,28.386999130249023,89500
2020-04-16,28.739999771118164,28.32500076293945,28.739999771118164,28.66900062561035,18200
2020-04-17,29.13999938964844,28.76000022888184,28.910999298095703,29.06399917602539,4400
2020-04-20,29.08799934387207,28.70800018310547,29.03000068664551,28.70800018310547,62500
2020-04-21,28.35000038146973,28.020000457763672,28.07999992370605,28.03899955749512,55700
2020-04-22,28.73699951171875,28.43000030517578,28.54999923706055,28.58799934387207,4000
2020-04-23,28.8799991607666,28.440000534057614,28.81999969482422,28.496999740600586,5000
2020-04-24,28.92900085449219,28.44899940490723,28.60000038146973,28.86000061035156,35100
2020-04-27,29.209999084472656,28.91200065612793,29.10000038146973,29.16399955749512,13800
2020-04-28,29.364999771118164,29.040000915527344,29.364999771118164,29.13999938964844,21200
2020-04-29,29.71999931335449,29.3799991607666,29.3799991607666,29.71999931335449,55400
2020-04-30,29.75,29.17600059509277,29.75,29.489999771118164,38900
2020-05-01,29.059999465942386,28.709999084472656,28.75,28.809999465942386,26300
2020-05-04,28.95000076293945,28.54999923706055,28.77599906921387,28.834999084472656,7600
2020-05-05,29.34600067138672,29.02799987792969,29.26000022888184,29.02799987792969,4000
2020-05-06,29.96999931335449,28.940000534057614,29.020000457763672,28.95000076293945,32800
2020-05-07,29.5,29.15999984741211,29.26000022888184,29.239999771118164,39700
2020-05-08,29.63999938964844,29.29999923706055,29.29999923706055,29.63999938964844,13100
2020-05-11,29.739999771118164,29.53000068664551,29.53000068664551,29.632999420166016,5400
2020-05-12,29.59499931335449,29.158000946044922,29.59499931335449,29.158000946044922,18300
2020-05-13,30.958999633789066,28.71999931335449,29.149999618530273,28.763999938964844,22100
2020-05-14,28.94499969482422,28.45000076293945,28.76000022888184,28.94499969482422,12100
2020-05-15,29.13999938964844,28.920000076293945,28.920000076293945,29.07200050354004,12600
2020-05-18,29.84000015258789,29.70100021362305,29.70100021362305,29.78499984741211,69700
2020-05-19,29.85000038146973,29.52199935913086,29.649999618530273,29.52199935913086,12000
2020-05-20,29.95000076293945,29.75200080871582,29.899999618530273,29.94899940490723,66300
2020-05-21,29.84000015258789,29.57500076293945,29.809999465942386,29.81999969482422,10200
2020-05-22,29.85000038146973,29.649999618530273,29.85000038146973,29.774999618530273,3800
2020-05-26,30.29999923706055,30.040000915527344,30.08300018310547,30.040000915527344,2800
2020-05-27,30.30599975585937,29.8799991607666,30.25,30.30599975585937,14400
2020-05-28,30.54999923706055,30.27599906921387,30.45000076293945,30.291000366210934,10200
2020-05-29,30.59000015258789,30.13999938964844,30.31999969482422,30.43000030517578,79800
2020-06-01,30.49900054931641,30.290000915527344,30.290000915527344,30.45599937438965,4800
2020-06-02,30.58099937438965,30.3700008392334,30.3799991607666,30.58099937438965,20200
2020-06-03,30.99900054931641,30.71500015258789,30.84000015258789,30.888999938964844,60500
2020-06-04,30.93000030517578,30.670000076293945,30.93000030517578,30.791000366210934,25400
2020-06-05,31.46999931335449,31.17200088500977,31.36000061035156,31.368999481201172,132700
2020-06-08,31.524999618530273,31.28000068664551,31.28000068664551,31.51300048828125,23900
2020-06-09,31.440000534057614,31.239999771118164,31.239999771118164,31.25,12500
2020-06-10,31.420000076293945,31.21500015258789,31.290000915527344,31.270000457763672,22800
2020-06-11,30.768999099731445,29.97400093078613,30.6299991607666,29.97500038146973,57700
2020-06-12,30.410999298095703,29.93000030517578,30.31999969482422,30.291000366210934,28600
2020-06-15,30.59000015258789,29.93000030517578,29.93000030517578,30.38400077819824,3100
2020-06-16,31.11000061035156,30.613000869750977,31.11000061035156,30.82999992370605,31800
2020-06-17,30.915000915527344,30.667999267578125,30.82999992370605,30.709999084472656,145100
2020-06-18,30.770000457763672,30.52199935913086,30.631999969482425,30.71199989318848,6700
2020-06-19,31.13999938964844,30.506999969482425,31.11000061035156,30.666000366210934,73900
2020-06-22,30.81800079345703,30.506999969482425,30.506999969482425,30.79999923706055,10000
2020-06-23,31.13999938964844,30.80900001525879,31.13999938964844,30.86000061035156,73600
2020-06-24,30.729999542236328,30.209999084472656,30.729999542236328,30.36000061035156,21800
2020-06-25,30.670000076293945,30.26799964904785,30.309999465942386,30.670000076293945,29300
2020-06-26,30.26000022888184,30.07399940490723,30.11000061035156,30.10099983215332,34900
2020-06-29,30.459999084472656,30.048999786376953,30.145000457763672,30.381000518798828,27500
2020-06-30,30.88999938964844,30.46999931335449,30.5,30.70000076293945,17200
2020-07-01,30.959999084472656,30.768999099731445,30.90999984741211,30.86599922180176,25900
2020-07-02,31.15999984741211,30.97500038146973,31.059999465942386,30.97500038146973,98400
2020-07-06,31.38999938964844,31.1200008392334,31.28000068664551,31.38999938964844,14900
2020-07-07,31.28700065612793,31.09000015258789,31.1200008392334,31.09000015258789,29400
2020-07-08,31.26000022888184,31.0,31.239999771118164,31.18400001525879,12200
2020-07-09,31.3799991607666,30.920000076293945,31.3799991607666,31.170000076293945,19500
2020-07-10,31.357999801635746,31.09900093078613,31.10000038146973,31.21999931335449,20500
2020-07-13,31.6200008392334,31.11000061035156,31.5,31.149999618530273,21700
2020-07-14,31.399999618530273,30.899999618530273,30.90999984741211,31.371999740600586,28100
2020-07-15,31.63999938964844,31.381000518798828,31.63999938964844,31.43000030517578,20600
2020-07-16,31.51000022888184,31.35000038146973,31.35000038146973,31.4950008392334,5900
2020-07-17,31.645000457763672,31.513999938964844,31.540000915527344,31.63999938964844,13900
2020-07-20,31.763999938964844,31.57999992370605,31.709999084472656,31.763999938964844,7900
2020-07-21,31.92200088500977,31.731000900268555,31.77899932861328,31.73600006103516,7700
2020-07-22,31.8700008392334,31.690000534057614,31.774999618530273,31.770000457763672,19200
2020-07-23,31.95800018310547,31.51000022888184,31.75,31.649999618530273,15200
2020-07-24,31.55599975585937,31.37700080871582,31.43000030517578,31.440000534057614,9800
2020-07-27,31.70400047302246,31.540000915527344,31.63999938964844,31.64900016784668,29200
2020-07-28,31.76000022888184,31.57999992370605,31.690000534057614,31.57999992370605,16800
2020-07-29,31.86000061035156,31.56999969482422,31.65500068664551,31.78499984741211,7900
2020-07-30,31.790000915527344,31.5,31.53000068664551,31.697999954223636,459400
2020-07-31,31.86000061035156,31.65999984741211,31.86000061035156,31.82500076293945,4900
2020-08-03,32.09000015258789,31.76000022888184,31.76000022888184,31.979999542236328,92800
2020-08-04,32.11999893188477,31.95000076293945,32.009998321533196,32.042999267578125,11500
2020-08-05,32.27000045776367,32.150001525878906,32.150001525878906,32.16299819946289,28000
2020-08-06,32.360000610351555,32.080001831054695,32.169998168945305,32.28300094604492,18700
2020-08-07,32.388999938964844,32.21900177001953,32.36999893188477,32.323001861572266,35000
2020-08-10,32.439998626708984,32.237998962402344,32.435001373291016,32.352001190185554,4800
2020-08-11,32.455001831054695,32.150001525878906,32.36199951171875,32.194000244140625,41000
2020-08-12,32.549999237060554,32.310001373291016,32.310001373291016,32.44699859619141,19100
2020-08-13,32.56800079345703,32.36800003051758,32.529998779296875,32.5,22500
2020-08-14,32.43000030517578,32.42100143432617,32.428001403808594,32.42100143432617,2300
2020-08-17,32.61999893188477,32.47499847412109,32.610000610351555,32.61999893188477,7100
2020-08-18,32.62900161743164,32.527999877929695,32.62900161743164,32.623001098632805,3700
2020-08-19,32.689998626708984,32.43000030517578,32.630001068115234,32.43000030517578,40700
2020-08-20,32.60900115966797,32.400001525878906,32.400001525878906,32.553001403808594,17300
2020-08-21,32.69900131225586,32.459999084472656,32.544998168945305,32.61999893188477,66700
2020-08-24,32.810001373291016,32.669998168945305,32.75,32.74300003051758,13100
2020-08-25,32.78879928588867,32.65999984741211,32.65999984741211,32.72829818725586,2664
