Date,High,Low,Open,Close,Volume
2016-08-22,25.10000038146973,25.10000038146973,25.10000038146973,25.10000038146973,202000.0
2016-08-23,25.29999923706055,25.229999542236328,25.229999542236328,25.270000457763672,3900.0
2016-08-24,25.270000457763672,25.270000457763672,25.270000457763672,25.270000457763672,0.0
2016-08-25,24.90999984741211,24.90999984741211,24.90999984741211,24.90999984741211,800.0
2016-08-26,24.90999984741211,24.90999984741211,24.90999984741211,24.90999984741211,0.0
2016-08-29,25.10000038146973,24.989999771118164,25.03000068664551,25.10000038146973,1800.0
2016-08-30,25.5,25.038000106811523,25.5,25.038000106811523,5700.0
2016-08-31,25.5,25.5,25.5,25.5,200.0
2016-09-01,24.95000076293945,24.8799991607666,24.940000534057614,24.8799991607666,2300.0
2016-09-02,24.95000076293945,24.899999618530273,24.95000076293945,24.899999618530273,200.0
2016-09-06,24.899999618530273,24.899999618530273,24.899999618530273,24.899999618530273,100.0
2016-09-07,25.40999984741211,25.23500061035156,25.399999618530273,25.40999984741211,1800.0
2016-09-08,25.26000022888184,25.26000022888184,25.26000022888184,25.26000022888184,100.0
2016-09-09,25.21999931335449,24.670000076293945,25.21999931335449,24.670000076293945,4900.0
2016-09-12,24.729999542236328,24.64800071716309,24.690000534057614,24.729999542236328,1200.0
2016-09-13,24.79999923706055,24.709999084472656,24.79999923706055,24.709999084472656,400.0
2016-09-14,24.790000915527344,24.65999984741211,24.69099998474121,24.65999984741211,1300.0
2016-09-15,24.989999771118164,24.989999771118164,24.989999771118164,24.989999771118164,1300.0
2016-09-16,24.87400054931641,24.85400009155273,24.85400009155273,24.87400054931641,600.0
2016-09-19,24.87400054931641,24.87400054931641,24.87400054931641,24.87400054931641,0.0
2016-09-20,24.899999618530273,24.899999618530273,24.899999618530273,24.899999618530273,200.0
2016-09-21,25.190000534057614,24.95100021362305,24.95100021362305,25.167999267578125,2600.0
2016-09-22,25.399999618530273,25.34000015258789,25.3799991607666,25.399999618530273,500.0
2016-09-23,25.32999992370605,25.20000076293945,25.31999969482422,25.270000457763672,1200.0
2016-09-26,24.899999618530273,24.899999618530273,24.899999618530273,24.899999618530273,400.0
2016-09-27,25.190000534057614,25.09000015258789,25.09000015258789,25.190000534057614,1000.0
2016-09-28,25.190000534057614,25.190000534057614,25.190000534057614,25.190000534057614,0.0
2016-09-29,25.239999771118164,25.0,25.239999771118164,25.0,1300.0
2016-09-30,25.209999084472656,25.15999984741211,25.209999084472656,25.15999984741211,500.0
2016-10-03,25.15999984741211,25.15999984741211,25.15999984741211,25.15999984741211,0.0
2016-10-04,25.15999984741211,25.15999984741211,25.15999984741211,25.15999984741211,0.0
2016-10-05,25.15999984741211,25.15999984741211,25.15999984741211,25.15999984741211,0.0
2016-10-06,25.13999938964844,25.1299991607666,25.1299991607666,25.13999938964844,600.0
2016-10-07,25.13999938964844,25.13999938964844,25.13999938964844,25.13999938964844,0.0
2016-10-10,25.05299949645996,25.024999618530273,25.024999618530273,25.03000068664551,500.0
2016-10-11,25.03000068664551,25.03000068664551,25.03000068664551,25.03000068664551,0.0
2016-10-12,25.03000068664551,25.03000068664551,25.03000068664551,25.03000068664551,0.0
2016-10-13,25.03000068664551,25.03000068664551,25.03000068664551,25.03000068664551,0.0
2016-10-14,25.03000068664551,25.03000068664551,25.03000068664551,25.03000068664551,0.0
2016-10-17,25.03000068664551,25.03000068664551,25.03000068664551,25.03000068664551,0.0
2016-10-18,25.03000068664551,25.03000068664551,25.03000068664551,25.03000068664551,0.0
2016-10-19,25.03000068664551,25.03000068664551,25.03000068664551,25.03000068664551,100.0
2016-10-20,24.899999618530273,24.899999618530273,24.899999618530273,24.899999618530273,200.0
2016-10-21,24.899999618530273,24.899999618530273,24.899999618530273,24.899999618530273,0.0
2016-10-24,25.149999618530273,25.149999618530273,25.149999618530273,25.149999618530273,200.0
2016-10-25,24.96999931335449,24.96999931335449,24.96999931335449,24.96999931335449,100.0
2016-10-26,24.8799991607666,24.8799991607666,24.8799991607666,24.8799991607666,100.0
2016-10-27,24.68000030517578,24.68000030517578,24.68000030517578,24.68000030517578,200.0
2016-10-28,24.70000076293945,24.61000061035156,24.70000076293945,24.61000061035156,400.0
2016-10-31,24.61000061035156,24.61000061035156,24.61000061035156,24.61000061035156,0.0
2016-11-01,24.61000061035156,24.61000061035156,24.61000061035156,24.61000061035156,0.0
2016-11-02,24.61000061035156,24.61000061035156,24.61000061035156,24.61000061035156,0.0
2016-11-03,24.26000022888184,24.233999252319336,24.26000022888184,24.233999252319336,300.0
2016-11-04,24.233999252319336,24.233999252319336,24.233999252319336,24.233999252319336,0.0
2016-11-07,24.233999252319336,24.233999252319336,24.233999252319336,24.233999252319336,0.0
2016-11-08,24.61000061035156,24.61000061035156,24.61000061035156,24.61000061035156,100.0
2016-11-09,24.69899940490723,24.6299991607666,24.638999938964844,24.69899940490723,1300.0
2016-11-10,24.420000076293945,24.420000076293945,24.420000076293945,24.420000076293945,200.0
2016-11-11,24.420000076293945,24.420000076293945,24.420000076293945,24.420000076293945,0.0
2016-11-14,24.309999465942386,24.270000457763672,24.270000457763672,24.309999465942386,7400.0
2016-11-15,24.309999465942386,24.309999465942386,24.309999465942386,24.309999465942386,0.0
2016-11-16,24.309999465942386,24.309999465942386,24.309999465942386,24.309999465942386,0.0
2016-11-17,24.8799991607666,24.8799991607666,24.8799991607666,24.8799991607666,200.0
2016-11-18,24.899999618530273,24.790000915527344,24.899999618530273,24.790000915527344,600.0
2016-11-21,24.920000076293945,24.81999969482422,24.81999969482422,24.920000076293945,1600.0
2016-11-22,24.920000076293945,24.920000076293945,24.920000076293945,24.920000076293945,0.0
2016-11-23,24.979999542236328,24.979999542236328,24.979999542236328,24.979999542236328,100.0
2016-11-25,24.979999542236328,24.979999542236328,24.979999542236328,24.979999542236328,0.0
2016-11-28,25.01000022888184,25.01000022888184,25.01000022888184,25.01000022888184,200.0
2016-11-29,24.88999938964844,24.88999938964844,24.88999938964844,24.88999938964844,200.0
2016-11-30,24.78499984741211,24.78499984741211,24.78499984741211,24.78499984741211,100.0
2016-12-01,24.78499984741211,24.78499984741211,24.78499984741211,24.78499984741211,100.0
2016-12-02,24.78499984741211,24.78499984741211,24.78499984741211,24.78499984741211,0.0
2016-12-05,24.70000076293945,24.70000076293945,24.70000076293945,24.70000076293945,100.0
2016-12-06,24.70000076293945,24.70000076293945,24.70000076293945,24.70000076293945,0.0
2016-12-07,25.1299991607666,25.1299991607666,25.1299991607666,25.1299991607666,200.0
2016-12-08,25.1299991607666,25.1299991607666,25.1299991607666,25.1299991607666,0.0
2016-12-09,25.239999771118164,24.8799991607666,25.239999771118164,25.18600082397461,3900.0
2016-12-12,25.18600082397461,25.18600082397461,25.18600082397461,25.18600082397461,0.0
2016-12-13,25.239999771118164,25.239999771118164,25.239999771118164,25.239999771118164,100.0
2016-12-14,25.239999771118164,25.239999771118164,25.239999771118164,25.239999771118164,0.0
2016-12-15,25.007999420166016,24.96999931335449,25.007999420166016,24.96999931335449,400.0
2016-12-16,25.25,25.25,25.25,25.25,100.0
2016-12-19,25.25,25.25,25.25,25.25,0.0
2016-12-20,25.25,25.25,25.25,25.25,0.0
2016-12-21,25.040000915527344,25.01000022888184,25.01000022888184,25.040000915527344,500.0
2016-12-22,25.040000915527344,25.040000915527344,25.040000915527344,25.040000915527344,0.0
2016-12-23,25.0,25.0,25.0,25.0,200.0
2016-12-27,24.92300033569336,24.8799991607666,24.8799991607666,24.92300033569336,300.0
2016-12-28,24.920000076293945,24.920000076293945,24.920000076293945,24.920000076293945,200.0
2016-12-29,24.940000534057614,24.93400001525879,24.93400001525879,24.940000534057614,400.0
2016-12-30,24.940000534057614,24.940000534057614,24.940000534057614,24.940000534057614,0.0
2017-01-03,24.80599975585937,24.80599975585937,24.80599975585937,24.80599975585937,200.0
2017-01-04,25.1299991607666,25.1299991607666,25.1299991607666,25.1299991607666,1000.0
2017-01-05,25.040000915527344,25.040000915527344,25.040000915527344,25.040000915527344,200.0
2017-01-06,25.149999618530273,25.149999618530273,25.149999618530273,25.149999618530273,100.0
2017-01-09,25.309999465942386,25.268999099731445,25.270000457763672,25.309999465942386,1200.0
2017-01-10,25.38999938964844,25.25,25.25,25.34000015258789,800.0
2017-01-11,25.36000061035156,25.35000038146973,25.36000061035156,25.36000061035156,800.0
2017-01-12,25.36000061035156,25.36000061035156,25.36000061035156,25.36000061035156,0.0
2017-01-13,25.36000061035156,25.36000061035156,25.36000061035156,25.36000061035156,0.0
2017-01-17,25.36000061035156,25.36000061035156,25.36000061035156,25.36000061035156,0.0
2017-01-18,25.36000061035156,25.36000061035156,25.36000061035156,25.36000061035156,0.0
2017-01-19,25.38999938964844,25.354999542236328,25.38999938964844,25.354999542236328,300.0
2017-01-20,25.290000915527344,25.288000106811523,25.290000915527344,25.288000106811523,1300.0
2017-01-23,25.288000106811523,25.288000106811523,25.288000106811523,25.288000106811523,0.0
2017-01-24,25.690000534057614,25.46999931335449,25.46999931335449,25.690000534057614,700.0
2017-01-25,25.840999603271484,25.840999603271484,25.840999603271484,25.840999603271484,200.0
2017-01-26,25.840999603271484,25.840999603271484,25.840999603271484,25.840999603271484,0.0
2017-01-27,25.840999603271484,25.840999603271484,25.840999603271484,25.840999603271484,0.0
2017-01-30,25.540000915527344,25.540000915527344,25.540000915527344,25.540000915527344,400.0
2017-01-31,25.5,25.43099975585937,25.5,25.43099975585937,200.0
2017-02-01,25.54999923706055,25.54999923706055,25.54999923706055,25.54999923706055,200.0
2017-02-02,25.54999923706055,25.54999923706055,25.54999923706055,25.54999923706055,0.0
2017-02-03,25.670000076293945,25.65999984741211,25.65999984741211,25.670000076293945,300.0
2017-02-06,25.582000732421875,25.582000732421875,25.582000732421875,25.582000732421875,100.0
2017-02-07,25.6200008392334,25.6200008392334,25.6200008392334,25.6200008392334,300.0
2017-02-08,25.6200008392334,25.6200008392334,25.6200008392334,25.6200008392334,0.0
2017-02-09,25.95000076293945,25.93000030517578,25.93000030517578,25.95000076293945,800.0
2017-02-10,25.95000076293945,25.95000076293945,25.95000076293945,25.95000076293945,0.0
2017-02-13,26.04999923706055,26.03000068664551,26.03000068664551,26.04999923706055,800.0
2017-02-14,25.875999450683594,25.875999450683594,25.875999450683594,25.875999450683594,100.0
2017-02-15,26.11000061035156,26.11000061035156,26.11000061035156,26.11000061035156,300.0
2017-02-16,26.11000061035156,26.11000061035156,26.11000061035156,26.11000061035156,0.0
2017-02-17,26.22400093078613,26.15999984741211,26.15999984741211,26.22400093078613,500.0
2017-02-21,26.459999084472656,26.43000030517578,26.43000030517578,26.459999084472656,2000.0
2017-02-22,26.40099906921387,26.40099906921387,26.40099906921387,26.40099906921387,100.0
2017-02-23,26.292999267578125,26.25,26.270000457763672,26.25,1500.0
2017-02-24,26.25,26.25,26.25,26.25,0.0
2017-02-27,26.34000015258789,26.31999969482422,26.31999969482422,26.34000015258789,900.0
2017-02-28,26.34000015258789,26.34000015258789,26.34000015258789,26.34000015258789,0.0
2017-03-01,26.34000015258789,26.34000015258789,26.34000015258789,26.34000015258789,0.0
2017-03-02,26.34000015258789,26.34000015258789,26.34000015258789,26.34000015258789,0.0
2017-03-03,26.34000015258789,26.34000015258789,26.34000015258789,26.34000015258789,0.0
2017-03-06,26.13999938964844,26.13999938964844,26.13999938964844,26.13999938964844,100.0
2017-03-07,26.14299964904785,26.14299964904785,26.14299964904785,26.14299964904785,400.0
2017-03-08,26.14299964904785,26.14299964904785,26.14299964904785,26.14299964904785,0.0
2017-03-09,26.14299964904785,26.14299964904785,26.14299964904785,26.14299964904785,0.0
2017-03-10,26.420000076293945,26.420000076293945,26.420000076293945,26.420000076293945,100.0
2017-03-13,26.420000076293945,26.420000076293945,26.420000076293945,26.420000076293945,0.0
2017-03-14,26.420000076293945,26.420000076293945,26.420000076293945,26.420000076293945,0.0
2017-03-15,26.420000076293945,26.420000076293945,26.420000076293945,26.420000076293945,0.0
2017-03-16,26.420000076293945,26.420000076293945,26.420000076293945,26.420000076293945,0.0
2017-03-17,26.82999992370605,26.82999992370605,26.82999992370605,26.82999992370605,100.0
2017-03-20,26.82999992370605,26.82999992370605,26.82999992370605,26.82999992370605,0.0
2017-03-21,26.899999618530273,26.899999618530273,26.899999618530273,26.899999618530273,200.0
2017-03-22,26.899999618530273,26.899999618530273,26.899999618530273,26.899999618530273,0.0
2017-03-23,26.899999618530273,26.899999618530273,26.899999618530273,26.899999618530273,0.0
2017-03-24,26.899999618530273,26.899999618530273,26.899999618530273,26.899999618530273,0.0
2017-03-27,26.899999618530273,26.899999618530273,26.899999618530273,26.899999618530273,0.0
2017-03-28,26.899999618530273,26.899999618530273,26.899999618530273,26.899999618530273,0.0
2017-03-29,26.899999618530273,26.899999618530273,26.899999618530273,26.899999618530273,0.0
2017-03-30,26.8700008392334,26.8700008392334,26.8700008392334,26.8700008392334,200.0
2017-03-31,26.8700008392334,26.8700008392334,26.8700008392334,26.8700008392334,0.0
2017-04-03,26.8700008392334,26.8700008392334,26.8700008392334,26.8700008392334,0.0
2017-04-04,26.8700008392334,26.8700008392334,26.8700008392334,26.8700008392334,0.0
2017-04-05,26.649999618530273,26.59000015258789,26.59000015258789,26.6200008392334,1900.0
2017-04-06,26.56800079345703,26.46999931335449,26.520000457763672,26.46999931335449,1400.0
2017-04-07,26.46999931335449,26.46999931335449,26.46999931335449,26.46999931335449,0.0
2017-04-10,26.524999618530273,26.524999618530273,26.524999618530273,26.524999618530273,200.0
2017-04-11,26.465999603271484,26.3700008392334,26.3700008392334,26.465999603271484,200.0
2017-04-12,26.71199989318848,26.60000038146973,26.6299991607666,26.60000038146973,700.0
2017-04-13,26.60000038146973,26.60000038146973,26.60000038146973,26.60000038146973,0.0
2017-04-17,26.60000038146973,26.60000038146973,26.60000038146973,26.60000038146973,0.0
2017-04-18,26.649999618530273,26.54199981689453,26.649999618530273,26.54199981689453,600.0
2017-04-19,26.54199981689453,26.54199981689453,26.54199981689453,26.54199981689453,0.0
2017-04-20,26.54199981689453,26.54199981689453,26.54199981689453,26.54199981689453,0.0
2017-04-21,26.54199981689453,26.54199981689453,26.54199981689453,26.54199981689453,0.0
2017-04-24,26.54199981689453,26.54199981689453,26.54199981689453,26.54199981689453,0.0
2017-04-25,27.59000015258789,27.375999450683594,27.56999969482422,27.59000015258789,1100.0
2017-04-26,27.59000015258789,27.59000015258789,27.59000015258789,27.59000015258789,0.0
2017-04-27,27.690000534057614,27.690000534057614,27.690000534057614,27.690000534057614,1000.0
2017-04-28,27.690000534057614,27.690000534057614,27.690000534057614,27.690000534057614,0.0
2017-05-01,27.690000534057614,27.690000534057614,27.690000534057614,27.690000534057614,0.0
2017-05-02,27.920000076293945,27.8700008392334,27.88999938964844,27.8700008392334,400.0
2017-05-03,27.8700008392334,27.8700008392334,27.8700008392334,27.8700008392334,0.0
2017-05-04,27.85000038146973,27.76499938964844,27.85000038146973,27.774999618530273,500.0
2017-05-05,27.95000076293945,27.95000076293945,27.95000076293945,27.95000076293945,100.0
2017-05-08,27.95000076293945,27.95000076293945,27.95000076293945,27.95000076293945,0.0
2017-05-09,28.309999465942386,28.16699981689453,28.28000068664551,28.16699981689453,2200.0
2017-05-10,28.242000579833984,28.242000579833984,28.242000579833984,28.242000579833984,100.0
2017-05-11,28.46999931335449,28.29999923706055,28.29999923706055,28.46999931335449,600.0
2017-05-12,28.51000022888184,28.51000022888184,28.51000022888184,28.51000022888184,100.0
2017-05-15,28.51000022888184,28.51000022888184,28.51000022888184,28.51000022888184,0.0
2017-05-16,28.86000061035156,28.75,28.81999969482422,28.84000015258789,1700.0
2017-05-17,28.559999465942386,28.32999992370605,28.559999465942386,28.32999992370605,300.0
2017-05-18,27.940000534057614,27.940000534057614,27.940000534057614,27.940000534057614,100.0
2017-05-19,27.940000534057614,27.940000534057614,27.940000534057614,27.940000534057614,0.0
2017-05-22,28.86000061035156,28.86000061035156,28.86000061035156,28.86000061035156,300.0
2017-05-23,28.93099975585937,28.85400009155273,28.91699981689453,28.85400009155273,800.0
2017-05-24,29.5,28.920000076293945,29.5,28.92700004577637,2000.0
2017-05-25,29.10000038146973,29.07999992370605,29.07999992370605,29.10000038146973,400.0
2017-05-26,29.02799987792969,28.739999771118164,28.739999771118164,29.02799987792969,700.0
2017-05-30,29.07999992370605,28.97500038146973,29.07999992370605,28.97500038146973,1500.0
2017-05-31,28.96999931335449,28.729999542236328,28.915000915527344,28.729999542236328,2900.0
2017-06-01,28.729999542236328,28.729999542236328,28.729999542236328,28.729999542236328,0.0
2017-06-02,28.729999542236328,28.729999542236328,28.729999542236328,28.729999542236328,0.0
2017-06-05,28.729999542236328,28.729999542236328,28.729999542236328,28.729999542236328,0.0
2017-06-06,29.46999931335449,29.368000030517575,29.46999931335449,29.368000030517575,900.0
2017-06-07,29.368000030517575,29.368000030517575,29.368000030517575,29.368000030517575,0.0
2017-06-08,29.368000030517575,29.368000030517575,29.368000030517575,29.368000030517575,0.0
2017-06-09,29.28000068664551,29.006000518798828,29.28000068664551,29.006000518798828,500.0
2017-06-12,29.006000518798828,29.006000518798828,29.006000518798828,29.006000518798828,0.0
2017-06-13,29.20000076293945,29.13999938964844,29.20000076293945,29.170000076293945,900.0
2017-06-14,29.170000076293945,29.170000076293945,29.170000076293945,29.170000076293945,0.0
2017-06-15,28.88999938964844,28.79999923706055,28.88999938964844,28.79999923706055,300.0
2017-06-16,29.020000457763672,28.93000030517578,29.0,29.020000457763672,800.0
2017-06-19,29.020000457763672,29.020000457763672,29.020000457763672,29.020000457763672,0.0
2017-06-20,29.020000457763672,29.020000457763672,29.020000457763672,29.020000457763672,0.0
2017-06-21,29.020000457763672,29.020000457763672,29.020000457763672,29.020000457763672,0.0
2017-06-22,29.020000457763672,29.020000457763672,29.020000457763672,29.020000457763672,0.0
2017-06-23,29.020000457763672,29.020000457763672,29.020000457763672,29.020000457763672,0.0
2017-06-26,29.40999984741211,29.40999984741211,29.40999984741211,29.40999984741211,600.0
2017-06-27,29.40999984741211,29.40999984741211,29.40999984741211,29.40999984741211,0.0
2017-06-28,29.40999984741211,29.40999984741211,29.40999984741211,29.40999984741211,0.0
2017-06-29,29.40999984741211,29.40999984741211,29.40999984741211,29.40999984741211,0.0
2017-06-30,29.40999984741211,29.40999984741211,29.40999984741211,29.40999984741211,0.0
2017-07-03,29.40999984741211,29.40999984741211,29.40999984741211,29.40999984741211,0.0
2017-07-05,28.93899917602539,28.93899917602539,28.93899917602539,28.93899917602539,100.0
2017-07-06,28.65500068664551,28.59000015258789,28.59000015258789,28.65500068664551,400.0
2017-07-07,28.65500068664551,28.65500068664551,28.65500068664551,28.65500068664551,0.0
2017-07-10,28.65500068664551,28.65500068664551,28.65500068664551,28.65500068664551,0.0
2017-07-11,29.170000076293945,29.03499984741211,29.065000534057614,29.03499984741211,600.0
2017-07-12,29.03499984741211,29.03499984741211,29.03499984741211,29.03499984741211,0.0
2017-07-13,29.76000022888184,29.540000915527344,29.76000022888184,29.540000915527344,7500.0
2017-07-14,30.04999923706055,29.70000076293945,29.70000076293945,29.90999984741211,30300.0
2017-07-17,30.1299991607666,29.84000015258789,29.979999542236328,29.8799991607666,29400.0
2017-07-18,29.81999969482422,29.81999969482422,29.81999969482422,29.81999969482422,100.0
2017-07-19,30.40999984741211,30.10000038146973,30.10000038146973,30.1299991607666,600.0
2017-07-20,30.46999931335449,30.440000534057614,30.46999931335449,30.440000534057614,800.0
2017-07-21,30.31999969482422,30.270000457763672,30.31999969482422,30.309999465942386,800.0
2017-07-24,30.53000068664551,30.309999465942386,30.309999465942386,30.53000068664551,2000.0
2017-07-25,30.51000022888184,30.51000022888184,30.51000022888184,30.51000022888184,600.0
2017-07-26,30.51000022888184,30.51000022888184,30.51000022888184,30.51000022888184,0.0
2017-07-27,30.73500061035156,30.73500061035156,30.73500061035156,30.73500061035156,200.0
2017-07-28,30.79999923706055,30.625999450683594,30.625999450683594,30.79999923706055,800.0
2017-07-31,30.63999938964844,30.520000457763672,30.63999938964844,30.54999923706055,1900.0
2017-08-01,30.666000366210934,30.558000564575195,30.558000564575195,30.666000366210934,700.0
2017-08-02,30.5,30.368999481201172,30.5,30.368999481201172,500.0
2017-08-03,30.60000038146973,30.46999931335449,30.60000038146973,30.5,6300.0
2017-08-04,30.60000038146973,30.51099967956543,30.60000038146973,30.51099967956543,900.0
2017-08-07,30.750999450683594,30.71999931335449,30.71999931335449,30.750999450683594,1000.0
2017-08-08,31.040000915527344,30.979999542236328,30.989999771118164,30.979999542236328,300.0
2017-08-09,30.520000457763672,30.520000457763672,30.520000457763672,30.520000457763672,200.0
2017-08-10,30.520000457763672,30.520000457763672,30.520000457763672,30.520000457763672,0.0
2017-08-11,30.02700042724609,30.02700042724609,30.02700042724609,30.02700042724609,500.0
2017-08-14,30.61400032043457,30.61400032043457,30.61400032043457,30.61400032043457,200.0
2017-08-15,30.45800018310547,30.45800018310547,30.45800018310547,30.45800018310547,100.0
2017-08-16,30.45800018310547,30.45800018310547,30.45800018310547,30.45800018310547,0.0
2017-08-17,30.170000076293945,30.170000076293945,30.170000076293945,30.170000076293945,300.0
2017-08-18,30.31999969482422,30.170000076293945,30.170000076293945,30.28000068664551,500.0
2017-08-21,30.114999771118164,30.114999771118164,30.114999771118164,30.114999771118164,300.0
2017-08-22,30.507999420166016,30.507999420166016,30.507999420166016,30.507999420166016,100.0
2017-08-23,30.51099967956543,30.43000030517578,30.43000030517578,30.51099967956543,700.0
2017-08-24,30.51099967956543,30.51099967956543,30.51099967956543,30.51099967956543,0.0
2017-08-25,30.42200088500977,30.42200088500977,30.42200088500977,30.42200088500977,200.0
2017-08-28,30.24099922180176,30.24099922180176,30.24099922180176,30.24099922180176,100.0
2017-08-29,30.34000015258789,30.29999923706055,30.29999923706055,30.34000015258789,300.0
2017-08-30,30.440000534057614,30.25,30.25,30.43000030517578,600.0
2017-08-31,30.43000030517578,30.43000030517578,30.43000030517578,30.43000030517578,0.0
2017-09-01,31.06999969482422,31.00399971008301,31.06999969482422,31.00399971008301,400.0
2017-09-05,31.00399971008301,31.00399971008301,31.00399971008301,31.00399971008301,0.0
2017-09-06,30.940000534057614,30.93000030517578,30.940000534057614,30.93000030517578,400.0
2017-09-07,30.93000030517578,30.93000030517578,30.93000030517578,30.93000030517578,0.0
2017-09-08,30.93000030517578,30.93000030517578,30.93000030517578,30.93000030517578,0.0
2017-09-11,30.93000030517578,30.93000030517578,30.93000030517578,30.93000030517578,0.0
2017-09-12,31.270000457763672,31.270000457763672,31.270000457763672,31.270000457763672,500.0
2017-09-13,31.291000366210934,31.290000915527344,31.290000915527344,31.291000366210934,1100.0
2017-09-14,31.33799934387207,31.211000442504886,31.33799934387207,31.211000442504886,300.0
2017-09-15,31.42200088500977,31.42200088500977,31.42200088500977,31.42200088500977,400.0
2017-09-18,31.42200088500977,31.42200088500977,31.42200088500977,31.42200088500977,0.0
2017-09-19,31.60000038146973,31.545000076293945,31.545000076293945,31.60000038146973,500.0
2017-09-20,31.670000076293945,31.649999618530273,31.649999618530273,31.670000076293945,300.0
2017-09-21,31.489999771118164,31.3700008392334,31.489999771118164,31.3700008392334,700.0
2017-09-22,31.459999084472656,31.45000076293945,31.459999084472656,31.45000076293945,300.0
2017-09-25,31.45000076293945,31.45000076293945,31.45000076293945,31.45000076293945,0.0
2017-09-26,31.23900032043457,30.88999938964844,31.23900032043457,30.88999938964844,1300.0
2017-09-27,31.22599983215332,31.06599998474121,31.06599998474121,31.15900039672852,400.0
2017-09-28,31.15900039672852,31.15900039672852,31.15900039672852,31.15900039672852,0.0
2017-09-29,31.56800079345703,31.40099906921387,31.559999465942386,31.535999298095703,1700.0
2017-10-02,31.569000244140625,31.559999465942386,31.559999465942386,31.559999465942386,1700.0
2017-10-03,31.79999923706055,31.770000457763672,31.79999923706055,31.770000457763672,2200.0
2017-10-04,31.70000076293945,31.53000068664551,31.70000076293945,31.63400077819824,900.0
2017-10-05,31.88999938964844,31.714000701904297,31.714000701904297,31.88999938964844,1200.0
2017-10-06,31.920000076293945,31.77700042724609,31.85000038146973,31.90999984741211,1100.0
2017-10-09,31.90999984741211,31.90999984741211,31.90999984741211,31.90999984741211,0.0
2017-10-10,32.110000610351555,31.982999801635746,32.110000610351555,32.027999877929695,1400.0
2017-10-11,32.209999084472656,32.042999267578125,32.080001831054695,32.209999084472656,1200.0
2017-10-12,32.189998626708984,32.189998626708984,32.189998626708984,32.189998626708984,300.0
2017-10-13,32.52899932861328,32.294998168945305,32.52899932861328,32.423999786376946,700.0
2017-10-16,32.492000579833984,32.43000030517578,32.43000030517578,32.492000579833984,600.0
2017-10-17,32.380001068115234,32.200000762939446,32.36999893188477,32.200000762939446,900.0
2017-10-18,32.400001525878906,32.27000045776367,32.400001525878906,32.310001373291016,2800.0
2017-10-19,32.080001831054695,31.86000061035156,32.080001831054695,31.88999938964844,1600.0
2017-10-20,32.290000915527344,32.191001892089844,32.22999954223633,32.25,1600.0
2017-10-23,32.200000762939446,32.060001373291016,32.200000762939446,32.060001373291016,1100.0
2017-10-24,32.080001831054695,32.025001525878906,32.049999237060554,32.049999237060554,3800.0
2017-10-25,31.899999618530273,31.60000038146973,31.899999618530273,31.63999938964844,700.0
2017-10-26,31.70000076293945,31.58799934387207,31.70000076293945,31.6200008392334,1700.0
2017-10-27,31.85000038146973,31.768999099731445,31.768999099731445,31.85000038146973,300.0
2017-10-30,31.97500038146973,31.85000038146973,31.85000038146973,31.97500038146973,300.0
2017-10-31,32.209999084472656,32.06999969482422,32.06999969482422,32.189998626708984,1600.0
2017-11-01,32.330001831054695,32.10800170898437,32.330001831054695,32.11999893188477,1000.0
2017-11-02,32.11999893188477,32.11999893188477,32.11999893188477,32.11999893188477,100.0
2017-11-03,32.11999893188477,32.11999893188477,32.11999893188477,32.11999893188477,0.0
2017-11-06,32.700000762939446,32.700000762939446,32.700000762939446,32.700000762939446,300.0
2017-11-07,32.639999389648445,32.34999847412109,32.639999389648445,32.34999847412109,500.0
2017-11-08,32.37200164794922,32.37200164794922,32.37200164794922,32.37200164794922,200.0
2017-11-09,32.360000610351555,32.360000610351555,32.360000610351555,32.360000610351555,100.0
2017-11-10,32.540000915527344,32.40999984741211,32.40999984741211,32.525001525878906,800.0
2017-11-13,32.22999954223633,32.209999084472656,32.209999084472656,32.21099853515625,800.0
2017-11-14,32.21099853515625,32.21099853515625,32.21099853515625,32.21099853515625,0.0
2017-11-15,32.560001373291016,32.439998626708984,32.439998626708984,32.49100112915039,900.0
2017-11-16,32.49100112915039,32.49100112915039,32.49100112915039,32.49100112915039,0.0
2017-11-17,33.351001739501946,33.30899810791016,33.351001739501946,33.30899810791016,500.0
2017-11-20,33.30899810791016,33.30899810791016,33.30899810791016,33.30899810791016,0.0
2017-11-21,33.80500030517578,33.79600143432617,33.79600143432617,33.80500030517578,700.0
2017-11-22,33.86999893188477,33.72499847412109,33.86999893188477,33.84999847412109,1000.0
2017-11-24,33.950000762939446,33.85599899291992,33.86999893188477,33.950000762939446,1000.0
2017-11-27,33.790000915527344,33.720001220703125,33.737998962402344,33.766998291015625,1000.0
2017-11-28,33.958999633789055,33.689998626708984,33.689998626708984,33.88399887084961,700.0
2017-11-29,33.47999954223633,33.0,33.333999633789055,33.452999114990234,1900.0
2017-11-30,33.451000213623054,33.451000213623054,33.451000213623054,33.451000213623054,100.0
2017-12-01,33.34999847412109,33.34999847412109,33.34999847412109,33.34999847412109,200.0
2017-12-04,33.30599975585937,32.970001220703125,33.30599975585937,33.16699981689453,1000.0
2017-12-05,33.424999237060554,33.36999893188477,33.380001068115234,33.36999893188477,600.0
2017-12-06,33.040000915527344,33.040000915527344,33.040000915527344,33.040000915527344,800.0
2017-12-07,33.09999847412109,33.09999847412109,33.09999847412109,33.09999847412109,500.0
2017-12-08,33.900001525878906,33.709999084472656,33.709999084472656,33.762001037597656,800.0
2017-12-11,33.812000274658196,33.812000274658196,33.812000274658196,33.812000274658196,500.0
2017-12-12,33.750999450683594,33.740001678466804,33.740001678466804,33.750999450683594,400.0
2017-12-13,33.750999450683594,33.750999450683594,33.750999450683594,33.750999450683594,0.0
2017-12-14,33.750999450683594,33.750999450683594,33.750999450683594,33.750999450683594,0.0
2017-12-15,34.02899932861328,33.900001525878906,33.900001525878906,33.92599868774414,800.0
2017-12-18,34.46900177001953,34.09000015258789,34.09000015258789,34.46900177001953,1700.0
2017-12-19,34.490001678466804,34.40999984741211,34.490001678466804,34.40999984741211,400.0
2017-12-20,34.55899810791016,34.30500030517578,34.529998779296875,34.30500030517578,700.0
2017-12-21,34.360000610351555,34.360000610351555,34.360000610351555,34.360000610351555,200.0
2017-12-22,34.65999984741211,34.65999984741211,34.65999984741211,34.65999984741211,600.0
2017-12-26,34.59999847412109,34.59999847412109,34.59999847412109,34.59999847412109,500.0
2017-12-27,34.68000030517578,34.529998779296875,34.56999969482422,34.665000915527344,2700.0
2017-12-28,34.700000762939446,34.68899917602539,34.68899917602539,34.700000762939446,300.0
2017-12-29,34.772998809814446,34.7239990234375,34.72900009155273,34.7239990234375,1100.0
2018-01-02,35.0,34.709999084472656,34.709999084472656,34.965999603271484,800.0
2018-01-03,35.34000015258789,35.17100143432617,35.17100143432617,35.34000015258789,56500.0
2018-01-04,35.59000015258789,35.38199996948242,35.59000015258789,35.459999084472656,4300.0
2018-01-05,35.86999893188477,35.56999969482422,35.63999938964844,35.86999893188477,900.0
2018-01-08,36.0099983215332,35.86999893188477,35.97999954223633,36.0099983215332,2100.0
2018-01-09,35.970001220703125,35.970001220703125,35.970001220703125,35.970001220703125,100.0
2018-01-10,35.810001373291016,35.72999954223633,35.810001373291016,35.72999954223633,800.0
2018-01-11,35.81999969482422,35.742000579833984,35.790000915527344,35.810001373291016,2700.0
2018-01-12,36.27999877929688,36.04999923706055,36.04999923706055,36.27999877929688,1600.0
2018-01-16,36.59000015258789,36.0,36.5099983215332,36.02000045776367,3000.0
2018-01-17,36.560001373291016,36.45500183105469,36.560001373291016,36.45500183105469,600.0
2018-01-18,36.52999877929688,36.361000061035156,36.47000122070313,36.45500183105469,2600.0
2018-01-19,36.810001373291016,36.5369987487793,36.66999816894531,36.810001373291016,21500.0
2018-01-22,37.13000106811523,36.78099822998047,36.849998474121094,37.13000106811523,2300.0
2018-01-23,37.36999893188477,37.125,37.13000106811523,37.33000183105469,21400.0
2018-01-24,37.540000915527344,37.1619987487793,37.540000915527344,37.33000183105469,4900.0
2018-01-25,37.71599960327149,37.5099983215332,37.5099983215332,37.63100051879883,900.0
2018-01-26,38.16999816894531,37.849998474121094,37.849998474121094,38.16999816894531,10500.0
2018-01-29,37.91999816894531,37.70000076293945,37.810001373291016,37.70000076293945,2900.0
2018-01-30,37.38999938964844,37.03200149536133,37.13999938964844,37.125,2800.0
2018-01-31,37.79999923706055,37.37200164794922,37.59000015258789,37.52999877929688,5300.0
2018-02-01,37.459999084472656,37.09000015258789,37.09000015258789,37.29999923706055,2100.0
2018-02-02,36.83000183105469,36.310001373291016,36.83000183105469,36.310001373291016,2100.0
2018-02-05,36.20899963378906,35.38999938964844,36.11000061035156,35.38999938964844,2100.0
2018-02-06,35.32099914550781,34.0,34.380001068115234,35.32099914550781,1500.0
2018-02-07,35.61999893188477,35.310001373291016,35.6150016784668,35.310001373291016,29400.0
2018-02-08,34.86999893188477,34.0,34.86999893188477,34.0,3300.0
2018-02-09,34.0,33.391998291015625,33.391998291015625,34.0,2500.0
2018-02-12,35.029998779296875,34.625999450683594,34.625999450683594,34.99499893188477,1800.0
2018-02-13,35.130001068115234,34.90999984741211,34.90999984741211,35.130001068115234,1400.0
2018-02-14,36.016998291015625,34.22100067138672,35.23300170898437,36.016998291015625,1200.0
2018-02-15,36.790000915527344,36.20199966430664,36.7400016784668,36.69499969482422,3500.0
2018-02-16,36.97000122070313,36.560001373291016,36.83000183105469,36.84000015258789,3800.0
2018-02-20,36.9900016784668,36.61999893188477,36.61999893188477,36.83000183105469,4400.0
2018-02-21,37.0,36.83300018310547,36.9900016784668,36.99800109863281,1900.0
2018-02-22,36.900001525878906,36.70000076293945,36.83000183105469,36.70000076293945,2100.0
2018-02-23,37.38000106811523,37.02000045776367,37.02000045776367,37.38000106811523,1400.0
2018-02-26,37.38999938964844,37.04499816894531,37.375,37.20000076293945,3500.0
2018-02-27,37.14400100708008,36.560001373291016,37.14400100708008,37.0,24600.0
2018-02-28,36.709999084472656,36.70000076293945,36.709999084472656,36.70000076293945,500.0
2018-03-01,36.459999084472656,35.54999923706055,36.459999084472656,35.97200012207031,4600.0
2018-03-02,35.75,35.40999984741211,35.40999984741211,35.75,1900.0
2018-03-05,36.88000106811523,35.810001373291016,35.810001373291016,36.79999923706055,4600.0
2018-03-06,36.95500183105469,36.60499954223633,36.95500183105469,36.83000183105469,4400.0
2018-03-07,36.959999084472656,36.58000183105469,36.58000183105469,36.959999084472656,25500.0
2018-03-08,37.40499877929688,37.06999969482422,37.40499877929688,37.06999969482422,300.0
2018-03-09,37.52999877929688,36.040000915527344,37.52999877929688,37.15999984741211,28000.0
2018-03-12,37.79999923706055,37.38000106811523,37.44599914550781,37.75,1800.0
2018-03-13,37.66999816894531,36.86000061035156,37.66999816894531,37.13999938964844,36400.0
2018-03-14,37.39899826049805,37.21500015258789,37.349998474121094,37.21500015258789,1400.0
2018-03-15,37.349998474121094,37.20000076293945,37.349998474121094,37.20000076293945,9800.0
2018-03-16,37.22000122070313,37.22000122070313,37.22000122070313,37.22000122070313,100.0
2018-03-19,37.209999084472656,36.72600173950195,37.099998474121094,36.72600173950195,3600.0
2018-03-20,37.22000122070313,36.88000106811523,36.88000106811523,37.22000122070313,5300.0
2018-03-21,37.21099853515625,37.21099853515625,37.21099853515625,37.21099853515625,500.0
2018-03-22,36.59000015258789,36.36999893188477,36.36999893188477,36.59000015258789,1500.0
2018-03-23,36.209999084472656,35.8380012512207,35.8380012512207,35.98500061035156,900.0
2018-03-26,35.98500061035156,35.98500061035156,35.98500061035156,35.98500061035156,0.0
2018-03-27,35.959999084472656,35.959999084472656,35.959999084472656,35.959999084472656,200.0
2018-03-28,35.15999984741211,34.823001861572266,35.15999984741211,34.959999084472656,11700.0
2018-03-29,35.37200164794922,34.99300003051758,34.99300003051758,35.37200164794922,3000.0
2018-04-02,37.38999938964844,34.459999084472656,37.38999938964844,34.512001037597656,2900.0
2018-04-03,34.81999969482422,34.59999847412109,34.81999969482422,34.61899948120117,1100.0
2018-04-04,34.959999084472656,34.825000762939446,34.825000762939446,34.884998321533196,700.0
2018-04-05,35.5,35.2599983215332,35.5,35.28499984741211,6900.0
2018-04-06,35.189998626708984,34.93000030517578,35.189998626708984,35.06999969482422,3000.0
2018-04-09,35.4900016784668,35.0,35.0,35.310001373291016,800.0
2018-04-10,35.58599853515625,35.46099853515625,35.46099853515625,35.58599853515625,200.0
2018-04-11,35.55599975585937,35.540000915527344,35.540000915527344,35.55599975585937,700.0
2018-04-12,35.560001373291016,35.47999954223633,35.48099899291992,35.48199844360352,1400.0
2018-04-13,35.20100021362305,35.20000076293945,35.20000076293945,35.20100021362305,200.0
2018-04-16,35.59000015258789,35.34000015258789,35.34000015258789,35.58000183105469,6400.0
2018-04-17,35.75,35.59000015258789,35.59000015258789,35.75,800.0
2018-04-18,36.07899856567383,35.91999816894531,35.91999816894531,35.97900009155273,800.0
2018-04-19,35.79999923706055,35.79999923706055,35.79999923706055,35.79999923706055,200.0
2018-04-20,35.7599983215332,35.38600158691406,35.7599983215332,35.38600158691406,1200.0
2018-04-23,35.459999084472656,34.810001373291016,35.459999084472656,34.985000610351555,2700.0
2018-04-24,35.080001831054695,34.61999893188477,35.080001831054695,34.61999893188477,600.0
2018-04-25,34.43199920654297,34.43199920654297,34.43199920654297,34.43199920654297,200.0
2018-04-26,34.990001678466804,34.799999237060554,34.799999237060554,34.919998168945305,12000.0
2018-04-27,35.29999923706055,35.2400016784668,35.2400016784668,35.29999923706055,300.0
2018-04-30,35.29999923706055,35.29999923706055,35.29999923706055,35.29999923706055,0.0
2018-05-01,35.01599884033203,35.0,35.0,35.01599884033203,800.0
2018-05-02,35.01599884033203,35.01599884033203,35.01599884033203,35.01599884033203,0.0
2018-05-03,35.0,35.0,35.0,35.0,400.0
2018-05-04,35.290000915527344,34.80500030517578,34.80500030517578,35.290000915527344,700.0
2018-05-07,35.290000915527344,35.290000915527344,35.290000915527344,35.290000915527344,0.0
2018-05-08,35.65999984741211,35.65999984741211,35.65999984741211,35.65999984741211,100.0
2018-05-09,35.849998474121094,35.849998474121094,35.849998474121094,35.849998474121094,200.0
2018-05-10,36.13800048828125,36.08000183105469,36.13800048828125,36.08000183105469,600.0
2018-05-11,36.07500076293945,36.00199890136719,36.04100036621094,36.07500076293945,900.0
2018-05-14,36.0,36.0,36.0,36.0,1200.0
2018-05-15,35.810001373291016,35.810001373291016,35.810001373291016,35.810001373291016,1800.0
2018-05-16,36.03499984741211,36.03499984741211,36.03499984741211,36.03499984741211,500.0
2018-05-17,36.31700134277344,36.308998107910156,36.308998107910156,36.31700134277344,400.0
2018-05-18,36.23099899291992,36.23099899291992,36.23099899291992,36.23099899291992,400.0
2018-05-21,36.23099899291992,36.23099899291992,36.23099899291992,36.23099899291992,0.0
2018-05-22,36.47999954223633,36.25500106811523,36.47999954223633,36.33000183105469,1200.0
2018-05-23,35.93000030517578,35.93000030517578,35.93000030517578,35.93000030517578,100.0
2018-05-24,36.40999984741211,36.34500122070313,36.34500122070313,36.402000427246094,1300.0
2018-05-25,36.38999938964844,36.38999938964844,36.38999938964844,36.38999938964844,200.0
2018-05-29,36.1510009765625,36.06999969482422,36.1510009765625,36.06999969482422,500.0
2018-05-30,36.06999969482422,36.06999969482422,36.06999969482422,36.06999969482422,0.0
2018-05-31,36.459999084472656,36.39500045776367,36.43000030517578,36.459999084472656,700.0
2018-06-01,38.2400016784668,36.821998596191406,38.2400016784668,36.91999816894531,1800.0
2018-06-04,37.12099838256836,37.12099838256836,37.12099838256836,37.12099838256836,500.0
2018-06-05,37.64899826049805,37.63000106811523,37.64899826049805,37.63000106811523,700.0
2018-06-06,37.9900016784668,37.75500106811523,37.83000183105469,37.9900016784668,15800.0
2018-06-07,37.959999084472656,37.59600067138672,37.959999084472656,37.81999969482422,1700.0
2018-06-08,37.999000549316406,37.70000076293945,37.70000076293945,37.96099853515625,9300.0
2018-06-11,38.39500045776367,37.9900016784668,37.9900016784668,38.23500061035156,18600.0
2018-06-12,38.555999755859375,38.39500045776367,38.39500045776367,38.51300048828125,42200.0
2018-06-13,38.52999877929688,38.35499954223633,38.5,38.4900016784668,4000.0
2018-06-14,38.63000106811523,38.483001708984375,38.57799911499024,38.59000015258789,2500.0
2018-06-15,38.47000122070313,38.45000076293945,38.45000076293945,38.47000122070313,500.0
2018-06-18,38.38999938964844,37.77399826049805,37.88000106811523,38.38999938964844,1900.0
2018-06-19,38.060001373291016,38.060001373291016,38.060001373291016,38.060001373291016,1500.0
2018-06-20,38.4630012512207,38.40499877929688,38.43999862670898,38.4630012512207,1100.0
2018-06-21,38.37200164794922,38.185001373291016,38.34000015258789,38.185001373291016,3000.0
2018-06-22,38.310001373291016,38.1349983215332,38.1349983215332,38.29499816894531,1800.0
2018-06-25,37.56999969482422,37.01900100708008,37.56999969482422,37.01900100708008,800.0
2018-06-26,37.59000015258789,37.31999969482422,37.31999969482422,37.540000915527344,700.0
2018-06-27,37.25400161743164,36.99499893188477,37.25400161743164,36.99499893188477,600.0
2018-06-28,36.34099960327149,36.34099960327149,36.34099960327149,36.34099960327149,600.0
2018-06-29,37.09000015258789,36.902000427246094,36.97999954223633,36.9900016784668,1200.0
2018-07-02,36.54999923706055,36.54999923706055,36.54999923706055,36.54999923706055,600.0
2018-07-03,36.90999984741211,36.709999084472656,36.72999954223633,36.90999984741211,1300.0
2018-07-05,37.04199981689453,37.04199981689453,37.04199981689453,37.04199981689453,300.0
2018-07-06,37.52199935913086,37.0,37.0,37.52199935913086,600.0
2018-07-09,37.70000076293945,37.52999877929688,37.70000076293945,37.53499984741211,800.0
2018-07-10,37.88999938964844,37.45000076293945,37.709999084472656,37.45000076293945,1400.0
2018-07-11,37.540000915527344,37.290000915527344,37.290000915527344,37.540000915527344,300.0
2018-07-12,37.70100021362305,37.70100021362305,37.70100021362305,37.70100021362305,300.0
2018-07-13,37.54999923706055,37.5099983215332,37.5099983215332,37.540000915527344,5200.0
2018-07-16,37.810001373291016,37.59400177001953,37.79399871826172,37.59400177001953,400.0
2018-07-17,38.06999969482422,37.52799987792969,37.52799987792969,37.98899841308594,2500.0
2018-07-18,37.89300155639648,37.89300155639648,37.89300155639648,37.89300155639648,300.0
2018-07-19,37.678001403808594,37.63000106811523,37.63000106811523,37.678001403808594,2000.0
2018-07-20,37.88000106811523,37.88000106811523,37.88000106811523,37.88000106811523,500.0
2018-07-23,37.810001373291016,37.79999923706055,37.810001373291016,37.79999923706055,600.0
2018-07-24,38.09000015258789,37.75400161743164,38.09000015258789,37.75400161743164,500.0
2018-07-25,37.95000076293945,37.95000076293945,37.95000076293945,37.95000076293945,300.0
2018-07-26,37.93000030517578,37.849998474121094,37.849998474121094,37.93000030517578,1000.0
2018-07-27,38.15999984741211,37.39500045776367,38.15999984741211,37.39500045776367,600.0
2018-07-30,37.540000915527344,37.540000915527344,37.540000915527344,37.540000915527344,400.0
2018-07-31,37.012001037597656,36.89099884033203,36.89099884033203,36.95500183105469,2300.0
2018-08-01,36.98799896240234,36.98799896240234,36.98799896240234,36.98799896240234,200.0
2018-08-02,37.06999969482422,36.61000061035156,36.61999893188477,37.06999969482422,4000.0
2018-08-03,37.06999969482422,37.06999969482422,37.06999969482422,37.06999969482422,0.0
2018-08-06,37.5,37.16999816894531,37.16999816894531,37.5,1300.0
2018-08-07,37.5,37.5,37.5,37.5,0.0
2018-08-08,37.5,37.5,37.5,37.5,100.0
2018-08-09,38.07500076293945,37.93999862670898,37.95000076293945,38.07500076293945,15600.0
2018-08-10,37.72999954223633,37.72999954223633,37.72999954223633,37.72999954223633,500.0
2018-08-13,37.88100051879883,37.66600036621094,37.88100051879883,37.66600036621094,500.0
2018-08-14,37.83000183105469,37.555999755859375,37.83000183105469,37.555999755859375,500.0
2018-08-15,37.13000106811523,36.88999938964844,37.13000106811523,36.90499877929688,500.0
2018-08-16,37.88000106811523,37.22999954223633,37.22999954223633,37.349998474121094,1600.0
2018-08-17,37.4900016784668,37.16999816894531,37.16999816894531,37.40999984741211,1700.0
2018-08-20,37.86999893188477,37.709999084472656,37.709999084472656,37.86999893188477,1200.0
2018-08-21,38.20000076293945,38.040000915527344,38.040000915527344,38.20000076293945,2600.0
2018-08-22,38.45000076293945,38.45000076293945,38.45000076293945,38.45000076293945,800.0
2018-08-23,38.70199966430664,38.499000549316406,38.599998474121094,38.52000045776367,7200.0
2018-08-24,38.849998474121094,38.459999084472656,38.459999084472656,38.849998474121094,1500.0
2018-08-27,39.29999923706055,39.29999923706055,39.29999923706055,39.29999923706055,800.0
2018-08-28,39.23500061035156,39.23500061035156,39.23500061035156,39.23500061035156,700.0
2018-08-29,39.29999923706055,39.15999984741211,39.18999862670898,39.29999923706055,800.0
2018-08-30,39.209999084472656,39.0,39.18999862670898,39.0,900.0
2018-08-31,39.13000106811523,38.900001525878906,39.13000106811523,39.04999923706055,3200.0
2018-09-04,39.09000015258789,38.54999923706055,38.54999923706055,39.09000015258789,1100.0
2018-09-05,38.63999938964844,38.125,38.63999938964844,38.40999984741211,600.0
2018-09-06,38.15499877929688,38.11999893188477,38.13399887084961,38.11999893188477,900.0
2018-09-07,38.55500030517578,38.18000030517578,38.18000030517578,38.349998474121094,600.0
2018-09-10,38.790000915527344,38.459999084472656,38.459999084472656,38.53499984741211,8700.0
2018-09-11,38.43000030517578,38.43000030517578,38.43000030517578,38.43000030517578,300.0
2018-09-12,38.349998474121094,38.2599983215332,38.2599983215332,38.349998474121094,400.0
2018-09-13,38.72999954223633,38.72999954223633,38.72999954223633,38.72999954223633,100.0
2018-09-14,38.71699905395508,38.45399856567383,38.71699905395508,38.56999969482422,2600.0
2018-09-17,38.31999969482422,38.15999984741211,38.31999969482422,38.15999984741211,200.0
2018-09-18,38.40999984741211,38.18000030517578,38.18000030517578,38.40999984741211,400.0
2018-09-19,38.43999862670898,38.43999862670898,38.43999862670898,38.43999862670898,200.0
2018-09-20,38.47000122070313,38.459999084472656,38.459999084472656,38.47000122070313,1000.0
2018-09-21,38.61000061035156,38.43999862670898,38.61000061035156,38.43999862670898,2400.0
2018-09-24,38.45000076293945,38.209999084472656,38.45000076293945,38.209999084472656,1400.0
2018-09-25,38.349998474121094,38.31999969482422,38.349998474121094,38.31999969482422,900.0
2018-09-26,38.849998474121094,38.59000015258789,38.72000122070313,38.59000015258789,1000.0
2018-09-27,38.68000030517578,38.65900039672852,38.68000030517578,38.65900039672852,400.0
2018-09-28,38.63999938964844,38.47000122070313,38.47000122070313,38.5099983215332,2000.0
2018-10-01,38.72000122070313,38.349998474121094,38.72000122070313,38.349998474121094,700.0
2018-10-02,38.11000061035156,37.92100143432617,38.11000061035156,38.02999877929688,1000.0
2018-10-03,38.099998474121094,37.95000076293945,38.099998474121094,37.95000076293945,1700.0
2018-10-04,37.84000015258789,37.2130012512207,37.84000015258789,37.2130012512207,900.0
2018-10-05,37.36000061035156,36.91999816894531,37.36000061035156,36.9900016784668,10400.0
2018-10-08,36.61000061035156,36.27299880981445,36.61000061035156,36.38000106811523,2000.0
2018-10-09,36.72000122070313,36.45000076293945,36.63999938964844,36.4900016784668,73000.0
2018-10-10,36.459999084472656,35.102001190185554,36.459999084472656,35.102001190185554,2000.0
2018-10-11,35.349998474121094,34.692001342773445,35.09000015258789,34.72999954223633,4800.0
2018-10-12,35.595001220703125,35.209999084472656,35.34000015258789,35.209999084472656,4200.0
2018-10-15,35.439998626708984,35.32699966430664,35.439998626708984,35.40999984741211,500.0
2018-10-16,36.18000030517578,35.79999923706055,35.79999923706055,36.18000030517578,5300.0
2018-10-17,36.58000183105469,35.86000061035156,36.15999984741211,36.02999877929688,6400.0
2018-10-18,35.74300003051758,35.110000610351555,35.74300003051758,35.150001525878906,1300.0
2018-10-19,35.689998626708984,34.90999984741211,35.689998626708984,35.040000915527344,1400.0
2018-10-22,35.4109992980957,35.220001220703125,35.220001220703125,35.36000061035156,1400.0
2018-10-23,34.689998626708984,34.200000762939446,34.59999847412109,34.689998626708984,6600.0
2018-10-24,34.720001220703125,33.900001525878906,34.720001220703125,33.900001525878906,9900.0
2018-10-25,34.330001831054695,33.90999984741211,33.90999984741211,34.31999969482422,13100.0
2018-10-26,34.02000045776367,33.330001831054695,33.75,33.81999969482422,2800.0
2018-10-29,34.040000915527344,33.0,34.040000915527344,33.0,4500.0
2018-10-30,33.799999237060554,33.450000762939446,33.500999450683594,33.799999237060554,1300.0
2018-10-31,34.544998168945305,34.52000045776367,34.544998168945305,34.52000045776367,400.0
2018-11-01,35.290000915527344,34.759998321533196,34.759998321533196,35.290000915527344,57300.0
2018-11-02,36.38000106811523,35.22800064086914,35.630001068115234,35.22800064086914,1300.0
2018-11-05,35.09000015258789,34.90999984741211,35.02000045776367,35.09000015258789,1200.0
2018-11-06,35.150001525878906,35.110000610351555,35.110000610351555,35.150001525878906,32100.0
2018-11-07,35.9900016784668,35.310001373291016,35.310001373291016,35.63999938964844,15300.0
2018-11-08,36.09000015258789,35.45000076293945,36.09000015258789,35.45000076293945,1300.0
2018-11-09,34.90999984741211,34.200000762939446,34.90999984741211,34.59999847412109,3800.0
2018-11-12,34.22999954223633,33.75,34.22999954223633,33.75,600.0
2018-11-13,34.32699966430664,33.889999389648445,33.889999389648445,34.0,37000.0
2018-11-14,34.130001068115234,33.90999984741211,34.130001068115234,33.950000762939446,700.0
2018-11-15,34.169998168945305,33.72999954223633,33.830001831054695,34.169998168945305,900.0
2018-11-16,33.950000762939446,33.540000915527344,33.950000762939446,33.77000045776367,3900.0
2018-11-19,33.52000045776367,33.0,33.52000045776367,33.0,5700.0
2018-11-20,32.439998626708984,31.940000534057614,32.189998626708984,32.240001678466804,11800.0
2018-11-21,32.900001525878906,32.47999954223633,32.47999954223633,32.900001525878906,800.0
2018-11-23,32.790000915527344,32.790000915527344,32.790000915527344,32.790000915527344,100.0
2018-11-26,33.240001678466804,33.080001831054695,33.240001678466804,33.169998168945305,1300.0
2018-11-27,33.27000045776367,33.09000015258789,33.09000015258789,33.27000045776367,300.0
2018-11-28,34.040000915527344,33.34999847412109,33.450000762939446,34.040000915527344,800.0
2018-11-29,33.889999389648445,33.880001068115234,33.880001068115234,33.889999389648445,500.0
2018-11-30,33.799999237060554,33.72999954223633,33.76599884033203,33.759998321533196,2600.0
2018-12-03,34.580001831054695,34.259998321533196,34.400001525878906,34.34000015258789,600.0
2018-12-04,34.150001525878906,33.220001220703125,34.150001525878906,33.330001831054695,42700.0
2018-12-06,33.209999084472656,32.419998168945305,32.700000762939446,33.209999084472656,43300.0
2018-12-07,33.509998321533196,32.56999969482422,33.18000030517578,32.56999969482422,7800.0
2018-12-10,32.450000762939446,32.016998291015625,32.450000762939446,32.27000045776367,2000.0
2018-12-11,32.81999969482422,32.25699996948242,32.81999969482422,32.40999984741211,1100.0
2018-12-12,32.939998626708984,32.939998626708984,32.939998626708984,32.939998626708984,100.0
2018-12-13,32.880001068115234,32.59000015258789,32.880001068115234,32.59000015258789,400.0
2018-12-14,32.389999389648445,31.770999908447266,31.770999908447266,32.150001525878906,800.0
2018-12-17,31.78000068664551,31.29999923706055,31.68000030517578,31.29999923706055,2500.0
2018-12-18,31.59000015258789,31.336000442504886,31.54999923706055,31.420000076293945,7100.0
2018-12-19,31.71999931335449,30.63999938964844,31.67099952697754,31.040000915527344,4500.0
2018-12-20,30.899999618530273,30.03000068664551,30.5,30.40999984741211,4000.0
2018-12-21,30.940000534057614,30.36000061035156,30.940000534057614,30.3799991607666,1000.0
2018-12-24,30.209999084472656,30.03000068664551,30.209999084472656,30.03000068664551,200.0
2018-12-26,30.51000022888184,29.84000015258789,29.84000015258789,30.51000022888184,1400.0
2018-12-27,31.020000457763672,29.82999992370605,30.059999465942386,31.020000457763672,1500.0
2018-12-28,31.35300064086914,31.10000038146973,31.35300064086914,31.28000068664551,1800.0
2018-12-31,31.51000022888184,31.18000030517578,31.18000030517578,31.18099975585937,3000.0
2019-01-02,31.32500076293945,30.940000534057614,30.940000534057614,31.32500076293945,4200.0
2019-01-03,31.059999465942386,30.8799991607666,30.88999938964844,30.940000534057614,900.0
2019-01-04,31.96999931335449,31.53000068664551,31.53000068664551,31.95000076293945,2300.0
2019-01-07,32.650001525878906,32.22999954223633,32.22999954223633,32.549999237060554,1600.0
2019-01-08,32.880001068115234,32.580001831054695,32.880001068115234,32.81999969482422,900.0
2019-01-09,33.290000915527344,33.220001220703125,33.220001220703125,33.290000915527344,700.0
2019-01-10,33.189998626708984,33.080001831054695,33.110000610351555,33.189998626708984,600.0
2019-01-11,33.220001220703125,33.06999969482422,33.15999984741211,33.220001220703125,2200.0
2019-01-14,33.130001068115234,33.040000915527344,33.09000015258789,33.040000915527344,16100.0
2019-01-15,33.360000610351555,33.310001373291016,33.34999847412109,33.360000610351555,700.0
2019-01-16,33.59000015258789,33.47999954223633,33.580001831054695,33.59000015258789,1200.0
2019-01-17,33.72999954223633,33.470001220703125,33.470001220703125,33.72999954223633,900.0
2019-01-18,34.240001678466804,34.029998779296875,34.029998779296875,34.213001251220696,1400.0
2019-01-22,34.029998779296875,33.720001220703125,34.029998779296875,33.720001220703125,500.0
2019-01-23,34.060001373291016,33.77000045776367,34.060001373291016,33.84999847412109,600.0
2019-01-24,34.11999893188477,33.75,33.75,34.11999893188477,1500.0
2019-01-25,34.72999954223633,34.43000030517578,34.43000030517578,34.669998168945305,1400.0
2019-01-28,34.450000762939446,34.15999984741211,34.15999984741211,34.36999893188477,600.0
2019-01-29,34.470001220703125,34.20399856567383,34.31999969482422,34.470001220703125,1300.0
2019-01-30,34.529998779296875,34.380001068115234,34.470001220703125,34.529998779296875,1500.0
2019-01-31,34.81999969482422,34.610000610351555,34.610000610351555,34.81999969482422,500.0
2019-02-01,34.830001831054695,34.459999084472656,34.830001831054695,34.459999084472656,1100.0
2019-02-04,34.630001068115234,34.540000915527344,34.540000915527344,34.630001068115234,400.0
2019-02-05,35.25,35.06999969482422,35.15399932861328,35.25,2600.0
2019-02-06,34.950000762939446,34.876998901367195,34.950000762939446,34.876998901367195,500.0
2019-02-07,34.47999954223633,34.20199966430664,34.47999954223633,34.389999389648445,700.0
2019-02-08,34.310001373291016,34.18000030517578,34.18000030517578,34.310001373291016,400.0
2019-02-11,34.540000915527344,34.451000213623054,34.540000915527344,34.509998321533196,2000.0
2019-02-12,34.97999954223633,34.720001220703125,34.720001220703125,34.97999954223633,1600.0
2019-02-13,35.03300094604492,34.970001220703125,35.03300094604492,34.970001220703125,400.0
2019-02-14,34.880001068115234,34.84000015258789,34.84000015258789,34.880001068115234,1000.0
2019-02-15,35.15999984741211,35.02000045776367,35.15999984741211,35.049999237060554,1200.0
2019-02-19,35.61999893188477,35.382999420166016,35.382999420166016,35.61999893188477,1000.0
2019-02-20,35.779998779296875,35.61000061035156,35.65999984741211,35.630001068115234,62600.0
2019-02-21,35.58000183105469,35.25,35.58000183105469,35.25,700.0
2019-02-22,35.83000183105469,35.599998474121094,35.599998474121094,35.83000183105469,400.0
2019-02-25,36.43999862670898,36.099998474121094,36.43999862670898,36.099998474121094,1400.0
2019-02-26,36.29999923706055,36.02000045776367,36.02000045776367,36.152000427246094,1300.0
2019-02-27,36.18000030517578,36.060001373291016,36.18000030517578,36.060001373291016,400.0
2019-02-28,36.060001373291016,35.900001525878906,35.900001525878906,36.060001373291016,300.0
2019-03-01,36.4900016784668,36.40999984741211,36.4900016784668,36.40999984741211,1700.0
2019-03-04,36.459999084472656,35.959999084472656,36.459999084472656,36.13999938964844,500.0
2019-03-05,36.45000076293945,36.45000076293945,36.45000076293945,36.45000076293945,100.0
2019-03-06,36.45700073242188,36.31999969482422,36.45700073242188,36.31999969482422,500.0
2019-03-07,36.25,35.6349983215332,36.25,35.6349983215332,1500.0
2019-03-08,35.665000915527344,35.470001220703125,35.470001220703125,35.665000915527344,700.0
2019-03-11,36.16999816894531,35.97700119018555,36.040000915527344,36.16999816894531,2300.0
2019-03-12,36.16999816894531,36.16999816894531,36.16999816894531,36.16999816894531,100.0
2019-03-13,36.400001525878906,36.36000061035156,36.400001525878906,36.36000061035156,300.0
2019-03-14,36.36000061035156,36.36000061035156,36.36000061035156,36.36000061035156,100.0
2019-03-15,36.63999938964844,36.47999954223633,36.47999954223633,36.52999877929688,14400.0
2019-03-18,36.68000030517578,36.5989990234375,36.599998474121094,36.68000030517578,800.0
2019-03-19,36.959999084472656,36.72999954223633,36.72999954223633,36.88000106811523,2300.0
2019-03-20,36.84000015258789,36.61399841308594,36.84000015258789,36.80099868774414,30900.0
2019-03-21,36.86999893188477,36.52999877929688,36.52999877929688,36.86999893188477,2000.0
2019-03-22,36.88000106811523,36.11999893188477,36.88000106811523,36.11999893188477,800.0
2019-03-25,36.41999816894531,36.2400016784668,36.27000045776367,36.275001525878906,1700.0
2019-03-26,36.86999893188477,36.66299819946289,36.86999893188477,36.66299819946289,1500.0
2019-03-27,36.7599983215332,36.39500045776367,36.709999084472656,36.61000061035156,7600.0
2019-03-28,36.79999923706055,36.72000122070313,36.7599983215332,36.79999923706055,1100.0
2019-03-29,37.11999893188477,37.08000183105469,37.099998474121094,37.11999893188477,2500.0
2019-04-01,37.56999969482422,37.39300155639648,37.43999862670898,37.56999969482422,9400.0
2019-04-02,37.400001525878906,37.38999938964844,37.400001525878906,37.38999938964844,900.0
2019-04-03,38.08000183105469,37.72999954223633,37.72999954223633,37.849998474121094,1000.0
2019-04-04,37.88999938964844,37.77000045776367,37.83000183105469,37.77999877929688,2500.0
2019-04-05,37.66999816894531,37.52999877929688,37.60499954223633,37.52999877929688,400.0
2019-04-08,37.95000076293945,37.86999893188477,37.86999893188477,37.95000076293945,1600.0
2019-04-09,37.88999938964844,37.83000183105469,37.88199996948242,37.83000183105469,1100.0
2019-04-10,37.96699905395508,37.93999862670898,37.93999862670898,37.96699905395508,1100.0
2019-04-11,38.22999954223633,38.040000915527344,38.040000915527344,38.09000015258789,5000.0
2019-04-12,38.29999923706055,38.27299880981445,38.27299880981445,38.29999923706055,600.0
2019-04-15,38.24100112915039,38.18000030517578,38.18000030517578,38.24100112915039,1300.0
2019-04-16,38.525001525878906,38.525001525878906,38.525001525878906,38.525001525878906,500.0
2019-04-17,38.40800094604492,38.40800094604492,38.40800094604492,38.40800094604492,200.0
2019-04-18,38.53900146484375,38.53900146484375,38.53900146484375,38.53900146484375,300.0
2019-04-22,38.52299880981445,38.36899948120117,38.36899948120117,38.52299880981445,400.0
2019-04-23,38.80099868774414,38.47999954223633,38.47999954223633,38.80099868774414,800.0
2019-04-24,39.040000915527344,39.040000915527344,39.040000915527344,39.040000915527344,200.0
2019-04-25,38.76399993896485,38.68999862670898,38.68999862670898,38.76399993896485,300.0
2019-04-26,38.76399993896485,38.76399993896485,38.76399993896485,38.76399993896485,100.0
2019-04-29,38.76399993896485,38.76399993896485,38.76399993896485,38.76399993896485,100.0
2019-04-30,38.84000015258789,38.84000015258789,38.84000015258789,38.84000015258789,200.0
2019-05-01,39.02999877929688,38.95399856567383,38.97200012207031,39.02000045776367,5000.0
2019-05-02,38.71799850463867,38.709999084472656,38.71799850463867,38.709999084472656,600.0
2019-05-03,39.209999084472656,39.20000076293945,39.209999084472656,39.20000076293945,300.0
2019-05-06,38.915000915527344,38.4640007019043,38.47000122070313,38.915000915527344,2300.0
2019-05-07,38.66999816894531,38.185001373291016,38.66999816894531,38.185001373291016,3300.0
2019-05-08,38.61000061035156,38.400001525878906,38.400001525878906,38.61000061035156,500.0
2019-05-09,38.27099990844727,38.00199890136719,38.00199890136719,38.27099990844727,400.0
2019-05-10,38.2400016784668,37.75,38.2400016784668,38.06999969482422,900.0
2019-05-13,37.0620002746582,36.96500015258789,37.0620002746582,36.96500015258789,500.0
2019-05-14,37.34000015258789,37.34000015258789,37.34000015258789,37.34000015258789,900.0
2019-05-15,38.0,37.97999954223633,37.97999954223633,38.0,1400.0
2019-05-16,38.2400016784668,38.0099983215332,38.13000106811523,38.2400016784668,2000.0
2019-05-17,38.0,37.540000915527344,38.0,37.540000915527344,1100.0
2019-05-20,37.43000030517578,37.08200073242188,37.43000030517578,37.08200073242188,500.0
2019-05-21,37.47999954223633,37.30500030517578,37.47999954223633,37.43000030517578,800.0
2019-05-22,37.31999969482422,37.20000076293945,37.30500030517578,37.20000076293945,1100.0
2019-05-23,36.88000106811523,36.69900131225586,36.88000106811523,36.69900131225586,600.0
2019-05-24,36.69900131225586,36.69900131225586,36.69900131225586,36.69900131225586,100.0
2019-05-28,37.11000061035156,36.77000045776367,37.10900115966797,36.77000045776367,2900.0
2019-05-29,36.5,36.0,36.5,36.0,400.0
2019-05-30,36.0,36.0,36.0,36.0,100.0
2019-05-31,36.0,36.0,36.0,36.0,200.0
2019-06-03,36.11999893188477,36.099998474121094,36.099998474121094,36.11999893188477,1300.0
2019-06-04,36.63999938964844,36.02000045776367,36.02000045776367,36.63000106811523,3000.0
2019-06-05,36.63000106811523,36.63000106811523,36.63000106811523,36.63000106811523,200.0
2019-06-06,36.63000106811523,36.63000106811523,36.63000106811523,36.63000106811523,100.0
2019-06-07,37.37900161743164,37.0,37.0,37.21799850463867,1800.0
2019-06-10,37.6879997253418,37.41999816894531,37.41999816894531,37.50299835205078,2000.0
2019-06-11,37.91999816894531,37.4900016784668,37.91999816894531,37.6349983215332,2600.0
2019-06-12,37.6349983215332,37.6349983215332,37.6349983215332,37.6349983215332,100.0
2019-06-13,37.61000061035156,37.4900016784668,37.61000061035156,37.4900016784668,400.0
2019-06-14,37.4900016784668,37.4900016784668,37.4900016784668,37.4900016784668,100.0
2019-06-17,37.75199890136719,37.65999984741211,37.75199890136719,37.68600082397461,1000.0
2019-06-18,38.310001373291016,38.1870002746582,38.308998107910156,38.198001861572266,900.0
2019-06-19,38.198001861572266,38.198001861572266,38.198001861572266,38.198001861572266,100.0
2019-06-20,38.65399932861328,38.65399932861328,38.65399932861328,38.65399932861328,200.0
2019-06-21,38.34000015258789,38.3120002746582,38.3120002746582,38.34000015258789,300.0
2019-06-24,38.37699890136719,38.37699890136719,38.37699890136719,38.37699890136719,400.0
2019-06-25,38.06999969482422,37.68299865722656,38.06999969482422,37.68299865722656,700.0
2019-06-26,37.68299865722656,37.68299865722656,37.68299865722656,37.68299865722656,200.0
2019-06-27,38.18000030517578,38.14099884033203,38.14099884033203,38.18000030517578,500.0
2019-06-28,38.18000030517578,38.18000030517578,38.18000030517578,38.18000030517578,100.0
2019-07-01,38.18000030517578,38.18000030517578,38.18000030517578,38.18000030517578,100.0
2019-07-02,38.18000030517578,38.18000030517578,38.18000030517578,38.18000030517578,100.0
2019-07-03,38.18000030517578,38.18000030517578,38.18000030517578,38.18000030517578,0.0
2019-07-05,38.91699981689453,38.91699981689453,38.91699981689453,38.91699981689453,200.0
2019-07-08,38.73099899291992,38.68000030517578,38.73099899291992,38.68000030517578,1500.0
2019-07-09,38.65700149536133,38.61000061035156,38.61000061035156,38.65700149536133,800.0
2019-07-10,38.86000061035156,38.86000061035156,38.86000061035156,38.86000061035156,200.0
2019-07-11,38.979000091552734,38.81999969482422,38.979000091552734,38.81999969482422,4100.0
2019-07-12,39.06999969482422,39.06999969482422,39.06999969482422,39.06999969482422,200.0
2019-07-15,39.06999969482422,39.06999969482422,39.06999969482422,39.06999969482422,100.0
2019-07-16,39.290000915527344,39.27299880981445,39.290000915527344,39.27299880981445,1000.0
2019-07-17,39.11999893188477,38.915000915527344,39.11999893188477,38.96799850463867,3800.0
2019-07-18,38.847999572753906,38.709999084472656,38.709999084472656,38.847999572753906,2800.0
2019-07-19,39.0,38.72000122070313,39.0,38.72000122070313,1400.0
2019-07-22,38.73400115966797,38.56999969482422,38.73400115966797,38.56999969482422,1700.0
2019-07-23,38.56999969482422,38.56999969482422,38.56999969482422,38.56999969482422,100.0
2019-07-24,39.38899993896485,39.38899993896485,39.38899993896485,39.38899993896485,400.0
2019-07-25,39.38899993896485,39.38899993896485,39.38899993896485,39.38899993896485,100.0
2019-07-26,39.57699966430664,39.45800018310547,39.45800018310547,39.57699966430664,200.0
2019-07-29,39.446998596191406,39.446998596191406,39.446998596191406,39.446998596191406,300.0
2019-07-30,39.15999984741211,39.0,39.0,39.15999984741211,2400.0
2019-07-31,39.15999984741211,38.86000061035156,39.15999984741211,38.86000061035156,300.0
2019-08-01,39.15999984741211,38.86000061035156,39.15999984741211,38.86000061035156,100.0
2019-08-02,38.040000915527344,37.65999984741211,38.040000915527344,37.8129997253418,7600.0
2019-08-05,36.849998474121094,36.43199920654297,36.849998474121094,36.560001373291016,1500.0
2019-08-06,37.0,36.9900016784668,37.0,36.9900016784668,400.0
2019-08-07,37.58000183105469,37.2400016784668,37.29999923706055,37.58000183105469,1200.0
2019-08-08,37.58000183105469,37.58000183105469,37.58000183105469,37.58000183105469,0.0
2019-08-09,37.79999923706055,37.79999923706055,37.79999923706055,37.79999923706055,200.0
2019-08-12,37.5,37.47100067138672,37.47999954223633,37.49399948120117,1300.0
2019-08-13,37.97000122070313,37.97000122070313,37.97000122070313,37.97000122070313,500.0
2019-08-14,36.84600067138672,36.78499984741211,36.78499984741211,36.84600067138672,300.0
2019-08-15,36.84600067138672,36.78499984741211,36.78499984741211,36.84600067138672,100.0
2019-08-16,37.310001373291016,37.310001373291016,37.310001373291016,37.310001373291016,200.0
2019-08-19,37.310001373291016,37.310001373291016,37.310001373291016,37.310001373291016,0.0
2019-08-20,37.73500061035156,37.73500061035156,37.73500061035156,37.73500061035156,100.0
2019-08-21,37.73500061035156,37.73500061035156,37.73500061035156,37.73500061035156,0.0
2019-08-22,38.36000061035156,37.95100021362305,38.36000061035156,38.02000045776367,500.0
2019-08-23,38.02000045776367,38.02000045776367,38.02000045776367,38.02000045776367,0.0
2019-08-26,37.584999084472656,37.5369987487793,37.5369987487793,37.584999084472656,500.0
2019-08-27,37.584999084472656,37.584999084472656,37.584999084472656,37.584999084472656,0.0
2019-08-28,38.02000045776367,37.78799819946289,37.78799819946289,38.02000045776367,1400.0
2019-08-29,38.290000915527344,38.26800155639648,38.290000915527344,38.26800155639648,1300.0
2019-08-30,38.599998474121094,38.22000122070313,38.599998474121094,38.36999893188477,900.0
2019-09-03,38.040000915527344,35.23500061035156,35.709999084472656,37.88000106811523,3000.0
2019-09-04,38.400001525878906,38.22000122070313,38.400001525878906,38.27999877929688,1000.0
2019-09-05,39.08000183105469,38.88999938964844,39.08000183105469,38.915000915527344,1600.0
2019-09-06,39.41999816894531,39.141998291015625,39.41999816894531,39.22000122070313,1400.0
2019-09-09,39.43999862670898,38.8390007019043,39.43999862670898,38.8390007019043,1000.0
2019-09-10,38.959999084472656,38.959999084472656,38.959999084472656,38.959999084472656,700.0
2019-09-11,38.96799850463867,38.70700073242188,38.88000106811523,38.96799850463867,5700.0
2019-09-12,39.25,39.060001373291016,39.25,39.060001373291016,1000.0
2019-09-13,39.09000015258789,38.97999954223633,39.05699920654297,39.040000915527344,2900.0
2019-09-16,39.02000045776367,38.90999984741211,38.90999984741211,38.98199844360352,1700.0
2019-09-17,38.97000122070313,38.90999984741211,38.90999984741211,38.96900177001953,1700.0
2019-09-18,39.08000183105469,38.900001525878906,39.08000183105469,38.900001525878906,800.0
2019-09-19,38.900001525878906,38.900001525878906,38.900001525878906,38.900001525878906,100.0
2019-09-20,38.95000076293945,38.41699981689453,38.95000076293945,38.41699981689453,7300.0
2019-09-23,38.52000045776367,38.36000061035156,38.36000061035156,38.52000045776367,1200.0
2019-09-24,38.65999984741211,38.16999816894531,38.65999984741211,38.16999816894531,800.0
2019-09-25,37.91999816894531,37.89500045776367,37.91999816894531,37.89500045776367,400.0
2019-09-26,38.099998474121094,37.86399841308594,38.099998474121094,38.0099983215332,900.0
2019-09-27,38.18000030517578,37.40399932861328,38.18000030517578,37.49100112915039,2000.0
2019-09-30,37.86999893188477,37.790000915527344,37.849998474121094,37.86999893188477,1400.0
2019-10-01,37.854000091552734,37.854000091552734,37.854000091552734,37.854000091552734,300.0
2019-10-02,37.20000076293945,36.78499984741211,37.20000076293945,36.93000030517578,9500.0
2019-10-03,37.21599960327149,36.97000122070313,36.97000122070313,37.21599960327149,1200.0
2019-10-04,37.54999923706055,37.36000061035156,37.36000061035156,37.54999923706055,500.0
2019-10-07,37.72000122070313,37.540000915527344,37.54999923706055,37.650001525878906,10500.0
2019-10-08,37.27000045776367,36.86999893188477,37.27000045776367,36.86999893188477,1400.0
2019-10-09,37.459999084472656,37.040000915527344,37.20299911499024,37.459999084472656,5100.0
2019-10-10,37.59000015258789,37.374000549316406,37.40999984741211,37.52000045776367,1200.0
2019-10-11,38.41999816894531,38.25299835205078,38.27000045776367,38.36999893188477,5100.0
2019-10-14,38.2400016784668,38.108001708984375,38.209999084472656,38.2400016784668,1700.0
2019-10-15,38.56499862670898,38.52000045776367,38.56499862670898,38.52000045776367,1300.0
2019-10-16,38.52000045776367,38.52000045776367,38.52000045776367,38.52000045776367,200.0
2019-10-17,38.88999938964844,38.790000915527344,38.88999938964844,38.790000915527344,1000.0
2019-10-18,38.83000183105469,38.45000076293945,38.83000183105469,38.45000076293945,600.0
2019-10-21,38.45000076293945,38.45000076293945,38.45000076293945,38.45000076293945,100.0
2019-10-22,38.83300018310547,38.73400115966797,38.83300018310547,38.73400115966797,600.0
2019-10-23,38.5099983215332,38.42200088500977,38.5099983215332,38.42200088500977,700.0
2019-10-24,38.650001525878906,38.57500076293945,38.63999938964844,38.57500076293945,1600.0
2019-10-25,39.04999923706055,38.68000030517578,38.68000030517578,38.9010009765625,2400.0
2019-10-28,39.27299880981445,39.249000549316406,39.25,39.2599983215332,2500.0
2019-10-29,39.17900085449219,38.93999862670898,39.16999816894531,38.93999862670898,1600.0
2019-10-30,39.04899978637695,38.849998474121094,39.0,39.04899978637695,3400.0
2019-10-31,39.2400016784668,39.0,39.2400016784668,39.0,1100.0
2019-11-01,39.2760009765625,39.27000045776367,39.27000045776367,39.27099990844727,6100.0
2019-11-04,39.560001373291016,39.38000106811523,39.560001373291016,39.39599990844727,2800.0
2019-11-05,39.41999816894531,39.209999084472656,39.41999816894531,39.25,7700.0
2019-11-06,41.0,39.060001373291016,39.15999984741211,39.16400146484375,4200.0
2019-11-07,39.47999954223633,39.29999923706055,39.29999923706055,39.47000122070313,21800.0
2019-11-08,39.22000122070313,39.13999938964844,39.22000122070313,39.13999938964844,1400.0
2019-11-11,39.22999954223633,39.040000915527344,39.040000915527344,39.22000122070313,1500.0
2019-11-12,39.3650016784668,39.25500106811523,39.3650016784668,39.275001525878906,1400.0
2019-11-13,39.25500106811523,39.18999862670898,39.24499893188477,39.25400161743164,1200.0
2019-11-14,39.3120002746582,39.20000076293945,39.20000076293945,39.20000076293945,800.0
2019-11-15,39.20000076293945,39.20000076293945,39.20000076293945,39.20000076293945,300.0
2019-11-18,39.88999938964844,39.66999816894531,39.66999816894531,39.88999938964844,2100.0
2019-11-19,39.93000030517578,39.66999816894531,39.93000030517578,39.766998291015625,3100.0
2019-11-20,39.56999969482422,38.849998474121094,39.54999923706055,39.21799850463867,11200.0
2019-11-21,39.2599983215332,38.41999816894531,39.2599983215332,39.10699844360352,13400.0
2019-11-22,39.38999938964844,39.29800033569336,39.31499862670898,39.29800033569336,600.0
2019-11-25,39.72999954223633,39.56999969482422,39.56999969482422,39.72200012207031,1500.0
2019-11-26,39.85200119018555,39.78099822998047,39.83000183105469,39.85200119018555,2400.0
2019-11-27,40.17100143432617,40.0,40.0,40.17100143432617,1200.0
2019-11-29,40.18000030517578,40.18000030517578,40.18000030517578,40.18000030517578,300.0
2019-12-02,40.06999969482422,39.599998474121094,40.06999969482422,39.599998474121094,900.0
2019-12-03,39.43000030517578,39.04999923706055,39.43000030517578,39.40499877929688,5900.0
2019-12-04,39.68000030517578,39.68000030517578,39.68000030517578,39.68000030517578,600.0
2019-12-05,39.77999877929688,39.72000122070313,39.72999954223633,39.72999954223633,6800.0
2019-12-06,40.040000915527344,39.94400024414063,40.012001037597656,39.95600128173828,2300.0
2019-12-09,40.007999420166016,39.76599884033203,39.93999862670898,39.76599884033203,1900.0
2019-12-10,39.77000045776367,39.560001373291016,39.77000045776367,39.560001373291016,3000.0
2019-12-11,39.79499816894531,39.540000915527344,39.650001525878906,39.79499816894531,8200.0
2019-12-12,40.03900146484375,39.75,39.75,40.03900146484375,4200.0
2019-12-13,40.34000015258789,40.2599983215332,40.29899978637695,40.28499984741211,2000.0
2019-12-16,40.77999877929688,40.65399932861328,40.709999084472656,40.75,2600.0
2019-12-17,40.8390007019043,40.66999816894531,40.81999969482422,40.78300094604492,6700.0
2019-12-18,41.02999877929688,40.77999877929688,40.77999877929688,40.93000030517578,3800.0
2019-12-19,41.23699951171875,40.90999984741211,41.04999923706055,41.03400039672852,8400.0
2019-12-20,41.349998474121094,41.349998474121094,41.349998474121094,41.349998474121094,700.0
2019-12-23,41.52999877929688,41.374000549316406,41.52999877929688,41.374000549316406,1100.0
2019-12-24,41.52000045776367,41.42399978637695,41.52000045776367,41.47200012207031,800.0
2019-12-26,41.77999877929688,41.650001525878906,41.650001525878906,41.742000579833984,1500.0
2019-12-27,41.72000122070313,41.52000045776367,41.72000122070313,41.52399826049805,3200.0
2019-12-30,41.540000915527344,41.16999816894531,41.540000915527344,41.16999816894531,9100.0
2019-12-31,41.54999923706055,40.40299987792969,41.27999877929688,41.54999923706055,12500.0
2020-01-02,42.040000915527344,41.70000076293945,41.70000076293945,41.88999938964844,4800.0
2020-01-03,42.13000106811523,41.86000061035156,41.86000061035156,42.040000915527344,7000.0
2020-01-06,41.94499969482422,41.86000061035156,41.86000061035156,41.94499969482422,1600.0
2020-01-07,42.36000061035156,42.21500015258789,42.2400016784668,42.2599983215332,8000.0
2020-01-08,42.68999862670898,42.2400016784668,42.2400016784668,42.474998474121094,4600.0
2020-01-09,42.9900016784668,42.81999969482422,42.900001525878906,42.81999969482422,1500.0
2020-01-10,42.90999984741211,42.47000122070313,42.90999984741211,42.5,6300.0
2020-01-13,43.18999862670898,42.86999893188477,42.91999816894531,43.13999938964844,6800.0
2020-01-14,43.36999893188477,43.1259994506836,43.18999862670898,43.2599983215332,11900.0
2020-01-15,43.38999938964844,43.25,43.25,43.37200164794922,10300.0
2020-01-16,43.7400016784668,43.400001525878906,43.599998474121094,43.7400016784668,7300.0
2020-01-17,43.77000045776367,43.68899917602539,43.75,43.68899917602539,2500.0
2020-01-21,43.72000122070313,42.97000122070313,43.72000122070313,42.97000122070313,7600.0
2020-01-22,43.650001525878906,43.2400016784668,43.45000076293945,43.31999969482422,3300.0
2020-01-23,43.060001373291016,43.0,43.0,43.05699920654297,3200.0
2020-01-24,43.15999984741211,42.16999816894531,43.15999984741211,42.16999816894531,2200.0
2020-01-27,42.33000183105469,41.08000183105469,42.33000183105469,41.40700149536133,8700.0
2020-01-28,42.11999893188477,41.77000045776367,41.77000045776367,42.11999893188477,2400.0
2020-01-29,42.36000061035156,41.96500015258789,42.36000061035156,41.96500015258789,1700.0
2020-01-30,41.79999923706055,41.36000061035156,41.63000106811523,41.79999923706055,4500.0
2020-01-31,41.58000183105469,41.11299896240234,41.58000183105469,41.11299896240234,2000.0
2020-02-03,41.858001708984375,41.5099983215332,41.5099983215332,41.78200149536133,3700.0
2020-02-04,42.724998474121094,42.59400177001953,42.63999938964844,42.691001892089844,4600.0
2020-02-05,43.16999816894531,42.49300003051758,43.16999816894531,42.49300003051758,3100.0
2020-02-06,42.83000183105469,42.63000106811523,42.790000915527344,42.73500061035156,1400.0
2020-02-07,42.63000106811523,42.22999954223633,42.63000106811523,42.22999954223633,3300.0
2020-02-10,42.59000015258789,42.33000183105469,42.47000122070313,42.59000015258789,3500.0
2020-02-11,42.91999816894531,42.803001403808594,42.91999816894531,42.83000183105469,2500.0
2020-02-12,43.275001525878906,43.0,43.099998474121094,43.25,4800.0
2020-02-13,43.18000030517578,43.11000061035156,43.11000061035156,43.150001525878906,2200.0
2020-02-14,43.27000045776367,43.11000061035156,43.27000045776367,43.16699981689453,2000.0
2020-02-18,43.9900016784668,42.77999877929688,43.9900016784668,42.77999877929688,3700.0
2020-02-19,43.33000183105469,43.27999877929688,43.310001373291016,43.303001403808594,1900.0
2020-02-20,43.310001373291016,42.86000061035156,43.310001373291016,42.86000061035156,4100.0
2020-02-21,42.59000015258789,42.39099884033203,42.560001373291016,42.39099884033203,1600.0
2020-02-24,41.00500106811523,40.61000061035156,40.7599983215332,40.7599983215332,5700.0
2020-02-25,41.13000106811523,39.77000045776367,41.13000106811523,39.77000045776367,5100.0
2020-02-26,40.51499938964844,39.729000091552734,40.099998474121094,39.8650016784668,7300.0
2020-02-27,39.349998474121094,38.47999954223633,39.349998474121094,38.54399871826172,8800.0
2020-02-28,38.11999893188477,37.060001373291016,37.060001373291016,37.58000183105469,9600.0
2020-03-02,38.7869987487793,38.45000076293945,38.45000076293945,38.525001525878906,3000.0
2020-03-03,39.5,37.0099983215332,39.18999862670898,38.57799911499024,4300.0
2020-03-04,39.33000183105469,38.79600143432617,38.79600143432617,39.33000183105469,2400.0
2020-03-05,39.0369987487793,38.40299987792969,38.63000106811523,38.527000427246094,2900.0
2020-03-06,37.85499954223633,37.099998474121094,37.099998474121094,37.70299911499024,1900.0
2020-03-09,35.970001220703125,31.1299991607666,34.560001373291016,35.316001892089844,4500.0
2020-03-10,36.382999420166016,35.47999954223633,36.13999938964844,36.382999420166016,1600.0
2020-03-11,35.33000183105469,34.222999572753906,35.33000183105469,34.560001373291016,5100.0
2020-03-12,32.580001831054695,31.0,31.5,31.86000061035156,5900.0
2020-03-13,31.90699958801269,31.6299991607666,31.6299991607666,31.90699958801269,1600.0
2020-03-16,30.35300064086914,29.239999771118164,29.690000534057614,29.29999923706055,5700.0
2020-03-17,29.670000076293945,29.3799991607666,29.53000068664551,29.670000076293945,1200.0
2020-03-18,28.04999923706055,26.82999992370605,27.95000076293945,27.089000701904297,2400.0
2020-03-19,28.84499931335449,27.541000366210934,27.541000366210934,28.815000534057614,2100.0
2020-03-20,29.479999542236328,27.57999992370605,29.0,27.57999992370605,26600.0
2020-03-23,28.21999931335449,27.11000061035156,28.21999931335449,27.84499931335449,3700.0
2020-03-24,30.22500038146973,29.46999931335449,29.46999931335449,30.22500038146973,1000.0
2020-03-25,32.44499969482422,30.59000015258789,31.309999465942386,31.832000732421875,8200.0
2020-03-26,32.889999389648445,32.29800033569336,32.29800033569336,32.799999237060554,1500.0
2020-03-27,32.786998748779304,31.274999618530273,31.670000076293945,32.786998748779304,6800.0
2020-03-30,31.82999992370605,31.489999771118164,31.82999992370605,31.75,1900.0
2020-03-31,32.28499984741211,31.57999992370605,31.57999992370605,32.209999084472656,1800.0
2020-04-01,30.55900001525879,30.270000457763672,30.270000457763672,30.55900001525879,800.0
2020-04-02,30.670000076293945,30.06999969482422,30.136999130249023,30.604999542236328,1900.0
2020-04-03,30.540000915527344,29.86000061035156,30.540000915527344,30.0,3500.0
2020-04-06,32.20800018310547,31.440000534057614,31.56999969482422,32.20800018310547,11000.0
2020-04-07,33.189998626708984,32.950000762939446,33.125,32.950000762939446,1500.0
2020-04-08,32.950000762939446,32.950000762939446,32.950000762939446,32.950000762939446,0.0
2020-04-09,35.169998168945305,34.169998168945305,35.169998168945305,34.320999145507805,1500.0
2020-04-13,34.259998321533196,33.759998321533196,34.259998321533196,34.11999893188477,900.0
2020-04-14,35.25,34.84000015258789,34.84000015258789,35.25,3200.0
2020-04-15,34.860000610351555,34.43000030517578,34.5,34.55899810791016,1900.0
2020-04-16,34.65399932861328,34.48199844360352,34.60900115966797,34.65399932861328,1100.0
2020-04-17,35.65399932861328,35.06999969482422,35.65399932861328,35.60100173950195,1600.0
2020-04-20,35.540000915527344,34.970001220703125,34.970001220703125,35.540000915527344,600.0
2020-04-21,34.512001037597656,33.970001220703125,34.34000015258789,34.110000610351555,2100.0
2020-04-22,34.799999237060554,34.799999237060554,34.799999237060554,34.799999237060554,200.0
2020-04-23,35.15999984741211,35.11999893188477,35.15999984741211,35.11999893188477,1700.0
2020-04-24,35.11999893188477,35.11999893188477,35.11999893188477,35.11999893188477,0.0
2020-04-27,35.96099853515625,35.29999923706055,35.29999923706055,35.85100173950195,1100.0
2020-04-28,36.38000106811523,35.64799880981445,36.38000106811523,35.64799880981445,1600.0
2020-04-29,37.17699813842773,36.38000106811523,36.38000106811523,37.02299880981445,2300.0
2020-04-30,36.91999816894531,36.47000122070313,36.86999893188477,36.47000122070313,900.0
2020-05-01,35.23899841308594,35.080001831054695,35.110000610351555,35.23899841308594,1300.0
2020-05-04,35.470001220703125,35.060001373291016,35.060001373291016,35.470001220703125,700.0
2020-05-05,36.040000915527344,35.722999572753906,36.040000915527344,35.722999572753906,400.0
2020-05-06,36.13000106811523,36.13000106811523,36.13000106811523,36.13000106811523,300.0
2020-05-07,37.290000915527344,36.27000045776367,36.27000045776367,36.88000106811523,3200.0
2020-05-08,37.611000061035156,37.27999877929688,37.43000030517578,37.611000061035156,2500.0
2020-05-11,37.4900016784668,37.099998474121094,37.4900016784668,37.39099884033203,11200.0
2020-05-12,37.91999816894531,37.47999954223633,37.91999816894531,37.47999954223633,900.0
2020-05-13,37.599998474121094,36.5099983215332,37.599998474121094,36.52000045776367,1200.0
2020-05-14,36.70199966430664,35.849998474121094,36.18000030517578,36.70199966430664,2200.0
2020-05-15,36.70199966430664,36.70199966430664,36.70199966430664,36.70199966430664,0.0
2020-05-18,38.5099983215332,38.04999923706055,38.04999923706055,38.43000030517578,1300.0
2020-05-19,38.4379997253418,38.2599983215332,38.2599983215332,38.4379997253418,1700.0
2020-05-20,39.22000122070313,38.88000106811523,39.09000015258789,39.03799819946289,1700.0
2020-05-21,38.86999893188477,38.7400016784668,38.7400016784668,38.77799987792969,2200.0
2020-05-22,38.599998474121094,38.599998474121094,38.599998474121094,38.599998474121094,1200.0
2020-05-26,39.61000061035156,39.19200134277344,39.52999877929688,39.19200134277344,4800.0
2020-05-27,39.56999969482422,39.45000076293945,39.56999969482422,39.46200180053711,700.0
2020-05-28,39.810001373291016,39.275001525878906,39.810001373291016,39.275001525878906,700.0
2020-05-29,39.290000915527344,39.290000915527344,39.290000915527344,39.290000915527344,1000.0
2020-06-01,40.57500076293945,39.77000045776367,39.77000045776367,40.428001403808594,3600.0
2020-06-02,41.18000030517578,40.73799896240234,40.73799896240234,41.06999969482422,5500.0
2020-06-03,41.95700073242188,41.349998474121094,41.349998474121094,41.95700073242188,8500.0
2020-06-04,41.685001373291016,41.34000015258789,41.685001373291016,41.34000015258789,2500.0
2020-06-05,45.790000915527344,42.16999816894531,42.16999816894531,42.38000106811523,6200.0
2020-06-08,42.84400177001953,42.31499862670898,42.45000076293945,42.84400177001953,1900.0
2020-06-09,42.45500183105469,42.43600082397461,42.45500183105469,42.43600082397461,400.0
2020-06-10,42.70000076293945,42.516998291015625,42.63000106811523,42.516998291015625,800.0
2020-06-11,41.06399917602539,40.43600082397461,41.04999923706055,40.43600082397461,2000.0
2020-06-12,41.37699890136719,40.59000015258789,41.33000183105469,41.04199981689453,1500.0
2020-06-15,41.650001525878906,40.68000030517578,40.68000030517578,41.57600021362305,1600.0
2020-06-16,42.61999893188477,42.61999893188477,42.61999893188477,42.61999893188477,800.0
2020-06-17,42.81999969482422,42.5,42.5,42.691001892089844,2000.0
2020-06-18,42.941001892089844,42.79499816894531,42.810001373291016,42.941001892089844,1000.0
2020-06-19,43.36999893188477,42.78799819946289,43.36999893188477,42.78799819946289,1300.0
2020-06-22,42.78799819946289,42.78799819946289,42.78799819946289,42.78799819946289,1100.0
2020-06-23,43.99800109863281,43.70899963378906,43.75,43.70899963378906,800.0
2020-06-24,43.0,42.323001861572266,43.0,42.61000061035156,1600.0
2020-06-25,43.1150016784668,42.77000045776367,42.77000045776367,43.08399963378906,2000.0
2020-06-26,42.91999816894531,41.77999877929688,42.91999816894531,41.77999877929688,25200.0
2020-06-29,42.34000015258789,42.27000045776367,42.27000045776367,42.34000015258789,800.0
2020-06-30,42.34000015258789,42.34000015258789,42.34000015258789,42.34000015258789,0.0
2020-07-01,43.39899826049805,43.198001861572266,43.39899826049805,43.198001861572266,700.0
2020-07-02,43.79999923706055,43.62099838256836,43.79999923706055,43.62099838256836,1000.0
2020-07-06,44.5,44.47000122070313,44.47000122070313,44.4739990234375,900.0
2020-07-07,44.66999816894531,44.02099990844727,44.66999816894531,44.02099990844727,900.0
2020-07-08,44.7400016784668,44.38000106811523,44.38000106811523,44.7400016784668,1900.0
2020-07-09,44.77799987792969,44.69599914550781,44.69599914550781,44.76399993896485,1900.0
2020-07-10,45.03200149536133,44.53499984741211,44.53499984741211,45.03200149536133,2900.0
2020-07-13,45.53499984741211,44.15499877929688,45.22000122070313,44.15499877929688,2400.0
2020-07-14,44.141998291015625,43.81999969482422,43.81999969482422,43.9630012512207,1500.0
2020-07-15,45.06000137329102,44.91999816894531,44.95000076293945,45.06000137329102,2200.0
2020-07-16,44.67699813842773,44.61000061035156,44.61000061035156,44.650001525878906,1000.0
2020-07-17,44.93999862670898,44.70500183105469,44.93999862670898,44.70500183105469,1100.0
2020-07-20,45.22000122070313,44.83000183105469,44.83000183105469,45.22000122070313,1300.0
2020-07-21,45.65999984741211,45.48400115966797,45.56999969482422,45.48400115966797,600.0
2020-07-22,45.55699920654297,45.38999938964844,45.38999938964844,45.55699920654297,1200.0
2020-07-23,45.4119987487793,44.76900100708008,45.4119987487793,44.76900100708008,300.0
2020-07-24,44.29999923706055,44.29999923706055,44.29999923706055,44.29999923706055,600.0
2020-07-27,45.26300048828125,45.02199935913086,45.02199935913086,45.26300048828125,400.0
2020-07-28,45.27000045776367,44.86999893188477,45.13000106811523,44.86999893188477,2400.0
2020-07-29,45.553001403808594,45.44900131225586,45.44900131225586,45.553001403808594,900.0
2020-07-30,45.553001403808594,45.553001403808594,45.553001403808594,45.553001403808594,0.0
2020-07-31,45.599998474121094,45.33000183105469,45.33000183105469,45.599998474121094,500.0
2020-08-03,46.38999938964844,45.79999923706055,45.86000061035156,46.3120002746582,3900.0
2020-08-04,46.5099983215332,46.38999938964844,46.38999938964844,46.5,1600.0
2020-08-05,47.27399826049805,47.0009994506836,47.10100173950195,47.27399826049805,2300.0
2020-08-06,47.38600158691406,47.1500015258789,47.1500015258789,47.36000061035156,1300.0
2020-08-07,46.91999816894531,46.40999984741211,46.91999816894531,46.790000915527344,6500.0
2020-08-10,46.77999877929688,46.43000030517578,46.77999877929688,46.6500015258789,1800.0
2020-08-11,47.20000076293945,46.472999572753906,46.95199966430664,46.472999572753906,1900.0
2020-08-12,47.18000030517578,47.099998474121094,47.18000030517578,47.099998474121094,900.0
2020-08-13,47.349998474121094,47.27999877929688,47.27999877929688,47.32699966430664,1300.0
2020-08-14,47.22000122070313,47.16600036621094,47.22000122070313,47.16600036621094,1500.0
2020-08-17,47.86999893188477,47.47999954223633,47.47999954223633,47.84199905395508,1200.0
2020-08-18,47.97999954223633,47.89500045776367,47.89500045776367,47.97999954223633,800.0
2020-08-19,47.97999954223633,47.60499954223633,47.97999954223633,47.665000915527344,1200.0
2020-08-20,47.81999969482422,47.31000137329102,47.31000137329102,47.77000045776367,1500.0
2020-08-21,47.85499954223633,47.56000137329102,47.56000137329102,47.85499954223633,1400.0
2020-08-24,48.4900016784668,48.43600082397461,48.43600082397461,48.4900016784668,900.0
2020-08-25,48.52230072021485,48.52230072021485,48.52230072021485,48.52230072021485,381.0
