Date,High,Low,Open,Close,Volume
2020-08-21,48.66999816894531,48.43999862670898,48.43999862670898,48.66999816894531,4967
2020-08-25,48.825599670410156,48.7599983215332,48.88999938964844,48.81840133666992,3733
