Date,High,Low,Open,Close,Volume
2020-08-21,62.77999877929688,62.66999816894531,62.68000030517578,62.77360153198242,2820.0
2020-08-25,63.91999816894531,63.24599838256836,63.91999816894531,63.24599838256836,918.0
