Date,High,Low,Open,Close,Volume
2020-07-13,50.0,49.93500137329102,50.0,49.93500137329102,2100.0
2020-07-14,49.95500183105469,49.95500183105469,49.95500183105469,49.95500183105469,0.0
2020-07-15,49.98500061035156,49.98500061035156,49.98500061035156,49.98500061035156,0.0
2020-07-16,49.99499893188477,49.99499893188477,49.99499893188477,49.99499893188477,0.0
2020-07-17,50.06999969482422,50.0250015258789,50.06000137329102,50.0250015258789,20000.0
2020-07-20,50.06000137329102,50.06000137329102,50.06000137329102,50.06000137329102,0.0
2020-07-21,50.10499954223633,50.10499954223633,50.10499954223633,50.10499954223633,0.0
2020-07-22,50.10499954223633,50.10499954223633,50.10499954223633,50.10499954223633,300.0
2020-07-23,50.10499954223633,50.10499954223633,50.10499954223633,50.10499954223633,0.0
2020-07-24,50.10499954223633,50.10499954223633,50.10499954223633,50.10499954223633,0.0
2020-07-27,50.09500122070313,50.09500122070313,50.09500122070313,50.09500122070313,0.0
2020-07-28,50.13999938964844,50.09500122070313,50.13999938964844,50.09500122070313,300.0
2020-07-29,50.17200088500977,50.17200088500977,50.17200088500977,50.17200088500977,0.0
2020-07-30,50.16999816894531,50.16999816894531,50.16999816894531,50.16999816894531,0.0
2020-07-31,50.2400016784668,50.2400016784668,50.2400016784668,50.2400016784668,100.0
2020-08-03,50.25,50.19499969482422,50.25,50.19499969482422,200.0
2020-08-04,50.290000915527344,50.24499893188477,50.290000915527344,50.24499893188477,1100.0
2020-08-05,50.26499938964844,50.26499938964844,50.26499938964844,50.26499938964844,0.0
2020-08-06,50.47700119018555,50.290000915527344,50.34000015258789,50.290000915527344,377800.0
2020-08-07,50.31000137329102,50.31000137329102,50.31000137329102,50.31000137329102,100.0
2020-08-10,50.31999969482422,50.290000915527344,50.31999969482422,50.290000915527344,100.0
2020-08-11,50.21500015258789,50.21500015258789,50.21500015258789,50.21500015258789,0.0
2020-08-12,50.21500015258789,50.21500015258789,50.21500015258789,50.21500015258789,0.0
2020-08-13,50.125,50.125,50.125,50.125,100.0
2020-08-14,50.2400016784668,50.11000061035156,50.15999984741211,50.11000061035156,5000.0
2020-08-17,50.14500045776367,50.14500045776367,50.14500045776367,50.14500045776367,100.0
2020-08-18,50.17499923706055,50.17499923706055,50.17499923706055,50.17499923706055,100.0
2020-08-19,50.22999954223633,50.18000030517578,50.22999954223633,50.18000030517578,200.0
2020-08-20,50.20000076293945,50.20000076293945,50.20000076293945,50.20000076293945,0.0
2020-08-21,50.2599983215332,50.21500015258789,50.2599983215332,50.22000122070313,200.0
