Date,High,Low,Open,Close,Volume
2020-05-19,40.36999893188477,40.1349983215332,40.34000015258789,40.1349983215332,900
2020-05-20,40.650001525878906,40.599998474121094,40.599998474121094,40.61299896240234,200
2020-05-21,40.599998474121094,40.27000045776367,40.599998474121094,40.310001373291016,1700
2020-05-22,40.33000183105469,40.33000183105469,40.33000183105469,40.33000183105469,400
2020-05-26,41.25,41.00500106811523,41.25,41.00500106811523,700
2020-05-27,41.430999755859375,40.86000061035156,41.04999923706055,41.430999755859375,900
2020-05-28,41.88000106811523,41.43999862670898,41.650001525878906,41.43999862670898,1400
2020-05-29,41.599998474121094,41.400001525878906,41.400001525878906,41.599998474121094,700
2020-06-01,41.849998474121094,41.68999862670898,41.68999862670898,41.849998474121094,600
2020-06-02,41.849998474121094,41.849998474121094,41.849998474121094,41.849998474121094,0
2020-06-03,42.72600173950195,42.54999923706055,42.54999923706055,42.72600173950195,600
2020-06-04,42.83000183105469,42.49700164794922,42.7400016784668,42.49700164794922,1100
2020-06-05,43.709999084472656,43.40999984741211,43.40999984741211,43.584999084472656,1200
2020-06-08,44.09299850463867,43.86000061035156,43.86000061035156,44.09299850463867,800
2020-06-09,43.97000122070313,43.84000015258789,43.84000015258789,43.858001708984375,4903100
2020-06-10,43.93999862670898,43.58000183105469,43.790000915527344,43.61999893188477,7800
2020-06-11,42.61999893188477,41.30500030517578,42.61999893188477,41.30500030517578,2200
2020-06-12,42.22000122070313,41.310001373291016,42.099998474121094,41.68999862670898,3100
2020-06-15,42.150001525878906,40.7400016784668,40.7400016784668,41.979000091552734,2500
2020-06-16,43.11000061035156,42.150001525878906,43.06999969482422,42.722999572753906,22300
2020-06-17,42.81499862670898,42.81499862670898,42.81499862670898,42.81499862670898,100
2020-06-18,42.6349983215332,42.6349983215332,42.6349983215332,42.6349983215332,200
2020-06-19,43.060001373291016,42.45000076293945,43.060001373291016,42.59600067138672,1900
2020-06-22,42.70500183105469,42.5099983215332,42.5099983215332,42.70500183105469,400
2020-06-23,43.03400039672852,43.03400039672852,43.03400039672852,43.03400039672852,0
2020-06-24,42.349998474121094,41.91600036621094,42.349998474121094,41.91600036621094,1500
2020-06-25,42.290000915527344,41.88999938964844,41.88999938964844,42.28499984741211,1600
2020-06-26,41.86000061035156,41.435001373291016,41.86000061035156,41.435001373291016,1100
2020-06-29,41.77999877929688,41.58000183105469,41.58000183105469,41.77999877929688,99200
2020-06-30,42.70000076293945,42.060001373291016,42.060001373291016,42.70000076293945,2300
2020-07-01,42.875,42.76900100708008,42.790000915527344,42.875,400
2020-07-02,43.36000061035156,43.03900146484375,43.36000061035156,43.03900146484375,300
2020-07-06,43.77899932861328,43.77899932861328,43.77899932861328,43.77899932861328,100
2020-07-07,43.7400016784668,43.54499816894531,43.72000122070313,43.54499816894531,800
2020-07-08,43.67499923706055,43.67499923706055,43.67499923706055,43.67499923706055,0
2020-07-09,43.68999862670898,43.2599983215332,43.68999862670898,43.499000549316406,1800
2020-07-10,43.915000915527344,43.59000015258789,43.59000015258789,43.915000915527344,3700
2020-07-13,44.43999862670898,43.68999862670898,44.20000076293945,43.68999862670898,1600
2020-07-14,44.099998474121094,43.45000076293945,43.45000076293945,44.099998474121094,1100
2020-07-15,44.45500183105469,44.45500183105469,44.45500183105469,44.45500183105469,100
2020-07-16,44.29700088500977,44.27000045776367,44.27000045776367,44.29700088500977,300
2020-07-17,44.45299911499024,44.45299911499024,44.45299911499024,44.45299911499024,100
2020-07-20,44.93199920654297,44.93199920654297,44.93199920654297,44.93199920654297,0
2020-07-21,44.89500045776367,44.89500045776367,44.89500045776367,44.89500045776367,100
2020-07-22,45.19400024414063,45.19400024414063,45.19400024414063,45.19400024414063,100
2020-07-23,44.61000061035156,44.56800079345703,44.61000061035156,44.56800079345703,400
2020-07-24,44.30500030517578,44.30500030517578,44.30500030517578,44.30500030517578,0
2020-07-27,44.65700149536133,44.65700149536133,44.65700149536133,44.65700149536133,100
2020-07-28,44.36000061035156,44.36000061035156,44.36000061035156,44.36000061035156,100
2020-07-29,44.89300155639648,44.89300155639648,44.89300155639648,44.89300155639648,100
2020-07-30,44.76399993896485,44.76399993896485,44.76399993896485,44.76399993896485,100
2020-07-31,45.04499816894531,45.04499816894531,45.04499816894531,45.04499816894531,0
2020-08-03,45.50299835205078,45.50299835205078,45.50299835205078,45.50299835205078,0
2020-08-04,45.60499954223633,45.60499954223633,45.60499954223633,45.60499954223633,0
2020-08-05,45.94599914550781,45.94599914550781,45.94599914550781,45.94599914550781,100
2020-08-06,46.21699905395508,46.21699905395508,46.21699905395508,46.21699905395508,0
2020-08-07,46.19599914550781,46.19599914550781,46.19599914550781,46.19599914550781,100
2020-08-10,46.2859992980957,46.08000183105469,46.27000045776367,46.2859992980957,5900
2020-08-11,46.36000061035156,45.88000106811523,46.36000061035156,45.959999084472656,2400
2020-08-12,47.38000106811523,46.38999938964844,46.52000045776367,46.584999084472656,7200
2020-08-13,46.59000015258789,46.54399871826172,46.59000015258789,46.54399871826172,4100
2020-08-14,46.51399993896485,46.51399993896485,46.51399993896485,46.51399993896485,0
2020-08-17,46.737998962402344,46.737998962402344,46.737998962402344,46.737998962402344,0
2020-08-18,46.85699844360352,46.85699844360352,46.85699844360352,46.85699844360352,100
2020-08-19,46.67599868774414,46.67599868774414,46.67599868774414,46.67599868774414,100
2020-08-20,46.89599990844727,46.89599990844727,46.89599990844727,46.89599990844727,100
2020-08-21,47.07699966430664,46.95000076293945,46.95000076293945,47.07699966430664,300
