Date,High,Low,Open,Close,Volume
2020-06-26,25.21999931335449,25.170000076293945,25.190000534057614,25.170000076293945,11600.0
2020-06-29,25.239999771118164,25.190000534057614,25.21999931335449,25.239999771118164,3300.0
2020-06-30,25.309999465942386,25.26000022888184,25.26000022888184,25.30699920654297,49300.0
2020-07-01,25.375,25.3700008392334,25.3700008392334,25.375,700.0
2020-07-02,25.472999572753906,25.34000015258789,25.34000015258789,25.472999572753906,4100.0
2020-07-06,25.53000068664551,25.459999084472656,25.479999542236328,25.53000068664551,16500.0
2020-07-07,25.59600067138672,25.59600067138672,25.59600067138672,25.59600067138672,100.0
2020-07-08,25.59000015258789,25.57999992370605,25.59000015258789,25.57999992370605,1400.0
2020-07-09,25.625,25.59000015258789,25.60000038146973,25.625,1300.0
2020-07-10,25.63999938964844,25.55500030517578,25.63999938964844,25.55500030517578,3500.0
2020-07-13,25.60000038146973,25.56999969482422,25.56999969482422,25.56999969482422,600.0
2020-07-14,25.71999931335449,25.6299991607666,25.649999618530273,25.65999984741211,2000.0
2020-07-15,25.709999084472656,25.68000030517578,25.709999084472656,25.70499992370605,2800.0
2020-07-16,25.809999465942386,25.71999931335449,25.71999931335449,25.78000068664551,1100.0
2020-07-17,25.8799991607666,25.7810001373291,25.81999969482422,25.82999992370605,4800.0
2020-07-20,25.920000076293945,25.76000022888184,25.88999938964844,25.8799991607666,695800.0
2020-07-21,26.04999923706055,25.92700004577637,25.92700004577637,25.979999542236328,59800.0
2020-07-22,26.04999923706055,26.020000457763672,26.03199958801269,26.020000457763672,2500.0
2020-07-23,26.13999938964844,26.020000457763672,26.1200008392334,26.024999618530273,3200.0
2020-07-24,26.059999465942386,25.96999931335449,26.0,26.0,9000.0
2020-07-27,26.07999992370605,25.89900016784668,26.07999992370605,25.89900016784668,4300.0
2020-07-28,26.01000022888184,25.934999465942386,26.0,25.934999465942386,6300.0
2020-07-29,26.024999618530273,25.95000076293945,25.989999771118164,26.024999618530273,1500.0
2020-07-30,26.04999923706055,26.0,26.03000068664551,26.03499984741211,1500.0
2020-07-31,26.1200008392334,26.040000915527344,26.09000015258789,26.07999992370605,1100.0
2020-08-03,26.11000061035156,26.05500030517578,26.059999465942386,26.084999084472656,1700.0
2020-08-04,26.18000030517578,26.145000457763672,26.18000030517578,26.145000457763672,600.0
2020-08-05,26.15999984741211,26.11000061035156,26.1299991607666,26.1299991607666,1600.0
2020-08-06,26.19499969482422,26.19499969482422,26.19499969482422,26.19499969482422,300.0
2020-08-07,26.239999771118164,26.170000076293945,26.239999771118164,26.170000076293945,2700.0
2020-08-10,26.18000030517578,26.07999992370605,26.18000030517578,26.125,1600.0
2020-08-11,26.149999618530273,26.01000022888184,26.10000038146973,26.040000915527344,5300.0
2020-08-12,26.020000457763672,25.94499969482422,26.0,25.959999084472656,3100.0
2020-08-13,25.96999931335449,25.75,25.88999938964844,25.78000068664551,9100.0
2020-08-14,25.82999992370605,25.729999542236328,25.82999992370605,25.729999542236328,1100.0
2020-08-17,25.90999984741211,25.815000534057614,25.90999984741211,25.815000534057614,2400.0
2020-08-18,25.93000030517578,25.84000015258789,25.920000076293945,25.93000030517578,6600.0
2020-08-19,25.95000076293945,25.834999084472656,25.95000076293945,25.834999084472656,4800.0
2020-08-20,25.979999542236328,25.82999992370605,25.979999542236328,25.88999938964844,2700.0
2020-08-21,25.93000030517578,25.920000076293945,25.920000076293945,25.93000030517578,500.0
2020-08-24,25.989999771118164,25.8700008392334,25.989999771118164,25.93000030517578,11800.0
2020-08-25,25.88999938964844,25.79999923706055,25.8700008392334,25.79999923706055,5924.0
