Date,High,Low,Open,Close,Volume
2020-08-21,52.54999923706055,52.36000061035156,52.54999923706055,52.47589874267578,2971.0
2020-08-25,52.67250061035156,52.31000137329102,52.63000106811523,52.31000137329102,1057.0
