Date,High,Low,Open,Close,Volume
2018-05-14,24.540000915527344,24.540000915527344,24.540000915527344,24.540000915527344,0.0
2018-05-15,24.690000534057614,24.540000915527344,24.690000534057614,24.540000915527344,104237.0
2018-05-16,24.57999992370605,24.46500015258789,24.57999992370605,24.46500015258789,2108.0
2018-05-17,24.43000030517578,24.322599411010746,24.43000030517578,24.322599411010746,2101.0
2018-05-18,24.32999992370605,24.21999931335449,24.32999992370605,24.21999931335449,2100.0
2018-05-21,24.479999542236328,24.3700008392334,24.3700008392334,24.479999542236328,6000.0
2018-05-22,24.479999542236328,24.420000076293945,24.420000076293945,24.479999542236328,1009.0
2018-05-23,24.79999923706055,24.51000022888184,24.540000915527344,24.79999923706055,12301.0
2018-05-24,24.65999984741211,24.65999984741211,24.65999984741211,24.65999984741211,100.0
2018-05-25,24.85000038146973,24.790000915527344,24.79999923706055,24.790000915527344,4300.0
2018-05-29,24.84000015258789,24.709999084472656,24.709999084472656,24.84000015258789,6500.0
2018-05-30,25.229999542236328,24.88999938964844,24.88999938964844,25.229999542236328,11800.0
2018-05-31,25.1299991607666,25.059999465942386,25.059999465942386,25.06999969482422,4301.0
2018-06-01,25.28510093688965,25.28510093688965,25.28510093688965,25.28510093688965,100.0
2018-06-04,25.459999084472656,25.229999542236328,25.399999618530273,25.459999084472656,50500.0
2018-06-05,25.479900360107425,25.439899444580078,25.479900360107425,25.440000534057614,1412.0
2018-06-06,25.479999542236328,25.479999542236328,25.479999542236328,25.479999542236328,100.0
2018-06-07,25.3799991607666,25.3799991607666,25.3799991607666,25.3799991607666,105.0
2018-06-08,25.399999618530273,25.399999618530273,25.399999618530273,25.399999618530273,105.0
2018-06-11,25.43000030517578,25.29999923706055,25.43000030517578,25.35000038146973,997.0
2018-06-12,25.53459930419922,25.53459930419922,25.53459930419922,25.53459930419922,100.0
2018-06-13,25.12089920043945,25.12089920043945,25.12089920043945,25.12089920043945,100.0
2018-06-14,25.12089920043945,25.12089920043945,25.12089920043945,25.12089920043945,0.0
2018-06-15,25.12089920043945,25.12089920043945,25.12089920043945,25.12089920043945,0.0
2018-06-18,25.229999542236328,25.13999938964844,25.229999542236328,25.13999938964844,340.0
2018-06-19,25.309999465942386,25.309999465942386,25.309999465942386,25.309999465942386,104.0
2018-06-20,25.3843994140625,25.3843994140625,25.3843994140625,25.3843994140625,100.0
2018-06-21,25.4606990814209,25.4606990814209,25.4606990814209,25.4606990814209,110.0
2018-06-22,25.53000068664551,25.332500457763672,25.53000068664551,25.332500457763672,895.0
2018-06-25,25.46050071716309,25.46050071716309,25.46050071716309,25.46050071716309,100.0
2018-06-26,25.63979911804199,25.61000061035156,25.63500022888184,25.61000061035156,400.0
2018-06-27,25.70000076293945,25.57999992370605,25.70000076293945,25.59980010986328,659.0
2018-06-28,25.70000076293945,25.70000076293945,25.70000076293945,25.70000076293945,113.0
2018-06-29,25.88999938964844,25.65999984741211,25.65999984741211,25.88999938964844,353.0
2018-07-02,25.56990051269531,25.53000068664551,25.56990051269531,25.53219985961914,1388.0
2018-07-03,25.96999931335449,25.920000076293945,25.96999931335449,25.920000076293945,391.0
2018-07-05,25.861900329589844,25.861900329589844,25.861900329589844,25.861900329589844,125.0
2018-07-06,26.07999992370605,26.07999992370605,26.07999992370605,26.07999992370605,153.0
2018-07-09,25.85980033874512,25.760700225830078,25.82999992370605,25.85980033874512,2088.0
2018-07-10,25.88479995727539,25.88479995727539,25.88479995727539,25.88479995727539,292.0
2018-07-11,25.87989997863769,25.84499931335449,25.87989997863769,25.84499931335449,726.0
2018-07-12,25.907100677490234,25.85000038146973,25.85000038146973,25.86989974975586,1084.0
2018-07-13,25.909799575805664,25.90539932250977,25.909799575805664,25.90539932250977,508.0
2018-07-16,25.69899940490723,25.5851993560791,25.69899940490723,25.61000061035156,901.0
2018-07-17,25.54999923706055,25.424699783325195,25.54999923706055,25.424699783325195,276.0
2018-07-18,25.1200008392334,24.958999633789066,25.1200008392334,25.09000015258789,2401.0
2018-07-19,25.459999084472656,25.259899139404297,25.290000915527344,25.45000076293945,10505.0
2018-07-20,25.45000076293945,25.45000076293945,25.45000076293945,25.45000076293945,0.0
2018-07-23,25.45000076293945,25.45000076293945,25.45000076293945,25.45000076293945,0.0
2018-07-24,24.79999923706055,24.770000457763672,24.78709983825684,24.79999923706055,11152.0
2018-07-25,24.979999542236328,24.8700008392334,24.899999618530273,24.979999542236328,3502.0
2018-07-26,25.239999771118164,25.239999771118164,25.239999771118164,25.239999771118164,549.0
2018-07-27,25.239999771118164,25.239999771118164,25.239999771118164,25.239999771118164,0.0
2018-07-30,25.239999771118164,25.239999771118164,25.239999771118164,25.239999771118164,0.0
2018-07-31,25.45989990234375,25.45989990234375,25.45989990234375,25.45989990234375,199.0
2018-08-01,25.24990081787109,25.24990081787109,25.24990081787109,25.24990081787109,235.0
2018-08-02,25.489900588989254,25.489900588989254,25.489900588989254,25.489900588989254,290.0
2018-08-03,25.489900588989254,25.489900588989254,25.489900588989254,25.489900588989254,0.0
2018-08-06,25.76000022888184,25.76000022888184,25.76000022888184,25.76000022888184,198.0
2018-08-07,25.51989936828613,25.509899139404297,25.51989936828613,25.509899139404297,1416.0
2018-08-08,25.509899139404297,25.509899139404297,25.509899139404297,25.509899139404297,0.0
2018-08-09,25.51000022888184,25.51000022888184,25.51000022888184,25.51000022888184,100.0
2018-08-10,25.540000915527344,25.45000076293945,25.540000915527344,25.45000076293945,300.0
2018-08-13,25.45000076293945,25.3700008392334,25.45000076293945,25.3700008392334,284.0
2018-08-14,25.363399505615234,25.3518009185791,25.3518009185791,25.363399505615234,200.0
2018-08-15,25.41959953308105,25.4060001373291,25.41959953308105,25.4060001373291,200.0
2018-08-16,25.4060001373291,25.4060001373291,25.4060001373291,25.4060001373291,0.0
2018-08-17,25.95499992370605,25.94890022277832,25.94890022277832,25.95499992370605,200.0
2018-08-20,26.21859931945801,26.101600646972656,26.101600646972656,26.20000076293945,1183.0
2018-08-21,26.0,25.97500038146973,26.0,25.97500038146973,310.0
2018-08-22,25.51000022888184,25.42819976806641,25.51000022888184,25.45000076293945,972.0
2018-08-23,25.3700008392334,25.345800399780273,25.36269950866699,25.3700008392334,1300.0
2018-08-24,25.60000038146973,25.46999931335449,25.46999931335449,25.60000038146973,1011.0
2018-08-27,25.56999969482422,25.53109931945801,25.54999923706055,25.559999465942386,2205.0
2018-08-28,25.6200008392334,25.6200008392334,25.6200008392334,25.6200008392334,100.0
2018-08-29,26.01000022888184,25.91239929199219,26.01000022888184,25.925899505615234,2797.0
2018-08-30,25.809999465942386,25.79030036926269,25.79030036926269,25.79800033569336,5387.0
2018-08-31,25.85000038146973,25.81999969482422,25.81999969482422,25.847999572753906,1157.0
2018-09-04,25.862199783325195,25.50860023498535,25.862199783325195,25.50860023498535,1263.0
2018-09-05,25.79999923706055,25.40760040283203,25.40760040283203,25.770000457763672,1302.0
2018-09-06,25.82690048217773,25.82690048217773,25.82690048217773,25.82690048217773,118.0
2018-09-07,25.5,25.5,25.5,25.5,143.0
2018-09-10,25.57999992370605,25.57999992370605,25.57999992370605,25.57999992370605,100.0
2018-09-11,25.6200008392334,25.53689956665039,25.53689956665039,25.6200008392334,1100.0
2018-09-12,25.57900047302246,25.52739906311035,25.559999465942386,25.57900047302246,488.0
2018-09-13,25.76989936828613,25.67519950866699,25.67519950866699,25.754499435424805,681.0
2018-09-14,25.583999633789066,25.57710075378418,25.57710075378418,25.583999633789066,290.0
2018-09-17,25.583999633789066,25.583999633789066,25.583999633789066,25.583999633789066,0.0
2018-09-18,25.583999633789066,25.583999633789066,25.583999633789066,25.583999633789066,0.0
2018-09-19,25.37989997863769,25.37989997863769,25.37989997863769,25.37989997863769,474.0
2018-09-20,25.52199935913086,25.52199935913086,25.52199935913086,25.52199935913086,132.0
2018-09-21,25.52199935913086,25.52199935913086,25.52199935913086,25.52199935913086,0.0
2018-09-24,25.52199935913086,25.52199935913086,25.52199935913086,25.52199935913086,0.0
2018-09-25,25.0,25.0,25.0,25.0,379.0
2018-09-26,24.90999984741211,24.895000457763672,24.90999984741211,24.895000457763672,733.0
2018-09-27,24.814699172973636,24.739999771118164,24.739999771118164,24.814699172973636,303.0
2018-09-28,24.814699172973636,24.814699172973636,24.814699172973636,24.814699172973636,0.0
2018-10-01,24.814699172973636,24.814699172973636,24.814699172973636,24.814699172973636,0.0
2018-10-02,24.82999992370605,24.82999992370605,24.82999992370605,24.82999992370605,100.0
2018-10-03,24.93000030517578,24.739999771118164,24.93000030517578,24.739999771118164,1391.0
2018-10-04,24.481000900268555,24.290000915527344,24.290000915527344,24.481000900268555,568.0
2018-10-05,24.60000038146973,24.53039932250977,24.54150009155273,24.60000038146973,874.0
2018-10-08,24.60000038146973,24.60000038146973,24.60000038146973,24.60000038146973,0.0
2018-10-09,24.97780036926269,24.92099952697754,24.92099952697754,24.97780036926269,521.0
2018-10-10,24.979999542236328,24.979900360107425,24.979999542236328,24.979999542236328,726.0
2018-10-11,24.55940055847168,24.01580047607422,24.55940055847168,24.02899932861328,6339.0
2018-10-12,24.09900093078613,23.79999923706055,24.09900093078613,23.79999923706055,3041.0
2018-10-15,23.79999923706055,23.79999923706055,23.79999923706055,23.79999923706055,0.0
2018-10-16,24.15999984741211,23.95000076293945,24.15999984741211,23.95000076293945,5380.0
2018-10-17,24.53000068664551,24.29800033569336,24.53000068664551,24.3799991607666,3630.0
2018-10-18,24.520000457763672,24.32999992370605,24.43000030517578,24.32999992370605,1265.0
2018-10-19,24.40999984741211,24.40999984741211,24.40999984741211,24.40999984741211,300.0
2018-10-22,24.61000061035156,24.61000061035156,24.61000061035156,24.61000061035156,5274.0
2018-10-23,24.34000015258789,24.34000015258789,24.34000015258789,24.34000015258789,339.0
2018-10-24,24.979999542236328,24.65999984741211,24.65999984741211,24.96949958801269,1397.0
2018-10-25,25.190000534057614,25.01000022888184,25.01000022888184,25.17989921569824,2423.0
2018-10-26,24.809999465942386,24.72450065612793,24.809999465942386,24.783000946044922,2529.0
2018-10-29,25.11230087280273,25.01160049438477,25.11230087280273,25.01160049438477,1464.0
2018-10-30,25.34000015258789,25.177099227905273,25.309999465942386,25.177099227905273,1740.0
2018-10-31,25.177099227905273,25.177099227905273,25.177099227905273,25.177099227905273,0.0
2018-11-01,24.8700008392334,24.809999465942386,24.8700008392334,24.809999465942386,713.0
2018-11-02,24.75,24.54999923706055,24.75,24.558000564575195,1250.0
2018-11-05,24.939899444580078,24.90999984741211,24.939899444580078,24.90999984741211,420.0
2018-11-06,25.059999465942386,25.028400421142575,25.028400421142575,25.059999465942386,590.0
2018-11-07,25.309999465942386,25.309999465942386,25.309999465942386,25.309999465942386,250.0
2018-11-08,25.47570037841797,25.47570037841797,25.47570037841797,25.47570037841797,320.0
2018-11-09,25.56999969482422,25.404300689697266,25.56999969482422,25.45829963684082,10512.0
2018-11-12,25.63999938964844,25.63999938964844,25.63999938964844,25.63999938964844,250.0
2018-11-13,25.53000068664551,25.399999618530273,25.497900009155273,25.46999931335449,7275.0
2018-11-14,25.709999084472656,25.60000038146973,25.649999618530273,25.6299991607666,10619.0
2018-11-15,25.46999931335449,25.43000030517578,25.46999931335449,25.43199920654297,1098.0
2018-11-16,25.75,25.559999465942386,25.559999465942386,25.75,1345.0
2018-11-19,25.86949920654297,25.76000022888184,25.86949920654297,25.812000274658203,12454.0
2018-11-20,25.92250061035156,25.729900360107425,25.92250061035156,25.729900360107425,1995.0
2018-11-21,25.87709999084473,25.773500442504886,25.773500442504886,25.80769920349121,500.0
2018-11-23,25.80769920349121,25.80769920349121,25.80769920349121,25.80769920349121,0.0
2018-11-26,25.63999938964844,25.45000076293945,25.63999938964844,25.49990081787109,8482.0
2018-11-27,25.60510063171387,25.420000076293945,25.420000076293945,25.60510063171387,3989.0
2018-11-28,25.670000076293945,25.670000076293945,25.670000076293945,25.670000076293945,200.0
2018-11-29,25.71999931335449,25.71999931335449,25.71999931335449,25.71999931335449,300.0
2018-11-30,25.86000061035156,25.739999771118164,25.86000061035156,25.790000915527344,2694.0
2018-12-03,25.790000915527344,25.790000915527344,25.790000915527344,25.790000915527344,0.0
2018-12-04,26.25,25.81999969482422,26.25,25.81999969482422,380.0
2018-12-06,26.00399971008301,25.404800415039066,25.404800415039066,26.00399971008301,300.0
2018-12-07,26.285200119018555,26.11000061035156,26.285200119018555,26.149999618530273,3303.0
2018-12-10,26.12989997863769,25.92989921569824,25.92989921569824,26.024999618530273,314.0
2018-12-11,26.285999298095703,26.10619926452637,26.270099639892575,26.119400024414066,4280.0
2018-12-12,26.26000022888184,25.58209991455078,26.26000022888184,25.58209991455078,827.0
2018-12-13,26.01000022888184,25.79330062866211,25.80850028991699,25.79330062866211,2110.0
2018-12-14,25.805599212646484,25.76499938964844,25.76499938964844,25.80010032653809,690.0
2018-12-17,25.74990081787109,24.93199920654297,25.74990081787109,24.93199920654297,1928.0
2018-12-18,25.29999923706055,24.96999931335449,24.96999931335449,25.214799880981445,694.0
2018-12-19,25.21999931335449,24.89349937438965,25.060100555419922,24.89349937438965,400.0
2018-12-20,24.863300323486328,24.52389907836914,24.863300323486328,24.52389907836914,140.0
2018-12-21,24.78000068664551,24.27739906311035,24.78000068664551,24.27739906311035,407.0
2018-12-24,23.1560001373291,23.097299575805664,23.1299991607666,23.097299575805664,276.0
2018-12-26,23.88949966430664,23.185199737548828,23.185199737548828,23.88949966430664,1300.0
2018-12-27,23.75320053100586,23.43199920654297,23.458999633789066,23.75320053100586,403.0
2018-12-28,24.007999420166016,23.86759948730469,23.979999542236328,23.86759948730469,1402.0
2018-12-31,23.98769950866699,23.739999771118164,23.739999771118164,23.98769950866699,246.0
2019-01-02,23.509899139404297,23.409099578857425,23.509899139404297,23.409099578857425,101.0
2019-01-03,23.549699783325195,23.3700008392334,23.3700008392334,23.375200271606445,752.0
2019-01-04,23.8799991607666,23.74990081787109,23.74990081787109,23.798099517822266,550.0
2019-01-07,24.12019920349121,23.81999969482422,23.81999969482422,24.12019920349121,188.0
2019-01-08,24.766300201416016,24.37610054016113,24.37610054016113,24.766300201416016,151.0
2019-01-09,24.827899932861328,24.70000076293945,24.827899932861328,24.795299530029297,1151.0
2019-01-10,25.15419960021973,24.766000747680664,24.78899955749512,25.15419960021973,905.0
2019-01-11,25.291000366210934,25.0900993347168,25.0900993347168,25.291000366210934,315.0
2019-01-14,25.3700008392334,25.238000869750977,25.28899955749512,25.282400131225586,1406.0
2019-01-15,25.565000534057614,25.3799991607666,25.3799991607666,25.481599807739254,930.0
2019-01-16,25.66830062866211,25.5004997253418,25.559999465942386,25.66830062866211,1151.0
2019-01-17,25.892099380493164,25.71500015258789,25.71500015258789,25.892099380493164,803.0
2019-01-18,25.977399826049805,25.899999618530273,25.899999618530273,25.977399826049805,181.0
2019-01-22,26.04689979553223,25.990100860595703,26.04019927978516,25.99900054931641,1608.0
2019-01-23,26.20359992980957,26.170000076293945,26.170000076293945,26.20359992980957,200.0
2019-01-24,26.33989906311035,26.20509910583496,26.229999542236328,26.20509910583496,1884.0
2019-01-25,26.60519981384277,26.399999618530273,26.399999618530273,26.60519981384277,459.0
2019-01-28,26.86000061035156,26.61599922180176,26.65900039672852,26.86000061035156,1487.0
2019-01-29,27.01650047302246,26.91780090332031,26.91780090332031,27.01650047302246,202.0
2019-01-30,27.40999984741211,27.13999938964844,27.149999618530273,27.322999954223636,18657.0
2019-01-31,27.444599151611328,27.29999923706055,27.29999923706055,27.444599151611328,3291.0
2019-02-01,27.44569969177246,27.07999992370605,27.34000015258789,27.44569969177246,8759.0
2019-02-04,27.673999786376953,27.36000061035156,27.38500022888184,27.673999786376953,2000.0
2019-02-05,27.75379943847656,27.45050048828125,27.585899353027344,27.75379943847656,3772.0
2019-02-06,27.60000038146973,27.5049991607666,27.54999923706055,27.578899383544922,7027.0
2019-02-07,27.99519920349121,27.56739997863769,27.56739997863769,27.99519920349121,1580.0
2019-02-08,28.122499465942386,27.920000076293945,28.020000457763672,27.947399139404297,2851.0
2019-02-11,28.1299991607666,27.981599807739254,28.057600021362305,28.065099716186523,6249.0
2019-02-12,27.979999542236328,27.851600646972656,27.907100677490234,27.95000076293945,14853.0
2019-02-13,27.962099075317386,27.92079925537109,27.959999084472656,27.962099075317386,50308.0
2019-02-14,28.04999923706055,27.79999923706055,27.819000244140625,27.92729949951172,3221.0
2019-02-15,28.04999923706055,27.8799991607666,27.8799991607666,28.034799575805664,5839.0
2019-02-19,28.18000030517578,28.04999923706055,28.04999923706055,28.11319923400879,2717.0
2019-02-20,28.190000534057614,27.81999969482422,28.190000534057614,27.90690040588379,782.0
2019-02-21,28.1200008392334,27.85000038146973,27.85000038146973,28.11590003967285,1481.0
2019-02-22,28.399999618530273,28.34720039367676,28.3799991607666,28.34720039367676,1785.0
2019-02-25,28.45840072631836,28.29999923706055,28.306499481201172,28.335100173950195,15561.0
2019-02-26,28.289899826049805,28.193199157714844,28.209999084472656,28.243600845336914,1438.0
2019-02-27,28.01749992370605,28.0,28.01110076904297,28.009599685668945,866.0
2019-02-28,28.358999252319336,28.01000022888184,28.01000022888184,28.09749984741211,2207.0
2019-03-01,28.09000015258789,27.63999938964844,28.09000015258789,27.94389915466309,2115.0
2019-03-04,28.059999465942386,27.83830070495605,27.979999542236328,28.05830001831055,2183.0
2019-03-05,28.194299697875977,28.027700424194336,28.027700424194336,28.100400924682614,2661.0
2019-03-06,28.045000076293945,27.854999542236328,28.045000076293945,27.90119934082031,1734.0
2019-03-07,27.996700286865234,27.672399520874023,27.979999542236328,27.672399520874023,3312.0
2019-03-08,27.815900802612305,27.69289970397949,27.770000457763672,27.815900802612305,908.0
2019-03-11,28.36199951171875,27.989900588989254,28.03940010070801,28.36199951171875,2301.0
2019-03-12,28.63999938964844,28.48480033874512,28.48480033874512,28.50419998168945,2095.0
2019-03-13,28.739999771118164,28.67189979553223,28.739999771118164,28.67189979553223,349.0
2019-03-14,28.72900009155273,28.63500022888184,28.71999931335449,28.685400009155273,1826.0
2019-03-15,28.790000915527344,28.64189910888672,28.64189910888672,28.65539932250977,559.0
2019-03-18,28.8799991607666,28.56999969482422,28.79999923706055,28.64369964599609,1759.0
2019-03-19,28.649999618530273,28.53249931335449,28.631000518798828,28.554500579833984,2412.0
2019-03-20,28.86000061035156,28.3838005065918,28.618999481201172,28.629499435424805,1259.0
2019-03-21,29.059999465942386,28.809999465942386,28.809999465942386,29.015300750732425,5677.0
2019-03-22,29.19260025024414,28.74850082397461,29.149999618530273,28.74850082397461,7633.0
2019-03-25,28.82999992370605,28.694499969482425,28.74379920959473,28.731599807739254,5357.0
2019-03-26,28.78899955749512,28.6299991607666,28.6299991607666,28.78899955749512,3199.0
2019-03-27,28.768999099731445,28.52799987792969,28.71999931335449,28.69109916687012,2645.0
2019-03-28,28.949199676513672,28.78260040283203,28.888999938964844,28.949199676513672,1006.0
2019-03-29,28.88999938964844,28.721200942993164,28.88999938964844,28.721200942993164,5889.0
2019-04-01,28.839099884033203,28.51000022888184,28.75950050354004,28.839099884033203,2999.0
2019-04-02,28.90950012207031,28.649999618530273,28.76440048217773,28.90950012207031,528.0
2019-04-03,29.040000915527344,28.84679985046387,28.84679985046387,28.90690040588379,958.0
2019-04-04,29.0,28.744800567626953,29.0,28.88039970397949,2537.0
2019-04-05,28.998300552368164,28.86540031433105,28.95210075378418,28.998300552368164,1474.0
2019-04-08,28.88999938964844,28.84480094909668,28.84480094909668,28.86590003967285,2103.0
2019-04-09,28.84000015258789,28.64189910888672,28.84000015258789,28.64189910888672,2513.0
2019-04-10,29.1200008392334,28.872600555419922,28.872600555419922,29.10460090637207,3344.0
2019-04-11,29.177400588989254,29.01490020751953,29.17600059509277,29.08839988708496,3403.0
2019-04-12,29.18470001220703,28.92959976196289,28.92959976196289,29.18470001220703,3315.0
2019-04-15,29.149999618530273,28.88990020751953,29.149999618530273,28.93000030517578,1791.0
2019-04-16,28.70000076293945,28.40399932861328,28.70000076293945,28.40399932861328,3245.0
2019-04-17,28.5,28.20100021362305,28.5,28.235700607299805,3539.0
2019-04-18,28.59000015258789,28.390899658203125,28.40999984741211,28.52989959716797,2607.0
2019-04-22,28.31999969482422,28.0,28.31999969482422,28.23769950866699,1643.0
2019-04-23,28.79999923706055,28.57999992370605,28.57999992370605,28.770999908447266,1574.0
2019-04-24,29.06999969482422,29.0,29.0,29.04269981384277,2454.0
2019-04-25,29.13850021362305,29.0,29.0,29.13850021362305,103765.0
2019-04-26,29.30139923095703,29.19980049133301,29.23320007324219,29.25349998474121,6491.0
2019-04-29,29.31999969482422,29.13330078125,29.31999969482422,29.13330078125,3171.0
2019-04-30,29.471399307250977,29.059999465942386,29.059999465942386,29.471399307250977,2714.0
2019-05-01,29.96269989013672,29.5,29.5,29.67200088500977,8520.0
2019-05-02,29.788000106811523,29.36000061035156,29.788000106811523,29.404600143432614,5474.0
2019-05-03,29.739999771118164,29.43000030517578,29.649999618530273,29.701099395751953,1549.0
2019-05-06,29.57999992370605,29.420000076293945,29.420000076293945,29.563499450683594,10640.0
2019-05-07,29.18000030517578,28.76000022888184,29.18000030517578,28.890899658203125,7403.0
2019-05-08,29.1200008392334,28.828399658203125,29.1200008392334,28.828399658203125,6961.0
2019-05-09,28.95120048522949,28.63800048828125,28.65999984741211,28.935400009155273,3113.0
2019-05-10,29.20000076293945,29.13129997253418,29.13999938964844,29.13129997253418,685.0
2019-05-13,29.00209999084473,28.90250015258789,28.90250015258789,29.00209999084473,4172.0
2019-05-14,29.149999618530273,29.04800033569336,29.149999618530273,29.13689994812012,4015.0
2019-05-15,29.440000534057614,29.20000076293945,29.20000076293945,29.354799270629886,1776.0
2019-05-16,29.624500274658203,29.49679946899414,29.49679946899414,29.583599090576172,1412.0
2019-05-17,29.54999923706055,29.45000076293945,29.45000076293945,29.54319953918457,2745.0
2019-05-20,29.420000076293945,29.083499908447266,29.420000076293945,29.083499908447266,3001.0
2019-05-21,29.54999923706055,29.336000442504886,29.36000061035156,29.52510070800781,9564.0
2019-05-22,29.59900093078613,29.459999084472656,29.50950050354004,29.581600189208984,4584.0
2019-05-23,29.559999465942386,29.40539932250977,29.559999465942386,29.461599349975586,3575.0
2019-05-24,29.79990005493164,29.508100509643555,29.707500457763672,29.508100509643555,4032.0
2019-05-28,29.690000534057614,29.35000038146973,29.690000534057614,29.353599548339844,9089.0
2019-05-29,29.3700008392334,28.718000411987305,29.3700008392334,28.789499282836914,5948.0
2019-05-30,29.020000457763672,28.82999992370605,28.93000030517578,28.89060020446777,10937.0
2019-05-31,29.018299102783203,28.68000030517578,28.68000030517578,28.97949981689453,1044.0
2019-06-03,29.24099922180176,28.93400001525879,28.96999931335449,29.24099922180176,5625.0
2019-06-04,29.16679954528809,28.85000038146973,29.16679954528809,29.10280036926269,6429.0
2019-06-05,29.874799728393555,29.3700008392334,29.40999984741211,29.874799728393555,2919.0
2019-06-06,30.14800071716309,29.790000915527344,30.040000915527344,30.12540054321289,7898.0
2019-06-07,30.40999984741211,30.31999969482422,30.358999252319336,30.32029914855957,10307.0
2019-06-10,30.420000076293945,30.190000534057614,30.239999771118164,30.32979965209961,5394.0
2019-06-11,30.540000915527344,30.10000038146973,30.540000915527344,30.306100845336914,3233.0
2019-06-12,30.649999618530273,30.44499969482422,30.5,30.57290077209473,11032.0
2019-06-13,30.864999771118164,30.70000076293945,30.709999084472656,30.84169960021973,4610.0
2019-06-14,31.059999465942386,30.809999465942386,30.809999465942386,31.00819969177246,16200.0
2019-06-17,31.4689998626709,31.08029937744141,31.1299991607666,31.417499542236328,5837.0
2019-06-18,31.8799991607666,31.440000534057614,31.78000068664551,31.49150085449219,16207.0
2019-06-19,31.8700008392334,31.347999572753906,31.57999992370605,31.842300415039066,8093.0
2019-06-20,32.31999969482422,32.154998779296875,32.200000762939446,32.23300170898437,10985.0
2019-06-21,32.169998168945305,31.5,32.169998168945305,31.58699989318848,21277.0
2019-06-24,31.66790008544922,31.347999572753906,31.54999923706055,31.529699325561523,7698.0
2019-06-25,31.74449920654297,31.27280044555664,31.633399963378906,31.27280044555664,9679.0
2019-06-26,31.190000534057614,30.500600814819336,31.190000534057614,30.64539909362793,10583.0
2019-06-27,30.899999618530273,30.65999984741211,30.65999984741211,30.8218994140625,7945.0
2019-06-28,31.268999099731445,30.989999771118164,30.989999771118164,31.206499099731445,5735.0
2019-07-01,31.540000915527344,30.90399932861328,31.540000915527344,31.31990051269531,7812.0
2019-07-02,31.699899673461914,31.399999618530273,31.399999618530273,31.654600143432614,5508.0
2019-07-03,32.130001068115234,31.790000915527344,31.82999992370605,32.11019897460937,5191.0
2019-07-05,32.209999084472656,31.58009910583496,31.96999931335449,32.09870147705078,8005.0
2019-07-08,32.15999984741211,32.041099548339844,32.15999984741211,32.041099548339844,3523.0
2019-07-09,32.367000579833984,32.02949905395508,32.040000915527344,32.367000579833984,5583.0
2019-07-10,32.64459991455078,32.37799835205078,32.56999969482422,32.499099731445305,10544.0
2019-07-11,32.59999847412109,32.108200073242195,32.59999847412109,32.12860107421875,3575.0
2019-07-12,31.920000076293945,31.70499992370605,31.920000076293945,31.877700805664066,3507.0
2019-07-15,32.029998779296875,31.84700012207031,31.899999618530273,31.86849975585937,10067.0
2019-07-16,32.222900390625,31.809999465942386,31.809999465942386,32.118900299072266,8721.0
2019-07-17,32.209999084472656,31.82999992370605,32.200000762939446,32.006698608398445,4556.0
2019-07-18,32.209999084472656,31.859100341796875,31.859100341796875,32.11330032348633,7417.0
2019-07-19,32.220001220703125,31.53000068664551,32.220001220703125,31.6200008392334,7102.0
2019-07-22,31.719900131225586,31.46999931335449,31.5,31.4906005859375,17236.0
2019-07-23,31.7185001373291,31.40999984741211,31.479999542236328,31.7185001373291,7268.0
2019-07-24,31.82999992370605,31.540000915527344,31.770000457763672,31.77790069580078,10724.0
2019-07-25,31.86000061035156,31.627300262451172,31.86000061035156,31.64940071105957,4403.0
2019-07-26,31.899999618530273,31.690000534057614,31.719600677490234,31.893400192260746,6006.0
2019-07-29,32.15999984741211,31.95000076293945,32.02000045776367,31.965999603271484,5800.0
2019-07-30,32.130001068115234,31.920000076293945,31.920000076293945,32.03730010986328,5001.0
2019-07-31,32.123401641845696,31.73699951171875,32.080001831054695,31.73699951171875,5399.0
2019-08-01,31.979999542236328,31.635099411010746,31.76000022888184,31.635099411010746,83727.0
2019-08-02,31.51000022888184,31.35000038146973,31.479999542236328,31.3882999420166,12986.0
2019-08-05,31.0,30.26000022888184,31.0,30.78019905090332,7041.0
2019-08-06,31.27720069885254,30.79800033569336,30.93000030517578,31.19930076599121,4848.0
2019-08-07,31.641399383544922,30.86000061035156,30.86000061035156,31.4960994720459,15105.0
2019-08-08,32.089900970458984,31.69809913635254,31.709999084472656,31.99209976196289,5592.0
2019-08-09,31.920000076293945,31.68000030517578,31.899999618530273,31.91230010986328,3276.0
2019-08-12,31.890100479125977,31.741199493408203,31.88999938964844,31.74329948425293,2413.0
2019-08-13,31.959999084472656,31.739999771118164,31.739999771118164,31.90999984741211,7829.0
2019-08-14,31.79999923706055,31.46999931335449,31.690000534057614,31.46999931335449,10751.0
2019-08-15,31.76149940490723,31.60309982299805,31.60309982299805,31.76149940490723,10377.0
2019-08-16,32.25,31.76000022888184,31.76000022888184,32.21239852905273,8223.0
2019-08-19,32.65999984741211,32.34400177001953,32.34400177001953,32.60879898071289,19807.0
2019-08-20,32.65999984741211,32.21889877319336,32.65999984741211,32.21889877319336,10927.0
2019-08-21,32.52899932861328,32.36999893188477,32.490001678466804,32.427200317382805,10706.0
2019-08-22,32.532901763916016,32.21099853515625,32.532901763916016,32.45909881591797,97801.0
2019-08-23,32.52000045776367,31.69849967956543,32.43000030517578,31.69849967956543,13517.0
2019-08-26,32.00859832763672,31.78000068664551,31.85000038146973,31.998199462890625,7744.0
2019-08-27,32.138999938964844,31.789499282836914,32.11999893188477,31.789499282836914,7192.0
2019-08-28,32.009899139404304,31.75429916381836,31.79999923706055,31.987199783325195,13629.0
2019-08-29,32.332000732421875,32.18199920654297,32.189998626708984,32.21200180053711,3937.0
2019-08-30,32.150001525878906,31.944000244140625,32.150001525878906,32.000499725341804,6450.0
2019-09-03,32.310001373291016,32.04909896850586,32.04909896850586,32.198299407958984,5525.0
2019-09-04,32.540000915527344,32.25,32.39989852905273,32.299999237060554,29381.0
2019-09-05,32.290000915527344,32.0,32.055801391601555,32.03689956665039,17985.0
2019-09-06,31.989999771118164,31.72200012207031,31.989999771118164,31.83550071716309,5789.0
2019-09-09,31.940000534057614,31.75489997863769,31.93000030517578,31.89150047302246,104911.0
2019-09-10,31.940000534057614,31.32999992370605,31.940000534057614,31.48189926147461,19774.0
2019-09-11,31.6299991607666,31.28140068054199,31.420000076293945,31.59469985961914,22925.0
2019-09-12,31.94899940490723,31.75,31.75,31.90629959106445,12202.0
2019-09-13,32.240001678466804,31.793500900268555,32.11999893188477,31.88520050048828,7918.0
2019-09-16,32.259998321533196,32.00899887084961,32.00899887084961,32.24570083618164,4576.0
2019-09-17,32.540000915527344,32.419998168945305,32.540000915527344,32.539100646972656,6796.0
2019-09-18,32.402099609375,32.110000610351555,32.400001525878906,32.33660125732422,12704.0
2019-09-19,32.60900115966797,32.473201751708984,32.473201751708984,32.52370071411133,12257.0
2019-09-20,32.630001068115234,32.400001525878906,32.59000015258789,32.41469955444336,3168.0
2019-09-23,32.669998168945305,32.36999893188477,32.36999893188477,32.52090072631836,9819.0
2019-09-24,32.529998779296875,32.009998321533196,32.529998779296875,32.087799072265625,11653.0
2019-09-25,32.27899932861328,32.02000045776367,32.02000045776367,32.23659896850586,7046.0
2019-09-26,32.59000015258789,32.314498901367195,32.36999893188477,32.57699966430664,5181.0
2019-09-27,32.75,32.275901794433594,32.75,32.42100143432617,7139.0
2019-09-30,32.55390167236328,32.36819839477539,32.40999984741211,32.41320037841797,15411.0
2019-10-01,32.419998168945305,31.75,32.419998168945305,32.04769897460937,8593.0
2019-10-02,32.16270065307617,31.93000030517578,31.989999771118164,32.16270065307617,6124.0
2019-10-03,32.560001373291016,32.19940185546875,32.19940185546875,32.42919921875,2296.0
2019-10-04,32.610000610351555,32.50239944458008,32.60179901123047,32.5614013671875,8243.0
2019-10-07,32.709999084472656,32.488998413085945,32.529998779296875,32.53900146484375,13086.0
2019-10-08,32.61999893188477,32.18000030517578,32.5,32.425098419189446,4607.0
2019-10-09,32.650001525878906,32.34999847412109,32.650001525878906,32.35960006713867,4904.0
2019-10-10,32.299999237060554,32.17060089111328,32.26890182495117,32.190601348876946,4896.0
2019-10-11,32.49300003051758,32.326698303222656,32.40999984741211,32.330398559570305,3302.0
2019-10-14,32.40999984741211,32.169998168945305,32.40999984741211,32.31999969482422,5743.0
2019-10-15,32.549999237060554,32.28499984741211,32.480701446533196,32.540000915527344,8054.0
2019-10-16,32.540000915527344,32.30199813842773,32.540000915527344,32.49140167236328,3907.0
2019-10-17,32.75,32.61819839477539,32.661800384521484,32.65919876098633,17206.0
2019-10-18,32.77000045776367,32.59709930419922,32.75,32.74420166015625,8166.0
2019-10-21,33.009998321533196,32.75,32.75,33.009998321533196,9883.0
2019-10-22,33.15999984741211,32.862598419189446,33.15999984741211,32.865001678466804,23857.0
2019-10-23,32.96950149536133,32.700000762939446,32.700000762939446,32.96360015869141,11829.0
2019-10-24,33.240001678466804,33.110000610351555,33.110000610351555,33.18130111694336,6807.0
2019-10-25,33.27000045776367,32.990001678466804,33.27000045776367,33.020301818847656,4335.0
2019-10-28,33.589000701904304,33.358200073242195,33.47999954223633,33.39559936523437,13171.0
2019-10-29,33.69900131225586,33.389999389648445,33.389999389648445,33.5,30706.0
2019-10-30,33.810001373291016,33.505001068115234,33.580001831054695,33.80569839477539,28196.0
2019-10-31,34.130001068115234,33.93899917602539,33.959999084472656,33.94079971313477,16447.0
2019-11-01,34.130001068115234,33.68000030517578,34.130001068115234,33.857799530029304,15352.0
2019-11-04,33.990001678466804,33.705101013183594,33.990001678466804,33.85940170288086,17198.0
2019-11-05,33.86999893188477,33.134998321533196,33.86999893188477,33.220001220703125,26365.0
2019-11-06,33.49990081787109,33.200000762939446,33.200000762939446,33.439998626708984,10286.0
2019-11-07,33.570201873779304,33.352001190185554,33.540000915527344,33.44979858398437,11212.0
2019-11-08,33.540000915527344,33.31999969482422,33.31999969482422,33.33570098876953,7234.0
2019-11-11,33.464401245117195,33.189998626708984,33.380001068115234,33.359298706054695,11127.0
2019-11-12,33.65999984741211,33.2218017578125,33.34999847412109,33.2218017578125,8498.0
2019-11-13,33.549999237060554,33.31999969482422,33.31999969482422,33.529598236083984,5891.0
2019-11-14,33.84000015258789,33.650001525878906,33.650001525878906,33.838699340820305,13060.0
2019-11-15,34.040000915527344,33.889999389648445,34.009998321533196,33.953800201416016,14013.0
2019-11-18,34.15999984741211,33.947498321533196,34.040000915527344,33.99850082397461,12520.0
2019-11-19,34.31999969482422,34.029998779296875,34.150001525878906,34.2593994140625,20913.0
2019-11-20,34.36999893188477,34.12630081176758,34.34000015258789,34.305599212646484,17111.0
2019-11-21,34.310001373291016,33.919998168945305,34.310001373291016,33.950000762939446,8208.0
2019-11-22,33.939998626708984,33.59600067138672,33.939998626708984,33.783798217773445,43405.0
2019-11-25,34.07989883422852,33.84999847412109,33.84999847412109,33.939998626708984,21794.0
2019-11-26,34.43000030517578,34.0,34.09999847412109,34.405601501464844,9538.0
2019-11-27,34.59000015258789,34.31999969482422,34.450000762939446,34.57320022583008,15303.0
2019-11-29,34.709999084472656,34.387901306152344,34.709999084472656,34.387901306152344,3673.0
2019-12-02,34.939998626708984,33.99850082397461,34.939998626708984,33.99850082397461,9437.0
2019-12-03,34.28200149536133,34.17660140991211,34.2156982421875,34.26440048217773,9105.0
2019-12-04,34.419998168945305,34.209999084472656,34.360000610351555,34.229198455810554,15784.0
2019-12-05,34.259998321533196,34.074901580810554,34.220001220703125,34.187301635742195,33819.0
2019-12-06,34.419998168945305,34.17480087280273,34.26530075073242,34.20809936523437,6714.0
2019-12-09,34.310001373291016,34.049999237060554,34.310001373291016,34.17699813842773,33858.0
2019-12-10,34.360000610351555,34.032901763916016,34.28499984741211,34.06760025024414,17085.0
2019-12-11,34.075000762939446,33.490001678466804,34.075000762939446,33.534801483154304,17628.0
2019-12-12,33.720001220703125,33.02000045776367,33.540000915527344,33.14030075073242,14746.0
2019-12-13,33.139999389648445,32.669998168945305,33.139999389648445,33.02429962158203,24336.0
2019-12-16,33.146900177001946,32.802398681640625,33.146900177001946,33.09130096435547,24685.0
2019-12-17,33.09000015258789,32.78440093994141,33.09000015258789,32.78440093994141,6424.0
2019-12-18,33.05530166625977,32.84000015258789,32.889999389648445,32.999099731445305,13903.0
2019-12-19,33.036998748779304,32.939998626708984,32.977500915527344,33.02000045776367,6918.0
2019-12-20,33.27000045776367,33.048099517822266,33.09999847412109,33.15330123901367,12720.0
2019-12-23,33.279998779296875,33.02000045776367,33.279998779296875,33.02949905395508,72527.0
2019-12-24,32.919998168945305,32.69010162353516,32.790000915527344,32.855098724365234,49027.0
2019-12-26,33.09000015258789,32.900001525878906,32.93880081176758,32.963001251220696,6880.0
2019-12-27,33.110000610351555,33.006301879882805,33.075000762939446,33.07339859008789,4069.0
2019-12-30,33.139999389648445,32.99990081787109,33.09000015258789,33.11999893188477,15333.0
2019-12-31,33.43000030517578,33.139999389648445,33.139999389648445,33.310001373291016,9772.0
2020-01-02,34.0,32.750499725341804,34.0,32.972599029541016,30288.0
2020-01-03,33.46670150756836,32.86199951171875,32.919998168945305,33.427200317382805,16335.0
2020-01-06,33.60499954223633,33.310001373291016,33.360000610351555,33.38199996948242,8602.0
2020-01-07,33.40999984741211,32.990001678466804,33.40999984741211,33.095001220703125,14304.0
2020-01-08,33.25,32.99100112915039,33.09000015258789,33.191001892089844,91939.0
2020-01-09,33.47999954223633,33.139999389648445,33.47999954223633,33.168201446533196,56669.0
2020-01-10,33.48199844360352,33.18000030517578,33.18000030517578,33.442100524902344,74227.0
2020-01-13,34.04850006103516,33.560001373291016,33.560001373291016,34.04850006103516,13909.0
2020-01-14,34.09999847412109,33.705001831054695,34.09999847412109,33.78929901123047,8237.0
2020-01-15,34.27489852905273,33.860000610351555,33.860000610351555,34.14619827270508,14413.0
2020-01-16,34.503501892089844,34.22999954223633,34.22999954223633,34.48469924926758,13210.0
2020-01-17,34.767501831054695,34.450000762939446,34.450000762939446,34.643600463867195,18391.0
2020-01-21,35.0,34.643001556396484,34.720001220703125,34.98600006103516,16928.0
2020-01-22,35.22999954223633,34.53400039672852,35.22999954223633,34.60490036010742,14030.0
2020-01-23,35.030899047851555,34.500198364257805,34.68000030517578,35.00170135498047,9448.0
2020-01-24,35.150001525878906,34.959999084472656,35.09000015258789,35.055099487304695,11619.0
2020-01-27,35.12269973754883,34.87200164794922,34.889999389648445,34.985599517822266,12301.0
2020-01-28,35.34989929199219,35.10400009155273,35.10400009155273,35.3046989440918,8321.0
2020-01-29,35.529998779296875,35.22090148925781,35.45000076293945,35.46149826049805,9829.0
2020-01-30,35.630001068115234,35.29999923706055,35.43000030517578,35.45909881591797,19454.0
2020-01-31,35.209999084472656,34.66550064086914,35.209999084472656,34.699501037597656,21176.0
2020-02-03,34.985000610351555,34.700401306152344,34.880001068115234,34.715198516845696,15062.0
2020-02-04,35.235599517822266,34.75680160522461,35.02000045776367,35.130001068115234,10126.0
2020-02-05,35.380001068115234,35.00699996948242,35.380001068115234,35.09000015258789,13281.0
2020-02-06,35.31999969482422,35.139999389648445,35.25,35.220001220703125,29817.0
2020-02-07,35.29999923706055,35.064998626708984,35.130001068115234,35.13970184326172,13407.0
2020-02-10,35.5458984375,35.209999084472656,35.209999084472656,35.5458984375,27882.0
2020-02-11,35.90999984741211,35.59000015258789,35.59000015258789,35.84410095214844,24677.0
2020-02-12,36.13899993896485,35.72999954223633,35.88999938964844,36.0369987487793,32550.0
2020-02-13,36.29999923706055,36.040000915527344,36.040000915527344,36.206199645996094,24630.0
2020-02-14,36.709999084472656,36.290000915527344,36.38000106811523,36.709999084472656,18878.0
2020-02-18,36.88999938964844,36.61000061035156,36.79999923706055,36.88999938964844,38147.0
2020-02-19,37.0,36.57360076904297,37.0,36.592098236083984,23686.0
2020-02-20,36.97869873046875,36.5,36.63999938964844,36.97869873046875,24950.0
2020-02-21,37.05799865722656,36.85699844360352,36.95000076293945,36.90999984741211,29309.0
2020-02-24,36.54029846191406,36.04999923706055,36.31999969482422,36.11489868164063,48799.0
2020-02-25,36.209999084472656,34.810699462890625,36.209999084472656,34.917098999023445,66987.0
2020-02-26,35.36999893188477,34.689998626708984,34.939998626708984,34.69789886474609,18583.0
2020-02-27,34.490001678466804,32.939998626708984,34.490001678466804,32.94810104370117,20611.0
2020-02-28,32.150001525878906,30.940000534057614,31.979999542236328,32.060001373291016,68463.0
2020-03-02,33.380001068115234,31.81999969482422,32.150001525878906,33.380001068115234,48663.0
2020-03-03,34.27700042724609,33.150001525878906,33.470001220703125,33.43000030517578,158887.0
2020-03-04,34.918800354003906,34.027999877929695,34.110000610351555,34.88560104370117,22879.0
2020-03-05,34.374500274658196,33.544998168945305,34.09000015258789,33.950000762939446,22004.0
2020-03-06,33.310001373291016,32.02360153198242,33.11999893188477,33.200000762939446,24271.0
2020-03-09,31.38999938964844,30.01000022888184,31.190000534057614,30.21190071105957,37998.0
2020-03-10,31.270000457763672,29.57999992370605,31.270000457763672,31.20000076293945,30927.0
2020-03-11,30.53000068664551,28.670000076293945,30.53000068664551,28.964099884033203,28410.0
2020-03-12,27.51000022888184,25.60000038146973,26.709999084472656,26.555700302124023,33391.0
2020-03-13,29.53000068664551,26.75,27.95000076293945,29.53000068664551,24791.0
2020-03-16,27.75,23.770000457763672,26.68000030517578,23.770000457763672,22517.0
2020-03-17,26.725799560546875,24.01000022888184,24.420000076293945,26.15999984741211,30301.0
2020-03-18,25.5,24.06999969482422,24.68000030517578,25.1299991607666,34206.0
2020-03-19,25.40999984741211,24.32999992370605,24.670000076293945,24.81999969482422,32590.0
2020-03-20,25.460100173950195,23.88400077819824,25.020000457763672,24.142000198364254,137690.0
2020-03-23,24.01000022888184,22.5,24.01000022888184,23.24889945983887,35487.0
2020-03-24,25.229999542236328,23.96789932250977,24.20000076293945,25.229999542236328,16559.0
2020-03-25,26.989999771118164,25.0,25.239999771118164,25.904600143432614,32802.0
2020-03-26,27.600299835205078,26.020000457763672,26.149999618530273,27.600299835205078,33120.0
2020-03-27,28.8700008392334,26.6299991607666,27.989999771118164,28.12100028991699,17227.0
2020-03-30,29.124500274658203,27.65999984741211,27.81999969482422,29.09000015258789,37134.0
2020-03-31,28.690000534057614,27.635499954223636,28.58810043334961,28.53000068664551,10873.0
2020-04-01,27.36000061035156,25.920000076293945,27.36000061035156,26.698200225830078,13832.0
2020-04-02,27.243600845336914,26.38999938964844,26.63999938964844,26.88999938964844,23482.0
2020-04-03,26.910600662231445,25.88999938964844,26.63999938964844,26.420000076293945,10894.0
2020-04-06,28.29999923706055,27.559999465942386,27.559999465942386,28.21999931335449,12008.0
2020-04-07,29.65999984741211,28.290000915527344,29.07999992370605,28.316999435424805,34326.0
2020-04-08,29.43589973449707,28.5,28.57999992370605,29.337900161743164,14295.0
2020-04-09,31.344900131225586,30.0,30.0,31.344900131225586,16369.0
2020-04-13,31.10000038146973,29.85700035095215,31.07999992370605,29.884899139404297,25261.0
2020-04-14,31.059999465942386,30.580799102783203,30.729999542236328,30.729799270629886,18258.0
2020-04-15,29.8700008392334,29.10000038146973,29.8700008392334,29.252399444580078,23041.0
2020-04-16,29.540000915527344,29.0,29.5,29.37310028076172,15762.0
2020-04-17,30.3700008392334,29.86000061035156,30.13599967956543,30.19420051574707,14498.0
2020-04-20,29.81999969482422,29.415000915527344,29.51000022888184,29.47649955749512,26500.0
2020-04-21,29.239999771118164,28.548099517822266,28.60000038146973,28.979999542236328,19386.0
2020-04-22,29.540000915527344,29.18000030517578,29.458999633789066,29.38010025024414,16772.0
2020-04-23,29.649999618530273,28.900400161743164,29.3700008392334,28.900400161743164,7083.0
2020-04-24,29.38999938964844,28.76499938964844,29.1200008392334,29.19230079650879,10327.0
2020-04-27,30.40999984741211,29.420000076293945,29.420000076293945,30.362199783325195,9209.0
2020-04-28,31.27179908752441,30.61000061035156,31.11000061035156,30.636199951171875,31410.0
2020-04-29,31.34029960632324,30.774799346923828,31.1200008392334,30.774799346923828,21825.0
2020-04-30,30.75,29.520000457763672,30.75,30.1200008392334,25867.0
2020-05-01,29.46999931335449,28.814899444580078,29.35000038146973,28.97590065002441,14184.0
2020-05-04,28.81999969482422,28.23979949951172,28.59000015258789,28.77910041809082,10435.0
2020-05-05,29.3799991607666,28.90999984741211,29.149999618530273,28.940000534057614,13359.0
2020-05-06,29.290000915527344,28.85849952697754,29.290000915527344,28.85849952697754,14666.0
2020-05-07,29.50790023803711,29.114999771118164,29.29999923706055,29.166400909423828,82625.0
2020-05-08,30.3799991607666,29.72500038146973,29.72500038146973,30.32500076293945,25609.0
2020-05-11,30.496999740600586,29.71999931335449,29.979999542236328,30.10300064086914,20656.0
2020-05-12,29.86000061035156,28.48150062561035,29.86000061035156,28.48150062561035,29997.0
2020-05-13,28.16900062561035,27.521099090576172,28.16900062561035,27.56209945678711,28768.0
2020-05-14,27.56999969482422,26.5,27.420000076293945,27.562000274658203,31141.0
2020-05-15,27.714599609375,27.309999465942386,27.38999938964844,27.714599609375,38064.0
2020-05-18,29.420000076293945,28.690000534057614,28.690000534057614,29.26000022888184,29661.0
2020-05-19,29.229999542236328,28.71999931335449,29.07999992370605,28.71999931335449,62531.0
2020-05-20,29.34000015258789,29.084999084472656,29.15999984741211,29.34000015258789,18919.0
2020-05-21,29.62989997863769,29.239999771118164,29.420000076293945,29.38759994506836,12932.0
2020-05-22,29.670000076293945,29.35000038146973,29.49099922180176,29.65999984741211,27079.0
2020-05-26,30.79999923706055,30.35000038146973,30.35000038146973,30.56719970703125,18665.0
2020-05-27,31.15999984741211,30.46500015258789,31.1200008392334,31.020000457763672,15895.0
2020-05-28,31.268400192260746,31.065000534057614,31.10000038146973,31.24349975585937,13624.0
2020-05-29,31.399999618530273,30.88999938964844,31.399999618530273,31.042299270629886,17058.0
2020-06-01,31.63999938964844,31.10000038146973,31.10000038146973,31.44669914245605,9146.0
2020-06-02,31.87800025939941,31.459999084472656,31.56999969482422,31.71999931335449,23439.0
2020-06-03,32.65919876098633,31.90999984741211,31.90999984741211,32.56999969482422,17382.0
2020-06-04,32.299999237060554,31.729999542236328,32.25,32.040000915527344,12336.0
2020-06-05,33.27000045776367,32.790000915527344,33.0,33.029998779296875,16686.0
2020-06-08,33.51110076904297,33.18000030517578,33.259998321533196,33.35960006713867,12794.0
2020-06-09,33.165000915527344,32.72499847412109,32.990001678466804,33.029998779296875,13236.0
2020-06-10,33.080001831054695,32.279998779296875,33.080001831054695,32.400001525878906,18273.0
2020-06-11,31.51000022888184,30.70159912109375,31.51000022888184,30.75,20020.0
2020-06-12,31.75349998474121,31.03000068664551,31.53000068664551,31.75349998474121,10753.0
2020-06-15,32.625,31.04999923706055,31.04999923706055,32.544998168945305,6774.0
2020-06-16,33.720001220703125,32.990001678466804,33.584999084472656,33.16680145263672,20468.0
2020-06-17,33.319900512695305,33.049999237060554,33.10800170898437,33.132999420166016,9664.0
2020-06-18,33.0989990234375,32.875,32.950000762939446,32.95009994506836,13194.0
2020-06-19,33.130001068115234,32.13510131835937,33.130001068115234,32.13510131835937,7114.0
2020-06-22,32.15399932861328,31.36000061035156,32.02000045776367,32.15399932861328,18893.0
2020-06-23,32.18000030517578,31.90929985046387,32.18000030517578,31.90929985046387,63300.0
2020-06-24,31.770000457763672,30.63999938964844,31.46999931335449,31.24239921569824,28192.0
2020-06-25,31.6200008392334,30.899999618530273,30.899999618530273,31.6200008392334,23284.0
2020-06-26,31.670000076293945,31.03000068664551,31.670000076293945,31.03000068664551,19338.0
2020-06-29,31.65500068664551,31.0,31.40999984741211,31.55270004272461,16365.0
2020-06-30,32.11999893188477,31.80500030517578,31.899999618530273,32.04079818725586,7772.0
2020-07-01,32.81999969482422,32.02000045776367,32.02000045776367,32.716201782226555,10393.0
2020-07-02,33.200000762939446,32.701000213623054,33.139999389648445,32.701000213623054,21070.0
2020-07-08,32.401798248291016,32.0,32.401798248291016,32.160999298095696,16939.0
2020-07-09,32.220001220703125,31.770000457763672,32.049999237060554,32.139999389648445,13527.0
2020-07-10,32.167999267578125,31.920000076293945,32.139999389648445,32.167999267578125,21690.0
2020-07-13,32.502899169921875,31.81430053710937,32.43000030517578,31.81430053710937,9623.0
2020-07-14,32.02000045776367,31.709999084472656,31.709999084472656,31.94129943847656,12707.0
2020-07-15,32.459999084472656,31.93000030517578,32.459999084472656,32.162601470947266,16223.0
2020-07-16,32.16989898681641,31.69300079345703,32.16989898681641,31.7814998626709,16572.0
2020-07-17,32.580001831054695,31.895000457763672,31.94499969482422,32.51639938354492,10573.0
2020-07-20,32.5,32.18000030517578,32.459999084472656,32.229598999023445,51918.0
2020-07-21,32.98509979248047,32.669998168945305,32.669998168945305,32.69729995727539,10568.0
2020-07-22,33.19820022583008,32.72999954223633,32.72999954223633,33.19820022583008,34039.0
2020-07-23,33.709999084472656,33.040000915527344,33.43000030517578,33.28499984741211,29902.0
2020-07-24,33.34000015258789,33.10499954223633,33.29629898071289,33.165599822998054,49259.0
2020-07-27,33.61930084228516,32.830001831054695,33.0,33.61930084228516,41501.0
2020-07-28,34.34999847412109,33.61640167236328,33.639999389648445,34.169998168945305,32760.0
2020-07-29,35.2672004699707,34.27000045776367,34.27000045776367,35.2672004699707,28006.0
2020-07-30,35.5177001953125,35.005001068115234,35.005001068115234,35.250301361083984,19493.0
2020-07-31,35.58000183105469,34.700000762939446,35.58000183105469,35.18600082397461,41297.0
2020-08-03,35.4900016784668,34.798599243164055,35.4900016784668,35.20000076293945,286858.0
2020-08-04,35.64500045776367,35.110000610351555,35.110000610351555,35.62070083618164,99840.0
2020-08-05,35.84000015258789,35.2599983215332,35.84000015258789,35.505401611328125,72562.0
2020-08-06,35.790000915527344,35.4900016784668,35.790000915527344,35.58000183105469,179151.0
2020-08-07,35.709999084472656,35.45500183105469,35.58000183105469,35.649600982666016,22775.0
2020-08-10,35.95000076293945,35.61000061035156,35.95000076293945,35.61000061035156,31394.0
2020-08-11,36.040000915527344,34.836498260498054,36.040000915527344,34.836498260498054,23097.0
2020-08-12,35.470001220703125,35.139999389648445,35.36999893188477,35.43930053710937,20835.0
2020-08-13,35.717498779296875,35.10499954223633,35.599998474121094,35.11999893188477,17680.0
2020-08-14,35.279998779296875,34.77000045776367,35.0,34.77000045776367,19720.0
2020-08-17,35.290000915527344,34.700000762939446,34.880001068115234,35.287601470947266,14651.0
2020-08-18,35.58000183105469,35.0,35.58000183105469,35.125701904296875,15692.0
2020-08-19,35.02000045776367,34.55070114135742,35.02000045776367,34.55070114135742,22830.0
2020-08-20,35.049999237060554,34.5,34.61999893188477,34.86999893188477,19261.0
2020-08-21,34.970001220703125,34.63460159301758,34.810001373291016,34.889999389648445,13535.0
2020-08-24,35.130001068115234,34.50830078125,35.130001068115234,34.85580062866211,15909.0
2020-08-25,35.049999237060554,34.83089828491211,34.959999084472656,34.97999954223633,14551.0
