Date,High,Low,Open,Close,Volume
2011-05-31,3.2300000190734863,3.0,3.0499999523162837,3.2300000190734863,26114.0
2011-06-01,3.5699999332427983,3.2000000476837163,3.240000009536743,3.5699999332427983,34598.0
2011-06-02,4.199999809265137,3.470000028610229,3.5699999332427983,3.650000095367432,149572.0
2011-06-03,3.640000104904175,3.289999961853028,3.640000104904175,3.289999961853028,37508.0
2011-06-06,3.1800000667572017,2.8499999046325684,3.0999999046325684,2.859999895095825,35871.0
2011-06-07,3.0899999141693115,2.799999952316284,2.990000009536743,3.059999942779541,13871.0
2011-06-08,3.9800000190734863,2.9300000667572017,2.9300000667572017,3.740000009536743,74619.0
2011-06-09,3.650000095367432,3.0499999523162837,3.650000095367432,3.509999990463257,78549.0
2011-06-10,3.5,3.2999999523162837,3.5,3.4500000476837163,6701.0
2011-06-13,3.5799999237060547,3.2999999523162837,3.509999990463257,3.4600000381469727,4044.0
2011-06-14,3.4800000190734863,3.380000114440918,3.4500000476837163,3.4800000190734863,1810.0
2011-06-15,3.4800000190734863,3.2000000476837163,3.470000028610229,3.289999961853028,2750.0
2011-06-16,3.2999999523162837,3.0899999141693115,3.2000000476837163,3.2999999523162837,3935.0
2011-06-17,3.119999885559082,3.0,3.0999999046325684,3.0,7985.0
2011-06-20,3.4200000762939453,2.859999895095825,3.119999885559082,2.869999885559082,33615.0
2011-06-21,3.3199999332427983,2.809999942779541,2.940000057220459,2.880000114440918,4073.0
2011-06-22,3.059999942779541,2.7799999713897705,2.890000104904175,2.9500000476837163,4802.0
2011-06-24,2.970000028610229,2.359999895095825,2.8399999141693115,2.5999999046325684,21600.0
2011-06-27,2.609999895095825,2.440000057220459,2.5699999332427983,2.5,2857.0
2011-06-28,2.690000057220459,2.359999895095825,2.400000095367432,2.6600000858306885,5780.0
2011-06-29,2.7799999713897705,2.539999961853028,2.6800000667572017,2.549999952316284,2895.0
2011-06-30,2.789999961853028,2.5699999332427983,2.5699999332427983,2.6700000762939453,2275.0
2011-07-01,2.5999999046325684,2.3199999332427983,2.5999999046325684,2.539999961853028,6871.0
2011-07-05,2.4300000667572017,2.3399999141693115,2.400000095367432,2.400000095367432,621.0
2011-07-06,2.4600000381469727,2.400000095367432,2.400000095367432,2.450000047683716,4752.0
2011-07-07,2.470000028610229,2.359999895095825,2.470000028610229,2.450000047683716,315.0
2011-07-11,2.3399999141693115,2.2100000381469727,2.3399999141693115,2.3199999332427983,5992.0
2011-07-12,2.259999990463257,2.0999999046325684,2.259999990463257,2.150000095367432,7425.0
2011-07-13,2.509999990463257,2.039999961853028,2.1199998855590816,2.1400001049041752,10253.0
2011-07-14,2.1300001144409184,2.1300001144409184,2.1300001144409184,2.1300001144409184,1500.0
2011-07-15,2.549999952316284,2.0999999046325684,2.0999999046325684,2.549999952316284,11387.0
2011-07-18,2.880000114440918,2.490000009536743,2.490000009536743,2.8399999141693115,12810.0
2011-07-19,3.0,2.640000104904175,2.8399999141693115,2.789999961853028,12765.0
2011-07-20,2.890000104904175,2.789999961853028,2.789999961853028,2.859999895095825,2663.0
2011-07-21,2.789999961853028,2.6700000762939453,2.759999990463257,2.7100000381469727,5320.0
2011-07-22,2.869999885559082,2.6700000762939453,2.799999952316284,2.799999952316284,13653.0
2011-07-25,2.890000104904175,2.8499999046325684,2.869999885559082,2.8499999046325684,3166.0
2011-07-26,2.9500000476837163,2.6800000667572017,2.900000095367432,2.6800000667572017,6207.0
2011-07-27,2.740000009536743,2.640000104904175,2.690000057220459,2.740000009536743,7546.0
2011-07-28,2.7100000381469727,2.619999885559082,2.650000095367432,2.7100000381469727,3462.0
2011-07-29,2.640000104904175,2.5999999046325684,2.640000104904175,2.5999999046325684,4248.0
2011-08-01,2.650000095367432,2.390000104904175,2.650000095367432,2.440000057220459,17144.0
2011-08-02,2.539999961853028,2.400000095367432,2.4800000190734863,2.440000057220459,4170.0
2011-08-03,2.5899999141693115,2.259999990463257,2.440000057220459,2.299999952316284,4921.0
2011-08-04,2.309999942779541,2.2100000381469727,2.2100000381469727,2.309999942779541,51.0
2011-08-05,2.299999952316284,2.049999952316284,2.200000047683716,2.299999952316284,6134.0
2011-08-09,2.25,2.049999952316284,2.25,2.150000095367432,3500.0
2011-08-10,2.3499999046325684,2.25,2.25,2.2699999809265137,5380.0
2011-08-11,2.940000057220459,2.450000047683716,2.450000047683716,2.869999885559082,10324.0
2011-08-12,3.4500000476837163,2.799999952316284,2.880000114440918,3.259999990463257,42990.0
2011-08-16,3.150000095367432,3.0,3.0,3.150000095367432,6796.0
2011-08-17,3.220000028610229,3.009999990463257,3.0799999237060547,3.009999990463257,4145.0
2011-08-18,3.0899999141693115,2.869999885559082,3.0899999141693115,2.900000095367432,8881.0
2011-08-19,2.890000104904175,2.7699999809265137,2.809999942779541,2.890000104904175,2630.0
2011-08-22,2.990000009536743,2.5999999046325684,2.8499999046325684,2.990000009536743,5876.0
2011-08-23,3.039999961853028,2.809999942779541,2.9500000476837163,2.809999942779541,2309.0
2011-08-24,2.9500000476837163,2.809999942779541,2.9500000476837163,2.809999942779541,1810.0
2011-08-25,2.890000104904175,2.799999952316284,2.890000104904175,2.799999952316284,2813.0
2011-08-26,2.940000057220459,2.720000028610229,2.940000057220459,2.720000028610229,1106.0
2011-08-29,2.720000028610229,2.700000047683716,2.720000028610229,2.700000047683716,1400.0
2011-08-30,2.799999952316284,2.700000047683716,2.75,2.799999952316284,2901.0
2011-08-31,2.700000047683716,2.6700000762939453,2.700000047683716,2.6700000762939453,451.0
2011-09-01,2.799999952316284,2.5999999046325684,2.799999952316284,2.5999999046325684,1482.0
2011-09-02,2.7100000381469727,2.5899999141693115,2.5899999141693115,2.7100000381469727,1275.0
2011-09-06,2.650000095367432,2.450000047683716,2.650000095367432,2.5699999332427983,2007.0
2011-09-07,2.650000095367432,2.5699999332427983,2.5699999332427983,2.650000095367432,900.0
2011-09-08,2.6600000858306885,2.5,2.539999961853028,2.619999885559082,815.0
2011-09-12,2.640000104904175,2.5799999237060547,2.640000104904175,2.5799999237060547,1692.0
2011-09-13,2.700000047683716,2.619999885559082,2.700000047683716,2.619999885559082,985.0
2011-09-14,2.700000047683716,2.5799999237060547,2.700000047683716,2.700000047683716,1050.0
2011-09-15,3.119999885559082,2.5999999046325684,2.7300000190734863,2.5999999046325684,3000.0
2011-09-16,2.559999942779541,2.5,2.5,2.559999942779541,701.0
2011-09-19,2.559999942779541,2.150000095367432,2.559999942779541,2.4100000858306885,5034.0
2011-09-20,2.890000104904175,2.299999952316284,2.299999952316284,2.3299999237060547,10607.0
2011-09-21,2.369999885559082,2.259999990463257,2.299999952316284,2.369999885559082,7350.0
2011-09-22,2.809999942779541,2.1400001049041752,2.369999885559082,2.809999942779541,5469.0
2011-09-23,2.650000095367432,2.150000095367432,2.2300000190734863,2.630000114440918,8052.0
2011-09-26,2.5799999237060547,2.0699999332427983,2.2300000190734863,2.0999999046325684,8782.0
2011-09-27,2.190000057220459,2.0999999046325684,2.1199998855590816,2.1600000858306885,5419.0
2011-09-28,2.0799999237060547,2.009999990463257,2.0699999332427983,2.0799999237060547,8010.0
2011-09-30,2.1199998855590816,1.690000057220459,2.039999961853028,2.1199998855590816,1552.0
2011-10-03,2.039999961853028,1.950000047683716,1.950000047683716,2.0,5846.0
2011-10-04,1.9900000095367432,1.8999999761581419,1.9900000095367432,1.9900000095367432,3651.0
2011-10-05,1.950000047683716,1.7899999618530271,1.8999999761581419,1.7999999523162842,9410.0
2011-10-06,1.8799999952316284,1.7000000476837158,1.7200000286102295,1.7400000095367432,11591.0
2011-10-07,1.75,1.7100000381469729,1.7100000381469729,1.75,1650.0
2011-10-10,1.7400000095367432,1.6000000238418581,1.7000000476837158,1.7400000095367432,9417.0
2011-10-11,1.6499999761581419,1.4099999666213991,1.6399999856948853,1.6499999761581419,2920.0
2011-10-12,1.7799999713897705,1.5299999713897705,1.6499999761581419,1.5399999618530271,8325.0
2011-10-13,1.5900000333786009,1.5299999713897705,1.5299999713897705,1.5900000333786009,1710.0
2011-10-14,1.6100000143051147,1.5199999809265137,1.6100000143051147,1.5199999809265137,1755.0
2011-10-17,1.7400000095367432,1.5099999904632568,1.5299999713897705,1.5499999523162842,4645.0
2011-10-18,1.7000000476837158,1.4600000381469729,1.4600000381469729,1.6200000047683716,77503.0
2011-10-19,1.6200000047683716,1.440000057220459,1.5299999713897705,1.6200000047683716,5741.0
2011-10-21,1.5299999713897705,1.5299999713897705,1.5299999713897705,1.5299999713897705,100.0
2011-10-24,1.5299999713897705,1.4500000476837158,1.4500000476837158,1.5299999713897705,1184.0
2011-10-25,1.7000000476837158,1.5099999904632568,1.5299999713897705,1.5099999904632568,1300.0
2011-10-26,1.5299999713897705,1.5099999904632568,1.5099999904632568,1.5099999904632568,2775.0
2011-10-27,1.440000057220459,1.3700000047683716,1.4199999570846558,1.440000057220459,4100.0
2011-10-28,1.5099999904632568,1.4199999570846558,1.4199999570846558,1.5099999904632568,1686.0
2011-10-31,1.4199999570846558,1.3799999952316284,1.4199999570846558,1.3799999952316284,2702.0
2011-11-03,1.3700000047683716,1.2999999523162842,1.3700000047683716,1.3200000524520874,6748.0
2011-11-04,1.3400000333786009,1.2799999713897705,1.2799999713897705,1.3400000333786009,50.0
2011-11-07,1.2999999523162842,1.2999999523162842,1.2999999523162842,1.2999999523162842,50.0
2011-11-08,1.3400000333786009,1.3400000333786009,1.3400000333786009,1.3400000333786009,10.0
2011-11-09,1.2400000095367432,1.2400000095367432,1.2400000095367432,1.2400000095367432,5.0
2011-11-10,1.3200000524520874,1.3200000524520874,1.3200000524520874,1.3200000524520874,35.0
2011-11-14,1.3400000333786009,1.2400000095367432,1.3400000333786009,1.2699999809265137,3266.0
2011-11-15,1.2699999809265137,1.1699999570846558,1.1699999570846558,1.2699999809265137,251.0
2011-11-16,1.25,1.1699999570846558,1.1799999475479126,1.25,3760.0
2011-11-17,1.25,1.25,1.25,1.25,0.0
2011-11-18,1.2699999809265137,1.190000057220459,1.190000057220459,1.2699999809265137,2250.0
2011-11-21,1.2699999809265137,1.0499999523162842,1.190000057220459,1.2699999809265137,2511.0
2011-11-22,1.149999976158142,1.0499999523162842,1.149999976158142,1.1399999856948853,13960.0
2011-11-23,1.3600000143051147,1.0,1.1399999856948853,1.3600000143051147,11169.0
2011-11-25,1.0800000429153442,1.0,1.0800000429153442,1.0,3800.0
2011-11-28,1.1299999952316284,1.0,1.0,1.100000023841858,4108.0
2011-11-29,1.0800000429153442,0.9300000071525574,1.0800000429153442,0.9700000286102296,5850.0
2011-11-30,1.25,0.9700000286102296,0.9700000286102296,1.25,3910.0
2011-12-01,1.25,1.0499999523162842,1.25,1.100000023841858,33363.0
2011-12-02,1.100000023841858,1.100000023841858,1.100000023841858,1.100000023841858,0.0
2011-12-05,1.100000023841858,0.959999978542328,1.100000023841858,1.0,7860.0
2011-12-06,1.0,0.8999999761581421,1.0,0.8999999761581421,9448.0
2011-12-07,1.0199999809265137,0.7900000214576721,0.8700000047683716,1.0199999809265137,46920.0
2011-12-09,1.1599999666213991,1.0,1.0,1.0299999713897705,9436.0
2011-12-12,1.0299999713897705,0.8799999952316284,0.9900000095367432,0.9800000190734864,63033.0
2011-12-13,0.9399999976158142,0.8600000143051147,0.8999999761581421,0.9100000262260436,39235.0
2011-12-14,0.9100000262260436,0.8600000143051147,0.8700000047683716,0.9100000262260436,115454.0
2011-12-15,0.9399999976158142,0.8999999761581421,0.8999999761581421,0.9399999976158142,172500.0
2011-12-16,0.9800000190734864,0.9100000262260436,0.9399999976158142,0.9499999880790709,9798.0
2011-12-19,0.9100000262260436,0.8700000047683716,0.9100000262260436,0.8700000047683716,4500.0
2011-12-20,0.9499999880790709,0.8600000143051147,0.9499999880790709,0.9100000262260436,7098.0
2011-12-21,0.9700000286102296,0.8299999833106995,0.9100000262260436,0.8799999952316284,36468.0
2011-12-22,0.8700000047683716,0.7699999809265137,0.8700000047683716,0.8399999737739563,4360.0
2011-12-23,0.8399999737739563,0.7599999904632568,0.7900000214576721,0.8399999737739563,11830.0
2011-12-27,0.8199999928474426,0.7599999904632568,0.7599999904632568,0.8199999928474426,50754.0
2011-12-28,0.8500000238418579,0.8000000119209291,0.8199999928474426,0.8500000238418579,20308.0
2011-12-29,0.8700000047683716,0.8500000238418579,0.8600000143051147,0.8700000047683716,6090.0
2011-12-30,0.8500000238418579,0.7799999713897705,0.8500000238418579,0.8000000119209291,25257.0
2012-01-03,0.9499999880790709,0.8100000023841858,0.8100000023841858,0.8899999856948853,17250.0
2012-01-04,0.9800000190734864,0.8899999856948853,0.8899999856948853,0.959999978542328,10479.0
2012-01-05,0.9800000190734864,0.7900000214576721,0.9800000190734864,0.8299999833106995,23030.0
2012-01-06,0.8299999833106995,0.8299999833106995,0.8299999833106995,0.8299999833106995,0.0
2012-01-09,0.959999978542328,0.7799999713897705,0.959999978542328,0.8100000023841858,3911.0
2012-01-10,0.8899999856948853,0.7799999713897705,0.7799999713897705,0.8299999833106995,9314.0
2012-01-11,0.8100000023841858,0.7799999713897705,0.7900000214576721,0.8100000023841858,9824.0
2012-01-12,0.8000000119209291,0.7799999713897705,0.7799999713897705,0.8000000119209291,5500.0
2012-01-13,0.8399999737739563,0.8000000119209291,0.8000000119209291,0.8399999737739563,11750.0
2012-01-17,0.8799999952316284,0.8199999928474426,0.8299999833106995,0.8199999928474426,7841.0
2012-01-18,0.8600000143051147,0.8500000238418579,0.8600000143051147,0.8600000143051147,3942.0
2012-01-19,0.8600000143051147,0.8299999833106995,0.8600000143051147,0.8600000143051147,3364.0
2012-01-20,0.8600000143051147,0.8100000023841858,0.8600000143051147,0.8500000238418579,5144.0
2012-01-23,0.8500000238418579,0.8500000238418579,0.8500000238418579,0.8500000238418579,0.0
2012-01-24,0.8399999737739563,0.7699999809265137,0.8000000119209291,0.8399999737739563,14200.0
2012-01-25,0.8100000023841858,0.7900000214576721,0.8100000023841858,0.8000000119209291,13656.0
2012-01-26,0.8299999833106995,0.8100000023841858,0.8100000023841858,0.8299999833106995,5244.0
2012-01-27,0.8199999928474426,0.7799999713897705,0.7799999713897705,0.8199999928474426,3189.0
2012-01-30,0.8100000023841858,0.7200000286102295,0.8000000119209291,0.8100000023841858,6182.0
2012-01-31,0.8399999737739563,0.8000000119209291,0.8100000023841858,0.8399999737739563,4610.0
2012-02-01,0.8399999737739563,0.8299999833106995,0.8399999737739563,0.8299999833106995,7978.0
2012-02-02,0.8700000047683716,0.8299999833106995,0.8700000047683716,0.8299999833106995,7279.0
2012-02-03,0.8700000047683716,0.8199999928474426,0.8199999928474426,0.8700000047683716,4738.0
2012-02-06,0.8500000238418579,0.8199999928474426,0.8299999833106995,0.8500000238418579,4383.0
2012-02-07,1.0900000333786009,0.8500000238418579,0.8500000238418579,1.0900000333786009,75711.0
2012-02-08,1.399999976158142,1.1200000047683716,1.2999999523162842,1.190000057220459,32331.0
2012-02-09,1.4600000381469729,1.190000057220459,1.190000057220459,1.440000057220459,73733.0
2012-02-10,1.940000057220459,1.4700000286102295,1.4700000286102295,1.8400000333786009,105254.0
2012-02-13,2.0699999332427983,1.6299999952316284,1.940000057220459,1.6299999952316284,168675.0
2012-02-14,1.6599999666213991,1.4800000190734863,1.6299999952316284,1.6000000238418581,51578.0
2012-02-15,1.440000057220459,1.149999976158142,1.4299999475479126,1.2899999618530271,191815.0
2012-02-16,1.440000057220459,1.2799999713897705,1.350000023841858,1.2999999523162842,55458.0
2012-02-17,1.4299999475479126,1.2899999618530271,1.3300000429153442,1.4299999475479126,26907.0
2012-02-21,1.399999976158142,1.1799999475479126,1.399999976158142,1.2999999523162842,27148.0
2012-02-22,1.309999942779541,1.2300000190734863,1.2999999523162842,1.309999942779541,2068.0
2012-02-23,1.25,1.2300000190734863,1.25,1.2300000190734863,4532.0
2012-02-24,1.25,1.1699999570846558,1.2300000190734863,1.2400000095367432,10811.0
2012-02-27,1.2599999904632568,1.190000057220459,1.190000057220459,1.25,13460.0
2012-02-28,1.25,1.190000057220459,1.25,1.190000057220459,1408.0
2012-02-29,1.1799999475479126,1.1599999666213991,1.1799999475479126,1.1799999475479126,6578.0
2012-03-01,1.2300000190734863,1.190000057220459,1.2300000190734863,1.2100000381469729,2758.0
2012-03-02,1.25,1.2300000190734863,1.2300000190734863,1.25,9644.0
2012-03-05,1.2400000095367432,1.149999976158142,1.2400000095367432,1.1699999570846558,16906.0
2012-03-06,1.190000057220459,1.0800000429153442,1.149999976158142,1.0900000333786009,18598.0
2012-03-07,1.149999976158142,1.0900000333786009,1.0900000333786009,1.149999976158142,4685.0
2012-03-08,1.1399999856948853,1.0499999523162842,1.100000023841858,1.1399999856948853,12389.0
2012-03-09,1.1399999856948853,1.0700000524520874,1.0800000429153442,1.1399999856948853,2101.0
2012-03-12,1.1599999666213991,1.1299999952316284,1.1599999666213991,1.1299999952316284,1400.0
2012-03-13,1.0800000429153442,1.0199999809265137,1.0800000429153442,1.0199999809265137,12236.0
2012-03-14,1.1299999952316284,1.0399999618530271,1.0499999523162842,1.100000023841858,6701.0
2012-03-15,1.100000023841858,1.0399999618530271,1.0499999523162842,1.100000023841858,6101.0
2012-03-16,1.0499999523162842,1.0099999904632568,1.0499999523162842,1.0099999904632568,18720.0
2012-03-19,1.0099999904632568,1.0,1.0,1.0099999904632568,6797.0
2012-03-20,1.0800000429153442,1.0,1.0,1.0800000429153442,23573.0
2012-03-21,1.1699999570846558,1.0499999523162842,1.0499999523162842,1.1699999570846558,9600.0
2012-03-22,1.100000023841858,1.0399999618530271,1.100000023841858,1.0399999618530271,4500.0
2012-03-23,1.1299999952316284,1.0099999904632568,1.0099999904632568,1.1299999952316284,8844.0
2012-03-26,1.1200000047683716,1.1200000047683716,1.1200000047683716,1.1200000047683716,132.0
2012-03-27,1.100000023841858,1.0700000524520874,1.0700000524520874,1.100000023841858,6968.0
2012-03-28,1.0199999809265137,1.0199999809265137,1.0199999809265137,1.0199999809265137,1300.0
2012-03-29,1.1100000143051147,1.0,1.0499999523162842,1.0499999523162842,14266.0
2012-03-30,1.0499999523162842,1.0299999713897705,1.0499999523162842,1.0299999713897705,500.0
2012-04-02,1.149999976158142,1.100000023841858,1.1200000047683716,1.149999976158142,5128.0
2012-04-03,1.2000000476837158,1.0499999523162842,1.2000000476837158,1.1100000143051147,15653.0
2012-04-04,1.1399999856948853,1.0499999523162842,1.0499999523162842,1.1399999856948853,3390.0
2012-04-05,1.100000023841858,1.100000023841858,1.100000023841858,1.100000023841858,1500.0
2012-04-09,1.100000023841858,1.100000023841858,1.100000023841858,1.100000023841858,0.0
2012-04-10,1.1100000143051147,1.0399999618530271,1.0499999523162842,1.1100000143051147,700.0
2012-04-11,1.0900000333786009,1.0099999904632568,1.0499999523162842,1.0299999713897705,6205.0
2012-04-12,1.0399999618530271,1.0099999904632568,1.0299999713897705,1.0399999618530271,5650.0
2012-04-13,1.0399999618530271,1.0199999809265137,1.0199999809265137,1.0399999618530271,5100.0
2012-04-16,1.100000023841858,1.0,1.0099999904632568,1.0900000333786009,7500.0
2012-04-17,1.0,1.0,1.0,1.0,2800.0
2012-04-18,1.0800000429153442,1.0199999809265137,1.0199999809265137,1.0800000429153442,2510.0
2012-04-19,1.0700000524520874,1.0299999713897705,1.0700000524520874,1.0299999713897705,905.0
2012-04-20,1.0299999713897705,1.0,1.0299999713897705,1.0,3400.0
2012-04-23,0.9800000190734864,0.9300000071525574,0.9700000286102296,0.9800000190734864,6870.0
2012-04-24,1.0199999809265137,1.0,1.0,1.0199999809265137,4377.0
2012-04-25,1.0900000333786009,1.0900000333786009,1.0900000333786009,1.0900000333786009,1800.0
2012-04-26,1.0900000333786009,1.0900000333786009,1.0900000333786009,1.0900000333786009,0.0
2012-04-27,1.0900000333786009,1.0900000333786009,1.0900000333786009,1.0900000333786009,0.0
2012-04-30,1.0900000333786009,1.0900000333786009,1.0900000333786009,1.0900000333786009,0.0
2012-05-01,1.0900000333786009,1.0900000333786009,1.0900000333786009,1.0900000333786009,0.0
2012-05-02,1.0499999523162842,1.0499999523162842,1.0499999523162842,1.0499999523162842,1000.0
2012-05-03,1.0499999523162842,1.0499999523162842,1.0499999523162842,1.0499999523162842,0.0
2012-05-04,1.100000023841858,1.100000023841858,1.100000023841858,1.100000023841858,4634.0
2012-05-07,1.0700000524520874,1.0700000524520874,1.0700000524520874,1.0700000524520874,2400.0
2012-05-08,1.0,1.0,1.0,1.0,1766.0
2012-05-09,1.0,1.0,1.0,1.0,0.0
2012-05-10,1.0,1.0,1.0,1.0,0.0
2012-05-11,1.0499999523162842,1.0499999523162842,1.0499999523162842,1.0499999523162842,25.0
2012-05-14,1.0,0.9300000071525574,1.0,0.9300000071525574,33610.0
2012-05-15,0.9300000071525574,0.9300000071525574,0.9300000071525574,0.9300000071525574,800.0
2012-05-16,0.9300000071525574,0.9300000071525574,0.9300000071525574,0.9300000071525574,0.0
2012-05-17,0.9300000071525574,0.75,0.9300000071525574,0.8600000143051147,12745.0
2012-05-18,0.9300000071525574,0.75,0.8500000238418579,0.9200000166893004,24401.0
2012-05-21,0.8999999761581421,0.7400000095367432,0.8999999761581421,0.8100000023841858,16062.0
2012-05-22,0.8399999737739563,0.7699999809265137,0.7699999809265137,0.8199999928474426,7390.0
2012-05-23,0.8299999833106995,0.8000000119209291,0.8000000119209291,0.8199999928474426,2874.0
2012-05-24,0.8899999856948853,0.7599999904632568,0.8000000119209291,0.8199999928474426,13537.0
2012-05-25,0.8000000119209291,0.8000000119209291,0.8000000119209291,0.8000000119209291,1000.0
2012-05-29,0.8399999737739563,0.7599999904632568,0.8000000119209291,0.8199999928474426,15902.0
2012-05-30,0.7699999809265137,0.7699999809265137,0.7699999809265137,0.7699999809265137,5400.0
2012-05-31,0.7799999713897705,0.7799999713897705,0.7799999713897705,0.7799999713897705,2400.0
2012-06-01,0.8000000119209291,0.7599999904632568,0.7599999904632568,0.8000000119209291,2005.0
2012-06-04,0.7599999904632568,0.7400000095367432,0.7599999904632568,0.7400000095367432,3601.0
2012-06-05,0.7400000095367432,0.6800000071525574,0.7400000095367432,0.7300000190734863,6349.0
2012-06-06,0.75,0.7200000286102295,0.7200000286102295,0.75,7049.0
2012-06-07,0.75,0.75,0.75,0.75,0.0
2012-06-08,0.75,0.75,0.75,0.75,0.0
2012-06-11,0.7200000286102295,0.7200000286102295,0.7200000286102295,0.7200000286102295,1160.0
2012-06-12,0.8000000119209291,0.7599999904632568,0.7599999904632568,0.8000000119209291,6309.0
2012-06-13,0.8000000119209291,0.8000000119209291,0.8000000119209291,0.8000000119209291,0.0
2012-06-14,0.8000000119209291,0.8000000119209291,0.8000000119209291,0.8000000119209291,0.0
2012-06-15,0.7799999713897705,0.7300000190734863,0.7300000190734863,0.7799999713897705,911.0
2012-06-18,0.7799999713897705,0.7300000190734863,0.7300000190734863,0.7300000190734863,2199.0
2012-06-19,0.7799999713897705,0.7300000190734863,0.7300000190734863,0.7799999713897705,2392.0
2012-06-20,0.7400000095367432,0.7200000286102295,0.7400000095367432,0.7200000286102295,8450.0
2012-06-21,0.7599999904632568,0.699999988079071,0.7599999904632568,0.7300000190734863,1900.0
2012-06-22,0.7200000286102295,0.699999988079071,0.7200000286102295,0.7200000286102295,1205.0
2012-06-25,0.7900000214576721,0.7300000190734863,0.7300000190734863,0.7900000214576721,3900.0
2012-06-26,0.7599999904632568,0.7099999785423279,0.75,0.7599999904632568,12218.0
2012-06-27,0.7400000095367432,0.7200000286102295,0.7200000286102295,0.7400000095367432,2730.0
2012-06-28,0.7400000095367432,0.7400000095367432,0.7400000095367432,0.7400000095367432,0.0
2012-06-29,0.75,0.6499999761581421,0.7300000190734863,0.75,14248.0
2012-07-02,0.7200000286102295,0.6700000166893005,0.6800000071525574,0.7200000286102295,1800.0
2012-07-03,0.7400000095367432,0.6700000166893005,0.6700000166893005,0.7400000095367432,5010.0
2012-07-05,0.6600000262260437,0.6600000262260437,0.6600000262260437,0.6600000262260437,0.0
2012-07-06,0.6600000262260437,0.6600000262260437,0.6600000262260437,0.6600000262260437,0.0
2012-07-09,0.6600000262260437,0.6600000262260437,0.6600000262260437,0.6600000262260437,0.0
2012-07-10,0.6600000262260437,0.6600000262260437,0.6600000262260437,0.6600000262260437,0.0
2012-07-11,0.6600000262260437,0.6600000262260437,0.6600000262260437,0.6600000262260437,0.0
2012-07-12,0.6600000262260437,0.6600000262260437,0.6600000262260437,0.6600000262260437,0.0
2012-07-13,0.6600000262260437,0.6600000262260437,0.6600000262260437,0.6600000262260437,0.0
2012-07-16,0.6600000262260437,0.6600000262260437,0.6600000262260437,0.6600000262260437,0.0
2012-07-17,0.6600000262260437,0.6600000262260437,0.6600000262260437,0.6600000262260437,0.0
2012-07-18,0.6600000262260437,0.6600000262260437,0.6600000262260437,0.6600000262260437,0.0
2012-07-19,0.6600000262260437,0.6600000262260437,0.6600000262260437,0.6600000262260437,0.0
2012-07-20,0.6600000262260437,0.6600000262260437,0.6600000262260437,0.6600000262260437,0.0
2012-07-23,0.6600000262260437,0.6600000262260437,0.6600000262260437,0.6600000262260437,0.0
2012-07-24,0.6600000262260437,0.6600000262260437,0.6600000262260437,0.6600000262260437,0.0
2012-07-25,0.6600000262260437,0.6600000262260437,0.6600000262260437,0.6600000262260437,0.0
2012-07-26,0.6600000262260437,0.6600000262260437,0.6600000262260437,0.6600000262260437,0.0
2012-07-27,0.6600000262260437,0.6600000262260437,0.6600000262260437,0.6600000262260437,0.0
2012-07-30,0.6600000262260437,0.6600000262260437,0.6600000262260437,0.6600000262260437,0.0
2012-07-31,0.6600000262260437,0.6600000262260437,0.6600000262260437,0.6600000262260437,0.0
2012-08-01,0.6600000262260437,0.6600000262260437,0.6600000262260437,0.6600000262260437,0.0
2012-08-02,0.6600000262260437,0.6600000262260437,0.6600000262260437,0.6600000262260437,0.0
2012-08-03,0.6600000262260437,0.6600000262260437,0.6600000262260437,0.6600000262260437,0.0
2012-08-06,0.6600000262260437,0.6600000262260437,0.6600000262260437,0.6600000262260437,0.0
2012-08-07,0.6600000262260437,0.6600000262260437,0.6600000262260437,0.6600000262260437,0.0
2012-08-08,0.6600000262260437,0.6600000262260437,0.6600000262260437,0.6600000262260437,0.0
2012-08-09,0.6600000262260437,0.6600000262260437,0.6600000262260437,0.6600000262260437,0.0
2012-08-10,0.6600000262260437,0.6600000262260437,0.6600000262260437,0.6600000262260437,0.0
2012-08-13,0.6600000262260437,0.6600000262260437,0.6600000262260437,0.6600000262260437,0.0
2012-08-14,0.6600000262260437,0.6600000262260437,0.6600000262260437,0.6600000262260437,0.0
2012-08-15,0.6600000262260437,0.6600000262260437,0.6600000262260437,0.6600000262260437,0.0
2012-08-16,0.6600000262260437,0.6600000262260437,0.6600000262260437,0.6600000262260437,0.0
2012-08-17,0.6600000262260437,0.6600000262260437,0.6600000262260437,0.6600000262260437,0.0
2012-08-20,0.6600000262260437,0.6600000262260437,0.6600000262260437,0.6600000262260437,0.0
2012-08-21,0.6600000262260437,0.6600000262260437,0.6600000262260437,0.6600000262260437,0.0
2012-08-22,0.6600000262260437,0.6600000262260437,0.6600000262260437,0.6600000262260437,0.0
2012-08-23,0.6600000262260437,0.6600000262260437,0.6600000262260437,0.6600000262260437,0.0
2012-08-24,0.6600000262260437,0.6600000262260437,0.6600000262260437,0.6600000262260437,0.0
2012-08-27,0.6600000262260437,0.6600000262260437,0.6600000262260437,0.6600000262260437,0.0
2012-08-28,0.6600000262260437,0.6600000262260437,0.6600000262260437,0.6600000262260437,0.0
2012-08-29,0.6600000262260437,0.6600000262260437,0.6600000262260437,0.6600000262260437,0.0
2012-08-30,0.6600000262260437,0.6600000262260437,0.6600000262260437,0.6600000262260437,0.0
2012-08-31,0.6600000262260437,0.6600000262260437,0.6600000262260437,0.6600000262260437,0.0
2012-09-04,0.6600000262260437,0.6600000262260437,0.6600000262260437,0.6600000262260437,0.0
2012-09-05,0.6600000262260437,0.6600000262260437,0.6600000262260437,0.6600000262260437,0.0
2012-09-06,0.6600000262260437,0.6600000262260437,0.6600000262260437,0.6600000262260437,0.0
2012-09-07,0.6600000262260437,0.6600000262260437,0.6600000262260437,0.6600000262260437,0.0
2012-09-10,0.6600000262260437,0.6600000262260437,0.6600000262260437,0.6600000262260437,0.0
2012-09-11,0.6600000262260437,0.6600000262260437,0.6600000262260437,0.6600000262260437,0.0
2012-09-12,0.6600000262260437,0.6600000262260437,0.6600000262260437,0.6600000262260437,0.0
2012-09-13,0.6600000262260437,0.6600000262260437,0.6600000262260437,0.6600000262260437,0.0
2012-09-14,0.6600000262260437,0.6600000262260437,0.6600000262260437,0.6600000262260437,0.0
2012-09-17,0.6600000262260437,0.6600000262260437,0.6600000262260437,0.6600000262260437,0.0
2012-09-18,0.6600000262260437,0.6600000262260437,0.6600000262260437,0.6600000262260437,0.0
2012-09-19,0.6600000262260437,0.6600000262260437,0.6600000262260437,0.6600000262260437,0.0
2012-09-20,0.6600000262260437,0.6600000262260437,0.6600000262260437,0.6600000262260437,0.0
2012-09-21,0.6600000262260437,0.6600000262260437,0.6600000262260437,0.6600000262260437,0.0
2012-09-24,0.6600000262260437,0.6600000262260437,0.6600000262260437,0.6600000262260437,0.0
2012-09-25,0.6600000262260437,0.6600000262260437,0.6600000262260437,0.6600000262260437,0.0
2012-09-26,0.6600000262260437,0.6600000262260437,0.6600000262260437,0.6600000262260437,0.0
2012-09-27,0.6600000262260437,0.6600000262260437,0.6600000262260437,0.6600000262260437,0.0
2012-09-28,0.6600000262260437,0.6600000262260437,0.6600000262260437,0.6600000262260437,0.0
2012-10-01,0.6600000262260437,0.6600000262260437,0.6600000262260437,0.6600000262260437,0.0
2012-10-02,0.6600000262260437,0.6600000262260437,0.6600000262260437,0.6600000262260437,0.0
2012-10-03,0.6600000262260437,0.6600000262260437,0.6600000262260437,0.6600000262260437,0.0
2012-10-04,0.6600000262260437,0.6600000262260437,0.6600000262260437,0.6600000262260437,0.0
2020-02-27,24.57999992370605,24.334999084472656,24.54999923706055,24.334999084472656,1100.0
2020-02-28,24.018999099731445,24.018999099731445,24.018999099731445,24.018999099731445,0.0
2020-03-02,24.8700008392334,24.742000579833984,24.742000579833984,24.8700008392334,400.0
2020-03-03,27.040000915527344,24.482999801635746,27.040000915527344,24.482999801635746,1600.0
2020-03-04,25.23699951171875,25.03000068664551,25.03000068664551,25.23699951171875,60000.0
2020-03-05,24.492000579833984,24.492000579833984,24.492000579833984,24.492000579833984,100.0
2020-03-06,23.917999267578125,23.459999084472656,23.53000068664551,23.917999267578125,5000.0
2020-03-09,22.649999618530273,22.183000564575195,22.649999618530273,22.183000564575195,400.0
2020-03-10,23.06599998474121,23.06599998474121,23.06599998474121,23.06599998474121,100.0
2020-03-11,22.5,22.024999618530273,22.5,22.024999618530273,300.0
2020-03-12,20.149999618530273,19.832000732421875,20.149999618530273,19.832000732421875,200.0
2020-03-13,20.93899917602539,20.31999969482422,20.31999969482422,20.93899917602539,500.0
2020-03-16,20.11000061035156,18.415000915527344,20.11000061035156,18.415000915527344,1200.0
2020-03-17,19.194000244140625,19.194000244140625,19.194000244140625,19.194000244140625,100.0
2020-03-18,17.69700050354004,17.69700050354004,17.69700050354004,17.69700050354004,0.0
2020-03-19,18.141000747680664,18.141000747680664,18.141000747680664,18.141000747680664,0.0
2020-03-20,18.200000762939453,17.83099937438965,18.200000762939453,17.83099937438965,1000.0
2020-03-23,17.621999740600586,17.621999740600586,17.621999740600586,17.621999740600586,100.0
2020-03-24,17.621999740600586,17.621999740600586,17.621999740600586,17.621999740600586,100.0
2020-03-25,20.40999984741211,20.033000946044922,20.399999618530273,20.033000946044922,30000.0
2020-03-26,21.0049991607666,21.0049991607666,21.0049991607666,21.0049991607666,100.0
2020-03-27,22.70000076293945,20.24399948120117,22.70000076293945,20.465999603271484,900.0
2020-03-30,20.88999938964844,20.773000717163086,20.773000717163086,20.87700080871582,1700.0
2020-03-31,20.617000579833984,20.617000579833984,20.617000579833984,20.617000579833984,100.0
2020-04-01,19.479999542236328,19.30500030517578,19.479999542236328,19.30500030517578,500.0
2020-04-02,19.42300033569336,19.299999237060547,19.299999237060547,19.42300033569336,200.0
2020-04-03,19.42300033569336,19.42300033569336,19.42300033569336,19.42300033569336,0.0
2020-04-06,20.902999877929688,20.481000900268555,20.481000900268555,20.902999877929688,500.0
2020-04-07,20.902999877929688,20.902999877929688,20.902999877929688,20.902999877929688,0.0
2020-04-08,20.832000732421875,20.832000732421875,20.832000732421875,20.832000732421875,0.0
2020-04-09,21.65900039672852,21.65900039672852,21.65900039672852,21.65900039672852,0.0
2020-04-13,22.0,21.857999801635746,22.0,21.857999801635746,500.0
2020-04-14,21.857999801635746,21.857999801635746,21.857999801635746,21.857999801635746,0.0
2020-04-15,22.364999771118164,22.32999992370605,22.32999992370605,22.364999771118164,300.0
2020-04-16,22.722999572753906,22.53000068664551,22.53000068664551,22.722999572753906,100.0
2020-04-17,23.665000915527344,23.24600028991699,23.29999923706055,23.45599937438965,900.0
2020-04-20,23.45599937438965,23.45599937438965,23.45599937438965,23.45599937438965,0.0
2020-04-21,22.277999877929688,22.23900032043457,22.23900032043457,22.277999877929688,200.0
2020-04-22,22.966999053955078,22.84600067138672,22.84600067138672,22.966999053955078,100.0
2020-04-23,22.966999053955078,22.966999053955078,22.966999053955078,22.966999053955078,0.0
2020-04-24,22.96500015258789,22.96500015258789,22.96500015258789,22.96500015258789,0.0
2020-04-27,23.86000061035156,23.60000038146973,23.790000915527344,23.85400009155273,1200.0
2020-04-28,23.85400009155273,23.85400009155273,23.85400009155273,23.85400009155273,0.0
2020-04-29,23.757999420166016,23.757999420166016,23.757999420166016,23.757999420166016,0.0
2020-04-30,24.399999618530273,24.011999130249023,24.39900016784668,24.011999130249023,1000.0
2020-05-01,23.75,23.05900001525879,23.75,23.05900001525879,500.0
2020-05-04,23.05900001525879,23.05900001525879,23.05900001525879,23.05900001525879,0.0
2020-05-05,23.36000061035156,23.36000061035156,23.36000061035156,23.36000061035156,0.0
2020-05-06,23.847999572753906,23.847999572753906,23.847999572753906,23.847999572753906,0.0
2020-05-07,24.631999969482425,24.631999969482425,24.631999969482425,24.631999969482425,100.0
2020-05-08,24.631999969482425,24.631999969482425,24.631999969482425,24.631999969482425,0.0
2020-05-11,25.38500022888184,24.540000915527344,24.540000915527344,25.38500022888184,600.0
2020-05-12,25.96999931335449,24.934999465942386,25.96999931335449,24.934999465942386,500.0
2020-05-13,24.85000038146973,24.298999786376953,24.85000038146973,24.298999786376953,100.0
2020-05-14,24.541000366210934,23.8700008392334,24.1299991607666,24.541000366210934,1600.0
2020-05-15,24.642000198364254,24.39900016784668,24.39900016784668,24.642000198364254,100.0
2020-05-18,25.54999923706055,25.47599983215332,25.54999923706055,25.47599983215332,800.0
2020-05-19,25.5,25.413000106811523,25.5,25.413000106811523,300.0
2020-05-20,25.95000076293945,25.93899917602539,25.95000076293945,25.93899917602539,200.0
2020-05-21,25.65699958801269,25.65699958801269,25.65699958801269,25.65699958801269,100.0
2020-05-22,25.8129997253418,25.8129997253418,25.8129997253418,25.8129997253418,200.0
2020-05-26,26.03199958801269,26.03199958801269,26.03199958801269,26.03199958801269,100.0
2020-05-27,26.07600021362305,25.642000198364254,25.642000198364254,26.07600021362305,500.0
2020-05-28,26.25,26.166000366210934,26.23900032043457,26.166000366210934,800.0
2020-05-29,26.70100021362305,26.70100021362305,26.70100021362305,26.70100021362305,0.0
2020-06-01,27.086000442504886,27.086000442504886,27.086000442504886,27.086000442504886,200.0
2020-06-02,27.25300025939941,27.12899971008301,27.12899971008301,27.25300025939941,300.0
2020-06-03,27.60700035095215,27.60700035095215,27.60700035095215,27.60700035095215,100.0
2020-06-04,27.61000061035156,27.20000076293945,27.61000061035156,27.211000442504886,200.0
2020-06-05,27.89900016784668,27.871999740600586,27.89900016784668,27.871999740600586,100.0
2020-06-08,27.98900032043457,27.976999282836914,27.98900032043457,27.976999282836914,200.0
2020-06-09,27.979999542236328,27.92099952697754,27.979999542236328,27.92099952697754,200.0
2020-06-10,28.388999938964844,28.25,28.388999938964844,28.25,300.0
2020-06-11,27.239999771118164,26.51000022888184,27.239999771118164,26.56999969482422,4300.0
2020-06-12,27.93000030517578,26.70800018310547,27.78000068664551,26.70800018310547,2700.0
2020-06-15,27.27400016784668,26.21999931335449,26.21999931335449,27.27400016784668,1600.0
2020-06-16,27.62400054931641,27.60000038146973,27.60000038146973,27.62400054931641,300.0
2020-06-17,27.920000076293945,27.8439998626709,27.920000076293945,27.8439998626709,600.0
2020-06-18,27.95400047302246,27.95400047302246,27.95400047302246,27.95400047302246,100.0
2020-06-19,28.239999771118164,27.90999984741211,28.209999084472656,27.996999740600586,1900.0
2020-06-22,28.25300025939941,28.209999084472656,28.209999084472656,28.25300025939941,1300.0
2020-06-23,28.368000030517575,28.368000030517575,28.368000030517575,28.368000030517575,200.0
2020-06-24,28.0,27.5939998626709,28.0,27.5939998626709,800.0
2020-06-25,27.816999435424805,27.816999435424805,27.816999435424805,27.816999435424805,100.0
2020-06-26,27.381000518798828,27.381000518798828,27.381000518798828,27.381000518798828,100.0
2020-06-29,27.613000869750977,27.57399940490723,27.57399940490723,27.613000869750977,300.0
2020-06-30,28.31599998474121,28.190000534057614,28.229999542236328,28.31599998474121,1200.0
2020-07-01,28.30200004577637,28.30200004577637,28.30200004577637,28.30200004577637,300.0
2020-07-02,28.76000022888184,28.589000701904297,28.729999542236328,28.589000701904297,1000.0
2020-07-06,29.386999130249023,29.290000915527344,29.290000915527344,29.386999130249023,1200.0
2020-07-07,29.63999938964844,29.316999435424805,29.61000061035156,29.316999435424805,5000.0
2020-07-08,29.67600059509277,29.520000457763672,29.6299991607666,29.67600059509277,18300.0
2020-07-09,30.007999420166016,29.558000564575195,29.558000564575195,30.007999420166016,300.0
2020-07-10,30.091999053955078,29.84000015258789,29.899999618530273,30.091999053955078,500.0
2020-07-13,30.690000534057614,29.32999992370605,30.670000076293945,29.35099983215332,2400.0
2020-07-14,29.767000198364254,29.399999618530273,29.399999618530273,29.767000198364254,200.0
2020-07-15,30.32900047302246,30.10000038146973,30.10000038146973,30.315000534057614,400.0
2020-07-16,30.01000022888184,29.70000076293945,29.70000076293945,29.915000915527344,1800.0
2020-07-17,30.367000579833984,30.367000579833984,30.367000579833984,30.367000579833984,100.0
2020-07-20,31.23600006103516,31.10000038146973,31.190000534057614,31.23600006103516,700.0
2020-07-21,31.270000457763672,30.99600028991699,31.270000457763672,30.99600028991699,1200.0
2020-07-22,31.163000106811523,31.163000106811523,31.163000106811523,31.163000106811523,100.0
2020-07-23,30.80299949645996,30.80299949645996,30.80299949645996,30.80299949645996,300.0
2020-07-24,30.20800018310547,30.20800018310547,30.20800018310547,30.20800018310547,5300.0
2020-07-27,31.05699920654297,30.290000915527344,30.290000915527344,31.05699920654297,1200.0
2020-07-28,30.69300079345703,30.53400039672852,30.69300079345703,30.53400039672852,500.0
2020-07-29,31.18000030517578,31.11199951171875,31.15999984741211,31.11199951171875,3700.0
2020-07-30,31.290000915527344,30.8799991607666,31.290000915527344,31.21999931335449,700.0
2020-07-31,31.31999969482422,31.11000061035156,31.26000022888184,31.208999633789066,2900.0
2020-08-03,31.84000015258789,31.65999984741211,31.67499923706055,31.82999992370605,1300.0
2020-08-04,35.18000030517578,32.049999237060554,32.36999893188477,32.242000579833984,1700.0
2020-08-05,32.560001373291016,32.220001220703125,32.220001220703125,32.472000122070305,1900.0
2020-08-06,32.44900131225586,32.44900131225586,32.44900131225586,32.44900131225586,300.0
2020-08-07,32.459999084472656,31.79999923706055,32.458999633789055,31.97200012207031,2500.0
2020-08-10,31.79999923706055,31.63999938964844,31.79999923706055,31.643999099731445,1900.0
2020-08-11,31.45000076293945,31.13999938964844,31.45000076293945,31.13999938964844,10200.0
2020-08-12,31.92900085449219,31.8700008392334,31.8700008392334,31.92900085449219,1900.0
2020-08-13,32.450000762939446,32.09999847412109,32.09999847412109,32.34400177001953,200.0
2020-08-14,32.16899871826172,32.16899871826172,32.16899871826172,32.16899871826172,200.0
2020-08-17,32.91699981689453,32.702999114990234,32.72999954223633,32.91699981689453,800.0
2020-08-18,33.15900039672852,32.99499893188477,32.99499893188477,33.053001403808594,700.0
2020-08-19,33.25,33.209999084472656,33.21500015258789,33.21099853515625,1100.0
2020-08-20,33.470001220703125,33.400001525878906,33.470001220703125,33.400001525878906,2100.0
2020-08-21,34.90999984741211,33.34000015258789,34.90999984741211,33.514999389648445,4000.0
2020-08-24,34.0,33.569000244140625,34.0,33.569000244140625,300.0
2020-08-25,33.78889846801758,33.78889846801758,33.5,33.78889846801758,803.0
