Date,High,Low,Open,Close,Volume
2017-10-26,22.913000106811523,22.913000106811523,22.913000106811523,22.913000106811523,0.0
2017-11-09,25.0,24.95000076293945,24.95000076293945,25.0,200.0
2017-11-10,25.0,25.0,25.0,25.0,0.0
2017-11-13,25.0,25.0,25.0,25.0,0.0
2017-11-14,25.11000061035156,25.11000061035156,25.11000061035156,25.11000061035156,994700.0
2017-11-15,25.11000061035156,25.11000061035156,25.11000061035156,25.11000061035156,0.0
2017-11-16,25.11000061035156,25.11000061035156,25.11000061035156,25.11000061035156,0.0
2017-11-17,25.11000061035156,25.11000061035156,25.11000061035156,25.11000061035156,0.0
2017-11-20,25.11000061035156,25.11000061035156,25.11000061035156,25.11000061035156,0.0
2017-11-21,25.11000061035156,25.11000061035156,25.11000061035156,25.11000061035156,0.0
2017-11-22,25.11000061035156,25.11000061035156,25.11000061035156,25.11000061035156,0.0
2017-11-24,25.358999252319336,25.33300018310547,25.358999252319336,25.33300018310547,800.0
2017-11-27,25.38999938964844,25.38999938964844,25.38999938964844,25.38999938964844,100.0
2017-11-28,25.38999938964844,25.38999938964844,25.38999938964844,25.38999938964844,0.0
2017-11-29,25.67099952697754,25.638999938964844,25.649999618530273,25.65999984741211,2300.0
2017-11-30,25.809999465942386,25.809999465942386,25.809999465942386,25.809999465942386,800.0
2017-12-01,25.809999465942386,25.70800018310547,25.809999465942386,25.73699951171875,1000.0
2017-12-04,25.73699951171875,25.73699951171875,25.73699951171875,25.73699951171875,0.0
2017-12-05,25.86000061035156,25.79999923706055,25.86000061035156,25.79999923706055,400.0
2017-12-06,25.71299934387207,25.71299934387207,25.71299934387207,25.71299934387207,300.0
2017-12-07,25.750999450683594,25.750999450683594,25.750999450683594,25.750999450683594,300.0
2017-12-08,25.8799991607666,25.80500030517578,25.80500030517578,25.8799991607666,400.0
2017-12-11,25.96999931335449,25.96999931335449,25.96999931335449,25.96999931335449,200.0
2017-12-12,25.979999542236328,25.979999542236328,25.979999542236328,25.979999542236328,300.0
2017-12-13,26.020000457763672,26.020000457763672,26.020000457763672,26.020000457763672,300.0
2017-12-14,26.10000038146973,26.10000038146973,26.10000038146973,26.10000038146973,200.0
2017-12-15,26.10000038146973,26.040000915527344,26.10000038146973,26.040000915527344,1600.0
2017-12-18,26.040000915527344,26.040000915527344,26.040000915527344,26.040000915527344,0.0
2017-12-19,26.114999771118164,26.11000061035156,26.11000061035156,26.114999771118164,2500.0
2017-12-20,26.11000061035156,26.09000015258789,26.09000015258789,26.11000061035156,500.0
2017-12-21,26.05900001525879,26.04999923706055,26.05900001525879,26.04999923706055,500.0
2017-12-22,26.04999923706055,26.04999923706055,26.04999923706055,26.04999923706055,0.0
2017-12-26,26.040000915527344,25.97900009155273,26.040000915527344,25.979999542236328,1600.0
2017-12-27,25.979999542236328,25.979999542236328,25.979999542236328,25.979999542236328,0.0
2017-12-28,26.0,25.979999542236328,25.979999542236328,26.0,1800.0
2017-12-29,26.0,26.0,26.0,26.0,0.0
2018-01-02,26.07999992370605,26.07999992370605,26.07999992370605,26.07999992370605,400.0
2018-01-03,26.11000061035156,26.11000061035156,26.11000061035156,26.11000061035156,200.0
2018-01-04,26.11000061035156,26.11000061035156,26.11000061035156,26.11000061035156,0.0
2018-01-05,26.11000061035156,26.11000061035156,26.11000061035156,26.11000061035156,0.0
2018-01-08,26.20000076293945,26.20000076293945,26.20000076293945,26.20000076293945,100.0
2018-01-09,26.20000076293945,26.20000076293945,26.20000076293945,26.20000076293945,0.0
2018-01-10,26.20000076293945,26.20000076293945,26.20000076293945,26.20000076293945,0.0
2018-01-11,26.239999771118164,26.239999771118164,26.239999771118164,26.239999771118164,800.0
2018-01-12,26.239999771118164,26.239999771118164,26.239999771118164,26.239999771118164,0.0
2018-01-16,26.43000030517578,26.14699935913086,26.43000030517578,26.15900039672852,1600.0
2018-01-17,26.34000015258789,26.1200008392334,26.270000457763672,26.34000015258789,1400.0
2018-01-18,26.209999084472656,26.209999084472656,26.209999084472656,26.209999084472656,700.0
2018-01-19,26.459999084472656,26.31999969482422,26.459999084472656,26.31999969482422,800.0
2018-01-22,26.489999771118164,26.479999542236328,26.479999542236328,26.489999771118164,600.0
2018-01-23,26.60000038146973,26.459999084472656,26.459999084472656,26.60000038146973,900.0
2018-01-24,26.739999771118164,26.61000061035156,26.739999771118164,26.61000061035156,1200.0
2018-01-25,26.61000061035156,26.61000061035156,26.61000061035156,26.61000061035156,0.0
2018-01-26,26.61000061035156,26.61000061035156,26.61000061035156,26.61000061035156,0.0
2018-01-29,26.6299991607666,26.6299991607666,26.6299991607666,26.6299991607666,1300.0
2018-01-30,26.6299991607666,26.6299991607666,26.6299991607666,26.6299991607666,0.0
2018-01-31,26.6299991607666,26.6299991607666,26.6299991607666,26.6299991607666,0.0
2018-02-01,26.239999771118164,26.239999771118164,26.239999771118164,26.239999771118164,100.0
2018-02-02,25.95000076293945,25.95000076293945,25.95000076293945,25.95000076293945,200.0
2018-02-05,25.59000015258789,24.979999542236328,25.59000015258789,25.170000076293945,500.0
2018-02-06,25.170000076293945,25.170000076293945,25.170000076293945,25.170000076293945,0.0
2018-02-07,25.170000076293945,25.170000076293945,25.170000076293945,25.170000076293945,0.0
2018-02-08,25.149999618530273,25.149999618530273,25.149999618530273,25.149999618530273,100.0
2018-02-09,25.149999618530273,25.149999618530273,25.149999618530273,25.149999618530273,0.0
2018-02-12,25.149999618530273,25.149999618530273,25.149999618530273,25.149999618530273,0.0
2018-02-13,24.8700008392334,24.8700008392334,24.8700008392334,24.8700008392334,700.0
2018-02-14,24.8700008392334,24.8700008392334,24.8700008392334,24.8700008392334,0.0
2018-02-15,24.8700008392334,24.8700008392334,24.8700008392334,24.8700008392334,0.0
2018-02-16,25.6299991607666,25.6299991607666,25.6299991607666,25.6299991607666,1200.0
2018-02-20,25.35000038146973,25.35000038146973,25.35000038146973,25.35000038146973,500.0
2018-02-21,25.35000038146973,25.35000038146973,25.35000038146973,25.35000038146973,0.0
2018-02-22,25.381000518798828,25.381000518798828,25.381000518798828,25.381000518798828,100.0
2018-02-23,25.42099952697754,25.42099952697754,25.42099952697754,25.42099952697754,200.0
2018-02-26,25.42099952697754,25.42099952697754,25.42099952697754,25.42099952697754,0.0
2018-02-27,25.42099952697754,25.42099952697754,25.42099952697754,25.42099952697754,0.0
2018-02-28,25.42099952697754,25.42099952697754,25.42099952697754,25.42099952697754,0.0
2018-03-01,25.42099952697754,25.42099952697754,25.42099952697754,25.42099952697754,0.0
2018-03-02,25.42099952697754,25.42099952697754,25.42099952697754,25.42099952697754,0.0
2018-03-05,25.42099952697754,25.42099952697754,25.42099952697754,25.42099952697754,0.0
2018-03-06,25.42099952697754,25.42099952697754,25.42099952697754,25.42099952697754,0.0
2018-03-07,25.42099952697754,25.42099952697754,25.42099952697754,25.42099952697754,0.0
2018-03-08,25.42099952697754,25.42099952697754,25.42099952697754,25.42099952697754,0.0
2018-03-09,25.42099952697754,25.42099952697754,25.42099952697754,25.42099952697754,0.0
2018-03-12,25.42099952697754,25.42099952697754,25.42099952697754,25.42099952697754,0.0
2018-03-13,25.770000457763672,25.75,25.75,25.75,1100.0
2018-03-14,25.75,25.75,25.75,25.75,0.0
2018-03-15,25.45000076293945,25.420000076293945,25.45000076293945,25.420000076293945,400.0
2018-03-16,25.420000076293945,25.420000076293945,25.420000076293945,25.420000076293945,0.0
2018-03-19,25.37800025939941,25.29999923706055,25.36000061035156,25.29999923706055,900.0
2018-03-20,25.19499969482422,25.19499969482422,25.19499969482422,25.19499969482422,400.0
2018-03-21,25.19499969482422,25.19499969482422,25.19499969482422,25.19499969482422,0.0
2018-03-22,25.19499969482422,25.19499969482422,25.19499969482422,25.19499969482422,0.0
2018-03-23,24.54999923706055,24.18000030517578,24.54999923706055,24.18000030517578,500.0
2018-03-26,24.18000030517578,24.18000030517578,24.18000030517578,24.18000030517578,0.0
2018-03-27,24.18000030517578,24.18000030517578,24.18000030517578,24.18000030517578,0.0
2018-03-28,24.18000030517578,24.18000030517578,24.18000030517578,24.18000030517578,0.0
2018-03-29,24.81999969482422,24.56999969482422,24.56999969482422,24.790000915527344,2000.0
2018-04-02,24.790000915527344,24.790000915527344,24.790000915527344,24.790000915527344,0.0
2018-04-03,24.790000915527344,24.790000915527344,24.790000915527344,24.790000915527344,0.0
2018-04-04,24.790000915527344,24.790000915527344,24.790000915527344,24.790000915527344,0.0
2018-04-05,24.790000915527344,24.790000915527344,24.790000915527344,24.790000915527344,0.0
2018-04-06,24.790000915527344,24.790000915527344,24.790000915527344,24.790000915527344,0.0
2018-04-09,24.790000915527344,24.790000915527344,24.790000915527344,24.790000915527344,0.0
2018-04-10,24.875999450683594,24.86000061035156,24.86000061035156,24.875999450683594,1000.0
2018-04-11,24.875999450683594,24.875999450683594,24.875999450683594,24.875999450683594,0.0
2018-04-12,24.940000534057614,24.940000534057614,24.940000534057614,24.940000534057614,600.0
2018-04-13,24.940000534057614,24.940000534057614,24.940000534057614,24.940000534057614,0.0
2018-04-16,24.940000534057614,24.940000534057614,24.940000534057614,24.940000534057614,0.0
2018-04-17,24.940000534057614,24.940000534057614,24.940000534057614,24.940000534057614,0.0
2018-04-18,25.31999969482422,25.30699920654297,25.309999465942386,25.30699920654297,4100.0
2018-04-19,25.30699920654297,25.30699920654297,25.30699920654297,25.30699920654297,0.0
2018-04-20,25.30699920654297,25.30699920654297,25.30699920654297,25.30699920654297,0.0
2018-04-23,25.30699920654297,25.30699920654297,25.30699920654297,25.30699920654297,0.0
2018-04-24,25.30699920654297,25.30699920654297,25.30699920654297,25.30699920654297,0.0
2018-04-25,24.761999130249023,24.750999450683594,24.761999130249023,24.757999420166016,300.0
2018-04-26,24.757999420166016,24.757999420166016,24.757999420166016,24.757999420166016,0.0
2018-04-27,24.757999420166016,24.757999420166016,24.757999420166016,24.757999420166016,0.0
2018-04-30,25.170000076293945,25.170000076293945,25.170000076293945,25.170000076293945,200.0
2018-05-01,24.729999542236328,24.718000411987305,24.729999542236328,24.718000411987305,500.0
2018-05-02,24.718000411987305,24.718000411987305,24.718000411987305,24.718000411987305,0.0
2018-05-03,24.718000411987305,24.718000411987305,24.718000411987305,24.718000411987305,0.0
2018-05-04,24.718000411987305,24.718000411987305,24.718000411987305,24.718000411987305,0.0
2018-05-07,24.920000076293945,24.920000076293945,24.920000076293945,24.920000076293945,1000.0
2018-05-08,24.899999618530273,24.899999618530273,24.899999618530273,24.899999618530273,100.0
2018-05-09,24.809999465942386,24.809999465942386,24.809999465942386,24.809999465942386,200.0
2018-05-10,24.809999465942386,24.809999465942386,24.809999465942386,24.809999465942386,0.0
2018-05-11,24.809999465942386,24.809999465942386,24.809999465942386,24.809999465942386,0.0
2018-05-14,24.809999465942386,24.809999465942386,24.809999465942386,24.809999465942386,0.0
2018-05-15,24.809999465942386,24.809999465942386,24.809999465942386,24.809999465942386,0.0
2018-05-16,24.809999465942386,24.809999465942386,24.809999465942386,24.809999465942386,0.0
2018-05-17,25.215999603271484,25.215999603271484,25.215999603271484,25.215999603271484,400.0
2018-05-18,25.215999603271484,25.215999603271484,25.215999603271484,25.215999603271484,0.0
2018-05-21,25.3700008392334,25.229999542236328,25.229999542236328,25.3700008392334,3200.0
2018-05-22,25.34000015258789,25.32500076293945,25.32500076293945,25.34000015258789,2300.0
2018-05-23,25.34000015258789,25.34000015258789,25.34000015258789,25.34000015258789,0.0
2018-05-24,25.34000015258789,25.34000015258789,25.34000015258789,25.34000015258789,0.0
2018-05-25,25.34000015258789,25.34000015258789,25.34000015258789,25.34000015258789,0.0
2018-05-29,25.3700008392334,25.3700008392334,25.3700008392334,25.3700008392334,700.0
2018-05-30,25.3700008392334,25.3700008392334,25.3700008392334,25.3700008392334,0.0
2018-05-31,25.3700008392334,25.3700008392334,25.3700008392334,25.3700008392334,0.0
2018-06-01,25.3700008392334,25.3700008392334,25.3700008392334,25.3700008392334,0.0
2018-06-04,25.3700008392334,25.3700008392334,25.3700008392334,25.3700008392334,0.0
2018-06-05,25.3700008392334,25.3700008392334,25.3700008392334,25.3700008392334,0.0
2018-06-06,25.770000457763672,25.770000457763672,25.770000457763672,25.770000457763672,100.0
2018-06-07,25.770000457763672,25.770000457763672,25.770000457763672,25.770000457763672,0.0
2018-06-08,25.770000457763672,25.770000457763672,25.770000457763672,25.770000457763672,0.0
2018-06-11,25.770000457763672,25.770000457763672,25.770000457763672,25.770000457763672,0.0
2018-06-12,26.0,26.0,26.0,26.0,100.0
2018-06-13,26.0,26.0,26.0,26.0,0.0
2018-06-14,25.891000747680664,25.891000747680664,25.891000747680664,25.891000747680664,400.0
2018-06-15,25.891000747680664,25.891000747680664,25.891000747680664,25.891000747680664,0.0
2018-06-18,25.891000747680664,25.891000747680664,25.891000747680664,25.891000747680664,0.0
2018-06-19,25.891000747680664,25.891000747680664,25.891000747680664,25.891000747680664,0.0
2018-06-20,25.891000747680664,25.891000747680664,25.891000747680664,25.891000747680664,0.0
2018-06-21,25.891000747680664,25.891000747680664,25.891000747680664,25.891000747680664,0.0
2018-06-22,25.891000747680664,25.891000747680664,25.891000747680664,25.891000747680664,0.0
2018-06-25,25.891000747680664,25.891000747680664,25.891000747680664,25.891000747680664,0.0
2018-06-26,25.891000747680664,25.891000747680664,25.891000747680664,25.891000747680664,0.0
2018-06-27,25.708999633789066,25.70100021362305,25.708999633789066,25.70100021362305,3800.0
2018-06-28,25.70100021362305,25.70100021362305,25.70100021362305,25.70100021362305,100.0
2018-06-29,25.70100021362305,25.70100021362305,25.70100021362305,25.70100021362305,0.0
2018-07-02,25.70100021362305,25.70100021362305,25.70100021362305,25.70100021362305,100.0
2018-07-03,25.70100021362305,25.70100021362305,25.70100021362305,25.70100021362305,0.0
2018-07-05,25.70100021362305,25.70100021362305,25.70100021362305,25.70100021362305,100.0
2018-07-06,25.70100021362305,25.70100021362305,25.70100021362305,25.70100021362305,0.0
2018-07-09,25.70100021362305,25.70100021362305,25.70100021362305,25.70100021362305,0.0
2018-07-10,26.090999603271484,26.090999603271484,26.090999603271484,26.090999603271484,100.0
2018-07-11,26.090999603271484,26.090999603271484,26.090999603271484,26.090999603271484,0.0
2018-07-12,26.04599952697754,26.040000915527344,26.040000915527344,26.04599952697754,1000.0
2018-07-13,26.10000038146973,26.10000038146973,26.10000038146973,26.10000038146973,1100.0
2018-07-16,26.10000038146973,26.10000038146973,26.10000038146973,26.10000038146973,0.0
2018-07-17,26.10000038146973,26.10000038146973,26.10000038146973,26.10000038146973,0.0
2018-07-18,26.10000038146973,26.10000038146973,26.10000038146973,26.10000038146973,0.0
2018-07-19,26.10000038146973,26.10000038146973,26.10000038146973,26.10000038146973,0.0
2018-07-20,25.93000030517578,25.93000030517578,25.93000030517578,25.93000030517578,200.0
2018-07-23,25.93000030517578,25.93000030517578,25.93000030517578,25.93000030517578,0.0
2018-07-24,25.82999992370605,25.82999992370605,25.82999992370605,25.82999992370605,700.0
2018-07-25,25.82999992370605,25.82999992370605,25.82999992370605,25.82999992370605,0.0
2018-07-26,26.11000061035156,26.11000061035156,26.11000061035156,26.11000061035156,900.0
2018-07-27,26.11000061035156,26.11000061035156,26.11000061035156,26.11000061035156,0.0
2018-07-30,26.11000061035156,26.11000061035156,26.11000061035156,26.11000061035156,0.0
2018-07-31,26.18000030517578,26.15299987792969,26.17900085449219,26.170000076293945,1200.0
2018-08-01,26.170000076293945,26.170000076293945,26.170000076293945,26.170000076293945,0.0
2018-08-02,26.170000076293945,26.170000076293945,26.170000076293945,26.170000076293945,0.0
2018-08-03,26.170000076293945,26.170000076293945,26.170000076293945,26.170000076293945,0.0
2018-08-06,26.40999984741211,26.40999984741211,26.40999984741211,26.40999984741211,700.0
2018-08-07,26.40999984741211,26.40999984741211,26.40999984741211,26.40999984741211,0.0
2018-08-08,26.32999992370605,26.312000274658203,26.32999992370605,26.312000274658203,12300.0
2018-08-09,26.312000274658203,26.312000274658203,26.312000274658203,26.312000274658203,100.0
2018-08-10,26.309999465942386,26.270000457763672,26.309999465942386,26.270000457763672,1000.0
2018-08-13,26.270000457763672,26.270000457763672,26.270000457763672,26.270000457763672,0.0
2018-08-14,26.270000457763672,26.270000457763672,26.270000457763672,26.270000457763672,0.0
2018-08-15,26.270000457763672,26.18000030517578,26.270000457763672,26.21999931335449,3300.0
2018-08-16,26.21999931335449,26.21999931335449,26.21999931335449,26.21999931335449,0.0
2018-08-17,26.545000076293945,26.545000076293945,26.545000076293945,26.545000076293945,100.0
2018-08-20,26.545000076293945,26.545000076293945,26.545000076293945,26.545000076293945,0.0
2018-08-21,26.75,26.711000442504886,26.75,26.739999771118164,1300.0
2018-08-22,26.739999771118164,26.739999771118164,26.739999771118164,26.739999771118164,0.0
2018-08-23,26.739999771118164,26.739999771118164,26.739999771118164,26.739999771118164,0.0
2018-08-24,26.739999771118164,26.739999771118164,26.739999771118164,26.739999771118164,0.0
2018-08-27,26.739999771118164,26.739999771118164,26.739999771118164,26.739999771118164,0.0
2018-08-28,26.71999931335449,26.71999931335449,26.71999931335449,26.71999931335449,500.0
2018-08-29,26.71999931335449,26.71999931335449,26.71999931335449,26.71999931335449,0.0
2018-08-30,26.70499992370605,26.70499992370605,26.70499992370605,26.70499992370605,500.0
2018-08-31,26.68000030517578,26.670000076293945,26.670000076293945,26.68000030517578,1400.0
2018-09-04,26.68000030517578,26.68000030517578,26.68000030517578,26.68000030517578,0.0
2018-09-05,26.68000030517578,26.68000030517578,26.68000030517578,26.68000030517578,0.0
2018-09-06,26.68000030517578,26.68000030517578,26.68000030517578,26.68000030517578,0.0
2018-09-07,26.6200008392334,26.6200008392334,26.6200008392334,26.6200008392334,100.0
2018-09-10,26.68000030517578,26.62800025939941,26.62800025939941,26.65999984741211,6000.0
2018-09-11,26.66200065612793,26.649999618530273,26.65900039672852,26.66200065612793,700.0
2018-09-12,26.690000534057614,26.67600059509277,26.690000534057614,26.67600059509277,2600.0
2018-09-13,26.81999969482422,26.795000076293945,26.795000076293945,26.81999969482422,1100.0
2018-09-14,26.81999969482422,26.81999969482422,26.81999969482422,26.81999969482422,0.0
2018-09-17,26.82999992370605,26.770000457763672,26.82999992370605,26.770000457763672,2500.0
2018-09-18,26.790000915527344,26.75,26.75,26.790000915527344,1800.0
2018-09-19,26.670000076293945,26.66399955749512,26.66399955749512,26.670000076293945,1700.0
2018-09-20,26.75300025939941,26.729999542236328,26.729999542236328,26.75300025939941,300.0
2018-09-21,26.85000038146973,26.85000038146973,26.85000038146973,26.85000038146973,300.0
2018-09-24,26.84000015258789,26.84000015258789,26.84000015258789,26.84000015258789,300.0
2018-09-25,26.18000030517578,26.18000030517578,26.18000030517578,26.18000030517578,300.0
2018-09-26,26.23900032043457,26.23900032043457,26.23900032043457,26.23900032043457,400.0
2018-09-27,26.1200008392334,26.04999923706055,26.1200008392334,26.04999923706055,1100.0
2018-09-28,26.19899940490723,26.19899940490723,26.19899940490723,26.19899940490723,600.0
2018-10-01,26.19899940490723,26.19899940490723,26.19899940490723,26.19899940490723,0.0
2018-10-02,26.19899940490723,26.19899940490723,26.19899940490723,26.19899940490723,0.0
2018-10-03,26.266000747680664,26.101999282836914,26.209999084472656,26.101999282836914,2400.0
2018-10-04,25.941999435424805,25.941999435424805,25.941999435424805,25.941999435424805,2000.0
2018-10-05,25.941999435424805,25.941999435424805,25.941999435424805,25.941999435424805,0.0
2018-10-08,26.07699966430664,26.07699966430664,26.07699966430664,26.07699966430664,400.0
2018-10-09,26.03000068664551,26.01099967956543,26.018999099731445,26.03000068664551,2200.0
2018-10-10,25.790000915527344,25.586000442504886,25.75,25.607999801635746,1400.0
2018-10-11,25.51000022888184,25.062000274658203,25.51000022888184,25.21999931335449,1600.0
2018-10-12,25.15999984741211,24.959999084472656,25.15999984741211,25.040000915527344,1100.0
2018-10-15,25.27899932861328,25.190000534057614,25.209999084472656,25.190000534057614,11000.0
2018-10-16,25.5,25.28000068664551,25.28000068664551,25.5,3400.0
2018-10-17,25.5,25.5,25.5,25.5,0.0
2018-10-18,25.43000030517578,25.28000068664551,25.43000030517578,25.29999923706055,1300.0
2018-10-19,25.440000534057614,25.29999923706055,25.440000534057614,25.29999923706055,700.0
2018-10-22,25.38999938964844,25.13999938964844,25.38999938964844,25.13999938964844,1600.0
2018-10-23,24.959999084472656,24.80400085449219,24.940000534057614,24.94499969482422,3400.0
2018-10-24,25.020000457763672,24.690000534057614,25.020000457763672,24.690000534057614,300.0
2018-10-25,24.81999969482422,24.790000915527344,24.790000915527344,24.81999969482422,300.0
2018-10-26,24.59000015258789,24.489999771118164,24.59000015258789,24.489999771118164,500.0
2018-10-29,24.489999771118164,24.489999771118164,24.489999771118164,24.489999771118164,100.0
2018-10-30,24.95000076293945,24.690000534057614,24.690000534057614,24.95000076293945,14300.0
2018-10-31,24.95000076293945,24.95000076293945,24.95000076293945,24.95000076293945,100.0
2018-11-01,25.11000061035156,25.07999992370605,25.11000061035156,25.07999992370605,600.0
2018-11-02,25.26000022888184,25.18000030517578,25.26000022888184,25.18000030517578,400.0
2018-11-05,25.38999938964844,25.190000534057614,25.190000534057614,25.38999938964844,1200.0
2018-11-06,25.38999938964844,25.38999938964844,25.38999938964844,25.38999938964844,0.0
2018-11-07,25.38999938964844,25.38999938964844,25.38999938964844,25.38999938964844,0.0
2018-11-08,25.82500076293945,25.77899932861328,25.809999465942386,25.82500076293945,2400.0
2018-11-09,25.70599937438965,25.69700050354004,25.69700050354004,25.70599937438965,1200.0
2018-11-12,25.638999938964844,25.61000061035156,25.61000061035156,25.638999938964844,800.0
2018-11-13,25.56800079345703,25.565000534057614,25.565000534057614,25.56800079345703,700.0
2018-11-14,25.46999931335449,25.34000015258789,25.440000534057614,25.34000015258789,3800.0
2018-11-15,25.21999931335449,25.21999931335449,25.21999931335449,25.21999931335449,200.0
2018-11-16,25.420000076293945,25.420000076293945,25.420000076293945,25.420000076293945,200.0
2018-11-19,25.35000038146973,25.35000038146973,25.35000038146973,25.35000038146973,200.0
2018-11-20,25.040000915527344,25.040000915527344,25.040000915527344,25.040000915527344,400.0
2018-11-21,25.062000274658203,25.01000022888184,25.04999923706055,25.01000022888184,900.0
2018-11-23,25.01000022888184,25.01000022888184,25.01000022888184,25.01000022888184,100.0
2018-11-26,25.15999984741211,25.15999984741211,25.15999984741211,25.15999984741211,100.0
2018-11-27,25.270000457763672,25.170000076293945,25.170000076293945,25.270000457763672,2800.0
2018-11-28,25.25,25.25,25.25,25.25,300.0
2018-11-29,25.63999938964844,25.452999114990234,25.452999114990234,25.604999542236328,4900.0
2018-11-30,25.69499969482422,25.59000015258789,25.59000015258789,25.69499969482422,1400.0
2018-12-03,25.908000946044922,25.84000015258789,25.899999618530273,25.908000946044922,600.0
2018-12-04,25.920000076293945,25.920000076293945,25.920000076293945,25.920000076293945,200.0
2018-12-06,25.15999984741211,24.993000030517575,25.03000068664551,25.15999984741211,1300.0
2018-12-07,25.399999618530273,25.399999618530273,25.399999618530273,25.399999618530273,100.0
2018-12-10,25.077999114990234,24.940000534057614,24.940000534057614,25.077999114990234,800.0
2018-12-11,25.077999114990234,25.077999114990234,25.077999114990234,25.077999114990234,0.0
2018-12-12,25.077999114990234,25.077999114990234,25.077999114990234,25.077999114990234,0.0
2018-12-13,25.21999931335449,25.084999084472656,25.21999931335449,25.084999084472656,2300.0
2018-12-14,24.84900093078613,24.84900093078613,24.84900093078613,24.84900093078613,100.0
2018-12-17,24.76000022888184,24.15999984741211,24.76000022888184,24.15999984741211,900.0
2018-12-18,24.170000076293945,24.149999618530273,24.170000076293945,24.149999618530273,800.0
2018-12-19,24.149999618530273,23.895000457763672,24.149999618530273,23.895000457763672,800.0
2018-12-20,23.618999481201172,23.48600006103516,23.59000015258789,23.48600006103516,1800.0
2018-12-21,23.770000457763672,23.270999908447266,23.770000457763672,23.270999908447266,400.0
2018-12-24,22.649999618530273,22.295000076293945,22.649999618530273,22.295000076293945,100.0
2018-12-26,23.08799934387207,22.46999931335449,22.46999931335449,23.08799934387207,11000.0
2018-12-27,23.17099952697754,22.72500038146973,22.72500038146973,23.17099952697754,200.0
2018-12-28,23.215999603271484,23.215999603271484,23.215999603271484,23.215999603271484,100.0
2018-12-31,23.459999084472656,23.16900062561035,23.459999084472656,23.28499984741211,8500.0
2019-01-02,23.285999298095703,23.285999298095703,23.285999298095703,23.285999298095703,100.0
2019-01-03,23.21500015258789,23.09700012207031,23.11000061035156,23.09700012207031,1200.0
2019-01-04,23.67900085449219,23.67900085449219,23.67900085449219,23.67900085449219,100.0
2019-01-07,23.90200042724609,23.90200042724609,23.90200042724609,23.90200042724609,100.0
2019-01-08,24.16399955749512,24.05500030517578,24.05500030517578,24.16399955749512,1000.0
2019-01-09,24.202999114990234,24.202999114990234,24.202999114990234,24.202999114990234,100.0
2019-01-10,24.37800025939941,24.30599975585937,24.30599975585937,24.37800025939941,400.0
2019-01-11,24.37800025939941,24.37800025939941,24.37800025939941,24.37800025939941,0.0
2019-01-14,24.37800025939941,24.37800025939941,24.37800025939941,24.37800025939941,0.0
2019-01-15,24.37800025939941,24.37800025939941,24.37800025939941,24.37800025939941,0.0
2019-01-16,24.5,24.420000076293945,24.440000534057614,24.42200088500977,2400.0
2019-01-17,24.58300018310547,24.58300018310547,24.58300018310547,24.58300018310547,100.0
2019-01-18,24.88999938964844,21.559999465942386,23.95000076293945,24.851999282836914,5700.0
2019-01-22,24.670000076293945,24.55599975585937,24.670000076293945,24.57500076293945,200.0
2019-01-23,24.666000366210934,24.604999542236328,24.65999984741211,24.666000366210934,2400.0
2019-01-24,24.790000915527344,24.71999931335449,24.71999931335449,24.790000915527344,300.0
2019-01-25,24.899999618530273,24.8700008392334,24.899999618530273,24.8700008392334,100.0
2019-01-28,24.79999923706055,24.770000457763672,24.770000457763672,24.79999923706055,1200.0
2019-01-29,24.959999084472656,24.920000076293945,24.93000030517578,24.959999084472656,1600.0
2019-01-30,25.15999984741211,25.0,25.0,25.131000518798828,1600.0
2019-01-31,25.40999984741211,25.190000534057614,25.190000534057614,25.40999984741211,1100.0
2019-02-01,25.53000068664551,25.31999969482422,25.53000068664551,25.386999130249023,7300.0
2019-02-04,25.479999542236328,25.46999931335449,25.46999931335449,25.479999542236328,400.0
2019-02-05,25.57999992370605,25.57999992370605,25.57999992370605,25.57999992370605,100.0
2019-02-06,25.6299991607666,25.562000274658203,25.6299991607666,25.562000274658203,300.0
2019-02-07,25.466999053955078,25.466999053955078,25.466999053955078,25.466999053955078,100.0
2019-02-08,25.53199958801269,25.520000457763672,25.520000457763672,25.53199958801269,10100.0
2019-02-11,25.670000076293945,25.58699989318848,25.670000076293945,25.606000900268555,600.0
2019-02-12,25.82699966430664,25.739999771118164,25.7549991607666,25.82699966430664,700.0
2019-02-13,25.89299964904785,25.89299964904785,25.89299964904785,25.89299964904785,0.0
2019-02-14,25.88999938964844,25.78000068664551,25.78000068664551,25.80299949645996,10300.0
2019-02-15,26.0,25.933000564575195,25.933000564575195,26.0,1700.0
2019-02-19,26.013999938964844,25.95000076293945,25.95000076293945,26.013999938964844,4300.0
2019-02-20,26.118999481201172,26.066999435424805,26.066999435424805,26.10300064086914,800.0
2019-02-21,26.07600021362305,26.02599906921387,26.07600021362305,26.06999969482422,900.0
2019-02-22,26.12899971008301,26.12899971008301,26.12899971008301,26.12899971008301,0.0
2019-02-25,26.190000534057614,26.10099983215332,26.190000534057614,26.10099983215332,500.0
2019-02-26,26.040000915527344,26.00300025939941,26.020000457763672,26.00300025939941,1400.0
2019-02-27,26.00300025939941,26.00300025939941,26.00300025939941,26.00300025939941,0.0
2019-02-28,25.976999282836914,25.976999282836914,25.976999282836914,25.976999282836914,100.0
2019-03-01,26.10000038146973,25.95000076293945,25.95000076293945,26.10000038146973,10100.0
2019-03-04,26.00399971008301,26.00399971008301,26.00399971008301,26.00399971008301,100.0
2019-03-05,26.11000061035156,26.00300025939941,26.11000061035156,26.00300025939941,200.0
2019-03-06,25.86400032043457,25.86400032043457,25.86400032043457,25.86400032043457,0.0
2019-03-07,25.716999053955078,25.716999053955078,25.716999053955078,25.716999053955078,0.0
2019-03-08,25.687000274658203,25.61599922180176,25.61599922180176,25.687000274658203,2400.0
2019-03-11,25.972999572753906,25.972999572753906,25.972999572753906,25.972999572753906,100.0
2019-03-12,26.09700012207031,26.03700065612793,26.09700012207031,26.03700065612793,3100.0
2019-03-13,26.190000534057614,26.149999618530273,26.190000534057614,26.149999618530273,600.0
2019-03-14,26.149999618530273,26.097999572753906,26.149999618530273,26.097999572753906,2200.0
2019-03-15,26.15900039672852,26.11599922180176,26.15299987792969,26.11599922180176,3900.0
2019-03-18,26.239999771118164,26.1200008392334,26.23900032043457,26.19599914550781,5200.0
2019-03-19,26.29999923706055,26.11000061035156,26.29999923706055,26.1299991607666,7700.0
2019-03-20,26.0,25.84499931335449,25.8700008392334,25.856000900268555,3000.0
2019-03-21,26.239999771118164,25.959999084472656,25.959999084472656,26.20400047302246,1800.0
2019-03-22,26.20000076293945,25.875,26.20000076293945,25.875,5300.0
2019-03-25,25.940000534057614,25.86000061035156,25.8700008392334,25.87899971008301,9100.0
2019-03-26,26.170000076293945,25.981000900268555,26.15999984741211,26.170000076293945,7000.0
2019-03-27,26.13999938964844,25.979999542236328,26.13999938964844,26.05500030517578,2400.0
2019-03-28,26.12100028991699,26.10000038146973,26.10000038146973,26.12100028991699,700.0
2019-03-29,26.209999084472656,26.15999984741211,26.15999984741211,26.197999954223636,800.0
2019-04-01,26.42700004577637,26.322999954223636,26.322999954223636,26.42700004577637,2500.0
2019-04-02,26.41900062561035,26.3700008392334,26.41900062561035,26.3700008392334,1200.0
2019-04-03,26.43099975585937,26.43099975585937,26.43099975585937,26.43099975585937,100.0
2019-04-04,26.52799987792969,26.52799987792969,26.52799987792969,26.52799987792969,100.0
2019-04-05,26.65900039672852,26.63999938964844,26.65900039672852,26.6560001373291,700.0
2019-04-08,26.65999984741211,26.63999938964844,26.63999938964844,26.65999984741211,400.0
2019-04-09,26.51000022888184,26.40099906921387,26.51000022888184,26.40099906921387,2200.0
2019-04-10,26.518999099731445,26.506000518798828,26.506000518798828,26.518999099731445,500.0
2019-04-11,26.559999465942386,26.51300048828125,26.53000068664551,26.559999465942386,1800.0
2019-04-12,26.68899917602539,26.68899917602539,26.68899917602539,26.68899917602539,100.0
2019-04-15,26.79999923706055,26.65500068664551,26.79999923706055,26.65500068664551,800.0
2019-04-16,26.78000068664551,26.56100082397461,26.78000068664551,26.589000701904297,2900.0
2019-04-17,26.52599906921387,26.479999542236328,26.500999450683594,26.479999542236328,600.0
2019-04-18,26.506000518798828,26.45000076293945,26.45000076293945,26.506000518798828,1600.0
2019-04-22,26.5,26.38500022888184,26.5,26.392000198364254,7700.0
2019-04-23,26.589000701904297,26.46199989318848,26.489999771118164,26.589000701904297,1400.0
2019-04-24,26.63500022888184,26.617000579833984,26.617000579833984,26.617000579833984,1300.0
2019-04-25,26.48500061035156,26.375999450683594,26.375999450683594,26.43000030517578,3900.0
2019-04-26,26.57500076293945,26.55400085449219,26.56999969482422,26.55400085449219,2600.0
2019-04-29,26.520000457763672,26.51099967956543,26.51799964904785,26.51099967956543,1100.0
2019-04-30,26.642000198364254,26.520000457763672,26.520000457763672,26.642000198364254,200.0
2019-05-01,26.57699966430664,26.395999908447266,26.57699966430664,26.395999908447266,1800.0
2019-05-02,26.420000076293945,26.38999938964844,26.41200065612793,26.39299964904785,2900.0
2019-05-03,26.702999114990234,26.59000015258789,26.59000015258789,26.702999114990234,7500.0
2019-05-06,26.56100082397461,26.43000030517578,26.43000030517578,26.56100082397461,5000.0
2019-05-07,26.34000015258789,26.242000579833984,26.34000015258789,26.242000579833984,800.0
2019-05-08,26.12299919128418,26.12299919128418,26.12299919128418,26.12299919128418,300.0
2019-05-09,26.1299991607666,25.847999572753906,26.0,26.1299991607666,5100.0
2019-05-10,26.242000579833984,25.908000946044922,25.989999771118164,26.242000579833984,1800.0
2019-05-13,25.87899971008301,25.770999908447266,25.790000915527344,25.87899971008301,2800.0
2019-05-14,26.018999099731445,25.96999931335449,25.96999931335449,26.018999099731445,600.0
2019-05-15,26.15999984741211,26.101999282836914,26.141000747680664,26.101999282836914,2200.0
2019-05-16,26.25,26.197999954223636,26.25,26.197999954223636,1100.0
2019-05-17,26.209999084472656,26.08799934387207,26.09000015258789,26.10099983215332,1600.0
2019-05-20,26.03000068664551,25.923999786376953,26.03000068664551,25.923999786376953,100.0
2019-05-21,26.170000076293945,26.040000915527344,26.040000915527344,26.13999938964844,112500.0
2019-05-22,26.04999923706055,26.007999420166016,26.02899932861328,26.020000457763672,800.0
2019-05-23,25.836000442504886,25.75399971008301,25.76000022888184,25.836000442504886,1600.0
2019-05-24,25.88999938964844,25.86199951171875,25.88999938964844,25.86199951171875,400.0
2019-05-28,25.729999542236328,25.520999908447266,25.729999542236328,25.520999908447266,2100.0
2019-05-29,25.32699966430664,25.239999771118164,25.32699966430664,25.298999786376953,1100.0
2019-05-30,25.459999084472656,25.28199958801269,25.43000030517578,25.28199958801269,2600.0
2019-05-31,25.1299991607666,25.00200080871582,25.00200080871582,25.07399940490723,1200.0
2019-06-03,25.38800048828125,25.06999969482422,25.06999969482422,25.38800048828125,700.0
2019-06-04,25.79400062561035,25.57999992370605,25.61000061035156,25.79400062561035,1100.0
2019-06-05,25.996999740600586,25.95000076293945,25.95000076293945,25.996999740600586,3000.0
2019-06-06,26.15999984741211,26.020000457763672,26.07999992370605,26.149999618530273,3600.0
2019-06-07,26.26000022888184,26.21999931335449,26.26000022888184,26.21999931335449,500.0
2019-06-10,26.36000061035156,26.18199920654297,26.36000061035156,26.20100021362305,4100.0
2019-06-11,26.270000457763672,26.21999931335449,26.21999931335449,26.2549991607666,10200.0
2019-06-12,26.266000747680664,26.266000747680664,26.266000747680664,26.266000747680664,100.0
2019-06-13,26.43000030517578,26.40299987792969,26.43000030517578,26.40299987792969,300.0
2019-06-14,26.45000076293945,26.3700008392334,26.3700008392334,26.42700004577637,3600.0
2019-06-17,26.420000076293945,26.40900039672852,26.420000076293945,26.40900039672852,800.0
2019-06-18,26.645999908447266,26.56999969482422,26.645999908447266,26.572999954223636,1600.0
2019-06-19,26.691999435424805,26.57900047302246,26.57900047302246,26.691999435424805,700.0
2019-06-20,26.89299964904785,26.77799987792969,26.84000015258789,26.89299964904785,6800.0
2019-06-21,26.8700008392334,26.82900047302246,26.82900047302246,26.867000579833984,400.0
2019-06-24,26.69300079345703,26.69300079345703,26.69300079345703,26.69300079345703,100.0
2019-06-25,26.42900085449219,26.26799964904785,26.42900085449219,26.26799964904785,900.0
2019-06-26,26.209999084472656,26.086000442504886,26.20499992370605,26.086000442504886,8400.0
2019-06-27,26.20000076293945,26.131999969482425,26.149999618530273,26.20000076293945,2200.0
2019-06-28,26.391000747680664,26.38400077819824,26.391000747680664,26.38400077819824,200.0
2019-07-01,26.49799919128418,26.35000038146973,26.49799919128418,26.44499969482422,700.0
2019-07-02,26.47100067138672,26.47100067138672,26.47100067138672,26.47100067138672,300.0
2019-07-03,26.73600006103516,26.68000030517578,26.68899917602539,26.73600006103516,700.0
2019-07-05,26.709999084472656,26.5310001373291,26.6200008392334,26.6879997253418,3000.0
2019-07-08,26.649999618530273,26.62299919128418,26.643999099731445,26.62299919128418,1500.0
2019-07-09,26.60000038146973,26.51000022888184,26.60000038146973,26.565000534057614,2600.0
2019-07-10,26.6299991607666,26.608999252319336,26.6200008392334,26.608999252319336,16900.0
2019-07-11,26.54999923706055,26.5,26.54999923706055,26.53000068664551,300.0
2019-07-12,26.69499969482422,26.68000030517578,26.68000030517578,26.69499969482422,600.0
2019-07-15,26.70100021362305,26.649999618530273,26.649999618530273,26.68099975585937,5900.0
2019-07-16,26.69499969482422,26.670000076293945,26.670000076293945,26.69499969482422,500.0
2019-07-17,26.54999923706055,26.54400062561035,26.54400062561035,26.548999786376953,200.0
2019-07-18,26.61599922180176,26.468000411987305,26.468000411987305,26.58799934387207,3100.0
2019-07-19,26.70000076293945,26.481000900268555,26.70000076293945,26.481000900268555,1900.0
2019-07-22,26.461000442504886,26.40999984741211,26.461000442504886,26.410999298095703,1300.0
2019-07-23,26.643999099731445,26.54400062561035,26.54400062561035,26.643999099731445,1000.0
2019-07-24,26.82999992370605,26.770000457763672,26.770000457763672,26.79700088500977,3200.0
2019-07-25,26.68400001525879,26.666000366210934,26.68199920654297,26.666000366210934,3200.0
2019-07-26,26.78499984741211,26.73900032043457,26.73900032043457,26.78499984741211,1100.0
2019-07-29,26.79999923706055,26.7549991607666,26.78000068664551,26.79199981689453,3500.0
2019-07-30,26.78400039672852,26.76000022888184,26.76000022888184,26.78400039672852,900.0
2019-07-31,26.79999923706055,26.61000061035156,26.78000068664551,26.61599922180176,6200.0
2019-08-01,26.739999771118164,26.327999114990234,26.739999771118164,26.327999114990234,400.0
2019-08-02,26.209999084472656,26.11000061035156,26.15999984741211,26.160999298095703,2500.0
2019-08-05,25.96999931335449,25.5,25.96999931335449,25.56800079345703,2500.0
2019-08-06,25.78000068664551,25.729999542236328,25.770000457763672,25.74799919128418,4300.0
2019-08-07,25.816999435424805,25.535999298095703,25.535999298095703,25.816999435424805,700.0
2019-08-08,26.214000701904297,26.0,26.0,26.18000030517578,800.0
2019-08-09,25.9950008392334,25.979999542236328,25.979999542236328,25.993999481201172,500.0
2019-08-12,25.79999923706055,25.690000534057614,25.79999923706055,25.690000534057614,1700.0
2019-08-13,26.01300048828125,25.923999786376953,26.01300048828125,25.923999786376953,800.0
2019-08-14,25.559999465942386,25.315000534057614,25.559999465942386,25.316999435424805,900.0
2019-08-15,25.32999992370605,25.285999298095703,25.290000915527344,25.322999954223636,8500.0
2019-08-16,25.68099975585937,25.472999572753906,25.472999572753906,25.68099975585937,400.0
2019-08-19,25.96500015258789,25.93099975585937,25.93099975585937,25.96500015258789,500.0
2019-08-20,25.8700008392334,25.722999572753906,25.83099937438965,25.722999572753906,1300.0
2019-08-21,25.93000030517578,25.8799991607666,25.8799991607666,25.917999267578125,2900.0
2019-08-22,25.968000411987305,25.881999969482425,25.90999984741211,25.968000411987305,800.0
2019-08-23,25.86000061035156,25.250999450683594,25.86000061035156,25.250999450683594,2600.0
2019-08-26,25.49900054931641,25.420000076293945,25.420000076293945,25.49900054931641,1000.0
2019-08-27,25.739999771118164,25.382999420166016,25.739999771118164,25.382999420166016,300.0
2019-08-28,25.577999114990234,25.35000038146973,25.35000038146973,25.577999114990234,2500.0
2019-08-29,25.840999603271484,25.78000068664551,25.79599952697754,25.840999603271484,700.0
2019-08-30,26.0,25.920000076293945,26.0,25.95400047302246,1600.0
2019-09-03,25.881999969482425,25.809999465942386,25.8700008392334,25.881999969482425,400.0
2019-09-04,26.15999984741211,26.06999969482422,26.06999969482422,26.15999984741211,400.0
2019-09-05,26.45000076293945,26.37100028991699,26.45000076293945,26.37100028991699,3000.0
2019-09-06,26.459999084472656,26.434999465942386,26.459999084472656,26.434999465942386,400.0
2019-09-09,26.658000946044922,26.59000015258789,26.59000015258789,26.658000946044922,100.0
2019-09-10,26.833999633789066,26.7189998626709,26.7189998626709,26.833999633789066,2300.0
2019-09-11,27.10400009155273,26.899999618530273,26.899999618530273,27.10400009155273,200.0
2019-09-12,27.21999931335449,27.113000869750977,27.21999931335449,27.113000869750977,1300.0
2019-09-13,27.082000732421875,27.069000244140625,27.082000732421875,27.069000244140625,200.0
2019-09-16,27.04400062561035,27.0,27.0,27.04400062561035,4100.0
2019-09-17,27.04999923706055,26.979999542236328,27.04999923706055,27.02899932861328,700.0
2019-09-18,27.02899932861328,26.96999931335449,27.0049991607666,27.02899932861328,1200.0
2019-09-19,27.08300018310547,26.98600006103516,27.08300018310547,26.98600006103516,4000.0
2019-09-20,27.05500030517578,26.972999572753906,27.05500030517578,26.972999572753906,200.0
2019-09-23,27.04999923706055,26.959999084472656,26.959999084472656,27.02400016784668,2400.0
2019-09-24,26.79999923706055,26.604999542236328,26.79999923706055,26.64699935913086,700.0
2019-09-25,26.84000015258789,26.809999465942386,26.84000015258789,26.809999465942386,900.0
2019-09-26,26.85000038146973,26.75,26.75,26.82200050354004,1600.0
2019-09-27,26.93000030517578,26.76000022888184,26.93000030517578,26.770999908447266,1900.0
2019-09-30,26.93000030517578,26.88999938964844,26.899999618530273,26.93000030517578,3000.0
2019-10-01,26.82999992370605,26.59900093078613,26.82999992370605,26.59900093078613,700.0
2019-10-02,26.239999771118164,26.118999481201172,26.239999771118164,26.14900016784668,1900.0
2019-10-03,26.27199935913086,25.9060001373291,26.149999618530273,26.27199935913086,2400.0
2019-10-04,26.55299949645996,26.29999923706055,26.29999923706055,26.55299949645996,2000.0
2019-10-07,26.56999969482422,26.444000244140625,26.5,26.444000244140625,3600.0
2019-10-08,26.22900009155273,26.04999923706055,26.1200008392334,26.04999923706055,300.0
2019-10-09,26.19099998474121,26.170000076293945,26.170000076293945,26.19099998474121,44800.0
2019-10-10,26.35000038146973,26.13999938964844,26.13999938964844,26.347999572753906,1700.0
2019-10-11,26.78899955749512,26.68199920654297,26.729999542236328,26.68199920654297,5300.0
2019-10-14,26.70000076293945,26.548999786376953,26.70000076293945,26.55599975585937,3200.0
2019-10-15,26.70000076293945,26.559999465942386,26.690000534057614,26.670000076293945,2500.0
2019-10-16,26.729999542236328,26.62400054931641,26.729999542236328,26.63599967956543,1000.0
2019-10-17,26.739999771118164,26.63999938964844,26.739999771118164,26.708999633789066,500.0
2019-10-18,26.809999465942386,26.709999084472656,26.739999771118164,26.770000457763672,2900.0
2019-10-21,26.952999114990234,26.93000030517578,26.94499969482422,26.952999114990234,12300.0
2019-10-22,27.1299991607666,26.92499923706055,26.940000534057614,27.05100059509277,99400.0
2019-10-23,27.08699989318848,26.96999931335449,26.96999931335449,27.08699989318848,6100.0
2019-10-24,27.01000022888184,26.944000244140625,26.989999771118164,27.01000022888184,2400.0
2019-10-25,27.10000038146973,27.020000457763672,27.020000457763672,27.06800079345703,3500.0
2019-10-28,27.190000534057614,27.107999801635746,27.190000534057614,27.107999801635746,1300.0
2019-10-29,27.243999481201172,27.18099975585937,27.18099975585937,27.18400001525879,1500.0
2019-10-30,27.1879997253418,27.10000038146973,27.10000038146973,27.1879997253418,400.0
2019-10-31,27.09000015258789,26.979999542236328,27.09000015258789,27.07999992370605,4500.0
2019-11-01,27.38999938964844,27.29999923706055,27.32500076293945,27.38999938964844,6200.0
2019-11-04,27.56999969482422,27.50300025939941,27.56999969482422,27.535999298095703,700.0
2019-11-05,27.54999923706055,27.479999542236328,27.520000457763672,27.49900054931641,1500.0
2019-11-06,27.53000068664551,27.40999984741211,27.53000068664551,27.46999931335449,2700.0
2019-11-07,27.51099967956543,27.465999603271484,27.51099967956543,27.465999603271484,1700.0
2019-11-08,27.51099967956543,27.3700008392334,27.3700008392334,27.51099967956543,2300.0
2019-11-11,27.43600082397461,27.416000366210934,27.43600082397461,27.416000366210934,600.0
2019-11-12,27.38999938964844,27.34000015258789,27.38999938964844,27.364999771118164,500.0
2019-11-13,27.41699981689453,27.36000061035156,27.36000061035156,27.38500022888184,2900.0
2019-11-14,27.42200088500977,27.42200088500977,27.42200088500977,27.42200088500977,0.0
2019-11-15,27.56100082397461,27.51099967956543,27.5310001373291,27.56100082397461,6000.0
2019-11-18,27.58799934387207,27.489999771118164,27.56999969482422,27.513999938964844,2500.0
2019-11-19,27.420000076293945,27.34000015258789,27.34000015258789,27.375,3500.0
2019-11-20,27.31999969482422,27.29999923706055,27.30900001525879,27.29999923706055,1100.0
2019-11-21,27.25,27.17499923706055,27.229999542236328,27.19499969482422,2500.0
2019-11-22,27.29999923706055,27.18000030517578,27.209999084472656,27.2810001373291,4400.0
2019-11-25,27.45000076293945,27.415000915527344,27.420000076293945,27.441999435424805,7100.0
2019-11-26,27.48500061035156,27.434999465942386,27.479999542236328,27.48500061035156,11500.0
2019-11-27,27.597999572753906,27.51000022888184,27.520000457763672,27.597999572753906,1300.0
2019-11-29,27.53000068664551,27.447999954223636,27.53000068664551,27.447999954223636,2600.0
2019-12-02,27.37400054931641,27.2810001373291,27.35000038146973,27.2810001373291,1200.0
2019-12-03,27.125,27.06399917602539,27.06999969482422,27.125,1500.0
2019-12-04,27.37299919128418,27.308000564575195,27.37299919128418,27.308000564575195,3800.0
2019-12-05,27.3129997253418,27.28000068664551,27.28000068664551,27.30500030517578,2200.0
2019-12-06,27.61199951171875,27.54199981689453,27.60000038146973,27.54199981689453,1700.0
2019-12-09,27.59000015258789,27.520000457763672,27.59000015258789,27.54999923706055,8200.0
2019-12-10,27.54999923706055,27.459999084472656,27.54999923706055,27.472999572753906,13100.0
2019-12-11,27.54999923706055,27.459999084472656,27.54999923706055,27.488000869750977,2600.0
2019-12-12,27.70000076293945,27.5,27.5,27.69499969482422,7100.0
2019-12-13,27.63999938964844,27.591999053955078,27.63999938964844,27.597999572753906,11100.0
2019-12-16,27.790000915527344,27.74799919128418,27.770000457763672,27.756000518798828,3200.0
2019-12-17,27.89800071716309,27.82399940490723,27.85000038146973,27.82399940490723,2400.0
2019-12-18,27.96199989318848,27.899999618530273,27.90999984741211,27.96199989318848,16600.0
2019-12-19,28.03000068664551,27.993999481201172,28.03000068664551,28.0049991607666,400.0
2019-12-20,28.20000076293945,28.15699958801269,28.173999786376953,28.18899917602539,2100.0
2019-12-23,28.01000022888184,27.84600067138672,28.01000022888184,27.84600067138672,3000.0
2019-12-24,27.843000411987305,27.84000015258789,27.84000015258789,27.843000411987305,300.0
2019-12-26,27.94300079345703,27.868000030517575,27.9379997253418,27.88500022888184,1000.0
2019-12-27,28.03000068664551,27.88500022888184,28.03000068664551,27.893999099731445,3200.0
2019-12-30,27.893999099731445,27.81599998474121,27.893999099731445,27.81599998474121,1700.0
2019-12-31,27.94899940490723,27.83099937438965,27.8799991607666,27.94899940490723,2200.0
2020-01-02,28.15999984741211,27.690000534057614,28.15999984741211,27.791000366210934,5900.0
2020-01-03,27.75,27.54999923706055,27.54999923706055,27.71299934387207,10400.0
2020-01-06,27.75,27.64699935913086,27.68000030517578,27.726999282836914,2400.0
2020-01-07,27.729999542236328,27.66900062561035,27.68000030517578,27.71299934387207,10500.0
2020-01-08,27.82999992370605,27.690000534057614,27.690000534057614,27.742000579833984,1900.0
2020-01-09,27.79999923706055,27.707000732421875,27.709999084472656,27.77799987792969,2400.0
2020-01-10,27.86000061035156,27.74600028991699,27.832000732421875,27.74600028991699,1900.0
2020-01-13,27.95000076293945,27.79199981689453,27.85000038146973,27.93000030517578,5100.0
2020-01-14,28.024999618530273,27.90999984741211,27.90999984741211,28.024999618530273,10700.0
2020-01-15,28.12899971008301,28.106000900268555,28.1200008392334,28.106000900268555,300.0
2020-01-16,28.32200050354004,28.29599952697754,28.309999465942386,28.32200050354004,1500.0
2020-01-17,28.367000579833984,28.35000038146973,28.35000038146973,28.367000579833984,200.0
2020-01-21,28.36000061035156,28.197999954223636,28.36000061035156,28.24600028991699,1300.0
2020-01-22,28.28000068664551,28.19899940490723,28.28000068664551,28.19899940490723,3300.0
2020-01-23,28.270000457763672,28.0,28.0,28.26099967956543,4300.0
2020-01-24,28.149999618530273,27.92900085449219,28.149999618530273,28.01000022888184,800.0
2020-01-27,27.75,27.63999938964844,27.75,27.63999938964844,2500.0
2020-01-28,27.86000061035156,27.790000915527344,27.81999969482422,27.839000701904297,2200.0
2020-01-29,27.8700008392334,27.75200080871582,27.790000915527344,27.75200080871582,4100.0
2020-01-30,27.76099967956543,27.5,27.591999053955078,27.76099967956543,1700.0
2020-01-31,27.56999969482422,27.29999923706055,27.56999969482422,27.316999435424805,2300.0
2020-02-03,27.53000068664551,27.399999618530273,27.399999618530273,27.45599937438965,2200.0
2020-02-04,27.81999969482422,27.729999542236328,27.74099922180176,27.729999542236328,2200.0
2020-02-05,28.13999938964844,27.959999084472656,27.959999084472656,28.11599922180176,4100.0
2020-02-06,28.190000534057614,28.10700035095215,28.190000534057614,28.10700035095215,11900.0
2020-02-07,27.915000915527344,27.85700035095215,27.90999984741211,27.85700035095215,900.0
2020-02-10,27.94300079345703,27.899999618530273,27.93000030517578,27.94300079345703,106700.0
2020-02-11,28.21999931335449,28.141000747680664,28.209999084472656,28.141000747680664,4100.0
2020-02-12,28.29999923706055,28.26000022888184,28.29999923706055,28.288000106811523,2000.0
2020-02-13,28.270000457763672,28.21999931335449,28.270000457763672,28.22900009155273,600.0
2020-02-14,28.309999465942386,28.25,28.25,28.292999267578125,600.0
2020-02-18,28.31999969482422,28.104999542236328,28.31999969482422,28.20499992370605,2200.0
2020-02-19,28.399999618530273,28.24900054931641,28.399999618530273,28.24900054931641,700.0
2020-02-20,28.36000061035156,28.20499992370605,28.36000061035156,28.33300018310547,4800.0
2020-02-21,28.20000076293945,28.14299964904785,28.15999984741211,28.15500068664551,5100.0
2020-02-24,27.63999938964844,27.37400054931641,27.56999969482422,27.482999801635746,5500.0
2020-02-25,27.5,26.559999465942386,27.5,26.597999572753906,17300.0
2020-02-26,26.888999938964844,26.26499938964844,26.809999465942386,26.26499938964844,10900.0
2020-02-27,26.04999923706055,25.21999931335449,26.04999923706055,25.21999931335449,8600.0
2020-02-28,24.709999084472656,24.01000022888184,24.65999984741211,24.63500022888184,10100.0
2020-03-02,25.670000076293945,24.790000915527344,24.790000915527344,25.670000076293945,9800.0
2020-03-03,25.940000534057614,25.0,25.78000068664551,25.209999084472656,17800.0
2020-03-04,26.083999633789066,25.96999931335449,25.96999931335449,26.083999633789066,1000.0
2020-03-05,25.684999465942386,25.11000061035156,25.60000038146973,25.26000022888184,38700.0
2020-03-06,24.90200042724609,24.399999618530273,24.60000038146973,24.84000015258789,5500.0
2020-03-09,23.770000457763672,18.6200008392334,23.770000457763672,22.649999618530273,34100.0
2020-03-10,23.489999771118164,22.468000411987305,23.489999771118164,23.368999481201172,1400.0
2020-03-11,22.46999931335449,21.929000854492188,22.46299934387207,22.13599967956543,8700.0
2020-03-12,20.350000381469727,19.07999992370605,20.065000534057614,19.72599983215332,127200.0
2020-03-13,21.290000915527344,19.57699966430664,20.450000762939453,21.290000915527344,26100.0
2020-03-16,20.0,18.90999984741211,19.489999771118164,19.020000457763672,21400.0
2020-03-17,19.621999740600586,18.270000457763672,19.350000381469727,19.621999740600586,21600.0
2020-03-18,18.790000915527344,17.34000015258789,18.790000915527344,18.048999786376953,9100.0
2020-03-19,18.5,17.934999465942386,18.010000228881836,18.239999771118164,14300.0
2020-03-20,18.545000076293945,17.302000045776367,18.1299991607666,17.302000045776367,10900.0
2020-03-23,17.0,16.200000762939453,17.0,16.399999618530273,7200.0
2020-03-24,17.724000930786133,17.254999160766598,17.375,17.724000930786133,2500.0
2020-03-25,19.01000022888184,17.950000762939453,17.950000762939453,18.420000076293945,16700.0
2020-03-26,19.56999969482422,18.73900032043457,18.799999237060547,19.5,9000.0
2020-03-27,19.32999992370605,18.79599952697754,18.79599952697754,18.97800064086914,163700.0
2020-03-30,19.30900001525879,18.850000381469727,19.020000457763672,19.280000686645508,5500.0
2020-03-31,19.31999969482422,18.966999053955078,19.31999969482422,18.966999053955078,5100.0
2020-04-01,18.32999992370605,17.909000396728516,18.32999992370605,17.969999313354492,10700.0
2020-04-02,18.290000915527344,18.280000686645508,18.280000686645508,18.290000915527344,600.0
2020-04-03,18.09000015258789,17.739999771118164,18.09000015258789,17.881000518798828,7100.0
2020-04-06,19.229000091552734,18.75,18.75,19.229000091552734,11200.0
2020-04-07,19.952999114990234,19.481000900268555,19.952999114990234,19.481000900268555,800.0
2020-04-08,20.34000015258789,19.809999465942386,19.809999465942386,20.34000015258789,700.0
2020-04-09,21.46500015258789,20.6200008392334,20.6200008392334,21.07999992370605,3900.0
2020-04-13,21.1200008392334,20.450000762939453,21.1200008392334,20.63999938964844,3100.0
2020-04-14,21.170000076293945,20.899999618530273,21.0,21.06999969482422,4600.0
2020-04-15,20.290000915527344,20.059999465942386,20.229999542236328,20.209999084472656,4300.0
2020-04-16,20.56999969482422,19.895000457763672,20.56999969482422,20.104999542236328,5900.0
2020-04-17,20.923999786376953,20.628000259399414,20.850000381469727,20.923999786376953,1700.0
2020-04-20,20.739999771118164,20.350000381469727,20.63999938964844,20.424999237060547,14200.0
2020-04-21,20.00900077819824,19.898000717163086,19.9060001373291,20.00900077819824,10100.0
2020-04-22,20.32999992370605,20.277999877929688,20.280000686645508,20.297000885009766,3000.0
2020-04-23,20.57999992370605,20.3129997253418,20.482999801635746,20.3129997253418,38700.0
2020-04-24,20.5,20.309999465942386,20.309999465942386,20.47599983215332,5500.0
2020-04-27,21.15999984741211,20.809999465942386,20.809999465942386,21.1200008392334,11600.0
2020-04-28,21.700000762939453,21.18000030517578,21.700000762939453,21.479999542236328,3700.0
2020-04-29,22.1200008392334,21.80500030517578,21.82099914550781,22.06999969482422,7500.0
2020-04-30,21.799999237060547,21.38999938964844,21.799999237060547,21.468000411987305,4900.0
2020-05-01,20.65999984741211,20.600000381469727,20.65999984741211,20.652999877929688,700.0
2020-05-04,20.780000686645508,20.513999938964844,20.540000915527344,20.780000686645508,4800.0
2020-05-05,21.13999938964844,20.79599952697754,21.13999938964844,20.79599952697754,1700.0
2020-05-06,20.540000915527344,20.3799991607666,20.450000762939453,20.3799991607666,3200.0
2020-05-07,20.854999542236328,20.61000061035156,20.702999114990234,20.61000061035156,4300.0
2020-05-08,21.28899955749512,20.950000762939453,20.950000762939453,21.28899955749512,2900.0
2020-05-11,21.09000015258789,20.864999771118164,21.0,21.059999465942386,800.0
2020-05-12,20.940000534057614,20.61000061035156,20.891000747680664,20.61000061035156,2200.0
2020-05-13,20.33300018310547,19.850000381469727,20.33300018310547,19.97100067138672,2700.0
2020-05-14,20.239999771118164,19.6299991607666,19.6299991607666,20.239999771118164,1200.0
2020-05-15,20.292999267578125,20.11000061035156,20.136999130249023,20.22800064086914,2000.0
2020-05-18,21.349000930786133,21.280000686645508,21.280000686645508,21.34000015258789,900.0
2020-05-19,21.239999771118164,21.086000442504886,21.190000534057614,21.086000442504886,1400.0
2020-05-20,21.34499931335449,21.28499984741211,21.28499984741211,21.34499931335449,600.0
2020-05-21,21.299999237060547,21.2189998626709,21.25,21.261999130249023,1200.0
2020-05-22,21.36000061035156,21.07900047302246,21.36000061035156,21.270999908447266,1100.0
2020-05-26,22.06999969482422,21.895999908447266,22.00900077819824,21.895999908447266,9300.0
2020-05-27,22.38800048828125,21.93000030517578,22.38800048828125,22.363000869750977,4100.0
2020-05-28,22.46500015258789,22.280000686645508,22.378000259399414,22.280000686645508,1900.0
2020-05-29,22.21999931335449,21.90999984741211,22.059999465942386,22.21999931335449,1300.0
2020-06-01,22.46999931335449,22.28499984741211,22.36000061035156,22.450000762939453,1100.0
2020-06-02,22.70599937438965,22.63500022888184,22.690000534057614,22.70599937438965,1500.0
2020-06-03,23.40999984741211,23.23200035095215,23.239999771118164,23.40999984741211,4500.0
2020-06-04,23.52300071716309,23.21999931335449,23.26000022888184,23.52300071716309,5200.0
2020-06-05,24.67300033569336,24.21999931335449,24.33799934387207,24.290000915527344,3300.0
2020-06-08,25.03700065612793,24.895000457763672,24.895000457763672,25.03700065612793,1100.0
2020-06-09,24.8799991607666,24.38999938964844,24.8799991607666,24.437000274658203,3500.0
2020-06-10,24.145000457763672,23.79999923706055,23.79999923706055,23.851999282836914,2300.0
2020-06-11,23.09000015258789,22.200000762939453,22.709999084472656,22.20199966430664,4800.0
2020-06-12,22.94599914550781,22.25,22.709999084472656,22.61199951171875,5300.0
2020-06-15,22.868999481201172,22.45599937438965,22.45599937438965,22.808000564575195,2100.0
2020-06-16,23.66900062561035,23.25,23.66900062561035,23.256000518798828,17900.0
2020-06-17,23.229999542236328,23.035999298095703,23.14900016784668,23.035999298095703,3000.0
2020-06-18,23.045000076293945,22.996999740600586,23.040000915527344,22.996999740600586,600.0
2020-06-19,23.5,22.71500015258789,23.5,22.74799919128418,2500.0
2020-06-22,22.78000068664551,22.391000747680664,22.41699981689453,22.71500015258789,4700.0
2020-06-23,22.70000076293945,22.53400039672852,22.65999984741211,22.53400039672852,5000.0
2020-06-24,22.13999938964844,21.6299991607666,22.13999938964844,21.867000579833984,3400.0
2020-06-25,22.049999237060547,21.75,21.916000366210934,22.049999237060547,800.0
2020-06-26,21.850000381469727,21.51000022888184,21.850000381469727,21.51000022888184,10700.0
2020-06-29,22.023000717163086,21.843000411987305,21.86000061035156,22.023000717163086,5200.0
2020-06-30,22.343000411987305,21.979999542236328,21.979999542236328,22.343000411987305,500.0
2020-07-01,22.520000457763672,22.21999931335449,22.520000457763672,22.285999298095703,5700.0
2020-07-02,22.7450008392334,22.422000885009766,22.690000534057614,22.422000885009766,2100.0
2020-07-06,22.604999542236328,22.5,22.520000457763672,22.604999542236328,1300.0
2020-07-07,22.420000076293945,22.239999771118164,22.3799991607666,22.239999771118164,1100.0
2020-07-08,22.277999877929688,22.1299991607666,22.25200080871582,22.277999877929688,3500.0
2020-07-09,21.82699966430664,21.690000534057614,21.690000534057614,21.82699966430664,1600.0
2020-07-10,22.25200080871582,21.790000915527344,21.790000915527344,22.25200080871582,1100.0
2020-07-13,22.6200008392334,22.26000022888184,22.43000030517578,22.26000022888184,3700.0
2020-07-14,22.591999053955078,22.43000030517578,22.46500015258789,22.591999053955078,1300.0
2020-07-15,23.12700080871582,22.8799991607666,22.88999938964844,23.09900093078613,4100.0
2020-07-16,23.13500022888184,23.01799964904785,23.06999969482422,23.10300064086914,3200.0
2020-07-17,23.35000038146973,23.10000038146973,23.35000038146973,23.158000946044922,1100.0
2020-07-20,22.88999938964844,22.83099937438965,22.87400054931641,22.851999282836914,2300.0
2020-07-21,23.21999931335449,23.13999938964844,23.13999938964844,23.15399932861328,2300.0
2020-07-22,23.34000015258789,23.04999923706055,23.04999923706055,23.34000015258789,200.0
2020-07-23,23.479999542236328,23.25,23.34000015258789,23.33300018310547,3900.0
2020-07-24,23.38999938964844,23.06999969482422,23.38999938964844,23.10000038146973,3600.0
2020-07-27,23.187000274658203,23.10300064086914,23.114999771118164,23.187000274658203,500.0
2020-07-28,23.312000274658203,23.03000068664551,23.03000068664551,23.17600059509277,600.0
2020-07-29,23.51000022888184,23.29999923706055,23.40999984741211,23.51000022888184,13100.0
2020-07-30,23.31999969482422,23.15999984741211,23.15999984741211,23.28499984741211,6600.0
2020-07-31,23.125,22.917999267578125,23.03400039672852,23.125,1400.0
2020-08-03,23.38999938964844,23.13999938964844,23.38999938964844,23.21999931335449,1900.0
2020-08-04,23.416000366210934,23.2549991607666,23.2549991607666,23.416000366210934,2400.0
2020-08-05,23.56800079345703,23.489999771118164,23.489999771118164,23.56800079345703,22400.0
2020-08-06,23.60000038146973,23.540000915527344,23.60000038146973,23.55900001525879,2400.0
2020-08-07,23.85000038146973,23.520000457763672,23.520000457763672,23.85000038146973,1900.0
2020-08-10,24.309999465942386,24.03000068664551,24.03000068664551,24.30299949645996,6800.0
2020-08-11,24.5,24.09000015258789,24.5,24.160999298095703,4200.0
2020-08-12,24.36400032043457,24.239999771118164,24.28000068664551,24.32999992370605,4800.0
2020-08-13,24.29999923706055,24.09000015258789,24.29999923706055,24.14800071716309,6700.0
2020-08-14,24.309999465942386,24.13999938964844,24.26000022888184,24.229999542236328,1400.0
2020-08-17,24.26000022888184,24.21299934387207,24.24600028991699,24.23699951171875,1100.0
2020-08-18,24.07500076293945,24.040000915527344,24.07500076293945,24.040000915527344,1100.0
2020-08-19,24.09000015258789,23.940000534057614,24.07999992370605,23.95599937438965,1200.0
2020-08-20,23.8700008392334,23.809999465942386,23.854999542236328,23.81399917602539,9200.0
2020-08-21,23.729999542236328,23.6299991607666,23.71299934387207,23.709999084472656,26700.0
2020-08-24,24.18099975585937,24.05900001525879,24.06100082397461,24.18099975585937,500.0
2020-08-25,24.09000015258789,23.390199661254886,24.440000534057614,24.01989936828613,52328.0
