Date,High,Low,Open,Close,Volume
2017-11-09,24.989999771118164,24.989999771118164,24.989999771118164,24.989999771118164,100.0
2017-11-10,24.989999771118164,24.989999771118164,24.989999771118164,24.989999771118164,0.0
2017-11-13,24.989999771118164,24.989999771118164,24.989999771118164,24.989999771118164,0.0
2017-11-14,25.07999992370605,25.07999992370605,25.07999992370605,25.07999992370605,995900.0
2017-11-15,25.07999992370605,25.07999992370605,25.07999992370605,25.07999992370605,0.0
2017-11-16,25.07999992370605,25.07999992370605,25.07999992370605,25.07999992370605,0.0
2017-11-17,25.07999992370605,25.07999992370605,25.07999992370605,25.07999992370605,0.0
2017-11-20,25.07999992370605,25.07999992370605,25.07999992370605,25.07999992370605,0.0
2017-11-21,25.07999992370605,25.07999992370605,25.07999992370605,25.07999992370605,0.0
2017-11-22,25.07999992370605,25.07999992370605,25.07999992370605,25.07999992370605,0.0
2017-11-24,25.07999992370605,25.07999992370605,25.07999992370605,25.07999992370605,0.0
2017-11-27,25.07999992370605,25.07999992370605,25.07999992370605,25.07999992370605,0.0
2017-11-28,25.07999992370605,25.07999992370605,25.07999992370605,25.07999992370605,0.0
2017-11-29,25.07999992370605,25.07999992370605,25.07999992370605,25.07999992370605,0.0
2017-11-30,25.07999992370605,25.07999992370605,25.07999992370605,25.07999992370605,0.0
2017-12-01,25.07999992370605,25.07999992370605,25.07999992370605,25.07999992370605,0.0
2017-12-04,25.07999992370605,25.07999992370605,25.07999992370605,25.07999992370605,0.0
2017-12-05,25.07999992370605,25.07999992370605,25.07999992370605,25.07999992370605,0.0
2017-12-06,25.07999992370605,25.07999992370605,25.07999992370605,25.07999992370605,0.0
2017-12-07,25.07999992370605,25.07999992370605,25.07999992370605,25.07999992370605,0.0
2017-12-08,25.07999992370605,25.07999992370605,25.07999992370605,25.07999992370605,0.0
2017-12-11,25.07999992370605,25.07999992370605,25.07999992370605,25.07999992370605,0.0
2017-12-12,25.07999992370605,25.07999992370605,25.07999992370605,25.07999992370605,0.0
2017-12-13,25.07999992370605,25.07999992370605,25.07999992370605,25.07999992370605,0.0
2017-12-14,25.07999992370605,25.07999992370605,25.07999992370605,25.07999992370605,0.0
2017-12-15,25.07999992370605,25.07999992370605,25.07999992370605,25.07999992370605,0.0
2017-12-18,25.07999992370605,25.07999992370605,25.07999992370605,25.07999992370605,0.0
2017-12-19,25.07999992370605,25.07999992370605,25.07999992370605,25.07999992370605,0.0
2017-12-20,25.07999992370605,25.07999992370605,25.07999992370605,25.07999992370605,0.0
2017-12-21,25.07999992370605,25.07999992370605,25.07999992370605,25.07999992370605,100.0
2017-12-22,25.07999992370605,25.07999992370605,25.07999992370605,25.07999992370605,0.0
2017-12-26,25.07999992370605,25.07999992370605,25.07999992370605,25.07999992370605,0.0
2017-12-27,25.07999992370605,25.07999992370605,25.07999992370605,25.07999992370605,0.0
2017-12-28,25.798999786376953,25.790000915527344,25.798999786376953,25.790000915527344,300.0
2017-12-29,25.790000915527344,25.790000915527344,25.790000915527344,25.790000915527344,0.0
2018-01-02,25.790000915527344,25.790000915527344,25.790000915527344,25.790000915527344,0.0
2018-01-03,25.834999084472656,25.82999992370605,25.82999992370605,25.834999084472656,400.0
2018-01-04,25.834999084472656,25.834999084472656,25.834999084472656,25.834999084472656,0.0
2018-01-05,25.959999084472656,25.95000076293945,25.95000076293945,25.959999084472656,200.0
2018-01-08,25.959999084472656,25.959999084472656,25.959999084472656,25.959999084472656,0.0
2018-01-09,25.959999084472656,25.959999084472656,25.959999084472656,25.959999084472656,0.0
2018-01-10,25.959999084472656,25.959999084472656,25.959999084472656,25.959999084472656,0.0
2018-01-11,25.959999084472656,25.959999084472656,25.959999084472656,25.959999084472656,0.0
2018-01-12,25.959999084472656,25.959999084472656,25.959999084472656,25.959999084472656,0.0
2018-01-16,26.190000534057614,26.190000534057614,26.190000534057614,26.190000534057614,100.0
2018-01-17,26.190000534057614,26.190000534057614,26.190000534057614,26.190000534057614,0.0
2018-01-18,26.190000534057614,26.190000534057614,26.190000534057614,26.190000534057614,0.0
2018-01-19,26.31999969482422,26.31999969482422,26.31999969482422,26.31999969482422,400.0
2018-01-22,26.5,26.489999771118164,26.489999771118164,26.5,300.0
2018-01-23,26.59000015258789,26.59000015258789,26.59000015258789,26.59000015258789,100.0
2018-01-24,26.6200008392334,26.6200008392334,26.6200008392334,26.6200008392334,100.0
2018-01-25,26.6200008392334,26.6200008392334,26.6200008392334,26.6200008392334,0.0
2018-01-26,26.6200008392334,26.6200008392334,26.6200008392334,26.6200008392334,0.0
2018-01-29,26.6200008392334,26.6200008392334,26.6200008392334,26.6200008392334,0.0
2018-01-30,26.6200008392334,26.6200008392334,26.6200008392334,26.6200008392334,0.0
2018-01-31,26.6200008392334,26.6200008392334,26.6200008392334,26.6200008392334,0.0
2018-02-01,26.6200008392334,26.6200008392334,26.6200008392334,26.6200008392334,0.0
2018-02-02,26.209999084472656,26.209999084472656,26.209999084472656,26.209999084472656,100.0
2018-02-05,26.209999084472656,26.209999084472656,26.209999084472656,26.209999084472656,0.0
2018-02-06,26.209999084472656,26.209999084472656,26.209999084472656,26.209999084472656,0.0
2018-02-07,26.209999084472656,26.209999084472656,26.209999084472656,26.209999084472656,0.0
2018-02-08,25.065000534057614,25.04999923706055,25.059999465942386,25.04999923706055,600.0
2018-02-09,25.04999923706055,25.04999923706055,25.04999923706055,25.04999923706055,0.0
2018-02-12,25.04999923706055,25.04999923706055,25.04999923706055,25.04999923706055,100.0
2018-02-13,25.04999923706055,25.04999923706055,25.04999923706055,25.04999923706055,0.0
2018-02-14,25.04999923706055,25.04999923706055,25.04999923706055,25.04999923706055,0.0
2018-02-15,25.04999923706055,25.04999923706055,25.04999923706055,25.04999923706055,0.0
2018-02-16,25.70000076293945,25.70000076293945,25.70000076293945,25.70000076293945,1000.0
2018-02-20,25.70000076293945,25.70000076293945,25.70000076293945,25.70000076293945,0.0
2018-02-21,25.70000076293945,25.70000076293945,25.70000076293945,25.70000076293945,0.0
2018-02-22,25.70000076293945,25.70000076293945,25.70000076293945,25.70000076293945,0.0
2018-02-23,25.70000076293945,25.70000076293945,25.70000076293945,25.70000076293945,0.0
2018-02-26,25.70000076293945,25.70000076293945,25.70000076293945,25.70000076293945,1000.0
2018-02-27,25.56399917602539,25.56399917602539,25.56399917602539,25.56399917602539,600.0
2018-02-28,25.56399917602539,25.56399917602539,25.56399917602539,25.56399917602539,0.0
2018-03-01,25.56399917602539,25.56399917602539,25.56399917602539,25.56399917602539,0.0
2018-03-02,25.56399917602539,25.56399917602539,25.56399917602539,25.56399917602539,0.0
2018-03-05,25.3700008392334,25.3700008392334,25.3700008392334,25.3700008392334,400.0
2018-03-06,25.3700008392334,25.3700008392334,25.3700008392334,25.3700008392334,0.0
2018-03-07,25.3700008392334,25.3700008392334,25.3700008392334,25.3700008392334,0.0
2018-03-08,25.3700008392334,25.3700008392334,25.3700008392334,25.3700008392334,0.0
2018-03-09,25.3700008392334,25.3700008392334,25.3700008392334,25.3700008392334,0.0
2018-03-12,25.82999992370605,25.79999923706055,25.79999923706055,25.809999465942386,1500.0
2018-03-13,25.809999465942386,25.809999465942386,25.809999465942386,25.809999465942386,0.0
2018-03-14,25.809999465942386,25.809999465942386,25.809999465942386,25.809999465942386,0.0
2018-03-15,25.809999465942386,25.809999465942386,25.809999465942386,25.809999465942386,0.0
2018-03-16,25.809999465942386,25.809999465942386,25.809999465942386,25.809999465942386,0.0
2018-03-19,25.809999465942386,25.809999465942386,25.809999465942386,25.809999465942386,0.0
2018-03-20,25.809999465942386,25.809999465942386,25.809999465942386,25.809999465942386,0.0
2018-03-21,25.36000061035156,25.36000061035156,25.36000061035156,25.36000061035156,100.0
2018-03-22,25.20000076293945,25.20000076293945,25.20000076293945,25.20000076293945,100.0
2018-03-23,25.20000076293945,25.20000076293945,25.20000076293945,25.20000076293945,0.0
2018-03-26,25.20000076293945,25.20000076293945,25.20000076293945,25.20000076293945,0.0
2018-03-27,25.20000076293945,25.20000076293945,25.20000076293945,25.20000076293945,0.0
2018-03-28,25.20000076293945,25.20000076293945,25.20000076293945,25.20000076293945,0.0
2018-03-29,25.20000076293945,24.93000030517578,24.93000030517578,25.20000076293945,1500.0
2018-04-02,25.20000076293945,25.20000076293945,25.20000076293945,25.20000076293945,0.0
2018-04-03,25.20000076293945,25.20000076293945,25.20000076293945,25.20000076293945,0.0
2018-04-04,25.20000076293945,25.20000076293945,25.20000076293945,25.20000076293945,0.0
2018-04-05,25.20000076293945,25.20000076293945,25.20000076293945,25.20000076293945,0.0
2018-04-06,25.20000076293945,25.20000076293945,25.20000076293945,25.20000076293945,0.0
2018-04-09,25.20000076293945,25.20000076293945,25.20000076293945,25.20000076293945,0.0
2018-04-10,25.20000076293945,25.20000076293945,25.20000076293945,25.20000076293945,0.0
2018-04-11,25.20000076293945,25.20000076293945,25.20000076293945,25.20000076293945,0.0
2018-04-12,25.20000076293945,25.20000076293945,25.20000076293945,25.20000076293945,0.0
2018-04-13,25.20000076293945,25.20000076293945,25.20000076293945,25.20000076293945,0.0
2018-04-16,25.20000076293945,25.20000076293945,25.20000076293945,25.20000076293945,0.0
2018-04-17,25.20000076293945,25.20000076293945,25.20000076293945,25.20000076293945,0.0
2018-04-18,25.20000076293945,25.20000076293945,25.20000076293945,25.20000076293945,0.0
2018-04-19,25.20000076293945,25.20000076293945,25.20000076293945,25.20000076293945,0.0
2018-04-20,25.20000076293945,25.20000076293945,25.20000076293945,25.20000076293945,0.0
2018-04-23,25.20000076293945,25.20000076293945,25.20000076293945,25.20000076293945,0.0
2018-04-24,25.20000076293945,25.20000076293945,25.20000076293945,25.20000076293945,0.0
2018-04-25,25.20000076293945,25.20000076293945,25.20000076293945,25.20000076293945,0.0
2018-04-26,25.20000076293945,25.20000076293945,25.20000076293945,25.20000076293945,0.0
2018-04-27,25.20000076293945,25.20000076293945,25.20000076293945,25.20000076293945,0.0
2018-04-30,25.20000076293945,25.20000076293945,25.20000076293945,25.20000076293945,0.0
2018-05-01,25.15999984741211,25.1299991607666,25.1299991607666,25.15999984741211,600.0
2018-05-02,25.03000068664551,25.03000068664551,25.03000068664551,25.03000068664551,200.0
2018-05-03,25.03000068664551,25.03000068664551,25.03000068664551,25.03000068664551,0.0
2018-05-04,25.03000068664551,25.03000068664551,25.03000068664551,25.03000068664551,0.0
2018-05-07,25.03000068664551,25.03000068664551,25.03000068664551,25.03000068664551,0.0
2018-05-08,25.03000068664551,25.03000068664551,25.03000068664551,25.03000068664551,0.0
2018-05-09,25.15999984741211,25.15999984741211,25.15999984741211,25.15999984741211,1500.0
2018-05-10,25.15999984741211,25.15999984741211,25.15999984741211,25.15999984741211,0.0
2018-05-11,25.520000457763672,25.520000457763672,25.520000457763672,25.520000457763672,1000.0
2018-05-14,25.520000457763672,25.520000457763672,25.520000457763672,25.520000457763672,0.0
2018-05-15,25.520000457763672,25.520000457763672,25.520000457763672,25.520000457763672,0.0
2018-05-16,25.520000457763672,25.520000457763672,25.520000457763672,25.520000457763672,0.0
2018-05-17,25.520000457763672,25.520000457763672,25.520000457763672,25.520000457763672,0.0
2018-05-18,25.520000457763672,25.520000457763672,25.520000457763672,25.520000457763672,0.0
2018-05-21,25.50399971008301,25.479999542236328,25.479999542236328,25.50399971008301,2500.0
2018-05-22,25.489999771118164,25.47900009155273,25.489999771118164,25.47900009155273,1500.0
2018-05-23,25.47900009155273,25.47900009155273,25.47900009155273,25.47900009155273,0.0
2018-05-24,25.47900009155273,25.47900009155273,25.47900009155273,25.47900009155273,0.0
2018-05-25,25.47900009155273,25.47900009155273,25.47900009155273,25.47900009155273,0.0
2018-05-29,25.47900009155273,25.47900009155273,25.47900009155273,25.47900009155273,0.0
2018-05-30,25.47900009155273,25.47900009155273,25.47900009155273,25.47900009155273,0.0
2018-05-31,25.47900009155273,25.47900009155273,25.47900009155273,25.47900009155273,0.0
2018-06-01,25.47900009155273,25.47900009155273,25.47900009155273,25.47900009155273,0.0
2018-06-04,25.47900009155273,25.47900009155273,25.47900009155273,25.47900009155273,0.0
2018-06-05,25.47900009155273,25.47900009155273,25.47900009155273,25.47900009155273,0.0
2018-06-06,25.47900009155273,25.47900009155273,25.47900009155273,25.47900009155273,0.0
2018-06-07,25.47900009155273,25.47900009155273,25.47900009155273,25.47900009155273,0.0
2018-06-08,25.47900009155273,25.47900009155273,25.47900009155273,25.47900009155273,0.0
2018-06-11,25.47900009155273,25.47900009155273,25.47900009155273,25.47900009155273,0.0
2018-06-12,25.47900009155273,25.47900009155273,25.47900009155273,25.47900009155273,0.0
2018-06-13,25.47900009155273,25.47900009155273,25.47900009155273,25.47900009155273,0.0
2018-06-14,25.47900009155273,25.47900009155273,25.47900009155273,25.47900009155273,0.0
2018-06-15,25.47900009155273,25.47900009155273,25.47900009155273,25.47900009155273,0.0
2018-06-18,25.47900009155273,25.47900009155273,25.47900009155273,25.47900009155273,0.0
2018-06-19,25.47900009155273,25.47900009155273,25.47900009155273,25.47900009155273,0.0
2018-06-20,25.47900009155273,25.47900009155273,25.47900009155273,25.47900009155273,0.0
2018-06-21,25.47900009155273,25.47900009155273,25.47900009155273,25.47900009155273,0.0
2018-06-22,25.47900009155273,25.47900009155273,25.47900009155273,25.47900009155273,0.0
2018-06-25,25.47900009155273,25.47900009155273,25.47900009155273,25.47900009155273,0.0
2018-06-26,25.47900009155273,25.47900009155273,25.47900009155273,25.47900009155273,0.0
2018-06-27,25.82999992370605,25.819000244140625,25.82999992370605,25.819000244140625,1900.0
2018-06-28,25.819000244140625,25.819000244140625,25.819000244140625,25.819000244140625,0.0
2018-06-29,25.819000244140625,25.819000244140625,25.819000244140625,25.819000244140625,0.0
2018-07-02,25.819000244140625,25.819000244140625,25.819000244140625,25.819000244140625,100.0
2018-07-03,25.819000244140625,25.819000244140625,25.819000244140625,25.819000244140625,0.0
2018-07-05,25.819000244140625,25.819000244140625,25.819000244140625,25.819000244140625,0.0
2018-07-06,25.819000244140625,25.819000244140625,25.819000244140625,25.819000244140625,0.0
2018-07-09,25.819000244140625,25.819000244140625,25.819000244140625,25.819000244140625,0.0
2018-07-10,25.819000244140625,25.819000244140625,25.819000244140625,25.819000244140625,0.0
2018-07-11,26.25,26.2450008392334,26.25,26.2450008392334,4700.0
2018-07-12,26.319000244140625,26.319000244140625,26.319000244140625,26.319000244140625,1000.0
2018-07-13,26.38999938964844,26.381999969482425,26.388999938964844,26.381999969482425,1800.0
2018-07-16,26.381999969482425,26.381999969482425,26.381999969482425,26.381999969482425,0.0
2018-07-17,26.3799991607666,26.35000038146973,26.35000038146973,26.3700008392334,600.0
2018-07-18,26.3700008392334,26.3700008392334,26.3700008392334,26.3700008392334,0.0
2018-07-19,26.43000030517578,26.26000022888184,26.26000022888184,26.38999938964844,1000.0
2018-07-20,26.38999938964844,26.38999938964844,26.38999938964844,26.38999938964844,0.0
2018-07-23,26.38999938964844,26.38999938964844,26.38999938964844,26.38999938964844,0.0
2018-07-24,26.38999938964844,26.38999938964844,26.38999938964844,26.38999938964844,0.0
2018-07-25,26.38999938964844,26.38999938964844,26.38999938964844,26.38999938964844,0.0
2018-07-26,26.65999984741211,26.645000457763672,26.65999984741211,26.645000457763672,900.0
2018-07-27,26.645000457763672,26.645000457763672,26.645000457763672,26.645000457763672,0.0
2018-07-30,26.43099975585937,26.43099975585937,26.43099975585937,26.43099975585937,100.0
2018-07-31,26.6200008392334,26.6200008392334,26.6200008392334,26.6200008392334,1400.0
2018-08-01,26.6200008392334,26.6200008392334,26.6200008392334,26.6200008392334,0.0
2018-08-02,26.6200008392334,26.6200008392334,26.6200008392334,26.6200008392334,0.0
2018-08-03,26.6200008392334,26.6200008392334,26.6200008392334,26.6200008392334,0.0
2018-08-06,26.6200008392334,26.6200008392334,26.6200008392334,26.6200008392334,0.0
2018-08-07,26.6200008392334,26.6200008392334,26.6200008392334,26.6200008392334,0.0
2018-08-08,26.6200008392334,26.6200008392334,26.6200008392334,26.6200008392334,0.0
2018-08-09,26.920000076293945,26.920000076293945,26.920000076293945,26.920000076293945,1900.0
2018-08-10,26.920000076293945,26.920000076293945,26.920000076293945,26.920000076293945,100.0
2018-08-13,26.920000076293945,26.920000076293945,26.920000076293945,26.920000076293945,0.0
2018-08-14,26.85000038146973,26.85000038146973,26.85000038146973,26.85000038146973,100.0
2018-08-15,26.86000061035156,26.84700012207031,26.85099983215332,26.86000061035156,2800.0
2018-08-16,26.86000061035156,26.86000061035156,26.86000061035156,26.86000061035156,0.0
2018-08-17,26.86000061035156,26.86000061035156,26.86000061035156,26.86000061035156,0.0
2018-08-20,26.86000061035156,26.86000061035156,26.86000061035156,26.86000061035156,0.0
2018-08-21,27.239999771118164,27.239999771118164,27.239999771118164,27.239999771118164,700.0
2018-08-22,27.239999771118164,27.239999771118164,27.239999771118164,27.239999771118164,0.0
2018-08-23,27.239999771118164,27.239999771118164,27.239999771118164,27.239999771118164,0.0
2018-08-24,27.239999771118164,27.239999771118164,27.239999771118164,27.239999771118164,0.0
2018-08-27,27.239999771118164,27.239999771118164,27.239999771118164,27.239999771118164,0.0
2018-08-28,27.239999771118164,27.239999771118164,27.239999771118164,27.239999771118164,0.0
2018-08-29,27.239999771118164,27.239999771118164,27.239999771118164,27.239999771118164,0.0
2018-08-30,27.239999771118164,27.239999771118164,27.239999771118164,27.239999771118164,0.0
2018-08-31,27.32999992370605,27.27199935913086,27.32999992370605,27.27199935913086,800.0
2018-09-04,27.27199935913086,27.27199935913086,27.27199935913086,27.27199935913086,0.0
2018-09-05,27.27199935913086,27.27199935913086,27.27199935913086,27.27199935913086,0.0
2018-09-06,27.27199935913086,27.27199935913086,27.27199935913086,27.27199935913086,0.0
2018-09-07,27.399999618530273,27.35000038146973,27.399999618530273,27.35000038146973,200.0
2018-09-10,27.4060001373291,27.38500022888184,27.38500022888184,27.4060001373291,400.0
2018-09-11,27.42499923706055,27.410999298095703,27.42499923706055,27.410999298095703,400.0
2018-09-12,27.440000534057614,27.440000534057614,27.440000534057614,27.440000534057614,400.0
2018-09-13,27.440000534057614,27.440000534057614,27.440000534057614,27.440000534057614,0.0
2018-09-14,27.6299991607666,27.6299991607666,27.6299991607666,27.6299991607666,200.0
2018-09-17,27.61000061035156,27.57999992370605,27.61000061035156,27.57999992370605,1600.0
2018-09-18,27.670000076293945,27.670000076293945,27.670000076293945,27.670000076293945,600.0
2018-09-19,27.670000076293945,27.670000076293945,27.670000076293945,27.670000076293945,0.0
2018-09-20,27.59000015258789,27.59000015258789,27.59000015258789,27.59000015258789,200.0
2018-09-21,27.70000076293945,27.68899917602539,27.690000534057614,27.70000076293945,1400.0
2018-09-24,27.520000457763672,27.520000457763672,27.520000457763672,27.520000457763672,700.0
2018-09-25,27.309999465942386,27.309999465942386,27.309999465942386,27.309999465942386,900.0
2018-09-26,27.309999465942386,27.309999465942386,27.309999465942386,27.309999465942386,0.0
2018-09-27,27.170000076293945,27.170000076293945,27.170000076293945,27.170000076293945,100.0
2018-09-28,27.28000068664551,27.28000068664551,27.28000068664551,27.28000068664551,600.0
2018-10-01,27.53000068664551,27.42700004577637,27.51000022888184,27.4689998626709,5800.0
2018-10-02,27.420000076293945,27.3799991607666,27.3799991607666,27.420000076293945,1100.0
2018-10-03,27.31100082397461,27.31100082397461,27.31100082397461,27.31100082397461,300.0
2018-10-04,27.07999992370605,27.07999992370605,27.07999992370605,27.07999992370605,600.0
2018-10-05,27.20000076293945,27.10000038146973,27.20000076293945,27.1299991607666,500.0
2018-10-08,27.1299991607666,27.1299991607666,27.1299991607666,27.1299991607666,700.0
2018-10-09,27.26000022888184,27.239999771118164,27.239999771118164,27.24799919128418,1200.0
2018-10-10,27.1299991607666,26.9060001373291,27.1299991607666,26.9060001373291,800.0
2018-10-11,26.190000534057614,26.190000534057614,26.190000534057614,26.190000534057614,300.0
2018-10-12,26.190000534057614,26.190000534057614,26.190000534057614,26.190000534057614,0.0
2018-10-15,26.190000534057614,26.190000534057614,26.190000534057614,26.190000534057614,0.0
2018-10-16,26.649999618530273,26.649999618530273,26.649999618530273,26.649999618530273,200.0
2018-10-17,26.540000915527344,26.540000915527344,26.540000915527344,26.540000915527344,200.0
2018-10-18,26.540000915527344,26.540000915527344,26.540000915527344,26.540000915527344,0.0
2018-10-19,26.540000915527344,26.540000915527344,26.540000915527344,26.540000915527344,0.0
2018-10-22,26.540000915527344,26.540000915527344,26.540000915527344,26.540000915527344,0.0
2018-10-23,26.22200012207031,26.00900077819824,26.00900077819824,26.22200012207031,3300.0
2018-10-24,26.22200012207031,26.22200012207031,26.22200012207031,26.22200012207031,0.0
2018-10-25,26.22200012207031,26.22200012207031,26.22200012207031,26.22200012207031,0.0
2018-10-26,26.22200012207031,26.22200012207031,26.22200012207031,26.22200012207031,0.0
2018-10-29,26.01300048828125,26.01300048828125,26.01300048828125,26.01300048828125,200.0
2018-10-30,26.01300048828125,26.01300048828125,26.01300048828125,26.01300048828125,0.0
2018-10-31,26.01300048828125,26.01300048828125,26.01300048828125,26.01300048828125,100.0
2018-11-01,26.15500068664551,26.15500068664551,26.15500068664551,26.15500068664551,1900.0
2018-11-02,26.15500068664551,26.15500068664551,26.15500068664551,26.15500068664551,100.0
2018-11-05,26.15500068664551,26.15500068664551,26.15500068664551,26.15500068664551,0.0
2018-11-06,26.54599952697754,26.535999298095703,26.54599952697754,26.535999298095703,400.0
2018-11-07,27.03000068664551,26.79700088500977,26.79700088500977,27.03000068664551,80300.0
2018-11-08,27.0049991607666,26.94899940490723,26.94899940490723,27.0049991607666,300.0
2018-11-09,27.0,26.989999771118164,27.0,26.989999771118164,3000.0
2018-11-12,26.93000030517578,26.93000030517578,26.93000030517578,26.93000030517578,2400.0
2018-11-13,26.93000030517578,26.93000030517578,26.93000030517578,26.93000030517578,100.0
2018-11-14,26.70000076293945,26.55900001525879,26.68000030517578,26.55900001525879,10500.0
2018-11-15,26.71999931335449,26.440000534057614,26.511999130249023,26.670000076293945,2900.0
2018-11-16,26.863000869750977,26.78000068664551,26.790000915527344,26.863000869750977,2500.0
2018-11-19,26.649999618530273,26.649999618530273,26.649999618530273,26.649999618530273,300.0
2018-11-20,26.399999618530273,26.399999618530273,26.399999618530273,26.399999618530273,200.0
2018-11-21,26.3799991607666,26.3799991607666,26.3799991607666,26.3799991607666,300.0
2018-11-23,26.309999465942386,26.309999465942386,26.309999465942386,26.309999465942386,800.0
2018-11-26,26.489999771118164,26.38999938964844,26.489999771118164,26.38999938964844,200.0
2018-11-27,26.511999130249023,26.511999130249023,26.511999130249023,26.511999130249023,1400.0
2018-11-28,26.511999130249023,26.511999130249023,26.511999130249023,26.511999130249023,0.0
2018-11-29,26.944000244140625,26.9379997253418,26.944000244140625,26.9379997253418,2700.0
2018-11-30,26.916000366210934,26.916000366210934,26.916000366210934,26.916000366210934,400.0
2018-12-03,27.11000061035156,27.11000061035156,27.11000061035156,27.11000061035156,200.0
2018-12-04,27.32999992370605,26.78000068664551,27.32999992370605,26.78000068664551,9900.0
2018-12-06,26.6200008392334,26.3700008392334,26.6200008392334,26.481000900268555,2400.0
2018-12-07,26.729999542236328,26.28199958801269,26.729999542236328,26.28199958801269,800.0
2018-12-10,26.357999801635746,26.357999801635746,26.357999801635746,26.357999801635746,100.0
2018-12-11,26.357999801635746,26.357999801635746,26.357999801635746,26.357999801635746,0.0
2018-12-12,26.466999053955078,26.466999053955078,26.466999053955078,26.466999053955078,100.0
2018-12-13,26.507999420166016,26.507999420166016,26.507999420166016,26.507999420166016,100.0
2018-12-14,26.209999084472656,26.12800025939941,26.209999084472656,26.12800025939941,400.0
2018-12-17,26.12800025939941,26.12800025939941,26.12800025939941,26.12800025939941,0.0
2018-12-18,25.472999572753906,25.37700080871582,25.37700080871582,25.472999572753906,3000.0
2018-12-19,25.2549991607666,25.149999618530273,25.149999618530273,25.2549991607666,500.0
2018-12-20,25.03000068664551,24.808000564575195,25.0,24.808000564575195,300.0
2018-12-21,24.84000015258789,24.613000869750977,24.84000015258789,24.613000869750977,600.0
2018-12-24,24.613000869750977,24.613000869750977,24.613000869750977,24.613000869750977,0.0
2018-12-26,24.468000411987305,23.95000076293945,24.01000022888184,24.468000411987305,5800.0
2018-12-27,24.64699935913086,24.07500076293945,24.149999618530273,24.64699935913086,700.0
2018-12-28,24.81999969482422,24.71999931335449,24.81999969482422,24.726999282836914,4300.0
2018-12-31,24.84600067138672,24.75,24.75,24.84600067138672,300.0
2019-01-02,24.71999931335449,24.70599937438965,24.71999931335449,24.70599937438965,100.0
2019-01-03,24.43899917602539,24.38999938964844,24.38999938964844,24.43899917602539,100.0
2019-01-04,24.98600006103516,24.82999992370605,24.88999938964844,24.98600006103516,3100.0
2019-01-07,25.20000076293945,25.03000068664551,25.03000068664551,25.12299919128418,300.0
2019-01-08,25.327999114990234,25.229999542236328,25.229999542236328,25.327999114990234,100.0
2019-01-09,25.399999618530273,25.34600067138672,25.399999618530273,25.34600067138672,200.0
2019-01-10,25.57699966430664,25.309999465942386,25.309999465942386,25.57699966430664,1700.0
2019-01-11,25.57600021362305,25.520000457763672,25.54999923706055,25.57600021362305,500.0
2019-01-14,25.57600021362305,25.57600021362305,25.57600021362305,25.57600021362305,0.0
2019-01-15,25.621999740600586,25.559999465942386,25.57999992370605,25.621999740600586,600.0
2019-01-16,25.65999984741211,25.6299991607666,25.6299991607666,25.65999984741211,100.0
2019-01-17,25.80599975585937,25.70000076293945,25.70000076293945,25.80599975585937,100.0
2019-01-18,26.08099937438965,26.0,26.0,26.08099937438965,4600.0
2019-01-22,25.979999542236328,25.80100059509277,25.979999542236328,25.86599922180176,400.0
2019-01-23,26.209999084472656,25.989999771118164,26.209999084472656,26.024999618530273,15300.0
2019-01-24,26.020000457763672,25.93899917602539,26.020000457763672,25.993000030517575,1500.0
2019-01-25,25.99900054931641,25.99900054931641,25.99900054931641,25.99900054931641,0.0
2019-01-28,25.993000030517575,25.993000030517575,25.993000030517575,25.993000030517575,0.0
2019-01-29,25.989999771118164,25.88500022888184,25.90999984741211,25.96199989318848,6000.0
2019-01-30,26.28000068664551,26.059999465942386,26.059999465942386,26.214000701904297,1900.0
2019-01-31,26.55299949645996,26.36000061035156,26.36000061035156,26.55299949645996,1700.0
2019-02-01,26.54999923706055,26.440000534057614,26.5,26.51799964904785,6100.0
2019-02-04,26.62700080871582,26.43000030517578,26.43000030517578,26.62700080871582,100.0
2019-02-05,26.71999931335449,26.716999053955078,26.71999931335449,26.716999053955078,400.0
2019-02-06,26.71999931335449,26.63999938964844,26.65999984741211,26.68600082397461,7200.0
2019-02-07,26.6299991607666,26.520000457763672,26.60000038146973,26.6299991607666,2400.0
2019-02-08,26.67700004577637,26.5310001373291,26.5310001373291,26.67700004577637,1900.0
2019-02-11,26.750999450683594,26.709999084472656,26.709999084472656,26.750999450683594,200.0
2019-02-12,26.99099922180176,26.979999542236328,26.979999542236328,26.99099922180176,100.0
2019-02-13,27.048999786376953,26.96500015258789,27.0,27.048999786376953,700.0
2019-02-14,26.988000869750977,26.95000076293945,26.95000076293945,26.983999252319336,500.0
2019-02-15,27.246999740600586,27.18000030517578,27.190000534057614,27.246999740600586,600.0
2019-02-19,27.32999992370605,27.25,27.26499938964844,27.32500076293945,2600.0
2019-02-20,27.37100028991699,27.31999969482422,27.31999969482422,27.37100028991699,100.0
2019-02-21,27.388999938964844,27.3799991607666,27.3799991607666,27.388999938964844,100.0
2019-02-22,27.44700050354004,27.44700050354004,27.44700050354004,27.44700050354004,100.0
2019-02-25,27.40999984741211,27.3700008392334,27.40999984741211,27.37299919128418,1700.0
2019-02-26,27.35000038146973,27.31800079345703,27.35000038146973,27.31800079345703,200.0
2019-02-27,27.31999969482422,27.229999542236328,27.229999542236328,27.31999969482422,100.0
2019-02-28,27.364999771118164,27.364999771118164,27.364999771118164,27.364999771118164,0.0
2019-03-01,27.55299949645996,27.55299949645996,27.55299949645996,27.55299949645996,0.0
2019-03-04,27.40099906921387,27.40099906921387,27.40099906921387,27.40099906921387,0.0
2019-03-05,27.399999618530273,27.399999618530273,27.399999618530273,27.399999618530273,100.0
2019-03-06,27.27599906921387,27.243000030517575,27.27599906921387,27.243000030517575,500.0
2019-03-07,27.149999618530273,27.125999450683594,27.13999938964844,27.125999450683594,500.0
2019-03-08,27.11400032043457,26.979999542236328,27.018999099731445,27.11400032043457,800.0
2019-03-11,27.41399955749512,27.18000030517578,27.18199920654297,27.41399955749512,1400.0
2019-03-12,27.5,27.48699951171875,27.5,27.48699951171875,100.0
2019-03-13,27.68000030517578,27.638999938964844,27.68000030517578,27.638999938964844,100.0
2019-03-14,27.65999984741211,27.631000518798828,27.65999984741211,27.631000518798828,1200.0
2019-03-15,27.790000915527344,27.70199966430664,27.790000915527344,27.70199966430664,300.0
2019-03-18,27.78000068664551,27.770999908447266,27.78000068664551,27.770999908447266,200.0
2019-03-19,27.86000061035156,27.68400001525879,27.86000061035156,27.68400001525879,300.0
2019-03-20,27.6299991607666,27.51000022888184,27.520000457763672,27.51300048828125,700.0
2019-03-21,27.858999252319336,27.559999465942386,27.559999465942386,27.858999252319336,400.0
2019-03-22,27.78000068664551,27.62299919128418,27.78000068664551,27.62299919128418,2300.0
2019-03-25,27.65299987792969,27.57999992370605,27.57999992370605,27.65299987792969,100.0
2019-03-26,27.81999969482422,27.731000900268555,27.731000900268555,27.81999969482422,1000.0
2019-03-27,27.73500061035156,27.73500061035156,27.73500061035156,27.73500061035156,0.0
2019-03-28,27.808000564575195,27.808000564575195,27.808000564575195,27.808000564575195,100.0
2019-03-29,27.965999603271484,27.899999618530273,27.899999618530273,27.965999603271484,400.0
2019-04-01,28.07999992370605,28.0,28.059999465942386,28.07399940490723,58200.0
2019-04-02,27.993999481201172,27.96500015258789,27.96500015258789,27.993999481201172,400.0
2019-04-03,28.03000068664551,27.97200012207031,28.0,27.97200012207031,600.0
2019-04-04,27.993000030517575,27.93000030517578,27.93000030517578,27.993000030517575,3100.0
2019-04-05,28.149999618530273,28.118000030517575,28.149999618530273,28.145999908447266,1400.0
2019-04-08,28.142000198364254,28.07999992370605,28.089000701904297,28.142000198364254,2000.0
2019-04-09,28.06999969482422,28.02899932861328,28.04999923706055,28.02899932861328,4100.0
2019-04-10,28.12400054931641,28.1200008392334,28.1200008392334,28.12400054931641,500.0
2019-04-11,28.29999923706055,28.093000411987305,28.29999923706055,28.190000534057614,5700.0
2019-04-12,28.243000030517575,28.239999771118164,28.239999771118164,28.243000030517575,200.0
2019-04-15,28.28199958801269,28.270000457763672,28.270000457763672,28.28199958801269,200.0
2019-04-16,28.29999923706055,28.09499931335449,28.29999923706055,28.09499931335449,2800.0
2019-04-17,27.899999618530273,27.82999992370605,27.899999618530273,27.856000900268555,1100.0
2019-04-18,28.0,27.920000076293945,28.0,27.920000076293945,1000.0
2019-04-22,27.933000564575195,27.899999618530273,27.899999618530273,27.933000564575195,800.0
2019-04-23,28.15399932861328,28.04999923706055,28.04999923706055,28.15399932861328,100.0
2019-04-24,28.21999931335449,28.17300033569336,28.21999931335449,28.17300033569336,500.0
2019-04-25,28.13999938964844,28.06999969482422,28.06999969482422,28.13599967956543,1300.0
2019-04-26,28.26000022888184,28.149999618530273,28.149999618530273,28.26000022888184,195400.0
2019-04-29,28.239999771118164,28.23900032043457,28.239999771118164,28.23900032043457,500.0
2019-04-30,28.47100067138672,28.24600028991699,28.25,28.47100067138672,42200.0
2019-05-01,28.38999938964844,28.18400001525879,28.38999938964844,28.18400001525879,100.0
2019-05-02,28.26000022888184,28.1200008392334,28.26000022888184,28.207000732421875,1400.0
2019-05-03,28.440000534057614,28.35000038146973,28.35000038146973,28.43600082397461,2900.0
2019-05-06,28.3799991607666,28.10000038146973,28.10000038146973,28.34000015258789,8200.0
2019-05-07,28.270000457763672,27.90999984741211,28.270000457763672,28.04999923706055,3700.0
2019-05-08,28.035999298095703,27.993000030517575,28.035999298095703,27.993000030517575,200.0
2019-05-09,27.992000579833984,27.96999931335449,27.96999931335449,27.992000579833984,1600.0
2019-05-10,28.209999084472656,27.750999450683594,27.767000198364254,28.158000946044922,2400.0
2019-05-13,27.858999252319336,27.73200035095215,27.73200035095215,27.858999252319336,24200.0
2019-05-14,28.04999923706055,27.9379997253418,27.979999542236328,27.95499992370605,38700.0
2019-05-15,28.07999992370605,28.040000915527344,28.06999969482422,28.040000915527344,400.0
2019-05-16,28.36000061035156,28.23500061035156,28.36000061035156,28.23500061035156,2000.0
2019-05-17,28.31999969482422,28.19300079345703,28.31999969482422,28.19300079345703,230800.0
2019-05-20,28.209999084472656,28.03499984741211,28.18000030517578,28.090999603271484,2600.0
2019-05-21,28.290000915527344,28.23600006103516,28.290000915527344,28.23600006103516,3900.0
2019-05-22,28.309999465942386,28.229999542236328,28.2450008392334,28.30599975585937,5400.0
2019-05-23,28.15999984741211,28.069000244140625,28.15999984741211,28.15500068664551,28000.0
2019-05-24,28.270000457763672,28.222999572753906,28.229999542236328,28.229999542236328,294600.0
2019-05-28,28.29999923706055,27.899999618530273,28.29999923706055,27.899999618530273,8300.0
2019-05-29,27.79999923706055,27.60000038146973,27.729999542236328,27.709999084472656,47600.0
2019-05-30,27.81999969482422,27.69099998474121,27.81999969482422,27.73600006103516,11800.0
2019-05-31,27.690000534057614,27.57999992370605,27.690000534057614,27.63999938964844,1900.0
2019-06-03,27.881000518798828,27.708999633789066,27.84000015258789,27.881000518798828,5900.0
2019-06-04,28.25,28.020000457763672,28.21999931335449,28.25,28500.0
2019-06-05,28.53000068664551,28.32999992370605,28.35000038146973,28.520000457763672,81800.0
2019-06-06,28.75,28.6200008392334,28.62899971008301,28.74099922180176,4600.0
2019-06-07,29.03000068664551,28.895000457763672,28.940000534057614,28.895000457763672,8100.0
2019-06-10,28.940000534057614,28.8799991607666,28.940000534057614,28.892000198364254,24700.0
2019-06-11,28.93000030517578,28.75,28.93000030517578,28.82399940490723,4100.0
2019-06-12,28.95499992370605,28.90999984741211,28.91399955749512,28.94700050354004,2500.0
2019-06-13,29.04999923706055,28.96999931335449,29.020999908447266,28.9950008392334,58000.0
2019-06-14,29.15999984741211,29.040000915527344,29.15999984741211,29.0939998626709,12700.0
2019-06-17,29.06999969482422,29.01000022888184,29.020000457763672,29.01499938964844,1000.0
2019-06-18,29.20000076293945,29.149999618530273,29.20000076293945,29.18000030517578,7600.0
2019-06-19,29.399999618530273,29.149999618530273,29.149999618530273,29.35000038146973,19500.0
2019-06-20,29.68000030517578,29.34000015258789,29.68000030517578,29.520000457763672,4300.0
2019-06-21,29.489999771118164,29.38999938964844,29.38999938964844,29.45400047302246,10000.0
2019-06-24,29.45400047302246,29.38999938964844,29.420000076293945,29.395000457763672,9800.0
2019-06-25,29.25,29.125999450683594,29.25,29.125999450683594,29300.0
2019-06-26,28.940000534057614,28.792999267578125,28.93899917602539,28.80699920654297,510900.0
2019-06-27,28.895999908447266,28.81999969482422,28.82999992370605,28.895999908447266,2400.0
2019-06-28,29.10000038146973,28.95000076293945,28.95000076293945,29.09000015258789,75300.0
2019-07-01,29.21199989318848,29.082000732421875,29.183000564575195,29.209999084472656,12000.0
2019-07-02,29.32099914550781,29.24799919128418,29.3129997253418,29.32099914550781,24700.0
2019-07-03,29.617000579833984,29.53000068664551,29.54999923706055,29.617000579833984,3000.0
2019-07-05,29.65999984741211,29.37100028991699,29.65999984741211,29.559999465942386,4500.0
2019-07-08,29.57999992370605,29.46999931335449,29.57999992370605,29.524999618530273,2700.0
2019-07-09,29.53000068664551,29.420000076293945,29.440000534057614,29.53000068664551,3000.0
2019-07-10,29.70000076293945,29.56999969482422,29.70000076293945,29.57900047302246,32300.0
2019-07-11,29.70000076293945,29.49099922180176,29.70000076293945,29.604999542236328,9500.0
2019-07-12,29.79999923706055,29.61000061035156,29.79999923706055,29.670000076293945,7000.0
2019-07-15,29.690000534057614,29.658000946044922,29.68199920654297,29.690000534057614,5000.0
2019-07-16,29.82999992370605,29.63999938964844,29.82999992370605,29.65900039672852,3300.0
2019-07-17,29.65999984741211,29.589000701904297,29.625,29.589000701904297,1800.0
2019-07-18,29.729999542236328,29.46999931335449,29.5,29.69499969482422,7100.0
2019-07-19,29.82999992370605,29.489999771118164,29.82999992370605,29.489999771118164,5300.0
2019-07-22,29.6200008392334,29.423999786376953,29.6200008392334,29.441999435424805,26300.0
2019-07-23,29.60000038146973,29.45000076293945,29.479999542236328,29.57699966430664,7600.0
2019-07-24,29.649999618530273,29.51000022888184,29.56999969482422,29.649999618530273,3800.0
2019-07-25,29.770000457763672,29.5629997253418,29.770000457763672,29.61000061035156,9200.0
2019-07-26,29.790000915527344,29.6200008392334,29.66699981689453,29.790000915527344,46900.0
2019-07-29,29.81999969482422,29.739999771118164,29.739999771118164,29.80699920654297,2900.0
2019-07-30,29.809999465942386,29.707000732421875,29.809999465942386,29.73500061035156,2800.0
2019-07-31,29.770000457763672,29.44499969482422,29.770000457763672,29.500999450683594,6600.0
2019-08-01,29.761999130249023,29.399999618530273,29.60000038146973,29.410999298095703,4500.0
2019-08-02,29.32999992370605,29.229999542236328,29.30500030517578,29.28199958801269,11500.0
2019-08-05,29.06999969482422,28.459999084472656,29.06999969482422,28.643999099731445,14300.0
2019-08-06,28.96999931335449,28.67099952697754,28.84000015258789,28.968000411987305,3700.0
2019-08-07,29.149999618530273,28.75,28.75,29.11000061035156,21600.0
2019-08-08,29.5310001373291,29.165000915527344,29.165000915527344,29.5310001373291,8800.0
2019-08-09,29.559999465942386,29.3439998626709,29.520000457763672,29.492000579833984,11600.0
2019-08-12,29.479999542236328,29.18099975585937,29.479999542236328,29.28499984741211,4600.0
2019-08-13,29.6200008392334,29.5,29.50399971008301,29.52599906921387,8100.0
2019-08-14,29.35000038146973,28.92700004577637,29.35000038146973,28.92700004577637,3000.0
2019-08-15,29.170000076293945,28.95000076293945,28.95000076293945,29.06999969482422,52500.0
2019-08-16,29.46999931335449,29.170000076293945,29.170000076293945,29.437000274658203,629000.0
2019-08-19,29.73600006103516,29.649999618530273,29.65999984741211,29.697999954223636,253000.0
2019-08-20,29.71999931335449,29.479999542236328,29.71999931335449,29.479999542236328,97800.0
2019-08-21,29.70000076293945,29.61000061035156,29.66900062561035,29.68000030517578,410400.0
2019-08-22,29.76000022888184,29.60400009155273,29.75,29.722999572753906,11400.0
2019-08-23,29.739999771118164,29.033000946044922,29.739999771118164,29.033000946044922,32700.0
2019-08-26,29.36000061035156,29.20000076293945,29.28000068664551,29.36000061035156,77800.0
2019-08-27,29.3799991607666,29.27300071716309,29.27300071716309,29.32699966430664,51600.0
2019-08-28,29.459999084472656,29.37400054931641,29.40999984741211,29.459999084472656,46800.0
2019-08-29,29.74900054931641,29.54999923706055,29.71999931335449,29.694000244140625,61600.0
2019-08-30,29.84000015258789,29.690000534057614,29.84000015258789,29.74600028991699,6800.0
2019-09-03,29.770000457763672,29.56100082397461,29.65999984741211,29.770000457763672,12700.0
2019-09-04,29.95000076293945,29.875999450683594,29.8799991607666,29.95000076293945,7000.0
2019-09-05,30.20000076293945,30.02599906921387,30.20000076293945,30.040000915527344,28500.0
2019-09-06,30.15999984741211,30.10000038146973,30.149999618530273,30.1299991607666,17200.0
2019-09-09,30.125999450683594,29.95000076293945,30.125999450683594,29.979999542236328,12800.0
2019-09-10,29.88999938964844,29.729999542236328,29.75,29.88999938964844,75400.0
2019-09-11,30.04400062561035,29.993999481201172,30.016000747680664,30.04400062561035,6100.0
2019-09-12,30.239999771118164,30.13999938964844,30.149999618530273,30.167999267578125,7800.0
2019-09-13,30.19499969482422,30.020000457763672,30.190000534057614,30.09000015258789,6800.0
2019-09-16,30.03000068664551,29.979999542236328,30.006000518798828,30.020000457763672,10700.0
2019-09-17,30.190000534057614,30.09499931335449,30.114999771118164,30.190000534057614,7500.0
2019-09-18,30.208999633789066,30.11000061035156,30.11000061035156,30.208999633789066,1700.0
2019-09-19,30.35000038146973,30.26099967956543,30.34000015258789,30.28000068664551,10300.0
2019-09-20,30.36000061035156,30.24799919128418,30.31999969482422,30.26000022888184,19700.0
2019-09-23,30.32999992370605,30.239999771118164,30.26000022888184,30.28000068664551,15700.0
2019-09-24,30.31999969482422,30.089000701904297,30.266000747680664,30.09000015258789,5200.0
2019-09-25,30.18000030517578,30.020000457763672,30.18000030517578,30.149999618530273,12400.0
2019-09-26,30.25,30.1299991607666,30.25,30.160999298095703,16500.0
2019-09-27,30.18099975585937,29.895999908447266,30.1200008392334,29.99099922180176,4100.0
2019-09-30,30.239999771118164,30.09000015258789,30.170000076293945,30.190000534057614,13100.0
2019-10-01,30.25900077819824,29.868000030517575,30.25900077819824,29.90999984741211,9100.0
2019-10-02,29.66900062561035,29.37100028991699,29.66900062561035,29.45000076293945,7400.0
2019-10-03,29.60000038146973,29.29700088500977,29.309999465942386,29.60000038146973,2400.0
2019-10-04,30.01000022888184,29.71999931335449,29.788000106811523,30.01000022888184,2900.0
2019-10-07,30.020000457763672,29.840999603271484,30.020000457763672,29.86000061035156,7900.0
2019-10-08,29.78000068664551,29.417999267578125,29.78000068664551,29.43000030517578,9000.0
2019-10-09,29.7189998626709,29.56999969482422,29.57999992370605,29.63400077819824,7900.0
2019-10-10,29.78000068664551,29.68000030517578,29.68000030517578,29.739999771118164,9800.0
2019-10-11,30.069000244140625,29.9060001373291,30.059999465942386,29.9060001373291,12700.0
2019-10-14,29.8700008392334,29.78499984741211,29.8700008392334,29.809999465942386,2700.0
2019-10-15,29.98900032043457,29.920000076293945,29.940000534057614,29.920000076293945,3600.0
2019-10-16,29.920000076293945,29.85000038146973,29.91699981689453,29.8700008392334,5400.0
2019-10-17,30.06999969482422,29.989999771118164,30.04999923706055,30.01300048828125,12100.0
2019-10-18,30.11000061035156,29.96999931335449,30.01799964904785,30.06999969482422,12500.0
2019-10-21,30.21999931335449,30.101999282836914,30.21999931335449,30.149999618530273,6700.0
2019-10-22,30.239999771118164,30.0,30.239999771118164,30.0,6600.0
2019-10-23,30.09000015258789,29.97900009155273,30.07999992370605,30.04400062561035,15100.0
2019-10-24,30.170000076293945,29.989999771118164,30.170000076293945,30.01000022888184,11900.0
2019-10-25,30.06999969482422,29.96999931335449,30.06999969482422,30.0,4100.0
2019-10-28,30.059999465942386,29.97400093078613,30.059999465942386,29.97400093078613,1900.0
2019-10-29,30.15999984741211,29.90999984741211,29.90999984741211,30.142000198364254,8700.0
2019-10-30,30.270000457763672,30.1200008392334,30.209999084472656,30.238000869750977,13200.0
2019-10-31,30.270999908447266,30.10700035095215,30.270999908447266,30.19899940490723,110500.0
2019-11-01,30.420000076293945,30.22800064086914,30.420000076293945,30.25,14300.0
2019-11-04,30.40999984741211,30.15699958801269,30.40999984741211,30.158000946044922,5300.0
2019-11-05,30.15999984741211,30.05200004577637,30.15999984741211,30.062000274658203,5900.0
2019-11-06,30.229999542236328,30.10000038146973,30.10000038146973,30.19599914550781,10700.0
2019-11-07,30.229999542236328,30.13999938964844,30.21999931335449,30.1560001373291,3100.0
2019-11-08,30.17499923706055,30.1299991607666,30.149999618530273,30.17499923706055,6100.0
2019-11-11,30.13999938964844,30.10000038146973,30.10000038146973,30.108999252319336,1200.0
2019-11-12,30.20000076293945,30.1200008392334,30.20000076293945,30.15099906921387,9800.0
2019-11-13,30.32999992370605,30.18000030517578,30.18000030517578,30.32999992370605,7700.0
2019-11-14,30.38999938964844,30.309999465942386,30.38999938964844,30.367000579833984,8400.0
2019-11-15,30.542999267578125,30.420000076293945,30.420000076293945,30.542999267578125,9400.0
2019-11-18,30.63999938964844,30.562000274658203,30.60000038146973,30.562000274658203,7000.0
2019-11-19,30.645000457763672,30.57999992370605,30.57999992370605,30.60300064086914,24400.0
2019-11-20,30.670000076293945,30.524999618530273,30.670000076293945,30.61199951171875,7200.0
2019-11-21,30.54999923706055,30.46999931335449,30.53000068664551,30.496999740600586,43300.0
2019-11-22,30.54999923706055,30.459999084472656,30.459999084472656,30.520000457763672,3700.0
2019-11-25,30.649999618530273,30.57099914550781,30.649999618530273,30.6299991607666,22300.0
2019-11-26,30.790000915527344,30.690000534057614,30.690000534057614,30.790000915527344,22200.0
2019-11-27,30.90999984741211,30.809999465942386,30.809999465942386,30.891000747680664,12000.0
2019-11-29,30.84000015258789,30.770999908447266,30.79999923706055,30.770999908447266,600.0
2019-12-02,30.79999923706055,30.60000038146973,30.79999923706055,30.613000869750977,4900.0
2019-12-03,30.53000068664551,30.440000534057614,30.53000068664551,30.53000068664551,15900.0
2019-12-04,30.770000457763672,30.649999618530273,30.649999618530273,30.729999542236328,6200.0
2019-12-05,30.742000579833984,30.670000076293945,30.68000030517578,30.72400093078613,20800.0
2019-12-06,30.959999084472656,30.90999984741211,30.920000076293945,30.90999984741211,21400.0
2019-12-09,30.8799991607666,30.81999969482422,30.8799991607666,30.83099937438965,7900.0
2019-12-10,30.86000061035156,30.763999938964844,30.790000915527344,30.78700065612793,28500.0
2019-12-11,30.85000038146973,30.80900001525879,30.84900093078613,30.82099914550781,7700.0
2019-12-12,31.01000022888184,30.76000022888184,30.76000022888184,30.92200088500977,21700.0
2019-12-13,30.979999542236328,30.85000038146973,30.85000038146973,30.979999542236328,23300.0
2019-12-16,31.208999633789066,31.09000015258789,31.09900093078613,31.190000534057614,16500.0
2019-12-17,31.270000457763672,31.21999931335449,31.270000457763672,31.22200012207031,8200.0
2019-12-18,31.25,31.190000534057614,31.190000534057614,31.25,1700.0
2019-12-19,31.3799991607666,31.295000076293945,31.36000061035156,31.356000900268555,4900.0
2019-12-20,31.63999938964844,31.40999984741211,31.40999984741211,31.61000061035156,13100.0
2019-12-23,31.53000068664551,31.28700065612793,31.53000068664551,31.291000366210934,37200.0
2019-12-24,31.32099914550781,31.26000022888184,31.27400016784668,31.30400085449219,7300.0
2019-12-26,31.35000038146973,31.26000022888184,31.31999969482422,31.30599975585937,9600.0
2019-12-27,31.399999618530273,31.375999450683594,31.38999938964844,31.381000518798828,14400.0
2019-12-30,31.40999984741211,31.26000022888184,31.40999984741211,31.28000068664551,23500.0
2019-12-31,31.3700008392334,31.250999450683594,31.290000915527344,31.3700008392334,17200.0
2020-01-02,31.363000869750977,31.170000076293945,31.363000869750977,31.309999465942386,7600.0
2020-01-03,31.35000038146973,31.21500015258789,31.21999931335449,31.30599975585937,8100.0
2020-01-06,31.32999992370605,31.229999542236328,31.229999542236328,31.319000244140625,4900.0
2020-01-07,31.3700008392334,31.18000030517578,31.3700008392334,31.209999084472656,8300.0
2020-01-08,31.364999771118164,31.23500061035156,31.23500061035156,31.256000518798828,30400.0
2020-01-09,31.420000076293945,31.26000022888184,31.26000022888184,31.4060001373291,7600.0
2020-01-10,31.479999542236328,31.40699958801269,31.46999931335449,31.40699958801269,4900.0
2020-01-13,31.57500076293945,31.482999801635746,31.482999801635746,31.57500076293945,3500.0
2020-01-14,31.63999938964844,31.54999923706055,31.56999969482422,31.63999938964844,10700.0
2020-01-15,31.81999969482422,31.739999771118164,31.739999771118164,31.766000747680664,4300.0
2020-01-16,31.97400093078613,31.8799991607666,31.8799991607666,31.97400093078613,54200.0
2020-01-17,32.11999893188477,32.040000915527344,32.05899810791016,32.11999893188477,8300.0
2020-01-21,32.169998168945305,32.060001373291016,32.113998413085945,32.14099884033203,2700.0
2020-01-22,32.31999969482422,32.187999725341804,32.31999969482422,32.187999725341804,20100.0
2020-01-23,32.22999954223633,32.05500030517578,32.05500030517578,32.21799850463867,10600.0
2020-01-24,32.360000610351555,31.92700004577637,32.360000610351555,32.02899932861328,13000.0
2020-01-27,31.832000732421875,31.75,31.78000068664551,31.757999420166016,21100.0
2020-01-28,32.00299835205078,31.88999938964844,31.88999938964844,31.95000076293945,13000.0
2020-01-29,31.979999542236328,31.87700080871582,31.95800018310547,31.87700080871582,9700.0
2020-01-30,31.993999481201172,31.71999931335449,31.71999931335449,31.993999481201172,2600.0
2020-01-31,31.989999771118164,31.5,31.989999771118164,31.58099937438965,4400.0
2020-02-03,31.8700008392334,31.722999572753906,31.81999969482422,31.722999572753906,8100.0
2020-02-04,32.060001373291016,31.91900062561035,32.060001373291016,31.91900062561035,3200.0
2020-02-05,32.259998321533196,32.15999984741211,32.15999984741211,32.23600006103516,8300.0
2020-02-06,32.360000610351555,32.240001678466804,32.360000610351555,32.24300003051758,19500.0
2020-02-07,32.259998321533196,32.090999603271484,32.259998321533196,32.130001068115234,9600.0
2020-02-10,32.235000610351555,32.130001068115234,32.130001068115234,32.235000610351555,18800.0
2020-02-11,32.490001678466804,32.40999984741211,32.43000030517578,32.410999298095696,10400.0
2020-02-12,32.507999420166016,32.459999084472656,32.476001739501946,32.507999420166016,13100.0
2020-02-13,32.650001525878906,32.397998809814446,32.397998809814446,32.60400009155273,5300.0
2020-02-14,32.70399856567383,32.630001068115234,32.669998168945305,32.70399856567383,4400.0
2020-02-18,32.779998779296875,32.580001831054695,32.779998779296875,32.66899871826172,7700.0
2020-02-19,32.77000045776367,32.709999084472656,32.75899887084961,32.71799850463867,21700.0
2020-02-20,32.740001678466804,32.439998626708984,32.740001678466804,32.613998413085945,20300.0
2020-02-21,32.610000610351555,32.400001525878906,32.610000610351555,32.417999267578125,18700.0
2020-02-24,31.920000076293945,31.673999786376953,31.920000076293945,31.738000869750977,14300.0
2020-02-25,31.71500015258789,30.82699966430664,31.66200065612793,30.90500068664551,45200.0
2020-02-26,31.26000022888184,30.63999938964844,31.1299991607666,30.643999099731445,96800.0
2020-02-27,30.440000534057614,29.511999130249023,30.35000038146973,29.511999130249023,22800.0
2020-02-28,28.75,28.06999969482422,28.61000061035156,28.64699935913086,49200.0
2020-03-02,30.07900047302246,28.90999984741211,29.020000457763672,30.06999969482422,137700.0
2020-03-03,30.5,29.459999084472656,30.5,29.57399940490723,51700.0
2020-03-04,30.82099914550781,29.979999542236328,29.979999542236328,30.82099914550781,110800.0
2020-03-05,30.45000076293945,29.85000038146973,30.190000534057614,30.020999908447266,25600.0
2020-03-06,29.75,29.006000518798828,29.07999992370605,29.742000579833984,13100.0
2020-03-09,28.55500030517578,27.399999618530273,27.399999618530273,27.920000076293945,34800.0
2020-03-10,28.582000732421875,27.59000015258789,28.5,28.582000732421875,18200.0
2020-03-11,27.86000061035156,27.018999099731445,27.86000061035156,27.46999931335449,17400.0
2020-03-12,26.07999992370605,24.690000534057614,25.5,24.690000534057614,38900.0
2020-03-13,26.34000015258789,24.78000068664551,25.709999084472656,26.27599906921387,80900.0
2020-03-16,25.29999923706055,23.25,23.25,23.66900062561035,22200.0
2020-03-17,25.459999084472656,23.46500015258789,23.93000030517578,25.190000534057614,22100.0
2020-03-18,24.10000038146973,22.85000038146973,23.70000076293945,23.63400077819824,9800.0
2020-03-19,23.739999771118164,23.0,23.11000061035156,23.341999053955078,27900.0
2020-03-20,23.65999984741211,22.18600082397461,23.56999969482422,22.18600082397461,32000.0
2020-03-23,21.96999931335449,20.84000015258789,21.96999931335449,21.100000381469727,38800.0
2020-03-24,22.770000457763672,21.81999969482422,21.81999969482422,22.770000457763672,22200.0
2020-03-25,24.21999931335449,23.035999298095703,23.25,23.40999984741211,23400.0
2020-03-26,25.0,24.298999786376953,24.40500068664551,25.0,31900.0
2020-03-27,25.06999969482422,24.399999618530273,24.399999618530273,24.46500015258789,15500.0
2020-03-30,25.25399971008301,24.5310001373291,24.77599906921387,25.25399971008301,16100.0
2020-03-31,25.229999542236328,24.60000038146973,25.229999542236328,24.68899917602539,28200.0
2020-04-01,24.0,23.51000022888184,23.82999992370605,23.64699935913086,57800.0
2020-04-02,24.26000022888184,23.6299991607666,23.6299991607666,24.26000022888184,13400.0
2020-04-03,23.790000915527344,23.51499938964844,23.71999931335449,23.729999542236328,40300.0
2020-04-06,25.309999465942386,24.63999938964844,24.63999938964844,25.309999465942386,14100.0
2020-04-07,26.059999465942386,25.36100006103516,26.04999923706055,25.36100006103516,23400.0
2020-04-08,26.26000022888184,25.3799991607666,25.63999938964844,26.26000022888184,19700.0
2020-04-09,27.19899940490723,26.79199981689453,27.118999481201172,26.96999931335449,13400.0
2020-04-13,26.959999084472656,26.20000076293945,26.959999084472656,26.420000076293945,12000.0
2020-04-14,27.18000030517578,27.0,27.06999969482422,27.18000030517578,31800.0
2020-04-15,26.559999465942386,26.35000038146973,26.440000534057614,26.35000038146973,24200.0
2020-04-16,26.59000015258789,26.290000915527344,26.43000030517578,26.559999465942386,9300.0
2020-04-17,27.3700008392334,26.959999084472656,27.190000534057614,27.358999252319336,51600.0
2020-04-20,27.190000534057614,26.70000076293945,27.059999465942386,26.76000022888184,17500.0
2020-04-21,26.35000038146973,26.12899971008301,26.35000038146973,26.12899971008301,4000.0
2020-04-22,26.59000015258789,26.34000015258789,26.434999465942386,26.57099914550781,5800.0
2020-04-23,26.82999992370605,26.441999435424805,26.82999992370605,26.441999435424805,4900.0
2020-04-24,26.69899940490723,26.6200008392334,26.649999618530273,26.69899940490723,10700.0
2020-04-27,27.31999969482422,26.86000061035156,26.979999542236328,27.190000534057614,60900.0
2020-04-28,27.56999969482422,27.285999298095703,27.56999969482422,27.285999298095703,2100.0
2020-04-29,27.790000915527344,27.51000022888184,27.51000022888184,27.608999252319336,10400.0
2020-04-30,27.25,27.04999923706055,27.25,27.04999923706055,2100.0
2020-05-01,26.79999923706055,26.38999938964844,26.79999923706055,26.479999542236328,8100.0
2020-05-04,26.57999992370605,26.209999084472656,26.25,26.57999992370605,6300.0
2020-05-05,27.03000068664551,26.790000915527344,26.90999984741211,26.816999435424805,4500.0
2020-05-06,26.71999931335449,26.43400001525879,26.649999618530273,26.43400001525879,11300.0
2020-05-07,26.8799991607666,26.63599967956543,26.82500076293945,26.63599967956543,5100.0
2020-05-08,27.167999267578125,27.01000022888184,27.01000022888184,27.165000915527344,1700.0
2020-05-11,27.25,26.81999969482422,26.81999969482422,27.17300033569336,11900.0
2020-05-12,27.1299991607666,26.649999618530273,27.1299991607666,26.649999618530273,1800.0
2020-05-13,26.36000061035156,25.98699951171875,26.36000061035156,26.09499931335449,7000.0
2020-05-14,26.250999450683594,26.02799987792969,26.02799987792969,26.250999450683594,1100.0
2020-05-15,26.43000030517578,26.20499992370605,26.20499992370605,26.43000030517578,4500.0
2020-05-18,27.42499923706055,27.09000015258789,27.09000015258789,27.35000038146973,3400.0
2020-05-19,27.35000038146973,26.940000534057614,27.20000076293945,26.940000534057614,3200.0
2020-05-20,27.40999984741211,27.290000915527344,27.35000038146973,27.29599952697754,4400.0
2020-05-21,27.28000068664551,27.1200008392334,27.28000068664551,27.13800048828125,9200.0
2020-05-22,27.309999465942386,26.96999931335449,26.96999931335449,27.21999931335449,13800.0
2020-05-26,27.90999984741211,27.57099914550781,27.90999984741211,27.57099914550781,7400.0
2020-05-27,28.09000015258789,27.739999771118164,27.8700008392334,28.04999923706055,4000.0
2020-05-28,28.43000030517578,28.24799919128418,28.399999618530273,28.24799919128418,16900.0
2020-05-29,28.357999801635746,28.069000244140625,28.069000244140625,28.357999801635746,4400.0
2020-06-01,28.59900093078613,28.26000022888184,28.26000022888184,28.48500061035156,3900.0
2020-06-02,28.67099952697754,28.46999931335449,28.51000022888184,28.67099952697754,15000.0
2020-06-03,29.209999084472656,29.04999923706055,29.059999465942386,29.15500068664551,10800.0
2020-06-04,29.11000061035156,28.8799991607666,29.11000061035156,29.040000915527344,2700.0
2020-06-05,29.84000015258789,29.489999771118164,29.489999771118164,29.670000076293945,16900.0
2020-06-08,30.190000534057614,29.854999542236328,29.8700008392334,30.190000534057614,5200.0
2020-06-09,29.940000534057614,29.57999992370605,29.940000534057614,29.57999992370605,18900.0
2020-06-10,29.5,29.270000457763672,29.5,29.319000244140625,18000.0
2020-06-11,28.6200008392334,27.65999984741211,28.6200008392334,27.67200088500977,6200.0
2020-06-12,28.729999542236328,27.57999992370605,28.729999542236328,27.88999938964844,28800.0
2020-06-15,28.17700004577637,27.420000076293945,27.420000076293945,28.11000061035156,11300.0
2020-06-16,28.84000015258789,28.566999435424805,28.84000015258789,28.566999435424805,1600.0
2020-06-17,28.6200008392334,28.459999084472656,28.57999992370605,28.46999931335449,5900.0
2020-06-18,28.53000068664551,28.28000068664551,28.28000068664551,28.459999084472656,7400.0
2020-06-19,28.709999084472656,28.15999984741211,28.709999084472656,28.15999984741211,5700.0
2020-06-22,28.309999465942386,28.15999984741211,28.20000076293945,28.25,168800.0
2020-06-23,28.32900047302246,28.059999465942386,28.31999969482422,28.059999465942386,171200.0
2020-06-24,27.670000076293945,27.309999465942386,27.649999618530273,27.464000701904297,327900.0
2020-06-25,27.60000038146973,27.31999969482422,27.3700008392334,27.60000038146973,16900.0
2020-06-26,27.54999923706055,27.09000015258789,27.54999923706055,27.145999908447266,94100.0
2020-06-29,27.53000068664551,27.131000518798828,27.131000518798828,27.53000068664551,408900.0
2020-06-30,27.989999771118164,27.6299991607666,27.6299991607666,27.940000534057614,51000.0
2020-07-01,28.16399955749512,28.07999992370605,28.149999618530273,28.07999992370605,10200.0
2020-07-02,28.489999771118164,28.16399955749512,28.45000076293945,28.16399955749512,411400.0
2020-07-06,28.38999938964844,28.229999542236328,28.38999938964844,28.309999465942386,156100.0
2020-07-07,28.29999923706055,28.040000915527344,28.239999771118164,28.10000038146973,24000.0
2020-07-08,28.131000518798828,28.01000022888184,28.059999465942386,28.131000518798828,25600.0
2020-07-09,27.90500068664551,27.70800018310547,27.70800018310547,27.81999969482422,15100.0
2020-07-10,28.149999618530273,28.03000068664551,28.045000076293945,28.149999618530273,12600.0
2020-07-13,28.5,28.020000457763672,28.26000022888184,28.020000457763672,25400.0
2020-07-14,28.5,28.26000022888184,28.32200050354004,28.5,19000.0
2020-07-15,28.959999084472656,28.770000457763672,28.93000030517578,28.864999771118164,6200.0
2020-07-16,28.93000030517578,28.809999465942386,28.93000030517578,28.90099906921387,5000.0
2020-07-17,29.239999771118164,29.040000915527344,29.040000915527344,29.19700050354004,8000.0
2020-07-20,29.091999053955078,29.03000068664551,29.04999923706055,29.045000076293945,5500.0
2020-07-21,29.420000076293945,29.06999969482422,29.06999969482422,29.21199989318848,9200.0
2020-07-22,29.459999084472656,29.11000061035156,29.11000061035156,29.440000534057614,3500.0
2020-07-23,29.6200008392334,29.38999938964844,29.584999084472656,29.43000030517578,6500.0
2020-07-24,29.489999771118164,29.239999771118164,29.489999771118164,29.29999923706055,8200.0
2020-07-27,29.381999969482425,29.290000915527344,29.35000038146973,29.381999969482425,5700.0
2020-07-28,29.50200080871582,29.35000038146973,29.50200080871582,29.35000038146973,1500.0
2020-07-29,29.645000457763672,29.5049991607666,29.5049991607666,29.645000457763672,5800.0
2020-07-30,29.520000457763672,29.46999931335449,29.46999931335449,29.489999771118164,1200.0
2020-07-31,29.51300048828125,29.170000076293945,29.51300048828125,29.479999542236328,3200.0
2020-08-03,29.64900016784668,29.56999969482422,29.6200008392334,29.59000015258789,6900.0
2020-08-04,29.714000701904297,29.6299991607666,29.649999618530273,29.714000701904297,3400.0
2020-08-05,29.8700008392334,29.71999931335449,29.791000366210934,29.76099967956543,2700.0
2020-08-06,29.738000869750977,29.6200008392334,29.65999984741211,29.738000869750977,2000.0
2020-08-07,30.0,29.77599906921387,29.77599906921387,29.983999252319336,5400.0
2020-08-10,30.1299991607666,30.0,30.0,30.07900047302246,8500.0
2020-08-11,30.226999282836914,29.827999114990234,30.20000076293945,29.827999114990234,2500.0
2020-08-12,30.239999771118164,29.88999938964844,29.88999938964844,30.145000457763672,5800.0
2020-08-13,30.209999084472656,30.1200008392334,30.209999084472656,30.13500022888184,600.0
2020-08-14,30.082000732421875,30.082000732421875,30.082000732421875,30.082000732421875,100.0
2020-08-17,30.19899940490723,30.13999938964844,30.13999938964844,30.145000457763672,1600.0
2020-08-18,30.14299964904785,30.08699989318848,30.1200008392334,30.08699989318848,5300.0
2020-08-19,30.12800025939941,29.96500015258789,30.10000038146973,29.96500015258789,1100.0
2020-08-20,29.8799991607666,29.85000038146973,29.85000038146973,29.8799991607666,700.0
2020-08-21,29.834999084472656,29.68000030517578,29.75900077819824,29.834999084472656,5700.0
