Date,High,Low,Open,Close,Volume
2019-12-20,25.15999984741211,25.11000061035156,25.11000061035156,25.15099906921387,801500.0
2019-12-23,25.2549991607666,25.207000732421875,25.2549991607666,25.207000732421875,1200.0
2019-12-24,25.190000534057614,25.166000366210934,25.17799949645996,25.16699981689453,1800.0
2019-12-26,25.190000534057614,25.15399932861328,25.15999984741211,25.190000534057614,1200.0
2019-12-27,25.11000061035156,25.02599906921387,25.05400085449219,25.02599906921387,2600.0
2019-12-30,24.96999931335449,24.85000038146973,24.85000038146973,24.87800025939941,1500.0
2019-12-31,25.065000534057614,24.95000076293945,25.01000022888184,25.065000534057614,6100.0
2020-01-02,25.21999931335449,25.1560001373291,25.15999984741211,25.21999931335449,5200.0
2020-01-03,25.07099914550781,24.917999267578125,24.917999267578125,25.05599975585937,2000.0
2020-01-06,25.082000732421875,24.940000534057614,24.940000534057614,25.082000732421875,800.0
2020-01-07,25.209999084472656,25.07699966430664,25.09000015258789,25.197999954223636,5900.0
2020-01-08,25.35000038146973,25.13500022888184,25.13500022888184,25.28199958801269,1900.0
2020-01-09,25.46999931335449,25.29999923706055,25.29999923706055,25.46199989318848,1600.0
2020-01-10,25.535999298095703,25.39900016784668,25.535999298095703,25.39900016784668,3900.0
2020-01-13,25.660999298095703,25.52799987792969,25.54999923706055,25.660999298095703,2100.0
2020-01-14,25.68000030517578,25.57600021362305,25.60000038146973,25.57600021362305,2500.0
2020-01-15,25.670000076293945,25.54999923706055,25.670000076293945,25.54999923706055,3600.0
2020-01-16,25.80100059509277,25.59000015258789,25.649999618530273,25.80100059509277,4000.0
2020-01-17,25.8799991607666,25.82099914550781,25.8700008392334,25.857999801635746,9200.0
2020-01-21,25.959999084472656,25.82999992370605,25.959999084472656,25.85000038146973,3300.0
2020-01-22,25.76000022888184,25.709999084472656,25.709999084472656,25.71500015258789,12900.0
2020-01-23,25.72500038146973,25.60000038146973,25.65999984741211,25.718000411987305,13100.0
2020-01-24,25.8799991607666,25.459999084472656,25.8799991607666,25.483999252319336,7500.0
2020-01-27,25.489999771118164,25.1299991607666,25.1299991607666,25.466999053955078,1400.0
2020-01-28,25.6299991607666,25.562000274658203,25.57999992370605,25.606000900268555,3300.0
2020-01-29,26.09000015258789,25.58799934387207,26.09000015258789,25.6200008392334,3300.0
2020-01-30,25.670000076293945,25.58799934387207,25.58799934387207,25.65500068664551,3500.0
2020-01-31,25.65999984741211,25.59000015258789,25.59000015258789,25.65299987792969,3000.0
2020-02-03,25.71999931335449,25.643999099731445,25.709999084472656,25.649999618530273,20700.0
2020-02-04,25.82999992370605,25.75,25.75,25.80500030517578,3100.0
2020-02-05,25.86000061035156,25.809999465942386,25.83699989318848,25.82500076293945,2600.0
2020-02-06,25.88999938964844,25.87100028991699,25.87100028991699,25.875,1100.0
2020-02-07,25.8799991607666,25.739999771118164,25.739999771118164,25.7549991607666,2400.0
2020-02-10,26.038000106811523,25.729999542236328,25.96999931335449,26.038000106811523,6800.0
2020-02-11,26.22900009155273,25.9950008392334,26.22900009155273,26.02599906921387,15600.0
2020-02-12,26.28000068664551,26.13500022888184,26.149999618530273,26.274999618530273,5900.0
2020-02-13,26.38999938964844,26.190000534057614,26.190000534057614,26.231000900268555,4300.0
2020-02-14,26.29999923706055,26.22500038146973,26.29999923706055,26.28400039672852,900.0
2020-02-18,26.36000061035156,26.2189998626709,26.2189998626709,26.30900001525879,19200.0
2020-02-19,26.61000061035156,26.32999992370605,26.32999992370605,26.56100082397461,9500.0
2020-02-20,26.542999267578125,26.12899971008301,26.542999267578125,26.32099914550781,5800.0
2020-02-21,26.059999465942386,25.8700008392334,26.059999465942386,25.941999435424805,3900.0
2020-02-24,25.90999984741211,25.3129997253418,25.709999084472656,25.3129997253418,63200.0
2020-02-25,25.420000076293945,24.8700008392334,25.395000457763672,24.9060001373291,3400.0
2020-02-26,25.07999992370605,24.684999465942386,25.06999969482422,24.750999450683594,30700.0
2020-02-27,24.739999771118164,24.239999771118164,24.709999084472656,24.399999618530273,20500.0
2020-02-28,24.31800079345703,24.190000534057614,24.190000534057614,24.31800079345703,800.0
2020-03-02,24.70100021362305,24.29999923706055,24.31999969482422,24.70100021362305,7100.0
2020-03-03,24.52899932861328,24.38500022888184,24.52899932861328,24.38500022888184,700.0
2020-03-04,24.79199981689453,24.45599937438965,24.55500030517578,24.79199981689453,1800.0
2020-03-05,24.78000068664551,24.51000022888184,24.78000068664551,24.51000022888184,400.0
2020-03-06,24.459999084472656,24.15500068664551,24.459999084472656,24.28000068664551,2400.0
2020-03-09,24.28000068664551,24.011999130249023,24.1200008392334,24.05500030517578,5200.0
2020-03-10,24.09000015258789,23.96999931335449,23.979999542236328,24.08799934387207,500.0
2020-03-11,24.03000068664551,23.90200042724609,24.03000068664551,23.90200042724609,700.0
2020-03-12,25.559999465942386,23.86199951171875,24.34000015258789,23.89699935913086,2900.0
2020-03-13,24.0,23.9379997253418,23.989999771118164,23.9379997253418,1600.0
2020-03-16,23.81999969482422,23.68099975585937,23.81999969482422,23.6879997253418,900.0
2020-03-17,23.75,23.709999084472656,23.709999084472656,23.72599983215332,600.0
2020-03-18,23.726999282836914,23.726999282836914,23.726999282836914,23.726999282836914,0.0
2020-03-19,24.0,23.73500061035156,23.899999618530273,23.795000076293945,114000.0
2020-03-20,23.71500015258789,23.61100006103516,23.665000915527344,23.61100006103516,300.0
2020-03-23,23.739999771118164,23.49600028991699,23.6200008392334,23.643999099731445,1100.0
2020-03-24,23.940000534057614,23.788000106811523,23.8799991607666,23.8700008392334,14800.0
2020-03-25,23.81999969482422,23.70000076293945,23.70000076293945,23.757999420166016,7500.0
2020-03-26,25.78000068664551,23.756000518798828,25.78000068664551,23.851999282836914,8800.0
2020-03-27,23.82999992370605,23.7450008392334,23.790000915527344,23.76000022888184,7600.0
2020-03-30,23.920000076293945,23.79800033569336,23.84000015258789,23.88800048828125,19300.0
2020-03-31,24.0,23.94899940490723,23.94899940490723,23.96999931335449,51000.0
2020-04-01,23.94499969482422,23.770000457763672,23.94499969482422,23.80400085449219,14700.0
2020-04-02,23.88500022888184,23.81999969482422,23.81999969482422,23.84700012207031,1500.0
2020-04-03,23.899999618530273,23.79999923706055,23.87100028991699,23.82699966430664,30300.0
2020-04-06,24.11000061035156,23.94099998474121,24.059999465942386,24.090999603271484,1900.0
2020-04-07,24.56100082397461,24.035999298095703,24.1200008392334,24.035999298095703,19500.0
2020-04-08,24.670000076293945,24.03000068664551,24.03000068664551,24.6299991607666,22100.0
2020-04-09,24.739999771118164,24.40399932861328,24.739999771118164,24.53899955749512,63600.0
2020-04-13,24.79599952697754,24.368000030517575,24.42499923706055,24.79599952697754,4200.0
2020-04-14,25.979999542236328,24.790000915527344,24.790000915527344,25.91900062561035,17700.0
2020-04-15,25.809999465942386,25.45100021362305,25.809999465942386,25.73699951171875,14400.0
2020-04-16,26.11000061035156,25.46500015258789,25.5,26.02799987792969,21300.0
2020-04-17,27.60000038146973,26.1299991607666,26.149999618530273,26.215999603271484,64400.0
2020-04-20,27.53000068664551,26.024999618530273,27.53000068664551,26.035999298095703,9000.0
2020-04-21,25.899999618530273,25.61199951171875,25.85000038146973,25.888999938964844,14600.0
2020-04-22,26.520000457763672,25.670000076293945,25.670000076293945,25.70499992370605,81700.0
2020-04-23,25.84000015258789,25.77599906921387,25.790000915527344,25.77599906921387,6400.0
2020-04-24,25.920000076293945,25.690000534057614,25.770000457763672,25.920000076293945,22800.0
2020-04-27,26.43000030517578,25.9950008392334,26.43000030517578,25.9950008392334,23500.0
2020-04-28,26.18000030517578,25.770999908447266,26.149999618530273,25.770999908447266,29100.0
2020-04-29,26.229999542236328,25.54999923706055,25.54999923706055,26.19300079345703,14700.0
2020-04-30,26.61000061035156,26.093000411987305,26.61000061035156,26.1879997253418,16400.0
2020-05-01,26.32500076293945,25.84000015258789,26.290000915527344,25.840999603271484,56100.0
2020-05-04,26.770000457763672,25.71999931335449,26.40999984741211,26.04400062561035,101400.0
2020-05-05,26.56999969482422,26.190000534057614,26.56999969482422,26.315000534057614,63200.0
2020-05-06,29.01000022888184,26.395000457763672,27.6299991607666,26.54999923706055,82100.0
2020-05-07,27.10000038146973,26.60000038146973,27.10000038146973,26.67600059509277,36300.0
2020-05-08,27.11000061035156,26.5629997253418,27.11000061035156,26.718000411987305,30400.0
2020-05-11,27.45000076293945,26.670000076293945,26.79999923706055,26.86000061035156,252400.0
2020-05-12,27.239999771118164,26.53899955749512,27.0,26.770000457763672,104600.0
2020-05-13,27.0,25.30599975585937,27.0,25.80100059509277,127200.0
2020-05-14,26.309999465942386,25.28000068664551,25.649999618530273,26.065000534057614,62700.0
2020-05-15,26.209999084472656,25.940000534057614,26.170000076293945,26.15200042724609,62900.0
2020-05-18,26.99900054931641,26.0,26.899999618530273,26.250999450683594,48500.0
2020-05-19,26.399999618530273,26.03000068664551,26.03000068664551,26.32999992370605,22600.0
2020-05-20,27.0,26.1299991607666,27.0,26.28000068664551,38500.0
2020-05-21,26.35000038146973,26.0,26.03000068664551,26.270000457763672,51800.0
2020-05-22,26.34000015258789,26.20000076293945,26.26000022888184,26.34000015258789,28300.0
2020-05-26,26.729999542236328,26.363000869750977,26.729999542236328,26.38999938964844,52600.0
2020-05-27,26.38999938964844,26.15399932861328,26.36000061035156,26.270000457763672,41600.0
2020-05-28,26.38999938964844,26.21999931335449,26.239999771118164,26.309999465942386,30400.0
2020-05-29,26.38999938964844,26.202999114990234,26.270000457763672,26.3799991607666,16900.0
2020-06-01,26.57999992370605,26.309999465942386,26.57999992370605,26.40999984741211,21500.0
2020-06-02,26.489999771118164,26.37800025939941,26.37800025939941,26.489999771118164,27400.0
2020-06-03,26.86000061035156,26.5,26.78000068664551,26.70000076293945,53300.0
2020-06-04,26.85000038146973,26.49099922180176,26.670000076293945,26.591999053955078,36600.0
2020-06-05,26.95000076293945,26.726999282836914,26.93000030517578,26.93000030517578,22400.0
2020-06-08,27.1200008392334,26.81999969482422,26.940000534057614,27.1200008392334,36600.0
2020-06-09,27.520000457763672,27.03000068664551,27.3799991607666,27.32999992370605,61500.0
2020-06-10,28.53000068664551,27.43000030517578,27.5,27.57999992370605,116600.0
2020-06-11,27.399999618530273,26.270000457763672,27.399999618530273,26.270000457763672,54100.0
2020-06-12,26.93899917602539,26.04999923706055,26.79999923706055,26.46999931335449,44500.0
2020-06-15,26.80599975585937,25.989999771118164,26.0,26.71199989318848,36100.0
2020-06-16,27.49900054931641,26.93000030517578,27.309999465942386,27.13999938964844,124300.0
2020-06-17,27.670000076293945,27.239999771118164,27.239999771118164,27.28000068664551,31200.0
2020-06-18,27.45000076293945,27.20000076293945,27.28000068664551,27.35000038146973,32300.0
2020-06-19,27.70000076293945,27.35000038146973,27.479999542236328,27.420000076293945,73500.0
2020-06-22,28.54999923706055,26.75,28.54999923706055,27.45000076293945,83900.0
2020-06-23,27.79999923706055,27.45000076293945,27.60000038146973,27.479999542236328,80500.0
2020-06-24,27.3700008392334,26.95000076293945,27.25,27.13999938964844,60200.0
2020-06-25,27.28000068664551,27.12899971008301,27.13999938964844,27.190000534057614,36100.0
2020-06-26,27.25,27.0,27.25,27.07999992370605,108500.0
2020-06-29,27.149999618530273,27.0,27.13999938964844,27.13500022888184,52000.0
2020-06-30,27.32999992370605,27.04999923706055,27.04999923706055,27.25,38500.0
2020-07-01,27.40999984741211,27.26099967956543,27.34000015258789,27.35700035095215,64000.0
2020-07-02,27.5,27.3799991607666,27.420000076293945,27.420000076293945,594200.0
2020-07-06,27.548999786376953,27.420000076293945,27.540000915527344,27.48500061035156,84300.0
2020-07-07,27.65999984741211,27.20000076293945,27.559999465942386,27.21999931335449,102200.0
2020-07-08,27.6200008392334,27.25,27.479999542236328,27.6200008392334,113700.0
2020-07-09,27.8799991607666,27.420000076293945,27.8700008392334,27.84000015258789,123800.0
2020-07-10,28.01000022888184,27.57999992370605,27.920000076293945,28.01000022888184,66400.0
2020-07-13,28.61000061035156,27.382999420166016,28.25,27.459999084472656,566300.0
2020-07-14,27.57999992370605,26.88999938964844,27.229999542236328,27.57999992370605,87200.0
2020-07-15,27.81999969482422,27.309999465942386,27.78000068664551,27.670000076293945,117400.0
2020-07-16,27.690000534057614,27.10000038146973,27.690000534057614,27.520000457763672,143700.0
2020-07-17,27.51000022888184,27.38999938964844,27.46999931335449,27.479999542236328,56800.0
2020-07-20,27.90500068664551,27.399999618530273,27.399999618530273,27.649999618530273,105100.0
2020-07-21,27.709999084472656,27.524999618530273,27.70000076293945,27.59000015258789,100600.0
2020-07-22,27.5,27.34000015258789,27.5,27.38999938964844,45800.0
2020-07-23,27.45000076293945,27.190000534057614,27.40999984741211,27.229999542236328,135900.0
2020-07-24,27.209999084472656,27.03000068664551,27.03000068664551,27.15999984741211,68500.0
2020-07-27,27.32999992370605,27.20000076293945,27.32999992370605,27.30500030517578,100300.0
2020-07-28,27.38999938964844,27.149999618530273,27.38999938964844,27.17700004577637,619000.0
2020-07-29,27.32999992370605,27.1200008392334,27.1200008392334,27.32999992370605,32700.0
2020-07-30,27.371999740600586,27.170000076293945,27.28000068664551,27.34000015258789,74100.0
2020-07-31,27.78000068664551,27.35000038146973,27.78000068664551,27.43000030517578,75700.0
2020-08-03,27.81999969482422,27.520000457763672,27.81999969482422,27.559999465942386,52100.0
2020-08-04,27.649999618530273,27.559999465942386,27.60000038146973,27.60000038146973,72100.0
2020-08-05,27.729999542236328,27.59000015258789,27.59000015258789,27.65999984741211,64200.0
2020-08-06,27.739999771118164,27.61000061035156,27.65999984741211,27.714000701904297,96000.0
2020-08-07,27.709999084472656,27.209999084472656,27.65999984741211,27.40999984741211,81400.0
2020-08-10,27.60000038146973,27.0,27.5,27.266000747680664,105000.0
2020-08-11,27.364999771118164,26.81800079345703,27.36000061035156,26.86000061035156,218500.0
2020-08-12,27.51499938964844,26.79999923706055,26.79999923706055,27.45000076293945,33900.0
2020-08-13,27.709999084472656,27.45000076293945,27.54999923706055,27.5,71400.0
2020-08-14,27.60000038146973,27.334999084472656,27.5,27.43000030517578,52600.0
2020-08-17,28.25,27.489999771118164,27.489999771118164,27.71999931335449,118100.0
2020-08-18,28.03000068664551,27.7549991607666,27.79999923706055,28.0,91700.0
2020-08-19,28.10000038146973,27.80500030517578,28.0,27.84000015258789,96700.0
2020-08-20,28.290000915527344,27.78000068664551,27.88999938964844,28.239999771118164,58100.0
2020-08-21,28.35000038146973,28.239999771118164,28.35000038146973,28.28000068664551,118500.0
2020-08-24,28.3700008392334,28.26000022888184,28.36000061035156,28.31999969482422,62700.0
2020-08-25,28.38500022888184,28.30500030517578,28.35000038146973,28.344200134277344,37226.0
