Date,High,Low,Open,Close,Volume
2017-09-25,24.96999931335449,24.96999931335449,24.96999931335449,24.96999931335449,0.0
2017-09-26,24.96999931335449,24.96999931335449,24.96999931335449,24.96999931335449,0.0
2017-09-27,24.96999931335449,24.96999931335449,24.96999931335449,24.96999931335449,0.0
2017-09-28,24.979999542236328,24.979999542236328,24.979999542236328,24.979999542236328,1800.0
2017-09-29,24.979999542236328,24.979999542236328,24.979999542236328,24.979999542236328,0.0
2017-10-02,24.979999542236328,24.979999542236328,24.979999542236328,24.979999542236328,0.0
2017-10-03,24.979999542236328,24.979999542236328,24.979999542236328,24.979999542236328,0.0
2017-10-04,24.979999542236328,24.979999542236328,24.979999542236328,24.979999542236328,0.0
2017-10-05,24.979999542236328,24.979999542236328,24.979999542236328,24.979999542236328,0.0
2017-10-06,24.979999542236328,24.979999542236328,24.979999542236328,24.979999542236328,100.0
2017-10-09,24.979999542236328,24.979999542236328,24.979999542236328,24.979999542236328,0.0
2017-10-10,24.979999542236328,24.979999542236328,24.979999542236328,24.979999542236328,0.0
2017-10-11,24.979999542236328,24.979999542236328,24.979999542236328,24.979999542236328,0.0
2017-10-12,24.979999542236328,24.979999542236328,24.979999542236328,24.979999542236328,0.0
2017-10-13,24.979999542236328,24.979999542236328,24.979999542236328,24.979999542236328,0.0
2017-10-16,24.979999542236328,24.979999542236328,24.979999542236328,24.979999542236328,0.0
2017-10-17,24.979999542236328,24.979999542236328,24.979999542236328,24.979999542236328,0.0
2017-10-18,24.979999542236328,24.979999542236328,24.979999542236328,24.979999542236328,0.0
2017-10-19,24.979999542236328,24.979999542236328,24.979999542236328,24.979999542236328,100.0
2017-10-20,24.979999542236328,24.979999542236328,24.979999542236328,24.979999542236328,0.0
2017-10-23,24.979999542236328,24.979999542236328,24.979999542236328,24.979999542236328,0.0
2017-10-24,24.979999542236328,24.979999542236328,24.979999542236328,24.979999542236328,0.0
2017-10-25,24.979999542236328,24.979999542236328,24.979999542236328,24.979999542236328,0.0
2017-10-26,24.979999542236328,24.979999542236328,24.979999542236328,24.979999542236328,0.0
2017-10-27,24.979999542236328,24.979999542236328,24.979999542236328,24.979999542236328,0.0
2017-10-30,24.979999542236328,24.979999542236328,24.979999542236328,24.979999542236328,0.0
2017-10-31,24.979999542236328,24.979999542236328,24.979999542236328,24.979999542236328,0.0
2017-11-01,24.979999542236328,24.979999542236328,24.979999542236328,24.979999542236328,0.0
2017-11-02,24.979999542236328,24.979999542236328,24.979999542236328,24.979999542236328,0.0
2017-11-03,24.979999542236328,24.979999542236328,24.979999542236328,24.979999542236328,0.0
2017-11-06,24.979999542236328,24.979999542236328,24.979999542236328,24.979999542236328,0.0
2017-11-07,24.979999542236328,24.979999542236328,24.979999542236328,24.979999542236328,0.0
2017-11-08,24.979999542236328,24.979999542236328,24.979999542236328,24.979999542236328,0.0
2017-11-09,24.979999542236328,24.979999542236328,24.979999542236328,24.979999542236328,0.0
2017-11-10,24.979999542236328,24.979999542236328,24.979999542236328,24.979999542236328,0.0
2017-11-13,24.979999542236328,24.979999542236328,24.979999542236328,24.979999542236328,0.0
2017-11-14,24.979999542236328,24.979999542236328,24.979999542236328,24.979999542236328,0.0
2017-11-15,24.979999542236328,24.979999542236328,24.979999542236328,24.979999542236328,0.0
2017-11-16,24.979999542236328,24.979999542236328,24.979999542236328,24.979999542236328,0.0
2017-11-17,24.979999542236328,24.979999542236328,24.979999542236328,24.979999542236328,0.0
2017-11-20,24.979999542236328,24.979999542236328,24.979999542236328,24.979999542236328,0.0
2017-11-21,24.979999542236328,24.979999542236328,24.979999542236328,24.979999542236328,0.0
2017-11-22,24.979999542236328,24.979999542236328,24.979999542236328,24.979999542236328,0.0
2017-11-24,24.979999542236328,24.979999542236328,24.979999542236328,24.979999542236328,0.0
2017-11-27,24.979999542236328,24.979999542236328,24.979999542236328,24.979999542236328,0.0
2017-11-28,24.979999542236328,24.979999542236328,24.979999542236328,24.979999542236328,0.0
2017-11-29,24.979999542236328,24.979999542236328,24.979999542236328,24.979999542236328,0.0
2017-11-30,24.979999542236328,24.979999542236328,24.979999542236328,24.979999542236328,0.0
2017-12-01,24.979999542236328,24.979999542236328,24.979999542236328,24.979999542236328,100.0
2017-12-04,24.979999542236328,24.979999542236328,24.979999542236328,24.979999542236328,0.0
2017-12-05,24.979999542236328,24.979999542236328,24.979999542236328,24.979999542236328,0.0
2017-12-06,24.979999542236328,24.979999542236328,24.979999542236328,24.979999542236328,0.0
2017-12-07,24.979999542236328,24.979999542236328,24.979999542236328,24.979999542236328,0.0
2017-12-08,24.979999542236328,24.979999542236328,24.979999542236328,24.979999542236328,0.0
2017-12-11,24.979999542236328,24.979999542236328,24.979999542236328,24.979999542236328,0.0
2017-12-12,24.979999542236328,24.979999542236328,24.979999542236328,24.979999542236328,0.0
2017-12-13,24.979999542236328,24.979999542236328,24.979999542236328,24.979999542236328,0.0
2017-12-14,24.979999542236328,24.979999542236328,24.979999542236328,24.979999542236328,0.0
2017-12-15,24.979999542236328,24.979999542236328,24.979999542236328,24.979999542236328,0.0
2017-12-18,24.979999542236328,24.979999542236328,24.979999542236328,24.979999542236328,0.0
2017-12-19,24.979999542236328,24.979999542236328,24.979999542236328,24.979999542236328,0.0
2017-12-20,24.79999923706055,24.79999923706055,24.79999923706055,24.79999923706055,0.0
2017-12-21,24.79999923706055,24.79999923706055,24.79999923706055,24.79999923706055,0.0
2017-12-22,24.79999923706055,24.79999923706055,24.79999923706055,24.79999923706055,0.0
2017-12-26,24.79999923706055,24.79999923706055,24.79999923706055,24.79999923706055,0.0
2017-12-27,24.79999923706055,24.79999923706055,24.79999923706055,24.79999923706055,0.0
2017-12-28,24.79999923706055,24.79999923706055,24.79999923706055,24.79999923706055,0.0
2017-12-29,24.79999923706055,24.79999923706055,24.79999923706055,24.79999923706055,0.0
2018-01-02,24.79999923706055,24.79999923706055,24.79999923706055,24.79999923706055,0.0
2018-01-03,24.79999923706055,24.79999923706055,24.79999923706055,24.79999923706055,0.0
2018-01-04,24.79999923706055,24.79999923706055,24.79999923706055,24.79999923706055,0.0
2018-01-05,24.79999923706055,24.79999923706055,24.79999923706055,24.79999923706055,0.0
2018-01-08,24.79999923706055,24.79999923706055,24.79999923706055,24.79999923706055,0.0
2018-01-09,24.79999923706055,24.79999923706055,24.79999923706055,24.79999923706055,0.0
2018-01-10,24.79999923706055,24.79999923706055,24.79999923706055,24.79999923706055,0.0
2018-01-11,24.79999923706055,24.79999923706055,24.79999923706055,24.79999923706055,0.0
2018-01-12,24.79999923706055,24.79999923706055,24.79999923706055,24.79999923706055,0.0
2018-01-16,24.79999923706055,24.79999923706055,24.79999923706055,24.79999923706055,0.0
2018-01-17,24.79999923706055,24.79999923706055,24.79999923706055,24.79999923706055,0.0
2018-01-18,24.79999923706055,24.79999923706055,24.79999923706055,24.79999923706055,0.0
2018-01-19,24.79999923706055,24.79999923706055,24.79999923706055,24.79999923706055,0.0
2018-01-22,24.79999923706055,24.79999923706055,24.79999923706055,24.79999923706055,0.0
2018-01-23,24.79999923706055,24.79999923706055,24.79999923706055,24.79999923706055,0.0
2018-01-24,24.79999923706055,24.79999923706055,24.79999923706055,24.79999923706055,0.0
2018-01-25,24.79999923706055,24.79999923706055,24.79999923706055,24.79999923706055,0.0
2018-01-26,24.79999923706055,24.79999923706055,24.79999923706055,24.79999923706055,0.0
2018-01-29,24.79999923706055,24.79999923706055,24.79999923706055,24.79999923706055,0.0
2018-01-30,24.79999923706055,24.79999923706055,24.79999923706055,24.79999923706055,0.0
2018-01-31,24.78000068664551,24.78000068664551,24.78000068664551,24.78000068664551,1600.0
2018-02-01,24.71999931335449,24.70000076293945,24.709999084472656,24.70000076293945,8200.0
2018-02-02,24.70000076293945,24.70000076293945,24.70000076293945,24.70000076293945,0.0
2018-02-05,24.70000076293945,24.70000076293945,24.70000076293945,24.70000076293945,0.0
2018-02-06,24.70000076293945,24.70000076293945,24.70000076293945,24.70000076293945,0.0
2018-02-07,24.70000076293945,24.70000076293945,24.70000076293945,24.70000076293945,0.0
2018-02-08,24.70000076293945,24.70000076293945,24.70000076293945,24.70000076293945,0.0
2018-02-09,24.70000076293945,24.70000076293945,24.70000076293945,24.70000076293945,0.0
2018-02-12,24.70000076293945,24.70000076293945,24.70000076293945,24.70000076293945,0.0
2018-02-13,24.71999931335449,24.71999931335449,24.71999931335449,24.71999931335449,1000.0
2018-02-14,24.739999771118164,24.739999771118164,24.739999771118164,24.739999771118164,100.0
2018-02-15,24.739999771118164,24.739999771118164,24.739999771118164,24.739999771118164,0.0
2018-02-16,24.739999771118164,24.739999771118164,24.739999771118164,24.739999771118164,0.0
2018-02-20,24.739999771118164,24.739999771118164,24.739999771118164,24.739999771118164,0.0
2018-02-21,24.739999771118164,24.739999771118164,24.739999771118164,24.739999771118164,0.0
2018-02-22,24.75,24.75,24.75,24.75,100.0
2018-02-23,24.75,24.75,24.75,24.75,0.0
2018-02-26,24.79999923706055,24.79999923706055,24.79999923706055,24.79999923706055,200.0
2018-02-27,24.79999923706055,24.79999923706055,24.79999923706055,24.79999923706055,0.0
2018-02-28,24.79999923706055,24.79999923706055,24.79999923706055,24.79999923706055,0.0
2018-03-01,24.79999923706055,24.79999923706055,24.79999923706055,24.79999923706055,0.0
2018-03-02,24.79999923706055,24.79999923706055,24.79999923706055,24.79999923706055,0.0
2018-03-05,24.79999923706055,24.79999923706055,24.79999923706055,24.79999923706055,0.0
2018-03-06,24.79999923706055,24.79999923706055,24.79999923706055,24.79999923706055,0.0
2018-03-07,24.79999923706055,24.79999923706055,24.79999923706055,24.79999923706055,0.0
2018-03-08,24.79999923706055,24.79999923706055,24.79999923706055,24.79999923706055,0.0
2018-03-09,24.79999923706055,24.79999923706055,24.79999923706055,24.79999923706055,0.0
2018-03-12,24.79999923706055,24.79999923706055,24.79999923706055,24.79999923706055,0.0
2018-03-13,24.79999923706055,24.79999923706055,24.79999923706055,24.79999923706055,0.0
2018-03-14,24.79999923706055,24.79999923706055,24.79999923706055,24.79999923706055,0.0
2018-03-15,24.79999923706055,24.79999923706055,24.79999923706055,24.79999923706055,0.0
2018-03-16,24.79999923706055,24.79999923706055,24.79999923706055,24.79999923706055,0.0
2018-03-19,24.79999923706055,24.79999923706055,24.79999923706055,24.79999923706055,0.0
2018-03-20,24.79999923706055,24.79999923706055,24.79999923706055,24.79999923706055,0.0
2018-03-21,24.79999923706055,24.79999923706055,24.79999923706055,24.79999923706055,0.0
2018-03-22,24.79999923706055,24.79999923706055,24.79999923706055,24.79999923706055,0.0
2018-03-23,24.79999923706055,24.79999923706055,24.79999923706055,24.79999923706055,0.0
2018-03-26,24.8700008392334,24.8700008392334,24.8700008392334,24.8700008392334,1400.0
2018-03-27,24.8700008392334,24.8700008392334,24.8700008392334,24.8700008392334,0.0
2018-03-28,24.8799991607666,24.8799991607666,24.8799991607666,24.8799991607666,400.0
2018-03-29,24.8799991607666,24.8799991607666,24.8799991607666,24.8799991607666,0.0
2018-04-02,24.8799991607666,24.8799991607666,24.8799991607666,24.8799991607666,0.0
2018-04-03,24.8799991607666,24.8799991607666,24.8799991607666,24.8799991607666,0.0
2018-04-04,24.8799991607666,24.8799991607666,24.8799991607666,24.8799991607666,0.0
2018-04-05,24.8799991607666,24.8799991607666,24.8799991607666,24.8799991607666,0.0
2018-04-06,24.8799991607666,24.8799991607666,24.8799991607666,24.8799991607666,0.0
2018-04-09,24.8799991607666,24.8799991607666,24.8799991607666,24.8799991607666,0.0
2018-04-10,24.8799991607666,24.8799991607666,24.8799991607666,24.8799991607666,0.0
2018-04-11,24.8799991607666,24.8799991607666,24.8799991607666,24.8799991607666,0.0
2018-04-12,24.8799991607666,24.8799991607666,24.8799991607666,24.8799991607666,0.0
2018-04-13,24.8799991607666,24.8799991607666,24.8799991607666,24.8799991607666,0.0
2018-04-16,24.8799991607666,24.8799991607666,24.8799991607666,24.8799991607666,0.0
2018-04-17,24.8799991607666,24.8799991607666,24.8799991607666,24.8799991607666,0.0
2018-04-18,24.8799991607666,24.8799991607666,24.8799991607666,24.8799991607666,0.0
2018-04-19,24.8799991607666,24.8799991607666,24.8799991607666,24.8799991607666,0.0
2018-04-20,24.8799991607666,24.8799991607666,24.8799991607666,24.8799991607666,0.0
2018-04-23,24.8799991607666,24.8799991607666,24.8799991607666,24.8799991607666,0.0
2018-04-24,24.8799991607666,24.8799991607666,24.8799991607666,24.8799991607666,0.0
2018-04-25,24.8799991607666,24.8799991607666,24.8799991607666,24.8799991607666,0.0
2018-04-26,24.8799991607666,24.8799991607666,24.8799991607666,24.8799991607666,0.0
2018-04-27,24.8799991607666,24.8799991607666,24.8799991607666,24.8799991607666,0.0
2018-04-30,24.8799991607666,24.8799991607666,24.8799991607666,24.8799991607666,0.0
2018-05-01,24.8799991607666,24.8799991607666,24.8799991607666,24.8799991607666,0.0
2018-05-02,24.8799991607666,24.8799991607666,24.8799991607666,24.8799991607666,0.0
2018-05-03,24.8799991607666,24.8799991607666,24.8799991607666,24.8799991607666,100.0
2018-05-04,24.8799991607666,24.8799991607666,24.8799991607666,24.8799991607666,0.0
2018-05-07,24.899999618530273,24.899999618530273,24.899999618530273,24.899999618530273,600.0
2018-05-08,24.8799991607666,24.8799991607666,24.8799991607666,24.8799991607666,100.0
2018-05-09,24.8799991607666,24.8799991607666,24.8799991607666,24.8799991607666,100.0
2018-05-10,24.88999938964844,24.88999938964844,24.88999938964844,24.88999938964844,200.0
2018-05-11,24.88999938964844,24.88999938964844,24.88999938964844,24.88999938964844,400.0
2018-05-14,24.88999938964844,24.88999938964844,24.88999938964844,24.88999938964844,0.0
2018-05-15,24.88999938964844,24.88999938964844,24.88999938964844,24.88999938964844,0.0
2018-05-16,24.88999938964844,24.88999938964844,24.88999938964844,24.88999938964844,0.0
2018-05-17,24.8799991607666,24.8799991607666,24.8799991607666,24.8799991607666,400.0
2018-05-18,24.8799991607666,24.8799991607666,24.8799991607666,24.8799991607666,0.0
2018-05-21,24.8799991607666,24.8799991607666,24.8799991607666,24.8799991607666,100.0
2018-05-22,24.8799991607666,24.8799991607666,24.8799991607666,24.8799991607666,0.0
2018-05-23,24.8799991607666,24.8799991607666,24.8799991607666,24.8799991607666,0.0
2018-05-24,24.8799991607666,24.8799991607666,24.8799991607666,24.8799991607666,0.0
2018-05-25,24.8799991607666,24.8799991607666,24.8799991607666,24.8799991607666,100.0
2018-05-29,24.8799991607666,24.8799991607666,24.8799991607666,24.8799991607666,0.0
2018-05-30,24.917999267578125,24.88999938964844,24.917999267578125,24.88999938964844,1200.0
2018-05-31,24.88999938964844,24.88999938964844,24.88999938964844,24.88999938964844,0.0
2018-06-01,24.88999938964844,24.88999938964844,24.88999938964844,24.88999938964844,0.0
2018-06-04,24.88999938964844,24.88999938964844,24.88999938964844,24.88999938964844,0.0
2018-06-05,24.88999938964844,24.88999938964844,24.88999938964844,24.88999938964844,0.0
2018-06-06,24.82999992370605,24.81999969482422,24.82999992370605,24.81999969482422,800.0
2018-06-07,24.81999969482422,24.81999969482422,24.81999969482422,24.81999969482422,0.0
2018-06-08,24.81999969482422,24.81999969482422,24.81999969482422,24.81999969482422,0.0
2018-06-11,24.81999969482422,24.81999969482422,24.81999969482422,24.81999969482422,0.0
2018-06-12,24.81999969482422,24.81999969482422,24.81999969482422,24.81999969482422,0.0
2018-06-13,24.81999969482422,24.81999969482422,24.81999969482422,24.81999969482422,0.0
2018-06-14,24.81999969482422,24.81999969482422,24.81999969482422,24.81999969482422,0.0
2018-06-15,24.81999969482422,24.81999969482422,24.81999969482422,24.81999969482422,0.0
2018-06-18,24.52899932861328,24.52899932861328,24.52899932861328,24.52899932861328,100.0
2018-06-19,24.52899932861328,24.52899932861328,24.52899932861328,24.52899932861328,0.0
2018-06-20,24.57999992370605,24.57999992370605,24.57999992370605,24.57999992370605,100.0
2018-06-21,24.57999992370605,24.57999992370605,24.57999992370605,24.57999992370605,0.0
2018-06-22,24.57999992370605,24.57999992370605,24.57999992370605,24.57999992370605,0.0
2018-06-25,24.57999992370605,24.57999992370605,24.57999992370605,24.57999992370605,0.0
2018-06-26,24.57999992370605,24.57999992370605,24.57999992370605,24.57999992370605,0.0
2018-06-27,24.57999992370605,24.57999992370605,24.57999992370605,24.57999992370605,0.0
2018-06-28,24.57999992370605,24.57999992370605,24.57999992370605,24.57999992370605,0.0
2018-06-29,24.57999992370605,24.57999992370605,24.57999992370605,24.57999992370605,0.0
2018-07-02,24.729999542236328,24.729999542236328,24.729999542236328,24.729999542236328,100.0
2018-07-03,24.729999542236328,24.729999542236328,24.729999542236328,24.729999542236328,0.0
2018-07-05,24.729999542236328,24.729999542236328,24.729999542236328,24.729999542236328,0.0
2018-07-06,24.729999542236328,24.729999542236328,24.729999542236328,24.729999542236328,0.0
2018-07-09,24.729999542236328,24.729999542236328,24.729999542236328,24.729999542236328,0.0
2018-07-10,24.729999542236328,24.729999542236328,24.729999542236328,24.729999542236328,0.0
2018-07-11,24.729999542236328,24.729999542236328,24.729999542236328,24.729999542236328,0.0
2018-07-12,24.729999542236328,24.729999542236328,24.729999542236328,24.729999542236328,0.0
2018-07-13,24.729999542236328,24.729999542236328,24.729999542236328,24.729999542236328,0.0
2018-07-16,24.729999542236328,24.729999542236328,24.729999542236328,24.729999542236328,0.0
2018-07-17,24.729999542236328,24.729999542236328,24.729999542236328,24.729999542236328,0.0
2018-07-18,24.729999542236328,24.729999542236328,24.729999542236328,24.729999542236328,0.0
2018-07-19,24.729999542236328,24.729999542236328,24.729999542236328,24.729999542236328,0.0
2018-07-20,24.729999542236328,24.729999542236328,24.729999542236328,24.729999542236328,0.0
2018-07-23,24.729999542236328,24.729999542236328,24.729999542236328,24.729999542236328,100.0
2018-07-24,24.649999618530273,24.649999618530273,24.649999618530273,24.649999618530273,300.0
2018-07-25,24.631999969482425,24.61000061035156,24.631999969482425,24.61000061035156,400.0
2018-07-26,24.61000061035156,24.61000061035156,24.61000061035156,24.61000061035156,0.0
2018-07-27,24.61000061035156,24.61000061035156,24.61000061035156,24.61000061035156,0.0
2018-07-30,24.61000061035156,24.61000061035156,24.61000061035156,24.61000061035156,0.0
2018-07-31,24.61000061035156,24.61000061035156,24.61000061035156,24.61000061035156,0.0
2018-08-01,24.61000061035156,24.61000061035156,24.61000061035156,24.61000061035156,0.0
2018-08-02,24.61000061035156,24.61000061035156,24.61000061035156,24.61000061035156,0.0
2018-08-03,24.68000030517578,24.642000198364254,24.68000030517578,24.642000198364254,2400.0
2018-08-06,24.642000198364254,24.642000198364254,24.642000198364254,24.642000198364254,0.0
2018-08-07,24.642000198364254,24.642000198364254,24.642000198364254,24.642000198364254,0.0
2018-08-08,24.642000198364254,24.642000198364254,24.642000198364254,24.642000198364254,0.0
2018-08-09,24.690000534057614,24.68899917602539,24.68899917602539,24.690000534057614,800.0
2018-08-10,24.690000534057614,24.690000534057614,24.690000534057614,24.690000534057614,0.0
2018-08-13,24.690000534057614,24.690000534057614,24.690000534057614,24.690000534057614,0.0
2018-08-14,24.690000534057614,24.690000534057614,24.690000534057614,24.690000534057614,0.0
2018-08-15,24.690000534057614,24.690000534057614,24.690000534057614,24.690000534057614,0.0
2018-08-16,24.690000534057614,24.690000534057614,24.690000534057614,24.690000534057614,0.0
2018-08-17,24.690000534057614,24.690000534057614,24.690000534057614,24.690000534057614,0.0
2018-08-20,24.76000022888184,24.75,24.75,24.76000022888184,400.0
2018-08-21,24.70000076293945,24.690000534057614,24.70000076293945,24.690000534057614,300.0
2018-08-22,24.690000534057614,24.690000534057614,24.690000534057614,24.690000534057614,0.0
2018-08-23,24.690000534057614,24.690000534057614,24.690000534057614,24.690000534057614,0.0
2018-08-24,24.79999923706055,24.790000915527344,24.790000915527344,24.79999923706055,700.0
2018-08-27,24.79999923706055,24.79999923706055,24.79999923706055,24.79999923706055,200.0
2018-08-28,24.79999923706055,24.79999923706055,24.79999923706055,24.79999923706055,0.0
2018-08-29,24.79999923706055,24.79999923706055,24.79999923706055,24.79999923706055,0.0
2018-08-30,24.79999923706055,24.79999923706055,24.79999923706055,24.79999923706055,0.0
2018-08-31,24.79999923706055,24.79999923706055,24.79999923706055,24.79999923706055,200.0
2018-09-04,24.79999923706055,24.79999923706055,24.79999923706055,24.79999923706055,0.0
2018-09-05,24.78000068664551,24.78000068664551,24.78000068664551,24.78000068664551,100.0
2018-09-06,24.78000068664551,24.78000068664551,24.78000068664551,24.78000068664551,0.0
2018-09-07,24.78000068664551,24.78000068664551,24.78000068664551,24.78000068664551,0.0
2018-09-10,24.76000022888184,24.76000022888184,24.76000022888184,24.76000022888184,200.0
2018-09-11,24.76000022888184,24.76000022888184,24.76000022888184,24.76000022888184,0.0
2018-09-12,24.76000022888184,24.76000022888184,24.76000022888184,24.76000022888184,0.0
2018-09-13,24.729999542236328,24.729999542236328,24.729999542236328,24.729999542236328,200.0
2018-09-14,24.709999084472656,24.649999618530273,24.649999618530273,24.709999084472656,200.0
2018-09-17,24.709999084472656,24.709999084472656,24.709999084472656,24.709999084472656,0.0
2018-09-18,24.709999084472656,24.709999084472656,24.709999084472656,24.709999084472656,0.0
2018-09-19,24.709999084472656,24.709999084472656,24.709999084472656,24.709999084472656,0.0
2018-09-20,24.709999084472656,24.709999084472656,24.709999084472656,24.709999084472656,0.0
2018-09-21,24.709999084472656,24.709999084472656,24.709999084472656,24.709999084472656,0.0
2018-09-24,24.51000022888184,24.51000022888184,24.51000022888184,24.51000022888184,100.0
2018-09-25,24.51000022888184,24.51000022888184,24.51000022888184,24.51000022888184,0.0
2018-09-26,24.51000022888184,24.51000022888184,24.51000022888184,24.51000022888184,0.0
2018-09-27,24.51000022888184,24.51000022888184,24.51000022888184,24.51000022888184,0.0
2018-09-28,24.51000022888184,24.51000022888184,24.51000022888184,24.51000022888184,0.0
2018-10-01,24.51000022888184,24.51000022888184,24.51000022888184,24.51000022888184,0.0
2018-10-02,24.51000022888184,24.51000022888184,24.51000022888184,24.51000022888184,0.0
2018-10-03,24.51000022888184,24.51000022888184,24.51000022888184,24.51000022888184,0.0
2018-10-04,24.51000022888184,24.51000022888184,24.51000022888184,24.51000022888184,0.0
2018-10-05,24.51000022888184,24.51000022888184,24.51000022888184,24.51000022888184,0.0
2018-10-08,24.51000022888184,24.51000022888184,24.51000022888184,24.51000022888184,0.0
2018-10-09,24.5,24.48900032043457,24.5,24.48900032043457,600.0
2018-10-10,24.48900032043457,24.48900032043457,24.48900032043457,24.48900032043457,0.0
2018-10-11,24.48900032043457,24.48900032043457,24.48900032043457,24.48900032043457,0.0
2018-10-12,24.48900032043457,24.48900032043457,24.48900032043457,24.48900032043457,0.0
2018-10-15,24.479999542236328,24.479999542236328,24.479999542236328,24.479999542236328,200.0
2018-10-16,24.479999542236328,24.479999542236328,24.479999542236328,24.479999542236328,0.0
2018-10-17,24.479999542236328,24.479999542236328,24.479999542236328,24.479999542236328,0.0
2018-10-18,24.479999542236328,24.479999542236328,24.479999542236328,24.479999542236328,0.0
2018-10-19,24.479999542236328,24.479999542236328,24.479999542236328,24.479999542236328,0.0
2018-10-22,24.479999542236328,24.479999542236328,24.479999542236328,24.479999542236328,100.0
2018-10-23,24.479999542236328,24.479999542236328,24.479999542236328,24.479999542236328,0.0
2018-10-24,24.479999542236328,24.479999542236328,24.479999542236328,24.479999542236328,0.0
2018-10-25,24.479999542236328,24.479999542236328,24.479999542236328,24.479999542236328,0.0
2018-10-26,24.479999542236328,24.479999542236328,24.479999542236328,24.479999542236328,100.0
2018-10-29,24.479999542236328,24.479999542236328,24.479999542236328,24.479999542236328,0.0
2018-10-30,24.479999542236328,24.479999542236328,24.479999542236328,24.479999542236328,0.0
2018-10-31,24.479999542236328,24.479999542236328,24.479999542236328,24.479999542236328,0.0
2018-11-01,24.3700008392334,24.36000061035156,24.3700008392334,24.36000061035156,400.0
2018-11-02,24.36000061035156,24.36000061035156,24.36000061035156,24.36000061035156,0.0
2018-11-05,24.36000061035156,24.36000061035156,24.36000061035156,24.36000061035156,0.0
2018-11-06,24.36000061035156,24.36000061035156,24.36000061035156,24.36000061035156,0.0
2018-11-07,24.36000061035156,24.36000061035156,24.36000061035156,24.36000061035156,0.0
2018-11-08,24.399999618530273,24.38999938964844,24.38999938964844,24.399999618530273,200.0
2018-11-09,24.399999618530273,24.399999618530273,24.399999618530273,24.399999618530273,0.0
2018-11-12,24.420000076293945,24.420000076293945,24.420000076293945,24.420000076293945,200.0
2018-11-13,24.420000076293945,24.420000076293945,24.420000076293945,24.420000076293945,100.0
2018-11-14,24.43000030517578,24.420000076293945,24.420000076293945,24.43000030517578,200.0
2018-11-15,24.6200008392334,24.440000534057614,24.440000534057614,24.6200008392334,600.0
2018-11-16,24.489999771118164,24.479999542236328,24.479999542236328,24.479999542236328,400.0
2018-11-19,24.479999542236328,24.479999542236328,24.479999542236328,24.479999542236328,100.0
2018-11-20,24.479999542236328,24.479999542236328,24.479999542236328,24.479999542236328,0.0
2018-11-21,24.479999542236328,24.479999542236328,24.479999542236328,24.479999542236328,0.0
2018-11-23,24.43000030517578,24.40999984741211,24.43000030517578,24.40999984741211,600.0
2018-11-26,24.420000076293945,24.381999969482425,24.40999984741211,24.40999984741211,8100.0
2018-11-27,24.40999984741211,24.40999984741211,24.40999984741211,24.40999984741211,0.0
2018-11-28,24.40999984741211,24.40999984741211,24.40999984741211,24.40999984741211,300.0
2018-11-29,24.45000076293945,24.42600059509277,24.42600059509277,24.45000076293945,400.0
2018-11-30,24.45000076293945,24.440000534057614,24.45000076293945,24.440000534057614,200.0
2018-12-03,24.3799991607666,24.3799991607666,24.3799991607666,24.3799991607666,200.0
2018-12-04,24.3799991607666,24.3799991607666,24.3799991607666,24.3799991607666,0.0
2018-12-06,24.3799991607666,24.3799991607666,24.3799991607666,24.3799991607666,0.0
2018-12-07,24.3799991607666,24.3799991607666,24.3799991607666,24.3799991607666,0.0
2018-12-10,24.3799991607666,24.3799991607666,24.3799991607666,24.3799991607666,0.0
2018-12-11,24.38999938964844,24.364999771118164,24.38999938964844,24.364999771118164,300.0
2018-12-12,24.364999771118164,24.364999771118164,24.364999771118164,24.364999771118164,0.0
2018-12-13,24.43000030517578,24.38999938964844,24.43000030517578,24.38999938964844,2600.0
2018-12-14,24.38999938964844,24.38999938964844,24.38999938964844,24.38999938964844,0.0
2018-12-17,24.38999938964844,24.38999938964844,24.38999938964844,24.38999938964844,0.0
2018-12-18,24.38999938964844,24.38999938964844,24.38999938964844,24.38999938964844,0.0
2018-12-19,24.38999938964844,24.38999938964844,24.38999938964844,24.38999938964844,0.0
2018-12-20,24.38999938964844,24.38999938964844,24.38999938964844,24.38999938964844,0.0
2018-12-21,24.38999938964844,24.38999938964844,24.38999938964844,24.38999938964844,0.0
2018-12-24,24.29999923706055,24.26000022888184,24.270000457763672,24.29999923706055,500.0
2018-12-26,24.29999923706055,24.29999923706055,24.29999923706055,24.29999923706055,0.0
2018-12-27,24.32999992370605,24.32999992370605,24.32999992370605,24.32999992370605,0.0
2018-12-28,24.35000038146973,24.34000015258789,24.34000015258789,24.34499931335449,900.0
2018-12-31,24.34499931335449,24.34499931335449,24.34499931335449,24.34499931335449,0.0
2019-01-02,24.3700008392334,24.3700008392334,24.3700008392334,24.3700008392334,0.0
2019-01-03,24.3700008392334,24.3700008392334,24.3700008392334,24.3700008392334,0.0
2019-01-04,24.46999931335449,24.42499923706055,24.46999931335449,24.42499923706055,300.0
2019-01-07,24.420000076293945,24.420000076293945,24.420000076293945,24.420000076293945,100.0
2019-01-08,24.420000076293945,24.420000076293945,24.420000076293945,24.420000076293945,0.0
2019-01-09,24.5,24.420000076293945,24.44700050354004,24.46500015258789,14100.0
2019-01-10,24.481000900268555,24.46299934387207,24.464000701904297,24.46299934387207,1300.0
2019-01-11,24.53000068664551,24.47400093078613,24.520000457763672,24.489999771118164,5600.0
2019-01-14,24.520000457763672,24.43000030517578,24.520000457763672,24.5,5500.0
2019-01-15,24.5,24.441999435424805,24.5,24.46500015258789,6000.0
2019-01-16,24.5,24.44599914550781,24.479999542236328,24.48500061035156,14000.0
2019-01-17,24.479999542236328,24.440000534057614,24.479999542236328,24.440000534057614,6800.0
2019-01-18,24.489999771118164,24.440000534057614,24.45400047302246,24.44499969482422,24800.0
2019-01-22,24.479999542236328,24.440000534057614,24.46999931335449,24.440000534057614,2100.0
2019-01-23,24.46999931335449,24.43000030517578,24.433000564575195,24.43000030517578,6200.0
2019-01-24,24.45000076293945,24.45000076293945,24.45000076293945,24.45000076293945,100.0
2019-01-25,24.479999542236328,24.423999786376953,24.45400047302246,24.440000534057614,2700.0
2019-01-28,24.45000076293945,24.420000076293945,24.45000076293945,24.420000076293945,1600.0
2019-01-29,24.489999771118164,24.44499969482422,24.47900009155273,24.44499969482422,16600.0
2019-01-30,24.56999969482422,24.45000076293945,24.49900054931641,24.524999618530273,21400.0
2019-01-31,24.60000038146973,24.52599906921387,24.56999969482422,24.565000534057614,22100.0
2019-02-01,24.59000015258789,24.51000022888184,24.54999923706055,24.569000244140625,14800.0
2019-02-04,24.56999969482422,24.47100067138672,24.47100067138672,24.524999618530273,28400.0
2019-02-05,24.569000244140625,24.489999771118164,24.559999465942386,24.5310001373291,4400.0
2019-02-06,24.59000015258789,24.53499984741211,24.59000015258789,24.56999969482422,17600.0
2019-02-07,24.59000015258789,24.545000076293945,24.57500076293945,24.545000076293945,2000.0
2019-02-08,24.60000038146973,24.559999465942386,24.559999465942386,24.559999465942386,2900.0
2019-02-11,24.56999969482422,24.520000457763672,24.54999923706055,24.53000068664551,2600.0
2019-02-12,24.57999992370605,24.540000915527344,24.56999969482422,24.540000915527344,8600.0
2019-02-13,24.57699966430664,24.54999923706055,24.54999923706055,24.57699966430664,1800.0
2019-02-14,24.57999992370605,24.57999992370605,24.57999992370605,24.57999992370605,100.0
2019-02-15,24.6200008392334,24.566999435424805,24.566999435424805,24.584999084472656,4000.0
2019-02-19,24.63999938964844,24.583999633789066,24.63999938964844,24.59499931335449,2100.0
2019-02-20,24.64900016784668,24.591999053955078,24.618000030517575,24.60000038146973,900.0
2019-02-21,24.59499931335449,24.59499931335449,24.59499931335449,24.59499931335449,300.0
2019-02-22,24.68000030517578,24.61000061035156,24.61000061035156,24.63500022888184,22600.0
2019-02-25,24.65999984741211,24.61000061035156,24.649999618530273,24.61000061035156,2600.0
2019-02-26,24.665000915527344,24.6299991607666,24.665000915527344,24.6299991607666,1000.0
2019-02-27,24.65999984741211,24.6200008392334,24.6200008392334,24.6200008392334,4200.0
2019-02-28,24.649999618530273,24.6299991607666,24.63500022888184,24.6299991607666,8700.0
2019-03-01,24.63999938964844,24.59000015258789,24.63999938964844,24.61000061035156,3400.0
2019-03-04,24.584999084472656,24.566999435424805,24.566999435424805,24.584999084472656,100.0
2019-03-05,24.6200008392334,24.584999084472656,24.6200008392334,24.584999084472656,100.0
2019-03-06,24.60000038146973,24.60000038146973,24.60000038146973,24.60000038146973,100.0
2019-03-07,24.670000076293945,24.63999938964844,24.670000076293945,24.63999938964844,700.0
2019-03-08,24.690000534057614,24.63999938964844,24.670000076293945,24.649999618530273,7300.0
2019-03-11,24.690000534057614,24.65999984741211,24.690000534057614,24.65999984741211,300.0
2019-03-12,24.670000076293945,24.665000915527344,24.665000915527344,24.670000076293945,800.0
2019-03-13,24.670000076293945,24.670000076293945,24.670000076293945,24.670000076293945,0.0
2019-03-14,24.729999542236328,24.68400001525879,24.729999542236328,24.69700050354004,1600.0
2019-03-15,24.72900009155273,24.71500015258789,24.72900009155273,24.71500015258789,2000.0
2019-03-18,24.72500038146973,24.72500038146973,24.72500038146973,24.72500038146973,100.0
2019-03-19,24.709999084472656,24.709999084472656,24.709999084472656,24.709999084472656,0.0
2019-03-20,24.757999420166016,24.757999420166016,24.757999420166016,24.757999420166016,100.0
2019-03-21,24.78000068664551,24.78000068664551,24.78000068664551,24.78000068664551,100.0
2019-03-22,24.78499984741211,24.78499984741211,24.78499984741211,24.78499984741211,100.0
2019-03-25,24.79999923706055,24.79999923706055,24.79999923706055,24.79999923706055,100.0
2019-03-26,24.82999992370605,24.76099967956543,24.82999992370605,24.79999923706055,2200.0
2019-03-27,24.82999992370605,24.792999267578125,24.82999992370605,24.792999267578125,900.0
2019-03-28,24.79999923706055,24.774999618530273,24.79999923706055,24.774999618530273,400.0
2019-03-29,24.81999969482422,24.774999618530273,24.774999618530273,24.78000068664551,2500.0
2019-04-01,24.81999969482422,24.774999618530273,24.809999465942386,24.774999618530273,1600.0
2019-04-02,24.81999969482422,24.7549991607666,24.7549991607666,24.78499984741211,3000.0
2019-04-03,24.770000457763672,24.770000457763672,24.770000457763672,24.770000457763672,100.0
2019-04-04,24.81999969482422,24.774999618530273,24.809999465942386,24.774999618530273,500.0
2019-04-05,24.78000068664551,24.78000068664551,24.78000068664551,24.78000068664551,200.0
2019-04-08,24.809999465942386,24.75300025939941,24.75300025939941,24.78000068664551,1300.0
2019-04-09,24.790000915527344,24.7810001373291,24.7810001373291,24.790000915527344,300.0
2019-04-10,24.82999992370605,24.82999992370605,24.82999992370605,24.82999992370605,0.0
2019-04-11,24.809999465942386,24.80400085449219,24.80400085449219,24.809999465942386,1800.0
2019-04-12,24.85000038146973,24.78400039672852,24.84000015258789,24.80500030517578,3200.0
2019-04-15,24.81599998474121,24.785999298095703,24.785999298095703,24.80500030517578,1000.0
2019-04-16,24.80400085449219,24.750999450683594,24.750999450683594,24.790000915527344,500.0
2019-04-17,24.85000038146973,24.774999618530273,24.84000015258789,24.79999923706055,1900.0
2019-04-18,24.815000534057614,24.815000534057614,24.815000534057614,24.815000534057614,1600.0
2019-04-22,24.834999084472656,24.834999084472656,24.834999084472656,24.834999084472656,0.0
2019-04-23,24.854999542236328,24.854999542236328,24.854999542236328,24.854999542236328,200.0
2019-04-24,24.895000457763672,24.8799991607666,24.89299964904785,24.8799991607666,2600.0
2019-04-25,24.8799991607666,24.8799991607666,24.8799991607666,24.8799991607666,100.0
2019-04-26,24.89800071716309,24.85400009155273,24.85400009155273,24.88999938964844,400.0
2019-04-29,24.920000076293945,24.88500022888184,24.90999984741211,24.88500022888184,600.0
2019-04-30,24.93000030517578,24.90500068664551,24.93000030517578,24.90500068664551,500.0
2019-05-01,24.88800048828125,24.88800048828125,24.88800048828125,24.88800048828125,100.0
2019-05-02,24.82500076293945,24.82500076293945,24.82500076293945,24.82500076293945,0.0
2019-05-03,24.84499931335449,24.84499931335449,24.84499931335449,24.84499931335449,0.0
2019-05-06,24.90900039672852,24.8700008392334,24.87800025939941,24.8700008392334,1800.0
2019-05-07,24.87800025939941,24.854999542236328,24.854999542236328,24.86000061035156,700.0
2019-05-08,24.85000038146973,24.85000038146973,24.85000038146973,24.85000038146973,0.0
2019-05-09,24.854999542236328,24.854999542236328,24.854999542236328,24.854999542236328,0.0
2019-05-10,24.86000061035156,24.86000061035156,24.86000061035156,24.86000061035156,0.0
2019-05-13,24.90999984741211,24.90999984741211,24.90999984741211,24.90999984741211,0.0
2019-05-14,24.915000915527344,24.915000915527344,24.915000915527344,24.915000915527344,100.0
2019-05-15,24.94499969482422,24.93000030517578,24.93000030517578,24.94499969482422,200.0
2019-05-16,24.95000076293945,24.95000076293945,24.95000076293945,24.95000076293945,0.0
2019-05-17,24.94499969482422,24.94499969482422,24.94499969482422,24.94499969482422,100.0
2019-05-20,24.92499923706055,24.92499923706055,24.92499923706055,24.92499923706055,100.0
2019-05-21,24.92600059509277,24.90999984741211,24.92600059509277,24.90999984741211,1200.0
2019-05-22,24.958999633789066,24.92900085449219,24.958999633789066,24.94499969482422,400.0
2019-05-23,24.934999465942386,24.8799991607666,24.8799991607666,24.934999465942386,800.0
2019-05-24,24.92499923706055,24.92499923706055,24.92499923706055,24.92499923706055,0.0
2019-05-28,24.979999542236328,24.908000946044922,24.979999542236328,24.94499969482422,700.0
2019-05-29,24.989999771118164,24.96500015258789,24.979999542236328,24.96500015258789,1000.0
2019-05-30,24.989999771118164,24.96999931335449,24.989999771118164,24.96999931335449,300.0
2019-05-31,25.06999969482422,25.03400039672852,25.06999969482422,25.03499984741211,500.0
2019-06-03,25.09499931335449,25.09000015258789,25.09000015258789,25.09499931335449,200.0
2019-06-04,25.06999969482422,25.06999969482422,25.06999969482422,25.06999969482422,200.0
2019-06-05,25.10099983215332,25.10000038146973,25.10099983215332,25.10000038146973,1600.0
2019-06-06,25.12899971008301,25.09000015258789,25.12899971008301,25.09000015258789,4100.0
2019-06-07,25.170000076293945,25.125,25.170000076293945,25.125,200.0
2019-06-10,25.1299991607666,25.09000015258789,25.1200008392334,25.09000015258789,900.0
2019-06-11,25.06999969482422,25.06999969482422,25.06999969482422,25.06999969482422,100.0
2019-06-12,25.10000038146973,25.06999969482422,25.10000038146973,25.06999969482422,200.0
2019-06-13,25.1200008392334,25.09000015258789,25.1200008392334,25.09000015258789,500.0
2019-06-14,25.06999969482422,25.06999969482422,25.06999969482422,25.06999969482422,100.0
2019-06-17,25.06999969482422,25.040000915527344,25.06999969482422,25.040000915527344,100.0
2019-06-18,25.1299991607666,25.084999084472656,25.1299991607666,25.084999084472656,200.0
2019-06-19,25.13999938964844,25.09000015258789,25.09000015258789,25.13999938964844,400.0
2019-06-20,25.22900009155273,25.21500015258789,25.22900009155273,25.21500015258789,700.0
2019-06-21,25.170000076293945,25.170000076293945,25.170000076293945,25.170000076293945,200.0
2019-06-24,24.93000030517578,24.88999938964844,24.93000030517578,24.88999938964844,300.0
2019-06-25,24.940000534057614,24.88999938964844,24.940000534057614,24.88999938964844,600.0
2019-06-26,24.93000030517578,24.875,24.90399932861328,24.875,6200.0
2019-06-27,24.88999938964844,24.88999938964844,24.88999938964844,24.88999938964844,100.0
2019-06-28,24.908000946044922,24.899999618530273,24.908000946044922,24.899999618530273,600.0
2019-07-01,24.899999618530273,24.8700008392334,24.8700008392334,24.899999618530273,300.0
2019-07-02,24.920000076293945,24.871999740600586,24.871999740600586,24.895000457763672,900.0
2019-07-03,24.90999984741211,24.87100028991699,24.87100028991699,24.90999984741211,300.0
2019-07-05,24.88999938964844,24.86000061035156,24.88999938964844,24.86000061035156,600.0
2019-07-08,24.899999618530273,24.857999801635746,24.899999618530273,24.864999771118164,600.0
2019-07-09,24.90999984741211,24.854999542236328,24.90999984741211,24.854999542236328,4100.0
2019-07-10,24.959999084472656,24.920000076293945,24.95000076293945,24.920000076293945,5200.0
2019-07-11,24.93000030517578,24.93000030517578,24.93000030517578,24.93000030517578,0.0
2019-07-12,24.95499992370605,24.910999298095703,24.910999298095703,24.93000030517578,4300.0
2019-07-15,24.9689998626709,24.93000030517578,24.9689998626709,24.93000030517578,400.0
2019-07-16,24.920000076293945,24.920000076293945,24.920000076293945,24.920000076293945,100.0
2019-07-17,24.959999084472656,24.92499923706055,24.959999084472656,24.92499923706055,600.0
2019-07-18,24.959999084472656,24.959999084472656,24.959999084472656,24.959999084472656,100.0
2019-07-19,24.968000411987305,24.95000076293945,24.95000076293945,24.968000411987305,400.0
2019-07-22,24.96500015258789,24.95000076293945,24.95000076293945,24.96500015258789,600.0
2019-07-23,24.940000534057614,24.92200088500977,24.92200088500977,24.93000030517578,700.0
2019-07-24,24.947999954223636,24.934999465942386,24.947999954223636,24.934999465942386,300.0
2019-07-25,24.95000076293945,24.88999938964844,24.88999938964844,24.915000915527344,1700.0
2019-07-26,24.895000457763672,24.8700008392334,24.8700008392334,24.895000457763672,200.0
2019-07-29,24.940000534057614,24.899999618530273,24.940000534057614,24.899999618530273,300.0
2019-07-30,24.899999618530273,24.8700008392334,24.8700008392334,24.899999618530273,200.0
2019-07-31,24.95000076293945,24.899999618530273,24.95000076293945,24.899999618530273,700.0
2019-08-01,24.934999465942386,24.934999465942386,24.934999465942386,24.934999465942386,1300.0
2019-08-02,24.93600082397461,24.920000076293945,24.93600082397461,24.920000076293945,700.0
2019-08-05,24.95499992370605,24.899999618530273,24.899999618530273,24.95499992370605,100.0
2019-08-06,24.96500015258789,24.96500015258789,24.96500015258789,24.96500015258789,100.0
2019-08-07,24.96999931335449,24.96999931335449,24.96999931335449,24.96999931335449,200.0
2019-08-08,24.993999481201172,24.989999771118164,24.993999481201172,24.989999771118164,500.0
2019-08-09,24.98500061035156,24.98500061035156,24.98500061035156,24.98500061035156,100.0
2019-08-12,24.979999542236328,24.979999542236328,24.979999542236328,24.979999542236328,200.0
2019-08-13,24.96999931335449,24.96999931335449,24.96999931335449,24.96999931335449,700.0
2019-08-14,24.959999084472656,24.920000076293945,24.920000076293945,24.959999084472656,4000.0
2019-08-15,25.020000457763672,24.9950008392334,24.9950008392334,24.9950008392334,2600.0
2019-08-16,24.989999771118164,24.989999771118164,24.989999771118164,24.989999771118164,0.0
2019-08-19,24.97500038146973,24.93000030517578,24.93000030517578,24.97500038146973,400.0
2019-08-20,24.98500061035156,24.95000076293945,24.95000076293945,24.98500061035156,300.0
2019-08-21,25.01000022888184,24.97500038146973,25.01000022888184,24.97500038146973,600.0
2019-08-22,24.961000442504886,24.961000442504886,24.961000442504886,24.961000442504886,200.0
2019-08-23,24.9950008392334,24.9950008392334,24.9950008392334,24.9950008392334,100.0
2019-08-26,24.989999771118164,24.98500061035156,24.989999771118164,24.98500061035156,300.0
2019-08-27,25.0,25.0,25.0,25.0,100.0
2019-08-28,25.024999618530273,24.989999771118164,24.989999771118164,25.024999618530273,200.0
2019-08-29,25.024999618530273,25.024999618530273,25.024999618530273,25.024999618530273,100.0
2019-08-30,25.00399971008301,24.96999931335449,24.979999542236328,25.00399971008301,700.0
2019-09-03,25.0,25.0,25.0,25.0,100.0
2019-09-04,25.02199935913086,25.02199935913086,25.02199935913086,25.02199935913086,100.0
2019-09-05,24.989999771118164,24.989999771118164,24.989999771118164,24.989999771118164,100.0
2019-09-06,25.0049991607666,25.0049991607666,25.0049991607666,25.0049991607666,100.0
2019-09-09,24.989999771118164,24.989999771118164,24.989999771118164,24.989999771118164,100.0
2019-09-10,24.94499969482422,24.94499969482422,24.94499969482422,24.94499969482422,200.0
2019-09-11,24.95000076293945,24.95000076293945,24.95000076293945,24.95000076293945,0.0
2019-09-12,24.958999633789066,24.91900062561035,24.958999633789066,24.93000030517578,1000.0
2019-09-13,24.899999618530273,24.899999618530273,24.899999618530273,24.899999618530273,0.0
2019-09-16,24.959999084472656,24.95199966430664,24.95199966430664,24.959999084472656,300.0
2019-09-17,24.99900054931641,24.95499992370605,24.99900054931641,24.95499992370605,200.0
2019-09-18,24.90999984741211,24.90999984741211,24.90999984741211,24.90999984741211,0.0
2019-09-19,24.941999435424805,24.934999465942386,24.934999465942386,24.934999465942386,400.0
2019-09-20,24.95499992370605,24.95499992370605,24.95499992370605,24.95499992370605,0.0
2019-09-23,24.90999984741211,24.8700008392334,24.90999984741211,24.8700008392334,200.0
2019-09-24,24.8799991607666,24.8799991607666,24.8799991607666,24.8799991607666,0.0
2019-09-25,24.84600067138672,24.819000244140625,24.827999114990234,24.84000015258789,3200.0
2019-09-26,24.84499931335449,24.84499931335449,24.84499931335449,24.84499931335449,0.0
2019-09-27,24.84499931335449,24.84499931335449,24.84499931335449,24.84499931335449,0.0
2019-09-30,24.82999992370605,24.827999114990234,24.827999114990234,24.82999992370605,300.0
2019-10-01,24.84499931335449,24.84499931335449,24.84499931335449,24.84499931335449,0.0
2019-10-02,24.90999984741211,24.875,24.899999618530273,24.875,4500.0
2019-10-03,24.90999984741211,24.90999984741211,24.90999984741211,24.90999984741211,0.0
2019-10-04,24.90999984741211,24.90999984741211,24.90999984741211,24.90999984741211,0.0
2019-10-07,24.899999618530273,24.899999618530273,24.899999618530273,24.899999618530273,0.0
2019-10-08,24.895000457763672,24.895000457763672,24.895000457763672,24.895000457763672,0.0
2019-10-09,24.899999618530273,24.8799991607666,24.899999618530273,24.8799991607666,500.0
2019-10-10,24.8700008392334,24.8700008392334,24.8700008392334,24.8700008392334,0.0
2019-10-11,24.84499931335449,24.809999465942386,24.809999465942386,24.84499931335449,100.0
2019-10-14,24.84499931335449,24.84499931335449,24.84499931335449,24.84499931335449,0.0
2019-10-15,24.834999084472656,24.834999084472656,24.834999084472656,24.834999084472656,0.0
2019-10-16,24.864999771118164,24.864999771118164,24.864999771118164,24.864999771118164,0.0
2019-10-17,24.864999771118164,24.864999771118164,24.864999771118164,24.864999771118164,0.0
2019-10-18,24.895000457763672,24.895000457763672,24.895000457763672,24.895000457763672,0.0
2019-10-21,24.899999618530273,24.899999618530273,24.899999618530273,24.899999618530273,0.0
2019-10-22,24.8799991607666,24.86599922180176,24.86599922180176,24.8799991607666,300.0
2019-10-23,24.94499969482422,24.899999618530273,24.94499969482422,24.899999618530273,100.0
2019-10-24,24.92499923706055,24.92499923706055,24.92499923706055,24.92499923706055,0.0
2019-10-25,24.920000076293945,24.920000076293945,24.920000076293945,24.920000076293945,0.0
2019-10-28,24.8799991607666,24.8799991607666,24.8799991607666,24.8799991607666,0.0
2019-10-29,24.920000076293945,24.8700008392334,24.920000076293945,24.8700008392334,1400.0
2019-10-30,24.899999618530273,24.85000038146973,24.899999618530273,24.85000038146973,300.0
2019-10-31,24.9060001373291,24.899999618530273,24.9060001373291,24.899999618530273,500.0
2019-11-01,24.915000915527344,24.915000915527344,24.915000915527344,24.915000915527344,0.0
2019-11-04,24.93199920654297,24.92499923706055,24.93199920654297,24.92499923706055,100.0
2019-11-05,24.915000915527344,24.915000915527344,24.915000915527344,24.915000915527344,0.0
2019-11-06,24.96999931335449,24.91399955749512,24.95000076293945,24.93000030517578,87900.0
2019-11-07,24.915000915527344,24.899999618530273,24.899999618530273,24.915000915527344,300.0
2019-11-08,24.899999618530273,24.85000038146973,24.85000038146973,24.899999618530273,400.0
2019-11-11,24.90999984741211,24.90999984741211,24.90999984741211,24.90999984741211,0.0
2019-11-12,24.90999984741211,24.89800071716309,24.89800071716309,24.90999984741211,1500.0
2019-11-13,24.959999084472656,24.920000076293945,24.95000076293945,24.920000076293945,26700.0
2019-11-14,24.96999931335449,24.940000534057614,24.959999084472656,24.940000534057614,3300.0
2019-11-15,24.920000076293945,24.920000076293945,24.920000076293945,24.920000076293945,0.0
2019-11-18,24.96999931335449,24.93000030517578,24.959999084472656,24.93000030517578,300.0
2019-11-19,24.959999084472656,24.891000747680664,24.92200088500977,24.93000030517578,1700.0
2019-11-20,24.94499969482422,24.94499969482422,24.94499969482422,24.94499969482422,600.0
2019-11-21,24.94499969482422,24.94499969482422,24.94499969482422,24.94499969482422,200.0
2019-11-22,24.96999931335449,24.940000534057614,24.96999931335449,24.940000534057614,500.0
2019-11-25,24.940000534057614,24.940000534057614,24.940000534057614,24.940000534057614,100.0
2019-11-26,24.959999084472656,24.92099952697754,24.92099952697754,24.959999084472656,900.0
2019-11-27,24.95000076293945,24.95000076293945,24.95000076293945,24.95000076293945,100.0
2019-11-29,24.979999542236328,24.93000030517578,24.979999542236328,24.93000030517578,800.0
2019-12-02,24.95000076293945,24.8799991607666,24.8799991607666,24.94499969482422,19000.0
2019-12-03,24.979999542236328,24.979999542236328,24.979999542236328,24.979999542236328,200.0
2019-12-04,25.0049991607666,24.95100021362305,24.95100021362305,24.98900032043457,10400.0
2019-12-05,25.01000022888184,24.968000411987305,24.968000411987305,24.98500061035156,5300.0
2019-12-06,25.020000457763672,24.9950008392334,25.0,24.9950008392334,10500.0
2019-12-09,24.989999771118164,24.989999771118164,24.989999771118164,24.989999771118164,300.0
2019-12-10,24.979999542236328,24.979999542236328,24.979999542236328,24.979999542236328,100.0
2019-12-11,25.01000022888184,25.01000022888184,25.01000022888184,25.01000022888184,0.0
2019-12-12,25.0049991607666,25.0049991607666,25.0049991607666,25.0049991607666,300.0
2019-12-13,25.058000564575195,25.024999618530273,25.02899932861328,25.024999618530273,1600.0
2019-12-16,25.03000068664551,25.03000068664551,25.03000068664551,25.03000068664551,100.0
2019-12-17,25.03499984741211,25.03499984741211,25.03499984741211,25.03499984741211,100.0
2019-12-18,25.045000076293945,25.045000076293945,25.045000076293945,25.045000076293945,100.0
2019-12-19,25.06999969482422,25.059999465942386,25.06999969482422,25.059999465942386,500.0
2019-12-20,25.07099914550781,25.059999465942386,25.07099914550781,25.065000534057614,900.0
2019-12-23,24.93000030517578,24.88999938964844,24.92200088500977,24.92499923706055,2000.0
2019-12-24,24.934999465942386,24.8799991607666,24.88999938964844,24.934999465942386,2800.0
2019-12-26,24.964000701904297,24.95499992370605,24.964000701904297,24.95499992370605,100.0
2019-12-27,24.959999084472656,24.959999084472656,24.959999084472656,24.959999084472656,100.0
2019-12-30,24.979999542236328,24.979999542236328,24.979999542236328,24.979999542236328,100.0
2019-12-31,24.989999771118164,24.95000076293945,24.95000076293945,24.989999771118164,2500.0
2020-01-02,25.02300071716309,24.96999931335449,24.96999931335449,25.02300071716309,4000.0
2020-01-03,25.065000534057614,25.04400062561035,25.04400062561035,25.065000534057614,800.0
2020-01-06,25.059999465942386,25.059999465942386,25.059999465942386,25.059999465942386,100.0
2020-01-07,25.05699920654297,25.01000022888184,25.05699920654297,25.040000915527344,1500.0
2020-01-08,25.03000068664551,25.01000022888184,25.03000068664551,25.01000022888184,100.0
2020-01-09,25.03000068664551,24.95000076293945,24.99799919128418,24.99600028991699,5800.0
2020-01-10,25.04999923706055,25.024999618530273,25.02599906921387,25.024999618530273,2800.0
2020-01-13,25.024999618530273,25.0,25.0,25.024999618530273,300.0
2020-01-14,25.024999618530273,25.018999099731445,25.018999099731445,25.024999618530273,300.0
2020-01-15,25.040000915527344,25.0,25.0,25.040000915527344,600.0
2020-01-16,25.059999465942386,25.02199935913086,25.059999465942386,25.04999923706055,4400.0
2020-01-17,25.04999923706055,25.007999420166016,25.007999420166016,25.020000457763672,3300.0
2020-01-21,25.06999969482422,25.02300071716309,25.06999969482422,25.040000915527344,900.0
2020-01-22,25.04999923706055,24.99099922180176,25.03899955749512,25.024999618530273,2100.0
2020-01-23,25.024999618530273,25.024999618530273,25.024999618530273,25.024999618530273,400.0
2020-01-24,25.04999923706055,25.000999450683594,25.011999130249023,25.01000022888184,1400.0
2020-01-27,25.04999923706055,24.993999481201172,25.020000457763672,25.01000022888184,2100.0
2020-01-28,25.059999465942386,25.006000518798828,25.0310001373291,25.024999618530273,2300.0
2020-01-29,25.04999923706055,25.04999923706055,25.04999923706055,25.04999923706055,900.0
2020-01-30,25.040000915527344,25.040000915527344,25.040000915527344,25.040000915527344,0.0
2020-01-31,25.10000038146973,25.040000915527344,25.059999465942386,25.10000038146973,42400.0
2020-02-03,25.07099914550781,25.01000022888184,25.03400039672852,25.05500030517578,2300.0
2020-02-04,25.06999969482422,24.989999771118164,25.069000244140625,25.020000457763672,14400.0
2020-02-05,25.059999465942386,25.02599906921387,25.02599906921387,25.040000915527344,3200.0
2020-02-06,25.024999618530273,24.989999771118164,24.989999771118164,25.024999618530273,76500.0
2020-02-07,25.10000038146973,25.05500030517578,25.05500030517578,25.065000534057614,2400.0
2020-02-10,25.1200008392334,25.07500076293945,25.07500076293945,25.09499931335449,2200.0
2020-02-11,25.10000038146973,25.020000457763672,25.020000457763672,25.065000534057614,7600.0
2020-02-12,25.06999969482422,25.06999969482422,25.06999969482422,25.06999969482422,100.0
2020-02-13,25.09000015258789,25.09000015258789,25.09000015258789,25.09000015258789,100.0
2020-02-14,25.13999938964844,25.09499931335449,25.1299991607666,25.10000038146973,10600.0
2020-02-18,25.149999618530273,25.11000061035156,25.149999618530273,25.11000061035156,500.0
2020-02-19,25.13999938964844,25.06999969482422,25.104999542236328,25.11000061035156,17700.0
2020-02-20,25.14900016784668,25.11000061035156,25.11599922180176,25.11000061035156,4300.0
2020-02-21,25.1299991607666,25.1299991607666,25.1299991607666,25.1299991607666,100.0
2020-02-24,25.170000076293945,25.16399955749512,25.16399955749512,25.170000076293945,1300.0
2020-02-25,25.20100021362305,25.13999938964844,25.13999938964844,25.17900085449219,3100.0
2020-02-26,25.190000534057614,25.18000030517578,25.18000030517578,25.190000534057614,200.0
2020-02-27,25.184999465942386,25.17499923706055,25.184999465942386,25.17499923706055,400.0
2020-02-28,25.21500015258789,25.18099975585937,25.18099975585937,25.21500015258789,800.0
2020-03-02,25.190000534057614,25.1879997253418,25.190000534057614,25.1879997253418,1000.0
2020-03-03,25.38999938964844,25.190000534057614,25.190000534057614,25.31399917602539,1500.0
2020-03-04,25.37899971008301,25.309999465942386,25.37899971008301,25.31999969482422,2500.0
2020-03-05,25.354999542236328,25.334999084472656,25.354999542236328,25.334999084472656,2500.0
2020-03-06,25.26300048828125,25.26300048828125,25.26300048828125,25.26300048828125,100.0
2020-03-09,25.13999938964844,25.058000564575195,25.13999938964844,25.058000564575195,1400.0
2020-03-10,24.95100021362305,24.812000274658203,24.95100021362305,24.834999084472656,900.0
2020-03-11,24.788000106811523,24.53499984741211,24.788000106811523,24.53499984741211,4500.0
2020-03-12,24.45599937438965,24.3700008392334,24.45599937438965,24.40999984741211,600.0
2020-03-13,24.617000579833984,24.53499984741211,24.53499984741211,24.617000579833984,600.0
2020-03-16,24.31999969482422,24.149999618530273,24.31999969482422,24.28000068664551,800.0
2020-03-17,24.3799991607666,24.15699958801269,24.20000076293945,24.15699958801269,1100.0
2020-03-18,24.10000038146973,23.96999931335449,24.10000038146973,23.979999542236328,1400.0
2020-03-19,24.170000076293945,24.040000915527344,24.040000915527344,24.170000076293945,5500.0
2020-03-20,24.483999252319336,24.28000068664551,24.28000068664551,24.483999252319336,300.0
2020-03-23,24.60000038146973,24.51000022888184,24.51000022888184,24.60000038146973,5800.0
2020-03-24,24.718000411987305,24.638999938964844,24.718000411987305,24.638999938964844,300.0
2020-03-25,24.82999992370605,24.67499923706055,24.67499923706055,24.792999267578125,1600.0
2020-03-26,24.959999084472656,24.85000038146973,24.959999084472656,24.86599922180176,4100.0
2020-03-27,24.96999931335449,24.80400085449219,24.93000030517578,24.80400085449219,1100.0
2020-03-30,24.7450008392334,24.709999084472656,24.709999084472656,24.7450008392334,2800.0
2020-03-31,24.809999465942386,24.73200035095215,24.756999969482425,24.7450008392334,4900.0
2020-04-01,24.770000457763672,24.729999542236328,24.739999771118164,24.770000457763672,200.0
2020-04-02,24.770000457763672,24.770000457763672,24.770000457763672,24.770000457763672,0.0
2020-04-03,24.979999542236328,24.979999542236328,24.979999542236328,24.979999542236328,0.0
2020-04-06,25.05500030517578,25.05500030517578,25.05500030517578,25.05500030517578,0.0
2020-04-07,25.06999969482422,25.05500030517578,25.06999969482422,25.05500030517578,300.0
2020-04-08,25.05500030517578,25.05500030517578,25.05500030517578,25.05500030517578,0.0
2020-04-09,25.170000076293945,25.06100082397461,25.1299991607666,25.10000038146973,6400.0
2020-04-13,25.15999984741211,25.141000747680664,25.141000747680664,25.15999984741211,200.0
2020-04-14,25.209999084472656,25.1200008392334,25.165000915527344,25.170000076293945,6500.0
2020-04-15,25.20000076293945,25.13999938964844,25.170000076293945,25.13999938964844,4200.0
2020-04-16,25.18000030517578,25.040000915527344,25.18000030517578,25.040000915527344,6300.0
2020-04-17,25.09000015258789,24.979999542236328,25.09000015258789,25.01000022888184,1800.0
2020-04-20,25.0,24.940000534057614,24.940000534057614,24.95000076293945,800.0
2020-04-21,24.95499992370605,24.920000076293945,24.95499992370605,24.95499992370605,900.0
2020-04-22,25.06999969482422,25.000999450683594,25.020000457763672,25.045000076293945,3800.0
2020-04-23,25.01000022888184,24.979999542236328,24.979999542236328,25.01000022888184,400.0
2020-04-24,25.07900047302246,24.989999771118164,24.989999771118164,25.04999923706055,4600.0
2020-04-27,25.04999923706055,25.04999923706055,25.04999923706055,25.04999923706055,0.0
2020-04-28,25.084999084472656,25.04999923706055,25.059999465942386,25.084999084472656,5100.0
2020-04-29,25.1299991607666,25.10000038146973,25.1299991607666,25.118000030517575,2000.0
2020-04-30,25.09499931335449,25.084999084472656,25.09499931335449,25.084999084472656,100.0
2020-05-01,25.084999084472656,25.084999084472656,25.084999084472656,25.084999084472656,0.0
2020-05-04,25.06999969482422,25.058000564575195,25.058000564575195,25.06999969482422,3700.0
2020-05-05,25.10000038146973,25.041000366210934,25.05699920654297,25.10000038146973,4200.0
2020-05-06,25.10000038146973,25.10000038146973,25.10000038146973,25.10000038146973,0.0
2020-05-07,25.15500068664551,25.149999618530273,25.149999618530273,25.15500068664551,2300.0
2020-05-08,25.190000534057614,25.165000915527344,25.190000534057614,25.165000915527344,1900.0
2020-05-11,25.15999984741211,25.13999938964844,25.15999984741211,25.13999938964844,500.0
2020-05-12,25.13500022888184,25.13500022888184,25.13500022888184,25.13500022888184,100.0
2020-05-13,25.18000030517578,25.13999938964844,25.18000030517578,25.13999938964844,1600.0
2020-05-14,25.15900039672852,25.114999771118164,25.149999618530273,25.13500022888184,5600.0
2020-05-15,25.190000534057614,25.1299991607666,25.190000534057614,25.17499923706055,5100.0
2020-05-18,25.21999931335449,25.19499969482422,25.21999931335449,25.19499969482422,800.0
2020-05-19,25.22800064086914,25.18000030517578,25.211000442504886,25.209999084472656,1500.0
2020-05-20,25.22500038146973,25.21999931335449,25.21999931335449,25.22500038146973,100.0
2020-05-21,25.26000022888184,25.23500061035156,25.26000022888184,25.23500061035156,100.0
2020-05-22,25.229999542236328,25.229999542236328,25.229999542236328,25.229999542236328,100.0
2020-05-26,25.25,25.21999931335449,25.21999931335449,25.25,10200.0
2020-05-27,25.25,25.23500061035156,25.239999771118164,25.25,3000.0
2020-05-28,25.309999465942386,25.274999618530273,25.309999465942386,25.274999618530273,600.0
2020-05-29,25.290000915527344,25.290000915527344,25.290000915527344,25.290000915527344,100.0
2020-06-01,25.29999923706055,25.270000457763672,25.270000457763672,25.29999923706055,100.0
2020-06-02,25.309999465942386,25.270000457763672,25.309999465942386,25.29999923706055,700.0
2020-06-03,25.309999465942386,25.261999130249023,25.309999465942386,25.2810001373291,4700.0
2020-06-04,25.290000915527344,25.25,25.25,25.274999618530273,6400.0
2020-06-05,25.340999603271484,25.31999969482422,25.327999114990234,25.31999969482422,1000.0
2020-06-08,25.3799991607666,25.34499931335449,25.34499931335449,25.34499931335449,1300.0
2020-06-09,25.37800025939941,25.3700008392334,25.37800025939941,25.3700008392334,700.0
2020-06-10,25.440000534057614,25.440000534057614,25.440000534057614,25.440000534057614,0.0
2020-06-11,25.43000030517578,25.393999099731445,25.393999099731445,25.40999984741211,1800.0
2020-06-12,25.420000076293945,25.36000061035156,25.420000076293945,25.38999938964844,500.0
2020-06-15,25.3799991607666,25.35000038146973,25.35000038146973,25.3799991607666,200.0
2020-06-16,25.40500068664551,25.3700008392334,25.3799991607666,25.40500068664551,700.0
2020-06-17,25.40099906921387,25.38599967956543,25.40099906921387,25.38599967956543,700.0
2020-06-18,25.420000076293945,25.40999984741211,25.420000076293945,25.40999984741211,100.0
2020-06-19,25.46999931335449,25.420000076293945,25.457000732421875,25.420000076293945,800.0
2020-06-22,25.459999084472656,25.40999984741211,25.43000030517578,25.434999465942386,11600.0
2020-06-23,25.5,25.465999603271484,25.489999771118164,25.5,1500.0
2020-06-24,25.46999931335449,25.43000030517578,25.43000030517578,25.46999931335449,4500.0
2020-06-25,25.45000076293945,25.42499923706055,25.45000076293945,25.42499923706055,4900.0
2020-06-26,25.45000076293945,25.420000076293945,25.45000076293945,25.420000076293945,500.0
2020-06-29,25.46999931335449,25.399999618530273,25.399999618530273,25.44499969482422,2600.0
2020-06-30,25.5,25.43000030517578,25.5,25.45499992370605,4000.0
2020-07-01,25.46999931335449,25.40999984741211,25.46999931335449,25.440000534057614,3000.0
2020-07-02,25.479999542236328,25.479999542236328,25.479999542236328,25.479999542236328,100.0
2020-07-06,25.53000068664551,25.5049991607666,25.51000022888184,25.5049991607666,10700.0
2020-07-07,25.540000915527344,25.481000900268555,25.52700042724609,25.540000915527344,2200.0
2020-07-08,25.53000068664551,25.53000068664551,25.53000068664551,25.53000068664551,800.0
2020-07-09,25.53000068664551,25.459999084472656,25.53000068664551,25.489999771118164,5600.0
2020-07-10,25.520000457763672,25.45000076293945,25.459999084472656,25.48500061035156,3600.0
2020-07-13,25.5,25.5,25.5,25.5,200.0
2020-07-14,25.51000022888184,25.5,25.51000022888184,25.5,800.0
2020-07-15,25.520000457763672,25.520000457763672,25.520000457763672,25.520000457763672,100.0
2020-07-16,25.524999618530273,25.524999618530273,25.524999618530273,25.524999618530273,100.0
2020-07-17,25.559999465942386,25.54999923706055,25.54999923706055,25.55500030517578,1000.0
2020-07-20,25.57999992370605,25.565000534057614,25.57999992370605,25.565000534057614,1300.0
2020-07-21,25.604999542236328,25.59000015258789,25.59000015258789,25.604999542236328,500.0
2020-07-22,25.6200008392334,25.60000038146973,25.6200008392334,25.61000061035156,2900.0
2020-07-23,25.61000061035156,25.57999992370605,25.61000061035156,25.59000015258789,1300.0
2020-07-24,25.60000038146973,25.57999992370605,25.60000038146973,25.57999992370605,1000.0
2020-07-27,25.584999084472656,25.56999969482422,25.584999084472656,25.56999969482422,600.0
2020-07-28,25.584999084472656,25.584999084472656,25.584999084472656,25.584999084472656,100.0
2020-07-29,25.607999801635746,25.59000015258789,25.59000015258789,25.606000900268555,3000.0
2020-07-30,25.614999771118164,25.61000061035156,25.61000061035156,25.614999771118164,400.0
2020-07-31,25.63999938964844,25.6200008392334,25.6200008392334,25.63999938964844,300.0
2020-08-03,25.684999465942386,25.68000030517578,25.68000030517578,25.68000030517578,2300.0
2020-08-04,25.70100021362305,25.690000534057614,25.70100021362305,25.70000076293945,5400.0
2020-08-05,25.739999771118164,25.739999771118164,25.739999771118164,25.739999771118164,1800.0
2020-08-06,25.76000022888184,25.75,25.76000022888184,25.75,1600.0
2020-08-07,25.739999771118164,25.72500038146973,25.739999771118164,25.72500038146973,1000.0
2020-08-10,25.75,25.70000076293945,25.75,25.709999084472656,2800.0
2020-08-11,25.71500015258789,25.708999633789066,25.709999084472656,25.709999084472656,800.0
2020-08-12,25.763999938964844,25.75,25.76000022888184,25.75900077819824,2800.0
2020-08-13,25.78000068664551,25.76000022888184,25.770000457763672,25.76000022888184,2900.0
2020-08-14,25.76000022888184,25.75,25.76000022888184,25.7549991607666,1800.0
2020-08-17,25.770000457763672,25.76000022888184,25.76000022888184,25.770000457763672,5400.0
2020-08-18,25.79999923706055,25.78000068664551,25.78000068664551,25.795000076293945,12500.0
2020-08-19,25.81999969482422,25.76000022888184,25.81999969482422,25.76000022888184,1600.0
2020-08-20,25.77400016784668,25.76000022888184,25.770000457763672,25.76000022888184,1000.0
2020-08-21,25.790000915527344,25.78000068664551,25.78000068664551,25.790000915527344,2200.0
2020-08-24,25.82999992370605,25.809999465942386,25.81999969482422,25.815000534057614,3700.0
2020-08-25,25.815000534057614,25.815000534057614,25.815000534057614,25.815000534057614,224.0
