Date,High,Low,Open,Close,Volume
2017-10-12,25.07999992370605,25.01000022888184,25.07999992370605,25.03000068664551,1040600.0
2017-10-13,25.1299991607666,25.040000915527344,25.11000061035156,25.04999923706055,958000.0
2017-10-16,25.15999984741211,25.04400062561035,25.15999984741211,25.09000015258789,699800.0
2017-10-17,25.11000061035156,25.059999465942386,25.10000038146973,25.10099983215332,322200.0
2017-10-18,25.170000076293945,25.10000038146973,25.170000076293945,25.11000061035156,412100.0
2017-10-19,25.121999740600586,24.98600006103516,25.059999465942386,25.1200008392334,374500.0
2017-10-20,25.25,25.18600082397461,25.229999542236328,25.25,257400.0
2017-10-23,25.38999938964844,25.149999618530273,25.38999938964844,25.15999984741211,322700.0
2017-10-24,25.239999771118164,25.149999618530273,25.239999771118164,25.20000076293945,177600.0
2017-10-25,25.18000030517578,24.94899940490723,25.170000076293945,25.07900047302246,236400.0
2017-10-26,25.20000076293945,25.104999542236328,25.20000076293945,25.1200008392334,160900.0
2017-10-27,25.31999969482422,25.160999298095703,25.290000915527344,25.29999923706055,175500.0
2017-10-30,25.31999969482422,25.20000076293945,25.290000915527344,25.239999771118164,159200.0
2017-10-31,25.29999923706055,25.21999931335449,25.290000915527344,25.270000457763672,121800.0
2017-11-01,25.38999938964844,25.26000022888184,25.3700008392334,25.29999923706055,127500.0
2017-11-02,25.34000015258789,25.19099998474121,25.34000015258789,25.309999465942386,149600.0
2017-11-03,25.3799991607666,25.27199935913086,25.36000061035156,25.3799991607666,146700.0
2017-11-06,25.45000076293945,25.3799991607666,25.399999618530273,25.43000030517578,206300.0
2017-11-07,25.47100067138672,25.35400009155273,25.459999084472656,25.399999618530273,204500.0
2017-11-08,25.45100021362305,25.35099983215332,25.40999984741211,25.43000030517578,92100.0
2017-11-09,25.37100028991699,25.17499923706055,25.34000015258789,25.32999992370605,193100.0
2017-11-10,25.36000061035156,25.28000068664551,25.32999992370605,25.32999992370605,146400.0
2017-11-13,25.38999938964844,25.25,25.28000068664551,25.3700008392334,159000.0
2017-11-14,25.31999969482422,25.2189998626709,25.309999465942386,25.309999465942386,104200.0
2017-11-15,25.26000022888184,25.11000061035156,25.25,25.20000076293945,137900.0
2017-11-16,25.4379997253418,25.290000915527344,25.290000915527344,25.399999618530273,104300.0
2017-11-17,25.3799991607666,25.34000015258789,25.3799991607666,25.35000038146973,125000.0
2017-11-20,25.40999984741211,25.35000038146973,25.38999938964844,25.399999618530273,249600.0
2017-11-21,25.559999465942386,25.488000869750977,25.489999771118164,25.559999465942386,174600.0
2017-11-22,25.584999084472656,25.520000457763672,25.57999992370605,25.540000915527344,129600.0
2017-11-24,25.61000061035156,25.57200050354004,25.59000015258789,25.59600067138672,72900.0
2017-11-27,25.6299991607666,25.55100059509277,25.6200008392334,25.57999992370605,196100.0
2017-11-28,25.83799934387207,25.6200008392334,25.6299991607666,25.82999992370605,127100.0
2017-11-29,25.920000076293945,25.75,25.8700008392334,25.82999992370605,149100.0
2017-11-30,26.1299991607666,25.86000061035156,25.940000534057614,26.04999923706055,164400.0
2017-12-01,26.059999465942386,25.60000038146973,26.040000915527344,25.989999771118164,156200.0
2017-12-04,26.229999542236328,25.959999084472656,26.209999084472656,25.959999084472656,284400.0
2017-12-05,26.040000915527344,25.82999992370605,26.0,25.86000061035156,92300.0
2017-12-06,25.8799991607666,25.79999923706055,25.8799991607666,25.82999992370605,155900.0
2017-12-07,25.961000442504886,25.82500076293945,25.8700008392334,25.93000030517578,106500.0
2017-12-08,26.07999992370605,26.01000022888184,26.040000915527344,26.07999992370605,76700.0
2017-12-11,26.149999618530273,26.07500076293945,26.10000038146973,26.149999618530273,122600.0
2017-12-12,26.243000030517575,26.15999984741211,26.20000076293945,26.170000076293945,196900.0
2017-12-13,26.270000457763672,26.15999984741211,26.270000457763672,26.15999984741211,141500.0
2017-12-14,26.239999771118164,26.06999969482422,26.239999771118164,26.06999969482422,132800.0
2017-12-15,26.35000038146973,26.17300033569336,26.26000022888184,26.28000068664551,114500.0
2017-12-18,26.45000076293945,26.3700008392334,26.45000076293945,26.38999938964844,212600.0
2017-12-19,26.479999542236328,26.28499984741211,26.479999542236328,26.29999923706055,126500.0
2017-12-20,26.43199920654297,26.229999542236328,26.40999984741211,26.28000068664551,213200.0
2017-12-21,26.40999984741211,26.309999465942386,26.36000061035156,26.32999992370605,127200.0
2017-12-22,26.36000061035156,26.274999618530273,26.36000061035156,26.31999969482422,89700.0
2017-12-26,26.3700008392334,26.28000068664551,26.3700008392334,26.29999923706055,106100.0
2017-12-27,26.35000038146973,26.2810001373291,26.32999992370605,26.309999465942386,115200.0
2017-12-28,26.3799991607666,26.31999969482422,26.3799991607666,26.3700008392334,101200.0
2017-12-29,26.45000076293945,26.26000022888184,26.45000076293945,26.26000022888184,135100.0
2018-01-02,26.45000076293945,26.32999992370605,26.399999618530273,26.45000076293945,172800.0
2018-01-03,26.6299991607666,26.489999771118164,26.54999923706055,26.61000061035156,216400.0
2018-01-04,26.77599906921387,26.67900085449219,26.70000076293945,26.72500038146973,205200.0
2018-01-05,26.899999618530273,26.76799964904785,26.81999969482422,26.88999938964844,165900.0
2018-01-08,26.96999931335449,26.86000061035156,26.899999618530273,26.95000076293945,196700.0
2018-01-09,27.07999992370605,26.96999931335449,27.020000457763672,26.989999771118164,165000.0
2018-01-10,27.0,26.85000038146973,26.95000076293945,26.96999931335449,187100.0
2018-01-11,27.170000076293945,27.017000198364254,27.03000068664551,27.170000076293945,187500.0
2018-01-12,27.341999053955078,27.19499969482422,27.239999771118164,27.32500076293945,202500.0
2018-01-16,27.540000915527344,27.170000076293945,27.479999542236328,27.22800064086914,303500.0
2018-01-17,27.53000068664551,27.26000022888184,27.35000038146973,27.459999084472656,103200.0
2018-01-18,27.5,27.39800071716309,27.489999771118164,27.440000534057614,169000.0
2018-01-19,27.559999465942386,27.45499992370605,27.520000457763672,27.559999465942386,89000.0
2018-01-22,27.790000915527344,27.55100059509277,27.559999465942386,27.78899955749512,215900.0
2018-01-23,27.8799991607666,27.77199935913086,27.809999465942386,27.86000061035156,233100.0
2018-01-24,27.98900032043457,27.690000534057614,27.940000534057614,27.85000038146973,141900.0
2018-01-25,27.95000076293945,27.770000457763672,27.95000076293945,27.82999992370605,136500.0
2018-01-26,28.13999938964844,27.90099906921387,27.90999984741211,28.125999450683594,315800.0
2018-01-29,28.13999938964844,27.959999084472656,28.13999938964844,27.989999771118164,241800.0
2018-01-30,27.81999969482422,27.6200008392334,27.790000915527344,27.68000030517578,267900.0
2018-01-31,27.82999992370605,27.559999465942386,27.770000457763672,27.68899917602539,204200.0
2018-02-01,27.80900001525879,27.60000038146973,27.670000076293945,27.68000030517578,164300.0
2018-02-02,27.54999923706055,27.059999465942386,27.540000915527344,27.06999969482422,473800.0
2018-02-05,27.10000038146973,25.920000076293945,26.88999938964844,26.024999618530273,595600.0
2018-02-06,26.489999771118164,25.479999542236328,25.6299991607666,26.3700008392334,482200.0
2018-02-07,26.75,26.309999465942386,26.40999984741211,26.309999465942386,330500.0
2018-02-08,26.32999992370605,25.36000061035156,26.32999992370605,25.36000061035156,223100.0
2018-02-09,25.88999938964844,24.8799991607666,25.649999618530273,25.68000030517578,457500.0
2018-02-12,26.190000534057614,25.75,25.940000534057614,26.04999923706055,339300.0
2018-02-13,26.17799949645996,25.88999938964844,25.899999618530273,26.13999938964844,134600.0
2018-02-14,26.540000915527344,25.979999542236328,25.979999542236328,26.479999542236328,224100.0
2018-02-15,26.82999992370605,26.45000076293945,26.70000076293945,26.82999992370605,277600.0
2018-02-16,27.05900001525879,26.79800033569336,26.84000015258789,26.82999992370605,796600.0
2018-02-20,26.899999618530273,26.61000061035156,26.790000915527344,26.68000030517578,255700.0
2018-02-21,27.0,26.53000068664551,26.78000068664551,26.53000068664551,688700.0
2018-02-22,26.79999923706055,26.540000915527344,26.6200008392334,26.540000915527344,134100.0
2018-02-23,26.989999771118164,26.658000946044922,26.739999771118164,26.989999771118164,51200.0
2018-02-26,27.28000068664551,27.040000915527344,27.11000061035156,27.28000068664551,317100.0
2018-02-27,27.3799991607666,26.90999984741211,27.270000457763672,26.90999984741211,147600.0
2018-02-28,27.10000038146973,26.65999984741211,27.09000015258789,26.65999984741211,178200.0
2018-03-01,26.790000915527344,26.13999938964844,26.709999084472656,26.32999992370605,241300.0
2018-03-02,26.5,26.02799987792969,26.10000038146973,26.440000534057614,285900.0
2018-03-05,26.82999992370605,26.32200050354004,26.36000061035156,26.770000457763672,128900.0
2018-03-06,26.90999984741211,26.70000076293945,26.90999984741211,26.85000038146973,246300.0
2018-03-07,26.88999938964844,26.559999465942386,26.649999618530273,26.8700008392334,123500.0
2018-03-08,26.99900054931641,26.82999992370605,26.940000534057614,26.95000076293945,93400.0
2018-03-09,27.420000076293945,27.09000015258789,27.09000015258789,27.40999984741211,285800.0
2018-03-12,27.540000915527344,27.37400054931641,27.5,27.420000076293945,179200.0
2018-03-13,27.56999969482422,27.15999984741211,27.54999923706055,27.25,110200.0
2018-03-14,27.32999992370605,27.03499984741211,27.309999465942386,27.09000015258789,89800.0
2018-03-15,27.209999084472656,27.020000457763672,27.15999984741211,27.09000015258789,94600.0
2018-03-16,27.1200008392334,27.01000022888184,27.09000015258789,27.03000068664551,38700.0
2018-03-19,26.940000534057614,26.479999542236328,26.940000534057614,26.65999984741211,138800.0
2018-03-20,26.790000915527344,26.649999618530273,26.790000915527344,26.71999931335449,99400.0
2018-03-21,26.888999938964844,26.65999984741211,26.75,26.670000076293945,39600.0
2018-03-22,26.489999771118164,26.0,26.489999771118164,26.03000068664551,173400.0
2018-03-23,26.03000068664551,25.45000076293945,26.020000457763672,25.45000076293945,203100.0
2018-03-26,26.15999984741211,25.590999603271484,25.8700008392334,26.15999984741211,216400.0
2018-03-27,26.283000946044922,25.559999465942386,26.20000076293945,25.63999938964844,98200.0
2018-03-28,25.80500030517578,25.540000915527344,25.68000030517578,25.65999984741211,100500.0
2018-03-29,26.132999420166016,25.65999984741211,25.770000457763672,26.0,114100.0
2018-04-02,25.920000076293945,25.1200008392334,25.920000076293945,25.38999938964844,214600.0
2018-04-03,25.729999542236328,25.34600067138672,25.54999923706055,25.709999084472656,102300.0
2018-04-04,26.02300071716309,25.309999465942386,25.309999465942386,25.979999542236328,88900.0
2018-04-05,26.26799964904785,26.05599975585937,26.18000030517578,26.20000076293945,159700.0
2018-04-06,26.10000038146973,25.45000076293945,25.93000030517578,25.57999992370605,210800.0
2018-04-09,26.07200050354004,25.70000076293945,25.790000915527344,25.709999084472656,86900.0
2018-04-10,26.18000030517578,25.92099952697754,26.020000457763672,26.11000061035156,98200.0
2018-04-11,26.149999618530273,25.90999984741211,26.0,26.0,63500.0
2018-04-12,26.290000915527344,26.09499931335449,26.11000061035156,26.190000534057614,78300.0
2018-04-13,26.420000076293945,26.03700065612793,26.31999969482422,26.1200008392334,81400.0
2018-04-16,26.40399932861328,26.21199989318848,26.309999465942386,26.34000015258789,153200.0
2018-04-17,26.670000076293945,26.46999931335449,26.540000915527344,26.61000061035156,144000.0
2018-04-18,26.729999542236328,26.61000061035156,26.709999084472656,26.65999984741211,73600.0
2018-04-19,26.60000038146973,26.40500068664551,26.60000038146973,26.5,70700.0
2018-04-20,26.57999992370605,26.209999084472656,26.57999992370605,26.28000068664551,92700.0
2018-04-23,26.413000106811523,26.20000076293945,26.34000015258789,26.285999298095703,101200.0
2018-04-24,26.42300033569336,25.795000076293945,26.399999618530273,25.959999084472656,142000.0
2018-04-25,26.04999923706055,25.739999771118164,25.959999084472656,26.0,106000.0
2018-04-26,26.32600021362305,26.04999923706055,26.1200008392334,26.25,55900.0
2018-04-27,26.3700008392334,26.15999984741211,26.3700008392334,26.29599952697754,49700.0
2018-04-30,26.38999938964844,26.04999923706055,26.32999992370605,26.04999923706055,57000.0
2018-05-01,26.1200008392334,25.85300064086914,26.03000068664551,26.1200008392334,168100.0
2018-05-02,26.17600059509277,25.92499923706055,26.11000061035156,25.941999435424805,42200.0
2018-05-03,25.965999603271484,25.57500076293945,25.8799991607666,25.899999618530273,104700.0
2018-05-04,26.295000076293945,25.770999908447266,25.79999923706055,26.239999771118164,154300.0
2018-05-07,26.43600082397461,26.290000915527344,26.31999969482422,26.32999992370605,142400.0
2018-05-08,26.35400009155273,26.209999084472656,26.32999992370605,26.34000015258789,40600.0
2018-05-09,26.614999771118164,26.357999801635746,26.420000076293945,26.56399917602539,83600.0
2018-05-10,26.85000038146973,26.6299991607666,26.6299991607666,26.809999465942386,104700.0
2018-05-11,26.93000030517578,26.809999465942386,26.86000061035156,26.8799991607666,61400.0
2018-05-14,27.017000198364254,26.84700012207031,26.979999542236328,26.899999618530273,104300.0
2018-05-15,26.81100082397461,26.631000518798828,26.75,26.729999542236328,73600.0
2018-05-16,26.8799991607666,26.70000076293945,26.70000076293945,26.82999992370605,68700.0
2018-05-17,26.940000534057614,26.75,26.81999969482422,26.81999969482422,66500.0
2018-05-18,26.82999992370605,26.739999771118164,26.809999465942386,26.77300071716309,80300.0
2018-05-21,27.024999618530273,26.90099906921387,26.940000534057614,26.96500015258789,65900.0
2018-05-22,27.04999923706055,26.854999542236328,27.040000915527344,26.8700008392334,188100.0
2018-05-23,26.95000076293945,26.739999771118164,26.78000068664551,26.95000076293945,52300.0
2018-05-24,26.93400001525879,26.71500015258789,26.920000076293945,26.899999618530273,64300.0
2018-05-25,26.920000076293945,26.78499984741211,26.920000076293945,26.85000038146973,40700.0
2018-05-29,26.73900032043457,26.44099998474121,26.690000534057614,26.56999969482422,112800.0
2018-05-30,26.944000244140625,26.68000030517578,26.71999931335449,26.90999984741211,70300.0
2018-05-31,26.88999938964844,26.68000030517578,26.88999938964844,26.71999931335449,53400.0
2018-06-01,27.02400016784668,26.8700008392334,26.8700008392334,26.989999771118164,61400.0
2018-06-04,27.125999450683594,27.04999923706055,27.04999923706055,27.1200008392334,108600.0
2018-06-05,27.17900085449219,27.065000534057614,27.13999938964844,27.13999938964844,42200.0
2018-06-06,27.36000061035156,27.14699935913086,27.209999084472656,27.36000061035156,53000.0
2018-06-07,27.45499992370605,27.26499938964844,27.40999984741211,27.354999542236328,56300.0
2018-06-08,27.45000076293945,27.290000915527344,27.290000915527344,27.440000534057614,82800.0
2018-06-11,27.54999923706055,27.47500038146973,27.489999771118164,27.489999771118164,97200.0
2018-06-12,27.56599998474121,27.4689998626709,27.559999465942386,27.540000915527344,109000.0
2018-06-13,27.59000015258789,27.440000534057614,27.59000015258789,27.440000534057614,114900.0
2018-06-14,27.559999465942386,27.45000076293945,27.559999465942386,27.5049991607666,51000.0
2018-06-15,27.520000457763672,27.35000038146973,27.479999542236328,27.48600006103516,69100.0
2018-06-18,27.458999633789066,27.270000457763672,27.32999992370605,27.45000076293945,61700.0
2018-06-19,27.35000038146973,27.149999618530273,27.32999992370605,27.35000038146973,112700.0
2018-06-20,27.479999542236328,27.3799991607666,27.479999542236328,27.40500068664551,112700.0
2018-06-21,27.40999984741211,27.194000244140625,27.40999984741211,27.229999542236328,110600.0
2018-06-22,27.399999618530273,27.25,27.399999618530273,27.25,39900.0
2018-06-25,27.190000534057614,26.729999542236328,27.190000534057614,26.8799991607666,155100.0
2018-06-26,26.90099906921387,26.739999771118164,26.82999992370605,26.81999969482422,108300.0
2018-06-27,27.033000946044922,26.57999992370605,26.940000534057614,26.57999992370605,42100.0
2018-06-28,26.785999298095703,26.51000022888184,26.63999938964844,26.739999771118164,35900.0
2018-06-29,26.989999771118164,26.774999618530273,26.85000038146973,26.774999618530273,74400.0
2018-07-02,26.85000038146973,26.60000038146973,26.68000030517578,26.85000038146973,86500.0
2018-07-03,26.94300079345703,26.73600006103516,26.899999618530273,26.73600006103516,50000.0
2018-07-05,26.96999931335449,26.76000022888184,26.88999938964844,26.96999931335449,55500.0
2018-07-06,27.21999931335449,26.92799949645996,26.979999542236328,27.20000076293945,55600.0
2018-07-09,27.43000030517578,27.29999923706055,27.29999923706055,27.43000030517578,86000.0
2018-07-10,27.54999923706055,27.45000076293945,27.5,27.524999618530273,89300.0
2018-07-11,27.45000076293945,27.29999923706055,27.45000076293945,27.34000015258789,37400.0
2018-07-12,27.56999969482422,27.399999618530273,27.489999771118164,27.56999969482422,129300.0
2018-07-13,27.625999450683594,27.506999969482425,27.56999969482422,27.59000015258789,60300.0
2018-07-16,27.59000015258789,27.50900077819824,27.559999465942386,27.540000915527344,60200.0
2018-07-17,27.70000076293945,27.48500061035156,27.489999771118164,27.665000915527344,90200.0
2018-07-18,27.75,27.6299991607666,27.690000534057614,27.739999771118164,275800.0
2018-07-19,27.70000076293945,27.60000038146973,27.690000534057614,27.649999618530273,71200.0
2018-07-20,27.670000076293945,27.590999603271484,27.63999938964844,27.601999282836914,48900.0
2018-07-23,27.66699981689453,27.54999923706055,27.59000015258789,27.63999938964844,37500.0
2018-07-24,27.84499931335449,27.641000747680664,27.75,27.729999542236328,84700.0
2018-07-25,27.989999771118164,27.690000534057614,27.729999542236328,27.95000076293945,105800.0
2018-07-26,27.98200035095215,27.8700008392334,27.8700008392334,27.90999984741211,39000.0
2018-07-27,27.968000411987305,27.643999099731445,27.959999084472656,27.71999931335449,78400.0
2018-07-30,27.770000457763672,27.500999450683594,27.770000457763672,27.54999923706055,244600.0
2018-07-31,27.77599906921387,27.60700035095215,27.649999618530273,27.70499992370605,110100.0
2018-08-01,27.78000068664551,27.60000038146973,27.729999542236328,27.670000076293945,86000.0
2018-08-02,27.839000701904297,27.51000022888184,27.54999923706055,27.836000442504886,68500.0
2018-08-03,27.95000076293945,27.83799934387207,27.86000061035156,27.95000076293945,76500.0
2018-08-06,28.07699966430664,27.92099952697754,27.95000076293945,28.059999465942386,220400.0
2018-08-07,28.18000030517578,28.1200008392334,28.1200008392334,28.13999938964844,124200.0
2018-08-08,28.170000076293945,28.086000442504886,28.149999618530273,28.13999938964844,94600.0
2018-08-09,28.18000030517578,28.09000015258789,28.149999618530273,28.10000038146973,47800.0
2018-08-10,28.0049991607666,27.854999542236328,28.0,27.93000030517578,92400.0
2018-08-13,28.01099967956543,27.78000068664551,27.940000534057614,27.809999465942386,83100.0
2018-08-14,28.01000022888184,27.856000900268555,27.90999984741211,27.979999542236328,54900.0
2018-08-15,27.8799991607666,27.617000579833984,27.8799991607666,27.78000068664551,84300.0
2018-08-16,28.06399917602539,27.940000534057614,27.940000534057614,27.97500038146973,127000.0
2018-08-17,28.13999938964844,27.934999465942386,27.96999931335449,28.06999969482422,138000.0
2018-08-20,28.18099975585937,28.10000038146973,28.15999984741211,28.149999618530273,96300.0
2018-08-21,28.32999992370605,28.209999084472656,28.209999084472656,28.239999771118164,97900.0
2018-08-22,28.270000457763672,28.18000030517578,28.21999931335449,28.239999771118164,419700.0
2018-08-23,28.292999267578125,28.160999298095703,28.170000076293945,28.18000030517578,399100.0
2018-08-24,28.35000038146973,28.25,28.25,28.35000038146973,170100.0
2018-08-27,28.57900047302246,28.457000732421875,28.5,28.56999969482422,117900.0
2018-08-28,28.63599967956543,28.533000946044922,28.60000038146973,28.558000564575195,98400.0
2018-08-29,28.76000022888184,28.58099937438965,28.61000061035156,28.73600006103516,140600.0
2018-08-30,28.71999931335449,28.58699989318848,28.70000076293945,28.61100006103516,62500.0
2018-08-31,28.66200065612793,28.540000915527344,28.60000038146973,28.6299991607666,66700.0
2018-09-04,28.604999542236328,28.46999931335449,28.60000038146973,28.57999992370605,65300.0
2018-09-05,28.56999969482422,28.381000518798828,28.56999969482422,28.5,65000.0
2018-09-06,28.55900001525879,28.30500030517578,28.46999931335449,28.40999984741211,37700.0
2018-09-07,28.45000076293945,28.290000915527344,28.32999992370605,28.35000038146973,89700.0
2018-09-10,28.46999931335449,28.38500022888184,28.46999931335449,28.40999984741211,91300.0
2018-09-11,28.540000915527344,28.36000061035156,28.36000061035156,28.5,63300.0
2018-09-12,28.54999923706055,28.420000076293945,28.51000022888184,28.51000022888184,52200.0
2018-09-13,28.690000534057614,28.60000038146973,28.61000061035156,28.649999618530273,49000.0
2018-09-14,28.709999084472656,28.60000038146973,28.690000534057614,28.670000076293945,117900.0
2018-09-17,28.70000076293945,28.47100067138672,28.70000076293945,28.489999771118164,55200.0
2018-09-18,28.708999633789066,28.56999969482422,28.56999969482422,28.670000076293945,65500.0
2018-09-19,28.714000701904297,28.645999908447266,28.690000534057614,28.670000076293945,35400.0
2018-09-20,28.920000076293945,28.739999771118164,28.739999771118164,28.88999938964844,74000.0
2018-09-21,29.0,28.86000061035156,29.0,28.8799991607666,82500.0
2018-09-24,28.80900001525879,28.716999053955078,28.79999923706055,28.76000022888184,74700.0
2018-09-25,28.729999542236328,28.61000061035156,28.729999542236328,28.6299991607666,80600.0
2018-09-26,28.75,28.520000457763672,28.68000030517578,28.540000915527344,53100.0
2018-09-27,28.73500061035156,28.58699989318848,28.6200008392334,28.6200008392334,38500.0
2018-09-28,28.65999984741211,28.55500030517578,28.6200008392334,28.6200008392334,34400.0
2018-10-01,28.815000534057614,28.63999938964844,28.739999771118164,28.69700050354004,184400.0
2018-10-02,28.746999740600586,28.63500022888184,28.690000534057614,28.670000076293945,152700.0
2018-10-03,28.81999969482422,28.65699958801269,28.76000022888184,28.68000030517578,49400.0
2018-10-04,28.65999984741211,28.285999298095703,28.65999984741211,28.459999084472656,161900.0
2018-10-05,28.52199935913086,28.1299991607666,28.489999771118164,28.290000915527344,200000.0
2018-10-08,28.29999923706055,28.040000915527344,28.239999771118164,28.270000457763672,263500.0
2018-10-09,28.36000061035156,28.170000076293945,28.25,28.21999931335449,84200.0
2018-10-10,28.18000030517578,27.290000915527344,28.18000030517578,27.309999465942386,354500.0
2018-10-11,27.38999938964844,26.56999969482422,27.229999542236328,26.75,368100.0
2018-10-12,27.24900054931641,26.75,27.20000076293945,27.07999992370605,305100.0
2018-10-15,27.190000534057614,26.961000442504886,27.09000015258789,26.979999542236328,106500.0
2018-10-16,27.57999992370605,27.149999618530273,27.18000030517578,27.559999465942386,163400.0
2018-10-17,27.59499931335449,27.30100059509277,27.559999465942386,27.54999923706055,157500.0
2018-10-18,27.479999542236328,27.01499938964844,27.46999931335449,27.149999618530273,111600.0
2018-10-19,27.37400054931641,27.06999969482422,27.239999771118164,27.11000061035156,82300.0
2018-10-22,27.209999084472656,26.937000274658203,27.149999618530273,26.979999542236328,68100.0
2018-10-23,26.937000274658203,26.36000061035156,26.6299991607666,26.84000015258789,187100.0
2018-10-24,26.84000015258789,25.989999771118164,26.790000915527344,25.989999771118164,168600.0
2018-10-25,26.6299991607666,26.170000076293945,26.21999931335449,26.5,133300.0
2018-10-26,26.34000015258789,25.761999130249023,26.1200008392334,26.03000068664551,389800.0
2018-10-29,26.5049991607666,25.516000747680664,26.3700008392334,25.85700035095215,186400.0
2018-10-30,26.290000915527344,25.79999923706055,25.84000015258789,26.290000915527344,167300.0
2018-10-31,26.808000564575195,26.540000915527344,26.56999969482422,26.56999969482422,201200.0
2018-11-01,26.88500022888184,26.59000015258789,26.68000030517578,26.8799991607666,285200.0
2018-11-02,27.03899955749512,26.5,27.01000022888184,26.690000534057614,184200.0
2018-11-05,26.90900039672852,26.66200065612793,26.790000915527344,26.86000061035156,136800.0
2018-11-06,27.03000068664551,26.875,26.8799991607666,27.020000457763672,84200.0
2018-11-07,27.572999954223636,27.207000732421875,27.239999771118164,27.56999969482422,335700.0
2018-11-08,27.58300018310547,27.40999984741211,27.520000457763672,27.51000022888184,74300.0
2018-11-09,27.459999084472656,27.090999603271484,27.459999084472656,27.26000022888184,129900.0
2018-11-12,27.190000534057614,26.690000534057614,27.190000534057614,26.71999931335449,106300.0
2018-11-13,27.0,26.61400032043457,26.79999923706055,26.690000534057614,175400.0
2018-11-14,26.899999618530273,26.35000038146973,26.86000061035156,26.489999771118164,218000.0
2018-11-15,26.79999923706055,26.20000076293945,26.35000038146973,26.78000068664551,148000.0
2018-11-16,26.90999984741211,26.645000457763672,26.70000076293945,26.85000038146973,741100.0
2018-11-19,26.81999969482422,26.29700088500977,26.81999969482422,26.38999938964844,96900.0
2018-11-20,26.170000076293945,25.815000534057614,26.03000068664551,25.90999984741211,2642700.0
2018-11-21,26.22400093078613,26.020000457763672,26.040000915527344,26.020000457763672,87300.0
2018-11-23,26.024999618530273,25.8700008392334,25.8700008392334,25.8799991607666,66700.0
2018-11-26,26.290000915527344,26.07999992370605,26.1299991607666,26.28000068664551,169400.0
2018-11-27,26.34000015258789,26.117000579833984,26.20000076293945,26.34000015258789,166700.0
2018-11-28,26.940000534057614,26.36000061035156,26.51000022888184,26.940000534057614,174200.0
2018-11-29,27.04999923706055,26.76000022888184,26.899999618530273,26.899999618530273,169200.0
2018-11-30,27.1200008392334,26.8799991607666,26.899999618530273,27.11000061035156,119500.0
2018-12-03,27.56999969482422,27.239999771118164,27.56999969482422,27.415000915527344,394500.0
2018-12-04,27.368999481201172,26.5,27.31999969482422,26.540000915527344,227300.0
2018-12-06,26.48900032043457,25.77599906921387,26.15999984741211,26.482999801635746,252200.0
2018-12-07,26.60000038146973,25.790000915527344,26.43000030517578,25.90999984741211,282600.0
2018-12-10,25.97599983215332,25.40999984741211,25.82999992370605,25.899999618530273,1009900.0
2018-12-11,26.32999992370605,25.76000022888184,26.290000915527344,25.88999938964844,250400.0
2018-12-12,26.256000518798828,25.93000030517578,26.06999969482422,25.93000030517578,280700.0
2018-12-13,26.059999465942386,25.790000915527344,26.040000915527344,25.90999984741211,248600.0
2018-12-14,25.76499938964844,25.375,25.70000076293945,25.440000534057614,395900.0
2018-12-17,25.434999465942386,24.76000022888184,25.34000015258789,24.899999618530273,928400.0
2018-12-18,25.18000030517578,24.75,25.11000061035156,24.899999618530273,471000.0
2018-12-19,25.290000915527344,24.36000061035156,24.93000030517578,24.5,429200.0
2018-12-20,24.540000915527344,23.8799991607666,24.3700008392334,24.10000038146973,936700.0
2018-12-21,24.46999931335449,23.54999923706055,24.15999984741211,23.60000038146973,764200.0
2018-12-24,23.52599906921387,23.01000022888184,23.440000534057614,23.020000457763672,937600.0
2018-12-26,24.13999938964844,22.96999931335449,23.15999984741211,24.13999938964844,1280000.0
2018-12-27,24.34000015258789,23.459999084472656,23.770000457763672,24.32999992370605,4797900.0
2018-12-28,24.649999618530273,24.18400001525879,24.489999771118164,24.309999465942386,816900.0
2018-12-31,24.548999786376953,24.28700065612793,24.5,24.520000457763672,1307400.0
2019-01-02,24.63999938964844,24.149999618530273,24.20000076293945,24.559999465942386,225500.0
2019-01-03,24.35000038146973,23.95000076293945,24.35000038146973,23.979999542236328,298400.0
2019-01-04,24.83799934387207,24.295000076293945,24.309999465942386,24.78000068664551,248800.0
2019-01-07,25.149999618530273,24.739999771118164,24.82999992370605,24.979999542236328,545500.0
2019-01-08,25.28000068664551,24.979999542236328,25.239999771118164,25.229999542236328,360600.0
2019-01-09,25.459999084472656,25.209999084472656,25.34000015258789,25.3700008392334,175800.0
2019-01-10,25.5,25.15099906921387,25.190000534057614,25.489999771118164,300900.0
2019-01-11,25.489999771118164,25.30500030517578,25.35000038146973,25.479999542236328,260800.0
2019-01-14,25.42499923706055,25.239999771118164,25.309999465942386,25.35000038146973,277500.0
2019-01-15,25.62899971008301,25.32999992370605,25.32999992370605,25.60000038146973,175500.0
2019-01-16,25.770000457763672,25.645999908447266,25.670000076293945,25.690000534057614,150600.0
2019-01-17,25.96999931335449,25.60000038146973,25.60000038146973,25.8700008392334,153700.0
2019-01-18,26.263999938964844,26.0,26.07999992370605,26.229999542236328,255700.0
2019-01-22,26.07999992370605,25.709999084472656,26.07999992370605,25.8700008392334,425300.0
2019-01-23,26.03000068664551,25.641000747680664,25.959999084472656,25.899999618530273,239600.0
2019-01-24,25.99799919128418,25.815000534057614,25.899999618530273,25.959999084472656,264700.0
2019-01-25,26.25,26.10000038146973,26.11000061035156,26.190000534057614,245200.0
2019-01-28,26.0,25.81100082397461,25.959999084472656,26.0,243900.0
2019-01-29,26.04999923706055,25.8799991607666,26.020000457763672,25.959999084472656,169600.0
2019-01-30,26.440000534057614,26.04999923706055,26.1200008392334,26.36000061035156,124000.0
2019-01-31,26.625999450683594,26.32999992370605,26.36000061035156,26.56999969482422,281100.0
2019-02-01,26.70499992370605,26.53000068664551,26.6299991607666,26.6200008392334,453500.0
2019-02-04,26.792999267578125,26.55299949645996,26.60000038146973,26.790000915527344,177900.0
2019-02-05,26.940000534057614,26.809999465942386,26.8700008392334,26.920000076293945,348400.0
2019-02-06,26.94300079345703,26.809999465942386,26.90999984741211,26.8700008392334,224000.0
2019-02-07,26.76000022888184,26.46999931335449,26.739999771118164,26.63999938964844,640300.0
2019-02-08,26.670000076293945,26.415000915527344,26.51000022888184,26.670000076293945,829000.0
2019-02-11,26.76000022888184,26.63999938964844,26.76000022888184,26.70000076293945,636900.0
2019-02-12,27.06999969482422,26.864999771118164,26.88999938964844,27.040000915527344,261700.0
2019-02-13,27.19599914550781,27.06999969482422,27.09000015258789,27.11000061035156,228500.0
2019-02-14,27.18000030517578,26.93000030517578,27.03000068664551,27.06999969482422,325200.0
2019-02-15,27.36000061035156,27.239999771118164,27.26000022888184,27.36000061035156,159900.0
2019-02-19,27.47500038146973,27.290000915527344,27.29999923706055,27.40999984741211,232800.0
2019-02-20,27.489999771118164,27.34000015258789,27.43000030517578,27.440000534057614,170100.0
2019-02-21,27.420000076293945,27.26000022888184,27.420000076293945,27.35000038146973,102100.0
2019-02-22,27.540000915527344,27.40699958801269,27.45000076293945,27.53000068664551,147700.0
2019-02-25,27.74900054931641,27.559999465942386,27.670000076293945,27.56999969482422,253600.0
2019-02-26,27.6299991607666,27.516000747680664,27.520000457763672,27.540000915527344,160900.0
2019-02-27,27.57999992370605,27.3799991607666,27.489999771118164,27.559999465942386,156700.0
2019-02-28,27.56999969482422,27.459999084472656,27.54999923706055,27.46999931335449,134100.0
2019-03-01,27.70000076293945,27.5,27.649999618530273,27.65999984741211,117900.0
2019-03-04,27.81999969482422,27.29999923706055,27.790000915527344,27.540000915527344,135400.0
2019-03-05,27.56999969482422,27.45000076293945,27.540000915527344,27.51000022888184,133200.0
2019-03-06,27.540000915527344,27.290000915527344,27.540000915527344,27.31999969482422,144900.0
2019-03-07,27.29999923706055,27.011999130249023,27.29999923706055,27.10000038146973,287500.0
2019-03-08,27.059999465942386,26.85000038146973,26.93000030517578,27.040000915527344,236200.0
2019-03-11,27.45000076293945,27.131999969482425,27.13999938964844,27.45000076293945,295300.0
2019-03-12,27.59000015258789,27.479999542236328,27.479999542236328,27.520000457763672,149000.0
2019-03-13,27.809999465942386,27.59000015258789,27.63999938964844,27.709999084472656,143300.0
2019-03-14,27.76000022888184,27.65500068664551,27.739999771118164,27.690000534057614,84300.0
2019-03-15,27.90999984741211,27.75,27.770000457763672,27.81999969482422,112200.0
2019-03-18,27.96999931335449,27.84000015258789,27.8799991607666,27.940000534057614,96200.0
2019-03-19,28.114999771118164,27.84000015258789,28.01000022888184,27.940000534057614,218700.0
2019-03-20,27.90699958801269,27.593000411987305,27.81999969482422,27.71999931335449,127100.0
2019-03-21,28.06999969482422,27.57999992370605,27.63999938964844,28.03000068664551,164100.0
2019-03-22,27.9379997253418,27.46999931335449,27.90999984741211,27.46999931335449,132400.0
2019-03-25,27.559999465942386,27.31800079345703,27.45000076293945,27.459999084472656,146400.0
2019-03-26,27.75,27.520000457763672,27.6200008392334,27.65999984741211,392700.0
2019-03-27,27.715999603271484,27.35000038146973,27.63999938964844,27.51000022888184,129700.0
2019-03-28,27.673999786376953,27.47500038146973,27.56999969482422,27.63999938964844,49300.0
2019-03-29,27.833999633789066,27.690000534057614,27.809999465942386,27.82999992370605,161000.0
2019-04-01,28.170000076293945,28.00300025939941,28.040000915527344,28.149999618530273,190600.0
2019-04-02,28.170000076293945,28.065000534057614,28.13999938964844,28.15999984741211,128000.0
2019-04-03,28.32999992370605,28.141000747680664,28.28000068664551,28.21999931335449,91000.0
2019-04-04,28.290000915527344,28.149999618530273,28.21999931335449,28.26000022888184,95100.0
2019-04-05,28.40999984741211,28.34000015258789,28.36000061035156,28.40999984741211,160500.0
2019-04-08,28.440000534057614,28.290000915527344,28.3799991607666,28.440000534057614,131300.0
2019-04-09,28.3799991607666,28.239999771118164,28.309999465942386,28.26000022888184,445400.0
2019-04-10,28.399999618530273,28.290000915527344,28.29999923706055,28.3799991607666,108700.0
2019-04-11,28.45000076293945,28.32999992370605,28.45000076293945,28.40999984741211,100900.0
2019-04-12,28.60000038146973,28.493000030517575,28.540000915527344,28.57999992370605,107500.0
2019-04-15,28.6299991607666,28.479999542236328,28.61000061035156,28.56999969482422,87200.0
2019-04-16,28.670000076293945,28.540000915527344,28.670000076293945,28.57999992370605,74800.0
2019-04-17,28.70000076293945,28.43600082397461,28.70000076293945,28.489999771118164,122500.0
2019-04-18,28.559999465942386,28.399999618530273,28.559999465942386,28.540000915527344,51400.0
2019-04-22,28.559999465942386,28.45000076293945,28.46999931335449,28.559999465942386,89600.0
2019-04-23,28.84000015258789,28.59000015258789,28.61000061035156,28.82999992370605,125200.0
2019-04-24,28.858999252319336,28.77199935913086,28.84000015258789,28.78000068664551,144000.0
2019-04-25,28.809999465942386,28.6299991607666,28.78000068664551,28.75,82800.0
2019-04-26,28.88999938964844,28.68000030517578,28.770000457763672,28.88999938964844,94800.0
2019-04-29,28.989999771118164,28.899999618530273,28.899999618530273,28.93000030517578,110900.0
2019-04-30,28.96999931335449,28.739999771118164,28.93000030517578,28.95000076293945,103200.0
2019-05-01,29.02199935913086,28.73200035095215,29.020000457763672,28.73200035095215,132300.0
2019-05-02,28.809999465942386,28.51499938964844,28.71999931335449,28.690000534057614,141200.0
2019-05-03,28.979999542236328,28.81999969482422,28.8700008392334,28.979999542236328,96200.0
2019-05-06,28.88999938964844,28.459999084472656,28.5,28.86000061035156,177400.0
2019-05-07,28.649999618530273,28.16399955749512,28.61000061035156,28.3799991607666,289400.0
2019-05-08,28.5049991607666,28.270000457763672,28.35000038146973,28.32999992370605,183300.0
2019-05-09,28.28000068664551,27.899999618530273,28.06999969482422,28.25,271400.0
2019-05-10,28.415000915527344,27.83300018310547,28.149999618530273,28.3700008392334,141400.0
2019-05-13,27.89900016784668,27.559999465942386,27.86000061035156,27.670000076293945,395700.0
2019-05-14,28.06800079345703,27.75900077819824,27.770000457763672,27.899999618530273,177200.0
2019-05-15,28.1299991607666,27.75,27.75,28.06999969482422,94900.0
2019-05-16,28.476999282836914,28.1299991607666,28.1299991607666,28.32999992370605,111600.0
2019-05-17,28.399999618530273,28.10000038146973,28.10000038146973,28.149999618530273,73600.0
2019-05-20,28.059999465942386,27.87400054931641,27.989999771118164,27.95000076293945,96100.0
2019-05-21,28.23900032043457,28.10000038146973,28.10000038146973,28.190000534057614,65400.0
2019-05-22,28.190000534057614,28.07699966430664,28.11000061035156,28.1200008392334,50900.0
2019-05-23,27.8700008392334,27.61000061035156,27.8700008392334,27.78000068664551,317400.0
2019-05-24,27.959999084472656,27.77700042724609,27.920000076293945,27.82999992370605,48100.0
2019-05-28,27.964000701904297,27.60000038146973,27.8799991607666,27.60000038146973,54700.0
2019-05-29,27.459999084472656,27.25,27.45000076293945,27.38999938964844,118300.0
2019-05-30,27.56100082397461,27.35000038146973,27.479999542236328,27.46999931335449,53900.0
2019-05-31,27.28199958801269,27.09499931335449,27.18000030517578,27.1200008392334,257400.0
2019-06-03,27.216999053955078,26.892000198364254,27.11000061035156,27.024999618530273,113100.0
2019-06-04,27.63999938964844,27.256999969482425,27.26000022888184,27.63999938964844,73800.0
2019-06-05,27.8700008392334,27.606000900268555,27.809999465942386,27.85000038146973,81100.0
2019-06-06,28.09700012207031,27.856000900268555,27.899999618530273,28.04999923706055,282700.0
2019-06-07,28.420000076293945,28.15999984741211,28.18000030517578,28.31999969482422,173900.0
2019-06-10,28.643999099731445,28.45800018310547,28.5,28.459999084472656,182300.0
2019-06-11,28.690000534057614,28.381000518798828,28.670000076293945,28.45000076293945,45400.0
2019-06-12,28.440000534057614,28.34499931335449,28.399999618530273,28.399999618530273,58400.0
2019-06-13,28.54999923706055,28.42499923706055,28.479999542236328,28.53000068664551,115600.0
2019-06-14,28.52899932861328,28.40699958801269,28.479999542236328,28.46999931335449,39000.0
2019-06-17,28.56999969482422,28.479999542236328,28.479999542236328,28.51000022888184,168800.0
2019-06-18,28.9060001373291,28.63999938964844,28.670000076293945,28.767000198364254,172000.0
2019-06-19,28.91900062561035,28.739999771118164,28.79999923706055,28.8799991607666,67500.0
2019-06-20,29.16699981689453,28.934999465942386,29.1200008392334,29.1200008392334,112100.0
2019-06-21,29.20000076293945,29.04700088500977,29.1200008392334,29.09000015258789,128800.0
2019-06-24,29.1200008392334,29.017000198364254,29.11000061035156,29.020000457763672,72400.0
2019-06-25,29.020000457763672,28.71999931335449,29.020000457763672,28.739999771118164,76200.0
2019-06-26,28.75300025939941,28.56999969482422,28.71999931335449,28.56999969482422,58500.0
2019-06-27,28.739999771118164,28.645000457763672,28.670000076293945,28.71999931335449,64800.0
2019-06-28,28.899999618530273,28.76000022888184,28.809999465942386,28.87299919128418,86500.0
2019-07-01,29.25,28.996999740600586,29.21999931335449,29.1200008392334,105900.0
2019-07-02,29.15999984741211,29.03000068664551,29.1299991607666,29.158000946044922,95700.0
2019-07-03,29.40099906921387,29.239999771118164,29.239999771118164,29.40099906921387,84700.0
2019-07-05,29.410999298095703,29.163000106811523,29.32999992370605,29.36000061035156,73400.0
2019-07-08,29.27300071716309,29.19599914550781,29.270000457763672,29.239999771118164,51700.0
2019-07-09,29.29999923706055,29.07999992370605,29.11000061035156,29.28000068664551,46800.0
2019-07-10,29.50900077819824,29.339000701904297,29.3799991607666,29.399999618530273,104500.0
2019-07-11,29.5,29.3700008392334,29.5,29.461000442504886,59100.0
2019-07-12,29.61400032043457,29.5,29.5,29.61400032043457,58200.0
2019-07-15,29.670000076293945,29.565000534057614,29.670000076293945,29.6299991607666,62400.0
2019-07-16,29.6299991607666,29.50399971008301,29.6299991607666,29.51000022888184,89900.0
2019-07-17,29.540000915527344,29.34000015258789,29.540000915527344,29.35000038146973,54300.0
2019-07-18,29.459999084472656,29.239999771118164,29.309999465942386,29.444000244140625,38600.0
2019-07-19,29.61000061035156,29.28000068664551,29.56999969482422,29.28000068664551,37000.0
2019-07-22,29.39800071716309,29.270000457763672,29.29999923706055,29.34000015258789,69800.0
2019-07-23,29.559999465942386,29.38999938964844,29.46999931335449,29.559999465942386,59000.0
2019-07-24,29.71500015258789,29.520000457763672,29.520000457763672,29.70000076293945,77200.0
2019-07-25,29.70000076293945,29.4950008392334,29.70000076293945,29.56999969482422,65800.0
2019-07-26,29.790000915527344,29.6200008392334,29.6200008392334,29.75,61600.0
2019-07-29,29.790000915527344,29.63999938964844,29.790000915527344,29.71999931335449,43100.0
2019-07-30,29.690000534057614,29.51000022888184,29.54999923706055,29.65999984741211,119500.0
2019-07-31,29.70000076293945,29.117000579833984,29.68000030517578,29.31999969482422,334200.0
2019-08-01,29.61199951171875,28.989999771118164,29.36000061035156,29.07999992370605,77200.0
2019-08-02,28.979999542236328,28.666000366210934,28.979999542236328,28.81999969482422,243900.0
2019-08-05,28.40999984741211,27.75,28.40999984741211,27.989999771118164,267500.0
2019-08-06,28.375999450683594,28.013999938964844,28.18000030517578,28.34000015258789,178200.0
2019-08-07,28.459999084472656,27.809999465942386,28.040000915527344,28.399999618530273,114400.0
2019-08-08,28.920000076293945,28.5049991607666,28.54999923706055,28.90999984741211,360200.0
2019-08-09,28.8700008392334,28.56599998474121,28.81999969482422,28.7450008392334,74000.0
2019-08-12,28.60000038146973,28.20000076293945,28.60000038146973,28.38999938964844,237400.0
2019-08-13,28.941999435424805,28.31999969482422,28.31999969482422,28.774999618530273,121500.0
2019-08-14,28.440000534057614,27.95000076293945,28.32999992370605,27.95000076293945,224700.0
2019-08-15,28.09600067138672,27.809999465942386,28.04999923706055,28.03000068664551,107400.0
2019-08-16,28.47400093078613,28.170000076293945,28.170000076293945,28.43000030517578,81500.0
2019-08-19,28.83300018310547,28.69300079345703,28.75,28.76000022888184,97100.0
2019-08-20,28.75300025939941,28.54700088500977,28.75,28.54999923706055,56400.0
2019-08-21,28.82699966430664,28.7450008392334,28.790000915527344,28.79999923706055,68800.0
2019-08-22,28.93000030517578,28.60000038146973,28.85000038146973,28.770000457763672,75600.0
2019-08-23,28.809999465942386,27.93000030517578,28.690000534057614,28.059999465942386,150000.0
2019-08-26,28.34900093078613,28.149999618530273,28.25,28.34000015258789,63600.0
2019-08-27,28.53000068664551,28.17499923706055,28.520000457763672,28.239999771118164,56700.0
2019-08-28,28.420000076293945,28.07999992370605,28.13999938964844,28.399999618530273,81300.0
2019-08-29,28.82999992370605,28.61000061035156,28.670000076293945,28.770000457763672,164000.0
2019-08-30,28.940000534057614,28.670000076293945,28.920000076293945,28.790000915527344,73000.0
2019-09-03,28.665000915527344,28.46999931335449,28.57999992370605,28.60000038146973,86400.0
2019-09-04,28.91900062561035,28.770000457763672,28.79999923706055,28.899999618530273,57800.0
2019-09-05,29.38999938964844,29.15999984741211,29.15999984741211,29.28000068664551,184000.0
2019-09-06,29.3700008392334,29.266000747680664,29.31999969482422,29.29999923706055,56600.0
2019-09-09,29.399999618530273,29.222999572753906,29.399999618530273,29.31999969482422,46200.0
2019-09-10,29.31999969482422,29.10000038146973,29.239999771118164,29.31999969482422,52600.0
2019-09-11,29.53000068664551,29.29999923706055,29.36000061035156,29.53000068664551,75000.0
2019-09-12,29.722999572753906,29.54800033569336,29.60000038146973,29.60000038146973,122500.0
2019-09-13,29.709999084472656,29.56599998474121,29.670000076293945,29.59000015258789,41000.0
2019-09-16,29.565000534057614,29.459999084472656,29.5,29.520000457763672,52700.0
2019-09-17,29.6200008392334,29.5,29.53000068664551,29.6200008392334,66100.0
2019-09-18,29.6200008392334,29.32500076293945,29.54999923706055,29.6200008392334,45100.0
2019-09-19,29.75300025939941,29.60000038146973,29.63999938964844,29.60000038146973,54500.0
2019-09-20,29.70000076293945,29.440000534057614,29.63999938964844,29.45000076293945,55300.0
2019-09-23,29.54199981689453,29.38999938964844,29.38999938964844,29.47900009155273,36700.0
2019-09-24,29.61199951171875,29.13999938964844,29.61000061035156,29.229999542236328,146100.0
2019-09-25,29.28499984741211,28.95599937438965,29.06999969482422,29.270000457763672,46400.0
2019-09-26,29.27599906921387,29.093000411987305,29.26000022888184,29.190000534057614,45200.0
2019-09-27,29.290000915527344,28.882999420166016,29.290000915527344,29.040000915527344,80200.0
2019-09-30,29.229999542236328,29.040000915527344,29.040000915527344,29.15999984741211,89800.0
2019-10-01,29.33300018310547,28.79999923706055,29.28000068664551,28.79999923706055,248100.0
2019-10-02,28.6299991607666,28.19899940490723,28.6299991607666,28.32999992370605,275500.0
2019-10-03,28.54999923706055,28.01799964904785,28.309999465942386,28.54999923706055,94900.0
2019-10-04,28.95000076293945,28.63999938964844,28.63999938964844,28.940000534057614,103000.0
2019-10-07,29.020000457763672,28.81999969482422,28.8799991607666,28.82999992370605,47300.0
2019-10-08,28.666000366210934,28.3700008392334,28.649999618530273,28.3700008392334,96500.0
2019-10-09,28.722999572753906,28.520000457763672,28.59000015258789,28.61000061035156,55100.0
2019-10-10,28.90299987792969,28.6299991607666,28.6299991607666,28.809999465942386,50100.0
2019-10-11,29.35000038146973,29.06999969482422,29.06999969482422,29.1200008392334,175700.0
2019-10-14,29.14699935913086,29.059999465942386,29.11000061035156,29.10300064086914,41500.0
2019-10-15,29.45000076293945,29.18000030517578,29.18000030517578,29.38999938964844,69100.0
2019-10-16,29.38500022888184,29.270000457763672,29.34000015258789,29.32999992370605,29600.0
2019-10-17,29.489999771118164,29.36000061035156,29.459999084472656,29.420000076293945,51000.0
2019-10-18,29.40999984741211,29.20000076293945,29.36000061035156,29.309999465942386,38900.0
2019-10-21,29.489999771118164,29.399999618530273,29.399999618530273,29.46999931335449,63100.0
2019-10-22,29.548999786376953,29.36000061035156,29.520000457763672,29.36000061035156,99100.0
2019-10-23,29.459999084472656,29.35000038146973,29.36000061035156,29.459999084472656,58100.0
2019-10-24,29.54400062561035,29.434999465942386,29.540000915527344,29.533000946044922,45400.0
2019-10-25,29.690000534057614,29.489999771118164,29.489999771118164,29.65999984741211,95100.0
2019-10-28,29.86000061035156,29.75,29.75,29.82999992370605,92900.0
2019-10-29,29.892000198364254,29.770000457763672,29.79999923706055,29.79999923706055,53000.0
2019-10-30,29.90999984741211,29.690000534057614,29.82999992370605,29.88999938964844,62200.0
2019-10-31,29.864999771118164,29.66200065612793,29.86000061035156,29.79999923706055,65600.0
2019-11-01,30.09000015258789,29.947999954223636,29.959999084472656,30.09000015258789,128200.0
2019-11-04,30.270999908447266,30.167999267578125,30.239999771118164,30.209999084472656,137600.0
2019-11-05,30.25,30.142000198364254,30.25,30.15999984741211,86800.0
2019-11-06,30.190000534057614,30.09000015258789,30.190000534057614,30.16200065612793,176100.0
2019-11-07,30.3799991607666,30.218000411987305,30.29999923706055,30.26000022888184,132700.0
2019-11-08,30.332000732421875,30.15999984741211,30.26000022888184,30.332000732421875,90400.0
2019-11-11,30.31999969482422,30.209999084472656,30.239999771118164,30.30599975585937,63800.0
2019-11-12,30.464000701904297,30.29999923706055,30.31999969482422,30.35000038146973,156400.0
2019-11-13,30.413000106811523,30.239999771118164,30.239999771118164,30.36000061035156,79700.0
2019-11-14,30.420000076293945,30.30900001525879,30.36000061035156,30.40999984741211,54600.0
2019-11-15,30.6299991607666,30.50200080871582,30.53000068664551,30.6299991607666,65200.0
2019-11-18,30.68000030517578,30.57200050354004,30.60400009155273,30.64299964904785,143300.0
2019-11-19,30.739999771118164,30.593000411987305,30.739999771118164,30.670000076293945,67100.0
2019-11-20,30.66699981689453,30.393999099731445,30.6299991607666,30.56999969482422,66700.0
2019-11-21,30.61000061035156,30.440000534057614,30.61000061035156,30.50200080871582,61200.0
2019-11-22,30.591999053955078,30.46999931335449,30.59000015258789,30.56599998474121,98600.0
2019-11-25,30.81999969482422,30.690000534057614,30.690000534057614,30.81800079345703,104600.0
2019-11-26,30.899999618530273,30.79999923706055,30.79999923706055,30.88999938964844,111700.0
2019-11-27,31.03000068664551,30.92499923706055,30.940000534057614,31.020000457763672,84200.0
2019-11-29,30.99600028991699,30.88999938964844,30.989999771118164,30.920000076293945,38100.0
2019-12-02,30.959999084472656,30.61000061035156,30.959999084472656,30.63599967956543,144000.0
2019-12-03,30.440000534057614,30.229999542236328,30.3799991607666,30.440000534057614,188800.0
2019-12-04,30.690000534057614,30.533000946044922,30.54999923706055,30.6299991607666,42500.0
2019-12-05,30.71999931335449,30.56999969482422,30.71999931335449,30.68000030517578,102300.0
2019-12-06,30.989999771118164,30.88999938964844,30.899999618530273,30.95000076293945,96600.0
2019-12-09,30.959999084472656,30.85000038146973,30.93000030517578,30.85000038146973,56100.0
2019-12-10,30.88999938964844,30.763999938964844,30.86000061035156,30.81999969482422,73800.0
2019-12-11,30.90699958801269,30.809999465942386,30.81999969482422,30.8799991607666,65300.0
2019-12-12,31.03000068664551,30.6879997253418,30.71999931335449,30.96999931335449,136000.0
2019-12-13,31.083999633789066,30.85300064086914,30.96999931335449,30.979999542236328,78400.0
2019-12-16,31.26000022888184,31.15999984741211,31.15999984741211,31.20000076293945,95000.0
2019-12-17,31.26000022888184,31.20000076293945,31.26000022888184,31.207000732421875,68900.0
2019-12-18,31.26000022888184,31.20499992370605,31.26000022888184,31.215999603271484,275200.0
2019-12-19,31.35000038146973,31.229999542236328,31.270000457763672,31.34000015258789,175700.0
2019-12-20,31.53000068664551,31.45000076293945,31.45000076293945,31.506999969482425,110700.0
2019-12-23,31.60000038146973,31.51000022888184,31.60000038146973,31.51000022888184,108000.0
2019-12-24,31.559999465942386,31.4950008392334,31.540000915527344,31.517000198364254,56100.0
2019-12-26,31.65999984741211,31.57999992370605,31.57999992370605,31.65999984741211,116100.0
2019-12-27,31.76000022888184,31.63999938964844,31.76000022888184,31.690000534057614,72400.0
2019-12-30,31.709999084472656,31.45000076293945,31.709999084472656,31.479999542236328,137000.0
2019-12-31,31.59000015258789,31.440000534057614,31.479999542236328,31.56999969482422,75000.0
2020-01-02,31.85000038146973,31.64900016784668,31.770000457763672,31.85000038146973,166900.0
2020-01-03,31.75,31.520000457763672,31.57999992370605,31.65999984741211,138400.0
2020-01-06,31.75,31.40999984741211,31.420000076293945,31.75,295300.0
2020-01-07,31.75,31.63999938964844,31.729999542236328,31.690000534057614,98200.0
2020-01-08,31.965999603271484,31.70000076293945,31.70000076293945,31.833999633789066,169200.0
2020-01-09,32.053001403808594,31.95000076293945,32.0,32.04600143432617,121800.0
2020-01-10,32.130001068115234,31.93000030517578,32.130001068115234,31.964000701904297,148500.0
2020-01-13,32.18000030517578,31.9950008392334,32.029998779296875,32.18000030517578,137100.0
2020-01-14,32.26300048828125,32.10499954223633,32.169998168945305,32.15999984741211,170500.0
2020-01-15,32.310001373291016,32.139999389648445,32.15999984741211,32.220001220703125,81000.0
2020-01-16,32.5,32.360000610351555,32.389999389648445,32.5,101800.0
2020-01-17,32.59999847412109,32.511001586914055,32.59000015258789,32.59999847412109,83400.0
2020-01-21,32.610000610351555,32.47999954223633,32.52000045776367,32.529998779296875,174400.0
2020-01-22,32.68899917602539,32.509998321533196,32.630001068115234,32.549999237060554,217500.0
2020-01-23,32.580001831054695,32.34999847412109,32.490001678466804,32.580001831054695,116700.0
2020-01-24,32.65999984741211,32.14400100708008,32.65999984741211,32.290000915527344,144900.0
2020-01-27,31.920000076293945,31.6299991607666,31.75,31.78000068664551,303600.0
2020-01-28,32.18199920654297,31.8799991607666,31.8799991607666,32.09999847412109,88900.0
2020-01-29,32.259998321533196,32.06999969482422,32.259998321533196,32.080001831054695,109700.0
2020-01-30,32.189998626708984,31.79999923706055,31.8799991607666,32.189998626708984,144500.0
2020-01-31,32.139999389648445,31.520000457763672,32.139999389648445,31.6200008392334,164300.0
2020-02-03,32.040000915527344,31.78000068664551,31.78000068664551,31.8799991607666,116300.0
2020-02-04,32.46500015258789,32.220001220703125,32.290000915527344,32.380001068115234,136200.0
2020-02-05,32.71799850463867,32.5,32.689998626708984,32.689998626708984,152500.0
2020-02-06,32.799999237060554,32.69699859619141,32.77000045776367,32.77000045776367,117900.0
2020-02-07,32.740001678466804,32.557998657226555,32.700000762939446,32.61999893188477,123900.0
2020-02-10,32.84999847412109,32.53900146484375,32.540000915527344,32.84999847412109,339800.0
2020-02-11,33.09999847412109,32.90399932861328,33.0,32.939998626708984,153900.0
2020-02-12,33.15999984741211,33.05099868774414,33.09999847412109,33.150001525878906,94000.0
2020-02-13,33.220001220703125,32.950000762939446,33.02000045776367,33.130001068115234,123100.0
2020-02-14,33.22999954223633,33.080001831054695,33.200000762939446,33.200000762939446,115500.0
2020-02-18,33.154998779296875,32.970001220703125,33.110000610351555,33.10900115966797,106600.0
2020-02-19,33.34999847412109,33.21500015258789,33.22999954223633,33.279998779296875,150700.0
2020-02-20,33.317001342773445,32.84999847412109,33.200000762939446,33.150001525878906,145500.0
2020-02-21,33.029998779296875,32.72999954223633,33.029998779296875,32.830001831054695,82600.0
2020-02-24,32.040000915527344,31.618999481201172,31.84000015258789,31.739999771118164,385100.0
2020-02-25,31.899999618530273,30.687000274658203,31.899999618530273,30.78000068664551,538900.0
2020-02-26,31.28000068664551,30.55699920654297,30.93000030517578,30.649999618530273,466400.0
2020-02-27,30.43000030517578,29.25,30.01000022888184,29.25,642600.0
2020-02-28,29.07900047302246,28.059999465942386,28.3700008392334,29.040000915527344,538000.0
2020-03-02,30.31999969482422,28.97800064086914,29.26000022888184,30.31999969482422,453900.0
2020-03-03,30.79999923706055,29.233999252319336,30.5,29.520000457763672,515200.0
2020-03-04,30.729999542236328,29.822999954223636,30.11000061035156,30.729999542236328,264700.0
2020-03-05,30.2549991607666,29.479999542236328,29.920000076293945,29.729999542236328,275400.0
2020-03-06,29.290000915527344,28.479999542236328,28.78000068664551,29.18000030517578,397700.0
2020-03-09,27.82999992370605,26.79999923706055,26.96999931335449,26.85000038146973,987600.0
2020-03-10,28.20000076293945,26.79999923706055,27.85000038146973,28.190000534057614,449500.0
2020-03-11,27.57900047302246,26.479999542236328,27.45000076293945,26.78000068664551,1004100.0
2020-03-12,27.149999618530273,24.15999984741211,25.020000457763672,24.15999984741211,1655100.0
2020-03-13,26.459999084472656,24.32500076293945,25.670000076293945,26.459999084472656,712300.0
2020-03-16,24.96999931335449,23.11000061035156,23.86000061035156,23.750999450683594,661900.0
2020-03-17,24.76000022888184,23.0,23.790000915527344,24.45199966430664,687900.0
2020-03-18,23.78499984741211,22.08699989318848,23.11000061035156,23.35000038146973,946200.0
2020-03-19,23.90399932861328,22.36000061035156,22.959999084472656,23.395000457763672,617900.0
2020-03-20,23.90999984741211,22.309999465942386,23.670000076293945,22.309999465942386,526600.0
2020-03-23,22.34000015258789,21.299999237060547,22.239999771118164,21.700000762939453,632800.0
2020-03-24,23.84000015258789,22.871999740600586,22.979999542236328,23.81999969482422,667400.0
2020-03-25,24.959999084472656,23.420000076293945,23.979999542236328,23.959999084472656,1158100.0
2020-03-26,25.59000015258789,24.34000015258789,24.34000015258789,25.5310001373291,679300.0
2020-03-27,25.35000038146973,24.45000076293945,24.670000076293945,24.68000030517578,386300.0
2020-03-30,25.51499938964844,24.690000534057614,24.82999992370605,25.440000534057614,353400.0
2020-03-31,25.6200008392334,24.95000076293945,25.38999938964844,25.06999969482422,413000.0
2020-04-01,24.42499923706055,23.70499992370605,24.13999938964844,23.93000030517578,365200.0
2020-04-02,24.506999969482425,23.79999923706055,23.79999923706055,24.459999084472656,189100.0
2020-04-03,24.545000076293945,23.77899932861328,24.3799991607666,24.059999465942386,192900.0
2020-04-06,25.85000038146973,24.91699981689453,24.989999771118164,25.670000076293945,621700.0
2020-04-07,26.649999618530273,25.76000022888184,26.649999618530273,25.76000022888184,429300.0
2020-04-08,26.75,25.819000244140625,26.059999465942386,26.6200008392334,324200.0
2020-04-09,27.35000038146973,26.82999992370605,27.01000022888184,27.059999465942386,991100.0
2020-04-13,27.03000068664551,26.40500068664551,27.03000068664551,26.78000068664551,282900.0
2020-04-14,27.670000076293945,27.25,27.399999618530273,27.59000015258789,271500.0
2020-04-15,27.170000076293945,26.790000915527344,27.01000022888184,27.020000457763672,244400.0
2020-04-16,27.2189998626709,26.82399940490723,27.1299991607666,27.1200008392334,140700.0
2020-04-17,27.940000534057614,27.489999771118164,27.78000068664551,27.899999618530273,229500.0
2020-04-20,27.8700008392334,27.381000518798828,27.440000534057614,27.43000030517578,167100.0
2020-04-21,27.059999465942386,26.459999084472656,27.0,26.57999992370605,376700.0
2020-04-22,27.309999465942386,26.959999084472656,27.1200008392334,27.170000076293945,125700.0
2020-04-23,27.59499931335449,27.131000518798828,27.31999969482422,27.149999618530273,296400.0
2020-04-24,27.61000061035156,27.1200008392334,27.32999992370605,27.540000915527344,108400.0
2020-04-27,28.104999542236328,27.729999542236328,27.78000068664551,28.020000457763672,180900.0
2020-04-28,28.40999984741211,27.85000038146973,28.40999984741211,27.8799991607666,288900.0
2020-04-29,28.809999465942386,28.3700008392334,28.5,28.63999938964844,343200.0
2020-04-30,28.54999923706055,28.18000030517578,28.540000915527344,28.31999969482422,190400.0
2020-05-01,27.899999618530273,27.459999084472656,27.85000038146973,27.57999992370605,242200.0
2020-05-04,27.690000534057614,27.229999542236328,27.35000038146973,27.690000534057614,176900.0
2020-05-05,28.229999542236328,27.891000747680664,28.0,27.95000076293945,166200.0
2020-05-06,28.229999542236328,27.76000022888184,28.10000038146973,27.76000022888184,136000.0
2020-05-07,28.32999992370605,28.07999992370605,28.07999992370605,28.11000061035156,1191200.0
2020-05-08,28.65999984741211,28.3700008392334,28.420000076293945,28.6200008392334,131900.0
2020-05-11,28.78000068664551,28.37800025939941,28.38999938964844,28.6299991607666,289400.0
2020-05-12,28.790000915527344,28.03000068664551,28.75,28.03000068664551,158100.0
2020-05-13,28.05400085449219,27.26000022888184,27.95000076293945,27.520000457763672,238000.0
2020-05-14,27.82999992370605,26.96999931335449,27.21999931335449,27.81999969482422,223800.0
2020-05-15,27.96999931335449,27.520000457763672,27.6200008392334,27.96999931335449,93800.0
2020-05-18,29.01000022888184,28.61000061035156,28.61000061035156,28.85000038146973,320900.0
2020-05-19,29.0,28.559999465942386,28.81999969482422,28.559999465942386,444700.0
2020-05-20,29.15900039672852,28.94499969482422,28.96999931335449,29.06999969482422,179300.0
2020-05-21,29.1299991607666,28.770000457763672,29.07999992370605,28.8700008392334,137600.0
2020-05-22,28.979999542236328,28.729999542236328,28.86000061035156,28.96999931335449,162100.0
2020-05-26,29.645000457763672,29.309999465942386,29.6200008392334,29.32999992370605,325600.0
2020-05-27,29.790000915527344,29.11000061035156,29.68000030517578,29.770000457763672,273200.0
2020-05-28,30.10000038146973,29.65999984741211,29.8700008392334,29.70000076293945,251900.0
2020-05-29,29.90999984741211,29.399999618530273,29.63999938964844,29.84000015258789,193400.0
2020-06-01,30.07600021362305,29.76000022888184,29.79999923706055,30.0,558700.0
2020-06-02,30.25,29.98900032043457,30.06999969482422,30.25,430100.0
2020-06-03,30.790000915527344,30.440000534057614,30.5,30.70000076293945,257800.0
2020-06-04,30.75,30.38999938964844,30.6200008392334,30.60000038146973,189500.0
2020-06-05,31.559999465942386,31.1200008392334,31.1200008392334,31.34000015258789,249100.0
2020-06-08,31.790000915527344,31.3799991607666,31.489999771118164,31.78000068664551,249300.0
2020-06-09,31.66900062561035,31.37100028991699,31.51000022888184,31.53000068664551,217100.0
2020-06-10,31.649999618530273,31.229999542236328,31.60000038146973,31.309999465942386,162300.0
2020-06-11,30.61000061035156,29.45000076293945,30.489999771118164,29.5,512600.0
2020-06-12,30.35000038146973,29.290000915527344,30.28000068664551,29.8799991607666,293200.0
2020-06-15,30.28000068664551,29.170000076293945,29.21999931335449,30.15999984741211,338400.0
2020-06-16,31.03000068664551,30.25,31.03000068664551,30.75,326400.0
2020-06-17,30.88599967956543,30.56999969482422,30.84000015258789,30.60000038146973,115500.0
2020-06-18,30.68000030517578,30.399999618530273,30.43000030517578,30.6200008392334,201600.0
2020-06-19,31.0,30.34000015258789,30.979999542236328,30.45000076293945,176300.0
2020-06-22,30.70000076293945,30.270000457763672,30.43000030517578,30.68000030517578,129700.0
2020-06-23,31.03000068664551,30.770000457763672,30.920000076293945,30.78000068664551,164600.0
2020-06-24,30.5,29.670000076293945,30.459999084472656,29.8799991607666,182500.0
2020-06-25,30.20000076293945,29.60000038146973,29.78000068664551,30.20000076293945,129700.0
2020-06-26,30.10000038146973,29.459999084472656,30.059999465942386,29.51000022888184,183900.0
2020-06-29,29.940000534057614,29.388999938964844,29.649999618530273,29.940000534057614,112200.0
2020-06-30,30.46999931335449,29.8700008392334,29.8700008392334,30.35000038146973,254100.0
2020-07-01,30.670000076293945,30.399999618530273,30.46999931335449,30.53000068664551,192200.0
2020-07-02,31.04999923706055,30.6299991607666,30.899999618530273,30.690000534057614,271900.0
2020-07-06,31.239999771118164,31.04999923706055,31.11000061035156,31.190000534057614,143000.0
2020-07-07,31.239999771118164,30.81999969482422,31.020000457763672,30.84000015258789,108500.0
2020-07-08,31.11000061035156,30.78000068664551,30.920000076293945,31.10000038146973,135300.0
2020-07-09,31.17099952697754,30.57999992370605,31.170000076293945,30.93000030517578,174700.0
2020-07-10,31.290000915527344,30.790000915527344,30.899999618530273,31.28000068664551,258900.0
2020-07-13,31.76000022888184,30.899999618530273,31.5,30.93000030517578,243300.0
2020-07-14,31.3700008392334,30.690000534057614,30.790000915527344,31.34000015258789,213100.0
2020-07-15,31.76000022888184,31.420000076293945,31.729999542236328,31.670000076293945,252200.0
2020-07-16,31.61000061035156,31.40999984741211,31.459999084472656,31.559999465942386,438300.0
2020-07-17,31.739999771118164,31.46999931335449,31.690000534057614,31.68000030517578,176200.0
2020-07-20,32.00899887084961,31.6200008392334,31.68000030517578,31.959999084472656,137800.0
2020-07-21,32.220001220703125,31.90999984741211,32.220001220703125,31.989999771118164,190600.0
2020-07-22,32.220001220703125,31.95000076293945,31.95000076293945,32.18000030517578,128800.0
2020-07-23,32.240001678466804,31.65999984741211,32.150001525878906,31.79999923706055,195600.0
2020-07-24,31.69899940490723,31.44099998474121,31.60000038146973,31.60000038146973,152300.0
2020-07-27,31.854999542236328,31.60000038146973,31.690000534057614,31.82999992370605,121100.0
2020-07-28,31.875,31.6200008392334,31.78000068664551,31.649999618530273,265300.0
2020-07-29,32.110000610351555,31.71999931335449,31.71999931335449,32.040000915527344,142800.0
2020-07-30,31.979999542236328,31.540000915527344,31.739999771118164,31.95000076293945,181700.0
2020-07-31,32.15999984741211,31.65999984741211,32.15999984741211,32.139999389648445,143400.0
2020-08-03,32.47499847412109,32.279998779296875,32.330001831054695,32.389999389648445,359700.0
2020-08-04,32.509998321533196,32.310001373291016,32.34000015258789,32.509998321533196,143500.0
2020-08-05,32.759998321533196,32.65999984741211,32.689998626708984,32.72999954223633,116500.0
2020-08-06,32.939998626708984,32.65900039672852,32.709999084472656,32.939998626708984,136000.0
2020-08-07,32.959999084472656,32.709999084472656,32.830001831054695,32.939998626708984,441400.0
2020-08-10,33.049999237060554,32.770999908447266,32.990001678466804,33.009998321533196,120100.0
2020-08-11,33.227001190185554,32.689998626708984,33.130001068115234,32.75,204500.0
2020-08-12,33.290000915527344,33.009998321533196,33.009998321533196,33.200000762939446,125400.0
2020-08-13,33.310001373291016,33.09999847412109,33.150001525878906,33.169998168945305,72800.0
2020-08-14,33.22999954223633,33.090999603271484,33.11999893188477,33.169998168945305,85200.0
2020-08-17,33.34000015258789,33.27000045776367,33.279998779296875,33.30500030517578,187300.0
2020-08-18,33.424999237060554,33.22999954223633,33.380001068115234,33.389999389648445,93500.0
2020-08-19,33.46500015258789,33.18000030517578,33.389999389648445,33.22999954223633,148700.0
2020-08-20,33.380001068115234,33.02000045776367,33.02000045776367,33.34999847412109,124600.0
2020-08-21,33.46200180053711,33.29800033569336,33.34000015258789,33.450000762939446,151400.0
