Date,High,Low,Open,Close,Volume
2019-04-25,25.020000457763672,25.0049991607666,25.020000457763672,25.01499938964844,200200.0
2019-04-26,25.024999618530273,25.01799964904785,25.01799964904785,25.024999618530273,700.0
2019-04-29,25.024999618530273,25.024999618530273,25.024999618530273,25.024999618530273,0.0
2019-04-30,25.03499984741211,25.03499984741211,25.03499984741211,25.03499984741211,0.0
2019-05-01,25.035999298095703,25.03000068664551,25.03000068664551,25.035999298095703,100.0
2019-05-02,25.04999923706055,25.040000915527344,25.04700088500977,25.042999267578125,2100.0
2019-05-03,25.042999267578125,25.042999267578125,25.042999267578125,25.042999267578125,0.0
2019-05-06,25.06100082397461,25.06100082397461,25.06100082397461,25.06100082397461,100.0
2019-05-07,25.05299949645996,25.05299949645996,25.05299949645996,25.05299949645996,100.0
2019-05-08,25.040000915527344,25.02799987792969,25.040000915527344,25.02799987792969,1000.0
2019-05-09,25.01499938964844,25.01499938964844,25.01499938964844,25.01499938964844,0.0
2019-05-10,25.01499938964844,25.01499938964844,25.01499938964844,25.01499938964844,0.0
2019-05-13,24.988000869750977,24.988000869750977,24.988000869750977,24.988000869750977,0.0
2019-05-14,24.947999954223636,24.947999954223636,24.947999954223636,24.947999954223636,100.0
2019-05-15,24.96299934387207,24.96299934387207,24.96299934387207,24.96299934387207,0.0
2019-05-16,24.97800064086914,24.97400093078613,24.97800064086914,24.97400093078613,100.0
2019-05-17,25.01799964904785,25.01799964904785,25.01799964904785,25.01799964904785,0.0
2019-05-20,25.01300048828125,25.01300048828125,25.01300048828125,25.01300048828125,100.0
2019-05-21,25.020000457763672,25.01499938964844,25.020000457763672,25.01499938964844,300.0
2019-05-22,25.03000068664551,25.03000068664551,25.03000068664551,25.03000068664551,0.0
2019-05-23,25.01000022888184,25.01000022888184,25.01000022888184,25.01000022888184,0.0
2019-05-24,25.0,25.0,25.0,25.0,0.0
2019-05-28,25.01000022888184,25.0,25.01000022888184,25.0,200.0
2019-05-29,24.9950008392334,24.9950008392334,24.9950008392334,24.9950008392334,0.0
2019-05-30,24.96999931335449,24.96999931335449,24.96999931335449,24.96999931335449,0.0
2019-05-31,24.96999931335449,24.96999931335449,24.96999931335449,24.96999931335449,0.0
2019-06-03,24.95000076293945,24.95000076293945,24.95000076293945,24.95000076293945,0.0
2019-06-04,24.940000534057614,24.940000534057614,24.940000534057614,24.940000534057614,0.0
2019-06-05,24.95499992370605,24.95000076293945,24.95000076293945,24.95499992370605,200.0
2019-06-06,24.97500038146973,24.97500038146973,24.97500038146973,24.97500038146973,0.0
2019-06-07,24.989999771118164,24.989999771118164,24.989999771118164,24.989999771118164,0.0
2019-06-10,25.0,25.0,25.0,25.0,0.0
2019-06-11,25.040000915527344,25.040000915527344,25.040000915527344,25.040000915527344,0.0
2019-06-12,25.065000534057614,25.065000534057614,25.065000534057614,25.065000534057614,0.0
2019-06-13,25.05500030517578,25.05500030517578,25.05500030517578,25.05500030517578,0.0
2019-06-14,25.065000534057614,25.065000534057614,25.065000534057614,25.065000534057614,0.0
2019-06-17,25.045000076293945,25.045000076293945,25.045000076293945,25.045000076293945,0.0
2019-06-18,25.020000457763672,25.020000457763672,25.020000457763672,25.020000457763672,100.0
2019-06-19,25.03000068664551,25.03000068664551,25.03000068664551,25.03000068664551,0.0
2019-06-20,24.90999984741211,24.90999984741211,24.90999984741211,24.90999984741211,0.0
2019-06-21,24.910999298095703,24.910999298095703,24.910999298095703,24.910999298095703,0.0
2019-06-24,24.95000076293945,24.95000076293945,24.95000076293945,24.95000076293945,0.0
2019-06-25,24.94499969482422,24.94499969482422,24.94499969482422,24.94499969482422,0.0
2019-06-26,24.93000030517578,24.93000030517578,24.93000030517578,24.93000030517578,0.0
2019-06-27,24.93000030517578,24.93000030517578,24.93000030517578,24.93000030517578,0.0
2019-06-28,24.915000915527344,24.915000915527344,24.915000915527344,24.915000915527344,0.0
2019-07-01,24.9379997253418,24.92900085449219,24.9379997253418,24.92900085449219,200.0
2019-07-02,24.959999084472656,24.95000076293945,24.959999084472656,24.95000076293945,100.0
2019-07-03,24.95499992370605,24.95499992370605,24.95499992370605,24.95499992370605,0.0
2019-07-05,24.96500015258789,24.96500015258789,24.96500015258789,24.96500015258789,0.0
2019-07-08,24.979999542236328,24.96999931335449,24.979999542236328,24.96999931335449,200.0
2019-07-09,24.97500038146973,24.97500038146973,24.97500038146973,24.97500038146973,0.0
2019-07-10,24.96999931335449,24.96999931335449,24.96999931335449,24.96999931335449,0.0
2019-07-11,24.979999542236328,24.979999542236328,24.979999542236328,24.979999542236328,0.0
2019-07-12,24.9950008392334,24.9950008392334,24.9950008392334,24.9950008392334,100.0
2019-07-15,25.020000457763672,25.01000022888184,25.020000457763672,25.01000022888184,300.0
2019-07-16,25.024999618530273,25.024999618530273,25.024999618530273,25.024999618530273,0.0
2019-07-17,25.020000457763672,25.020000457763672,25.020000457763672,25.020000457763672,0.0
2019-07-18,25.01499938964844,25.01499938964844,25.01499938964844,25.01499938964844,0.0
2019-07-19,25.0049991607666,25.0049991607666,25.0049991607666,25.0049991607666,0.0
2019-07-22,24.899999618530273,24.899999618530273,24.899999618530273,24.899999618530273,0.0
2019-07-23,24.899999618530273,24.899999618530273,24.899999618530273,24.899999618530273,0.0
2019-07-24,24.90999984741211,24.90999984741211,24.90999984741211,24.90999984741211,0.0
2019-07-25,24.915000915527344,24.915000915527344,24.915000915527344,24.915000915527344,100.0
2019-07-26,24.959999084472656,24.959999084472656,24.959999084472656,24.959999084472656,100.0
2019-07-29,25.0049991607666,25.0049991607666,25.0049991607666,25.0049991607666,0.0
2019-07-30,25.0049991607666,25.0049991607666,25.0049991607666,25.0049991607666,0.0
2019-07-31,24.9950008392334,24.9950008392334,24.9950008392334,24.9950008392334,0.0
2019-08-01,25.04999923706055,25.04999923706055,25.04999923706055,25.04999923706055,0.0
2019-08-02,25.04999923706055,25.04999923706055,25.04999923706055,25.04999923706055,0.0
2019-08-05,25.045000076293945,25.045000076293945,25.045000076293945,25.045000076293945,0.0
2019-08-06,24.9950008392334,24.9950008392334,24.9950008392334,24.9950008392334,0.0
2019-08-07,24.979999542236328,24.979999542236328,24.979999542236328,24.979999542236328,0.0
2019-08-08,24.96999931335449,24.96999931335449,24.96999931335449,24.96999931335449,0.0
2019-08-09,25.0049991607666,25.0049991607666,25.0049991607666,25.0049991607666,0.0
2019-08-12,25.0049991607666,25.0049991607666,25.0049991607666,25.0049991607666,0.0
2019-08-13,24.9950008392334,24.979999542236328,24.979999542236328,24.9950008392334,1500.0
2019-08-14,24.9950008392334,24.9950008392334,24.9950008392334,24.9950008392334,200.0
2019-08-15,24.941999435424805,24.941999435424805,24.941999435424805,24.941999435424805,200.0
2019-08-16,24.915000915527344,24.915000915527344,24.915000915527344,24.915000915527344,0.0
2019-08-19,24.915000915527344,24.915000915527344,24.915000915527344,24.915000915527344,0.0
2019-08-20,24.84499931335449,24.84499931335449,24.84499931335449,24.84499931335449,0.0
2019-08-21,24.84000015258789,24.84000015258789,24.84000015258789,24.84000015258789,100.0
2019-08-22,24.84000015258789,24.84000015258789,24.84000015258789,24.84000015258789,100.0
2019-08-23,24.82500076293945,24.82500076293945,24.82500076293945,24.82500076293945,0.0
2019-08-26,24.834999084472656,24.834999084472656,24.834999084472656,24.834999084472656,100.0
2019-08-27,24.834999084472656,24.834999084472656,24.834999084472656,24.834999084472656,100.0
2019-08-28,24.832000732421875,24.832000732421875,24.832000732421875,24.832000732421875,100.0
2019-08-29,24.832000732421875,24.832000732421875,24.832000732421875,24.832000732421875,100.0
2019-08-30,24.83300018310547,24.83300018310547,24.83300018310547,24.83300018310547,100.0
2019-09-03,24.868000030517575,24.868000030517575,24.868000030517575,24.868000030517575,0.0
2019-09-04,24.857999801635746,24.857999801635746,24.857999801635746,24.857999801635746,100.0
2019-09-05,24.88999938964844,24.856000900268555,24.888999938964844,24.856000900268555,300.0
2019-09-06,24.892000198364254,24.892000198364254,24.892000198364254,24.892000198364254,0.0
2019-09-09,24.915000915527344,24.915000915527344,24.915000915527344,24.915000915527344,0.0
2019-09-10,24.92499923706055,24.92499923706055,24.92499923706055,24.92499923706055,0.0
2019-09-11,24.934999465942386,24.934999465942386,24.934999465942386,24.934999465942386,0.0
2019-09-12,24.947999954223636,24.947999954223636,24.947999954223636,24.947999954223636,0.0
2019-09-13,24.982999801635746,24.982999801635746,24.982999801635746,24.982999801635746,0.0
2019-09-16,25.04999923706055,25.02300071716309,25.03000068664551,25.02300071716309,2000.0
2019-09-17,25.05200004577637,25.05200004577637,25.05200004577637,25.05200004577637,0.0
2019-09-18,25.07699966430664,25.07699966430664,25.07699966430664,25.07699966430664,0.0
2019-09-19,24.972999572753906,24.972999572753906,24.972999572753906,24.972999572753906,0.0
2019-09-20,24.80299949645996,24.80299949645996,24.80299949645996,24.80299949645996,0.0
2019-09-23,24.80500030517578,24.80500030517578,24.80500030517578,24.80500030517578,0.0
2019-09-24,24.770999908447266,24.770999908447266,24.770999908447266,24.770999908447266,0.0
2019-09-25,24.815000534057614,24.815000534057614,24.815000534057614,24.815000534057614,0.0
2019-09-26,24.815000534057614,24.815000534057614,24.815000534057614,24.815000534057614,0.0
2019-09-27,24.81999969482422,24.81999969482422,24.81999969482422,24.81999969482422,0.0
2019-09-30,24.7450008392334,24.7450008392334,24.7450008392334,24.7450008392334,0.0
2019-10-01,24.81999969482422,24.81999969482422,24.81999969482422,24.81999969482422,0.0
2019-10-02,24.80400085449219,24.80400085449219,24.80400085449219,24.80400085449219,0.0
2019-10-03,24.7549991607666,24.7549991607666,24.7549991607666,24.7549991607666,0.0
2019-10-04,24.71500015258789,24.71500015258789,24.71500015258789,24.71500015258789,0.0
2019-10-07,24.684999465942386,24.684999465942386,24.684999465942386,24.684999465942386,0.0
2019-10-08,24.663000106811523,24.663000106811523,24.663000106811523,24.663000106811523,0.0
2019-10-09,24.63999938964844,24.63999938964844,24.63999938964844,24.63999938964844,0.0
2019-10-10,24.63999938964844,24.63999938964844,24.63999938964844,24.63999938964844,0.0
2019-10-11,24.625,24.625,24.625,24.625,0.0
2019-10-14,24.670000076293945,24.670000076293945,24.670000076293945,24.670000076293945,0.0
2019-10-15,24.67499923706055,24.67499923706055,24.67499923706055,24.67499923706055,0.0
2019-10-16,24.69499969482422,24.69499969482422,24.69499969482422,24.69499969482422,0.0
2019-10-17,24.684999465942386,24.684999465942386,24.684999465942386,24.684999465942386,0.0
2019-10-18,24.709999084472656,24.709999084472656,24.709999084472656,24.709999084472656,0.0
2019-10-21,24.65999984741211,24.65999984741211,24.65999984741211,24.65999984741211,0.0
2019-10-22,24.684999465942386,24.684999465942386,24.684999465942386,24.684999465942386,0.0
2019-10-23,24.68000030517578,24.68000030517578,24.68000030517578,24.68000030517578,0.0
2019-10-24,24.69499969482422,24.69499969482422,24.69499969482422,24.69499969482422,0.0
2019-10-25,24.709999084472656,24.709999084472656,24.709999084472656,24.709999084472656,0.0
2019-10-28,24.71999931335449,24.71999931335449,24.71999931335449,24.71999931335449,0.0
2019-10-29,24.71500015258789,24.71500015258789,24.71500015258789,24.71500015258789,0.0
2019-10-30,24.69700050354004,24.69700050354004,24.69700050354004,24.69700050354004,0.0
2019-10-31,24.69499969482422,24.69499969482422,24.69499969482422,24.69499969482422,0.0
2019-11-01,24.70499992370605,24.70499992370605,24.70499992370605,24.70499992370605,0.0
2019-11-04,24.71500015258789,24.71500015258789,24.71500015258789,24.71500015258789,0.0
2019-11-05,24.729999542236328,24.729999542236328,24.729999542236328,24.729999542236328,0.0
2019-11-06,24.73500061035156,24.73500061035156,24.73500061035156,24.73500061035156,0.0
2019-11-07,24.75,24.75,24.75,24.75,0.0
2019-11-08,24.7549991607666,24.7549991607666,24.7549991607666,24.7549991607666,0.0
2019-11-11,24.76000022888184,24.76000022888184,24.76000022888184,24.76000022888184,0.0
2019-11-12,24.761999130249023,24.761999130249023,24.761999130249023,24.761999130249023,0.0
2019-11-13,24.78000068664551,24.78000068664551,24.78000068664551,24.78000068664551,0.0
2019-11-14,24.78499984741211,24.78499984741211,24.78499984741211,24.78499984741211,0.0
2019-11-15,24.795000076293945,24.795000076293945,24.795000076293945,24.795000076293945,0.0
2019-11-18,24.81999969482422,24.81999969482422,24.81999969482422,24.81999969482422,0.0
2019-11-19,24.82999992370605,24.82999992370605,24.82999992370605,24.82999992370605,0.0
2019-11-20,24.68899917602539,24.68899917602539,24.68899917602539,24.68899917602539,0.0
2019-11-21,24.70199966430664,24.70199966430664,24.70199966430664,24.70199966430664,0.0
2019-11-22,24.70199966430664,24.70199966430664,24.70199966430664,24.70199966430664,0.0
2019-11-25,24.71999931335449,24.71999931335449,24.71999931335449,24.71999931335449,0.0
2019-11-26,24.69300079345703,24.69300079345703,24.69300079345703,24.69300079345703,0.0
2019-11-27,24.739999771118164,24.739999771118164,24.739999771118164,24.739999771118164,0.0
2019-11-29,24.75,24.75,24.75,24.75,100.0
2019-12-02,24.76799964904785,24.76799964904785,24.76799964904785,24.76799964904785,0.0
2019-12-03,24.76799964904785,24.76799964904785,24.76799964904785,24.76799964904785,100.0
2019-12-04,24.770000457763672,24.770000457763672,24.770000457763672,24.770000457763672,0.0
2019-12-05,24.79999923706055,24.79999923706055,24.79999923706055,24.79999923706055,0.0
2019-12-06,24.809999465942386,24.809999465942386,24.809999465942386,24.809999465942386,0.0
2019-12-09,24.85000038146973,24.85000038146973,24.85000038146973,24.85000038146973,0.0
2019-12-10,24.8700008392334,24.8700008392334,24.8700008392334,24.8700008392334,0.0
2019-12-11,24.88999938964844,24.88999938964844,24.88999938964844,24.88999938964844,0.0
2019-12-12,24.915000915527344,24.915000915527344,24.915000915527344,24.915000915527344,0.0
2019-12-13,24.940000534057614,24.940000534057614,24.940000534057614,24.940000534057614,0.0
2019-12-16,24.959999084472656,24.959999084472656,24.959999084472656,24.959999084472656,100.0
2019-12-17,24.989999771118164,24.989999771118164,24.989999771118164,24.989999771118164,0.0
2019-12-18,25.024999618530273,25.024999618530273,25.024999618530273,25.024999618530273,0.0
2019-12-19,25.07999992370605,25.07999992370605,25.07999992370605,25.07999992370605,0.0
2019-12-20,24.915000915527344,24.915000915527344,24.915000915527344,24.915000915527344,47600.0
2019-12-23,24.90500068664551,24.90500068664551,24.90500068664551,24.90500068664551,0.0
2019-12-24,24.8799991607666,24.8799991607666,24.8799991607666,24.8799991607666,0.0
2019-12-26,24.88500022888184,24.88500022888184,24.88500022888184,24.88500022888184,100.0
2019-12-27,24.88500022888184,24.88500022888184,24.88500022888184,24.88500022888184,100.0
2019-12-30,24.899999618530273,24.899999618530273,24.899999618530273,24.899999618530273,100.0
2019-12-31,24.920000076293945,24.910999298095703,24.920000076293945,24.910999298095703,100.0
2020-01-02,24.920000076293945,24.920000076293945,24.920000076293945,24.920000076293945,100.0
2020-01-03,24.940000534057614,24.940000534057614,24.940000534057614,24.940000534057614,0.0
2020-01-06,24.959999084472656,24.95000076293945,24.959999084472656,24.95000076293945,100.0
2020-01-07,24.95000076293945,24.95000076293945,24.95000076293945,24.95000076293945,100.0
2020-01-08,24.979999542236328,24.96500015258789,24.96999931335449,24.96500015258789,800.0
2020-01-09,24.9950008392334,24.9950008392334,24.9950008392334,24.9950008392334,0.0
2020-01-10,25.01499938964844,25.01499938964844,25.01499938964844,25.01499938964844,0.0
2020-01-13,25.03000068664551,25.03000068664551,25.03000068664551,25.03000068664551,200.0
2020-01-14,25.04999923706055,25.04999923706055,25.04999923706055,25.04999923706055,100.0
2020-01-15,25.059999465942386,25.04999923706055,25.05599975585937,25.04999923706055,500.0
2020-01-16,25.05699920654297,25.05200004577637,25.05699920654297,25.05200004577637,200.0
2020-01-17,25.07999992370605,25.07999992370605,25.07999992370605,25.07999992370605,200.0
2020-01-21,25.045000076293945,25.045000076293945,25.045000076293945,25.045000076293945,100.0
2020-01-22,25.04999923706055,25.040000915527344,25.04999923706055,25.040000915527344,500.0
2020-01-23,25.020000457763672,25.020000457763672,25.020000457763672,25.020000457763672,100.0
2020-01-24,25.01000022888184,25.01000022888184,25.01000022888184,25.01000022888184,300.0
2020-01-27,25.03400039672852,25.03400039672852,25.03400039672852,25.03400039672852,100.0
2020-01-28,24.94599914550781,24.94599914550781,24.94599914550781,24.94599914550781,100.0
2020-01-29,24.96999931335449,24.96999931335449,24.96999931335449,24.96999931335449,100.0
2020-01-30,24.934999465942386,24.934999465942386,24.934999465942386,24.934999465942386,100.0
2020-01-31,24.940000534057614,24.940000534057614,24.940000534057614,24.940000534057614,100.0
2020-02-03,24.920000076293945,24.920000076293945,24.920000076293945,24.920000076293945,100.0
2020-02-04,24.90900039672852,24.90900039672852,24.90900039672852,24.90900039672852,100.0
2020-02-05,24.920000076293945,24.920000076293945,24.920000076293945,24.920000076293945,0.0
2020-02-06,24.920000076293945,24.920000076293945,24.920000076293945,24.920000076293945,100.0
2020-02-07,24.92499923706055,24.92499923706055,24.92499923706055,24.92499923706055,100.0
2020-02-10,24.920000076293945,24.920000076293945,24.920000076293945,24.920000076293945,100.0
2020-02-11,24.920000076293945,24.920000076293945,24.920000076293945,24.920000076293945,100.0
2020-02-12,24.940000534057614,24.940000534057614,24.940000534057614,24.940000534057614,100.0
2020-02-13,24.94499969482422,24.94499969482422,24.94499969482422,24.94499969482422,0.0
2020-02-14,24.95000076293945,24.94499969482422,24.95000076293945,24.94499969482422,200.0
2020-02-18,24.96500015258789,24.959999084472656,24.959999084472656,24.96500015258789,200.0
2020-02-19,24.979999542236328,24.979999542236328,24.979999542236328,24.979999542236328,0.0
2020-02-20,24.88999938964844,24.88999938964844,24.88999938964844,24.88999938964844,100.0
2020-02-21,24.88999938964844,24.88999938964844,24.88999938964844,24.88999938964844,100.0
2020-02-24,24.899999618530273,24.899999618530273,24.899999618530273,24.899999618530273,100.0
2020-02-25,24.84000015258789,24.84000015258789,24.84000015258789,24.84000015258789,100.0
2020-02-26,24.809999465942386,24.809999465942386,24.809999465942386,24.809999465942386,100.0
2020-02-27,24.774999618530273,24.774999618530273,24.774999618530273,24.774999618530273,100.0
2020-02-28,24.62700080871582,24.62700080871582,24.62700080871582,24.62700080871582,100.0
2020-03-02,24.468000411987305,24.468000411987305,24.468000411987305,24.468000411987305,100.0
2020-03-03,24.524999618530273,24.524999618530273,24.524999618530273,24.524999618530273,100.0
2020-03-04,24.56999969482422,24.56999969482422,24.56999969482422,24.56999969482422,100.0
2020-03-05,24.59499931335449,24.59499931335449,24.59499931335449,24.59499931335449,100.0
2020-03-06,24.53000068664551,24.53000068664551,24.53000068664551,24.53000068664551,0.0
2020-03-09,24.21500015258789,24.03000068664551,24.04999923706055,24.21500015258789,500.0
2020-03-10,23.95000076293945,23.940000534057614,23.95000076293945,23.94499969482422,2000.0
2020-03-11,23.940000534057614,23.93000030517578,23.940000534057614,23.934999465942386,2300.0
2020-03-12,23.65999984741211,23.649999618530273,23.65999984741211,23.658000946044922,1000.0
2020-03-13,23.295000076293945,23.295000076293945,23.295000076293945,23.295000076293945,100.0
2020-03-16,23.209999084472656,23.108999252319336,23.209999084472656,23.108999252319336,300.0
2020-03-17,22.475000381469727,22.475000381469727,22.475000381469727,22.475000381469727,100.0
2020-03-18,22.28499984741211,22.28499984741211,22.28499984741211,22.28499984741211,100.0
2020-03-19,21.614999771118164,21.614999771118164,21.614999771118164,21.614999771118164,100.0
2020-03-20,20.905000686645508,20.905000686645508,20.905000686645508,20.905000686645508,100.0
2020-03-23,20.8799991607666,20.809999465942386,20.850000381469727,20.8799991607666,14200.0
2020-03-24,20.5049991607666,20.5049991607666,20.5049991607666,20.5049991607666,100.0
2020-03-25,20.959999084472656,20.770000457763672,20.780000686645508,20.95499992370605,13600.0
2020-03-26,21.59000015258789,21.5049991607666,21.57999992370605,21.5049991607666,2200.0
2020-03-27,22.06100082397461,22.06100082397461,22.06100082397461,22.06100082397461,100.0
2020-03-30,22.11000061035156,22.11000061035156,22.11000061035156,22.11000061035156,100.0
2020-03-31,22.26499938964844,22.26499938964844,22.26499938964844,22.26499938964844,100.0
2020-04-01,22.53000068664551,22.145000457763672,22.53000068664551,22.145000457763672,38100.0
2020-04-02,22.01499938964844,22.01499938964844,22.01499938964844,22.01499938964844,0.0
2020-04-03,22.01499938964844,22.01499938964844,22.01499938964844,22.01499938964844,0.0
2020-04-06,22.05500030517578,22.05500030517578,22.05500030517578,22.05500030517578,0.0
2020-04-07,22.78000068664551,22.74099922180176,22.770000457763672,22.74099922180176,10900.0
2020-04-08,22.74099922180176,22.74099922180176,22.74099922180176,22.74099922180176,0.0
2020-04-09,23.51000022888184,23.20000076293945,23.20000076293945,23.46500015258789,78200.0
2020-04-13,23.46500015258789,23.46500015258789,23.46500015258789,23.46500015258789,0.0
2020-04-14,23.72500038146973,23.72500038146973,23.72500038146973,23.72500038146973,0.0
2020-04-15,23.540000915527344,23.36000061035156,23.540000915527344,23.36000061035156,300.0
2020-04-16,23.36000061035156,23.34600067138672,23.34600067138672,23.36000061035156,400.0
2020-04-17,23.36000061035156,23.36000061035156,23.36000061035156,23.36000061035156,0.0
2020-04-20,23.55599975585937,23.55599975585937,23.55599975585937,23.55599975585937,0.0
2020-04-21,23.38999938964844,23.38999938964844,23.38999938964844,23.38999938964844,0.0
2020-04-22,23.34499931335449,23.34499931335449,23.34499931335449,23.34499931335449,0.0
2020-04-23,23.2549991607666,23.2549991607666,23.2549991607666,23.2549991607666,0.0
2020-04-24,23.21500015258789,23.21500015258789,23.21500015258789,23.21500015258789,0.0
2020-04-27,23.250999450683594,23.250999450683594,23.250999450683594,23.250999450683594,0.0
2020-04-28,23.20400047302246,23.20400047302246,23.20400047302246,23.20400047302246,0.0
2020-04-29,23.15999984741211,23.15999984741211,23.15999984741211,23.15999984741211,0.0
2020-04-30,23.13999938964844,23.13999938964844,23.13999938964844,23.13999938964844,0.0
2020-05-01,23.20100021362305,23.20100021362305,23.20100021362305,23.20100021362305,0.0
2020-05-04,23.18000030517578,23.18000030517578,23.18000030517578,23.18000030517578,0.0
2020-05-05,23.145000457763672,23.145000457763672,23.145000457763672,23.145000457763672,0.0
2020-05-06,23.11000061035156,23.11000061035156,23.11000061035156,23.11000061035156,0.0
2020-05-07,23.165000915527344,23.165000915527344,23.165000915527344,23.165000915527344,0.0
2020-05-08,23.17499923706055,23.17499923706055,23.17499923706055,23.17499923706055,0.0
2020-05-11,23.31999969482422,23.31999969482422,23.31999969482422,23.31999969482422,100.0
2020-05-12,23.32999992370605,23.32999992370605,23.32999992370605,23.32999992370605,100.0
2020-05-13,23.36000061035156,23.36000061035156,23.36000061035156,23.36000061035156,100.0
2020-05-14,23.354999542236328,23.354999542236328,23.354999542236328,23.354999542236328,100.0
2020-05-15,23.309999465942386,23.309999465942386,23.309999465942386,23.309999465942386,100.0
2020-05-18,23.29999923706055,23.29999923706055,23.29999923706055,23.29999923706055,100.0
2020-05-19,23.35000038146973,23.35000038146973,23.35000038146973,23.35000038146973,100.0
2020-05-20,23.351999282836914,23.351999282836914,23.351999282836914,23.351999282836914,100.0
2020-05-21,23.415000915527344,23.415000915527344,23.415000915527344,23.415000915527344,0.0
2020-05-22,23.440000534057614,23.440000534057614,23.440000534057614,23.440000534057614,100.0
2020-05-26,23.459999084472656,23.459999084472656,23.459999084472656,23.459999084472656,0.0
2020-05-27,23.691999435424805,23.690000534057614,23.690000534057614,23.691999435424805,200.0
2020-05-28,23.6299991607666,23.6299991607666,23.6299991607666,23.6299991607666,0.0
2020-05-29,23.70000076293945,23.70000076293945,23.70000076293945,23.70000076293945,100.0
2020-06-01,23.71999931335449,23.71999931335449,23.71999931335449,23.71999931335449,100.0
2020-06-02,23.71999931335449,23.71999931335449,23.71999931335449,23.71999931335449,0.0
2020-06-03,23.84000015258789,23.84000015258789,23.84000015258789,23.84000015258789,0.0
2020-06-04,23.895000457763672,23.895000457763672,23.895000457763672,23.895000457763672,100.0
2020-06-05,23.94099998474121,23.94099998474121,23.94099998474121,23.94099998474121,0.0
2020-06-08,24.239999771118164,24.065000534057614,24.239999771118164,24.065000534057614,400.0
2020-06-09,24.11000061035156,24.11000061035156,24.11000061035156,24.11000061035156,100.0
2020-06-10,24.13500022888184,24.13500022888184,24.13500022888184,24.13500022888184,100.0
2020-06-11,24.290000915527344,23.959999084472656,24.290000915527344,24.165000915527344,6500.0
2020-06-12,24.11400032043457,24.11400032043457,24.11400032043457,24.11400032043457,100.0
2020-06-15,24.06999969482422,24.06999969482422,24.06999969482422,24.06999969482422,100.0
2020-06-16,24.05500030517578,24.05500030517578,24.05500030517578,24.05500030517578,100.0
2020-06-17,24.165000915527344,24.165000915527344,24.165000915527344,24.165000915527344,200.0
2020-06-18,24.20499992370605,24.20499992370605,24.20499992370605,24.20499992370605,100.0
2020-06-19,24.20499992370605,24.20499992370605,24.20499992370605,24.20499992370605,100.0
2020-06-22,24.114999771118164,24.114999771118164,24.114999771118164,24.114999771118164,100.0
2020-06-23,24.104999542236328,24.104999542236328,24.104999542236328,24.104999542236328,100.0
2020-06-24,24.125,24.125,24.125,24.125,100.0
2020-06-25,24.09499931335449,24.09499931335449,24.09499931335449,24.09499931335449,100.0
2020-06-26,24.0049991607666,24.0049991607666,24.0049991607666,24.0049991607666,100.0
2020-06-29,23.96500015258789,23.96500015258789,23.96500015258789,23.96500015258789,100.0
2020-06-30,23.895000457763672,23.895000457763672,23.895000457763672,23.895000457763672,0.0
2020-07-01,23.88999938964844,23.88999938964844,23.88999938964844,23.88999938964844,100.0
2020-07-02,23.920000076293945,23.920000076293945,23.920000076293945,23.920000076293945,300.0
2020-07-06,23.95400047302246,23.95400047302246,23.95400047302246,23.95400047302246,100.0
2020-07-07,24.0049991607666,24.0049991607666,24.0049991607666,24.0049991607666,100.0
2020-07-08,24.013999938964844,24.013999938964844,24.013999938964844,24.013999938964844,100.0
2020-07-09,24.040000915527344,24.040000915527344,24.040000915527344,24.040000915527344,0.0
2020-07-10,24.013999938964844,23.95000076293945,23.95000076293945,24.013999938964844,200.0
2020-07-13,24.03499984741211,24.03499984741211,24.03499984741211,24.03499984741211,0.0
2020-07-14,24.045000076293945,24.045000076293945,24.045000076293945,24.045000076293945,100.0
2020-07-15,24.06399917602539,24.06399917602539,24.06399917602539,24.06399917602539,0.0
2020-07-16,24.12400054931641,24.12400054931641,24.12400054931641,24.12400054931641,100.0
2020-07-17,24.145000457763672,24.145000457763672,24.145000457763672,24.145000457763672,0.0
2020-07-20,24.084999084472656,24.084999084472656,24.084999084472656,24.084999084472656,100.0
2020-07-21,24.190000534057614,24.13500022888184,24.190000534057614,24.13500022888184,800.0
2020-07-22,24.20000076293945,24.20000076293945,24.20000076293945,24.20000076293945,0.0
2020-07-23,24.229999542236328,24.229999542236328,24.229999542236328,24.229999542236328,100.0
2020-07-24,24.21500015258789,24.21500015258789,24.21500015258789,24.21500015258789,100.0
2020-07-27,24.21999931335449,24.21999931335449,24.21999931335449,24.21999931335449,100.0
2020-07-28,24.22500038146973,24.22500038146973,24.22500038146973,24.22500038146973,0.0
2020-07-29,24.23500061035156,24.23500061035156,24.23500061035156,24.23500061035156,100.0
2020-07-30,24.243999481201172,24.243999481201172,24.243999481201172,24.243999481201172,100.0
2020-07-31,24.22500038146973,24.22500038146973,24.22500038146973,24.22500038146973,0.0
2020-08-03,24.29999923706055,24.170000076293945,24.29999923706055,24.23500061035156,600.0
2020-08-04,24.26499938964844,24.26499938964844,24.26499938964844,24.26499938964844,0.0
2020-08-05,24.274999618530273,24.209999084472656,24.209999084472656,24.274999618530273,100.0
2020-08-06,24.30500030517578,24.30500030517578,24.30500030517578,24.30500030517578,100.0
2020-08-07,24.334999084472656,24.334999084472656,24.334999084472656,24.334999084472656,0.0
2020-08-10,24.354999542236328,24.354999542236328,24.354999542236328,24.354999542236328,100.0
2020-08-11,24.354999542236328,24.354999542236328,24.354999542236328,24.354999542236328,100.0
2020-08-12,24.375,24.375,24.375,24.375,0.0
2020-08-13,24.38500022888184,24.38500022888184,24.38500022888184,24.38500022888184,100.0
2020-08-14,24.375,24.375,24.375,24.375,0.0
2020-08-17,24.375,24.375,24.375,24.375,0.0
2020-08-18,24.440000534057614,24.37400054931641,24.440000534057614,24.37400054931641,1400.0
2020-08-19,24.32999992370605,24.32999992370605,24.32999992370605,24.32999992370605,0.0
2020-08-20,24.26499938964844,24.26499938964844,24.26499938964844,24.26499938964844,0.0
2020-08-21,24.26499938964844,24.26499938964844,24.26499938964844,24.26499938964844,0.0
2020-08-24,24.31999969482422,24.2549991607666,24.31999969482422,24.2549991607666,200.0
