Date,High,Low,Open,Close,Volume
2020-05-12,24.92700004577637,24.81999969482422,24.92700004577637,24.81999969482422,100100
2020-05-13,23.94700050354004,23.94700050354004,23.94700050354004,23.94700050354004,0
2020-05-14,24.142000198364254,23.78000068664551,23.83099937438965,24.142000198364254,1332700
2020-05-15,24.31999969482422,24.01000022888184,24.04999923706055,24.29599952697754,1400
2020-05-18,25.29999923706055,25.29999923706055,25.29999923706055,25.29999923706055,100
2020-05-19,25.35000038146973,24.993999481201172,25.184999465942386,24.993999481201172,677200
2020-05-20,25.520000457763672,25.36000061035156,25.45000076293945,25.42200088500977,6300
2020-05-21,25.3700008392334,24.1200008392334,25.29999923706055,25.27199935913086,12400
2020-05-22,25.290000915527344,25.07999992370605,25.10000038146973,25.28899955749512,4500
2020-05-26,25.979999542236328,25.7810001373291,25.979999542236328,25.7810001373291,2500
2020-05-27,26.312000274658203,25.85000038146973,25.85000038146973,26.312000274658203,1100
2020-05-28,26.44899940490723,26.11400032043457,26.440000534057614,26.11400032043457,1400
2020-05-29,26.13500022888184,25.8700008392334,25.8700008392334,26.13500022888184,2300
2020-06-01,26.31999969482422,26.19499969482422,26.239999771118164,26.26300048828125,2400
2020-06-02,26.479999542236328,26.368000030517575,26.399999618530273,26.466999053955078,2600
2020-06-03,27.09000015258789,26.959999084472656,26.989999771118164,26.988000869750977,10100
2020-06-04,28.31999969482422,26.86000061035156,28.31999969482422,26.99600028991699,5700
2020-06-05,28.04999923706055,27.79999923706055,27.79999923706055,27.841999053955078,6700
2020-06-08,28.23699951171875,28.131000518798828,28.131000518798828,28.23699951171875,2300
2020-06-09,27.979999542236328,27.78000068664551,27.78000068664551,27.86000061035156,8100
2020-06-10,27.75,27.489999771118164,27.739999771118164,27.489999771118164,1500
2020-06-11,26.670000076293945,25.790000915527344,26.670000076293945,25.812000274658203,40800
2020-06-12,26.670000076293945,26.07999992370605,26.670000076293945,26.40900039672852,3400
2020-06-15,26.60000038146973,25.966999053955078,25.966999053955078,26.54999923706055,3100
2020-06-16,28.790000915527344,27.020000457763672,28.790000915527344,27.02300071716309,4700
2020-06-17,27.07999992370605,26.84600067138672,26.92900085449219,26.84600067138672,2100
2020-06-18,26.9060001373291,26.76000022888184,26.9060001373291,26.812000274658203,900
2020-06-19,26.96999931335449,26.57999992370605,26.959999084472656,26.65200042724609,2200
2020-06-22,26.74900054931641,26.45000076293945,26.45000076293945,26.74900054931641,1400
2020-06-23,27.020000457763672,26.82500076293945,26.959999084472656,26.86400032043457,2800
2020-06-24,26.11599922180176,26.11000061035156,26.11000061035156,26.11599922180176,700
2020-06-25,26.42499923706055,26.09000015258789,26.09499931335449,26.42499923706055,2400
2020-06-26,25.899999618530273,25.77599906921387,25.85000038146973,25.77599906921387,1400
2020-06-29,26.256000518798828,26.256000518798828,26.256000518798828,26.256000518798828,300
2020-06-30,27.56999969482422,26.34000015258789,27.56999969482422,26.673999786376953,10900
2020-07-01,26.59000015258789,26.48200035095215,26.559999465942386,26.48200035095215,1100
2020-07-02,26.85000038146973,26.658000946044922,26.85000038146973,26.658000946044922,3500
2020-07-06,27.13999938964844,27.020000457763672,27.03000068664551,27.13999938964844,5600
2020-07-07,26.937000274658203,26.68899917602539,26.8700008392334,26.68899917602539,4800
2020-07-08,26.940000534057614,26.68000030517578,26.940000534057614,26.90500068664551,3300
2020-07-09,26.520000457763672,26.516000747680664,26.520000457763672,26.516000747680664,600
2020-07-10,26.85400009155273,26.70000076293945,26.739999771118164,26.85400009155273,1400
2020-07-13,27.16699981689453,26.711000442504886,27.020000457763672,26.711000442504886,3500
2020-07-14,27.01799964904785,26.84000015258789,26.90999984741211,27.01799964904785,2000
2020-07-15,27.68000030517578,27.489999771118164,27.68000030517578,27.61100006103516,3300
2020-07-16,27.413000106811523,27.35700035095215,27.3700008392334,27.413000106811523,3600
2020-07-17,28.01000022888184,27.40999984741211,28.01000022888184,27.44099998474121,3700
2020-07-20,27.40699958801269,27.15999984741211,27.34000015258789,27.40699958801269,11100
2020-07-21,27.940000534057614,27.75,27.75,27.809999465942386,800
2020-07-22,27.85000038146973,27.729999542236328,27.85000038146973,27.816999435424805,1500
2020-07-23,28.0,27.85000038146973,27.979999542236328,27.85700035095215,7300
2020-07-24,27.71999931335449,27.548999786376953,27.71999931335449,27.548999786376953,800
2020-07-27,27.899999618530273,27.6560001373291,27.6560001373291,27.78400039672852,1300
2020-07-28,27.84000015258789,27.61100006103516,27.739999771118164,27.61100006103516,1900
2020-07-29,28.089000701904297,27.84000015258789,27.920000076293945,28.089000701904297,4400
2020-07-30,27.88999938964844,27.65999984741211,27.690000534057614,27.851999282836914,4200
2020-07-31,27.729999542236328,27.43000030517578,27.729999542236328,27.62400054931641,2500
2020-08-03,27.96999931335449,27.8799991607666,27.90999984741211,27.8799991607666,1900
2020-08-04,28.11000061035156,27.940000534057614,27.989999771118164,28.089000701904297,4400
2020-08-05,28.55500030517578,28.364999771118164,28.46999931335449,28.55500030517578,2000
2020-08-06,28.53000068664551,28.47100067138672,28.53000068664551,28.47100067138672,900
2020-08-07,28.69700050354004,28.440000534057614,28.520000457763672,28.69700050354004,3800
2020-08-10,28.989999771118164,28.92099952697754,28.989999771118164,28.92099952697754,1200
2020-08-11,29.26000022888184,28.84900093078613,29.233999252319336,28.84900093078613,4800
2020-08-12,29.18000030517578,29.01000022888184,29.15999984741211,29.082000732421875,4500
2020-08-13,29.040000915527344,28.8700008392334,28.8799991607666,28.891000747680664,5000
2020-08-14,29.01000022888184,28.90999984741211,28.989999771118164,28.90999984741211,1000
2020-08-17,29.01000022888184,28.809999465942386,28.809999465942386,28.9950008392334,1000
2020-08-18,28.8799991607666,28.76099967956543,28.81599998474121,28.77899932861328,3100
2020-08-19,28.989999771118164,28.72599983215332,28.93000030517578,28.72599983215332,4100
2020-08-20,28.63999938964844,28.520000457763672,28.520000457763672,28.584999084472656,3400
2020-08-21,28.53000068664551,28.40999984741211,28.51000022888184,28.50300025939941,7200
2020-08-24,28.91699981689453,28.78000068664551,28.86100006103516,28.91699981689453,1000
2020-08-25,28.920000076293945,28.84000015258789,27.479999542236328,28.84000015258789,2456
