Date,High,Low,Open,Close,Volume
2017-04-06,25.26000022888184,24.739999771118164,25.26000022888184,25.0,2300.0
2017-04-07,25.136999130249023,24.940000534057614,25.06999969482422,24.95000076293945,5000.0
2017-04-10,25.10000038146973,24.96999931335449,25.10000038146973,24.97100067138672,5500.0
2017-04-11,25.31100082397461,25.229999542236328,25.31100082397461,25.26000022888184,5500.0
2017-04-12,25.35000038146973,25.28000068664551,25.28000068664551,25.35000038146973,3300.0
2017-04-13,25.492000579833984,25.319000244140625,25.319000244140625,25.492000579833984,700.0
2017-04-17,25.540000915527344,25.37899971008301,25.540000915527344,25.37899971008301,7200.0
2017-04-18,25.459999084472656,25.36000061035156,25.36000061035156,25.3700008392334,3700.0
2017-04-19,25.56999969482422,25.26499938964844,25.56999969482422,25.420000076293945,7900.0
2017-04-20,25.34000015258789,25.173999786376953,25.34000015258789,25.194000244140625,4300.0
2017-04-21,25.40999984741211,25.26099967956543,25.28000068664551,25.3700008392334,6600.0
2017-04-24,25.020000457763672,24.95000076293945,24.95000076293945,24.96999931335449,5600.0
2017-04-25,24.78000068664551,24.71999931335449,24.75,24.72400093078613,6400.0
2017-04-26,24.76000022888184,24.71999931335449,24.75,24.76000022888184,1500.0
2017-04-27,24.86000061035156,24.75,24.79999923706055,24.75,9500.0
2017-04-28,24.82999992370605,24.82999992370605,24.82999992370605,24.82999992370605,400.0
2017-05-01,24.79999923706055,24.71999931335449,24.71999931335449,24.790000915527344,6500.0
2017-05-02,24.770000457763672,24.690000534057614,24.770000457763672,24.76000022888184,1000.0
2017-05-03,24.809999465942386,24.76000022888184,24.809999465942386,24.76000022888184,4700.0
2017-05-04,24.729999542236328,24.670000076293945,24.690000534057614,24.729999542236328,3400.0
2017-05-05,24.68000030517578,24.625999450683594,24.649999618530273,24.63999938964844,5000.0
2017-05-08,24.6200008392334,24.559999465942386,24.614999771118164,24.559999465942386,1800.0
2017-05-09,24.54999923706055,24.40999984741211,24.40999984741211,24.54999923706055,4900.0
2017-05-10,24.61000061035156,24.520000457763672,24.61000061035156,24.520000457763672,1500.0
2017-05-11,24.63999938964844,24.5,24.540000915527344,24.56999969482422,14900.0
2017-05-12,24.76000022888184,24.670000076293945,24.670000076293945,24.739999771118164,3500.0
2017-05-15,24.690000534057614,24.559999465942386,24.690000534057614,24.649999618530273,800.0
2017-05-16,24.68000030517578,24.58099937438965,24.58099937438965,24.65999984741211,24100.0
2017-05-17,25.270000457763672,24.96999931335449,24.96999931335449,25.26000022888184,67400.0
2017-05-18,25.46999931335449,25.18000030517578,25.46999931335449,25.18000030517578,3000.0
2017-05-19,25.059999465942386,25.01000022888184,25.059999465942386,25.020000457763672,2000.0
2017-05-22,25.020000457763672,24.822999954223636,25.020000457763672,24.8700008392334,14000.0
2017-05-23,24.90999984741211,24.809999465942386,24.90999984741211,24.809999465942386,3300.0
2017-05-24,24.81999969482422,24.76000022888184,24.790000915527344,24.81999969482422,4300.0
2017-05-25,24.739999771118164,24.70000076293945,24.7189998626709,24.729999542236328,1600.0
2017-05-26,24.76000022888184,24.722999572753906,24.76000022888184,24.76000022888184,1500.0
2017-05-30,24.82999992370605,24.79999923706055,24.81999969482422,24.79999923706055,4400.0
2017-05-31,24.8799991607666,24.87899971008301,24.8799991607666,24.87899971008301,8500.0
2017-06-01,24.809999465942386,24.70000076293945,24.78000068664551,24.729999542236328,15000.0
2017-06-02,24.82999992370605,24.7549991607666,24.82999992370605,24.79999923706055,1200.0
2017-06-05,24.78000068664551,24.739999771118164,24.770000457763672,24.75,1900.0
2017-06-06,24.899999618530273,24.79999923706055,24.85000038146973,24.899999618530273,1400.0
2017-06-07,24.8799991607666,24.79999923706055,24.85000038146973,24.79999923706055,15500.0
2017-06-08,24.75,24.729999542236328,24.75,24.739999771118164,1600.0
2017-06-09,24.809999465942386,24.54999923706055,24.809999465942386,24.78000068664551,4900.0
2017-06-12,24.790000915527344,24.74799919128418,24.78000068664551,24.75,1600.0
2017-06-13,24.690000534057614,24.649999618530273,24.649999618530273,24.690000534057614,400.0
2017-06-14,24.82999992370605,24.78000068664551,24.809999465942386,24.82999992370605,1700.0
2017-06-15,24.8700008392334,24.809999465942386,24.8700008392334,24.81999969482422,1700.0
2017-06-16,24.82999992370605,24.709999084472656,24.790000915527344,24.795000076293945,8600.0
2017-06-19,24.6299991607666,24.59000015258789,24.6200008392334,24.6200008392334,2400.0
2017-06-20,24.68000030517578,24.597999572753906,24.6200008392334,24.6560001373291,3500.0
2017-06-21,24.729999542236328,24.68000030517578,24.68000030517578,24.729999542236328,1300.0
2017-06-22,24.75,24.69700050354004,24.75,24.75,1200.0
2017-06-23,24.709999084472656,24.68000030517578,24.697999954223636,24.709999084472656,3700.0
2017-06-26,24.690000534057614,24.63999938964844,24.670000076293945,24.690000534057614,2900.0
2017-06-27,24.57999992370605,24.518999099731445,24.518999099731445,24.57999992370605,1400.0
2017-06-28,24.489999771118164,24.45000076293945,24.489999771118164,24.452999114990234,3700.0
2017-06-29,24.6200008392334,24.290000915527344,24.31999969482422,24.53000068664551,9900.0
2017-06-30,24.440000534057614,24.29999923706055,24.43000030517578,24.3799991607666,25100.0
2017-07-03,24.270000457763672,24.13999938964844,24.270000457763672,24.13999938964844,1100.0
2017-07-05,24.34000015258789,24.149999618530273,24.15999984741211,24.25,5700.0
2017-07-06,24.270000457763672,24.270000457763672,24.270000457763672,24.270000457763672,200.0
2017-07-07,24.26000022888184,24.170000076293945,24.25,24.20000076293945,4000.0
2017-07-10,24.26000022888184,24.04999923706055,24.26000022888184,24.13999938964844,83800.0
2017-07-11,24.25,24.1200008392334,24.13999938964844,24.18000030517578,4000.0
2017-07-12,24.158000946044922,24.059999465942386,24.059999465942386,24.117000579833984,3000.0
2017-07-13,24.07999992370605,23.95000076293945,24.07999992370605,23.959999084472656,5400.0
2017-07-14,23.959999084472656,23.959999084472656,23.959999084472656,23.959999084472656,0.0
2017-07-17,23.983999252319336,23.899999618530273,23.93000030517578,23.983999252319336,1200.0
2017-07-18,24.13999938964844,24.07999992370605,24.07999992370605,24.13999938964844,1600.0
2017-07-19,24.06999969482422,23.959999084472656,24.04199981689453,23.982999801635746,23800.0
2017-07-20,24.0,24.0,24.0,24.0,3000.0
2017-07-21,24.1200008392334,23.940000534057614,24.11000061035156,23.979999542236328,38200.0
2017-07-24,24.013999938964844,24.013999938964844,24.013999938964844,24.013999938964844,600.0
2017-07-25,23.86000061035156,23.81999969482422,23.86000061035156,23.81999969482422,1400.0
2017-07-26,23.79999923706055,23.71500015258789,23.79999923706055,23.750999450683594,1200.0
2017-07-27,23.809999465942386,23.79999923706055,23.79999923706055,23.809999465942386,300.0
2017-07-28,23.920000076293945,23.85000038146973,23.857999801635746,23.85000038146973,4200.0
2017-07-31,23.857999801635746,23.857999801635746,23.857999801635746,23.857999801635746,500.0
2017-08-01,23.95000076293945,23.8799991607666,23.88999938964844,23.95000076293945,6100.0
2017-08-02,23.979999542236328,23.899999618530273,23.979999542236328,23.899999618530273,2100.0
2017-08-03,24.040000915527344,23.940000534057614,23.979999542236328,24.040000915527344,12100.0
2017-08-04,23.979999542236328,23.959999084472656,23.979999542236328,23.959999084472656,1600.0
2017-08-07,23.979999542236328,23.8799991607666,23.8799991607666,23.96999931335449,2700.0
2017-08-08,23.979999542236328,23.867000579833984,23.96999931335449,23.96999931335449,7400.0
2017-08-09,24.18000030517578,24.07999992370605,24.170000076293945,24.11000061035156,21100.0
2017-08-10,24.479999542236328,24.20000076293945,24.20000076293945,24.46999931335449,92500.0
2017-08-11,24.53000068664551,24.35700035095215,24.53000068664551,24.5,13100.0
2017-08-14,24.68000030517578,24.231000900268555,24.34000015258789,24.239999771118164,12500.0
2017-08-15,24.11000061035156,23.96999931335449,24.04999923706055,24.10000038146973,6600.0
2017-08-16,24.020000457763672,23.940000534057614,23.959999084472656,24.020000457763672,2300.0
2017-08-17,24.43000030517578,24.15999984741211,24.15999984741211,24.43000030517578,1600.0
2017-08-18,24.6200008392334,24.440000534057614,24.6200008392334,24.54999923706055,6100.0
2017-08-21,24.559999465942386,24.479999542236328,24.559999465942386,24.51499938964844,9900.0
2017-08-22,24.36400032043457,24.28000068664551,24.36400032043457,24.290000915527344,12500.0
2017-08-23,24.32999992370605,24.290000915527344,24.32999992370605,24.290000915527344,2200.0
2017-08-24,24.45000076293945,24.31999969482422,24.440000534057614,24.45000076293945,3100.0
2017-08-25,24.46999931335449,24.3700008392334,24.3700008392334,24.40999984741211,800.0
2017-08-28,24.5,24.440000534057614,24.440000534057614,24.49099922180176,2100.0
2017-08-29,24.65500068664551,24.48600006103516,24.65500068664551,24.5,5600.0
2017-08-30,24.45000076293945,24.31999969482422,24.45000076293945,24.3799991607666,16500.0
2017-08-31,24.35000038146973,24.209999084472656,24.29999923706055,24.35000038146973,1800.0
2017-09-01,24.27400016784668,24.1299991607666,24.27400016784668,24.173999786376953,15200.0
2017-09-05,24.51000022888184,24.246999740600586,24.34000015258789,24.41699981689453,2300.0
2017-09-06,24.440000534057614,24.391000747680664,24.440000534057614,24.40999984741211,1100.0
2017-09-07,24.540000915527344,24.40299987792969,24.440000534057614,24.53000068664551,13400.0
2017-09-08,24.559999465942386,24.5,24.5,24.540000915527344,10300.0
2017-09-11,24.3799991607666,24.270000457763672,24.3799991607666,24.270000457763672,4600.0
2017-09-12,24.209999084472656,24.1200008392334,24.209999084472656,24.170000076293945,36600.0
2017-09-13,24.18000030517578,24.0629997253418,24.18000030517578,24.0629997253418,12400.0
2017-09-14,24.059999465942386,23.899999618530273,24.059999465942386,24.059999465942386,4500.0
2017-09-15,24.04999923706055,23.989999771118164,24.04999923706055,24.0,3100.0
2017-09-18,23.95000076293945,23.90900039672852,23.940000534057614,23.90999984741211,3400.0
2017-09-19,23.90999984741211,23.8700008392334,23.899999618530273,23.8700008392334,4800.0
2017-09-20,23.8799991607666,23.76000022888184,23.8799991607666,23.82999992370605,10600.0
2017-09-21,23.79999923706055,23.70000076293945,23.79999923706055,23.70000076293945,2200.0
2017-09-22,23.8700008392334,23.70000076293945,23.8700008392334,23.82999992370605,7000.0
2017-09-25,23.940000534057614,23.8700008392334,23.8799991607666,23.920000076293945,8600.0
2017-09-26,23.959999084472656,23.660999298095703,23.86000061035156,23.80900001525879,3100.0
2017-09-27,23.6299991607666,23.540000915527344,23.61000061035156,23.55400085449219,17400.0
2017-09-28,23.649999618530273,23.479999542236328,23.649999618530273,23.63999938964844,2600.0
2017-09-29,23.59000015258789,23.533000946044922,23.57500076293945,23.56999969482422,2600.0
2017-10-02,23.440000534057614,23.35000038146973,23.440000534057614,23.38400077819824,4800.0
2017-10-03,23.399999618530273,23.35300064086914,23.39800071716309,23.399999618530273,6200.0
2017-10-04,23.57999992370605,23.35300064086914,23.57999992370605,23.459999084472656,36400.0
2017-10-05,23.54999923706055,23.3700008392334,23.54999923706055,23.3799991607666,38200.0
2017-10-06,23.440000534057614,23.28499984741211,23.440000534057614,23.36000061035156,15300.0
2017-10-09,23.459999084472656,23.25,23.459999084472656,23.32999992370605,23900.0
2017-10-10,23.479999542236328,23.36000061035156,23.46999931335449,23.38999938964844,16500.0
2017-10-11,23.35000038146973,23.29999923706055,23.35000038146973,23.35000038146973,9300.0
2017-10-12,23.447999954223636,23.34000015258789,23.34000015258789,23.40200042724609,24600.0
2017-10-13,23.45000076293945,23.381000518798828,23.45000076293945,23.42600059509277,4000.0
2017-10-16,23.4689998626709,23.40099906921387,23.459999084472656,23.43000030517578,13600.0
2017-10-17,23.459999084472656,23.37700080871582,23.459999084472656,23.38999938964844,9000.0
2017-10-18,23.35000038146973,23.32999992370605,23.34000015258789,23.32999992370605,7800.0
2017-10-19,23.41900062561035,23.32999992370605,23.37299919128418,23.34000015258789,18600.0
2017-10-20,23.32999992370605,23.143999099731445,23.31999969482422,23.15999984741211,7200.0
2017-10-23,23.270000457763672,23.22500038146973,23.229999542236328,23.270000457763672,24600.0
2017-10-24,23.229999542236328,23.06999969482422,23.21999931335449,23.108999252319336,16100.0
2017-10-25,23.295000076293945,23.020000457763672,23.10000038146973,23.20000076293945,6400.0
2017-10-26,23.229999542236328,23.113000869750977,23.229999542236328,23.125,16900.0
2017-10-27,23.18000030517578,23.02700042724609,23.09000015258789,23.18000030517578,4900.0
2017-10-30,23.21999931335449,23.1200008392334,23.15999984741211,23.209999084472656,6700.0
2017-10-31,23.20000076293945,23.149999618530273,23.190000534057614,23.18600082397461,23700.0
2017-11-01,23.190000534057614,23.11000061035156,23.1299991607666,23.15500068664551,20700.0
2017-11-02,23.25900077819824,23.17300033569336,23.209999084472656,23.211000442504886,5400.0
2017-11-03,23.229999542236328,23.10000038146973,23.209999084472656,23.229999542236328,97500.0
2017-11-06,23.270000457763672,23.19700050354004,23.270000457763672,23.24900054931641,5400.0
2017-11-07,23.31999969482422,23.209999084472656,23.239999771118164,23.22500038146973,6700.0
2017-11-08,23.32999992370605,23.21500015258789,23.32999992370605,23.26000022888184,10000.0
2017-11-09,23.309999465942386,23.25,23.290000915527344,23.290000915527344,17600.0
2017-11-10,23.239999771118164,23.11000061035156,23.239999771118164,23.165000915527344,7300.0
2017-11-13,23.28000068664551,23.17600059509277,23.28000068664551,23.20000076293945,6900.0
2017-11-14,23.290000915527344,23.170000076293945,23.23900032043457,23.270000457763672,17800.0
2017-11-15,23.45000076293945,23.25,23.40200042724609,23.334999084472656,12400.0
2017-11-16,23.29999923706055,23.15999984741211,23.29999923706055,23.194000244140625,7600.0
2017-11-17,23.31399917602539,23.239999771118164,23.31399917602539,23.239999771118164,28700.0
2017-11-20,23.229999542236328,23.1299991607666,23.21999931335449,23.13800048828125,9300.0
2017-11-21,23.13599967956543,23.01000022888184,23.1299991607666,23.03000068664551,11400.0
2017-11-22,23.117000579833984,23.01000022888184,23.01000022888184,23.117000579833984,4100.0
2017-11-24,23.09000015258789,23.07999992370605,23.09000015258789,23.09000015258789,2000.0
2017-11-27,23.09000015258789,23.020000457763672,23.09000015258789,23.038000106811523,8300.0
2017-11-28,23.09000015258789,22.940000534057614,23.03000068664551,22.959999084472656,12100.0
2017-11-29,22.979999542236328,22.8799991607666,22.8799991607666,22.979999542236328,5200.0
2017-11-30,22.920000076293945,22.79999923706055,22.920000076293945,22.81999969482422,11300.0
2017-12-01,23.190000534057614,22.84000015258789,22.84000015258789,23.01499938964844,63500.0
2017-12-04,23.03000068664551,22.79999923706055,22.85000038146973,23.03000068664551,14200.0
2017-12-05,22.98500061035156,22.863000869750977,22.98500061035156,22.8700008392334,6900.0
2017-12-06,23.04700088500977,23.0,23.02599906921387,23.03000068664551,7800.0
2017-12-07,23.04999923706055,22.93000030517578,23.04999923706055,22.93000030517578,19100.0
2017-12-08,22.88999938964844,22.832000732421875,22.88999938964844,22.834999084472656,4100.0
2017-12-11,22.858999252319336,22.809999465942386,22.809999465942386,22.809999465942386,4500.0
2017-12-12,22.78000068664551,22.690000534057614,22.78000068664551,22.711000442504886,8600.0
2017-12-13,22.82999992370605,22.77400016784668,22.77400016784668,22.82500076293945,1900.0
2017-12-14,22.87899971008301,22.770000457763672,22.79999923706055,22.87899971008301,8900.0
2017-12-15,22.82999992370605,22.729999542236328,22.82999992370605,22.770000457763672,6000.0
2017-12-18,22.739999771118164,22.5,22.60000038146973,22.70000076293945,6600.0
2017-12-19,22.694000244140625,22.53000068664551,22.60000038146973,22.53000068664551,15400.0
2017-12-20,22.589000701904297,22.5,22.53000068664551,22.51000022888184,17900.0
2017-12-21,22.51000022888184,22.5,22.51000022888184,22.51000022888184,800.0
2017-12-22,22.559999465942386,22.500999450683594,22.51000022888184,22.55699920654297,10400.0
2017-12-26,22.739999771118164,22.54999923706055,22.739999771118164,22.54999923706055,7900.0
2017-12-27,22.57999992370605,22.5,22.5,22.57999992370605,44200.0
2017-12-28,22.57999992370605,22.51000022888184,22.57999992370605,22.56999969482422,14200.0
2017-12-29,22.71999931335449,22.520000457763672,22.53000068664551,22.59000015258789,27500.0
2018-01-02,22.54999923706055,22.299999237060547,22.54999923706055,22.299999237060547,10100.0
2018-01-03,22.44499969482422,22.350000381469727,22.3700008392334,22.350000381469727,4600.0
2018-01-04,22.350000381469727,22.26000022888184,22.350000381469727,22.34000015258789,12600.0
2018-01-05,22.350000381469727,22.280000686645508,22.326000213623047,22.295000076293945,3100.0
2018-01-08,22.26000022888184,22.15999984741211,22.200000762939453,22.200000762939453,5700.0
2018-01-09,22.229999542236328,22.1200008392334,22.229999542236328,22.13999938964844,6300.0
2018-01-10,22.1200008392334,22.09000015258789,22.11000061035156,22.106000900268555,6800.0
2018-01-11,22.11000061035156,22.059999465942386,22.11000061035156,22.091999053955078,11900.0
2018-01-12,22.179000854492188,21.979999542236328,22.049999237060547,21.979999542236328,20800.0
2018-01-16,22.13999938964844,22.01000022888184,22.07999992370605,22.13999938964844,26400.0
2018-01-17,22.1200008392334,21.88999938964844,22.01000022888184,21.88999938964844,16100.0
2018-01-18,22.0,21.899999618530273,21.899999618530273,21.90999984741211,6000.0
2018-01-19,22.059999465942386,21.8700008392334,21.940000534057614,21.8700008392334,3600.0
2018-01-22,21.90999984741211,21.799999237060547,21.850000381469727,21.82999992370605,8200.0
2018-01-23,21.88999938964844,21.834999084472656,21.854000091552734,21.8799991607666,2600.0
2018-01-24,21.90999984741211,21.799999237060547,21.809999465942386,21.799999237060547,10400.0
2018-01-25,21.920000076293945,21.84000015258789,21.850000381469727,21.90999984741211,8600.0
2018-01-26,21.86000061035156,21.77899932861328,21.86000061035156,21.78499984741211,17500.0
2018-01-29,21.8799991607666,21.700000762939453,21.8799991607666,21.809999465942386,15200.0
2018-01-30,21.950000762939453,21.780000686645508,21.780000686645508,21.834999084472656,17800.0
2018-01-31,21.86000061035156,21.742000579833984,21.850000381469727,21.81999969482422,7300.0
2018-02-01,22.11000061035156,21.690000534057614,21.850000381469727,21.690000534057614,82100.0
2018-02-02,21.82999992370605,21.6299991607666,21.690000534057614,21.709999084472656,72300.0
2018-02-05,23.15699958801269,21.700000762939453,21.75,22.979999542236328,51200.0
2018-02-06,24.399999618530273,23.09000015258789,24.399999618530273,23.18000030517578,87800.0
2018-02-07,22.809999465942386,22.0,22.809999465942386,22.43899917602539,52700.0
2018-02-08,23.19899940490723,22.222000122070312,22.239999771118164,23.18899917602539,22600.0
2018-02-09,23.68000030517578,22.60000038146973,23.0,22.79999923706055,73300.0
2018-02-12,22.739999771118164,22.290000915527344,22.309999465942386,22.33699989318848,15000.0
2018-02-13,22.61000061035156,22.34000015258789,22.61000061035156,22.34000015258789,3800.0
2018-02-14,22.299999237060547,21.950000762939453,22.299999237060547,21.950000762939453,11100.0
2018-02-15,22.100000381469727,21.770000457763672,22.100000381469727,21.899999618530273,37900.0
2018-02-16,21.950000762939453,21.780000686645508,21.875,21.93000030517578,13400.0
2018-02-20,22.209999084472656,21.770000457763672,22.209999084472656,22.07999992370605,9300.0
2018-02-21,21.902000427246094,21.76000022888184,21.902000427246094,21.809999465942386,9200.0
2018-02-22,22.01000022888184,21.809999465942386,21.82999992370605,21.940000534057614,12500.0
2018-02-23,21.82999992370605,21.75,21.75,21.790000915527344,7000.0
2018-02-26,21.799999237060547,21.440000534057614,21.790000915527344,21.440000534057614,29400.0
2018-02-27,21.68000030517578,21.520000457763672,21.530000686645508,21.64900016784668,26300.0
2018-02-28,21.979999542236328,21.70499992370605,21.979999542236328,21.854999542236328,9200.0
2018-03-01,22.59000015258789,21.979999542236328,22.09000015258789,22.32999992370605,30300.0
2018-03-02,22.479999542236328,22.06999969482422,22.3700008392334,22.07999992370605,9900.0
2018-03-05,22.200000762939453,21.799999237060547,22.200000762939453,21.8799991607666,18100.0
2018-03-06,21.899999618530273,21.739999771118164,21.739999771118164,21.84499931335449,5100.0
2018-03-07,22.040000915527344,21.8700008392334,22.0,21.899999618530273,28800.0
2018-03-08,21.915000915527344,21.809999465942386,21.850000381469727,21.90999984741211,147700.0
2018-03-09,21.76000022888184,21.5,21.76000022888184,21.52400016784668,22800.0
2018-03-12,21.690000534057614,21.541000366210934,21.59000015258789,21.6200008392334,5000.0
2018-03-13,21.82999992370605,21.621999740600586,21.624000549316406,21.81999969482422,13900.0
2018-03-14,21.899999618530273,21.70499992370605,21.729999542236328,21.899999618530273,9200.0
2018-03-15,21.940000534057614,21.84000015258789,21.8799991607666,21.940000534057614,1300.0
2018-03-16,21.80900001525879,21.68000030517578,21.75,21.799999237060547,5600.0
2018-03-19,22.040000915527344,21.700000762939453,21.700000762939453,22.01000022888184,7500.0
2018-03-20,21.86100006103516,21.757999420166016,21.843000411987305,21.81999969482422,15200.0
2018-03-21,21.801000595092773,21.739999771118164,21.799999237060547,21.801000595092773,1900.0
2018-03-22,22.28199958801269,21.739999771118164,21.739999771118164,22.28199958801269,11300.0
2018-03-23,22.770000457763672,22.350000381469727,22.3799991607666,22.72400093078613,84600.0
2018-03-26,22.61000061035156,22.2450008392334,22.61000061035156,22.270000457763672,11700.0
2018-03-27,22.54999923706055,22.299999237060547,22.309999465942386,22.450000762939453,20300.0
2018-03-28,22.81999969482422,22.434999465942386,22.81999969482422,22.58099937438965,31900.0
2018-03-29,22.59000015258789,22.280000686645508,22.53000068664551,22.36000061035156,15200.0
2018-04-02,23.07999992370605,22.270000457763672,22.350000381469727,22.988000869750977,81200.0
2018-04-03,22.63999938964844,22.399999618530273,22.5310001373291,22.399999618530273,16300.0
2018-04-04,22.79999923706055,22.21999931335449,22.79999923706055,22.21999931335449,150300.0
2018-04-05,22.239999771118164,22.023000717163086,22.239999771118164,22.07999992370605,6900.0
2018-04-06,22.520000457763672,22.152999877929688,22.17300033569336,22.450000762939453,38100.0
2018-04-09,22.350000381469727,22.14900016784668,22.350000381469727,22.3439998626709,9900.0
2018-04-10,22.24399948120117,22.11000061035156,22.173999786376953,22.152999877929688,4500.0
2018-04-11,22.309999465942386,22.14299964904785,22.309999465942386,22.239999771118164,3200.0
2018-04-12,22.23500061035156,21.71999931335449,22.23500061035156,22.049999237060547,27900.0
2018-04-13,22.020000457763672,21.88999938964844,22.0,22.020000457763672,4000.0
2018-04-16,21.90999984741211,21.670000076293945,21.90999984741211,21.709999084472656,12600.0
2018-04-17,21.790000915527344,21.709999084472656,21.7810001373291,21.768999099731445,4900.0
2018-04-18,21.649999618530273,21.5,21.63999938964844,21.5,7300.0
2018-04-19,21.59000015258789,21.59000015258789,21.59000015258789,21.59000015258789,600.0
2018-04-20,21.6299991607666,21.59000015258789,21.61000061035156,21.6299991607666,2800.0
2018-04-23,21.600000381469727,21.51000022888184,21.600000381469727,21.549999237060547,3400.0
2018-04-24,21.770000457763672,21.493000030517575,21.5,21.59000015258789,5900.0
2018-04-25,21.7549991607666,21.61000061035156,21.649999618530273,21.68600082397461,8600.0
2018-04-26,21.559999465942386,21.527000427246094,21.527000427246094,21.559999465942386,1100.0
2018-04-27,21.608999252319336,21.5,21.5,21.551000595092773,2000.0
2018-04-30,21.61000061035156,21.42099952697754,21.5,21.575000762939453,6200.0
2018-05-01,21.700000762939453,21.517000198364254,21.65999984741211,21.6200008392334,21900.0
2018-05-02,21.6299991607666,21.399999618530273,21.399999618530273,21.6200008392334,4000.0
2018-05-03,21.75,21.6200008392334,21.6299991607666,21.690000534057614,2600.0
2018-05-04,21.608999252319336,21.516000747680664,21.608999252319336,21.52199935913086,4100.0
2018-05-07,21.479999542236328,21.399999618530273,21.479999542236328,21.459999084472656,5500.0
2018-05-08,21.530000686645508,21.229999542236328,21.530000686645508,21.489999771118164,20800.0
2018-05-09,21.326000213623047,21.160999298095703,21.326000213623047,21.184999465942386,2200.0
2018-05-10,21.280000686645508,21.07999992370605,21.280000686645508,21.11100006103516,12300.0
2018-05-11,21.25,21.1299991607666,21.200000762939453,21.149999618530273,13300.0
2018-05-14,21.149999618530273,21.059999465942386,21.149999618530273,21.1200008392334,8800.0
2018-05-15,21.07999992370605,21.0,21.049999237060547,21.07999992370605,2900.0
2018-05-16,21.148000717163086,20.85099983215332,21.0,20.85099983215332,3500.0
2018-05-17,20.88999938964844,20.84000015258789,20.850000381469727,20.88999938964844,1800.0
2018-05-18,21.01000022888184,20.799999237060547,20.809999465942386,20.920000076293945,8700.0
2018-05-21,20.979999542236328,20.780000686645508,20.979999542236328,20.84000015258789,9600.0
2018-05-22,20.871000289916992,20.799999237060547,20.799999237060547,20.849000930786133,1800.0
2018-05-23,21.07999992370605,20.950000762939453,21.0,20.950000762939453,1300.0
2018-05-24,21.11599922180176,20.850000381469727,21.11599922180176,20.950000762939453,5800.0
2018-05-25,21.118000030517575,21.040000915527344,21.10300064086914,21.09000015258789,11500.0
2018-05-29,21.61100006103516,21.1299991607666,21.399999618530273,21.59000015258789,7900.0
2018-05-30,21.347000122070312,21.13999938964844,21.347000122070312,21.239999771118164,5600.0
2018-05-31,21.448999404907227,21.209999084472656,21.336000442504886,21.36599922180176,3000.0
2018-06-01,21.209999084472656,21.07999992370605,21.138999938964844,21.15999984741211,60900.0
2018-06-04,21.170000076293945,20.993000030517575,21.170000076293945,20.993000030517575,1300.0
2018-06-05,20.993000030517575,20.993000030517575,20.993000030517575,20.993000030517575,100.0
2018-06-06,20.96199989318848,20.875999450683594,20.96199989318848,20.875999450683594,17000.0
2018-06-07,21.01000022888184,20.940000534057614,20.940000534057614,21.01000022888184,5200.0
2018-06-08,21.01000022888184,20.90999984741211,20.96299934387207,20.979999542236328,8400.0
2018-06-11,20.93000030517578,20.75,20.93000030517578,20.84000015258789,157200.0
2018-06-12,20.920000076293945,20.84600067138672,20.84600067138672,20.886999130249023,6300.0
2018-06-13,20.899999618530273,20.899999618530273,20.899999618530273,20.899999618530273,100.0
2018-06-14,20.929000854492188,20.81999969482422,20.81999969482422,20.90699958801269,3700.0
2018-06-15,21.049999237060547,21.0,21.01000022888184,21.0,7200.0
2018-06-18,21.049999237060547,21.006000518798828,21.049999237060547,21.02899932861328,600.0
2018-06-19,21.200000762939453,21.099000930786133,21.200000762939453,21.149999618530273,4600.0
2018-06-20,21.059999465942386,20.979999542236328,21.040000915527344,20.99399948120117,4000.0
2018-06-21,21.170000076293945,21.0,21.01000022888184,21.170000076293945,17400.0
2018-06-22,21.09000015258789,21.09000015258789,21.09000015258789,21.09000015258789,400.0
2018-06-25,21.499000549316406,21.229999542236328,21.26000022888184,21.386999130249023,7000.0
2018-06-26,21.3799991607666,21.3799991607666,21.3799991607666,21.3799991607666,300.0
2018-06-27,21.56999969482422,21.207000732421875,21.56999969482422,21.450000762939453,11100.0
2018-06-28,21.524999618530273,21.32999992370605,21.34000015258789,21.33799934387207,3700.0
2018-06-29,21.31999969482422,21.15999984741211,21.15999984741211,21.253999710083008,25500.0
2018-07-02,21.440000534057614,21.21199989318848,21.31999969482422,21.27199935913086,17900.0
2018-07-03,21.283000946044922,21.21999931335449,21.21999931335449,21.283000946044922,500.0
2018-07-05,21.530000686645508,21.18199920654297,21.530000686645508,21.229999542236328,4700.0
2018-07-06,21.450000762939453,21.06100082397461,21.450000762939453,21.190000534057614,10200.0
2018-07-09,21.020000457763672,20.8799991607666,20.8799991607666,21.020000457763672,5100.0
2018-07-10,20.979999542236328,20.82999992370605,20.979999542236328,20.8799991607666,7400.0
2018-07-11,21.059999465942386,20.940000534057614,20.940000534057614,21.048999786376953,4600.0
2018-07-12,20.93000030517578,20.899999618530273,20.899999618530273,20.93000030517578,2400.0
2018-07-13,20.950000762939453,20.920000076293945,20.920000076293945,20.93400001525879,700.0
2018-07-16,20.979999542236328,20.799999237060547,20.979999542236328,20.856000900268555,6700.0
2018-07-17,20.8700008392334,20.75200080871582,20.8700008392334,20.75200080871582,400.0
2018-07-18,20.86000061035156,20.716999053955078,20.790000915527344,20.716999053955078,152700.0
2018-07-19,20.8700008392334,20.709999084472656,20.709999084472656,20.76000022888184,1800.0
2018-07-20,20.797000885009766,20.600000381469727,20.600000381469727,20.770000457763672,1500.0
2018-07-23,20.780000686645508,20.700000762939453,20.780000686645508,20.700000762939453,1900.0
2018-07-24,20.799999237060547,20.559999465942386,20.799999237060547,20.61000061035156,7800.0
2018-07-25,20.643999099731445,20.57999992370605,20.600000381469727,20.57999992370605,1100.0
2018-07-26,20.5,20.5,20.5,20.5,800.0
2018-07-27,20.60300064086914,20.55500030517578,20.60300064086914,20.55500030517578,6300.0
2018-07-30,20.68000030517578,20.59000015258789,20.68000030517578,20.59000015258789,1900.0
2018-07-31,20.700000762939453,20.559999465942386,20.64900016784668,20.559999465942386,2500.0
2018-08-01,20.64900016784668,20.559999465942386,20.64900016784668,20.56999969482422,12500.0
2018-08-02,20.739999771118164,20.5,20.63999938964844,20.549999237060547,34900.0
2018-08-03,20.573999404907227,20.549999237060547,20.573999404907227,20.56100082397461,1800.0
2018-08-06,20.600000381469727,20.5,20.600000381469727,20.535999298095703,800.0
2018-08-07,20.5,20.34000015258789,20.5,20.34000015258789,6000.0
2018-08-08,20.459999084472656,20.3700008392334,20.3700008392334,20.4379997253418,2600.0
2018-08-09,20.5,20.3700008392334,20.3700008392334,20.464000701904297,3700.0
2018-08-10,20.709999084472656,20.677000045776367,20.68000030517578,20.677000045776367,2200.0
2018-08-13,20.799999237060547,20.61000061035156,20.61000061035156,20.709999084472656,2000.0
2018-08-14,20.71299934387207,20.68199920654297,20.71299934387207,20.700000762939453,2300.0
2018-08-15,20.9060001373291,20.76499938964844,20.9060001373291,20.76499938964844,4800.0
2018-08-16,20.700000762939453,20.649999618530273,20.700000762939453,20.649999618530273,1800.0
2018-08-17,20.540000915527344,20.49799919128418,20.540000915527344,20.49799919128418,1100.0
2018-08-20,20.690000534057614,20.625,20.679000854492188,20.690000534057614,166800.0
2018-08-21,20.61000061035156,20.479999542236328,20.524999618530273,20.520999908447266,7400.0
2018-08-22,20.6879997253418,20.57999992370605,20.66900062561035,20.63400077819824,8300.0
2018-08-23,20.690000534057614,20.559999465942386,20.559999465942386,20.690000534057614,3500.0
2018-08-24,20.61100006103516,20.55299949645996,20.55699920654297,20.575000762939453,1900.0
2018-08-27,20.548999786376953,20.399999618530273,20.399999618530273,20.540000915527344,7900.0
2018-08-28,20.50900077819824,20.38999938964844,20.405000686645508,20.50900077819824,10500.0
2018-08-29,20.450000762939453,20.41399955749512,20.43899917602539,20.42799949645996,6200.0
2018-08-30,20.57999992370605,20.43000030517578,20.530000686645508,20.5629997253418,19600.0
2018-08-31,20.600000381469727,20.507999420166016,20.600000381469727,20.56999969482422,7900.0
2018-09-04,20.582000732421875,20.46999931335449,20.520000457763672,20.51499938964844,22100.0
2018-09-05,20.541000366210934,20.440000534057614,20.530000686645508,20.496999740600586,22700.0
2018-09-06,20.6299991607666,20.43000030517578,20.43000030517578,20.57999992370605,15000.0
2018-09-07,20.65699958801269,20.488000869750977,20.55500030517578,20.569000244140625,6800.0
2018-09-10,20.770000457763672,20.440000534057614,20.61000061035156,20.48500061035156,4700.0
2018-09-11,20.5,20.3700008392334,20.5,20.40999984741211,8300.0
2018-09-12,20.450000762939453,20.34000015258789,20.399999618530273,20.40999984741211,18000.0
2018-09-13,20.36100006103516,20.277000427246094,20.36100006103516,20.315000534057614,4200.0
2018-09-14,20.26000022888184,20.200000762939453,20.200000762939453,20.2450008392334,1600.0
2018-09-17,20.280000686645508,20.100000381469727,20.100000381469727,20.270000457763672,9700.0
2018-09-18,20.5,20.100000381469727,20.5,20.100000381469727,27400.0
2018-09-19,20.19499969482422,20.051000595092773,20.19499969482422,20.051000595092773,3500.0
2018-09-20,20.200000762939453,20.0,20.200000762939453,20.027000427246094,6400.0
2018-09-21,20.059999465942386,20.01000022888184,20.018999099731445,20.059999465942386,14700.0
2018-09-24,20.13999938964844,20.09000015258789,20.13999938964844,20.09000015258789,1000.0
2018-09-25,20.03199958801269,20.020000457763672,20.020000457763672,20.03199958801269,400.0
2018-09-26,20.01000022888184,19.94700050354004,20.01000022888184,19.959999084472656,3500.0
2018-09-27,20.0,19.91699981689453,19.950000762939453,20.0,16000.0
2018-09-28,20.049999237060547,20.0,20.0,20.01499938964844,12000.0
2018-10-01,20.01000022888184,19.899999618530273,20.01000022888184,19.940000534057614,26300.0
2018-10-02,19.979000091552734,19.96999931335449,19.96999931335449,19.979000091552734,6200.0
2018-10-03,19.950000762939453,19.71999931335449,19.920000076293945,19.81999969482422,31000.0
2018-10-04,19.868000030517575,19.700000762939453,19.700000762939453,19.8439998626709,6800.0
2018-10-05,20.100000381469727,19.799999237060547,19.90999984741211,19.94300079345703,8100.0
2018-10-08,19.98699951171875,19.86000061035156,19.920000076293945,19.86000061035156,3300.0
2018-10-09,19.934999465942386,19.86000061035156,19.8799991607666,19.895000457763672,6800.0
2018-10-10,20.229999542236328,19.84000015258789,19.84000015258789,20.209999084472656,13800.0
2018-10-11,21.030000686645508,20.450000762939453,20.57999992370605,20.780000686645508,29700.0
2018-10-12,20.88999938964844,20.440000534057614,20.649999618530273,20.55900001525879,25200.0
2018-10-15,20.649999618530273,20.499000549316406,20.61000061035156,20.530000686645508,6100.0
2018-10-16,20.45599937438965,20.270000457763672,20.299999237060547,20.299999237060547,15400.0
2018-10-17,20.38500022888184,20.200000762939453,20.309999465942386,20.229999542236328,10700.0
2018-10-18,20.56999969482422,20.246999740600586,20.290000915527344,20.540000915527344,4900.0
2018-10-19,20.520000457763672,20.270000457763672,20.309999465942386,20.489999771118164,7100.0
2018-10-22,20.600000381469727,20.479999542236328,20.530000686645508,20.507999420166016,16600.0
2018-10-23,21.11000061035156,20.551000595092773,20.6200008392334,20.582000732421875,167900.0
2018-10-24,21.190000534057614,20.81399917602539,20.8799991607666,21.190000534057614,85200.0
2018-10-25,21.229999542236328,20.8799991607666,21.11000061035156,20.88999938964844,29300.0
2018-10-26,21.57099914550781,21.229999542236328,21.309999465942386,21.520000457763672,25100.0
2018-10-29,21.729999542236328,20.989999771118164,21.350000381469727,21.459999084472656,32500.0
2018-10-30,21.549999237060547,21.18000030517578,21.36000061035156,21.18000030517578,13700.0
2018-10-31,20.86000061035156,20.739999771118164,20.834999084472656,20.850000381469727,29400.0
2018-11-01,20.840999603271484,20.59000015258789,20.840999603271484,20.59000015258789,145500.0
2018-11-02,20.88999938964844,20.420000076293945,20.5,20.8700008392334,18200.0
2018-11-05,20.950000762939453,20.600000381469727,20.950000762939453,20.63999938964844,5300.0
2018-11-06,20.559999465942386,20.43000030517578,20.559999465942386,20.516000747680664,1700.0
2018-11-07,20.291000366210934,20.01000022888184,20.291000366210934,20.01000022888184,38000.0
2018-11-08,20.09000015258789,19.950000762939453,20.076000213623047,19.96999931335449,19900.0
2018-11-09,20.29400062561035,20.18000030517578,20.18000030517578,20.229999542236328,5000.0
2018-11-12,20.600000381469727,20.381000518798828,20.600000381469727,20.549999237060547,2400.0
2018-11-13,20.73600006103516,20.600000381469727,20.600000381469727,20.73600006103516,6300.0
2018-11-14,20.899999618530273,20.559999465942386,20.8700008392334,20.81999969482422,10400.0
2018-11-15,21.038000106811523,20.75,21.038000106811523,20.83300018310547,1600.0
2018-11-16,20.75,20.63999938964844,20.75,20.63999938964844,600.0
2018-11-19,21.024999618530273,20.63999938964844,20.649999618530273,21.020000457763672,6400.0
2018-11-20,21.649999618530273,21.22100067138672,21.649999618530273,21.450000762939453,20300.0
2018-11-21,21.280000686645508,21.11199951171875,21.280000686645508,21.200000762939453,5100.0
2018-11-23,21.40999984741211,21.290000915527344,21.290000915527344,21.40999984741211,2200.0
2018-11-26,21.208999633789066,21.05699920654297,21.131000518798828,21.05699920654297,3600.0
2018-11-27,21.100000381469727,20.94599914550781,21.06100082397461,20.947999954223636,10100.0
2018-11-28,21.13999938964844,20.608999252319336,21.13999938964844,20.608999252319336,3700.0
2018-11-29,20.799999237060547,20.520000457763672,20.520000457763672,20.663000106811523,4400.0
2018-11-30,20.86000061035156,20.61000061035156,20.86000061035156,20.670000076293945,10200.0
2018-12-03,20.600000381469727,20.26000022888184,20.57999992370605,20.381000518798828,9400.0
2018-12-04,21.07999992370605,20.350000381469727,20.36000061035156,20.770000457763672,8800.0
2018-12-06,21.75,21.399999618530273,21.399999618530273,21.410999298095703,11000.0
2018-12-07,21.67799949645996,21.100000381469727,21.138999938964844,21.625,5500.0
2018-12-10,22.299999237060547,21.5,21.549999237060547,21.82999992370605,62600.0
2018-12-11,21.8799991607666,21.45499992370605,21.45499992370605,21.76000022888184,8700.0
2018-12-12,21.433000564575195,21.29800033569336,21.35099983215332,21.433000564575195,5500.0
2018-12-13,21.51499938964844,21.28899955749512,21.364999771118164,21.51499938964844,700.0
2018-12-14,22.059999465942386,21.739999771118164,21.739999771118164,21.961000442504886,15000.0
2018-12-17,22.577999114990234,22.040000915527344,22.26300048828125,22.52599906921387,80000.0
2018-12-18,22.8700008392334,22.200000762939453,22.520000457763672,22.5,27600.0
2018-12-19,23.149999618530273,22.200000762939453,22.5,23.07999992370605,26400.0
2018-12-20,23.82999992370605,23.0,23.0,23.3799991607666,175500.0
2018-12-21,24.170000076293945,23.01000022888184,23.46999931335449,23.88999938964844,84700.0
2018-12-24,26.61000061035156,24.222999572753906,26.61000061035156,24.70000076293945,69400.0
2018-12-26,25.09000015258789,23.10000038146973,24.899999618530273,23.170000076293945,74700.0
2018-12-27,24.104999542236328,23.17200088500977,23.38999938964844,23.26000022888184,61400.0
2018-12-28,23.229999542236328,22.697999954223636,23.03000068664551,22.790000915527344,68300.0
2018-12-31,23.06999969482422,22.61000061035156,22.61000061035156,22.8700008392334,75200.0
2019-01-02,23.399999618530273,22.69300079345703,23.399999618530273,22.86000061035156,67100.0
2019-01-03,23.71999931335449,22.96999931335449,23.26000022888184,23.71999931335449,57900.0
2019-01-04,23.28000068664551,22.36000061035156,23.024999618530273,22.51099967956543,66700.0
2019-01-07,22.5049991607666,22.03400039672852,22.1200008392334,22.13599967956543,15000.0
2019-01-08,22.15999984741211,21.75,21.8799991607666,21.75,15300.0
2019-01-09,21.874000549316406,21.649999618530273,21.729999542236328,21.780000686645508,22800.0
2019-01-10,22.016000747680664,21.6200008392334,22.016000747680664,21.690000534057614,12800.0
2019-01-11,21.950000762939453,21.6299991607666,21.86400032043457,21.649999618530273,101100.0
2019-01-14,21.850000381469727,21.652000427246094,21.84499931335449,21.652000427246094,4900.0
2019-01-15,21.600000381469727,21.350000381469727,21.56999969482422,21.363000869750977,7500.0
2019-01-16,21.290000915527344,21.100000381469727,21.100000381469727,21.26499938964844,21200.0
2019-01-17,21.670000076293945,21.1200008392334,21.670000076293945,21.16200065612793,30100.0
2019-01-18,21.11000061035156,20.770000457763672,21.07999992370605,21.020000457763672,23500.0
2019-01-22,21.292999267578125,20.809999465942386,20.809999465942386,21.26300048828125,27200.0
2019-01-23,21.399999618530273,21.10099983215332,21.10700035095215,21.21500015258789,8200.0
2019-01-24,21.299999237060547,21.1200008392334,21.299999237060547,21.18000030517578,11900.0
2019-01-25,21.09000015258789,20.864999771118164,21.09000015258789,20.93899917602539,3400.0
2019-01-28,21.170000076293945,20.93000030517578,20.93000030517578,21.07900047302246,42700.0
2019-01-29,21.170000076293945,21.02400016784668,21.02400016784668,21.1299991607666,16600.0
2019-01-30,21.04400062561035,20.809999465942386,21.01000022888184,20.899999618530273,22400.0
2019-01-31,20.920000076293945,20.799999237060547,20.809999465942386,20.83300018310547,6100.0
2019-02-01,20.761999130249023,20.690000534057614,20.739999771118164,20.7549991607666,7600.0
2019-02-04,20.799999237060547,20.559999465942386,20.799999237060547,20.61599922180176,49000.0
2019-02-05,20.56999969482422,20.5,20.549999237060547,20.530000686645508,7500.0
2019-02-06,20.71999931335449,20.57999992370605,20.71999931335449,20.6299991607666,10300.0
2019-02-07,20.9060001373291,20.72800064086914,20.8700008392334,20.799999237060547,10500.0
2019-02-08,21.020000457763672,20.71999931335449,21.020000457763672,20.71999931335449,19200.0
2019-02-11,20.809999465942386,20.6299991607666,20.809999465942386,20.68400001525879,30000.0
2019-02-12,20.600000381469727,20.420000076293945,20.600000381469727,20.5,7200.0
2019-02-13,20.46999931335449,20.399999618530273,20.46999931335449,20.44499969482422,4000.0
2019-02-14,20.649999618530273,20.489999771118164,20.649999618530273,20.52400016784668,7900.0
2019-02-15,20.5,20.3799991607666,20.48699951171875,20.42099952697754,8700.0
2019-02-19,20.540000915527344,20.3799991607666,20.540000915527344,20.417999267578125,2700.0
2019-02-20,20.559999465942386,20.309999465942386,20.559999465942386,20.375,10900.0
2019-02-21,20.3700008392334,20.325000762939453,20.325000762939453,20.36000061035156,5700.0
2019-02-22,20.5,20.239999771118164,20.479999542236328,20.239999771118164,19800.0
2019-02-25,20.270000457763672,20.1299991607666,20.229999542236328,20.200000762939453,20800.0
2019-02-26,20.32699966430664,20.200000762939453,20.200000762939453,20.29199981689453,5800.0
2019-02-27,20.375999450683594,20.290000915527344,20.36899948120117,20.290000915527344,13200.0
2019-02-28,20.292999267578125,20.191999435424805,20.290000915527344,20.21999931335449,12900.0
2019-03-01,20.229999542236328,20.0,20.149999618530273,20.030000686645508,53900.0
2019-03-04,20.34000015258789,20.0,20.0,20.25,19200.0
2019-03-05,20.229999542236328,20.141000747680664,20.208999633789066,20.173999786376953,8200.0
2019-03-06,20.350000381469727,20.25,20.253000259399414,20.326000213623047,57100.0
2019-03-07,20.600000381469727,20.440000534057614,20.440000534057614,20.489999771118164,7400.0
2019-03-08,20.729999542236328,20.57999992370605,20.691999435424805,20.58099937438965,5500.0
2019-03-11,20.4950008392334,20.364999771118164,20.4950008392334,20.364999771118164,5900.0
2019-03-12,20.46999931335449,20.2450008392334,20.46999931335449,20.315000534057614,8300.0
2019-03-13,20.26000022888184,20.149999618530273,20.167999267578125,20.257999420166016,8600.0
2019-03-14,20.270000457763672,20.170000076293945,20.25,20.2189998626709,4900.0
2019-03-15,20.218000411987305,20.17799949645996,20.209999084472656,20.209999084472656,37200.0
2019-03-18,20.350000381469727,20.128999710083008,20.350000381469727,20.128999710083008,26800.0
2019-03-19,20.26000022888184,20.030000686645508,20.26000022888184,20.184999465942386,3200.0
2019-03-20,20.280000686645508,20.15999984741211,20.184999465942386,20.280000686645508,16200.0
2019-03-21,20.354999542236328,20.11000061035156,20.354999542236328,20.19099998474121,1300.0
2019-03-22,20.600000381469727,20.190000534057614,20.190000534057614,20.5,4700.0
2019-03-25,20.690000534057614,20.527999877929688,20.649999618530273,20.63500022888184,94100.0
2019-03-26,20.600000381469727,20.46199989318848,20.600000381469727,20.545000076293945,8900.0
2019-03-27,20.749000549316406,20.575000762939453,20.583999633789066,20.64900016784668,18000.0
2019-03-28,20.51000022888184,20.440000534057614,20.447999954223636,20.474000930786133,8600.0
2019-03-29,20.5,20.31999969482422,20.5,20.38999938964844,31400.0
2019-04-01,20.31999969482422,20.07999992370605,20.31999969482422,20.145999908447266,13500.0
2019-04-02,20.200000762939453,19.959999084472656,19.959999084472656,19.979999542236328,60500.0
2019-04-03,20.149999618530273,19.959999084472656,19.959999084472656,20.08300018310547,609400.0
2019-04-04,20.13999938964844,20.01000022888184,20.049999237060547,20.06399917602539,3200.0
2019-04-05,20.07999992370605,20.0,20.06999969482422,20.03499984741211,7500.0
2019-04-08,20.06999969482422,20.0,20.0,20.035999298095703,5800.0
2019-04-09,20.149999618530273,20.09000015258789,20.11000061035156,20.13500022888184,9100.0
2019-04-10,20.13999938964844,20.030000686645508,20.11899948120117,20.054000854492188,8500.0
2019-04-11,20.058000564575195,19.96999931335449,20.030000686645508,19.979999542236328,5400.0
2019-04-12,19.950000762939453,19.81999969482422,19.950000762939453,19.8700008392334,21800.0
2019-04-15,19.9379997253418,19.886999130249023,19.923999786376953,19.92300033569336,5100.0
2019-04-16,19.920000076293945,19.850000381469727,19.920000076293945,19.8799991607666,3900.0
2019-04-17,19.84499931335449,19.75,19.75,19.84499931335449,1600.0
2019-04-18,19.940000534057614,19.82999992370605,19.940000534057614,19.8700008392334,10100.0
2019-04-22,19.90999984741211,19.791000366210934,19.809999465942386,19.82999992370605,36600.0
2019-04-23,19.832000732421875,19.7450008392334,19.780000686645508,19.792999267578125,3100.0
2019-04-24,19.96999931335449,19.850000381469727,19.96999931335449,19.89699935913086,7200.0
2019-04-25,20.18000030517578,19.905000686645508,20.18000030517578,19.908000946044922,6000.0
2019-04-26,19.979999542236328,19.959999084472656,19.979999542236328,19.96999931335449,2100.0
2019-04-29,20.059999465942386,19.77199935913086,20.059999465942386,19.840999603271484,15300.0
2019-04-30,19.950000762939453,19.700000762939453,19.700000762939453,19.93000030517578,15800.0
2019-05-01,19.951000213623047,19.81999969482422,19.940000534057614,19.915000915527344,13300.0
2019-05-02,19.9689998626709,19.871000289916992,19.958999633789066,19.95499992370605,11400.0
2019-05-03,19.90999984741211,19.770000457763672,19.82999992370605,19.825000762939453,32000.0
2019-05-06,20.211000442504886,19.86000061035156,20.13999938964844,19.920000076293945,52800.0
2019-05-07,20.319000244140625,19.82999992370605,19.82999992370605,20.270000457763672,20100.0
2019-05-08,20.323999404907227,20.13999938964844,20.149999618530273,20.20199966430664,10300.0
2019-05-09,20.530000686645508,20.25,20.479999542236328,20.280000686645508,36000.0
2019-05-10,20.420000076293945,20.1200008392334,20.420000076293945,20.170000076293945,28100.0
2019-05-13,20.597999572753906,20.459999084472656,20.530000686645508,20.506000518798828,16700.0
2019-05-14,20.424999237060547,20.280000686645508,20.424999237060547,20.36899948120117,5300.0
2019-05-15,20.479999542236328,20.270000457763672,20.479999542236328,20.270000457763672,16800.0
2019-05-16,20.43000030517578,20.1200008392334,20.43000030517578,20.21199989318848,31000.0
2019-05-17,20.2810001373291,20.18000030517578,20.2810001373291,20.26300048828125,11300.0
2019-05-20,20.38999938964844,20.26000022888184,20.280000686645508,20.285999298095703,33800.0
2019-05-21,20.26000022888184,20.1200008392334,20.26000022888184,20.15399932861328,17500.0
2019-05-22,20.270000457763672,20.1879997253418,20.214000701904297,20.215999603271484,750400.0
2019-05-23,20.799999237060547,20.43000030517578,20.739999771118164,20.65999984741211,21900.0
2019-05-24,20.51000022888184,20.3700008392334,20.450000762939453,20.489999771118164,22500.0
2019-05-28,20.628999710083008,20.399999618530273,20.46999931335449,20.628999710083008,5600.0
2019-05-29,20.979999542236328,20.780000686645508,20.979999542236328,20.78400039672852,44100.0
2019-05-30,20.854999542236328,20.649999618530273,20.649999618530273,20.79400062561035,22600.0
2019-05-31,21.170000076293945,20.979999542236328,21.06999969482422,21.13999938964844,75900.0
2019-06-03,21.32999992370605,21.07099914550781,21.26000022888184,21.280000686645508,12700.0
2019-06-04,21.270000457763672,20.81100082397461,21.270000457763672,20.81100082397461,24200.0
2019-06-05,20.86000061035156,20.73699951171875,20.799999237060547,20.74099922180176,8300.0
2019-06-06,20.72100067138672,20.600000381469727,20.700000762939453,20.63999938964844,15700.0
2019-06-07,20.670000076293945,20.40999984741211,20.40999984741211,20.584999084472656,51800.0
2019-06-10,20.46500015258789,20.3700008392334,20.434999465942386,20.420000076293945,48700.0
2019-06-11,20.489999771118164,20.170000076293945,20.170000076293945,20.440000534057614,28200.0
2019-06-12,20.56999969482422,20.48500061035156,20.48500061035156,20.56999969482422,3700.0
2019-06-13,20.530000686645508,20.46999931335449,20.530000686645508,20.507999420166016,10800.0
2019-06-14,20.5629997253418,20.5,20.55299949645996,20.5,11900.0
2019-06-17,20.479999542236328,20.38999938964844,20.38999938964844,20.474000930786133,4600.0
2019-06-18,20.479999542236328,20.3700008392334,20.46999931335449,20.46999931335449,29200.0
2019-06-19,20.46999931335449,20.38500022888184,20.420000076293945,20.46999931335449,7600.0
2019-06-20,20.540000915527344,20.399999618530273,20.540000915527344,20.399999618530273,5200.0
2019-06-21,20.381999969482425,20.170000076293945,20.170000076293945,20.31999969482422,42800.0
2019-06-24,20.479999542236328,20.290000915527344,20.290000915527344,20.46999931335449,3600.0
2019-06-25,20.600000381469727,20.450000762939453,20.56999969482422,20.600000381469727,12000.0
2019-06-26,20.56999969482422,20.450000762939453,20.559999465942386,20.520000457763672,10900.0
2019-06-27,20.46500015258789,20.391000747680664,20.391000747680664,20.46500015258789,1600.0
2019-06-28,20.479999542236328,20.41900062561035,20.450000762939453,20.46999931335449,13900.0
2019-07-01,20.399999618530273,20.291000366210934,20.399999618530273,20.30599975585937,11800.0
2019-07-02,20.3129997253418,20.170000076293945,20.170000076293945,20.18000030517578,26900.0
2019-07-03,20.309999465942386,20.18000030517578,20.200000762939453,20.291000366210934,11100.0
2019-07-05,20.208999633789066,20.020000457763672,20.170000076293945,20.128999710083008,25000.0
2019-07-08,20.31999969482422,20.149999618530273,20.31999969482422,20.184999465942386,2500.0
2019-07-09,20.229999542236328,20.11899948120117,20.16699981689453,20.18000030517578,16900.0
2019-07-10,20.239999771118164,20.08699989318848,20.08699989318848,20.239999771118164,7800.0
2019-07-11,20.239999771118164,20.040000915527344,20.239999771118164,20.040000915527344,12000.0
2019-07-12,20.1299991607666,20.0,20.054000854492188,20.0,4400.0
2019-07-15,20.100000381469727,20.024999618530273,20.024999618530273,20.09000015258789,42700.0
2019-07-16,20.07999992370605,20.03499984741211,20.048999786376953,20.07999992370605,11900.0
2019-07-17,20.13999938964844,20.11400032043457,20.11400032043457,20.13999938964844,7100.0
2019-07-18,20.34000015258789,20.100000381469727,20.34000015258789,20.21299934387207,9900.0
2019-07-19,20.28199958801269,20.040000915527344,20.2810001373291,20.100000381469727,9600.0
2019-07-22,20.209999084472656,20.049999237060547,20.049999237060547,20.209999084472656,21700.0
2019-07-23,20.280000686645508,20.062000274658203,20.280000686645508,20.09499931335449,2800.0
2019-07-24,20.09600067138672,20.06599998474121,20.06599998474121,20.07999992370605,5100.0
2019-07-25,20.100000381469727,20.0,20.06999969482422,20.100000381469727,16300.0
2019-07-26,20.030000686645508,20.006999969482425,20.030000686645508,20.01499938964844,6800.0
2019-07-29,20.03899955749512,20.0,20.0,20.020000457763672,1500.0
2019-07-30,20.020000457763672,20.0,20.01499938964844,20.020000457763672,1200.0
2019-07-31,20.155000686645508,20.0,20.013999938964844,20.09000015258789,11400.0
2019-08-01,20.670000076293945,20.0,20.0,20.670000076293945,39300.0
2019-08-02,20.68000030517578,20.547000885009766,20.6299991607666,20.68000030517578,8900.0
2019-08-05,21.350000381469727,20.690000534057614,20.690000534057614,21.246000289916992,55700.0
2019-08-06,21.34000015258789,20.96999931335449,21.34000015258789,21.1200008392334,60900.0
2019-08-07,21.57999992370605,21.06999969482422,21.57999992370605,21.11000061035156,16400.0
2019-08-08,21.0,20.72100067138672,21.0,20.81999969482422,6200.0
2019-08-09,21.0,20.7810001373291,20.8700008392334,20.84600067138672,13500.0
2019-08-12,21.229999542236328,20.959999084472656,21.229999542236328,21.14299964904785,31100.0
2019-08-13,21.3799991607666,20.799999237060547,21.3799991607666,20.850000381469727,4300.0
2019-08-14,21.42799949645996,21.11000061035156,21.11000061035156,21.399999618530273,81800.0
2019-08-15,21.670000076293945,21.270000457763672,21.649999618530273,21.440000534057614,84200.0
2019-08-16,21.239999771118164,20.96999931335449,20.96999931335449,21.15999984741211,37300.0
2019-08-19,20.950000762939453,20.809999465942386,20.899999618530273,20.867000579833984,37000.0
2019-08-20,21.06999969482422,20.913000106811523,20.94599914550781,21.06999969482422,8200.0
2019-08-21,20.924999237060547,20.739999771118164,20.739999771118164,20.88999938964844,38200.0
2019-08-22,20.94499969482422,20.795000076293945,20.84000015258789,20.920000076293945,6400.0
2019-08-23,21.489999771118164,20.739999771118164,21.0,21.399999618530273,72200.0
2019-08-26,21.530000686645508,21.23600006103516,21.530000686645508,21.290000915527344,65300.0
2019-08-27,21.496999740600586,21.100000381469727,21.420000076293945,21.420000076293945,24200.0
2019-08-28,21.729999542236328,21.299999237060547,21.729999542236328,21.31999969482422,39900.0
2019-08-29,21.229999542236328,21.0,21.229999542236328,21.059999465942386,14600.0
2019-08-30,21.145000457763672,20.899999618530273,20.96999931335449,21.100000381469727,15600.0
2019-09-03,21.309999465942386,21.190000534057614,21.270000457763672,21.26000022888184,14800.0
2019-09-04,21.290000915527344,21.051000595092773,21.290000915527344,21.07999992370605,11800.0
2019-09-05,20.989999771118164,20.63999938964844,20.989999771118164,20.733999252319336,23700.0
2019-09-06,20.770000457763672,20.70499992370605,20.70499992370605,20.76000022888184,21000.0
2019-09-09,20.670000076293945,20.540000915527344,20.6299991607666,20.6200008392334,14500.0
2019-09-10,20.729999542236328,20.507999420166016,20.729999542236328,20.530000686645508,15300.0
2019-09-11,20.5,20.350000381469727,20.5,20.36599922180176,57100.0
2019-09-12,20.420000076293945,20.25,20.420000076293945,20.31999969482422,4400.0
2019-09-13,20.229999542236328,20.100000381469727,20.100000381469727,20.149999618530273,10900.0
2019-09-16,20.299999237060547,20.21199989318848,20.299999237060547,20.270000457763672,7500.0
2019-09-17,20.30500030517578,20.24799919128418,20.256999969482425,20.26499938964844,7400.0
2019-09-18,20.3700008392334,20.239999771118164,20.350000381469727,20.280000686645508,9800.0
2019-09-19,20.270000457763672,20.229000091552734,20.25,20.270000457763672,2400.0
2019-09-20,20.39299964904785,20.200000762939453,20.21199989318848,20.368000030517575,3500.0
2019-09-23,20.489999771118164,20.239999771118164,20.239999771118164,20.440000534057614,19000.0
2019-09-24,20.63999938964844,20.354999542236328,20.40999984741211,20.57999992370605,121900.0
2019-09-25,20.652000427246094,20.399999618530273,20.549999237060547,20.43000030517578,24200.0
2019-09-26,20.459999084472656,20.38400077819824,20.41900062561035,20.43000030517578,18200.0
2019-09-27,20.540000915527344,20.350000381469727,20.51000022888184,20.51000022888184,18900.0
2019-09-30,20.540000915527344,20.399999618530273,20.540000915527344,20.399999618530273,4500.0
2019-10-01,20.63999938964844,20.34000015258789,20.34000015258789,20.61000061035156,7200.0
2019-10-02,20.96999931335449,20.770000457763672,20.770000457763672,20.90999984741211,51900.0
2019-10-03,21.13999938964844,20.94300079345703,21.1299991607666,20.959999084472656,33700.0
2019-10-04,21.1200008392334,20.75,21.1200008392334,20.76000022888184,36200.0
2019-10-07,20.86000061035156,20.6200008392334,20.86000061035156,20.649999618530273,18400.0
2019-10-08,20.94700050354004,20.770000457763672,20.799999237060547,20.940000534057614,30800.0
2019-10-09,20.899999618530273,20.729999542236328,20.82999992370605,20.770000457763672,112900.0
2019-10-10,20.799999237060547,20.549999237060547,20.799999237060547,20.586000442504886,18100.0
2019-10-11,20.520000457763672,20.231000900268555,20.520000457763672,20.36000061035156,23900.0
2019-10-14,20.420000076293945,20.239999771118164,20.28499984741211,20.32999992370605,27600.0
2019-10-15,20.25,20.149999618530273,20.239999771118164,20.15999984741211,28700.0
2019-10-16,20.21999931335449,20.11000061035156,20.149999618530273,20.13999938964844,23000.0
2019-10-17,20.31999969482422,20.09000015258789,20.31999969482422,20.170000076293945,7100.0
2019-10-18,20.239999771118164,20.170000076293945,20.170000076293945,20.239999771118164,56400.0
2019-10-21,20.36000061035156,20.11000061035156,20.36000061035156,20.11000061035156,38600.0
2019-10-22,20.13999938964844,20.01000022888184,20.100000381469727,20.09000015258789,28500.0
2019-10-23,20.18000030517578,20.030000686645508,20.030000686645508,20.09000015258789,35100.0
2019-10-24,20.14699935913086,20.01000022888184,20.01000022888184,20.049999237060547,28400.0
2019-10-25,20.1299991607666,19.96999931335449,20.01000022888184,19.989999771118164,49500.0
2019-10-28,19.989999771118164,19.881000518798828,19.989999771118164,19.920000076293945,21900.0
2019-10-29,19.950000762939453,19.8799991607666,19.924999237060547,19.950000762939453,20400.0
2019-10-30,20.013999938964844,19.940000534057614,19.959999084472656,20.01000022888184,7600.0
2019-10-31,20.149999618530273,19.950000762939453,19.950000762939453,20.13999938964844,13800.0
2019-11-01,20.07999992370605,19.972999572753906,20.07999992370605,20.030000686645508,10100.0
2019-11-04,20.0,19.899999618530273,20.0,19.899999618530273,54200.0
2019-11-05,19.899999618530273,19.809999465942386,19.8799991607666,19.84000015258789,23100.0
2019-11-06,19.899999618530273,19.850000381469727,19.878999710083008,19.899999618530273,15300.0
2019-11-07,19.850000381469727,19.649999618530273,19.84000015258789,19.700000762939453,22300.0
2019-11-08,19.790000915527344,19.69099998474121,19.790000915527344,19.709999084472656,17400.0
2019-11-11,19.88999938964844,19.624000549316406,19.88999938964844,19.68400001525879,7800.0
2019-11-12,19.709999084472656,19.645999908447266,19.649999618530273,19.65999984741211,86200.0
2019-11-13,19.770000457763672,19.68400001525879,19.75,19.76000022888184,4800.0
2019-11-14,19.858999252319336,19.770000457763672,19.82999992370605,19.82999992370605,48500.0
2019-11-15,19.88999938964844,19.7450008392334,19.88999938964844,19.76000022888184,12500.0
2019-11-18,19.940000534057614,19.76099967956543,19.940000534057614,19.78499984741211,3800.0
2019-11-19,19.780000686645508,19.738000869750977,19.780000686645508,19.76499938964844,8700.0
2019-11-20,19.96999931335449,19.82200050354004,19.96999931335449,19.899999618530273,8100.0
2019-11-21,19.915000915527344,19.81999969482422,19.90999984741211,19.86000061035156,11200.0
2019-11-22,19.847999572753906,19.82999992370605,19.84000015258789,19.836000442504886,7100.0
2019-11-25,19.88500022888184,19.729999542236328,19.88500022888184,19.780000686645508,54200.0
2019-11-26,19.809999465942386,19.739999771118164,19.76000022888184,19.739999771118164,27700.0
2019-11-27,19.86000061035156,19.70499992370605,19.709999084472656,19.709999084472656,26600.0
2019-11-29,19.75,19.700000762939453,19.75,19.709999084472656,11500.0
2019-12-02,20.0,19.631999969482425,20.0,19.71999931335449,79300.0
2019-12-03,20.00900077819824,19.86000061035156,19.90900039672852,19.972999572753906,20500.0
2019-12-04,19.979999542236328,19.76000022888184,19.96999931335449,19.795000076293945,8800.0
2019-12-05,19.799999237060547,19.71999931335449,19.790000915527344,19.780000686645508,18900.0
2019-12-06,19.76000022888184,19.61000061035156,19.76000022888184,19.636999130249023,24000.0
2019-12-09,19.809999465942386,19.6299991607666,19.809999465942386,19.68000030517578,10000.0
2019-12-10,19.71999931335449,19.600000381469727,19.600000381469727,19.69499969482422,13500.0
2019-12-11,19.729999542236328,19.65999984741211,19.709999084472656,19.729999542236328,164400.0
2019-12-12,19.670000076293945,19.46999931335449,19.65999984741211,19.520000457763672,39700.0
2019-12-13,19.61000061035156,19.3799991607666,19.3799991607666,19.559999465942386,29000.0
2019-12-16,19.5,19.40999984741211,19.5,19.459999084472656,28900.0
2019-12-17,19.489999771118164,19.440000534057614,19.489999771118164,19.45499992370605,10500.0
2019-12-18,19.440000534057614,19.3799991607666,19.399999618530273,19.3799991607666,31100.0
2019-12-19,19.44499969482422,19.309999465942386,19.309999465942386,19.440000534057614,18200.0
2019-12-20,19.40999984741211,19.34499931335449,19.354000091552734,19.40999984741211,27600.0
2019-12-23,19.40399932861328,19.350000381469727,19.350000381469727,19.36000061035156,17500.0
2019-12-24,19.40999984741211,19.36000061035156,19.36000061035156,19.3700008392334,9800.0
2019-12-26,19.34000015258789,19.26499938964844,19.31999969482422,19.270000457763672,7300.0
2019-12-27,19.36000061035156,19.299999237060547,19.34000015258789,19.334999084472656,68400.0
2019-12-30,19.36000061035156,19.270000457763672,19.270000457763672,19.36000061035156,23300.0
2019-12-31,19.350000381469727,19.29400062561035,19.350000381469727,19.309999465942386,48700.0
2020-01-02,19.350000381469727,19.299999237060547,19.350000381469727,19.31999969482422,9900.0
2020-01-03,19.520000457763672,19.3700008392334,19.520000457763672,19.459999084472656,27100.0
2020-01-06,19.61000061035156,19.399999618530273,19.61000061035156,19.40999984741211,29800.0
2020-01-07,19.450000762939453,19.40999984741211,19.450000762939453,19.43000030517578,17600.0
2020-01-08,19.61000061035156,19.299999237060547,19.61000061035156,19.325000762939453,16700.0
2020-01-09,19.32900047302246,19.270000457763672,19.299999237060547,19.299999237060547,16100.0
2020-01-10,19.36000061035156,19.299999237060547,19.299999237060547,19.36000061035156,22700.0
2020-01-13,19.405000686645508,19.280000686645508,19.32999992370605,19.309999465942386,22000.0
2020-01-14,19.34000015258789,19.280000686645508,19.280000686645508,19.34000015258789,10800.0
2020-01-15,19.3700008392334,19.299999237060547,19.309999465942386,19.3700008392334,26800.0
2020-01-16,19.32999992370605,19.270000457763672,19.32999992370605,19.308000564575195,55700.0
2020-01-17,19.38999938964844,19.21999931335449,19.38999938964844,19.26000022888184,191300.0
2020-01-21,19.399999618530273,19.290000915527344,19.399999618530273,19.309999465942386,135700.0
2020-01-22,19.38999938964844,19.31999969482422,19.38999938964844,19.336000442504886,19600.0
2020-01-23,19.43000030517578,19.350000381469727,19.364999771118164,19.38999938964844,37600.0
2020-01-24,19.600000381469727,19.38999938964844,19.46999931335449,19.489999771118164,41400.0
2020-01-27,19.75,19.63599967956543,19.75,19.690000534057614,46000.0
2020-01-28,19.670000076293945,19.5310001373291,19.649999618530273,19.61000061035156,25500.0
2020-01-29,19.690000534057614,19.549999237060547,19.690000534057614,19.65999984741211,38800.0
2020-01-30,19.780000686645508,19.66399955749512,19.739999771118164,19.665000915527344,39800.0
2020-01-31,19.899999618530273,19.71999931335449,19.729999542236328,19.8700008392334,38300.0
2020-02-03,19.8799991607666,19.65999984741211,19.8799991607666,19.780000686645508,44900.0
2020-02-04,19.71999931335449,19.51000022888184,19.71999931335449,19.600000381469727,20700.0
2020-02-05,19.540000915527344,19.450000762939453,19.540000915527344,19.46999931335449,12500.0
2020-02-06,19.479999542236328,19.420000076293945,19.420000076293945,19.46500015258789,14200.0
2020-02-07,19.56999969482422,19.489999771118164,19.489999771118164,19.559999465942386,23300.0
2020-02-10,19.709999084472656,19.520000457763672,19.709999084472656,19.559999465942386,33300.0
2020-02-11,19.565000534057614,19.46999931335449,19.559999465942386,19.51000022888184,37600.0
2020-02-12,19.530000686645508,19.43000030517578,19.530000686645508,19.440000534057614,34600.0
2020-02-13,19.540000915527344,19.440000534057614,19.540000915527344,19.46999931335449,35600.0
2020-02-14,19.51000022888184,19.440000534057614,19.440000534057614,19.479999542236328,25000.0
2020-02-18,19.559999465942386,19.489999771118164,19.530000686645508,19.530000686645508,29000.0
2020-02-19,19.56999969482422,19.468000411987305,19.56999969482422,19.489999771118164,21000.0
2020-02-20,19.6299991607666,19.479999542236328,19.549999237060547,19.58300018310547,21500.0
2020-02-21,19.75,19.61100006103516,19.649999618530273,19.71999931335449,49600.0
2020-02-24,20.25,19.950000762939453,20.200000762939453,20.07999992370605,134200.0
2020-02-25,20.450000762939453,20.07999992370605,20.209999084472656,20.40999984741211,379900.0
2020-02-26,20.489999771118164,20.100000381469727,20.489999771118164,20.38999938964844,113900.0
2020-02-27,20.950000762939453,20.51000022888184,20.88999938964844,20.950000762939453,154000.0
2020-02-28,21.81999969482422,21.299999237060547,21.309999465942386,21.459999084472656,812400.0
2020-03-02,21.393999099731445,20.75,21.350000381469727,20.8700008392334,243500.0
2020-03-03,21.59000015258789,20.75900077819824,21.15999984741211,21.479999542236328,480500.0
2020-03-04,21.36899948120117,20.99099922180176,21.06999969482422,21.020000457763672,55200.0
2020-03-05,21.700000762939453,21.31999969482422,21.700000762939453,21.604999542236328,235400.0
2020-03-06,22.51000022888184,22.0,22.5,22.059999465942386,303600.0
2020-03-09,23.489999771118164,22.60300064086914,23.0,23.3799991607666,342600.0
2020-03-10,23.61000061035156,22.507999420166016,22.61000061035156,22.989999771118164,569000.0
2020-03-11,23.60000038146973,22.920000076293945,23.53000068664551,23.479999542236328,355600.0
2020-03-12,25.0,24.01000022888184,25.0,24.5,658400.0
2020-03-13,24.440000534057614,23.25,23.65999984741211,23.459999084472656,1245500.0
2020-03-16,27.229999542236328,24.0,26.809999465942386,24.790000915527344,965100.0
2020-03-17,25.149999618530273,24.0,24.78000068664551,24.22500038146973,332600.0
2020-03-18,25.290000915527344,24.000999450683594,24.51000022888184,24.459999084472656,713300.0
2020-03-19,25.149999618530273,24.01000022888184,24.295000076293945,24.34000015258789,405500.0
2020-03-20,24.85000038146973,23.81999969482422,24.0,24.79999923706055,685100.0
2020-03-23,25.68000030517578,24.78499984741211,25.0,25.020000457763672,783400.0
2020-03-24,24.584999084472656,23.82999992370605,24.5,24.11000061035156,501000.0
2020-03-25,24.29999923706055,23.51000022888184,23.79999923706055,24.18000030517578,392400.0
2020-03-26,24.11000061035156,23.28000068664551,24.11000061035156,23.43000030517578,320700.0
2020-03-27,24.01000022888184,23.51000022888184,23.59000015258789,24.01000022888184,99800.0
2020-03-30,24.07999992370605,23.500999450683594,24.07999992370605,23.6299991607666,161600.0
2020-03-31,23.86000061035156,23.40999984741211,23.86000061035156,23.86000061035156,176100.0
2020-04-01,24.899999618530273,24.20000076293945,24.899999618530273,24.6200008392334,313400.0
2020-04-02,25.20000076293945,24.6299991607666,24.979999542236328,24.989999771118164,459900.0
2020-04-03,25.040000915527344,24.04999923706055,25.040000915527344,24.149999618530273,267500.0
2020-04-06,23.96999931335449,23.170000076293945,23.96999931335449,23.209999084472656,267800.0
2020-04-07,23.290000915527344,22.399999618530273,22.84000015258789,23.10000038146973,374900.0
2020-04-08,23.357999801635746,22.8799991607666,23.29999923706055,23.035999298095703,131300.0
2020-04-09,23.125,22.170000076293945,22.649999618530273,22.8799991607666,139700.0
2020-04-13,23.149999618530273,23.0,23.1200008392334,23.059999465942386,146300.0
2020-04-14,22.95800018310547,22.60000038146973,22.79999923706055,22.60000038146973,180000.0
2020-04-15,23.29999923706055,22.899999618530273,23.25,23.07999992370605,99500.0
2020-04-16,23.30599975585937,23.10000038146973,23.20000076293945,23.28000068664551,236700.0
2020-04-17,23.190000534057614,22.875,23.04999923706055,22.989999771118164,137800.0
2020-04-20,23.399999618530273,22.920000076293945,23.399999618530273,22.920000076293945,644500.0
2020-04-21,23.684999465942386,23.239999771118164,23.489999771118164,23.520000457763672,163900.0
2020-04-22,23.479999542236328,23.149999618530273,23.45000076293945,23.309999465942386,146700.0
2020-04-23,23.3700008392334,22.899999618530273,22.899999618530273,23.190000534057614,356100.0
2020-04-24,23.420000076293945,23.040000915527344,23.29999923706055,23.18000030517578,232000.0
2020-04-27,23.07999992370605,22.84499931335449,23.020000457763672,22.86000061035156,215600.0
2020-04-28,22.989999771118164,22.63500022888184,22.739999771118164,22.90999984741211,188300.0
2020-04-29,22.959999084472656,22.43000030517578,22.959999084472656,22.60000038146973,247500.0
2020-04-30,22.790000915527344,22.479999542236328,22.60000038146973,22.76000022888184,209000.0
2020-05-01,23.09000015258789,22.82999992370605,23.0,22.899999618530273,281000.0
2020-05-04,23.18000030517578,22.85000038146973,23.18000030517578,22.8700008392334,180100.0
2020-05-05,23.07999992370605,22.60000038146973,23.07999992370605,22.70000076293945,309500.0
2020-05-06,22.84000015258789,22.63999938964844,22.63999938964844,22.75,108200.0
2020-05-07,22.920000076293945,22.63999938964844,22.709999084472656,22.809999465942386,305900.0
2020-05-08,22.770000457763672,22.520000457763672,22.770000457763672,22.60000038146973,194900.0
2020-05-11,22.709999084472656,22.350000381469727,22.70000076293945,22.3700008392334,195800.0
2020-05-12,22.709999084472656,22.31999969482422,22.350000381469727,22.59499931335449,325700.0
2020-05-13,23.10000038146973,22.67099952697754,22.85000038146973,22.95000076293945,466200.0
2020-05-14,23.49900054931641,22.809999465942386,23.29999923706055,22.920000076293945,485900.0
2020-05-15,23.059999465942386,22.79999923706055,23.04999923706055,22.79999923706055,1064700.0
2020-05-18,22.670000076293945,22.25,22.649999618530273,22.270000457763672,290600.0
2020-05-19,22.540000915527344,22.07999992370605,22.09000015258789,22.520000457763672,180600.0
2020-05-20,22.5,22.301000595092773,22.5,22.3700008392334,67400.0
2020-05-21,22.479999542236328,22.350000381469727,22.350000381469727,22.46999931335449,106400.0
2020-05-22,22.53000068664551,22.450000762939453,22.51000022888184,22.489999771118164,72900.0
2020-05-26,22.34000015258789,22.21999931335449,22.25,22.299999237060547,384100.0
2020-05-27,22.43000030517578,22.170000076293945,22.229999542236328,22.209999084472656,515400.0
2020-05-28,22.239999771118164,21.959999084472656,21.959999084472656,22.190000534057614,136900.0
2020-05-29,22.38999938964844,22.15999984741211,22.15999984741211,22.350000381469727,299100.0
2020-06-01,22.350000381469727,22.21999931335449,22.350000381469727,22.25,140600.0
2020-06-02,22.32999992370605,22.149999618530273,22.299999237060547,22.21999931335449,420900.0
2020-06-03,22.125,21.61000061035156,22.049999237060547,22.0,172200.0
2020-06-04,22.030000686645508,21.899999618530273,22.01000022888184,22.0,185500.0
2020-06-05,21.81999969482422,21.5629997253418,21.56999969482422,21.76000022888184,249000.0
2020-06-08,21.739999771118164,21.631999969482425,21.68000030517578,21.665000915527344,158000.0
2020-06-09,21.88999938964844,21.700000762939453,21.700000762939453,21.88999938964844,382700.0
2020-06-10,22.0,21.809999465942386,21.88999938964844,21.989999771118164,746000.0
2020-06-11,22.559999465942386,22.176000595092773,22.399999618530273,22.54999923706055,866100.0
2020-06-12,22.60000038146973,22.209999084472656,22.440000534057614,22.420000076293945,851100.0
2020-06-15,22.75,22.170000076293945,22.75,22.270000457763672,205700.0
2020-06-16,22.280000686645508,21.93000030517578,22.0,22.15999984741211,319700.0
2020-06-17,22.32999992370605,22.1200008392334,22.309999465942386,22.149999618530273,299200.0
2020-06-18,22.46999931335449,22.149999618530273,22.46999931335449,22.19499969482422,247100.0
2020-06-19,22.32999992370605,21.950000762939453,21.950000762939453,22.25,249000.0
2020-06-22,22.46999931335449,22.149999618530273,22.36000061035156,22.200000762939453,291500.0
2020-06-23,22.190000534057614,22.040000915527344,22.18000030517578,22.15999984741211,272400.0
2020-06-24,22.450000762939453,22.18000030517578,22.290000915527344,22.399999618530273,594000.0
2020-06-25,22.459999084472656,22.25,22.459999084472656,22.280000686645508,154500.0
2020-06-26,22.6299991607666,22.301000595092773,22.3799991607666,22.459999084472656,246600.0
2020-06-29,22.540000915527344,22.399999618530273,22.540000915527344,22.433000564575195,387600.0
2020-06-30,22.489999771118164,22.200000762939453,22.489999771118164,22.25,307900.0
2020-07-01,22.295000076293945,22.07999992370605,22.239999771118164,22.145000457763672,294800.0
2020-07-02,22.1299991607666,21.94499969482422,22.09000015258789,22.11000061035156,182400.0
2020-07-06,22.049999237060547,21.90999984741211,22.049999237060547,22.030000686645508,286700.0
2020-07-07,22.170000076293945,21.959999084472656,22.170000076293945,22.13999938964844,158700.0
2020-07-08,22.18000030517578,22.020000457763672,22.13999938964844,22.11000061035156,284900.0
2020-07-09,22.26000022888184,22.076000213623047,22.170000076293945,22.18000030517578,405500.0
2020-07-10,22.280000686645508,22.06999969482422,22.280000686645508,22.06999969482422,188000.0
2020-07-13,22.229999542236328,21.959999084472656,22.049999237060547,22.200000762939453,195100.0
2020-07-14,22.36000061035156,22.1200008392334,22.36000061035156,22.1200008392334,171700.0
2020-07-15,22.14900016784668,22.0,22.100000381469727,22.049999237060547,193800.0
2020-07-16,22.209999084472656,22.059999465942386,22.209999084472656,22.059999465942386,297100.0
2020-07-17,22.190000534057614,22.01000022888184,22.190000534057614,22.030000686645508,692900.0
2020-07-20,22.11000061035156,21.90999984741211,22.100000381469727,21.989999771118164,449000.0
2020-07-21,22.049999237060547,21.920000076293945,21.989999771118164,22.030000686645508,196700.0
2020-07-22,22.100000381469727,21.979999542236328,22.100000381469727,21.989999771118164,262500.0
2020-07-23,22.11000061035156,22.0,22.09000015258789,22.07999992370605,105200.0
2020-07-24,22.209999084472656,22.06999969482422,22.11000061035156,22.09000015258789,264900.0
2020-07-27,22.15900039672852,21.950000762939453,22.149999618530273,21.979999542236328,161600.0
2020-07-28,22.200000762939453,21.96999931335449,22.200000762939453,22.020000457763672,355100.0
2020-07-29,22.125,21.950000762939453,22.125,22.024999618530273,424800.0
2020-07-30,22.209999084472656,22.100000381469727,22.149999618530273,22.1299991607666,240800.0
2020-07-31,22.209999084472656,22.054000854492188,22.114999771118164,22.09000015258789,186500.0
2020-08-03,22.11000061035156,22.0,22.100000381469727,22.059999465942386,203000.0
2020-08-04,22.200000762939453,22.01000022888184,22.200000762939453,22.045000076293945,806200.0
2020-08-05,22.040000915527344,21.950000762939453,22.0,21.950000762939453,203100.0
2020-08-06,22.049999237060547,21.950000762939453,21.950000762939453,21.989999771118164,133300.0
2020-08-07,22.0,21.90999984741211,22.0,21.93000030517578,144500.0
2020-08-10,21.90999984741211,21.81999969482422,21.88999938964844,21.81999969482422,195400.0
2020-08-11,21.854999542236328,21.61000061035156,21.61000061035156,21.82999992370605,306800.0
2020-08-12,21.75,21.600000381469727,21.75,21.690000534057614,299600.0
2020-08-13,21.700000762939453,21.61000061035156,21.6299991607666,21.6299991607666,102300.0
2020-08-14,21.690000534057614,21.6200008392334,21.6299991607666,21.68000030517578,162700.0
2020-08-17,21.716999053955078,21.63500022888184,21.700000762939453,21.684999465942386,358900.0
2020-08-18,21.729999542236328,21.6299991607666,21.65999984741211,21.700000762939453,172300.0
2020-08-19,21.75,21.6299991607666,21.700000762939453,21.700000762939453,161500.0
2020-08-20,21.790000915527344,21.71999931335449,21.75,21.76000022888184,209300.0
2020-08-21,21.799999237060547,21.700000762939453,21.76000022888184,21.76000022888184,283200.0
2020-08-24,21.770000457763672,21.670000076293945,21.75,21.690000534057614,148300.0
2020-08-25,21.6299991607666,21.549999237060547,21.600000381469727,21.6200008392334,101776.0
