Date,High,Low,Open,Close,Volume
2019-04-01,25.29999923706055,25.125,25.29999923706055,25.18000030517578,275600.0
2019-04-02,25.22500038146973,25.163000106811523,25.20100021362305,25.18899917602539,52400.0
2019-04-03,25.270000457763672,25.18000030517578,25.209999084472656,25.21500015258789,88400.0
2019-04-04,25.270000457763672,25.2189998626709,25.239999771118164,25.2549991607666,37100.0
2019-04-05,25.35000038146973,25.30500030517578,25.32999992370605,25.322999954223636,39400.0
2019-04-08,25.36000061035156,25.257999420166016,25.36000061035156,25.29800033569336,25500.0
2019-04-09,25.32999992370605,25.256000518798828,25.31999969482422,25.256000518798828,40800.0
2019-04-10,25.28899955749512,25.243999481201172,25.243999481201172,25.267000198364254,1800.0
2019-04-11,25.32500076293945,25.29999923706055,25.29999923706055,25.315000534057614,2900.0
2019-04-12,25.38999938964844,25.3700008392334,25.38999938964844,25.38500022888184,4200.0
2019-04-15,25.51000022888184,25.290000915527344,25.51000022888184,25.36100006103516,20500.0
2019-04-16,25.479999542236328,25.35300064086914,25.479999542236328,25.35300064086914,8500.0
2019-04-17,25.520000457763672,25.33099937438965,25.520000457763672,25.354999542236328,22800.0
2019-04-18,25.40900039672852,25.363000869750977,25.40900039672852,25.363000869750977,1100.0
2019-04-22,25.420000076293945,25.3799991607666,25.399999618530273,25.3799991607666,3700.0
2019-04-23,25.50399971008301,25.40999984741211,25.46999931335449,25.50399971008301,2400.0
2019-04-24,25.5,25.457000732421875,25.46999931335449,25.457000732421875,4700.0
2019-04-25,25.51000022888184,25.466999053955078,25.51000022888184,25.466999053955078,800.0
2019-04-26,25.50900077819824,25.489999771118164,25.50900077819824,25.49600028991699,500.0
2019-04-29,25.6200008392334,25.55500030517578,25.6200008392334,25.55500030517578,9500.0
2019-04-30,25.559999465942386,25.47400093078613,25.47400093078613,25.52199935913086,3400.0
2019-05-01,25.608999252319336,25.458999633789066,25.54400062561035,25.458999633789066,10400.0
2019-05-02,25.53499984741211,25.410999298095703,25.53499984741211,25.410999298095703,1500.0
2019-05-03,25.56999969482422,25.45100021362305,25.45100021362305,25.520000457763672,4000.0
2019-05-06,25.5310001373291,25.190000534057614,25.190000534057614,25.5310001373291,11300.0
2019-05-07,25.40299987792969,25.242000579833984,25.40299987792969,25.309999465942386,3700.0
2019-05-08,25.38999938964844,25.290000915527344,25.36000061035156,25.30299949645996,7300.0
2019-05-09,25.309999465942386,25.149999618530273,25.170000076293945,25.26000022888184,3800.0
2019-05-10,25.29800033569336,25.22800064086914,25.256999969482425,25.29800033569336,1700.0
2019-05-13,25.1200008392334,25.020000457763672,25.09900093078613,25.04999923706055,7200.0
2019-05-14,25.190000534057614,25.12899971008301,25.1299991607666,25.12899971008301,1000.0
2019-05-15,25.270000457763672,25.202999114990234,25.26000022888184,25.20400047302246,8100.0
2019-05-16,25.40999984741211,25.29999923706055,25.31999969482422,25.31999969482422,14600.0
2019-05-17,25.40999984741211,25.19499969482422,25.20000076293945,25.26799964904785,23100.0
2019-05-20,25.21999931335449,25.170000076293945,25.20000076293945,25.170000076293945,2000.0
2019-05-21,25.309999465942386,25.24099922180176,25.24099922180176,25.26000022888184,400.0
2019-05-22,25.28000068664551,25.233999252319336,25.270000457763672,25.233999252319336,1000.0
2019-05-23,25.10000038146973,25.020000457763672,25.10000038146973,25.069000244140625,400.0
2019-05-24,25.15999984741211,25.0939998626709,25.149999618530273,25.104999542236328,3100.0
2019-05-28,25.170000076293945,25.00900077819824,25.170000076293945,25.03000068664551,3200.0
2019-05-29,24.95000076293945,24.85000038146973,24.94899940490723,24.89800071716309,26700.0
2019-05-30,24.979999542236328,24.91699981689453,24.979999542236328,24.91699981689453,2100.0
2019-05-31,24.84000015258789,24.790000915527344,24.79999923706055,24.790000915527344,4400.0
2019-06-03,24.86000061035156,24.729999542236328,24.86000061035156,24.729999542236328,1800.0
2019-06-04,24.98600006103516,24.959999084472656,24.959999084472656,24.98600006103516,700.0
2019-06-05,25.104999542236328,25.06999969482422,25.06999969482422,25.104999542236328,6800.0
2019-06-06,25.26000022888184,25.18199920654297,25.21999931335449,25.18199920654297,6800.0
2019-06-07,25.3799991607666,25.309999465942386,25.3700008392334,25.309999465942386,4500.0
2019-06-10,25.40999984741211,25.351999282836914,25.38999938964844,25.351999282836914,18700.0
2019-06-11,25.5,25.35099983215332,25.5,25.35099983215332,2600.0
2019-06-12,25.38999938964844,25.333999633789066,25.38999938964844,25.333999633789066,4300.0
2019-06-13,25.459999084472656,25.35000038146973,25.459999084472656,25.440000534057614,11600.0
2019-06-14,25.40900039672852,25.40900039672852,25.40900039672852,25.40900039672852,0.0
2019-06-17,25.45000076293945,25.393999099731445,25.45000076293945,25.393999099731445,1000.0
2019-06-18,25.56999969482422,25.479999542236328,25.479999542236328,25.50900077819824,500.0
2019-06-19,25.524999618530273,25.524999618530273,25.524999618530273,25.524999618530273,1200.0
2019-06-20,25.66399955749512,25.57999992370605,25.57999992370605,25.66399955749512,200.0
2019-06-21,25.65299987792969,25.65299987792969,25.65299987792969,25.65299987792969,0.0
2019-06-24,25.729999542236328,25.64699935913086,25.71999931335449,25.64699935913086,500.0
2019-06-25,25.53899955749512,25.53899955749512,25.53899955749512,25.53899955749512,0.0
2019-06-26,25.586000442504886,25.46999931335449,25.57999992370605,25.52899932861328,1300.0
2019-06-27,25.545000076293945,25.545000076293945,25.545000076293945,25.545000076293945,100.0
2019-06-28,25.64800071716309,25.57999992370605,25.57999992370605,25.64800071716309,3200.0
2019-07-01,25.75,25.709999084472656,25.709999084472656,25.75,4400.0
2019-07-02,25.78400039672852,25.78400039672852,25.78400039672852,25.78400039672852,100.0
2019-07-03,25.871999740600586,25.84000015258789,25.84000015258789,25.871999740600586,100.0
2019-07-05,25.84000015258789,25.78000068664551,25.78000068664551,25.84000015258789,1900.0
2019-07-08,25.80500030517578,25.80500030517578,25.80500030517578,25.80500030517578,0.0
2019-07-09,25.917999267578125,25.739999771118164,25.75,25.917999267578125,1100.0
2019-07-10,25.892000198364254,25.85000038146973,25.85000038146973,25.892000198364254,2500.0
2019-07-11,25.940000534057614,25.86000061035156,25.940000534057614,25.933000564575195,8900.0
2019-07-12,25.96999931335449,25.95199966430664,25.95199966430664,25.96999931335449,400.0
2019-07-15,25.959999084472656,25.959999084472656,25.959999084472656,25.959999084472656,0.0
2019-07-16,25.9950008392334,25.96500015258789,25.9950008392334,25.96500015258789,4800.0
2019-07-17,25.88800048828125,25.88800048828125,25.88800048828125,25.88800048828125,0.0
2019-07-18,25.95000076293945,25.82999992370605,25.88999938964844,25.95000076293945,1600.0
2019-07-19,25.95000076293945,25.856000900268555,25.940000534057614,25.856000900268555,1000.0
2019-07-22,25.8799991607666,25.82099914550781,25.82099914550781,25.8799991607666,1800.0
2019-07-23,25.95499992370605,25.95499992370605,25.95499992370605,25.95499992370605,0.0
2019-07-24,26.00200080871582,25.96999931335449,25.96999931335449,26.00200080871582,6200.0
2019-07-25,25.94599914550781,25.94599914550781,25.94599914550781,25.94599914550781,100.0
2019-07-26,26.040000915527344,26.040000915527344,26.040000915527344,26.040000915527344,0.0
2019-07-29,26.02199935913086,26.02199935913086,26.02199935913086,26.02199935913086,0.0
2019-07-30,25.989999771118164,25.95000076293945,25.959999084472656,25.989999771118164,6800.0
2019-07-31,25.97400093078613,25.86599922180176,25.96999931335449,25.86599922180176,600.0
2019-08-01,25.9689998626709,25.729999542236328,25.95100021362305,25.763999938964844,1900.0
2019-08-02,25.7450008392334,25.63999938964844,25.684999465942386,25.66900062561035,7300.0
2019-08-05,25.458999633789066,25.332000732421875,25.43000030517578,25.332000732421875,2800.0
2019-08-06,25.48600006103516,25.40099906921387,25.45000076293945,25.48600006103516,3400.0
2019-08-07,25.49900054931641,25.423999786376953,25.45000076293945,25.49900054931641,1100.0
2019-08-08,25.70599937438965,25.70599937438965,25.70599937438965,25.70599937438965,400.0
2019-08-09,25.739999771118164,25.65200042724609,25.739999771118164,25.65200042724609,200.0
2019-08-12,25.50900077819824,25.50900077819824,25.50900077819824,25.50900077819824,1700.0
2019-08-13,25.687000274658203,25.54999923706055,25.54999923706055,25.687000274658203,500.0
2019-08-14,25.46999931335449,25.343000411987305,25.46999931335449,25.343000411987305,1800.0
2019-08-15,25.3799991607666,25.32999992370605,25.35000038146973,25.37800025939941,5800.0
2019-08-16,25.54599952697754,25.489999771118164,25.489999771118164,25.54599952697754,500.0
2019-08-19,25.690000534057614,25.6299991607666,25.63999938964844,25.690000534057614,7100.0
2019-08-20,25.690000534057614,25.597999572753906,25.6200008392334,25.614999771118164,3000.0
2019-08-21,25.70000076293945,25.63999938964844,25.63999938964844,25.67600059509277,3000.0
2019-08-22,25.69899940490723,25.65999984741211,25.65999984741211,25.69899940490723,200.0
2019-08-23,25.65999984741211,25.32399940490723,25.65999984741211,25.32399940490723,3100.0
2019-08-26,25.466999053955078,25.466999053955078,25.466999053955078,25.466999053955078,0.0
2019-08-27,25.47500038146973,25.40999984741211,25.459999084472656,25.47500038146973,2500.0
2019-08-28,25.524999618530273,25.524999618530273,25.524999618530273,25.524999618530273,300.0
2019-08-29,25.67900085449219,25.57999992370605,25.60000038146973,25.67900085449219,6000.0
2019-08-30,25.67799949645996,25.67799949645996,25.67799949645996,25.67799949645996,0.0
2019-09-03,25.61000061035156,25.54999923706055,25.55100059509277,25.61000061035156,2300.0
2019-09-04,25.7450008392334,25.65999984741211,25.670000076293945,25.7450008392334,4200.0
2019-09-05,25.895000457763672,25.895000457763672,25.895000457763672,25.895000457763672,100.0
2019-09-06,25.94499969482422,25.94499969482422,25.94499969482422,25.94499969482422,0.0
2019-09-09,25.937000274658203,25.8700008392334,25.87100028991699,25.937000274658203,600.0
2019-09-10,25.89800071716309,25.81999969482422,25.81999969482422,25.89800071716309,500.0
2019-09-11,26.0,26.0,26.0,26.0,0.0
2019-09-12,26.045000076293945,26.020000457763672,26.020000457763672,26.045000076293945,300.0
2019-09-13,26.03499984741211,26.03499984741211,26.03499984741211,26.03499984741211,0.0
2019-09-16,25.9950008392334,25.9950008392334,25.9950008392334,25.9950008392334,0.0
2019-09-17,26.01499938964844,26.01499938964844,26.01499938964844,26.01499938964844,0.0
2019-09-18,26.017000198364254,25.95000076293945,25.95000076293945,26.017000198364254,300.0
2019-09-19,26.017000198364254,26.017000198364254,26.017000198364254,26.017000198364254,0.0
2019-09-20,25.988000869750977,25.988000869750977,25.988000869750977,25.988000869750977,0.0
2019-09-23,26.00900077819824,25.981000900268555,26.0,25.98500061035156,2600.0
2019-09-24,25.90099906921387,25.87800025939941,25.90099906921387,25.87800025939941,1200.0
2019-09-25,25.97599983215332,25.8799991607666,25.8799991607666,25.97599983215332,1200.0
2019-09-26,25.94599914550781,25.75,25.75,25.94599914550781,300.0
2019-09-27,25.86000061035156,25.843000411987305,25.86000061035156,25.843000411987305,700.0
2019-09-30,26.0,25.90699958801269,26.0,25.96999931335449,7500.0
2019-10-01,25.959999084472656,25.81999969482422,25.959999084472656,25.81999969482422,3600.0
2019-10-02,25.58300018310547,25.58300018310547,25.58300018310547,25.58300018310547,0.0
2019-10-03,25.67300033569336,25.658000946044922,25.658000946044922,25.67300033569336,600.0
2019-10-04,25.8700008392334,25.86000061035156,25.8700008392334,25.86599922180176,3300.0
2019-10-07,25.84000015258789,25.82200050354004,25.839000701904297,25.82200050354004,800.0
2019-10-08,25.604999542236328,25.604999542236328,25.604999542236328,25.604999542236328,0.0
2019-10-09,25.79999923706055,25.6299991607666,25.6299991607666,25.75399971008301,8500.0
2019-10-10,25.8700008392334,25.79199981689453,25.84000015258789,25.84000015258789,6600.0
2019-10-11,25.97800064086914,25.93000030517578,25.93000030517578,25.944000244140625,1000.0
2019-10-14,25.94099998474121,25.94099998474121,25.94099998474121,25.94099998474121,0.0
2019-10-15,26.06399917602539,26.01000022888184,26.020000457763672,26.06399917602539,900.0
2019-10-16,26.10000038146973,26.03400039672852,26.04999923706055,26.03400039672852,2300.0
2019-10-17,26.09000015258789,26.072999954223636,26.09000015258789,26.072999954223636,1900.0
2019-10-18,26.03499984741211,26.03499984741211,26.03499984741211,26.03499984741211,0.0
2019-10-21,26.10300064086914,26.10300064086914,26.10300064086914,26.10300064086914,0.0
2019-10-22,26.10000038146973,26.06999969482422,26.10000038146973,26.06999969482422,3300.0
2019-10-23,26.08799934387207,26.020000457763672,26.020000457763672,26.08799934387207,1800.0
2019-10-24,26.1200008392334,26.059999465942386,26.059999465942386,26.1200008392334,600.0
2019-10-25,26.160999298095703,26.11000061035156,26.11000061035156,26.160999298095703,100.0
2019-10-28,26.231000900268555,26.21999931335449,26.21999931335449,26.231000900268555,11400.0
2019-10-29,26.231000900268555,26.231000900268555,26.231000900268555,26.231000900268555,0.0
2019-10-30,26.270999908447266,26.270999908447266,26.270999908447266,26.270999908447266,0.0
2019-10-31,26.208999633789066,26.170000076293945,26.17099952697754,26.208999633789066,3400.0
2019-11-01,26.334999084472656,26.29999923706055,26.29999923706055,26.334999084472656,500.0
2019-11-04,26.36000061035156,26.36000061035156,26.36000061035156,26.36000061035156,0.0
2019-11-05,26.38599967956543,26.3799991607666,26.38599967956543,26.3799991607666,500.0
2019-11-06,26.36100006103516,26.32999992370605,26.32999992370605,26.36100006103516,1600.0
2019-11-07,26.459999084472656,26.395999908447266,26.459999084472656,26.395999908447266,11300.0
2019-11-08,26.42600059509277,26.42600059509277,26.42600059509277,26.42600059509277,0.0
2019-11-11,26.40500068664551,26.399999618530273,26.399999618530273,26.40500068664551,1700.0
2019-11-12,26.45599937438965,26.420000076293945,26.440000534057614,26.43000030517578,3500.0
2019-11-13,26.4379997253418,26.40099906921387,26.40099906921387,26.4379997253418,100.0
2019-11-14,26.45000076293945,26.43600082397461,26.43600082397461,26.45000076293945,300.0
2019-11-15,26.52199935913086,26.518999099731445,26.518999099731445,26.52199935913086,500.0
2019-11-18,26.545000076293945,26.545000076293945,26.545000076293945,26.545000076293945,0.0
2019-11-19,26.10000038146973,25.976999282836914,26.10000038146973,25.976999282836914,1400.0
2019-11-20,25.93199920654297,25.93199920654297,25.93199920654297,25.93199920654297,0.0
2019-11-21,25.98200035095215,25.91399955749512,25.98200035095215,25.91399955749512,2300.0
2019-11-22,25.96500015258789,25.915000915527344,25.958999633789066,25.93400001525879,1400.0
2019-11-25,26.03000068664551,26.01499938964844,26.020000457763672,26.01499938964844,300.0
2019-11-26,26.059999465942386,26.03400039672852,26.05599975585937,26.045000076293945,2000.0
2019-11-27,26.1299991607666,26.040000915527344,26.1299991607666,26.07999992370605,5500.0
2019-11-29,26.04800033569336,26.04800033569336,26.04800033569336,26.04800033569336,100.0
2019-12-02,25.979999542236328,25.90999984741211,25.90999984741211,25.940000534057614,1900.0
2019-12-03,25.856000900268555,25.856000900268555,25.856000900268555,25.856000900268555,0.0
2019-12-04,25.93400001525879,25.910999298095703,25.91699981689453,25.93400001525879,5300.0
2019-12-05,25.94499969482422,25.94499969482422,25.94499969482422,25.94499969482422,0.0
2019-12-06,26.045000076293945,26.020000457763672,26.02300071716309,26.045000076293945,600.0
2019-12-09,26.02300071716309,26.02300071716309,26.02300071716309,26.02300071716309,100.0
2019-12-10,26.00300025939941,26.00300025939941,26.00300025939941,26.00300025939941,0.0
2019-12-11,26.024999618530273,26.0,26.0,26.024999618530273,400.0
2019-12-12,26.190000534057614,26.104999542236328,26.11100006103516,26.13500022888184,1200.0
2019-12-13,26.131000518798828,26.11199951171875,26.11199951171875,26.131000518798828,1100.0
2019-12-16,26.238000869750977,26.170000076293945,26.170000076293945,26.233999252319336,20800.0
2019-12-17,26.25,26.25,26.25,26.25,0.0
2019-12-18,26.229999542236328,26.229999542236328,26.229999542236328,26.229999542236328,100.0
2019-12-19,26.25900077819824,26.25900077819824,26.25900077819824,26.25900077819824,100.0
2019-12-20,26.290000915527344,26.239999771118164,26.239999771118164,26.290000915527344,14400.0
2019-12-23,26.29800033569336,26.290000915527344,26.29800033569336,26.290000915527344,600.0
2019-12-24,26.28000068664551,26.239999771118164,26.239999771118164,26.28000068664551,13900.0
2019-12-26,26.35000038146973,26.315000534057614,26.35000038146973,26.31599998474121,300.0
2019-12-27,26.35000038146973,26.30500030517578,26.31999969482422,26.30500030517578,1000.0
2019-12-30,26.270000457763672,26.256000518798828,26.256000518798828,26.270000457763672,500.0
2019-12-31,26.29999923706055,26.229999542236328,26.229999542236328,26.29999923706055,2700.0
2020-01-02,26.375,26.315000534057614,26.315000534057614,26.375,2300.0
2020-01-03,26.32399940490723,26.309999465942386,26.32399940490723,26.309999465942386,200.0
2020-01-06,26.34000015258789,26.26099967956543,26.26099967956543,26.34000015258789,3500.0
2020-01-07,26.32999992370605,26.309999465942386,26.31999969482422,26.32999992370605,500.0
2020-01-08,26.375,26.32500076293945,26.32500076293945,26.375,4400.0
2020-01-09,26.43000030517578,26.395000457763672,26.43000030517578,26.40500068664551,1400.0
2020-01-10,26.45000076293945,26.40999984741211,26.42499923706055,26.40999984741211,2000.0
2020-01-13,26.46500015258789,26.43000030517578,26.43000030517578,26.46500015258789,500.0
2020-01-14,26.459999084472656,26.459999084472656,26.459999084472656,26.459999084472656,0.0
2020-01-15,26.479999542236328,26.43000030517578,26.46999931335449,26.479999542236328,3100.0
2020-01-16,26.559999465942386,26.479999542236328,26.51499938964844,26.524999618530273,2500.0
2020-01-17,26.53499984741211,26.50300025939941,26.50300025939941,26.53499984741211,300.0
2020-01-21,26.53499984741211,26.51000022888184,26.51099967956543,26.53499984741211,8400.0
2020-01-22,26.540000915527344,26.520000457763672,26.53000068664551,26.53499984741211,2100.0
2020-01-23,26.53700065612793,26.489999771118164,26.49099922180176,26.53000068664551,5800.0
2020-01-24,26.53499984741211,26.420000076293945,26.51000022888184,26.46500015258789,11900.0
2020-01-27,26.399999618530273,26.35000038146973,26.399999618530273,26.364999771118164,2000.0
2020-01-28,26.45599937438965,26.420000076293945,26.45599937438965,26.45000076293945,7400.0
2020-01-29,26.45000076293945,26.44300079345703,26.45000076293945,26.44300079345703,1300.0
2020-01-30,26.4689998626709,26.4689998626709,26.4689998626709,26.4689998626709,100.0
2020-01-31,26.32900047302246,26.32900047302246,26.32900047302246,26.32900047302246,100.0
2020-02-03,26.43000030517578,26.3700008392334,26.3700008392334,26.38500022888184,12000.0
2020-02-04,26.51000022888184,26.51000022888184,26.51000022888184,26.51000022888184,100.0
2020-02-05,26.59000015258789,26.520000457763672,26.57999992370605,26.559999465942386,2200.0
2020-02-06,26.60000038146973,26.559999465942386,26.60000038146973,26.57500076293945,4800.0
2020-02-07,26.582000732421875,26.54999923706055,26.54999923706055,26.565000534057614,700.0
2020-02-10,26.59000015258789,26.59000015258789,26.59000015258789,26.59000015258789,300.0
2020-02-11,26.61000061035156,26.604999542236328,26.604999542236328,26.604999542236328,600.0
2020-02-12,26.645000457763672,26.61000061035156,26.6200008392334,26.645000457763672,8400.0
2020-02-13,26.670000076293945,26.6299991607666,26.6299991607666,26.649999618530273,1900.0
2020-02-14,26.667999267578125,26.65999984741211,26.667999267578125,26.65999984741211,400.0
2020-02-18,26.76000022888184,26.6299991607666,26.76000022888184,26.68000030517578,1200.0
2020-02-19,26.70000076293945,26.70000076293945,26.70000076293945,26.70000076293945,200.0
2020-02-20,26.729999542236328,26.65099906921387,26.729999542236328,26.687000274658203,2000.0
2020-02-21,26.709999084472656,26.63999938964844,26.709999084472656,26.645000457763672,2100.0
2020-02-24,26.56999969482422,26.35000038146973,26.53000068664551,26.382999420166016,3400.0
2020-02-25,26.40999984741211,26.066999435424805,26.40999984741211,26.066999435424805,1400.0
2020-02-26,26.190000534057614,26.05599975585937,26.190000534057614,26.05599975585937,1800.0
2020-02-27,25.61000061035156,25.465999603271484,25.61000061035156,25.465999603271484,300.0
2020-02-28,25.28400039672852,25.10000038146973,25.21999931335449,25.20499992370605,26400.0
2020-03-02,25.9379997253418,25.479999542236328,25.5,25.9379997253418,25300.0
2020-03-03,26.020000457763672,25.57900047302246,26.01000022888184,25.60400009155273,7900.0
2020-03-04,26.11599922180176,25.82999992370605,25.959999084472656,26.11599922180176,24500.0
2020-03-05,25.790000915527344,25.68000030517578,25.790000915527344,25.68000030517578,1500.0
2020-03-06,25.479999542236328,24.923999786376953,25.440000534057614,25.440000534057614,32300.0
2020-03-09,24.70000076293945,24.41699981689453,24.69499969482422,24.41699981689453,4400.0
2020-03-10,25.040000915527344,24.26000022888184,24.38999938964844,25.040000915527344,5800.0
2020-03-11,24.60000038146973,24.28000068664551,24.60000038146973,24.375,20200.0
2020-03-12,24.27700042724609,23.45000076293945,23.69899940490723,23.6200008392334,118300.0
2020-03-13,24.38999938964844,23.45400047302246,24.149999618530273,24.38999938964844,33000.0
2020-03-16,23.60000038146973,23.149999618530273,23.28000068664551,23.149999618530273,35300.0
2020-03-17,23.625,23.141000747680664,23.25,23.56999969482422,28500.0
2020-03-18,23.12899971008301,22.51000022888184,23.093000411987305,22.8700008392334,30000.0
2020-03-19,23.34499931335449,23.106000900268555,23.209999084472656,23.190000534057614,137800.0
2020-03-20,23.149999618530273,22.993999481201172,23.03199958801269,23.10000038146973,22900.0
2020-03-23,23.13999938964844,22.71999931335449,23.11000061035156,23.114999771118164,485400.0
2020-03-24,23.40999984741211,23.0,23.149999618530273,23.38999938964844,68200.0
2020-03-25,23.36000061035156,22.93000030517578,23.25,23.263999938964844,67700.0
2020-03-26,23.43099975585937,23.25,23.29999923706055,23.43099975585937,104700.0
2020-03-27,23.46999931335449,23.1299991607666,23.29999923706055,23.165000915527344,33100.0
2020-03-30,23.20000076293945,23.048999786376953,23.15999984741211,23.190000534057614,160300.0
2020-03-31,24.70400047302246,22.84000015258789,22.84000015258789,24.63800048828125,377800.0
2020-04-01,23.149999618530273,22.46500015258789,23.149999618530273,22.79999923706055,312100.0
2020-04-02,22.940000534057614,22.450000762939453,22.450000762939453,22.93000030517578,79000.0
2020-04-03,22.97900009155273,22.60099983215332,22.83699989318848,22.81999969482422,93200.0
2020-04-06,23.38999938964844,23.084999084472656,23.3700008392334,23.31999969482422,83500.0
2020-04-07,23.65999984741211,23.22100067138672,23.65999984741211,23.3799991607666,77100.0
2020-04-08,23.45000076293945,23.20800018310547,23.3799991607666,23.35000038146973,24100.0
2020-04-09,23.6200008392334,23.440000534057614,23.60000038146973,23.60000038146973,42500.0
2020-04-13,23.45499992370605,23.29999923706055,23.38999938964844,23.434999465942386,13700.0
2020-04-14,23.74799919128418,23.5,23.5,23.645000457763672,37400.0
2020-04-15,23.60000038146973,23.37100028991699,23.459999084472656,23.5049991607666,16900.0
2020-04-16,23.59600067138672,23.420000076293945,23.43000030517578,23.59600067138672,73400.0
2020-04-17,23.88999938964844,23.52400016784668,23.88999938964844,23.649999618530273,28900.0
2020-04-20,24.32500076293945,23.45000076293945,23.46999931335449,23.45000076293945,9300.0
2020-04-21,23.53000068664551,23.229999542236328,23.53000068664551,23.239999771118164,16900.0
2020-04-22,23.538000106811523,23.290000915527344,23.45000076293945,23.46199989318848,13200.0
2020-04-23,23.50300025939941,23.32999992370605,23.5,23.32999992370605,5800.0
2020-04-24,23.48500061035156,23.42700004577637,23.42700004577637,23.48500061035156,900.0
2020-04-27,23.729999542236328,23.61000061035156,23.649999618530273,23.61000061035156,11100.0
2020-04-28,23.76000022888184,23.59000015258789,23.670000076293945,23.63999938964844,13700.0
2020-04-29,23.8700008392334,23.75,23.80900001525879,23.78000068664551,26000.0
2020-04-30,23.96999931335449,23.7549991607666,23.7549991607666,23.76000022888184,2900.0
2020-05-01,23.597999572753906,23.540000915527344,23.597999572753906,23.559999465942386,1100.0
2020-05-04,23.56999969482422,23.34000015258789,23.34000015258789,23.5,319900.0
2020-05-05,23.75,23.57999992370605,23.63500022888184,23.57999992370605,6900.0
2020-05-06,23.690000534057614,23.53000068664551,23.6299991607666,23.53000068664551,2600.0
2020-05-07,23.72500038146973,23.666000366210934,23.72500038146973,23.709999084472656,59800.0
2020-05-08,23.81999969482422,23.78000068664551,23.78000068664551,23.81999969482422,4500.0
2020-05-11,23.86000061035156,23.71999931335449,23.770000457763672,23.790000915527344,23700.0
2020-05-12,23.875,23.670000076293945,23.875,23.670000076293945,3700.0
2020-05-13,23.65999984741211,23.506000518798828,23.59000015258789,23.65999984741211,27900.0
2020-05-14,23.649999618530273,23.32999992370605,23.32999992370605,23.6299991607666,10800.0
2020-05-15,23.64800071716309,23.6299991607666,23.6299991607666,23.64800071716309,500.0
2020-05-18,23.91900062561035,23.85000038146973,23.85000038146973,23.91900062561035,9300.0
2020-05-19,23.88800048828125,23.88800048828125,23.88800048828125,23.88800048828125,0.0
2020-05-20,24.01000022888184,23.851999282836914,23.940000534057614,23.92099952697754,1900.0
2020-05-21,23.95000076293945,23.809999465942386,23.94499969482422,23.88500022888184,6000.0
2020-05-22,23.90999984741211,23.8799991607666,23.8799991607666,23.90999984741211,1400.0
2020-05-26,24.02700042724609,23.90999984741211,23.90999984741211,23.94499969482422,52100.0
2020-05-27,24.01499938964844,23.88999938964844,23.920000076293945,24.01499938964844,2400.0
2020-05-28,24.18000030517578,24.11000061035156,24.11000061035156,24.125,2800.0
2020-05-29,24.11000061035156,23.940000534057614,24.11000061035156,24.07399940490723,7500.0
2020-06-01,24.114999771118164,24.09000015258789,24.09000015258789,24.114999771118164,5200.0
2020-06-02,24.114999771118164,24.114999771118164,24.114999771118164,24.114999771118164,0.0
2020-06-03,24.18000030517578,24.149999618530273,24.149999618530273,24.18000030517578,900.0
2020-06-04,24.170000076293945,24.15699958801269,24.170000076293945,24.15699958801269,200.0
2020-06-05,24.34000015258789,24.229999542236328,24.229999542236328,24.30500030517578,11200.0
2020-06-08,24.364999771118164,24.29999923706055,24.364999771118164,24.34000015258789,3200.0
2020-06-09,24.34000015258789,24.270000457763672,24.28000068664551,24.34000015258789,400.0
2020-06-10,24.29999923706055,24.270000457763672,24.270000457763672,24.27400016784668,1900.0
2020-06-11,24.10000038146973,23.882999420166016,24.03000068664551,23.882999420166016,6900.0
2020-06-12,23.99900054931641,23.864999771118164,23.989999771118164,23.99900054931641,1000.0
2020-06-15,24.02599906921387,23.920000076293945,23.920000076293945,24.02599906921387,1100.0
2020-06-16,24.13999938964844,24.06999969482422,24.11000061035156,24.09499931335449,2800.0
2020-06-17,24.10099983215332,24.059999465942386,24.059999465942386,24.10099983215332,2200.0
2020-06-18,24.10700035095215,24.10700035095215,24.10700035095215,24.10700035095215,100.0
2020-06-19,24.07999992370605,24.020000457763672,24.020000457763672,24.07999992370605,600.0
2020-06-22,24.190000534057614,24.040000915527344,24.040000915527344,24.125,3400.0
2020-06-23,24.173999786376953,24.173999786376953,24.173999786376953,24.173999786376953,0.0
2020-06-24,24.04999923706055,23.959999084472656,24.04999923706055,24.024999618530273,600.0
2020-06-25,24.090999603271484,24.02899932861328,24.02899932861328,24.090999603271484,3500.0
2020-06-26,23.989999771118164,23.976999282836914,23.989999771118164,23.976999282836914,500.0
2020-06-29,24.006000518798828,23.96999931335449,23.96999931335449,24.006000518798828,800.0
2020-06-30,24.191999435424805,24.04999923706055,24.04999923706055,24.191999435424805,400.0
2020-07-01,24.25,24.114999771118164,24.1200008392334,24.215999603271484,3700.0
2020-07-02,24.21999931335449,24.19099998474121,24.21999931335449,24.19099998474121,2000.0
2020-07-06,24.36000061035156,24.229999542236328,24.32999992370605,24.30500030517578,51600.0
2020-07-07,24.2549991607666,24.18000030517578,24.18000030517578,24.2549991607666,2200.0
2020-07-08,24.28499984741211,24.190000534057614,24.21999931335449,24.28499984741211,9900.0
2020-07-09,24.31999969482422,24.170000076293945,24.18000030517578,24.2549991607666,5000.0
2020-07-10,24.31999969482422,24.18000030517578,24.190000534057614,24.309999465942386,1500.0
2020-07-13,24.315000534057614,24.21999931335449,24.30299949645996,24.21999931335449,2600.0
2020-07-14,24.32999992370605,24.20000076293945,24.209999084472656,24.308000564575195,2000.0
2020-07-15,24.29999923706055,24.26000022888184,24.29999923706055,24.26300048828125,6000.0
2020-07-16,24.38999938964844,24.242000579833984,24.242000579833984,24.334999084472656,900.0
2020-07-17,24.43000030517578,24.270000457763672,24.270000457763672,24.31999969482422,16400.0
2020-07-20,24.43899917602539,24.36000061035156,24.36000061035156,24.43899917602539,1100.0
2020-07-21,24.40999984741211,24.395999908447266,24.395999908447266,24.40999984741211,600.0
2020-07-22,24.38999938964844,24.38800048828125,24.38999938964844,24.38999938964844,2300.0
2020-07-23,24.38999938964844,24.36000061035156,24.381000518798828,24.38999938964844,6200.0
2020-07-24,24.35400009155273,24.28000068664551,24.290000915527344,24.28000068664551,14500.0
2020-07-27,24.357999801635746,24.35000038146973,24.357999801635746,24.35000038146973,700.0
2020-07-28,24.334999084472656,24.315000534057614,24.31999969482422,24.315000534057614,1200.0
2020-07-29,24.42200088500977,24.34000015258789,24.34000015258789,24.399999618530273,2600.0
2020-07-30,24.3700008392334,24.34000015258789,24.34000015258789,24.3700008392334,200.0
2020-07-31,24.420000076293945,24.31999969482422,24.40999984741211,24.3700008392334,1900.0
2020-08-03,24.479999542236328,24.479999542236328,24.479999542236328,24.479999542236328,100.0
2020-08-04,24.520000457763672,24.45000076293945,24.45000076293945,24.489999771118164,800.0
2020-08-05,24.53000068664551,24.53000068664551,24.53000068664551,24.53000068664551,100.0
2020-08-06,24.559999465942386,24.507999420166016,24.507999420166016,24.55699920654297,5900.0
2020-08-07,24.53000068664551,24.46999931335449,24.476999282836914,24.53000068664551,1400.0
2020-08-10,24.59000015258789,24.45000076293945,24.45000076293945,24.516000747680664,9200.0
2020-08-11,24.60000038146973,24.46500015258789,24.60000038146973,24.46500015258789,6000.0
2020-08-12,24.53000068664551,24.51000022888184,24.53000068664551,24.53000068664551,10200.0
2020-08-13,24.6200008392334,24.459999084472656,24.61000061035156,24.48500061035156,2500.0
2020-08-14,24.520000457763672,24.3700008392334,24.51499938964844,24.520000457763672,16900.0
2020-08-17,24.5,24.479999542236328,24.479999542236328,24.5,4400.0
2020-08-18,24.54400062561035,24.5,24.54400062561035,24.5,2600.0
2020-08-19,24.6299991607666,24.51000022888184,24.54999923706055,24.53000068664551,4900.0
2020-08-20,24.518999099731445,24.5,24.518999099731445,24.5049991607666,1100.0
2020-08-21,24.5310001373291,24.47500038146973,24.5310001373291,24.51499938964844,1100.0
2020-08-24,24.540000915527344,24.53000068664551,24.540000915527344,24.540000915527344,700.0
