Date,High,Low,Open,Close,Volume
2019-08-06,24.78000068664551,24.70000076293945,24.76000022888184,24.78000068664551,11900.0
2019-08-07,24.82500076293945,24.60000038146973,24.71999931335449,24.82500076293945,36200.0
2019-08-08,25.06999969482422,24.90999984741211,24.90999984741211,25.040000915527344,28000.0
2019-08-09,25.040000915527344,24.9060001373291,24.940000534057614,24.92200088500977,19600.0
2019-08-12,24.92799949645996,24.79999923706055,24.920000076293945,24.90399932861328,23300.0
2019-08-13,25.04999923706055,24.81999969482422,24.81999969482422,24.98600006103516,28800.0
2019-08-14,24.8799991607666,24.60000038146973,24.8799991607666,24.663000106811523,6900.0
2019-08-15,24.78000068664551,24.665000915527344,24.739999771118164,24.72900009155273,62900.0
2019-08-16,24.90900039672852,24.84000015258789,24.84000015258789,24.8799991607666,2700.0
2019-08-19,25.06999969482422,24.968000411987305,25.06999969482422,25.02700042724609,18500.0
2019-08-20,25.04999923706055,24.940000534057614,25.04999923706055,24.95000076293945,17800.0
2019-08-21,25.05400085449219,24.959999084472656,25.04999923706055,25.007999420166016,9800.0
2019-08-22,25.09000015258789,24.979999542236328,25.09000015258789,25.040000915527344,11900.0
2019-08-23,24.989999771118164,24.68400001525879,24.989999771118164,24.68400001525879,52800.0
2019-08-26,24.88999938964844,24.78000068664551,24.88999938964844,24.815000534057614,6700.0
2019-08-27,24.959999084472656,24.78700065612793,24.959999084472656,24.80699920654297,16400.0
2019-08-28,24.90999984741211,24.729999542236328,24.809999465942386,24.881999969482425,8200.0
2019-08-29,25.440000534057614,24.96999931335449,25.440000534057614,24.9950008392334,7000.0
2019-08-30,25.06999969482422,24.989999771118164,25.06999969482422,25.007999420166016,18800.0
2019-09-03,24.959999084472656,24.93000030517578,24.941999435424805,24.95499992370605,9800.0
2019-09-04,25.07999992370605,25.020000457763672,25.020000457763672,25.072999954223636,2700.0
2019-09-05,25.229999542236328,25.20599937438965,25.229999542236328,25.20599937438965,2800.0
2019-09-06,25.267000198364254,25.190000534057614,25.25,25.22100067138672,16700.0
2019-09-09,25.290000915527344,25.21500015258789,25.26000022888184,25.21500015258789,2800.0
2019-09-10,25.209999084472656,25.18000030517578,25.209999084472656,25.19499969482422,7200.0
2019-09-11,25.381999969482425,25.232999801635746,25.27199935913086,25.274999618530273,13800.0
2019-09-12,25.3799991607666,25.334999084472656,25.334999084472656,25.3439998626709,7500.0
2019-09-13,25.3799991607666,25.270000457763672,25.3799991607666,25.30400085449219,39600.0
2019-09-16,25.31999969482422,25.246999740600586,25.309999465942386,25.31999969482422,7900.0
2019-09-17,25.32999992370605,25.256999969482425,25.256999969482425,25.30500030517578,10600.0
2019-09-18,25.31599998474121,25.26000022888184,25.295000076293945,25.31599998474121,4500.0
2019-09-19,25.36000061035156,25.32399940490723,25.36000061035156,25.32399940490723,114000.0
2019-09-20,25.36000061035156,25.263999938964844,25.31800079345703,25.27799987792969,6000.0
2019-09-23,25.29999923706055,25.270000457763672,25.28000068664551,25.291000366210934,5600.0
2019-09-24,25.36000061035156,25.149999618530273,25.36000061035156,25.19099998474121,10200.0
2019-09-25,25.290000915527344,25.21999931335449,25.26000022888184,25.270999908447266,9300.0
2019-09-26,25.268999099731445,25.23500061035156,25.24600028991699,25.23500061035156,3200.0
2019-09-27,25.25,25.14699935913086,25.21999931335449,25.14699935913086,12800.0
2019-09-30,25.270000457763672,25.1200008392334,25.1200008392334,25.22900009155273,15800.0
2019-10-01,25.25,25.118000030517575,25.25,25.118000030517575,13400.0
2019-10-02,25.01000022888184,24.913000106811523,24.92600059509277,24.913000106811523,1900.0
2019-10-03,25.020000457763672,24.96199989318848,24.96199989318848,25.011999130249023,5100.0
2019-10-04,25.21999931335449,25.11000061035156,25.1299991607666,25.209999084472656,31600.0
2019-10-07,25.25,25.16699981689453,25.19499969482422,25.16699981689453,4400.0
2019-10-08,25.06999969482422,24.940000534057614,25.02899932861328,24.940000534057614,15600.0
2019-10-09,25.11000061035156,24.989999771118164,25.03000068664551,25.038000106811523,27300.0
2019-10-10,25.131999969482425,25.09000015258789,25.131000518798828,25.09000015258789,1800.0
2019-10-11,25.33799934387207,25.226999282836914,25.25,25.226999282836914,1000.0
2019-10-14,25.21999931335449,25.170000076293945,25.21999931335449,25.190000534057614,9200.0
2019-10-15,25.35000038146973,25.263999938964844,25.28000068664551,25.29199981689453,1300.0
2019-10-16,25.27599906921387,25.27599906921387,25.27599906921387,25.27599906921387,0.0
2019-10-17,25.45000076293945,25.339000701904297,25.45000076293945,25.36000061035156,3000.0
2019-10-18,25.32999992370605,25.25,25.32999992370605,25.29999923706055,5900.0
2019-10-21,25.36000061035156,25.33099937438965,25.36000061035156,25.33099937438965,2100.0
2019-10-22,25.420000076293945,25.30500030517578,25.420000076293945,25.30500030517578,1700.0
2019-10-23,25.32200050354004,25.32200050354004,25.32200050354004,25.32200050354004,0.0
2019-10-24,25.399999618530273,25.34700012207031,25.3799991607666,25.34700012207031,800.0
2019-10-25,25.37899971008301,25.31100082397461,25.31100082397461,25.37899971008301,200.0
2019-10-28,25.45000076293945,25.45000076293945,25.45000076293945,25.45000076293945,0.0
2019-10-29,25.459999084472656,25.45499992370605,25.45499992370605,25.459999084472656,500.0
2019-10-30,25.466999053955078,25.415000915527344,25.433000564575195,25.466999053955078,1200.0
2019-10-31,25.43600082397461,25.43600082397461,25.43600082397461,25.43600082397461,0.0
2019-11-01,25.542999267578125,25.542999267578125,25.542999267578125,25.542999267578125,0.0
2019-11-04,25.57500076293945,25.57500076293945,25.57500076293945,25.57500076293945,0.0
2019-11-05,25.6299991607666,25.53000068664551,25.53000068664551,25.584999084472656,8100.0
2019-11-06,25.6200008392334,25.57500076293945,25.61000061035156,25.57500076293945,1500.0
2019-11-07,25.6200008392334,25.57999992370605,25.6200008392334,25.59700012207031,4600.0
2019-11-08,25.63999938964844,25.59000015258789,25.60000038146973,25.6200008392334,34200.0
2019-11-11,25.606000900268555,25.606000900268555,25.606000900268555,25.606000900268555,0.0
2019-11-12,25.684999465942386,25.60400009155273,25.68099975585937,25.68000030517578,18200.0
2019-11-13,25.690000534057614,25.6299991607666,25.690000534057614,25.63999938964844,1100.0
2019-11-14,25.65999984741211,25.65999984741211,25.65999984741211,25.65999984741211,0.0
2019-11-15,25.76000022888184,25.70000076293945,25.709999084472656,25.739999771118164,2300.0
2019-11-18,25.770000457763672,25.72800064086914,25.72800064086914,25.75200080871582,3700.0
2019-11-19,25.56999969482422,25.51000022888184,25.520000457763672,25.56999969482422,7900.0
2019-11-20,25.55299949645996,25.493000030517575,25.540000915527344,25.493000030517575,2500.0
2019-11-21,25.540000915527344,25.464000701904297,25.5,25.493999481201172,21600.0
2019-11-22,25.54999923706055,25.440000534057614,25.520999908447266,25.5,32700.0
2019-11-25,25.67799949645996,25.50200080871582,25.50200080871582,25.57699966430664,17600.0
2019-11-26,25.649999618530273,25.60400009155273,25.6200008392334,25.649999618530273,2500.0
2019-11-27,25.68000030517578,25.59000015258789,25.649999618530273,25.63800048828125,9400.0
2019-11-29,25.670000076293945,25.60400009155273,25.670000076293945,25.60400009155273,2900.0
2019-12-02,25.60000038146973,25.53000068664551,25.57500076293945,25.53000068664551,4600.0
2019-12-03,25.5,25.43000030517578,25.46500015258789,25.459999084472656,4200.0
2019-12-04,25.59000015258789,25.489999771118164,25.489999771118164,25.524999618530273,2800.0
2019-12-05,25.60000038146973,25.52199935913086,25.52199935913086,25.53499984741211,1000.0
2019-12-06,25.6299991607666,25.58099937438965,25.58099937438965,25.6299991607666,2000.0
2019-12-09,25.65500068664551,25.604999542236328,25.61000061035156,25.604999542236328,14700.0
2019-12-10,25.60300064086914,25.58099937438965,25.60300064086914,25.58099937438965,1700.0
2019-12-11,25.60099983215332,25.566999435424805,25.566999435424805,25.60099983215332,600.0
2019-12-12,25.68899917602539,25.638999938964844,25.64800071716309,25.68899917602539,1100.0
2019-12-13,25.729999542236328,25.72200012207031,25.72200012207031,25.729999542236328,3600.0
2019-12-16,25.79999923706055,25.76000022888184,25.79999923706055,25.76000022888184,300.0
2019-12-17,25.790000915527344,25.76499938964844,25.78199958801269,25.76499938964844,1800.0
2019-12-18,25.84000015258789,25.750999450683594,25.809999465942386,25.770000457763672,3300.0
2019-12-19,25.809999465942386,25.75,25.809999465942386,25.790000915527344,11400.0
2019-12-20,25.90999984741211,25.82500076293945,25.90999984741211,25.82500076293945,300.0
2019-12-23,25.85000038146973,25.80900001525879,25.80900001525879,25.839000701904297,2400.0
2019-12-24,25.899999618530273,25.83300018310547,25.843000411987305,25.83300018310547,800.0
2019-12-26,25.864999771118164,25.864999771118164,25.864999771118164,25.864999771118164,0.0
2019-12-27,25.863000869750977,25.863000869750977,25.863000869750977,25.863000869750977,0.0
2019-12-30,25.84000015258789,25.815000534057614,25.84000015258789,25.815000534057614,900.0
2019-12-31,25.84700012207031,25.84000015258789,25.84000015258789,25.84700012207031,300.0
2020-01-02,25.940000534057614,25.85000038146973,25.85000038146973,25.93400001525879,4200.0
2020-01-03,25.888999938964844,25.84000015258789,25.888999938964844,25.84000015258789,82500.0
2020-01-06,25.89699935913086,25.84000015258789,25.84000015258789,25.89699935913086,34300.0
2020-01-07,25.881999969482425,25.86000061035156,25.86000061035156,25.881999969482425,4500.0
2020-01-08,25.92200088500977,25.913000106811523,25.913000106811523,25.92200088500977,200.0
2020-01-09,25.9689998626709,25.93000030517578,25.95000076293945,25.9689998626709,1600.0
2020-01-10,25.96999931335449,25.95000076293945,25.959999084472656,25.95499992370605,6300.0
2020-01-13,26.0049991607666,25.96999931335449,25.96999931335449,26.0049991607666,4000.0
2020-01-14,26.00399971008301,25.979999542236328,26.00399971008301,25.99900054931641,500.0
2020-01-15,26.01499938964844,26.01499938964844,26.01499938964844,26.01499938964844,100.0
2020-01-16,26.07399940490723,26.01000022888184,26.066999435424805,26.07399940490723,5600.0
2020-01-17,26.084999084472656,26.084999084472656,26.084999084472656,26.084999084472656,100.0
2020-01-21,26.09000015258789,26.059999465942386,26.06999969482422,26.06999969482422,11000.0
2020-01-22,26.1299991607666,26.059999465942386,26.059999465942386,26.11000061035156,4700.0
2020-01-23,26.15999984741211,26.1299991607666,26.1299991607666,26.15999984741211,300.0
2020-01-24,26.0939998626709,26.041000366210934,26.059999465942386,26.041000366210934,1600.0
2020-01-27,25.920000076293945,25.86000061035156,25.86000061035156,25.920000076293945,5000.0
2020-01-28,26.04999923706055,26.01000022888184,26.016000747680664,26.01000022888184,400.0
2020-01-29,26.006999969482425,26.006999969482425,26.006999969482425,26.006999969482425,100.0
2020-01-30,25.96999931335449,25.915000915527344,25.96999931335449,25.915000915527344,400.0
2020-01-31,25.875,25.875,25.875,25.875,0.0
2020-02-03,25.96999931335449,25.92900085449219,25.92900085449219,25.95499992370605,1100.0
2020-02-04,26.07500076293945,26.06599998474121,26.06599998474121,26.07500076293945,400.0
2020-02-05,26.141000747680664,26.11100006103516,26.11100006103516,26.141000747680664,1200.0
2020-02-06,26.170000076293945,26.170000076293945,26.170000076293945,26.170000076293945,100.0
2020-02-07,26.13599967956543,26.13599967956543,26.13599967956543,26.13599967956543,100.0
2020-02-10,26.17900085449219,26.1200008392334,26.1200008392334,26.17900085449219,1000.0
2020-02-11,26.18000030517578,26.18000030517578,26.18000030517578,26.18000030517578,4100.0
2020-02-12,26.20599937438965,26.13999938964844,26.20599937438965,26.158000946044922,8200.0
2020-02-13,26.190000534057614,26.18000030517578,26.190000534057614,26.18000030517578,200.0
2020-02-14,26.24900054931641,26.18000030517578,26.18000030517578,26.21500015258789,5700.0
2020-02-18,26.19499969482422,26.19499969482422,26.19499969482422,26.19499969482422,0.0
2020-02-19,26.239999771118164,26.239999771118164,26.239999771118164,26.239999771118164,0.0
2020-02-20,26.239999771118164,26.20199966430664,26.209999084472656,26.20199966430664,500.0
2020-02-21,26.07500076293945,26.07500076293945,26.07500076293945,26.07500076293945,0.0
2020-02-24,25.864999771118164,25.81999969482422,25.864999771118164,25.86100006103516,1100.0
2020-02-25,25.70000076293945,25.54400062561035,25.70000076293945,25.54400062561035,100.0
2020-02-26,25.545000076293945,25.545000076293945,25.545000076293945,25.545000076293945,100.0
2020-02-27,25.51000022888184,25.15299987792969,25.29999923706055,25.15299987792969,53700.0
2020-02-28,25.013999938964844,24.309999465942386,24.309999465942386,25.013999938964844,3400.0
2020-03-02,25.541000366210934,25.270000457763672,25.270000457763672,25.541000366210934,900.0
2020-03-03,25.459999084472656,25.170000076293945,25.459999084472656,25.29800033569336,2800.0
2020-03-04,25.70199966430664,25.70199966430664,25.70199966430664,25.70199966430664,0.0
2020-03-05,25.459999084472656,25.31999969482422,25.459999084472656,25.32200050354004,400.0
2020-03-06,25.22400093078613,25.0,25.15500068664551,25.22400093078613,400.0
2020-03-09,24.82999992370605,24.53199958801269,24.82999992370605,24.53199958801269,600.0
2020-03-10,24.913000106811523,24.3700008392334,24.3700008392334,24.913000106811523,4200.0
2020-03-11,24.45599937438965,24.34000015258789,24.41699981689453,24.45599937438965,2500.0
2020-03-12,24.0,23.53000068664551,23.899999618530273,23.60000038146973,107100.0
2020-03-13,24.59000015258789,23.51300048828125,23.697999954223636,24.59000015258789,378800.0
2020-03-16,23.78000068664551,23.04999923706055,23.56999969482422,23.04999923706055,26000.0
2020-03-17,23.420000076293945,22.8799991607666,22.90999984741211,23.26000022888184,12300.0
2020-03-18,23.082000732421875,22.350000381469727,23.01000022888184,23.020000457763672,40600.0
2020-03-19,23.21999931335449,22.790000915527344,22.809999465942386,23.01000022888184,38900.0
2020-03-20,23.187000274658203,22.6200008392334,23.04999923706055,22.663000106811523,127500.0
2020-03-23,22.81999969482422,22.145000457763672,22.145000457763672,22.70000076293945,52700.0
2020-03-24,23.36000061035156,22.93000030517578,23.0,23.36000061035156,158100.0
2020-03-25,23.770000457763672,23.15900039672852,23.770000457763672,23.229999542236328,14000.0
2020-03-26,23.84600067138672,23.540000915527344,23.61000061035156,23.84600067138672,8400.0
2020-03-27,23.690000534057614,23.36000061035156,23.399999618530273,23.489999771118164,9100.0
2020-03-30,23.86599922180176,23.5,23.5,23.709999084472656,17600.0
2020-03-31,24.15999984741211,23.63999938964844,24.15999984741211,23.63999938964844,12500.0
2020-04-01,23.75,23.229999542236328,23.75,23.229999542236328,23400.0
2020-04-02,23.399999618530273,23.15999984741211,23.20000076293945,23.290000915527344,2100.0
2020-04-03,23.54999923706055,23.28000068664551,23.28000068664551,23.54999923706055,13600.0
2020-04-06,24.20000076293945,23.690000534057614,24.20000076293945,24.040000915527344,17500.0
2020-04-07,24.31999969482422,24.0,24.309999465942386,24.059999465942386,55100.0
2020-04-08,24.399999618530273,23.940000534057614,23.940000534057614,24.35099983215332,220600.0
2020-04-09,24.65999984741211,24.45400047302246,24.59000015258789,24.51000022888184,86900.0
2020-04-13,24.690000534057614,24.316999435424805,24.690000534057614,24.5,25100.0
2020-04-14,25.15999984741211,24.63800048828125,25.15999984741211,24.73500061035156,50200.0
2020-04-15,24.670000076293945,24.25,24.25,24.47900009155273,29300.0
2020-04-16,24.6299991607666,24.39900016784668,24.39900016784668,24.53000068664551,29100.0
2020-04-17,24.84000015258789,24.67700004577637,24.708999633789066,24.84000015258789,11900.0
2020-04-20,24.85000038146973,24.559999465942386,24.85000038146973,24.691999435424805,2700.0
2020-04-21,24.60000038146973,24.309999465942386,24.60000038146973,24.309999465942386,3600.0
2020-04-22,24.61000061035156,24.43000030517578,24.540000915527344,24.5939998626709,3500.0
2020-04-23,24.743999481201172,24.44300079345703,24.743999481201172,24.55299949645996,2500.0
2020-04-24,24.65999984741211,24.52799987792969,24.65999984741211,24.65699958801269,1900.0
2020-04-27,24.88999938964844,24.70100021362305,24.73500061035156,24.82500076293945,3600.0
2020-04-28,24.93000030517578,24.7549991607666,24.80500030517578,24.7549991607666,1100.0
2020-04-29,25.018999099731445,24.90999984741211,24.93000030517578,24.979999542236328,9800.0
2020-04-30,25.45000076293945,24.899999618530273,25.45000076293945,24.98600006103516,4200.0
2020-05-01,24.694000244140625,24.614999771118164,24.614999771118164,24.62100028991699,6600.0
2020-05-04,24.68000030517578,24.55200004577637,24.55200004577637,24.66399955749512,2900.0
2020-05-05,24.86000061035156,24.65999984741211,24.8439998626709,24.65999984741211,1300.0
2020-05-06,24.76499938964844,24.683000564575195,24.76499938964844,24.683000564575195,400.0
2020-05-07,24.84499931335449,24.54999923706055,24.54999923706055,24.709999084472656,2200.0
2020-05-08,24.96500015258789,24.915000915527344,24.915000915527344,24.96500015258789,300.0
2020-05-11,25.11000061035156,24.78000068664551,24.78000068664551,25.0,2000.0
2020-05-12,24.940000534057614,24.6299991607666,24.940000534057614,24.6299991607666,7100.0
2020-05-13,24.70000076293945,24.38999938964844,24.540000915527344,24.56999969482422,56300.0
2020-05-14,24.76000022888184,24.459999084472656,24.76000022888184,24.56999969482422,36000.0
2020-05-15,24.68000030517578,24.540000915527344,24.68000030517578,24.67300033569336,10700.0
2020-05-18,25.10000038146973,25.084999084472656,25.09499931335449,25.08799934387207,1100.0
2020-05-19,25.29999923706055,24.989999771118164,25.29999923706055,25.020000457763672,23200.0
2020-05-20,25.459999084472656,25.01000022888184,25.459999084472656,25.040000915527344,12500.0
2020-05-21,25.20000076293945,24.97900009155273,25.10000038146973,25.04199981689453,14700.0
2020-05-22,25.138999938964844,24.979999542236328,25.024999618530273,25.077999114990234,2500.0
2020-05-26,25.43000030517578,25.214000701904297,25.3700008392334,25.214000701904297,11700.0
2020-05-27,25.45000076293945,25.25,25.38999938964844,25.434999465942386,11800.0
2020-05-28,25.645000457763672,25.34000015258789,25.6299991607666,25.34000015258789,7600.0
2020-05-29,25.559999465942386,25.35000038146973,25.45000076293945,25.488000869750977,13100.0
2020-06-01,25.60000038146973,25.459999084472656,25.47500038146973,25.53000068664551,27400.0
2020-06-02,25.53000068664551,25.53000068664551,25.53000068664551,25.53000068664551,0.0
2020-06-03,25.85099983215332,25.709999084472656,25.709999084472656,25.816999435424805,7200.0
2020-06-04,25.90999984741211,25.729999542236328,25.81399917602539,25.74900054931641,2700.0
2020-06-05,26.08099937438965,25.95000076293945,26.0,26.01000022888184,220400.0
2020-06-08,26.3799991607666,26.08300018310547,26.3799991607666,26.101999282836914,19500.0
2020-06-09,26.10400009155273,25.96999931335449,26.04999923706055,26.10000038146973,8500.0
2020-06-10,26.149999618530273,25.93000030517578,26.016000747680664,26.072999954223636,2700.0
2020-06-11,25.697999954223636,25.327999114990234,25.645000457763672,25.327999114990234,9200.0
2020-06-12,25.559999465942386,25.32200050354004,25.53000068664551,25.40999984741211,11100.0
2020-06-15,25.649999618530273,25.25,25.25,25.54599952697754,4800.0
2020-06-16,25.95000076293945,25.757999420166016,25.940000534057614,25.757999420166016,4600.0
2020-06-17,25.8799991607666,25.766000747680664,25.86000061035156,25.766000747680664,5200.0
2020-06-18,25.80500030517578,25.649999618530273,25.80500030517578,25.757999420166016,3600.0
2020-06-19,25.80599975585937,25.65500068664551,25.709999084472656,25.73500061035156,8700.0
2020-06-22,25.79199981689453,25.6299991607666,25.6299991607666,25.79199981689453,400.0
2020-06-23,25.875,25.84499931335449,25.8700008392334,25.875,3700.0
2020-06-24,25.79999923706055,25.32999992370605,25.79999923706055,25.420000076293945,13900.0
2020-06-25,25.57999992370605,25.440000534057614,25.440000534057614,25.57999992370605,3000.0
2020-06-26,25.43000030517578,25.26499938964844,25.35000038146973,25.26499938964844,2100.0
2020-06-29,25.38999938964844,25.30500030517578,25.31999969482422,25.38999938964844,22800.0
2020-06-30,25.76000022888184,25.43000030517578,25.43000030517578,25.71999931335449,20600.0
2020-07-01,25.809999465942386,25.71999931335449,25.76000022888184,25.78700065612793,2500.0
2020-07-02,26.059999465942386,25.85400009155273,25.90099906921387,25.85400009155273,700.0
2020-07-06,26.108999252319336,26.01000022888184,26.01000022888184,26.108999252319336,500.0
2020-07-07,26.12400054931641,25.8799991607666,26.06999969482422,25.94300079345703,162500.0
2020-07-08,26.072999954223636,26.072999954223636,26.072999954223636,26.072999954223636,100.0
2020-07-09,26.059999465942386,25.79999923706055,26.059999465942386,25.993999481201172,3100.0
2020-07-10,26.209999084472656,25.76000022888184,25.76000022888184,26.19700050354004,5200.0
2020-07-13,26.34499931335449,26.013999938964844,26.29999923706055,26.013999938964844,200.0
2020-07-14,26.239999771118164,25.989999771118164,25.989999771118164,26.239999771118164,500.0
2020-07-15,26.339000701904297,26.29999923706055,26.29999923706055,26.339000701904297,1200.0
2020-07-16,26.489999771118164,26.190000534057614,26.489999771118164,26.21999931335449,2800.0
2020-07-17,26.417999267578125,26.239999771118164,26.239999771118164,26.417999267578125,2400.0
2020-07-20,26.56599998474121,26.40999984741211,26.40999984741211,26.56599998474121,1800.0
2020-07-21,26.67300033569336,26.46999931335449,26.53199958801269,26.479999542236328,27600.0
2020-07-22,26.670000076293945,26.540000915527344,26.540000915527344,26.670000076293945,100.0
2020-07-23,26.670000076293945,26.440000534057614,26.670000076293945,26.518999099731445,4800.0
2020-07-24,26.47100067138672,26.32200050354004,26.32999992370605,26.47100067138672,1100.0
2020-07-27,26.65399932861328,26.53000068664551,26.53000068664551,26.65399932861328,800.0
2020-07-28,26.707000732421875,26.55400085449219,26.65399932861328,26.55400085449219,900.0
2020-07-29,26.763999938964844,26.739999771118164,26.739999771118164,26.763999938964844,1100.0
2020-07-30,26.78899955749512,26.57999992370605,26.71999931335449,26.75,97700.0
2020-07-31,26.959999084472656,26.65999984741211,26.690000534057614,26.959999084472656,98000.0
2020-08-03,27.03000068664551,26.8700008392334,27.0,27.0,127700.0
2020-08-04,27.07600021362305,26.90200042724609,26.90200042724609,27.00300025939941,22800.0
2020-08-05,27.18000030517578,27.00300025939941,27.18000030517578,27.059999465942386,18400.0
2020-08-06,27.15999984741211,26.96999931335449,27.15999984741211,27.07500076293945,21200.0
2020-08-07,27.13999938964844,27.03499984741211,27.09000015258789,27.09000015258789,9200.0
2020-08-10,27.31999969482422,27.04800033569336,27.31999969482422,27.11100006103516,33800.0
2020-08-11,27.21999931335449,27.01799964904785,27.125,27.01799964904785,10200.0
2020-08-12,27.25,27.104999542236328,27.125,27.145000457763672,16300.0
2020-08-13,27.239999771118164,27.04999923706055,27.20599937438965,27.18000030517578,25800.0
2020-08-14,27.31999969482422,27.038000106811523,27.31999969482422,27.08099937438965,52500.0
2020-08-17,27.19499969482422,27.040000915527344,27.086000442504886,27.15399932861328,66800.0
2020-08-18,27.290000915527344,27.07999992370605,27.290000915527344,27.09000015258789,19700.0
2020-08-19,27.71999931335449,27.11000061035156,27.71999931335449,27.11000061035156,20900.0
2020-08-20,27.209999084472656,27.05599975585937,27.20000076293945,27.20000076293945,11900.0
2020-08-21,27.239999771118164,27.11000061035156,27.239999771118164,27.18000030517578,30800.0
2020-08-24,27.29999923706055,27.21999931335449,27.290000915527344,27.23600006103516,30900.0
