Date,High,Low,Open,Close,Volume
2017-07-05,25.040000915527344,25.040000915527344,25.040000915527344,25.040000915527344,0.0
2017-07-06,24.809999465942386,24.809999465942386,24.809999465942386,24.809999465942386,400.0
2017-07-07,24.8700008392334,24.8700008392334,24.8700008392334,24.8700008392334,3500.0
2017-07-10,24.8700008392334,24.8700008392334,24.8700008392334,24.8700008392334,1200.0
2017-07-11,24.8700008392334,24.8700008392334,24.8700008392334,24.8700008392334,0.0
2017-07-12,24.8700008392334,24.8700008392334,24.8700008392334,24.8700008392334,0.0
2017-07-17,25.309999465942386,25.29999923706055,25.29999923706055,25.309999465942386,7700.0
2017-07-18,25.25,25.25,25.25,25.25,8100.0
2017-07-19,25.38999938964844,25.34000015258789,25.34000015258789,25.36199951171875,18100.0
2017-07-20,25.54999923706055,25.38500022888184,25.54999923706055,25.420000076293945,23100.0
2017-07-21,25.399999618530273,25.34000015258789,25.36000061035156,25.399999618530273,14600.0
2017-07-24,25.43000030517578,25.399999618530273,25.399999618530273,25.43000030517578,9200.0
2017-07-25,25.54999923706055,25.489999771118164,25.540000915527344,25.540000915527344,9200.0
2017-07-26,25.507999420166016,25.42799949645996,25.507999420166016,25.42799949645996,1600.0
2017-07-27,25.57999992370605,25.26000022888184,25.57999992370605,25.26499938964844,10700.0
2017-07-28,25.489999771118164,25.24900054931641,25.489999771118164,25.270000457763672,15900.0
2017-07-31,25.36000061035156,25.35000038146973,25.36000061035156,25.36000061035156,15500.0
2017-08-01,25.40999984741211,25.36000061035156,25.40999984741211,25.40999984741211,11700.0
2017-08-02,25.32600021362305,25.31999969482422,25.32600021362305,25.31999969482422,200.0
2017-08-03,25.32999992370605,25.32999992370605,25.32999992370605,25.32999992370605,2300.0
2017-08-04,25.3799991607666,25.32999992370605,25.3700008392334,25.35000038146973,9000.0
2017-08-07,25.35000038146973,25.35000038146973,25.35000038146973,25.35000038146973,0.0
2017-08-08,25.3799991607666,25.3700008392334,25.3700008392334,25.3700008392334,2400.0
2017-08-09,25.239999771118164,25.229999542236328,25.229999542236328,25.23500061035156,6200.0
2017-08-10,25.11000061035156,24.989999771118164,24.989999771118164,25.11000061035156,22700.0
2017-08-11,25.0,24.88999938964844,25.0,24.90999984741211,19700.0
2017-08-14,24.90999984741211,24.90999984741211,24.90999984741211,24.90999984741211,0.0
2017-08-15,24.90999984741211,24.90999984741211,24.90999984741211,24.90999984741211,0.0
2017-08-16,25.239999771118164,25.21999931335449,25.21999931335449,25.21999931335449,3900.0
2017-08-17,25.158000946044922,25.10000038146973,25.158000946044922,25.1200008392334,20800.0
2017-08-18,25.1200008392334,25.1200008392334,25.1200008392334,25.1200008392334,0.0
2017-08-21,24.70000076293945,24.690000534057614,24.690000534057614,24.69499969482422,18600.0
2017-08-22,24.95000076293945,24.88999938964844,24.88999938964844,24.95000076293945,12000.0
2017-08-23,24.940000534057614,24.86000061035156,24.86000061035156,24.940000534057614,5900.0
2017-08-24,24.920000076293945,24.899999618530273,24.920000076293945,24.899999618530273,2800.0
2017-08-25,25.020000457763672,24.96999931335449,25.020000457763672,25.0,39400.0
2017-08-28,25.0,24.8799991607666,25.0,24.8799991607666,24800.0
2017-08-29,24.8799991607666,24.85000038146973,24.8700008392334,24.8700008392334,27300.0
2017-08-30,24.96999931335449,24.96999931335449,24.96999931335449,24.96999931335449,2200.0
2017-08-31,25.25,25.170000076293945,25.190000534057614,25.25,15800.0
2017-09-01,25.25,25.25,25.25,25.25,0.0
2017-09-05,25.270000457763672,25.020000457763672,25.26000022888184,25.020000457763672,18500.0
2017-09-06,25.149999618530273,25.10000038146973,25.11000061035156,25.13999938964844,18000.0
2017-09-07,25.11000061035156,25.0,25.11000061035156,25.0,1600.0
2017-09-08,25.0,25.0,25.0,25.0,0.0
2017-09-11,25.38999938964844,25.3700008392334,25.38999938964844,25.38999938964844,12000.0
2017-09-12,25.489999771118164,25.46999931335449,25.489999771118164,25.46999931335449,22500.0
2017-09-13,25.520000457763672,25.43000030517578,25.43000030517578,25.51000022888184,7400.0
2017-09-14,25.459999084472656,25.45000076293945,25.45000076293945,25.459999084472656,10400.0
2017-09-15,25.520000457763672,25.520000457763672,25.520000457763672,25.520000457763672,300.0
2017-09-18,25.54999923706055,25.54999923706055,25.54999923706055,25.54999923706055,800.0
2017-09-19,25.57999992370605,25.57500076293945,25.57500076293945,25.57500076293945,400.0
2017-09-20,25.584999084472656,25.559999465942386,25.559999465942386,25.584999084472656,2700.0
2017-09-21,25.61000061035156,25.60000038146973,25.60000038146973,25.61000061035156,13500.0
2017-09-22,25.60000038146973,25.59499931335449,25.60000038146973,25.60000038146973,7400.0
2017-09-25,25.65999984741211,25.61000061035156,25.65999984741211,25.61000061035156,2300.0
2017-09-26,25.729999542236328,25.70000076293945,25.70000076293945,25.729999542236328,21700.0
2017-09-27,25.82999992370605,25.709999084472656,25.809999465942386,25.82999992370605,900.0
2017-09-28,25.8799991607666,25.790000915527344,25.790000915527344,25.8799991607666,4200.0
2017-09-29,25.8799991607666,25.8799991607666,25.8799991607666,25.8799991607666,0.0
2017-10-02,26.04999923706055,26.01000022888184,26.020000457763672,26.04999923706055,16200.0
2017-10-03,26.15999984741211,26.1200008392334,26.1200008392334,26.15500068664551,23400.0
2017-10-04,26.25,26.209999084472656,26.209999084472656,26.239999771118164,31000.0
2017-10-05,26.30500030517578,26.19499969482422,26.19499969482422,26.30500030517578,17700.0
2017-10-06,26.29999923706055,26.25,26.29999923706055,26.2549991607666,5000.0
2017-10-09,26.2549991607666,26.2549991607666,26.2549991607666,26.2549991607666,0.0
2017-10-10,26.239999771118164,26.239999771118164,26.239999771118164,26.239999771118164,100.0
2017-10-11,26.26000022888184,26.229999542236328,26.229999542236328,26.26000022888184,9800.0
2017-10-12,26.26000022888184,26.26000022888184,26.26000022888184,26.26000022888184,0.0
2017-10-13,26.327999114990234,26.23500061035156,26.327999114990234,26.23500061035156,1900.0
2017-10-16,26.309999465942386,26.270000457763672,26.309999465942386,26.290000915527344,2700.0
2017-10-17,26.29999923706055,26.2450008392334,26.290000915527344,26.2450008392334,4600.0
2017-10-18,26.35000038146973,26.34000015258789,26.34000015258789,26.34499931335449,1200.0
2017-10-19,26.36000061035156,26.20499992370605,26.20499992370605,26.36000061035156,4300.0
2017-10-20,26.51000022888184,26.5,26.5049991607666,26.5049991607666,1700.0
2017-10-23,26.54999923706055,26.540000915527344,26.54999923706055,26.54999923706055,152700.0
2017-10-24,26.54999923706055,26.489999771118164,26.489999771118164,26.54999923706055,4700.0
2017-10-25,26.3799991607666,26.3799991607666,26.3799991607666,26.3799991607666,700.0
2017-10-26,26.51000022888184,26.489999771118164,26.489999771118164,26.51000022888184,19000.0
2017-10-27,26.40999984741211,26.40999984741211,26.40999984741211,26.40999984741211,100.0
2017-10-30,26.459999084472656,26.36000061035156,26.459999084472656,26.36000061035156,5800.0
2017-10-31,26.3799991607666,26.3799991607666,26.3799991607666,26.3799991607666,3500.0
2017-11-01,26.479999542236328,26.459999084472656,26.46999931335449,26.46999931335449,32100.0
2017-11-02,26.40999984741211,26.3700008392334,26.40500068664551,26.3700008392334,9300.0
2017-11-03,26.40500068664551,26.40500068664551,26.40500068664551,26.40500068664551,200.0
2017-11-06,26.489999771118164,26.489999771118164,26.489999771118164,26.489999771118164,11100.0
2017-11-07,26.51000022888184,26.375,26.51000022888184,26.38999938964844,46200.0
2017-11-08,26.38999938964844,26.38500022888184,26.38999938964844,26.38500022888184,2400.0
2017-11-09,26.2549991607666,26.2549991607666,26.2549991607666,26.2549991607666,100.0
2017-11-10,26.290000915527344,26.270000457763672,26.290000915527344,26.270000457763672,19500.0
2017-11-13,26.270000457763672,26.270000457763672,26.270000457763672,26.270000457763672,0.0
2017-11-14,26.315000534057614,26.295000076293945,26.315000534057614,26.315000534057614,7600.0
2017-11-15,26.31999969482422,26.149999618530273,26.20499992370605,26.21999931335449,31700.0
2017-11-16,26.5049991607666,26.29999923706055,26.29999923706055,26.459999084472656,4900.0
2017-11-17,26.559999465942386,26.399999618530273,26.399999618530273,26.489999771118164,4800.0
2017-11-20,26.649999618530273,26.479999542236328,26.479999542236328,26.57999992370605,11000.0
2017-11-21,26.76000022888184,26.76000022888184,26.76000022888184,26.76000022888184,28100.0
2017-11-22,26.790000915527344,26.790000915527344,26.790000915527344,26.790000915527344,44900.0
2017-11-24,26.88999938964844,26.88999938964844,26.88999938964844,26.88999938964844,400.0
2017-11-27,26.795000076293945,26.71999931335449,26.78000068664551,26.795000076293945,65000.0
2017-11-28,27.03499984741211,26.81599998474121,26.81599998474121,27.03499984741211,6100.0
2017-11-29,27.26499938964844,27.239999771118164,27.25,27.26000022888184,23800.0
2017-11-30,27.440000534057614,27.32999992370605,27.3700008392334,27.440000534057614,24600.0
2017-12-01,27.54999923706055,27.20499992370605,27.54999923706055,27.32500076293945,24900.0
2017-12-04,27.670000076293945,27.56999969482422,27.65999984741211,27.59000015258789,15100.0
2017-12-05,27.459999084472656,27.45000076293945,27.45000076293945,27.459999084472656,18300.0
2017-12-06,27.309999465942386,27.28000068664551,27.29999923706055,27.309999465942386,75300.0
2017-12-07,27.399999618530273,27.399999618530273,27.399999618530273,27.399999618530273,65700.0
2017-12-08,27.53000068664551,27.46999931335449,27.46999931335449,27.520000457763672,17300.0
2017-12-11,27.53000068664551,27.479999542236328,27.524999618530273,27.5,14800.0
2017-12-12,27.540000915527344,27.51499938964844,27.52199935913086,27.520000457763672,32500.0
2017-12-13,27.53000068664551,27.5049991607666,27.5049991607666,27.53000068664551,46400.0
2017-12-14,27.479999542236328,27.31999969482422,27.479999542236328,27.31999969482422,10500.0
2017-12-15,27.60000038146973,27.459999084472656,27.459999084472656,27.60000038146973,12700.0
2017-12-18,27.6200008392334,27.57999992370605,27.6200008392334,27.60000038146973,24600.0
2017-12-19,27.6200008392334,27.559999465942386,27.6200008392334,27.559999465942386,26500.0
2017-12-20,27.57999992370605,27.5,27.56999969482422,27.55500030517578,6700.0
2017-12-21,27.61000061035156,27.55500030517578,27.56999969482422,27.584999084472656,24100.0
2017-12-22,27.670000076293945,27.520000457763672,27.670000076293945,27.520000457763672,57300.0
2017-12-26,27.61000061035156,27.57500076293945,27.61000061035156,27.59499931335449,5100.0
2017-12-27,27.618000030517575,27.59000015258789,27.59000015258789,27.60000038146973,4200.0
2017-12-28,27.61400032043457,27.59000015258789,27.59000015258789,27.61400032043457,28400.0
2017-12-29,27.68000030517578,27.60000038146973,27.642000198364254,27.60000038146973,5600.0
2018-01-02,27.67499923706055,27.59000015258789,27.59000015258789,27.65999984741211,25400.0
2018-01-03,27.79999923706055,27.75,27.76000022888184,27.76499938964844,15700.0
2018-01-04,27.895000457763672,27.86000061035156,27.895000457763672,27.88500022888184,1000.0
2018-01-05,27.95499992370605,27.920000076293945,27.93000030517578,27.95499992370605,5000.0
2018-01-08,28.09000015258789,27.95000076293945,27.959999084472656,28.09000015258789,1000.0
2018-01-09,28.18000030517578,28.09499931335449,28.17900085449219,28.1200008392334,18700.0
2018-01-10,28.01499938964844,27.97500038146973,27.97500038146973,27.9950008392334,48300.0
2018-01-11,28.1200008392334,28.1200008392334,28.1200008392334,28.1200008392334,400.0
2018-01-12,28.399999618530273,28.32200050354004,28.32200050354004,28.395000457763672,3900.0
2018-01-16,28.559999465942386,28.40999984741211,28.559999465942386,28.40999984741211,85300.0
2018-01-17,28.43000030517578,28.309999465942386,28.309999465942386,28.420000076293945,5800.0
2018-01-18,28.420000076293945,28.399999618530273,28.399999618530273,28.415000915527344,3200.0
2018-01-19,28.559999465942386,28.5,28.5,28.520000457763672,18700.0
2018-01-22,28.6200008392334,28.559999465942386,28.559999465942386,28.6200008392334,6800.0
2018-01-23,28.790000915527344,28.76000022888184,28.76000022888184,28.790000915527344,1200.0
2018-01-24,28.790000915527344,28.790000915527344,28.790000915527344,28.790000915527344,100.0
2018-01-25,28.75900077819824,28.75900077819824,28.75900077819824,28.75900077819824,100.0
2018-01-26,28.75900077819824,28.75900077819824,28.75900077819824,28.75900077819824,0.0
2018-01-29,29.01000022888184,28.790000915527344,28.979999542236328,28.790000915527344,103200.0
2018-01-30,28.60000038146973,28.53000068664551,28.60000038146973,28.545000076293945,6700.0
2018-01-31,28.70000076293945,28.5,28.65999984741211,28.5,15700.0
2018-02-01,28.540000915527344,28.38999938964844,28.43000030517578,28.51000022888184,48900.0
2018-02-02,28.270000457763672,27.88999938964844,28.270000457763672,27.92499923706055,33600.0
2018-02-05,27.88999938964844,26.81999969482422,27.790000915527344,26.81999969482422,144200.0
2018-02-06,26.81999969482422,26.81999969482422,26.81999969482422,26.81999969482422,0.0
2018-02-07,27.415000915527344,27.2450008392334,27.399999618530273,27.28499984741211,64600.0
2018-02-08,26.76000022888184,26.76000022888184,26.76000022888184,26.76000022888184,3000.0
2018-02-09,26.54999923706055,26.45000076293945,26.540000915527344,26.45000076293945,1600.0
2018-02-12,27.0,26.59000015258789,26.59000015258789,27.0,5200.0
2018-02-13,26.9950008392334,26.739999771118164,26.80500030517578,26.959999084472656,5800.0
2018-02-14,27.09000015258789,27.09000015258789,27.09000015258789,27.09000015258789,1300.0
2018-02-15,27.399999618530273,27.38999938964844,27.38999938964844,27.399999618530273,20900.0
2018-02-16,27.75,27.60000038146973,27.60000038146973,27.709999084472656,4200.0
2018-02-20,27.6200008392334,27.3799991607666,27.56999969482422,27.3799991607666,7600.0
2018-02-21,27.6200008392334,27.53000068664551,27.6200008392334,27.53000068664551,1700.0
2018-02-22,27.415000915527344,27.395000457763672,27.395000457763672,27.40999984741211,7100.0
2018-02-23,27.479999542236328,27.40999984741211,27.434999465942386,27.4689998626709,7900.0
2018-02-26,27.75,27.68000030517578,27.71999931335449,27.68000030517578,2000.0
2018-02-27,27.96999931335449,27.63999938964844,27.90999984741211,27.63999938964844,16700.0
2018-02-28,27.65500068664551,27.270000457763672,27.6200008392334,27.270000457763672,8900.0
2018-03-01,27.3700008392334,27.209999084472656,27.209999084472656,27.3700008392334,24200.0
2018-03-02,27.18000030517578,27.020000457763672,27.020000457763672,27.18000030517578,8800.0
2018-03-05,27.44099998474121,27.395000457763672,27.40999984741211,27.44099998474121,11800.0
2018-03-06,27.6200008392334,27.420000076293945,27.420000076293945,27.59000015258789,46800.0
2018-03-07,27.56100082397461,27.440000534057614,27.44499969482422,27.56100082397461,1500.0
2018-03-08,27.63999938964844,27.63999938964844,27.63999938964844,27.63999938964844,200.0
2018-03-09,27.93000030517578,27.899999618530273,27.899999618530273,27.93000030517578,600.0
2018-03-12,28.18000030517578,28.07999992370605,28.18000030517578,28.07999992370605,28400.0
2018-03-13,28.209999084472656,28.170000076293945,28.170000076293945,28.18000030517578,3300.0
2018-03-14,27.79999923706055,27.770000457763672,27.790000915527344,27.79999923706055,16000.0
2018-03-15,27.79999923706055,27.79999923706055,27.79999923706055,27.79999923706055,0.0
2018-03-16,27.79999923706055,27.79999923706055,27.79999923706055,27.79999923706055,0.0
2018-03-19,27.6299991607666,27.6200008392334,27.6200008392334,27.6200008392334,3800.0
2018-03-20,27.55500030517578,27.51000022888184,27.51000022888184,27.55500030517578,1200.0
2018-03-21,27.63999938964844,27.6200008392334,27.63999938964844,27.6299991607666,11700.0
2018-03-22,27.270000457763672,27.26000022888184,27.26000022888184,27.26499938964844,4000.0
2018-03-23,26.940000534057614,26.93000030517578,26.93000030517578,26.940000534057614,1200.0
2018-03-26,26.71500015258789,26.70000076293945,26.71500015258789,26.70000076293945,2600.0
2018-03-27,26.979999542236328,26.899999618530273,26.96999931335449,26.899999618530273,4700.0
2018-03-28,26.82999992370605,26.82999992370605,26.82999992370605,26.82999992370605,800.0
2018-03-29,27.09000015258789,26.93000030517578,26.96999931335449,27.06999969482422,11200.0
2018-04-02,26.757999420166016,26.290000915527344,26.7549991607666,26.290000915527344,29600.0
2018-04-03,26.6299991607666,26.6200008392334,26.6299991607666,26.6299991607666,10500.0
2018-04-04,26.59000015258789,26.584999084472656,26.59000015258789,26.584999084472656,8100.0
2018-04-05,27.14800071716309,27.145000457763672,27.14800071716309,27.145000457763672,500.0
2018-04-06,27.09000015258789,26.6200008392334,27.09000015258789,26.625,24900.0
2018-04-09,26.920000076293945,26.78000068664551,26.78000068664551,26.920000076293945,2400.0
2018-04-10,26.920000076293945,26.920000076293945,26.920000076293945,26.920000076293945,0.0
2018-04-11,26.920000076293945,26.920000076293945,26.920000076293945,26.920000076293945,0.0
2018-04-12,27.06999969482422,27.04999923706055,27.06999969482422,27.06999969482422,3800.0
2018-04-13,27.10000038146973,27.01000022888184,27.10000038146973,27.01000022888184,11500.0
2018-04-16,27.01000022888184,27.01000022888184,27.01000022888184,27.01000022888184,0.0
2018-04-17,27.507999420166016,27.3799991607666,27.417999267578125,27.3799991607666,23100.0
2018-04-18,27.3799991607666,27.3799991607666,27.3799991607666,27.3799991607666,100.0
2018-04-19,27.40999984741211,27.29999923706055,27.40999984741211,27.29999923706055,2700.0
2018-04-20,27.327999114990234,27.21999931335449,27.327999114990234,27.21999931335449,500.0
2018-04-23,27.208999633789066,27.13999938964844,27.190000534057614,27.13999938964844,2400.0
2018-04-24,27.1299991607666,26.84000015258789,27.11000061035156,26.84000015258789,29500.0
2018-04-25,26.84000015258789,26.84000015258789,26.84000015258789,26.84000015258789,0.0
2018-04-26,27.149999618530273,27.13999938964844,27.13999938964844,27.149999618530273,5200.0
2018-04-27,27.15999984741211,27.09000015258789,27.1299991607666,27.15999984741211,6700.0
2018-04-30,27.06800079345703,26.8799991607666,27.020000457763672,26.8799991607666,2900.0
2018-05-01,26.8799991607666,26.770000457763672,26.84000015258789,26.8799991607666,35800.0
2018-05-02,26.940000534057614,26.79999923706055,26.79999923706055,26.85000038146973,153600.0
2018-05-03,26.76499938964844,26.489999771118164,26.540000915527344,26.65999984741211,41500.0
2018-05-04,27.0,26.61000061035156,26.670000076293945,27.0,4500.0
2018-05-07,27.09000015258789,27.045000076293945,27.045000076293945,27.07999992370605,40700.0
2018-05-08,27.1299991607666,27.03000068664551,27.09000015258789,27.04999923706055,25900.0
2018-05-09,27.25,27.07999992370605,27.07999992370605,27.21999931335449,26700.0
2018-05-10,27.43000030517578,27.31999969482422,27.31999969482422,27.40999984741211,10400.0
2018-05-11,27.56999969482422,27.45000076293945,27.520000457763672,27.45000076293945,5100.0
2018-05-14,27.548999786376953,27.489999771118164,27.548999786376953,27.489999771118164,1400.0
2018-05-15,27.34000015258789,27.34000015258789,27.34000015258789,27.34000015258789,7700.0
2018-05-16,27.54999923706055,27.290000915527344,27.290000915527344,27.54999923706055,1200.0
2018-05-17,27.584999084472656,27.540000915527344,27.540000915527344,27.54999923706055,2400.0
2018-05-18,27.545000076293945,27.459999084472656,27.540000915527344,27.496999740600586,7700.0
2018-05-21,27.71500015258789,27.71500015258789,27.71500015258789,27.71500015258789,700.0
2018-05-22,27.81999969482422,27.72500038146973,27.81999969482422,27.75,21900.0
2018-05-23,27.75,27.75,27.75,27.75,0.0
2018-05-24,27.649999618530273,27.56999969482422,27.56999969482422,27.649999618530273,1600.0
2018-05-25,27.61000061035156,27.61000061035156,27.61000061035156,27.61000061035156,500.0
2018-05-29,27.5,27.40999984741211,27.479999542236328,27.415000915527344,17700.0
2018-05-30,27.520000457763672,27.520000457763672,27.520000457763672,27.520000457763672,2600.0
2018-05-31,27.61000061035156,27.60000038146973,27.61000061035156,27.60000038146973,400.0
2018-06-01,27.6879997253418,27.60000038146973,27.67499923706055,27.65999984741211,22100.0
2018-06-04,27.84499931335449,27.84000015258789,27.84000015258789,27.84499931335449,1400.0
2018-06-05,27.84499931335449,27.84499931335449,27.84499931335449,27.84499931335449,0.0
2018-06-06,28.040000915527344,27.979999542236328,28.040000915527344,27.979999542236328,900.0
2018-06-07,27.979999542236328,27.979999542236328,27.979999542236328,27.979999542236328,0.0
2018-06-08,28.239999771118164,28.239999771118164,28.239999771118164,28.239999771118164,500.0
2018-06-11,28.239999771118164,28.239999771118164,28.239999771118164,28.239999771118164,0.0
2018-06-12,28.290000915527344,28.229999542236328,28.26499938964844,28.229999542236328,21000.0
2018-06-13,28.32900047302246,28.32500076293945,28.32500076293945,28.32500076293945,1000.0
2018-06-14,28.15999984741211,28.07999992370605,28.1200008392334,28.15500068664551,27900.0
2018-06-15,28.2450008392334,28.09000015258789,28.118000030517575,28.2450008392334,7400.0
2018-06-18,28.2450008392334,28.2450008392334,28.2450008392334,28.2450008392334,0.0
2018-06-19,27.920000076293945,27.90999984741211,27.90999984741211,27.920000076293945,1000.0
2018-06-20,28.09000015258789,28.020000457763672,28.020000457763672,28.04999923706055,7400.0
2018-06-21,27.959999084472656,27.88500022888184,27.95000076293945,27.88500022888184,600.0
2018-06-22,28.020000457763672,27.899999618530273,28.020000457763672,27.98900032043457,7600.0
2018-06-25,27.697999954223636,27.47500038146973,27.697999954223636,27.59000015258789,3000.0
2018-06-26,27.618999481201172,27.56999969482422,27.59499931335449,27.61000061035156,20900.0
2018-06-27,27.770000457763672,27.440000534057614,27.739999771118164,27.440000534057614,55600.0
2018-06-28,27.440000534057614,27.440000534057614,27.440000534057614,27.440000534057614,0.0
2018-06-29,27.70000076293945,27.54999923706055,27.59000015258789,27.54999923706055,17300.0
2018-07-02,27.40999984741211,27.29999923706055,27.3799991607666,27.40999984741211,2400.0
2018-07-03,27.649999618530273,27.649999618530273,27.649999618530273,27.649999618530273,3900.0
2018-07-05,27.60000038146973,27.489999771118164,27.489999771118164,27.60000038146973,600.0
2018-07-06,27.959999084472656,27.709999084472656,27.709999084472656,27.959999084472656,10500.0
2018-07-09,28.13999938964844,28.06999969482422,28.13999938964844,28.06999969482422,3300.0
2018-07-10,28.21500015258789,28.21500015258789,28.21500015258789,28.21500015258789,800.0
2018-07-11,28.020000457763672,27.915000915527344,28.020000457763672,27.915000915527344,14200.0
2018-07-12,28.11000061035156,28.01000022888184,28.11000061035156,28.01000022888184,900.0
2018-07-13,28.1200008392334,28.059999465942386,28.1200008392334,28.06999969482422,3300.0
2018-07-16,27.96999931335449,27.95000076293945,27.95000076293945,27.95000076293945,10100.0
2018-07-17,28.1200008392334,28.1200008392334,28.1200008392334,28.1200008392334,800.0
2018-07-18,28.170000076293945,28.07999992370605,28.170000076293945,28.07999992370605,2000.0
2018-07-19,28.270000457763672,28.1299991607666,28.170000076293945,28.239999771118164,2000.0
2018-07-20,28.170000076293945,28.1299991607666,28.1299991607666,28.13999938964844,1700.0
2018-07-23,28.1200008392334,28.01000022888184,28.01000022888184,28.1200008392334,94200.0
2018-07-24,28.10000038146973,27.95000076293945,28.10000038146973,27.95000076293945,8500.0
2018-07-25,28.0,28.0,28.0,28.0,2500.0
2018-07-26,28.2810001373291,28.26000022888184,28.28000068664551,28.2810001373291,800.0
2018-07-27,28.15699958801269,28.09000015258789,28.15699958801269,28.1299991607666,3000.0
2018-07-30,28.06999969482422,28.04999923706055,28.04999923706055,28.06999969482422,16600.0
2018-07-31,28.190000534057614,28.190000534057614,28.190000534057614,28.190000534057614,1500.0
2018-08-01,28.149999618530273,27.98500061035156,28.149999618530273,28.040000915527344,8200.0
2018-08-02,28.13999938964844,28.13999938964844,28.13999938964844,28.13999938964844,16000.0
2018-08-03,28.36000061035156,28.270000457763672,28.32999992370605,28.36000061035156,14900.0
2018-08-06,28.440000534057614,28.375,28.43000030517578,28.434999465942386,5300.0
2018-08-07,28.60000038146973,28.60000038146973,28.60000038146973,28.60000038146973,1700.0
2018-08-08,28.489999771118164,28.489999771118164,28.489999771118164,28.489999771118164,1400.0
2018-08-09,28.57999992370605,28.51000022888184,28.57999992370605,28.520000457763672,2300.0
2018-08-10,28.32999992370605,28.31999969482422,28.32999992370605,28.31999969482422,1000.0
2018-08-13,28.25,28.13999938964844,28.184999465942386,28.25,5600.0
2018-08-14,28.3799991607666,28.19099998474121,28.270000457763672,28.3799991607666,7900.0
2018-08-15,28.15999984741211,28.15999984741211,28.15999984741211,28.15999984741211,7900.0
2018-08-16,28.420000076293945,28.38999938964844,28.38999938964844,28.420000076293945,1200.0
2018-08-17,28.604999542236328,28.60000038146973,28.60000038146973,28.604999542236328,800.0
2018-08-20,28.684999465942386,28.684999465942386,28.684999465942386,28.684999465942386,400.0
2018-08-21,28.84000015258789,28.81999969482422,28.84000015258789,28.84000015258789,2900.0
2018-08-22,28.79999923706055,28.79999923706055,28.79999923706055,28.79999923706055,800.0
2018-08-23,28.709999084472656,28.68000030517578,28.70000076293945,28.69499969482422,3100.0
2018-08-24,28.729999542236328,28.709999084472656,28.72500038146973,28.71999931335449,7900.0
2018-08-27,28.959999084472656,28.92499923706055,28.92499923706055,28.959999084472656,6000.0
2018-08-28,28.93000030517578,28.88999938964844,28.88999938964844,28.93000030517578,800.0
2018-08-29,29.0,28.88999938964844,28.88999938964844,28.989999771118164,4700.0
2018-08-30,28.989999771118164,28.989999771118164,28.989999771118164,28.989999771118164,0.0
2018-08-31,28.85000038146973,28.82500076293945,28.82500076293945,28.85000038146973,2000.0
2018-09-04,28.85000038146973,28.670000076293945,28.770000457763672,28.84499931335449,7200.0
2018-09-05,28.84499931335449,28.84499931335449,28.84499931335449,28.84499931335449,0.0
2018-09-06,28.84499931335449,28.84499931335449,28.84499931335449,28.84499931335449,0.0
2018-09-07,28.73500061035156,28.68000030517578,28.73500061035156,28.684999465942386,2200.0
2018-09-10,28.85000038146973,28.809999465942386,28.85000038146973,28.809999465942386,400.0
2018-09-11,28.86000061035156,28.6200008392334,28.665000915527344,28.86000061035156,11900.0
2018-09-12,28.770000457763672,28.649999618530273,28.70000076293945,28.770000457763672,4500.0
2018-09-13,28.770000457763672,28.770000457763672,28.770000457763672,28.770000457763672,0.0
2018-09-14,28.940000534057614,28.90999984741211,28.90999984741211,28.940000534057614,900.0
2018-09-17,28.95000076293945,28.76000022888184,28.940000534057614,28.76000022888184,1100.0
2018-09-18,28.989999771118164,28.82999992370605,28.940000534057614,28.989999771118164,5100.0
2018-09-19,29.059999465942386,29.038000106811523,29.038000106811523,29.04999923706055,2700.0
2018-09-20,29.007999420166016,29.007999420166016,29.007999420166016,29.007999420166016,100.0
2018-09-21,29.020000457763672,29.020000457763672,29.020000457763672,29.020000457763672,200.0
2018-09-24,28.8799991607666,28.78000068664551,28.8700008392334,28.78000068664551,2400.0
2018-09-25,28.770000457763672,28.68000030517578,28.68000030517578,28.70000076293945,2100.0
2018-09-26,28.716999053955078,28.59000015258789,28.59000015258789,28.70000076293945,18500.0
2018-09-27,28.520000457763672,28.520000457763672,28.520000457763672,28.520000457763672,300.0
2018-09-28,28.63999938964844,28.6299991607666,28.6299991607666,28.63999938964844,1400.0
2018-10-01,28.70800018310547,28.61000061035156,28.70800018310547,28.6200008392334,2400.0
2018-10-02,28.3700008392334,28.3700008392334,28.3700008392334,28.3700008392334,100.0
2018-10-03,28.63999938964844,28.459999084472656,28.51000022888184,28.559999465942386,5600.0
2018-10-04,28.559999465942386,28.559999465942386,28.559999465942386,28.559999465942386,0.0
2018-10-05,28.309999465942386,28.13999938964844,28.29999923706055,28.1879997253418,3800.0
2018-10-08,28.1879997253418,28.1879997253418,28.1879997253418,28.1879997253418,0.0
2018-10-09,28.18000030517578,28.04999923706055,28.11599922180176,28.11000061035156,6000.0
2018-10-10,27.690000534057614,27.690000534057614,27.690000534057614,27.690000534057614,3700.0
2018-10-11,27.190000534057614,26.68000030517578,27.190000534057614,26.90999984741211,2400.0
2018-10-12,26.875,26.61000061035156,26.875,26.6200008392334,5800.0
2018-10-15,26.93000030517578,26.93000030517578,26.93000030517578,26.93000030517578,38600.0
2018-10-16,27.32999992370605,27.07999992370605,27.07999992370605,27.32999992370605,2700.0
2018-10-17,27.13999938964844,27.1299991607666,27.13999938964844,27.13999938964844,5700.0
2018-10-18,27.270000457763672,26.920000076293945,27.26000022888184,26.920000076293945,400.0
2018-10-19,26.989999771118164,26.87800025939941,26.989999771118164,26.87800025939941,1900.0
2018-10-22,26.81999969482422,26.71500015258789,26.809999465942386,26.81999969482422,16700.0
2018-10-23,26.290000915527344,26.07500076293945,26.13999938964844,26.290000915527344,900.0
2018-10-24,26.61000061035156,26.01099967956543,26.61000061035156,26.01099967956543,32500.0
2018-10-25,26.084999084472656,26.03000068664551,26.04999923706055,26.084999084472656,7100.0
2018-10-26,25.65999984741211,25.65999984741211,25.65999984741211,25.65999984741211,500.0
2018-10-29,25.65999984741211,25.65999984741211,25.65999984741211,25.65999984741211,0.0
2018-10-30,26.13999938964844,25.989999771118164,26.09000015258789,26.06999969482422,23200.0
2018-10-31,26.51000022888184,26.40999984741211,26.40999984741211,26.51000022888184,500.0
2018-11-01,26.8700008392334,26.57999992370605,26.57999992370605,26.8700008392334,53500.0
2018-11-02,26.8700008392334,26.8700008392334,26.8700008392334,26.8700008392334,100.0
2018-11-05,27.03000068664551,26.875,26.875,27.03000068664551,3200.0
2018-11-06,27.03000068664551,27.03000068664551,27.03000068664551,27.03000068664551,0.0
2018-11-07,27.32500076293945,27.18000030517578,27.18000030517578,27.270000457763672,7800.0
2018-11-08,27.40999984741211,27.399999618530273,27.40999984741211,27.399999618530273,1100.0
2018-11-09,27.399999618530273,27.399999618530273,27.399999618530273,27.399999618530273,0.0
2018-11-12,27.209999084472656,27.209999084472656,27.209999084472656,27.209999084472656,100.0
2018-11-13,27.0,26.809999465942386,26.90999984741211,26.809999465942386,4400.0
2018-11-14,26.81999969482422,26.81999969482422,26.81999969482422,26.81999969482422,700.0
2018-11-15,26.875,26.51000022888184,26.51499938964844,26.875,1300.0
2018-11-16,26.8799991607666,26.84000015258789,26.84000015258789,26.8799991607666,2600.0
2018-11-19,26.983999252319336,26.649999618530273,26.983999252319336,26.65999984741211,2400.0
2018-11-20,26.399999618530273,26.184999465942386,26.334999084472656,26.190000534057614,20000.0
2018-11-21,26.649999618530273,26.57999992370605,26.649999618530273,26.57999992370605,4700.0
2018-11-23,26.57999992370605,26.57999992370605,26.57999992370605,26.57999992370605,0.0
2018-11-26,26.667999267578125,26.667999267578125,26.667999267578125,26.667999267578125,100.0
2018-11-27,26.57500076293945,26.45000076293945,26.4950008392334,26.45000076293945,1600.0
2018-11-28,26.56999969482422,26.56999969482422,26.56999969482422,26.56999969482422,300.0
2018-11-29,26.875,26.875,26.875,26.875,600.0
2018-11-30,27.024999618530273,27.024999618530273,27.024999618530273,27.024999618530273,800.0
2018-12-03,27.479999542236328,27.229999542236328,27.479999542236328,27.29999923706055,33700.0
2018-12-04,27.11000061035156,27.0,27.0,27.11000061035156,1500.0
2018-12-06,26.309999465942386,25.79999923706055,26.149999618530273,26.29999923706055,31900.0
2018-12-07,26.0,25.85000038146973,26.0,25.93400001525879,90000.0
2018-12-10,25.82600021362305,25.68000030517578,25.690000534057614,25.82600021362305,1700.0
2018-12-11,26.1200008392334,25.75300025939941,26.10000038146973,25.75300025939941,8200.0
2018-12-12,26.1299991607666,25.90099906921387,26.1299991607666,25.90099906921387,2700.0
2018-12-13,25.82999992370605,25.70000076293945,25.82999992370605,25.70400047302246,2700.0
2018-12-14,25.53000068664551,25.356000900268555,25.53000068664551,25.356000900268555,1200.0
2018-12-17,25.3700008392334,24.80500030517578,25.3700008392334,24.80500030517578,800.0
2018-12-18,25.065000534057614,24.81999969482422,25.05500030517578,24.84000015258789,80800.0
2018-12-19,25.059999465942386,24.468000411987305,25.0,24.468000411987305,3017900.0
2018-12-20,24.170000076293945,24.03199958801269,24.03199958801269,24.03499984741211,2400.0
2018-12-21,24.290000915527344,23.63500022888184,24.209999084472656,23.70199966430664,20300.0
2018-12-24,23.03000068664551,22.783000946044922,23.03000068664551,22.783000946044922,100.0
2018-12-26,23.69700050354004,23.239999771118164,23.270000457763672,23.69700050354004,20300.0
2018-12-27,23.81999969482422,23.091999053955078,23.43600082397461,23.79199981689453,184700.0
2018-12-28,24.04199981689453,23.76000022888184,23.968000411987305,23.83300018310547,21200.0
2018-12-31,23.972999572753906,23.840999603271484,23.85000038146973,23.972999572753906,400.0
2019-01-02,24.020000457763672,23.82999992370605,23.82999992370605,24.00900077819824,1000.0
2019-01-03,23.81999969482422,23.673999786376953,23.79999923706055,23.673999786376953,6000.0
2019-01-04,24.434999465942386,24.13999938964844,24.165000915527344,24.3700008392334,46600.0
2019-01-07,24.790000915527344,24.4379997253418,24.440000534057614,24.631000518798828,17500.0
2019-01-08,24.92099952697754,24.69499969482422,24.709999084472656,24.92099952697754,500.0
2019-01-09,25.090999603271484,25.01000022888184,25.01000022888184,25.090999603271484,400.0
2019-01-10,25.24600028991699,24.910999298095703,24.910999298095703,25.24600028991699,1400.0
2019-01-11,25.270000457763672,25.13999938964844,25.15999984741211,25.270000457763672,500.0
2019-01-14,25.21999931335449,25.173999786376953,25.21999931335449,25.173999786376953,400.0
2019-01-15,25.30100059509277,25.21999931335449,25.21999931335449,25.30100059509277,200.0
2019-01-16,25.46299934387207,25.3799991607666,25.40999984741211,25.46299934387207,500.0
2019-01-17,25.636999130249023,25.43000030517578,25.43000030517578,25.636999130249023,1400.0
2019-01-18,26.000999450683594,25.8700008392334,25.8700008392334,26.000999450683594,200.0
2019-01-22,25.809999465942386,25.625,25.809999465942386,25.625,3800.0
2019-01-23,25.774999618530273,25.45000076293945,25.75,25.670000076293945,11400.0
2019-01-24,25.791000366210934,25.690000534057614,25.690000534057614,25.791000366210934,7800.0
2019-01-25,26.04199981689453,26.03199958801269,26.03199958801269,26.04199981689453,100.0
2019-01-28,25.97400093078613,25.85000038146973,25.85000038146973,25.97400093078613,900.0
2019-01-29,26.11000061035156,26.045000076293945,26.11000061035156,26.045000076293945,19900.0
2019-01-30,26.31999969482422,26.09000015258789,26.13999938964844,26.292999267578125,27300.0
2019-01-31,26.43000030517578,26.290000915527344,26.31999969482422,26.43000030517578,3500.0
2019-02-01,26.53499984741211,26.399999618530273,26.5049991607666,26.492000579833984,10000.0
2019-02-04,26.68000030517578,26.489999771118164,26.53000068664551,26.65500068664551,2300.0
2019-02-05,26.770999908447266,26.65500068664551,26.68000030517578,26.770999908447266,34600.0
2019-02-06,26.739999771118164,26.670000076293945,26.70000076293945,26.739999771118164,10600.0
2019-02-07,26.625,26.459999084472656,26.625,26.589000701904297,17400.0
2019-02-08,26.565000534057614,26.440000534057614,26.440000534057614,26.565000534057614,500.0
2019-02-11,26.70000076293945,26.68000030517578,26.68000030517578,26.70000076293945,1600.0
2019-02-12,26.97900009155273,26.899999618530273,26.899999618530273,26.97900009155273,900.0
2019-02-13,27.1200008392334,27.059999465942386,27.07999992370605,27.059999465942386,1900.0
2019-02-14,27.10000038146973,27.0049991607666,27.020000457763672,27.08099937438965,1700.0
2019-02-15,27.34700012207031,27.26000022888184,27.26000022888184,27.34700012207031,3800.0
2019-02-19,27.45000076293945,27.28000068664551,27.28000068664551,27.41900062561035,1000.0
2019-02-20,27.50300025939941,27.36000061035156,27.36000061035156,27.50300025939941,13400.0
2019-02-21,27.42099952697754,27.3799991607666,27.38500022888184,27.42099952697754,19400.0
2019-02-22,27.54999923706055,27.440000534057614,27.54999923706055,27.53000068664551,3700.0
2019-02-25,27.71999931335449,27.51799964904785,27.670000076293945,27.51799964904785,2800.0
2019-02-26,27.48500061035156,27.42600059509277,27.48500061035156,27.42600059509277,2200.0
2019-02-27,27.46299934387207,27.34000015258789,27.34000015258789,27.46299934387207,2400.0
2019-02-28,27.38999938964844,27.354999542236328,27.38999938964844,27.38999938964844,2300.0
2019-03-01,27.59499931335449,27.55200004577637,27.59499931335449,27.55200004577637,1000.0
2019-03-04,27.61000061035156,27.290000915527344,27.559999465942386,27.38999938964844,5000.0
2019-03-05,27.420000076293945,27.32999992370605,27.32999992370605,27.39299964904785,9500.0
2019-03-06,27.170000076293945,27.13599967956543,27.165000915527344,27.13599967956543,2600.0
2019-03-07,26.95499992370605,26.90399932861328,26.940000534057614,26.90399932861328,3700.0
2019-03-08,26.839000701904297,26.839000701904297,26.839000701904297,26.839000701904297,100.0
2019-03-11,27.14699935913086,27.06999969482422,27.11000061035156,27.14699935913086,13100.0
2019-03-12,27.197999954223636,27.197999954223636,27.197999954223636,27.197999954223636,0.0
2019-03-13,27.35300064086914,27.35300064086914,27.35300064086914,27.35300064086914,100.0
2019-03-14,27.3129997253418,27.26000022888184,27.270000457763672,27.3129997253418,1600.0
2019-03-15,27.43000030517578,27.37400054931641,27.420000076293945,27.37400054931641,11000.0
2019-03-18,27.5,27.489999771118164,27.489999771118164,27.489999771118164,500.0
2019-03-19,27.56999969482422,27.364999771118164,27.56999969482422,27.364999771118164,200.0
2019-03-20,27.29999923706055,27.18000030517578,27.29999923706055,27.18000030517578,1900.0
2019-03-21,27.489999771118164,27.382999420166016,27.382999420166016,27.489999771118164,300.0
2019-03-22,27.239999771118164,26.93099975585937,27.239999771118164,26.93099975585937,145900.0
2019-03-25,27.0049991607666,26.84000015258789,27.0049991607666,26.920000076293945,4500.0
2019-03-26,27.145999908447266,26.88999938964844,26.88999938964844,27.145999908447266,2400.0
2019-03-27,27.13999938964844,26.96999931335449,26.96999931335449,27.1200008392334,1500.0
2019-03-28,27.29599952697754,27.29599952697754,27.29599952697754,27.29599952697754,0.0
2019-03-29,27.479999542236328,27.40999984741211,27.40999984741211,27.42900085449219,1800.0
2019-04-01,27.79700088500977,27.6200008392334,27.63999938964844,27.79700088500977,6400.0
2019-04-02,27.70000076293945,27.70000076293945,27.70000076293945,27.70000076293945,3700.0
2019-04-03,27.8700008392334,27.729999542236328,27.8700008392334,27.8700008392334,353800.0
2019-04-04,27.91900062561035,27.88999938964844,27.88999938964844,27.91900062561035,1400.0
2019-04-05,28.093000411987305,28.06999969482422,28.06999969482422,28.093000411987305,200.0
2019-04-08,28.10099983215332,27.983999252319336,27.983999252319336,28.10099983215332,900.0
2019-04-09,27.82900047302246,27.82900047302246,27.82900047302246,27.82900047302246,0.0
2019-04-10,28.03499984741211,27.95000076293945,27.95000076293945,28.00200080871582,3400.0
2019-04-11,28.089000701904297,28.03000068664551,28.040000915527344,28.089000701904297,68100.0
2019-04-12,28.315000534057614,28.21999931335449,28.21999931335449,28.315000534057614,200.0
2019-04-15,28.25,28.215999603271484,28.215999603271484,28.25,1700.0
2019-04-16,28.25,28.2450008392334,28.25,28.2450008392334,200.0
2019-04-17,28.12800025939941,28.12800025939941,28.12800025939941,28.12800025939941,0.0
2019-04-18,28.13999938964844,28.06999969482422,28.09000015258789,28.13999938964844,14800.0
2019-04-22,28.07600021362305,28.01000022888184,28.01000022888184,28.07600021362305,34100.0
2019-04-23,28.356000900268555,28.356000900268555,28.356000900268555,28.356000900268555,0.0
2019-04-24,28.38999938964844,28.36000061035156,28.38999938964844,28.36000061035156,600.0
2019-04-25,28.26000022888184,28.170000076293945,28.239999771118164,28.170000076293945,248900.0
2019-04-26,28.35300064086914,28.26000022888184,28.26000022888184,28.35300064086914,46000.0
2019-04-29,28.40299987792969,28.36000061035156,28.36000061035156,28.382999420166016,12700.0
2019-04-30,28.43899917602539,28.399999618530273,28.399999618530273,28.43899917602539,1300.0
2019-05-01,28.26099967956543,28.170000076293945,28.25,28.170000076293945,500.0
2019-05-02,28.170000076293945,28.149999618530273,28.15999984741211,28.15999984741211,4000.0
2019-05-03,28.482999801635746,28.482999801635746,28.482999801635746,28.482999801635746,0.0
2019-05-06,28.35099983215332,28.239999771118164,28.26000022888184,28.32999992370605,4500.0
2019-05-07,27.92300033569336,27.92300033569336,27.92300033569336,27.92300033569336,0.0
2019-05-08,28.0,27.90999984741211,27.96999931335449,27.920000076293945,6300.0
2019-05-09,27.82999992370605,27.82999992370605,27.82999992370605,27.82999992370605,0.0
2019-05-10,27.89299964904785,27.71999931335449,27.71999931335449,27.89299964904785,5000.0
2019-05-13,27.243999481201172,27.18000030517578,27.18000030517578,27.243999481201172,100.0
2019-05-14,27.54999923706055,27.399999618530273,27.40999984741211,27.440000534057614,25400.0
2019-05-15,27.55500030517578,27.55500030517578,27.55500030517578,27.55500030517578,0.0
2019-05-16,27.86000061035156,27.72200012207031,27.770000457763672,27.72200012207031,17100.0
2019-05-17,27.559999465942386,27.54599952697754,27.559999465942386,27.54599952697754,10000.0
2019-05-20,27.464000701904297,27.26000022888184,27.459999084472656,27.36400032043457,1300.0
2019-05-21,27.643999099731445,27.5,27.5,27.643999099731445,1100.0
2019-05-22,27.54999923706055,27.459999084472656,27.54999923706055,27.459999084472656,12800.0
2019-05-23,27.15999984741211,27.03000068664551,27.149999618530273,27.11000061035156,6000.0
2019-05-24,27.2189998626709,27.209999084472656,27.209999084472656,27.2189998626709,500.0
2019-05-28,26.97400093078613,26.97400093078613,26.97400093078613,26.97400093078613,0.0
2019-05-29,26.80500030517578,26.690000534057614,26.709999084472656,26.770000457763672,10800.0
2019-05-30,26.79599952697754,26.79599952697754,26.79599952697754,26.79599952697754,0.0
2019-05-31,26.56999969482422,26.52199935913086,26.56999969482422,26.52199935913086,200.0
2019-06-03,26.708999633789066,26.65999984741211,26.65999984741211,26.708999633789066,500.0
2019-06-04,27.27899932861328,27.27899932861328,27.27899932861328,27.27899932861328,0.0
2019-06-05,27.45499992370605,27.34000015258789,27.34000015258789,27.45499992370605,2000.0
2019-06-06,27.55100059509277,27.55100059509277,27.55100059509277,27.55100059509277,0.0
2019-06-07,27.729999542236328,27.68000030517578,27.729999542236328,27.68000030517578,3200.0
2019-06-10,27.80699920654297,27.80699920654297,27.80699920654297,27.80699920654297,0.0
2019-06-11,27.78199958801269,27.78199958801269,27.78199958801269,27.78199958801269,0.0
2019-06-12,27.733999252319336,27.70000076293945,27.70000076293945,27.733999252319336,300.0
2019-06-13,27.86400032043457,27.86400032043457,27.86400032043457,27.86400032043457,0.0
2019-06-14,27.82500076293945,27.72200012207031,27.72200012207031,27.82500076293945,3100.0
2019-06-17,27.756999969482425,27.756999969482425,27.756999969482425,27.756999969482425,0.0
2019-06-18,28.02599906921387,28.020000457763672,28.020000457763672,28.02599906921387,600.0
2019-06-19,28.131000518798828,28.07999992370605,28.07999992370605,28.131000518798828,3500.0
2019-06-20,28.39800071716309,28.18000030517578,28.18000030517578,28.39800071716309,9800.0
2019-06-21,28.28000068664551,28.25,28.25,28.268999099731445,2500.0
2019-06-24,28.09000015258789,28.00399971008301,28.09000015258789,28.00399971008301,3300.0
2019-06-25,27.79999923706055,27.79999923706055,27.79999923706055,27.79999923706055,11000.0
2019-06-26,27.84000015258789,27.77300071716309,27.834999084472656,27.77300071716309,106400.0
2019-06-27,27.981000900268555,27.85000038146973,27.85000038146973,27.981000900268555,5900.0
2019-06-28,28.23500061035156,28.145000457763672,28.145000457763672,28.23500061035156,1200.0
2019-07-01,28.42799949645996,28.31999969482422,28.3700008392334,28.42799949645996,3400.0
2019-07-02,28.39299964904785,28.39299964904785,28.39299964904785,28.39299964904785,100.0
2019-07-03,28.64800071716309,28.64800071716309,28.64800071716309,28.64800071716309,0.0
2019-07-05,28.62100028991699,28.62100028991699,28.62100028991699,28.62100028991699,0.0
2019-07-08,28.47400093078613,28.47400093078613,28.47400093078613,28.47400093078613,0.0
2019-07-09,28.457000732421875,28.457000732421875,28.457000732421875,28.457000732421875,0.0
2019-07-10,28.45199966430664,28.45199966430664,28.45199966430664,28.45199966430664,0.0
2019-07-11,28.47200012207031,28.47200012207031,28.47200012207031,28.47200012207031,0.0
2019-07-12,28.7189998626709,28.7189998626709,28.7189998626709,28.7189998626709,100.0
2019-07-15,28.636999130249023,28.636999130249023,28.636999130249023,28.636999130249023,0.0
2019-07-16,28.690000534057614,28.665000915527344,28.690000534057614,28.66900062561035,500.0
2019-07-17,28.4379997253418,28.4379997253418,28.4379997253418,28.4379997253418,100.0
2019-07-18,28.55500030517578,28.34000015258789,28.34000015258789,28.479999542236328,6800.0
2019-07-19,28.51000022888184,28.4379997253418,28.51000022888184,28.4379997253418,1200.0
2019-07-22,28.399999618530273,28.391000747680664,28.399999618530273,28.391000747680664,4300.0
2019-07-23,28.70000076293945,28.54400062561035,28.54400062561035,28.70000076293945,3700.0
2019-07-24,28.92799949645996,28.891000747680664,28.891000747680664,28.90699958801269,1500.0
2019-07-25,28.84000015258789,28.70000076293945,28.84000015258789,28.70000076293945,5300.0
2019-07-26,28.91200065612793,28.81999969482422,28.81999969482422,28.91200065612793,100.0
2019-07-29,28.8799991607666,28.790000915527344,28.790000915527344,28.8700008392334,22500.0
2019-07-30,28.86000061035156,28.770000457763672,28.770000457763672,28.86000061035156,2100.0
2019-07-31,28.85000038146973,28.614999771118164,28.85000038146973,28.614999771118164,200.0
2019-08-01,28.739999771118164,28.16699981689453,28.56999969482422,28.16699981689453,24900.0
2019-08-02,28.0,27.86000061035156,28.0,27.92900085449219,400.0
2019-08-05,27.32999992370605,27.17600059509277,27.32999992370605,27.17600059509277,2400.0
2019-08-06,27.472999572753906,27.309999465942386,27.309999465942386,27.472999572753906,900.0
2019-08-07,27.545000076293945,27.34000015258789,27.34000015258789,27.545000076293945,4700.0
2019-08-08,28.04999923706055,27.989999771118164,27.989999771118164,28.011999130249023,700.0
2019-08-09,27.899999618530273,27.68000030517578,27.68000030517578,27.809999465942386,5800.0
2019-08-12,27.5,27.420000076293945,27.489999771118164,27.420000076293945,1500.0
2019-08-13,27.722999572753906,27.722999572753906,27.722999572753906,27.722999572753906,100.0
2019-08-14,26.97400093078613,26.97400093078613,26.97400093078613,26.97400093078613,200.0
2019-08-15,26.993000030517575,26.81100082397461,26.815000534057614,26.993000030517575,1600.0
2019-08-16,27.41900062561035,27.20000076293945,27.20000076293945,27.41900062561035,3500.0
2019-08-19,27.72200012207031,27.72200012207031,27.72200012207031,27.72200012207031,0.0
2019-08-20,27.59499931335449,27.489999771118164,27.57999992370605,27.489999771118164,1500.0
2019-08-21,27.70000076293945,27.63999938964844,27.670000076293945,27.63999938964844,21800.0
2019-08-22,27.729999542236328,27.670000076293945,27.729999542236328,27.670000076293945,18400.0
2019-08-23,27.190000534057614,26.96999931335449,27.190000534057614,26.96999931335449,4000.0
2019-08-26,27.17300033569336,27.07999992370605,27.07999992370605,27.17300033569336,38800.0
2019-08-27,27.04999923706055,27.04999923706055,27.04999923706055,27.04999923706055,0.0
2019-08-28,27.21999931335449,27.040000915527344,27.040000915527344,27.21999931335449,7500.0
2019-08-29,27.638999938964844,27.638999938964844,27.638999938964844,27.638999938964844,0.0
2019-08-30,27.715999603271484,27.715999603271484,27.715999603271484,27.715999603271484,0.0
2019-09-03,27.493000030517575,27.493000030517575,27.493000030517575,27.493000030517575,0.0
2019-09-04,27.770000457763672,27.670000076293945,27.670000076293945,27.770000457763672,16600.0
2019-09-05,28.1879997253418,28.1299991607666,28.13999938964844,28.1879997253418,600.0
2019-09-06,28.246999740600586,28.246999740600586,28.246999740600586,28.246999740600586,0.0
2019-09-09,28.42300033569336,28.42300033569336,28.42300033569336,28.42300033569336,0.0
2019-09-10,28.51499938964844,28.51499938964844,28.51499938964844,28.51499938964844,0.0
2019-09-11,28.75900077819824,28.559999465942386,28.59000015258789,28.75900077819824,600.0
2019-09-12,28.79800033569336,28.649999618530273,28.649999618530273,28.79800033569336,2300.0
2019-09-13,28.80400085449219,28.80400085449219,28.80400085449219,28.80400085449219,0.0
2019-09-16,28.93000030517578,28.76799964904785,28.93000030517578,28.81100082397461,900.0
2019-09-17,28.795000076293945,28.71999931335449,28.75,28.795000076293945,16600.0
2019-09-18,28.763999938964844,28.70000076293945,28.70000076293945,28.763999938964844,500.0
2019-09-19,28.84000015258789,28.708999633789066,28.84000015258789,28.708999633789066,900.0
2019-09-20,28.834999084472656,28.638999938964844,28.790000915527344,28.638999938964844,900.0
2019-09-23,28.649999618530273,28.56999969482422,28.56999969482422,28.57200050354004,10400.0
2019-09-24,28.340999603271484,28.32999992370605,28.32999992370605,28.340999603271484,100.0
2019-09-25,28.55299949645996,28.55299949645996,28.55299949645996,28.55299949645996,0.0
2019-09-26,28.5,28.440000534057614,28.489999771118164,28.440000534057614,1300.0
2019-09-27,28.341999053955078,28.341999053955078,28.341999053955078,28.341999053955078,0.0
2019-09-30,28.50900077819824,28.50900077819824,28.50900077819824,28.50900077819824,0.0
2019-10-01,28.07600021362305,28.07600021362305,28.07600021362305,28.07600021362305,0.0
2019-10-02,27.82999992370605,27.46999931335449,27.82999992370605,27.559999465942386,4800.0
2019-10-03,27.714000701904297,27.63400077819824,27.63400077819824,27.714000701904297,100.0
2019-10-04,28.041000366210934,28.041000366210934,28.041000366210934,28.041000366210934,0.0
2019-10-07,27.979999542236328,27.93600082397461,27.979999542236328,27.93600082397461,7800.0
2019-10-08,27.45000076293945,27.45000076293945,27.45000076293945,27.45000076293945,0.0
2019-10-09,27.660999298095703,27.57999992370605,27.57999992370605,27.660999298095703,900.0
2019-10-10,27.83099937438965,27.82699966430664,27.82699966430664,27.83099937438965,100.0
2019-10-11,28.3799991607666,28.22200012207031,28.3799991607666,28.22200012207031,4600.0
2019-10-14,28.131999969482425,28.131999969482425,28.131999969482425,28.131999969482425,0.0
2019-10-15,28.35300064086914,28.35300064086914,28.35300064086914,28.35300064086914,0.0
2019-10-16,28.316999435424805,28.316999435424805,28.316999435424805,28.316999435424805,0.0
2019-10-17,28.48600006103516,28.40500068664551,28.48600006103516,28.40500068664551,100.0
2019-10-18,28.47900009155273,28.47900009155273,28.47900009155273,28.47900009155273,0.0
2019-10-21,28.617000579833984,28.617000579833984,28.617000579833984,28.617000579833984,0.0
2019-10-22,28.6299991607666,28.62400054931641,28.6299991607666,28.62400054931641,400.0
2019-10-23,28.66200065612793,28.60000038146973,28.604999542236328,28.66200065612793,3600.0
2019-10-24,28.69899940490723,28.69899940490723,28.69899940490723,28.69899940490723,0.0
2019-10-25,28.78899955749512,28.78899955749512,28.78899955749512,28.78899955749512,0.0
2019-10-28,28.87700080871582,28.87700080871582,28.87700080871582,28.87700080871582,0.0
2019-10-29,28.90200042724609,28.90200042724609,28.90200042724609,28.90200042724609,0.0
2019-10-30,28.937000274658203,28.937000274658203,28.937000274658203,28.937000274658203,0.0
2019-10-31,28.75900077819824,28.75900077819824,28.75900077819824,28.75900077819824,0.0
2019-11-01,29.10300064086914,29.09000015258789,29.09000015258789,29.10300064086914,100.0
2019-11-04,29.27700042724609,29.239999771118164,29.25,29.27700042724609,20400.0
2019-11-05,29.3129997253418,29.3129997253418,29.3129997253418,29.3129997253418,0.0
2019-11-06,29.27700042724609,29.21999931335449,29.270999908447266,29.27700042724609,1900.0
2019-11-07,29.290000915527344,29.28000068664551,29.290000915527344,29.28000068664551,7300.0
2019-11-08,29.371999740600586,29.29999923706055,29.29999923706055,29.371999740600586,4600.0
2019-11-11,29.34499931335449,29.340999603271484,29.340999603271484,29.34499931335449,100.0
2019-11-12,29.336000442504886,29.336000442504886,29.336000442504886,29.336000442504886,0.0
2019-11-13,29.31800079345703,29.29999923706055,29.29999923706055,29.31800079345703,1700.0
2019-11-14,29.459999084472656,29.416000366210934,29.440000534057614,29.416000366210934,4600.0
2019-11-15,29.57900047302246,29.540000915527344,29.540000915527344,29.57900047302246,2000.0
2019-11-18,29.548999786376953,29.51000022888184,29.51000022888184,29.548999786376953,2000.0
2019-11-19,29.58300018310547,29.58300018310547,29.58300018310547,29.58300018310547,0.0
2019-11-20,29.472999572753906,29.472999572753906,29.472999572753906,29.472999572753906,0.0
2019-11-21,29.35099983215332,29.35099983215332,29.35099983215332,29.35099983215332,0.0
2019-11-22,29.42900085449219,29.3799991607666,29.38999938964844,29.42900085449219,2400.0
2019-11-25,29.63999938964844,29.6299991607666,29.63999938964844,29.6299991607666,5800.0
2019-11-26,29.78000068664551,29.70000076293945,29.72500038146973,29.78000068664551,2000.0
2019-11-27,29.9060001373291,29.9060001373291,29.9060001373291,29.9060001373291,0.0
2019-11-29,29.763999938964844,29.763999938964844,29.763999938964844,29.763999938964844,0.0
2019-12-02,29.809999465942386,29.53700065612793,29.770000457763672,29.53700065612793,8700.0
2019-12-03,29.32500076293945,29.32500076293945,29.32500076293945,29.32500076293945,0.0
2019-12-04,29.52899932861328,29.52899932861328,29.52899932861328,29.52899932861328,100.0
2019-12-05,29.57999992370605,29.5,29.520000457763672,29.57999992370605,6700.0
2019-12-06,29.85000038146973,29.84700012207031,29.85000038146973,29.84700012207031,500.0
2019-12-09,29.78000068664551,29.739999771118164,29.78000068664551,29.770999908447266,6200.0
2019-12-10,29.71999931335449,29.709999084472656,29.709999084472656,29.71999931335449,1500.0
2019-12-11,29.77700042724609,29.70000076293945,29.70000076293945,29.77700042724609,11400.0
2019-12-12,30.10000038146973,29.95000076293945,29.95000076293945,30.08799934387207,9800.0
2019-12-13,29.97500038146973,29.920000076293945,29.95499992370605,29.97500038146973,2200.0
2019-12-16,30.170000076293945,30.170000076293945,30.170000076293945,30.170000076293945,0.0
2019-12-17,30.21299934387207,30.21299934387207,30.21299934387207,30.21299934387207,0.0
2019-12-18,30.25,30.15999984741211,30.15999984741211,30.25,3500.0
2019-12-19,30.31999969482422,30.270999908447266,30.27199935913086,30.31999969482422,300.0
2019-12-20,30.540000915527344,30.459999084472656,30.489999771118164,30.507999420166016,2100.0
2019-12-23,30.2450008392334,30.231000900268555,30.239999771118164,30.231000900268555,4900.0
2019-12-24,30.2549991607666,30.25,30.25,30.2549991607666,600.0
2019-12-26,30.29800033569336,30.29800033569336,30.29800033569336,30.29800033569336,0.0
2019-12-27,30.28000068664551,30.28000068664551,30.28000068664551,30.28000068664551,100.0
2019-12-30,30.239999771118164,30.18600082397461,30.239999771118164,30.18600082397461,400.0
2019-12-31,30.239999771118164,30.239999771118164,30.239999771118164,30.239999771118164,800.0
2020-01-02,30.459999084472656,30.32699966430664,30.459999084472656,30.32699966430664,300.0
2020-01-03,30.23600006103516,30.23600006103516,30.23600006103516,30.23600006103516,100.0
2020-01-06,30.190000534057614,30.1879997253418,30.190000534057614,30.1879997253418,200.0
2020-01-07,30.13999938964844,30.13999938964844,30.13999938964844,30.13999938964844,0.0
2020-01-08,30.215999603271484,30.215999603271484,30.215999603271484,30.215999603271484,0.0
2020-01-09,30.308000564575195,30.270000457763672,30.30100059509277,30.308000564575195,500.0
2020-01-10,30.207000732421875,30.207000732421875,30.207000732421875,30.207000732421875,100.0
2020-01-13,30.40900039672852,30.40900039672852,30.40900039672852,30.40900039672852,100.0
2020-01-14,30.459999084472656,30.459999084472656,30.459999084472656,30.459999084472656,100.0
2020-01-15,30.50900077819824,30.50900077819824,30.50900077819824,30.50900077819824,100.0
2020-01-16,30.790000915527344,30.70000076293945,30.7450008392334,30.790000915527344,500.0
2020-01-17,30.85700035095215,30.85700035095215,30.85700035095215,30.85700035095215,0.0
2020-01-21,30.71999931335449,30.520000457763672,30.71999931335449,30.69700050354004,1400.0
2020-01-22,30.690000534057614,30.670000076293945,30.670000076293945,30.690000534057614,800.0
2020-01-23,30.743000030517575,30.743000030517575,30.743000030517575,30.743000030517575,0.0
2020-01-24,30.417999267578125,30.31999969482422,30.34000015258789,30.417999267578125,2500.0
2020-01-27,30.020000457763672,29.97100067138672,30.020000457763672,29.97100067138672,200.0
2020-01-28,30.24600028991699,30.24600028991699,30.24600028991699,30.24600028991699,0.0
2020-01-29,30.27899932861328,30.1560001373291,30.27899932861328,30.1560001373291,700.0
2020-01-30,30.16900062561035,30.16900062561035,30.16900062561035,30.16900062561035,0.0
2020-01-31,29.6299991607666,29.60000038146973,29.6299991607666,29.60000038146973,4100.0
2020-02-03,29.886999130249023,29.670000076293945,29.670000076293945,29.79400062561035,500.0
2020-02-04,30.21999931335449,30.14800071716309,30.21999931335449,30.14800071716309,3200.0
2020-02-05,30.569000244140625,30.569000244140625,30.569000244140625,30.569000244140625,0.0
2020-02-06,30.54999923706055,30.53000068664551,30.53000068664551,30.54999923706055,40800.0
2020-02-07,30.35000038146973,30.26099967956543,30.35000038146973,30.26099967956543,100.0
2020-02-10,30.35400009155273,30.270000457763672,30.290000915527344,30.35400009155273,2500.0
2020-02-11,30.56399917602539,30.56399917602539,30.56399917602539,30.56399917602539,100.0
2020-02-12,30.77300071716309,30.709999084472656,30.709999084472656,30.77300071716309,300.0
2020-02-13,30.77899932861328,30.77899932861328,30.77899932861328,30.77899932861328,100.0
2020-02-14,30.790000915527344,30.77899932861328,30.790000915527344,30.77899932861328,1000.0
2020-02-18,30.69700050354004,30.69700050354004,30.69700050354004,30.69700050354004,0.0
2020-02-19,30.82999992370605,30.809999465942386,30.809999465942386,30.82900047302246,8600.0
2020-02-20,30.841999053955078,30.841999053955078,30.841999053955078,30.841999053955078,0.0
2020-02-21,30.57600021362305,30.57600021362305,30.57600021362305,30.57600021362305,100.0
2020-02-24,29.690000534057614,29.690000534057614,29.690000534057614,29.690000534057614,100.0
2020-02-25,28.899999618530273,28.673999786376953,28.899999618530273,28.673999786376953,300.0
2020-02-26,28.32900047302246,28.32900047302246,28.32900047302246,28.32900047302246,100.0
2020-02-27,27.82999992370605,27.246999740600586,27.54999923706055,27.246999740600586,2700.0
2020-02-28,26.617000579833984,26.35000038146973,26.45000076293945,26.617000579833984,1900.0
2020-03-02,27.65699958801269,26.75,26.75,27.65699958801269,3600.0
2020-03-03,27.07600021362305,27.0,27.0,27.07600021362305,100.0
2020-03-04,28.04800033569336,27.36000061035156,27.36000061035156,28.04800033569336,2600.0
2020-03-05,26.996999740600586,26.996999740600586,26.996999740600586,26.996999740600586,100.0
2020-03-06,26.52899932861328,26.06999969482422,26.06999969482422,26.52899932861328,300.0
2020-03-09,24.28499984741211,23.979999542236328,24.11000061035156,24.28499984741211,1100.0
2020-03-10,25.21999931335449,24.979999542236328,25.01000022888184,25.21999931335449,900.0
2020-03-11,24.040000915527344,23.8439998626709,24.040000915527344,23.8439998626709,200.0
2020-03-12,21.6299991607666,20.700000762939453,21.26000022888184,21.565000534057614,284800.0
2020-03-13,22.867000579833984,22.867000579833984,22.867000579833984,22.867000579833984,100.0
2020-03-16,20.239999771118164,20.239999771118164,20.239999771118164,20.239999771118164,100.0
2020-03-17,21.01000022888184,20.98600006103516,21.0,20.98600006103516,200.0
2020-03-18,19.34499931335449,19.34499931335449,19.34499931335449,19.34499931335449,200.0
2020-03-19,19.66699981689453,19.66699981689453,19.66699981689453,19.66699981689453,0.0
2020-03-20,19.290000915527344,18.768999099731445,19.290000915527344,18.768999099731445,200.0
2020-03-23,17.930999755859375,17.930999755859375,17.930999755859375,17.930999755859375,0.0
2020-03-24,19.68199920654297,19.68199920654297,19.68199920654297,19.68199920654297,0.0
2020-03-25,20.525999069213867,20.525999069213867,20.525999069213867,20.525999069213867,0.0
2020-03-26,21.66200065612793,21.66200065612793,21.66200065612793,21.66200065612793,0.0
2020-03-27,21.03700065612793,20.916000366210934,20.916000366210934,20.996999740600586,400.0
2020-03-30,21.444000244140625,21.444000244140625,21.444000244140625,21.444000244140625,100.0
2020-03-31,21.440000534057614,21.08300018310547,21.440000534057614,21.08300018310547,100.0
2020-04-01,20.07999992370605,19.992000579833984,20.0310001373291,19.992000579833984,3300.0
2020-04-02,20.21500015258789,20.200000762939453,20.200000762939453,20.21500015258789,3000.0
2020-04-03,19.770999908447266,19.65999984741211,19.66200065612793,19.770999908447266,900.0
2020-04-06,19.770999908447266,19.770999908447266,19.770999908447266,19.770999908447266,0.0
2020-04-07,21.334999084472656,21.334999084472656,21.334999084472656,21.334999084472656,0.0
2020-04-08,21.641000747680664,21.641000747680664,21.641000747680664,21.641000747680664,0.0
2020-04-09,22.533000946044922,22.533000946044922,22.533000946044922,22.533000946044922,0.0
2020-04-13,22.95000076293945,22.589000701904297,22.95000076293945,22.589000701904297,200.0
2020-04-14,22.589000701904297,22.589000701904297,22.589000701904297,22.589000701904297,0.0
2020-04-15,23.06599998474121,23.06599998474121,23.06599998474121,23.06599998474121,0.0
2020-04-16,22.26499938964844,22.26499938964844,22.26499938964844,22.26499938964844,0.0
2020-04-17,23.08099937438965,22.81999969482422,22.81999969482422,23.08099937438965,400.0
2020-04-20,23.08099937438965,23.08099937438965,23.08099937438965,23.08099937438965,0.0
2020-04-21,22.645000457763672,22.645000457763672,22.645000457763672,22.645000457763672,0.0
2020-04-22,22.003000259399414,22.003000259399414,22.003000259399414,22.003000259399414,0.0
2020-04-23,22.375999450683594,22.375999450683594,22.375999450683594,22.375999450683594,0.0
2020-04-24,22.44300079345703,22.44300079345703,22.44300079345703,22.44300079345703,0.0
2020-04-27,23.46299934387207,23.0,23.0,23.46299934387207,200.0
2020-04-28,23.46299934387207,23.46299934387207,23.46299934387207,23.46299934387207,0.0
2020-04-29,23.726999282836914,23.726999282836914,23.726999282836914,23.726999282836914,0.0
2020-04-30,23.92600059509277,23.81999969482422,23.82999992370605,23.92600059509277,5200.0
2020-05-01,23.92600059509277,23.92600059509277,23.92600059509277,23.92600059509277,0.0
2020-05-04,23.09000015258789,22.79999923706055,22.79999923706055,23.09000015258789,100.0
2020-05-05,23.43199920654297,23.28000068664551,23.43000030517578,23.28000068664551,300.0
2020-05-06,23.28000068664551,23.28000068664551,23.28000068664551,23.28000068664551,0.0
2020-05-07,23.333999633789066,23.333999633789066,23.333999633789066,23.333999633789066,0.0
2020-05-08,23.333999633789066,23.333999633789066,23.333999633789066,23.333999633789066,0.0
2020-05-11,23.992000579833984,23.992000579833984,23.992000579833984,23.992000579833984,0.0
2020-05-12,23.160999298095703,23.160999298095703,23.160999298095703,23.160999298095703,0.0
2020-05-13,22.415000915527344,22.415000915527344,22.415000915527344,22.415000915527344,0.0
2020-05-14,22.722999572753906,22.722999572753906,22.722999572753906,22.722999572753906,0.0
2020-05-15,22.81999969482422,22.6200008392334,22.6200008392334,22.81999969482422,1500.0
2020-05-18,24.00399971008301,23.940000534057614,23.940000534057614,24.00399971008301,2900.0
2020-05-19,23.75900077819824,23.75900077819824,23.75900077819824,23.75900077819824,100.0
2020-05-20,24.118000030517575,24.118000030517575,24.118000030517575,24.118000030517575,0.0
2020-05-21,24.06999969482422,24.06999969482422,24.06999969482422,24.06999969482422,100.0
2020-05-22,24.069000244140625,24.069000244140625,24.069000244140625,24.069000244140625,0.0
2020-05-26,24.79999923706055,24.79999923706055,24.79999923706055,24.79999923706055,0.0
2020-05-27,25.43600082397461,25.43600082397461,25.43600082397461,25.43600082397461,0.0
2020-05-28,25.25,25.25,25.25,25.25,0.0
2020-05-29,25.20599937438965,25.20599937438965,25.20599937438965,25.20599937438965,100.0
2020-06-01,25.45400047302246,25.45400047302246,25.45400047302246,25.45400047302246,100.0
2020-06-02,25.45400047302246,25.45400047302246,25.45400047302246,25.45400047302246,0.0
2020-06-03,26.382999420166016,26.382999420166016,26.382999420166016,26.382999420166016,100.0
2020-06-04,26.49799919128418,26.270000457763672,26.270000457763672,26.49799919128418,500.0
2020-06-05,27.55299949645996,27.315000534057614,27.5310001373291,27.315000534057614,500.0
2020-06-08,27.84700012207031,27.84700012207031,27.84700012207031,27.84700012207031,100.0
2020-06-09,27.28400039672852,27.270000457763672,27.270000457763672,27.28400039672852,200.0
2020-06-10,26.69300079345703,26.69300079345703,26.69300079345703,26.69300079345703,0.0
2020-06-11,25.25,24.88999938964844,25.25,24.92799949645996,3900.0
2020-06-12,25.34600067138672,25.34600067138672,25.34600067138672,25.34600067138672,100.0
2020-06-15,25.60700035095215,25.60700035095215,25.60700035095215,25.60700035095215,100.0
2020-06-16,26.07999992370605,26.077999114990234,26.07999992370605,26.077999114990234,100.0
2020-06-17,25.92099952697754,25.92099952697754,25.92099952697754,25.92099952697754,100.0
2020-06-18,25.863000869750977,25.863000869750977,25.863000869750977,25.863000869750977,100.0
2020-06-19,25.68000030517578,25.68000030517578,25.68000030517578,25.68000030517578,100.0
2020-06-22,25.4379997253418,25.4379997253418,25.4379997253418,25.4379997253418,0.0
2020-06-23,25.48900032043457,25.48900032043457,25.48900032043457,25.48900032043457,0.0
2020-06-24,24.68099975585937,24.68099975585937,24.68099975585937,24.68099975585937,100.0
2020-06-25,24.9060001373291,24.9060001373291,24.9060001373291,24.9060001373291,0.0
2020-06-26,24.410999298095703,24.410999298095703,24.410999298095703,24.410999298095703,100.0
2020-06-29,24.82200050354004,24.82200050354004,24.82200050354004,24.82200050354004,100.0
2020-06-30,25.22200012207031,25.22200012207031,25.22200012207031,25.22200012207031,100.0
2020-07-01,25.209999084472656,25.11599922180176,25.209999084472656,25.11599922180176,1200.0
2020-07-02,25.216999053955078,25.216999053955078,25.216999053955078,25.216999053955078,100.0
2020-07-06,25.48699951171875,25.48699951171875,25.48699951171875,25.48699951171875,0.0
2020-07-07,25.07399940490723,25.07399940490723,25.07399940490723,25.07399940490723,100.0
2020-07-08,25.142000198364254,25.142000198364254,25.142000198364254,25.142000198364254,0.0
2020-07-09,24.76000022888184,24.76000022888184,24.76000022888184,24.76000022888184,100.0
2020-07-10,25.12800025939941,25.12800025939941,25.12800025939941,25.12800025939941,100.0
2020-07-13,25.06100082397461,25.06100082397461,25.06100082397461,25.06100082397461,0.0
2020-07-14,25.39299964904785,25.13999938964844,25.149999618530273,25.39299964904785,200.0
2020-07-15,26.0,26.0,26.0,26.0,0.0
2020-07-16,26.0,26.0,26.0,26.0,0.0
2020-07-17,26.058000564575195,26.058000564575195,26.058000564575195,26.058000564575195,0.0
2020-07-20,25.91900062561035,25.91900062561035,25.91900062561035,25.91900062561035,100.0
2020-07-21,26.145000457763672,26.145000457763672,26.145000457763672,26.145000457763672,100.0
2020-07-22,26.38400077819824,26.38400077819824,26.38400077819824,26.38400077819824,0.0
2020-07-23,26.37400054931641,26.37400054931641,26.37400054931641,26.37400054931641,0.0
2020-07-24,26.17499923706055,26.17499923706055,26.17499923706055,26.17499923706055,0.0
2020-07-27,26.30599975585937,26.30599975585937,26.30599975585937,26.30599975585937,100.0
2020-07-28,26.138999938964844,26.138999938964844,26.138999938964844,26.138999938964844,0.0
2020-07-29,26.542999267578125,26.542999267578125,26.542999267578125,26.542999267578125,0.0
2020-07-30,26.36000061035156,26.36000061035156,26.36000061035156,26.36000061035156,0.0
2020-07-31,26.256000518798828,25.989999771118164,25.989999771118164,26.256000518798828,1800.0
2020-08-03,26.461000442504886,26.461000442504886,26.461000442504886,26.461000442504886,0.0
2020-08-04,26.53400039672852,26.53400039672852,26.53400039672852,26.53400039672852,0.0
2020-08-05,26.770999908447266,26.71999931335449,26.71999931335449,26.770999908447266,1300.0
2020-08-06,26.756000518798828,26.756000518798828,26.756000518798828,26.756000518798828,0.0
2020-08-07,27.05900001525879,26.85000038146973,26.85000038146973,27.05900001525879,2200.0
2020-08-10,27.312000274658203,27.28899955749512,27.290000915527344,27.312000274658203,1000.0
2020-08-11,27.31100082397461,27.31100082397461,27.31100082397461,27.31100082397461,0.0
2020-08-12,27.472999572753906,27.472999572753906,27.472999572753906,27.472999572753906,100.0
2020-08-13,27.34700012207031,27.34700012207031,27.34700012207031,27.34700012207031,100.0
2020-08-14,27.363000869750977,27.363000869750977,27.363000869750977,27.363000869750977,0.0
2020-08-17,27.4379997253418,27.36400032043457,27.4379997253418,27.36400032043457,100.0
2020-08-18,27.20100021362305,27.20100021362305,27.20100021362305,27.20100021362305,0.0
2020-08-19,27.09499931335449,27.09499931335449,27.09499931335449,27.09499931335449,100.0
2020-08-20,26.957000732421875,26.957000732421875,26.957000732421875,26.957000732421875,100.0
2020-08-21,26.933000564575195,26.933000564575195,26.933000564575195,26.933000564575195,100.0
2020-08-24,27.3129997253418,27.3129997253418,27.3129997253418,27.3129997253418,0.0
