Date,High,Low,Open,Close,Volume
2019-05-23,24.81999969482422,24.809999465942386,24.809999465942386,24.81999969482422,90000.0
2019-05-24,24.86400032043457,24.86400032043457,24.86400032043457,24.86400032043457,100.0
2019-05-28,24.71199989318848,24.71199989318848,24.71199989318848,24.71199989318848,0.0
2019-05-29,24.589000701904297,24.56999969482422,24.56999969482422,24.589000701904297,6300.0
2019-05-30,24.64800071716309,24.64800071716309,24.64800071716309,24.64800071716309,100.0
2019-05-31,24.48500061035156,24.48500061035156,24.48500061035156,24.48500061035156,100.0
2019-06-03,24.52300071716309,24.52300071716309,24.52300071716309,24.52300071716309,100.0
2019-06-04,24.85700035095215,24.85700035095215,24.85700035095215,24.85700035095215,0.0
2019-06-05,25.07699966430664,25.07699966430664,25.07699966430664,25.07699966430664,0.0
2019-06-06,25.15999984741211,25.10000038146973,25.11000061035156,25.15999984741211,6500.0
2019-06-07,25.36599922180176,25.36599922180176,25.36599922180176,25.36599922180176,0.0
2019-06-10,25.42700004577637,25.42700004577637,25.42700004577637,25.42700004577637,0.0
2019-06-11,25.38599967956543,25.38599967956543,25.38599967956543,25.38599967956543,0.0
2019-06-12,25.38999938964844,25.38999938964844,25.38999938964844,25.38999938964844,0.0
2019-06-13,25.399999618530273,25.399999618530273,25.399999618530273,25.399999618530273,0.0
2019-06-14,25.45499992370605,25.45499992370605,25.45499992370605,25.45499992370605,0.0
2019-06-17,25.416000366210934,25.416000366210934,25.416000366210934,25.416000366210934,0.0
2019-06-18,25.55200004577637,25.55200004577637,25.55200004577637,25.55200004577637,0.0
2019-06-19,25.63599967956543,25.63599967956543,25.63599967956543,25.63599967956543,0.0
2019-06-20,25.8129997253418,25.8129997253418,25.8129997253418,25.8129997253418,0.0
2019-06-21,25.768999099731445,25.768999099731445,25.768999099731445,25.768999099731445,0.0
2019-06-24,25.78199958801269,25.78199958801269,25.78199958801269,25.78199958801269,0.0
2019-06-25,25.64299964904785,25.64299964904785,25.64299964904785,25.64299964904785,0.0
2019-06-26,25.55299949645996,25.55299949645996,25.55299949645996,25.55299949645996,0.0
2019-06-27,25.604999542236328,25.604999542236328,25.604999542236328,25.604999542236328,0.0
2019-06-28,25.67900085449219,25.67900085449219,25.67900085449219,25.67900085449219,0.0
2019-07-01,25.815000534057614,25.815000534057614,25.815000534057614,25.815000534057614,0.0
2019-07-02,25.916000366210934,25.916000366210934,25.916000366210934,25.916000366210934,0.0
2019-07-03,26.07500076293945,26.07500076293945,26.07500076293945,26.07500076293945,0.0
2019-07-05,26.00399971008301,26.00399971008301,26.00399971008301,26.00399971008301,0.0
2019-07-08,25.959999084472656,25.959999084472656,25.959999084472656,25.959999084472656,0.0
2019-07-09,25.97900009155273,25.97900009155273,25.97900009155273,25.97900009155273,0.0
2019-07-10,26.020999908447266,26.020999908447266,26.020999908447266,26.020999908447266,0.0
2019-07-11,26.07999992370605,26.04999923706055,26.07999992370605,26.077999114990234,1400.0
2019-07-12,26.18199920654297,26.18199920654297,26.18199920654297,26.18199920654297,0.0
2019-07-15,26.209999084472656,26.187000274658203,26.209999084472656,26.187000274658203,100.0
2019-07-16,26.167999267578125,26.167999267578125,26.167999267578125,26.167999267578125,0.0
2019-07-17,26.084999084472656,26.084999084472656,26.084999084472656,26.084999084472656,0.0
2019-07-18,26.10400009155273,26.04999923706055,26.04999923706055,26.10400009155273,100.0
2019-07-19,25.99900054931641,25.99900054931641,25.99900054931641,25.99900054931641,0.0
2019-07-22,26.02199935913086,26.02199935913086,26.02199935913086,26.02199935913086,0.0
2019-07-23,26.170000076293945,26.170000076293945,26.170000076293945,26.170000076293945,0.0
2019-07-24,26.191999435424805,26.191999435424805,26.191999435424805,26.191999435424805,0.0
2019-07-25,26.14299964904785,26.14299964904785,26.14299964904785,26.14299964904785,0.0
2019-07-26,26.27199935913086,26.27199935913086,26.27199935913086,26.27199935913086,0.0
2019-07-29,26.285999298095703,26.285999298095703,26.285999298095703,26.285999298095703,0.0
2019-07-30,26.20100021362305,26.20100021362305,26.20100021362305,26.20100021362305,0.0
2019-07-31,26.04599952697754,26.04599952697754,26.04599952697754,26.04599952697754,0.0
2019-08-01,25.94599914550781,25.94599914550781,25.94599914550781,25.94599914550781,0.0
2019-08-02,25.892000198364254,25.892000198364254,25.892000198364254,25.892000198364254,0.0
2019-08-05,25.371999740600586,25.371999740600586,25.371999740600586,25.371999740600586,0.0
2019-08-06,25.61400032043457,25.61400032043457,25.61400032043457,25.61400032043457,0.0
2019-08-07,25.70599937438965,25.70599937438965,25.70599937438965,25.70599937438965,0.0
2019-08-08,26.045000076293945,26.045000076293945,26.045000076293945,26.045000076293945,0.0
2019-08-09,25.9950008392334,25.9950008392334,25.9950008392334,25.9950008392334,0.0
2019-08-12,25.77599906921387,25.77599906921387,25.77599906921387,25.77599906921387,100.0
2019-08-13,26.06999969482422,26.01499938964844,26.06999969482422,26.01499938964844,100.0
2019-08-14,25.790000915527344,25.47900009155273,25.76000022888184,25.47900009155273,400.0
2019-08-15,25.86000061035156,25.60000038146973,25.60000038146973,25.86000061035156,4400.0
2019-08-16,25.90399932861328,25.57999992370605,25.57999992370605,25.90399932861328,200.0
2019-08-19,26.10000038146973,26.09499931335449,26.10000038146973,26.09499931335449,100.0
2019-08-20,25.92900085449219,25.92900085449219,25.92900085449219,25.92900085449219,0.0
2019-08-21,26.058000564575195,26.058000564575195,26.058000564575195,26.058000564575195,0.0
2019-08-22,26.09000015258789,26.09000015258789,26.09000015258789,26.09000015258789,0.0
2019-08-23,25.520000457763672,25.520000457763672,25.520000457763672,25.520000457763672,0.0
2019-08-26,25.785999298095703,25.785999298095703,25.785999298095703,25.785999298095703,0.0
2019-08-27,25.798999786376953,25.798999786376953,25.798999786376953,25.798999786376953,0.0
2019-08-28,25.88800048828125,25.88800048828125,25.88800048828125,25.88800048828125,0.0
2019-08-29,26.10000038146973,26.10000038146973,26.10000038146973,26.10000038146973,0.0
2019-08-30,26.1560001373291,26.1560001373291,26.1560001373291,26.1560001373291,0.0
2019-09-03,26.06399917602539,26.06399917602539,26.06399917602539,26.06399917602539,0.0
2019-09-04,26.270000457763672,26.270000457763672,26.270000457763672,26.270000457763672,0.0
2019-09-05,26.45400047302246,26.45400047302246,26.45400047302246,26.45400047302246,0.0
2019-09-06,26.458999633789066,26.458999633789066,26.458999633789066,26.458999633789066,0.0
2019-09-09,26.3799991607666,26.3799991607666,26.3799991607666,26.3799991607666,0.0
2019-09-10,26.25399971008301,26.25399971008301,26.25399971008301,26.25399971008301,0.0
2019-09-11,26.37299919128418,26.37299919128418,26.37299919128418,26.37299919128418,0.0
2019-09-12,26.458999633789066,26.458999633789066,26.458999633789066,26.458999633789066,0.0
2019-09-13,26.42300033569336,26.42300033569336,26.42300033569336,26.42300033569336,0.0
2019-09-16,26.315000534057614,26.315000534057614,26.315000534057614,26.315000534057614,0.0
2019-09-17,26.356000900268555,26.356000900268555,26.356000900268555,26.356000900268555,0.0
2019-09-18,26.49900054931641,26.49900054931641,26.49900054931641,26.49900054931641,0.0
2019-09-19,26.51000022888184,26.51000022888184,26.51000022888184,26.51000022888184,0.0
2019-09-20,26.47400093078613,26.47400093078613,26.47400093078613,26.47400093078613,0.0
2019-09-23,26.434999465942386,26.399999618530273,26.399999618530273,26.434999465942386,100.0
2019-09-24,26.32200050354004,26.32200050354004,26.32200050354004,26.32200050354004,0.0
2019-09-25,26.41200065612793,26.41200065612793,26.41200065612793,26.41200065612793,0.0
2019-09-26,26.391000747680664,26.391000747680664,26.391000747680664,26.391000747680664,0.0
2019-09-27,26.899999618530273,26.2810001373291,26.899999618530273,26.2810001373291,2000.0
2019-09-30,26.41699981689453,26.41699981689453,26.41699981689453,26.41699981689453,0.0
2019-10-01,26.190000534057614,26.190000534057614,26.190000534057614,26.190000534057614,0.0
2019-10-02,25.868999481201172,25.868999481201172,25.868999481201172,25.868999481201172,0.0
2019-10-03,25.99600028991699,25.99600028991699,25.99600028991699,25.99600028991699,0.0
2019-10-04,26.30699920654297,26.30699920654297,26.30699920654297,26.30699920654297,0.0
2019-10-07,26.31999969482422,26.23900032043457,26.31999969482422,26.23900032043457,400.0
2019-10-08,26.09000015258789,25.95800018310547,26.01000022888184,25.95800018310547,1500.0
2019-10-09,26.12100028991699,26.12100028991699,26.12100028991699,26.12100028991699,0.0
2019-10-10,26.22400093078613,26.22400093078613,26.22400093078613,26.22400093078613,0.0
2019-10-11,26.367000579833984,26.367000579833984,26.367000579833984,26.367000579833984,0.0
2019-10-14,26.3439998626709,26.3439998626709,26.3439998626709,26.3439998626709,0.0
2019-10-15,26.5310001373291,26.5310001373291,26.5310001373291,26.5310001373291,0.0
2019-10-16,26.52799987792969,26.52799987792969,26.52799987792969,26.52799987792969,0.0
2019-10-17,26.58799934387207,26.58799934387207,26.58799934387207,26.58799934387207,0.0
2019-10-18,26.54999923706055,26.53000068664551,26.545000076293945,26.548999786376953,400.0
2019-10-21,26.62700080871582,26.62700080871582,26.62700080871582,26.62700080871582,0.0
2019-10-22,26.54599952697754,26.54599952697754,26.54599952697754,26.54599952697754,0.0
2019-10-23,26.58300018310547,26.58300018310547,26.58300018310547,26.58300018310547,0.0
2019-10-24,26.625,26.59000015258789,26.59000015258789,26.625,100.0
2019-10-25,26.641000747680664,26.641000747680664,26.641000747680664,26.641000747680664,0.0
2019-10-28,26.687000274658203,26.687000274658203,26.687000274658203,26.687000274658203,0.0
2019-10-29,26.78000068664551,26.767000198364254,26.78000068664551,26.767000198364254,100.0
2019-10-30,26.87100028991699,26.87100028991699,26.87100028991699,26.87100028991699,0.0
2019-10-31,26.82399940490723,26.82399940490723,26.82399940490723,26.82399940490723,0.0
2019-11-01,26.961000442504886,26.961000442504886,26.961000442504886,26.961000442504886,0.0
2019-11-04,27.0,26.97900009155273,27.0,26.97900009155273,700.0
2019-11-05,26.91399955749512,26.91399955749512,26.91399955749512,26.91399955749512,0.0
2019-11-06,26.989999771118164,26.989999771118164,26.989999771118164,26.989999771118164,0.0
2019-11-07,27.02899932861328,27.02899932861328,27.02899932861328,27.02899932861328,0.0
2019-11-08,27.07900047302246,27.07900047302246,27.07900047302246,27.07900047302246,0.0
2019-11-11,27.05299949645996,27.05299949645996,27.05299949645996,27.05299949645996,0.0
2019-11-12,27.149999618530273,27.11100006103516,27.149999618530273,27.11100006103516,1100.0
2019-11-13,27.170000076293945,27.170000076293945,27.170000076293945,27.170000076293945,0.0
2019-11-14,27.20800018310547,27.20800018310547,27.20800018310547,27.20800018310547,0.0
2019-11-15,27.364999771118164,27.364999771118164,27.364999771118164,27.364999771118164,0.0
2019-11-18,27.40399932861328,27.40399932861328,27.40399932861328,27.40399932861328,0.0
2019-11-19,27.447999954223636,27.447999954223636,27.447999954223636,27.447999954223636,0.0
2019-11-20,27.37800025939941,27.32999992370605,27.32999992370605,27.37800025939941,300.0
2019-11-21,27.32900047302246,27.32900047302246,27.32900047302246,27.32900047302246,0.0
2019-11-22,27.36100006103516,27.36100006103516,27.36100006103516,27.36100006103516,0.0
2019-11-25,27.48600006103516,27.48600006103516,27.48600006103516,27.48600006103516,0.0
2019-11-26,27.55599975585937,27.55599975585937,27.55599975585937,27.55599975585937,0.0
2019-11-27,27.618999481201172,27.618999481201172,27.618999481201172,27.618999481201172,0.0
2019-11-29,27.548999786376953,27.548999786376953,27.548999786376953,27.548999786376953,0.0
2019-12-02,27.381999969482425,27.381999969482425,27.381999969482425,27.381999969482425,0.0
2019-12-03,27.256999969482425,27.256999969482425,27.256999969482425,27.256999969482425,0.0
2019-12-04,27.38400077819824,27.38400077819824,27.38400077819824,27.38400077819824,0.0
2019-12-05,27.42700004577637,27.42700004577637,27.42700004577637,27.42700004577637,0.0
2019-12-06,27.584999084472656,27.584999084472656,27.584999084472656,27.584999084472656,0.0
2019-12-09,27.52799987792969,27.52799987792969,27.52799987792969,27.52799987792969,100.0
2019-12-10,27.47900009155273,27.47900009155273,27.47900009155273,27.47900009155273,0.0
2019-12-11,27.54599952697754,27.54599952697754,27.54599952697754,27.54599952697754,0.0
2019-12-12,27.67099952697754,27.67099952697754,27.67099952697754,27.67099952697754,0.0
2019-12-13,27.66900062561035,27.66900062561035,27.66900062561035,27.66900062561035,100.0
2019-12-16,27.815000534057614,27.815000534057614,27.815000534057614,27.815000534057614,100.0
2019-12-17,27.80400085449219,27.80400085449219,27.80400085449219,27.80400085449219,0.0
2019-12-18,27.763999938964844,27.763999938964844,27.763999938964844,27.763999938964844,100.0
2019-12-19,27.83699989318848,27.83699989318848,27.83699989318848,27.83699989318848,0.0
2019-12-20,27.99900054931641,27.99900054931641,27.99900054931641,27.99900054931641,0.0
2019-12-23,27.979999542236328,27.979999542236328,27.979999542236328,27.979999542236328,0.0
2019-12-24,27.95499992370605,27.95499992370605,27.95499992370605,27.95499992370605,100.0
2019-12-26,28.041000366210934,28.041000366210934,28.041000366210934,28.041000366210934,0.0
2019-12-27,27.6879997253418,27.6879997253418,27.6879997253418,27.6879997253418,100.0
2019-12-30,27.601999282836914,27.601999282836914,27.601999282836914,27.601999282836914,0.0
2019-12-31,27.625999450683594,27.625999450683594,27.625999450683594,27.625999450683594,100.0
2020-01-02,27.80100059509277,27.80100059509277,27.80100059509277,27.80100059509277,0.0
2020-01-03,27.709999084472656,27.65999984741211,27.70000076293945,27.709999084472656,400.0
2020-01-06,27.750999450683594,27.750999450683594,27.750999450683594,27.750999450683594,0.0
2020-01-07,27.70000076293945,27.690000534057614,27.70000076293945,27.690000534057614,400.0
2020-01-08,27.80900001525879,27.80900001525879,27.80900001525879,27.80900001525879,0.0
2020-01-09,27.972999572753906,27.972999572753906,27.972999572753906,27.972999572753906,0.0
2020-01-10,28.01000022888184,27.92700004577637,28.01000022888184,27.92700004577637,700.0
2020-01-13,28.07600021362305,28.07600021362305,28.07600021362305,28.07600021362305,100.0
2020-01-14,28.016000747680664,27.99900054931641,27.99900054931641,28.016000747680664,200.0
2020-01-15,28.1299991607666,28.118000030517575,28.1299991607666,28.118000030517575,200.0
2020-01-16,28.29199981689453,28.29199981689453,28.29199981689453,28.29199981689453,0.0
2020-01-17,28.391000747680664,28.391000747680664,28.391000747680664,28.391000747680664,100.0
2020-01-21,28.38599967956543,28.38599967956543,28.38599967956543,28.38599967956543,0.0
2020-01-22,28.393999099731445,28.393999099731445,28.393999099731445,28.393999099731445,0.0
2020-01-23,28.423999786376953,28.423999786376953,28.423999786376953,28.423999786376953,0.0
2020-01-24,28.28000068664551,28.231000900268555,28.25,28.231000900268555,1800.0
2020-01-27,27.965999603271484,27.965999603271484,27.965999603271484,27.965999603271484,0.0
2020-01-28,28.207000732421875,28.190000534057614,28.190000534057614,28.207000732421875,500.0
2020-01-29,28.170000076293945,28.170000076293945,28.170000076293945,28.170000076293945,300.0
2020-01-30,28.20100021362305,28.07999992370605,28.07999992370605,28.20100021362305,100.0
2020-01-31,27.81399917602539,27.81399917602539,27.81399917602539,27.81399917602539,0.0
2020-02-03,27.94300079345703,27.94300079345703,27.94300079345703,27.94300079345703,0.0
2020-02-04,28.22800064086914,28.22800064086914,28.22800064086914,28.22800064086914,0.0
2020-02-05,28.45400047302246,28.45400047302246,28.45400047302246,28.45400047302246,0.0
2020-02-06,28.597999572753906,28.597999572753906,28.597999572753906,28.597999572753906,0.0
2020-02-07,28.49900054931641,28.49900054931641,28.49900054931641,28.49900054931641,0.0
2020-02-10,28.62899971008301,28.62899971008301,28.62899971008301,28.62899971008301,0.0
2020-02-11,28.67600059509277,28.67600059509277,28.67600059509277,28.67600059509277,0.0
2020-02-12,28.798999786376953,28.798999786376953,28.798999786376953,28.798999786376953,0.0
2020-02-13,28.77799987792969,28.77799987792969,28.77799987792969,28.77799987792969,0.0
2020-02-14,28.84000015258789,28.84000015258789,28.84000015258789,28.84000015258789,0.0
2020-02-18,28.79999923706055,28.79999923706055,28.79999923706055,28.79999923706055,0.0
2020-02-19,28.89299964904785,28.89299964904785,28.89299964904785,28.89299964904785,0.0
2020-02-20,28.766000747680664,28.766000747680664,28.766000747680664,28.766000747680664,0.0
2020-02-21,28.59600067138672,28.59600067138672,28.59600067138672,28.59600067138672,0.0
2020-02-24,27.95800018310547,27.95800018310547,27.95800018310547,27.95800018310547,0.0
2020-02-25,27.2810001373291,27.2810001373291,27.2810001373291,27.2810001373291,0.0
2020-02-26,27.589000701904297,27.2549991607666,27.440000534057614,27.2549991607666,200.0
2020-02-27,26.32900047302246,26.32900047302246,26.32900047302246,26.32900047302246,100.0
2020-02-28,25.80599975585937,25.80599975585937,25.80599975585937,25.80599975585937,0.0
2020-03-02,26.90699958801269,26.90699958801269,26.90699958801269,26.90699958801269,0.0
2020-03-03,27.040000915527344,26.45000076293945,27.040000915527344,26.45000076293945,100.0
2020-03-04,27.386999130249023,27.386999130249023,27.386999130249023,27.386999130249023,0.0
2020-03-05,26.77599906921387,26.72200012207031,26.77599906921387,26.72200012207031,500.0
2020-03-06,26.48699951171875,26.19300079345703,26.19300079345703,26.48699951171875,700.0
2020-03-09,25.22500038146973,25.22500038146973,25.22500038146973,25.22500038146973,0.0
2020-03-10,25.95199966430664,25.95199966430664,25.95199966430664,25.95199966430664,0.0
2020-03-11,25.53000068664551,25.125999450683594,25.53000068664551,25.125999450683594,1700.0
2020-03-12,23.45499992370605,23.45499992370605,23.45499992370605,23.45499992370605,0.0
2020-03-13,24.65399932861328,24.65399932861328,24.65399932861328,24.65399932861328,0.0
2020-03-16,23.86000061035156,22.61100006103516,23.86000061035156,22.61100006103516,200.0
2020-03-17,23.51000022888184,23.51000022888184,23.51000022888184,23.51000022888184,100.0
2020-03-18,22.448999404907227,22.448999404907227,22.448999404907227,22.448999404907227,0.0
2020-03-19,22.618000030517575,22.618000030517575,22.618000030517575,22.618000030517575,100.0
2020-03-20,22.52599906921387,21.78199958801269,22.52599906921387,21.78199958801269,300.0
2020-03-23,21.325000762939453,21.325000762939453,21.325000762939453,21.325000762939453,0.0
2020-03-24,22.80599975585937,22.80599975585937,22.80599975585937,22.80599975585937,0.0
2020-03-25,23.15699958801269,23.15699958801269,23.15699958801269,23.15699958801269,100.0
2020-03-26,24.291000366210934,23.670000076293945,23.670000076293945,24.291000366210934,100.0
2020-03-27,23.63999938964844,23.63999938964844,23.63999938964844,23.63999938964844,100.0
2020-03-30,24.29700088500977,24.29700088500977,24.29700088500977,24.29700088500977,0.0
2020-03-31,23.983999252319336,23.983999252319336,23.983999252319336,23.983999252319336,0.0
2020-04-01,23.10700035095215,23.10700035095215,23.10700035095215,23.10700035095215,0.0
2020-04-02,23.10700035095215,23.10700035095215,23.10700035095215,23.10700035095215,0.0
2020-04-03,23.48500061035156,23.48500061035156,23.48500061035156,23.48500061035156,0.0
2020-04-06,23.22400093078613,23.22400093078613,23.22400093078613,23.22400093078613,0.0
2020-04-07,24.584999084472656,24.584999084472656,24.584999084472656,24.584999084472656,0.0
2020-04-08,24.569000244140625,24.569000244140625,24.569000244140625,24.569000244140625,0.0
2020-04-09,25.24099922180176,25.24099922180176,25.24099922180176,25.24099922180176,0.0
2020-04-13,25.35000038146973,25.28000068664551,25.28000068664551,25.28899955749512,12000.0
2020-04-14,25.28899955749512,25.28899955749512,25.28899955749512,25.28899955749512,0.0
2020-04-15,25.891000747680664,25.891000747680664,25.891000747680664,25.891000747680664,0.0
2020-04-16,25.40399932861328,25.40399932861328,25.40399932861328,25.40399932861328,0.0
2020-04-17,25.538000106811523,25.538000106811523,25.538000106811523,25.538000106811523,0.0
2020-04-20,26.10700035095215,26.10700035095215,26.10700035095215,26.10700035095215,0.0
2020-04-21,25.76499938964844,25.76499938964844,25.76499938964844,25.76499938964844,0.0
2020-04-22,25.106000900268555,25.106000900268555,25.106000900268555,25.106000900268555,0.0
2020-04-23,25.54599952697754,25.54599952697754,25.54599952697754,25.54599952697754,0.0
2020-04-24,25.524999618530273,25.524999618530273,25.524999618530273,25.524999618530273,0.0
2020-04-27,25.795000076293945,25.795000076293945,25.795000076293945,25.795000076293945,0.0
2020-04-28,26.20000076293945,26.20000076293945,26.20000076293945,26.20000076293945,0.0
2020-04-29,26.08699989318848,26.08699989318848,26.08699989318848,26.08699989318848,0.0
2020-04-30,26.61000061035156,26.61000061035156,26.61000061035156,26.61000061035156,0.0
2020-05-01,26.382999420166016,26.382999420166016,26.382999420166016,26.382999420166016,0.0
2020-05-04,25.73600006103516,25.73600006103516,25.73600006103516,25.73600006103516,0.0
2020-05-05,25.79700088500977,25.79700088500977,25.79700088500977,25.79700088500977,0.0
2020-05-06,26.017000198364254,26.017000198364254,26.017000198364254,26.017000198364254,0.0
2020-05-07,26.059999465942386,25.94099998474121,26.059999465942386,25.94099998474121,500.0
2020-05-08,25.94099998474121,25.94099998474121,25.94099998474121,25.94099998474121,0.0
2020-05-11,26.44099998474121,26.44099998474121,26.44099998474121,26.44099998474121,0.0
2020-05-12,26.006000518798828,26.006000518798828,26.006000518798828,26.006000518798828,0.0
2020-05-13,25.940000534057614,25.54199981689453,25.940000534057614,25.54199981689453,500.0
2020-05-14,25.75,25.75,25.75,25.75,100.0
2020-05-15,25.881999969482425,25.881999969482425,25.881999969482425,25.881999969482425,0.0
2020-05-18,26.54700088500977,26.54700088500977,26.54700088500977,26.54700088500977,0.0
2020-05-19,26.30900001525879,26.30900001525879,26.30900001525879,26.30900001525879,0.0
2020-05-20,26.61000061035156,26.61000061035156,26.61000061035156,26.61000061035156,100.0
2020-05-21,26.42900085449219,26.42900085449219,26.42900085449219,26.42900085449219,0.0
2020-05-22,26.48200035095215,26.48200035095215,26.48200035095215,26.48200035095215,0.0
2020-05-26,26.739999771118164,26.739999771118164,26.739999771118164,26.739999771118164,0.0
2020-05-27,27.09700012207031,27.09700012207031,27.09700012207031,27.09700012207031,0.0
2020-05-28,27.15099906921387,27.15099906921387,27.15099906921387,27.15099906921387,0.0
2020-05-29,27.2549991607666,27.20000076293945,27.20000076293945,27.2549991607666,100.0
2020-06-01,27.399999618530273,27.29700088500977,27.3700008392334,27.29700088500977,6300.0
2020-06-02,27.4379997253418,27.309999465942386,27.309999465942386,27.4379997253418,100.0
2020-06-03,27.75300025939941,27.75300025939941,27.75300025939941,27.75300025939941,100.0
2020-06-04,27.631999969482425,27.631999969482425,27.631999969482425,27.631999969482425,0.0
2020-06-05,28.22500038146973,28.22500038146973,28.22500038146973,28.22500038146973,0.0
2020-06-08,28.49600028991699,28.440000534057614,28.440000534057614,28.49600028991699,100.0
2020-06-09,28.31999969482422,28.309999465942386,28.309999465942386,28.31599998474121,300.0
2020-06-10,28.309999465942386,28.11000061035156,28.11000061035156,28.22400093078613,200.0
2020-06-11,26.80699920654297,26.80699920654297,26.80699920654297,26.80699920654297,0.0
2020-06-12,27.104999542236328,27.104999542236328,27.104999542236328,27.104999542236328,0.0
2020-06-15,27.25900077819824,27.25900077819824,27.25900077819824,27.25900077819824,0.0
2020-06-16,27.632999420166016,27.632999420166016,27.632999420166016,27.632999420166016,0.0
2020-06-17,27.643999099731445,27.643999099731445,27.643999099731445,27.643999099731445,100.0
2020-06-18,27.642000198364254,27.61000061035156,27.61000061035156,27.642000198364254,100.0
2020-06-19,27.8799991607666,27.5939998626709,27.8799991607666,27.5939998626709,100.0
2020-06-22,27.65099906921387,27.65099906921387,27.65099906921387,27.65099906921387,100.0
2020-06-23,27.76099967956543,27.76099967956543,27.76099967956543,27.76099967956543,100.0
2020-06-24,27.61000061035156,27.158000946044922,27.61000061035156,27.158000946044922,300.0
2020-06-25,27.32399940490723,27.32399940490723,27.32399940490723,27.32399940490723,100.0
2020-06-26,26.85300064086914,26.85300064086914,26.85300064086914,26.85300064086914,0.0
2020-06-29,27.11100006103516,27.11100006103516,27.11100006103516,27.11100006103516,0.0
2020-06-30,27.52899932861328,27.52899932861328,27.52899932861328,27.52899932861328,0.0
2020-07-01,27.618999481201172,27.618999481201172,27.618999481201172,27.618999481201172,100.0
2020-07-02,27.899999618530273,27.732999801635746,27.899999618530273,27.732999801635746,200.0
2020-07-06,28.1200008392334,28.03899955749512,28.1200008392334,28.03899955749512,100.0
2020-07-07,27.91200065612793,27.91200065612793,27.91200065612793,27.91200065612793,0.0
2020-07-08,28.033000946044922,28.033000946044922,28.033000946044922,28.033000946044922,0.0
2020-07-09,27.82999992370605,27.82999992370605,27.82999992370605,27.82999992370605,0.0
2020-07-10,27.96999931335449,26.8700008392334,27.85000038146973,27.10000038146973,36800.0
2020-07-13,28.32999992370605,27.84000015258789,28.20000076293945,27.87100028991699,8800.0
2020-07-14,28.2450008392334,28.2450008392334,28.2450008392334,28.2450008392334,100.0
2020-07-15,28.36000061035156,27.8700008392334,28.36000061035156,27.899999618530273,3400.0
2020-07-16,28.420000076293945,27.5,27.5,28.0,2300.0
2020-07-17,28.535999298095703,28.399999618530273,28.399999618530273,28.535999298095703,1800.0
2020-07-20,28.690000534057614,28.690000534057614,28.690000534057614,28.690000534057614,100.0
2020-07-21,28.69599914550781,28.69599914550781,28.69599914550781,28.69599914550781,100.0
2020-07-22,28.87800025939941,28.87800025939941,28.87800025939941,28.87800025939941,100.0
2020-07-23,28.88500022888184,28.604999542236328,28.85000038146973,28.604999542236328,500.0
2020-07-24,28.466999053955078,28.466999053955078,28.466999053955078,28.466999053955078,0.0
2020-07-27,28.65099906921387,28.65099906921387,28.65099906921387,28.65099906921387,0.0
2020-07-28,28.520000457763672,28.520000457763672,28.520000457763672,28.520000457763672,100.0
2020-07-29,28.7549991607666,28.7549991607666,28.7549991607666,28.7549991607666,100.0
2020-07-30,28.68600082397461,28.68600082397461,28.68600082397461,28.68600082397461,100.0
2020-07-31,28.868000030517575,28.868000030517575,28.868000030517575,28.868000030517575,100.0
2020-08-03,29.149999618530273,29.14299964904785,29.149999618530273,29.14299964904785,800.0
2020-08-04,29.16399955749512,29.16399955749512,29.16399955749512,29.16399955749512,0.0
2020-08-05,29.211000442504886,29.211000442504886,29.211000442504886,29.211000442504886,100.0
2020-08-06,29.31399917602539,29.07999992370605,29.170000076293945,29.31399917602539,3100.0
2020-08-07,29.32200050354004,29.32200050354004,29.32200050354004,29.32200050354004,0.0
2020-08-10,29.24799919128418,29.24799919128418,29.24799919128418,29.24799919128418,100.0
2020-08-11,29.28000068664551,28.9950008392334,29.25,28.9950008392334,800.0
2020-08-12,29.38800048828125,29.38800048828125,29.38800048828125,29.38800048828125,0.0
2020-08-13,29.395000457763672,29.395000457763672,29.395000457763672,29.395000457763672,0.0
2020-08-14,29.37299919128418,29.37299919128418,29.37299919128418,29.37299919128418,0.0
2020-08-17,29.48600006103516,29.48600006103516,29.48600006103516,29.48600006103516,0.0
2020-08-18,29.56399917602539,29.56399917602539,29.56399917602539,29.56399917602539,100.0
2020-08-19,29.46500015258789,29.46500015258789,29.46500015258789,29.46500015258789,100.0
2020-08-20,29.54999923706055,29.54999923706055,29.54999923706055,29.54999923706055,100.0
2020-08-21,29.66699981689453,29.66699981689453,29.66699981689453,29.66699981689453,100.0
2020-08-24,29.798999786376953,29.798999786376953,29.798999786376953,29.798999786376953,0.0
