Date,Open,High,Low,Close,Volume
2014-08-05,2.4290000000000003,2.4290000000000003,2.4290000000000003,2.4290000000000003,11321
2014-08-07,2.5180000000000002,2.5180000000000002,2.5180000000000002,2.5180000000000002,54340
2014-08-13,2.4290000000000003,2.4290000000000003,2.4290000000000003,2.4290000000000003,45283
2014-08-15,2.3409999999999997,2.3409999999999997,2.3409999999999997,2.3409999999999997,38491
2014-08-18,2.403,2.4730000000000003,2.403,2.4730000000000003,20377
2014-08-22,2.385,2.385,2.385,2.385,27170
2014-08-27,2.2969999999999997,2.2969999999999997,2.2969999999999997,2.2969999999999997,11321
2014-08-29,2.367,2.367,2.367,2.367,20377
2014-09-10,2.385,2.4290000000000003,2.385,2.4290000000000003,45283
2014-09-12,2.385,2.385,2.385,2.385,9057
2014-09-15,2.138,2.217,2.138,2.208,36226
2014-09-17,2.208,2.208,2.208,2.208,33962
2014-09-19,2.12,2.12,2.12,2.182,2264
2014-09-24,2.164,2.164,2.12,2.12,29434
2014-09-25,2.226,2.252,2.208,2.208,31698
2014-09-26,2.191,2.191,2.191,2.191,6792
2014-10-15,2.12,2.12,2.076,2.076,74717
2014-10-22,2.032,2.032,1.979,1.943,61132
2014-10-29,2.164,2.164,2.164,1.9880000000000002,74717
2014-10-31,1.9880000000000002,1.9880000000000002,1.722,1.776,133585
2014-11-04,1.749,1.943,1.696,1.943,113208
2014-11-14,1.943,1.943,1.943,1.943,90566
2014-11-17,1.899,1.899,1.899,1.899,246793
2014-11-18,1.943,1.943,1.943,1.943,83780
2014-11-20,1.943,1.943,1.943,1.943,4528
2014-11-25,1.943,1.943,1.943,1.943,144906
2014-11-28,1.943,1.943,1.943,1.943,22642
2014-12-09,1.6869999999999998,1.6869999999999998,1.6780000000000002,1.6780000000000002,81509
2014-12-11,1.51,1.74,1.51,1.74,403019
2014-12-30,1.855,1.855,1.855,1.855,11321
2014-12-31,1.943,2.208,1.943,2.164,260377
2015-01-02,2.164,2.191,2.164,2.191,20377
2015-01-21,2.385,2.385,2.385,2.3409999999999997,13585
2015-01-22,2.164,2.208,2.164,2.208,31698
2015-01-23,2.191,2.208,2.191,2.208,63396
2015-01-30,2.0140000000000002,2.0140000000000002,2.0140000000000002,2.032,9057
2015-02-02,2.208,2.2969999999999997,2.2,2.208,29434
2015-02-04,1.996,1.996,1.996,1.996,6792
2015-02-05,1.9880000000000002,2.208,1.811,2.208,1342642
2015-02-06,2.032,2.208,2.032,2.041,765283
2015-02-09,1.943,1.943,1.89,1.943,38491
2015-02-10,1.899,1.899,1.899,1.899,11321
2015-02-18,1.767,1.767,1.767,1.811,2264
2015-02-23,1.767,1.767,1.767,1.829,2264
2015-03-26,1.776,1.776,1.767,1.767,83774
2015-04-02,1.855,1.855,1.855,1.855,11321
2015-04-10,1.767,1.855,1.767,1.855,13585
2015-04-13,1.855,1.899,1.855,1.89,181132
2015-04-14,1.776,1.776,1.776,1.776,47547
2015-04-15,1.899,1.899,1.899,1.881,22642
2015-04-16,1.881,1.881,1.767,1.767,63396
2015-04-17,1.899,1.899,1.767,1.767,83774
2015-04-21,1.776,1.776,1.776,1.776,63396
2015-04-22,1.767,1.767,1.767,1.767,4528
2015-04-23,1.881,1.899,1.722,1.722,470944
2015-04-24,1.811,1.811,1.811,1.811,493585
2015-04-27,1.599,1.6780000000000002,1.599,1.652,853585
2015-04-28,1.59,1.661,1.59,1.652,208302
2015-04-29,1.652,1.6780000000000002,1.652,1.6780000000000002,29434
2015-04-30,1.6780000000000002,1.952,1.6780000000000002,1.943,391698
2015-05-04,1.943,1.943,1.9080000000000001,1.9080000000000001,29434
2015-05-05,1.899,1.899,1.776,1.776,56604
2015-05-07,1.758,1.767,1.74,1.749,52075
2015-05-11,1.767,1.776,1.767,1.767,81509
2015-05-12,1.7309999999999999,1.7309999999999999,1.705,1.714,40755
2015-05-18,1.696,1.696,1.696,1.696,4528
2015-05-19,1.7309999999999999,1.7309999999999999,1.528,1.5630000000000002,525283
2015-05-20,1.59,1.661,1.59,1.652,49811
2015-05-21,1.652,1.661,1.625,1.652,47547
2015-05-22,1.643,1.6780000000000002,1.643,1.661,67925
2015-05-26,1.6340000000000001,1.6869999999999998,1.6340000000000001,1.6869999999999998,355472
2015-05-27,1.714,1.722,1.714,1.722,11321
2015-05-28,1.722,1.7309999999999999,1.6780000000000002,1.6780000000000002,49811
2015-05-29,1.669,1.6780000000000002,1.661,1.6780000000000002,190189
2015-06-01,1.705,1.705,1.705,1.705,6792
2015-06-02,1.6869999999999998,1.696,1.661,1.696,183396
2015-06-03,1.714,2.032,1.714,1.855,393962
2015-06-04,1.9169999999999998,1.926,1.855,1.855,90566
2015-06-05,1.767,1.767,1.767,1.767,6792
2015-06-08,1.643,1.643,1.6340000000000001,1.669,33962
2015-06-09,1.935,1.935,1.7930000000000001,1.881,108679
2015-06-10,1.9080000000000001,1.9080000000000001,1.696,1.696,67925
2015-06-11,1.749,1.864,1.6780000000000002,1.749,165283
2015-06-12,1.6780000000000002,1.837,1.6780000000000002,1.829,20377
2015-06-15,1.714,1.714,1.714,1.714,11321
2015-06-16,1.8019999999999998,1.899,1.696,1.714,217359
2015-06-17,1.6780000000000002,1.6780000000000002,1.669,1.669,79245
2015-06-18,1.722,1.8459999999999999,1.722,1.776,18113
2015-06-22,1.767,1.767,1.767,1.767,2264
2015-06-23,1.6869999999999998,1.758,1.6869999999999998,1.758,13585
2015-06-24,1.696,1.89,1.696,1.837,36226
2015-06-25,1.9080000000000001,1.9080000000000001,1.749,1.749,33962
2015-06-29,1.6869999999999998,1.6869999999999998,1.6780000000000002,1.696,138113
2015-06-30,1.661,1.6869999999999998,1.661,1.6869999999999998,90566
2015-07-02,1.6869999999999998,1.6869999999999998,1.6340000000000001,1.643,278491
2015-07-03,1.6869999999999998,1.6869999999999998,1.6340000000000001,1.6780000000000002,172076
2015-07-06,1.5630000000000002,1.5630000000000002,1.5019999999999998,1.555,138113
2015-07-07,1.5019999999999998,1.5019999999999998,1.396,1.396,47547
2015-07-08,1.5019999999999998,1.5019999999999998,1.281,1.281,45283
2015-07-09,1.405,1.5019999999999998,1.405,1.5019999999999998,36226
2015-07-14,1.546,1.546,1.546,1.546,4528
2015-07-15,1.546,1.546,1.546,1.546,22642
2015-07-16,1.5019999999999998,1.5019999999999998,1.5019999999999998,1.5019999999999998,15849
2015-07-20,1.5019999999999998,1.5019999999999998,1.5019999999999998,1.5019999999999998,4528
2015-07-24,1.59,1.59,1.581,1.581,13585
2015-07-28,1.5019999999999998,1.5019999999999998,1.5019999999999998,1.5019999999999998,2264
2015-08-10,1.661,1.669,1.661,1.661,38491
2015-08-17,1.696,1.696,1.696,1.669,22642
2015-08-19,1.696,1.696,1.696,1.6780000000000002,11321
2015-08-21,1.5019999999999998,1.5019999999999998,1.5019999999999998,1.5019999999999998,6792
2015-08-25,1.5019999999999998,1.5019999999999998,1.5019999999999998,1.5019999999999998,11321
2015-08-26,1.334,1.369,1.325,1.369,29434
2015-09-14,1.334,1.5019999999999998,1.334,1.5019999999999998,9057
2015-09-30,1.555,1.555,1.334,1.5019999999999998,20377
2015-10-02,1.537,1.5630000000000002,1.537,1.5630000000000002,83774
2015-10-06,1.669,1.6780000000000002,1.669,1.661,113208
2015-10-07,1.696,2.3409999999999997,1.696,1.9880000000000002,504906
2015-10-08,1.767,1.767,1.6780000000000002,1.6780000000000002,70189
2015-10-09,1.546,1.546,1.396,1.5190000000000001,446038
2015-10-12,1.669,1.669,1.537,1.59,36226
2015-10-13,1.5019999999999998,1.537,1.4580000000000002,1.5190000000000001,52075
2015-10-15,1.484,1.555,1.484,1.5190000000000001,13585
2015-10-16,1.484,1.484,1.4580000000000002,1.4580000000000002,58868
2015-10-19,1.4580000000000002,1.546,1.4580000000000002,1.546,355472
2015-10-27,1.546,1.608,1.44,1.608,174476
2015-10-28,1.661,1.722,1.617,1.722,159147
2015-10-29,1.767,1.8019999999999998,1.722,1.767,221923
2015-10-30,1.76,1.76,1.7,1.7,12000
2015-11-02,1.6,1.6,1.6,1.63,24000
2015-11-03,1.63,1.63,1.6,1.63,64000
2015-11-04,1.6,1.6,1.6,1.6,2000
2015-11-06,1.56,1.58,1.5,1.58,80000
2015-11-09,1.58,1.58,1.58,1.58,2000
2015-11-11,1.5,1.51,1.5,1.5,10000
2015-11-12,1.5,1.7,1.5,1.6,65000
2015-11-13,1.51,1.52,1.43,1.52,96000
2015-11-16,1.47,1.47,1.47,1.47,4000
2015-11-17,1.47,1.47,1.47,1.47,2000
2015-11-18,1.51,1.7,1.44,1.46,294000
2015-11-19,1.46,1.5,1.43,1.44,102000
2015-11-20,1.43,1.5,1.43,1.5,48000
2015-11-24,1.48,1.5,1.48,1.5,60000
2015-11-25,1.5,1.5,1.46,1.46,48000
2015-11-26,1.43,1.54,1.43,1.54,4000
2015-11-27,1.44,1.52,1.44,1.5,4000
2015-12-01,1.43,1.44,1.35,1.42,390000
2015-12-02,1.29,1.3,1.25,1.26,5793152
2015-12-03,1.21,1.26,1.19,1.2,1992300
2015-12-04,1.2,1.22,1.18,1.2,6093000
2015-12-07,1.19,1.2,1.12,1.2,7616000
2015-12-08,1.15,1.18,1.15,1.17,668000
2015-12-09,1.16,1.17,1.15,1.17,198000
2015-12-10,1.16,1.2,1.16,1.19,539000
2015-12-11,1.18,1.18,1.15,1.16,305998
2015-12-14,1.14,1.17,1.13,1.14,316000
2015-12-15,1.16,1.18,1.12,1.15,594000
2015-12-16,1.15,1.15,1.09,1.14,212000
2015-12-17,1.13,1.14,1.13,1.14,34000
2015-12-18,1.14,1.2,1.14,1.2,352000
2015-12-21,1.2,1.27,1.18,1.26,344002
2015-12-22,1.27,1.27,1.25,1.27,383000
2015-12-23,1.25,1.32,1.25,1.32,454000
2015-12-24,1.32,1.35,1.31,1.35,578000
2015-12-28,1.33,1.38,1.33,1.35,887003
2015-12-29,1.36,1.36,1.35,1.35,176000
2015-12-30,1.33,1.34,1.3,1.3,270000
2015-12-31,1.3,1.3,1.3,1.3,10000
2016-01-04,1.33,1.33,1.24,1.31,94000
2016-01-05,1.26,1.3,1.25,1.3,234000
2016-01-06,1.24,1.29,1.24,1.29,44000
2016-01-07,1.25,1.25,1.2,1.2,308000
2016-01-08,1.25,1.25,1.22,1.24,200000
2016-01-11,1.24,1.24,1.21,1.23,162000
2016-01-12,1.2,1.2,1.2,1.2,14000
2016-01-13,1.16,1.2,1.16,1.2,18000
2016-01-14,1.12,1.17,1.12,1.17,226000
2016-01-15,1.15,1.18,1.12,1.14,226000
2016-01-18,1.07,1.17,1.07,1.16,196000
2016-01-19,1.11,1.17,1.11,1.17,24000
2016-01-20,1.11,1.12,1.06,1.12,206000
2016-01-21,1.11,1.11,1.05,1.07,284000
2016-01-22,1.05,1.05,1.04,1.04,20000
2016-01-25,1.01,1.07,1.01,1.07,14000
2016-01-26,0.96,1.14,0.96,1.08,494000
2016-01-27,1.08,1.13,1.08,1.11,175023
2016-01-28,1.05,1.11,1.0,1.05,492000
2016-01-29,1.0,1.12,1.0,1.12,140000
2016-02-01,1.04,1.08,1.02,1.07,74000
2016-02-02,1.07,1.14,1.07,1.14,296000
2016-02-03,1.11,1.13,1.08,1.13,228000
2016-02-04,1.14,1.15,1.04,1.07,232000
2016-02-05,1.11,1.12,1.08,1.12,118000
2016-02-15,1.1,1.1,1.1,1.1,10000
2016-02-16,1.13,1.13,1.13,1.13,2000
2016-02-18,1.05,1.1,1.04,1.1,110000
2016-02-24,1.12,1.15,1.12,1.15,100000
2016-03-02,1.15,1.2,1.15,1.2,10000
2016-03-03,1.2,1.2,1.05,1.07,284000
2016-03-04,1.05,1.08,1.05,1.07,68000
2016-03-08,1.03,1.08,1.03,1.07,72000
2016-03-09,1.09,1.09,1.08,1.09,58000
2016-03-10,1.09,1.09,1.09,1.09,10000
2016-03-11,1.01,1.05,0.97,0.97,506000
2016-03-14,0.97,0.99,0.94,0.95,250000
2016-03-15,0.96,0.96,0.96,0.96,20000
2016-03-18,0.93,0.94,0.89,0.94,100000
2016-03-29,0.93,0.94,0.93,0.94,10000
2016-03-30,0.94,0.94,0.94,0.94,30000
2016-04-07,0.93,0.94,0.93,0.94,24000
2016-04-08,0.98,0.98,0.94,0.97,42000
2016-04-13,1.0,1.02,1.0,1.02,4000
2016-04-18,1.01,1.08,1.01,1.08,144000
2016-04-19,1.08,1.08,1.05,1.08,670000
2016-04-20,1.05,1.09,1.05,1.09,170000
2016-04-21,1.08,1.1,1.08,1.1,60000
2016-04-22,1.1,1.21,1.1,1.2,544000
2016-04-25,1.14,1.2,1.14,1.2,58000
2016-04-26,1.2,1.26,1.2,1.26,122000
2016-04-27,1.29,1.29,1.2,1.2,180000
2016-04-28,1.26,1.26,1.15,1.2,238000
2016-05-03,1.22,1.22,1.22,1.22,40000
2016-05-04,1.21,1.22,1.21,1.21,78000
2016-05-05,1.18,1.2,1.18,1.2,92000
2016-05-06,1.21,1.25,1.21,1.23,50000
2016-05-10,1.195,1.215,1.195,1.215,488010
2016-05-11,1.175,1.195,1.155,1.185,104430
2016-05-12,1.185,1.344,1.185,1.275,731010
2016-05-13,1.215,1.295,1.215,1.295,92380
2016-05-16,1.285,1.344,1.285,1.315,435810
2016-05-17,1.335,1.354,1.275,1.335,309270
2016-05-18,1.295,1.325,1.285,1.305,165680
2016-05-19,1.305,1.305,1.275,1.305,140580
2016-05-20,1.305,1.325,1.275,1.325,56230
2016-05-23,1.325,1.325,1.325,1.325,50210
2016-05-24,1.285,1.305,1.285,1.305,22090
2016-05-25,1.315,1.315,1.315,1.315,60250
2016-05-27,1.305,1.305,1.305,1.305,30120
2016-06-02,1.255,1.275,1.245,1.275,66270
2016-06-03,1.235,1.285,1.225,1.285,108450
2016-06-06,1.245,1.275,1.245,1.275,42170
2016-06-07,1.255,1.255,1.215,1.225,72300
2016-06-08,1.205,1.205,1.185,1.195,88360
2016-06-10,1.245,1.245,1.245,1.245,6020
2016-06-13,1.205,1.205,1.195,1.195,42170
2016-06-14,1.165,1.255,1.145,1.255,70290
2016-06-16,1.255,1.255,1.255,1.255,4020
2016-06-28,1.205,1.215,1.185,1.215,66270
2016-07-05,1.185,1.255,1.185,1.205,42170
2016-07-12,1.175,1.245,1.175,1.235,44180
2016-07-15,1.185,1.185,1.145,1.175,20080
2016-07-20,1.135,1.175,1.135,1.145,44180
2016-07-21,1.056,1.145,1.046,1.145,22090
2016-07-25,1.155,1.155,1.155,1.155,36150
2016-07-26,1.135,1.135,1.135,1.135,10040
2016-07-27,1.135,1.135,0.996,0.996,895690
2016-07-28,0.996,1.006,0.946,0.966,70290
2016-07-29,0.996,0.996,0.996,0.996,4020
2016-08-01,0.996,0.996,0.996,0.996,48200
2016-08-03,0.996,1.016,0.996,1.016,86360
2016-08-04,1.016,1.016,1.006,1.006,251030
2016-08-08,1.006,1.056,0.956,1.056,34140
2016-08-09,0.956,0.956,0.8959999999999999,0.9359999999999999,562310
2016-08-10,0.9359999999999999,0.976,0.9259999999999999,0.976,104430
2016-08-15,0.976,0.996,0.9059999999999999,0.976,50210
2016-08-16,0.976,1.026,0.976,1.026,36150
2016-08-23,0.956,0.956,0.946,0.946,40170
2016-08-24,0.9059999999999999,0.9359999999999999,0.9059999999999999,0.9359999999999999,54220
2016-08-25,0.9359999999999999,0.9359999999999999,0.9359999999999999,0.9359999999999999,10040
2016-08-26,0.986,0.996,0.986,0.996,99410
2016-08-30,0.9259999999999999,0.996,0.9259999999999999,0.996,70290
2016-09-02,0.986,1.006,0.986,1.006,10040
2016-09-05,1.036,1.036,1.036,1.036,10040
2016-09-06,0.996,1.026,0.956,1.026,36150
2016-09-12,0.996,0.996,0.996,0.996,8030
2016-09-13,0.996,1.036,0.996,0.996,36150
2016-09-20,0.956,1.016,0.946,1.016,50210
2016-09-21,0.986,1.026,0.976,1.026,126520
2016-09-22,1.026,1.026,1.026,1.026,18070
2016-09-23,0.996,1.046,0.996,1.046,6020
2016-09-27,1.006,1.006,0.996,0.996,6030
2016-09-28,1.016,1.016,0.996,0.996,126520
2016-09-29,0.9359999999999999,1.006,0.9359999999999999,1.006,56230
2016-09-30,1.026,1.026,1.026,1.026,20080
2016-10-03,0.976,0.996,0.976,0.996,14060
2016-10-04,0.996,1.016,0.996,1.016,22090
2016-10-05,0.996,1.036,0.996,1.036,150620
2016-10-07,0.946,1.046,0.9359999999999999,1.046,506080
2016-10-11,0.956,1.0659999999999998,0.956,1.0659999999999998,4020
2016-10-12,1.056,1.085,1.056,1.085,90370
2016-10-13,1.095,1.095,1.085,1.0759999999999998,10040
2016-10-14,1.0659999999999998,1.0759999999999998,1.0659999999999998,1.0659999999999998,90370
2016-10-17,1.06,1.06,1.06,1.06,0
2016-10-18,1.05,1.05,1.05,1.05,0
2016-10-19,0.986,0.986,0.986,0.986,12050
2016-10-20,0.976,0.976,0.976,0.976,20080
2016-10-24,0.966,0.976,0.956,0.976,22090
2016-10-26,0.97,0.98,0.97,0.98,0
2016-10-27,0.946,0.946,0.9359999999999999,0.9359999999999999,24100
2016-10-28,0.946,0.946,0.9359999999999999,0.956,60250
2016-10-31,0.956,0.966,0.946,0.946,259070
2016-11-04,0.9359999999999999,0.9359999999999999,0.9359999999999999,0.9359999999999999,12050
2016-11-07,0.9359999999999999,0.9359999999999999,0.9359999999999999,0.9359999999999999,60250
2016-11-08,0.9359999999999999,0.9359999999999999,0.9359999999999999,0.9359999999999999,8030
2016-11-09,0.9059999999999999,0.946,0.8859999999999999,0.946,198820
2016-11-10,0.956,0.956,0.956,0.956,20080
2016-11-11,0.956,0.956,0.956,0.956,2010
2016-11-14,0.966,0.966,0.966,0.966,4020
2016-11-15,0.98,0.98,0.98,0.98,0
2016-11-18,0.8959999999999999,0.966,0.8959999999999999,0.966,865560
2016-11-22,1.036,1.036,1.036,1.036,20080
2016-11-23,1.026,1.036,1.026,1.036,24100
2016-11-24,1.036,1.085,0.966,1.085,146600
2016-11-25,1.0759999999999998,1.0759999999999998,1.0759999999999998,1.0759999999999998,80330
2016-11-28,1.085,1.195,1.085,1.175,1321440
2016-11-29,1.215,1.3940000000000001,1.215,1.295,1803420
2016-11-30,1.315,1.315,1.295,1.295,62260
2016-12-01,1.315,1.3940000000000001,1.315,1.3940000000000001,186770
2016-12-02,1.4040000000000001,1.534,1.325,1.325,1587530
2016-12-05,1.315,1.364,1.295,1.325,96400
2016-12-06,1.325,1.325,1.295,1.295,112460
2016-12-07,1.325,1.444,1.315,1.315,343410
2016-12-08,1.364,1.3940000000000001,1.315,1.374,301240
2016-12-09,1.374,1.3940000000000001,1.344,1.3840000000000001,329360
2016-12-12,1.344,1.354,1.215,1.215,365500
2016-12-13,1.205,1.205,1.195,1.195,62260
2016-12-14,1.265,1.265,1.265,1.255,14060
2016-12-15,1.195,1.195,1.195,1.195,2010
2016-12-16,1.295,1.295,1.255,1.255,78320
2016-12-19,1.245,1.245,1.245,1.245,2010
2016-12-20,1.155,1.245,1.155,1.245,10040
2016-12-22,1.295,1.295,1.185,1.185,42170
2016-12-23,1.265,1.335,1.265,1.265,218900
2016-12-28,1.325,1.325,1.215,1.215,58240
2016-12-29,1.305,1.305,1.235,1.255,84350
2016-12-30,1.265,1.275,1.265,1.275,144600
2017-01-03,1.275,1.275,1.275,1.275,8030
2017-01-06,1.275,1.285,1.275,1.285,20080
2017-01-09,1.295,1.295,1.205,1.215,52210
2017-01-10,1.285,1.285,1.285,1.275,10040
2017-01-11,1.295,1.295,1.275,1.275,56230
2017-01-12,1.275,1.275,1.245,1.245,32130
2017-01-17,1.225,1.225,1.115,1.115,44180
2017-01-18,1.155,1.205,1.145,1.205,30120
2017-01-19,1.195,1.195,1.145,1.175,42170
2017-01-20,1.135,1.235,1.095,1.235,14060
2017-01-23,1.195,1.195,1.145,1.155,311280
2017-01-24,1.155,1.155,1.155,1.155,2010
2017-01-25,1.155,1.155,1.155,1.155,32130
2017-01-26,1.18,1.18,1.16,1.16,0
2017-02-01,1.155,1.155,1.125,1.125,100410
2017-02-02,1.125,1.125,1.095,1.105,100410
2017-02-03,1.215,1.245,1.105,1.115,64260
2017-02-06,1.105,1.105,1.085,1.085,40170
2017-02-07,1.0759999999999998,1.0759999999999998,1.036,1.036,58240
2017-02-08,0.996,0.996,0.966,0.996,14060
2017-02-09,1.016,1.016,1.016,1.046,2010
2017-02-10,1.006,1.006,1.006,1.006,2010
2017-02-13,1.125,1.4240000000000002,1.125,1.374,1366620
2017-02-14,1.4140000000000001,1.4240000000000002,1.195,1.275,1243120
2017-02-15,1.275,1.344,1.255,1.344,313290
2017-02-16,1.344,1.344,1.225,1.265,706910
2017-02-17,1.235,1.285,1.235,1.275,8030
2017-02-20,1.325,1.325,1.125,1.155,793260
2017-02-21,1.155,1.195,1.125,1.195,317310
2017-02-22,1.185,1.275,1.125,1.255,399640
2017-02-23,1.25,1.25,1.2,1.21,0
2017-02-24,1.175,1.195,1.125,1.165,216890
2017-02-27,1.105,1.105,1.085,1.085,30120
2017-02-28,1.036,1.175,1.036,1.155,331360
2017-03-01,1.245,1.245,1.095,1.185,148610
2017-03-02,1.145,1.145,1.095,1.095,329360
2017-03-03,1.056,1.165,1.046,1.125,459890
2017-03-06,1.085,1.085,1.085,1.095,2010
2017-03-07,1.105,1.175,1.105,1.155,72300
2017-03-08,1.105,1.125,1.105,1.105,82340
2017-03-09,1.105,1.145,1.105,1.125,287180
2017-03-10,1.056,1.0659999999999998,1.056,1.0759999999999998,8030
2017-03-13,1.095,1.115,1.095,1.115,668750
2017-03-14,1.115,1.125,1.095,1.095,80330
2017-03-15,1.105,1.145,0.996,1.056,1231070
2017-03-17,0.986,1.0759999999999998,0.986,1.0759999999999998,16070
2017-03-20,1.0659999999999998,1.0659999999999998,1.0659999999999998,1.0659999999999998,30120
2017-03-21,1.0759999999999998,1.0759999999999998,1.056,1.0759999999999998,24100
2017-03-24,0.996,1.125,0.996,1.105,152630
2017-03-27,1.095,1.095,1.095,1.095,20080
2017-03-29,1.09,1.09,1.09,1.09,0
2017-03-30,1.095,1.105,1.056,1.085,156640
2017-03-31,1.08,1.09,1.08,1.09,0
2017-04-03,1.08,1.09,1.05,1.07,0
2017-04-05,1.006,1.006,1.006,1.046,8030
2017-04-06,1.0759999999999998,1.0759999999999998,1.0759999999999998,1.0659999999999998,2010
2017-04-07,1.006,1.105,0.986,1.105,68280
2017-04-10,1.026,1.026,1.006,1.105,20080
2017-04-11,1.085,1.085,1.036,1.036,64260
2017-04-12,1.105,1.105,1.046,1.0659999999999998,110450
2017-04-13,1.036,1.105,1.036,1.056,112460
2017-04-18,1.095,1.095,1.026,1.026,110450
2017-04-19,1.016,1.016,0.966,1.006,18070
2017-04-20,1.026,1.026,0.986,1.006,16070
2017-04-24,0.996,0.996,0.976,0.986,421740
2017-04-25,0.996,1.006,0.996,1.006,64260
2017-04-26,0.986,0.986,0.986,1.006,2010
2017-04-27,0.986,0.986,0.986,0.986,2010
2017-04-28,0.956,0.996,0.946,0.996,146600
2017-05-02,1.046,1.046,0.986,0.986,590430
2017-05-04,1.026,1.026,0.976,0.986,299230
2017-05-05,0.996,0.996,0.946,0.956,176730
2017-05-08,0.97,0.97,0.97,0.97,0
2017-05-09,0.966,0.966,0.956,0.966,108450
2017-05-10,0.956,0.966,0.9259999999999999,0.9259999999999999,546250
2017-05-11,0.946,0.986,0.9159999999999999,0.986,421740
2017-05-12,0.946,0.986,0.946,0.986,104430
2017-05-15,0.986,0.986,0.986,0.986,20080
2017-05-19,0.986,0.996,0.986,0.996,56230
2017-05-22,0.996,1.006,0.996,0.996,1690960
2017-05-23,1.016,1.016,1.016,1.016,257060
2017-05-24,1.016,1.016,1.006,1.006,100410
2017-05-25,1.01,1.02,1.01,1.02,0
2017-05-26,1.016,1.016,1.016,1.016,2010
2017-05-31,1.04,1.04,1.02,1.02,0
2017-06-05,1.006,1.006,1.006,1.016,208860
2017-06-06,1.016,1.016,1.016,1.016,44180
2017-06-07,0.966,0.966,0.966,0.996,100410
2017-06-08,0.996,0.996,0.996,1.006,32130
2017-06-09,1.006,1.046,1.006,1.046,255050
2017-06-12,1.056,1.056,1.056,1.056,104430
2017-06-13,1.07,1.07,1.07,1.07,0
2017-06-14,1.08,1.08,1.08,1.08,0
2017-06-15,1.095,1.135,1.095,1.135,98400
2017-06-16,1.195,1.315,1.185,1.235,437800
2017-06-19,1.255,1.255,1.235,1.235,120500
2017-06-20,1.225,1.225,1.225,1.215,100410
2017-06-21,1.215,1.215,1.195,1.195,128530
2017-06-22,1.235,1.275,1.095,1.275,1313400
2017-06-23,1.275,1.275,1.245,1.255,552270
2017-06-26,1.265,1.265,1.255,1.265,799290
2017-06-27,1.265,1.265,1.095,1.095,953930
2017-06-28,1.195,1.195,1.046,1.155,399640
2017-06-29,1.145,1.155,1.145,1.145,104430
2017-06-30,1.0759999999999998,1.105,1.046,1.046,279150
2017-07-03,1.056,1.0759999999999998,1.056,1.0759999999999998,1411810
2017-07-04,1.085,1.085,1.046,1.046,30120
2017-07-05,1.0759999999999998,1.095,1.0759999999999998,1.085,622560
2017-07-06,1.095,1.095,1.095,1.095,1018190
2017-07-07,1.105,1.135,1.105,1.135,899700
2017-07-10,1.145,1.175,1.135,1.135,277140
2017-07-11,1.145,1.155,1.125,1.145,1000115
2017-07-12,1.145,1.155,1.115,1.145,1293322
2017-07-13,1.215,1.215,1.135,1.145,1008149
2017-07-14,1.145,1.195,1.145,1.185,984049
2017-07-17,1.185,1.195,1.145,1.165,1134669
2017-07-18,1.185,1.185,1.125,1.145,1020198
2017-07-19,1.155,1.155,1.135,1.135,929826
2017-07-20,1.185,1.185,1.046,1.056,875603
2017-07-21,1.0659999999999998,1.095,1.056,1.0759999999999998,951917
2017-07-24,1.085,1.085,1.0659999999999998,1.085,992082
2017-07-25,1.085,1.085,1.026,1.036,722975
2017-07-26,1.0659999999999998,1.0759999999999998,1.046,1.0759999999999998,1008149
2017-07-27,1.085,1.085,1.046,1.0659999999999998,1100529
2017-07-28,1.056,1.0659999999999998,1.036,1.036,1102537
2017-07-31,1.0759999999999998,1.085,1.016,1.036,1086471
2017-08-01,1.046,1.046,1.036,1.046,965975
2017-08-02,1.036,1.046,1.016,1.046,978025
2017-08-03,1.036,1.046,1.016,1.026,1040281
2017-08-04,1.046,1.046,1.026,1.026,1040281
2017-08-07,1.026,1.036,1.026,1.036,1026223
2017-08-08,1.026,1.026,0.956,0.966,1054339
2017-08-09,0.996,0.996,0.9159999999999999,0.9359999999999999,1020198
2017-08-10,0.9359999999999999,1.046,0.9359999999999999,0.976,1371644
2017-08-11,0.976,0.976,0.9259999999999999,0.966,1200942
2017-08-14,0.986,1.006,0.956,0.956,1058355
2017-08-15,0.976,0.996,0.956,0.956,1046306
2017-08-16,0.9359999999999999,0.956,0.8270000000000001,0.847,1867686
2017-08-17,0.847,0.866,0.7070000000000001,0.727,3741396
2017-08-18,0.747,0.767,0.7170000000000001,0.747,929826
2017-08-21,0.737,0.777,0.6970000000000001,0.6970000000000001,502066
2017-08-22,0.677,0.6970000000000001,0.667,0.677,658711
2017-08-24,0.6970000000000001,0.9359999999999999,0.677,0.9159999999999999,3480322
2017-08-25,0.9059999999999999,0.9159999999999999,0.8270000000000001,0.8270000000000001,1036264
2017-08-28,0.807,0.847,0.777,0.787,281157
2017-08-29,0.787,0.807,0.777,0.807,441818
2017-08-30,0.747,0.9059999999999999,0.747,0.8270000000000001,1415826
2017-08-31,0.807,0.8959999999999999,0.797,0.857,1460008
2017-09-01,0.8270000000000001,0.8959999999999999,0.797,0.8959999999999999,867570
2017-09-04,0.847,0.8859999999999999,0.8170000000000001,0.8270000000000001,929826
2017-09-05,0.797,0.8370000000000001,0.797,0.797,271116
2017-09-06,0.797,0.807,0.767,0.807,220909
2017-09-07,0.807,0.807,0.747,0.757,1030239
2017-09-08,0.757,0.777,0.757,0.777,182752
2017-09-11,0.767,0.777,0.757,0.777,100413
2017-09-12,0.767,0.767,0.727,0.757,365504
2017-09-13,0.737,0.797,0.737,0.797,283165
2017-09-14,0.787,0.787,0.787,0.787,24099
2017-09-15,0.797,0.797,0.767,0.767,234967
2017-09-18,0.767,0.787,0.737,0.787,232959
2017-09-19,0.767,0.797,0.767,0.787,1638743
2017-09-20,0.797,0.797,0.757,0.787,1624686
2017-09-21,0.777,0.787,0.767,0.787,1331479
2017-09-22,0.767,0.8959999999999999,0.757,0.8859999999999999,3454214
2017-09-25,0.9359999999999999,1.185,0.9359999999999999,1.135,5639205
2017-09-26,1.135,1.195,1.0659999999999998,1.115,1520256
2017-09-27,1.115,1.225,1.046,1.155,3307611
2017-09-28,1.175,1.285,1.175,1.195,1435909
2017-09-29,1.215,1.255,1.175,1.175,672768
2017-10-03,1.195,1.195,1.056,1.0759999999999998,1024215
2017-10-04,1.115,1.175,1.115,1.155,451859
2017-10-06,1.115,1.135,1.115,1.135,265091
2017-10-09,1.135,1.135,1.056,1.085,592438
2017-10-10,1.0759999999999998,1.215,1.0759999999999998,1.215,895686
2017-10-11,1.195,1.315,1.145,1.275,1134669
2017-10-12,1.275,1.344,1.275,1.325,2197041
2017-10-13,1.315,1.344,1.315,1.335,2215115
2017-10-16,1.315,1.354,1.295,1.344,3640983
2017-10-17,1.295,1.374,1.295,1.364,2646892
2017-10-18,1.354,1.4040000000000001,1.354,1.3940000000000001,2662958
2017-10-19,1.3940000000000001,1.4040000000000001,1.344,1.374,1634727
2017-10-20,1.374,1.5930000000000002,1.364,1.494,6341094
2017-10-23,1.484,1.544,1.464,1.524,2566561
2017-10-24,1.534,1.5830000000000002,1.514,1.5730000000000002,2313520
2017-10-25,1.544,1.544,1.295,1.504,2267330
2017-10-26,1.454,1.534,1.3840000000000001,1.464,2353685
2017-10-27,1.4340000000000002,1.474,1.354,1.4140000000000001,2685049
2017-10-30,1.3840000000000001,1.4240000000000002,1.315,1.344,2634842
2017-10-31,1.285,1.4140000000000001,1.235,1.354,2448074
2017-11-01,1.4340000000000002,1.4340000000000002,1.285,1.4040000000000001,2237206
2017-11-02,1.364,1.544,1.364,1.4140000000000001,2512338
2017-11-03,1.3840000000000001,1.3940000000000001,1.295,1.295,3349784
2017-11-06,1.265,1.354,1.265,1.295,3801644
2017-11-07,1.255,1.344,1.235,1.235,3689181
2017-11-08,1.245,1.3940000000000001,1.235,1.344,2662958
2017-11-09,1.295,1.4040000000000001,1.295,1.325,1990190
2017-11-10,1.295,1.3940000000000001,1.295,1.344,1867686
2017-11-13,1.315,1.444,1.315,1.4240000000000002,3013400
2017-11-14,1.4040000000000001,1.494,1.325,1.344,3781561
2017-11-15,1.315,1.4140000000000001,1.315,1.325,2871818
2017-11-16,1.325,1.4140000000000001,1.325,1.3840000000000001,4213338
2017-11-17,1.4040000000000001,1.444,1.374,1.444,3892016
2017-11-20,1.3840000000000001,1.464,1.374,1.374,3564669
2017-11-21,1.3840000000000001,1.4240000000000002,1.354,1.354,3887999
2017-11-22,1.325,1.344,1.155,1.195,4564784
2017-11-23,1.195,1.205,1.155,1.195,4213338
2017-11-24,1.205,1.205,1.155,1.195,4315759
2017-11-27,1.195,1.215,1.175,1.195,4241454
2017-11-28,1.145,1.235,1.105,1.135,4341867
2017-11-29,1.105,1.195,1.056,1.125,3068627
2017-11-30,1.036,1.145,1.016,1.145,3138917
2017-12-01,1.235,1.235,1.095,1.095,2679024
2017-12-04,1.046,1.155,1.036,1.095,2982272
2017-12-05,1.115,1.165,1.0659999999999998,1.165,3293553
2017-12-06,1.105,1.205,1.006,1.095,3532536
2017-12-07,1.195,1.195,0.996,1.095,4341867
2017-12-08,1.085,1.195,1.026,1.185,5179313
2017-12-11,1.175,1.195,1.095,1.195,4367974
2017-12-12,1.185,1.185,1.085,1.145,8539139
2017-12-13,1.155,1.195,1.095,1.185,5520718
2017-12-14,1.185,1.265,1.135,1.255,5416288
2017-12-15,1.315,1.315,1.225,1.265,4896148
2017-12-18,1.225,1.245,1.175,1.185,3008381
2017-12-19,1.165,1.195,1.135,1.165,3030470
2017-12-20,1.155,1.245,1.135,1.155,3044528
2017-12-21,1.135,1.145,1.085,1.085,3653032
2017-12-22,1.0759999999999998,1.135,1.0759999999999998,1.105,2940099
2017-12-27,1.105,1.105,1.0759999999999998,1.095,2942107
2017-12-28,1.085,1.095,1.0659999999999998,1.095,2867801
2017-12-29,1.0659999999999998,1.195,1.0659999999999998,1.185,4141040
2018-01-02,1.175,1.175,1.115,1.135,3068627
2018-01-03,1.125,1.155,1.056,1.145,3169041
2018-01-04,1.155,1.155,1.115,1.145,2897925
2018-01-05,1.125,1.175,1.125,1.175,2928049
2018-01-08,1.185,1.235,1.175,1.195,2972231
2018-01-09,1.195,1.215,1.175,1.175,2775421
2018-01-10,1.135,1.225,1.125,1.155,2948132
2018-01-11,1.165,1.195,1.125,1.155,2747305
2018-01-12,1.185,1.185,1.125,1.135,2664966
2018-01-15,1.135,1.155,1.115,1.115,2614760
2018-01-16,1.135,1.145,1.095,1.135,2887884
2018-01-17,1.125,1.135,1.115,1.125,2843702
2018-01-18,1.155,1.155,1.056,1.105,2920016
2018-01-19,1.115,1.145,1.0759999999999998,1.125,3158999
2018-01-22,1.115,1.125,1.085,1.105,3016413
2018-01-23,1.085,1.125,1.056,1.0759999999999998,2793495
2018-01-24,1.0759999999999998,1.085,1.0759999999999998,1.085,3154983
2018-01-25,1.095,1.095,1.0759999999999998,1.0759999999999998,2859768
2018-01-26,1.046,1.095,1.046,1.0759999999999998,3126867
2018-01-29,1.145,1.145,1.056,1.0759999999999998,2606727
2018-01-30,1.085,1.105,1.0659999999999998,1.0759999999999998,2992313
2018-01-31,1.085,1.085,1.0659999999999998,1.0659999999999998,2934074
2018-02-01,1.056,1.0659999999999998,1.046,1.046,3124859
2018-02-02,1.036,1.046,1.016,1.036,2946123
2018-02-05,1.006,1.046,0.986,1.026,2924032
2018-02-06,0.996,1.016,0.976,0.986,3219247
2018-02-07,1.016,1.026,0.956,0.956,2711156
2018-02-08,0.9259999999999999,0.956,0.8759999999999999,0.946,3060594
2018-02-09,0.9159999999999999,0.9359999999999999,0.8859999999999999,0.8959999999999999,3432123
2018-02-12,0.8959999999999999,0.946,0.847,0.8959999999999999,3287528
2018-02-13,0.9259999999999999,0.966,0.9059999999999999,0.956,3187115
2018-02-14,0.956,0.986,0.9059999999999999,0.9359999999999999,3016413
2018-02-15,0.976,1.046,0.956,0.976,1385702
2018-02-20,0.976,1.0759999999999998,0.966,1.046,2502297
2018-02-21,1.016,1.046,0.996,1.016,2743289
2018-02-22,0.946,1.056,0.946,0.996,3036495
2018-02-23,0.966,1.046,0.966,1.036,2809561
2018-02-26,1.026,1.046,1.006,1.016,2944115
2018-02-27,0.996,1.036,0.996,1.036,2879851
2018-02-28,1.036,1.046,0.996,1.036,2675008
2018-03-01,1.036,1.036,1.026,1.036,2337619
2018-03-02,1.026,1.095,1.026,1.0659999999999998,2660950
2018-03-05,1.0659999999999998,1.095,1.026,1.046,2986289
2018-03-06,1.0659999999999998,1.0659999999999998,1.026,1.026,2915999
2018-03-07,1.026,1.036,1.016,1.026,2608735
2018-03-08,1.006,1.135,1.006,1.046,2670991
2018-03-09,1.046,1.0659999999999998,0.996,1.006,3319691
2018-03-12,1.006,1.026,0.956,1.016,2789479
2018-03-13,0.986,1.016,0.976,0.986,2877842
2018-03-14,0.986,0.996,0.966,0.986,2805545
2018-03-15,0.976,0.986,0.9359999999999999,0.956,2930057
2018-03-16,0.9359999999999999,0.976,0.9359999999999999,0.9359999999999999,2301471
2018-03-19,0.946,0.956,0.9259999999999999,0.9359999999999999,2813578
2018-03-20,0.9059999999999999,1.085,0.9059999999999999,1.056,2417950
2018-03-21,1.046,1.105,0.976,1.006,2703123
2018-03-22,1.0759999999999998,1.095,0.976,0.976,2891900
2018-03-23,0.9259999999999999,0.996,0.9259999999999999,0.946,2968214
2018-03-26,0.996,0.996,0.9259999999999999,0.966,2482214
2018-03-27,0.946,1.026,0.9359999999999999,0.946,2763371
2018-03-28,0.956,0.956,0.9259999999999999,0.9259999999999999,2448074
2018-03-29,0.9259999999999999,0.956,0.866,0.8859999999999999,2536437
2018-04-03,0.9059999999999999,0.9059999999999999,0.807,0.8170000000000001,2345652
2018-04-04,0.857,0.8859999999999999,0.777,0.857,2857760
2018-04-06,0.857,0.8759999999999999,0.8170000000000001,0.8170000000000001,2592669
2018-04-09,0.797,0.8759999999999999,0.797,0.8759999999999999,3116826
2018-04-10,0.8759999999999999,0.8859999999999999,0.847,0.8859999999999999,2317537
2018-04-11,0.847,0.996,0.8370000000000001,0.8859999999999999,2705132
2018-04-12,0.8859999999999999,0.9159999999999999,0.866,0.8759999999999999,2815586
2018-04-13,0.8759999999999999,0.956,0.8759999999999999,0.9059999999999999,2307495
2018-04-16,0.9259999999999999,0.9259999999999999,0.8859999999999999,0.9059999999999999,2715173
2018-04-17,0.8859999999999999,0.946,0.857,0.8859999999999999,2693082
2018-04-18,0.8859999999999999,0.9059999999999999,0.8759999999999999,0.8859999999999999,2791487
2018-04-19,0.8959999999999999,0.9059999999999999,0.866,0.8759999999999999,2600702
2018-04-20,0.8759999999999999,0.8859999999999999,0.857,0.8859999999999999,2582628
2018-04-23,0.8959999999999999,0.9359999999999999,0.8370000000000001,0.866,2632834
2018-04-24,0.866,0.9059999999999999,0.866,0.8859999999999999,2086586
2018-04-25,0.9259999999999999,0.9259999999999999,0.8370000000000001,0.8370000000000001,2650908
2018-04-26,0.857,0.857,0.787,0.797,2954156
2018-04-27,0.8170000000000001,0.8170000000000001,0.777,0.787,2454099
2018-04-30,0.8270000000000001,0.8270000000000001,0.777,0.797,2456107
2018-05-02,0.8170000000000001,0.8759999999999999,0.747,0.807,2574594
2018-05-03,0.8270000000000001,0.8370000000000001,0.807,0.8270000000000001,2608735
2018-05-04,0.866,0.866,0.807,0.807,2462132
2018-05-07,0.797,0.797,0.757,0.777,2741280
2018-05-08,0.8270000000000001,0.866,0.767,0.807,3239330
2018-05-09,0.797,0.847,0.787,0.8370000000000001,3076660
2018-05-10,0.8370000000000001,0.866,0.8370000000000001,0.847,4249487
2018-05-11,0.847,0.857,0.8170000000000001,0.847,2970222
2018-05-14,0.8270000000000001,0.9059999999999999,0.8170000000000001,0.8759999999999999,3020429
2018-05-15,0.847,0.956,0.847,0.866,2383809
2018-05-16,0.8859999999999999,0.9059999999999999,0.866,0.8959999999999999,2807553
2018-05-17,0.8859999999999999,0.9159999999999999,0.8759999999999999,0.8859999999999999,3454214
2018-05-18,0.847,0.9159999999999999,0.8270000000000001,0.8859999999999999,3325685
2018-05-21,0.8959999999999999,0.8959999999999999,0.857,0.866,2801528
2018-05-23,0.9159999999999999,0.9159999999999999,0.857,0.857,2809561
2018-05-24,0.8759999999999999,0.8759999999999999,0.8370000000000001,0.8370000000000001,2152859
2018-05-25,0.8859999999999999,0.8859999999999999,0.777,0.797,3396175
2018-05-28,0.797,0.857,0.797,0.797,2405910
2018-05-29,0.8170000000000001,0.8170000000000001,0.797,0.807,2520371
2018-05-30,0.797,0.807,0.747,0.777,3741396
2018-05-31,0.777,0.777,0.747,0.757,3277487
2018-06-01,0.787,0.8170000000000001,0.737,0.807,3839801
2018-06-04,0.797,0.8170000000000001,0.797,0.807,2299462
2018-06-05,0.8,0.83,0.8,0.82,2698000
2018-06-06,0.82,0.82,0.81,0.81,2090000
2018-06-07,0.81,0.84,0.81,0.81,1960000
2018-06-08,0.82,0.82,0.8,0.8,2340000
2018-06-11,0.82,0.82,0.8,0.81,2304923
2018-06-12,0.8,0.82,0.78,0.82,1720000
2018-06-13,0.81,0.81,0.81,0.81,348000
2018-06-14,0.81,0.81,0.81,0.81,450000
2018-06-15,0.81,0.84,0.81,0.83,3412000
2018-06-19,0.82,0.85,0.82,0.83,2888000
2018-06-20,0.82,0.84,0.82,0.83,2292000
2018-06-21,0.84,0.85,0.83,0.85,2556000
2018-06-22,0.84,0.86,0.83,0.85,3770000
2018-06-25,0.85,0.86,0.82,0.82,2896000
2018-06-26,0.82,0.83,0.81,0.82,1990000
2018-06-27,0.83,0.84,0.82,0.82,2172000
2018-06-28,0.83,0.83,0.8,0.81,2422000
2018-06-29,0.81,0.84,0.81,0.83,2458000
2018-07-03,0.82,0.83,0.78,0.79,2724000
2018-07-04,0.79,0.82,0.79,0.8,2614000
2018-07-05,0.8,0.8,0.78,0.78,3040000
2018-07-06,0.77,0.8,0.77,0.78,4776000
2018-07-09,0.78,0.8,0.78,0.78,202000
2018-07-10,0.78,0.79,0.78,0.78,2512000
2018-07-11,0.78,0.78,0.77,0.78,970000
2018-07-12,0.77,0.8,0.77,0.8,168000
2018-07-13,0.8,0.8,0.8,0.8,74000
2018-07-16,0.82,0.83,0.8,0.8,1480000
2018-07-17,0.79,0.8,0.78,0.79,2684000
2018-07-18,0.8,0.8,0.8,0.8,260000
2018-07-19,0.79,0.8,0.79,0.79,96000
2018-07-20,0.79,0.81,0.77,0.8,1610000
2018-07-23,0.8,0.81,0.8,0.81,148000
2018-07-24,0.82,0.82,0.82,0.82,270000
2018-07-25,0.81,1.1,0.8,0.99,7299000
2018-07-26,0.98,1.01,0.95,0.99,1030000
2018-07-27,1.03,1.04,0.96,0.98,522000
2018-07-30,0.98,0.99,0.95,0.95,52000
2018-07-31,0.94,0.94,0.86,0.87,666000
2018-08-01,0.81,0.87,0.81,0.82,1880000
2018-08-02,0.81,0.81,0.78,0.8,852000
2018-08-03,0.81,0.81,0.81,0.81,0
2018-08-06,0.83,0.83,0.81,0.81,425000
2018-08-07,0.81,0.81,0.81,0.81,20000
2018-08-08,0.85,0.85,0.84,0.84,42000
2018-08-09,0.8,0.84,0.8,0.84,46000
2018-08-10,0.84,0.86,0.83,0.86,32000
2018-08-13,0.81,0.81,0.73,0.76,1848000
2018-08-14,0.76,0.76,0.7,0.75,842000
2018-08-15,0.71,0.73,0.71,0.72,394000
2018-08-16,0.75,0.75,0.71,0.74,402000
2018-08-17,0.73,0.82,0.72,0.82,692000
2018-08-20,0.84,0.85,0.8,0.8,132000
2018-08-21,0.76,0.78,0.76,0.78,138000
2018-08-22,0.76,0.8,0.76,0.8,280000
2018-08-23,0.77,0.77,0.77,0.77,10000
2018-08-24,0.78,0.8,0.78,0.8,782000
2018-08-30,0.8,0.8,0.76,0.76,74000
2018-08-31,0.76,0.8,0.76,0.8,190000
2018-09-04,0.8,0.8,0.8,0.8,150000
2018-09-05,0.8,0.8,0.8,0.8,104000
2018-09-06,0.77,0.77,0.75,0.75,54000
2018-09-07,0.77,0.8,0.77,0.79,242000
2018-09-10,0.76,0.79,0.76,0.79,206000
2018-09-11,0.73,0.77,0.73,0.77,102000
2018-09-12,0.76,0.78,0.73,0.78,793000
2018-09-13,0.73,0.78,0.72,0.77,1284000
2018-09-14,0.77,0.8,0.77,0.8,834000
2018-09-17,0.76,0.77,0.76,0.77,84000
2018-09-18,0.76,0.78,0.76,0.78,38000
2018-09-19,0.76,0.77,0.76,0.77,52000
2018-09-21,0.79,0.8,0.79,0.8,104000
2018-09-24,0.79,0.79,0.78,0.78,0
2018-09-26,0.76,0.77,0.76,0.76,202000
2018-09-27,0.76,0.77,0.76,0.77,404000
2018-09-28,0.77,0.8,0.77,0.8,1328000
2018-10-02,0.77,0.78,0.77,0.78,66000
2018-10-03,0.77,0.77,0.77,0.77,152000
2018-10-04,0.77,0.78,0.77,0.78,150000
2018-10-05,0.78,0.8,0.78,0.8,428000
2018-10-08,0.78,0.79,0.77,0.78,298000
2018-10-09,0.78,0.78,0.77,0.78,200000
2018-10-10,0.78,0.78,0.77,0.78,288000
2018-10-11,0.77,0.77,0.76,0.77,2198000
2018-10-12,0.77,0.78,0.77,0.77,1382000
2018-10-15,0.77,0.77,0.76,0.77,1102000
2018-10-16,0.76,0.76,0.76,0.76,332000
2018-10-18,0.76,0.76,0.73,0.75,422000
2018-10-19,0.73,0.75,0.73,0.75,772000
2018-10-22,0.75,0.75,0.73,0.75,294000
2018-10-23,0.75,0.75,0.75,0.75,248000
2018-10-24,0.75,0.75,0.75,0.75,200000
2018-10-25,0.75,0.75,0.75,0.75,384000
2018-10-26,0.75,0.75,0.75,0.75,148000
2018-10-29,0.75,0.75,0.75,0.75,206000
2018-10-31,0.75,0.75,0.75,0.75,78000
2018-11-02,0.87,0.87,0.75,0.78,136000
2018-11-05,0.78,0.78,0.78,0.78,8000
2018-11-07,0.78,0.78,0.77,0.77,72000
2018-11-09,0.79,0.79,0.79,0.79,2000
2018-11-14,0.78,0.78,0.78,0.78,10000
2018-11-16,0.76,0.78,0.76,0.78,122000
2018-11-19,0.77,0.85,0.76,0.78,602000
2018-11-20,0.79,0.79,0.78,0.78,46000
2018-11-22,0.79,0.8,0.79,0.8,592000
2018-11-23,0.79,0.8,0.79,0.8,96000
2018-11-26,0.78,0.78,0.78,0.78,154000
2018-11-27,0.78,0.79,0.78,0.78,48000
2018-11-28,0.79,0.79,0.79,0.79,168000
2018-11-30,0.79,0.85,0.79,0.8,612000
2018-12-03,0.81,0.81,0.78,0.78,834000
2018-12-04,0.78,0.78,0.78,0.78,20000
2018-12-05,0.79,0.82,0.79,0.8,84000
2018-12-06,0.82,0.82,0.8,0.8,164000
2018-12-07,0.8,0.8,0.8,0.8,338000
2018-12-10,0.82,0.83,0.8,0.8,362000
2018-12-11,0.81,0.81,0.81,0.81,39802
2018-12-12,0.8,0.83,0.8,0.83,264000
2018-12-13,0.83,0.83,0.83,0.83,150000
2018-12-14,0.82,0.82,0.82,0.82,158000
2018-12-17,0.83,0.93,0.83,0.9,956000
2018-12-18,0.92,0.95,0.88,0.92,2158000
2018-12-19,0.91,1.0,0.9,0.99,3248500
2018-12-20,0.98,1.03,0.97,1.0,1934000
2018-12-21,0.95,0.99,0.95,0.98,1880000
2018-12-24,0.98,0.99,0.97,0.99,846000
2018-12-27,0.97,0.97,0.9,0.91,1354000
2018-12-28,0.9,0.9,0.83,0.84,1140000
2018-12-31,0.83,0.88,0.83,0.87,1282000
2019-01-02,0.88,0.9,0.83,0.9,1874000
2019-01-03,0.89,0.9,0.85,0.9,1296000
2019-01-04,0.91,0.98,0.87,0.95,1954000
2019-01-07,0.92,0.98,0.86,0.9,496000
2019-01-10,0.83,0.84,0.81,0.82,246000
2019-01-11,0.82,0.85,0.82,0.83,112000
2019-01-14,0.81,0.82,0.78,0.79,1278000
2019-01-15,0.79,0.84,0.77,0.77,90000
2019-01-16,0.77,0.77,0.72,0.76,338000
2019-01-17,0.78,0.78,0.77,0.78,88000
2019-01-18,0.8,0.8,0.78,0.79,94000
2019-01-21,0.79,0.79,0.78,0.78,26000
2019-01-25,0.75,0.78,0.75,0.78,28000
2019-01-28,0.75,0.79,0.75,0.79,18000
2019-01-29,0.75,0.78,0.75,0.78,70000
2019-01-31,0.76,0.78,0.76,0.78,22000
2019-02-01,0.73,0.76,0.73,0.76,24000
2019-02-11,0.76,0.82,0.76,0.79,22000
2019-02-13,0.77,0.79,0.75,0.75,218000
2019-02-14,0.79,0.93,0.79,0.92,1324000
2019-02-15,0.95,0.98,0.92,0.98,730000
2019-02-18,0.97,0.98,0.97,0.97,244000
2019-02-19,0.97,0.98,0.97,0.98,120000
2019-02-20,0.98,0.98,0.98,0.98,52000
2019-02-21,0.98,0.98,0.98,0.98,10000
2019-02-25,0.95,0.97,0.95,0.97,152000
2019-02-26,0.85,0.96,0.85,0.94,14000
2019-02-27,0.92,0.97,0.92,0.97,90000
2019-02-28,0.97,0.97,0.97,0.97,12000
2019-03-01,0.96,1.01,0.96,1.0,574000
2019-03-04,0.99,1.0,0.99,1.0,18000
2019-03-05,1.0,1.0,1.0,1.0,6000
2019-03-06,1.0,1.0,0.9,0.91,110000
2019-03-07,0.97,0.97,0.97,0.97,8000
2019-03-08,0.89,0.94,0.88,0.94,180000
2019-03-11,0.88,0.97,0.87,0.97,150000
2019-03-12,0.97,0.98,0.92,0.93,447000
2019-03-13,0.89,0.95,0.89,0.95,1202000
2019-03-14,0.9,0.9,0.9,0.9,208000
2019-03-18,0.9,0.94,0.9,0.91,48000
2019-03-19,0.96,0.96,0.94,0.94,10000
2019-03-20,0.96,0.98,0.92,0.94,1796000
2019-03-21,0.94,1.18,0.93,0.99,2454000
2019-03-22,1.01,1.05,0.99,1.0,1656000
2019-03-25,1.0,1.04,0.98,0.99,1164000
2019-03-26,0.99,1.03,0.98,1.0,2468000
2019-03-27,1.01,1.08,0.99,1.05,5748000
2019-03-28,1.06,1.25,1.06,1.21,4474000
2019-03-29,1.25,1.31,1.23,1.26,2334000
2019-04-01,1.27,1.3,1.2,1.25,2232000
2019-04-02,1.23,1.27,1.21,1.23,1474000
2019-04-03,1.22,1.28,1.22,1.25,786000
2019-04-04,1.25,1.28,1.24,1.25,614000
2019-04-08,1.24,1.28,1.23,1.25,1060000
2019-04-09,1.26,1.27,1.24,1.25,466000
2019-04-10,1.24,1.27,1.24,1.25,1010000
2019-04-11,1.26,1.45,1.26,1.41,7141000
2019-04-12,1.41,1.46,1.35,1.42,3320000
2019-04-15,1.41,1.41,1.37,1.38,3838000
2019-04-16,1.39,1.39,1.31,1.31,8076000
2019-04-17,1.31,1.32,1.29,1.29,3060000
2019-04-18,1.31,1.35,1.29,1.33,3778000
2019-04-23,1.34,1.46,1.34,1.42,2518000
2019-04-24,1.42,1.45,1.41,1.45,2260000
2019-04-25,1.43,1.45,1.41,1.43,2034000
2019-04-26,1.42,1.44,1.41,1.43,1422000
2019-04-29,1.42,1.42,1.37,1.4,1632000
2019-04-30,1.41,1.47,1.33,1.33,3034000
2019-05-02,1.33,1.37,1.32,1.34,1718000
2019-05-03,1.34,1.38,1.34,1.38,900000
2019-05-06,1.36,1.45,1.36,1.41,2362000
2019-05-07,1.4,1.55,1.4,1.43,2862000
2019-05-08,1.45,1.54,1.44,1.46,3732000
2019-05-09,1.48,1.51,1.44,1.5,5870000
2019-05-10,1.55,1.55,1.47,1.49,2334000
2019-05-14,1.47,1.47,1.43,1.43,2112000
2019-05-15,1.53,1.54,1.4,1.41,2296000
2019-05-16,1.5,1.5,1.39,1.4,2434000
2019-05-17,1.41,1.44,1.38,1.44,4505000
2019-05-20,1.43,1.45,1.41,1.42,1776000
2019-05-21,1.42,1.48,1.42,1.47,1618000
2019-05-22,1.46,1.47,1.44,1.45,1986000
2019-05-23,1.44,1.49,1.44,1.46,1984000
2019-05-24,1.46,1.47,1.44,1.44,1710000
2019-05-27,1.48,1.53,1.45,1.46,2338000
2019-05-28,1.45,1.48,1.45,1.47,2006000
2019-05-29,1.47,1.5,1.46,1.47,1260000
2019-05-30,1.47,1.51,1.47,1.48,1826000
2019-05-31,1.51,1.53,1.48,1.48,1670000
2019-06-03,1.48,1.49,1.47,1.47,1808000
2019-06-04,1.47,1.49,1.44,1.44,2196000
2019-06-05,1.44,1.44,1.4,1.42,2199000
2019-06-06,1.44,1.48,1.42,1.47,5158000
2019-06-10,1.47,1.49,1.47,1.48,2465000
2019-06-11,1.47,1.49,1.46,1.47,1562000
2019-06-12,1.48,1.48,1.46,1.47,1962000
2019-06-13,1.48,1.48,1.44,1.46,1582000
2019-06-14,1.45,1.47,1.45,1.47,1462000
2019-06-17,1.46,1.46,1.44,1.44,1252000
2019-06-18,1.44,1.44,1.4,1.41,596000
2019-06-19,1.42,1.42,1.38,1.38,938000
2019-06-20,1.38,1.41,1.38,1.39,780000
2019-06-21,1.4,1.41,1.38,1.39,540000
2019-06-24,1.39,1.4,1.36,1.37,514000
2019-06-25,1.37,1.4,1.36,1.36,602000
2019-06-26,1.37,1.37,1.3,1.33,1638000
2019-06-27,1.34,1.37,1.33,1.35,1420000
2019-06-28,1.34,1.38,1.34,1.35,1180000
2019-07-02,1.36,1.5,1.36,1.48,3054000
2019-07-03,1.47,1.49,1.45,1.46,1430000
2019-07-04,1.46,1.48,1.44,1.46,1642000
2019-07-05,1.48,1.48,1.46,1.47,814000
2019-07-08,1.47,1.51,1.46,1.51,1824000
2019-07-09,1.53,1.53,1.42,1.44,2500000
2019-07-10,1.44,1.5,1.44,1.5,2010000
2019-07-11,1.49,1.5,1.47,1.47,1656000
2019-07-12,1.47,1.51,1.44,1.45,1686000
2019-07-15,1.44,1.44,1.24,1.29,2534000
2019-07-16,1.3,1.36,1.29,1.35,3366000
2019-07-17,1.3,1.34,1.16,1.21,4964000
2019-07-18,1.2,1.22,1.19,1.21,1036000
2019-07-19,1.2,1.24,1.19,1.2,1978000
2019-07-22,1.2,1.2,1.04,1.09,3330000
2019-07-23,1.11,1.12,1.08,1.11,2370000
2019-07-24,1.11,1.12,1.06,1.09,1718000
2019-07-25,1.1,1.1,1.04,1.1,2094000
2019-07-26,1.13,1.14,1.07,1.14,3298000
2019-07-29,1.1,1.15,1.1,1.14,3040000
2019-07-30,1.15,1.2,1.11,1.16,3656000
2019-07-31,1.18,1.18,1.12,1.16,2988000
2019-08-01,1.16,1.19,1.12,1.15,2850000
2019-08-02,1.17,1.17,1.11,1.15,1026000
2019-08-05,1.18,1.18,1.07,1.1,3364000
2019-08-06,1.07,1.07,1.04,1.06,332000
2019-08-07,1.07,1.07,1.04,1.06,216000
2019-08-08,1.09,1.09,1.04,1.06,2208000
2019-08-09,1.06,1.11,1.05,1.1,3536000
2019-08-12,1.07,1.14,1.06,1.09,3848000
2019-08-13,1.1,1.1,1.01,1.02,1002000
2019-08-14,1.0,1.06,1.0,1.03,1602000
2019-08-15,1.05,1.05,0.97,1.01,1136000
2019-08-16,1.01,1.05,1.0,1.03,4548000
2019-08-19,1.04,1.04,1.02,1.04,2346000
2019-08-20,1.06,1.1,1.05,1.1,3334000
2019-08-21,1.13,1.13,1.09,1.1,2498000
2019-08-22,1.11,1.12,1.07,1.1,2064000
2019-08-23,1.1,1.14,1.06,1.14,2174000
2019-08-26,1.1,1.12,1.1,1.12,1026000
2019-08-27,1.12,1.15,1.1,1.14,3040000
2019-08-28,1.13,1.16,1.11,1.16,2252077
2019-08-29,1.16,1.18,1.15,1.17,2322000
2019-08-30,1.16,1.19,1.14,1.18,1956000
2019-09-02,1.21,1.23,1.17,1.18,2048000
2019-09-03,1.21,1.21,1.17,1.19,2166000
2019-09-04,1.19,1.22,1.16,1.2,2858000
2019-09-05,1.23,1.23,1.16,1.2,1818000
2019-09-06,1.2,1.21,1.16,1.18,1586000
2019-09-09,1.19,1.2,1.18,1.19,1016000
2019-09-10,1.23,1.24,1.18,1.18,1624000
2019-09-11,1.19,1.2,1.15,1.2,2008000
2019-09-12,1.19,1.2,1.18,1.19,1870000
2019-09-13,1.2,1.21,1.17,1.19,1058000
2019-09-16,1.19,1.2,1.18,1.19,1442000
2019-09-17,1.18,1.2,1.17,1.19,1531000
2019-09-18,1.21,1.21,1.17,1.17,1620000
2019-09-19,1.17,1.25,1.16,1.18,7504000
2019-09-20,1.22,1.22,1.16,1.19,1364000
2019-09-23,1.18,1.22,1.17,1.22,2344000
2019-09-24,1.25,1.25,1.22,1.22,2978000
2019-09-25,1.24,1.24,1.19,1.21,1114000
2019-09-26,1.19,1.21,1.17,1.19,652000
2019-09-27,1.22,1.22,1.19,1.22,848000
2019-09-30,1.23,1.25,1.22,1.23,1454000
2019-10-02,1.24,1.24,1.23,1.23,750000
2019-10-03,1.23,1.24,1.21,1.23,1268000
2019-10-04,1.26,1.29,1.22,1.26,1112000
2019-10-08,1.21,1.25,1.21,1.24,1080000
2019-10-09,1.24,1.25,1.21,1.21,1522000
2019-10-10,1.21,1.25,1.2,1.21,1648000
2019-10-11,1.21,1.23,1.21,1.23,1056000
2019-10-14,1.24,1.24,1.22,1.24,876000
2019-10-15,1.23,1.25,1.22,1.24,1074000
2019-10-16,1.25,1.31,1.25,1.26,1270000
2019-10-17,1.28,1.39,1.27,1.28,816000
2019-10-18,1.29,1.37,1.28,1.31,678000
2019-10-21,1.29,1.37,1.27,1.37,1304000
2019-10-22,1.34,1.38,1.3,1.35,908000
2019-10-23,1.33,1.33,1.24,1.29,1240000
2019-10-24,1.27,1.31,1.27,1.31,1220000
2019-10-25,1.3,1.35,1.3,1.34,1609000
2019-10-28,1.33,1.36,1.32,1.36,1286000
2019-10-29,1.37,1.38,1.32,1.32,1456000
2019-10-30,1.31,1.34,1.26,1.3,1058000
2019-10-31,1.29,1.31,1.28,1.31,984000
2019-11-01,1.28,1.3,1.26,1.27,1194000
2019-11-04,1.25,1.29,1.25,1.26,882000
2019-11-05,1.31,1.31,1.25,1.26,790000
2019-11-06,1.31,1.31,1.25,1.26,1042000
2019-11-07,1.3,1.33,1.22,1.26,1344000
2019-11-08,1.22,1.26,1.21,1.26,1012000
2019-11-11,1.25,1.25,1.14,1.22,940000
2019-11-12,1.25,1.26,1.15,1.2,1020000
2019-11-13,1.23,1.23,1.16,1.2,800000
2019-11-14,1.2,1.2,1.14,1.16,902000
2019-11-15,1.19,1.24,1.17,1.21,480000
2019-11-18,1.22,1.24,1.15,1.2,1862000
2019-11-19,1.22,1.22,1.15,1.2,1948000
2019-11-20,1.19,1.2,1.18,1.2,1024000
2019-11-21,1.2,1.2,1.17,1.2,1122000
2019-11-22,1.2,1.2,1.18,1.2,1480000
2019-11-25,1.18,1.24,1.18,1.21,1892000
2019-11-26,1.25,1.25,1.2,1.25,1398000
2019-11-27,1.22,1.23,1.19,1.22,1354000
2019-11-28,1.2,1.25,1.2,1.25,1468000
2019-11-29,1.19,1.24,1.19,1.21,1551000
2019-12-02,1.21,1.24,1.19,1.22,1242000
2019-12-03,1.22,1.22,1.18,1.2,1286000
2019-12-04,1.18,1.19,1.18,1.19,1240000
2019-12-05,1.18,1.2,1.18,1.2,3196000
2019-12-06,1.2,1.31,1.19,1.27,58646000
2019-12-09,1.25,1.35,1.23,1.35,2300000
2019-12-10,1.31,1.35,1.26,1.28,1866000
2019-12-11,1.28,1.31,1.26,1.31,1448000
2019-12-12,1.27,1.33,1.27,1.33,2198000
2019-12-13,1.34,1.34,1.3,1.32,1692000
2019-12-16,1.38,1.38,1.28,1.29,1446000
2019-12-17,1.33,1.33,1.26,1.28,1480000
2019-12-18,1.24,1.31,1.24,1.31,1702000
2019-12-19,1.3,1.33,1.28,1.32,1636000
2019-12-20,1.28,1.46,1.28,1.45,1666000
2019-12-23,1.45,1.45,1.35,1.37,2210000
2019-12-24,1.42,1.44,1.37,1.38,1330000
2019-12-27,1.35,1.39,1.35,1.38,3026000
2019-12-30,1.42,1.43,1.34,1.35,4576000
2019-12-31,1.37,1.37,1.28,1.32,2498000
2020-01-02,1.32,1.34,1.3,1.32,3276000
2020-01-03,1.34,1.36,1.28,1.31,3066000
2020-01-06,1.34,1.35,1.29,1.29,2526000
2020-01-07,1.31,1.32,1.28,1.28,2680000
2020-01-08,1.28,1.31,1.27,1.29,2214000
2020-01-09,1.28,1.35,1.28,1.35,4038000
2020-01-10,1.34,1.35,1.3,1.32,3852000
2020-01-13,1.3,1.4,1.3,1.38,4534000
2020-01-14,1.38,1.39,1.3,1.3,4004000
2020-01-15,1.29,1.33,1.26,1.28,4562000
2020-01-16,1.26,1.3,1.26,1.3,4122000
2020-01-17,1.26,1.27,1.22,1.22,4220000
2020-01-20,1.22,1.23,1.19,1.21,5896000
2020-01-21,1.2,1.3,1.19,1.27,95100000
2020-01-22,1.26,1.4,1.26,1.38,6434000
2020-01-23,1.31,1.45,1.31,1.38,5230000
2020-01-24,1.38,1.54,1.38,1.54,1894000
2020-01-29,1.35,1.6,1.35,1.53,6488000
2020-01-30,1.47,1.62,1.47,1.54,6130000
2020-01-31,1.54,1.59,1.44,1.54,7598000
2020-02-03,1.49,1.58,1.49,1.54,6224000
2020-02-04,1.5,1.68,1.5,1.66,6232000
2020-02-05,1.56,1.89,1.56,1.8,8466000
2020-02-06,1.75,1.88,1.72,1.86,8182000
2020-02-07,1.8,1.87,1.53,1.63,6139000
2020-02-10,1.59,1.8,1.59,1.73,5900000
2020-02-11,1.67,1.78,1.67,1.7,6232000
2020-02-12,1.65,1.78,1.65,1.68,6480000
2020-02-13,1.65,1.75,1.65,1.68,6282000
2020-02-14,1.65,1.85,1.62,1.8,6950000
2020-02-17,1.86,1.88,1.78,1.84,5686000
2020-02-18,1.83,1.99,1.83,1.95,6779000
2020-02-19,2.05,2.05,1.91,2.0,6020000
2020-02-20,1.99,2.0,1.92,1.92,5512000
2020-02-21,1.96,1.97,1.88,1.94,5412000
2020-02-24,1.99,1.99,1.9,1.93,5474000
2020-02-25,1.97,1.98,1.76,1.77,4562000
2020-02-26,1.77,1.83,1.74,1.75,5236000
2020-02-27,1.7,1.82,1.7,1.82,6490000
2020-02-28,1.74,1.82,1.74,1.81,5482000
2020-03-02,1.79,1.85,1.77,1.84,6016000
2020-03-03,1.88,1.89,1.8,1.81,5288000
2020-03-04,1.83,1.83,1.67,1.79,6074000
2020-03-05,1.78,1.78,1.72,1.74,5986000
2020-03-06,1.7,1.79,1.7,1.75,5198000
2020-03-09,1.73,1.75,1.66,1.72,4548000
2020-03-10,1.7,1.73,1.66,1.69,5578000
2020-03-11,1.74,1.74,1.67,1.69,5792000
2020-03-12,1.69,1.69,1.58,1.6,3184000
2020-03-13,1.56,1.58,1.46,1.5,3294000
2020-03-16,1.49,1.49,1.36,1.4,1720000
2020-03-17,1.37,1.44,1.3,1.35,1520000
2020-03-18,1.33,1.37,1.2,1.22,2436000
2020-03-19,1.25,1.25,1.16,1.24,1726000
2020-03-20,1.21,1.4,1.21,1.32,1812000
2020-03-23,1.3,1.5,1.29,1.48,2366000
2020-03-24,1.46,1.5,1.46,1.49,3492000
2020-03-25,1.47,1.68,1.47,1.64,5832000
2020-03-26,1.61,1.64,1.59,1.61,6414000
2020-03-27,1.59,1.77,1.59,1.7,5430000
2020-03-30,1.75,1.78,1.54,1.59,904000
2020-03-31,1.63,1.63,1.56,1.6,1374000
2020-04-01,1.64,1.64,1.53,1.58,1818000
2020-04-02,1.63,1.63,1.53,1.59,2156000
2020-04-03,1.56,1.59,1.48,1.58,1680000
2020-04-06,1.6,1.6,1.5,1.6,676000
2020-04-07,1.6,1.65,1.56,1.65,5892000
2020-04-08,1.65,1.67,1.6,1.63,4148000
2020-04-09,1.67,1.67,1.57,1.65,4640000
2020-04-14,1.64,1.65,1.6,1.65,5024000
2020-04-15,1.7,1.73,1.63,1.69,4840000
2020-04-16,1.76,1.76,1.66,1.7,3918000
2020-04-17,1.71,1.71,1.66,1.7,4662000
2020-04-20,1.78,1.78,1.68,1.68,5770000
2020-04-21,1.7,1.7,1.65,1.68,2928000
2020-04-22,1.68,1.72,1.64,1.68,2570000
2020-04-23,1.69,1.69,1.65,1.67,1774000
2020-04-24,1.69,1.69,1.54,1.63,1224000
2020-04-27,1.66,1.66,1.55,1.62,1298000
2020-04-28,1.63,1.63,1.56,1.59,1022000
2020-04-29,1.62,1.63,1.57,1.63,582000
2020-05-04,1.63,1.65,1.57,1.65,2130000
2020-05-05,1.67,1.7,1.59,1.7,4974000
2020-05-06,1.69,1.7,1.65,1.66,2828000
2020-05-07,1.69,1.69,1.59,1.62,2507000
2020-05-08,1.64,1.64,1.56,1.62,2356000
2020-05-11,1.61,1.64,1.61,1.61,1956000
2020-05-12,1.63,1.63,1.58,1.62,1292000
2020-05-13,1.61,1.68,1.61,1.66,3506000
2020-05-14,1.68,1.75,1.65,1.68,3436000
2020-05-15,1.67,1.7,1.63,1.66,2216000
2020-05-18,1.65,1.69,1.65,1.67,1726000
2020-05-19,1.68,1.72,1.68,1.7,1320000
2020-05-20,1.68,1.7,1.68,1.7,1402000
2020-05-21,1.69,1.7,1.65,1.67,2296000
2020-05-22,1.66,1.7,1.62,1.66,2566000
2020-05-25,1.68,1.68,1.63,1.65,2382000
2020-05-26,1.66,1.7,1.59,1.6,2614000
2020-05-27,1.56,1.61,1.53,1.61,2698000
2020-05-28,1.59,1.64,1.59,1.6,3098000
2020-05-29,1.6,1.6,1.55,1.6,9727747
2020-06-01,1.59,1.6,1.58,1.6,2934000
2020-06-02,1.59,1.63,1.59,1.6,2876000
2020-06-03,1.6,1.6,1.57,1.6,2818000
2020-06-04,1.59,1.6,1.58,1.6,3230000
2020-06-05,1.59,1.6,1.54,1.6,3418000
2020-06-08,1.59,1.6,1.57,1.6,5154000
2020-06-09,1.57,1.58,1.56,1.58,3754000
2020-06-10,1.6,1.63,1.56,1.58,3280000
2020-06-11,1.58,1.58,1.53,1.58,2362000
2020-06-12,1.59,1.59,1.45,1.5,1524000
2020-06-15,1.55,1.55,1.41,1.46,1928000
2020-06-16,1.48,1.55,1.47,1.55,3776000
2020-06-17,1.55,1.55,1.48,1.5,4006000
2020-06-18,1.5,1.5,1.43,1.47,3504000
2020-06-19,1.48,1.58,1.48,1.58,4366000
2020-06-22,1.58,1.6,1.5,1.52,3488000
2020-06-23,1.52,1.55,1.49,1.55,3596000
2020-06-24,1.55,1.55,1.53,1.55,3386000
2020-06-26,1.55,1.58,1.52,1.58,3652000
2020-06-29,1.57,1.59,1.52,1.59,3320000
2020-06-30,1.57,1.57,1.46,1.47,3284000
2020-07-02,1.5,1.5,1.46,1.48,3112000
2020-07-03,1.5,1.55,1.47,1.55,3550000
2020-07-06,1.53,1.56,1.47,1.51,3522000
2020-07-07,1.5,1.51,1.43,1.48,4142000
2020-07-08,1.47,1.47,1.41,1.43,3866000
2020-07-09,1.41,1.47,1.39,1.47,4060000
2020-07-10,1.44,1.44,1.39,1.4,4440000
2020-07-13,1.43,1.45,1.36,1.4,4998000
2020-07-14,1.4,1.41,1.34,1.38,4294000
2020-07-15,1.38,1.43,1.35,1.43,3972000
2020-07-16,1.39,1.42,1.38,1.39,3920000
2020-07-17,1.4,1.4,1.35,1.38,3770000
2020-07-20,1.38,1.39,1.34,1.39,3916000
2020-07-21,1.38,1.42,1.38,1.42,4252000
2020-07-22,1.42,1.44,1.4,1.44,3938000
2020-07-23,1.44,1.47,1.43,1.47,3628000
2020-07-24,1.46,1.46,1.38,1.38,3048000
2020-07-27,1.34,1.38,1.34,1.37,3682000
2020-07-28,1.33,1.38,1.33,1.38,3952000
2020-07-29,1.38,1.38,1.33,1.36,3286000
2020-07-30,1.36,1.36,1.31,1.35,3788000
2020-07-31,1.35,1.36,1.3,1.36,4028000
2020-08-03,1.36,1.42,1.36,1.39,3840000
2020-08-04,1.4,1.4,1.28,1.31,2932000
2020-08-05,1.31,1.31,1.26,1.27,4182000
2020-08-06,1.28,1.31,1.26,1.29,4068000
2020-08-07,1.28,1.3,1.25,1.28,3564000
2020-08-10,1.27,1.31,1.26,1.28,4186000
2020-08-11,1.28,1.33,1.28,1.3,4238000
2020-08-12,1.3,1.3,1.25,1.25,3980000
2020-08-13,1.27,1.27,1.24,1.27,3588000
2020-08-14,1.26,1.29,1.25,1.28,4856000
2020-08-17,1.28,1.29,1.27,1.28,3808000
2020-08-18,1.28,1.33,1.27,1.28,4092000
2020-08-19,1.3,1.32,1.28,1.28,3540000
2020-08-20,1.28,1.29,1.24,1.26,5050000
2020-08-21,1.27,1.29,1.25,1.27,4311000
2020-08-24,1.28,1.28,1.25,1.28,4478000
2020-08-25,1.28,1.28,1.24,1.26,4242000
