Date,Open,High,Low,Close,Volume
2014-08-05,0.91,0.92,0.91,0.92,1150000
2014-08-06,0.92,0.92,0.9,0.91,1366000
2014-08-07,0.91,0.91,0.9,0.9,2296000
2014-08-08,0.9,0.91,0.9,0.91,822000
2014-08-11,0.91,0.92,0.9,0.9,760000
2014-08-12,0.9,0.95,0.9,0.94,11834000
2014-08-13,0.94,0.95,0.91,0.92,3394000
2014-08-14,0.93,0.94,0.92,0.93,882000
2014-08-15,0.93,0.95,0.92,0.92,7366000
2014-08-18,0.89,0.9,0.85,0.87,6706000
2014-08-19,0.87,0.87,0.85,0.86,2878000
2014-08-20,0.85,0.86,0.85,0.86,1330000
2014-08-21,0.86,0.86,0.81,0.82,12006000
2014-08-22,0.83,0.84,0.83,0.84,1784000
2014-08-25,0.83,0.83,0.82,0.83,1232000
2014-08-26,0.83,0.84,0.82,0.84,1486000
2014-08-27,0.83,0.83,0.82,0.83,636000
2014-08-28,0.83,0.83,0.82,0.83,1224000
2014-08-29,0.82,0.83,0.81,0.83,1078000
2014-09-01,0.83,0.86,0.83,0.85,10608000
2014-09-02,0.85,0.85,0.83,0.85,794000
2014-09-03,0.84,0.85,0.83,0.83,750000
2014-09-04,0.84,0.84,0.82,0.83,4610000
2014-09-05,0.83,0.84,0.82,0.83,1252000
2014-09-08,0.84,0.85,0.83,0.85,1392000
2014-09-10,0.84,0.85,0.83,0.85,2298000
2014-09-11,0.85,0.85,0.83,0.83,2168000
2014-09-12,0.83,0.84,0.83,0.83,288000
2014-09-15,0.83,0.83,0.83,0.83,716000
2014-09-16,0.83,0.83,0.82,0.82,550000
2014-09-17,0.83,0.86,0.82,0.85,4876000
2014-09-18,0.85,0.85,0.83,0.84,1190000
2014-09-19,0.84,0.85,0.83,0.85,2670000
2014-09-22,0.83,0.84,0.83,0.84,1492000
2014-09-23,0.84,0.84,0.82,0.83,2772000
2014-09-24,0.83,0.83,0.82,0.83,1404000
2014-09-25,0.83,0.83,0.82,0.83,1426000
2014-09-26,0.83,0.84,0.82,0.84,2200000
2014-09-29,0.82,0.85,0.79,0.84,5274000
2014-09-30,0.82,0.83,0.8,0.83,2260000
2014-10-03,0.81,0.82,0.8,0.81,1470000
2014-10-06,0.82,0.83,0.81,0.83,764000
2014-10-07,0.81,0.82,0.81,0.81,564000
2014-10-08,0.82,0.82,0.81,0.82,166000
2014-10-09,0.82,0.83,0.82,0.83,1028000
2014-10-10,0.82,0.83,0.81,0.83,1104000
2014-10-13,0.83,0.86,0.83,0.86,5686000
2014-10-14,0.86,0.86,0.84,0.85,1780000
2014-10-15,0.85,0.86,0.83,0.84,1210000
2014-10-16,0.84,0.84,0.82,0.83,1842000
2014-10-17,0.83,0.88,0.83,0.87,6934000
2014-10-20,0.88,0.88,0.86,0.88,2122000
2014-10-21,0.85,0.86,0.85,0.86,1040000
2014-10-22,0.87,0.87,0.85,0.85,2794000
2014-10-23,0.84,0.85,0.83,0.84,1088000
2014-10-24,0.84,0.84,0.83,0.84,1214000
2014-10-27,0.82,0.83,0.82,0.82,654000
2014-10-28,0.82,0.86,0.82,0.86,1228000
2014-10-29,0.86,0.86,0.85,0.85,958000
2014-10-30,0.84,0.84,0.84,0.84,772000
2014-10-31,0.84,0.84,0.83,0.83,1854000
2014-11-03,0.85,0.85,0.81,0.83,2998000
2014-11-04,0.82,0.84,0.82,0.84,2864000
2014-11-05,0.83,0.84,0.82,0.83,1206000
2014-11-06,0.83,0.84,0.81,0.82,86840000
2014-11-07,0.81,0.82,0.78,0.81,6818000
2014-11-10,0.8,0.8,0.77,0.78,8156000
2014-11-11,0.77,0.78,0.76,0.77,3036000
2014-11-12,0.77,0.8,0.77,0.79,3970000
2014-11-13,0.79,0.79,0.77,0.78,1042000
2014-11-14,0.78,0.79,0.78,0.79,342000
2014-11-17,0.78,0.79,0.77,0.78,850000
2014-11-18,0.77,0.79,0.77,0.78,1346000
2014-11-19,0.78,0.8,0.78,0.79,4120000
2014-11-20,0.79,0.79,0.78,0.78,1108000
2014-11-21,0.78,0.8,0.78,0.8,382000
2014-11-24,0.79,0.81,0.79,0.8,1410000
2014-11-25,0.79,0.81,0.79,0.81,1246000
2014-11-26,0.8,0.8,0.78,0.8,1050000
2014-11-27,0.8,0.8,0.78,0.78,1682000
2014-11-28,0.78,0.78,0.76,0.77,1877700
2014-12-01,0.77,0.77,0.75,0.75,2776000
2014-12-02,0.76,0.77,0.75,0.76,1166000
2014-12-03,0.76,0.76,0.72,0.75,4408000
2014-12-04,0.74,0.74,0.67,0.69,11710000
2014-12-05,0.69,0.69,0.61,0.63,11232000
2014-12-08,0.62,0.63,0.59,0.61,8632000
2014-12-09,0.6,0.61,0.57,0.61,7468000
2014-12-10,0.6,0.61,0.57,0.61,11992000
2014-12-11,0.59,0.64,0.57,0.62,14970000
2014-12-12,0.61,0.63,0.59,0.62,9326000
2014-12-15,0.6,0.62,0.6,0.62,15146000
2014-12-16,0.62,0.63,0.6,0.63,8238000
2014-12-17,0.62,0.63,0.61,0.63,12658000
2014-12-18,0.63,0.65,0.63,0.64,6828000
2014-12-19,0.65,0.65,0.63,0.65,12950000
2014-12-22,0.64,0.65,0.63,0.64,5294000
2014-12-23,0.64,0.65,0.62,0.65,10154000
2014-12-24,0.65,0.65,0.62,0.65,8980000
2014-12-29,0.65,0.65,0.63,0.65,10796000
2014-12-30,0.65,0.65,0.63,0.65,8594000
2014-12-31,0.65,0.66,0.63,0.66,10582000
2015-01-02,0.66,0.7,0.66,0.7,11674000
2015-01-05,0.7,0.75,0.69,0.75,22494000
2015-01-06,0.73,0.76,0.72,0.74,9582000
2015-01-07,0.74,0.74,0.72,0.74,4506000
2015-01-08,0.74,0.75,0.72,0.74,4834000
2015-01-09,0.74,0.75,0.71,0.73,5856000
2015-01-12,0.72,0.73,0.68,0.72,13578000
2015-01-13,0.71,0.72,0.69,0.71,5754000
2015-01-14,0.71,0.71,0.67,0.68,14582000
2015-01-15,0.67,0.68,0.61,0.67,15430000
2015-01-16,0.66,0.68,0.63,0.68,2112000
2015-01-19,0.66,0.7,0.6,0.7,14298000
2015-01-20,0.68,0.69,0.61,0.69,12014000
2015-01-21,0.68,0.7,0.64,0.7,10570000
2015-01-22,0.7,0.71,0.65,0.7,16256000
2015-01-23,0.7,0.7,0.67,0.7,10518000
2015-01-26,0.7,0.72,0.66,0.72,10628000
2015-01-27,0.7,0.72,0.68,0.68,39016000
2015-01-28,0.68,0.7,0.67,0.69,2826000
2015-01-29,0.69,0.69,0.66,0.68,4330000
2015-01-30,0.68,0.68,0.62,0.66,28288000
2015-02-02,0.63,0.65,0.62,0.64,7132000
2015-02-03,0.64,0.64,0.6,0.61,5832000
2015-02-04,0.6,0.62,0.59,0.62,4002000
2015-02-05,0.61,0.62,0.6,0.62,2268000
2015-02-06,0.6,0.62,0.6,0.62,8386000
2015-02-09,0.62,0.62,0.59,0.6,5464000
2015-02-10,0.61,0.63,0.61,0.63,6784000
2015-02-11,0.63,0.64,0.6,0.62,8948000
2015-02-12,0.62,0.62,0.61,0.62,1008000
2015-02-13,0.61,0.62,0.6,0.62,4858000
2015-02-16,0.62,0.62,0.6,0.61,1408000
2015-02-17,0.61,0.61,0.59,0.61,3854000
2015-02-18,0.61,0.61,0.59,0.61,3718000
2015-02-23,0.61,0.66,0.61,0.64,10296000
2015-02-24,0.64,0.65,0.63,0.64,7810000
2015-02-25,0.64,0.67,0.64,0.66,8682000
2015-02-26,0.66,0.68,0.66,0.67,10696000
2015-02-27,0.67,0.72,0.65,0.7,17158000
2015-03-02,0.69,0.77,0.69,0.76,18258000
2015-03-03,0.76,0.78,0.71,0.75,19920000
2015-03-04,0.75,0.76,0.69,0.73,11374000
2015-03-05,0.72,0.74,0.71,0.74,4622000
2015-03-06,0.75,0.76,0.72,0.74,11438000
2015-03-09,0.73,0.75,0.71,0.72,11928000
2015-03-10,0.72,0.74,0.72,0.73,4874000
2015-03-11,0.73,0.78,0.71,0.78,15036000
2015-03-12,0.78,0.78,0.74,0.77,10922000
2015-03-13,0.77,0.77,0.74,0.76,6516000
2015-03-16,0.75,0.75,0.68,0.69,11876000
2015-03-17,0.7,0.71,0.68,0.7,13884000
2015-03-18,0.7,0.71,0.69,0.7,7304000
2015-03-19,0.7,0.7,0.68,0.69,1866000
2015-03-20,0.7,0.72,0.69,0.7,12634000
2015-03-23,0.7,0.7,0.67,0.67,6856000
2015-03-24,0.67,0.68,0.65,0.66,47412000
2015-03-25,0.66,0.67,0.64,0.66,8264000
2015-03-26,0.66,0.67,0.66,0.67,2000000
2015-03-27,0.67,0.68,0.65,0.66,8948000
2015-03-30,0.66,0.67,0.65,0.66,7826000
2015-03-31,0.67,0.7,0.67,0.69,9186000
2015-04-01,0.69,0.69,0.67,0.69,9584000
2015-04-02,0.69,0.72,0.68,0.72,11206000
2015-04-08,0.72,0.75,0.72,0.74,11852000
2015-04-09,0.74,0.77,0.73,0.76,14958000
2015-04-10,0.77,0.77,0.74,0.75,11642000
2015-04-13,0.74,0.8,0.74,0.8,28762000
2015-04-14,0.81,0.9,0.81,0.87,40240200
2015-04-15,0.87,0.88,0.82,0.84,13226000
2015-04-16,0.84,0.85,0.83,0.85,7584000
2015-04-17,0.85,0.86,0.82,0.83,14260000
2015-04-20,0.82,0.82,0.77,0.77,6358000
2015-04-21,0.79,0.81,0.78,0.79,8628000
2015-04-22,0.8,0.84,0.8,0.81,10186000
2015-04-23,0.83,0.85,0.82,0.84,10620000
2015-04-24,0.84,0.86,0.81,0.85,10364000
2015-04-27,0.85,0.87,0.85,0.86,14346000
2015-04-28,0.85,0.86,0.83,0.84,8684000
2015-04-29,0.84,0.84,0.81,0.83,6208000
2015-04-30,0.83,0.85,0.82,0.84,8702000
2015-05-04,0.84,0.86,0.83,0.85,9954000
2015-05-05,0.85,0.86,0.81,0.83,13552000
2015-05-06,0.83,0.83,0.8,0.8,11420000
2015-05-07,0.8,0.8,0.77,0.78,7540000
2015-05-08,0.78,0.82,0.78,0.81,10418000
2015-05-11,0.83,0.89,0.83,0.85,33098000
2015-05-12,0.87,0.87,0.83,0.84,8562000
2015-05-13,0.84,0.87,0.82,0.86,28364000
2015-05-14,0.98,1.21,0.96,1.2,267092000
2015-05-15,1.26,1.42,1.22,1.23,241463904
2015-05-18,1.25,1.28,1.06,1.22,203263008
2015-05-19,1.25,1.34,1.2,1.25,54624000
2015-05-20,1.26,1.3,1.21,1.25,25562000
2015-05-21,1.25,1.25,1.2,1.24,46054000
2015-05-22,1.39,1.48,1.35,1.39,121019904
2015-05-26,1.44,1.47,1.4,1.41,123310000
2015-05-27,1.41,1.44,1.36,1.43,37692000
2015-05-28,1.44,1.45,1.36,1.4,29508000
2015-05-29,1.39,1.62,1.39,1.57,135514000
2015-06-01,1.59,1.64,1.55,1.57,36730200
2015-06-02,1.59,1.59,1.52,1.54,22024000
2015-06-03,1.55,1.55,1.45,1.48,19090000
2015-06-04,1.48,1.56,1.45,1.5,29050000
2015-06-05,1.5,1.52,1.47,1.49,21922000
2015-06-08,1.53,1.57,1.49,1.52,32028000
2015-06-09,1.52,1.54,1.42,1.44,25006000
2015-06-10,1.43,1.52,1.39,1.45,40174000
2015-06-11,1.48,1.49,1.43,1.45,14642000
2015-06-12,1.45,1.48,1.41,1.48,34602000
2015-06-15,1.47,1.53,1.47,1.49,21344000
2015-06-16,1.49,1.52,1.44,1.48,17628000
2015-06-17,1.45,1.51,1.44,1.5,35774000
2015-06-18,1.51,1.52,1.45,1.47,10010000
2015-06-19,1.49,1.5,1.46,1.49,16592000
2015-06-22,1.49,1.57,1.49,1.57,27412000
2015-06-23,1.58,1.76,1.55,1.73,92634496
2015-06-24,1.74,1.79,1.66,1.74,55446000
2015-06-25,1.73,1.78,1.65,1.69,26300000
2015-06-26,1.66,1.73,1.57,1.72,51888000
2015-06-29,1.72,1.72,1.49,1.61,57410200
2015-06-30,1.61,1.74,1.48,1.66,56728000
2015-07-02,1.67,1.69,1.56,1.58,35808000
2015-07-03,1.6,1.6,1.4,1.54,77434000
2015-07-06,1.57,1.63,1.29,1.47,61526500
2015-07-07,1.43,1.43,1.0,1.13,29860000
2015-07-08,0.96,0.99,0.81,0.88,32464000
2015-07-09,0.89,1.25,0.88,1.24,35610000
2015-07-10,1.42,1.42,1.28,1.33,19308000
2015-07-13,1.38,1.4,1.32,1.39,9918000
2015-07-14,1.42,1.44,1.35,1.39,26046000
2015-07-15,1.4,1.4,1.23,1.34,11424000
2015-07-16,1.35,1.36,1.21,1.26,66100000
2015-07-17,1.25,1.29,1.24,1.28,11476000
2015-07-20,1.29,1.29,1.25,1.28,5132000
2015-07-21,1.25,1.33,1.25,1.33,10730000
2015-07-22,1.33,1.35,1.27,1.3,6174000
2015-07-23,1.33,1.33,1.27,1.29,8608000
2015-07-24,1.3,1.32,1.27,1.29,13002000
2015-07-27,1.3,1.3,1.15,1.18,9992000
2015-07-28,1.15,1.24,1.11,1.21,8854000
2015-07-29,1.25,1.25,1.17,1.21,4498000
2015-07-30,1.23,1.27,1.14,1.2,7916000
2015-07-31,1.24,1.26,1.19,1.22,11356000
2015-08-03,1.25,1.25,1.17,1.2,7506000
2015-08-04,1.16,1.22,1.16,1.2,5338000
2015-08-05,1.19,1.19,1.16,1.19,1238000
2015-08-06,1.16,1.2,1.16,1.2,1338000
2015-08-07,1.18,1.24,1.17,1.23,7398000
2015-08-10,1.25,1.28,1.22,1.26,22618000
2015-08-11,1.27,1.28,1.21,1.23,5490000
2015-08-12,1.2,1.23,1.16,1.2,7680000
2015-08-13,1.2,1.22,1.17,1.19,7000000
2015-08-14,1.17,1.2,1.16,1.19,12326000
2015-08-17,1.2,1.2,1.16,1.19,9590000
2015-08-18,1.19,1.19,1.1,1.12,14484000
2015-08-19,1.13,1.13,1.06,1.09,6820000
2015-08-20,1.09,1.09,0.99,1.01,4064000
2015-08-21,0.97,0.99,0.91,0.98,6900000
2015-08-24,0.9,0.9,0.8,0.87,14792000
2015-08-25,0.84,0.9,0.83,0.88,8210000
2015-08-26,0.88,0.94,0.86,0.9,5152000
2015-08-27,0.94,0.95,0.9,0.93,3208000
2015-08-28,0.96,0.99,0.91,0.95,8012000
2015-08-31,0.93,0.94,0.85,0.9,6544000
2015-09-01,0.9,0.9,0.84,0.85,3062000
2015-09-02,0.83,0.87,0.8,0.85,1868000
2015-09-04,0.85,0.85,0.82,0.82,1702000
2015-09-07,0.82,0.85,0.82,0.82,764000
2015-09-08,0.82,0.91,0.82,0.89,4648000
2015-09-09,0.92,0.93,0.9,0.92,5008000
2015-09-10,0.9,0.96,0.87,0.92,4084000
2015-09-11,0.92,0.95,0.92,0.92,1694000
2015-09-14,0.93,0.96,0.9,0.91,2190000
2015-09-15,0.91,0.93,0.88,0.88,1216000
2015-09-16,0.9,0.92,0.89,0.9,1464000
2015-09-17,0.91,0.92,0.89,0.9,1510000
2015-09-18,0.89,0.92,0.88,0.9,2928000
2015-09-21,0.89,0.91,0.88,0.89,772000
2015-09-22,0.9,0.97,0.89,0.92,6474500
2015-09-23,0.92,0.92,0.89,0.9,1256000
2015-09-24,0.91,0.92,0.9,0.9,174000
2015-09-25,0.91,0.92,0.9,0.9,1094000
2015-09-29,0.89,0.91,0.88,0.91,618000
2015-09-30,0.91,0.91,0.88,0.9,904000
2015-10-02,0.92,0.94,0.89,0.92,2480000
2015-10-05,0.93,0.93,0.9,0.91,846000
2015-10-06,0.92,0.92,0.89,0.89,970000
2015-10-07,0.89,0.93,0.88,0.92,2424000
2015-10-08,0.94,0.98,0.93,0.97,13348000
2015-10-09,0.98,1.01,0.95,0.95,10392000
2015-10-12,0.94,1.02,0.94,0.98,29720000
2015-10-13,0.98,0.98,0.94,0.95,5300000
2015-10-14,0.95,0.96,0.93,0.95,2178000
2015-10-15,0.93,0.99,0.93,0.98,3768000
2015-10-16,0.99,1.0,0.96,0.99,3742000
2015-10-19,0.98,0.99,0.95,0.97,1748000
2015-10-20,0.95,0.98,0.95,0.97,1156000
2015-10-22,0.96,0.97,0.94,0.96,1132000
2015-10-23,0.98,0.99,0.95,0.95,4480000
2015-10-26,0.96,0.96,0.95,0.95,950000
2015-10-27,0.95,0.95,0.91,0.92,3022000
2015-10-28,0.92,0.93,0.9,0.9,2132000
2015-10-29,0.9,0.91,0.88,0.88,4078000
2015-10-30,0.87,0.89,0.87,0.88,1532000
2015-11-02,0.88,1.01,0.85,1.0,22824000
2015-11-04,0.95,0.96,0.91,0.93,14200000
2015-11-05,0.92,0.94,0.9,0.94,6516000
2015-11-06,0.94,0.94,0.91,0.93,7778000
2015-11-09,0.93,0.96,0.9,0.93,14382000
2015-11-10,0.94,0.94,0.9,0.91,15946000
2015-11-11,0.91,0.91,0.88,0.88,2620000
2015-11-12,0.89,0.9,0.88,0.9,2804000
2015-11-13,0.88,0.88,0.87,0.87,2470000
2015-11-16,0.87,0.87,0.84,0.86,3582000
2015-11-17,0.86,0.87,0.83,0.84,3482000
2015-11-18,0.85,0.85,0.81,0.81,4220000
2015-11-19,0.82,0.83,0.81,0.81,4008000
2015-11-20,0.81,0.85,0.81,0.84,2800000
2015-11-23,0.84,0.86,0.83,0.83,1732000
2015-11-24,0.83,0.84,0.82,0.82,972000
2015-11-25,0.82,0.83,0.8,0.81,2650000
2015-11-26,0.82,0.86,0.79,0.79,7254000
2015-11-27,0.8,0.81,0.77,0.8,6134000
2015-11-30,0.79,0.83,0.78,0.83,9678000
2015-12-01,0.83,0.84,0.79,0.81,7840000
2015-12-02,0.81,0.83,0.8,0.83,5740000
2015-12-03,0.83,0.85,0.78,0.8,13976000
2015-12-04,0.79,0.81,0.78,0.79,1188000
2015-12-07,0.79,0.81,0.78,0.79,3944000
2015-12-08,0.78,0.79,0.77,0.78,1278000
2015-12-09,0.79,0.79,0.76,0.76,1294000
2015-12-10,0.76,0.78,0.74,0.76,3976000
2015-12-11,0.76,0.76,0.72,0.75,11098000
2015-12-14,0.73,0.76,0.73,0.76,1048000
2015-12-15,0.76,0.76,0.72,0.73,1276000
2015-12-16,0.75,0.76,0.73,0.74,1768000
2015-12-17,0.75,0.8,0.75,0.8,12134000
2015-12-18,0.79,0.81,0.78,0.79,7150000
2015-12-21,0.77,0.78,0.77,0.78,1436000
2015-12-22,0.79,0.81,0.77,0.79,4502000
2015-12-23,0.8,0.8,0.78,0.8,3758000
2015-12-24,0.8,0.81,0.78,0.79,2120000
2015-12-28,0.79,0.79,0.75,0.76,2832000
2015-12-29,0.76,0.77,0.75,0.76,610000
2015-12-30,0.77,0.78,0.76,0.77,3028000
2015-12-31,0.77,0.77,0.75,0.76,1416000
2016-01-04,0.75,0.75,0.73,0.73,742000
2016-01-05,0.72,0.75,0.72,0.74,1242000
2016-01-06,0.73,0.75,0.72,0.74,1078000
2016-01-07,0.73,0.73,0.69,0.7,2428000
2016-01-08,0.7,0.72,0.69,0.71,864000
2016-01-11,0.7,0.7,0.67,0.67,1234500
2016-01-12,0.68,0.69,0.64,0.66,1548000
2016-01-13,0.68,0.68,0.65,0.66,1352000
2016-01-14,0.64,0.66,0.63,0.66,698000
2016-01-15,0.65,0.65,0.6,0.61,1486000
2016-01-18,0.6,0.61,0.59,0.6,896000
2016-01-19,0.62,0.63,0.6,0.63,2946000
2016-01-20,0.6,0.61,0.6,0.6,846000
2016-01-21,0.6,0.62,0.57,0.61,916000
2016-01-22,0.62,0.62,0.6,0.6,638000
2016-01-25,0.61,0.61,0.6,0.6,66000
2016-01-26,0.58,0.59,0.57,0.57,676000
2016-01-27,0.59,0.59,0.57,0.58,1402000
2016-01-28,0.58,0.6,0.57,0.59,1738000
2016-01-29,0.6,0.65,0.59,0.65,5118000
2016-02-01,0.68,0.73,0.63,0.73,11382000
2016-02-02,0.73,0.78,0.7,0.78,6684000
2016-02-03,0.75,0.78,0.71,0.77,2812000
2016-02-04,0.79,0.79,0.77,0.77,1116000
2016-02-05,0.78,0.78,0.73,0.74,694000
2016-02-11,0.72,0.72,0.7,0.72,414000
2016-02-12,0.71,0.74,0.69,0.69,2114000
2016-02-15,0.7,0.71,0.67,0.68,1132000
2016-02-16,0.68,0.7,0.67,0.68,1062000
2016-02-17,0.69,0.69,0.66,0.68,2266000
2016-02-18,0.7,0.72,0.67,0.7,4396000
2016-02-19,0.71,0.74,0.7,0.7,4404000
2016-02-22,0.71,0.71,0.68,0.69,1780000
2016-02-23,0.69,0.69,0.66,0.67,4134000
2016-02-24,0.66,0.69,0.65,0.69,2792000
2016-02-25,0.68,0.68,0.66,0.66,394000
2016-02-26,0.68,0.68,0.66,0.68,870000
2016-02-29,0.67,0.67,0.64,0.65,1478000
2016-03-01,0.64,0.66,0.64,0.64,778000
2016-03-02,0.65,0.68,0.65,0.65,3488000
2016-03-03,0.66,0.67,0.65,0.65,1156000
2016-03-04,0.66,0.68,0.65,0.67,3146000
2016-03-07,0.69,0.7,0.67,0.69,4642000
2016-03-08,0.71,0.71,0.66,0.67,4486000
2016-03-09,0.66,0.67,0.65,0.67,4104000
2016-03-10,0.67,0.67,0.65,0.66,2896000
2016-03-11,0.66,0.66,0.65,0.66,1890000
2016-03-14,0.66,0.7,0.65,0.69,12506000
2016-03-15,0.7,0.7,0.66,0.66,3404000
2016-03-16,0.66,0.67,0.65,0.66,3266000
2016-03-17,0.67,0.67,0.65,0.66,3434000
2016-03-18,0.65,0.67,0.65,0.66,2290000
2016-03-21,0.67,0.7,0.65,0.67,14048000
2016-03-22,0.68,0.68,0.65,0.66,9678000
2016-03-23,0.66,0.66,0.64,0.64,3242000
2016-03-24,0.64,0.64,0.62,0.63,2222000
2016-03-29,0.62,0.63,0.61,0.63,2786000
2016-03-30,0.63,0.65,0.62,0.64,4530000
2016-03-31,0.65,0.66,0.64,0.65,5268000
2016-04-01,0.66,0.66,0.63,0.63,3278000
2016-04-05,0.63,0.63,0.61,0.62,1762000
2016-04-06,0.62,0.63,0.61,0.61,2908000
2016-04-07,0.62,0.62,0.6,0.61,3562000
2016-04-08,0.6,0.62,0.6,0.62,3706000
2016-04-11,0.62,0.62,0.61,0.62,3750000
2016-04-12,0.62,0.63,0.62,0.62,1968000
2016-04-13,0.62,0.65,0.62,0.64,8434000
2016-04-14,0.64,0.66,0.63,0.65,8136000
2016-04-15,0.65,0.65,0.63,0.63,4324000
2016-04-18,0.62,0.62,0.61,0.62,3510000
2016-04-19,0.62,0.63,0.62,0.63,4874000
2016-04-20,0.62,0.64,0.62,0.64,3706000
2016-04-21,0.64,0.66,0.63,0.65,6650000
2016-04-22,0.64,0.65,0.63,0.65,4004000
2016-04-25,0.65,0.66,0.64,0.65,5812000
2016-04-26,0.65,0.65,0.62,0.64,6186000
2016-04-27,0.63,0.64,0.62,0.63,2312000
2016-04-28,0.63,0.64,0.62,0.63,2144000
2016-04-29,0.62,0.63,0.61,0.62,3884000
2016-05-03,0.62,0.62,0.61,0.61,2674000
2016-05-04,0.6,0.61,0.59,0.6,3784000
2016-05-05,0.6,0.61,0.6,0.61,1480000
2016-05-06,0.61,0.61,0.6,0.61,1678000
2016-05-09,0.61,0.63,0.61,0.61,4552000
2016-05-10,0.61,0.61,0.6,0.61,552000
2016-05-11,0.61,0.61,0.6,0.6,3218000
2016-05-12,0.6,0.61,0.6,0.6,2942000
2016-05-13,0.6,0.61,0.6,0.6,3654000
2016-05-16,0.59,0.6,0.59,0.59,3906000
2016-05-17,0.59,0.6,0.59,0.6,1562000
2016-05-18,0.59,0.6,0.59,0.59,1066000
2016-05-19,0.59,0.59,0.59,0.59,702000
2016-05-20,0.59,0.59,0.58,0.58,614000
2016-05-23,0.58,0.59,0.58,0.58,602000
2016-05-24,0.58,0.6,0.58,0.6,2084000
2016-05-25,0.59,0.6,0.58,0.58,1538000
2016-05-26,0.58,0.59,0.58,0.58,2124000
2016-05-27,0.59,0.6,0.58,0.58,3632000
2016-05-30,0.58,0.59,0.58,0.58,650000
2016-05-31,0.58,0.59,0.57,0.58,1322000
2016-06-01,0.58,0.59,0.57,0.57,1576000
2016-06-02,0.57,0.58,0.56,0.57,2904000
2016-06-03,0.57,0.61,0.57,0.61,5372000
2016-06-06,0.6,0.61,0.59,0.59,7036000
2016-06-07,0.6,0.6,0.59,0.6,3718000
2016-06-08,0.6,0.64,0.6,0.63,7186000
2016-06-10,0.63,0.63,0.6,0.6,3268000
2016-06-13,0.6,0.61,0.58,0.59,2884000
2016-06-14,0.58,0.6,0.58,0.59,1014000
2016-06-15,0.58,0.6,0.58,0.59,694000
2016-06-16,0.6,0.6,0.59,0.6,1256000
2016-06-17,0.6,0.6,0.58,0.58,702000
2016-06-20,0.6,0.6,0.57,0.59,1524000
2016-06-21,0.59,0.59,0.57,0.59,1838000
2016-06-22,0.59,0.6,0.58,0.6,1482000
2016-06-23,0.6,0.61,0.6,0.6,6234000
2016-06-24,0.6,0.6,0.59,0.6,5264000
2016-06-27,0.6,0.6,0.59,0.6,704000
2016-06-28,0.59,0.6,0.59,0.6,326000
2016-06-29,0.6,0.6,0.59,0.59,378000
2016-06-30,0.6,0.62,0.6,0.62,2334000
2016-07-04,0.61,0.66,0.61,0.65,15548000
2016-07-05,0.65,0.69,0.65,0.67,12762000
2016-07-06,0.66,0.69,0.65,0.66,5568000
2016-07-07,0.67,0.67,0.66,0.67,3556000
2016-07-08,0.66,0.68,0.66,0.66,5058000
2016-07-11,0.68,0.69,0.66,0.68,7318000
2016-07-12,0.68,0.71,0.67,0.71,10720000
2016-07-13,0.71,0.71,0.67,0.69,8128000
2016-07-14,0.68,0.69,0.68,0.69,1924000
2016-07-15,0.69,0.69,0.66,0.67,4808000
2016-07-18,0.67,0.67,0.65,0.66,2980000
2016-07-19,0.66,0.66,0.64,0.65,3714000
2016-07-20,0.65,0.67,0.65,0.67,1904000
2016-07-21,0.66,0.67,0.66,0.66,1246000
2016-07-22,0.66,0.66,0.65,0.66,1102000
2016-07-25,0.66,0.66,0.65,0.65,2072000
2016-07-26,0.65,0.66,0.64,0.65,2238000
2016-07-27,0.66,0.67,0.66,0.67,3674000
2016-07-28,0.67,0.67,0.65,0.65,1382000
2016-07-29,0.65,0.65,0.61,0.62,5716000
2016-08-01,0.63,0.64,0.61,0.62,4512000
2016-08-03,0.61,0.61,0.59,0.61,7368000
2016-08-04,0.61,0.62,0.6,0.61,7294000
2016-08-05,0.61,0.61,0.6,0.61,4548000
2016-08-08,0.61,0.62,0.6,0.61,6378000
2016-08-09,0.61,0.61,0.59,0.6,7928000
2016-08-10,0.6,0.6,0.59,0.6,5884000
2016-08-11,0.6,0.6,0.58,0.58,8318000
2016-08-12,0.58,0.59,0.57,0.59,5428000
2016-08-15,0.59,0.6,0.58,0.59,4070000
2016-08-16,0.59,0.6,0.56,0.58,15992000
2016-08-17,0.58,0.59,0.56,0.57,8876000
2016-08-18,0.57,0.6,0.57,0.59,3614000
2016-08-19,0.59,0.59,0.58,0.59,3310000
2016-08-22,0.59,0.59,0.58,0.59,5636000
2016-08-23,0.58,0.59,0.57,0.58,2754000
2016-08-24,0.59,0.59,0.56,0.57,5464000
2016-08-25,0.56,0.58,0.55,0.57,4254000
2016-08-26,0.57,0.58,0.57,0.58,2620000
2016-08-29,0.58,0.58,0.55,0.56,5574000
2016-08-30,0.56,0.56,0.54,0.56,5280000
2016-08-31,0.55,0.55,0.54,0.55,7596000
2016-09-01,0.55,0.55,0.51,0.52,8554000
2016-09-02,0.51,0.53,0.5,0.53,8531000
2016-09-05,0.53,0.56,0.53,0.56,4372000
2016-09-06,0.56,0.57,0.55,0.57,3010000
2016-09-07,0.56,0.57,0.55,0.56,1438000
2016-09-08,0.59,0.61,0.58,0.6,20514000
2016-09-09,0.61,0.63,0.61,0.62,14284000
2016-09-12,0.59,0.6,0.58,0.59,5600000
2016-09-13,0.6,0.61,0.57,0.58,7192000
2016-09-14,0.57,0.58,0.56,0.57,2494000
2016-09-15,0.57,0.58,0.57,0.57,668000
2016-09-19,0.58,0.58,0.56,0.58,2664000
2016-09-20,0.57,0.57,0.56,0.57,972000
2016-09-21,0.57,0.59,0.57,0.59,3386000
2016-09-22,0.59,0.59,0.58,0.58,1490000
2016-09-23,0.58,0.58,0.55,0.56,8280000
2016-09-26,0.55,0.56,0.54,0.55,2002000
2016-09-27,0.55,0.56,0.54,0.55,4924000
2016-09-28,0.55,0.56,0.54,0.54,2152000
2016-09-29,0.55,0.56,0.55,0.56,3100000
2016-09-30,0.55,0.56,0.54,0.55,1050000
2016-10-03,0.55,0.55,0.54,0.54,1024000
2016-10-04,0.55,0.59,0.55,0.58,6068000
2016-10-05,0.58,0.59,0.57,0.58,2342000
2016-10-06,0.58,0.58,0.57,0.58,1754150
2016-10-07,0.58,0.58,0.57,0.58,2256000
2016-10-11,0.59,0.62,0.59,0.6,14502000
2016-10-12,0.6,0.6,0.59,0.59,2960000
2016-10-13,0.59,0.6,0.59,0.59,3084000
2016-10-14,0.59,0.61,0.59,0.61,2736000
2016-10-17,0.6,0.63,0.6,0.62,6288000
2016-10-18,0.63,0.64,0.62,0.63,11030000
2016-10-19,0.63,0.64,0.62,0.62,7812000
2016-10-20,0.62,0.63,0.61,0.62,6282000
2016-10-24,0.62,0.63,0.62,0.62,1940000
2016-10-25,0.61,0.61,0.6,0.6,3302000
2016-10-26,0.6,0.6,0.6,0.6,1356000
2016-10-27,0.59,0.6,0.59,0.6,3310000
2016-10-28,0.6,0.61,0.6,0.6,1222000
2016-10-31,0.61,0.62,0.59,0.59,4042000
2016-11-01,0.62,0.63,0.6,0.61,13960000
2016-11-02,0.6,0.6,0.59,0.59,3006000
2016-11-03,0.6,0.6,0.57,0.57,8550000
2016-11-04,0.57,0.58,0.56,0.57,4494000
2016-11-07,0.57,0.58,0.56,0.57,3730000
2016-11-08,0.58,0.59,0.56,0.57,3316000
2016-11-09,0.57,0.58,0.56,0.57,2702000
2016-11-10,0.58,0.59,0.57,0.58,878000
2016-11-11,0.57,0.59,0.57,0.57,5336000
2016-11-14,0.57,0.58,0.56,0.57,2602000
2016-11-15,0.57,0.59,0.57,0.58,4206000
2016-11-16,0.58,0.59,0.56,0.57,10942000
2016-11-17,0.57,0.58,0.56,0.57,3740000
2016-11-18,0.57,0.58,0.57,0.57,1292000
2016-11-21,0.57,0.57,0.56,0.56,4744000
2016-11-22,0.57,0.58,0.56,0.58,3898000
2016-11-23,0.57,0.58,0.56,0.57,2646000
2016-11-24,0.57,0.57,0.56,0.56,1480000
2016-11-25,0.56,0.57,0.56,0.57,1822000
2016-11-28,0.57,0.57,0.55,0.57,5602000
2016-11-29,0.56,0.59,0.56,0.59,12718000
2016-11-30,0.59,0.59,0.57,0.57,6844000
2016-12-01,0.57,0.58,0.56,0.56,12090000
2016-12-02,0.56,0.57,0.56,0.56,1094000
2016-12-05,0.57,0.57,0.55,0.57,7786000
2016-12-06,0.57,0.57,0.56,0.57,4980000
2016-12-07,0.56,0.56,0.55,0.56,2676000
2016-12-08,0.55,0.57,0.55,0.56,5048000
2016-12-09,0.57,0.58,0.56,0.56,2950000
2016-12-12,0.57,0.59,0.56,0.58,13530000
2016-12-13,0.64,0.65,0.6,0.62,42166000
2016-12-14,0.62,0.62,0.58,0.59,12052000
2016-12-15,0.58,0.59,0.56,0.57,7982000
2016-12-16,0.57,0.58,0.55,0.57,4122000
2016-12-19,0.57,0.57,0.55,0.55,4844000
2016-12-20,0.55,0.57,0.54,0.54,9984000
2016-12-21,0.54,0.56,0.54,0.55,3976000
2016-12-22,0.55,0.55,0.53,0.54,5246000
2016-12-23,0.54,0.54,0.52,0.53,8088000
2016-12-28,0.53,0.53,0.52,0.53,3094000
2016-12-29,0.52,0.53,0.51,0.52,3404000
2016-12-30,0.52,0.53,0.52,0.53,1352000
2017-01-03,0.53,0.56,0.52,0.56,6238000
2017-01-04,0.56,0.59,0.56,0.58,14516000
2017-01-05,0.58,0.59,0.57,0.58,2736000
2017-01-06,0.58,0.6,0.56,0.59,10983000
2017-01-09,0.58,0.59,0.55,0.59,8286000
2017-01-10,0.58,0.59,0.57,0.59,1824000
2017-01-11,0.59,0.6,0.58,0.59,4940000
2017-01-12,0.59,0.59,0.58,0.59,1320000
2017-01-13,0.58,0.59,0.57,0.58,1688000
2017-01-16,0.58,0.58,0.56,0.58,4534000
2017-01-17,0.58,0.58,0.57,0.57,2764000
2017-01-18,0.57,0.58,0.56,0.58,3294000
2017-01-19,0.57,0.58,0.57,0.58,504000
2017-01-20,0.58,0.59,0.57,0.59,3614000
2017-01-23,0.59,0.59,0.58,0.59,330000
2017-01-24,0.59,0.59,0.58,0.59,628000
2017-01-25,0.59,0.61,0.59,0.6,6370000
2017-01-26,0.61,0.61,0.6,0.61,4042000
2017-01-27,0.6,0.6,0.59,0.6,556000
2017-02-01,0.6,0.6,0.58,0.58,1418600
2017-02-02,0.58,0.6,0.58,0.6,1810000
2017-02-03,0.6,0.6,0.58,0.59,1928000
2017-02-06,0.59,0.59,0.58,0.59,4618000
2017-02-07,0.59,0.59,0.57,0.57,5218000
2017-02-08,0.58,0.6,0.57,0.59,3958000
2017-02-09,0.59,0.61,0.59,0.59,7028000
2017-02-10,0.59,0.61,0.59,0.59,4362000
2017-02-13,0.59,0.6,0.59,0.6,2980000
2017-02-14,0.6,0.6,0.58,0.59,1412000
2017-02-15,0.59,0.6,0.58,0.59,3392000
2017-02-16,0.59,0.59,0.58,0.59,5056000
2017-02-17,0.58,0.59,0.56,0.58,9112000
2017-02-20,0.58,0.58,0.57,0.58,3082000
2017-02-21,0.58,0.58,0.56,0.58,2000000
2017-02-22,0.58,0.58,0.56,0.56,3992000
2017-02-23,0.56,0.58,0.56,0.57,2990000
2017-02-24,0.57,0.57,0.56,0.57,2400000
2017-02-27,0.57,0.57,0.54,0.55,8972000
2017-02-28,0.55,0.56,0.54,0.54,4458000
2017-03-01,0.54,0.55,0.54,0.55,1582000
2017-03-02,0.55,0.55,0.54,0.55,2398000
2017-03-03,0.55,0.56,0.54,0.55,2698000
2017-03-06,0.55,0.56,0.54,0.54,2250000
2017-03-07,0.54,0.54,0.53,0.54,3154000
2017-03-08,0.53,0.55,0.53,0.55,3304000
2017-03-09,0.55,0.55,0.52,0.54,12458000
2017-03-10,0.54,0.54,0.53,0.54,1726000
2017-03-13,0.54,0.54,0.52,0.54,9984000
2017-03-14,0.54,0.54,0.52,0.53,1694000
2017-03-15,0.53,0.54,0.52,0.54,1812000
2017-03-16,0.54,0.54,0.53,0.54,3120000
2017-03-17,0.54,0.54,0.53,0.53,2290000
2017-03-20,0.53,0.55,0.52,0.55,3778000
2017-03-21,0.55,0.55,0.53,0.54,1490000
2017-03-22,0.53,0.54,0.53,0.54,1550000
2017-03-23,0.54,0.54,0.51,0.52,11160000
2017-03-24,0.52,0.53,0.51,0.52,3202000
2017-03-27,0.52,0.52,0.51,0.52,2244000
2017-03-28,0.53,0.53,0.51,0.51,1786000
2017-03-29,0.52,0.52,0.51,0.51,3330000
2017-03-30,0.51,0.52,0.5,0.5,4238000
2017-03-31,0.5,0.51,0.5,0.5,2314000
2017-04-03,0.5,0.52,0.5,0.52,4126000
2017-04-05,0.52,0.53,0.51,0.52,2588000
2017-04-06,0.52,0.52,0.51,0.52,1034000
2017-04-07,0.52,0.52,0.5,0.5,2772000
2017-04-10,0.51,0.53,0.51,0.51,2628000
2017-04-11,0.51,0.51,0.5,0.51,1488000
2017-04-12,0.5,0.52,0.5,0.51,2554000
2017-04-13,0.51,0.51,0.5,0.5,1330000
2017-04-18,0.5,0.51,0.495,0.5,3866000
2017-04-19,0.495,0.495,0.485,0.49,4162000
2017-04-20,0.485,0.495,0.48,0.485,4830000
2017-04-21,0.485,0.49,0.46,0.465,9712000
2017-04-24,0.465,0.47,0.455,0.46,1454000
2017-04-25,0.47,0.48,0.45,0.48,18932000
2017-04-26,0.475,0.49,0.465,0.49,8804000
2017-04-27,0.48,0.495,0.47,0.495,8832000
2017-04-28,0.495,0.5,0.485,0.49,5296000
2017-05-02,0.485,0.51,0.475,0.5,6424000
2017-05-04,0.51,0.52,0.495,0.52,6518000
2017-05-05,0.51,0.57,0.51,0.54,28396000
2017-05-08,0.55,0.55,0.52,0.52,6344000
2017-05-09,0.52,0.55,0.52,0.53,10810000
2017-05-10,0.54,0.56,0.54,0.55,14410000
2017-05-11,0.55,0.56,0.53,0.54,9834000
2017-05-12,0.54,0.55,0.51,0.52,9244000
2017-05-15,0.52,0.52,0.495,0.5,8364000
2017-05-16,0.5,0.51,0.495,0.495,1298000
2017-05-17,0.495,0.5,0.49,0.5,4684000
2017-05-18,0.49,0.5,0.49,0.495,530000
2017-05-19,0.495,0.5,0.49,0.49,4644000
2017-05-22,0.495,0.5,0.49,0.495,1452000
2017-05-23,0.49,0.51,0.48,0.5,6102000
2017-05-24,0.495,0.51,0.49,0.51,6076000
2017-05-25,0.51,0.51,0.495,0.51,5540000
2017-05-26,0.51,0.51,0.495,0.5,3968000
2017-05-29,0.5,0.55,0.5,0.53,9896000
2017-05-31,0.53,0.54,0.52,0.54,5158000
2017-06-01,0.54,0.58,0.54,0.58,24082000
2017-06-02,0.58,0.58,0.56,0.58,9722000
2017-06-05,0.57,0.58,0.56,0.57,5240000
2017-06-06,0.56,0.58,0.56,0.58,4380000
2017-06-07,0.57,0.58,0.57,0.57,1708000
2017-06-08,0.58,0.58,0.56,0.58,5622000
2017-06-09,0.58,0.58,0.56,0.58,6352000
2017-06-12,0.57,0.58,0.56,0.57,5420000
2017-06-13,0.57,0.59,0.57,0.59,7614000
2017-06-14,0.59,0.59,0.57,0.59,4706020
2017-06-15,0.58,0.59,0.56,0.58,6900000
2017-06-16,0.58,0.59,0.57,0.59,1598000
2017-06-19,0.58,0.59,0.57,0.57,4670000
2017-06-20,0.57,0.59,0.56,0.59,8528000
2017-06-21,0.58,0.59,0.57,0.59,636000
2017-06-22,0.58,0.59,0.57,0.59,896000
2017-06-23,0.58,0.59,0.57,0.59,5298000
2017-06-26,0.58,0.58,0.57,0.58,3932000
2017-06-27,0.57,0.59,0.56,0.59,7330000
2017-06-28,0.58,0.58,0.57,0.58,1286000
2017-06-29,0.57,0.58,0.56,0.58,946000
2017-06-30,0.57,0.58,0.56,0.56,2236000
2017-07-03,0.56,0.59,0.56,0.58,16870000
2017-07-04,0.58,0.58,0.56,0.58,2232000
2017-07-05,0.56,0.58,0.56,0.58,1666000
2017-07-06,0.57,0.58,0.56,0.58,2438000
2017-07-07,0.57,0.58,0.56,0.58,1202000
2017-07-10,0.57,0.58,0.56,0.58,2006000
2017-07-11,0.57,0.58,0.56,0.58,2742000
2017-07-12,0.57,0.58,0.56,0.58,2320000
2017-07-13,0.59,0.59,0.56,0.58,3460000
2017-07-14,0.57,0.58,0.56,0.58,2154000
2017-07-17,0.57,0.58,0.56,0.58,1588000
2017-07-18,0.56,0.58,0.56,0.58,2238000
2017-07-19,0.57,0.58,0.56,0.58,1110000
2017-07-20,0.57,0.58,0.56,0.58,1910000
2017-07-21,0.57,0.58,0.56,0.58,1396000
2017-07-24,0.56,0.58,0.56,0.58,188000
2017-07-25,0.57,0.58,0.56,0.58,1022000
2017-07-26,0.56,0.58,0.56,0.58,1776000
2017-07-27,0.57,0.58,0.56,0.58,1034000
2017-07-28,0.56,0.58,0.55,0.58,8928000
2017-07-31,0.56,0.58,0.56,0.58,3364000
2017-08-01,0.56,0.58,0.56,0.58,4130000
2017-08-02,0.57,0.58,0.56,0.58,2104000
2017-08-03,0.56,0.58,0.56,0.58,616000
2017-08-04,0.57,0.58,0.56,0.58,700000
2017-08-07,0.56,0.58,0.56,0.58,614000
2017-08-08,0.57,0.58,0.56,0.58,748000
2017-08-09,0.57,0.58,0.56,0.58,2752000
2017-08-10,0.57,0.59,0.56,0.59,4692000
2017-08-11,0.58,0.58,0.56,0.58,2546000
2017-08-14,0.57,0.58,0.55,0.55,3430000
2017-08-15,0.56,0.58,0.55,0.57,5870000
2017-08-16,0.57,0.58,0.56,0.57,4742000
2017-08-17,0.57,0.59,0.57,0.58,10486000
2017-08-18,0.58,0.6,0.57,0.59,4226000
2017-08-21,0.59,0.6,0.58,0.6,3336000
2017-08-22,0.6,0.6,0.56,0.58,7654000
2017-08-24,0.57,0.57,0.54,0.57,10352000
2017-08-25,0.56,0.57,0.56,0.57,3906000
2017-08-28,0.56,0.58,0.56,0.58,1166000
2017-08-29,0.56,0.58,0.55,0.58,2634000
2017-08-30,0.56,0.58,0.56,0.58,3238000
2017-08-31,0.57,0.58,0.56,0.57,224000
2017-09-01,0.56,0.58,0.56,0.57,1086000
2017-09-04,0.56,0.58,0.56,0.58,2824000
2017-09-05,0.58,0.58,0.56,0.58,530000
2017-09-06,0.58,0.58,0.56,0.57,618000
2017-09-07,0.56,0.58,0.56,0.58,716000
2017-09-08,0.58,0.58,0.58,0.58,4000
2017-09-11,0.56,0.58,0.56,0.58,2166000
2017-09-12,0.57,0.57,0.56,0.57,554000
2017-09-13,0.56,0.57,0.56,0.57,536000
2017-09-14,0.56,0.57,0.55,0.57,2140000
2017-09-15,0.55,0.57,0.55,0.56,1696000
2017-09-18,0.56,0.58,0.56,0.58,1684000
2017-09-19,0.58,0.58,0.56,0.58,3782000
2017-09-20,0.58,0.58,0.56,0.58,750000
2017-09-21,0.57,0.58,0.56,0.57,1034000
2017-09-22,0.57,0.58,0.57,0.57,622000
2017-09-25,0.57,0.58,0.56,0.58,658000
2017-09-26,0.57,0.58,0.56,0.58,982000
2017-09-27,0.58,0.58,0.57,0.57,56000
2017-09-28,0.58,0.59,0.56,0.58,3974000
2017-09-29,0.58,0.66,0.58,0.6,40426000
2017-10-03,0.61,0.63,0.59,0.6,17256000
2017-10-04,0.6,0.63,0.6,0.61,21754000
2017-10-06,0.61,0.61,0.59,0.61,4372000
2017-10-09,0.6,0.6,0.59,0.6,1916000
2017-10-10,0.6,0.63,0.59,0.59,51124000
2017-10-11,0.59,0.59,0.57,0.57,10058000
2017-10-12,0.56,0.6,0.56,0.6,13292000
2017-10-13,0.59,0.6,0.59,0.6,5786000
2017-10-16,0.59,0.62,0.59,0.61,21056000
2017-10-17,0.6,0.62,0.6,0.61,13996000
2017-10-18,0.6,0.6,0.59,0.59,14044000
2017-10-19,0.59,0.6,0.58,0.58,13280000
2017-10-20,0.59,0.59,0.57,0.57,8302000
2017-10-23,0.58,0.58,0.57,0.58,12268000
2017-10-24,0.58,0.58,0.56,0.56,10054000
2017-10-25,0.57,0.59,0.56,0.59,14970000
2017-10-26,0.58,0.58,0.57,0.58,10328000
2017-10-27,0.58,0.59,0.57,0.57,12086000
2017-10-30,0.58,0.6,0.58,0.6,18982000
2017-10-31,0.6,0.6,0.59,0.6,7332000
2017-11-01,0.6,0.6,0.58,0.59,6580000
2017-11-02,0.6,0.62,0.59,0.61,20622000
2017-11-03,0.61,0.61,0.59,0.6,8424000
2017-11-06,0.6,0.6,0.58,0.6,10992000
2017-11-07,0.6,0.6,0.59,0.6,2510000
2017-11-08,0.59,0.59,0.58,0.58,4196000
2017-11-09,0.58,0.59,0.58,0.58,2472000
2017-11-10,0.58,0.59,0.58,0.58,2382000
2017-11-13,0.58,0.58,0.57,0.57,1480000
2017-11-14,0.57,0.58,0.57,0.58,710000
2017-11-15,0.57,0.57,0.57,0.57,804000
2017-11-16,0.56,0.57,0.56,0.57,2174000
2017-11-17,0.56,0.57,0.56,0.56,966000
2017-11-20,0.56,0.57,0.55,0.57,4970000
2017-11-21,0.56,0.58,0.54,0.58,9530000
2017-11-22,0.58,0.58,0.55,0.56,9640000
2017-11-23,0.57,0.57,0.55,0.57,280000
2017-11-24,0.57,0.57,0.56,0.57,578000
2017-11-27,0.56,0.57,0.55,0.57,270000
2017-11-28,0.56,0.58,0.55,0.58,5370000
2017-11-29,0.57,0.59,0.56,0.58,12294000
2017-11-30,0.58,0.6,0.58,0.58,11274000
2017-12-01,0.58,0.59,0.58,0.59,1882000
2017-12-04,0.59,0.59,0.57,0.57,1954000
2017-12-05,0.57,0.58,0.56,0.57,586000
2017-12-06,0.56,0.57,0.55,0.57,1260000
2017-12-07,0.56,0.57,0.55,0.57,1660000
2017-12-08,0.56,0.57,0.55,0.57,1356000
2017-12-11,0.55,0.57,0.55,0.56,874000
2017-12-12,0.55,0.58,0.55,0.58,4144000
2017-12-13,0.58,0.58,0.56,0.58,524000
2017-12-14,0.58,0.58,0.57,0.58,98000
2017-12-15,0.57,0.57,0.56,0.57,832000
2017-12-18,0.58,0.58,0.56,0.57,1428000
2017-12-19,0.56,0.57,0.56,0.57,216000
2017-12-20,0.56,0.57,0.55,0.56,1328000
2017-12-21,0.56,0.57,0.55,0.56,1928000
2017-12-22,0.57,0.57,0.56,0.57,1698000
2017-12-27,0.57,0.57,0.56,0.57,16880000
2017-12-28,0.56,0.56,0.55,0.55,11688000
2017-12-29,0.56,0.57,0.55,0.56,6734000
2018-01-02,0.56,0.57,0.56,0.56,1874000
2018-01-03,0.56,0.57,0.55,0.56,694000
2018-01-04,0.55,0.56,0.55,0.56,148000
2018-01-05,0.56,0.57,0.55,0.56,7074000
2018-01-08,0.55,0.56,0.55,0.55,1966000
2018-01-09,0.56,0.57,0.55,0.56,13416000
2018-01-10,0.56,0.57,0.55,0.56,13804000
2018-01-11,0.56,0.56,0.55,0.55,6362000
2018-01-12,0.55,0.56,0.55,0.56,350000
2018-01-15,0.56,0.56,0.54,0.54,5656000
2018-01-16,0.54,0.54,0.53,0.54,1494000
2018-01-17,0.53,0.54,0.53,0.53,1446000
2018-01-18,0.53,0.56,0.52,0.56,13186000
2018-01-19,0.56,0.56,0.54,0.56,1704000
2018-01-22,0.56,0.56,0.54,0.55,972000
2018-01-23,0.55,0.56,0.54,0.54,1180000
2018-01-24,0.54,0.55,0.54,0.55,578000
2018-01-25,0.54,0.55,0.53,0.54,1624000
2018-01-26,0.55,0.55,0.54,0.54,1016000
2018-01-29,0.54,0.54,0.53,0.54,2870000
2018-01-30,0.53,0.54,0.53,0.53,646000
2018-01-31,0.54,0.54,0.52,0.54,872000
2018-02-01,0.54,0.54,0.52,0.52,928000
2018-02-02,0.53,0.54,0.53,0.54,560000
2018-02-05,0.53,0.54,0.53,0.54,2874000
2018-02-06,0.52,0.53,0.5,0.53,6594000
2018-02-07,0.53,0.54,0.51,0.54,1628000
2018-02-08,0.53,0.54,0.52,0.52,14974000
2018-02-09,0.51,0.53,0.495,0.52,4172000
2018-02-12,0.52,0.53,0.51,0.52,2164000
2018-02-13,0.52,0.53,0.51,0.52,600000
2018-02-14,0.52,0.52,0.51,0.52,1234000
2018-02-15,0.52,0.54,0.52,0.54,2072000
2018-02-20,0.53,0.54,0.52,0.54,920000
2018-02-21,0.54,0.54,0.52,0.54,830000
2018-02-22,0.55,0.55,0.53,0.54,1640000
2018-02-23,0.53,0.54,0.53,0.54,562000
2018-02-26,0.54,0.54,0.53,0.54,862000
2018-02-27,0.53,0.54,0.53,0.54,1576000
2018-02-28,0.54,0.54,0.53,0.54,1390000
2018-03-01,0.53,0.55,0.53,0.55,1918000
2018-03-02,0.55,0.55,0.53,0.54,1900000
2018-03-05,0.54,0.55,0.53,0.55,1570000
2018-03-06,0.54,0.55,0.54,0.55,1388000
2018-03-07,0.55,0.55,0.54,0.55,496000
2018-03-08,0.54,0.55,0.54,0.55,5424000
2018-03-09,0.54,0.55,0.54,0.55,62208000
2018-03-12,0.55,0.55,0.54,0.55,86788000
2018-03-13,0.55,0.59,0.55,0.58,38386000
2018-03-14,0.58,0.59,0.57,0.58,4310000
2018-03-15,0.58,0.58,0.57,0.58,1822000
2018-03-16,0.58,0.58,0.56,0.57,892000
2018-03-19,0.57,0.57,0.56,0.56,890000
2018-03-20,0.56,0.57,0.55,0.57,1982000
2018-03-21,0.57,0.57,0.55,0.56,360000
2018-03-22,0.56,0.56,0.55,0.56,2350000
2018-03-23,0.55,0.56,0.54,0.56,1882000
2018-03-26,0.56,0.56,0.55,0.56,320000
2018-03-27,0.56,0.57,0.55,0.56,920000
2018-03-28,0.56,0.56,0.55,0.55,422000
2018-03-29,0.56,0.56,0.54,0.56,742000
2018-04-03,0.55,0.55,0.52,0.54,1578000
2018-04-04,0.54,0.54,0.52,0.54,868000
2018-04-06,0.53,0.54,0.52,0.53,3056000
2018-04-09,0.53,0.53,0.5,0.52,3974000
2018-04-10,0.52,0.52,0.51,0.52,506000
2018-04-11,0.52,0.52,0.51,0.52,134000
2018-04-12,0.52,0.52,0.5,0.52,260000
2018-04-13,0.51,0.52,0.495,0.51,2782000
2018-04-16,0.5,0.52,0.495,0.52,804000
2018-04-17,0.51,0.52,0.495,0.5,1762000
2018-04-18,0.51,0.51,0.495,0.5,140000
2018-04-19,0.5,0.51,0.5,0.5,844000
2018-04-20,0.5,0.5,0.495,0.5,188000
2018-04-23,0.5,0.51,0.485,0.51,3376000
2018-04-24,0.5,0.52,0.5,0.52,1542000
2018-04-25,0.51,0.52,0.5,0.51,390000
2018-04-26,0.51,0.51,0.5,0.51,124000
2018-04-27,0.5,0.51,0.5,0.51,66000
2018-04-30,0.51,0.52,0.5,0.51,396000
2018-05-02,0.52,0.52,0.485,0.5,2920000
2018-05-03,0.49,0.5,0.49,0.5,264000
2018-05-04,0.49,0.5,0.485,0.5,674000
2018-05-07,0.5,0.5,0.48,0.5,2886000
2018-05-08,0.5,0.5,0.49,0.5,334000
2018-05-09,0.5,0.5,0.48,0.495,4746000
2018-05-10,0.5,0.5,0.49,0.5,392000
2018-05-11,0.5,0.51,0.495,0.51,2366000
2018-05-14,0.51,0.51,0.49,0.51,372000
2018-05-15,0.51,0.51,0.495,0.51,480000
2018-05-16,0.51,0.51,0.49,0.51,1090000
2018-05-17,0.51,0.51,0.495,0.51,630000
2018-05-18,0.51,0.51,0.495,0.51,626000
2018-05-21,0.5,0.51,0.495,0.495,1732000
2018-05-23,0.495,0.51,0.49,0.51,1520000
2018-05-24,0.5,0.51,0.495,0.51,682000
2018-05-25,0.51,0.54,0.5,0.54,13268000
2018-05-28,0.54,0.55,0.53,0.55,812000
2018-05-29,0.53,0.55,0.53,0.54,948000
2018-05-30,0.52,0.54,0.52,0.53,2110000
2018-05-31,0.53,0.55,0.53,0.55,852000
2018-06-01,0.54,0.56,0.54,0.56,2492000
2018-06-04,0.56,0.57,0.54,0.56,982000
2018-06-05,0.56,0.56,0.54,0.56,2936000
2018-06-06,0.56,0.56,0.54,0.56,1060000
2018-06-07,0.56,0.56,0.55,0.56,640000
2018-06-08,0.56,0.56,0.55,0.56,550000
2018-06-11,0.54,0.56,0.54,0.55,262000
2018-06-12,0.56,0.56,0.54,0.56,338000
2018-06-13,0.55,0.56,0.55,0.56,9856000
2018-06-14,0.55,0.55,0.54,0.55,9992000
2018-06-15,0.54,0.55,0.53,0.55,9708000
2018-06-19,0.54,0.54,0.52,0.52,11548000
2018-06-20,0.52,0.52,0.51,0.52,11912000
2018-06-21,0.51,0.55,0.5,0.55,10514000
2018-06-22,0.54,0.54,0.51,0.53,9988000
2018-06-25,0.52,0.53,0.51,0.53,9962000
2018-06-26,0.52,0.52,0.51,0.52,10298000
2018-06-27,0.51,0.57,0.51,0.52,11008000
2018-06-28,0.52,0.52,0.51,0.52,10530000
2018-06-29,0.51,0.52,0.51,0.52,10348000
2018-07-03,0.51,0.51,0.495,0.5,6142000
2018-07-04,0.5,0.5,0.495,0.5,10526000
2018-07-05,0.5,0.53,0.49,0.495,23202000
2018-07-06,0.49,0.53,0.49,0.52,12404000
2018-07-09,0.52,0.53,0.5,0.53,10268000
2018-07-10,0.52,0.52,0.51,0.52,10036000
2018-07-11,0.51,0.52,0.5,0.52,9950000
2018-07-12,0.51,0.53,0.5,0.53,10308000
2018-07-13,0.52,0.52,0.5,0.52,11510000
2018-07-16,0.51,0.52,0.51,0.52,9834000
2018-07-17,0.51,0.52,0.5,0.52,9894000
2018-07-18,0.51,0.52,0.5,0.52,9812000
2018-07-19,0.51,0.52,0.51,0.52,9888000
2018-07-20,0.51,0.52,0.5,0.52,10234000
2018-07-23,0.51,0.52,0.51,0.52,9880000
2018-07-24,0.52,0.52,0.495,0.51,11384000
2018-07-25,0.51,0.51,0.495,0.51,14388000
2018-07-26,0.5,0.51,0.495,0.51,10484000
2018-07-27,0.5,0.51,0.495,0.51,10258000
2018-07-30,0.5,0.51,0.5,0.51,10038000
2018-07-31,0.5,0.51,0.495,0.51,10956000
2018-08-01,0.5,0.51,0.495,0.51,10032000
2018-08-02,0.5,0.51,0.495,0.51,11200000
2018-08-03,0.495,0.5,0.485,0.5,12572000
2018-08-06,0.495,0.5,0.49,0.5,10334000
2018-08-07,0.495,0.5,0.49,0.5,10148000
2018-08-08,0.495,0.5,0.49,0.5,10140000
2018-08-09,0.495,0.5,0.495,0.5,11130000
2018-08-10,0.495,0.51,0.495,0.51,11748000
2018-08-13,0.5,0.51,0.495,0.51,11012000
2018-08-14,0.5,0.51,0.495,0.51,10242000
2018-08-15,0.5,0.5,0.475,0.5,9282000
2018-08-16,0.49,0.495,0.485,0.495,14812000
2018-08-17,0.49,0.5,0.48,0.5,18788000
2018-08-20,0.495,0.495,0.485,0.495,11090000
2018-08-21,0.49,0.495,0.485,0.495,10784000
2018-08-22,0.49,0.495,0.485,0.495,10462000
2018-08-23,0.49,0.495,0.49,0.495,11346000
2018-08-24,0.49,0.495,0.485,0.495,12912000
2018-08-27,0.49,0.495,0.485,0.495,12314000
2018-08-28,0.49,0.495,0.49,0.495,10252000
2018-08-29,0.49,0.5,0.49,0.495,10642000
2018-08-30,0.495,0.5,0.49,0.495,10512000
2018-08-31,0.485,0.54,0.485,0.54,19522000
2018-09-03,0.53,0.55,0.51,0.55,11860000
2018-09-04,0.54,0.55,0.53,0.55,11316000
2018-09-05,0.54,0.54,0.495,0.5,19158000
2018-09-06,0.495,0.5,0.49,0.5,2488000
2018-09-07,0.495,0.51,0.495,0.51,24406000
2018-09-10,0.495,0.5,0.495,0.5,10176000
2018-09-11,0.49,0.5,0.49,0.5,10880000
2018-09-12,0.495,0.495,0.49,0.495,11474000
2018-09-13,0.49,0.495,0.485,0.495,16076000
2018-09-14,0.49,0.495,0.485,0.495,10246000
2018-09-17,0.49,0.49,0.475,0.48,19436000
2018-09-18,0.48,0.495,0.475,0.495,5974000
2018-09-19,0.495,0.5,0.49,0.495,1558000
2018-09-20,0.5,0.51,0.495,0.5,2424000
2018-09-21,0.51,0.51,0.5,0.51,504000
2018-09-24,0.52,0.52,0.5,0.51,1546000
2018-09-26,0.5,0.51,0.5,0.51,1596000
2018-09-27,0.51,0.51,0.495,0.495,464000
2018-09-28,0.51,0.51,0.47,0.495,20636000
2018-10-02,0.49,0.5,0.485,0.5,1052000
2018-10-03,0.49,0.5,0.49,0.5,1144000
2018-10-04,0.5,0.51,0.5,0.51,614000
2018-10-05,0.5,0.51,0.495,0.51,2180000
2018-10-08,0.51,0.51,0.5,0.51,1086000
2018-10-09,0.51,0.51,0.5,0.5,1656000
2018-10-10,0.51,0.51,0.5,0.51,476000
2018-10-11,0.495,0.495,0.49,0.495,888000
2018-10-12,0.495,0.5,0.49,0.5,542000
2018-10-15,0.495,0.5,0.495,0.5,340000
2018-10-16,0.5,0.5,0.495,0.5,182000
2018-10-18,0.51,0.51,0.49,0.5,1582000
2018-10-19,0.495,0.5,0.49,0.5,348000
2018-10-22,0.495,0.5,0.495,0.5,572000
2018-10-23,0.495,0.5,0.49,0.5,662000
2018-10-24,0.495,0.5,0.495,0.5,30000
2018-10-25,0.495,0.5,0.49,0.495,3124000
2018-10-26,0.495,0.495,0.49,0.495,1958000
2018-10-29,0.49,0.495,0.49,0.495,240000
2018-10-30,0.495,0.495,0.495,0.495,8000
2018-10-31,0.49,0.495,0.49,0.495,238000
2018-11-01,0.495,0.495,0.495,0.495,20000
2018-11-02,0.495,0.495,0.49,0.495,710000
2018-11-05,0.49,0.495,0.49,0.495,984000
2018-11-06,0.49,0.495,0.49,0.495,524000
2018-11-07,0.49,0.495,0.49,0.495,178000
2018-11-08,0.49,0.49,0.485,0.49,5548000
2018-11-09,0.485,0.49,0.48,0.49,1120000
2018-11-12,0.485,0.49,0.48,0.49,1214000
2018-11-13,0.485,0.49,0.485,0.49,1180000
2018-11-14,0.485,0.49,0.485,0.49,5044000
2018-11-15,0.485,0.49,0.485,0.49,4510000
2018-11-16,0.49,0.5,0.49,0.5,1780000
2018-11-19,0.495,0.5,0.49,0.495,870000
2018-11-20,0.49,0.49,0.49,0.49,1830000
2018-11-21,0.49,0.49,0.485,0.49,74000
2018-11-22,0.495,0.495,0.48,0.49,5302000
2018-11-23,0.485,0.495,0.485,0.49,2204000
2018-11-26,0.485,0.49,0.48,0.49,272000
2018-11-27,0.49,0.49,0.485,0.49,2516000
2018-11-28,0.485,0.49,0.485,0.49,2168000
2018-11-29,0.485,0.49,0.48,0.49,2776000
2018-11-30,0.485,0.49,0.48,0.49,3020000
2018-12-03,0.49,0.49,0.485,0.49,92000
2018-12-04,0.49,0.49,0.49,0.49,40000
2018-12-05,0.485,0.49,0.485,0.49,1354000
2018-12-06,0.485,0.49,0.485,0.49,492000
2018-12-07,0.485,0.49,0.485,0.485,308000
2018-12-10,0.49,0.49,0.48,0.49,186000
2018-12-11,0.485,0.485,0.48,0.485,598000
2018-12-12,0.485,0.485,0.48,0.485,536000
2018-12-13,0.48,0.485,0.48,0.485,1084000
2018-12-14,0.48,0.485,0.475,0.48,1548000
2018-12-17,0.47,0.475,0.465,0.47,1012000
2018-12-18,0.47,0.475,0.46,0.465,3486000
2018-12-19,0.46,0.46,0.455,0.46,398000
2018-12-20,0.46,0.46,0.4,0.42,7198000
2018-12-21,0.41,0.425,0.4,0.41,1982000
2018-12-24,0.425,0.425,0.395,0.425,5802000
2018-12-27,0.415,0.415,0.37,0.4,5536000
2018-12-28,0.405,0.41,0.37,0.375,3890000
2018-12-31,0.375,0.395,0.365,0.37,2466000
2019-01-02,0.37,0.37,0.37,0.37,150000
2019-01-03,0.36,0.36,0.355,0.36,160000
2019-01-04,0.36,0.45,0.36,0.42,5238000
2019-01-07,0.415,0.43,0.41,0.42,474000
2019-01-08,0.405,0.41,0.405,0.41,270000
2019-01-09,0.415,0.42,0.4,0.4,1302000
2019-01-10,0.41,0.41,0.41,0.4,2000
2019-01-11,0.4,0.455,0.4,0.43,4540000
2019-01-14,0.43,0.43,0.395,0.41,2908000
2019-01-15,0.4,0.41,0.4,0.4,808000
2019-01-16,0.405,0.405,0.4,0.405,122000
2019-01-17,0.395,0.41,0.395,0.405,566000
2019-01-18,0.4,0.41,0.38,0.41,3274000
2019-01-21,0.4,0.4,0.39,0.395,436000
2019-01-22,0.395,0.395,0.39,0.395,1414000
2019-01-23,0.385,0.395,0.38,0.39,2802000
2019-01-24,0.385,0.39,0.385,0.385,644000
2019-01-25,0.38,0.4,0.38,0.4,1666000
2019-01-28,0.395,0.395,0.385,0.39,1592000
2019-01-29,0.39,0.425,0.39,0.39,11122000
2019-01-30,0.385,0.4,0.385,0.395,1157935
2019-01-31,0.4,0.42,0.395,0.4,25042000
2019-02-01,0.395,0.405,0.395,0.4,3946000
2019-02-04,0.405,0.405,0.395,0.4,1394000
2019-02-08,0.4,0.405,0.395,0.405,2222000
2019-02-11,0.4,0.405,0.4,0.4,1908000
2019-02-12,0.4,0.405,0.4,0.4,330000
2019-02-13,0.4,0.405,0.4,0.405,438000
2019-02-14,0.405,0.415,0.405,0.41,2862000
2019-02-15,0.41,0.425,0.36,0.42,11400000
2019-02-18,0.42,0.425,0.405,0.41,464000
2019-02-19,0.41,0.415,0.405,0.41,314000
2019-02-20,0.41,0.415,0.405,0.41,640000
2019-02-21,0.41,0.42,0.405,0.41,14580000
2019-02-22,0.415,0.42,0.41,0.41,14684000
2019-02-25,0.415,0.42,0.405,0.41,1820000
2019-02-26,0.41,0.42,0.4,0.42,18172010
2019-02-27,0.415,0.435,0.405,0.43,11546010
2019-02-28,0.455,0.455,0.43,0.435,9717000
2019-03-01,0.435,0.44,0.425,0.44,622000
2019-03-04,0.435,0.44,0.425,0.435,2428000
2019-03-05,0.425,0.425,0.415,0.415,1850000
2019-03-06,0.415,0.42,0.41,0.415,1526000
2019-03-07,0.41,0.41,0.39,0.395,10980000
2019-03-08,0.39,0.39,0.375,0.385,3812000
2019-03-11,0.39,0.395,0.385,0.39,1144000
2019-03-12,0.39,0.405,0.39,0.4,1636000
2019-03-13,0.39,0.4,0.375,0.39,9066000
2019-03-14,0.385,0.405,0.385,0.405,4436000
2019-03-15,0.395,0.405,0.385,0.405,3150000
2019-03-18,0.39,0.4,0.39,0.4,1384000
2019-03-19,0.4,0.4,0.39,0.395,250000
2019-03-20,0.4,0.4,0.395,0.4,330000
2019-03-21,0.39,0.41,0.39,0.395,2578000
2019-03-22,0.39,0.395,0.39,0.395,3700000
2019-03-25,0.395,0.4,0.39,0.395,5460000
2019-03-26,0.39,0.395,0.38,0.385,5844000
2019-03-27,0.385,0.39,0.385,0.39,2512000
2019-03-28,0.385,0.39,0.38,0.39,5396000
2019-03-29,0.38,0.39,0.37,0.38,4506000
2019-04-01,0.38,0.38,0.37,0.375,3008000
2019-04-02,0.37,0.375,0.365,0.375,3052000
2019-04-03,0.37,0.375,0.365,0.375,2334000
2019-04-04,0.375,0.38,0.37,0.375,486000
2019-04-08,0.38,0.38,0.355,0.37,5156000
2019-04-09,0.365,0.37,0.355,0.37,3522000
2019-04-10,0.365,0.37,0.36,0.37,420000
2019-04-11,0.37,0.37,0.36,0.37,250000
2019-04-12,0.365,0.37,0.35,0.37,4128000
2019-04-15,0.37,0.37,0.36,0.37,2404000
2019-04-16,0.37,0.37,0.305,0.31,28184000
2019-04-17,0.32,0.33,0.305,0.325,6482000
2019-04-18,0.315,0.33,0.315,0.32,678000
2019-04-23,0.32,0.325,0.31,0.32,1446000
2019-04-24,0.31,0.32,0.31,0.31,958000
2019-04-25,0.31,0.31,0.295,0.305,3750000
2019-04-26,0.305,0.31,0.295,0.31,1156000
2019-04-29,0.31,0.31,0.295,0.3,3462000
2019-04-30,0.3,0.31,0.295,0.305,1128000
2019-05-02,0.305,0.31,0.3,0.3,362000
2019-05-03,0.3,0.305,0.3,0.3,472000
2019-05-06,0.295,0.295,0.27,0.285,2266000
2019-05-07,0.285,0.32,0.285,0.31,2224000
2019-05-08,0.305,0.31,0.3,0.305,176000
2019-05-09,0.3,0.305,0.28,0.29,2996000
2019-05-10,0.29,0.31,0.285,0.3,790000
2019-05-14,0.3,0.315,0.28,0.285,3546000
2019-05-15,0.29,0.295,0.275,0.275,13912000
2019-05-16,0.275,0.28,0.275,0.28,1112000
2019-05-17,0.275,0.285,0.275,0.28,1358000
2019-05-20,0.275,0.295,0.275,0.29,948000
2019-05-21,0.295,0.31,0.29,0.29,1470000
2019-05-22,0.285,0.295,0.285,0.295,210000
2019-05-23,0.285,0.295,0.275,0.28,476000
2019-05-24,0.28,0.285,0.275,0.28,154000
2019-05-27,0.28,0.285,0.28,0.28,112000
2019-05-28,0.28,0.29,0.275,0.285,294000
2019-05-29,0.28,0.285,0.28,0.285,116000
2019-05-30,0.28,0.285,0.28,0.285,354000
2019-05-31,0.28,0.305,0.27,0.28,6212000
2019-06-03,0.28,0.285,0.28,0.28,4156000
2019-06-04,0.275,0.28,0.27,0.275,156000
2019-06-05,0.275,0.285,0.275,0.275,874000
2019-06-06,0.27,0.28,0.27,0.28,504000
2019-06-10,0.27,0.275,0.27,0.275,758000
2019-06-11,0.27,0.275,0.27,0.275,4000
2019-06-12,0.265,0.27,0.24100000000000002,0.245,5474000
2019-06-13,0.24,0.248,0.231,0.247,730000
2019-06-14,0.245,0.245,0.22699999999999998,0.237,380000
2019-06-17,0.231,0.245,0.22,0.23399999999999999,1566000
2019-06-18,0.228,0.239,0.228,0.23600000000000002,296000
2019-06-19,0.244,0.244,0.204,0.214,8026000
2019-06-20,0.21600000000000003,0.245,0.213,0.23199999999999998,2866000
2019-06-21,0.23199999999999998,0.242,0.22899999999999998,0.235,1194000
2019-06-24,0.237,0.24,0.225,0.22899999999999998,416000
2019-06-25,0.233,0.235,0.225,0.233,124000
2019-06-26,0.237,0.243,0.226,0.23600000000000002,600000
2019-06-27,0.239,0.245,0.226,0.23,834000
2019-06-28,0.23,0.235,0.223,0.231,244000
2019-07-02,0.233,0.233,0.233,0.233,6000
2019-07-03,0.233,0.242,0.225,0.23,1266000
2019-07-04,0.239,0.24100000000000002,0.226,0.23399999999999999,284000
2019-07-05,0.23800000000000002,0.23800000000000002,0.22699999999999998,0.23199999999999998,238000
2019-07-08,0.231,0.235,0.23,0.235,1020000
2019-07-09,0.235,0.237,0.226,0.23399999999999999,514000
2019-07-10,0.23600000000000002,0.244,0.226,0.242,2008000
2019-07-11,0.245,0.249,0.235,0.24600000000000002,658000
2019-07-12,0.26,0.27,0.24,0.249,5436000
2019-07-15,0.249,0.249,0.23399999999999999,0.24100000000000002,4006000
2019-07-16,0.239,0.24,0.23800000000000002,0.24,214000
2019-07-17,0.24,0.245,0.239,0.244,254000
2019-07-18,0.23600000000000002,0.244,0.235,0.244,982000
2019-07-19,0.23800000000000002,0.244,0.23800000000000002,0.244,27634000
2019-07-22,0.239,0.244,0.239,0.243,1912000
2019-07-23,0.244,0.255,0.24100000000000002,0.255,4442000
2019-07-24,0.248,0.25,0.244,0.247,1862000
2019-07-25,0.24600000000000002,0.255,0.245,0.25,672000
2019-07-26,0.25,0.25,0.25,0.25,166000
2019-07-29,0.26,0.265,0.26,0.26,164000
2019-07-30,0.255,0.26,0.255,0.26,170000
2019-07-31,0.25,0.25,0.24,0.24,1526000
2019-08-01,0.24600000000000002,0.247,0.24600000000000002,0.243,170000
2019-08-02,0.239,0.248,0.23600000000000002,0.23600000000000002,380000
2019-08-05,0.23399999999999999,0.235,0.215,0.22899999999999998,880000
2019-08-06,0.22,0.225,0.22,0.225,272000
2019-08-07,0.225,0.245,0.20800000000000002,0.22,1098000
2019-08-08,0.23199999999999998,0.239,0.223,0.239,1074000
2019-08-09,0.23600000000000002,0.245,0.22,0.23600000000000002,328000
2019-08-12,0.225,0.228,0.20800000000000002,0.20800000000000002,2384000
2019-08-13,0.204,0.22,0.19399999999999998,0.204,1576000
2019-08-14,0.2,0.213,0.2,0.205,376000
2019-08-15,0.2,0.21,0.2,0.21,64000
2019-08-16,0.21899999999999997,0.21899999999999997,0.21,0.21100000000000002,128000
2019-08-19,0.21100000000000002,0.21100000000000002,0.2,0.2,778000
2019-08-20,0.2,0.21100000000000002,0.2,0.21,116000
2019-08-21,0.21,0.21,0.21,0.21,54000
2019-08-22,0.2,0.209,0.2,0.209,100000
2019-08-23,0.209,0.213,0.209,0.209,44000
2019-08-27,0.19399999999999998,0.209,0.19399999999999998,0.20800000000000002,172000
2019-08-29,0.20800000000000002,0.20800000000000002,0.20800000000000002,0.21,46000
2019-08-30,0.21,0.215,0.205,0.21100000000000002,404000
2019-09-02,0.213,0.214,0.19,0.213,2362000
2019-09-03,0.215,0.218,0.21,0.21600000000000003,128000
2019-09-04,0.21899999999999997,0.21899999999999997,0.21100000000000002,0.215,860000
2019-09-05,0.21100000000000002,0.214,0.19,0.209,2080000
2019-09-06,0.209,0.21,0.192,0.21,754000
2019-09-09,0.205,0.20800000000000002,0.20199999999999999,0.20800000000000002,14000
2019-09-10,0.215,0.215,0.212,0.212,4000
2019-09-11,0.203,0.20800000000000002,0.203,0.20800000000000002,264000
2019-09-12,0.203,0.20800000000000002,0.198,0.20800000000000002,106000
2019-09-13,0.21600000000000003,0.21600000000000003,0.21,0.212,8000
2019-09-16,0.21899999999999997,0.22,0.21899999999999997,0.214,6000
2019-09-17,0.2,0.21,0.2,0.21,180000
2019-09-18,0.2,0.2,0.19,0.19899999999999998,1904000
2019-09-19,0.19899999999999998,0.21899999999999997,0.195,0.19899999999999998,1584000
2019-09-20,0.19699999999999998,0.204,0.195,0.20199999999999999,496000
2019-09-23,0.20199999999999999,0.20199999999999999,0.16699999999999998,0.18,11088000
2019-09-24,0.18,0.18,0.168,0.177,1460000
2019-09-25,0.16899999999999998,0.17,0.163,0.17,2736000
2019-09-26,0.163,0.163,0.139,0.155,3438000
2019-09-27,0.154,0.16,0.138,0.154,4412000
2019-09-30,0.147,0.159,0.147,0.155,500000
2019-10-02,0.14300000000000002,0.154,0.14,0.151,1518000
2019-10-03,0.15,0.15,0.15,0.15,14000
2019-10-04,0.141,0.149,0.14,0.146,388000
2019-10-08,0.141,0.147,0.141,0.146,1286000
2019-10-09,0.141,0.14800000000000002,0.141,0.14800000000000002,24000
2019-10-10,0.14800000000000002,0.14800000000000002,0.14300000000000002,0.147,64000
2019-10-11,0.146,0.15,0.146,0.15,240000
2019-10-14,0.15,0.165,0.15,0.162,1092000
2019-10-15,0.16399999999999998,0.165,0.153,0.16399999999999998,504000
2019-10-16,0.16399999999999998,0.165,0.16399999999999998,0.16399999999999998,158000
2019-10-17,0.157,0.16399999999999998,0.155,0.16399999999999998,298000
2019-10-18,0.16399999999999998,0.16399999999999998,0.16399999999999998,0.16399999999999998,42000
2019-10-21,0.152,0.165,0.15,0.165,342000
2019-10-22,0.147,0.15,0.139,0.146,3458000
2019-10-23,0.14,0.146,0.14,0.145,438000
2019-10-24,0.145,0.151,0.14,0.14800000000000002,424000
2019-10-25,0.141,0.14400000000000002,0.135,0.14,2194000
2019-10-28,0.136,0.139,0.126,0.133,3856000
2019-10-29,0.13,0.132,0.126,0.13,298000
2019-10-30,0.128,0.135,0.128,0.135,560000
2019-10-31,0.135,0.136,0.131,0.135,1008000
2019-11-01,0.139,0.19,0.139,0.166,10462000
2019-11-04,0.16699999999999998,0.16699999999999998,0.157,0.16,844000
2019-11-05,0.158,0.159,0.155,0.159,154000
2019-11-06,0.158,0.161,0.147,0.161,328000
2019-11-07,0.163,0.163,0.16,0.162,428000
2019-11-08,0.158,0.166,0.153,0.166,202000
2019-11-11,0.16,0.16399999999999998,0.154,0.163,366000
2019-11-12,0.16,0.16,0.16,0.16,66000
2019-11-13,0.149,0.157,0.145,0.15,588000
2019-11-14,0.147,0.15,0.147,0.15,244000
2019-11-15,0.149,0.155,0.149,0.155,214000
2019-11-18,0.16399999999999998,0.21,0.162,0.17300000000000001,5977000
2019-11-19,0.172,0.18,0.168,0.175,450000
2019-11-20,0.166,0.16899999999999998,0.166,0.16699999999999998,274000
2019-11-21,0.16,0.17300000000000001,0.153,0.168,1752000
2019-11-22,0.157,0.161,0.154,0.161,1146000
2019-11-25,0.162,0.175,0.162,0.17,944000
2019-11-26,0.174,0.175,0.162,0.16899999999999998,1000000
2019-11-27,0.16899999999999998,0.175,0.16899999999999998,0.17,1848000
2019-11-28,0.163,0.17300000000000001,0.163,0.17300000000000001,1664000
2019-11-29,0.175,0.18,0.168,0.175,8442000
2019-12-02,0.179,0.188,0.17800000000000002,0.18,2042000
2019-12-03,0.18600000000000003,0.188,0.185,0.182,702000
2019-12-04,0.182,0.182,0.182,0.182,202000
2019-12-05,0.172,0.18100000000000002,0.17,0.18,276000
2019-12-06,0.172,0.179,0.172,0.175,104000
2019-12-09,0.175,0.18,0.175,0.18,62000
2019-12-11,0.17300000000000001,0.17800000000000002,0.17,0.17,183750
2019-12-12,0.17,0.172,0.16399999999999998,0.168,210250
2019-12-13,0.168,0.168,0.168,0.168,10000
2019-12-16,0.17,0.175,0.17,0.17300000000000001,108000
2019-12-17,0.17300000000000001,0.17300000000000001,0.163,0.172,704000
2019-12-18,0.17,0.17,0.162,0.17,56000
2019-12-19,0.162,0.16699999999999998,0.152,0.155,2690000
2019-12-20,0.146,0.149,0.14,0.149,3910000
2019-12-23,0.149,0.149,0.149,0.149,4000
2019-12-24,0.152,0.152,0.15,0.15,178000
2019-12-27,0.152,0.16,0.15,0.153,220000
2019-12-30,0.14800000000000002,0.154,0.14300000000000002,0.154,660000
2019-12-31,0.154,0.158,0.154,0.158,4000
2020-01-02,0.15,0.157,0.15,0.157,64000
2020-01-03,0.155,0.157,0.15,0.157,520000
2020-01-06,0.153,0.158,0.15,0.158,198000
2020-01-07,0.157,0.157,0.153,0.153,14000
2020-01-08,0.15,0.154,0.15,0.154,52000
2020-01-09,0.154,0.154,0.154,0.153,2000
2020-01-10,0.155,0.155,0.155,0.155,2000
2020-01-13,0.152,0.155,0.15,0.155,16000
2020-01-14,0.14300000000000002,0.157,0.14,0.155,202000
2020-01-15,0.14400000000000002,0.151,0.14,0.146,1622000
2020-01-16,0.14300000000000002,0.15,0.141,0.15,474000
2020-01-17,0.141,0.155,0.141,0.155,154000
2020-01-20,0.15,0.15,0.15,0.15,40000
2020-01-21,0.147,0.147,0.141,0.141,1104000
2020-01-22,0.142,0.142,0.141,0.142,176000
2020-01-23,0.14,0.142,0.132,0.142,982000
2020-01-24,0.14400000000000002,0.147,0.139,0.147,50000
2020-01-29,0.146,0.147,0.14,0.147,158000
2020-01-30,0.133,0.157,0.133,0.146,12000
2020-01-31,0.141,0.141,0.136,0.14,140000
2020-02-03,0.136,0.13699999999999998,0.13,0.134,884000
2020-02-04,0.134,0.134,0.132,0.134,214000
2020-02-05,0.13,0.133,0.13,0.133,212000
2020-02-06,0.138,0.138,0.138,0.138,2000
2020-02-07,0.129,0.134,0.129,0.134,178000
2020-02-10,0.133,0.15,0.128,0.136,864000
2020-02-11,0.132,0.133,0.125,0.127,1614000
2020-02-12,0.129,0.129,0.129,0.129,8000
2020-02-13,0.125,0.129,0.125,0.129,126000
2020-02-14,0.131,0.136,0.127,0.133,524000
2020-02-17,0.13699999999999998,0.13699999999999998,0.127,0.134,490000
2020-02-18,0.128,0.142,0.127,0.134,1306000
2020-02-19,0.13,0.133,0.129,0.133,114000
2020-02-20,0.128,0.129,0.128,0.131,318000
2020-02-21,0.134,0.135,0.128,0.135,948000
2020-02-24,0.132,0.138,0.128,0.135,998000
2020-02-25,0.132,0.135,0.127,0.133,704000
2020-02-26,0.131,0.133,0.129,0.13,350000
2020-02-27,0.127,0.129,0.127,0.129,18000
2020-02-28,0.127,0.127,0.127,0.127,6000
2020-03-02,0.126,0.128,0.126,0.126,66000
2020-03-03,0.128,0.128,0.125,0.128,108000
2020-03-04,0.125,0.127,0.11,0.115,1630000
2020-03-05,0.11199999999999999,0.114,0.094,0.10300000000000001,11892000
2020-03-06,0.10300000000000001,0.10300000000000001,0.096,0.1,3882000
2020-03-09,0.095,0.098,0.092,0.094,21626000
2020-03-10,0.1,0.1,0.094,0.09699999999999999,11720000
2020-03-11,0.09699999999999999,0.1,0.092,0.1,284000
2020-03-12,0.09300000000000001,0.099,0.086,0.095,1102000
2020-03-13,0.084,0.09,0.083,0.08900000000000001,1114000
2020-03-16,0.08900000000000001,0.105,0.08900000000000001,0.095,3964000
2020-03-17,0.098,0.098,0.09,0.096,274000
2020-03-18,0.096,0.098,0.08199999999999999,0.094,270000
2020-03-19,0.105,0.105,0.078,0.09,1988000
2020-03-20,0.095,0.10300000000000001,0.094,0.1,1532000
2020-03-23,0.1,0.106,0.099,0.106,2160000
2020-03-24,0.106,0.113,0.10099999999999999,0.11199999999999999,502000
2020-03-25,0.1,0.113,0.1,0.11199999999999999,186000
2020-03-26,0.11199999999999999,0.11199999999999999,0.111,0.111,110000
2020-03-27,0.1,0.111,0.1,0.109,108000
2020-03-30,0.096,0.106,0.08800000000000001,0.095,1344000
2020-03-31,0.102,0.102,0.092,0.095,414000
2020-04-01,0.10400000000000001,0.10400000000000001,0.087,0.09300000000000001,102000
2020-04-02,0.09300000000000001,0.09300000000000001,0.09300000000000001,0.09300000000000001,0
2020-04-03,0.085,0.08800000000000001,0.083,0.08800000000000001,152000
2020-04-06,0.091,0.096,0.084,0.09,160000
2020-04-07,0.08900000000000001,0.09300000000000001,0.083,0.085,560000
2020-04-08,0.08900000000000001,0.09,0.08900000000000001,0.09,148000
2020-04-09,0.09,0.091,0.085,0.09,332000
2020-04-14,0.085,0.09,0.085,0.09,380000
2020-04-15,0.08900000000000001,0.08900000000000001,0.08900000000000001,0.08900000000000001,24000
2020-04-16,0.094,0.102,0.094,0.102,1214000
2020-04-17,0.09300000000000001,0.12,0.09300000000000001,0.113,1184000
2020-04-20,0.1,0.128,0.1,0.12300000000000001,3142000
2020-04-21,0.12300000000000001,0.128,0.11800000000000001,0.124,1622000
2020-04-22,0.125,0.125,0.12,0.125,934000
2020-04-23,0.127,0.129,0.12,0.126,1332000
2020-04-24,0.12300000000000001,0.126,0.122,0.126,872000
2020-04-27,0.126,0.127,0.126,0.127,30000
2020-04-28,0.126,0.127,0.126,0.127,218000
2020-04-29,0.125,0.127,0.12300000000000001,0.127,338000
2020-05-04,0.125,0.126,0.125,0.126,84000
2020-05-05,0.12,0.125,0.11199999999999999,0.124,180000
2020-05-06,0.12,0.12,0.11800000000000001,0.12,158000
2020-05-07,0.11,0.12,0.11,0.12,208000
2020-05-08,0.11,0.11900000000000001,0.11,0.11699999999999999,220000
2020-05-11,0.12,0.12,0.11900000000000001,0.11900000000000001,6000
2020-05-12,0.12,0.12,0.12,0.12,2000
2020-05-13,0.12,0.12,0.12,0.11900000000000001,536000
2020-05-14,0.106,0.11900000000000001,0.106,0.11900000000000001,68000
2020-05-15,0.11800000000000001,0.11800000000000001,0.11800000000000001,0.11800000000000001,6000
2020-05-18,0.11599999999999999,0.11699999999999999,0.11599999999999999,0.11699999999999999,22000
2020-05-19,0.11599999999999999,0.11599999999999999,0.11599999999999999,0.11599999999999999,4000
2020-05-20,0.115,0.11800000000000001,0.115,0.11800000000000001,684000
2020-05-21,0.11,0.11699999999999999,0.11,0.11599999999999999,274000
2020-05-22,0.11,0.11,0.105,0.10800000000000001,436000
2020-05-25,0.107,0.107,0.107,0.107,4000
2020-05-26,0.1,0.10300000000000001,0.1,0.102,284000
2020-05-27,0.10400000000000001,0.10400000000000001,0.1,0.10099999999999999,202000
2020-05-28,0.102,0.11,0.102,0.10800000000000001,12000
2020-05-29,0.105,0.105,0.10099999999999999,0.10300000000000001,150000
2020-06-01,0.1,0.10099999999999999,0.1,0.10099999999999999,4000
2020-06-02,0.098,0.098,0.098,0.098,20000
2020-06-03,0.096,0.109,0.096,0.109,528000
2020-06-04,0.109,0.11599999999999999,0.109,0.115,142000
2020-06-05,0.111,0.111,0.111,0.111,2000
2020-06-08,0.109,0.11,0.109,0.11,4000
2020-06-09,0.107,0.107,0.107,0.105,4000
2020-06-10,0.09699999999999999,0.10300000000000001,0.09699999999999999,0.10300000000000001,234000
2020-06-11,0.09699999999999999,0.11,0.095,0.10300000000000001,348000
2020-06-12,0.10300000000000001,0.107,0.10300000000000001,0.105,10000
2020-06-15,0.09699999999999999,0.102,0.09699999999999999,0.102,116000
2020-06-16,0.10099999999999999,0.10800000000000001,0.096,0.10300000000000001,194000
2020-06-17,0.09699999999999999,0.10800000000000001,0.09699999999999999,0.102,438000
2020-06-18,0.096,0.10400000000000001,0.095,0.10300000000000001,158000
2020-06-19,0.096,0.10400000000000001,0.096,0.10400000000000001,58000
2020-06-22,0.1040000021457672,0.1040000021457672,0.1040000021457672,0.1040000021457672,0
2020-06-23,0.1040000021457672,0.1040000021457672,0.1040000021457672,0.1040000021457672,0
2020-06-24,0.1040000021457672,0.1040000021457672,0.1040000021457672,0.1040000021457672,0
2020-06-26,0.1040000021457672,0.1040000021457672,0.1040000021457672,0.1040000021457672,0
2020-06-29,0.1040000021457672,0.1040000021457672,0.1040000021457672,0.1040000021457672,0
2020-06-30,0.1040000021457672,0.1040000021457672,0.1040000021457672,0.1040000021457672,0
2020-07-02,0.1040000021457672,0.1040000021457672,0.1040000021457672,0.1040000021457672,0
2020-07-03,0.1040000021457672,0.1040000021457672,0.1040000021457672,0.1040000021457672,0
2020-07-06,0.1040000021457672,0.1040000021457672,0.1040000021457672,0.1040000021457672,0
2020-07-07,0.1040000021457672,0.1040000021457672,0.1040000021457672,0.1040000021457672,0
2020-07-08,0.1040000021457672,0.1040000021457672,0.1040000021457672,0.1040000021457672,0
2020-07-09,0.1040000021457672,0.1040000021457672,0.1040000021457672,0.1040000021457672,0
2020-07-10,0.1040000021457672,0.1040000021457672,0.1040000021457672,0.1040000021457672,0
2020-07-13,0.1040000021457672,0.1040000021457672,0.1040000021457672,0.1040000021457672,0
2020-07-14,0.1040000021457672,0.1040000021457672,0.1040000021457672,0.1040000021457672,0
2020-07-15,0.1040000021457672,0.1040000021457672,0.1040000021457672,0.1040000021457672,0
2020-07-16,0.1040000021457672,0.1040000021457672,0.1040000021457672,0.1040000021457672,0
2020-07-17,0.1040000021457672,0.1040000021457672,0.1040000021457672,0.1040000021457672,0
2020-07-20,0.1040000021457672,0.1040000021457672,0.1040000021457672,0.1040000021457672,0
2020-07-21,0.1040000021457672,0.1040000021457672,0.1040000021457672,0.1040000021457672,0
2020-07-22,0.1040000021457672,0.1040000021457672,0.1040000021457672,0.1040000021457672,0
2020-07-23,0.1040000021457672,0.1040000021457672,0.1040000021457672,0.1040000021457672,0
2020-07-24,0.1040000021457672,0.1040000021457672,0.1040000021457672,0.1040000021457672,0
2020-07-27,0.1040000021457672,0.1040000021457672,0.1040000021457672,0.1040000021457672,0
2020-07-28,0.1040000021457672,0.1040000021457672,0.1040000021457672,0.1040000021457672,0
2020-07-29,0.1040000021457672,0.1040000021457672,0.1040000021457672,0.1040000021457672,0
2020-07-30,0.1040000021457672,0.1040000021457672,0.1040000021457672,0.1040000021457672,0
2020-07-31,0.1040000021457672,0.1040000021457672,0.1040000021457672,0.1040000021457672,0
2020-08-03,0.1040000021457672,0.1040000021457672,0.1040000021457672,0.1040000021457672,0
2020-08-04,0.1040000021457672,0.1040000021457672,0.1040000021457672,0.1040000021457672,0
2020-08-05,0.1040000021457672,0.1040000021457672,0.1040000021457672,0.1040000021457672,0
2020-08-06,0.1040000021457672,0.1040000021457672,0.1040000021457672,0.1040000021457672,0
2020-08-07,0.1040000021457672,0.1040000021457672,0.1040000021457672,0.1040000021457672,0
2020-08-10,0.1040000021457672,0.1040000021457672,0.1040000021457672,0.1040000021457672,0
2020-08-11,0.1040000021457672,0.1040000021457672,0.1040000021457672,0.1040000021457672,0
2020-08-12,0.1040000021457672,0.1040000021457672,0.1040000021457672,0.1040000021457672,0
2020-08-13,0.1040000021457672,0.1040000021457672,0.1040000021457672,0.1040000021457672,0
2020-08-14,0.1040000021457672,0.1040000021457672,0.1040000021457672,0.1040000021457672,0
2020-08-17,0.1040000021457672,0.1040000021457672,0.1040000021457672,0.1040000021457672,0
2020-08-18,0.1040000021457672,0.1040000021457672,0.1040000021457672,0.1040000021457672,0
2020-08-19,0.1040000021457672,0.1040000021457672,0.1040000021457672,0.1040000021457672,0
2020-08-20,0.1040000021457672,0.1040000021457672,0.1040000021457672,0.1040000021457672,0
2020-08-21,0.1040000021457672,0.1040000021457672,0.1040000021457672,0.1040000021457672,0
2020-08-24,0.1040000021457672,0.1040000021457672,0.1040000021457672,0.1040000021457672,0
