Date,Open,High,Low,Close,Volume
2014-08-06,1.04,1.09,1.03,1.08,5357126
2014-08-07,1.08,1.13,1.03,1.05,12182000
2014-08-08,1.05,1.09,1.04,1.08,4370000
2014-08-11,1.1,1.1,1.04,1.05,2940000
2014-08-12,1.06,1.06,1.05,1.06,2916000
2014-08-13,1.05,1.07,1.05,1.06,2912000
2014-08-14,1.06,1.06,1.04,1.05,1573174
2014-08-15,1.06,1.06,1.03,1.05,3004000
2014-08-18,1.05,1.05,1.03,1.03,1744000
2014-08-19,1.03,1.03,0.98,1.01,5826000
2014-08-20,1.01,1.01,0.99,0.99,1430000
2014-08-21,0.99,1.0,0.98,0.98,1406000
2014-08-22,0.98,1.01,0.98,1.01,1166000
2014-08-25,1.01,1.01,0.99,1.0,942000
2014-08-26,1.0,1.0,0.98,0.99,694038
2014-08-27,0.99,0.99,0.95,0.97,1788000
2014-08-28,0.96,0.96,0.93,0.94,1599316
2014-08-29,0.94,0.95,0.93,0.95,826000
2014-09-01,0.95,0.96,0.95,0.95,416000
2014-09-02,0.96,0.96,0.88,0.95,1532000
2014-09-03,0.95,1.0,0.94,0.98,1828000
2014-09-04,0.99,0.99,0.95,0.97,1418000
2014-09-05,0.99,0.99,0.97,0.99,946000
2014-09-08,0.95,0.97,0.95,0.96,476000
2014-09-10,0.94,0.95,0.94,0.94,1304000
2014-09-11,0.95,0.96,0.93,0.94,1184000
2014-09-12,0.94,0.94,0.91,0.94,2288000
2014-09-15,0.94,0.94,0.92,0.94,1080000
2014-09-16,0.93,0.93,0.91,0.92,1899646
2014-09-17,0.93,0.93,0.91,0.93,2450000
2014-09-18,0.92,0.92,0.9,0.9,1399000
2014-09-19,0.92,0.92,0.91,0.92,1483014
2014-09-22,0.92,0.92,0.9,0.91,448000
2014-09-23,0.91,0.93,0.91,0.91,534000
2014-09-24,0.91,0.92,0.9,0.91,1872000
2014-09-25,0.92,0.93,0.91,0.92,3882000
2014-09-26,0.91,0.93,0.9,0.93,2662000
2014-09-29,0.91,0.91,0.86,0.88,1472000
2014-09-30,0.86,0.9,0.86,0.88,2158000
2014-10-03,0.88,0.91,0.87,0.9,2586000
2014-10-06,0.9,0.91,0.89,0.9,1062000
2014-10-07,0.9,0.92,0.9,0.92,2368000
2014-10-08,0.89,0.92,0.89,0.89,2296000
2014-10-09,0.9,0.94,0.89,0.94,11278000
2014-10-10,0.92,0.92,0.91,0.91,1702000
2014-10-13,0.9,0.91,0.87,0.9,3523000
2014-10-14,0.89,0.9,0.88,0.89,4105000
2014-10-15,0.88,0.89,0.87,0.88,944000
2014-10-16,0.88,0.88,0.86,0.87,1860000
2014-10-17,0.88,0.88,0.86,0.87,350000
2014-10-20,0.88,0.88,0.86,0.87,792000
2014-10-21,0.88,0.89,0.86,0.86,2664000
2014-10-22,0.87,0.88,0.86,0.87,2387000
2014-10-23,0.87,0.88,0.87,0.88,1100000
2014-10-24,0.87,0.87,0.86,0.87,616667
2014-10-27,0.86,0.87,0.85,0.85,838000
2014-10-28,0.86,0.89,0.86,0.88,2216000
2014-10-29,0.89,0.9,0.88,0.89,1384000
2014-10-30,0.89,0.9,0.88,0.9,640000
2014-10-31,0.88,0.9,0.88,0.9,1352000
2014-11-03,0.91,0.92,0.88,0.91,3106000
2014-11-04,0.91,0.94,0.91,0.93,854000
2014-11-05,0.93,0.94,0.92,0.92,1214000
2014-11-06,0.92,0.92,0.91,0.91,770000
2014-11-07,0.91,0.92,0.9,0.91,476000
2014-11-10,0.92,0.92,0.9,0.92,994000
2014-11-11,0.92,0.92,0.9,0.92,959000
2014-11-12,0.92,0.92,0.9,0.92,972000
2014-11-13,0.91,0.93,0.91,0.91,1578000
2014-11-14,0.92,0.93,0.9,0.92,3854000
2014-11-17,0.92,0.92,0.9,0.9,1330000
2014-11-18,0.91,0.91,0.88,0.89,710000
2014-11-19,0.89,0.9,0.87,0.89,892000
2014-11-20,0.88,0.89,0.87,0.89,599000
2014-11-21,0.87,0.92,0.87,0.89,1852000
2014-11-24,0.92,0.96,0.91,0.96,12736000
2014-11-25,0.98,0.98,0.94,0.95,9672000
2014-11-26,0.95,0.96,0.94,0.96,2524479
2014-11-27,0.96,0.96,0.92,0.94,2222000
2014-11-28,0.93,0.95,0.93,0.94,1431000
2014-12-01,0.95,0.95,0.89,0.91,2856000
2014-12-02,0.91,0.93,0.91,0.92,1058000
2014-12-03,0.93,0.96,0.92,0.92,2910000
2014-12-04,0.92,0.94,0.91,0.93,2158000
2014-12-05,0.92,0.93,0.9,0.91,1940000
2014-12-08,0.91,0.91,0.89,0.89,3586000
2014-12-09,0.91,0.91,0.87,0.9,3030000
2014-12-10,0.9,0.9,0.89,0.89,650000
2014-12-11,0.89,0.9,0.88,0.88,580000
2014-12-12,0.89,0.9,0.87,0.88,1562000
2014-12-15,0.87,0.88,0.86,0.87,1865750
2014-12-16,0.87,0.87,0.86,0.87,1346000
2014-12-17,0.86,0.87,0.85,0.87,1296000
2014-12-18,0.88,0.9,0.87,0.88,1442000
2014-12-19,0.87,0.88,0.85,0.87,2132000
2014-12-22,0.89,0.89,0.87,0.88,654000
2014-12-23,0.88,0.9,0.87,0.87,376300
2014-12-24,0.88,0.88,0.86,0.87,152000
2014-12-29,0.88,0.88,0.85,0.88,1150000
2014-12-30,0.88,0.89,0.87,0.88,1794000
2014-12-31,0.88,0.92,0.88,0.89,2436000
2015-01-02,0.9,0.96,0.9,0.94,8297930
2015-01-05,0.94,0.98,0.94,0.96,8794000
2015-01-06,0.96,0.96,0.93,0.95,1156000
2015-01-07,0.93,0.97,0.93,0.97,4836500
2015-01-08,0.97,0.98,0.96,0.97,3606000
2015-01-09,0.98,0.99,0.96,0.97,3030750
2015-01-12,0.97,0.97,0.96,0.97,3850000
2015-01-13,0.98,0.98,0.96,0.97,980000
2015-01-14,0.96,0.97,0.94,0.95,1570000
2015-01-15,0.95,0.95,0.92,0.94,1738000
2015-01-16,0.93,0.93,0.91,0.93,771000
2015-01-19,0.93,0.93,0.88,0.9,1612000
2015-01-20,0.91,0.92,0.9,0.9,320000
2015-01-21,0.92,0.93,0.91,0.93,342000
2015-01-22,0.92,0.93,0.92,0.93,116000
2015-01-23,0.95,0.95,0.91,0.92,980500
2015-01-26,0.91,0.91,0.89,0.9,1830000
2015-01-27,0.91,0.91,0.89,0.91,336000
2015-01-28,0.91,0.92,0.89,0.9,779000
2015-01-29,0.91,0.91,0.89,0.9,714000
2015-01-30,0.9,0.9,0.88,0.89,646000
2015-02-02,0.89,0.89,0.88,0.89,520000
2015-02-03,0.89,0.93,0.88,0.9,340000
2015-02-04,0.92,0.92,0.88,0.89,1407250
2015-02-05,0.91,0.94,0.88,0.9,1494500
2015-02-06,0.91,0.91,0.89,0.89,474000
2015-02-09,0.88,0.9,0.88,0.9,296000
2015-02-10,0.88,0.89,0.88,0.89,122000
2015-02-11,0.89,0.9,0.88,0.9,298000
2015-02-12,0.9,0.9,0.88,0.9,468000
2015-02-13,0.9,0.9,0.88,0.89,896000
2015-02-16,0.89,0.89,0.89,0.89,237000
2015-02-17,0.9,0.9,0.89,0.9,108000
2015-02-18,0.9,0.9,0.9,0.9,38000
2015-02-23,0.91,0.91,0.9,0.91,34000
2015-02-24,0.91,0.91,0.87,0.89,740000
2015-02-25,0.89,0.91,0.89,0.89,394000
2015-02-26,0.92,0.92,0.9,0.91,207250
2015-02-27,0.9,0.91,0.9,0.91,80000
2015-03-02,0.91,0.91,0.89,0.9,682000
2015-03-03,0.9,0.9,0.88,0.9,2174000
2015-03-04,0.89,0.89,0.88,0.89,808000
2015-03-05,0.88,0.89,0.87,0.88,1582000
2015-03-06,0.87,0.89,0.87,0.89,1066000
2015-03-09,0.89,0.89,0.87,0.89,805000
2015-03-10,0.88,0.89,0.87,0.89,898000
2015-03-11,0.88,0.89,0.86,0.87,2436000
2015-03-12,0.88,0.88,0.85,0.87,616000
2015-03-13,0.88,0.88,0.85,0.87,464000
2015-03-16,0.87,0.88,0.86,0.88,278000
2015-03-17,0.86,0.87,0.86,0.87,602000
2015-03-18,0.87,0.9,0.86,0.87,1596000
2015-03-19,0.87,0.88,0.86,0.87,2400000
2015-03-20,0.87,0.87,0.84,0.87,4034000
2015-03-23,0.87,0.88,0.85,0.87,1740000
2015-03-24,0.87,0.87,0.85,0.87,1070000
2015-03-25,0.87,0.87,0.85,0.87,346000
2015-03-26,0.86,0.88,0.85,0.87,1434000
2015-03-27,0.87,0.9,0.86,0.89,2674000
2015-03-30,0.9,0.92,0.9,0.92,4992000
2015-03-31,0.93,0.96,0.9,0.91,7080000
2015-04-01,0.91,0.95,0.9,0.93,3391000
2015-04-02,0.93,0.94,0.92,0.93,3972000
2015-04-08,0.94,1.0,0.93,0.98,10828000
2015-04-09,1.02,1.06,0.98,1.01,10566000
2015-04-10,1.03,1.06,1.01,1.03,10606000
2015-04-13,1.05,1.16,1.05,1.15,32190000
2015-04-14,1.12,1.21,1.12,1.12,28139744
2015-04-15,1.14,1.17,1.09,1.13,7040000
2015-04-16,1.12,1.16,1.12,1.13,4844000
2015-04-17,1.13,1.14,1.08,1.11,17709000
2015-04-20,1.1,1.12,1.04,1.05,6674000
2015-04-21,1.06,1.08,1.03,1.07,5822000
2015-04-22,1.06,1.15,1.06,1.15,14712500
2015-04-23,1.16,1.18,1.12,1.13,9790000
2015-04-24,1.12,1.14,1.11,1.13,5272000
2015-04-27,1.14,1.18,1.14,1.16,14134000
2015-04-28,1.17,1.18,1.14,1.16,9010000
2015-04-29,1.17,1.17,1.14,1.15,5151000
2015-04-30,1.15,1.21,1.11,1.2,22787000
2015-05-04,1.22,1.28,1.2,1.28,21734658
2015-05-05,1.29,1.29,1.18,1.2,14282000
2015-05-06,1.2,1.23,1.16,1.18,10152864
2015-05-07,1.19,1.19,1.14,1.15,6508000
2015-05-08,1.16,1.19,1.14,1.18,5038000
2015-05-11,1.22,1.22,1.16,1.18,3642000
2015-05-12,1.19,1.19,1.14,1.15,3626000
2015-05-13,1.16,1.16,1.11,1.14,2696000
2015-05-14,1.15,1.16,1.12,1.16,2414000
2015-05-15,1.17,1.18,1.14,1.16,2406000
2015-05-18,1.17,1.17,1.13,1.16,2786000
2015-05-19,1.17,1.17,1.13,1.15,2612000
2015-05-20,1.16,1.22,1.13,1.21,18802000
2015-05-21,1.22,1.24,1.19,1.23,16963344
2015-05-22,1.25,1.26,1.22,1.24,10698500
2015-05-26,1.25,1.27,1.23,1.24,7999132
2015-05-27,1.24,1.31,1.22,1.26,20320000
2015-05-28,1.28,1.28,1.18,1.22,9852000
2015-05-29,1.22,1.22,1.18,1.18,4672000
2015-06-01,1.17,1.27,1.17,1.23,5528000
2015-06-02,1.24,1.24,1.21,1.23,2954386
2015-06-03,1.22,1.24,1.2,1.21,4224000
2015-06-04,1.2,1.23,1.17,1.19,4038000
2015-06-05,1.17,1.19,1.13,1.15,6002000
2015-06-08,1.14,1.18,1.13,1.16,3601000
2015-06-09,1.16,1.16,1.1,1.12,4122000
2015-06-10,1.1,1.13,1.08,1.09,4420000
2015-06-11,1.1,1.11,1.07,1.08,5362000
2015-06-12,1.1,1.17,1.07,1.16,7184000
2015-06-15,1.16,1.17,1.11,1.12,5428000
2015-06-16,1.12,1.13,1.07,1.08,5082000
2015-06-17,1.08,1.1,1.07,1.09,3953482
2015-06-18,1.09,1.1,1.07,1.08,3741000
2015-06-19,1.08,1.1,1.06,1.06,3664000
2015-06-22,1.06,1.07,1.03,1.04,3018000
2015-06-23,1.05,1.08,1.05,1.07,5379900
2015-06-24,1.08,1.08,1.06,1.07,2564000
2015-06-25,1.07,1.08,1.04,1.06,4194000
2015-06-26,1.05,1.07,1.03,1.04,3436000
2015-06-29,1.04,1.04,0.95,0.98,5804000
2015-06-30,0.95,1.0,0.95,0.99,2558000
2015-07-02,0.98,0.99,0.94,0.96,3126000
2015-07-03,0.97,0.98,0.92,0.94,4746000
2015-07-06,0.95,0.95,0.83,0.88,8930000
2015-07-07,0.88,0.88,0.83,0.83,3630000
2015-07-08,0.82,0.82,0.64,0.74,5996000
2015-07-09,0.73,0.83,0.73,0.82,4736000
2015-07-10,0.84,0.91,0.81,0.9,6286000
2015-07-13,0.87,0.93,0.87,0.93,3670000
2015-07-14,0.91,0.95,0.91,0.92,2404000
2015-07-15,0.93,0.93,0.87,0.89,3960000
2015-07-16,0.88,0.93,0.86,0.9,1810000
2015-07-17,0.9,0.93,0.9,0.93,918500
2015-07-20,0.93,0.94,0.92,0.92,1094000
2015-07-21,0.89,0.93,0.89,0.91,722000
2015-07-22,0.89,0.92,0.89,0.92,1018000
2015-07-23,0.9,0.93,0.9,0.93,618000
2015-07-24,0.91,0.93,0.91,0.92,220000
2015-07-27,0.91,0.91,0.85,0.87,2628000
2015-07-28,0.85,0.87,0.84,0.87,3498000
2015-07-29,0.85,0.86,0.85,0.86,1712000
2015-07-30,0.86,0.86,0.85,0.86,660000
2015-07-31,0.85,0.87,0.84,0.84,648000
2015-08-03,0.83,0.85,0.82,0.82,706000
2015-08-04,0.8,0.84,0.8,0.83,2808000
2015-08-05,0.84,0.85,0.83,0.84,826000
2015-08-06,0.84,0.86,0.83,0.85,694000
2015-08-07,0.83,0.86,0.83,0.86,1040000
2015-08-10,0.84,0.9,0.84,0.89,2118000
2015-08-11,0.89,0.9,0.87,0.88,1062000
2015-08-12,0.86,0.86,0.83,0.84,1444000
2015-08-13,0.83,0.87,0.82,0.86,780000
2015-08-14,0.85,0.86,0.82,0.84,454000
2015-08-17,0.83,0.84,0.75,0.83,4936000
2015-08-18,0.82,0.84,0.79,0.82,796000
2015-08-19,0.81,0.84,0.81,0.83,1114000
2015-08-20,0.81,0.82,0.77,0.78,2808000
2015-08-21,0.75,0.78,0.75,0.76,2828000
2015-08-24,0.73,0.73,0.7,0.7,2146000
2015-08-25,0.71,0.72,0.68,0.7,2898000
2015-08-26,0.7,0.77,0.7,0.73,2506000
2015-08-27,0.75,0.77,0.72,0.76,2252000
2015-08-28,0.77,0.77,0.75,0.77,1228000
2015-08-31,0.75,0.76,0.74,0.76,782000
2015-09-01,0.74,0.75,0.71,0.73,1463250
2015-09-02,0.72,0.74,0.71,0.73,542000
2015-09-04,0.73,0.75,0.7,0.71,752000
2015-09-07,0.7,0.73,0.7,0.72,584000
2015-09-08,0.72,0.76,0.72,0.76,660000
2015-09-09,0.76,0.78,0.76,0.78,1473000
2015-09-10,0.77,0.77,0.74,0.74,296000
2015-09-11,0.75,0.76,0.74,0.75,1046000
2015-09-14,0.76,0.8,0.76,0.78,2132000
2015-09-15,0.78,0.79,0.75,0.75,632000
2015-09-16,0.76,0.78,0.75,0.77,726000
2015-09-17,0.78,0.78,0.76,0.77,610000
2015-09-18,0.78,0.79,0.77,0.79,1183800
2015-09-21,0.78,0.78,0.75,0.76,1546000
2015-09-22,0.77,0.8,0.76,0.79,1722000
2015-09-23,0.78,0.78,0.75,0.76,764000
2015-09-24,0.77,0.77,0.75,0.75,265000
2015-09-25,0.75,0.76,0.74,0.75,508000
2015-09-29,0.73,0.74,0.72,0.73,486000
2015-09-30,0.73,0.75,0.73,0.75,542000
2015-10-02,0.75,0.79,0.75,0.78,1884000
2015-10-05,0.79,0.79,0.78,0.78,632000
2015-10-06,0.79,0.79,0.75,0.77,1080000
2015-10-07,0.77,0.8,0.75,0.79,1436000
2015-10-08,0.8,0.8,0.76,0.78,950000
2015-10-09,0.79,0.8,0.78,0.79,1152000
2015-10-12,0.81,0.82,0.79,0.82,2094000
2015-10-13,0.83,0.83,0.79,0.79,484000
2015-10-14,0.79,0.8,0.78,0.79,568000
2015-10-15,0.81,0.81,0.78,0.81,856000
2015-10-16,0.81,0.82,0.79,0.8,1046000
2015-10-19,0.79,0.81,0.79,0.8,648000
2015-10-20,0.81,0.82,0.79,0.79,3290000
2015-10-22,0.79,0.8,0.78,0.79,426000
2015-10-23,0.79,0.83,0.79,0.82,1594000
2015-10-26,0.84,0.85,0.82,0.83,2524000
2015-10-27,0.84,0.84,0.8,0.81,1154000
2015-10-28,0.81,0.82,0.79,0.79,668000
2015-10-29,0.8,0.81,0.79,0.8,404000
2015-10-30,0.81,0.81,0.79,0.8,210000
2015-11-02,0.8,0.81,0.79,0.81,1232000
2015-11-03,0.81,0.82,0.8,0.8,426000
2015-11-04,0.81,0.83,0.8,0.81,1250000
2015-11-05,0.81,0.82,0.81,0.81,272000
2015-11-06,0.81,0.82,0.81,0.81,794000
2015-11-09,0.81,0.82,0.79,0.79,934000
2015-11-10,0.78,0.81,0.78,0.79,1002000
2015-11-11,0.79,0.8,0.79,0.79,94500
2015-11-12,0.79,0.8,0.78,0.8,1266000
2015-11-13,0.79,0.79,0.78,0.78,572000
2015-11-16,0.77,0.78,0.76,0.76,594000
2015-11-17,0.76,0.78,0.76,0.77,390000
2015-11-18,0.77,0.79,0.76,0.78,2456000
2015-11-19,0.79,0.8,0.77,0.79,1184877
2015-11-20,0.79,0.8,0.79,0.79,596000
2015-11-23,0.79,0.79,0.78,0.79,692000
2015-11-24,0.79,0.79,0.78,0.79,112690
2015-11-25,0.78,0.79,0.77,0.77,574000
2015-11-26,0.78,0.79,0.77,0.78,408000
2015-11-27,0.78,0.78,0.76,0.77,618000
2015-11-30,0.77,0.8,0.76,0.79,680000
2015-12-01,0.79,0.8,0.78,0.79,860000
2015-12-02,0.79,0.83,0.79,0.83,3352000
2015-12-03,0.82,0.82,0.81,0.81,764000
2015-12-04,0.79,0.82,0.79,0.81,1938000
2015-12-07,0.81,0.82,0.8,0.82,596000
2015-12-08,0.81,0.82,0.79,0.8,1798000
2015-12-09,0.8,0.93,0.8,0.87,15546193
2015-12-10,0.87,0.9,0.85,0.86,4369250
2015-12-11,0.86,0.89,0.86,0.87,3885250
2015-12-14,0.86,0.88,0.84,0.88,3296000
2015-12-15,0.88,0.9,0.86,0.87,542000
2015-12-16,0.87,0.9,0.87,0.88,1950000
2015-12-17,0.88,0.89,0.86,0.87,928000
2015-12-18,0.86,0.87,0.86,0.87,866000
2015-12-21,0.86,0.88,0.86,0.88,676000
2015-12-22,0.88,0.91,0.87,0.9,1350000
2015-12-23,0.91,0.92,0.89,0.9,1996000
2015-12-24,0.91,0.91,0.9,0.91,748000
2015-12-28,0.9,0.91,0.89,0.91,1288000
2015-12-29,0.91,0.91,0.89,0.91,842000
2015-12-30,0.91,0.91,0.89,0.9,986000
2015-12-31,0.9,0.9,0.89,0.9,226000
2016-01-04,0.89,0.89,0.85,0.87,708000
2016-01-05,0.86,0.87,0.85,0.87,720000
2016-01-06,0.87,0.87,0.85,0.87,1340000
2016-01-07,0.86,0.86,0.8,0.83,6031000
2016-01-08,0.84,0.85,0.83,0.84,604000
2016-01-11,0.81,0.83,0.8,0.81,956000
2016-01-12,0.82,0.82,0.79,0.8,236000
2016-01-13,0.81,0.83,0.81,0.81,396000
2016-01-14,0.8,0.82,0.76,0.82,408000
2016-01-15,0.78,0.82,0.77,0.8,42000
2016-01-18,0.78,0.79,0.76,0.77,590000
2016-01-19,0.77,0.79,0.77,0.79,1422000
2016-01-20,0.78,0.78,0.74,0.76,1062000
2016-01-21,0.76,0.76,0.71,0.73,770000
2016-01-22,0.75,0.77,0.73,0.74,562000
2016-01-25,0.74,0.75,0.74,0.75,146000
2016-01-26,0.73,0.73,0.7,0.71,572000
2016-01-27,0.71,0.71,0.7,0.71,452000
2016-01-28,0.71,0.72,0.7,0.72,106000
2016-01-29,0.7,0.74,0.69,0.72,530000
2016-02-01,0.75,0.75,0.71,0.72,94000
2016-02-02,0.71,0.73,0.71,0.73,148000
2016-02-03,0.71,0.74,0.7,0.72,418000
2016-02-04,0.73,0.75,0.71,0.75,518000
2016-02-05,0.75,0.76,0.73,0.75,233490
2016-02-11,0.71,0.74,0.71,0.73,244000
2016-02-12,0.7,0.75,0.7,0.72,346000
2016-02-15,0.74,0.75,0.73,0.75,150000
2016-02-16,0.75,0.78,0.75,0.78,691000
2016-02-17,0.78,0.78,0.76,0.77,18000
2016-02-18,0.77,0.78,0.75,0.77,196000
2016-02-19,0.76,0.76,0.72,0.76,276000
2016-02-22,0.76,0.77,0.75,0.77,238000
2016-02-23,0.75,0.77,0.75,0.77,150000
2016-02-24,0.76,0.78,0.76,0.77,124000
2016-02-25,0.77,0.77,0.74,0.75,264000
2016-02-26,0.75,0.76,0.75,0.76,12000
2016-02-29,0.74,0.76,0.74,0.75,102000
2016-03-01,0.75,0.77,0.75,0.76,584000
2016-03-02,0.77,0.81,0.77,0.79,1794829
2016-03-03,0.79,0.8,0.77,0.78,936566
2016-03-04,0.8,0.81,0.79,0.8,686000
2016-03-07,0.81,0.82,0.8,0.8,904000
2016-03-08,0.8,0.83,0.79,0.83,2058000
2016-03-09,0.8,0.82,0.8,0.81,546000
2016-03-10,0.81,0.81,0.81,0.81,206000
2016-03-11,0.81,0.83,0.81,0.82,432000
2016-03-14,0.84,0.84,0.82,0.83,648000
2016-03-15,0.82,0.82,0.81,0.81,190000
2016-03-16,0.8,0.82,0.8,0.81,368000
2016-03-17,0.82,0.83,0.82,0.82,760000
2016-03-18,0.84,0.85,0.82,0.84,1248320
2016-03-21,0.83,0.83,0.8,0.82,1475000
2016-03-22,0.82,0.82,0.77,0.79,8636000
2016-03-23,0.8,0.8,0.77,0.78,822000
2016-03-24,0.77,0.78,0.77,0.78,437998
2016-03-29,0.78,0.78,0.76,0.77,240000
2016-03-30,0.77,0.79,0.77,0.78,786000
2016-03-31,0.79,0.79,0.77,0.78,584000
2016-04-01,0.78,0.79,0.77,0.78,150000
2016-04-05,0.78,0.8,0.78,0.79,4210000
2016-04-06,0.8,0.8,0.77,0.78,340000
2016-04-07,0.77,0.79,0.77,0.79,168000
2016-04-08,0.78,0.78,0.77,0.78,478000
2016-04-11,0.78,0.81,0.78,0.8,720000
2016-04-12,0.8,0.82,0.8,0.8,224000
2016-04-13,0.8,0.82,0.8,0.82,986000
2016-04-14,0.83,0.83,0.81,0.81,586000
2016-04-15,0.8,0.8,0.79,0.8,606000
2016-04-18,0.78,0.8,0.78,0.78,369000
2016-04-19,0.79,0.81,0.79,0.8,772000
2016-04-20,0.8,0.8,0.79,0.79,212000
2016-04-21,0.8,0.82,0.8,0.81,934000
2016-04-22,0.81,0.81,0.79,0.79,538500
2016-04-25,0.79,0.82,0.79,0.79,226000
2016-04-26,0.81,0.81,0.79,0.79,237000
2016-04-27,0.79,0.79,0.79,0.79,140000
2016-04-28,0.79,0.8,0.78,0.8,492000
2016-04-29,0.78,0.8,0.78,0.8,44000
2016-05-03,0.79,0.8,0.78,0.79,318000
2016-05-04,0.78,0.79,0.77,0.79,454000
2016-05-05,0.78,0.79,0.77,0.78,166000
2016-05-06,0.78,0.78,0.76,0.77,426000
2016-05-09,0.78,0.81,0.78,0.8,2288000
2016-05-10,0.8,0.8,0.78,0.79,1900000
2016-05-11,0.79,0.8,0.79,0.79,466000
2016-05-12,0.79,0.84,0.78,0.81,3424000
2016-05-13,0.83,0.85,0.81,0.83,2764000
2016-05-16,0.83,0.86,0.83,0.86,2132000
2016-05-17,0.86,0.86,0.84,0.84,606000
2016-05-18,0.82,0.84,0.81,0.82,236000
2016-05-19,0.83,0.84,0.82,0.82,440000
2016-05-20,0.82,0.85,0.82,0.83,704000
2016-05-23,0.83,0.83,0.81,0.82,682000
2016-05-24,0.81,0.84,0.81,0.82,2752000
2016-05-25,0.84,0.88,0.84,0.87,4086000
2016-05-26,0.87,0.89,0.85,0.85,1166000
2016-05-27,0.85,0.86,0.85,0.86,286000
2016-05-30,0.86,0.86,0.84,0.86,342000
2016-05-31,0.86,0.86,0.83,0.84,2686000
2016-06-01,0.84,0.87,0.84,0.86,296000
2016-06-02,0.84,0.86,0.84,0.86,1096000
2016-06-03,0.87,0.9,0.87,0.89,3882000
2016-06-06,0.88,0.89,0.87,0.89,843000
2016-06-07,0.89,0.9,0.88,0.88,438000
2016-06-08,0.89,0.9,0.87,0.88,1432000
2016-06-10,0.91,0.93,0.89,0.9,4406000
2016-06-13,0.88,0.9,0.88,0.89,1108000
2016-06-14,0.9,0.91,0.89,0.9,1140000
2016-06-15,0.9,0.9,0.89,0.9,1026000
2016-06-16,0.9,0.91,0.89,0.89,1168000
2016-06-17,0.9,0.91,0.87,0.89,3769000
2016-06-20,0.89,0.89,0.87,0.88,3888000
2016-06-21,0.88,0.9,0.88,0.89,812000
2016-06-22,0.88,0.9,0.88,0.9,828000
2016-06-23,0.9,0.91,0.89,0.91,488000
2016-06-24,0.9,0.9,0.84,0.86,2955460
2016-06-27,0.89,0.89,0.86,0.86,64000
2016-06-28,0.87,0.89,0.86,0.88,704000
2016-06-29,0.89,0.92,0.89,0.92,1672000
2016-06-30,0.93,0.93,0.9,0.91,2702000
2016-07-04,0.91,0.92,0.9,0.91,1542000
2016-07-05,0.91,0.91,0.9,0.91,880000
2016-07-06,0.91,0.92,0.9,0.92,1364000
2016-07-07,0.92,0.92,0.9,0.92,500000
2016-07-08,0.91,0.92,0.9,0.92,914000
2016-07-11,0.92,0.95,0.92,0.94,2522000
2016-07-12,0.93,0.94,0.92,0.92,686000
2016-07-13,0.93,0.93,0.92,0.93,368000
2016-07-14,0.93,0.95,0.93,0.94,512000
2016-07-15,0.95,0.96,0.93,0.94,3146750
2016-07-18,0.95,0.95,0.94,0.95,518000
2016-07-19,0.95,0.96,0.93,0.94,624000
2016-07-20,0.93,0.95,0.93,0.95,172000
2016-07-21,0.95,0.98,0.95,0.96,5372000
2016-07-22,0.96,0.97,0.94,0.95,790000
2016-07-25,0.94,0.94,0.93,0.94,664000
2016-07-26,0.93,0.96,0.93,0.95,1126000
2016-07-27,0.95,0.96,0.93,0.94,1582000
2016-07-28,0.94,0.95,0.93,0.95,1358000
2016-07-29,0.94,0.95,0.94,0.95,1875000
2016-08-01,0.95,0.95,0.93,0.93,136000
2016-08-03,0.93,0.94,0.92,0.93,1686000
2016-08-04,0.94,0.97,0.94,0.96,2624000
2016-08-05,0.96,0.97,0.95,0.96,1574000
2016-08-08,0.96,0.96,0.95,0.96,1692000
2016-08-09,0.96,0.98,0.96,0.97,3368000
2016-08-10,0.98,0.98,0.97,0.98,1430500
2016-08-11,0.98,0.98,0.96,0.98,1090000
2016-08-12,0.98,0.98,0.96,0.98,1160730
2016-08-15,0.98,0.99,0.96,0.98,1362000
2016-08-16,0.98,0.98,0.96,0.97,976000
2016-08-17,0.97,0.97,0.96,0.97,352000
2016-08-18,0.98,0.98,0.95,0.98,2170000
2016-08-19,0.98,0.98,0.95,0.97,1132000
2016-08-22,0.98,0.98,0.96,0.97,200000
2016-08-23,0.96,0.97,0.94,0.95,1198000
2016-08-24,0.96,0.97,0.94,0.96,946000
2016-08-25,0.97,0.97,0.96,0.97,352000
2016-08-26,0.97,0.97,0.95,0.97,298000
2016-08-29,0.97,0.97,0.95,0.97,264000
2016-08-30,0.97,0.98,0.96,0.98,1058000
2016-08-31,0.98,0.98,0.95,0.97,1828000
2016-09-01,0.97,0.97,0.96,0.97,968000
2016-09-02,0.97,0.98,0.96,0.96,670000
2016-09-05,0.97,0.98,0.96,0.98,2046000
2016-09-06,0.97,0.98,0.96,0.97,669000
2016-09-07,0.98,1.01,0.97,1.01,5200000
2016-09-08,1.01,1.01,1.0,1.0,1359000
2016-09-09,1.01,1.02,1.0,1.02,2158000
2016-09-12,1.01,1.01,0.97,0.98,1186000
2016-09-13,0.99,0.99,0.98,0.98,600000
2016-09-14,0.98,0.98,0.96,0.97,266000
2016-09-15,0.98,1.02,0.95,0.97,4124000
2016-09-19,0.96,0.99,0.94,0.98,2012000
2016-09-20,0.98,0.99,0.97,0.99,1160000
2016-09-21,0.98,0.99,0.98,0.99,2262000
2016-09-22,1.01,1.02,0.98,1.0,6355000
2016-09-23,0.99,1.01,0.99,1.01,1324000
2016-09-26,1.01,1.01,0.99,1.0,1106500
2016-09-27,1.0,1.02,0.99,1.0,3319000
2016-09-28,1.0,1.01,0.96,0.99,3151000
2016-09-29,0.99,0.99,0.98,0.99,116000
2016-09-30,0.98,1.0,0.97,0.99,1568000
2016-10-03,1.0,1.0,0.98,0.98,626000
2016-10-04,0.99,1.0,0.98,1.0,1436000
2016-10-05,1.0,1.0,0.98,0.99,1510000
2016-10-06,1.0,1.01,0.99,1.01,1974000
2016-10-07,0.99,1.01,0.98,1.0,2208000
2016-10-11,1.0,1.0,0.99,1.0,1290000
2016-10-12,0.98,1.0,0.98,1.0,640000
2016-10-13,1.01,1.01,0.98,0.99,450000
2016-10-14,0.99,1.0,0.98,1.0,128000
2016-10-17,0.99,0.99,0.98,0.98,182000
2016-10-18,0.98,1.0,0.98,1.0,1064000
2016-10-19,0.99,1.01,0.99,1.0,328000
2016-10-20,1.0,1.0,0.98,0.99,787000
2016-10-24,0.99,1.0,0.98,0.99,1030000
2016-10-25,1.0,1.0,0.99,1.0,188000
2016-10-26,1.0,1.0,0.99,1.0,988000
2016-10-27,1.0,1.0,0.98,0.99,1556000
2016-10-28,0.99,1.01,0.98,0.98,298000
2016-10-31,0.98,1.01,0.98,0.98,493316
2016-11-01,1.0,1.0,0.98,0.99,511000
2016-11-02,0.98,0.99,0.98,0.99,736000
2016-11-03,0.99,0.99,0.98,0.99,948000
2016-11-04,0.98,0.99,0.97,0.99,936000
2016-11-07,0.98,0.98,0.98,0.98,1008000
2016-11-08,0.98,0.98,0.98,0.98,1258000
2016-11-09,0.98,0.98,0.95,0.96,3330000
2016-11-10,0.98,0.99,0.97,0.99,1434000
2016-11-11,0.97,0.98,0.97,0.97,1187500
2016-11-14,0.97,0.99,0.97,0.97,1898000
2016-11-15,0.98,0.98,0.97,0.97,456000
2016-11-16,0.98,1.0,0.97,0.99,1284000
2016-11-17,0.99,0.99,0.97,0.98,364000
2016-11-18,0.97,0.99,0.97,0.98,2880000
2016-11-21,0.97,0.99,0.97,0.98,2048000
2016-11-22,0.98,0.98,0.96,0.98,3094000
2016-11-23,0.97,0.98,0.96,0.97,2292000
2016-11-24,0.97,0.97,0.96,0.96,1503500
2016-11-25,0.97,0.97,0.96,0.96,952000
2016-11-28,0.98,0.98,0.96,0.98,422000
2016-11-29,0.97,0.98,0.97,0.98,956000
2016-11-30,0.98,0.99,0.97,0.99,1800000
2016-12-01,1.0,1.03,0.99,0.99,4373000
2016-12-02,0.99,0.99,0.98,0.99,1086000
2016-12-05,0.99,0.99,0.97,0.99,2162000
2016-12-06,0.99,0.99,0.96,0.98,2290000
2016-12-07,0.98,0.99,0.97,0.99,971000
2016-12-08,0.99,1.02,0.98,0.99,712000
2016-12-09,1.01,1.01,0.98,1.0,507193
2016-12-12,1.0,1.0,0.97,0.98,1273000
2016-12-13,0.98,1.01,0.97,1.0,1370000
2016-12-14,1.0,1.0,0.97,0.98,356000
2016-12-15,0.97,1.0,0.97,0.98,602000
2016-12-16,0.98,0.99,0.97,0.97,552000
2016-12-19,0.97,0.98,0.96,0.96,1028000
2016-12-20,0.96,0.97,0.93,0.95,3752000
2016-12-21,0.95,0.96,0.93,0.94,1748000
2016-12-22,0.94,0.95,0.94,0.95,514000
2016-12-23,0.95,0.96,0.93,0.93,320000
2016-12-28,0.94,0.96,0.94,0.95,542000
2016-12-29,0.93,0.94,0.93,0.93,388000
2016-12-30,0.95,0.95,0.93,0.93,320000
2017-01-03,0.96,0.96,0.89,0.91,2186000
2017-01-04,0.91,0.93,0.91,0.91,804000
2017-01-05,0.92,0.94,0.92,0.94,520000
2017-01-06,0.93,0.95,0.93,0.94,1124353
2017-01-09,0.95,0.96,0.94,0.94,1566602
2017-01-10,0.94,0.95,0.92,0.93,2118000
2017-01-11,0.93,0.94,0.92,0.93,292000
2017-01-12,0.93,0.94,0.93,0.93,990000
2017-01-13,0.92,0.94,0.92,0.93,546000
2017-01-16,0.92,0.94,0.92,0.93,776000
2017-01-17,0.93,0.94,0.92,0.94,2238000
2017-01-18,0.94,0.95,0.93,0.95,442000
2017-01-19,0.93,0.95,0.93,0.93,137000
2017-01-20,0.92,0.93,0.91,0.92,678000
2017-01-23,0.92,0.93,0.91,0.92,1206000
2017-01-24,0.92,0.93,0.91,0.93,746000
2017-01-25,0.93,0.93,0.92,0.92,96000
2017-01-26,0.93,0.95,0.91,0.93,906500
2017-01-27,0.93,0.93,0.92,0.93,562877
2017-02-01,0.94,0.94,0.93,0.93,64000
2017-02-02,0.92,0.93,0.92,0.93,136000
2017-02-03,0.93,0.94,0.93,0.94,82000
2017-02-06,0.92,0.93,0.92,0.92,950000
2017-02-07,0.92,0.93,0.9,0.91,3018000
2017-02-08,0.92,0.95,0.91,0.94,15954000
2017-02-09,0.94,0.96,0.93,0.95,3146000
2017-02-10,0.95,0.95,0.93,0.94,2080000
2017-02-13,0.95,0.95,0.94,0.94,1022750
2017-02-14,0.94,0.97,0.94,0.96,3681000
2017-02-15,0.95,0.97,0.94,0.94,2271000
2017-02-16,0.95,0.96,0.95,0.95,1950000
2017-02-17,0.95,0.96,0.94,0.95,510000
2017-02-20,0.94,0.97,0.94,0.97,1451000
2017-02-21,0.97,0.98,0.96,0.96,1406000
2017-02-22,0.96,0.98,0.96,0.98,3961565
2017-02-23,0.98,0.98,0.95,0.96,1970000
2017-02-24,0.97,0.98,0.94,0.94,3696000
2017-02-27,0.94,0.95,0.93,0.94,716000
2017-02-28,0.95,0.96,0.95,0.96,1096000
2017-03-01,0.96,0.97,0.96,0.96,1146000
2017-03-02,0.97,0.97,0.95,0.95,704000
2017-03-03,0.95,0.95,0.94,0.95,494000
2017-03-06,0.96,0.96,0.94,0.96,1275800
2017-03-07,0.96,0.96,0.95,0.95,714000
2017-03-08,0.96,0.98,0.96,0.98,1697960
2017-03-09,0.98,0.98,0.95,0.95,1952000
2017-03-10,0.96,1.01,0.96,1.0,12822000
2017-03-13,1.0,1.04,1.0,1.03,7771625
2017-03-14,1.04,1.08,1.04,1.05,10546000
2017-03-15,1.05,1.07,1.05,1.06,5298000
2017-03-16,1.07,1.07,1.05,1.06,3718000
2017-03-17,1.06,1.07,1.04,1.05,4418000
2017-03-20,1.07,1.08,1.05,1.06,4562000
2017-03-21,1.06,1.07,1.02,1.03,4206000
2017-03-22,1.02,1.03,1.01,1.03,1410000
2017-03-23,1.03,1.04,1.02,1.03,2174000
2017-03-24,1.03,1.03,1.01,1.02,1530000
2017-03-27,1.01,1.02,1.0,1.01,1460000
2017-03-28,1.0,1.01,0.99,1.0,1262000
2017-03-29,1.0,1.01,0.99,0.99,1032500
2017-03-30,0.99,1.01,0.98,1.0,1180000
2017-03-31,1.0,1.0,0.99,1.0,896000
2017-04-03,1.02,1.03,1.0,1.0,1480000
2017-04-05,1.01,1.03,1.01,1.03,3046000
2017-04-06,1.03,1.03,1.0,1.01,5452000
2017-04-07,1.01,1.02,1.0,1.0,1579911
2017-04-10,1.0,1.01,1.0,1.01,2148000
2017-04-11,1.0,1.01,0.98,0.99,3322000
2017-04-12,0.99,1.0,0.98,1.0,2084000
2017-04-13,0.99,1.05,0.99,1.03,6575000
2017-04-18,1.03,1.03,0.97,0.97,10250000
2017-04-19,0.98,0.99,0.97,0.98,1736000
2017-04-20,0.97,0.98,0.96,0.97,4420000
2017-04-21,0.96,0.98,0.96,0.98,4450000
2017-04-24,0.98,0.98,0.96,0.97,934000
2017-04-25,0.97,0.98,0.96,0.97,1520000
2017-04-26,0.97,0.98,0.96,0.98,931250
2017-04-27,0.97,0.97,0.96,0.97,530000
2017-04-28,0.96,0.97,0.95,0.95,732000
2017-05-02,0.95,0.96,0.94,0.95,1146000
2017-05-04,0.95,0.96,0.93,0.95,1224000
2017-05-05,0.94,0.94,0.92,0.92,2498000
2017-05-08,0.92,0.93,0.91,0.92,834000
2017-05-09,0.92,0.93,0.91,0.92,2204000
2017-05-10,0.92,0.93,0.91,0.91,1490000
2017-05-11,0.92,0.93,0.9,0.92,1992000
2017-05-12,0.9,0.93,0.9,0.92,1407000
2017-05-15,0.91,0.93,0.91,0.92,338000
2017-05-16,0.92,0.93,0.9,0.92,1736000
2017-05-17,0.92,0.92,0.91,0.91,1200000
2017-05-18,0.91,0.92,0.9,0.91,1214000
2017-05-19,0.91,0.94,0.91,0.93,2476500
2017-05-22,0.94,0.95,0.93,0.94,781000
2017-05-23,0.93,0.93,0.92,0.93,556000
2017-05-24,0.91,0.94,0.91,0.93,660000
2017-05-25,0.93,0.97,0.93,0.96,3180000
2017-05-26,0.97,0.97,0.95,0.96,792000
2017-05-29,0.96,0.99,0.96,0.98,3634000
2017-05-31,0.98,0.98,0.96,0.97,1391000
2017-06-01,0.97,0.97,0.95,0.96,1046000
2017-06-02,0.97,0.97,0.95,0.97,1172000
2017-06-05,0.97,0.98,0.96,0.96,2452000
2017-06-06,0.94,0.94,0.91,0.92,2820000
2017-06-07,0.93,0.93,0.92,0.93,716000
2017-06-08,0.92,0.93,0.92,0.93,1152000
2017-06-09,0.93,0.93,0.9,0.92,1925000
2017-06-12,0.93,0.93,0.9,0.9,5652000
2017-06-13,0.9,0.93,0.9,0.91,2904438
2017-06-14,0.91,0.92,0.9,0.9,2180000
2017-06-15,0.9,0.9,0.88,0.88,2126000
2017-06-16,0.89,0.9,0.88,0.89,495500
2017-06-19,0.89,0.9,0.88,0.89,1973000
2017-06-20,0.89,0.9,0.88,0.88,5246000
2017-06-21,0.88,0.89,0.88,0.89,4128000
2017-06-22,0.89,0.91,0.89,0.91,1352000
2017-06-23,0.91,0.91,0.89,0.9,876000
2017-06-26,0.9,0.92,0.89,0.92,4054000
2017-06-27,0.92,0.98,0.91,0.92,4152000
2017-06-28,0.93,0.93,0.9,0.91,1149000
2017-06-29,0.91,0.91,0.9,0.91,1416000
2017-06-30,0.9,0.91,0.9,0.91,944000
2017-07-03,0.9,0.93,0.9,0.93,3168000
2017-07-04,0.93,0.94,0.91,0.92,2270000
2017-07-05,0.91,0.92,0.91,0.92,414000
2017-07-06,0.92,0.94,0.92,0.93,1305000
2017-07-07,0.91,0.93,0.91,0.92,2067000
2017-07-10,0.93,0.93,0.92,0.92,1780000
2017-07-11,0.92,0.93,0.91,0.92,1758088
2017-07-12,0.92,0.92,0.91,0.92,1610000
2017-07-13,0.92,0.92,0.91,0.92,1919000
2017-07-14,0.92,0.96,0.92,0.95,5248000
2017-07-17,0.96,0.98,0.95,0.97,12424000
2017-07-18,0.96,0.98,0.95,0.97,2418000
2017-07-19,0.97,1.01,0.97,1.01,7441000
2017-07-20,1.01,1.03,0.99,1.01,7452000
2017-07-21,1.02,1.02,0.99,1.01,2158354
2017-07-24,1.01,1.01,0.98,0.99,2405000
2017-07-25,0.99,1.0,0.98,0.99,2148000
2017-07-26,1.01,1.01,0.99,1.0,6571500
2017-07-27,1.01,1.04,1.0,1.04,12786000
2017-07-28,1.03,1.04,1.01,1.02,2758000
2017-07-31,1.02,1.02,1.01,1.01,2165375
2017-08-01,1.06,1.11,1.05,1.07,16871310
2017-08-02,1.07,1.08,1.03,1.05,4000000
2017-08-03,1.06,1.06,1.03,1.04,1572000
2017-08-04,1.04,1.05,1.03,1.04,2220000
2017-08-07,1.05,1.05,1.0,1.02,4826000
2017-08-08,1.02,1.02,1.0,1.01,1882000
2017-08-09,1.01,1.02,1.0,1.01,1304000
2017-08-10,1.01,1.01,0.98,1.01,3996000
2017-08-11,0.98,1.01,0.98,1.01,7466000
2017-08-14,1.0,1.03,1.0,1.02,3677230
2017-08-15,1.02,1.06,1.01,1.04,6154000
2017-08-16,1.04,1.08,1.03,1.07,4190000
2017-08-17,1.08,1.08,1.05,1.05,1526000
2017-08-18,1.04,1.05,1.04,1.05,2230000
2017-08-21,1.05,1.11,1.05,1.11,8716000
2017-08-22,1.1,1.16,1.1,1.13,18420000
2017-08-24,1.13,1.14,1.1,1.12,4035000
2017-08-25,1.13,1.13,1.09,1.11,5230000
2017-08-28,1.1,1.13,1.1,1.12,3594887
2017-08-29,1.11,1.11,1.09,1.1,2594000
2017-08-30,1.11,1.15,1.1,1.15,2926000
2017-08-31,1.13,1.13,1.07,1.12,5894000
2017-09-01,1.11,1.12,1.08,1.11,4242000
2017-09-04,1.09,1.11,1.09,1.11,3318000
2017-09-05,1.1,1.12,1.1,1.11,2870000
2017-09-06,1.11,1.18,1.1,1.15,5841000
2017-09-07,1.16,1.3,1.16,1.29,45665000
2017-09-08,1.3,1.31,1.24,1.25,11765333
2017-09-11,1.25,1.3,1.23,1.28,6758000
2017-09-12,1.3,1.43,1.28,1.41,69887000
2017-09-13,1.42,1.43,1.37,1.4,13894000
2017-09-14,1.4,1.46,1.37,1.44,15166000
2017-09-15,1.42,1.44,1.39,1.43,10998000
2017-09-18,1.43,1.48,1.4,1.4,20174000
2017-09-19,1.4,1.41,1.35,1.36,12378000
2017-09-20,1.36,1.39,1.35,1.37,5515000
2017-09-21,1.37,1.41,1.36,1.38,10766000
2017-09-22,1.37,1.37,1.29,1.32,10762000
2017-09-25,1.31,1.31,1.17,1.18,16332000
2017-09-26,1.15,1.19,1.15,1.17,8764000
2017-09-27,1.17,1.24,1.17,1.23,8939000
2017-09-28,1.23,1.23,1.19,1.21,3882000
2017-09-29,1.19,1.22,1.19,1.21,2510000
2017-10-03,1.21,1.22,1.2,1.22,1858000
2017-10-04,1.22,1.27,1.2,1.27,7211000
2017-10-06,1.27,1.31,1.25,1.29,8917000
2017-10-09,1.28,1.29,1.25,1.25,5056000
2017-10-10,1.24,1.25,1.23,1.24,1264000
2017-10-11,1.23,1.25,1.2,1.21,3708000
2017-10-12,1.2,1.22,1.18,1.22,2342000
2017-10-13,1.21,1.21,1.18,1.19,2722000
2017-10-16,1.2,1.2,1.17,1.19,3090000
2017-10-17,1.18,1.18,1.14,1.15,5872000
2017-10-18,1.15,1.18,1.14,1.18,2622097
2017-10-19,1.18,1.18,1.14,1.14,3060000
2017-10-20,1.15,1.17,1.14,1.17,1552000
2017-10-23,1.15,1.15,1.13,1.15,2386000
2017-10-24,1.16,1.22,1.16,1.2,7752000
2017-10-25,1.2,1.21,1.18,1.18,1573000
2017-10-26,1.18,1.2,1.17,1.19,2756000
2017-10-27,1.18,1.19,1.15,1.17,3606000
2017-10-30,1.16,1.17,1.14,1.16,2998000
2017-10-31,1.15,1.16,1.14,1.16,2616000
2017-11-01,1.17,1.17,1.15,1.16,1376000
2017-11-02,1.14,1.16,1.14,1.16,2791000
2017-11-03,1.15,1.16,1.14,1.15,4798000
2017-11-06,1.15,1.16,1.13,1.16,1756000
2017-11-07,1.16,1.16,1.15,1.16,1129500
2017-11-08,1.15,1.16,1.14,1.15,5252000
2017-11-09,1.16,1.17,1.14,1.17,5739000
2017-11-10,1.16,1.18,1.15,1.18,3694000
2017-11-13,1.16,1.18,1.16,1.17,2120000
2017-11-14,1.17,1.21,1.16,1.21,4006000
2017-11-15,1.19,1.2,1.18,1.19,2732000
2017-11-16,1.19,1.21,1.19,1.19,1959000
2017-11-17,1.21,1.23,1.2,1.22,3760000
2017-11-20,1.21,1.22,1.19,1.21,3870000
2017-11-21,1.2,1.21,1.19,1.21,3426000
2017-11-22,1.19,1.21,1.19,1.2,2873400
2017-11-23,1.2,1.21,1.19,1.2,3522000
2017-11-24,1.2,1.21,1.2,1.21,1843000
2017-11-27,1.2,1.22,1.19,1.2,2662000
2017-11-28,1.2,1.22,1.19,1.22,2439000
2017-11-29,1.22,1.24,1.21,1.24,852000
2017-11-30,1.22,1.23,1.21,1.22,1434000
2017-12-01,1.21,1.23,1.21,1.21,556000
2017-12-04,1.21,1.23,1.21,1.22,766000
2017-12-05,1.23,1.26,1.22,1.26,3486000
2017-12-06,1.27,1.27,1.17,1.22,5317000
2017-12-07,1.23,1.23,1.18,1.2,2533500
2017-12-08,1.2,1.24,1.19,1.24,2754000
2017-12-11,1.24,1.27,1.23,1.27,2855438
2017-12-12,1.25,1.28,1.25,1.26,2310000
2017-12-13,1.27,1.28,1.25,1.27,788000
2017-12-14,1.25,1.27,1.25,1.27,998000
2017-12-15,1.25,1.28,1.25,1.27,3408000
2017-12-18,1.26,1.29,1.26,1.27,1074386
2017-12-19,1.26,1.27,1.25,1.27,2124000
2017-12-20,1.24,1.28,1.24,1.27,1222000
2017-12-21,1.26,1.28,1.26,1.27,1342000
2017-12-22,1.26,1.28,1.26,1.28,845000
2017-12-27,1.26,1.29,1.26,1.27,1552000
2017-12-28,1.29,1.35,1.27,1.34,6403658
2017-12-29,1.33,1.35,1.3,1.31,1771076
2018-01-02,1.32,1.38,1.31,1.36,6304400
2018-01-03,1.36,1.41,1.36,1.39,6936000
2018-01-04,1.39,1.39,1.36,1.36,2038000
2018-01-05,1.37,1.38,1.34,1.37,3434000
2018-01-08,1.38,1.39,1.36,1.36,1722000
2018-01-09,1.35,1.36,1.31,1.33,4466000
2018-01-10,1.33,1.37,1.33,1.36,2812000
2018-01-11,1.37,1.37,1.35,1.36,4177000
2018-01-12,1.37,1.38,1.36,1.36,1626000
2018-01-15,1.36,1.37,1.35,1.37,2861000
2018-01-16,1.36,1.38,1.36,1.37,2328000
2018-01-17,1.36,1.37,1.35,1.36,4610000
2018-01-18,1.38,1.4,1.36,1.39,6238000
2018-01-19,1.39,1.41,1.38,1.4,7501076
2018-01-22,1.4,1.41,1.39,1.4,5823000
2018-01-23,1.4,1.43,1.39,1.41,12169000
2018-01-24,1.41,1.41,1.39,1.39,6034000
2018-01-25,1.4,1.43,1.39,1.42,8058000
2018-01-26,1.41,1.46,1.4,1.45,20979750
2018-01-29,1.45,1.47,1.43,1.45,10526000
2018-01-30,1.45,1.46,1.44,1.46,11802000
2018-01-31,1.45,1.45,1.42,1.45,6950000
2018-02-01,1.45,1.47,1.44,1.45,2524692
2018-02-02,1.44,1.45,1.44,1.44,3320000
2018-02-05,1.39,1.45,1.38,1.45,10084000
2018-02-06,1.38,1.4,1.31,1.33,12254000
2018-02-07,1.35,1.38,1.3,1.34,4666000
2018-02-08,1.33,1.35,1.32,1.33,4080000
2018-02-09,1.28,1.3,1.24,1.3,14993000
2018-02-12,1.31,1.4,1.31,1.39,9246000
2018-02-13,1.4,1.43,1.4,1.41,1746400
2018-02-14,1.38,1.43,1.38,1.41,2360000
2018-02-15,1.43,1.44,1.41,1.43,2626000
2018-02-20,1.42,1.44,1.42,1.43,1998000
2018-02-21,1.44,1.46,1.43,1.44,3088000
2018-02-22,1.43,1.46,1.43,1.46,2526438
2018-02-23,1.46,1.47,1.45,1.45,16680500
2018-02-26,1.46,1.49,1.46,1.46,2562000
2018-02-27,1.48,1.48,1.44,1.45,2844000
2018-02-28,1.45,1.46,1.42,1.45,1989000
2018-03-01,1.45,1.47,1.45,1.45,878500
2018-03-02,1.44,1.46,1.42,1.46,1760000
2018-03-05,1.46,1.5,1.46,1.46,5808000
2018-03-06,1.46,1.48,1.45,1.46,2381000
2018-03-07,1.46,1.5,1.46,1.48,11462000
2018-03-08,1.47,1.48,1.45,1.45,4000000
2018-03-09,1.46,1.49,1.45,1.47,2712000
2018-03-12,1.46,1.47,1.43,1.46,2726000
2018-03-13,1.46,1.47,1.45,1.46,2786000
2018-03-14,1.45,1.47,1.44,1.47,4360000
2018-03-15,1.47,1.49,1.47,1.49,766000
2018-03-16,1.49,1.52,1.46,1.46,3902000
2018-03-19,1.46,1.47,1.45,1.46,1288439
2018-03-20,1.47,1.48,1.44,1.48,1336000
2018-03-21,1.46,1.48,1.45,1.45,1802000
2018-03-22,1.45,1.46,1.45,1.46,2530000
2018-03-23,1.44,1.45,1.39,1.45,5013000
2018-03-26,1.41,1.48,1.41,1.47,4712000
2018-03-27,1.46,1.49,1.46,1.47,5516000
2018-03-28,1.45,1.46,1.44,1.45,1052000
2018-03-29,1.44,1.47,1.44,1.45,2743000
2018-04-03,1.45,1.46,1.42,1.45,2936000
2018-04-04,1.44,1.46,1.44,1.45,1604000
2018-04-06,1.44,1.45,1.43,1.45,4138000
2018-04-09,1.43,1.46,1.43,1.45,550000
2018-04-10,1.45,1.46,1.45,1.45,1372000
2018-04-11,1.46,1.47,1.45,1.46,1931000
2018-04-12,1.45,1.46,1.45,1.46,874000
2018-04-13,1.45,1.48,1.45,1.46,2202000
2018-04-16,1.45,1.46,1.45,1.46,396000
2018-04-17,1.45,1.46,1.45,1.46,814000
2018-04-18,1.46,1.46,1.43,1.43,4970000
2018-04-19,1.45,1.46,1.45,1.46,2986000
2018-04-20,1.45,1.46,1.43,1.45,2512000
2018-04-23,1.45,1.46,1.45,1.46,658000
2018-04-24,1.45,1.46,1.39,1.45,1736000
2018-04-25,1.45,1.46,1.45,1.46,268000
2018-04-26,1.45,1.46,1.44,1.44,2608000
2018-04-27,1.45,1.46,1.44,1.45,1117875
2018-04-30,1.45,1.5,1.45,1.5,5682000
2018-05-02,1.5,1.51,1.49,1.5,3082000
2018-05-03,1.49,1.51,1.48,1.51,1178000
2018-05-04,1.51,1.51,1.49,1.5,2516005
2018-05-07,1.5,1.52,1.5,1.5,3058000
2018-05-08,1.51,1.52,1.49,1.5,2700000
2018-05-09,1.5,1.51,1.49,1.51,1076000
2018-05-10,1.49,1.52,1.49,1.5,2664000
2018-05-11,1.51,1.52,1.49,1.5,1320000
2018-05-14,1.49,1.5,1.49,1.5,1370000
2018-05-15,1.5,1.51,1.49,1.5,2122000
2018-05-16,1.5,1.51,1.49,1.51,2068219
2018-05-17,1.51,1.51,1.49,1.5,398000
2018-05-18,1.49,1.51,1.49,1.5,589750
2018-05-21,1.5,1.5,1.49,1.5,1276000
2018-05-23,1.49,1.5,1.49,1.5,5770000
2018-05-24,1.5,1.5,1.49,1.5,1456000
2018-05-25,1.5,1.51,1.49,1.49,1086000
2018-05-28,1.5,1.52,1.49,1.51,3416000
2018-05-29,1.51,1.51,1.5,1.51,524000
2018-05-30,1.5,1.5,1.48,1.5,11328000
2018-05-31,1.5,1.5,1.46,1.5,11386000
2018-06-01,1.49,1.5,1.47,1.5,2654000
2018-06-04,1.5,1.5,1.49,1.5,2119000
2018-06-05,1.51,1.54,1.49,1.53,2771000
2018-06-06,1.47,1.5,1.47,1.5,1856050
2018-06-07,1.52,1.52,1.49,1.5,834000
2018-06-08,1.5,1.5,1.49,1.5,368000
2018-06-11,1.5,1.5,1.49,1.5,374000
2018-06-12,1.49,1.5,1.49,1.5,1098000
2018-06-13,1.5,1.5,1.49,1.5,2108000
2018-06-14,1.49,1.5,1.43,1.5,3466006
2018-06-15,1.49,1.51,1.49,1.5,2348000
2018-06-19,1.49,1.5,1.45,1.47,4014000
2018-06-20,1.46,1.46,1.43,1.43,236000
2018-06-21,1.42,1.48,1.38,1.41,1920000
2018-06-22,1.37,1.42,1.36,1.4,2262000
2018-06-25,1.38,1.42,1.37,1.38,3194076
2018-06-26,1.36,1.36,1.28,1.36,4798000
2018-06-27,1.38,1.38,1.27,1.32,2264000
2018-06-28,1.29,1.33,1.24,1.33,3298000
2018-06-29,1.31,1.42,1.3,1.4,3351000
2018-07-03,1.31,1.34,1.27,1.31,2332000
2018-07-04,1.32,1.34,1.27,1.27,1218000
2018-07-05,1.28,1.31,1.27,1.28,2000000
2018-07-06,1.27,1.28,1.25,1.27,358000
2018-07-09,1.28,1.31,1.27,1.29,1848000
2018-07-10,1.28,1.31,1.28,1.3,2182000
2018-07-11,1.27,1.29,1.21,1.25,2342000
2018-07-12,1.24,1.29,1.24,1.27,350000
2018-07-13,1.26,1.28,1.24,1.26,548000
2018-07-16,1.24,1.26,1.24,1.24,188000
2018-07-17,1.24,1.27,1.23,1.25,198000
2018-07-18,1.25,1.26,1.24,1.24,298000
2018-07-19,1.25,1.25,1.25,1.25,0
2018-07-20,1.23,1.26,1.19,1.24,6474000
2018-07-23,1.26,1.31,1.26,1.31,1040000
2018-07-24,1.25,1.41,1.25,1.37,3546000
2018-07-25,1.39,1.41,1.38,1.4,1131000
2018-07-26,1.4,1.41,1.38,1.38,608000
2018-07-27,1.37,1.41,1.37,1.38,2456000
2018-07-30,1.38,1.38,1.34,1.34,206000
2018-07-31,1.36,1.37,1.31,1.33,834000
2018-08-01,1.33,1.33,1.31,1.32,224000
2018-08-02,1.28,1.3,1.27,1.28,228000
2018-08-03,1.29,1.3,1.27,1.27,324000
2018-08-06,1.3,1.37,1.27,1.27,1954000
2018-08-07,1.27,1.33,1.25,1.29,804000
2018-08-08,1.3,1.32,1.29,1.3,240000
2018-08-09,1.3,1.33,1.29,1.29,162000
2018-08-10,1.29,1.31,1.28,1.28,382000
2018-08-13,1.28,1.28,1.26,1.28,210000
2018-08-14,1.25,1.3,1.2,1.24,1113846
2018-08-15,1.23,1.26,1.2,1.22,490000
2018-08-16,1.19,1.26,1.18,1.24,380000
2018-08-17,1.21,1.25,1.2,1.2,530000
2018-08-20,1.19,1.25,1.19,1.25,434000
2018-08-21,1.26,1.38,1.24,1.35,2305333
2018-08-22,1.4,1.4,1.33,1.36,1758000
2018-08-23,1.31,1.4,1.31,1.38,1604000
2018-08-24,1.35,1.4,1.35,1.38,1374000
2018-08-27,1.33,1.38,1.28,1.35,1107000
2018-08-28,1.36,1.37,1.33,1.35,366000
2018-08-29,1.4,1.4,1.37,1.4,848000
2018-08-30,1.41,1.41,1.34,1.37,286000
2018-08-31,1.4,1.41,1.32,1.35,1467000
2018-09-03,1.38,1.38,1.34,1.38,204000
2018-09-04,1.37,1.41,1.36,1.39,438000
2018-09-05,1.4,1.41,1.36,1.37,754000
2018-09-06,1.39,1.4,1.32,1.35,1178000
2018-09-07,1.35,1.35,1.32,1.35,120000
2018-09-10,1.34,1.34,1.28,1.33,863800
2018-09-11,1.33,1.36,1.27,1.32,959750
2018-09-12,1.34,1.34,1.28,1.32,540000
2018-09-13,1.35,1.4,1.33,1.37,3474000
2018-09-14,1.4,1.4,1.36,1.39,864000
2018-09-17,1.38,1.39,1.33,1.37,1984000
2018-09-18,1.34,1.39,1.34,1.38,884000
2018-09-19,1.36,1.41,1.36,1.38,4560006
2018-09-20,1.4,1.4,1.35,1.39,838000
2018-09-21,1.4,1.45,1.36,1.41,7988000
2018-09-24,1.41,1.41,1.37,1.38,282000
2018-09-26,1.41,1.41,1.37,1.37,968000
2018-09-27,1.36,1.38,1.34,1.34,394000
2018-09-28,1.39,1.39,1.33,1.34,417000
2018-10-02,1.31,1.35,1.31,1.31,338000
2018-10-03,1.3,1.33,1.29,1.32,396000
2018-10-04,1.31,1.35,1.3,1.31,140000
2018-10-05,1.3,1.31,1.28,1.3,1026000
2018-10-09,1.23,1.32,1.23,1.27,948000
2018-10-10,1.32,1.34,1.29,1.33,919000
2018-10-11,1.28,1.28,1.23,1.25,298000
2018-10-12,1.25,1.32,1.21,1.3,1232000
2018-10-15,1.25,1.3,1.25,1.28,1428000
2018-10-16,1.28,1.28,1.21,1.23,610238
2018-10-18,1.19,1.2,1.17,1.19,684000
2018-10-19,1.19,1.19,1.16,1.19,220000
2018-10-22,1.2,1.23,1.2,1.21,394000
2018-10-23,1.22,1.22,1.16,1.18,296000
2018-10-24,1.18,1.2,1.13,1.18,208096
2018-10-25,1.12,1.2,1.11,1.2,596000
2018-10-26,1.21,1.21,1.2,1.2,10000
2018-10-29,1.18,1.21,1.16,1.19,182000
2018-10-30,1.2,1.2,1.16,1.16,22000
2018-10-31,1.2,1.21,1.17,1.2,644000
2018-11-01,1.21,1.29,1.21,1.25,1582000
2018-11-02,1.25,1.31,1.25,1.31,1350000
2018-11-05,1.26,1.28,1.26,1.28,64250
2018-11-06,1.26,1.28,1.26,1.28,74000
2018-11-07,1.3,1.3,1.26,1.26,84000
2018-11-08,1.31,1.31,1.26,1.26,14000
2018-11-09,1.25,1.25,1.25,1.26,4000
2018-11-12,1.26,1.3,1.26,1.29,108000
2018-11-13,1.3,1.32,1.27,1.31,525219
2018-11-14,1.27,1.32,1.27,1.3,176000
2018-11-15,1.3,1.33,1.3,1.33,518000
2018-11-16,1.32,1.33,1.3,1.3,110000
2018-11-19,1.3,1.33,1.3,1.33,402000
2018-11-20,1.28,1.3,1.28,1.3,190000
2018-11-21,1.29,1.34,1.28,1.3,772000
2018-11-22,1.31,1.32,1.28,1.31,256000
2018-11-23,1.3,1.32,1.3,1.32,82000
2018-11-26,1.32,1.34,1.31,1.34,1065600
2018-11-27,1.34,1.35,1.32,1.35,350000
2018-11-28,1.33,1.35,1.33,1.35,80000
2018-11-29,1.31,1.33,1.31,1.33,122000
2018-11-30,1.32,1.36,1.31,1.35,1576000
2018-12-03,1.35,1.36,1.32,1.34,458000
2018-12-04,1.34,1.35,1.32,1.32,74000
2018-12-05,1.34,1.35,1.32,1.33,192000
2018-12-06,1.32,1.36,1.31,1.34,1635000
2018-12-07,1.35,1.35,1.31,1.35,136000
2018-12-10,1.35,1.35,1.29,1.34,70000
2018-12-12,1.33,1.34,1.3,1.34,18000
2018-12-13,1.3,1.36,1.3,1.36,1302000
2018-12-14,1.33,1.36,1.33,1.36,1108000
2018-12-17,1.35,1.36,1.35,1.36,6000
2018-12-18,1.32,1.34,1.28,1.33,272000
2018-12-19,1.33,1.36,1.3,1.32,1072000
2018-12-20,1.3,1.33,1.22,1.33,206000
2018-12-21,1.28,1.33,1.25,1.31,648000
2018-12-24,1.25,1.35,1.25,1.34,908000
2018-12-27,1.34,1.34,1.28,1.3,346000
2018-12-28,1.28,1.34,1.28,1.31,156000
2018-12-31,1.28,1.31,1.28,1.31,22000
2019-01-02,1.31,1.33,1.26,1.33,366000
2019-01-03,1.28,1.31,1.26,1.31,478000
2019-01-04,1.31,1.34,1.29,1.34,700000
2019-01-07,1.34,1.35,1.31,1.35,718000
2019-01-08,1.31,1.36,1.31,1.36,371000
2019-01-09,1.36,1.38,1.34,1.38,2274000
2019-01-10,1.38,1.38,1.35,1.37,760000
2019-01-11,1.34,1.37,1.34,1.37,46000
2019-01-14,1.34,1.37,1.33,1.34,98000
2019-01-15,1.34,1.37,1.34,1.37,122000
2019-01-16,1.34,1.4,1.34,1.39,358000
2019-01-17,1.36,1.39,1.36,1.38,450000
2019-01-18,1.37,1.39,1.37,1.39,1056000
2019-01-21,1.4,1.4,1.39,1.4,396000
2019-01-22,1.39,1.4,1.31,1.38,288000
2019-01-23,1.35,1.4,1.35,1.39,592420
2019-01-24,1.4,1.4,1.39,1.39,168000
2019-01-25,1.38,1.4,1.37,1.37,474000
2019-01-28,1.39,1.39,1.36,1.39,804000
2019-01-29,1.38,1.4,1.37,1.4,488000
2019-01-30,1.4,1.41,1.4,1.4,912200
2019-01-31,1.42,1.42,1.4,1.41,396000
2019-02-01,1.41,1.43,1.4,1.4,426000
2019-02-04,1.42,1.43,1.42,1.42,182000
2019-02-08,1.42,1.42,1.42,1.42,30000
2019-02-11,1.4,1.41,1.39,1.41,246000
2019-02-12,1.34,1.42,1.34,1.41,472000
2019-02-13,1.39,1.41,1.39,1.41,711600
2019-02-14,1.39,1.41,1.38,1.4,1780667
2019-02-15,1.38,1.4,1.38,1.4,26000
2019-02-18,1.4,1.41,1.36,1.41,2590000
2019-02-19,1.4,1.4,1.39,1.4,2018000
2019-02-20,1.38,1.41,1.36,1.41,2035000
2019-02-21,1.43,1.43,1.4,1.4,3247000
2019-02-22,1.41,1.41,1.37,1.41,2651000
2019-02-25,1.41,1.42,1.39,1.4,8060193
2019-02-26,1.41,1.42,1.36,1.38,2544000
2019-02-27,1.41,1.42,1.38,1.41,1153000
2019-02-28,1.39,1.54,1.39,1.53,3172002
2019-03-01,1.48,1.55,1.47,1.5,3052000
2019-03-04,1.5,1.51,1.47,1.5,126000
2019-03-05,1.4,1.5,1.4,1.5,386000
2019-03-06,1.5,1.5,1.42,1.44,369100
2019-03-07,1.5,1.5,1.44,1.48,288000
2019-03-08,1.45,1.45,1.41,1.44,230000
2019-03-11,1.45,1.46,1.42,1.45,88000
2019-03-12,1.46,1.46,1.41,1.45,146000
2019-03-13,1.46,1.47,1.44,1.47,138000
2019-03-14,1.47,1.47,1.41,1.45,66000
2019-03-15,1.46,1.5,1.41,1.48,2192439
2019-03-18,1.5,1.53,1.49,1.51,4488000
2019-03-19,1.53,1.53,1.46,1.5,814000
2019-03-20,1.5,1.5,1.41,1.5,366000
2019-03-21,1.5,1.5,1.46,1.49,298000
2019-03-22,1.52,1.53,1.46,1.51,1074000
2019-03-25,1.48,1.5,1.45,1.47,730000
2019-03-26,1.49,1.5,1.47,1.5,416000
2019-03-27,1.5,1.53,1.49,1.5,1204000
2019-03-28,1.52,1.52,1.49,1.51,360000
2019-03-29,1.49,1.52,1.44,1.51,686000
2019-04-01,1.55,1.55,1.47,1.5,716000
2019-04-02,1.53,1.53,1.5,1.52,712000
2019-04-03,1.53,1.53,1.49,1.5,1608000
2019-04-04,1.54,1.54,1.49,1.51,973000
2019-04-08,1.5,1.53,1.5,1.5,1404000
2019-04-09,1.51,1.52,1.49,1.52,818000
2019-04-10,1.5,1.53,1.5,1.52,510000
2019-04-11,1.51,1.53,1.5,1.51,1184000
2019-04-12,1.51,1.54,1.5,1.5,1314000
2019-04-15,1.52,1.55,1.5,1.51,1093750
2019-04-16,1.53,1.53,1.5,1.52,384000
2019-04-17,1.52,1.52,1.51,1.52,366500
2019-04-18,1.52,1.52,1.47,1.49,1472000
2019-04-23,1.49,1.52,1.49,1.5,756150
2019-04-24,1.51,1.53,1.47,1.51,928173
2019-04-25,1.52,1.52,1.49,1.52,110000
2019-04-26,1.49,1.52,1.49,1.51,396000
2019-04-29,1.51,1.52,1.49,1.51,810000
2019-04-30,1.51,1.52,1.49,1.51,484000
2019-05-02,1.52,1.52,1.46,1.46,1074000
2019-05-03,1.49,1.49,1.45,1.47,506000
2019-05-06,1.46,1.5,1.43,1.49,784000
2019-05-07,1.47,1.48,1.47,1.47,62000
2019-05-08,1.48,1.48,1.45,1.45,320782
2019-05-09,1.46,1.46,1.41,1.41,762000
2019-05-14,1.42,1.48,1.38,1.43,1142000
2019-05-15,1.46,1.46,1.43,1.45,164000
2019-05-16,1.45,1.48,1.41,1.42,256000
2019-05-17,1.48,1.48,1.36,1.38,720000
2019-05-20,1.38,1.4,1.33,1.38,974000
2019-05-21,1.38,1.45,1.37,1.38,764000
2019-05-22,1.36,1.41,1.36,1.38,416000
2019-05-23,1.25,1.28,1.24,1.26,778000
2019-05-24,1.27,1.28,1.22,1.23,654000
2019-05-27,1.29,1.29,1.23,1.27,290000
2019-05-28,1.25,1.26,1.23,1.24,356000
2019-05-29,1.22,1.24,1.19,1.23,724000
2019-05-30,1.23,1.24,1.21,1.22,234000
2019-05-31,1.25,1.25,1.21,1.24,94000
2019-06-03,1.24,1.27,1.23,1.25,250000
2019-06-04,1.27,1.27,1.23,1.25,152270
2019-06-05,1.23,1.25,1.23,1.24,74000
2019-06-06,1.25,1.25,1.22,1.24,222000
2019-06-10,1.32,1.32,1.23,1.27,270000
2019-06-11,1.27,1.29,1.27,1.29,268000
2019-06-12,1.27,1.27,1.2,1.2,974000
2019-06-13,1.24,1.28,1.24,1.27,354000
2019-06-14,1.27,1.27,1.25,1.26,30000
2019-06-17,1.22,1.25,1.21,1.23,396000
2019-06-18,1.26,1.26,1.22,1.23,274000
2019-06-19,1.28,1.28,1.23,1.23,168000
2019-06-20,1.23,1.27,1.23,1.25,314000
2019-06-21,1.25,1.25,1.23,1.24,530000
2019-06-24,1.28,1.29,1.24,1.28,286000
2019-06-25,1.28,1.29,1.24,1.29,38000
2019-06-26,1.26,1.27,1.26,1.27,98000
2019-06-27,1.27,1.29,1.27,1.29,304000
2019-06-28,1.25,1.28,1.25,1.28,39000
2019-07-02,1.26,1.29,1.23,1.24,378000
2019-07-03,1.24,1.28,1.24,1.27,3378000
2019-07-04,1.27,1.32,1.26,1.27,465500
2019-07-05,1.28,1.29,1.25,1.26,430000
2019-07-08,1.23,1.25,1.23,1.23,90000
2019-07-09,1.26,1.26,1.23,1.24,82000
2019-07-10,1.26,1.27,1.23,1.27,344000
2019-07-11,1.24,1.26,1.23,1.25,162000
2019-07-12,1.25,1.25,1.24,1.24,10000
2019-07-15,1.26,1.28,1.26,1.27,168000
2019-07-16,1.24,1.28,1.24,1.26,40001
2019-07-17,1.28,1.29,1.24,1.25,354500
2019-07-18,1.25,1.27,1.25,1.26,413250
2019-07-19,1.25,1.28,1.25,1.27,386000
2019-07-22,1.27,1.28,1.26,1.27,460000
2019-07-23,1.28,1.28,1.25,1.25,342000
2019-07-24,1.27,1.3,1.25,1.26,334000
2019-07-25,1.26,1.28,1.25,1.27,500000
2019-07-26,1.27,1.29,1.26,1.26,122439
2019-07-29,1.28,1.28,1.23,1.23,568000
2019-07-30,1.22,1.25,1.2,1.21,736000
2019-07-31,1.22,1.22,1.22,1.22,62000
2019-08-01,1.22,1.22,1.19,1.21,126000
2019-08-02,1.18,1.21,1.17,1.18,226000
2019-08-05,1.15,1.15,1.05,1.12,860000
2019-08-06,1.06,1.12,1.06,1.11,378000
2019-08-07,1.1,1.21,1.1,1.1,18000
2019-08-08,1.12,1.17,1.11,1.14,260000
2019-08-09,1.13,1.18,1.13,1.16,584000
2019-08-12,1.13,1.13,1.13,1.13,2000
2019-08-13,1.08,1.12,1.02,1.05,696892
2019-08-14,1.11,1.11,1.02,1.06,564000
2019-08-15,1.07,1.1,1.03,1.08,774000
2019-08-16,1.1,1.11,1.08,1.1,174000
2019-08-19,1.13,1.14,1.11,1.11,1000000
2019-08-20,1.13,1.14,1.1,1.12,24000
2019-08-21,1.08,1.1,1.0,1.06,912000
2019-08-22,1.08,1.08,1.07,1.08,306000
2019-08-23,1.07,1.09,1.06,1.06,216000
2019-08-26,1.04,1.06,1.04,1.05,260000
2019-08-27,1.06,1.07,1.05,1.05,3174120
2019-08-28,1.06,1.09,1.06,1.07,96000
2019-08-29,1.06,1.07,1.04,1.05,270000
2019-08-30,1.05,1.12,1.05,1.06,1156000
2019-09-02,1.11,1.11,1.06,1.06,76000
2019-09-03,1.07,1.07,1.06,1.06,196000
2019-09-04,1.07,1.08,1.07,1.08,476500
2019-09-05,1.1,1.1,1.07,1.08,306000
2019-09-06,1.08,1.1,1.05,1.06,2236000
2019-09-09,1.04,1.09,1.04,1.07,1722000
2019-09-10,1.07,1.09,1.07,1.08,60000
2019-09-11,1.09,1.12,1.07,1.11,2353353
2019-09-12,1.13,1.14,1.1,1.11,3738000
2019-09-13,1.11,1.15,1.11,1.13,642000
2019-09-16,1.13,1.14,1.12,1.13,202000
2019-09-17,1.12,1.12,1.11,1.11,22000
2019-09-18,1.1,1.13,1.1,1.12,710000
2019-09-19,1.09,1.12,1.08,1.1,94000
2019-09-20,1.1,1.15,1.09,1.1,25284000
2019-09-23,1.12,1.14,1.11,1.12,2496000
2019-09-24,1.12,1.12,1.08,1.09,432000
2019-09-25,1.11,1.11,1.08,1.1,58000
2019-09-26,1.08,1.1,1.08,1.09,44000
2019-09-27,1.06,1.1,1.06,1.08,428000
2019-09-30,1.06,1.09,1.06,1.08,148000
2019-10-02,1.1,1.1,1.06,1.08,182000
2019-10-03,1.07,1.08,1.05,1.06,386000
2019-10-04,1.09,1.09,1.05,1.07,275833
2019-10-08,1.05,1.07,1.05,1.07,294000
2019-10-09,1.05,1.07,1.05,1.07,160000
2019-10-10,1.05,1.08,1.05,1.07,244000
2019-10-11,1.06,1.11,1.06,1.08,573000
2019-10-14,1.09,1.11,1.08,1.11,214000
2019-10-15,1.08,1.11,1.08,1.11,86000
2019-10-16,1.12,1.19,1.12,1.17,1384000
2019-10-17,1.17,1.18,1.13,1.14,450000
2019-10-18,1.14,1.17,1.13,1.15,548000
2019-10-21,1.13,1.18,1.11,1.13,1548000
2019-10-22,1.17,1.17,1.13,1.13,40000
2019-10-23,1.13,1.14,1.11,1.13,168000
2019-10-24,1.15,1.17,1.13,1.17,298000
2019-10-25,1.14,1.14,1.13,1.14,236000
2019-10-28,1.14,1.15,1.12,1.15,990000
2019-10-29,1.15,1.15,1.13,1.13,258000
2019-10-30,1.13,1.14,1.11,1.11,446000
2019-10-31,1.14,1.14,1.11,1.11,188000
2019-11-01,1.11,1.13,1.1,1.12,662000
2019-11-04,1.14,1.17,1.13,1.15,788000
2019-11-05,1.15,1.18,1.13,1.17,590000
2019-11-06,1.17,1.24,1.15,1.24,508000
2019-11-07,1.25,1.25,1.19,1.23,494000
2019-11-08,1.2,1.21,1.19,1.2,202500
2019-11-11,1.2,1.2,1.19,1.2,444000
2019-11-12,1.2,1.21,1.19,1.2,48000
2019-11-13,1.2,1.22,1.19,1.2,246000
2019-11-14,1.18,1.21,1.17,1.2,328000
2019-11-15,1.2,1.2,1.17,1.17,116000
2019-11-18,1.21,1.22,1.2,1.21,378000
2019-11-19,1.21,1.23,1.21,1.23,162000
2019-11-21,1.2,1.23,1.2,1.22,78000
2019-11-22,1.22,1.25,1.2,1.21,144000
2019-11-25,1.24,1.27,1.22,1.26,702000
2019-11-26,1.26,1.3,1.23,1.26,824000
2019-11-27,1.32,1.32,1.25,1.29,162000
2019-11-28,1.26,1.26,1.25,1.25,39000
2019-11-29,1.25,1.26,1.23,1.25,142000
2019-12-02,1.24,1.27,1.23,1.27,304000
2019-12-03,1.26,1.28,1.25,1.26,498317
2019-12-04,1.26,1.27,1.25,1.26,300000
2019-12-05,1.27,1.29,1.25,1.27,172000
2019-12-06,1.27,1.29,1.26,1.29,332000
2019-12-09,1.32,1.32,1.25,1.29,194000
2019-12-10,1.29,1.32,1.28,1.31,1760000
2019-12-11,1.32,1.32,1.29,1.32,222000
2019-12-12,1.31,1.33,1.3,1.32,142000
2019-12-13,1.35,1.35,1.29,1.29,534000
2019-12-16,1.3,1.3,1.28,1.29,976000
2019-12-17,1.3,1.32,1.27,1.3,818038
2019-12-18,1.3,1.33,1.28,1.3,878000
2019-12-19,1.3,1.31,1.29,1.3,294000
2019-12-20,1.3,1.32,1.29,1.31,684000
2019-12-23,1.29,1.32,1.29,1.3,488000
2019-12-24,1.31,1.31,1.27,1.3,432000
2019-12-27,1.3,1.31,1.29,1.3,2528504
2019-12-30,1.34,1.34,1.28,1.32,812000
2019-12-31,1.31,1.31,1.3,1.31,108000
2020-01-02,1.33,1.33,1.31,1.33,290000
2020-01-03,1.33,1.33,1.3,1.31,318000
2020-01-06,1.3,1.32,1.3,1.31,1156000
2020-01-07,1.31,1.36,1.31,1.35,466000
2020-01-08,1.31,1.32,1.27,1.3,1108000
2020-01-09,1.3,1.32,1.29,1.32,440000
2020-01-10,1.3,1.32,1.28,1.32,1326000
2020-01-13,1.3,1.36,1.3,1.35,1614000
2020-01-14,1.35,1.38,1.34,1.36,666000
2020-01-15,1.36,1.38,1.34,1.38,1154000
2020-01-16,1.37,1.4,1.36,1.37,806000
2020-01-17,1.38,1.39,1.37,1.38,470000
2020-01-20,1.38,1.39,1.36,1.38,492000
2020-01-21,1.36,1.37,1.34,1.35,1026000
2020-01-22,1.35,1.39,1.34,1.36,700000
2020-01-23,1.34,1.35,1.3,1.32,618000
2020-01-24,1.3,1.31,1.3,1.31,30000
2020-01-29,1.29,1.29,1.19,1.19,902000
2020-01-30,1.21,1.21,1.15,1.18,1018000
2020-01-31,1.2,1.21,1.18,1.21,296000
2020-02-03,1.16,1.21,1.15,1.2,484000
2020-02-04,1.22,1.23,1.21,1.22,380000
2020-02-05,1.21,1.24,1.2,1.23,640000
2020-02-06,1.22,1.28,1.22,1.28,638000
2020-02-07,1.24,1.28,1.23,1.26,300940
2020-02-10,1.22,1.27,1.22,1.25,488000
2020-02-11,1.27,1.28,1.22,1.24,754000
2020-02-12,1.25,1.27,1.24,1.26,377000
2020-02-13,1.24,1.26,1.24,1.26,174000
2020-02-14,1.24,1.27,1.24,1.26,26000
2020-02-17,1.24,1.28,1.23,1.27,594152
2020-02-18,1.25,1.27,1.24,1.27,298000
2020-02-19,1.27,1.32,1.27,1.3,860000
2020-02-20,1.3,1.36,1.29,1.35,1357000
2020-02-21,1.36,1.36,1.32,1.36,814000
2020-02-24,1.35,1.36,1.33,1.35,1512000
2020-02-25,1.34,1.36,1.32,1.35,1283000
2020-02-26,1.33,1.36,1.32,1.36,4398000
2020-02-27,1.36,1.36,1.31,1.33,3372000
2020-02-28,1.31,1.32,1.26,1.26,1669000
2020-03-02,1.25,1.32,1.2,1.29,1206000
2020-03-03,1.31,1.32,1.28,1.3,3084000
2020-03-04,1.3,1.33,1.29,1.32,276000
2020-03-05,1.33,1.33,1.31,1.33,594000
2020-03-06,1.3,1.31,1.28,1.3,126000
2020-03-09,1.25,1.29,1.25,1.28,250000
2020-03-10,1.26,1.26,1.23,1.26,1272000
2020-03-11,1.27,1.29,1.26,1.28,274000
2020-03-12,1.26,1.26,1.22,1.25,380000
2020-03-13,1.05,1.23,1.05,1.22,2746000
2020-03-16,1.22,1.22,1.15,1.2,476000
2020-03-17,1.13,1.2,1.13,1.2,1632000
2020-03-18,1.2,1.2,1.13,1.13,1925000
2020-03-19,1.1,1.1,1.03,1.07,5805000
2020-03-20,1.1,1.1,1.05,1.08,674000
2020-03-23,1.03,1.05,1.0,1.0,498000
2020-03-24,1.04,1.04,0.97,0.99,2736000
2020-03-25,1.03,1.03,0.94,0.96,5128000
2020-03-26,0.96,0.97,0.93,0.96,3901167
2020-03-27,0.99,1.01,0.96,0.97,3158000
2020-03-30,0.95,0.97,0.95,0.96,720000
2020-03-31,0.97,1.01,0.97,1.0,1456000
2020-04-01,1.01,1.02,0.98,0.99,334000
2020-04-02,0.98,1.01,0.98,1.01,148000
2020-04-03,1.0,1.0,0.98,0.99,362000
2020-04-06,0.99,1.01,0.99,1.01,270000
2020-04-07,1.01,1.04,1.0,1.03,1190000
2020-04-08,1.03,1.06,1.02,1.03,722000
2020-04-09,1.04,1.06,1.04,1.06,208000
2020-04-14,1.05,1.08,1.05,1.07,864000
2020-04-15,1.08,1.08,1.03,1.04,518000
2020-04-16,1.03,1.05,1.02,1.03,354000
2020-04-17,1.05,1.07,1.04,1.06,524000
2020-04-20,1.04,1.04,1.03,1.04,266000
2020-04-21,1.02,1.02,1.0,1.02,854000
2020-04-22,1.0,1.02,0.99,1.02,746000
2020-04-23,1.03,1.03,1.0,1.02,110000
2020-04-24,1.01,1.01,1.0,1.0,56000
2020-04-27,1.02,1.03,1.01,1.02,304000
2020-04-28,1.03,1.04,1.0,1.01,844000
2020-04-29,1.03,1.03,1.01,1.01,1276000
2020-05-04,1.0,1.02,1.0,1.0,166000
2020-05-05,1.01,1.01,0.99,1.0,1040000
2020-05-06,0.99,1.02,0.99,1.01,60000
2020-05-07,1.01,1.02,1.0,1.0,171683
2020-05-08,1.02,1.02,1.0,1.01,140000
2020-05-11,1.02,1.04,1.02,1.02,362000
2020-05-12,1.02,1.02,1.01,1.01,82000
2020-05-13,1.02,1.02,1.02,1.02,200000
2020-05-14,1.02,1.03,1.0,1.01,222000
2020-05-15,1.0,1.01,0.99,1.0,192000
2020-05-18,0.99,1.03,0.99,1.03,380000
2020-05-19,1.03,1.04,1.0,1.0,1828000
2020-05-20,1.01,1.05,1.01,1.01,6560000
2020-05-21,1.03,1.03,1.0,1.01,252000
2020-05-22,1.0,1.01,0.98,1.01,1434000
2020-05-25,0.99,1.01,0.99,1.01,212056
2020-05-26,1.02,1.02,1.01,1.02,33000
2020-05-27,1.0,1.01,1.0,1.01,24000
2020-05-28,1.02,1.03,0.99,1.0,426000
2020-05-29,0.99,1.02,0.99,1.0,303000
2020-06-01,1.02,1.04,1.02,1.03,670000
2020-06-02,1.02,1.04,1.02,1.03,154000
2020-06-03,1.05,1.05,1.04,1.05,608000
2020-06-04,0.99,1.0,0.98,0.99,1024000
2020-06-05,1.03,1.04,1.0,1.02,650000
2020-06-08,1.02,1.16,1.02,1.12,3842000
2020-06-09,1.12,1.18,1.12,1.13,1400000
2020-06-10,1.14,1.14,1.08,1.09,881944
2020-06-11,1.09,1.1,1.04,1.07,976000
2020-06-12,1.02,1.06,1.02,1.06,308000
2020-06-15,1.05,1.05,1.01,1.02,328000
2020-06-16,1.04,1.06,1.01,1.04,1030000
2020-06-17,1.03,1.04,1.02,1.04,178000
2020-06-18,1.03,1.03,1.01,1.03,256000
2020-06-19,1.02,1.02,1.0,1.01,184000
2020-06-22,1.0,1.02,0.99,1.02,432000
2020-06-23,1.0,1.01,0.99,1.0,190000
2020-06-24,0.99,1.0,0.95,0.97,2086000
2020-06-26,0.96,0.97,0.95,0.97,918500
2020-06-29,0.95,0.96,0.94,0.95,554500
2020-06-30,0.95,0.95,0.95,0.95,72000
2020-07-02,0.96,0.99,0.96,0.99,912000
2020-07-03,1.0,1.0,0.96,0.98,1676000
2020-07-06,0.99,1.03,0.98,1.03,2440000
2020-07-07,1.04,1.04,1.0,1.01,535000
2020-07-08,1.02,1.02,0.99,1.01,414000
2020-07-09,1.03,1.03,1.0,1.02,224200
2020-07-10,1.01,1.06,0.99,1.05,2446000
2020-07-13,1.06,1.06,1.04,1.06,880000
2020-07-14,1.05,1.05,1.03,1.03,465000
2020-07-15,1.03,1.05,1.01,1.04,404000
2020-07-16,1.01,1.01,0.99,1.01,204000
2020-07-17,1.01,1.01,1.0,1.0,176000
2020-07-20,1.0,1.02,0.99,0.99,316000
2020-07-21,1.01,1.01,0.99,1.0,90000
2020-07-22,1.01,1.02,1.0,1.0,140000
2020-07-23,0.99,1.01,0.97,1.0,214000
2020-07-24,0.97,0.99,0.96,0.98,402000
2020-07-27,0.97,0.97,0.95,0.95,136000
2020-07-28,0.96,0.98,0.95,0.96,230498
2020-07-29,0.96,0.97,0.96,0.97,228000
2020-07-30,0.91,0.97,0.91,0.96,338000
2020-07-31,0.98,0.98,0.96,0.96,52000
2020-08-03,0.96,0.96,0.94,0.96,340000
2020-08-04,0.98,0.98,0.93,0.95,1221000
2020-08-05,0.96,0.96,0.95,0.96,156000
2020-08-06,0.95,0.95,0.94,0.94,138000
2020-08-07,0.93,0.95,0.93,0.94,330000
2020-08-10,0.93,0.95,0.93,0.94,550000
2020-08-11,0.96,0.96,0.94,0.95,248400
2020-08-12,0.94,0.95,0.93,0.95,150000
2020-08-13,0.95,0.97,0.95,0.97,276000
2020-08-14,0.96,0.96,0.95,0.96,178500
2020-08-17,0.95,0.97,0.95,0.96,110000
2020-08-18,0.97,0.97,0.94,0.96,483500
2020-08-19,0.93,0.97,0.93,0.97,322000
2020-08-20,0.97,0.97,0.95,0.96,618000
2020-08-21,0.97,0.97,0.96,0.97,565998
2020-08-24,0.97,0.97,0.95,0.96,142000
2020-08-25,0.97,0.97,0.95,0.96,258000
