Date,Open,High,Low,Close,Volume
2017-11-01,0.064,0.064,0.064,0.064,2440000
2017-11-02,0.064,0.066,0.064,0.064,2310000
2017-11-03,0.065,0.067,0.064,0.064,3920000
2017-11-06,0.064,0.065,0.064,0.064,2640000
2017-11-07,0.064,0.064,0.064,0.064,4350000
2017-11-08,0.064,0.064,0.064,0.064,2060000
2017-11-09,0.064,0.064,0.064,0.064,848000
2017-11-10,0.064,0.065,0.063,0.064,2570000
2017-11-13,0.063,0.064,0.059000000000000004,0.064,26381166
2017-11-14,0.064,0.065,0.063,0.065,5350000
2017-11-15,0.065,0.065,0.062,0.063,370000
2017-11-16,0.063,0.064,0.062,0.064,2095000
2017-11-17,0.062,0.063,0.062,0.062,10280000
2017-11-20,0.062,0.062,0.062,0.062,2730000
2017-11-21,0.062,0.062,0.062,0.062,1320000
2017-11-22,0.061,0.064,0.061,0.064,3581166
2017-11-23,0.064,0.064,0.061,0.063,2080000
2017-11-24,0.062,0.062,0.062,0.062,750000
2017-11-27,0.062,0.062,0.06,0.062,2450000
2017-11-28,0.06,0.061,0.06,0.061,2200000
2017-11-29,0.06,0.06,0.06,0.061,4610000
2017-11-30,0.06,0.061,0.059000000000000004,0.061,5490000
2017-12-01,0.061,0.061,0.06,0.06,2410000
2017-12-04,0.06,0.06,0.06,0.06,1398990
2017-12-05,0.06,0.06,0.06,0.06,1240000
2017-12-06,0.06,0.06,0.059000000000000004,0.06,5060000
2017-12-07,0.059000000000000004,0.06,0.059000000000000004,0.059000000000000004,1720000
2017-12-08,0.059000000000000004,0.059000000000000004,0.057999999999999996,0.057999999999999996,3780000
2017-12-11,0.057999999999999996,0.057999999999999996,0.053,0.053,34460000
2017-12-12,0.053,0.053,0.052000000000000005,0.053,7680000
2017-12-13,0.051,0.052000000000000005,0.051,0.052000000000000005,8280000
2017-12-14,0.052000000000000005,0.055,0.051,0.053,6330000
2017-12-15,0.052000000000000005,0.052000000000000005,0.051,0.051,4270000
2017-12-18,0.051,0.051,0.05,0.051,6130000
2017-12-19,0.051,0.054000000000000006,0.051,0.053,1150000
2017-12-20,0.054000000000000006,0.055999999999999994,0.054000000000000006,0.055999999999999994,3570000
2017-12-21,0.055999999999999994,0.055999999999999994,0.052000000000000005,0.055999999999999994,2239500
2017-12-22,0.057,0.059000000000000004,0.054000000000000006,0.057,2295000
2017-12-27,0.057,0.057,0.054000000000000006,0.055999999999999994,2212500
2017-12-29,0.057,0.057,0.055999999999999994,0.055999999999999994,830000
2018-01-02,0.053,0.054000000000000006,0.051,0.053,16550000
2018-01-03,0.053,0.053,0.052000000000000005,0.053,6510000
2018-01-04,0.055999999999999994,0.055999999999999994,0.052000000000000005,0.053,3136000
2018-01-05,0.051,0.055,0.051,0.054000000000000006,14430000
2018-01-08,0.054000000000000006,0.054000000000000006,0.052000000000000005,0.053,2240000
2018-01-09,0.052000000000000005,0.055,0.052000000000000005,0.054000000000000006,4160000
2018-01-10,0.054000000000000006,0.055,0.054000000000000006,0.055,920000
2018-01-11,0.054000000000000006,0.055,0.053,0.055,810000
2018-01-12,0.054000000000000006,0.054000000000000006,0.052000000000000005,0.053,2720000
2018-01-15,0.053,0.053,0.052000000000000005,0.053,3410000
2018-01-16,0.053,0.055999999999999994,0.053,0.053,2170000
2018-01-17,0.053,0.053,0.052000000000000005,0.052000000000000005,1630000
2018-01-18,0.053,0.053,0.051,0.051,1970000
2018-01-19,0.051,0.051,0.051,0.051,1832000
2018-01-22,0.051,0.051,0.051,0.051,1254000
2018-01-23,0.052000000000000005,0.053,0.051,0.052000000000000005,1020000
2018-01-24,0.051,0.053,0.051,0.053,920000
2018-01-25,0.052000000000000005,0.053,0.051,0.053,1470000
2018-01-26,0.053,0.053,0.052000000000000005,0.052000000000000005,2521000
2018-01-29,0.051,0.052000000000000005,0.051,0.051,2632000
2018-01-30,0.051,0.051,0.051,0.051,400000
2018-01-31,0.051,0.053,0.051,0.051,3740000
2018-02-01,0.051,0.051,0.05,0.051,7485000
2018-02-02,0.051,0.053,0.051,0.051,780000
2018-02-05,0.051,0.051,0.05,0.051,1740000
2018-02-06,0.051,0.059000000000000004,0.051,0.053,10880000
2018-02-07,0.052000000000000005,0.052000000000000005,0.051,0.051,1100000
2018-02-08,0.051,0.054000000000000006,0.051,0.051,410000
2018-02-09,0.051,0.051,0.05,0.05,4550000
2018-02-12,0.051,0.051,0.05,0.05,875000
2018-02-13,0.052000000000000005,0.053,0.052000000000000005,0.052000000000000005,1130000
2018-02-20,0.051,0.052000000000000005,0.051,0.052000000000000005,391000
2018-02-21,0.051,0.051,0.051,0.051,510000
2018-02-22,0.05,0.052000000000000005,0.05,0.051,1350000
2018-02-23,0.051,0.052000000000000005,0.051,0.052000000000000005,290000
2018-02-26,0.051,0.051,0.051,0.051,600000
2018-02-27,0.051,0.051,0.049,0.05,2850000
2018-02-28,0.051,0.053,0.051,0.051,1540000
2018-03-01,0.051,0.051,0.05,0.051,525000
2018-03-02,0.05,0.051,0.05,0.051,1270000
2018-03-05,0.049,0.051,0.049,0.051,410000
2018-03-06,0.054000000000000006,0.054000000000000006,0.05,0.05,310000
2018-03-07,0.05,0.051,0.05,0.051,310000
2018-03-08,0.05,0.05,0.048,0.05,2128000
2018-03-09,0.05,0.05,0.049,0.049,584000
2018-03-12,0.05,0.051,0.05,0.051,860000
2018-03-13,0.051,0.051,0.049,0.05,1180000
2018-03-14,0.051,0.051,0.049,0.05,790000
2018-03-15,0.05,0.051,0.05,0.051,1760000
2018-03-16,0.05,0.051,0.049,0.051,2740000
2018-03-19,0.051,0.051,0.049,0.051,1490000
2018-03-20,0.05,0.05,0.049,0.05,2740000
2018-03-21,0.05,0.051,0.05,0.05,1810000
2018-03-22,0.05,0.05,0.049,0.049,1601000
2018-03-23,0.049,0.049,0.048,0.048,2310000
2018-03-26,0.048,0.048,0.048,0.048,740000
2018-03-27,0.05,0.05,0.05,0.05,280000
2018-03-28,0.049,0.049,0.046,0.049,8660000
2018-03-29,0.048,0.051,0.048,0.05,470000
2018-04-03,0.05,0.051,0.05,0.051,1170000
2018-04-04,0.051,0.051,0.047,0.048,1370000
2018-04-06,0.048,0.05,0.048,0.049,1390000
2018-04-09,0.05,0.051,0.049,0.051,1490000
2018-04-10,0.051,0.051,0.051,0.051,260000
2018-04-11,0.05,0.051,0.05,0.051,1380000
2018-04-12,0.05,0.05,0.048,0.05,3030000
2018-04-13,0.05,0.051,0.048,0.051,3530000
2018-04-16,0.049,0.049,0.049,0.049,100000
2018-04-17,0.05,0.05,0.05,0.05,120000
2018-04-18,0.049,0.049,0.047,0.048,5720000
2018-04-19,0.049,0.05,0.049,0.049,1280000
2018-04-20,0.05,0.051,0.048,0.051,2342332
2018-04-23,0.048,0.048,0.046,0.048,3300000
2018-04-24,0.048,0.05,0.048,0.048,1820000
2018-04-25,0.047,0.048,0.047,0.048,510000
2018-04-26,0.048,0.048,0.046,0.046,1170000
2018-04-27,0.046,0.047,0.046,0.047,1050000
2018-04-30,0.047,0.051,0.045,0.05,4380000
2018-05-02,0.047,0.051,0.047,0.05,475000
2018-05-03,0.048,0.05,0.048,0.05,710000
2018-05-04,0.048,0.048,0.048,0.048,140000
2018-05-07,0.048,0.048,0.046,0.048,1000000
2018-05-08,0.048,0.051,0.048,0.05,3120005
2018-05-09,0.078,0.078,0.078,0.078,0
2018-05-10,0.051,0.051,0.048,0.048,240000
2018-05-11,0.05,0.051,0.05,0.05,480000
2018-05-14,0.048,0.048,0.048,0.048,85000
2018-05-15,0.048,0.048,0.048,0.048,430000
2018-05-17,0.048,0.048,0.046,0.046,3020000
2018-05-18,0.046,0.046,0.044000000000000004,0.046,3350000
2018-05-21,0.045,0.046,0.044000000000000004,0.045,1300000
2018-05-23,0.045,0.046,0.044000000000000004,0.044000000000000004,9310000
2018-05-24,0.046,0.048,0.044000000000000004,0.046,15360000
2018-05-25,0.046,0.046,0.045,0.045,4430000
2018-05-28,0.046,0.046,0.045,0.045,1490000
2018-05-29,0.045,0.046,0.044000000000000004,0.045,8450000
2018-05-30,0.044000000000000004,0.045,0.044000000000000004,0.045,7370000
2018-05-31,0.046,0.046,0.044000000000000004,0.045,36280000
2018-06-01,0.045,0.049,0.045,0.048,10140000
2018-06-04,0.047,0.047,0.046,0.046,780000
2018-06-05,0.046,0.047,0.046,0.047,2320000
2018-06-06,0.047,0.047,0.046,0.046,1760000
2018-06-07,0.048,0.048,0.046,0.046,840000
2018-06-08,0.046,0.046,0.044000000000000004,0.045,1685000
2018-06-11,0.046,0.046,0.045,0.045,3660000
2018-06-12,0.046,0.046,0.045,0.045,3000000
2018-06-13,0.046,0.046,0.044000000000000004,0.044000000000000004,2250000
2018-06-14,0.045,0.046,0.045,0.046,1260000
2018-06-15,0.046,0.046,0.045,0.046,4400000
2018-06-19,0.045,0.046,0.045,0.045,3300000
2018-06-20,0.045,0.045,0.044000000000000004,0.045,2854000
2018-06-21,0.046,0.046,0.045,0.045,1750000
2018-06-22,0.046,0.046,0.046,0.046,4300000
2018-06-25,0.046,0.046,0.045,0.046,1500000
2018-06-26,0.046,0.046,0.045,0.046,3040000
2018-06-27,0.045,0.046,0.045,0.046,700000
2018-06-28,0.045,0.046,0.042,0.046,8181000
2018-06-29,0.047,0.049,0.046,0.047,5400000
2018-07-03,0.048,0.048,0.046,0.047,5300000
2018-07-04,0.049,0.049,0.048,0.049,2431000
2018-07-05,0.049,0.05,0.046,0.047,1940000
2018-07-06,0.047,0.049,0.047,0.049,380000
2018-07-09,0.047,0.051,0.047,0.051,1180000
2018-07-10,0.051,0.057999999999999996,0.051,0.057999999999999996,8880000
2018-07-11,0.055,0.069,0.055,0.06,7020000
2018-07-12,0.065,0.066,0.057,0.062,14912332
2018-07-13,0.065,0.065,0.061,0.062,13420000
2018-07-16,0.065,0.065,0.062,0.062,1620000
2018-07-17,0.064,0.066,0.064,0.064,4310000
2018-07-18,0.064,0.064,0.062,0.062,480000
2018-07-19,0.064,0.064,0.062,0.063,2340000
2018-07-20,0.063,0.064,0.062,0.063,2130000
2018-07-23,0.063,0.063,0.062,0.063,8200000
2018-07-24,0.064,0.064,0.061,0.062,6650000
2018-07-25,0.062,0.063,0.061,0.062,2410000
2018-07-26,0.062,0.063,0.062,0.063,1860000
2018-07-27,0.063,0.064,0.063,0.063,1800000
2018-07-30,0.057999999999999996,0.061,0.057999999999999996,0.057999999999999996,2300000
2018-07-31,0.059000000000000004,0.059000000000000004,0.057999999999999996,0.059000000000000004,3950000
2018-08-01,0.06,0.06,0.059000000000000004,0.059000000000000004,1000000
2018-08-02,0.057999999999999996,0.057999999999999996,0.055999999999999994,0.055999999999999994,1800000
2018-08-03,0.057,0.057,0.055999999999999994,0.055999999999999994,770000
2018-08-06,0.055999999999999994,0.055999999999999994,0.055,0.055,1150000
2018-08-07,0.055,0.055,0.055,0.055,4610000
2018-08-08,0.057,0.057,0.055999999999999994,0.055999999999999994,237312
2018-08-09,0.06,0.08199999999999999,0.06,0.069,91110000
2018-08-10,0.069,0.073,0.059000000000000004,0.061,19500000
2018-08-13,0.061,0.061,0.057999999999999996,0.057999999999999996,12450000
2018-08-14,0.059000000000000004,0.065,0.059000000000000004,0.063,5900000
2018-08-15,0.061,0.065,0.061,0.061,3870000
2018-08-16,0.06,0.061,0.059000000000000004,0.061,2960000
2018-08-17,0.061,0.061,0.06,0.06,3465282
2018-08-20,0.06,0.062,0.059000000000000004,0.061,2050000
2018-08-21,0.064,0.064,0.06,0.06,2730000
2018-08-22,0.067,0.067,0.066,0.066,500000
2018-08-23,0.061,0.061,0.057999999999999996,0.057999999999999996,650000
2018-08-24,0.057999999999999996,0.059000000000000004,0.057999999999999996,0.059000000000000004,1393000
2018-08-27,0.057999999999999996,0.061,0.057999999999999996,0.061,3550000
2018-08-28,0.061,0.061,0.059000000000000004,0.061,520000
2018-08-29,0.059000000000000004,0.06,0.059000000000000004,0.06,2000000
2018-08-30,0.064,0.07200000000000001,0.061,0.061,6200000
2018-08-31,0.061,0.062,0.061,0.062,500000
2018-09-03,0.062,0.062,0.06,0.062,950000
2018-09-04,0.062,0.066,0.06,0.066,2750000
2018-09-05,0.066,0.067,0.062,0.064,1000000
2018-09-06,0.064,0.067,0.057,0.062,1800000
2018-09-07,0.061,0.062,0.061,0.061,300000
2018-09-10,0.062,0.062,0.057999999999999996,0.057999999999999996,1320000
2018-09-11,0.057999999999999996,0.057999999999999996,0.057999999999999996,0.057999999999999996,50000
2018-09-12,0.06,0.062,0.06,0.06,740000
2018-09-13,0.057999999999999996,0.057999999999999996,0.057999999999999996,0.057999999999999996,650000
2018-09-14,0.057999999999999996,0.062,0.057999999999999996,0.062,750000
2018-09-17,0.067,0.068,0.067,0.068,0
2018-09-18,0.067,0.068,0.067,0.068,0
2018-09-19,0.059000000000000004,0.064,0.059000000000000004,0.063,400000
2018-09-20,0.068,0.069,0.068,0.069,0
2018-09-21,0.059000000000000004,0.062,0.059000000000000004,0.059000000000000004,1550000
2018-09-26,0.057999999999999996,0.057999999999999996,0.055,0.057,8790000
2018-09-27,0.055999999999999994,0.055999999999999994,0.055,0.055,590000
2018-09-28,0.057999999999999996,0.057999999999999996,0.057999999999999996,0.057999999999999996,450000
2018-10-02,0.055,0.055,0.054000000000000006,0.055,350000
2018-10-03,0.055,0.055,0.055,0.055,200000
2018-10-04,0.059000000000000004,0.059000000000000004,0.057999999999999996,0.057,1770000
2018-10-05,0.055999999999999994,0.057999999999999996,0.055,0.057,1600000
2018-10-08,0.057,0.057,0.055,0.055,1820000
2018-10-09,0.055,0.055999999999999994,0.054000000000000006,0.055999999999999994,1000000
2018-10-10,0.055,0.055999999999999994,0.055,0.055999999999999994,750000
2018-10-11,0.054000000000000006,0.054000000000000006,0.052000000000000005,0.054000000000000006,3800000
2018-10-12,0.054000000000000006,0.054000000000000006,0.054000000000000006,0.054000000000000006,250000
2018-10-15,0.054000000000000006,0.054000000000000006,0.054000000000000006,0.054000000000000006,50000
2018-10-16,0.053,0.054000000000000006,0.051,0.051,1400000
2018-10-18,0.053,0.055,0.053,0.053,1450000
2018-10-19,0.053,0.053,0.052000000000000005,0.053,600000
2018-10-22,0.057,0.057,0.054000000000000006,0.054000000000000006,850000
2018-10-23,0.055999999999999994,0.055999999999999994,0.053,0.053,1060600
2018-10-24,0.053,0.055999999999999994,0.053,0.055,500000
2018-10-25,0.053,0.053,0.052000000000000005,0.053,390000
2018-10-26,0.059000000000000004,0.059000000000000004,0.059000000000000004,0.059000000000000004,0
2018-10-29,0.053,0.055,0.053,0.054000000000000006,750000
2018-10-30,0.053,0.055,0.053,0.053,850000
2018-10-31,0.055,0.055,0.053,0.053,100000
2018-11-01,0.054000000000000006,0.057,0.052000000000000005,0.055,4980000
2018-11-02,0.055,0.057,0.052000000000000005,0.054000000000000006,1500000
2018-11-05,0.059000000000000004,0.059000000000000004,0.052000000000000005,0.053,494000
2018-11-06,0.052000000000000005,0.054000000000000006,0.052000000000000005,0.054000000000000006,200000
2018-11-07,0.055,0.055,0.053,0.055,1600000
2018-11-08,0.055,0.055999999999999994,0.055,0.055,4600000
2018-11-09,0.055,0.055,0.054000000000000006,0.054000000000000006,1230000
2018-11-12,0.054000000000000006,0.055,0.054000000000000006,0.055,360000
2018-11-13,0.054000000000000006,0.055999999999999994,0.054000000000000006,0.055999999999999994,4470000
2018-11-14,0.055999999999999994,0.055999999999999994,0.055999999999999994,0.055999999999999994,150000
2018-11-15,0.057,0.057999999999999996,0.055999999999999994,0.055999999999999994,800000
2018-11-16,0.057999999999999996,0.057999999999999996,0.057999999999999996,0.057999999999999996,50000
2018-11-19,0.057999999999999996,0.057999999999999996,0.057999999999999996,0.057999999999999996,100000
2018-11-20,0.057999999999999996,0.057999999999999996,0.057999999999999996,0.057999999999999996,300000
2018-11-21,0.057999999999999996,0.057999999999999996,0.054000000000000006,0.057,1500000
2018-11-22,0.057999999999999996,0.057999999999999996,0.057999999999999996,0.057999999999999996,150000
2018-11-23,0.063,0.063,0.063,0.063,0
2018-11-26,0.055,0.055,0.055,0.055,250000
2018-11-27,0.055,0.057,0.055,0.055,1020000
2018-11-28,0.055999999999999994,0.055999999999999994,0.054000000000000006,0.054000000000000006,1000000
2018-11-29,0.057999999999999996,0.07200000000000001,0.057999999999999996,0.059000000000000004,7224000
2018-11-30,0.071,0.071,0.062,0.066,6850000
2018-12-03,0.066,0.066,0.059000000000000004,0.064,1600000
2018-12-04,0.062,0.067,0.061,0.066,250000
2018-12-05,0.064,0.064,0.059000000000000004,0.063,1130000
2018-12-06,0.06,0.06,0.059000000000000004,0.059000000000000004,800000
2018-12-07,0.057999999999999996,0.057999999999999996,0.054000000000000006,0.055,2550000
2018-12-10,0.055,0.055,0.053,0.053,600000
2018-12-11,0.054000000000000006,0.055,0.054000000000000006,0.055,300000
2018-12-12,0.055999999999999994,0.055999999999999994,0.055999999999999994,0.055999999999999994,300000
2018-12-13,0.054000000000000006,0.054000000000000006,0.052000000000000005,0.054000000000000006,2850000
2018-12-14,0.054000000000000006,0.054000000000000006,0.054000000000000006,0.054000000000000006,400000
2018-12-17,0.054000000000000006,0.054000000000000006,0.051,0.052000000000000005,250000
2018-12-18,0.053,0.053,0.051,0.052000000000000005,600000
2018-12-19,0.051,0.055,0.048,0.055,4475000
2018-12-24,0.052000000000000005,0.052000000000000005,0.052000000000000005,0.052000000000000005,50000
2018-12-27,0.051,0.051,0.051,0.051,250000
2018-12-28,0.051,0.051,0.048,0.048,1850000
2018-12-31,0.052000000000000005,0.052000000000000005,0.052000000000000005,0.052000000000000005,300000
2019-01-02,0.052000000000000005,0.052000000000000005,0.052000000000000005,0.051,100000
2019-01-03,0.051,0.051,0.049,0.05,950000
2019-01-04,0.048,0.048,0.048,0.049,700000
2019-01-07,0.048,0.049,0.048,0.049,450000
2019-01-08,0.048,0.048,0.048,0.049,140000
2019-01-09,0.05,0.05,0.048,0.049,820000
2019-01-10,0.048,0.053,0.048,0.05,300000
2019-01-11,0.048,0.049,0.048,0.049,450000
2019-01-14,0.049,0.049,0.048,0.048,170000
2019-01-15,0.051,0.051,0.049,0.049,710000
2019-01-16,0.046,0.048,0.046,0.048,500000
2019-01-17,0.048,0.048,0.048,0.048,850000
2019-01-18,0.048,0.051,0.048,0.048,700000
2019-01-21,0.048,0.048,0.048,0.048,1600000
2019-01-22,0.048,0.048,0.046,0.046,800000
2019-01-23,0.046,0.052000000000000005,0.046,0.052000000000000005,450000
2019-01-24,0.052000000000000005,0.052000000000000005,0.048,0.049,1000000
2019-01-25,0.049,0.05,0.049,0.05,470000
2019-01-28,0.048,0.05,0.048,0.05,300000
2019-01-29,0.048,0.051,0.048,0.051,350000
2019-01-30,0.048,0.048,0.048,0.048,250000
2019-01-31,0.048,0.05,0.048,0.05,400000
2019-02-01,0.05,0.05,0.048,0.049,600000
2019-02-04,0.05,0.05,0.049,0.049,1200000
2019-02-08,0.052000000000000005,0.052000000000000005,0.052000000000000005,0.052000000000000005,650000
2019-02-11,0.05,0.052000000000000005,0.049,0.052000000000000005,1300000
2019-02-12,0.052000000000000005,0.054000000000000006,0.052000000000000005,0.052000000000000005,1050000
2019-02-14,0.052000000000000005,0.053,0.048,0.053,1150000
2019-02-15,0.049,0.052000000000000005,0.048,0.05,2130000
2019-02-18,0.052000000000000005,0.057999999999999996,0.05,0.055,3640000
2019-02-19,0.057999999999999996,0.057999999999999996,0.053,0.054000000000000006,600000
2019-02-20,0.055,0.055,0.052000000000000005,0.052000000000000005,668332
2019-02-21,0.055,0.055,0.051,0.051,596182
2019-02-22,0.052000000000000005,0.057,0.052000000000000005,0.055,1756000
2019-02-25,0.055999999999999994,0.057999999999999996,0.053,0.057,1800000
2019-02-26,0.055999999999999994,0.055999999999999994,0.053,0.055999999999999994,2050000
2019-02-27,0.054000000000000006,0.055999999999999994,0.054000000000000006,0.055999999999999994,795000
2019-02-28,0.055999999999999994,0.055999999999999994,0.055999999999999994,0.055999999999999994,340000
2019-03-01,0.055999999999999994,0.055999999999999994,0.054000000000000006,0.055,350000
2019-03-04,0.057,0.057999999999999996,0.055999999999999994,0.057999999999999996,2920000
2019-03-05,0.059000000000000004,0.059000000000000004,0.057,0.057999999999999996,1000000
2019-03-06,0.063,0.076,0.063,0.069,76540000
2019-03-07,0.065,0.07200000000000001,0.059000000000000004,0.062,16560000
2019-03-08,0.06,0.061,0.057999999999999996,0.057999999999999996,10290000
2019-03-11,0.059000000000000004,0.064,0.057999999999999996,0.062,3760000
2019-03-12,0.062,0.062,0.057999999999999996,0.06,4860000
2019-03-13,0.059000000000000004,0.064,0.057999999999999996,0.062,3940000
2019-03-14,0.06,0.065,0.06,0.065,3400000
2019-03-15,0.066,0.067,0.064,0.064,4070000
2019-03-18,0.067,0.068,0.064,0.066,3200000
2019-03-19,0.069,0.07,0.068,0.069,22930000
2019-03-20,0.069,0.073,0.069,0.07,17420000
2019-03-21,0.071,0.073,0.069,0.069,7470000
2019-03-22,0.069,0.069,0.066,0.069,7100000
2019-03-25,0.068,0.069,0.065,0.065,4000000
2019-03-26,0.065,0.068,0.064,0.065,2850000
2019-03-27,0.066,0.068,0.066,0.066,2960000
2019-03-28,0.066,0.068,0.065,0.068,2450000
2019-03-29,0.065,0.068,0.064,0.066,2900000
2019-04-01,0.065,0.067,0.065,0.067,3989000
2019-04-02,0.066,0.068,0.066,0.066,1750000
2019-04-03,0.067,0.069,0.065,0.067,6700000
2019-04-04,0.067,0.069,0.067,0.067,5190000
2019-04-08,0.069,0.069,0.067,0.069,3300000
2019-04-09,0.07,0.07,0.069,0.069,3800000
2019-04-10,0.067,0.068,0.067,0.068,1200000
2019-04-11,0.068,0.07,0.067,0.067,500000
2019-04-12,0.067,0.069,0.067,0.067,653000
2019-04-15,0.067,0.067,0.067,0.067,661166
2019-04-16,0.067,0.067,0.065,0.066,1776150
2019-04-17,0.066,0.066,0.065,0.065,250000
2019-04-18,0.065,0.065,0.065,0.065,300000
2019-04-23,0.064,0.064,0.063,0.064,1075000
2019-04-24,0.064,0.064,0.063,0.063,709455
2019-04-25,0.063,0.063,0.059000000000000004,0.059000000000000004,3550000
2019-04-26,0.059000000000000004,0.061,0.057999999999999996,0.059000000000000004,550000
2019-04-29,0.059000000000000004,0.068,0.059000000000000004,0.064,750000
2019-04-30,0.066,0.066,0.065,0.065,300000
2019-05-02,0.065,0.065,0.065,0.065,500000
2019-05-03,0.071,0.071,0.071,0.071,0
2019-05-06,0.064,0.064,0.055,0.062,2550000
2019-05-07,0.066,0.066,0.057999999999999996,0.061,1750000
2019-05-08,0.059000000000000004,0.059000000000000004,0.057999999999999996,0.057999999999999996,350000
2019-05-09,0.057999999999999996,0.057999999999999996,0.057999999999999996,0.057999999999999996,710000
2019-05-10,0.06,0.061,0.057999999999999996,0.061,2062000
2019-05-14,0.061,0.064,0.057999999999999996,0.057999999999999996,1551166
2019-05-15,0.062,0.064,0.057999999999999996,0.061,4250000
2019-05-16,0.061,0.064,0.061,0.061,3050000
2019-05-17,0.06,0.06,0.059000000000000004,0.059000000000000004,400000
2019-05-20,0.057999999999999996,0.062,0.057999999999999996,0.062,820000
2019-05-21,0.059000000000000004,0.06,0.059000000000000004,0.059000000000000004,3051166
2019-05-22,0.057999999999999996,0.057999999999999996,0.057999999999999996,0.057999999999999996,1100000
2019-05-23,0.057999999999999996,0.059000000000000004,0.057999999999999996,0.057999999999999996,1400000
2019-05-24,0.057999999999999996,0.057999999999999996,0.057999999999999996,0.057999999999999996,250000
2019-05-27,0.055999999999999994,0.062,0.055999999999999994,0.062,2000000
2019-05-28,0.061,0.064,0.059000000000000004,0.062,2052000
2019-05-29,0.063,0.064,0.06,0.061,1500000
2019-05-30,0.064,0.064,0.063,0.063,500000
2019-05-31,0.064,0.064,0.061,0.061,480000
2019-06-03,0.062,0.064,0.061,0.061,1400000
2019-06-04,0.062,0.062,0.061,0.061,400000
2019-06-06,0.062,0.063,0.062,0.063,1784500
2019-06-10,0.065,0.065,0.062,0.062,2370000
2019-06-11,0.062,0.064,0.061,0.063,810000
2019-06-12,0.063,0.063,0.061,0.062,1906000
2019-06-13,0.061,0.063,0.061,0.063,150000
2019-06-14,0.064,0.064,0.062,0.062,310000
2019-06-17,0.062,0.069,0.061,0.062,2170000
2019-06-18,0.061,0.061,0.061,0.061,700000
2019-06-19,0.062,0.064,0.062,0.062,900000
2019-06-20,0.062,0.062,0.06,0.06,712000
2019-06-21,0.061,0.061,0.057999999999999996,0.057999999999999996,2850000
2019-06-24,0.059000000000000004,0.059000000000000004,0.057999999999999996,0.057999999999999996,700000
2019-06-25,0.057999999999999996,0.06,0.057999999999999996,0.057999999999999996,1320000
2019-06-26,0.06,0.061,0.059000000000000004,0.059000000000000004,1500000
2019-06-27,0.06,0.06,0.06,0.06,50000
2019-06-28,0.06,0.061,0.059000000000000004,0.06,580000
2019-07-02,0.06,0.062,0.059000000000000004,0.059000000000000004,2200000
2019-07-03,0.061,0.061,0.057999999999999996,0.057999999999999996,1470000
2019-07-04,0.057999999999999996,0.059000000000000004,0.057999999999999996,0.059000000000000004,180000
2019-07-05,0.059000000000000004,0.06,0.057999999999999996,0.059000000000000004,1390000
2019-07-08,0.057999999999999996,0.064,0.057999999999999996,0.062,700000
2019-07-10,0.057999999999999996,0.061,0.057999999999999996,0.061,856000
2019-07-11,0.067,0.067,0.067,0.067,0
2019-07-12,0.059000000000000004,0.059000000000000004,0.057999999999999996,0.059000000000000004,170000
2019-07-15,0.059000000000000004,0.06,0.059000000000000004,0.06,280000
2019-07-16,0.06,0.064,0.06,0.063,3480000
2019-07-17,0.061,0.063,0.061,0.061,760000
2019-07-18,0.059000000000000004,0.059000000000000004,0.059000000000000004,0.059000000000000004,400000
2019-07-19,0.059000000000000004,0.059000000000000004,0.057999999999999996,0.057999999999999996,2130000
2019-07-22,0.061,0.061,0.06,0.061,1151166
2019-07-23,0.062,0.063,0.062,0.062,3250000
2019-07-24,0.064,0.064,0.062,0.062,2350000
2019-07-25,0.063,0.063,0.063,0.063,700000
2019-07-26,0.061,0.064,0.061,0.064,560000
2019-07-29,0.063,0.063,0.063,0.063,50000
2019-07-30,0.06,0.06,0.06,0.06,50000
2019-08-01,0.059000000000000004,0.061,0.059000000000000004,0.061,270000
2019-08-02,0.057999999999999996,0.06,0.057999999999999996,0.06,610000
2019-08-06,0.055999999999999994,0.057,0.051,0.054000000000000006,6650000
2019-08-07,0.051,0.057,0.051,0.057,480000
2019-08-08,0.054000000000000006,0.054000000000000006,0.052000000000000005,0.054000000000000006,250000
2019-08-09,0.053,0.053,0.053,0.053,172000
2019-08-12,0.051,0.052000000000000005,0.048,0.05,706000
2019-08-13,0.049,0.051,0.049,0.051,700000
2019-08-15,0.048,0.051,0.048,0.05,750000
2019-08-16,0.048,0.048,0.048,0.049,50000
2019-08-19,0.053,0.053,0.053,0.053,220000
2019-08-20,0.057999999999999996,0.057999999999999996,0.057,0.057,12000
2019-08-26,0.048,0.052000000000000005,0.048,0.052000000000000005,380000
2019-08-27,0.049,0.052000000000000005,0.049,0.052000000000000005,170000
2019-08-28,0.049,0.049,0.048,0.049,900000
2019-08-29,0.046,0.049,0.046,0.049,203650
2019-08-30,0.05,0.05,0.05,0.05,200000
2019-09-02,0.049,0.049,0.049,0.049,150000
2019-09-03,0.049,0.052000000000000005,0.049,0.052000000000000005,250000
2019-09-04,0.052000000000000005,0.053,0.052000000000000005,0.053,140000
2019-09-05,0.052000000000000005,0.053,0.052000000000000005,0.052000000000000005,800000
2019-09-06,0.053,0.053,0.051,0.051,1450000
2019-09-09,0.051,0.051,0.049,0.049,2200000
2019-09-10,0.049,0.049,0.048,0.049,1850000
2019-09-13,0.048,0.048,0.048,0.048,250000
2019-09-16,0.049,0.049,0.048,0.048,1456000
2019-09-17,0.049,0.07200000000000001,0.049,0.05,3020000
2019-09-18,0.053,0.054000000000000006,0.05,0.051,1200000
2019-09-19,0.052000000000000005,0.052000000000000005,0.05,0.052000000000000005,200000
2019-09-20,0.052000000000000005,0.052000000000000005,0.052000000000000005,0.052000000000000005,50000
2019-09-24,0.051,0.051,0.051,0.051,510000
2019-09-25,0.051,0.051,0.051,0.051,1500000
2019-09-26,0.051,0.051,0.049,0.049,190000
2019-09-27,0.049,0.053,0.049,0.053,1300000
2019-09-30,0.053,0.053,0.053,0.053,150000
2019-10-03,0.053,0.06,0.053,0.057,3350000
2019-10-04,0.06,0.06,0.057999999999999996,0.057999999999999996,40000
2019-10-08,0.051,0.052000000000000005,0.05,0.05,931166
2019-10-10,0.05,0.051,0.046,0.048,1140000
2019-10-11,0.05,0.051,0.048,0.051,13000000
2019-10-15,0.05,0.05,0.05,0.05,300000
2019-10-16,0.05,0.053,0.05,0.053,860494
2019-10-17,0.051,0.051,0.051,0.051,300000
2019-10-18,0.051,0.055,0.051,0.054000000000000006,1440000
2019-10-21,0.054000000000000006,0.055,0.054000000000000006,0.055,450000
2019-10-22,0.055,0.055999999999999994,0.054000000000000006,0.054000000000000006,1760000
2019-10-23,0.055,0.055,0.055,0.055,600000
2019-10-24,0.055,0.055,0.055,0.055,1250000
2019-10-25,0.055999999999999994,0.055999999999999994,0.055,0.055,650000
2019-10-28,0.055999999999999994,0.064,0.055,0.057999999999999996,17310600
2019-10-29,0.057999999999999996,0.057999999999999996,0.055,0.055999999999999994,630000
2019-10-30,0.055999999999999994,0.055999999999999994,0.055999999999999994,0.055999999999999994,200000
2019-10-31,0.055,0.057,0.055,0.055999999999999994,1400000
2019-11-01,0.055,0.059000000000000004,0.052000000000000005,0.057,3550000
2019-11-04,0.059000000000000004,0.059000000000000004,0.057,0.057999999999999996,1010000
2019-11-05,0.057999999999999996,0.059000000000000004,0.057999999999999996,0.059000000000000004,300000
2019-11-06,0.059000000000000004,0.059000000000000004,0.059000000000000004,0.059000000000000004,632332
2019-11-08,0.057999999999999996,0.057999999999999996,0.057999999999999996,0.057999999999999996,200000
2019-11-12,0.057,0.057,0.057,0.057,250000
2019-11-13,0.057,0.057,0.057,0.057,110000
2019-11-14,0.057,0.057,0.055999999999999994,0.055999999999999994,1650000
2019-11-15,0.057,0.057999999999999996,0.057,0.057999999999999996,500000
2019-11-18,0.057999999999999996,0.057999999999999996,0.057,0.057999999999999996,250000
2019-11-19,0.059000000000000004,0.061,0.057,0.057,955000
2019-11-20,0.057,0.057,0.057,0.057,350000
2019-11-21,0.055999999999999994,0.055999999999999994,0.055999999999999994,0.055999999999999994,114000
2019-11-22,0.057,0.061,0.057,0.06,2400000
2019-11-25,0.06,0.06,0.06,0.06,150000
2019-11-26,0.057999999999999996,0.06,0.057999999999999996,0.06,375000
2019-11-27,0.057999999999999996,0.059000000000000004,0.057999999999999996,0.057999999999999996,1930000
2019-11-28,0.063,0.063,0.063,0.063,470000
2019-12-02,0.057999999999999996,0.06,0.057999999999999996,0.06,638888
2019-12-03,0.057999999999999996,0.059000000000000004,0.057,0.057999999999999996,790000
2019-12-04,0.057999999999999996,0.057999999999999996,0.057999999999999996,0.057999999999999996,0
2019-12-05,0.057,0.057999999999999996,0.052000000000000005,0.053,1540000
2019-12-06,0.057,0.057,0.055,0.055,1300000
2019-12-09,0.054000000000000006,0.055,0.054000000000000006,0.055,400000
2019-12-11,0.057,0.057,0.055,0.055,300000
2019-12-12,0.055,0.055999999999999994,0.053,0.055999999999999994,390000
2019-12-13,0.057999999999999996,0.057999999999999996,0.055999999999999994,0.055999999999999994,710000
2019-12-16,0.057999999999999996,0.057999999999999996,0.054000000000000006,0.055,300000
2019-12-17,0.059000000000000004,0.059000000000000004,0.055999999999999994,0.055999999999999994,500000
2019-12-19,0.053,0.055,0.052000000000000005,0.053,3350000
2019-12-20,0.053,0.053,0.053,0.053,100000
2019-12-23,0.054000000000000006,0.054000000000000006,0.053,0.054000000000000006,710000
2019-12-27,0.057999999999999996,0.057999999999999996,0.054000000000000006,0.055,580000
2019-12-30,0.054000000000000006,0.055,0.053,0.054000000000000006,1740000
2019-12-31,0.053,0.057,0.053,0.057,570000
2020-01-02,0.057,0.057999999999999996,0.055,0.055,400000
2020-01-03,0.054000000000000006,0.054000000000000006,0.054000000000000006,0.054000000000000006,175500
2020-01-06,0.054000000000000006,0.054000000000000006,0.053,0.053,850000
2020-01-07,0.053,0.053,0.053,0.053,0
2020-01-08,0.053,0.053,0.053,0.053,550000
2020-01-09,0.052000000000000005,0.053,0.052000000000000005,0.053,884332
2020-01-10,0.053,0.053,0.053,0.053,0
2020-01-13,0.053,0.055999999999999994,0.053,0.053,540000
2020-01-14,0.053,0.053,0.053,0.053,189000
2020-01-15,0.054000000000000006,0.054000000000000006,0.053,0.053,1600000
2020-01-16,0.053,0.053,0.052000000000000005,0.053,4220000
2020-01-17,0.053,0.053,0.052000000000000005,0.053,2300000
2020-01-20,0.05,0.052000000000000005,0.05,0.052000000000000005,1120000
2020-01-21,0.052000000000000005,0.052000000000000005,0.05,0.05,1950000
2020-01-22,0.05,0.051,0.05,0.051,700000
2020-01-23,0.049,0.051,0.049,0.051,450000
2020-01-30,0.046,0.05,0.046,0.05,1050000
2020-02-03,0.047,0.048,0.047,0.047,2000000
2020-02-04,0.045,0.047,0.044000000000000004,0.047,450000
2020-02-05,0.047,0.05,0.047,0.05,1150000
2020-02-06,0.047,0.051,0.045,0.05,6100000
2020-02-10,0.052000000000000005,0.052000000000000005,0.052000000000000005,0.051,100000
2020-02-11,0.052000000000000005,0.052000000000000005,0.047,0.048,770000
2020-02-12,0.048,0.051,0.048,0.051,450000
2020-02-13,0.048,0.05,0.046,0.049,1320000
2020-02-14,0.05,0.053,0.05,0.053,1750000
2020-02-17,0.053,0.053,0.049,0.049,1000000
2020-02-18,0.048,0.048,0.047,0.048,1010000
2020-02-19,0.052000000000000005,0.052000000000000005,0.051,0.051,450000
2020-02-20,0.051,0.052000000000000005,0.051,0.051,300000
2020-02-24,0.048,0.05,0.048,0.05,900000
2020-02-25,0.047,0.05,0.045,0.045,6350000
2020-02-26,0.046,0.049,0.046,0.049,5670000
2020-02-27,0.049,0.049,0.049,0.049,0
2020-02-28,0.045,0.046,0.04,0.044000000000000004,5550000
2020-03-02,0.046,0.047,0.046,0.046,3250000
2020-03-03,0.044000000000000004,0.044000000000000004,0.044000000000000004,0.044000000000000004,100000
2020-03-04,0.047,0.048,0.046,0.046,650000
2020-03-05,0.049,0.05,0.049,0.048,1600000
2020-03-06,0.046,0.046,0.045,0.046,1450000
2020-03-09,0.045,0.045,0.043,0.044000000000000004,400000
2020-03-10,0.043,0.043,0.043,0.043,200000
2020-03-11,0.045,0.045,0.045,0.045,600000
2020-03-12,0.045,0.045,0.045,0.045,100000
2020-03-13,0.044000000000000004,0.044000000000000004,0.04,0.043,5800000
2020-03-16,0.044000000000000004,0.045,0.044000000000000004,0.045,200000
2020-03-17,0.04,0.044000000000000004,0.04,0.044000000000000004,1400000
2020-03-18,0.040999999999999995,0.042,0.04,0.042,1300000
2020-03-19,0.04,0.043,0.038,0.043,710000
2020-03-20,0.04,0.044000000000000004,0.04,0.044000000000000004,1500000
2020-03-23,0.044000000000000004,0.044000000000000004,0.044000000000000004,0.044000000000000004,0
2020-03-24,0.044000000000000004,0.045,0.04,0.044000000000000004,300000
2020-03-26,0.042,0.045,0.042,0.045,250000
2020-03-27,0.044000000000000004,0.044000000000000004,0.044000000000000004,0.044000000000000004,400000
2020-03-30,0.040999999999999995,0.044000000000000004,0.04,0.044000000000000004,900000
2020-03-31,0.044000000000000004,0.044000000000000004,0.044000000000000004,0.044000000000000004,0
2020-04-01,0.044000000000000004,0.044000000000000004,0.044000000000000004,0.044000000000000004,0
2020-04-02,0.043,0.044000000000000004,0.043,0.044000000000000004,350000
2020-04-03,0.043,0.043,0.043,0.043,0
2020-04-06,0.040999999999999995,0.042,0.040999999999999995,0.042,700000
2020-04-07,0.043,0.043,0.043,0.043,100000
2020-04-08,0.040999999999999995,0.043,0.040999999999999995,0.043,300000
2020-04-09,0.043,0.043,0.043,0.043,500000
2020-04-14,0.043,0.043,0.040999999999999995,0.042,1050000
2020-04-15,0.043,0.045,0.043,0.045,200000
2020-04-16,0.044000000000000004,0.045,0.044000000000000004,0.045,250000
2020-04-17,0.042,0.043,0.040999999999999995,0.043,250000
2020-04-20,0.042,0.042,0.040999999999999995,0.042,1220000
2020-04-21,0.042,0.043,0.042,0.043,500000
2020-04-22,0.043,0.043,0.043,0.043,0
2020-04-23,0.043,0.043,0.04,0.043,700000
2020-04-24,0.043,0.043,0.043,0.043,40000
2020-04-27,0.043,0.043,0.040999999999999995,0.043,155000
2020-04-28,0.043,0.043,0.043,0.043,0
2020-04-29,0.043,0.043,0.034,0.040999999999999995,9050000
2020-05-04,0.040999999999999995,0.040999999999999995,0.040999999999999995,0.040999999999999995,0
2020-05-05,0.040999999999999995,0.040999999999999995,0.040999999999999995,0.040999999999999995,0
2020-05-06,0.039,0.042,0.039,0.042,250000
2020-05-07,0.042,0.042,0.042,0.042,150000
2020-05-08,0.04,0.04,0.04,0.04,1150000
2020-05-11,0.04,0.04,0.04,0.04,10000
2020-05-12,0.038,0.04,0.038,0.04,600000
2020-05-13,0.042,0.042,0.04,0.04,1550000
2020-05-14,0.038,0.04,0.038,0.04,2620000
2020-05-15,0.039,0.04,0.039,0.04,400000
2020-05-18,0.04,0.040999999999999995,0.039,0.04,590000
2020-05-19,0.04,0.04,0.039,0.04,370000
2020-05-20,0.04,0.04,0.039,0.04,620000
2020-05-21,0.04,0.04,0.039,0.04,870000
2020-05-22,0.038,0.04,0.037000000000000005,0.04,1300000
2020-05-25,0.037000000000000005,0.040999999999999995,0.037000000000000005,0.039,2100000
2020-05-26,0.04,0.040999999999999995,0.039,0.04,1470000
2020-05-27,0.039,0.039,0.038,0.039,1012000
2020-05-28,0.036000000000000004,0.038,0.036000000000000004,0.038,2740000
2020-05-29,0.038,0.038,0.036000000000000004,0.037000000000000005,900000
2020-06-01,0.035,0.037000000000000005,0.035,0.037000000000000005,4527332
2020-06-02,0.035,0.037000000000000005,0.035,0.036000000000000004,1130000
2020-06-03,0.036000000000000004,0.037000000000000005,0.036000000000000004,0.037000000000000005,380000
2020-06-04,0.037000000000000005,0.037000000000000005,0.035,0.035,1040000
2020-06-05,0.035,0.036000000000000004,0.035,0.036000000000000004,520000
2020-06-08,0.035,0.035,0.032,0.035,1450000
2020-06-09,0.035,0.037000000000000005,0.035,0.036000000000000004,4550000
2020-06-10,0.037000000000000005,0.037000000000000005,0.036000000000000004,0.036000000000000004,250000
2020-06-11,0.038,0.038,0.038,0.038,1350000
2020-06-12,0.038,0.039,0.037000000000000005,0.037000000000000005,2050000
2020-06-15,0.038,0.038,0.037000000000000005,0.037000000000000005,350000
2020-06-17,0.036000000000000004,0.037000000000000005,0.034,0.037000000000000005,550000
2020-06-18,0.037000000000000005,0.038,0.036000000000000004,0.038,350000
2020-06-19,0.038,0.038,0.038,0.038,50000
2020-06-22,0.037000000000000005,0.037000000000000005,0.036000000000000004,0.037000000000000005,350000
2020-06-23,0.037000000000000005,0.037000000000000005,0.037000000000000005,0.037000000000000005,0
2020-06-24,0.036000000000000004,0.036000000000000004,0.035,0.035,1900000
2020-06-26,0.037000000000000005,0.037000000000000005,0.037000000000000005,0.037000000000000005,100000
2020-06-29,0.036000000000000004,0.036000000000000004,0.036000000000000004,0.036000000000000004,0
2020-06-30,0.036000000000000004,0.038,0.036000000000000004,0.038,160000
2020-07-02,0.038,0.038,0.038,0.038,50000
2020-07-03,0.038,0.038,0.038,0.038,150000
2020-07-06,0.036000000000000004,0.038,0.036000000000000004,0.038,2470000
2020-07-07,0.038,0.046,0.038,0.040999999999999995,5100000
2020-07-08,0.043,0.045,0.04,0.045,3000000
2020-07-09,0.047,0.049,0.045,0.047,7710000
2020-07-10,0.047,0.049,0.047,0.049,100000
2020-07-13,0.051,0.057,0.05,0.054000000000000006,7210000
2020-07-14,0.055,0.055,0.05,0.051,2700000
2020-07-15,0.052000000000000005,0.052000000000000005,0.045,0.05,1550000
2020-07-16,0.05,0.05,0.049,0.049,700000
2020-07-17,0.049,0.049,0.049,0.049,3498
2020-07-20,0.047,0.051,0.047,0.048,650000
2020-07-21,0.049,0.049,0.047,0.047,500000
2020-07-22,0.047,0.049,0.047,0.049,1130000
2020-07-23,0.047,0.047,0.046,0.047,1250000
2020-07-24,0.044000000000000004,0.047,0.042,0.046,12160000
2020-07-27,0.046,0.046,0.046,0.046,0
2020-07-28,0.046,0.046,0.046,0.046,401166
2020-07-29,0.044000000000000004,0.047,0.043,0.044000000000000004,10400000
2020-07-30,0.046,0.048,0.044000000000000004,0.044000000000000004,500000
2020-07-31,0.05,0.05,0.046,0.046,11150000
2020-08-03,0.046,0.048,0.046,0.047,17550000
2020-08-04,0.048,0.048,0.046,0.047,1800000
2020-08-05,0.047,0.047,0.045,0.047,980000
2020-08-06,0.046,0.046,0.046,0.046,350000
2020-08-07,0.045,0.047,0.045,0.047,710000
2020-08-10,0.049,0.052000000000000005,0.047,0.047,3300000
2020-08-11,0.051,0.051,0.048,0.049,3550000
2020-08-12,0.049,0.049,0.047,0.047,1600000
2020-08-13,0.05,0.051,0.05,0.05,1250000
2020-08-14,0.05,0.051,0.05,0.05,650000
2020-08-17,0.048,0.05,0.048,0.048,2600000
2020-08-18,0.047,0.05,0.047,0.05,11640000
2020-08-19,0.05,0.05,0.05,0.05,100000
2020-08-20,0.05,0.05,0.049,0.049,5750000
2020-08-21,0.049,0.049,0.048,0.049,324000
2020-08-24,0.05,0.05,0.048,0.05,788000
2020-08-25,0.048,0.05,0.048,0.048,1250000
