Date,Open,High,Low,Close,Volume
2012-01-16,4.43,4.82,4.41,4.59,20636014
2012-01-17,4.66,4.83,4.49,4.83,10428450
2012-01-18,4.83,5.06,4.79,4.95,14374510
2012-01-19,5.02,5.02,4.69,4.73,18823448
2012-01-20,4.84,4.84,4.47,4.52,12661217
2012-01-26,4.77,4.77,4.42,4.55,16350092
2012-01-27,4.64,5.15,4.33,5.14,19345406
2012-01-30,5.11,5.16,4.86,4.88,13394051
2012-01-31,4.84,5.46,4.84,5.23,11170962
2012-02-01,5.26,5.54,5.12,5.46,14962730
2012-02-02,5.58,5.73,5.42,5.64,14593833
2012-02-03,5.66,5.66,5.35,5.43,10721989
2012-02-06,5.54,5.61,5.4,5.55,8027259
2012-02-07,5.55,5.78,5.54,5.78,9671236
2012-02-08,5.96,6.2,5.92,6.2,18538350
2012-02-09,6.17,6.31,5.88,6.18,16838170
2012-02-10,6.35,6.44,6.19,6.3,18848946
2012-02-13,6.19,6.31,5.87,6.05,8505083
2012-02-14,5.91,6.05,5.58,5.7,10294588
2012-02-15,5.59,5.95,5.59,5.81,5576956
2012-02-16,5.76,5.85,5.67,5.76,3158175
2012-02-17,5.93,5.93,5.67,5.87,4206702
2012-02-20,5.95,5.95,5.48,5.51,7138690
2012-02-21,5.42,5.51,5.31,5.44,19362130
2012-02-22,5.51,5.57,5.34,5.37,11213810
2012-02-23,5.51,5.51,5.3,5.34,6422843
2012-02-24,5.25,5.38,5.25,5.35,6958415
2012-02-27,5.4,6.01,5.4,5.53,11552047
2012-02-28,5.81,5.82,5.57,5.64,9134744
2012-02-29,5.7,5.7,5.42,5.46,6872233
2012-03-01,5.46,5.68,5.4,5.53,6465000
2012-03-02,5.71,5.71,5.49,5.58,5543398
2012-03-05,5.58,5.69,5.55,5.64,3302538
2012-03-06,5.76,5.76,5.51,5.62,3559161
2012-03-07,5.6,5.63,5.51,5.59,8526634
2012-03-08,5.56,5.94,5.56,5.9,13685295
2012-03-09,5.94,6.01,5.72,5.8,10178588
2012-03-12,5.86,5.86,5.66,5.75,6891747
2012-03-13,5.79,6.11,5.7,6.09,17245400
2012-03-14,6.3,6.71,6.25,6.41,22435942
2012-03-15,6.41,6.55,6.28,6.34,10209751
2012-03-16,6.39,6.64,6.3,6.49,18723612
2012-03-19,6.49,6.55,6.32,6.35,5447050
2012-03-20,6.47,6.47,5.98,6.04,8329752
2012-03-21,5.98,6.06,5.71,5.92,10269307
2012-03-22,6.06,6.08,5.81,5.89,6807506
2012-03-23,5.79,5.89,5.48,5.57,10267086
2012-03-26,5.61,5.61,5.37,5.42,11947411
2012-03-27,5.46,5.71,5.46,5.53,11837765
2012-03-28,5.57,5.57,5.16,5.26,11844724
2012-03-29,5.08,5.21,4.88,5.11,15884220
2012-03-30,5.11,5.28,4.95,5.01,15475815
2012-04-02,5.16,5.16,4.87,5.04,14608324
2012-04-03,5.22,5.22,4.92,5.07,20044940
2012-04-05,5.04,5.05,4.84,4.95,10936740
2012-04-10,4.84,4.94,4.72,4.8,7434643
2012-04-11,4.77,4.8,4.48,4.6,17883386
2012-04-12,4.58,4.84,4.58,4.72,6808187
2012-04-13,4.76,4.82,4.53,4.7,7193779
2012-04-16,4.68,4.9,4.65,4.85,5530568
2012-04-17,4.82,4.97,4.82,4.85,6309357
2012-04-18,4.91,4.95,4.71,4.8,4542830
2012-04-19,4.82,4.82,4.52,4.54,16089515
2012-04-20,4.54,4.55,4.26,4.27,29252196
2012-04-23,4.25,4.35,4.07,4.3,19027344
2012-04-24,4.31,4.32,3.89,3.95,30337462
2012-05-04,3.28,3.69,3.24,3.67,165149920
2012-05-07,3.57,3.76,3.53,3.56,48644988
2012-05-08,3.57,3.62,3.44,3.56,23444336
2012-05-09,3.58,3.59,3.49,3.54,14396072
2012-05-10,3.52,3.57,3.39,3.45,15693948
2012-05-11,3.46,3.55,3.4,3.49,18447598
2012-05-14,3.56,3.6,3.27,3.29,16770118
2012-05-15,3.23,3.47,3.0,3.41,18756000
2012-05-16,3.32,3.43,3.3,3.35,15429135
2012-05-17,3.45,3.6,3.43,3.51,22142840
2012-05-18,3.45,3.7,3.36,3.67,11075170
2012-05-21,3.67,3.84,3.63,3.69,8648759
2012-05-22,3.77,3.77,3.52,3.68,8193331
2012-05-23,3.66,3.66,3.53,3.59,6188250
2012-05-24,3.53,3.62,3.5,3.53,7826206
2012-05-25,3.47,3.53,3.25,3.46,11684712
2012-05-28,3.39,3.44,3.33,3.39,3914000
2012-05-29,3.42,3.49,3.38,3.46,6588500
2012-05-30,3.47,3.49,3.4,3.46,4069106
2012-05-31,3.46,3.46,3.23,3.26,17305712
2012-06-01,3.23,3.23,3.1,3.15,11022124
2012-06-04,3.06,3.14,3.0,3.01,7404916
2012-06-05,3.05,3.07,2.8,2.88,13850523
2012-06-06,2.9,3.16,2.84,3.12,18378172
2012-06-07,3.18,3.22,2.99,3.04,11152676
2012-06-08,3.06,3.32,3.03,3.3,15180132
2012-06-11,3.33,3.37,3.15,3.19,7912152
2012-06-12,3.17,3.24,3.1,3.17,7160851
2012-06-13,3.19,3.23,3.03,3.1,15866555
2012-06-14,3.1,3.13,2.93,2.94,12160360
2012-06-15,2.94,3.08,2.91,3.04,12074256
2012-06-18,3.13,3.39,3.08,3.33,17876656
2012-06-19,3.34,3.62,3.34,3.58,23688696
2012-06-20,3.62,3.69,3.34,3.64,20007056
2012-06-21,3.62,3.66,3.43,3.44,12417962
2012-06-22,3.44,3.53,3.29,3.42,8715788
2012-06-25,3.46,3.71,3.43,3.66,13624851
2012-06-26,3.55,3.7,3.51,3.56,6703416
2012-06-27,3.62,3.82,3.53,3.8,18883640
2012-06-28,3.82,3.91,3.67,3.69,5702212
2012-06-29,3.74,3.81,3.64,3.75,6163051
2012-07-03,3.9,3.9,3.76,3.82,5130593
2012-07-04,3.83,3.85,3.72,3.76,3611800
2012-07-05,3.75,3.82,3.72,3.75,9220000
2012-07-06,3.79,3.82,3.72,3.79,4745832
2012-07-09,3.81,3.81,3.67,3.73,4924649
2012-07-10,3.77,3.77,3.64,3.67,11415161
2012-07-11,3.65,3.68,3.57,3.67,8943264
2012-07-12,3.67,3.67,3.58,3.65,1936091
2012-07-13,3.62,3.67,3.6,3.62,10013159
2012-07-16,3.67,3.67,3.26,3.37,10592312
2012-07-17,3.42,3.48,3.35,3.39,4584389
2012-07-18,3.45,3.45,3.29,3.34,3618827
2012-07-19,3.34,3.41,3.34,3.36,4130347
2012-07-20,3.37,3.37,3.29,3.33,4056565
2012-07-23,3.33,3.33,3.13,3.24,7847947
2012-07-24,3.23,3.35,3.18,3.28,5646483
2012-07-25,3.32,3.32,3.08,3.17,9082492
2012-07-26,3.17,3.22,3.1,3.16,5538774
2012-07-27,3.16,3.26,3.14,3.15,4794947
2012-07-30,3.21,3.37,3.16,3.31,4195516
2012-07-31,3.28,3.47,3.28,3.45,4514978
2012-08-01,3.47,3.47,3.28,3.32,6561934
2012-08-02,3.4,3.4,3.28,3.31,3540800
2012-08-03,3.31,3.38,3.31,3.36,5422105
2012-08-06,3.46,3.58,3.43,3.51,13843000
2012-08-07,3.53,3.59,3.51,3.52,9932424
2012-08-08,3.52,3.7,3.34,3.61,8087361
2012-08-09,3.66,3.82,3.58,3.76,11808918
2012-08-10,3.68,3.83,3.64,3.81,14274150
2012-08-13,3.96,3.96,3.8,3.84,5795853
2012-08-14,3.82,3.83,3.73,3.77,4945759
2012-08-15,3.86,3.92,3.78,3.9,7797288
2012-08-16,3.87,4.05,3.86,4.03,7800322
2012-08-17,4.07,4.21,4.04,4.17,9608953
2012-08-20,4.22,4.3,4.15,4.17,4287097
2012-08-21,4.21,4.24,4.1,4.21,8553259
2012-08-22,4.23,4.33,4.12,4.26,9523294
2012-08-23,4.27,4.37,4.25,4.33,7516193
2012-08-24,4.33,4.52,4.27,4.48,12823251
2012-08-27,4.51,4.63,4.43,4.59,6308512
2012-08-28,4.59,4.68,4.52,4.53,9691316
2012-08-29,4.49,4.5,4.09,4.1,17446512
2012-08-30,4.1,4.11,3.9,4.01,11839757
2012-08-31,4.04,4.08,3.85,3.95,10614527
2012-09-03,3.95,3.98,3.88,3.93,6188109
2012-09-04,3.99,4.05,3.89,3.93,1624614
2012-09-05,3.92,3.94,3.83,3.89,2449064
2012-09-06,3.94,4.32,3.94,4.29,8759365
2012-09-07,4.34,4.37,4.21,4.28,3956802
2012-09-10,4.29,4.44,4.23,4.23,7544251
2012-09-11,4.26,4.33,4.17,4.23,4248411
2012-09-12,4.25,4.29,4.1,4.14,2566624
2012-09-13,4.14,4.27,4.14,4.17,3651184
2012-09-14,4.29,4.29,4.18,4.2,3689687
2012-09-17,4.24,4.24,4.12,4.17,3278272
2012-09-18,4.13,4.22,4.09,4.17,5589441
2012-09-19,4.17,4.24,4.12,4.21,5175653
2012-09-20,4.24,4.33,4.18,4.26,6728102
2012-09-21,4.29,4.5,4.14,4.49,15938817
2012-09-24,4.62,4.62,4.41,4.56,6896879
2012-09-25,4.51,4.58,4.38,4.46,2115030
2012-09-26,4.46,4.46,4.21,4.32,4796324
2012-09-27,4.31,4.4,4.2,4.3,7057212
2012-09-28,4.29,4.46,4.27,4.38,4400431
2012-10-03,4.51,4.51,4.25,4.29,7125752
2012-10-04,4.34,4.34,4.22,4.25,3340757
2012-10-05,4.27,4.45,4.27,4.44,6571811
2012-10-08,4.42,4.47,4.29,4.3,3484754
2012-10-09,4.29,4.39,4.25,4.27,2037233
2012-10-10,4.27,4.27,4.14,4.17,6275570
2012-10-11,4.19,4.23,4.16,4.18,3348919
2012-10-12,4.17,4.21,4.06,4.07,8075447
2012-10-15,4.1,4.14,4.07,4.1,4001564
2012-10-16,4.13,4.17,4.1,4.12,23746012
2012-10-17,4.12,4.17,4.11,4.13,7734936
2012-10-18,4.14,4.16,4.11,4.12,11348803
2012-10-19,4.12,4.13,3.97,4.0,7562796
2012-10-22,3.97,4.08,3.97,4.05,5858251
2012-10-24,4.06,4.1,4.01,4.07,6970060
2012-10-25,4.09,4.11,4.04,4.06,5187907
2012-10-26,4.11,4.11,3.87,3.93,10360655
2012-10-29,3.9,3.98,3.83,3.96,2369883
2012-10-30,3.95,3.95,3.85,3.87,2165000
2012-10-31,3.91,3.93,3.82,3.84,3511974
2012-11-01,3.87,3.99,3.82,3.98,11404853
2012-11-02,4.04,4.04,3.95,3.96,4857559
2012-11-05,3.99,4.03,3.92,4.01,4863000
2012-11-06,4.0,4.12,4.0,4.1,7829650
2012-11-07,4.12,4.12,3.92,4.01,8548278
2012-11-08,3.94,4.02,3.9,3.97,3778239
2012-11-09,3.88,3.95,3.79,3.86,7076083
2012-11-12,3.92,3.92,3.8,3.82,3221503
2012-11-13,3.86,3.87,3.77,3.83,4528942
2012-11-14,3.89,3.91,3.84,3.9,7278000
2012-11-15,3.87,3.91,3.85,3.89,3314597
2012-11-16,3.93,3.93,3.82,3.84,2621670
2012-11-19,3.83,3.9,3.74,3.77,3042000
2012-11-20,3.87,3.89,3.82,3.86,7206835
2012-11-21,3.9,3.9,3.71,3.72,7519660
2012-11-22,3.71,3.78,3.63,3.7,6334184
2012-11-23,3.7,3.71,3.66,3.68,3552000
2012-11-26,3.68,3.79,3.67,3.73,3543280
2012-11-27,3.73,3.77,3.62,3.65,3887613
2012-11-28,3.61,3.61,3.45,3.46,14923666
2012-11-29,3.43,3.46,3.21,3.24,20610000
2012-11-30,3.25,3.5,3.25,3.47,22154284
2012-12-03,3.47,3.47,3.38,3.42,7558118
2012-12-04,3.43,3.44,3.37,3.41,4881000
2012-12-05,3.4,3.47,3.34,3.45,5288700
2012-12-06,3.4,3.46,3.36,3.41,5768793
2012-12-07,3.37,3.4,3.37,3.39,6087375
2012-12-10,3.39,3.4,3.3,3.33,11239838
2012-12-11,3.28,3.29,3.21,3.26,12845377
2012-12-12,3.27,3.32,3.25,3.3,15917162
2012-12-13,3.29,3.3,3.25,3.25,11692869
2012-12-14,3.25,3.35,3.25,3.34,15558655
2012-12-17,3.34,3.57,3.34,3.57,34078880
2012-12-18,3.59,3.78,3.53,3.75,30464280
2012-12-19,3.77,3.87,3.72,3.76,15472000
2012-12-20,3.81,3.86,3.72,3.85,14968935
2012-12-21,3.83,3.96,3.81,3.95,18310580
2012-12-24,3.95,3.95,3.79,3.81,4738581
2012-12-27,3.81,3.86,3.7,3.71,10702640
2012-12-28,3.74,3.82,3.68,3.77,11268919
2012-12-31,3.77,3.85,3.72,3.81,4762440
2013-01-02,3.85,3.9,3.72,3.77,18094434
2013-01-03,3.82,3.9,3.78,3.9,29481324
2013-01-04,3.92,4.05,3.85,4.04,34433404
2013-01-07,4.0,4.27,3.99,4.19,33420316
2013-01-08,4.22,4.27,4.07,4.09,15928356
2013-01-09,4.1,4.24,4.07,4.15,18608296
2013-01-10,4.16,4.43,4.16,4.37,34163896
2013-01-11,4.36,4.36,4.19,4.21,24802944
2013-01-14,4.25,4.42,4.25,4.41,14947400
2013-01-15,4.43,4.46,4.29,4.38,12692700
2013-01-16,4.32,4.47,4.28,4.46,13478126
2013-01-17,4.47,4.55,4.45,4.54,13892569
2013-01-18,4.54,4.63,4.47,4.63,33953000
2013-01-21,4.59,4.9,4.55,4.87,23050208
2013-01-22,4.9,4.99,4.84,4.94,23882076
2013-01-23,4.93,5.02,4.88,4.9,15989232
2013-01-24,4.84,4.84,4.14,4.28,37721936
2013-01-25,4.23,4.33,4.17,4.18,8886612
2013-01-28,4.18,4.44,4.15,4.25,12013835
2013-01-29,4.29,4.3,4.18,4.23,3611000
2013-01-30,4.29,4.31,4.2,4.22,6950508
2013-01-31,4.19,4.27,4.02,4.19,13575438
2013-02-01,4.24,4.24,4.02,4.07,8308471
2013-02-04,4.14,4.16,4.09,4.13,5440104
2013-02-05,4.07,4.11,3.99,4.08,7392960
2013-02-06,4.07,4.21,4.07,4.18,9879761
2013-02-07,4.3,4.3,4.15,4.24,11160900
2013-02-08,4.24,4.24,4.15,4.15,4778599
2013-02-14,4.27,4.33,4.16,4.28,15155377
2013-02-15,4.28,4.33,4.24,4.31,4217357
2013-02-18,4.3,4.3,4.17,4.27,2721000
2013-02-19,4.27,4.29,4.17,4.23,3858225
2013-02-20,4.17,4.29,4.06,4.23,10321221
2013-02-21,4.16,4.36,4.16,4.27,8788000
2013-02-22,4.27,4.35,4.21,4.3,2836100
2013-02-25,4.31,4.32,4.16,4.18,5720200
2013-02-26,4.24,4.26,4.14,4.21,4629481
2013-02-27,4.18,4.23,4.15,4.18,1915404
2013-02-28,4.18,4.32,4.15,4.3,9385171
2013-03-01,4.3,4.33,4.22,4.23,5312675
2013-03-04,4.27,4.27,4.11,4.16,4487991
2013-03-05,4.21,4.23,4.11,4.22,2802815
2013-03-06,4.17,4.22,4.01,4.03,28761000
2013-03-07,4.03,4.12,4.03,4.12,11366980
2013-03-08,4.12,4.13,3.87,3.88,36629900
2013-03-11,3.92,3.99,3.89,3.93,12381400
2013-03-12,3.88,3.91,3.78,3.83,12225790
2013-03-13,3.79,3.79,3.49,3.51,32408752
2013-03-14,3.43,3.58,3.38,3.52,21251900
2013-03-15,3.56,3.56,3.31,3.32,52299920
2013-03-18,3.23,3.32,3.15,3.28,65920168
2013-03-19,3.28,3.44,3.28,3.31,30802616
2013-03-20,3.31,3.36,3.2,3.3,26256368
2013-03-21,3.33,3.48,3.3,3.37,20959464
2013-03-22,3.36,3.43,3.29,3.29,19398170
2013-03-25,3.33,3.37,3.23,3.26,14476976
2013-03-26,3.28,3.35,3.26,3.32,10517000
2013-03-27,3.36,3.45,3.33,3.38,17725000
2013-03-28,3.38,3.41,3.28,3.35,11691513
2013-04-02,3.41,3.41,3.3,3.32,7653932
2013-04-03,3.32,3.35,3.28,3.3,11812300
2013-04-05,3.3,3.32,3.11,3.18,22974724
2013-04-08,3.18,3.29,3.14,3.23,8087485
2013-04-09,3.23,3.38,3.22,3.34,12460139
2013-04-10,3.4,3.44,3.3,3.4,9124000
2013-04-11,3.44,3.63,3.41,3.59,22731000
2013-04-12,3.62,3.62,3.53,3.6,10481423
2013-04-15,3.64,3.7,3.54,3.68,12835400
2013-04-16,3.62,3.63,3.5,3.54,7043910
2013-04-17,3.59,3.62,3.49,3.56,5171500
2013-04-18,3.56,3.61,3.49,3.54,7558445
2013-04-19,3.54,3.57,3.51,3.55,3152602
2013-04-22,3.5,3.61,3.47,3.53,3320504
2013-04-23,3.53,3.57,3.5,3.54,3352655
2013-04-24,3.57,3.58,3.51,3.54,3494500
2013-04-25,3.51,3.57,3.37,3.41,9516300
2013-04-26,3.4,3.45,3.37,3.39,3774300
2013-04-29,3.37,3.41,3.35,3.37,3152300
2013-04-30,3.43,3.55,3.4,3.53,5942320
2013-05-02,3.59,3.64,3.52,3.56,8098309
2013-05-03,3.57,3.64,3.52,3.57,4343019
2013-05-06,3.57,3.6,3.53,3.54,8142000
2013-05-07,3.57,3.63,3.54,3.6,11169300
2013-05-08,3.65,3.65,3.54,3.61,11529100
2013-05-09,3.65,3.87,3.63,3.86,26335954
2013-05-10,3.89,3.96,3.81,3.93,12460107
2013-05-13,3.93,3.93,3.83,3.9,4358718
2013-05-14,3.98,4.0,3.88,3.93,8744925
2013-05-15,3.97,3.97,3.87,3.9,5035927
2013-05-16,3.87,3.94,3.72,3.85,14158600
2013-05-20,3.74,3.85,3.73,3.82,11739303
2013-05-21,3.85,3.92,3.82,3.89,8747000
2013-05-22,3.89,3.89,3.67,3.68,13785000
2013-05-23,3.71,3.71,3.51,3.52,14523320
2013-05-24,3.58,3.66,3.52,3.57,6444500
2013-05-27,3.6,3.65,3.46,3.47,13182167
2013-05-28,3.44,3.55,3.44,3.53,12813274
2013-05-29,3.36,3.45,3.33,3.35,15720140
2013-05-30,3.33,3.41,3.31,3.35,14667007
2013-05-31,3.33,3.49,3.18,3.22,111452360
2013-06-03,3.19,3.25,3.12,3.16,35698344
2013-06-04,3.16,3.16,3.04,3.05,20936000
2013-06-05,3.1,3.3,3.07,3.27,28641460
2013-06-06,3.26,3.26,3.15,3.18,8270600
2013-06-07,3.18,3.35,3.18,3.26,7610000
2013-06-10,3.28,3.34,3.15,3.2,5745000
2013-06-11,3.21,3.24,3.11,3.12,5269000
2013-06-13,3.05,3.12,3.03,3.1,9165000
2013-06-14,3.1,3.18,3.03,3.04,6978600
2013-06-17,3.07,3.22,3.04,3.14,7574000
2013-06-18,3.09,3.24,3.09,3.22,5304067
2013-06-19,3.38,3.45,3.29,3.3,23105084
2013-06-20,3.26,3.26,3.18,3.21,10272000
2013-06-21,3.17,3.17,3.04,3.11,25766016
2013-06-24,3.09,3.11,3.01,3.03,20448188
2013-06-25,3.0,3.09,2.91,3.07,23886498
2013-06-26,3.11,3.19,3.07,3.18,6763000
2013-06-27,3.2,3.23,3.1,3.11,12415256
2013-06-28,3.18,3.33,3.18,3.24,14646644
2013-07-02,3.3,3.35,3.15,3.18,15131252
2013-07-03,3.14,3.22,3.12,3.14,6157601
2013-07-04,3.19,3.21,3.1,3.2,5510000
2013-07-05,3.25,3.29,3.14,3.15,2485953
2013-07-08,3.12,3.17,3.12,3.13,3248004
2013-07-09,3.13,3.17,3.06,3.07,8045786
2013-07-10,3.07,3.1,3.01,3.03,5299000
2013-07-11,3.03,3.14,3.03,3.1,6128050
2013-07-12,3.15,3.15,3.1,3.11,3735000
2013-07-15,3.12,3.23,3.11,3.21,7367928
2013-07-16,3.22,3.28,3.16,3.24,8205950
2013-07-17,3.24,3.28,3.2,3.24,5235000
2013-07-18,3.29,3.29,3.2,3.26,6142000
2013-07-19,3.27,3.27,3.17,3.17,3956601
2013-07-22,3.16,3.23,3.1,3.1,9381000
2013-07-23,3.11,3.26,3.11,3.26,7766003
2013-07-24,3.24,3.25,3.18,3.21,4900500
2013-07-25,3.22,3.27,3.21,3.24,3126766
2013-07-26,3.26,3.3,3.22,3.25,4262000
2013-07-29,3.29,3.29,3.22,3.25,2070551
2013-07-30,3.25,3.27,3.21,3.26,4562000
2013-07-31,3.22,3.25,3.14,3.16,4363019
2013-08-01,3.17,3.3,3.17,3.25,5631601
2013-08-02,3.28,3.28,3.21,3.24,2783630
2013-08-05,3.26,3.28,3.23,3.24,3630000
2013-08-06,3.28,3.28,3.22,3.24,3612000
2013-08-07,3.24,3.35,3.24,3.26,3502500
2013-08-08,3.3,3.41,3.28,3.37,8537577
2013-08-09,3.38,3.57,3.38,3.5,17118000
2013-08-12,3.4,3.4,3.21,3.3,8349085
2013-08-13,3.35,3.35,3.26,3.32,8152831
2013-08-15,3.33,3.4,3.29,3.32,4817715
2013-08-16,3.32,3.38,3.27,3.37,3864715
2013-08-19,3.37,3.38,3.27,3.28,1960000
2013-08-20,3.28,3.32,3.15,3.18,6646000
2013-08-21,3.19,3.2,3.11,3.15,5136400
2013-08-22,3.11,3.19,3.1,3.14,2214000
2013-08-23,3.15,3.2,3.11,3.12,3149901
2013-08-26,3.19,3.23,3.17,3.18,2609000
2013-08-27,3.18,3.18,3.1,3.15,3852732
2013-08-28,3.15,3.16,3.08,3.13,3888901
2013-08-29,3.09,3.14,3.09,3.1,2300175
2013-08-30,3.09,3.26,3.08,3.26,3705350
2013-09-02,3.17,3.26,3.17,3.19,1355174
2013-09-03,3.22,3.26,3.18,3.22,2441000
2013-09-04,3.25,3.26,3.19,3.21,1870544
2013-09-05,3.21,3.24,3.2,3.22,1544431
2013-09-06,3.2,3.2,3.14,3.15,2303000
2013-09-09,3.23,3.23,3.17,3.17,2336000
2013-09-10,3.21,3.24,3.17,3.23,4393557
2013-09-11,3.24,3.27,3.22,3.26,4496851
2013-09-12,3.25,3.27,3.18,3.2,3178150
2013-09-13,3.19,3.22,3.13,3.21,3546100
2013-09-16,3.24,3.24,3.16,3.17,4372000
2013-09-17,3.2,3.2,3.13,3.15,2877200
2013-09-18,3.17,3.17,3.1,3.11,4976058
2013-09-19,3.15,3.16,3.12,3.14,4777808
2013-09-23,3.17,3.18,3.08,3.09,4159754
2013-09-24,3.06,3.1,3.04,3.07,5582000
2013-09-25,3.06,3.1,2.98,2.99,15509443
2013-09-26,3.01,3.04,2.97,3.01,11780500
2013-09-27,3.01,3.09,3.01,3.05,8385776
2013-09-30,3.05,3.08,3.0,3.08,6227877
2013-10-02,3.02,3.11,3.02,3.07,2743000
2013-10-03,3.1,3.13,3.07,3.1,3771600
2013-10-04,3.08,3.09,3.03,3.04,3047000
2013-10-07,3.08,3.11,3.05,3.1,4389000
2013-10-08,3.09,3.18,3.08,3.18,7073602
2013-10-09,3.18,3.23,3.16,3.21,6025081
2013-10-10,3.22,3.25,3.18,3.24,5866100
2013-10-11,3.25,3.33,3.23,3.31,7398361
2013-10-15,3.31,3.35,3.21,3.25,5117905
2013-10-16,3.25,3.26,3.15,3.21,4273878
2013-10-17,3.25,3.29,3.23,3.24,3069000
2013-10-18,3.28,3.3,3.18,3.2,3220150
2013-10-21,3.23,3.29,3.23,3.24,2735000
2013-10-22,3.28,3.28,3.23,3.23,1952100
2013-10-23,3.25,3.27,3.15,3.18,3776000
2013-10-24,3.18,3.2,3.09,3.1,4099000
2013-10-25,3.09,3.17,3.06,3.12,4156100
2013-10-28,3.16,3.24,3.16,3.23,4086363
2013-10-29,3.24,3.28,3.18,3.21,2693000
2013-10-30,3.23,3.23,3.15,3.19,1520145
2013-10-31,3.18,3.26,3.18,3.21,2574941
2013-11-01,3.23,3.24,3.19,3.19,1022000
2013-11-04,3.18,3.25,3.16,3.17,1858908
2013-11-05,3.17,3.21,3.15,3.19,1234054
2013-11-06,3.22,3.24,3.18,3.19,1110000
2013-11-07,3.18,3.23,3.18,3.21,1439353
2013-11-08,3.21,3.21,3.16,3.18,1084865
2013-11-11,3.21,3.21,3.15,3.17,1204168
2013-11-12,3.17,3.18,3.14,3.14,1395157
2013-11-13,3.13,3.16,3.08,3.08,5796000
2013-11-14,3.11,3.14,3.08,3.13,1358000
2013-11-15,3.15,3.19,3.14,3.16,2803000
2013-11-18,3.21,3.21,3.16,3.18,2891130
2013-11-19,3.21,3.23,3.2,3.2,4099000
2013-11-20,3.24,3.25,3.17,3.17,2088646
2013-11-21,3.2,3.23,3.18,3.2,2006000
2013-11-22,3.23,3.23,3.18,3.19,2094727
2013-11-25,3.23,3.25,3.18,3.22,5740976
2013-11-26,3.24,3.24,3.17,3.18,2574226
2013-11-27,3.4,3.64,3.35,3.63,33803060
2013-11-28,3.71,3.83,3.67,3.83,35064632
2013-11-29,3.89,3.98,3.77,3.87,26597276
2013-12-02,3.91,3.91,3.78,3.89,8974000
2013-12-03,3.84,4.02,3.73,3.99,10180450
2013-12-04,3.89,4.3,3.89,4.26,24093220
2013-12-05,4.31,4.31,4.08,4.24,13956450
2013-12-06,4.31,4.32,4.13,4.15,9312100
2013-12-09,4.27,4.27,3.99,4.04,12165000
2013-12-10,4.04,4.11,4.0,4.07,14749405
2013-12-11,4.06,4.19,4.03,4.07,11586300
2013-12-12,4.11,4.11,3.92,3.97,6174000
2013-12-13,3.87,4.11,3.85,4.08,9467456
2013-12-16,4.12,4.12,4.01,4.03,2716000
2013-12-17,4.11,4.16,4.02,4.16,6419472
2013-12-18,4.23,4.23,4.02,4.07,4167517
2013-12-19,4.05,4.2,4.03,4.04,8351000
2013-12-20,4.15,4.25,4.11,4.23,18398150
2013-12-23,4.31,4.34,4.14,4.21,4140950
2013-12-24,4.17,4.28,4.13,4.25,2205701
2013-12-27,4.3,4.33,4.21,4.28,5744401
2013-12-30,4.28,4.28,4.0,4.06,9425700
2013-12-31,4.05,4.13,4.01,4.05,2677402
2014-01-02,4.02,4.07,3.94,4.01,5529850
2014-01-03,3.95,4.08,3.94,3.99,8147000
2014-01-06,4.12,4.12,3.97,4.0,9206891
2014-01-07,4.04,4.04,3.92,3.98,13737207
2014-01-08,3.98,3.98,3.75,3.78,11683410
2014-01-09,3.79,3.89,3.72,3.73,23413840
2014-01-10,3.72,3.78,3.7,3.72,3370453
2014-01-13,3.71,3.79,3.7,3.71,1524108
2014-01-14,3.77,3.78,3.61,3.68,8884299
2014-01-15,3.68,3.86,3.68,3.76,5836266
2014-01-16,3.81,3.81,3.69,3.75,3208500
2014-01-17,3.69,3.74,3.68,3.7,2151000
2014-01-20,3.75,3.8,3.69,3.77,4339100
2014-01-21,3.77,3.8,3.67,3.69,6282000
2014-01-22,3.68,3.75,3.68,3.73,14655616
2014-01-23,3.77,3.77,3.68,3.69,17391218
2014-01-24,3.65,3.73,3.65,3.73,13707000
2014-01-27,3.73,3.73,3.65,3.69,5191109
2014-01-28,3.66,3.75,3.66,3.72,3666145
2014-01-29,3.78,3.92,3.76,3.87,6073044
2014-01-30,3.78,3.83,3.69,3.72,3292000
2014-02-04,3.72,3.77,3.65,3.72,8360655
2014-02-05,3.76,3.76,3.61,3.65,5184000
2014-02-06,3.68,3.73,3.65,3.69,5748000
2014-02-07,3.73,3.84,3.71,3.81,6160419
2014-02-10,3.76,3.81,3.75,3.79,4785000
2014-02-11,3.66,3.71,3.66,3.67,8141748
2014-02-12,3.66,3.71,3.65,3.66,7786075
2014-02-13,3.66,3.78,3.65,3.76,4823224
2014-02-14,3.75,3.81,3.71,3.8,1734400
2014-02-17,3.81,3.87,3.76,3.8,3412000
2014-02-18,3.85,3.85,3.78,3.79,1796331
2014-02-19,3.78,3.78,3.67,3.76,2734219
2014-02-20,3.72,3.79,3.67,3.76,3951000
2014-02-21,3.76,3.76,3.69,3.71,2734754
2014-02-24,3.69,3.7,3.65,3.66,4787000
2014-02-25,3.64,3.66,3.5,3.53,6163000
2014-02-26,3.51,3.59,3.43,3.56,4008000
2014-02-27,3.54,3.56,3.45,3.46,3059100
2014-02-28,3.41,3.54,3.41,3.54,5173000
2014-03-03,3.57,3.62,3.5,3.61,3957800
2014-03-04,3.58,3.62,3.52,3.61,2770184
2014-03-05,3.64,3.81,3.64,3.8,8659532
2014-03-06,3.81,3.81,3.58,3.6,15482584
2014-03-07,3.64,3.67,3.49,3.51,3988050
2014-03-10,3.53,3.53,3.31,3.33,9443300
2014-03-11,3.35,3.42,3.2,3.23,17861956
2014-03-12,3.23,3.26,3.18,3.2,9861000
2014-03-13,3.22,3.33,3.16,3.29,7406757
2014-03-14,3.31,3.31,3.21,3.25,4192961
2014-03-17,3.28,3.44,3.25,3.43,7120380
2014-03-18,3.46,3.5,3.28,3.5,8754000
2014-03-19,3.57,3.66,3.44,3.46,5247500
2014-03-20,3.43,3.45,3.31,3.36,6447232
2014-03-21,3.39,3.43,3.31,3.41,2849200
2014-03-24,3.4,3.44,3.33,3.39,2610218
2014-03-25,3.43,3.46,3.3,3.39,4190000
2014-03-26,3.31,3.46,3.31,3.45,3046000
2014-03-27,3.46,3.46,3.33,3.36,4704158
2014-03-28,3.42,3.46,3.36,3.45,2725000
2014-03-31,3.49,3.55,3.37,3.39,5913000
2014-04-01,3.46,3.62,3.44,3.61,6835000
2014-04-02,3.57,3.64,3.46,3.64,5916000
2014-04-03,3.61,3.64,3.53,3.62,2975000
2014-04-04,3.61,3.63,3.57,3.59,2749150
2014-04-07,3.63,3.66,3.59,3.63,3288843
2014-04-08,3.55,3.56,3.46,3.47,3420000
2014-04-09,3.52,3.54,3.42,3.5,3129300
2014-04-10,3.48,3.63,3.46,3.61,6415640
2014-04-11,3.62,3.78,3.6,3.66,10131000
2014-04-14,3.64,3.64,3.53,3.57,2071500
2014-04-15,3.57,3.71,3.57,3.62,1994000
2014-04-16,3.66,3.76,3.61,3.63,4506000
2014-04-17,3.63,3.75,3.63,3.7,3594144
2014-04-22,3.69,3.75,3.66,3.71,1591208
2014-04-23,3.71,3.71,3.65,3.67,2750000
2014-04-24,3.71,3.75,3.67,3.74,4654336
2014-04-25,3.71,3.74,3.66,3.67,2625000
2014-04-28,3.66,3.66,3.55,3.59,2242000
2014-04-29,3.57,3.62,3.45,3.49,3853702
2014-04-30,3.46,3.56,3.46,3.49,2535243
2014-05-02,3.47,3.49,3.43,3.45,2277000
2014-05-05,3.46,3.46,3.39,3.42,2341701
2014-05-07,3.43,3.5,3.39,3.45,4209097
2014-05-08,3.44,3.51,3.41,3.41,2119900
2014-05-09,3.38,3.4,3.32,3.32,6049000
2014-05-12,3.31,3.35,3.31,3.32,2387000
2014-05-13,3.35,3.36,3.32,3.33,2282941
2014-05-14,3.35,3.38,3.33,3.35,4400000
2014-05-15,3.38,3.42,3.35,3.39,958000
2014-05-16,3.34,3.38,3.33,3.34,1887000
2014-05-19,3.34,3.42,3.34,3.41,2279443
2014-05-20,3.41,3.42,3.35,3.37,1620000
2014-05-21,3.36,3.43,3.36,3.4,926000
2014-05-22,3.37,3.43,3.37,3.4,2232000
2014-05-23,3.4,3.5,3.4,3.48,2303000
2014-05-26,3.47,3.47,3.4,3.42,1553000
2014-05-27,3.42,3.43,3.34,3.36,2383203
2014-05-28,3.4,3.4,3.33,3.35,4156000
2014-05-29,3.37,3.41,3.35,3.36,3499782
2014-05-30,3.43,3.45,3.4,3.44,6195000
2014-06-03,3.51,3.6,3.47,3.48,10290056
2014-06-04,3.54,3.58,3.53,3.58,5334000
2014-06-05,3.61,3.64,3.56,3.63,1592000
2014-06-06,3.56,3.66,3.56,3.62,2456000
2014-06-09,3.65,3.74,3.62,3.7,3457551
2014-06-10,3.69,3.75,3.66,3.74,3328000
2014-06-11,3.75,3.75,3.68,3.72,1786000
2014-06-12,3.72,3.78,3.67,3.75,3144441
2014-06-13,3.77,3.84,3.67,3.8,4515055
2014-06-16,3.81,3.9,3.72,3.86,2874000
2014-06-17,3.88,3.89,3.8,3.84,2723968
2014-06-18,3.9,3.9,3.66,3.76,5199000
2014-06-19,3.99,4.23,3.98,4.1,20840700
2014-06-20,4.1,4.31,4.1,4.2,9919000
2014-06-23,4.23,4.24,4.04,4.05,8956451
2014-06-24,4.08,4.21,4.08,4.2,7094000
2014-06-25,4.16,4.25,4.12,4.19,5506881
2014-06-26,4.2,4.28,4.19,4.27,4705500
2014-06-27,4.28,4.32,4.22,4.32,4169466
2014-06-30,4.52,4.52,4.28,4.37,5441972
2014-07-02,4.43,4.48,4.33,4.41,5796153
2014-07-03,4.4,4.4,4.24,4.3,4991162
2014-07-04,4.31,4.38,4.21,4.29,11686000
2014-07-07,4.29,4.41,4.29,4.35,9306025
2014-07-08,4.32,4.42,4.32,4.38,7416903
2014-07-09,4.38,4.38,4.23,4.26,10799000
2014-07-10,4.31,4.47,4.31,4.44,6388722
2014-07-11,4.49,4.78,4.45,4.66,15640200
2014-07-14,4.75,4.94,4.64,4.68,10989213
2014-07-15,4.67,4.74,4.64,4.73,4884000
2014-07-16,4.76,4.84,4.6,4.69,8504235
2014-07-17,4.78,4.98,4.76,4.93,14139211
2014-07-18,4.93,5.04,4.78,4.95,12079500
2014-07-21,5.19,5.4,5.04,5.19,11356000
2014-07-22,5.42,5.42,5.11,5.18,9686000
2014-07-23,5.18,5.21,4.99,5.1,11765054
2014-07-24,5.1,5.32,5.09,5.24,18772500
2014-07-25,5.23,5.5,5.22,5.45,18059992
2014-07-28,5.51,5.51,5.36,5.44,4214500
2014-07-29,5.53,5.57,5.43,5.51,10718000
2014-07-30,5.47,5.47,5.28,5.37,15863000
2014-07-31,5.43,5.47,5.37,5.39,5220500
2014-08-01,5.37,5.48,5.16,5.45,4061313
2014-08-04,5.39,5.44,5.26,5.38,5428007
2014-08-05,5.4,5.42,5.29,5.38,4812000
2014-08-06,5.37,5.38,5.28,5.34,3347000
2014-08-07,5.41,5.42,5.02,5.15,12173700
2014-08-08,5.16,5.22,5.0,5.07,6022000
2014-08-11,5.12,5.22,4.87,5.13,5153000
2014-08-12,5.06,5.13,4.83,4.91,11710000
2014-08-13,4.91,5.15,4.91,5.06,5224562
2014-08-14,5.08,5.28,5.04,5.19,8164500
2014-08-15,5.4,5.4,5.19,5.27,3120170
2014-08-18,5.28,5.28,5.03,5.11,3871900
2014-08-19,5.16,5.3,5.11,5.27,3552087
2014-08-20,5.23,5.31,5.14,5.16,5279000
2014-08-21,5.11,5.21,5.07,5.12,3846255
2014-08-22,5.05,5.28,5.05,5.24,3124834
2014-08-25,5.24,5.35,5.16,5.28,4674300
2014-08-26,5.28,5.34,5.21,5.32,1821200
2014-08-27,5.19,5.28,5.08,5.14,7191000
2014-08-28,5.11,5.3,5.11,5.25,2815500
2014-08-29,5.14,5.55,5.14,5.43,5598000
2014-09-01,5.4,5.52,5.36,5.49,2887216
2014-09-02,5.49,5.52,5.36,5.51,5616000
2014-09-03,5.41,5.63,5.41,5.55,6241602
2014-09-04,5.49,5.92,5.48,5.88,13710250
2014-09-05,5.92,5.93,5.72,5.92,6480000
2014-09-08,5.9,5.93,5.72,5.76,1868805
2014-09-10,5.77,5.82,5.64,5.75,3941700
2014-09-11,5.67,5.86,5.64,5.8,3175082
2014-09-12,5.71,5.92,5.55,5.81,5063000
2014-09-15,5.82,5.82,5.7,5.81,1792000
2014-09-16,5.77,5.79,5.55,5.57,2433014
2014-09-17,5.55,5.83,5.51,5.81,4279210
2014-09-18,5.71,5.9,5.71,5.8,4524400
2014-09-19,5.86,5.86,5.75,5.82,5030624
2014-09-22,5.78,5.85,5.74,5.79,2707160
2014-09-23,5.72,5.86,5.63,5.82,3445102
2014-09-24,5.85,6.09,5.82,6.08,9714554
2014-09-25,6.08,6.22,5.98,6.11,5995014
2014-09-26,6.07,6.22,5.99,6.18,4347851
2014-09-29,6.11,6.11,5.77,5.85,7058000
2014-09-30,5.79,5.91,5.75,5.78,7225558
2014-10-03,5.61,5.87,5.53,5.77,7463845
2014-10-06,5.79,5.85,5.75,5.79,7148615
2014-10-07,5.79,5.98,5.79,5.85,4906000
2014-10-08,5.74,5.86,5.74,5.77,4954835
2014-10-09,5.79,5.84,5.79,5.81,3650000
2014-10-10,5.79,5.81,5.56,5.57,7189825
2014-10-13,5.54,5.67,5.53,5.57,5741112
2014-10-14,5.5,5.7,5.5,5.58,4286000
2014-10-15,5.55,5.65,5.53,5.55,5961614
2014-10-16,5.55,5.72,5.5,5.66,5809000
2014-10-17,5.6,5.87,5.6,5.86,7607000
2014-10-20,5.86,5.89,5.75,5.84,4965000
2014-10-21,5.77,5.81,5.41,5.51,16353378
2014-10-22,5.57,5.75,5.55,5.6,3694850
2014-10-23,5.64,5.67,5.5,5.55,3837000
2014-10-24,5.55,5.59,5.46,5.56,3891000
2014-10-27,5.52,5.56,5.45,5.49,4642975
2014-10-28,5.49,5.55,5.11,5.18,13164994
2014-10-29,5.21,5.37,5.21,5.32,4833000
2014-10-30,5.3,5.42,5.29,5.33,3325028
2014-10-31,5.36,5.48,5.31,5.34,5144000
2014-11-03,5.31,5.49,5.31,5.35,3420940
2014-11-04,5.38,5.43,5.3,5.3,5763000
2014-11-05,5.35,5.35,5.2,5.22,3886765
2014-11-06,5.21,5.72,5.2,5.7,8159411
2014-11-07,5.65,5.75,5.55,5.67,3644832
2014-11-10,5.71,5.81,5.62,5.71,5457175
2014-11-11,5.72,5.79,5.58,5.62,4991574
2014-11-12,5.57,5.73,5.57,5.69,1781028
2014-11-13,5.67,5.79,5.6,5.68,4275000
2014-11-14,5.73,5.73,5.52,5.68,3697200
2014-11-17,5.8,5.84,5.65,5.75,3783000
2014-11-18,5.8,6.03,5.79,5.88,10309500
2014-11-19,5.98,5.99,5.88,5.97,3845409
2014-11-20,6.48,6.63,6.16,6.44,19581632
2014-11-21,6.36,6.55,6.29,6.44,10448989
2014-11-24,6.56,6.69,6.54,6.6,9798642
2014-11-25,6.56,6.7,6.41,6.63,5545778
2014-11-26,6.61,6.7,6.49,6.63,6193477
2014-11-27,6.66,6.68,6.56,6.62,3136539
2014-11-28,6.57,6.68,6.57,6.63,4293900
2014-12-01,6.65,6.75,6.51,6.57,10835422
2014-12-02,6.42,6.51,6.09,6.13,10789869
2014-12-03,6.13,6.29,6.12,6.17,7915009
2014-12-04,6.27,6.36,6.18,6.27,14601600
2014-12-05,6.3,6.63,6.25,6.53,12027827
2014-12-08,6.48,6.62,6.28,6.33,4934551
2014-12-09,6.37,6.45,6.27,6.36,10470191
2014-12-10,6.26,6.42,6.22,6.27,4151660
2014-12-11,6.29,6.52,6.19,6.41,5742462
2014-12-12,6.39,6.39,6.12,6.2,4778000
2014-12-15,6.17,6.3,6.15,6.25,4112000
2014-12-16,6.17,6.27,6.08,6.1,4379650
2014-12-17,6.17,6.22,6.02,6.07,5495800
2014-12-18,5.98,6.19,5.91,5.97,4293565
2014-12-19,5.97,6.35,5.94,6.15,7513149
2014-12-22,6.11,6.27,6.08,6.16,4350000
2014-12-23,6.09,6.25,6.08,6.19,3819000
2014-12-24,6.24,6.24,6.03,6.17,819640
2014-12-29,6.17,6.27,6.01,6.12,3665000
2014-12-30,6.09,6.13,6.01,6.12,5962000
2014-12-31,6.1,6.15,6.03,6.1,1649000
2015-01-02,6.15,6.19,6.09,6.17,2732071
2015-01-05,6.23,6.39,6.18,6.25,7719000
2015-01-06,6.27,6.32,6.22,6.28,19716544
2015-01-07,6.29,6.36,6.19,6.19,6611067
2015-01-08,6.18,6.3,6.17,6.24,4565102
2015-01-09,6.27,6.4,6.17,6.2,7311900
2015-01-12,6.17,6.18,6.01,6.08,3004000
2015-01-13,6.05,6.29,6.05,6.24,4423000
2015-01-14,6.2,6.31,6.18,6.2,3092800
2015-01-15,6.17,6.2,6.09,6.19,2982092
2015-01-16,6.25,6.32,6.13,6.16,2859000
2015-01-17,5.54,5.54,5.54,5.54,0
2015-01-19,6.22,6.23,5.9,5.92,4046000
2015-01-20,5.88,6.03,5.88,5.94,2579922
2015-01-21,5.99,6.09,5.88,5.92,4934842
2015-01-22,5.96,5.96,5.82,5.93,3091000
2015-01-23,5.99,6.01,5.92,5.93,6905857
2015-01-26,5.89,5.97,5.81,5.85,4032700
2015-01-27,5.91,5.99,5.91,5.94,7426889
2015-01-28,5.98,5.99,5.85,5.89,4482992
2015-01-29,5.91,5.91,5.82,5.82,4103000
2015-01-30,5.88,5.95,5.82,5.89,6292541
2015-02-02,5.82,5.91,5.8,5.87,9188652
2015-02-03,5.93,6.11,5.85,6.02,12774649
2015-02-04,6.15,6.15,5.97,6.02,7978067
2015-02-05,5.89,6.07,5.89,6.02,7226000
2015-02-06,6.03,6.04,5.97,6.01,4430600
2015-02-09,5.93,5.94,5.76,5.82,4292903
2015-02-10,5.83,5.85,5.6,5.76,9364931
2015-02-11,5.85,5.94,5.83,5.9,6867538
2015-02-12,5.96,5.97,5.85,5.91,7487196
2015-02-13,5.98,6.13,5.96,6.11,8596000
2015-02-16,6.14,6.14,6.01,6.07,2231000
2015-02-17,6.02,6.05,5.9,5.92,1452694
2015-02-18,5.9,6.01,5.9,5.96,1553000
2015-02-23,6.03,6.03,5.87,5.95,9138468
2015-02-24,5.92,6.05,5.87,5.94,8721490
2015-02-25,5.98,6.03,5.91,5.92,6943119
2015-02-26,5.89,5.97,5.86,5.9,5401700
2015-02-27,5.89,5.93,5.85,5.88,6672348
2015-03-02,5.95,5.98,5.88,5.92,2970847
2015-03-03,5.95,6.02,5.95,5.98,6756265
2015-03-04,5.99,6.08,5.9,5.99,3850000
2015-03-05,5.94,6.16,5.94,6.12,9682500
2015-03-06,6.18,6.24,6.09,6.1,6106473
2015-03-09,6.05,6.12,5.92,5.96,3993106
2015-03-10,6.04,6.08,5.97,6.05,8720000
2015-03-11,5.92,6.11,5.84,5.85,5423438
2015-03-12,5.97,6.01,5.87,5.89,7116958
2015-03-13,5.97,5.97,5.85,5.9,5391123
2015-03-16,5.96,5.96,5.83,5.84,3249859
2015-03-17,5.88,5.94,5.85,5.89,4481792
2015-03-18,5.83,5.94,5.83,5.87,3979849
2015-03-19,5.85,5.9,5.78,5.83,2533000
2015-03-20,5.8,5.85,5.67,5.72,3441380
2015-03-23,5.79,5.87,5.72,5.76,3453766
2015-03-24,5.79,5.8,5.6,5.65,3746400
2015-03-25,5.75,5.77,5.61,5.65,1854273
2015-03-26,5.61,5.63,5.38,5.43,5630000
2015-03-27,5.48,5.58,5.44,5.49,4920000
2015-03-30,5.49,5.73,5.49,5.65,8379955
2015-03-31,5.65,5.83,5.64,5.77,7704601
2015-04-01,5.81,5.88,5.74,5.85,5835130
2015-04-02,5.85,5.89,5.7,5.84,4915000
2015-04-08,5.9,6.23,5.85,6.12,16756718
2015-04-09,6.5,7.11,6.46,7.1,22376948
2015-04-10,7.19,7.21,6.77,7.01,15516800
2015-04-13,6.93,7.25,6.85,7.03,15421606
2015-04-14,7.08,7.11,6.84,6.91,7490895
2015-04-15,6.91,6.99,6.76,6.9,5782800
2015-04-16,6.93,7.31,6.86,7.29,8528099
2015-04-17,7.31,7.36,7.15,7.3,7568510
2015-04-20,7.01,7.5,7.01,7.29,14138365
2015-04-21,7.25,7.75,7.23,7.53,12177200
2015-04-22,7.57,7.7,7.48,7.62,5364050
2015-04-23,7.67,7.7,7.5,7.61,5069893
2015-04-24,7.61,8.48,7.6,8.37,24298444
2015-04-27,8.28,9.31,8.26,8.88,15508043
2015-04-28,8.61,8.65,8.36,8.45,22985946
2015-04-29,8.42,8.7,8.29,8.52,6191000
2015-04-30,8.43,8.82,8.4,8.73,15621446
2015-05-04,8.64,8.76,8.39,8.65,16031610
2015-05-05,8.59,8.78,8.08,8.3,5007225
2015-05-06,8.1,8.1,7.5,7.61,14652903
2015-05-07,7.55,7.73,7.43,7.5,12171421
2015-05-08,7.67,7.78,7.53,7.72,8762400
2015-05-11,7.72,7.74,7.3,7.51,12992811
2015-05-12,7.5,7.76,7.41,7.65,7188200
2015-05-13,7.69,7.71,7.2,7.29,7229771
2015-05-14,7.33,7.54,7.29,7.5,12100000
2015-05-15,7.42,7.55,7.26,7.44,5989900
2015-05-18,7.44,7.7,7.1,7.62,11402750
2015-05-19,7.62,7.9,7.57,7.69,7906000
2015-05-20,7.69,7.78,7.45,7.64,6102600
2015-05-21,7.73,7.75,7.36,7.45,7596540
2015-05-22,7.49,7.53,7.28,7.44,6536700
2015-05-26,7.5,7.73,7.3,7.7,10580000
2015-05-27,7.78,8.1,7.6,7.99,18388758
2015-05-28,8.0,8.37,7.42,7.61,6581734
2015-05-29,7.71,7.71,7.4,7.48,10540068
2015-06-01,7.48,7.56,7.35,7.44,4671510
2015-06-02,7.45,7.48,7.21,7.26,5815255
2015-06-03,7.34,7.5,7.23,7.26,11231000
2015-06-04,7.34,7.41,7.06,7.19,6302150
2015-06-05,7.27,7.55,7.09,7.39,11460252
2015-06-08,7.48,7.51,7.26,7.37,6747000
2015-06-09,7.66,7.66,6.91,6.91,7435097
2015-06-10,6.92,7.16,6.91,7.01,4292300
2015-06-11,6.96,7.2,6.88,6.94,2266400
2015-06-12,7.07,7.1,6.87,7.03,5689060
2015-06-15,6.92,7.29,6.92,6.99,5291000
2015-06-16,6.84,7.07,6.79,6.93,3933885
2015-06-17,6.95,6.95,6.6,6.87,7769945
2015-06-18,6.95,7.15,6.9,6.93,3551756
2015-06-19,6.9,6.91,6.54,6.56,6002157
2015-06-22,6.66,6.94,6.62,6.76,4268880
2015-06-23,6.89,6.9,6.67,6.78,4361322
2015-06-24,6.5,6.52,5.55,5.59,25049324
2015-06-25,5.58,5.7,5.06,5.2,31758000
2015-06-26,5.25,5.34,4.92,4.96,23290000
2015-06-29,4.98,4.98,4.56,4.64,27319000
2015-06-30,4.68,4.78,4.47,4.67,23150408
2015-07-02,4.64,4.67,4.19,4.27,19233176
2015-07-03,4.21,4.31,4.01,4.02,12809000
2015-07-06,4.5,4.5,3.5,3.77,27660500
2015-07-07,3.66,3.72,3.29,3.3,25792624
2015-07-08,3.4,3.46,2.85,2.96,43370504
2015-07-09,3.07,3.96,3.07,3.87,33375488
2015-07-10,3.87,4.09,3.74,3.84,37702720
2015-07-13,3.93,4.14,3.75,4.14,21764354
2015-07-14,4.18,4.23,3.91,3.95,18004590
2015-07-15,4.04,4.04,3.85,3.9,7706000
2015-07-16,3.83,3.97,3.65,3.82,23852200
2015-07-17,3.88,3.91,3.77,3.87,26467580
2015-07-20,3.89,4.08,3.83,3.99,21238880
2015-07-21,3.99,4.16,3.92,4.09,15019000
2015-07-22,4.0,4.02,3.92,3.99,14382090
2015-07-23,4.0,4.02,3.95,4.0,3961000
2015-07-24,4.0,4.02,3.92,3.94,5910000
2015-07-27,3.86,3.92,3.63,3.66,10376427
2015-07-28,3.63,3.8,3.51,3.64,9766515
2015-07-29,3.79,3.86,3.65,3.84,12781010
2015-07-30,3.88,3.9,3.69,3.7,7331520
2015-07-31,3.69,3.92,3.69,3.77,9908805
2015-08-03,3.8,3.86,3.65,3.68,6113000
2015-08-04,3.78,3.9,3.73,3.84,11083064
2015-08-05,3.87,4.0,3.74,3.77,7681000
2015-08-06,3.79,3.82,3.73,3.75,5002960
2015-08-07,3.7,3.79,3.7,3.74,7029000
2015-08-10,3.77,3.93,3.72,3.9,5093000
2015-08-11,3.83,4.03,3.83,3.94,7251000
2015-08-12,3.87,3.89,3.75,3.8,9672000
2015-08-13,3.78,3.85,3.74,3.79,4395863
2015-08-14,3.81,3.84,3.75,3.82,3277150
2015-08-17,3.7,3.7,3.16,3.18,27505500
2015-08-18,3.2,3.33,3.13,3.24,14307966
2015-08-19,3.27,3.29,3.11,3.26,8228909
2015-08-20,3.25,3.25,3.1,3.12,7279000
2015-08-21,3.07,3.14,2.95,3.03,7767000
2015-08-24,2.92,2.94,2.8,2.81,10888000
2015-08-25,2.78,2.8,2.38,2.46,31042232
2015-08-26,2.5,2.61,2.38,2.52,18344692
2015-08-27,2.62,2.63,2.52,2.63,17924700
2015-08-28,2.62,2.65,2.55,2.62,19491000
2015-08-31,2.62,2.7,2.5,2.58,9651349
2015-09-01,2.51,2.64,2.45,2.47,4704460
2015-09-02,2.47,2.5,2.26,2.26,14073634
2015-09-04,2.35,2.49,2.3,2.46,14684854
2015-09-07,2.49,2.5,2.34,2.36,11661000
2015-09-08,2.4,2.57,2.39,2.55,13543600
2015-09-09,2.63,2.77,2.58,2.68,19174000
2015-09-10,2.62,2.72,2.61,2.64,9187208
2015-09-11,2.65,2.76,2.64,2.68,5311320
2015-09-14,2.64,2.79,2.64,2.73,7212000
2015-09-15,2.73,2.73,2.62,2.65,6524480
2015-09-16,2.65,2.83,2.65,2.82,9791600
2015-09-17,2.8,2.9,2.75,2.83,9384000
2015-09-18,2.89,2.95,2.8,2.87,8934855
2015-09-21,2.8,2.91,2.77,2.89,6676107
2015-09-22,2.85,2.98,2.85,2.89,6227000
2015-09-23,2.83,2.89,2.8,2.84,6224661
2015-09-24,2.91,2.91,2.8,2.83,4191000
2015-09-25,2.9,2.9,2.66,2.74,12483290
2015-09-29,2.68,2.69,2.49,2.49,11259304
2015-09-30,2.49,2.63,2.38,2.45,23748986
2015-10-02,2.4,2.62,2.4,2.59,13622200
2015-10-05,2.6,2.67,2.53,2.57,8477090
2015-10-06,2.61,2.64,2.51,2.54,5332813
2015-10-07,2.53,2.85,2.53,2.78,13838000
2015-10-08,2.78,2.84,2.69,2.72,11854469
2015-10-09,2.78,2.83,2.7,2.74,12655880
2015-10-12,2.82,2.9,2.76,2.9,9228600
2015-10-13,2.87,3.15,2.85,3.0,20276400
2015-10-14,3.0,3.07,2.94,2.97,7332382
2015-10-15,2.99,3.04,2.91,2.97,11804978
2015-10-16,3.05,3.08,2.98,3.06,5447100
2015-10-19,3.04,3.1,3.01,3.08,5312074
2015-10-20,3.1,3.1,3.0,3.04,3052000
2015-10-22,3.03,3.03,2.91,3.0,5482804
2015-10-23,3.05,3.12,2.99,3.03,7835000
2015-10-26,3.09,3.1,3.02,3.06,4197550
2015-10-27,3.1,3.19,2.99,3.17,10009626
2015-10-28,3.2,3.45,3.13,3.4,19252382
2015-10-29,3.41,3.46,3.39,3.43,10436000
2015-10-30,3.47,3.47,3.22,3.25,8943000
2015-11-02,3.27,3.27,3.1,3.15,8676000
2015-11-03,3.19,3.26,3.13,3.15,8480000
2015-11-04,3.18,3.24,3.03,3.19,11782000
2015-11-05,3.25,3.25,3.08,3.12,6431480
2015-11-06,3.08,3.2,3.08,3.15,6902227
2015-11-09,3.19,3.19,3.1,3.14,4247000
2015-11-10,3.12,3.16,3.08,3.11,3271000
2015-11-11,3.1,3.12,3.04,3.06,6100183
2015-11-12,3.07,3.12,3.03,3.08,3748820
2015-11-13,3.05,3.11,3.03,3.04,5927305
2015-11-16,3.0,3.03,2.85,2.89,9786872
2015-11-17,2.96,3.08,2.95,3.01,12818550
2015-11-18,3.02,3.02,2.89,2.95,9092269
2015-11-19,2.7,2.88,2.6,2.78,20375000
2015-11-20,2.81,2.83,2.71,2.75,13054000
2015-11-23,2.78,2.78,2.58,2.59,23121000
2015-11-24,2.57,2.63,2.55,2.58,12694217
2015-11-25,2.55,2.6,2.5,2.52,19107702
2015-11-26,2.51,2.57,2.47,2.48,11163000
2015-11-27,2.51,2.52,2.43,2.47,13117926
2015-11-30,2.45,2.51,2.43,2.46,14442000
2015-12-01,2.48,2.52,2.46,2.5,16470000
2015-12-02,2.52,2.56,2.5,2.53,10726480
2015-12-03,2.53,2.57,2.52,2.52,8169000
2015-12-04,2.48,2.5,2.46,2.48,10281000
2015-12-07,2.52,2.61,2.49,2.59,8826000
2015-12-08,2.55,2.6,2.51,2.55,7967000
2015-12-09,2.52,2.56,2.44,2.44,7503167
2015-12-10,2.49,2.5,2.4,2.41,6769360
2015-12-11,2.42,2.47,2.4,2.43,9665169
2015-12-14,2.4,2.59,2.38,2.57,8155000
2015-12-15,2.52,2.54,2.44,2.45,12343620
2015-12-16,2.5,2.51,2.45,2.48,7874379
2015-12-17,2.47,2.53,2.46,2.48,7368000
2015-12-18,2.43,2.47,2.43,2.44,5799265
2015-12-21,2.41,2.48,2.41,2.47,2874490
2015-12-22,2.46,2.5,2.45,2.48,2931702
2015-12-23,2.46,2.56,2.46,2.53,5427120
2015-12-24,2.54,2.6,2.54,2.57,3416000
2015-12-28,2.57,2.72,2.54,2.7,22407000
2015-12-29,2.68,2.77,2.66,2.67,16036545
2015-12-30,2.74,2.86,2.69,2.75,21145866
2015-12-31,2.77,2.86,2.69,2.83,8283269
2016-01-04,2.81,2.81,2.63,2.66,10528854
2016-01-05,2.68,2.76,2.63,2.7,11724062
2016-01-06,2.66,2.74,2.63,2.71,7247569
2016-01-07,2.66,2.68,2.53,2.61,11725000
2016-01-08,2.65,2.72,2.56,2.66,11317000
2016-01-11,2.65,2.65,2.51,2.53,10636000
2016-01-12,2.54,2.59,2.5,2.51,8685480
2016-01-13,2.57,2.7,2.54,2.65,16724576
2016-01-14,2.65,2.81,2.59,2.8,20906724
2016-01-15,2.75,2.76,2.62,2.63,16639000
2016-01-18,2.58,2.68,2.5,2.64,15085290
2016-01-19,2.66,2.76,2.64,2.74,12779000
2016-01-20,2.67,2.8,2.66,2.76,25388000
2016-01-21,2.75,3.07,2.71,2.95,35737576
2016-01-22,2.98,2.99,2.79,2.89,13226539
2016-01-25,2.9,2.98,2.85,2.88,8797572
2016-01-26,2.83,2.96,2.74,2.79,10970852
2016-01-27,2.89,2.89,2.72,2.83,6967000
2016-01-28,2.8,2.83,2.75,2.8,4003000
2016-01-29,2.82,2.94,2.73,2.87,9087000
2016-02-01,2.89,2.98,2.8,2.81,7434000
2016-02-02,2.8,3.01,2.78,2.95,21691786
2016-02-03,2.84,3.07,2.84,3.0,20085110
2016-02-04,2.97,3.03,2.96,2.97,3733100
2016-02-05,3.0,3.06,2.92,2.94,3988361
2016-02-11,2.82,2.92,2.76,2.8,4261000
2016-02-12,2.72,2.82,2.72,2.76,7548576
2016-02-15,2.77,3.01,2.77,2.97,15144000
2016-02-16,3.0,3.03,2.93,3.01,12201000
2016-02-17,3.05,3.08,2.91,3.01,15051000
2016-02-18,3.06,3.08,2.95,2.99,6679074
2016-02-19,2.99,3.0,2.93,2.95,4555770
2016-02-22,3.0,3.0,2.91,2.95,5671000
2016-02-23,2.95,2.97,2.85,2.86,9117248
2016-02-24,2.86,2.88,2.79,2.87,7813000
2016-02-25,2.89,2.89,2.74,2.79,9355000
2016-02-26,2.83,2.84,2.74,2.8,4585000
2016-02-29,2.76,2.81,2.66,2.68,6472000
2016-03-01,2.73,2.75,2.62,2.75,8231200
2016-03-02,2.77,2.87,2.75,2.78,9854672
2016-03-03,2.78,2.8,2.73,2.75,7080000
2016-03-04,2.74,2.83,2.74,2.8,6237736
2016-03-07,2.8,2.87,2.73,2.77,10754288
2016-03-08,2.78,2.8,2.69,2.76,8746480
2016-03-09,2.77,2.78,2.7,2.73,4282940
2016-03-10,2.74,2.74,2.67,2.67,3601528
2016-03-11,2.67,2.72,2.66,2.7,3185394
2016-03-14,2.73,2.77,2.7,2.76,3759648
2016-03-15,2.74,2.81,2.72,2.79,6674000
2016-03-16,2.84,2.88,2.75,2.81,25692000
2016-03-17,2.86,2.86,2.78,2.8,4075165
2016-03-18,2.8,2.84,2.79,2.83,5515524
2016-03-21,2.85,2.98,2.82,2.96,13120402
2016-03-22,2.98,3.02,2.93,2.95,13646486
2016-03-23,2.97,3.03,2.93,3.0,9325000
2016-03-24,2.97,3.06,2.95,2.96,8909000
2016-03-29,2.98,3.01,2.93,2.98,4121000
2016-03-30,3.0,3.0,2.92,2.97,7159860
2016-03-31,2.96,2.98,2.9,2.92,6203164
2016-04-01,2.92,2.92,2.87,2.9,5977000
2016-04-05,2.94,2.94,2.77,2.84,8641832
2016-04-06,2.84,2.87,2.8,2.83,4286404
2016-04-07,2.87,2.89,2.8,2.83,5413000
2016-04-08,2.84,2.9,2.8,2.9,6007968
2016-04-11,2.9,2.98,2.88,2.93,4266000
2016-04-12,2.95,2.96,2.9,2.94,3664000
2016-04-13,2.93,2.98,2.91,2.92,6953000
2016-04-14,2.94,2.95,2.85,2.91,5457576
2016-04-15,2.91,2.95,2.87,2.9,4798662
2016-04-18,2.89,2.93,2.84,2.91,2478050
2016-04-19,2.93,2.94,2.87,2.9,2214840
2016-04-20,2.92,2.92,2.88,2.91,3022152
2016-04-21,2.92,3.01,2.9,2.97,5211000
2016-04-22,3.0,3.0,2.9,2.9,3015000
2016-04-25,2.9,2.94,2.9,2.93,3017603
2016-04-26,2.93,2.93,2.82,2.89,4930511
2016-04-27,2.9,2.96,2.87,2.89,3972000
2016-04-28,2.9,3.03,2.89,3.02,15955100
2016-04-29,3.04,3.13,2.95,3.06,15530000
2016-05-03,3.06,3.26,3.04,3.2,18791500
2016-05-04,3.2,3.37,3.14,3.33,19696500
2016-05-05,3.26,3.33,3.21,3.23,12792000
2016-05-06,3.23,3.27,3.15,3.22,11660397
2016-05-09,3.2,3.26,3.12,3.24,10239094
2016-05-10,3.25,3.25,3.15,3.18,7429000
2016-05-11,3.2,3.24,3.15,3.19,9328000
2016-05-12,3.29,3.29,3.08,3.1,12845000
2016-05-13,3.1,3.18,3.06,3.15,7382000
2016-05-16,3.11,3.13,3.03,3.1,5119000
2016-05-17,3.11,3.14,3.05,3.11,5127000
2016-05-18,3.12,3.12,3.03,3.06,6736802
2016-05-19,3.08,3.11,3.0,3.02,6433000
2016-05-20,3.02,3.11,3.02,3.07,4402000
2016-05-23,3.1,3.11,3.02,3.03,6605000
2016-05-24,3.05,3.07,3.02,3.06,3004000
2016-05-25,3.08,3.09,2.95,2.95,4859534
2016-05-26,2.98,3.03,2.95,2.99,4088395
2016-05-27,3.0,3.04,2.97,2.99,4153000
2016-05-30,3.02,3.06,2.97,3.0,2522000
2016-05-31,2.98,3.07,2.97,3.01,5701809
2016-06-01,3.02,3.08,3.02,3.05,3246000
2016-06-02,3.05,3.08,3.01,3.05,3133000
2016-06-03,3.07,3.07,3.03,3.05,5063500
2016-06-06,3.09,3.11,3.04,3.06,3149688
2016-06-07,3.07,3.09,3.03,3.05,2676000
2016-06-08,3.06,3.15,3.06,3.08,5065344
2016-06-10,3.09,3.11,3.06,3.07,2312000
2016-06-13,3.05,3.07,2.89,2.93,7969000
2016-06-14,2.95,2.95,2.79,2.81,7957485
2016-06-15,2.83,2.85,2.77,2.8,6681000
2016-06-16,2.84,2.87,2.78,2.8,5480627
2016-06-17,2.84,2.86,2.81,2.82,2811000
2016-06-20,2.85,2.85,2.77,2.81,2902000
2016-06-21,2.84,2.86,2.81,2.82,5999200
2016-06-22,2.89,2.9,2.84,2.87,2907283
2016-06-23,2.89,2.89,2.69,2.75,10986000
2016-06-24,2.76,2.76,2.64,2.71,6910000
2016-06-27,2.68,2.75,2.68,2.73,1491000
2016-06-28,2.7,2.77,2.69,2.76,2811863
2016-06-29,2.76,2.78,2.73,2.76,2539000
2016-06-30,2.79,2.79,2.7,2.75,4926955
2016-07-04,2.77,2.82,2.75,2.8,2507000
2016-07-05,2.78,2.82,2.77,2.8,2523768
2016-07-06,2.75,2.77,2.73,2.75,3081000
2016-07-07,2.77,2.78,2.72,2.77,1381250
2016-07-08,2.75,2.81,2.73,2.78,3581000
2016-07-11,2.78,2.83,2.78,2.81,3875000
2016-07-12,2.83,2.84,2.8,2.82,2763003
2016-07-13,2.82,2.84,2.79,2.8,2486003
2016-07-14,2.8,2.86,2.8,2.85,8951000
2016-07-15,2.85,2.88,2.83,2.87,5220576
2016-07-18,2.88,2.9,2.86,2.87,1794000
2016-07-19,2.9,2.9,2.85,2.88,2773800
2016-07-20,2.87,2.89,2.82,2.86,2106000
2016-07-21,2.85,2.88,2.8,2.83,1859670
2016-07-22,2.84,2.84,2.82,2.83,1438152
2016-07-25,2.83,2.84,2.81,2.82,2656408
2016-07-26,2.81,2.82,2.79,2.82,3580000
2016-07-27,2.82,2.86,2.81,2.85,5768344
2016-07-28,2.85,2.87,2.81,2.83,2567700
2016-07-29,2.81,2.83,2.76,2.78,2331000
2016-08-01,2.8,2.8,2.75,2.78,2987000
2016-08-03,2.77,2.79,2.74,2.76,2342000
2016-08-04,2.8,2.8,2.75,2.76,2998768
2016-08-05,2.79,2.8,2.76,2.77,2838000
2016-08-08,2.79,2.8,2.77,2.79,3939100
2016-08-09,2.77,2.98,2.77,2.89,13410000
2016-08-10,2.91,2.91,2.84,2.84,6208115
2016-08-11,2.88,2.9,2.85,2.87,4470000
2016-08-12,2.9,2.9,2.82,2.85,7967000
2016-08-15,2.87,2.92,2.85,2.88,3415672
2016-08-16,2.9,2.91,2.86,2.88,2526536
2016-08-17,2.9,2.9,2.86,2.88,4245000
2016-08-18,2.9,2.92,2.81,2.85,7932000
2016-08-19,2.87,2.92,2.83,2.89,5766000
2016-08-22,2.95,3.28,2.95,3.04,53445000
2016-08-23,3.08,3.09,3.03,3.05,9436000
2016-08-24,3.02,3.08,3.02,3.05,3849000
2016-08-25,3.03,3.06,3.0,3.0,2503000
2016-08-26,3.02,3.05,3.01,3.04,1775000
2016-08-29,3.04,3.08,3.02,3.02,2451000
2016-08-30,3.02,3.06,3.02,3.04,4086000
2016-08-31,3.07,3.1,2.99,2.99,4327000
2016-09-01,3.0,3.05,2.98,3.02,2717000
2016-09-02,3.0,3.05,2.96,2.98,6072576
2016-09-05,3.01,3.06,2.99,3.03,10056659
2016-09-06,3.04,3.06,2.99,3.05,13072139
2016-09-07,3.03,3.07,2.99,3.01,9757000
2016-09-08,3.03,3.1,3.02,3.05,11080000
2016-09-09,3.06,3.32,3.06,3.2,47540116
2016-09-12,3.18,3.19,3.08,3.1,20996092
2016-09-13,3.15,3.2,3.08,3.11,7823650
2016-09-14,3.12,3.12,3.0,3.06,5154000
2016-09-15,3.08,3.1,3.04,3.08,2040000
2016-09-19,3.12,3.12,3.04,3.08,6278000
2016-09-20,3.09,3.1,3.06,3.07,3887083
2016-09-21,3.1,3.12,3.07,3.1,4548000
2016-09-22,3.14,3.15,3.05,3.07,4889000
2016-09-23,3.1,3.11,3.06,3.08,2023000
2016-09-26,3.06,3.06,2.97,2.99,7087000
2016-09-27,2.97,3.0,2.95,2.99,2815255
2016-09-28,2.98,2.99,2.95,2.98,3809780
2016-09-29,2.99,3.02,2.98,3.0,1667000
2016-09-30,2.97,3.0,2.96,2.98,2316300
2016-10-03,3.0,3.0,2.93,2.97,1647460
2016-10-04,2.98,3.07,2.98,3.07,2463000
2016-10-05,3.05,3.06,3.0,3.05,2127000
2016-10-06,3.07,3.07,3.01,3.03,1165000
2016-10-07,3.03,3.04,3.0,3.02,1665000
2016-10-11,3.03,3.04,2.97,3.0,3055000
2016-10-12,2.97,3.02,2.95,3.02,1905000
2016-10-13,3.02,3.02,2.95,2.98,4021000
2016-10-14,2.98,3.0,2.96,3.0,2415000
2016-10-17,2.98,3.01,2.96,3.01,2183115
2016-10-18,3.01,3.03,2.97,3.03,2280172
2016-10-19,3.01,3.07,3.01,3.01,2204353
2016-10-20,3.02,3.05,2.99,3.01,1781000
2016-10-24,2.97,3.02,2.97,3.0,4952500
2016-10-25,3.0,3.02,2.99,2.99,2729000
2016-10-26,2.98,3.01,2.96,3.0,6863000
2016-10-27,2.99,3.0,2.91,2.95,7097798
2016-10-28,2.94,2.98,2.93,2.94,3865000
2016-10-31,2.94,2.95,2.89,2.91,3111362
2016-11-01,2.92,2.96,2.9,2.94,4646208
2016-11-02,2.93,2.96,2.87,2.9,6851000
2016-11-03,2.9,2.9,2.79,2.83,9003115
2016-11-04,2.82,2.86,2.77,2.8,3669768
2016-11-07,2.8,2.85,2.79,2.84,4074000
2016-11-08,2.87,2.87,2.82,2.84,1629000
2016-11-09,2.82,2.84,2.75,2.82,4957250
2016-11-10,2.85,2.89,2.84,2.87,3818000
2016-11-11,2.86,2.99,2.86,2.94,8580000
2016-11-14,2.97,2.98,2.91,2.92,4992000
2016-11-15,2.92,3.02,2.92,3.02,6353972
2016-11-16,3.02,3.03,2.96,2.96,3884000
2016-11-17,2.94,3.08,2.84,3.08,19107240
2016-11-18,3.03,3.09,2.95,3.02,20551000
2016-11-24,3.28,3.29,3.2,3.29,170860112
2016-11-25,3.3,3.3,3.28,3.3,48959500
2016-11-28,3.29,3.3,3.28,3.3,30862334
2016-11-29,3.3,3.3,3.28,3.29,23554000
2016-11-30,3.29,3.3,3.28,3.28,13828000
2016-12-01,3.29,3.29,3.26,3.28,24930104
2016-12-02,3.29,3.3,3.23,3.24,91240008
2016-12-05,3.27,3.27,3.21,3.26,52296016
2016-12-06,3.26,3.27,3.23,3.26,15358225
2016-12-07,3.27,3.27,3.24,3.25,11107000
2016-12-08,3.26,3.27,3.24,3.26,9054560
2016-12-09,3.26,3.27,3.25,3.27,13996000
2016-12-12,3.27,3.28,3.26,3.28,17973000
2016-12-13,3.26,3.28,3.26,3.28,13918027
2016-12-14,3.28,3.28,3.25,3.27,22208000
2016-12-15,3.27,3.28,3.26,3.28,15270000
2016-12-16,3.28,3.3,3.27,3.3,11366105
2016-12-19,3.3,3.3,3.28,3.29,4804513
2016-12-20,3.26,3.28,3.24,3.27,18118000
2016-12-21,3.26,3.28,3.26,3.27,3717000
2016-12-22,3.28,3.29,3.28,3.29,6593000
2016-12-23,3.28,3.29,3.28,3.28,12580000
2016-12-28,3.28,3.29,3.28,3.29,15433000
2016-12-29,3.28,3.3,3.28,3.29,6375851
2016-12-30,3.28,3.29,3.28,3.29,8482185
2017-01-03,3.3,3.3,3.28,3.29,6430612
2017-01-04,3.28,3.29,3.28,3.28,6138843
2017-01-05,3.29,3.29,3.27,3.28,14733184
2017-01-06,3.28,3.29,3.27,3.28,7164502
2017-01-09,3.28,3.3,3.27,3.28,30202412
2017-01-10,3.28,3.31,3.27,3.31,24399076
2017-01-11,3.31,3.32,3.3,3.31,13442733
2017-01-12,3.31,3.34,3.31,3.34,8496021
2017-01-13,3.33,3.36,3.32,3.36,31086000
2017-01-16,3.34,3.36,3.34,3.35,8294000
2017-01-17,3.34,3.36,3.31,3.35,14431169
2017-01-18,3.36,3.42,3.35,3.39,30530500
2017-01-19,3.32,3.36,3.32,3.36,36099400
2017-01-20,3.35,3.42,3.34,3.38,12984970
2017-01-23,3.37,3.47,3.37,3.44,8293200
2017-01-24,3.45,3.48,3.35,3.44,7860642
2017-01-25,3.4,3.46,3.31,3.31,17949500
2017-01-26,3.36,3.37,3.24,3.31,7190905
2017-01-27,3.3,3.51,3.28,3.47,5657700
2017-02-01,3.46,3.52,3.39,3.4,1672705
2017-02-02,3.4,3.58,3.37,3.58,5548474
2017-02-03,3.57,3.89,3.55,3.89,8804408
2017-02-06,3.84,4.08,3.8,3.95,10509704
2017-02-07,3.97,4.15,3.96,4.05,8442000
2017-02-08,4.05,4.17,4.04,4.06,7671000
2017-02-09,4.0,4.13,3.9,3.99,4678000
2017-02-10,4.02,4.07,3.98,3.99,3886000
2017-02-13,4.0,4.05,3.98,4.02,2857000
2017-02-14,3.99,4.05,3.93,3.98,2825400
2017-02-15,3.97,4.03,3.86,3.89,3264000
2017-02-16,3.88,3.92,3.86,3.9,3105225
2017-02-17,3.9,3.92,3.83,3.92,2810000
2017-02-20,3.92,4.0,3.9,3.99,1424200
2017-02-21,3.97,4.1,3.94,4.05,3703570
2017-02-22,4.05,4.26,4.05,4.2,7007249
2017-02-23,4.2,4.23,4.11,4.18,2873089
2017-02-24,4.21,4.21,4.01,4.06,4194612
2017-02-27,4.05,4.06,3.99,4.06,2706000
2017-02-28,4.06,4.17,3.97,4.17,4989399
2017-03-01,4.17,4.17,4.05,4.15,2481000
2017-03-02,4.15,4.18,4.1,4.16,2435000
2017-03-03,4.12,4.2,4.12,4.2,2645000
2017-03-06,4.23,4.26,4.08,4.15,4282000
2017-03-07,4.15,4.17,4.1,4.17,527000
2017-03-08,4.12,4.13,4.04,4.11,1714000
2017-03-09,4.11,4.13,4.04,4.13,1001528
2017-03-10,4.1,4.14,4.06,4.07,852000
2017-03-13,4.05,4.2,4.0,4.04,6956000
2017-03-14,4.07,4.2,4.07,4.16,9352000
2017-03-15,4.16,4.26,4.16,4.26,3676000
2017-03-16,4.25,4.56,4.25,4.5,9098000
2017-03-17,4.54,4.59,4.44,4.49,4732000
2017-03-20,4.48,4.7,4.46,4.66,4688000
2017-03-21,4.69,4.83,4.58,4.64,6175100
2017-03-22,4.57,4.64,4.47,4.63,1797800
2017-03-23,4.62,4.8,4.59,4.65,1560483
2017-03-24,4.66,4.76,4.59,4.59,3084000
2017-03-27,4.58,4.6,4.36,4.43,3968000
2017-03-28,4.42,4.48,4.34,4.41,2969896
2017-03-29,4.37,4.47,4.35,4.47,2043000
2017-03-30,4.47,4.47,4.33,4.47,1237874
2017-03-31,4.46,4.6,4.44,4.54,2920241
2017-04-03,4.54,4.62,4.4,4.52,2042529
2017-04-05,4.52,4.53,4.45,4.52,2022010
2017-04-06,4.5,4.61,4.47,4.61,2022225
2017-04-07,4.63,4.63,4.49,4.55,1223000
2017-04-10,4.53,4.53,4.39,4.43,8268000
2017-04-11,4.43,4.5,4.38,4.49,6389500
2017-04-12,4.44,4.5,4.39,4.47,3224000
2017-04-13,4.159,4.243,4.14,4.215,2644000
2017-04-18,4.215,4.234,4.14,4.215,2732000
2017-04-19,4.187,4.224,4.131,4.215,2707000
2017-04-20,4.187,4.215,4.159,4.215,1103000
2017-04-21,4.206,4.206,4.065,4.112,3331000
2017-04-24,4.121,4.149,4.065,4.075,1340000
2017-04-25,4.084,4.121,4.065,4.093,1851000
2017-04-26,4.075,4.103,4.046,4.103,1914332
2017-04-27,4.103,4.103,3.9810000000000003,4.0089999999999995,1906000
2017-04-28,4.0089999999999995,4.065,3.822,3.99,2764000
2017-05-02,3.9810000000000003,4.121,3.972,4.121,4645000
2017-05-04,4.14,4.14,3.915,3.943,3197952
2017-05-05,3.9530000000000003,3.9530000000000003,3.822,3.906,3615000
2017-05-08,3.8689999999999998,3.906,3.737,3.7939999999999996,5778000
2017-05-09,3.765,3.859,3.747,3.812,2321000
2017-05-10,3.803,3.812,3.6910000000000003,3.747,4265921
2017-05-11,3.747,3.943,3.737,3.9339999999999997,6605234
2017-05-12,3.925,3.972,3.8310000000000004,3.906,2842000
2017-05-15,3.9339999999999997,3.9339999999999997,3.822,3.878,1603814
2017-05-16,3.897,3.897,3.7560000000000002,3.85,2405000
2017-05-17,3.85,3.8689999999999998,3.765,3.8310000000000004,1741400
2017-05-18,3.812,3.84,3.765,3.812,2479000
2017-05-19,3.84,3.915,3.7939999999999996,3.906,2710000
2017-05-22,3.906,4.056,3.897,4.056,6045239
2017-05-23,4.056,4.112,3.925,4.056,4109000
2017-05-24,4.075,4.093,3.9619999999999997,4.056,3246050
2017-05-25,4.0280000000000005,4.056,3.9810000000000003,4.056,651000
2017-05-26,4.037,4.215,4.0280000000000005,4.215,4844739
2017-05-29,4.187,4.215,4.121,4.215,2174000
2017-05-31,4.206,4.243,4.121,4.243,3732113
2017-06-01,4.215,4.215,4.075,4.159,2636852
2017-06-02,4.112,4.178,4.037,4.121,2654689
2017-06-05,4.112,4.121,4.0280000000000005,4.121,2496000
2017-06-06,4.093,4.093,3.99,4.065,2711000
2017-06-07,4.037,4.112,4.0089999999999995,4.093,1003000
2017-06-08,4.065,4.187,4.056,4.103,3255481
2017-06-09,4.103,4.131,4.084,4.093,2439287
2017-06-12,4.093,4.103,3.972,4.018,3377000
2017-06-13,4.046,4.112,4.0,4.103,4767692
2017-06-14,4.112,4.14,4.018,4.112,6311598
2017-06-15,4.149,4.159,4.056,4.131,6592500
2017-06-16,4.093,4.131,3.897,4.037,13108000
2017-06-19,4.093,4.402,4.065,4.121,5855481
2017-06-20,4.149,4.168,4.056,4.103,4052000
2017-06-21,4.112,4.121,4.075,4.121,3142524
2017-06-22,4.121,4.121,3.99,4.103,5052675
2017-06-23,4.112,4.149,4.065,4.131,1857361
2017-06-26,4.121,4.196000000000001,4.121,4.168,5145490
2017-06-27,4.168,4.356,4.149,4.327,7840000
2017-06-28,4.309,4.402,4.253,4.262,4798000
2017-06-29,4.262,4.356,4.262,4.337,5228239
2017-06-30,4.327,4.365,4.309,4.365,3620200
2017-07-03,4.356,4.412,4.327,4.402,2553000
2017-07-04,4.412,4.468,4.309,4.374,2904000
2017-07-05,4.3839999999999995,4.449,4.346,4.431,2145000
2017-07-06,4.421,4.449,4.3839999999999995,4.431,2621000
2017-07-07,4.402,4.646,4.402,4.552,3083241
2017-07-10,4.58,4.768,4.552,4.73,8513000
2017-07-11,4.702,4.888999999999999,4.702,4.73,8577243
2017-07-12,4.73,4.833,4.6739999999999995,4.683,3398000
2017-07-13,4.683,4.852,4.683,4.805,2686697
2017-07-14,4.777,4.843,4.73,4.787,1519210
2017-07-17,4.74,4.815,4.683,4.758,6034000
2017-07-18,4.702,4.721,4.618,4.683,3362467
2017-07-19,4.73,4.871,4.6930000000000005,4.871,5597000
2017-07-20,4.888999999999999,4.946000000000001,4.824,4.871,4793250
2017-07-21,4.899,4.918,4.843,4.888999999999999,1383000
2017-07-24,4.871,4.9830000000000005,4.852,4.974,5098490
2017-07-25,4.946000000000001,5.058,4.946000000000001,5.039,5683000
2017-07-26,5.058,5.096,4.992,5.096,3571544
2017-07-27,5.096,5.5729999999999995,5.096,5.489,10575486
2017-07-28,5.452000000000001,5.667000000000001,5.386,5.62,4944500
2017-07-31,5.676,5.704,5.582999999999999,5.63,2873273
2017-08-01,5.601,5.676,5.386,5.414,6911822
2017-08-02,5.414,5.47,5.386,5.414,2125000
2017-08-03,5.292000000000001,5.292000000000001,5.039,5.132999999999999,3725042
2017-08-04,5.105,5.17,4.9639999999999995,5.03,4123917
2017-08-07,4.974,5.021,4.936,4.992,4046144
2017-08-08,5.011,5.058,4.936,4.9830000000000005,3600000
2017-08-09,4.9830000000000005,4.9830000000000005,4.758,4.871,7346000
2017-08-10,4.861000000000001,4.861000000000001,4.637,4.712,3453000
2017-08-11,4.58,4.609,4.459,4.505,8118000
2017-08-14,4.44,4.552,4.44,4.534,3324000
2017-08-15,4.534,4.552,4.449,4.515,634000
2017-08-16,4.599,4.627,4.468,4.599,2873300
2017-08-17,4.6739999999999995,4.6739999999999995,4.552,4.655,1054000
2017-08-18,4.599,4.627,4.459,4.627,1168000
2017-08-21,4.571000000000001,4.609,4.571000000000001,4.609,1675945
2017-08-22,4.618,4.627,4.496,4.571000000000001,737050
2017-08-24,4.534,4.562,4.431,4.515,1982705
2017-08-25,4.468,4.524,4.449,4.459,1284474
2017-08-28,4.412,4.515,4.3180000000000005,4.431,5355990
2017-08-29,4.3839999999999995,4.402,4.327,4.3839999999999995,1751500
2017-08-30,4.356,4.431,4.309,4.346,3779000
2017-08-31,4.393,4.477,4.309,4.477,2706990
2017-09-01,4.468,4.515,4.337,4.365,2621000
2017-09-04,4.421,4.421,4.234,4.281000000000001,1962000
2017-09-05,4.281000000000001,4.3180000000000005,4.253,4.2989999999999995,2498000
2017-09-06,4.262,4.3180000000000005,4.243,4.3180000000000005,1123963
2017-09-07,4.337,4.402,4.281000000000001,4.346,1726522
2017-09-08,4.346,4.346,4.224,4.29,3137364
2017-09-11,4.243,4.337,4.206,4.309,1686894
2017-09-12,4.346,4.44,4.234,4.309,1543674
2017-09-13,4.271,4.496,4.215,4.468,1930000
2017-09-14,4.487,4.637,4.44,4.543,2983457
2017-09-15,4.534,4.777,4.496,4.777,5790980
2017-09-18,4.768,4.768,4.6739999999999995,4.683,2986688
2017-09-19,4.6739999999999995,4.758,4.6739999999999995,4.702,2336000
2017-09-20,4.6930000000000005,4.73,4.646,4.712,1191000
2017-09-21,4.683,4.702,4.412,4.431,3294726
2017-09-22,4.449,4.543,4.365,4.543,1457000
2017-09-25,4.543,4.543,4.253,4.477,2791000
2017-09-26,4.449,4.646,4.449,4.515,1492840
2017-09-27,4.571000000000001,4.599,4.487,4.487,1107004
2017-09-28,4.505,4.505,4.393,4.412,1640844
2017-09-29,4.412,4.543,4.3839999999999995,4.524,1824206
2017-10-03,4.524,4.58,4.496,4.571000000000001,336723
2017-10-04,4.562,4.683,4.543,4.59,777000
2017-10-06,4.543,4.552,4.44,4.477,2107000
2017-10-09,4.468,4.487,4.374,4.374,2356000
2017-10-10,4.3839999999999995,4.487,4.3839999999999995,4.431,1727250
2017-10-11,4.431,4.515,4.412,4.477,2955000
2017-10-12,4.562,4.562,4.44,4.477,2233000
2017-10-13,4.421,4.515,4.421,4.487,1930993
2017-10-16,4.496,4.665,4.487,4.655,4703000
2017-10-17,4.6739999999999995,4.6930000000000005,4.524,4.571000000000001,2888000
2017-10-18,4.59,4.637,4.58,4.599,602000
2017-10-19,4.599,4.665,4.421,4.431,2376500
2017-10-20,4.44,4.618,4.356,4.599,7999000
2017-10-23,4.637,4.655,4.534,4.618,1940000
2017-10-24,4.609,4.758,4.609,4.646,2594307
2017-10-25,4.683,4.758,4.655,4.655,864473
2017-10-26,4.655,4.843,4.655,4.749,1787000
2017-10-27,4.833,4.833,4.702,4.712,1164000
2017-10-30,4.768,4.768,4.627,4.758,1165000
2017-10-31,4.702,4.749,4.683,4.74,1098300
2017-11-01,4.721,4.721,4.524,4.609,3360556
2017-11-02,4.665,4.665,4.505,4.571000000000001,974200
2017-11-03,4.599,4.618,4.505,4.599,1224000
2017-11-06,4.571000000000001,4.74,4.562,4.712,2805185
2017-11-07,4.683,4.777,4.646,4.74,1911000
2017-11-08,4.74,4.749,4.702,4.749,1782500
2017-11-09,4.73,4.833,4.712,4.787,2644000
2017-11-10,4.777,4.815,4.721,4.73,1128776
2017-11-13,4.721,4.749,4.665,4.6930000000000005,2243000
2017-11-14,4.6930000000000005,4.777,4.6739999999999995,4.702,1198839
2017-11-15,4.637,4.6739999999999995,4.571000000000001,4.627,1426600
2017-11-16,4.6739999999999995,4.6739999999999995,4.524,4.552,1826000
2017-11-17,4.609,4.712,4.562,4.627,1894000
2017-11-20,4.683,5.039,4.655,5.021,5086964
2017-11-21,5.058,5.132999999999999,4.852,4.936,5803265
2017-11-22,4.871,4.955,4.655,4.899,7414000
2017-11-23,5.0489999999999995,5.0489999999999995,4.6930000000000005,4.768,1727000
2017-11-24,4.833,4.833,4.74,4.805,2082000
2017-11-27,4.805,4.833,4.655,4.683,2411536
2017-11-28,4.73,4.73,4.646,4.683,2364000
2017-11-29,4.74,4.758,4.665,4.665,875610
2017-11-30,4.627,4.702,4.505,4.702,3796000
2017-12-01,4.777,4.777,4.468,4.618,1860307
2017-12-04,4.52,4.606,4.426,4.463,4378000
2017-12-05,4.463,4.53,4.255,4.274,3619000
2017-12-06,4.407,4.407,4.141,4.283,7329000
2017-12-07,4.407,4.407,4.075,4.17,4025001
2017-12-08,4.122,4.293,4.075,4.16,6573000
2017-12-11,4.178999999999999,4.217,4.103,4.16,4866672
2017-12-12,4.198,4.217,4.093999999999999,4.189,4784000
2017-12-13,4.207,4.236000000000001,4.132,4.207,1980000
2017-12-14,4.245,4.426,4.236000000000001,4.35,4122788
2017-12-15,4.397,4.397,4.263999999999999,4.302,3064829
2017-12-18,4.388,4.482,4.302,4.454,3609580
2017-12-19,4.492,4.539,4.397,4.482,1453560
2017-12-20,4.454,4.492,4.435,4.463,1052076
2017-12-21,4.416,4.539,4.416,4.52,1536080
2017-12-22,4.52,4.625,4.482,4.625,2086000
2017-12-27,4.6339999999999995,4.71,4.558,4.6339999999999995,1588787
2017-12-28,4.6339999999999995,4.814,4.625,4.7669999999999995,2419000
2017-12-29,4.748,4.89,4.748,4.871,2833000
2018-01-02,4.861000000000001,4.937,4.814,4.88,3883000
2018-01-03,4.88,4.956,4.861000000000001,4.947,5806668
2018-01-04,4.928,5.1739999999999995,4.928,5.165,10582966
2018-01-05,5.193,5.2589999999999995,5.146,5.24,8259702
2018-01-08,5.24,5.572,5.184,5.307,11464578
2018-01-09,5.402,5.515,5.165,5.4110000000000005,7452246
2018-01-10,5.525,5.534,5.221,5.534,8610930
2018-01-11,5.686,6.103,5.686,5.705,19077386
2018-01-12,5.771,5.771,5.582000000000001,5.686,3285000
2018-01-15,5.686,5.724,5.591,5.657,3802000
2018-01-16,5.676,5.676,5.525,5.601,3533408
2018-01-17,5.544,5.667000000000001,5.184,5.382999999999999,6069000
2018-01-18,5.43,5.449,5.354,5.449,2080200
2018-01-19,5.372999999999999,5.449,5.335,5.392,2337000
2018-01-22,5.345,5.544,5.231,5.457999999999999,6289000
2018-01-23,5.477,5.686,5.42,5.648,4440350
2018-01-24,5.676,5.781000000000001,5.657,5.733,5859100
2018-01-25,5.752000000000001,5.781000000000001,5.638,5.7139999999999995,1858050
2018-01-26,5.648,5.648,5.316,5.449,8991784
2018-01-29,5.477,5.572,5.42,5.496,2286000
2018-01-30,5.544,5.591,5.496,5.591,2447000
2018-01-31,5.591,5.629,5.487,5.582000000000001,1209000
2018-02-01,5.629,5.629,5.487,5.544,1510000
2018-02-02,5.544,5.544,5.364,5.439,3267000
2018-02-05,5.4110000000000005,5.449,5.307,5.354,3806000
2018-02-06,5.316,5.316,4.966,5.212000000000001,8207974
2018-02-07,5.392,5.392,5.022,5.1080000000000005,3412000
2018-02-08,5.07,5.297000000000001,5.032,5.0889999999999995,1904000
2018-02-09,5.004,5.004,4.748,4.994,8579600
2018-02-12,5.042,5.297000000000001,5.042,5.165,2517936
2018-02-13,5.165,5.345,5.042,5.07,2809000
2018-02-14,5.06,5.165,4.956,5.0889999999999995,1581000
2018-02-15,5.0889999999999995,5.202999999999999,4.975,5.202999999999999,2131000
2018-02-20,5.297000000000001,5.457999999999999,5.231,5.42,1980000
2018-02-21,5.42,5.686,5.402,5.686,3755000
2018-02-22,5.582000000000001,5.7139999999999995,5.544,5.648,8952252
2018-02-23,5.686,5.733,5.591,5.648,4573250
2018-02-26,5.563,5.705,5.534,5.686,5174000
2018-02-27,5.724,5.724,5.572,5.61,4811000
2018-02-28,5.686,5.686,5.515,5.582000000000001,4744000
2018-03-01,5.572,5.733,5.496,5.638,5012000
2018-03-02,5.544,5.553,5.402,5.515,8599000
2018-03-05,5.506,5.506,5.165,5.231,6105000
2018-03-06,5.307,5.364,5.221,5.354,1971000
2018-03-07,5.269,5.372999999999999,5.24,5.372999999999999,2092000
2018-03-08,5.402,5.42,5.269,5.335,2070610
2018-03-09,5.382999999999999,5.382999999999999,5.316,5.364,1753950
2018-03-12,5.402,5.42,5.316,5.392,1037000
2018-03-13,5.439,5.439,5.24,5.269,1489100
2018-03-14,5.221,5.269,5.07,5.117,3881224
2018-03-15,5.117,5.136,5.013,5.042,3871000
2018-03-16,5.079,5.079,4.871,4.909,8052000
2018-03-19,4.909,4.975,4.861000000000001,4.956,1109423
2018-03-20,4.909,4.975,4.861000000000001,4.937,1550000
2018-03-21,4.928,5.013,4.861000000000001,4.861000000000001,2144000
2018-03-22,4.88,4.928,4.718999999999999,4.861000000000001,2439000
2018-03-23,4.718999999999999,4.748,4.558,4.738,4538000
2018-03-26,4.625,4.7860000000000005,4.625,4.7860000000000005,1416000
2018-03-27,4.833,4.833,4.6339999999999995,4.814,2177900
2018-03-28,4.718999999999999,4.7860000000000005,4.681,4.7860000000000005,2045000
2018-03-29,4.757,4.947,4.691,4.928,2232000
2018-04-03,4.824,4.824,4.644,4.814,1785000
2018-04-04,4.824,4.852,4.71,4.7669999999999995,1161000
2018-04-06,4.71,4.871,4.558,4.824,964000
2018-04-09,4.748,4.861000000000001,4.729,4.852,1299000
2018-04-10,4.833,4.871,4.795,4.861000000000001,889000
2018-04-11,4.861000000000001,4.975,4.805,4.89,1375000
2018-04-12,4.89,4.89,4.805,4.89,878000
2018-04-13,4.928,4.956,4.814,4.928,713000
2018-04-16,4.937,5.051,4.795,4.843,1216020
2018-04-17,4.928,4.928,4.748,4.833,549000
2018-04-18,4.814,4.814,4.672,4.795,1748000
2018-04-19,4.738,4.833,4.7,4.7669999999999995,1216000
2018-04-20,4.7669999999999995,4.824,4.691,4.757,954000
2018-04-23,4.748,4.776,4.71,4.7669999999999995,445000
2018-04-24,4.729,4.861000000000001,4.729,4.7860000000000005,1575200
2018-04-25,4.795,4.814,4.738,4.814,766000
2018-04-26,4.833,4.833,4.482,4.644,2319000
2018-04-27,4.681,4.7,4.444,4.662,496000
2018-04-30,4.681,4.776,4.596,4.776,486632
2018-05-02,4.7,4.776,4.681,4.691,1112000
2018-05-03,4.606,4.672,4.577,4.577,3354001
2018-05-04,4.644,4.644,4.397,4.5489999999999995,3134200
2018-05-07,4.596,4.615,4.463,4.606,2312000
2018-05-08,4.6339999999999995,4.691,4.615,4.681,983000
2018-05-09,4.681,4.691,4.625,4.691,965000
2018-05-10,4.71,4.843,4.71,4.814,703000
2018-05-11,4.843,4.899,4.757,4.824,1801000
2018-05-14,4.814,4.852,4.814,4.852,255000
2018-05-15,4.795,4.824,4.71,4.824,1016000
2018-05-16,4.757,4.814,4.718999999999999,4.814,1407777
2018-05-17,4.88,4.88,4.729,4.795,812000
2018-05-18,4.757,4.805,4.738,4.795,1031000
2018-05-21,4.814,4.824,4.776,4.824,721000
2018-05-23,4.776,4.852,4.7669999999999995,4.824,1485000
2018-05-24,4.776,4.824,4.748,4.824,863000
2018-05-25,4.757,4.795,4.748,4.795,716632
2018-05-28,4.805,4.805,4.6339999999999995,4.757,1960050
2018-05-29,4.757,4.757,4.644,4.738,1509150
2018-05-30,4.691,4.691,4.577,4.644,1879000
2018-05-31,4.7,4.909,4.672,4.909,3657000
2018-06-01,4.909,4.956,4.71,4.909,2664000
2018-06-04,4.937,4.956,4.843,4.937,934000
2018-06-05,4.966,5.0889999999999995,4.899,5.07,2064560
2018-06-06,5.07,5.07,4.89,5.004,1826000
2018-06-07,4.956,4.975,4.814,4.899,2323100
2018-06-08,4.899,4.899,4.7860000000000005,4.861000000000001,1390100
2018-06-11,4.861000000000001,4.899,4.824,4.899,3598000
2018-06-12,4.975,4.975,4.861000000000001,4.928,1721000
2018-06-13,4.861000000000001,5.165,4.852,5.136,4345350
2018-06-14,5.212000000000001,5.477,5.155,5.364,8466350
2018-06-15,5.364,5.457999999999999,5.269,5.354,3171141
2018-06-19,5.354,5.364,5.06,5.2589999999999995,4107237
2018-06-20,5.335,5.335,5.051,5.2589999999999995,1538000
2018-06-21,5.354,5.42,5.2589999999999995,5.2589999999999995,5021000
2018-06-22,5.269,5.316,4.966,5.022,98879112
2018-06-25,4.966,5.127000000000001,4.88,4.928,3673300
2018-06-26,4.975,5.013,4.833,4.852,1845086
2018-06-27,4.852,5.032,4.852,4.928,2071000
2018-06-28,4.729,4.729,4.274,4.5489999999999995,20061000
2018-06-29,4.5680000000000005,4.776,4.454,4.757,3457237
2018-07-03,4.738,4.833,4.473,4.644,1979400
2018-07-04,4.7860000000000005,4.7860000000000005,4.53,4.606,1206000
2018-07-05,4.587,4.606,4.53,4.606,1027000
2018-07-06,4.587,4.596,4.416,4.511,1771218
2018-07-09,4.5489999999999995,4.558,4.492,4.53,387396
2018-07-10,4.53,4.53,4.302,4.369,5517250
2018-07-11,4.302,4.416,4.283,4.359,1448000
2018-07-12,4.293,4.426,4.293,4.359,1308000
2018-07-13,4.312,4.359,4.17,4.263999999999999,7270000
2018-07-16,4.274,4.407,4.245,4.359,1806000
2018-07-17,4.369,4.369,4.274,4.34,839000
2018-07-18,4.35,4.35,4.293,4.34,368000
2018-07-19,4.34,4.407,4.263999999999999,4.359,2395500
2018-07-20,4.34,4.407,4.283,4.407,643000
2018-07-23,4.407,4.539,4.312,4.539,4306300
2018-07-24,4.5489999999999995,4.615,4.463,4.606,1539000
2018-07-25,4.615,4.615,4.511,4.615,799000
2018-07-26,4.625,4.625,4.492,4.577,955000
2018-07-27,4.511,4.5680000000000005,4.492,4.5680000000000005,533000
2018-07-30,4.5489999999999995,4.577,4.482,4.5680000000000005,512000
2018-07-31,4.558,4.558,4.482,4.539,1595000
2018-08-01,4.53,4.539,4.463,4.539,1985674
2018-08-02,4.52,4.5680000000000005,4.407,4.53,1928000
2018-08-03,4.473,4.539,4.388,4.407,2392750
2018-08-06,4.482,4.606,4.378,4.407,2443000
2018-08-07,4.454,4.454,4.359,4.454,1723000
2018-08-08,4.359,4.454,4.302,4.454,870050
2018-08-09,4.444,4.539,4.388,4.539,1167040
2018-08-10,4.53,4.53,4.463,4.511,833000
2018-08-13,4.444,4.501,4.388,4.501,801906
2018-08-14,4.492,4.492,4.34,4.435,1555000
2018-08-15,4.407,4.407,4.17,4.207,2811000
2018-08-16,4.263999999999999,4.263999999999999,4.075,4.141,1941295
2018-08-17,4.17,4.226,4.056,4.16,1422000
2018-08-20,4.189,4.189,4.103,4.17,683839
2018-08-21,4.198,4.359,4.198,4.312,1340000
2018-08-22,4.359,4.369,4.302,4.35,988000
2018-08-23,4.35,4.378,4.312,4.378,680000
2018-08-24,4.312,4.407,4.312,4.359,983986
2018-08-27,4.397,4.463,4.369,4.416,2677000
2018-08-28,4.53,4.53,4.369,4.435,1570542
2018-08-29,4.463,4.463,4.369,4.435,1127000
2018-08-30,4.52,4.52,4.388,4.444,670000
2018-08-31,4.473,4.473,4.359,4.378,1395000
2018-09-03,4.378,4.444,4.321000000000001,4.378,1086195
2018-09-04,4.302,4.388,4.263999999999999,4.359,1385000
2018-09-05,4.226,4.34,4.198,4.245,2329690
2018-09-06,4.226,4.255,4.151,4.236000000000001,1223000
2018-09-07,4.217,4.263999999999999,4.17,4.226,1177000
2018-09-10,4.255,4.255,4.16,4.207,1393795
2018-09-11,4.226,4.226,4.122,4.189,1969195
2018-09-12,4.178999999999999,4.207,3.98,4.141,4238253
2018-09-13,4.189,4.189,4.065,4.151,1477065
2018-09-14,4.178999999999999,4.198,4.122,4.17,839000
2018-09-17,4.189,4.189,4.084,4.151,703000
2018-09-18,4.189,4.189,4.084,4.151,1456000
2018-09-19,4.17,4.17,4.093999999999999,4.151,2218260
2018-09-20,4.103,4.103,4.046,4.075,2512975
2018-09-21,4.132,4.132,4.027,4.027,2109064
2018-09-24,4.075,4.075,3.7910000000000004,3.98,2245000
2018-09-26,3.99,3.9989999999999997,3.8760000000000003,3.9610000000000003,5271500
2018-09-27,4.018,4.018,3.847,3.8569999999999998,2223000
2018-09-28,3.819,3.98,3.8,3.98,2847782
2018-10-02,4.378,4.378,3.9989999999999997,4.065,1487000
2018-10-03,4.065,4.065,3.9139999999999997,3.9330000000000003,713983
2018-10-04,4.008,4.008,3.819,3.866,1389000
2018-10-05,3.7910000000000004,3.885,3.7910000000000004,3.8569999999999998,1437000
2018-10-08,3.847,3.885,3.667,3.762,3615000
2018-10-09,3.781,3.781,3.582,3.648,3562182
2018-10-10,3.696,3.734,3.6010000000000004,3.6860000000000004,2713006
2018-10-11,3.667,3.667,3.307,3.364,11550000
2018-10-12,3.44,3.487,3.279,3.44,6393000
2018-10-15,3.487,3.487,3.364,3.4019999999999997,2456000
2018-10-16,3.497,3.497,3.3169999999999997,3.355,2394000
2018-10-18,3.43,3.468,3.3169999999999997,3.412,5675000
2018-10-19,3.4210000000000003,3.4589999999999996,3.3739999999999997,3.383,2678000
2018-10-22,3.449,3.563,3.412,3.563,4044000
2018-10-23,3.4589999999999996,3.497,3.3930000000000002,3.4589999999999996,2635000
2018-10-24,3.449,3.478,3.364,3.4019999999999997,894686
2018-10-25,3.298,3.3739999999999997,3.241,3.3739999999999997,1684781
2018-10-26,3.44,3.478,3.364,3.449,2302000
2018-10-29,3.535,3.535,3.345,3.3739999999999997,917000
2018-10-30,3.4019999999999997,3.5060000000000002,3.345,3.4589999999999996,3387000
2018-10-31,3.4589999999999996,3.525,3.364,3.4589999999999996,1853000
2018-11-01,3.6010000000000004,3.611,3.4019999999999997,3.5060000000000002,3049000
2018-11-02,3.554,3.696,3.5060000000000002,3.696,3867000
2018-11-05,3.6010000000000004,3.6860000000000004,3.554,3.658,1741250
2018-11-06,3.62,3.639,3.525,3.6010000000000004,1221000
2018-11-07,3.611,3.677,3.535,3.6010000000000004,1636000
2018-11-08,3.677,3.677,3.5060000000000002,3.5439999999999996,2134000
2018-11-09,3.516,3.554,3.364,3.4589999999999996,2887000
2018-11-12,3.412,3.468,3.4019999999999997,3.4589999999999996,15093000
2018-11-13,3.355,3.487,3.355,3.478,1952000
2018-11-14,3.468,3.487,3.4210000000000003,3.468,2329000
2018-11-15,3.4210000000000003,3.478,3.383,3.478,3292000
2018-11-16,3.5439999999999996,3.5439999999999996,3.44,3.487,2352000
2018-11-19,3.497,3.497,3.383,3.4589999999999996,2359000
2018-11-20,3.4589999999999996,3.4589999999999996,3.364,3.412,3321500
2018-11-21,3.3360000000000003,3.3930000000000002,3.326,3.383,3816465
2018-11-22,3.3739999999999997,3.3739999999999997,3.2689999999999997,3.2880000000000003,5829000
2018-11-23,3.3169999999999997,3.468,3.3169999999999997,3.3930000000000002,3178000
2018-11-26,3.355,3.4019999999999997,3.326,3.4019999999999997,2135000
2018-11-27,3.3739999999999997,3.4210000000000003,3.3360000000000003,3.4019999999999997,3278000
2018-11-28,3.4589999999999996,3.525,3.383,3.516,6470040
2018-11-29,3.478,3.563,3.43,3.4589999999999996,2788000
2018-11-30,3.44,3.4589999999999996,3.364,3.4210000000000003,2944284
2018-12-03,3.5060000000000002,3.6860000000000004,3.412,3.516,4701253
2018-12-04,3.5439999999999996,3.554,3.468,3.468,1590000
2018-12-05,3.487,3.487,3.4019999999999997,3.412,1409000
2018-12-06,3.383,3.383,3.298,3.307,2211000
2018-12-07,3.307,3.326,3.26,3.279,1441686
2018-12-10,3.156,3.25,3.07,3.07,2030000
2018-12-11,3.07,3.137,3.033,3.137,1229000
2018-12-12,3.175,3.175,3.051,3.089,1990000
2018-12-13,3.156,3.156,3.089,3.127,994000
2018-12-14,3.1460000000000004,3.1460000000000004,3.051,3.089,1531000
2018-12-17,3.1180000000000003,3.1180000000000003,3.042,3.08,1514000
2018-12-18,3.0610000000000004,3.089,3.033,3.033,962011
2018-12-19,3.023,3.089,2.966,3.023,747000
2018-12-20,3.0039999999999996,3.051,2.9189999999999996,2.938,2236000
2018-12-21,2.909,3.07,2.8810000000000002,3.033,2153999
2018-12-24,3.127,3.127,3.033,3.108,929186
2018-12-27,3.1460000000000004,3.156,3.08,3.08,1484000
2018-12-28,3.156,3.175,3.0989999999999998,3.175,1191000
2018-12-31,3.1839999999999997,3.2119999999999997,3.156,3.156,882000
2019-01-02,3.137,3.137,3.0610000000000004,3.0610000000000004,808000
2019-01-03,3.156,3.156,2.966,2.995,2330668
2019-01-04,3.033,3.033,2.957,3.023,1294000
2019-01-07,3.033,3.051,2.995,3.033,2151000
2019-01-08,3.042,3.042,2.995,2.995,742000
2019-01-09,3.089,3.0989999999999998,2.9760000000000004,3.0039999999999996,2279000
2019-01-10,3.07,3.07,2.957,3.014,1317976
2019-01-11,3.023,3.033,3.0039999999999996,3.033,1233000
2019-01-14,3.014,3.033,2.928,2.966,2262000
2019-01-15,2.995,3.033,2.947,2.9760000000000004,1630000
2019-01-16,3.0039999999999996,3.042,2.995,3.023,1940591
2019-01-17,3.042,3.042,2.985,3.042,2467260
2019-01-18,3.08,3.1180000000000003,3.023,3.08,6262900
2019-01-21,3.127,3.194,3.0989999999999998,3.1839999999999997,2701000
2019-01-22,3.137,3.1839999999999997,3.07,3.137,2242000
2019-01-23,3.127,3.2689999999999997,3.127,3.26,1774000
2019-01-24,3.2880000000000003,3.449,3.241,3.364,8776000
2019-01-25,3.43,3.43,3.326,3.3360000000000003,2238000
2019-01-28,3.4019999999999997,3.4019999999999997,3.156,3.26,3501300
2019-01-29,3.3739999999999997,3.3739999999999997,3.1839999999999997,3.3169999999999997,2100000
2019-01-30,3.3360000000000003,3.3360000000000003,3.241,3.2689999999999997,4013000
2019-01-31,3.345,3.4210000000000003,3.307,3.383,991000
2019-02-01,3.412,3.412,3.326,3.3930000000000002,1657000
2019-02-04,3.3930000000000002,3.563,3.383,3.497,440000
2019-02-08,3.525,3.677,3.3739999999999997,3.412,2042000
2019-02-11,3.4210000000000003,3.449,3.4019999999999997,3.412,1930967
2019-02-12,3.43,3.43,3.3360000000000003,3.3739999999999997,3969200
2019-02-13,3.4019999999999997,3.449,3.326,3.44,5228000
2019-02-14,3.3930000000000002,3.43,3.345,3.412,12693676
2019-02-15,3.3930000000000002,3.3930000000000002,3.279,3.298,4703243
2019-02-18,3.345,3.4210000000000003,3.326,3.3930000000000002,2222000
2019-02-19,3.3930000000000002,3.43,3.3739999999999997,3.4019999999999997,1698000
2019-02-20,3.412,3.487,3.364,3.3930000000000002,3371000
2019-02-21,3.4019999999999997,3.478,3.383,3.449,2711000
2019-02-22,3.4589999999999996,3.478,3.412,3.468,1591000
2019-02-25,3.4589999999999996,3.497,3.383,3.4019999999999997,12727000
2019-02-26,3.44,3.449,3.364,3.383,2309000
2019-02-27,3.412,3.412,3.3169999999999997,3.3930000000000002,3375000
2019-02-28,3.345,3.4019999999999997,3.326,3.326,1882000
2019-03-01,3.355,3.3930000000000002,3.3169999999999997,3.3360000000000003,1818000
2019-03-04,3.3739999999999997,3.3930000000000002,3.345,3.364,2324000
2019-03-05,3.383,3.497,3.3360000000000003,3.4589999999999996,4483200
2019-03-06,3.44,3.611,3.44,3.4589999999999996,9257174
2019-03-07,3.468,3.468,3.345,3.345,3088000
2019-03-08,3.298,3.345,3.2880000000000003,3.326,6100000
2019-03-11,3.326,3.345,3.241,3.307,5755035
2019-03-12,3.355,3.44,3.326,3.44,4747000
2019-03-13,3.554,3.9419999999999997,3.554,3.9330000000000003,39495000
2019-03-14,3.971,3.9989999999999997,3.8089999999999997,3.895,16978000
2019-03-15,3.923,3.952,3.6860000000000004,3.952,19235500
2019-03-18,3.98,3.99,3.819,3.971,6645000
2019-03-19,4.018,4.018,3.8289999999999997,3.847,6099000
2019-03-20,3.885,3.904,3.7910000000000004,3.8760000000000003,5283000
2019-03-21,3.8760000000000003,3.8760000000000003,3.753,3.7910000000000004,4533000
2019-03-22,3.8,3.8089999999999997,3.734,3.7910000000000004,1644634
2019-03-25,3.7910000000000004,3.819,3.7430000000000003,3.753,4588000
2019-03-26,3.772,3.8289999999999997,3.753,3.753,1315000
2019-03-27,3.781,3.781,3.705,3.762,1952000
2019-03-28,3.7430000000000003,3.819,3.715,3.8,1666004
2019-03-29,3.8,3.847,3.753,3.772,2030000
2019-04-01,3.7910000000000004,3.866,3.753,3.838,2638125
2019-04-02,3.819,3.838,3.7910000000000004,3.8,2149000
2019-04-03,3.8089999999999997,3.8569999999999998,3.62,3.715,8279765
2019-04-04,3.667,3.7430000000000003,3.667,3.7239999999999998,2028000
2019-04-08,3.734,3.762,3.6860000000000004,3.6860000000000004,1587200
2019-04-09,3.696,3.715,3.592,3.6010000000000004,7595000
2019-04-10,3.6010000000000004,3.715,3.6010000000000004,3.658,3892000
2019-04-11,3.63,3.6860000000000004,3.582,3.611,2707000
2019-04-12,3.592,3.63,3.592,3.62,1915000
2019-04-15,3.658,3.696,3.611,3.648,2810000
2019-04-16,3.62,3.696,3.611,3.658,2864000
2019-04-17,3.639,3.6860000000000004,3.582,3.63,6823000
2019-04-18,3.62,3.639,3.582,3.6010000000000004,1126070
2019-04-23,3.62,3.62,3.5439999999999996,3.563,2680838
2019-04-24,3.573,3.592,3.535,3.563,1100000
2019-04-25,3.535,3.582,3.5060000000000002,3.554,1693000
2019-04-26,3.525,3.554,3.5060000000000002,3.525,855634
2019-04-29,3.516,3.554,3.487,3.5060000000000002,762000
2019-04-30,3.487,3.525,3.468,3.487,597490
2019-05-02,3.478,3.554,3.478,3.516,2222000
2019-05-03,3.487,3.554,3.487,3.535,1475343
2019-05-06,3.5060000000000002,3.5060000000000002,3.3739999999999997,3.4210000000000003,3835878
2019-05-07,3.487,3.497,3.3360000000000003,3.4210000000000003,5203000
2019-05-08,3.33,3.35,3.25,3.27,3442000
2019-05-09,3.27,3.28,3.16,3.27,3537000
2019-05-10,3.27,3.34,3.23,3.33,1743492
2019-05-14,3.33,3.36,3.25,3.35,1486317
2019-05-15,3.39,3.48,3.26,3.44,3067317
2019-05-16,3.43,3.45,3.38,3.45,917000
2019-05-17,3.5,3.5,3.35,3.42,2213000
2019-05-20,3.39,3.43,3.3,3.33,944000
2019-05-21,3.32,3.35,3.24,3.32,3082000
2019-05-22,3.35,3.36,3.28,3.32,410000
2019-05-23,3.28,3.29,3.21,3.25,1244650
2019-05-24,3.29,3.3,3.24,3.26,1024346
2019-05-27,3.26,3.29,3.18,3.27,1538000
2019-05-28,3.29,3.34,3.25,3.25,2855349
2019-05-29,3.26,3.26,3.2,3.25,383900
2019-05-30,3.28,3.32,3.25,3.3,1159000
2019-05-31,3.32,3.32,3.22,3.28,1311000
2019-06-03,3.24,3.26,3.21,3.25,1196000
2019-06-04,3.26,3.26,3.19,3.24,2044282
2019-06-05,3.28,3.29,3.21,3.25,831000
2019-06-06,3.25,3.25,3.19,3.22,1216284
2019-06-10,3.27,3.27,3.18,3.23,1357933
2019-06-11,3.24,3.24,3.18,3.22,1898000
2019-06-12,3.2,3.22,3.16,3.2,1442000
2019-06-13,3.18,3.19,3.12,3.19,1668695
2019-06-14,3.18,3.18,3.12,3.17,1025000
2019-06-17,3.18,3.18,3.1,3.13,1541000
2019-06-18,3.14,3.19,3.0,3.18,2067000
2019-06-19,3.19,3.23,3.13,3.17,1011305
2019-06-20,3.18,3.25,3.14,3.24,1782000
2019-06-21,3.23,3.3,3.21,3.3,2484000
2019-06-24,3.3,3.35,3.27,3.32,1377000
2019-06-25,3.29,3.33,3.24,3.3,643100
2019-06-26,3.23,3.31,3.23,3.31,470080
2019-06-27,3.29,3.39,3.27,3.33,1366000
2019-06-28,3.3,3.33,3.25,3.3,1271000
2019-07-02,3.32,3.34,3.28,3.33,1057332
2019-07-03,3.33,3.65,3.33,3.56,5773000
2019-07-04,3.56,3.56,3.43,3.49,1049000
2019-07-05,3.48,3.48,3.43,3.47,414000
2019-07-08,3.46,3.46,3.33,3.4,821000
2019-07-09,3.43,3.43,3.33,3.37,597000
2019-07-10,3.38,3.41,3.34,3.41,406000
2019-07-11,3.44,3.44,3.33,3.38,864366
2019-07-12,3.35,3.38,3.31,3.33,721000
2019-07-15,3.33,3.36,3.28,3.34,1031000
2019-07-16,3.34,3.34,3.23,3.28,1145000
2019-07-17,3.26,3.27,3.23,3.26,749500
2019-07-18,3.23,3.26,3.21,3.26,711001
2019-07-19,3.27,3.31,3.26,3.3,316001
2019-07-22,3.3,3.3,3.23,3.3,612000
2019-07-23,3.29,3.3,3.24,3.25,610000
2019-07-24,3.24,3.25,3.21,3.25,1487000
2019-07-25,3.24,3.29,3.22,3.28,1613400
2019-07-26,3.28,3.3,3.24,3.29,372000
2019-07-29,3.28,3.33,3.28,3.31,1006600
2019-07-30,3.31,3.35,3.3,3.35,2725000
2019-07-31,3.34,3.38,3.29,3.3,497000
2019-08-01,3.32,3.33,3.25,3.3,1304000
2019-08-02,3.24,3.28,3.19,3.28,2036000
2019-08-05,3.29,3.29,3.13,3.2,1583776
2019-08-06,3.13,3.16,3.0,3.08,3234000
2019-08-07,3.13,3.15,3.09,3.1,1301000
2019-08-08,3.1,3.13,3.06,3.08,1104454
2019-08-09,3.07,3.09,3.05,3.06,708196
2019-08-12,3.04,3.15,3.04,3.07,1245000
2019-08-13,3.04,3.07,3.0,3.0,1802000
2019-08-14,3.05,3.05,2.98,2.99,2291705
2019-08-15,2.96,3.03,2.95,3.0,1734000
2019-08-16,3.02,3.07,3.0,3.05,452000
2019-08-19,3.12,3.16,3.1,3.15,576000
2019-08-20,3.16,3.21,3.16,3.2,306000
2019-08-21,3.2,3.22,3.17,3.22,670000
2019-08-22,3.2,3.23,3.18,3.23,323000
2019-08-23,3.15,3.23,3.13,3.21,1296271
2019-08-26,3.1,3.1,2.96,2.99,7694000
2019-08-27,3.02,3.02,2.96,2.98,2278352
2019-08-28,2.98,2.98,2.84,2.95,3467000
2019-08-29,2.92,2.96,2.87,2.96,3818000
2019-08-30,2.98,3.0,2.95,2.98,868000
2019-09-02,2.97,3.0,2.89,2.96,1970000
2019-09-03,2.95,2.97,2.93,2.97,688000
2019-09-04,2.99,2.99,2.93,2.99,1637300
2019-09-05,3.0,3.04,2.95,3.0,5820000
2019-09-06,3.0,3.04,2.94,2.97,2104000
2019-09-09,2.98,3.02,2.93,2.94,2799000
2019-09-10,2.97,3.0,2.95,2.99,1536000
2019-09-11,3.0,3.01,2.97,3.0,1184000
2019-09-12,2.95,2.96,2.93,2.94,251500
2019-09-13,2.95,2.97,2.92,2.96,275248
2019-09-16,3.04,3.04,2.94,2.96,848000
2019-09-17,2.96,2.96,2.85,2.88,3048000
2019-09-18,2.88,2.92,2.87,2.88,1285000
2019-09-19,2.88,2.89,2.85,2.89,660000
2019-09-20,2.9,2.98,2.85,2.98,3614204
2019-09-23,2.98,2.98,2.89,2.96,778000
2019-09-24,2.96,2.99,2.92,2.98,4104400
2019-09-25,2.96,2.99,2.95,2.98,1426000
2019-09-26,3.0,3.01,2.96,3.01,1895000
2019-09-27,2.98,2.98,2.92,2.92,282000
2019-09-30,2.91,2.95,2.87,2.87,503400
2019-10-02,2.92,2.92,2.84,2.87,595400
2019-10-03,2.87,2.88,2.84,2.86,227000
2019-10-04,2.91,2.91,2.82,2.84,511000
2019-10-08,2.86,2.95,2.85,2.9,1196000
2019-10-09,2.9,2.9,2.83,2.9,1067000
2019-10-10,2.88,2.88,2.79,2.84,3886000
2019-10-11,2.86,2.86,2.8,2.83,3241361
2019-10-14,2.83,2.85,2.73,2.82,5509470
2019-10-15,2.83,2.84,2.78,2.82,1031000
2019-10-16,2.79,2.8,2.75,2.8,2505200
2019-10-17,2.79,2.8,2.78,2.8,1725000
2019-10-18,2.82,2.86,2.75,2.86,7271000
2019-10-21,2.86,2.88,2.84,2.86,927000
2019-10-22,2.86,2.9,2.85,2.89,855000
2019-10-23,2.87,2.89,2.85,2.87,552000
2019-10-24,2.85,2.88,2.8,2.88,2914000
2019-10-25,2.89,2.89,2.85,2.89,690000
2019-10-28,2.88,2.91,2.87,2.89,1861000
2019-10-29,2.9,2.94,2.89,2.94,1853000
2019-10-30,2.93,2.93,2.9,2.93,245000
2019-10-31,2.97,3.02,2.86,2.87,1708000
2019-11-01,2.89,2.93,2.86,2.93,1032000
2019-11-04,2.92,2.93,2.87,2.9,1160000
2019-11-05,2.92,2.92,2.86,2.89,1704000
2019-11-06,2.92,2.92,2.84,2.87,1584000
2019-11-07,2.87,2.88,2.83,2.85,1549000
2019-11-08,2.87,2.87,2.81,2.84,1805000
2019-11-11,2.81,2.81,2.74,2.79,3705000
2019-11-12,2.79,2.79,2.69,2.72,4723000
2019-11-13,2.71,2.77,2.65,2.69,7088000
2019-11-14,2.69,2.7,2.57,2.69,9594000
2019-11-15,2.69,2.69,2.6,2.69,8454000
2019-11-18,2.66,2.71,2.65,2.71,519000
2019-11-19,2.7,2.79,2.7,2.78,1725000
2019-11-20,2.77,2.82,2.75,2.8,3221000
2019-11-21,2.76,2.79,2.75,2.78,841000
2019-11-22,2.79,2.8,2.73,2.78,502000
2019-11-25,2.7,2.83,2.7,2.77,2450000
2019-11-26,2.77,2.77,2.7,2.7,4580000
2019-11-27,2.7,2.71,2.59,2.59,9046000
2019-11-28,2.61,2.63,2.51,2.53,9056000
2019-11-29,2.52,2.58,2.51,2.55,6443680
2019-12-02,2.57,2.64,2.57,2.61,3417021
2019-12-03,2.6,2.69,2.58,2.69,2542000
2019-12-04,2.67,2.71,2.66,2.71,1366000
2019-12-05,2.7,2.75,2.7,2.75,1657000
2019-12-06,2.75,2.79,2.75,2.79,2659050
2019-12-09,2.76,2.86,2.76,2.78,3168000
2019-12-10,2.76,2.79,2.74,2.77,1650000
2019-12-11,2.76,2.77,2.72,2.76,677962
2019-12-12,2.74,2.8,2.74,2.79,1090000
2019-12-13,2.81,2.83,2.76,2.78,1703000
2019-12-16,2.78,2.8,2.7,2.76,3283000
2019-12-17,2.75,2.81,2.74,2.8,2160000
2019-12-18,2.79,2.8,2.72,2.75,2152675
2019-12-19,2.75,2.81,2.75,2.78,1756000
2019-12-20,2.76,2.79,2.75,2.79,1978000
2019-12-23,2.76,2.77,2.74,2.76,723887
2019-12-24,2.77,2.78,2.75,2.77,191000
2019-12-27,2.78,2.82,2.74,2.8,2407090
2019-12-30,2.8,2.83,2.79,2.83,1551000
2019-12-31,2.82,2.86,2.74,2.86,3469000
2020-01-02,2.84,2.9,2.82,2.89,2073002
2020-01-03,2.91,2.92,2.85,2.89,964000
2020-01-06,2.93,3.01,2.81,2.85,1671000
2020-01-07,2.85,2.85,2.8,2.81,1398000
2020-01-08,2.8,2.8,2.7,2.74,2303300
2020-01-09,2.79,2.79,2.73,2.75,1851000
2020-01-10,2.76,2.9,2.74,2.88,4738000
2020-01-13,2.9,2.96,2.86,2.88,1894000
2020-01-14,2.87,2.91,2.81,2.84,2127000
2020-01-15,2.83,2.86,2.81,2.84,824000
2020-01-16,2.83,2.85,2.78,2.81,1319832
2020-01-17,2.82,2.89,2.8,2.89,1090000
2020-01-20,2.88,2.89,2.84,2.88,1234000
2020-01-21,2.88,2.89,2.76,2.82,2278000
2020-01-22,2.81,2.82,2.75,2.79,611000
2020-01-23,2.79,2.8,2.7,2.71,895000
2020-01-24,2.7,2.7,2.66,2.68,393000
2020-01-29,2.65,2.72,2.61,2.72,1475000
2020-01-30,2.71,2.71,2.53,2.54,2627000
2020-01-31,2.54,2.56,2.5,2.52,870000
2020-02-03,2.5,2.6,2.49,2.6,2457880
2020-02-04,2.61,2.68,2.59,2.68,2304129
2020-02-05,2.66,2.71,2.58,2.7,1606000
2020-02-06,2.72,2.74,2.67,2.74,1515000
2020-02-07,2.69,2.73,2.62,2.73,3228000
2020-02-10,2.75,2.75,2.65,2.7,1189000
2020-02-11,2.67,2.74,2.66,2.73,1934000
2020-02-12,2.7,2.73,2.64,2.73,4613943
2020-02-13,2.73,2.77,2.67,2.69,2511100
2020-02-14,2.69,2.7,2.67,2.69,883000
2020-02-17,2.67,2.81,2.67,2.8,4826000
2020-02-18,2.78,2.85,2.76,2.85,3009000
2020-02-19,2.84,2.89,2.81,2.89,2744000
2020-02-20,2.89,2.97,2.89,2.97,5671000
2020-02-21,2.97,3.06,2.91,3.03,4838000
2020-02-24,2.99,3.02,2.94,3.0,3253000
2020-02-25,2.94,3.02,2.9,3.01,1970000
2020-02-26,2.98,3.07,2.96,3.06,2610000
2020-02-27,3.04,3.1,3.04,3.08,1993000
2020-02-28,3.05,3.14,3.0,3.08,3430000
2020-03-02,3.09,3.09,2.99,3.03,6391000
2020-03-03,3.03,3.19,3.01,3.19,4328000
2020-03-04,3.14,3.27,3.14,3.25,3078000
2020-03-05,3.21,3.27,3.21,3.25,2014190
2020-03-06,3.22,3.23,3.13,3.19,1254000
2020-03-09,3.12,3.12,2.98,3.02,2268000
2020-03-10,3.02,3.06,2.96,3.03,2205000
2020-03-11,3.0,3.07,3.0,3.03,716000
2020-03-12,2.99,2.99,2.91,2.99,2348000
2020-03-13,2.92,3.09,2.82,3.09,4021205
2020-03-16,3.07,3.07,2.87,2.9,2088000
2020-03-17,2.85,2.89,2.72,2.87,5262000
2020-03-18,2.86,2.88,2.74,2.8,1572200
2020-03-19,2.75,2.77,2.59,2.65,2482000
2020-03-20,2.68,2.69,2.58,2.62,12918000
2020-03-23,2.54,2.65,2.47,2.56,2242680
2020-03-24,2.64,2.7,2.55,2.7,3698000
2020-03-25,2.71,2.85,2.71,2.85,1824000
2020-03-26,2.8,2.87,2.79,2.83,779000
2020-03-27,2.9,2.91,2.83,2.86,2418000
2020-03-30,2.7,2.79,2.7,2.78,2668000
2020-03-31,2.8,2.85,2.78,2.82,908000
2020-04-01,2.84,2.87,2.77,2.8,2314000
2020-04-02,2.8,2.83,2.8,2.8,475000
2020-04-03,2.8,2.83,2.77,2.8,738000
2020-04-06,2.82,2.85,2.75,2.8,238000
2020-04-07,2.83,2.91,2.79,2.85,3690000
2020-04-08,2.89,2.89,2.77,2.84,1363000
2020-04-09,2.82,2.89,2.82,2.89,2621000
2020-04-14,2.89,2.93,2.88,2.93,1345000
2020-04-15,2.94,2.96,2.86,2.9,447000
2020-04-16,2.86,2.86,2.83,2.85,981000
2020-04-17,2.85,2.91,2.83,2.89,1241000
2020-04-20,2.86,2.89,2.83,2.89,458000
2020-04-21,2.86,2.86,2.81,2.86,925138
2020-04-22,2.81,2.96,2.75,2.92,1859000
2020-04-23,2.93,3.22,2.93,3.09,4643000
2020-04-24,3.11,3.24,3.06,3.24,5623000
2020-04-27,3.26,3.26,3.1,3.1,837000
2020-04-28,3.12,3.16,3.02,3.12,768000
2020-04-29,3.15,3.15,3.06,3.06,708000
2020-05-04,3.06,3.06,2.95,2.98,298931
2020-05-05,2.97,2.99,2.94,2.97,660000
2020-05-06,2.96,3.02,2.96,3.0,1142000
2020-05-07,3.01,3.06,2.97,3.06,1130000
2020-05-08,3.06,3.12,3.04,3.12,1223000
2020-05-11,3.15,3.15,3.01,3.04,1125000
2020-05-12,3.04,3.05,3.0,3.05,547000
2020-05-13,3.06,3.06,3.02,3.04,318000
2020-05-14,3.05,3.05,3.0,3.04,433000
2020-05-15,3.06,3.1,2.97,3.05,1907000
2020-05-18,2.99,3.09,2.99,3.09,928650
2020-05-19,3.05,3.09,3.04,3.06,1217000
2020-05-20,3.0,3.01,2.94,3.0,938000
2020-05-21,2.91,3.0,2.9,2.99,439150
2020-05-22,2.98,2.98,2.84,2.89,1296000
2020-05-25,2.82,2.88,2.81,2.88,744000
2020-05-26,2.89,2.89,2.83,2.88,559000
2020-05-27,2.88,2.88,2.81,2.85,1004000
2020-05-28,2.88,2.9,2.82,2.9,937000
2020-05-29,2.92,2.93,2.71,2.71,2614000
2020-06-01,2.75,2.9,2.75,2.9,562000
2020-06-02,2.88,2.91,2.84,2.91,526000
2020-06-03,2.89,2.99,2.89,2.97,1609000
2020-06-04,2.99,3.15,2.96,3.06,3817000
2020-06-05,3.04,3.1,3.0,3.07,1538000
2020-06-08,3.03,3.08,3.0,3.05,2113500
2020-06-09,3.07,3.18,3.05,3.15,2518000
2020-06-10,3.15,3.16,3.08,3.13,1147000
2020-06-11,3.15,3.15,3.03,3.1,910000
2020-06-12,3.09,3.09,3.02,3.06,571000
2020-06-15,3.04,3.11,3.0,3.05,1317000
2020-06-16,3.04,3.13,3.04,3.12,1655000
2020-06-17,3.12,3.15,3.06,3.14,1473000
2020-06-18,3.14,3.33,3.06,3.15,14718150
2020-06-19,3.12,3.23,3.11,3.16,2629000
2020-06-22,3.22,3.23,3.04,3.05,2108500
2020-06-23,3.0,3.01,2.95,2.97,1696000
2020-06-24,2.94,3.02,2.92,2.98,1616100
2020-06-26,3.04,3.04,2.95,2.97,237000
2020-06-29,2.98,3.09,2.98,3.09,1676000
2020-06-30,3.1,3.55,3.1,3.4,12456000
2020-07-02,3.5,4.18,3.5,4.09,21975000
2020-07-03,4.22,4.54,3.92,4.5,23066972
2020-07-06,4.85,5.9,4.8,5.53,47425300
2020-07-07,5.99,7.69,5.83,7.0,65522928
2020-07-08,7.15,8.9,6.71,7.07,56357704
2020-07-09,8.0,8.0,7.14,7.97,42849152
2020-07-10,8.0,8.45,6.1,6.44,71943000
2020-07-13,6.75,7.5,6.7,6.76,47924368
2020-07-14,6.85,9.2,6.85,8.46,65232000
2020-07-15,8.1,8.3,7.13,7.38,43931000
2020-07-16,7.42,8.05,6.9,7.27,38721000
2020-07-17,7.5,8.4,7.5,7.93,30350500
2020-07-20,8.25,9.55,8.25,9.18,48175900
2020-07-21,9.22,9.99,8.67,9.77,36651540
2020-07-22,9.77,11.4,9.14,9.25,49431800
2020-07-23,9.6,10.3,9.16,10.1,47822804
2020-07-24,10.1,10.5,8.76,8.99,41593100
2020-07-27,8.89,9.37,7.82,8.08,40626188
2020-07-28,8.18,9.0,8.08,8.67,38092000
2020-07-29,8.68,9.1,8.3,8.49,17673000
2020-07-30,8.67,9.12,8.44,8.88,27780700
2020-07-31,8.83,9.1,8.61,8.82,15508700
2020-08-03,8.0,8.82,7.88,8.42,36926500
2020-08-04,8.6,8.6,8.18,8.19,11086000
2020-08-05,8.18,8.61,7.99,8.58,16844000
2020-08-06,8.6,9.45,8.6,9.27,25254000
2020-08-07,9.2,9.25,8.36,8.81,15785000
2020-08-10,8.75,9.17,8.55,8.83,9046000
2020-08-11,8.76,9.15,8.15,8.34,18085000
2020-08-12,8.41,8.41,7.06,7.42,39644000
2020-08-13,7.6,7.78,7.13,7.23,17382000
2020-08-14,7.2,7.44,7.18,7.38,8580756
2020-08-17,7.35,7.87,7.35,7.69,11509176
2020-08-18,7.69,7.72,7.42,7.56,4093000
2020-08-19,7.57,7.58,7.18,7.33,6095000
2020-08-20,7.3,7.33,6.69,7.03,15699000
2020-08-21,7.2,7.57,7.0,7.34,19021100
2020-08-24,7.32,7.64,7.17,7.61,9076000
2020-08-25,7.46,7.66,7.3,7.39,7197300
