Date,Open,High,Low,Close,Volume
2012-11-15,1.49,1.59,1.48,1.57,1245375
2012-11-16,1.53,1.58,1.52,1.53,688000
2012-11-19,1.53,1.62,1.46,1.56,1229000
2012-11-20,1.55,1.64,1.54,1.58,2110500
2012-11-21,1.59,1.69,1.58,1.64,2254025
2012-11-22,1.64,1.71,1.62,1.67,1768850
2012-11-23,1.69,1.73,1.65,1.7,2160000
2012-11-26,1.7,1.72,1.66,1.67,1935025
2012-11-27,1.67,1.75,1.64,1.64,1583300
2012-11-28,1.64,1.68,1.59,1.64,1302000
2012-11-29,1.66,1.75,1.63,1.67,4051000
2012-11-30,1.67,1.69,1.64,1.67,2090250
2012-12-03,1.67,1.69,1.62,1.62,1175000
2012-12-04,1.62,1.66,1.59,1.62,388850
2012-12-05,1.62,1.66,1.61,1.62,818000
2012-12-06,1.62,1.62,1.56,1.59,693000
2012-12-07,1.6,1.64,1.58,1.6,1092000
2012-12-10,1.62,1.68,1.61,1.63,1278000
2012-12-11,1.64,1.64,1.58,1.6,627000
2012-12-12,1.62,1.64,1.61,1.61,503175
2012-12-13,1.63,1.63,1.58,1.59,444000
2012-12-14,1.59,1.62,1.59,1.61,459050
2012-12-17,1.6,1.62,1.57,1.6,1144025
2012-12-18,1.59,1.59,1.55,1.57,548000
2012-12-19,1.57,1.58,1.46,1.52,2016025
2012-12-20,1.51,1.54,1.51,1.53,392075
2012-12-21,1.53,1.53,1.52,1.52,50000
2012-12-24,1.52,1.55,1.5,1.53,229000
2012-12-27,1.56,1.58,1.55,1.56,939000
2012-12-28,1.58,1.62,1.56,1.61,2093375
2012-12-31,1.58,1.69,1.57,1.69,2649175
2013-01-02,1.7,1.71,1.66,1.68,4933000
2013-01-03,1.67,1.7,1.66,1.69,5450100
2013-01-04,1.69,1.74,1.65,1.71,6484600
2013-01-07,1.75,2.15,1.73,2.06,16798924
2013-01-08,2.04,2.37,2.04,2.1,16878750
2013-01-09,2.16,2.23,2.13,2.19,3742125
2013-01-10,2.19,2.23,2.1,2.15,4281650
2013-01-11,2.13,2.17,2.06,2.1,2218000
2013-01-14,2.08,2.33,2.04,2.32,12515825
2013-01-15,2.37,2.5,2.28,2.47,7822425
2013-01-16,2.46,2.54,2.41,2.49,4850800
2013-01-17,2.52,2.55,2.4,2.49,2455400
2013-01-18,2.5,2.54,2.44,2.5,827500
2013-01-21,2.5,2.56,2.44,2.55,1809300
2013-01-22,2.55,2.63,2.5,2.62,1070775
2013-01-23,2.64,2.67,2.49,2.5,3146250
2013-01-24,2.5,2.55,2.45,2.46,1733175
2013-01-25,2.44,2.48,2.38,2.44,2835000
2013-01-28,2.41,2.44,2.38,2.38,939450
2013-01-29,2.36,2.41,2.3,2.39,4302100
2013-01-30,2.4,2.49,2.38,2.4,761800
2013-01-31,2.4,2.45,2.38,2.43,2859000
2013-02-01,2.45,2.45,2.38,2.44,1676000
2013-02-04,2.45,2.46,2.39,2.41,572000
2013-02-05,2.37,2.38,2.32,2.38,1273000
2013-02-06,2.41,2.42,2.32,2.41,985000
2013-02-07,2.38,2.4,2.27,2.32,2428000
2013-02-08,2.39,2.44,2.32,2.35,1386650
2013-02-14,2.4,2.4,2.32,2.38,915000
2013-02-15,2.39,2.47,2.39,2.41,933000
2013-02-18,2.43,2.45,2.39,2.4,1228000
2013-02-19,2.4,2.44,2.33,2.38,1872300
2013-02-20,2.38,2.38,2.31,2.32,1418000
2013-02-21,2.3,2.35,2.27,2.3,1769000
2013-02-22,2.3,2.36,2.3,2.32,617000
2013-02-25,2.32,2.34,2.28,2.3,1261000
2013-02-26,2.32,2.32,2.28,2.3,2005000
2013-02-27,2.32,2.34,2.3,2.32,493000
2013-02-28,2.38,2.61,2.31,2.53,5493150
2013-03-01,2.57,2.6,2.52,2.54,1366000
2013-03-04,2.51,2.51,2.3,2.36,1889000
2013-03-05,2.41,2.46,2.39,2.44,840000
2013-03-06,2.44,2.46,2.41,2.44,1754325
2013-03-07,2.42,2.55,2.42,2.51,1101000
2013-03-08,2.55,2.58,2.51,2.56,1295250
2013-03-11,2.64,2.64,2.38,2.54,1702025
2013-03-12,2.56,2.59,2.47,2.5,289000
2013-03-13,2.5,2.54,2.35,2.44,1557000
2013-03-14,2.45,2.49,2.38,2.42,1024000
2013-03-15,2.45,2.45,2.28,2.3,1930150
2013-03-18,2.33,2.36,2.16,2.25,1290125
2013-03-19,2.3,2.32,2.27,2.31,433500
2013-03-20,2.28,2.45,2.27,2.44,1538525
2013-03-21,2.42,2.5,2.41,2.46,875000
2013-03-22,2.47,2.5,2.42,2.44,487000
2013-03-25,2.44,2.47,2.42,2.44,409000
2013-03-26,2.44,2.46,2.41,2.41,766000
2013-03-27,2.44,2.44,2.32,2.43,1329000
2013-03-28,2.4,2.41,2.35,2.37,311000
2013-04-02,2.37,2.38,2.34,2.37,594300
2013-04-03,2.36,2.37,2.33,2.33,302000
2013-04-05,2.34,2.35,2.22,2.28,426000
2013-04-08,2.3,2.32,2.26,2.31,1070000
2013-04-09,2.32,2.32,2.29,2.32,1890625
2013-04-10,2.33,2.39,2.31,2.35,2354000
2013-04-11,2.37,2.55,2.36,2.55,5595725
2013-04-12,2.55,2.71,2.55,2.68,3951750
2013-04-15,2.67,2.86,2.64,2.73,5767176
2013-04-16,2.73,2.83,2.68,2.83,1635000
2013-04-17,2.84,2.96,2.8,2.94,3999750
2013-04-18,2.97,3.28,2.97,3.25,9790075
2013-05-09,5.11,6.28,4.86,6.08,77314952
2013-05-10,6.22,6.67,5.71,6.14,36444792
2013-05-13,6.14,6.86,6.08,6.83,28555084
2013-05-14,6.81,7.03,6.57,6.67,14229100
2013-05-15,6.68,6.81,6.49,6.72,10047950
2013-05-16,6.71,6.72,6.5,6.61,6320164
2013-05-20,6.71,7.41,6.71,7.24,13153225
2013-05-21,7.24,8.57,7.2,8.06,26089124
2013-05-22,8.0,8.05,7.73,7.79,9093025
2013-05-23,7.8,7.92,7.37,7.52,9128725
2013-05-24,7.34,7.96,7.34,7.89,5705650
2013-05-27,7.88,8.11,7.88,8.09,4089100
2013-05-28,8.06,8.79,7.95,8.25,7165375
2013-05-29,8.28,8.49,8.0,8.11,3259550
2013-05-30,8.2,8.2,7.82,8.02,2168150
2013-05-31,8.02,8.35,7.83,8.06,3951000
2013-06-03,8.06,8.06,7.5,7.52,6925075
2013-06-04,7.49,7.52,7.2,7.45,6232150
2013-06-05,7.37,7.83,7.37,7.54,1971275
2013-06-06,7.49,7.63,7.38,7.57,1888300
2013-06-07,7.75,8.18,7.75,7.9,6306675
2013-06-10,8.13,8.15,7.66,7.67,2408175
2013-06-11,7.58,7.86,7.55,7.74,2393000
2013-06-13,7.65,7.65,7.35,7.55,3478100
2013-06-14,7.56,7.65,7.49,7.52,2125954
2013-06-17,7.43,7.6,7.41,7.53,1237750
2013-06-18,7.48,7.68,7.44,7.58,2033575
2013-06-19,7.56,7.56,7.44,7.53,2260925
2013-06-20,7.52,7.53,7.18,7.32,2282000
2013-06-21,7.15,7.17,6.81,7.14,2778000
2013-06-24,7.15,7.15,6.26,6.4,4882025
2013-06-25,6.38,6.6,5.82,6.4,4154300
2013-06-26,6.56,6.95,6.51,6.9,4637000
2013-06-27,7.03,7.07,6.68,6.78,1841000
2013-06-28,6.8,7.05,6.72,6.97,3042000
2013-07-02,6.91,6.98,6.67,6.82,2426000
2013-07-03,6.74,6.8,6.14,6.17,4150000
2013-07-04,6.13,6.16,5.49,5.75,7823645
2013-07-05,5.8,6.0,5.47,5.52,2994101
2013-07-08,5.59,6.32,5.55,6.28,5475025
2013-07-09,6.22,6.22,5.89,6.03,1831750
2013-07-10,5.97,6.03,5.81,5.97,1239025
2013-07-11,6.05,6.35,6.01,6.29,3674000
2013-07-12,6.46,6.9,6.46,6.67,3148400
2013-07-15,6.5,6.91,6.35,6.54,2087950
2013-07-16,6.54,6.6,6.4,6.44,885025
2013-07-17,6.41,6.41,6.06,6.16,2969000
2013-07-18,6.17,6.22,5.9,5.94,2182025
2013-07-19,5.94,5.99,5.72,5.82,1917000
2013-07-22,5.8,5.88,5.52,5.58,4912000
2013-07-23,5.64,5.85,5.58,5.8,2273000
2013-07-24,5.75,5.79,5.66,5.74,1027000
2013-07-25,5.7,5.86,5.65,5.84,1339450
2013-07-26,5.83,6.13,5.83,6.06,2112000
2013-07-29,6.07,6.13,5.99,6.05,756000
2013-07-30,6.09,6.12,5.9,5.96,1804100
2013-07-31,5.96,6.14,5.94,6.12,1546050
2013-08-01,6.17,6.22,6.1,6.17,1162025
2013-08-02,6.17,6.48,6.08,6.4,2337025
2013-08-05,6.45,6.64,6.39,6.56,2187100
2013-08-06,6.55,6.62,6.22,6.56,2077550
2013-08-07,7.66,9.79,7.28,7.79,10833200
2013-08-08,7.75,8.43,7.75,8.0,4512000
2013-08-09,8.0,8.18,7.79,8.0,1205800
2013-08-12,8.0,8.05,7.71,7.88,966600
2013-08-13,7.96,8.0,7.71,7.92,879200
2013-08-15,7.88,8.13,7.75,8.09,1824000
2013-08-16,8.05,8.39,7.92,8.22,2891600
2013-08-19,8.18,8.81,8.18,8.52,5503600
2013-08-20,7.96,8.05,7.62,7.75,6997525
2013-08-21,7.66,7.79,7.24,7.62,3473250
2013-08-22,7.58,7.62,7.37,7.45,1958575
2013-08-23,7.58,7.58,6.9,7.37,1791850
2013-08-26,7.37,7.49,7.32,7.38,912625
2013-08-27,7.39,7.49,7.28,7.4,1829225
2013-08-28,7.32,7.42,7.26,7.32,2526200
2013-08-29,7.27,7.42,7.08,7.18,2127025
2013-08-30,7.3,7.4,7.05,7.2,2878200
2013-09-02,7.13,7.25,6.75,6.76,4329850
2013-09-03,6.74,6.8,6.55,6.6,3595000
2013-09-04,6.6,6.98,6.3,6.69,3293925
2013-09-06,6.79,6.79,6.6,6.64,657000
2013-09-09,6.65,6.7,6.61,6.66,1143200
2013-09-10,6.65,6.78,6.65,6.69,1380725
2013-09-11,6.63,6.77,6.38,6.43,1851275
2013-09-12,6.51,6.54,6.18,6.3,1868400
2013-09-13,6.28,6.39,6.0,6.09,5170825
2013-09-16,6.01,6.14,5.99,6.01,1313400
2013-09-17,6.13,6.16,5.97,6.0,1090000
2013-09-18,6.05,6.65,6.05,6.49,7835400
2013-09-19,6.59,6.67,6.33,6.39,5002125
2013-09-23,6.39,6.39,6.1,6.15,2447000
2013-09-24,6.25,6.25,6.03,6.09,2682400
2013-09-25,6.09,6.13,6.02,6.08,2373600
2013-09-26,6.02,6.08,5.81,5.89,3225200
2013-09-27,5.85,5.89,5.72,5.82,2015600
2013-09-30,5.78,5.78,5.61,5.65,2080800
2013-10-02,5.71,5.91,5.46,5.61,3303800
2013-10-03,5.68,5.73,5.42,5.55,2426675
2013-10-04,5.55,5.82,5.5,5.75,4544400
2013-10-07,5.76,5.8,5.54,5.65,2830200
2013-10-08,5.65,6.17,5.65,6.1,7297000
2013-10-09,6.15,6.46,6.03,6.38,6782027
2013-10-10,6.38,6.53,6.22,6.32,1907100
2013-10-11,6.32,6.43,6.29,6.35,2680000
2013-10-15,6.4,6.4,6.26,6.35,2657650
2013-10-16,6.38,6.47,6.24,6.3,1939525
2013-10-17,6.37,6.4,6.23,6.29,3627000
2013-10-18,6.33,6.35,6.2,6.3,2366200
2013-10-21,6.35,6.35,6.26,6.28,1861400
2013-10-22,6.34,6.34,6.23,6.25,1071424
2013-10-23,6.33,6.35,6.17,6.24,1115125
2013-10-24,6.24,6.27,5.93,5.99,2110000
2013-10-25,5.99,6.0,5.77,5.8,1912000
2013-10-28,5.88,5.88,5.59,5.67,2686000
2013-10-29,5.7,5.84,5.64,5.69,1895000
2013-10-30,5.71,5.73,5.45,5.58,2227400
2013-10-31,5.6,5.6,5.28,5.48,4419400
2013-11-01,5.54,5.56,5.39,5.42,1471000
2013-11-04,5.42,5.47,5.35,5.39,1515400
2013-11-05,5.4,5.46,5.35,5.41,609400
2013-11-06,5.4,5.4,4.95,5.1,2787000
2013-11-07,5.05,5.24,5.05,5.07,1381000
2013-11-08,5.0,5.0,4.88,4.96,1329000
2013-11-11,5.1,5.15,5.0,5.1,2936200
2013-11-12,5.18,5.18,5.07,5.1,2021887
2013-11-13,5.09,5.16,4.98,4.99,1289200
2013-11-14,5.1,5.15,5.08,5.11,833200
2013-11-15,5.12,5.25,5.05,5.05,2658000
2013-11-18,5.1,5.15,5.07,5.09,2082400
2013-11-19,5.15,5.15,5.0,5.05,1014200
2013-11-20,5.05,5.08,4.65,5.0,2314800
2013-11-21,5.0,5.0,4.84,4.84,1862600
2013-11-22,4.98,4.98,4.84,4.86,632000
2013-11-25,4.95,4.95,4.7,4.79,2122600
2013-11-26,4.79,4.82,4.73,4.78,714400
2013-11-27,4.81,4.83,4.63,4.65,1455000
2013-11-28,4.6,4.6,4.27,4.32,4420486
2013-11-29,4.32,4.32,4.08,4.17,7419750
2013-12-02,4.22,4.47,4.1,4.31,5341000
2013-12-03,4.28,4.31,4.19,4.25,1800400
2013-12-04,4.25,4.3,4.25,4.29,677000
2013-12-05,4.29,4.3,4.22,4.25,1034000
2013-12-06,4.14,4.33,4.12,4.14,516800
2013-12-09,4.2,4.2,4.03,4.09,1120200
2013-12-10,4.09,4.1,3.93,4.02,1607625
2013-12-11,3.95,3.99,3.9,3.9,584729
2013-12-12,4.07,4.32,4.05,4.1,3088000
2013-12-13,4.03,4.03,3.82,3.84,3245200
2013-12-16,3.84,3.86,3.73,3.75,2490800
2013-12-17,3.74,3.75,3.65,3.72,1749600
2013-12-18,3.78,3.8,3.67,3.71,1299000
2013-12-19,3.71,3.71,3.5,3.52,2739600
2013-12-20,3.53,3.6,3.38,3.58,2096000
2013-12-23,3.6,3.8,3.6,3.7,1783000
2013-12-24,3.78,3.78,3.69,3.74,150000
2013-12-27,3.74,3.76,3.65,3.7,830000
2013-12-30,3.76,3.76,3.62,3.66,587001
2013-12-31,3.64,3.8,3.64,3.77,1205000
2014-01-02,3.72,3.72,3.65,3.66,1098000
2014-01-03,3.66,3.66,3.59,3.59,744000
2014-01-06,3.59,3.73,3.5,3.6,1092800
2014-01-07,3.6,3.88,3.6,3.85,3382000
2014-01-08,3.95,4.65,3.9,4.62,6905000
2014-01-10,4.5,4.76,4.1,4.69,6558000
2014-01-13,4.8,5.52,4.69,5.36,7630400
2014-01-14,5.38,5.84,5.35,5.54,6656200
2014-01-15,5.61,5.74,5.07,5.26,7497275
2014-01-16,5.28,5.49,5.1,5.11,1730200
2014-01-17,5.15,5.16,4.74,4.78,3964000
2014-01-20,4.76,4.87,4.71,4.8,3007800
2014-01-21,4.8,5.19,4.79,4.9,3179200
2014-01-22,4.8,4.89,4.74,4.78,1990050
2014-01-23,4.75,4.87,4.74,4.75,1719000
2014-01-24,4.75,4.79,4.7,4.74,1971000
2014-01-27,4.61,4.73,4.31,4.34,2809225
2014-01-28,4.3,4.45,4.28,4.3,2070600
2014-01-29,4.31,4.34,4.13,4.19,1357600
2014-01-30,4.14,4.38,4.12,4.3,481000
2014-02-04,4.3,4.3,4.07,4.19,730100
2014-02-05,4.29,4.3,3.98,4.17,1154000
2014-02-06,4.11,4.22,4.08,4.18,204400
2014-02-07,4.25,4.35,4.15,4.3,553300
2014-02-10,4.3,4.32,4.19,4.2,860000
2014-02-11,4.19,4.25,4.04,4.1,2763100
2014-02-12,4.1,4.24,4.1,4.2,1303000
2014-02-13,4.15,4.2,4.08,4.12,814800
2014-02-14,4.12,4.15,4.08,4.12,516000
2014-02-17,4.13,4.2,4.08,4.18,796400
2014-02-18,4.16,4.18,4.1,4.13,992800
2014-02-19,4.11,4.83,4.11,4.83,3486200
2014-02-20,4.84,5.03,4.6,4.85,3611800
2014-02-21,4.85,4.94,4.7,4.83,1958450
2014-02-24,4.8,4.8,4.3,4.4,2276000
2014-02-25,4.49,4.81,4.27,4.28,1910000
2014-02-26,4.32,4.4,4.17,4.3,502400
2014-02-27,4.32,4.42,4.26,4.39,398000
2014-02-28,4.4,4.45,4.09,4.23,1059000
2014-03-03,4.17,4.25,4.14,4.19,413000
2014-03-04,4.18,4.59,4.18,4.46,1233050
2014-03-05,4.57,4.65,4.29,4.42,698800
2014-03-06,4.42,4.45,4.3,4.4,364000
2014-03-07,4.33,4.4,4.26,4.28,382000
2014-03-10,4.28,4.28,4.18,4.21,392200
2014-03-11,4.29,4.3,4.18,4.26,499000
2014-03-12,4.19,4.21,4.08,4.2,1103000
2014-03-13,4.23,4.32,3.98,4.0,1839000
2014-03-14,4.0,4.05,3.77,3.81,1665400
2014-03-17,3.85,4.01,3.78,3.83,1023000
2014-03-18,3.89,3.99,3.83,3.9,1241000
2014-03-19,3.95,3.95,3.71,3.71,768000
2014-03-20,3.62,3.68,3.52,3.54,1641050
2014-03-21,3.5,3.74,3.5,3.61,1391350
2014-03-24,3.71,3.78,3.66,3.73,961075
2014-03-25,3.66,3.76,3.64,3.65,464800
2014-03-26,3.65,3.75,3.63,3.68,386400
2014-03-27,3.72,3.72,3.51,3.6,392000
2014-03-28,3.7,3.74,3.6,3.66,353000
2014-03-31,3.72,3.75,3.62,3.74,435060
2014-04-01,3.8,3.8,3.75,3.75,209200
2014-04-02,3.8,4.15,3.8,4.08,2225000
2014-04-03,4.14,4.2,4.0,4.06,1842625
2014-04-04,4.1,4.1,3.91,3.92,497000
2014-04-07,3.95,4.0,3.85,3.97,471000
2014-04-08,3.92,4.0,3.86,3.96,546000
2014-04-09,4.0,4.09,3.94,4.0,371000
2014-04-10,4.0,4.0,3.87,3.93,325000
2014-04-11,3.88,3.9,3.73,3.76,1166000
2014-04-14,3.81,3.85,3.64,3.71,889000
2014-04-15,3.71,3.85,3.66,3.67,631000
2014-04-16,3.7,3.79,3.62,3.62,493000
2014-04-17,3.7,3.7,3.56,3.63,708300
2014-04-22,3.66,3.68,3.63,3.64,179000
2014-04-23,3.65,3.67,3.6,3.61,143000
2014-04-24,3.65,3.68,3.63,3.63,87000
2014-04-25,3.64,3.64,3.58,3.61,212800
2014-04-28,3.61,3.65,3.49,3.49,718000
2014-04-29,3.46,3.46,3.39,3.42,716000
2014-04-30,3.5,3.65,3.5,3.53,530000
2014-05-02,3.55,3.65,3.4,3.62,412000
2014-05-05,3.64,3.66,3.49,3.53,233000
2014-05-07,3.54,3.54,3.3,3.35,535000
2014-05-08,3.35,3.35,3.25,3.27,398000
2014-05-09,3.21,3.35,3.2,3.24,231000
2014-05-12,3.21,3.29,3.21,3.29,125350
2014-05-13,3.34,3.39,3.29,3.35,242000
2014-05-14,3.39,3.48,3.38,3.43,327000
2014-05-15,3.5,3.5,3.39,3.4,271000
2014-05-16,3.29,3.44,3.21,3.39,244000
2014-05-19,3.41,3.44,3.29,3.38,232000
2014-05-20,3.42,3.42,3.28,3.34,274000
2014-05-21,3.33,3.33,3.25,3.26,168000
2014-05-22,3.26,3.37,3.26,3.34,209000
2014-05-23,3.38,3.48,3.38,3.42,333100
2014-05-26,3.43,3.46,3.35,3.45,285600
2014-05-27,3.41,3.5,3.35,3.4,268000
2014-05-28,3.4,3.4,3.33,3.35,151000
2014-05-29,3.35,3.35,3.21,3.27,217000
2014-05-30,3.33,3.37,3.25,3.35,440000
2014-06-03,3.4,3.55,3.39,3.39,1048000
2014-06-04,3.5,3.52,3.39,3.44,4256075
2014-06-05,3.43,3.51,3.4,3.48,1610000
2014-06-06,3.48,3.5,3.44,3.47,2156525
2014-06-09,3.5,3.54,3.43,3.46,2870000
2014-06-10,3.47,3.67,3.47,3.52,3735400
2014-06-11,3.55,3.55,3.44,3.44,1279000
2014-06-12,3.5,3.5,3.43,3.45,1961000
2014-06-13,3.5,3.5,3.4,3.47,430000
2014-06-16,3.49,3.5,3.46,3.46,550000
2014-06-17,3.49,3.49,3.34,3.39,356000
2014-06-18,3.31,3.54,3.31,3.53,1843400
2014-06-19,3.52,3.62,3.51,3.51,1756000
2014-06-20,3.48,3.58,3.48,3.54,3048000
2014-06-23,3.54,3.54,3.48,3.5,3857800
2014-06-24,3.5,3.52,3.43,3.45,1577000
2014-06-25,3.5,3.5,3.45,3.48,1794000
2014-06-26,3.47,3.55,3.43,3.53,2049000
2014-06-27,3.54,3.54,3.38,3.39,2330000
2014-06-30,3.39,3.42,3.35,3.37,1840250
2014-07-02,3.4,3.43,3.35,3.43,1754000
2014-07-03,3.44,3.5,3.36,3.49,3428000
2014-07-04,3.45,3.49,3.38,3.42,2791400
2014-07-07,3.44,3.62,3.43,3.62,5980000
2014-07-08,3.65,3.65,3.58,3.6,4161830
2014-07-09,3.6,3.62,3.5,3.54,2903000
2014-07-10,3.54,3.62,3.53,3.57,2670400
2014-07-11,3.45,3.46,3.35,3.39,3817000
2014-07-14,3.43,3.53,3.39,3.45,3766000
2014-07-15,3.44,3.5,3.43,3.45,2093000
2014-07-16,3.5,3.5,3.41,3.44,3488350
2014-07-17,3.47,3.47,3.36,3.37,3939600
2014-07-18,3.38,3.38,3.33,3.37,3358000
2014-07-21,3.36,3.57,3.14,3.49,4016200
2014-07-22,3.46,3.49,3.44,3.45,3582000
2014-07-23,3.45,3.6,3.43,3.6,5775000
2014-07-24,3.58,3.73,3.56,3.71,4392000
2014-07-25,3.73,3.75,3.63,3.72,2457000
2014-07-28,3.72,3.92,3.71,3.88,4865725
2014-07-29,3.92,3.96,3.8,3.82,4498000
2014-07-30,3.84,3.9,3.7,3.74,3350000
2014-07-31,3.73,3.88,3.67,3.85,4131000
2014-08-01,3.81,3.81,3.71,3.72,3143000
2014-08-04,3.73,3.77,3.69,3.71,3067025
2014-08-05,3.75,3.75,3.56,3.63,4384025
2014-08-06,3.6,3.63,3.56,3.63,2879000
2014-08-07,3.65,3.65,3.58,3.6,3013000
2014-08-08,3.61,3.73,3.6,3.71,4685000
2014-08-11,3.72,3.82,3.69,3.81,3204100
2014-08-12,3.81,4.1,3.81,3.91,6480800
2014-08-13,3.95,4.01,3.85,3.91,4870000
2014-08-14,3.87,3.95,3.87,3.89,2702000
2014-08-15,3.89,3.91,3.85,3.88,2783000
2014-08-18,3.89,3.89,3.73,3.76,3099000
2014-08-19,3.76,3.79,3.7,3.72,3229075
2014-08-20,3.75,3.77,3.7,3.76,2352500
2014-08-21,3.76,3.76,3.71,3.74,2515025
2014-08-22,3.71,3.75,3.71,3.72,2405000
2014-08-25,3.7,3.72,3.69,3.7,2817125
2014-08-26,3.72,3.72,3.65,3.7,3336000
2014-08-27,3.67,3.8,3.66,3.67,2631000
2014-08-28,3.72,3.72,3.6,3.63,3012825
2014-08-29,3.67,3.78,3.63,3.75,3685400
2014-09-01,3.71,3.71,3.58,3.6,2694000
2014-09-02,3.6,3.63,3.55,3.59,1887000
2014-09-03,3.61,3.67,3.59,3.65,1908000
2014-09-04,3.65,3.71,3.62,3.69,2235000
2014-09-05,3.65,3.72,3.65,3.72,1581250
2014-09-08,3.69,3.72,3.67,3.7,2141000
2014-09-10,3.68,3.68,3.59,3.61,2128250
2014-09-11,3.61,3.61,3.53,3.59,2524600
2014-09-12,3.6,3.6,3.52,3.54,1982000
2014-09-15,3.52,3.52,3.39,3.5,2185800
2014-09-16,3.45,3.45,3.25,3.38,2053000
2014-09-17,3.41,3.42,3.35,3.37,1795000
2014-09-18,3.35,3.38,3.25,3.35,2843000
2014-09-19,3.34,3.34,3.24,3.27,2162000
2014-09-22,3.23,3.27,3.22,3.25,2450000
2014-09-23,3.26,3.28,3.23,3.26,1294000
2014-09-24,3.21,3.27,3.2,3.24,1634000
2014-09-25,3.25,3.25,3.22,3.23,1812000
2014-09-26,3.23,3.23,3.13,3.14,1838000
2014-09-29,3.09,3.09,2.94,3.03,2601000
2014-09-30,3.06,3.06,2.94,2.98,2374000
2014-10-03,3.01,3.13,2.99,3.08,3335000
2014-10-06,3.09,3.18,3.08,3.15,1466000
2014-10-07,3.17,3.17,3.05,3.08,1592000
2014-10-08,3.07,3.1,3.05,3.06,1002000
2014-10-09,3.1,3.1,3.07,3.08,781200
2014-10-10,3.05,3.05,2.98,3.02,1600000
2014-10-13,2.97,3.03,2.97,3.0,1385600
2014-10-14,2.98,3.0,2.96,2.98,1105000
2014-10-15,2.99,3.02,2.97,2.98,1063000
2014-10-16,3.0,3.0,2.97,2.97,899151
2014-10-17,2.92,2.97,2.92,2.95,1693000
2014-10-20,2.95,2.96,2.92,2.94,833000
2014-10-21,3.0,3.0,2.92,2.94,832000
2014-10-22,2.95,3.0,2.93,2.95,1342000
2014-10-23,2.94,2.96,2.93,2.94,748000
2014-10-24,2.97,2.99,2.93,2.95,903000
2014-10-27,2.93,2.95,2.9,2.94,1268000
2014-10-28,2.91,2.96,2.91,2.93,1103000
2014-10-29,2.94,2.97,2.92,2.97,1692000
2014-10-30,2.97,3.15,2.94,3.11,2112000
2014-10-31,3.18,3.18,3.06,3.11,1296200
2014-11-03,3.13,3.2,3.13,3.18,1540400
2014-11-04,3.18,3.22,3.12,3.12,1335000
2014-11-05,3.09,3.11,3.06,3.1,1172000
2014-11-06,3.1,3.14,3.06,3.14,1332000
2014-11-07,3.11,3.11,3.01,3.04,1279000
2014-11-10,3.05,3.06,2.98,3.04,1088000
2014-11-11,3.03,3.05,3.0,3.01,1431000
2014-11-12,3.03,3.03,2.98,2.98,1251000
2014-11-13,3.01,3.02,2.98,2.98,1183675
2014-11-14,3.02,3.04,3.0,3.03,1478200
2014-11-17,3.0,3.02,2.98,2.99,1895000
2014-11-18,3.0,3.0,2.98,2.98,1343000
2014-11-19,2.95,3.02,2.95,3.0,1391000
2014-11-20,2.98,2.99,2.95,2.97,1137600
2014-11-21,2.93,3.0,2.92,2.96,1708000
2014-11-24,3.08,3.69,3.08,3.33,3908800
2014-11-25,3.34,3.35,3.09,3.22,1919000
2014-11-26,3.28,3.32,3.18,3.29,1154000
2014-11-27,3.26,3.3,3.2,3.24,1140000
2014-11-28,3.24,3.3,3.24,3.3,1068800
2014-12-01,3.25,3.25,3.1,3.12,1562000
2014-12-02,3.1,3.15,3.06,3.06,1714000
2014-12-03,3.09,3.21,3.09,3.16,1092000
2014-12-04,3.16,3.17,3.14,3.16,1158200
2014-12-05,3.15,3.17,3.06,3.07,1320000
2014-12-08,3.07,3.08,3.02,3.04,1337600
2014-12-09,3.06,3.13,2.95,2.96,1238000
2014-12-10,2.96,2.96,2.88,2.93,1803000
2014-12-11,2.93,2.95,2.8,2.82,2779000
2014-12-12,2.85,2.91,2.81,2.82,1391825
2014-12-15,2.82,2.82,2.7,2.71,1604000
2014-12-16,2.75,2.82,2.72,2.76,1257000
2014-12-17,2.8,2.8,2.63,2.65,1900973
2014-12-18,2.65,2.73,2.64,2.64,987000
2014-12-19,2.65,2.67,2.63,2.67,1021000
2014-12-22,2.74,2.74,2.61,2.66,1082000
2014-12-23,2.66,2.68,2.62,2.63,1072025
2014-12-24,2.66,2.66,2.63,2.65,540000
2014-12-29,2.65,2.78,2.65,2.75,1659151
2014-12-30,2.78,2.91,2.74,2.9,2275000
2014-12-31,2.94,3.09,2.92,3.08,1917000
2015-01-02,3.08,3.19,3.05,3.12,2433600
2015-01-05,3.13,3.32,3.12,3.14,4087000
2015-01-06,3.19,3.19,3.0,3.11,2400000
2015-01-07,3.15,3.15,3.05,3.05,1489000
2015-01-08,3.1,3.15,3.07,3.14,2067000
2015-01-09,3.15,3.16,3.08,3.12,2569000
2015-01-12,3.13,3.13,3.01,3.06,2506000
2015-01-13,3.07,3.14,3.02,3.1,1465000
2015-01-14,3.13,3.16,3.09,3.14,3836000
2015-01-15,3.15,3.16,3.08,3.16,1693000
2015-01-16,3.17,3.19,3.1,3.14,979000
2015-01-17,3.11,3.11,3.11,3.11,0
2015-01-19,3.12,3.15,3.06,3.07,1307000
2015-01-20,3.06,3.13,3.06,3.08,1025000
2015-01-21,3.1,3.13,3.09,3.09,1099000
2015-01-22,3.09,3.15,3.08,3.1,984000
2015-01-23,3.15,3.15,3.06,3.09,13261000
2015-01-26,3.06,3.15,3.06,3.07,11801356
2015-01-27,3.1,3.14,3.06,3.09,1589000
2015-01-28,3.09,3.09,2.92,2.97,1871000
2015-01-29,2.95,3.15,2.86,3.01,12042000
2015-01-30,3.03,3.07,2.91,3.03,814000
2015-02-02,3.01,3.15,3.01,3.12,3240400
2015-02-03,3.13,3.42,3.1,3.33,10844000
2015-02-04,3.42,3.61,3.42,3.48,19435200
2015-02-05,3.49,3.59,3.38,3.4,16124400
2015-02-06,3.35,3.52,3.25,3.47,7139000
2015-02-09,3.5,3.53,3.43,3.5,1435000
2015-02-10,3.5,3.55,3.48,3.51,12010725
2015-02-11,3.59,3.69,3.52,3.69,13532700
2015-02-12,3.72,3.9,3.72,3.88,10787700
2015-02-13,3.93,4.4,3.92,4.39,19584800
2015-02-16,4.45,4.6,4.31,4.48,7455875
2015-02-17,4.47,4.55,4.43,4.55,2792100
2015-02-18,4.55,4.71,4.33,4.7,5199500
2015-02-23,4.7,4.8,4.49,4.74,3171800
2015-02-24,4.75,4.95,4.7,4.79,12113600
2015-02-25,4.78,4.9,4.78,4.9,10269650
2015-02-26,5.0,5.01,4.89,4.9,8512600
2015-02-27,4.87,5.0,4.85,5.0,4788225
2015-03-02,5.03,5.2,4.99,5.1,8419575
2015-03-03,5.1,5.1,4.94,5.09,3479625
2015-03-04,5.1,5.1,4.91,5.04,5171000
2015-03-05,4.97,5.1,4.92,5.05,2148800
2015-03-06,5.0,5.04,4.93,5.03,2091500
2015-03-09,4.96,5.0,4.9,4.98,3446400
2015-03-10,4.99,5.0,4.75,4.98,6563275
2015-03-11,4.91,4.96,4.78,4.87,14029000
2015-03-12,4.81,4.89,4.65,4.8,9322000
2015-03-13,4.9,4.9,4.68,4.81,9149250
2015-03-16,4.83,4.83,4.6,4.72,3688000
2015-03-17,4.75,4.9,4.57,4.83,5845600
2015-03-18,4.94,4.95,4.72,4.94,3556600
2015-03-19,4.95,4.95,4.78,4.79,3571025
2015-03-20,4.75,4.91,4.75,4.87,2861000
2015-03-23,4.88,4.94,4.79,4.93,3269000
2015-03-24,4.88,4.92,4.75,4.79,5266000
2015-03-25,4.81,4.81,4.71,4.77,1263000
2015-03-26,4.76,4.86,4.63,4.76,4129025
2015-03-27,4.71,4.83,4.62,4.7,14052000
2015-03-30,4.73,4.74,4.58,4.59,4083000
2015-03-31,4.7,4.74,4.48,4.6,6237050
2015-04-01,4.63,4.63,4.4,4.51,16516225
2015-04-02,4.59,4.65,4.42,4.52,2106000
2015-04-08,4.52,4.62,4.47,4.57,7564200
2015-04-09,4.57,4.88,4.57,4.83,6923260
2015-04-10,4.88,5.11,4.85,5.11,6999825
2015-04-13,5.8,5.92,5.44,5.9,11682123
2015-04-14,5.78,6.0,5.63,5.89,12310175
2015-04-15,5.89,5.97,5.29,5.6,165675728
2015-04-16,5.7,6.36,5.7,6.19,27342524
2015-04-17,6.4,6.54,6.15,6.25,21635400
2015-04-20,6.26,6.34,5.75,5.91,12204600
2015-04-21,5.9,6.09,5.75,5.82,7032525
2015-04-22,5.83,6.6,5.83,6.59,26460100
2015-04-23,6.78,7.08,6.44,6.64,24543764
2015-04-24,7.1,7.18,6.6,7.17,32735550
2015-04-27,7.3,7.59,7.1,7.28,19646076
2015-04-28,7.29,7.35,6.98,6.99,9796050
2015-04-29,6.99,7.48,6.98,7.33,11390800
2015-04-30,7.35,7.98,7.12,7.93,20588924
2015-05-04,8.15,8.6,7.85,8.15,19385976
2015-05-05,8.25,8.34,7.38,7.49,16412025
2015-05-06,7.5,7.71,6.96,7.13,13501425
2015-05-07,7.05,7.25,6.75,7.14,12837000
2015-05-08,7.18,7.61,7.11,7.51,10328000
2015-05-11,7.7,7.87,7.46,7.83,14844200
2015-05-12,7.85,7.85,7.55,7.62,6422200
2015-05-13,7.6,8.04,7.58,7.78,13056225
2015-05-14,7.8,8.42,7.78,7.93,77757048
2015-05-18,7.96,8.12,7.75,7.78,26717624
2015-05-19,7.92,7.96,7.65,7.68,13032000
2015-05-20,7.6,7.84,7.6,7.77,19383000
2015-05-21,7.77,7.77,7.5,7.57,11404000
2015-05-22,7.51,7.75,7.3,7.62,15284400
2015-05-26,7.83,8.16,7.7,7.79,24389400
2015-05-27,7.8,7.98,7.68,7.78,14543450
2015-05-28,7.97,8.08,7.83,7.86,46365448
2015-05-29,7.86,8.04,7.86,8.0,30392224
2015-06-01,7.92,8.09,7.81,7.94,31568950
2015-06-02,7.94,8.04,7.59,7.72,14488000
2015-06-03,7.6,7.7,7.32,7.43,11162000
2015-06-04,7.45,7.59,7.01,7.4,13469525
2015-06-05,7.42,7.58,7.12,7.17,7851000
2015-06-08,7.27,7.27,6.71,6.85,16041200
2015-06-09,6.84,6.97,6.17,6.17,21230500
2015-06-10,6.3,7.06,6.3,6.69,23079600
2015-06-11,7.0,7.0,6.69,6.83,7499000
2015-06-12,6.89,7.14,6.84,7.0,9632250
2015-06-15,7.1,7.1,6.6,6.71,5423000
2015-06-16,6.71,6.85,6.34,6.49,14931000
2015-06-17,6.59,6.59,6.41,6.51,9760200
2015-06-18,6.58,6.7,6.48,6.51,6485000
2015-06-19,6.71,6.71,6.42,6.43,6821725
2015-06-22,6.46,6.51,6.41,6.45,2829200
2015-06-23,6.5,6.81,6.47,6.71,5224000
2015-06-24,6.75,6.75,6.58,6.61,5207000
2015-06-25,6.6,6.65,6.44,6.5,3649000
2015-06-26,6.4,6.41,6.03,6.21,6188590
2015-06-29,6.21,6.24,5.28,5.73,24404000
2015-06-30,5.52,6.32,5.41,6.01,15739000
2015-07-02,6.02,6.02,5.44,5.6,8254000
2015-07-03,5.78,5.78,4.84,5.01,24663996
2015-07-06,5.01,5.2,3.9,4.51,35442004
2015-07-07,4.59,4.6,4.06,4.15,18334000
2015-07-08,3.95,3.95,2.97,3.28,49123476
2015-07-09,3.25,4.6,3.03,4.51,41131000
2015-07-10,4.6,5.15,4.6,4.85,26462000
2015-07-13,4.76,5.39,4.62,5.38,17401000
2015-07-14,5.58,5.58,5.0,5.07,9129000
2015-07-15,5.17,5.27,4.84,4.88,11717000
2015-07-16,4.89,5.23,4.68,5.19,10439000
2015-07-17,5.05,5.34,5.05,5.2,6710400
2015-07-20,5.29,5.41,5.18,5.35,9640675
2015-07-21,5.4,5.71,5.33,5.66,8923000
2015-07-22,5.51,5.74,5.39,5.43,8502000
2015-07-23,5.49,5.56,5.37,5.51,3616400
2015-07-24,5.37,5.48,5.29,5.35,4212000
2015-07-27,5.33,5.33,4.8,4.83,22180600
2015-07-28,4.9,4.95,4.41,4.42,17325000
2015-07-29,4.58,4.58,4.38,4.52,5289000
2015-07-30,4.6,4.6,4.32,4.33,5518000
2015-07-31,4.38,4.47,4.21,4.46,8575000
2015-08-03,4.46,4.46,3.8,4.06,23740000
2015-08-04,4.06,4.21,3.95,4.12,15091000
2015-08-05,4.12,4.41,4.05,4.37,4414000
2015-08-06,4.33,4.36,4.17,4.29,5355000
2015-08-07,4.2,4.41,4.2,4.33,2679000
2015-08-10,4.25,4.52,4.13,4.49,6477000
2015-08-11,4.5,4.73,4.41,4.43,6519575
2015-08-12,4.28,4.28,3.98,4.0,17901000
2015-08-13,4.1,4.18,3.98,4.03,2918000
2015-08-14,4.08,4.15,4.02,4.07,2560000
2015-08-17,4.09,4.16,3.99,4.01,2823000
2015-08-18,4.01,4.13,3.85,3.9,3786400
2015-08-19,3.93,3.95,3.78,3.86,5164000
2015-08-20,3.85,3.87,3.46,3.6,24371000
2015-08-21,3.45,3.47,3.21,3.32,26834000
2015-08-24,3.19,3.37,3.0,3.2,11522000
2015-08-25,3.05,3.6,3.04,3.49,23148000
2015-08-26,3.66,3.66,3.2,3.31,16288000
2015-08-27,3.47,3.58,3.33,3.57,7582200
2015-08-28,3.7,3.95,3.55,3.64,10933000
2015-08-31,3.66,3.7,3.31,3.41,6219025
2015-09-01,3.38,3.4,3.2,3.33,6601000
2015-09-02,3.4,3.45,3.2,3.23,7203000
2015-09-04,3.22,3.26,3.07,3.11,12449000
2015-09-07,3.15,3.27,3.1,3.18,6380000
2015-09-08,3.2,3.34,3.2,3.31,6942000
2015-09-09,3.35,3.46,3.35,3.43,10392050
2015-09-10,3.3,3.47,3.29,3.42,3779000
2015-09-11,3.39,3.7,3.39,3.53,2057800
2015-09-14,3.59,3.63,3.49,3.54,6153000
2015-09-15,3.53,3.6,3.46,3.58,4885000
2015-09-16,3.54,3.67,3.54,3.62,7294000
2015-09-17,3.68,3.93,3.62,3.84,6347000
2015-09-18,3.84,3.95,3.78,3.88,9106000
2015-09-21,3.85,3.96,3.79,3.95,2261250
2015-09-22,3.98,4.08,3.96,3.96,4561000
2015-09-23,3.95,3.95,3.68,3.8,11644000
2015-09-24,3.84,3.89,3.75,3.81,1335000
2015-09-25,3.83,3.94,3.75,3.84,1900000
2015-09-29,3.8,3.8,3.57,3.63,6837000
2015-09-30,3.74,3.82,3.7,3.75,2460000
2015-10-02,3.85,3.93,3.71,3.9,8846000
2015-10-05,3.99,4.0,3.87,3.91,6800000
2015-10-06,3.93,3.94,3.55,3.66,22635000
2015-10-07,3.69,3.84,3.63,3.8,3641000
2015-10-08,3.8,3.83,3.69,3.76,6148600
2015-10-09,3.8,3.89,3.78,3.8,3830000
2015-10-12,3.84,3.93,3.76,3.93,7791000
2015-10-13,3.94,3.94,3.78,3.83,2440000
2015-10-14,3.84,3.84,3.65,3.66,2796000
2015-10-15,3.68,3.73,3.61,3.66,3309000
2015-10-16,3.7,3.76,3.62,3.66,2358000
2015-10-19,3.71,3.71,3.58,3.6,3300000
2015-10-20,3.6,3.62,3.53,3.57,4376675
2015-10-22,3.58,3.65,3.45,3.46,3136200
2015-10-23,3.51,3.51,3.35,3.36,9054000
2015-10-26,3.45,3.5,3.32,3.33,4906429
2015-10-27,3.39,3.39,3.22,3.28,3911000
2015-10-28,3.3,3.39,3.23,3.32,4583000
2015-10-29,3.3,3.42,3.26,3.4,2573000
2015-10-30,3.36,3.36,3.25,3.29,3157000
2015-11-02,3.22,3.36,3.21,3.22,2220000
2015-11-03,3.27,3.36,3.24,3.26,2145000
2015-11-04,3.25,3.51,3.25,3.46,7420000
2015-11-05,3.45,3.49,3.39,3.43,1326000
2015-11-06,3.44,3.49,3.37,3.47,2069000
2015-11-09,3.41,3.49,3.35,3.36,2472000
2015-11-10,3.31,3.35,3.21,3.21,3523100
2015-11-11,3.21,3.24,3.13,3.17,4155000
2015-11-12,3.17,3.33,3.16,3.22,3151000
2015-11-13,3.19,3.2,3.12,3.17,3887000
2015-11-16,3.1,3.16,3.08,3.13,2402000
2015-11-17,3.15,3.21,3.11,3.11,2753250
2015-11-18,3.12,3.27,3.06,3.23,4604125
2015-11-19,3.3,3.34,3.22,3.24,1361175
2015-11-20,3.26,3.31,3.23,3.3,1840000
2015-11-23,3.31,3.31,3.2,3.21,2921125
2015-11-24,3.17,3.25,3.17,3.21,1919000
2015-11-25,3.25,3.52,3.25,3.41,12943020
2015-11-26,3.42,3.44,3.28,3.36,6383000
2015-11-27,3.38,3.39,3.19,3.2,2680000
2015-11-30,3.22,3.3,3.13,3.2,3490000
2015-12-01,3.26,3.3,3.14,3.25,8962000
2015-12-02,3.31,3.48,3.25,3.4,11021000
2015-12-03,3.4,3.41,3.29,3.33,2512000
2015-12-04,3.29,3.3,3.25,3.27,2902000
2015-12-07,3.27,3.3,3.24,3.26,3240000
2015-12-08,3.22,3.26,3.2,3.24,3680000
2015-12-09,3.22,3.27,3.2,3.23,1186000
2015-12-10,3.26,3.27,3.06,3.11,8839025
2015-12-11,3.11,3.11,3.0,3.1,6917000
2015-12-14,3.1,3.11,3.01,3.1,3612000
2015-12-15,3.06,3.14,3.06,3.1,2937000
2015-12-16,3.16,3.18,3.01,3.01,5069000
2015-12-17,3.06,3.06,2.94,3.0,11811000
2015-12-18,2.97,3.03,2.87,2.89,10325500
2015-12-21,2.95,3.02,2.83,3.01,7180000
2015-12-22,3.05,3.06,2.99,3.04,3644500
2015-12-23,3.05,3.17,3.05,3.14,4548000
2015-12-24,3.2,3.22,3.13,3.2,2127000
2015-12-28,3.21,3.24,3.15,3.17,1425000
2015-12-29,3.19,3.2,3.1,3.15,4236000
2015-12-30,3.15,3.15,3.0,3.02,2904000
2015-12-31,3.09,3.09,2.97,3.02,2784000
2016-01-04,3.03,3.09,2.78,2.82,7215005
2016-01-05,2.86,2.92,2.71,2.86,9135000
2016-01-06,2.82,2.89,2.79,2.87,3786000
2016-01-07,2.86,2.88,2.7,2.73,12617800
2016-01-08,2.7,2.73,2.64,2.67,12268000
2016-01-11,2.58,2.63,2.51,2.53,7518000
2016-01-12,2.57,2.59,2.37,2.47,9883000
2016-01-13,2.56,2.56,2.37,2.39,8804000
2016-01-14,2.32,2.41,2.28,2.39,6873000
2016-01-15,2.35,2.4,2.23,2.24,8918000
2016-01-18,2.24,2.4,2.22,2.36,7628000
2016-01-19,2.39,2.5,2.32,2.47,8122000
2016-01-20,2.46,2.49,2.35,2.42,9874000
2016-01-21,2.43,2.43,2.23,2.32,5669000
2016-01-22,2.34,2.34,2.22,2.24,5145000
2016-01-25,2.29,2.29,2.17,2.24,8822091
2016-01-26,2.24,2.27,2.12,2.16,7535400
2016-01-27,2.22,2.22,2.13,2.16,5775000
2016-01-28,2.17,2.2,2.1,2.15,1743125
2016-01-29,2.17,2.2,2.13,2.18,5733000
2016-02-01,2.21,2.26,2.18,2.25,3334000
2016-02-02,2.24,2.25,2.18,2.22,1614000
2016-02-03,2.22,2.22,2.13,2.17,2245000
2016-02-04,2.2,2.21,2.17,2.21,2063000
2016-02-05,2.21,2.23,2.18,2.18,1395051
2016-02-11,2.06,2.13,2.02,2.07,1880000
2016-02-12,2.08,2.17,2.03,2.05,1642000
2016-02-15,2.1,2.15,2.06,2.14,1086000
2016-02-16,2.14,2.24,2.13,2.17,1916000
2016-02-17,2.19,2.24,2.14,2.19,880000
2016-02-18,2.19,2.24,2.16,2.2,2335000
2016-02-19,2.2,2.25,2.14,2.23,3449000
2016-02-22,2.25,2.35,2.21,2.24,7861000
2016-02-23,2.27,2.3,2.22,2.24,2028000
2016-02-24,2.22,2.23,2.14,2.17,1128000
2016-02-25,2.14,2.17,2.09,2.12,1638000
2016-02-26,2.13,2.16,2.08,2.09,1585000
2016-02-29,2.1,2.14,2.04,2.11,2118000
2016-03-01,2.13,2.17,2.11,2.14,1134125
2016-03-02,2.17,2.3,2.16,2.3,7418000
2016-03-03,2.32,2.38,2.24,2.3,4548000
2016-03-04,2.3,2.37,2.28,2.34,4489000
2016-03-07,2.38,2.45,2.34,2.42,2217000
2016-03-08,2.42,2.42,2.35,2.38,1814040
2016-03-09,2.33,2.36,2.28,2.32,1162000
2016-03-10,2.3,2.41,2.3,2.35,3264000
2016-03-11,2.35,2.46,2.35,2.46,1521000
2016-03-14,2.48,2.59,2.48,2.54,2622600
2016-03-15,2.55,2.56,2.43,2.5,2072000
2016-03-16,2.48,2.5,2.4,2.43,1457572
2016-03-17,2.46,2.49,2.45,2.48,582167
2016-03-18,2.46,2.53,2.46,2.51,1386000
2016-03-21,2.51,2.58,2.5,2.54,841000
2016-03-22,2.54,2.57,2.36,2.39,2901683
2016-03-23,2.38,2.49,2.35,2.37,4202000
2016-03-24,2.32,2.35,2.27,2.34,2424000
2016-03-29,2.31,2.31,2.25,2.25,2520000
2016-03-30,2.28,2.28,2.25,2.27,1698305
2016-03-31,2.28,2.42,2.28,2.42,3099896
2016-04-01,2.4,2.5,2.35,2.39,2961214
2016-04-05,2.37,2.43,2.31,2.39,2300025
2016-04-06,2.4,2.66,2.4,2.62,7010000
2016-04-07,2.6,2.65,2.47,2.6,3026000
2016-04-08,2.51,2.7,2.51,2.66,2836000
2016-04-11,2.63,3.03,2.63,3.01,13084000
2016-04-12,3.05,3.14,2.88,2.99,11145317
2016-04-13,2.96,3.13,2.92,3.01,3571000
2016-04-14,3.03,3.06,2.95,2.95,6935200
2016-04-15,2.98,3.0,2.92,2.95,2172000
2016-04-18,2.9,2.92,2.85,2.86,3253000
2016-04-19,2.9,3.04,2.9,2.95,2478000
2016-04-20,2.95,3.01,2.89,2.9,3327000
2016-04-21,2.93,2.99,2.92,2.96,1713925
2016-04-22,2.96,3.17,2.94,3.14,7934000
2016-04-25,3.16,3.27,3.1,3.23,5828500
2016-04-26,3.22,3.36,3.22,3.35,7404400
2016-04-27,3.41,3.5,2.96,3.03,15964000
2016-04-28,3.09,3.09,2.8,2.82,6656000
2016-04-29,2.83,2.93,2.72,2.75,4572000
2016-05-03,2.79,2.82,2.65,2.67,4663000
2016-05-04,2.69,2.78,2.62,2.7,4427000
2016-05-05,2.7,2.71,2.63,2.69,3441575
2016-05-06,2.67,2.68,2.57,2.64,6281000
2016-05-09,2.63,2.64,2.59,2.62,2360000
2016-05-10,2.61,2.64,2.58,2.62,4376000
2016-05-11,2.67,2.67,2.55,2.62,2605170
2016-05-12,2.62,2.69,2.58,2.63,1693000
2016-05-13,2.68,2.68,2.5,2.56,3378000
2016-05-16,2.52,2.55,2.4,2.49,2590000
2016-05-17,2.53,2.53,2.41,2.48,2160000
2016-05-18,2.5,2.5,2.38,2.4,977000
2016-05-19,2.41,2.42,2.38,2.39,245000
2016-05-20,2.4,2.43,2.36,2.39,354000
2016-05-23,2.42,2.43,2.36,2.38,506000
2016-05-24,2.4,2.4,2.32,2.36,1022000
2016-05-25,2.41,2.41,2.32,2.38,909000
2016-05-26,2.34,2.38,2.32,2.38,1263000
2016-05-27,2.39,2.44,2.35,2.39,1023094
2016-05-30,2.42,2.46,2.39,2.45,990000
2016-05-31,2.47,2.63,2.41,2.53,3456172
2016-06-01,2.53,2.64,2.5,2.63,1944500
2016-06-02,2.64,2.65,2.55,2.6,882000
2016-06-03,2.59,2.63,2.57,2.62,1380650
2016-06-06,2.63,2.64,2.58,2.62,1231300
2016-06-07,2.64,2.88,2.63,2.72,5043000
2016-06-08,2.73,2.83,2.72,2.77,896707
2016-06-10,2.79,2.8,2.71,2.74,789019
2016-06-13,2.74,2.74,2.55,2.66,1618000
2016-06-14,2.68,2.75,2.65,2.66,703250
2016-06-15,2.63,2.65,2.61,2.64,721000
2016-06-16,2.61,2.62,2.57,2.62,1740000
2016-06-17,2.69,2.69,2.58,2.65,993511
2016-06-20,2.68,2.73,2.67,2.71,1041000
2016-06-21,2.7,2.71,2.66,2.67,442000
2016-06-22,2.68,2.7,2.65,2.66,797854
2016-06-23,2.69,2.79,2.64,2.69,2243000
2016-06-24,2.73,2.73,2.48,2.57,3457000
2016-06-27,2.6,2.62,2.52,2.61,726167
2016-06-28,2.59,2.6,2.55,2.58,241000
2016-06-29,2.6,2.64,2.55,2.63,2631000
2016-06-30,2.68,2.69,2.63,2.68,3480000
2016-07-04,2.73,2.78,2.69,2.73,3262342
2016-07-05,2.82,2.82,2.71,2.75,1003170
2016-07-06,2.76,2.76,2.67,2.73,764000
2016-07-07,2.74,2.74,2.63,2.65,974000
2016-07-08,2.61,2.67,2.6,2.65,1066000
2016-07-11,2.68,2.69,2.61,2.66,2627000
2016-07-12,2.7,2.72,2.65,2.7,1820492
2016-07-13,2.74,2.74,2.63,2.65,934000
2016-07-14,2.69,2.69,2.62,2.64,934435
2016-07-15,2.67,2.67,2.6,2.64,1242000
2016-07-18,2.63,2.63,2.58,2.61,512800
2016-07-19,2.63,2.63,2.59,2.6,821000
2016-07-20,2.58,2.65,2.58,2.6,427000
2016-07-21,2.59,2.6,2.49,2.5,4067815
2016-07-22,2.5,2.56,2.5,2.53,569000
2016-07-25,2.53,2.58,2.5,2.52,1026000
2016-07-26,2.53,2.55,2.46,2.52,907000
2016-07-27,2.53,2.53,2.4,2.44,1945000
2016-07-28,2.47,2.47,2.3,2.33,4401000
2016-07-29,2.39,2.39,2.31,2.32,1577600
2016-08-01,2.39,2.39,2.31,2.34,976000
2016-08-03,2.36,2.36,2.3,2.32,1021000
2016-08-04,2.34,2.37,2.28,2.31,1509000
2016-08-05,2.34,2.37,2.28,2.33,2821000
2016-08-08,2.36,2.37,2.32,2.34,2904000
2016-08-09,2.33,2.5,2.33,2.38,12770000
2016-08-10,2.38,2.43,2.37,2.4,5656000
2016-08-11,2.41,2.46,2.33,2.36,3453000
2016-08-12,2.39,2.42,2.36,2.42,1162000
2016-08-15,2.4,2.48,2.39,2.46,2198000
2016-08-16,2.46,2.52,2.46,2.5,3098600
2016-08-17,2.48,2.56,2.47,2.5,1795200
2016-08-18,2.51,2.55,2.48,2.5,1696000
2016-08-19,2.49,2.5,2.4,2.47,1127000
2016-08-22,2.48,2.48,2.41,2.47,2291000
2016-08-23,2.48,2.5,2.39,2.43,1677000
2016-08-24,2.42,2.42,2.33,2.37,1596200
2016-08-25,2.4,2.4,2.32,2.33,741000
2016-08-26,2.32,2.35,2.32,2.34,647000
2016-08-29,2.33,2.38,2.31,2.33,1265000
2016-08-30,2.33,2.38,2.29,2.29,1747000
2016-08-31,2.29,2.31,2.26,2.27,1324000
2016-09-01,2.25,2.28,2.18,2.24,2066000
2016-09-02,2.22,2.24,2.18,2.19,3969600
2016-09-05,2.2,2.26,2.19,2.23,4575125
2016-09-06,2.22,2.29,2.22,2.27,4928000
2016-09-07,2.28,2.35,2.28,2.32,3375000
2016-09-08,2.35,2.37,2.3,2.32,1509500
2016-09-09,2.33,2.37,2.32,2.35,2955000
2016-09-12,2.3,2.32,2.26,2.28,2499000
2016-09-13,2.35,2.35,2.22,2.24,1944000
2016-09-14,2.24,2.25,2.18,2.19,1591400
2016-09-15,2.2,2.33,2.19,2.27,1799000
2016-09-19,2.26,2.3,2.25,2.27,1123000
2016-09-20,2.28,2.36,2.26,2.36,2231000
2016-09-21,2.36,2.41,2.33,2.4,2874010
2016-09-22,2.43,2.45,2.36,2.37,1257000
2016-09-23,2.4,2.41,2.33,2.35,3967000
2016-09-26,2.37,2.39,2.29,2.31,990300
2016-09-27,2.34,2.34,2.27,2.27,1191250
2016-09-28,2.3,2.33,2.27,2.29,595000
2016-09-29,2.31,2.32,2.28,2.29,576000
2016-09-30,2.25,2.27,2.23,2.25,1090000
2016-10-03,2.29,2.31,2.25,2.28,113000
2016-10-04,2.3,2.33,2.26,2.27,494000
2016-10-05,2.26,2.27,2.2,2.26,957000
2016-10-06,2.28,2.29,2.24,2.25,610000
2016-10-07,2.25,2.25,2.22,2.24,287000
2016-10-11,2.28,2.28,2.21,2.22,826786
2016-10-12,2.22,2.22,2.17,2.21,830000
2016-10-13,2.24,2.24,2.18,2.21,1377000
2016-10-14,2.21,2.23,2.15,2.16,1894000
2016-10-17,2.16,2.16,2.04,2.07,2454000
2016-10-18,2.07,2.11,2.03,2.1,5161025
2016-10-19,2.11,2.13,2.05,2.07,1194300
2016-10-20,2.08,2.12,2.06,2.07,752000
2016-10-24,2.07,2.07,2.04,2.05,1513000
2016-10-25,2.05,2.06,2.0,2.05,3172000
2016-10-26,2.02,2.04,1.98,2.0,2947000
2016-10-27,2.0,2.03,1.95,2.01,1643000
2016-10-28,2.01,2.02,1.96,2.0,841000
2016-10-31,2.03,2.1,1.98,1.99,1189000
2016-11-01,1.97,2.04,1.93,1.97,4831667
2016-11-02,1.99,2.0,1.96,1.98,1099000
2016-11-03,1.98,2.01,1.97,1.99,823000
2016-11-04,1.97,2.01,1.96,1.97,1215675
2016-11-07,1.99,2.08,1.96,2.04,4614400
2016-11-08,2.07,2.07,2.03,2.04,340000
2016-11-09,2.07,2.07,1.91,1.97,5282000
2016-11-10,1.98,2.02,1.98,2.0,2078125
2016-11-11,2.01,2.01,1.96,2.0,2464000
2016-11-14,1.98,2.0,1.98,1.99,442000
2016-11-15,1.98,2.0,1.95,1.99,939000
2016-11-16,1.99,1.99,1.96,1.98,548025
2016-11-17,1.99,1.99,1.96,1.98,1929000
2016-11-18,1.99,1.99,1.93,1.96,3075000
2016-11-21,1.96,1.98,1.94,1.96,2078000
2016-11-22,1.96,2.01,1.95,1.97,4044025
2016-11-23,1.97,2.02,1.97,1.98,1449000
2016-11-24,1.98,2.07,1.98,2.05,2817000
2016-11-25,2.04,2.05,2.01,2.03,1167000
2016-11-28,2.03,2.1,2.03,2.09,1728000
2016-11-29,2.08,2.09,2.02,2.05,574000
2016-11-30,2.05,2.1,2.05,2.08,732000
2016-12-01,2.1,2.1,2.05,2.06,1845000
2016-12-02,2.05,2.1,2.03,2.09,1369000
2016-12-05,2.09,2.12,2.06,2.07,721000
2016-12-06,2.1,2.11,2.07,2.08,3240000
2016-12-07,2.12,2.12,2.03,2.05,1602250
2016-12-08,2.01,2.08,2.01,2.03,2059500
2016-12-09,2.02,2.03,2.0,2.0,1800000
2016-12-12,2.02,2.04,1.95,1.98,1572000
2016-12-13,1.98,1.98,1.95,1.96,939000
2016-12-14,1.98,1.98,1.94,1.95,993000
2016-12-15,1.93,1.94,1.87,1.88,2052904
2016-12-16,1.88,1.96,1.86,1.92,764000
2016-12-19,1.93,1.93,1.82,1.86,3393000
2016-12-20,1.88,1.9,1.83,1.88,970000
2016-12-21,1.88,1.91,1.86,1.89,983000
2016-12-22,1.95,1.95,1.87,1.9,1736000
2016-12-23,1.95,1.95,1.89,1.92,924000
2016-12-28,1.94,1.96,1.9,1.95,5164000
2016-12-29,1.96,1.96,1.94,1.96,411000
2016-12-30,1.93,1.95,1.9,1.93,445500
2017-01-03,1.93,1.93,1.88,1.89,385600
2017-01-04,1.88,1.91,1.85,1.86,1576075
2017-01-05,1.87,1.88,1.85,1.86,1465800
2017-01-06,1.89,1.89,1.84,1.84,1277000
2017-01-09,1.84,1.86,1.8,1.81,2050000
2017-01-10,1.8,1.84,1.79,1.81,1615000
2017-01-11,1.8,1.82,1.75,1.77,2898500
2017-01-12,1.75,1.82,1.75,1.79,1493000
2017-01-13,1.79,1.82,1.77,1.78,1129000
2017-01-16,1.79,1.79,1.74,1.75,1618000
2017-01-17,1.78,1.78,1.73,1.74,1512000
2017-01-18,1.77,1.78,1.74,1.77,2271000
2017-01-19,1.76,1.78,1.74,1.77,1910000
2017-01-20,1.76,1.78,1.73,1.75,2784100
2017-01-23,1.75,1.8,1.75,1.77,2575000
2017-01-24,1.77,1.8,1.76,1.77,3809000
2017-01-25,1.8,1.82,1.73,1.75,5569000
2017-01-26,1.78,1.78,1.71,1.74,3611000
2017-01-27,1.71,1.74,1.7,1.73,1522000
2017-02-01,1.73,1.74,1.7,1.73,3965000
2017-02-02,1.74,1.74,1.68,1.7,1626000
2017-02-03,1.71,1.71,1.63,1.66,3816800
2017-02-06,1.68,1.68,1.63,1.66,7256855
2017-02-07,1.66,1.69,1.65,1.69,2381000
2017-02-08,1.7,1.85,1.66,1.85,31798200
2017-02-09,1.86,1.92,1.81,1.92,15647000
2017-02-10,1.95,1.95,1.87,1.9,7550000
2017-02-13,1.87,1.94,1.87,1.9,2868000
2017-02-14,1.9,1.94,1.86,1.93,3752000
2017-02-15,1.94,1.97,1.92,1.94,3255800
2017-02-16,1.96,1.96,1.89,1.89,2732000
2017-02-17,1.93,1.94,1.84,1.86,2277923
2017-02-20,1.91,1.93,1.86,1.91,2555000
2017-02-21,1.9,1.93,1.87,1.9,1922100
2017-02-22,1.92,2.16,1.9,2.16,22611520
2017-02-23,2.14,2.18,2.08,2.1,14562000
2017-02-24,2.11,2.13,2.09,2.11,4289300
2017-02-27,2.12,2.27,2.08,2.22,15881000
2017-02-28,2.23,2.25,2.2,2.22,10339400
2017-03-01,2.25,2.25,2.19,2.2,2423050
2017-03-02,2.24,2.24,2.06,2.07,3801000
2017-03-03,2.22,2.23,2.13,2.13,12152652
2017-03-06,2.13,2.17,2.05,2.17,4527025
2017-03-07,2.18,2.18,2.1,2.11,3103000
2017-03-08,2.13,2.16,2.13,2.16,3610000
2017-03-09,2.18,2.18,2.08,2.13,3110000
2017-03-10,2.15,2.15,2.07,2.12,3181800
2017-03-13,2.12,2.25,2.1,2.2,12946000
2017-03-14,2.24,2.24,2.15,2.18,3720000
2017-03-15,2.15,2.22,2.15,2.22,3283000
2017-03-16,2.22,2.28,2.19,2.23,4043825
2017-03-17,2.21,2.24,2.17,2.2,5988000
2017-03-20,2.2,2.2,2.12,2.14,4374000
2017-03-21,2.14,2.19,2.13,2.19,4541400
2017-03-22,2.17,2.18,2.15,2.18,2457400
2017-03-23,2.18,2.24,2.17,2.22,4762000
2017-03-24,2.23,2.24,2.18,2.19,2467000
2017-03-27,2.21,2.21,2.01,2.03,6103000
2017-03-28,2.1,2.17,2.05,2.14,5932000
2017-03-29,2.17,2.17,2.11,2.13,1962000
2017-03-30,2.14,2.14,2.06,2.09,1986460
2017-03-31,2.1,2.1,2.03,2.09,1545000
2017-04-03,2.09,2.12,2.08,2.11,1069000
2017-04-05,2.08,2.32,2.08,2.31,14633025
2017-04-06,2.32,2.73,2.32,2.65,29083900
2017-04-07,2.69,2.99,2.62,2.81,28993100
2017-04-10,2.85,2.85,2.7,2.75,6658000
2017-04-11,2.77,2.8,2.59,2.63,8861000
2017-04-12,2.62,2.71,2.61,2.63,5769000
2017-04-13,2.67,2.79,2.63,2.69,9228800
2017-04-18,2.7,2.7,2.46,2.48,10585000
2017-04-19,2.48,2.58,2.48,2.56,7320000
2017-04-20,2.55,2.58,2.49,2.52,5955074
2017-04-21,2.55,2.57,2.5,2.53,2430600
2017-04-24,2.53,2.53,2.44,2.46,4157000
2017-04-25,2.47,2.58,2.45,2.55,6491000
2017-04-26,2.57,2.59,2.47,2.52,3965000
2017-04-27,2.52,2.55,2.43,2.52,9982400
2017-04-28,2.52,2.53,2.47,2.51,4691000
2017-05-02,2.51,2.54,2.47,2.51,3742125
2017-05-04,2.54,2.56,2.42,2.43,7579000
2017-05-05,2.43,2.49,2.38,2.46,4154000
2017-05-08,2.48,2.48,2.43,2.45,1202000
2017-05-09,2.45,2.64,2.45,2.61,9739000
2017-05-10,2.67,2.76,2.61,2.63,9467000
2017-05-11,2.69,2.73,2.6,2.65,4169250
2017-05-12,2.68,2.78,2.65,2.77,7019000
2017-05-15,2.8,2.84,2.67,2.68,4482000
2017-05-16,2.72,2.74,2.62,2.64,3380000
2017-05-17,2.62,2.69,2.62,2.67,8004000
2017-05-18,2.65,2.77,2.65,2.74,5460000
2017-05-19,2.7,2.85,2.69,2.81,11596000
2017-05-22,2.84,2.95,2.82,2.92,13245000
2017-05-23,2.95,2.95,2.8,2.87,5589004
2017-05-24,2.87,2.95,2.8,2.94,5540000
2017-05-25,2.94,3.02,2.92,2.98,12949000
2017-05-26,3.04,3.04,2.84,2.89,5728000
2017-05-29,2.88,3.0,2.86,2.93,2936400
2017-05-31,2.95,2.96,2.85,2.9,5753025
2017-06-01,2.91,2.91,2.76,2.79,9420875
2017-06-02,2.82,2.84,2.73,2.82,5717050
2017-06-05,2.8,2.92,2.78,2.88,5522000
2017-06-06,2.87,3.0,2.86,2.96,8555475
2017-06-07,2.99,3.0,2.93,2.95,4098300
2017-06-08,2.94,2.94,2.85,2.91,4463000
2017-06-09,2.93,2.93,2.8,2.85,11446000
2017-06-12,2.88,2.91,2.84,2.9,5840000
2017-06-13,2.91,2.98,2.86,2.94,6191610
2017-06-14,2.96,2.97,2.88,2.91,2170000
2017-06-15,2.91,2.91,2.82,2.84,3563002
2017-06-16,2.87,2.87,2.79,2.82,3018400
2017-06-19,2.79,2.79,2.7,2.71,2099000
2017-06-20,2.73,2.76,2.69,2.72,2293700
2017-06-21,2.73,2.75,2.7,2.7,1409250
2017-06-22,2.7,2.72,2.63,2.65,1879250
2017-06-23,2.65,2.71,2.62,2.65,1816000
2017-06-26,2.64,2.75,2.63,2.74,3111500
2017-06-27,2.71,2.77,2.67,2.7,2370000
2017-06-28,2.67,2.68,2.59,2.65,2375175
2017-06-29,2.64,2.71,2.64,2.7,1118000
2017-06-30,2.67,2.75,2.65,2.68,3536000
2017-07-03,2.72,2.89,2.71,2.83,6944000
2017-07-04,2.8,2.93,2.76,2.84,3851000
2017-07-05,2.84,2.87,2.8,2.84,1638000
2017-07-06,2.87,2.91,2.85,2.89,2919000
2017-07-07,2.89,2.89,2.82,2.85,3311000
2017-07-10,2.89,2.89,2.81,2.83,1389000
2017-07-11,2.85,2.88,2.84,2.86,1814000
2017-07-12,2.88,2.88,2.83,2.84,608000
2017-07-13,2.83,2.87,2.81,2.86,2495020
2017-07-14,2.82,2.85,2.81,2.82,2042000
2017-07-17,2.84,3.17,2.8,2.92,16712000
2017-07-18,2.97,3.05,2.93,2.96,4909000
2017-07-19,2.95,2.99,2.91,2.95,4332540
2017-07-20,2.95,3.06,2.94,3.01,7258723
2017-07-21,3.03,3.06,2.98,3.0,3593000
2017-07-24,2.99,3.01,2.91,2.92,4828000
2017-07-25,2.92,2.92,2.83,2.85,5990799
2017-07-26,2.89,2.93,2.81,2.84,4196000
2017-07-27,2.84,3.0,2.82,2.96,6708000
2017-07-28,2.96,2.96,2.88,2.9,2449000
2017-07-31,2.9,2.93,2.86,2.9,2437025
2017-08-01,2.88,2.89,2.8,2.83,4590000
2017-08-02,2.83,2.87,2.82,2.85,1344000
2017-08-03,2.8,2.86,2.8,2.83,1365653
2017-08-04,2.81,2.84,2.76,2.78,3042000
2017-08-07,2.82,2.82,2.75,2.81,2218948
2017-08-08,2.8,2.88,2.79,2.82,3309282
2017-08-09,2.82,2.88,2.8,2.83,1944000
2017-08-10,2.81,2.83,2.71,2.75,2238816
2017-08-11,2.71,2.71,2.53,2.6,4915000
2017-08-14,2.64,2.69,2.6,2.69,2503000
2017-08-15,2.71,2.74,2.66,2.71,2534175
2017-08-16,2.74,2.79,2.7,2.72,3156000
2017-08-17,2.74,2.74,2.67,2.69,1227025
2017-08-18,2.66,2.67,2.62,2.64,3109000
2017-08-21,2.67,2.69,2.61,2.66,1078000
2017-08-22,2.66,2.73,2.64,2.71,2133000
2017-08-24,2.71,2.72,2.68,2.7,2330364
2017-08-25,2.7,2.72,2.67,2.71,1772000
2017-08-28,2.69,2.79,2.69,2.75,4123022
2017-08-29,2.72,2.78,2.63,2.68,4540000
2017-08-30,2.68,2.76,2.63,2.72,5848603
2017-08-31,2.73,2.8,2.72,2.75,2988000
2017-09-01,2.75,2.79,2.71,2.72,2478300
2017-09-04,2.72,2.73,2.68,2.68,2182000
2017-09-05,2.7,2.72,2.66,2.72,2688000
2017-09-06,2.72,2.72,2.67,2.72,2276052
2017-09-07,2.7,2.94,2.7,2.92,18971472
2017-09-08,2.94,3.04,2.87,2.9,9428000
2017-09-11,2.91,2.94,2.8,2.92,3811000
2017-09-12,2.92,2.98,2.87,2.92,5886803
2017-09-13,2.95,2.95,2.88,2.92,3180000
2017-09-14,2.92,3.15,2.92,3.08,17224120
2017-09-15,3.13,3.27,3.09,3.12,17087052
2017-09-18,3.15,3.38,3.15,3.34,19273124
2017-09-19,3.37,3.39,3.19,3.24,9800000
2017-09-20,3.24,3.34,3.23,3.29,5324165
2017-09-21,3.29,3.63,3.28,3.51,16225000
2017-09-22,3.51,3.51,3.34,3.37,5152708
2017-09-25,3.3,3.32,2.86,2.87,15809203
2017-09-26,2.82,2.96,2.75,2.87,10635341
2017-09-27,2.89,3.07,2.87,3.07,6970800
2017-09-28,3.03,3.04,2.93,2.93,2599000
2017-09-29,2.96,2.96,2.88,2.96,2087819
2017-10-03,2.96,3.05,2.96,3.04,3611000
2017-10-04,3.05,3.24,3.05,3.2,5755025
2017-10-06,3.25,3.39,3.22,3.26,9929625
2017-10-09,3.25,3.54,3.22,3.42,13236000
2017-10-10,3.39,3.54,3.39,3.5,10521050
2017-10-11,3.5,3.59,3.16,3.16,24326000
2017-10-12,3.19,3.34,3.17,3.18,13255000
2017-10-13,3.22,3.32,3.19,3.24,8717000
2017-10-16,3.28,3.32,3.12,3.16,15503000
2017-10-17,3.19,3.2,3.05,3.06,8213000
2017-10-18,3.09,3.2,3.06,3.18,5852871
2017-10-19,3.2,3.24,3.03,3.08,26064000
2017-10-20,3.07,3.16,3.07,3.15,7889000
2017-10-23,3.22,3.22,3.12,3.17,6520000
2017-10-24,3.18,3.25,3.12,3.16,10160000
2017-10-25,3.22,3.38,3.18,3.27,14548000
2017-10-26,3.26,3.59,3.26,3.43,28686600
2017-10-27,3.47,3.69,3.43,3.49,28935042
2017-10-30,3.51,3.6,3.42,3.49,7925000
2017-10-31,3.54,3.82,3.51,3.74,22055080
2017-11-01,3.82,3.9,3.74,3.81,10566625
2017-11-02,3.81,3.98,3.76,3.87,10228000
2017-11-03,3.82,3.85,3.61,3.64,10423000
2017-11-06,3.64,3.69,3.49,3.55,11115000
2017-11-07,3.59,3.66,3.51,3.58,4910000
2017-11-08,3.54,3.63,3.45,3.49,5126025
2017-11-09,3.54,3.54,3.44,3.45,3065000
2017-11-10,3.45,3.47,3.33,3.38,9029000
2017-11-13,3.35,3.52,3.35,3.48,4560000
2017-11-14,3.47,3.51,3.39,3.51,8519025
2017-11-15,3.5,3.56,3.48,3.53,5522000
2017-11-16,3.52,3.52,3.44,3.51,3323000
2017-11-17,3.52,3.64,3.37,3.38,7763000
2017-11-20,3.35,3.4,3.28,3.31,3793000
2017-11-21,3.29,3.4,3.29,3.36,4767350
2017-11-22,3.39,3.49,3.33,3.44,4728969
2017-11-23,3.45,3.46,3.31,3.31,3157000
2017-11-24,3.33,3.37,3.3,3.35,1084000
2017-11-27,3.35,3.37,3.18,3.2,7851000
2017-11-28,3.18,3.23,3.1,3.19,2858000
2017-11-29,3.25,3.29,3.18,3.26,4489550
2017-11-30,3.26,3.26,3.17,3.2,5277000
2017-12-01,3.21,3.25,3.16,3.22,6434625
2017-12-04,3.19,3.23,3.18,3.21,4164000
2017-12-05,3.18,3.29,3.18,3.23,2838000
2017-12-06,3.22,3.24,3.07,3.13,7993000
2017-12-07,3.11,3.18,2.91,2.99,11229000
2017-12-08,2.99,3.11,2.97,3.09,4247000
2017-12-11,3.08,3.09,3.03,3.07,1809000
2017-12-12,3.06,3.11,3.04,3.07,2495000
2017-12-13,3.08,3.09,3.01,3.06,1841000
2017-12-14,3.05,3.08,2.98,3.06,5564800
2017-12-15,3.0,3.06,2.93,2.96,8264025
2017-12-18,2.96,3.03,2.96,3.01,3770000
2017-12-19,2.99,3.01,2.93,2.99,2708000
2017-12-20,3.02,3.05,2.9,2.91,3474000
2017-12-21,2.91,3.03,2.9,3.02,2648205
2017-12-22,3.01,3.04,2.99,2.99,1474000
2017-12-27,3.0,3.13,3.0,3.07,3735050
2017-12-28,3.07,3.14,3.06,3.14,2079000
2017-12-29,3.13,3.15,3.07,3.11,1418000
2018-01-02,3.14,3.33,3.14,3.31,9116000
2018-01-03,3.38,3.44,3.33,3.42,7610000
2018-01-04,3.45,3.46,3.35,3.45,3733000
2018-01-05,3.45,3.58,3.4,3.45,12570054
2018-01-08,3.49,3.63,3.48,3.6,11585000
2018-01-09,3.61,3.64,3.54,3.56,4017000
2018-01-10,3.59,3.74,3.56,3.66,7339385
2018-01-11,3.67,3.73,3.49,3.56,7503006
2018-01-12,3.63,3.68,3.56,3.6,7115000
2018-01-15,3.61,4.01,3.61,3.75,24215024
2018-01-16,3.79,4.0,3.77,3.96,10906625
2018-01-17,4.02,4.06,3.8,3.92,10146000
2018-01-18,3.96,3.99,3.77,3.8,9789025
2018-01-19,3.79,4.07,3.79,3.99,12473475
2018-01-22,4.01,4.24,3.93,4.21,11184250
2018-01-23,4.27,4.35,4.1,4.2,8234850
2018-01-24,4.28,4.45,4.28,4.44,10765400
2018-01-25,4.38,4.49,4.13,4.32,8701130
2018-01-26,4.36,4.77,4.34,4.62,12136325
2018-01-29,4.76,4.8,4.48,4.67,9417340
2018-01-30,4.64,4.72,4.46,4.54,6884150
2018-01-31,4.4,4.5,4.24,4.44,12386000
2018-02-01,4.54,4.59,4.27,4.3,8559600
2018-02-02,4.29,4.38,4.17,4.34,7279825
2018-02-05,4.23,4.3,4.02,4.22,7103000
2018-02-06,4.0,4.09,3.79,3.84,15654000
2018-02-07,4.06,4.09,3.74,3.77,12688400
2018-02-08,3.77,3.92,3.77,3.84,4245050
2018-02-09,3.63,3.67,3.4,3.54,10009000
2018-02-12,3.57,3.66,3.47,3.53,4270000
2018-02-13,3.6,3.79,3.56,3.74,5278000
2018-02-14,3.8,3.87,3.65,3.84,3168000
2018-02-15,3.98,4.0,3.9,3.97,1795000
2018-02-20,3.98,4.08,3.85,4.0,2283000
2018-02-21,3.96,4.07,3.88,4.05,2217025
2018-02-22,4.04,4.04,3.86,3.91,6199000
2018-02-23,3.99,4.03,3.9,3.96,3127000
2018-02-26,3.99,4.04,3.83,3.88,2496000
2018-02-27,3.93,3.93,3.8,3.82,4964000
2018-02-28,3.81,3.88,3.74,3.83,4313000
2018-03-01,3.76,3.93,3.76,3.83,2039000
2018-03-02,3.76,3.79,3.68,3.77,2159000
2018-03-05,3.78,3.81,3.6,3.63,2657000
2018-03-06,3.71,3.81,3.57,3.77,2679000
2018-03-07,3.68,3.81,3.67,3.73,1423000
2018-03-08,3.78,3.82,3.71,3.8,1302000
2018-03-09,3.83,3.88,3.79,3.84,1869000
2018-03-12,3.87,3.89,3.78,3.86,2398000
2018-03-13,3.79,3.9,3.76,3.86,1849000
2018-03-14,3.81,3.87,3.8,3.83,1213000
2018-03-15,3.81,4.05,3.81,4.02,5038905
2018-03-16,4.01,4.23,3.97,4.09,7966000
2018-03-19,4.1,4.17,3.95,3.99,4297000
2018-03-20,3.9,3.96,3.88,3.91,2366000
2018-03-21,3.91,4.1,3.91,3.92,3409025
2018-03-22,3.92,4.09,3.88,3.92,3957000
2018-03-23,3.6,3.8,3.6,3.71,5330025
2018-03-26,3.68,3.74,3.61,3.72,3296300
2018-03-27,3.79,3.94,3.76,3.9,3465545
2018-03-28,3.75,3.91,3.75,3.76,2996000
2018-03-29,3.8,3.85,3.67,3.76,3709000
2018-04-03,3.75,3.84,3.65,3.84,2630927
2018-04-04,3.84,3.85,3.72,3.74,1929000
2018-04-06,3.73,3.77,3.67,3.75,1626000
2018-04-09,3.79,4.02,3.7,4.01,8475001
2018-04-10,4.01,4.24,3.97,4.07,10141360
2018-04-11,4.05,4.05,3.84,3.84,8752000
2018-04-12,3.86,3.89,3.7,3.75,7715000
2018-04-13,3.8,3.81,3.73,3.75,5696000
2018-04-16,3.9,4.0,3.66,3.71,9629000
2018-04-17,3.77,3.81,3.63,3.68,5882000
2018-04-18,3.75,3.87,3.71,3.84,8048500
2018-04-19,3.84,3.88,3.76,3.84,6284400
2018-04-20,3.82,3.86,3.72,3.76,1981001
2018-04-23,3.65,3.68,3.5,3.55,8768795
2018-04-24,3.64,3.64,3.56,3.62,3873000
2018-04-25,3.57,3.66,3.55,3.63,2364000
2018-04-26,3.69,3.69,3.6,3.64,2524000
2018-04-27,3.64,3.65,3.58,3.63,1106000
2018-04-30,3.64,3.67,3.56,3.66,1689000
2018-05-02,3.68,3.72,3.62,3.71,4461000
2018-05-03,3.78,3.78,3.65,3.73,3169000
2018-05-04,3.71,3.74,3.66,3.67,2153000
2018-05-07,3.65,3.69,3.62,3.64,1842000
2018-05-08,3.67,3.76,3.64,3.71,2012000
2018-05-09,3.7,3.7,3.65,3.68,1573600
2018-05-10,3.69,3.72,3.65,3.71,2052000
2018-05-11,3.75,3.82,3.71,3.75,3939000
2018-05-14,3.76,3.83,3.74,3.8,3548050
2018-05-15,3.79,3.82,3.75,3.78,1956000
2018-05-16,3.73,3.91,3.73,3.86,1875000
2018-05-17,3.85,3.88,3.75,3.85,2132000
2018-05-18,3.85,3.9,3.81,3.9,2414000
2018-05-21,3.9,3.95,3.86,3.86,1408000
2018-05-23,3.82,3.87,3.77,3.82,1827000
2018-05-24,3.82,3.82,3.75,3.78,1737000
2018-05-25,3.66,3.7,3.56,3.59,2156000
2018-05-28,3.63,3.64,3.57,3.62,1021000
2018-05-29,3.61,3.65,3.55,3.61,1867000
2018-05-30,3.5,3.61,3.46,3.5,1906000
2018-05-31,3.51,3.74,3.47,3.74,4659000
2018-06-01,3.7,3.77,3.65,3.72,1917800
2018-06-04,3.82,3.82,3.69,3.76,2709125
2018-06-05,3.72,3.76,3.68,3.74,1218250
2018-06-06,3.73,3.77,3.68,3.68,1022000
2018-06-07,3.69,3.74,3.68,3.72,998154
2018-06-08,3.69,3.71,3.63,3.66,829000
2018-06-11,3.63,3.67,3.57,3.6,747000
2018-06-12,3.57,3.65,3.52,3.57,2390000
2018-06-13,3.54,3.59,3.54,3.56,486000
2018-06-14,3.54,3.54,3.4,3.42,3399000
2018-06-15,3.42,3.48,3.26,3.29,3815000
2018-06-19,3.33,3.33,3.12,3.22,3075003
2018-06-20,3.28,3.28,3.17,3.2,808000
2018-06-21,3.25,3.35,3.19,3.2,1582000
2018-06-22,3.2,3.28,3.16,3.23,1818954
2018-06-25,3.3,3.3,3.04,3.07,2453000
2018-06-26,3.06,3.08,2.94,3.0,2598000
2018-06-27,3.03,3.1,2.87,2.96,4834436
2018-06-28,3.01,3.01,2.86,2.9,2386436
2018-06-29,2.91,3.0,2.85,2.91,6390000
2018-07-03,2.89,2.95,2.74,2.93,4856000
2018-07-04,2.92,2.94,2.88,2.91,3319000
2018-07-05,2.95,2.99,2.85,2.93,1565000
2018-07-06,2.9,2.94,2.79,2.87,2010795
2018-07-09,2.88,3.02,2.85,2.99,1664000
2018-07-10,3.02,3.02,2.89,2.93,1930025
2018-07-11,2.88,2.92,2.84,2.89,1428000
2018-07-12,2.87,2.97,2.86,2.94,1196200
2018-07-13,2.96,2.98,2.89,2.91,851000
2018-07-16,2.93,2.95,2.84,2.93,826000
2018-07-17,2.9,2.9,2.84,2.9,460000
2018-07-18,2.89,2.9,2.81,2.85,881004
2018-07-19,2.84,2.85,2.77,2.78,1263000
2018-07-20,2.81,2.85,2.7,2.8,2591000
2018-07-23,2.79,2.85,2.75,2.8,1979000
2018-07-24,2.82,2.94,2.82,2.91,2266872
2018-07-25,2.95,2.95,2.87,2.89,714000
2018-07-26,2.93,2.95,2.9,2.95,879000
2018-07-27,2.92,2.98,2.91,2.95,446000
2018-07-30,2.87,2.95,2.85,2.87,2013000
2018-07-31,2.85,2.87,2.8,2.85,1337000
2018-08-01,2.89,2.89,2.78,2.79,1360250
2018-08-02,2.82,2.82,2.69,2.72,1857000
2018-08-03,2.72,2.75,2.68,2.73,2796000
2018-08-06,2.72,2.72,2.54,2.61,4402000
2018-08-07,2.59,2.7,2.58,2.66,2405000
2018-08-08,2.71,2.71,2.59,2.68,1414000
2018-08-09,2.62,2.88,2.62,2.81,2051000
2018-08-10,2.86,2.93,2.82,2.88,1207000
2018-08-13,2.8,2.81,2.72,2.81,538000
2018-08-14,2.81,2.82,2.71,2.76,1175000
2018-08-15,2.78,2.78,2.68,2.69,1007800
2018-08-16,2.63,2.71,2.58,2.71,1671048
2018-08-17,2.68,2.75,2.65,2.65,784000
2018-08-20,2.69,2.74,2.63,2.74,780000
2018-08-21,2.71,2.82,2.69,2.79,1670000
2018-08-22,2.82,2.82,2.7,2.79,1353000
2018-08-23,2.77,2.81,2.75,2.78,822000
2018-08-24,2.73,2.74,2.66,2.71,1573000
2018-08-27,2.74,2.77,2.66,2.72,664000
2018-08-28,2.72,2.73,2.65,2.67,1496600
2018-08-29,2.69,2.73,2.66,2.68,770000
2018-08-30,2.74,2.74,2.62,2.62,1130000
2018-08-31,2.6,2.66,2.6,2.62,739072
2018-09-03,2.61,2.62,2.56,2.62,659000
2018-09-04,2.56,2.66,2.56,2.64,507000
2018-09-05,2.61,2.62,2.52,2.53,1537048
2018-09-06,2.57,2.58,2.48,2.49,755000
2018-09-07,2.5,2.75,2.44,2.68,2795000
2018-09-10,2.61,2.63,2.36,2.52,3358000
2018-09-11,2.49,2.59,2.41,2.45,1197000
2018-09-12,2.43,2.44,2.36,2.38,1570250
2018-09-13,2.45,2.52,2.36,2.48,1892072
2018-09-14,2.45,2.55,2.43,2.46,888000
2018-09-17,2.45,2.48,2.4,2.41,189000
2018-09-18,2.42,2.49,2.37,2.43,1298000
2018-09-19,2.45,2.52,2.4,2.51,2032000
2018-09-20,2.48,2.54,2.45,2.51,695000
2018-09-21,2.46,2.6,2.46,2.59,2046000
2018-09-24,2.55,2.55,2.45,2.46,1045000
2018-09-26,2.43,2.5,2.41,2.42,2130000
2018-09-27,2.42,2.42,2.37,2.4,1036000
2018-09-28,2.37,2.43,2.3,2.42,3042900
2018-10-02,2.4,2.4,2.3,2.36,1334000
2018-10-03,2.31,2.35,2.3,2.33,466000
2018-10-04,2.37,2.37,2.28,2.3,960000
2018-10-05,2.3,2.3,2.2,2.21,2107000
2018-10-08,2.26,2.26,2.14,2.19,3365426
2018-10-09,2.15,2.26,2.15,2.18,2807000
2018-10-10,2.19,2.22,2.06,2.06,6444000
2018-10-11,1.98,2.02,1.91,1.93,3946000
2018-10-12,1.95,1.98,1.86,1.98,4295000
2018-10-15,1.98,1.98,1.87,1.91,1705000
2018-10-16,1.9,1.93,1.83,1.87,2386000
2018-10-18,1.86,1.89,1.83,1.87,717000
2018-10-19,1.82,1.86,1.76,1.8,15736000
2018-10-22,1.81,1.93,1.81,1.9,7144000
2018-10-23,1.9,1.92,1.81,1.83,4081000
2018-10-24,1.8,1.85,1.78,1.82,3087000
2018-10-25,1.78,1.85,1.77,1.82,3480000
2018-10-26,1.87,1.88,1.8,1.82,3500000
2018-10-29,1.87,1.87,1.76,1.78,1821000
2018-10-30,1.78,1.81,1.71,1.8,3492000
2018-10-31,1.8,1.83,1.79,1.8,2877000
2018-11-01,1.84,1.92,1.82,1.88,6183000
2018-11-02,1.96,1.98,1.9,1.92,5380000
2018-11-05,1.91,1.95,1.88,1.9,1032000
2018-11-06,1.91,1.93,1.88,1.89,2236000
2018-11-07,1.9,1.95,1.89,1.91,2443000
2018-11-08,1.94,1.96,1.92,1.94,2556300
2018-11-09,1.92,1.92,1.86,1.88,2257000
2018-11-12,1.88,1.88,1.83,1.86,1527000
2018-11-13,1.83,1.88,1.8,1.87,2917010
2018-11-14,1.9,1.96,1.87,1.91,2332000
2018-11-15,1.93,1.94,1.87,1.93,2213000
2018-11-16,1.93,2.01,1.9,1.98,2636000
2018-11-19,1.99,2.03,1.96,2.01,2201000
2018-11-20,1.99,2.04,1.97,1.98,2064000
2018-11-21,1.97,2.04,1.95,2.03,1122000
2018-11-22,2.04,2.06,1.98,1.99,1412000
2018-11-23,2.01,2.01,1.95,1.97,1831000
2018-11-26,1.97,2.03,1.96,2.0,922000
2018-11-27,1.99,2.01,1.97,2.0,1606000
2018-11-28,2.01,2.06,1.99,2.05,2589000
2018-11-29,2.06,2.08,2.01,2.02,1976000
2018-11-30,2.02,2.09,2.02,2.07,2257000
2018-12-03,2.13,2.16,2.1,2.15,2465150
2018-12-04,2.18,2.18,2.11,2.15,1918000
2018-12-05,2.15,2.19,2.1,2.18,1073000
2018-12-06,2.14,2.14,2.07,2.1,1968000
2018-12-07,2.1,2.14,2.07,2.11,856000
2018-12-10,2.08,2.09,2.0,2.06,2145000
2018-12-11,2.1,2.1,2.03,2.08,804000
2018-12-12,2.09,2.15,2.08,2.14,1038000
2018-12-13,2.16,2.22,2.14,2.22,2487625
2018-12-14,2.23,2.23,2.16,2.16,497000
2018-12-17,2.14,2.14,2.1,2.11,606600
2018-12-18,2.1,2.1,2.0,2.06,2018100
2018-12-19,2.06,2.06,2.02,2.05,436025
2018-12-20,2.02,2.04,1.99,2.01,1102000
2018-12-21,2.01,2.01,1.9,1.93,2120000
2018-12-24,1.92,1.92,1.9,1.91,445000
2018-12-27,1.94,1.95,1.85,1.9,222000
2018-12-28,1.91,1.93,1.86,1.92,133000
2018-12-31,1.92,1.94,1.84,1.91,319000
2019-01-02,1.86,1.96,1.86,1.88,1628100
2019-01-03,1.9,1.92,1.83,1.85,1061000
2019-01-04,1.83,1.89,1.8,1.88,1960000
2019-01-07,1.89,1.9,1.84,1.88,1803300
2019-01-08,1.89,1.9,1.87,1.88,828000
2019-01-09,1.89,1.95,1.89,1.94,1456000
2019-01-10,1.95,1.95,1.91,1.93,494800
2019-01-11,1.93,1.95,1.89,1.92,2081000
2019-01-14,1.95,1.97,1.91,1.96,1871000
2019-01-15,1.96,2.05,1.95,2.02,2308000
2019-01-16,2.01,2.14,2.01,2.13,2809000
2019-01-17,2.13,2.15,2.08,2.09,1289000
2019-01-18,2.09,2.1,2.02,2.08,2737000
2019-01-21,2.07,2.13,2.07,2.1,646006
2019-01-22,2.09,2.13,2.02,2.05,1648375
2019-01-23,2.05,2.08,2.04,2.07,750000
2019-01-24,2.05,2.14,2.05,2.12,1238000
2019-01-25,2.12,2.18,2.09,2.18,2042000
2019-01-28,2.15,2.22,2.15,2.19,2121000
2019-01-29,2.16,2.22,2.16,2.22,1190000
2019-01-30,2.21,2.31,2.16,2.28,2866000
2019-01-31,2.3,2.3,2.26,2.28,1247000
2019-02-01,2.3,2.32,2.23,2.26,832000
2019-02-04,2.23,2.3,2.22,2.27,226000
2019-02-08,2.33,2.35,2.22,2.32,1359000
2019-02-11,2.31,2.39,2.3,2.37,2105000
2019-02-12,2.33,2.37,2.3,2.34,2953000
2019-02-13,2.32,2.42,2.32,2.41,2049037
2019-02-14,2.39,2.39,2.32,2.35,1873000
2019-02-15,2.37,2.37,2.24,2.24,5819000
2019-02-18,2.26,2.33,2.15,2.33,2170000
2019-02-19,2.29,2.32,2.24,2.27,1880000
2019-02-20,2.25,2.34,2.25,2.3,969025
2019-02-21,2.28,2.34,2.28,2.31,1071400
2019-02-22,2.28,2.35,2.28,2.35,1540000
2019-02-25,2.35,2.4,2.34,2.38,3422900
2019-02-26,2.38,2.38,2.3,2.35,2937000
2019-02-27,2.35,2.36,2.29,2.31,1641000
2019-02-28,2.31,2.34,2.27,2.32,1341000
2019-03-01,2.29,2.4,2.26,2.39,2282000
2019-03-04,2.39,2.51,2.38,2.45,2233000
2019-03-05,2.48,2.53,2.43,2.52,1960000
2019-03-06,2.54,2.55,2.47,2.51,2201050
2019-03-07,2.54,2.59,2.44,2.45,1254000
2019-03-08,2.42,2.49,2.35,2.36,948000
2019-03-11,2.29,2.36,2.28,2.32,2663000
2019-03-12,2.34,2.36,2.31,2.33,1171000
2019-03-13,2.31,2.38,2.28,2.37,1972000
2019-03-14,2.37,2.42,2.29,2.31,1342000
2019-03-15,2.32,2.39,2.29,2.36,1677000
2019-03-18,2.34,2.45,2.34,2.42,3722000
2019-03-19,2.46,2.46,2.4,2.41,1275000
2019-03-20,2.41,2.49,2.35,2.49,2598000
2019-03-21,2.45,2.54,2.44,2.46,1439000
2019-03-22,2.49,2.55,2.45,2.55,1979000
2019-03-25,2.51,2.52,2.46,2.46,1459025
2019-03-26,2.47,2.51,2.44,2.47,787000
2019-03-27,2.51,2.78,2.51,2.77,6891000
2019-03-28,2.73,2.79,2.68,2.74,3933047
2019-03-29,2.95,3.23,2.86,3.19,17925200
2019-04-04,3.5,3.76,3.34,3.35,9005000
2019-04-08,3.36,3.65,3.19,3.61,21105000
2019-04-09,3.63,3.63,3.46,3.59,16125000
2019-04-10,3.63,3.63,3.4,3.54,6180250
2019-04-11,3.54,3.54,3.4,3.43,6553250
2019-04-12,3.43,3.55,3.4,3.44,4265250
2019-04-15,3.56,3.67,3.49,3.5,8383000
2019-04-16,3.51,3.54,3.42,3.47,2987000
2019-04-17,3.43,3.51,3.41,3.46,2649818
2019-04-18,3.42,3.47,3.4,3.41,1908000
2019-04-23,3.37,3.38,3.27,3.34,3573000
2019-04-24,3.35,3.38,3.3,3.36,3222000
2019-04-25,3.31,3.35,3.18,3.22,2070850
2019-04-26,3.15,3.32,3.13,3.29,3158000
2019-04-29,3.28,3.33,3.17,3.19,429025
2019-04-30,3.27,3.27,3.15,3.22,336000
2019-05-02,3.17,3.25,3.17,3.21,354840
2019-05-03,3.16,3.36,3.16,3.23,1535000
2019-05-06,3.15,3.15,2.98,3.08,4049000
2019-05-07,3.15,3.17,3.07,3.14,1795800
2019-05-08,3.02,3.14,3.01,3.06,1764000
2019-05-09,3.02,3.04,2.95,3.0,1956000
2019-05-10,2.98,3.09,2.94,3.01,2403000
2019-05-14,2.95,2.97,2.9,2.96,3542000
2019-05-15,2.96,3.01,2.93,3.0,1902000
2019-05-16,2.97,3.03,2.96,3.0,1265000
2019-05-17,3.04,3.05,2.86,2.87,1972000
2019-05-20,2.88,2.88,2.77,2.8,3018000
2019-05-21,2.76,2.82,2.74,2.76,1702700
2019-05-22,2.76,2.81,2.76,2.77,1055800
2019-05-23,2.73,2.8,2.66,2.67,3409000
2019-05-24,2.68,2.74,2.65,2.68,759000
2019-05-27,2.68,2.71,2.65,2.71,521000
2019-05-28,2.71,2.89,2.71,2.89,2836000
2019-05-29,2.8,2.84,2.77,2.78,1203000
2019-05-30,2.8,2.8,2.71,2.77,596000
2019-05-31,2.76,2.8,2.73,2.78,917000
2019-06-03,2.78,2.91,2.73,2.75,1808000
2019-06-04,2.73,2.83,2.72,2.76,1168000
2019-06-05,2.81,2.85,2.78,2.82,1710000
2019-06-06,2.82,2.82,2.76,2.79,1267000
2019-06-10,2.83,2.92,2.78,2.9,1811000
2019-06-11,2.88,3.13,2.88,3.08,1920125
2019-06-12,3.03,3.06,2.98,3.0,1539000
2019-06-13,2.98,3.06,2.92,3.05,1321200
2019-06-14,3.05,3.05,2.89,2.92,3163000
2019-06-17,2.89,2.96,2.87,2.9,875000
2019-06-18,2.91,2.95,2.85,2.92,4303000
2019-06-19,2.99,3.03,2.94,2.95,1864000
2019-06-20,2.98,3.04,2.98,3.02,1251000
2019-06-21,3.03,3.06,2.98,3.02,1509000
2019-06-24,3.02,3.09,3.01,3.05,1500000
2019-06-25,3.06,3.1,3.0,3.01,3183000
2019-06-26,3.0,3.06,3.0,3.04,1092000
2019-06-27,3.06,3.16,3.04,3.1,3188100
2019-06-28,3.08,3.14,3.07,3.11,3917000
2019-07-02,3.19,3.27,3.18,3.21,4838000
2019-07-03,3.02,3.08,2.95,3.05,4384000
2019-07-04,3.04,3.05,2.94,2.96,3280000
2019-07-05,3.0,3.0,2.89,2.91,1442000
2019-07-08,2.93,2.93,2.83,2.88,1758000
2019-07-09,2.89,2.9,2.84,2.87,1690000
2019-07-10,2.84,2.92,2.83,2.85,1946000
2019-07-11,2.85,3.01,2.85,2.97,4040000
2019-07-12,3.01,3.15,3.0,3.13,4443800
2019-07-15,3.17,3.18,3.03,3.12,2598000
2019-07-16,3.13,3.18,3.01,3.01,4525000
2019-07-17,3.03,3.24,3.02,3.16,7711000
2019-07-18,3.13,3.16,3.06,3.1,4123038
2019-07-19,3.1,3.15,3.07,3.11,2688001
2019-07-22,3.11,3.18,3.08,3.13,1560000
2019-07-23,3.15,3.15,3.04,3.06,2165000
2019-07-24,3.1,3.12,2.99,3.02,1813000
2019-07-25,3.01,3.04,2.97,3.0,2688000
2019-07-26,3.0,3.04,3.0,3.01,1408000
2019-07-29,3.0,3.02,2.94,2.94,2142000
2019-07-30,2.98,2.99,2.93,2.97,1324000
2019-07-31,2.98,2.98,2.88,2.88,3277000
2019-08-01,2.92,2.95,2.82,2.85,5048000
2019-08-02,2.79,2.84,2.74,2.84,3676000
2019-08-05,2.78,2.81,2.67,2.68,3237000
2019-08-06,2.64,2.72,2.52,2.65,2300000
2019-08-07,2.65,2.74,2.64,2.72,2426000
2019-08-08,2.71,2.76,2.69,2.74,1336000
2019-08-09,2.76,2.76,2.7,2.7,743000
2019-08-12,2.65,2.78,2.65,2.76,1977000
2019-08-13,2.7,2.75,2.61,2.65,2587000
2019-08-14,2.8,2.8,2.67,2.7,1850000
2019-08-15,2.67,2.71,2.55,2.7,1194000
2019-08-16,2.66,2.74,2.65,2.7,1782000
2019-08-19,2.78,2.85,2.75,2.82,1426042
2019-08-20,2.82,2.89,2.8,2.81,1485000
2019-08-21,2.8,2.98,2.8,2.96,2327000
2019-08-22,2.99,3.0,2.9,2.94,1993000
2019-08-23,2.95,2.95,2.86,2.92,1469000
2019-08-26,2.84,2.84,2.75,2.83,2938000
2019-08-27,2.88,2.88,2.8,2.87,1923000
2019-08-28,2.86,2.88,2.81,2.81,1922000
2019-08-29,2.85,2.85,2.7,2.73,1494372
2019-08-30,2.72,2.8,2.7,2.72,2390000
2019-09-02,2.75,2.77,2.72,2.73,1560000
2019-09-03,2.78,2.78,2.71,2.71,877000
2019-09-04,2.72,2.84,2.72,2.82,1504050
2019-09-05,2.86,2.91,2.82,2.83,1887000
2019-09-06,2.87,2.89,2.8,2.83,1577000
2019-09-09,2.84,2.86,2.81,2.83,867000
2019-09-10,2.83,2.86,2.81,2.82,2519000
2019-09-11,2.82,2.84,2.79,2.82,605000
2019-09-12,2.83,2.87,2.8,2.85,1204000
2019-09-13,2.85,2.91,2.82,2.9,3184000
2019-09-16,2.88,2.93,2.88,2.92,3377000
2019-09-17,2.94,2.94,2.85,2.86,2051025
2019-09-18,2.88,2.9,2.86,2.87,903000
2019-09-19,2.88,2.88,2.81,2.83,1244000
2019-09-20,2.83,2.85,2.8,2.82,1412025
2019-09-23,2.8,2.8,2.75,2.75,1308000
2019-09-24,2.74,2.79,2.68,2.68,1868000
2019-09-25,2.66,2.66,2.61,2.61,2800000
2019-09-26,2.63,2.69,2.62,2.66,1327000
2019-09-27,2.7,2.7,2.64,2.67,483000
2019-09-30,2.65,2.7,2.64,2.68,507000
2019-10-02,2.7,2.7,2.62,2.66,868000
2019-10-03,2.66,2.66,2.62,2.63,305000
2019-10-04,2.69,2.74,2.69,2.72,841000
2019-10-08,2.72,2.77,2.71,2.73,1183113
2019-10-09,2.72,2.83,2.72,2.78,1061000
2019-10-10,2.78,2.8,2.72,2.76,904000
2019-10-11,2.79,2.82,2.78,2.8,1954000
2019-10-14,2.84,2.86,2.81,2.85,1652000
2019-10-15,2.85,2.85,2.8,2.8,712000
2019-10-16,2.83,2.9,2.82,2.87,1124250
2019-10-17,2.84,2.88,2.78,2.82,718000
2019-10-18,2.81,2.87,2.76,2.76,2022000
2019-10-21,2.8,2.87,2.78,2.86,1260000
2019-10-22,2.87,2.87,2.81,2.84,630000
2019-10-23,2.85,2.85,2.79,2.8,821050
2019-10-24,2.85,2.85,2.76,2.82,1528000
2019-10-25,2.79,2.84,2.78,2.79,1700000
2019-10-28,2.81,2.84,2.8,2.82,804000
2019-10-29,2.8,2.82,2.76,2.77,1306000
2019-10-30,2.75,2.78,2.7,2.71,2255000
2019-10-31,2.69,2.74,2.67,2.71,1704000
2019-11-01,2.7,2.8,2.7,2.79,1254000
2019-11-04,2.81,2.86,2.81,2.85,1200460
2019-11-05,2.83,2.9,2.83,2.85,1311000
2019-11-06,2.84,2.91,2.84,2.89,1339000
2019-11-07,2.88,2.92,2.87,2.9,1751000
2019-11-08,2.9,2.91,2.86,2.88,1530000
2019-11-11,2.87,2.87,2.78,2.79,1503000
2019-11-12,2.79,2.85,2.79,2.85,1164000
2019-11-13,2.81,2.84,2.8,2.83,1780000
2019-11-14,2.83,2.83,2.76,2.77,1379000
2019-11-15,2.76,2.87,2.76,2.81,2045000
2019-11-18,2.81,2.85,2.79,2.83,1045000
2019-11-19,2.83,2.92,2.8,2.88,1533600
2019-11-20,2.88,2.91,2.85,2.88,829000
2019-11-21,2.84,2.86,2.77,2.85,626000
2019-11-22,2.86,2.86,2.82,2.83,654000
2019-11-25,2.83,2.92,2.83,2.9,2059025
2019-11-26,2.9,2.94,2.87,2.87,649000
2019-11-27,2.87,2.9,2.83,2.9,1251075
2019-11-28,2.88,2.96,2.88,2.94,4345450
2019-11-29,2.95,2.95,2.88,2.93,2289000
2019-12-02,2.94,3.01,2.94,2.96,3424000
2019-12-03,2.95,3.01,2.87,3.0,1250000
2019-12-04,2.95,2.96,2.88,2.93,1118000
2019-12-05,2.93,2.93,2.88,2.93,798000
2019-12-06,2.9,3.01,2.89,3.01,1939000
2019-12-09,3.01,3.17,3.01,3.16,4649000
2019-12-10,3.18,3.25,3.13,3.2,3992000
2019-12-11,3.21,3.24,3.1,3.12,2430000
2019-12-12,3.13,3.15,3.08,3.11,1430025
2019-12-13,3.14,3.14,3.07,3.12,2835000
2019-12-16,3.12,3.14,3.08,3.11,2884245
2019-12-17,3.14,3.24,3.14,3.2,2522000
2019-12-18,3.2,3.24,3.19,3.22,1859000
2019-12-19,3.22,3.25,3.2,3.22,1395000
2019-12-20,3.24,3.27,3.22,3.22,1625000
2019-12-23,3.22,3.27,3.21,3.23,1161025
2019-12-24,3.24,3.27,3.2,3.22,425000
2019-12-27,3.22,3.3,3.22,3.29,3380350
2019-12-30,3.29,3.42,3.29,3.39,4853000
2019-12-31,3.4,3.4,3.35,3.38,616000
2020-01-02,3.4,3.48,3.39,3.43,3037000
2020-01-03,3.43,3.48,3.38,3.46,2599000
2020-01-06,3.46,3.46,3.35,3.4,2976511
2020-01-07,3.42,3.53,3.42,3.48,2241025
2020-01-08,3.45,3.49,3.38,3.44,2074000
2020-01-09,3.48,3.5,3.42,3.48,1327000
2020-01-10,3.48,3.53,3.42,3.53,2612000
2020-01-13,3.5,3.52,3.46,3.52,2621000
2020-01-14,3.5,3.56,3.44,3.53,975000
2020-01-15,3.49,3.5,3.4,3.45,1333050
2020-01-16,3.45,3.56,3.39,3.56,2210000
2020-01-17,3.52,3.61,3.51,3.59,1775000
2020-01-20,3.6,3.62,3.49,3.52,1876000
2020-01-21,3.46,3.47,3.39,3.4,3228000
2020-01-22,3.3,3.42,3.3,3.4,872250
2020-01-23,3.32,3.35,3.16,3.28,1557000
2020-01-24,3.24,3.26,3.17,3.26,198000
2020-01-29,3.15,3.16,3.06,3.1,1169000
2020-01-30,3.06,3.13,2.98,2.99,2032000
2020-01-31,2.99,3.03,2.96,2.97,1004000
2020-02-03,2.83,3.02,2.83,2.98,4149404
2020-02-04,2.95,3.05,2.92,3.02,3616000
2020-02-05,3.07,3.07,2.98,3.03,3247050
2020-02-06,3.03,3.1,3.01,3.07,1403000
2020-02-07,3.08,3.08,3.01,3.04,1192000
2020-02-10,2.94,3.05,2.92,3.01,1957025
2020-02-11,3.03,3.1,3.01,3.09,1553000
2020-02-12,3.06,3.08,3.01,3.05,2552025
2020-02-13,3.06,3.11,3.05,3.07,2601000
2020-02-14,3.07,3.12,3.03,3.09,2332000
2020-02-17,3.12,3.16,3.09,3.14,1844000
2020-02-18,3.14,3.16,3.06,3.08,1733000
2020-02-19,3.09,3.15,3.06,3.12,1784000
2020-02-20,3.12,3.12,3.06,3.09,1337000
2020-02-21,3.06,3.08,3.01,3.07,2468000
2020-02-24,3.07,3.07,2.99,3.0,3244000
2020-02-25,3.0,3.06,2.95,3.04,1531000
2020-02-26,3.0,3.13,3.0,3.08,3669000
2020-02-27,3.17,3.17,3.07,3.08,1651400
2020-02-28,3.04,3.07,3.0,3.03,2685000
2020-03-02,3.03,3.19,3.03,3.17,2319000
2020-03-03,3.21,3.26,3.15,3.15,1171000
2020-03-04,3.17,3.25,3.15,3.23,1338000
2020-03-05,3.24,3.32,3.22,3.27,1387025
2020-03-06,3.27,3.27,3.16,3.18,1292000
2020-03-09,3.09,3.09,2.98,3.02,2541000
2020-03-10,3.01,3.09,2.95,3.04,1831955
2020-03-11,3.11,3.15,3.05,3.09,1542025
2020-03-12,3.0,3.05,2.96,2.98,2564000
2020-03-13,2.88,3.0,2.76,2.94,3974131
2020-03-16,2.96,2.98,2.75,2.79,2507000
2020-03-17,2.71,2.77,2.66,2.7,3307000
2020-03-18,2.69,2.8,2.57,2.59,3556000
2020-03-19,2.54,2.56,2.37,2.44,5838674
2020-03-20,2.52,2.6,2.44,2.55,3773869
2020-03-23,2.46,2.51,2.42,2.48,1882100
2020-03-24,2.53,2.67,2.53,2.62,4326451
2020-03-25,2.76,2.77,2.64,2.73,2532000
2020-03-26,2.75,2.75,2.66,2.67,1551000
2020-03-27,2.7,2.75,2.68,2.75,2405000
2020-03-30,2.73,2.85,2.67,2.83,2239000
2020-03-31,3.0,3.01,2.91,2.98,8486400
2020-04-01,2.93,3.01,2.89,2.9,5130000
2020-04-02,2.86,2.9,2.83,2.88,977000
2020-04-03,2.85,2.87,2.83,2.86,867000
2020-04-06,2.89,2.96,2.79,2.95,1050000
2020-04-07,2.96,3.01,2.92,2.94,5424000
2020-04-08,2.92,3.0,2.91,3.0,2712000
2020-04-09,3.02,3.06,2.99,3.02,2471000
2020-04-14,3.03,3.06,2.95,2.97,2375000
2020-04-15,3.01,3.01,2.89,2.9,3079000
2020-04-16,2.87,2.93,2.86,2.89,830100
2020-04-17,2.91,3.0,2.91,2.97,1271000
2020-04-20,3.05,3.05,2.93,2.97,1543000
2020-04-21,2.93,2.93,2.82,2.87,1985000
2020-04-22,2.84,2.87,2.83,2.84,768139
2020-04-23,2.87,2.89,2.81,2.85,977000
2020-04-24,2.84,2.84,2.79,2.83,1284000
2020-04-27,2.84,2.91,2.84,2.86,817000
2020-04-28,2.86,2.9,2.84,2.86,170000
2020-04-29,2.86,2.89,2.83,2.87,911000
2020-05-04,2.79,2.79,2.72,2.73,1043000
2020-05-05,2.7,2.78,2.7,2.74,578000
2020-05-06,2.76,2.82,2.76,2.78,3061000
2020-05-07,2.8,2.84,2.78,2.8,884325
2020-05-08,2.87,2.87,2.83,2.87,1230000
2020-05-11,2.9,2.9,2.8,2.83,2239250
2020-05-12,2.83,2.83,2.77,2.78,1633000
2020-05-13,2.78,2.79,2.75,2.79,1949000
2020-05-14,2.82,2.82,2.73,2.74,1082000
2020-05-15,2.81,2.81,2.71,2.74,1427000
2020-05-18,2.7,2.8,2.66,2.72,1378000
2020-05-19,2.79,2.79,2.71,2.73,1333000
2020-05-20,2.72,2.77,2.68,2.69,929000
2020-05-21,2.71,2.71,2.64,2.67,1554000
2020-05-22,2.64,2.67,2.58,2.59,1954000
2020-05-25,2.6,2.6,2.54,2.58,977000
2020-05-26,2.55,2.65,2.55,2.65,823000
2020-05-27,2.63,2.67,2.57,2.61,951000
2020-05-28,2.61,2.64,2.56,2.56,1118000
2020-05-29,2.53,2.61,2.52,2.52,1420000
2020-06-01,2.58,2.85,2.58,2.76,2006000
2020-06-02,2.8,2.82,2.74,2.8,1135050
2020-06-03,2.81,2.86,2.75,2.79,1309000
2020-06-04,2.82,2.84,2.75,2.78,735000
2020-06-05,2.78,2.86,2.76,2.83,1424000
2020-06-08,2.85,2.87,2.82,2.85,1457000
2020-06-09,2.8,2.89,2.79,2.88,2086000
2020-06-10,2.88,2.9,2.82,2.83,1207000
2020-06-11,2.78,2.83,2.75,2.76,2052000
2020-06-12,2.73,2.76,2.71,2.74,2292000
2020-06-15,2.75,2.79,2.73,2.75,1810000
2020-06-16,2.75,2.82,2.75,2.8,1922000
2020-06-17,2.83,2.83,2.74,2.78,2316000
2020-06-18,2.76,2.8,2.73,2.79,2120000
2020-06-19,2.77,2.82,2.77,2.78,2193000
2020-06-22,2.75,2.79,2.72,2.73,4824000
2020-06-23,2.73,2.73,2.63,2.72,2591000
2020-06-24,2.69,2.72,2.68,2.69,2179000
2020-06-26,2.69,2.76,2.65,2.76,1134000
2020-06-29,2.71,2.75,2.7,2.71,2636000
2020-06-30,2.72,2.76,2.72,2.74,5207000
2020-07-02,2.79,2.95,2.79,2.93,15798000
2020-07-03,2.69,2.75,2.65,2.72,7381000
2020-07-06,2.77,2.89,2.73,2.85,12917000
2020-07-07,2.86,2.95,2.81,2.83,7303000
2020-07-08,2.86,2.89,2.74,2.81,5851439
2020-07-09,2.84,2.85,2.78,2.83,3144000
2020-07-10,2.79,2.84,2.7,2.72,4486000
2020-07-13,2.75,2.78,2.61,2.66,5666000
2020-07-14,2.66,2.66,2.6,2.6,5617000
2020-07-15,2.62,2.64,2.55,2.57,2964944
2020-07-16,2.57,2.59,2.51,2.54,6085000
2020-07-17,2.53,2.59,2.52,2.53,2745400
2020-07-20,2.56,2.62,2.55,2.61,2527000
2020-07-21,2.64,2.66,2.59,2.6,1664000
2020-07-22,2.63,2.63,2.52,2.54,2891000
2020-07-23,2.54,2.6,2.52,2.58,2031000
2020-07-24,2.56,2.58,2.5,2.5,4262000
2020-07-27,2.48,2.52,2.44,2.46,2026000
2020-07-28,2.47,2.52,2.47,2.48,1229000
2020-07-29,2.46,2.52,2.46,2.51,1113000
2020-07-30,2.5,2.52,2.49,2.51,1638000
2020-07-31,2.54,2.58,2.5,2.5,2298000
2020-08-03,2.54,2.54,2.47,2.5,2253900
2020-08-04,2.53,2.55,2.47,2.55,2440250
2020-08-05,2.52,2.58,2.51,2.55,1343000
2020-08-06,2.55,2.58,2.5,2.57,2175000
2020-08-07,2.56,2.6,2.53,2.57,1261000
2020-08-10,2.57,2.59,2.54,2.55,884000
2020-08-11,2.57,2.6,2.53,2.53,2608000
2020-08-12,2.53,2.57,2.52,2.55,1160000
2020-08-13,2.55,2.62,2.55,2.58,1325000
2020-08-14,2.57,2.61,2.56,2.61,1106000
2020-08-17,2.61,2.64,2.58,2.62,1666000
2020-08-18,2.62,2.62,2.54,2.54,2519000
2020-08-19,2.55,2.59,2.52,2.55,972534
2020-08-20,2.55,2.56,2.52,2.54,1048000
2020-08-21,2.55,2.68,2.55,2.62,2714800
2020-08-24,2.62,2.69,2.62,2.66,1283000
2020-08-25,2.64,2.64,2.62,2.62,509000
