Date,Open,High,Low,Close,Volume
2013-07-25,24.65,24.65,24.4,24.55,410323
2013-07-26,24.55,24.7,24.5,24.65,124000
2013-07-29,24.75,24.95,24.35,24.9,464000
2013-07-30,24.65,24.75,24.5,24.65,332000
2013-07-31,24.8,25.3,24.8,25.2,626000
2013-08-01,25.2,25.65,25.15,25.6,225191
2013-08-02,25.55,25.6,25.0,25.5,513715
2013-08-05,25.9,25.9,25.55,25.55,140009
2013-08-06,25.55,25.8,25.15,25.75,122000
2013-08-07,25.75,25.85,25.5,25.75,492000
2013-08-08,25.75,25.8,25.3,25.3,601000
2013-08-09,25.35,25.55,25.2,25.4,178000
2013-08-12,25.4,25.7,25.4,25.7,134000
2013-08-13,25.7,25.85,25.6,25.6,736000
2013-08-15,25.4,25.4,24.75,24.85,802600
2013-08-16,24.75,24.85,24.65,24.8,263500
2013-08-19,24.8,24.85,24.6,24.8,158000
2013-08-20,24.9,24.9,24.65,24.75,292000
2013-08-21,24.65,24.65,24.35,24.5,332000
2013-08-22,24.3,24.5,24.3,24.45,154000
2013-08-23,24.6,24.6,24.45,24.6,138000
2013-08-26,24.7,24.7,24.6,24.65,96000
2013-08-27,24.6,24.6,24.45,24.45,106000
2013-08-28,24.2,24.3,24.15,24.3,126500
2013-08-29,24.15,24.7,24.15,24.55,646000
2013-08-30,24.55,24.55,24.2,24.35,1030000
2013-09-02,24.4,24.4,24.1,24.15,438000
2013-09-03,24.15,25.2,24.15,25.2,644000
2013-09-04,25.0,25.0,24.8,24.85,241999
2013-09-05,24.85,25.2,24.8,25.05,440000
2013-09-06,25.2,25.2,24.8,25.0,274000
2013-09-09,25.05,25.15,25.0,25.15,330592
2013-09-10,25.2,25.3,25.1,25.25,466000
2013-09-11,25.4,25.8,25.25,25.75,714000
2013-09-12,25.15,25.15,24.55,24.7,1534000
2013-09-13,24.7,24.7,24.0,24.4,468000
2013-09-16,24.55,24.55,24.25,24.25,888000
2013-09-17,24.3,24.35,24.1,24.3,394000
2013-09-18,24.25,24.4,24.1,24.3,263200
2013-09-19,24.45,24.95,24.3,24.7,612000
2013-09-23,24.8,24.95,24.35,24.55,115828
2013-09-24,24.5,24.5,24.1,24.25,264000
2013-09-25,24.4,24.4,24.3,24.4,230000
2013-09-26,24.5,24.7,24.25,24.65,312120
2013-09-27,24.4,24.55,24.3,24.45,288000
2013-09-30,24.1,24.25,24.0,24.05,426000
2013-10-02,24.05,24.35,24.05,24.25,278000
2013-10-03,24.2,24.65,24.2,24.65,165200
2013-10-04,24.55,25.9,24.55,25.6,1522000
2013-10-07,25.6,25.7,25.4,25.7,212000
2013-10-08,25.6,25.65,25.3,25.65,238000
2013-10-09,25.6,25.85,25.6,25.8,336000
2013-10-10,25.8,25.8,25.05,25.3,242000
2013-10-11,25.8,25.8,25.2,25.25,54000
2013-10-15,25.2,25.8,25.2,25.8,526000
2013-10-16,25.5,26.0,25.45,25.85,632000
2013-10-17,25.7,25.95,25.65,25.9,245200
2013-10-18,25.9,26.0,25.8,25.85,734601
2013-10-21,25.9,26.2,25.9,25.95,258000
2013-10-22,25.85,26.0,25.8,25.9,46265
2013-10-23,25.85,26.0,25.8,25.9,173500
2013-10-24,25.7,25.9,25.7,25.8,92000
2013-10-25,25.75,26.35,25.75,26.05,248000
2013-10-28,26.0,26.5,26.0,26.4,266000
2013-10-29,26.25,26.45,26.0,26.4,220000
2013-10-30,26.45,26.85,26.25,26.7,404000
2013-10-31,26.55,26.7,26.4,26.6,188000
2013-11-01,26.65,26.65,26.3,26.35,222000
2013-11-04,26.35,26.4,26.2,26.25,204000
2013-11-05,26.4,26.4,25.9,25.95,194000
2013-11-06,26.0,26.15,25.95,25.95,380000
2013-11-07,26.1,26.1,25.7,25.75,51200
2013-11-08,25.6,26.0,25.4,26.0,544000
2013-11-11,25.75,26.05,25.6,26.0,74000
2013-11-12,26.0,26.5,25.9,26.1,116000
2013-11-13,25.9,26.1,25.9,26.0,54000
2013-11-14,26.0,26.75,26.0,26.65,254000
2013-11-15,26.4,26.65,26.15,26.2,32000
2013-11-18,26.8,26.8,26.35,26.45,254000
2013-11-19,26.4,26.65,26.35,26.65,82000
2013-11-20,26.6,26.6,26.0,26.35,95500
2013-11-21,26.35,26.35,25.85,26.15,123000
2013-11-22,25.9,26.0,25.8,25.9,224000
2013-11-25,26.05,26.05,25.8,25.95,157500
2013-11-26,25.85,26.0,25.7,25.75,240200
2013-11-27,25.8,26.35,25.8,26.2,838000
2013-11-28,25.9,26.25,25.9,26.1,530240
2013-11-29,26.15,26.35,25.95,26.15,154000
2013-12-02,26.15,26.15,25.7,25.95,215000
2013-12-03,25.9,26.35,25.85,26.0,484796
2013-12-04,25.95,26.0,25.7,25.75,396000
2013-12-05,25.85,25.85,25.45,25.55,546000
2013-12-06,25.55,25.55,25.25,25.35,446000
2013-12-09,25.45,25.5,25.35,25.4,632000
2013-12-10,25.45,25.5,25.2,25.3,350000
2013-12-11,25.2,25.2,24.6,24.6,878170
2013-12-12,24.5,24.85,24.5,24.6,742000
2013-12-13,24.6,25.1,24.6,24.85,326200
2013-12-16,24.7,24.95,24.3,24.65,338400
2013-12-17,24.65,24.9,24.6,24.65,246000
2013-12-18,24.6,24.95,24.6,24.85,110000
2013-12-19,25.0,25.2,24.95,25.0,264000
2013-12-20,24.95,25.1,24.95,25.0,180000
2013-12-23,25.1,25.15,24.9,25.15,372400
2013-12-24,25.05,25.2,24.55,25.1,52000
2013-12-27,25.25,25.25,24.9,25.0,98000
2013-12-30,25.1,25.3,24.5,24.85,574000
2013-12-31,25.05,25.25,24.9,25.0,78000
2014-01-02,25.0,25.0,24.6,24.75,238000
2014-01-03,24.6,24.6,24.25,24.4,398000
2014-01-06,24.45,24.6,24.25,24.45,114000
2014-01-07,24.35,24.35,24.0,24.15,262000
2014-01-08,24.15,24.15,23.8,23.95,388000
2014-01-09,23.9,23.9,23.3,23.65,710000
2014-01-10,23.7,23.9,23.65,23.7,642000
2014-01-13,24.0,24.1,23.75,23.9,318576
2014-01-14,23.3,23.9,23.3,23.55,210000
2014-01-15,23.7,23.7,23.3,23.5,294500
2014-01-16,23.55,23.55,23.45,23.5,176000
2014-01-17,23.5,23.5,23.35,23.4,112000
2014-01-20,23.5,23.5,22.7,23.05,715000
2014-01-21,23.05,23.1,22.8,22.8,814000
2014-01-22,22.8,23.3,22.7,23.05,1842132
2014-01-23,22.85,23.0,22.8,22.9,2827000
2014-01-24,22.9,23.2,22.85,22.85,1644132
2014-01-27,22.7,23.0,22.7,23.0,1022000
2014-01-28,23.05,23.5,23.05,23.5,418000
2014-01-29,23.4,24.0,23.25,23.9,1386000
2014-01-30,23.6,23.8,23.6,23.8,522000
2014-02-04,23.7,23.7,22.85,23.35,2272000
2014-02-05,23.4,23.55,23.3,23.5,1486000
2014-02-06,23.5,23.6,23.45,23.45,316000
2014-02-07,23.45,23.65,23.3,23.4,814562
2014-02-10,23.4,24.05,23.4,24.0,428000
2014-02-11,23.9,24.1,23.65,23.85,172170
2014-02-12,23.8,24.0,23.7,23.85,502000
2014-02-13,23.85,23.95,23.55,23.85,407968
2014-02-14,23.85,23.95,23.1,23.65,547000
2014-02-17,23.65,23.95,23.4,23.9,584000
2014-02-18,23.85,23.85,23.5,23.7,104000
2014-02-19,23.7,24.1,23.7,24.0,260000
2014-02-20,23.75,24.0,23.7,23.9,78000
2014-02-21,24.0,24.05,23.85,23.9,151000
2014-02-24,23.95,24.1,23.9,24.05,126684
2014-02-25,23.95,24.1,23.75,24.0,250000
2014-02-26,24.1,24.45,23.95,24.3,274796
2014-02-27,24.2,24.35,23.7,24.05,166000
2014-02-28,23.85,24.3,23.7,24.25,226000
2014-03-03,24.15,24.2,23.75,23.8,178000
2014-03-04,23.8,24.1,23.8,24.05,216000
2014-03-05,24.1,24.15,23.9,24.1,208130
2014-03-06,24.1,24.45,24.0,24.45,164325
2014-03-07,24.55,24.6,24.3,24.6,209400
2014-03-10,24.8,24.8,24.15,24.2,243355
2014-03-11,24.15,24.45,24.15,24.4,54000
2014-03-12,24.25,24.6,24.15,24.25,106000
2014-03-13,24.1,24.4,23.5,24.3,164000
2014-03-14,24.3,24.45,23.8,24.3,162000
2014-03-17,24.1,24.6,24.05,24.6,156429
2014-03-18,24.6,24.7,24.3,24.7,136500
2014-03-19,24.8,24.8,24.25,24.3,76000
2014-03-20,24.2,24.2,23.7,23.8,168552
2014-03-21,23.8,24.25,23.7,23.85,682000
2014-03-24,23.75,24.05,23.45,23.6,330352
2014-03-25,23.65,23.65,23.25,23.5,100000
2014-03-26,23.4,23.5,23.1,23.2,539945
2014-03-27,23.2,23.55,23.15,23.45,93000
2014-03-28,23.35,23.6,23.2,23.5,230000
2014-03-31,23.5,23.65,23.3,23.45,785617
2014-04-01,23.55,23.7,23.25,23.25,522000
2014-04-02,23.35,23.45,23.1,23.3,776000
2014-04-03,23.4,23.5,23.3,23.35,126000
2014-04-04,23.45,23.5,23.45,23.45,44000
2014-04-07,23.4,23.4,23.3,23.3,90000
2014-04-08,23.2,23.2,22.85,22.9,386000
2014-04-09,22.95,23.2,22.95,23.15,78000
2014-04-10,23.15,23.35,23.1,23.2,84000
2014-04-11,23.3,23.55,23.3,23.55,260500
2014-04-14,23.5,23.55,23.5,23.55,42361
2014-04-15,23.5,23.55,23.3,23.3,102428
2014-04-16,23.4,23.55,23.3,23.35,42000
2014-04-17,23.3,23.6,23.3,23.5,70076
2014-04-22,23.5,23.6,23.4,23.45,22000
2014-04-23,23.5,23.55,23.45,23.55,84000
2014-04-24,23.55,23.9,23.55,23.85,196000
2014-04-25,23.85,25.3,23.65,24.85,937000
2014-04-28,24.75,24.75,24.25,24.3,154000
2014-04-29,24.3,24.5,23.85,24.05,80000
2014-04-30,24.05,24.4,23.9,24.35,116000
2014-05-02,24.45,24.55,24.2,24.4,89000
2014-05-05,24.3,24.75,24.3,24.7,142291
2014-05-07,24.55,24.75,24.45,24.65,84000
2014-05-08,24.75,24.75,24.2,24.3,102000
2014-05-09,24.35,24.7,24.2,24.35,258000
2014-05-12,24.5,25.0,24.4,25.0,294000
2014-05-13,24.9,24.95,24.4,24.6,188000
2014-05-14,24.75,24.8,24.15,24.25,190000
2014-05-15,24.25,24.45,24.15,24.3,128128
2014-05-16,24.25,24.4,24.1,24.3,54000
2014-05-19,24.3,24.6,24.25,24.6,66000
2014-05-20,24.5,24.9,24.5,24.8,302000
2014-05-21,24.9,25.0,24.6,24.75,160000
2014-05-22,24.75,24.8,24.45,24.75,210300
2014-05-23,24.5,24.85,24.35,24.45,210645
2014-05-26,24.6,24.75,24.4,24.7,298000
2014-05-27,24.8,24.9,24.65,24.85,118000
2014-05-28,24.8,24.8,24.4,24.55,76000
2014-05-29,24.65,24.8,24.65,24.75,140000
2014-05-30,24.8,24.85,24.2,24.3,325000
2014-06-03,24.45,25.7,24.45,25.1,1538000
2014-06-04,25.05,25.5,25.05,25.3,930728
2014-06-05,25.45,25.45,24.95,25.05,182309
2014-06-06,25.3,25.3,25.05,25.1,154000
2014-06-09,25.15,25.2,25.05,25.1,270000
2014-06-10,25.05,25.35,25.05,25.35,162000
2014-06-11,25.35,25.35,25.25,25.35,120500
2014-06-12,25.35,25.35,25.05,25.3,182000
2014-06-13,25.25,25.3,25.15,25.25,46000
2014-06-16,25.25,25.3,25.05,25.25,90000
2014-06-17,25.25,25.4,25.05,25.15,346000
2014-06-18,25.2,25.2,25.05,25.2,130400
2014-06-19,25.5,25.5,25.25,25.35,244000
2014-06-20,25.5,25.5,25.15,25.3,172000
2014-06-23,25.3,25.3,24.8,24.85,308000
2014-06-24,24.95,25.2,24.75,25.15,315354
2014-06-25,25.25,25.5,24.95,25.1,453649
2014-06-26,25.05,25.35,25.05,25.35,180000
2014-06-27,25.2,25.65,25.2,25.65,420576
2014-06-30,25.65,26.2,25.45,26.15,614119
2014-07-02,26.4,26.5,26.2,26.45,393786
2014-07-03,26.45,26.8,26.4,26.7,295674
2014-07-04,26.7,26.8,26.55,26.75,262992
2014-07-07,26.85,26.85,26.5,26.85,242763
2014-07-08,26.75,27.0,26.7,26.85,310655
2014-07-09,26.85,27.0,26.7,27.0,308067
2014-07-10,26.95,27.25,26.65,27.25,299216
2014-07-11,27.2,27.4,27.15,27.2,643864
2014-07-14,27.1,27.7,27.0,27.6,452618
2014-07-15,27.7,27.85,27.45,27.75,372073
2014-07-16,27.8,27.95,27.8,27.95,845695
2014-07-17,28.0,28.0,27.85,28.0,188760
2014-07-18,28.0,28.0,27.75,27.8,226801
2014-07-21,27.9,28.1,27.85,28.05,194456
2014-07-22,28.1,28.2,28.0,28.0,612242
2014-07-23,28.0,28.1,27.95,28.0,237590
2014-07-24,28.1,28.1,27.55,27.6,607095
2014-07-25,28.0,28.0,27.35,27.45,278949
2014-07-28,27.55,28.1,27.45,28.05,388224
2014-07-29,27.8,28.0,27.8,27.95,479030
2014-07-30,27.95,28.0,27.65,27.75,288851
2014-07-31,27.9,27.9,27.5,27.7,333993
2014-08-01,27.75,27.75,27.5,27.6,212297
2014-08-04,27.5,27.5,27.35,27.45,331069
2014-08-05,27.5,27.5,27.35,27.5,325058
2014-08-06,27.5,28.0,27.4,27.9,380767
2014-08-07,27.95,28.45,27.95,28.35,323326
2014-08-08,28.35,28.35,28.05,28.25,505564
2014-08-11,28.25,28.25,28.1,28.1,259663
2014-08-12,28.1,28.35,27.9,28.05,517416
2014-08-13,28.15,28.4,28.15,28.4,300902
2014-08-14,28.2,28.95,28.2,28.6,342934
2014-08-15,28.45,29.0,28.45,28.8,337294
2014-08-18,28.75,29.45,28.75,29.05,401407
2014-08-19,29.2,29.7,29.2,29.65,306616
2014-08-20,29.85,30.2,29.85,30.05,330592
2014-08-21,30.3,30.35,29.3,29.6,559432
2014-08-22,29.5,29.6,29.4,29.55,636336
2014-08-25,29.65,29.95,29.55,29.95,263000
2014-08-26,29.95,29.95,29.65,29.85,168000
2014-08-27,30.4,30.4,28.5,29.0,864352
2014-08-28,29.15,29.3,28.35,28.55,242684
2014-08-29,28.55,28.55,27.8,27.95,748000
2014-09-01,28.0,28.1,27.95,28.0,404000
2014-09-02,27.95,28.1,27.95,28.05,248520
2014-09-03,28.0,28.5,28.0,28.35,416670
2014-09-04,28.45,28.6,28.35,28.45,632500
2014-09-05,28.55,28.8,28.55,28.7,216100
2014-09-08,28.7,29.3,28.7,29.05,138000
2014-09-10,28.9,28.9,28.45,28.65,220060
2014-09-11,28.7,28.9,27.3,27.45,1143098
2014-09-12,27.45,28.5,27.4,28.05,714700
2014-09-15,27.65,27.75,27.25,27.6,264000
2014-09-16,27.75,27.75,27.15,27.2,210000
2014-09-17,27.4,27.45,26.9,27.05,496000
2014-09-18,27.1,27.45,27.1,27.35,254000
2014-09-19,27.55,27.85,27.45,27.8,572000
2014-09-22,27.85,27.85,27.4,27.45,92000
2014-09-23,27.25,27.75,27.25,27.5,340000
2014-09-24,27.6,27.75,27.4,27.45,258667
2014-09-25,27.65,27.7,27.25,27.3,146000
2014-09-26,27.15,27.25,27.1,27.15,208000
2014-09-29,26.65,26.9,26.4,26.6,429000
2014-09-30,26.6,26.6,26.2,26.3,494000
2014-10-03,26.1,27.0,25.9,26.8,789091
2014-10-06,26.8,27.25,26.75,27.05,410450
2014-10-07,26.5,27.15,26.5,26.9,390000
2014-10-08,26.9,27.05,26.75,27.0,128000
2014-10-09,27.45,27.45,27.0,27.45,196105
2014-10-10,27.3,27.4,27.15,27.25,208400
2014-10-13,27.3,27.75,27.25,27.55,281365
2014-10-14,27.4,27.7,27.4,27.6,176000
2014-10-15,27.5,27.8,27.5,27.6,456000
2014-10-16,27.5,27.8,27.1,27.2,178000
2014-10-17,27.2,27.2,26.55,26.6,416000
2014-10-20,26.6,26.7,26.5,26.5,504000
2014-10-21,26.65,26.65,26.3,26.5,625968
2014-10-22,26.7,27.0,26.6,26.9,431208
2014-10-23,27.0,27.0,26.7,26.95,192000
2014-10-24,26.95,27.15,26.6,27.0,501000
2014-10-27,27.0,27.6,26.8,27.4,241000
2014-10-28,27.3,27.45,27.25,27.35,194000
2014-10-29,27.35,27.55,27.35,27.45,234000
2014-10-30,27.35,27.75,27.35,27.55,298000
2014-10-31,27.55,27.8,27.55,27.8,834630
2014-11-03,27.7,27.7,27.5,27.5,585000
2014-11-04,27.5,27.5,27.25,27.35,26000
2014-11-05,27.25,27.25,26.8,27.0,878000
2014-11-06,27.1,27.15,27.0,27.1,132000
2014-11-07,26.95,27.15,26.95,27.1,58106
2014-11-10,27.3,27.3,26.5,26.7,737810
2014-11-11,26.65,26.75,26.6,26.75,326000
2014-11-12,26.75,27.0,26.75,27.0,112000
2014-11-13,27.0,27.0,26.8,26.85,168925
2014-11-14,26.9,26.9,26.6,26.65,174000
2014-11-17,26.85,26.9,26.8,26.9,284000
2014-11-18,26.7,26.7,26.6,26.6,110000
2014-11-19,26.65,26.7,26.5,26.7,282690
2014-11-20,26.7,26.7,26.5,26.65,79272
2014-11-21,26.65,26.65,26.5,26.6,172500
2014-11-24,26.7,26.75,26.25,26.35,643800
2014-11-25,26.4,26.75,26.4,26.65,674000
2014-11-26,26.7,26.75,26.55,26.55,118020
2014-11-27,26.6,26.8,26.55,26.75,54004
2014-11-28,26.65,26.9,25.7,26.5,346000
2014-12-01,26.45,26.6,26.45,26.55,326000
2014-12-02,26.5,26.6,26.5,26.6,160000
2014-12-03,26.7,26.7,26.55,26.55,146000
2014-12-04,26.55,26.55,26.4,26.4,112600
2014-12-05,26.35,26.35,26.3,26.35,288074
2014-12-08,26.35,26.35,26.2,26.25,184200
2014-12-09,26.3,26.45,26.3,26.3,195531
2014-12-10,26.3,26.5,26.3,26.35,122000
2014-12-11,26.3,26.45,26.15,26.4,136014
2014-12-12,26.4,26.5,26.0,26.1,506000
2014-12-15,26.3,26.3,26.0,26.15,300007
2014-12-16,26.15,26.8,26.15,26.45,508000
2014-12-17,26.45,26.45,26.3,26.3,212790
2014-12-18,26.7,26.7,26.65,26.7,320000
2014-12-19,26.7,26.7,26.3,26.35,472000
2014-12-22,26.3,26.5,26.0,26.1,617656
2014-12-23,26.2,26.2,26.05,26.2,306000
2014-12-24,26.15,26.4,26.15,26.4,16000
2014-12-29,26.3,26.4,26.2,26.3,102800
2014-12-30,26.4,26.7,26.4,26.7,193692
2014-12-31,27.0,27.0,26.65,26.9,100000
2015-01-02,26.85,26.85,26.55,26.6,58000
2015-01-05,26.8,26.8,26.6,26.75,156400
2015-01-06,26.7,26.7,26.5,26.55,150055
2015-01-07,26.5,26.5,26.3,26.3,177074
2015-01-08,26.4,26.65,26.3,26.45,360143
2015-01-09,26.45,26.7,26.45,26.6,102000
2015-01-12,26.55,26.85,26.5,26.85,587700
2015-01-13,26.75,27.9,26.75,27.3,584000
2015-01-14,27.35,27.75,27.25,27.6,404000
2015-01-15,27.6,27.75,27.45,27.7,478361
2015-01-16,27.75,28.05,27.55,27.8,466800
2015-01-19,27.9,27.9,27.55,27.75,294000
2015-01-20,27.7,27.85,27.55,27.8,88000
2015-01-21,27.75,27.85,27.75,27.8,148000
2015-01-22,27.9,28.1,27.65,28.0,256000
2015-01-23,28.0,28.05,27.75,28.0,172000
2015-01-26,28.0,28.1,27.65,27.9,392000
2015-01-27,28.0,28.1,27.85,28.05,82000
2015-01-28,27.95,28.35,27.95,28.1,402000
2015-01-29,28.1,28.9,28.0,28.4,697000
2015-01-30,28.95,29.0,28.35,28.6,260000
2015-02-02,28.3,28.8,28.3,28.8,224000
2015-02-03,28.25,28.4,28.0,28.1,318330
2015-02-04,28.25,28.55,28.1,28.35,348612
2015-02-05,28.35,28.8,28.35,28.8,225000
2015-02-06,28.75,28.85,28.4,28.8,372133
2015-02-09,28.85,28.85,28.4,28.75,92327
2015-02-10,28.8,28.9,28.45,28.9,212000
2015-02-11,28.75,28.75,28.5,28.6,106000
2015-02-12,28.7,28.95,28.65,28.9,781804
2015-02-13,28.9,29.3,28.9,29.25,342000
2015-02-16,29.4,29.45,29.1,29.15,646000
2015-02-17,29.25,29.4,28.75,28.9,204000
2015-02-18,28.8,29.0,28.65,28.8,100000
2015-02-23,28.9,29.15,28.8,28.8,198660
2015-02-24,28.9,29.1,28.4,28.5,157680
2015-02-25,28.7,28.75,28.4,28.5,1459000
2015-02-26,29.0,29.0,28.0,28.1,252000
2015-02-27,28.45,28.45,27.9,28.05,397546
2015-03-02,28.3,28.4,27.95,28.05,170000
2015-03-03,28.05,28.3,28.05,28.1,296300
2015-03-04,28.1,28.3,28.1,28.15,172052
2015-03-05,28.15,28.55,28.15,28.5,260000
2015-03-06,28.55,28.85,28.5,28.75,324100
2015-03-09,28.8,28.8,28.55,28.65,60000
2015-03-10,28.7,28.8,28.7,28.75,84000
2015-03-11,28.75,28.8,28.7,28.8,498382
2015-03-12,28.75,28.9,28.55,28.8,371900
2015-03-13,28.65,28.95,28.65,28.8,218000
2015-03-16,28.75,28.75,28.3,28.45,596660
2015-03-17,28.55,28.55,28.2,28.2,331674
2015-03-18,28.3,28.3,27.9,28.0,337420
2015-03-19,28.1,28.2,28.0,28.2,160660
2015-03-20,28.25,28.45,28.05,28.3,235045
2015-03-23,28.3,28.4,27.5,27.6,468000
2015-03-24,27.65,27.85,27.5,27.7,212000
2015-03-25,27.8,27.95,27.7,27.9,122555
2015-03-26,28.0,28.05,27.8,28.0,240660
2015-03-27,28.1,28.1,27.85,27.95,72000
2015-03-30,27.9,28.0,27.5,27.55,395048
2015-03-31,27.55,27.8,27.55,27.75,269325
2015-04-01,27.8,28.0,27.8,27.9,298000
2015-04-02,28.0,28.0,27.65,27.75,211816
2015-04-08,28.0,28.5,27.6,28.45,1263547
2015-04-09,28.65,28.75,28.2,28.6,1168030
2015-04-10,28.75,28.75,28.45,28.75,594798
2015-04-13,28.85,29.0,28.5,28.95,580056
2015-04-14,28.95,29.1,28.8,29.0,593740
2015-04-15,29.1,29.1,28.5,28.85,390990
2015-04-16,28.8,28.95,28.75,28.95,197000
2015-04-17,29.0,29.0,28.5,28.8,232660
2015-04-20,28.5,28.8,28.4,28.55,190000
2015-04-21,28.55,28.9,28.35,28.9,232000
2015-04-22,28.8,28.9,28.6,28.8,130203
2015-04-23,28.8,28.8,28.45,28.6,362284
2015-04-24,28.6,28.7,28.45,28.7,202000
2015-04-27,28.7,29.15,28.5,29.1,350989
2015-04-28,29.0,29.0,28.75,28.95,192000
2015-04-29,28.65,28.95,28.6,28.95,102000
2015-04-30,28.95,29.15,28.7,29.1,298000
2015-05-04,29.0,29.1,28.7,29.0,299100
2015-05-05,29.1,29.3,28.85,29.3,562000
2015-05-06,29.2,29.2,28.9,29.05,316050
2015-05-07,28.7,29.8,28.65,29.55,488000
2015-05-08,29.05,29.8,29.05,29.8,286130
2015-05-11,29.5,29.95,29.5,29.85,652000
2015-05-12,29.75,30.05,29.7,30.0,341138
2015-05-13,29.9,30.05,29.6,29.6,156000
2015-05-14,29.7,29.7,29.15,29.15,219402
2015-05-15,29.3,29.6,29.3,29.45,100972
2015-05-18,29.55,29.85,29.4,29.5,92500
2015-05-19,29.9,29.9,29.3,29.5,217190
2015-05-20,29.4,29.8,29.4,29.75,325190
2015-05-21,29.6,29.8,29.5,29.75,65000
2015-05-22,29.85,29.9,29.6,29.9,144000
2015-05-26,29.9,29.9,29.6,29.6,104354
2015-05-27,29.7,29.8,29.65,29.7,139960
2015-05-28,29.75,29.75,29.55,29.7,90000
2015-05-29,29.6,29.8,29.5,29.75,474660
2015-06-01,29.65,29.65,29.4,29.45,118000
2015-06-02,29.5,29.7,29.05,29.05,244000
2015-06-03,28.95,29.15,28.95,29.1,140000
2015-06-04,29.1,29.35,29.1,29.25,172050
2015-06-05,29.2,29.2,28.95,29.05,42245
2015-06-08,29.15,29.15,28.95,29.0,192500
2015-06-09,28.9,28.9,28.6,28.6,204500
2015-06-10,28.7,28.7,28.5,28.55,258000
2015-06-11,29.0,29.0,28.7,28.85,328000
2015-06-12,28.7,28.75,28.4,28.55,196507
2015-06-15,28.9,28.9,28.4,28.65,256000
2015-06-16,28.8,28.85,28.7,28.85,340986
2015-06-17,28.9,29.1,28.9,29.1,86000
2015-06-18,28.8,29.7,28.8,29.6,380000
2015-06-19,29.5,29.7,29.35,29.4,119530
2015-06-22,29.35,29.35,29.05,29.2,34000
2015-06-23,28.8,29.25,28.8,29.1,154765
2015-06-24,28.8,29.0,28.2,28.6,545980
2015-06-25,28.8,28.8,27.9,28.0,360500
2015-06-26,27.7,28.3,27.5,28.1,446382
2015-06-29,28.1,28.1,27.55,27.85,321157
2015-06-30,28.4,28.4,27.9,28.0,364240
2015-07-02,27.55,28.3,27.55,28.0,470387
2015-07-03,28.45,28.45,28.0,28.2,334588
2015-07-06,28.2,28.5,27.85,28.35,446855
2015-07-07,28.5,28.5,28.05,28.15,406036
2015-07-08,27.65,27.85,27.2,27.3,574957
2015-07-09,27.3,27.3,27.0,27.1,1926180
2015-07-10,27.85,27.85,27.2,27.3,653264
2015-07-13,27.0,27.8,27.0,27.8,510338
2015-07-14,27.8,27.95,27.5,27.6,313017
2015-07-15,27.35,27.5,27.3,27.45,137020
2015-07-16,27.25,27.6,27.25,27.6,1064000
2015-07-17,27.65,27.95,27.65,27.8,816000
2015-07-20,27.65,27.8,27.65,27.8,56000
2015-07-21,27.9,27.9,27.4,27.5,234000
2015-07-22,27.85,27.85,27.2,27.35,228000
2015-07-23,27.55,27.55,27.2,27.4,216000
2015-07-24,27.6,27.6,27.25,27.4,179058
2015-07-27,26.85,27.1,26.85,27.0,92729
2015-07-28,27.1,27.1,26.9,27.0,696255
2015-07-29,27.1,27.5,26.95,27.35,638637
2015-07-30,27.5,27.6,27.4,27.45,584194
2015-07-31,27.8,27.8,27.2,27.2,386128
2015-08-03,27.8,27.8,26.95,27.0,270000
2015-08-04,27.05,27.05,26.9,27.0,304040
2015-08-05,27.2,27.2,26.8,26.85,118338
2015-08-06,27.0,27.0,26.7,26.8,102278
2015-08-07,26.8,26.8,26.65,26.65,181716
2015-08-10,27.2,27.2,26.75,26.75,175692
2015-08-11,26.75,27.0,26.7,26.75,128000
2015-08-12,26.75,26.75,26.35,26.35,265612
2015-08-13,26.4,26.7,26.4,26.6,210842
2015-08-14,26.7,26.7,26.4,26.55,128000
2015-08-17,26.65,26.8,26.5,26.55,398639
2015-08-18,26.65,26.7,26.5,26.55,247323
2015-08-19,26.65,26.65,26.05,26.1,188000
2015-08-20,25.1,25.45,24.85,25.05,2342000
2015-08-21,25.0,25.7,24.9,25.15,1112100
2015-08-24,24.9,25.0,24.5,24.65,622000
2015-08-25,24.55,24.65,24.15,24.25,1477552
2015-08-26,24.3,24.8,24.1,24.25,1785000
2015-08-27,24.45,24.65,24.2,24.45,1752941
2015-08-28,24.9,24.9,24.65,24.8,1628806
2015-08-31,24.8,24.85,24.6,24.65,526806
2015-09-01,24.65,24.7,24.4,24.4,455000
2015-09-02,24.2,24.4,24.05,24.1,362000
2015-09-04,24.2,24.7,24.1,24.4,924732
2015-09-07,24.4,24.7,24.2,24.35,460000
2015-09-08,24.4,24.95,24.4,24.95,360356
2015-09-09,25.0,25.75,25.0,25.7,307100
2015-09-10,25.55,25.7,25.2,25.55,124967
2015-09-11,25.25,25.8,25.25,25.7,231331
2015-09-14,25.15,25.3,24.9,25.05,118000
2015-09-15,25.0,25.3,24.95,25.15,486000
2015-09-16,25.1,26.3,24.95,26.1,772000
2015-09-17,25.9,26.2,25.9,26.15,418000
2015-09-18,26.15,26.2,26.05,26.15,657000
2015-09-21,26.15,26.2,25.9,26.1,210300
2015-09-22,26.55,27.0,26.1,26.95,593564
2015-09-23,26.75,26.75,25.45,25.6,1450030
2015-09-24,25.8,26.1,25.45,25.85,503906
2015-09-25,25.7,26.0,25.55,25.8,180870
2015-09-29,25.7,26.35,25.35,26.3,404362
2015-09-30,26.5,26.75,25.8,25.9,818261
2015-10-02,26.3,26.3,25.95,26.05,168069
2015-10-05,26.45,26.45,26.0,26.2,138284
2015-10-06,26.45,26.45,26.15,26.35,112056
2015-10-07,26.25,26.5,26.15,26.3,106000
2015-10-08,26.25,26.4,26.1,26.3,270334
2015-10-09,26.25,26.5,26.05,26.15,164000
2015-10-12,26.0,26.5,26.0,26.35,330322
2015-10-13,26.4,26.4,26.0,26.1,469006
2015-10-14,26.2,26.4,25.95,26.4,183500
2015-10-15,26.35,27.3,26.1,26.85,634994
2015-10-16,26.8,26.9,26.5,26.8,110000
2015-10-19,26.9,27.05,26.9,27.0,310055
2015-10-20,26.85,26.85,26.5,26.55,250806
2015-10-22,26.45,26.55,26.4,26.5,474000
2015-10-23,26.85,26.85,26.5,26.7,142340
2015-10-26,26.7,26.7,26.4,26.5,156000
2015-10-27,26.35,26.5,26.35,26.45,114100
2015-10-28,26.4,26.4,26.3,26.4,90000
2015-10-29,26.6,26.6,26.3,26.4,112000
2015-10-30,26.25,26.8,26.15,26.25,118000
2015-11-02,26.1,26.2,26.05,26.1,319161
2015-11-03,26.3,26.9,26.25,26.8,205920
2015-11-04,27.0,27.0,26.65,26.65,255071
2015-11-05,26.8,27.05,26.35,26.4,231061
2015-11-06,26.45,26.45,26.25,26.35,234387
2015-11-09,26.2,26.5,26.1,26.45,552000
2015-11-10,26.45,26.45,26.0,26.05,376000
2015-11-11,26.05,26.3,26.05,26.2,160000
2015-11-12,26.2,26.25,26.0,26.05,214000
2015-11-13,26.0,26.2,26.0,26.05,182000
2015-11-16,25.9,25.9,25.65,25.75,648705
2015-11-17,25.95,26.15,25.9,26.0,66000
2015-11-18,25.85,25.85,25.7,25.7,82000
2015-11-19,25.65,25.8,25.65,25.7,690000
2015-11-20,25.8,25.9,25.75,25.9,82000
2015-11-23,26.0,26.0,25.8,25.85,254226
2015-11-24,25.75,25.75,25.6,25.6,484000
2015-11-25,25.55,25.9,25.5,25.85,359970
2015-11-26,25.8,26.6,25.6,26.4,511305
2015-11-27,26.5,27.1,26.5,27.0,500806
2015-11-30,26.9,26.9,25.35,25.55,475020
2015-12-01,25.5,25.5,25.05,25.2,2164380
2015-12-02,25.05,25.05,24.4,24.9,577920
2015-12-03,24.9,24.9,24.15,24.2,1188870
2015-12-04,24.25,24.25,23.8,24.0,1540000
2015-12-07,24.1,24.6,24.0,24.45,378217
2015-12-08,24.25,24.55,24.05,24.45,619970
2015-12-09,24.4,24.4,24.25,24.3,598000
2015-12-10,24.35,24.35,24.0,24.1,432158
2015-12-11,24.15,24.15,23.4,23.55,1078000
2015-12-14,23.35,23.5,22.65,22.85,1320490
2015-12-15,22.8,22.85,22.2,22.25,531738
2015-12-16,22.2,22.55,22.2,22.25,521946
2015-12-17,22.25,22.6,22.25,22.25,446055
2015-12-18,22.25,22.7,22.25,22.55,2278229
2015-12-21,22.6,22.6,22.3,22.5,172982
2015-12-22,22.45,22.55,22.35,22.5,420800
2015-12-23,22.65,22.65,22.45,22.6,490000
2015-12-24,22.65,22.85,22.65,22.75,96720
2015-12-28,22.85,22.85,22.7,22.75,114400
2015-12-29,22.7,22.8,22.6,22.75,147300
2015-12-30,22.8,22.8,22.7,22.75,96967
2015-12-31,22.8,22.85,22.75,22.75,86000
2016-01-04,22.65,22.85,22.4,22.5,303381
2016-01-05,22.5,22.6,22.2,22.6,770000
2016-01-06,22.5,22.6,22.35,22.6,538066
2016-01-07,22.35,22.9,22.35,22.85,612001
2016-01-08,22.8,22.95,22.6,22.9,304235
2016-01-11,22.7,22.7,22.1,22.4,1056000
2016-01-12,22.35,22.75,22.35,22.5,175820
2016-01-13,22.6,23.0,22.5,22.85,267360
2016-01-14,22.6,23.3,22.6,23.3,270000
2016-01-15,23.15,23.15,22.8,22.85,310000
2016-01-18,22.6,22.8,22.2,22.4,1098900
2016-01-19,22.5,22.85,22.4,22.75,234000
2016-01-20,22.65,22.7,22.4,22.65,222121
2016-01-21,22.65,22.65,21.4,21.6,406001
2016-01-22,21.7,22.15,21.7,21.85,190000
2016-01-25,22.35,22.45,22.2,22.4,167582
2016-01-26,22.2,22.2,21.8,22.0,284000
2016-01-27,22.05,22.15,21.8,22.0,256000
2016-01-28,22.0,22.0,21.55,21.65,178000
2016-01-29,21.65,21.7,21.15,21.25,736000
2016-02-01,21.35,21.35,21.05,21.15,490000
2016-02-02,21.5,21.5,21.2,21.3,247803
2016-02-03,21.2,21.3,21.05,21.15,577094
2016-02-04,21.35,21.45,21.25,21.45,236000
2016-02-05,21.45,21.45,21.1,21.25,96131
2016-02-11,20.8,21.0,20.65,20.65,267272
2016-02-12,20.5,20.65,20.4,20.45,350377
2016-02-15,20.55,20.55,20.05,20.2,893100
2016-02-16,20.3,20.6,20.15,20.5,239806
2016-02-17,20.7,20.7,20.3,20.55,213000
2016-02-18,20.5,20.95,20.5,20.85,397062
2016-02-19,20.65,20.85,20.65,20.7,95494
2016-02-22,20.7,20.95,20.65,20.95,182000
2016-02-23,21.1,21.15,20.95,21.0,96000
2016-02-24,21.1,21.2,21.0,21.2,434935
2016-02-25,21.45,21.45,20.8,21.15,188000
2016-02-26,21.45,21.45,21.1,21.3,144000
2016-02-29,21.4,21.4,20.9,21.1,400000
2016-03-01,21.4,21.4,21.15,21.25,34000
2016-03-02,21.45,21.7,21.3,21.45,288000
2016-03-03,21.5,21.65,21.45,21.55,98068
2016-03-04,21.5,21.9,21.4,21.7,272000
2016-03-07,21.65,21.95,21.65,21.75,94240
2016-03-08,21.85,21.9,21.7,21.8,87512
2016-03-09,21.65,22.15,21.65,22.0,228000
2016-03-10,22.05,22.75,22.05,22.7,264180
2016-03-11,22.7,22.9,22.6,22.7,380352
2016-03-14,22.7,22.95,22.6,22.85,416000
2016-03-15,22.8,22.8,22.7,22.8,232000
2016-03-16,22.8,23.1,22.8,23.0,360806
2016-03-17,23.1,23.5,23.1,23.2,384000
2016-03-18,23.2,23.2,22.95,23.0,323228
2016-03-21,23.15,23.2,22.85,22.85,542000
2016-03-22,22.95,22.95,22.8,22.9,416000
2016-03-23,23.2,23.2,22.65,22.8,248967
2016-03-24,23.1,23.1,22.65,22.65,177149
2016-03-29,22.5,22.7,22.45,22.45,285360
2016-03-30,22.4,22.65,22.4,22.55,118500
2016-03-31,22.9,22.9,22.45,22.55,157554
2016-04-01,22.7,22.7,22.5,22.7,340423
2016-04-05,22.75,23.0,22.6,22.95,812704
2016-04-06,22.95,23.0,22.8,23.0,144064
2016-04-07,23.0,23.6,23.0,23.5,185967
2016-04-08,23.45,24.1,23.25,24.1,533264
2016-04-11,24.35,24.35,24.0,24.05,189000
2016-04-12,23.95,24.05,23.65,23.75,250000
2016-04-13,23.75,24.0,23.75,23.95,384806
2016-04-14,23.95,24.1,23.75,23.9,502000
2016-04-15,24.05,24.05,23.85,23.9,231060
2016-04-18,23.9,23.9,23.7,23.75,132000
2016-04-19,23.8,23.85,23.45,23.6,460000
2016-04-20,23.55,23.55,23.15,23.4,199161
2016-04-21,23.4,23.5,23.3,23.4,255520
2016-04-22,23.4,23.4,23.2,23.35,228000
2016-04-25,23.35,23.35,23.05,23.15,162000
2016-04-26,23.15,23.3,23.1,23.2,213000
2016-04-27,23.15,23.2,23.1,23.1,28000
2016-04-28,23.05,23.4,23.05,23.4,407806
2016-04-29,23.3,23.45,23.2,23.45,124531
2016-05-03,23.55,23.55,23.25,23.25,91183
2016-05-04,23.25,23.4,23.25,23.3,110000
2016-05-05,23.3,23.5,23.0,23.0,523063
2016-05-06,23.0,23.35,22.75,23.0,586000
2016-05-09,23.0,23.15,22.8,22.85,110265
2016-05-10,22.75,22.95,22.6,22.7,188500
2016-05-11,22.7,22.9,22.6,22.65,142000
2016-05-12,22.7,22.85,22.65,22.8,118000
2016-05-13,22.85,22.85,22.35,22.35,400000
2016-05-16,22.35,22.45,22.0,22.05,206000
2016-05-17,22.1,22.15,21.65,21.8,424077
2016-05-18,21.65,21.75,21.6,21.65,248052
2016-05-19,21.7,21.7,21.55,21.65,334000
2016-05-20,21.7,21.7,21.6,21.65,860000
2016-05-23,21.65,21.75,21.6,21.65,610000
2016-05-24,21.65,21.7,21.65,21.7,164000
2016-05-25,21.7,21.75,21.45,21.5,331000
2016-05-26,21.6,21.65,21.5,21.6,185527
2016-05-27,21.6,21.65,21.5,21.65,238000
2016-05-30,21.6,21.65,21.55,21.6,62003
2016-05-31,21.65,21.65,21.5,21.65,247189
2016-06-01,21.7,22.55,21.7,22.05,576700
2016-06-02,22.1,22.6,22.1,22.55,616380
2016-06-03,22.5,22.65,22.45,22.5,328241
2016-06-06,22.6,23.5,22.45,23.4,406000
2016-06-07,23.45,23.5,23.1,23.3,765425
2016-06-08,23.4,23.5,23.1,23.25,440000
2016-06-10,23.25,23.5,23.1,23.4,450351
2016-06-13,23.2,23.3,22.65,22.7,1158000
2016-06-14,22.7,22.8,22.55,22.7,376000
2016-06-15,22.75,22.8,22.7,22.75,182000
2016-06-16,22.75,22.75,22.65,22.7,160159
2016-06-17,22.75,22.85,22.1,22.25,962725
2016-06-20,22.45,22.7,22.4,22.65,234000
2016-06-21,22.6,22.7,22.55,22.65,135020
2016-06-22,22.7,23.45,22.6,23.35,3181923
2016-06-23,23.35,23.6,23.1,23.2,870378
2016-06-24,23.1,23.3,22.7,23.3,1220536
2016-06-27,23.35,24.0,23.25,23.95,658000
2016-06-28,23.65,24.05,23.65,24.0,547000
2016-06-29,24.0,24.2,23.95,24.1,628000
2016-06-30,24.15,24.3,24.15,24.3,393000
2016-07-04,24.3,24.9,24.3,24.75,425000
2016-07-05,24.8,25.0,24.75,24.95,463000
2016-07-06,24.95,25.1,24.65,25.0,550204
2016-07-07,25.0,25.05,24.8,25.0,161000
2016-07-08,24.8,24.95,24.75,24.9,189101
2016-07-11,24.95,25.5,24.9,25.5,392000
2016-07-12,25.5,26.0,25.5,25.75,380000
2016-07-13,25.75,25.95,25.65,25.65,270000
2016-07-14,25.65,25.85,25.65,25.75,352000
2016-07-15,25.75,25.95,25.5,25.95,382000
2016-07-18,25.9,25.95,25.6,25.95,346000
2016-07-19,25.95,25.95,25.65,25.75,174000
2016-07-20,25.7,25.9,25.7,25.85,330000
2016-07-21,25.85,25.85,25.75,25.85,242082
2016-07-22,25.7,25.8,25.65,25.75,324000
2016-07-25,25.85,26.3,25.75,26.1,496000
2016-07-26,26.2,26.6,26.05,26.55,454000
2016-07-27,26.45,26.75,26.45,26.65,384000
2016-07-28,26.65,26.65,26.5,26.5,404298
2016-07-29,26.35,26.35,26.0,26.1,558400
2016-08-01,26.1,26.15,25.9,26.15,117964
2016-08-03,26.0,26.0,25.75,25.95,570165
2016-08-04,25.9,26.2,25.6,26.15,361620
2016-08-05,26.1,26.2,26.0,26.05,784336
2016-08-08,26.05,26.05,25.85,26.0,450996
2016-08-09,26.1,26.3,26.0,26.1,312870
2016-08-10,26.2,26.2,25.8,26.0,1552084
2016-08-11,25.9,26.35,25.9,26.15,878373
2016-08-12,26.2,26.65,26.2,26.5,683863
2016-08-15,26.6,27.6,26.5,27.6,1146753
2016-08-16,27.6,27.85,27.15,27.85,544417
2016-08-17,27.75,27.75,27.6,27.7,571087
2016-08-18,27.8,27.8,27.4,27.55,244780
2016-08-19,27.7,27.7,27.2,27.5,338371
2016-08-22,27.65,27.65,27.2,27.3,290000
2016-08-23,27.4,27.5,27.3,27.5,151094
2016-08-24,27.65,27.7,27.05,27.1,318759
2016-08-25,27.2,27.55,27.0,27.45,228000
2016-08-26,27.45,27.45,27.2,27.3,183416
2016-08-29,27.3,27.3,26.95,27.0,194000
2016-08-30,26.81,26.96,26.61,26.91,566000
2016-08-31,27.0,27.0,26.71,26.81,416000
2016-09-01,27.05,27.05,26.66,26.86,457252
2016-09-02,26.76,27.25,26.76,27.25,1066633
2016-09-05,27.45,27.45,27.1,27.2,453928
2016-09-06,27.25,27.94,27.15,27.7,523434
2016-09-07,27.75,27.79,27.6,27.75,305580
2016-09-08,27.84,27.84,27.7,27.79,480000
2016-09-09,27.84,27.89,27.79,27.79,529003
2016-09-12,27.7,27.79,26.91,27.35,558360
2016-09-13,26.8,27.45,25.85,26.05,352931
2016-09-14,25.9,25.95,25.4,25.45,492000
2016-09-15,25.55,25.95,25.35,25.7,651779
2016-09-19,25.8,25.85,25.35,25.55,170448
2016-09-20,25.3,25.8,25.25,25.45,286000
2016-09-21,25.5,25.5,25.3,25.4,148371
2016-09-22,25.4,25.5,24.8,25.1,568000
2016-09-23,25.05,25.15,24.75,24.85,874180
2016-09-26,25.1,25.2,24.9,25.05,374419
2016-09-27,25.0,25.6,24.8,25.6,496000
2016-09-28,25.6,25.85,25.6,25.85,143716
2016-09-29,25.85,26.0,25.85,26.0,82000
2016-09-30,26.0,26.0,25.6,25.8,226000
2016-10-03,26.1,26.65,26.0,26.6,400504
2016-10-04,26.5,26.8,26.3,26.8,280000
2016-10-05,26.6,27.6,26.6,27.3,505089
2016-10-06,27.3,27.3,27.05,27.2,274000
2016-10-07,27.0,27.05,26.7,26.95,106193
2016-10-11,27.2,27.2,26.95,27.1,180000
2016-10-12,26.9,27.05,26.85,27.0,141257
2016-10-13,26.9,26.9,26.5,26.85,188180
2016-10-14,26.8,26.95,26.6,26.9,276000
2016-10-17,26.8,27.1,26.8,27.1,242831
2016-10-18,27.05,27.1,26.95,27.05,590000
2016-10-19,27.1,27.3,27.05,27.3,381385
2016-10-20,27.2,27.9,27.2,27.65,342371
2016-10-24,27.6,27.75,27.5,27.65,239094
2016-10-25,27.55,27.75,27.55,27.65,66000
2016-10-26,27.45,27.65,27.45,27.6,151353
2016-10-27,27.7,27.7,27.3,27.4,130000
2016-10-28,27.5,27.55,27.3,27.3,457776
2016-10-31,27.3,27.55,27.2,27.4,362000
2016-11-01,27.3,27.55,27.2,27.25,1065665
2016-11-02,27.0,27.25,27.0,27.2,266000
2016-11-03,27.1,27.1,26.85,27.0,80058
2016-11-04,26.85,27.15,26.85,27.0,186000
2016-11-07,26.9,27.2,26.35,27.2,166731
2016-11-08,27.15,27.3,26.9,27.05,104000
2016-11-09,27.05,27.05,26.6,26.6,256000
2016-11-10,27.0,27.1,26.75,27.1,296000
2016-11-11,26.95,26.95,26.7,26.85,564000
2016-11-14,26.9,26.9,26.4,26.7,436000
2016-11-15,26.7,26.7,26.3,26.3,392000
2016-11-16,26.45,26.65,26.25,26.65,220000
2016-11-17,26.7,26.7,26.4,26.45,352000
2016-11-18,26.35,26.5,26.35,26.45,393000
2016-11-21,26.45,26.65,26.45,26.6,301000
2016-11-22,26.65,26.7,26.6,26.65,272000
2016-11-23,26.75,26.8,26.5,26.65,565843
2016-11-24,26.7,26.7,26.65,26.75,72000
2016-11-25,26.8,26.8,26.65,26.8,160389
2016-11-28,26.8,27.9,26.8,27.75,766000
2016-11-29,27.85,27.9,27.55,27.75,431000
2016-11-30,27.75,28.0,27.55,27.9,471423
2016-12-01,28.0,28.0,27.6,27.7,236000
2016-12-02,27.75,27.8,27.6,27.7,204371
2016-12-05,27.8,28.0,27.75,27.9,592053
2016-12-06,27.95,27.95,27.75,27.95,1323383
2016-12-07,28.0,28.0,27.45,27.5,191854
2016-12-08,27.6,27.6,27.25,27.35,151432
2016-12-09,27.25,27.25,26.75,26.85,404000
2016-12-12,26.8,26.8,26.3,26.35,452000
2016-12-13,26.5,26.7,26.4,26.45,274870
2016-12-14,26.25,26.5,26.05,26.2,174700
2016-12-15,26.0,26.05,25.7,25.9,474000
2016-12-16,26.0,26.0,25.8,25.8,651751
2016-12-19,25.9,25.95,25.8,25.9,116633
2016-12-20,25.8,25.95,25.4,25.4,378000
2016-12-21,25.7,25.7,25.3,25.5,513033
2016-12-22,25.35,25.45,24.9,24.9,142000
2016-12-23,24.8,25.1,24.7,24.85,136000
2016-12-28,24.65,25.0,24.65,24.8,287018
2016-12-29,24.85,25.05,24.85,24.9,200000
2016-12-30,25.0,25.55,25.0,25.15,224000
2017-01-03,25.15,25.35,25.15,25.15,97303
2017-01-04,25.1,25.15,24.8,25.0,206000
2017-01-05,24.95,25.6,24.95,25.6,430880
2017-01-06,25.7,25.9,25.1,25.75,308085
2017-01-09,25.65,25.9,25.5,25.9,228665
2017-01-10,25.95,26.25,25.75,26.2,179000
2017-01-11,26.15,26.15,25.9,26.15,173161
2017-01-12,26.2,26.2,25.9,26.0,410000
2017-01-13,25.9,25.9,25.75,25.8,292000
2017-01-16,26.0,26.2,25.9,26.0,56292
2017-01-17,25.95,26.1,25.7,26.0,306537
2017-01-18,26.1,26.1,25.8,25.85,254000
2017-01-19,25.7,25.9,25.7,25.75,92170
2017-01-20,25.7,25.7,25.45,25.45,284542
2017-01-23,25.55,25.9,25.55,25.8,92000
2017-01-24,25.95,25.95,25.6,25.7,118000
2017-01-25,25.7,25.75,25.55,25.6,186000
2017-01-26,25.7,25.75,25.65,25.7,164965
2017-01-27,25.7,25.8,25.6,25.8,184577
2017-02-01,26.25,27.0,26.0,26.55,352000
2017-02-02,26.9,27.2,26.45,27.0,323580
2017-02-03,26.9,27.0,26.5,27.0,177383
2017-02-06,26.95,27.3,26.8,27.05,107136
2017-02-07,27.1,27.1,26.85,26.95,162283
2017-02-08,26.95,27.05,26.8,27.05,153000
2017-02-09,27.0,27.2,27.0,27.05,184000
2017-02-10,27.0,27.2,26.9,27.1,184443
2017-02-13,27.0,27.2,26.8,27.1,252000
2017-02-14,27.2,27.65,27.05,27.35,486157
2017-02-15,27.4,27.4,26.7,26.85,410000
2017-02-16,26.7,27.5,26.7,27.4,704000
2017-02-17,27.5,27.5,26.75,26.8,380000
2017-02-20,26.7,27.0,26.7,26.85,136000
2017-02-21,26.9,26.9,26.7,26.75,112000
2017-02-22,26.65,26.65,26.0,26.3,416000
2017-02-23,26.35,26.35,26.25,26.25,146000
2017-02-24,26.5,26.5,26.15,26.15,210370
2017-02-27,26.35,26.35,26.0,26.2,578000
2017-02-28,26.25,26.25,25.8,25.8,374000
2017-03-01,25.75,26.5,25.75,26.3,266000
2017-03-02,26.4,26.4,25.9,26.0,410000
2017-03-03,25.85,26.0,25.85,26.0,118135
2017-03-06,26.0,26.1,25.9,26.0,234000
2017-03-07,25.9,26.05,25.9,26.0,208293
2017-03-08,25.95,26.2,25.95,26.1,350000
2017-03-09,26.0,26.0,25.5,25.85,699366
2017-03-10,25.7,25.8,25.6,25.8,498000
2017-03-13,25.9,25.9,25.7,25.8,130000
2017-03-14,25.8,25.8,25.6,25.75,140000
2017-03-15,25.6,25.7,25.45,25.5,226000
2017-03-16,25.5,25.75,25.5,25.55,310000
2017-03-17,25.5,25.65,25.4,25.45,660000
2017-03-20,25.55,25.7,25.5,25.5,2940000
2017-03-21,25.6,25.8,25.55,25.65,1456000
2017-03-22,25.5,25.65,25.45,25.5,707000
2017-03-23,25.5,25.75,25.5,25.55,284371
2017-03-24,25.6,25.65,25.55,25.6,414000
2017-03-27,25.55,25.6,25.4,25.5,218000
2017-03-28,25.5,25.5,24.95,25.2,676358
2017-03-29,25.0,25.3,24.95,25.1,760000
2017-03-30,25.0,25.3,24.95,25.3,291172
2017-03-31,25.3,25.45,25.1,25.45,551000
2017-04-03,25.35,25.8,25.35,25.75,255041
2017-04-05,25.7,26.1,25.7,25.85,579024
2017-04-06,25.75,25.9,25.6,25.9,286228
2017-04-07,25.75,25.8,25.55,25.8,120000
2017-04-10,25.8,25.8,25.5,25.75,410249
2017-04-11,25.75,25.9,25.6,25.9,138000
2017-04-12,25.9,25.95,25.65,25.95,188000
2017-04-13,25.8,25.9,25.6,25.85,102000
2017-04-18,25.85,25.85,25.5,25.75,144633
2017-04-19,25.65,25.65,25.4,25.45,140000
2017-04-20,25.4,25.6,25.2,25.6,102000
2017-04-21,25.55,25.9,25.5,25.7,252000
2017-04-24,25.7,26.0,25.65,25.95,298000
2017-04-25,25.95,26.15,25.85,26.1,574000
2017-04-26,26.0,26.0,25.75,25.8,268000
2017-04-27,25.75,25.75,25.65,25.7,178000
2017-04-28,25.65,25.65,25.3,25.3,398000
2017-05-02,25.3,25.55,25.2,25.35,1218077
2017-05-04,25.35,25.35,25.1,25.25,399939
2017-05-05,25.25,25.45,25.15,25.4,158273
2017-05-08,25.5,25.6,25.45,25.6,378000
2017-05-09,25.6,26.2,25.6,26.1,612203
2017-05-10,26.1,26.1,25.9,26.05,220000
2017-05-11,26.1,26.2,26.05,26.1,484500
2017-05-12,26.15,26.2,26.05,26.05,211000
2017-05-15,26.05,26.2,26.0,26.05,379046
2017-05-16,26.05,26.6,26.05,26.3,1326000
2017-05-17,26.3,26.45,25.95,26.2,496000
2017-05-18,26.05,26.2,25.9,26.2,828371
2017-05-19,26.3,26.65,26.15,26.5,350000
2017-05-22,26.5,26.8,26.5,26.7,212000
2017-05-23,26.65,26.75,26.4,26.65,210000
2017-05-24,26.55,26.8,26.5,26.7,70000
2017-05-25,26.3,26.5,26.05,26.2,626000
2017-05-26,26.15,26.15,25.7,25.75,662500
2017-05-29,25.8,26.05,25.8,25.95,191604
2017-05-31,25.9,25.9,25.5,25.55,617953
2017-06-01,25.55,25.8,25.55,25.55,484000
2017-06-02,25.8,25.8,25.25,25.4,850000
2017-06-05,25.55,25.75,25.4,25.75,206084
2017-06-06,25.6,25.75,25.5,25.75,177000
2017-06-07,25.55,25.95,25.5,25.95,438240
2017-06-08,25.8,26.05,25.8,25.85,998000
2017-06-09,25.85,26.15,25.85,26.1,1853282
2017-06-12,26.15,26.15,25.85,26.0,1021000
2017-06-13,26.1,26.15,25.7,25.75,924000
2017-06-14,25.75,25.75,25.55,25.55,492000
2017-06-15,25.55,25.75,25.55,25.65,272000
2017-06-16,25.8,26.1,25.7,26.1,341191
2017-06-19,26.05,26.1,25.9,26.0,182000
2017-06-20,26.0,26.1,25.9,26.0,228000
2017-06-21,26.0,26.1,25.9,26.1,196000
2017-06-22,26.05,26.25,26.0,26.25,354000
2017-06-23,26.15,26.15,25.9,26.1,472753
2017-06-26,26.15,26.25,25.6,25.75,1089500
2017-06-27,25.75,25.75,25.4,25.6,576000
2017-06-28,25.55,25.55,25.4,25.55,244000
2017-06-29,25.5,25.55,25.3,25.45,745435
2017-06-30,25.4,25.4,25.3,25.3,257216
2017-07-03,25.3,25.3,25.1,25.2,390000
2017-07-04,25.2,25.25,25.0,25.05,446000
2017-07-05,25.05,25.15,24.7,24.9,1418086
2017-07-06,24.9,24.95,24.7,24.75,948500
2017-07-07,24.75,24.9,24.7,24.75,616250
2017-07-10,24.85,24.85,24.6,24.65,1086000
2017-07-11,24.65,24.8,24.6,24.8,408000
2017-07-12,24.85,24.9,24.7,24.75,268000
2017-07-13,24.75,24.85,24.7,24.7,436000
2017-07-14,24.75,24.85,24.6,24.85,496000
2017-07-17,24.75,24.85,24.55,24.6,771513
2017-07-18,24.6,24.7,24.5,24.6,513000
2017-07-19,24.75,24.75,24.6,24.65,224000
2017-07-20,24.65,24.7,24.5,24.5,444000
2017-07-21,24.7,24.85,24.65,24.7,598000
2017-07-24,24.7,24.95,24.65,24.9,786000
2017-07-25,24.75,24.85,24.7,24.8,146000
2017-07-26,24.9,24.9,24.8,24.8,708000
2017-07-27,24.9,25.1,24.9,25.05,622000
2017-07-28,25.0,25.1,24.95,25.1,371573
2017-07-31,25.0,25.2,25.0,25.15,523292
2017-08-01,25.0,25.15,25.0,25.1,286389
2017-08-02,25.1,25.25,25.0,25.25,509115
2017-08-03,25.2,25.3,25.1,25.2,322154
2017-08-04,25.1,25.3,25.05,25.3,239373
2017-08-07,25.3,25.3,25.1,25.15,200190
2017-08-08,25.15,25.2,25.1,25.15,273661
2017-08-09,25.05,25.3,25.05,25.3,395245
2017-08-10,25.3,25.3,25.05,25.1,318000
2017-08-11,25.1,25.1,24.95,25.1,1571200
2017-08-14,25.05,25.2,24.9,25.0,1484838
2017-08-15,25.15,25.3,25.1,25.2,68331
2017-08-16,25.2,25.2,25.05,25.15,128666
2017-08-17,25.2,25.2,25.05,25.15,92644
2017-08-18,25.15,25.15,25.0,25.05,143729
2017-08-21,25.05,25.05,24.95,24.95,74000
2017-08-22,25.05,25.05,24.9,24.95,300542
2017-08-24,24.95,25.1,24.9,25.05,268595
2017-08-25,25.15,25.15,24.9,25.1,278000
2017-08-28,25.0,25.0,24.9,24.95,131917
2017-08-29,25.0,25.0,24.9,25.0,160000
2017-08-30,25.0,25.1,24.9,25.05,377391
2017-08-31,25.0,25.1,24.9,24.9,433467
2017-09-01,25.0,25.1,25.0,25.1,163258
2017-09-04,25.1,25.35,25.05,25.3,298000
2017-09-05,25.3,25.4,25.2,25.4,195821
2017-09-06,25.45,25.5,25.3,25.5,201000
2017-09-07,25.55,25.55,25.25,25.25,288245
2017-09-08,25.3,25.4,25.15,25.4,246000
2017-09-11,25.4,25.5,25.4,25.5,154228
2017-09-12,25.5,25.5,25.0,25.0,1154000
2017-09-13,25.1,25.2,25.1,25.15,623109
2017-09-14,24.65,24.85,24.6,24.7,599240
2017-09-15,24.7,24.7,24.35,24.35,687928
2017-09-18,24.35,24.55,24.35,24.55,293095
2017-09-19,24.5,24.55,24.35,24.45,134053
2017-09-20,24.4,24.55,24.35,24.5,180000
2017-09-21,24.45,24.45,24.25,24.25,278000
2017-09-22,24.25,24.5,24.15,24.45,192400
2017-09-25,24.5,24.5,24.15,24.3,174000
2017-09-26,24.2,24.4,24.2,24.3,200000
2017-09-27,24.6,24.6,24.2,24.2,284000
2017-09-28,24.3,24.35,24.2,24.3,144862
2017-09-29,24.2,24.3,24.2,24.3,230570
2017-10-03,24.5,24.5,24.25,24.3,537894
2017-10-04,24.5,24.5,24.25,24.35,611296
2017-10-06,24.5,24.5,24.15,24.3,183288
2017-10-09,24.45,24.45,24.1,24.4,138000
2017-10-10,24.3,24.3,24.15,24.2,198257
2017-10-11,24.3,24.3,24.1,24.2,144000
2017-10-12,24.3,24.3,24.1,24.2,236004
2017-10-13,24.2,24.2,24.0,24.0,552076
2017-10-16,24.05,24.05,23.8,24.0,569000
2017-10-17,24.0,24.1,24.0,24.0,176000
2017-10-18,24.1,24.3,24.0,24.3,276000
2017-10-19,24.35,24.35,24.1,24.15,282396
2017-10-20,24.0,24.25,23.9,24.25,150939
2017-10-23,24.3,24.3,24.0,24.15,76000
2017-10-24,24.15,24.2,23.95,23.95,150447
2017-10-25,23.9,24.0,23.85,24.0,304371
2017-10-26,24.0,24.0,23.9,23.9,279801
2017-10-27,23.9,23.95,23.8,23.8,529924
2017-10-30,23.8,23.85,23.75,23.85,176000
2017-10-31,23.9,24.0,23.75,24.0,191000
2017-11-01,24.0,24.0,23.75,23.75,310526
2017-11-02,23.75,23.85,23.75,23.8,840000
2017-11-03,23.9,23.9,23.8,23.85,90090
2017-11-06,23.8,23.9,23.7,23.9,155710
2017-11-07,24.05,24.05,23.8,23.95,4269872
2017-11-08,24.05,24.1,23.8,24.0,869462
2017-11-09,23.56,23.56,23.36,23.56,91000
2017-11-10,23.66,23.66,23.36,23.36,139142
2017-11-13,23.31,23.56,23.22,23.27,254000
2017-11-14,23.27,23.31,23.17,23.27,152456
2017-11-15,23.22,23.27,23.02,23.12,384000
2017-11-16,23.12,23.12,22.77,22.87,506000
2017-11-17,22.87,23.27,22.73,22.77,660000
2017-11-20,22.87,22.87,22.28,22.33,647894
2017-11-21,22.33,22.33,21.74,21.79,1075868
2017-11-22,21.69,21.89,21.6,21.69,691400
2017-11-23,21.74,22.38,21.74,22.33,587580
2017-11-24,22.33,22.63,22.28,22.48,337106
2017-11-27,22.38,22.58,21.99,22.04,573374
2017-11-28,22.04,22.58,21.89,22.19,344262
2017-11-29,22.19,22.38,21.79,21.94,513278
2017-11-30,21.99,21.99,21.69,21.69,652000
2017-12-01,21.79,22.09,21.74,21.74,498055
2017-12-04,21.84,21.94,21.35,21.35,1084000
2017-12-05,21.4,21.6,21.25,21.25,540088
2017-12-06,21.3,21.4,20.61,20.71,1144926
2017-12-07,20.61,20.96,20.27,20.27,694272
2017-12-08,20.42,20.76,20.37,20.66,488000
2017-12-11,20.91,20.96,20.61,20.71,232000
2017-12-12,20.71,20.71,20.42,20.47,767167
2017-12-13,20.42,20.47,20.17,20.32,1265104
2017-12-14,20.61,20.61,20.32,20.47,446000
2017-12-15,20.52,20.57,20.42,20.52,547916
2017-12-18,20.37,20.52,20.27,20.47,282000
2017-12-19,20.32,20.52,20.32,20.32,237000
2017-12-20,20.22,20.47,20.22,20.32,1136114
2017-12-21,20.32,20.57,20.32,20.57,626549
2017-12-22,20.57,21.2,20.52,21.2,440000
2017-12-27,21.2,21.2,20.86,20.96,311638
2017-12-28,21.11,21.2,20.81,20.86,276000
2017-12-29,20.91,21.2,20.91,21.06,196000
2018-01-02,21.06,21.11,20.81,20.96,230000
2018-01-03,21.01,21.01,20.42,20.42,1330000
2018-01-04,20.47,20.61,20.47,20.61,294087
2018-01-05,20.76,20.96,20.76,20.91,423565
2018-01-08,20.91,21.11,20.86,21.06,166620
2018-01-09,21.11,21.11,20.71,20.76,326000
2018-01-10,20.76,20.76,20.37,20.37,798000
2018-01-11,20.52,20.52,20.42,20.42,376000
2018-01-12,20.42,20.52,20.32,20.42,416342
2018-01-15,20.42,20.52,20.37,20.42,428000
2018-01-16,20.42,20.52,20.32,20.42,229456
2018-01-17,20.47,20.57,20.32,20.37,526000
2018-01-18,20.42,20.52,20.12,20.12,732836
2018-01-19,20.12,20.42,20.12,20.12,771000
2018-01-22,20.22,20.27,20.12,20.22,202000
2018-01-23,20.17,20.37,20.12,20.32,268000
2018-01-24,20.37,20.37,20.22,20.32,484000
2018-01-25,20.32,20.42,20.22,20.42,490000
2018-01-26,20.27,20.37,20.22,20.27,891000
2018-01-29,20.37,20.37,20.27,20.32,433000
2018-01-30,20.22,20.42,20.17,20.32,362000
2018-01-31,20.22,20.37,20.17,20.32,422000
2018-02-01,20.22,20.37,20.22,20.32,438000
2018-02-02,20.22,20.37,20.22,20.32,702000
2018-02-05,20.22,20.27,20.12,20.22,459047
2018-02-06,20.12,20.12,19.52,19.68,1835094
2018-02-07,19.73,20.42,19.73,20.42,2035092
2018-02-08,20.37,20.42,20.22,20.32,1836411
2018-02-09,20.12,20.12,19.61,19.61,5108045
2018-02-12,19.73,19.73,19.5,19.5,972547
2018-02-13,19.59,19.63,19.54,19.61,8658000
2018-02-14,19.61,19.61,19.5,19.57,1116000
2018-02-15,19.63,19.68,19.59,19.63,162900
2018-02-20,19.63,19.63,19.52,19.61,1102000
2018-02-21,19.54,19.63,19.54,19.63,482000
2018-02-22,19.61,19.63,19.52,19.54,652000
2018-02-23,19.63,19.63,19.59,19.63,398000
2018-02-26,19.59,19.63,19.57,19.63,736000
2018-02-27,19.63,19.63,19.52,19.59,478000
2018-02-28,19.52,19.55,19.48,19.5,375828
2018-03-01,19.48,19.55,19.4,19.5,334000
2018-03-02,19.44,19.57,19.42,19.42,1287080
2018-03-05,19.4,19.54,19.4,19.44,328049
2018-03-06,19.59,19.61,19.4,19.48,430000
2018-03-07,19.54,19.59,19.42,19.5,250094
2018-03-08,19.59,19.59,19.44,19.54,273000
2018-03-09,19.55,19.55,19.46,19.55,1188000
2018-03-12,19.61,19.61,19.48,19.52,1207094
2018-03-13,19.52,19.52,19.44,19.46,430045
2018-03-14,19.46,19.46,19.34,19.44,636400
2018-03-15,19.42,19.48,19.36,19.44,684000
2018-03-16,19.44,19.48,19.38,19.42,722489
2018-03-19,19.42,19.42,19.3,19.34,955000
2018-03-20,19.42,19.42,19.32,19.42,324000
2018-03-21,19.42,19.48,19.36,19.44,1231838
2018-03-22,19.44,19.52,19.42,19.48,303000
2018-03-23,19.42,19.42,19.2,19.24,546000
2018-03-26,19.24,19.24,19.14,19.2,226900
2018-03-27,19.22,19.26,19.04,19.14,698471
2018-03-28,19.14,19.24,19.12,19.14,366000
2018-03-29,19.1,19.26,19.1,19.24,354000
2018-04-03,19.2,19.24,18.83,19.16,1030047
2018-04-04,19.24,19.57,19.18,19.5,898000
2018-04-06,19.54,19.63,19.26,19.42,540401
2018-04-09,19.42,19.42,19.1,19.34,620418
2018-04-10,19.34,19.36,19.24,19.34,252048
2018-04-11,19.16,19.28,19.16,19.18,246920
2018-04-12,19.24,19.24,19.08,19.1,616429
2018-04-13,19.2,19.2,18.95,18.99,222000
2018-04-16,19.04,19.04,18.75,18.79,390455
2018-04-17,18.79,18.85,18.75,18.75,164000
2018-04-18,18.93,18.93,18.63,18.67,718700
2018-04-19,18.69,18.91,18.67,18.85,770000
2018-04-20,18.91,19.18,18.91,19.16,770000
2018-04-23,19.22,19.22,18.77,18.79,254000
2018-04-24,18.89,18.89,18.65,18.69,720000
2018-04-25,18.63,18.67,18.51,18.55,566000
2018-04-26,18.65,18.77,18.55,18.67,446000
2018-04-27,18.69,18.79,18.65,18.77,214900
2018-04-30,18.91,18.95,18.75,18.95,388170
2018-05-02,18.87,18.89,18.75,18.75,764000
2018-05-03,18.65,18.73,18.57,18.57,360000
2018-05-04,18.53,18.53,18.08,18.1,1464052
2018-05-07,18.28,18.28,17.55,17.55,2540000
2018-05-08,17.53,17.77,17.49,17.71,1062053
2018-05-09,17.81,17.96,17.79,17.96,364000
2018-05-10,18.06,18.65,18.06,18.63,810000
2018-05-11,18.75,19.2,18.75,19.2,998500
2018-05-14,19.34,19.93,19.3,19.83,1267825
2018-05-15,19.83,19.83,19.3,19.59,1124003
2018-05-16,19.3,19.55,19.24,19.24,294000
2018-05-17,19.24,19.34,18.87,18.95,288997
2018-05-18,18.87,19.28,18.87,19.28,358002
2018-05-21,19.34,19.42,18.95,18.95,372000
2018-05-23,18.89,19.1,18.89,19.06,170000
2018-05-24,19.24,19.44,19.04,19.44,268000
2018-05-25,19.32,19.38,19.26,19.38,304032
2018-05-28,19.44,19.52,19.44,19.5,176000
2018-05-29,19.52,19.55,19.46,19.5,384000
2018-05-30,19.44,19.5,19.2,19.5,398418
2018-05-31,19.52,19.83,19.44,19.83,602000
2018-06-01,19.78,20.37,19.78,20.27,705095
2018-06-04,20.37,20.37,20.17,20.22,420000
2018-06-05,20.22,20.61,20.22,20.42,1288000
2018-06-06,20.61,20.61,20.17,20.17,238000
2018-06-07,20.22,20.22,19.73,19.83,412071
2018-06-08,19.68,19.93,19.59,19.63,324000
2018-06-11,19.88,19.88,19.68,19.78,128004
2018-06-12,19.83,20.07,19.83,20.03,377094
2018-06-13,19.93,19.98,19.73,19.83,292000
2018-06-14,19.73,19.88,19.55,19.57,332000
2018-06-15,19.5,19.59,19.34,19.34,296000
2018-06-19,19.3,19.34,19.08,19.08,764250
2018-06-20,19.12,19.5,19.12,19.24,298112
2018-06-21,19.06,19.2,18.67,18.67,600000
2018-06-22,18.65,19.16,18.51,19.16,1434175
2018-06-25,19.04,19.59,19.04,19.54,689408
2018-06-26,19.54,19.54,19.16,19.24,574000
2018-06-27,19.2,19.38,18.87,18.87,552841
2018-06-28,18.67,18.95,18.59,18.61,566471
2018-06-29,18.65,18.77,18.61,18.65,930092
2018-07-03,18.75,18.75,18.4,18.65,520000
2018-07-04,18.59,18.77,18.53,18.53,386450
2018-07-05,18.47,18.57,18.14,18.14,1056276
2018-07-06,18.16,18.16,17.79,17.89,1124006
2018-07-09,18.26,18.46,17.89,18.42,624000
2018-07-10,18.63,18.63,18.26,18.38,1830000
2018-07-11,18.47,18.51,18.2,18.44,1122000
2018-07-12,18.53,19.02,18.51,18.97,2284001
2018-07-13,18.97,19.4,18.87,18.93,543001
2018-07-16,18.73,18.85,18.71,18.79,361928
2018-07-17,18.79,18.95,18.71,18.93,1954000
2018-07-18,19.06,19.3,18.97,19.26,378000
2018-07-19,19.38,19.38,19.08,19.2,296200
2018-07-20,19.14,19.14,18.87,18.99,296000
2018-07-23,19.14,19.24,18.99,19.24,307800
2018-07-24,19.3,19.83,19.3,19.68,1032000
2018-07-25,19.52,19.59,19.42,19.5,354000
2018-07-26,19.73,19.73,19.38,19.52,406000
2018-07-27,19.34,19.5,19.34,19.46,204000
2018-07-30,19.36,19.5,19.36,19.5,534000
2018-07-31,19.4,19.48,19.38,19.42,936100
2018-08-01,19.52,19.55,19.44,19.44,152000
2018-08-02,19.38,19.68,19.38,19.44,593005
2018-08-03,19.38,19.5,19.38,19.42,944034
2018-08-06,19.48,19.48,19.34,19.38,469722
2018-08-07,19.36,19.38,19.16,19.24,653620
2018-08-08,19.42,19.42,19.1,19.32,217689
2018-08-09,19.3,19.34,19.24,19.28,421620
2018-08-10,19.28,19.28,19.16,19.22,116624
2018-08-13,19.14,19.14,18.91,18.95,286821
2018-08-14,18.95,18.95,18.75,18.85,334303
2018-08-15,18.87,18.87,18.67,18.79,184617
2018-08-16,18.75,18.79,18.55,18.59,435862
2018-08-17,18.61,18.71,18.55,18.61,382000
2018-08-20,18.61,18.61,18.47,18.55,291099
2018-08-21,18.55,18.75,18.55,18.65,822000
2018-08-22,18.69,18.75,18.55,18.57,500000
2018-08-23,18.57,18.65,18.51,18.55,400000
2018-08-24,18.59,18.85,18.55,18.85,311000
2018-08-27,18.79,19.14,18.79,18.99,320000
2018-08-28,18.99,18.99,18.83,18.85,180000
2018-08-29,18.97,19.04,18.81,18.97,984000
2018-08-30,18.89,18.95,18.89,18.89,493135
2018-08-31,18.99,18.99,18.77,18.77,575620
2018-09-03,18.79,18.99,18.79,18.99,483170
2018-09-04,18.95,18.99,18.93,18.99,475383
2018-09-05,18.99,18.99,18.89,18.93,580050
2018-09-06,18.95,18.95,18.67,18.77,474000
2018-09-07,18.77,19.0,18.61,18.95,659331
2018-09-10,19.0,19.0,18.69,18.73,1045702
2018-09-11,18.4,18.4,17.7,17.9,602701
2018-09-12,18.36,18.36,17.8,17.86,440000
2018-09-13,18.18,18.18,17.88,17.98,238000
2018-09-14,17.94,18.14,17.9,17.98,316000
2018-09-17,17.84,18.12,17.82,18.04,246000
2018-09-18,17.92,18.1,17.88,17.92,472000
2018-09-19,18.04,18.14,17.88,17.88,961500
2018-09-20,17.9,17.92,17.84,17.84,161756
2018-09-21,17.88,17.98,17.86,17.96,369206
2018-09-24,18.08,18.08,17.92,18.02,556415
2018-09-26,18.14,18.18,17.98,18.08,1268970
2018-09-27,18.12,18.14,18.08,18.12,1728000
2018-09-28,18.16,18.2,17.9,17.9,1563196
2018-10-02,17.84,17.96,17.8,17.96,644165
2018-10-03,17.84,18.0,17.84,17.92,392000
2018-10-04,17.9,17.9,17.5,17.6,606109
2018-10-05,17.6,17.62,17.32,17.56,948000
2018-10-08,17.5,17.54,17.48,17.5,352515
2018-10-09,17.5,17.64,17.42,17.52,358000
2018-10-10,17.5,17.5,17.22,17.38,246054
2018-10-11,17.2,17.22,17.08,17.12,1067779
2018-10-12,17.02,17.1,16.9,17.0,1503000
2018-10-15,17.0,17.0,16.72,16.78,648001
2018-10-16,16.76,16.78,16.7,16.74,499123
2018-10-18,16.74,17.0,16.74,17.0,634000
2018-10-19,16.9,17.0,16.8,16.94,508876
2018-10-22,16.92,17.12,16.92,17.06,511454
2018-10-23,17.06,17.14,17.04,17.1,1008000
2018-10-24,17.08,17.1,16.9,17.0,424000
2018-10-25,16.9,16.98,16.6,16.72,492000
2018-10-26,16.68,16.92,16.68,16.9,448000
2018-10-29,16.9,17.0,16.72,16.9,312010
2018-10-30,16.7,16.8,16.7,16.78,150000
2018-10-31,17.0,17.0,16.84,17.0,386001
2018-11-01,17.08,17.08,16.94,17.0,194001
2018-11-02,17.1,17.2,17.0,17.18,360000
2018-11-05,17.18,17.18,17.08,17.1,182057
2018-11-06,17.02,17.16,17.0,17.16,154000
2018-11-07,17.22,17.48,17.12,17.48,414000
2018-11-08,17.5,17.5,17.06,17.08,508000
2018-11-09,17.12,17.18,16.82,16.88,504000
2018-11-12,16.94,17.2,16.88,17.1,310000
2018-11-13,17.12,17.12,16.86,17.0,200000
2018-11-14,17.3,17.3,16.9,16.98,128000
2018-11-15,17.0,17.0,16.92,17.0,226000
2018-11-16,17.08,17.22,16.96,17.1,585833
2018-11-19,17.04,17.24,17.0,17.24,302000
2018-11-20,17.24,17.24,17.14,17.18,1370500
2018-11-21,17.18,17.2,16.92,17.12,457783
2018-11-22,17.2,17.26,17.06,17.14,558000
2018-11-23,17.2,17.26,17.16,17.22,346000
2018-11-26,17.3,18.7,17.3,18.26,2724794
2018-11-27,18.5,18.66,18.38,18.46,1138280
2018-11-28,18.54,19.16,18.54,19.0,1714964
2018-11-29,19.06,19.3,18.88,19.08,1531053
2018-11-30,19.34,19.34,19.1,19.28,1518000
2018-12-03,19.54,19.7,19.44,19.48,1264921
2018-12-04,19.48,19.58,19.08,19.14,615047
2018-12-05,18.98,19.1,18.9,19.02,410051
2018-12-06,18.96,19.04,18.58,18.86,1031372
2018-12-07,18.8,19.28,18.68,18.98,696522
2018-12-10,18.98,19.16,18.9,19.1,1049685
2018-12-11,19.1,19.2,19.04,19.1,738000
2018-12-12,19.0,19.08,18.96,19.06,2711143
2018-12-13,19.06,19.3,18.98,19.3,1326000
2018-12-14,19.36,19.36,18.94,18.96,896000
2018-12-17,19.18,19.2,19.0,19.12,836000
2018-12-18,19.12,19.2,19.02,19.1,1308000
2018-12-19,19.16,19.16,19.06,19.14,988848
2018-12-20,19.14,19.14,18.86,19.04,529620
2018-12-21,19.0,19.16,18.88,18.96,418000
2018-12-24,18.74,19.0,18.7,18.98,158000
2018-12-27,18.92,19.04,18.82,19.0,518000
2018-12-28,18.96,19.0,18.9,18.92,337297
2018-12-31,18.92,19.0,18.66,18.98,694000
2019-01-02,18.98,19.02,18.9,19.0,380000
2019-01-03,19.04,19.14,18.92,19.08,884000
2019-01-04,19.1,19.26,19.04,19.2,644051
2019-01-07,19.36,19.86,19.3,19.74,2459463
2019-01-08,19.9,19.92,19.7,19.88,1756876
2019-01-09,19.98,20.2,19.8,20.2,1428953
2019-01-10,20.35,20.45,20.05,20.3,1026000
2019-01-11,20.3,20.3,19.86,19.98,1186000
2019-01-14,20.05,20.3,19.88,20.2,1027000
2019-01-15,20.35,20.35,19.9,20.15,1406515
2019-01-16,20.2,20.3,20.05,20.3,391921
2019-01-17,20.15,20.4,20.1,20.25,759431
2019-01-18,20.3,20.3,20.0,20.0,2103810
2019-01-21,20.0,20.2,19.92,20.2,328000
2019-01-22,20.2,20.2,19.98,20.15,506000
2019-01-23,20.2,20.3,20.1,20.3,600250
2019-01-24,20.6,20.9,20.35,20.85,840000
2019-01-25,20.9,21.0,20.75,20.95,413638
2019-01-28,21.2,21.2,20.95,21.15,677803
2019-01-29,21.0,21.1,20.95,21.05,520000
2019-01-30,21.1,21.1,20.75,20.85,546000
2019-01-31,21.05,21.2,20.95,21.15,1122698
2019-02-01,21.2,21.2,21.0,21.2,830000
2019-02-04,21.25,21.25,21.0,21.15,189000
2019-02-08,21.1,21.3,21.1,21.25,516146
2019-02-11,21.4,21.4,21.05,21.15,390000
2019-02-12,21.35,21.35,21.1,21.25,456092
2019-02-13,21.3,21.3,20.9,21.05,446000
2019-02-14,21.1,21.1,20.6,20.85,894000
2019-02-15,20.9,20.9,20.55,20.55,391600
2019-02-18,20.85,21.2,20.6,21.05,622000
2019-02-19,20.85,21.1,20.75,21.0,484000
2019-02-20,21.2,21.9,21.15,21.65,1700000
2019-02-21,21.8,21.8,21.35,21.35,432000
2019-02-22,21.55,21.55,21.05,21.25,701460
2019-02-25,21.35,21.35,20.8,20.8,546000
2019-02-26,21.15,21.15,20.75,20.9,507464
2019-02-27,20.95,20.95,20.6,20.7,338000
2019-02-28,20.65,20.85,20.6,20.8,512000
2019-03-01,20.85,20.85,20.3,20.5,268000
2019-03-04,20.4,20.5,20.15,20.25,769487
2019-03-05,20.2,20.5,20.15,20.45,429062
2019-03-06,20.25,20.6,20.25,20.5,424000
2019-03-07,20.4,20.8,20.4,20.7,640095
2019-03-08,20.75,20.8,20.4,20.7,502095
2019-03-11,20.55,20.8,20.35,20.6,198000
2019-03-12,20.65,20.85,20.35,20.5,558000
2019-03-13,20.4,20.6,20.4,20.4,702000
2019-03-14,20.3,20.55,20.25,20.35,370000
2019-03-15,20.2,20.25,20.05,20.05,2495005
2019-03-18,20.05,20.2,19.98,20.0,768000
2019-03-19,20.0,20.1,19.9,20.05,312515
2019-03-20,19.9,20.2,19.9,20.05,532000
2019-03-21,20.05,20.15,20.0,20.05,1634000
2019-03-22,20.05,20.2,19.8,19.8,633492
2019-03-25,19.8,20.25,19.8,20.2,620000
2019-03-26,20.0,20.25,19.9,19.9,498000
2019-03-27,19.9,20.0,19.9,19.96,370000
2019-03-28,20.0,20.05,19.8,19.96,406300
2019-03-29,19.96,20.1,19.9,19.98,570000
2019-04-01,19.92,19.96,19.76,19.76,644000
2019-04-02,19.76,19.96,19.66,19.68,314216
2019-04-03,19.64,19.82,19.64,19.66,424858
2019-04-04,19.58,19.8,19.58,19.6,236400
2019-04-08,19.58,19.64,19.46,19.46,542099
2019-04-09,19.38,19.66,19.34,19.48,574585
2019-04-10,19.4,19.52,19.36,19.42,832515
2019-04-11,19.42,19.58,19.4,19.5,538000
2019-04-12,19.5,19.52,19.3,19.48,210000
2019-04-15,19.4,19.62,19.32,19.32,370000
2019-04-16,19.28,19.44,19.28,19.38,142448
2019-04-17,19.28,19.34,19.04,19.08,556000
2019-04-18,19.06,19.4,19.06,19.34,290748
2019-04-23,19.2,19.38,19.14,19.26,253492
2019-04-24,19.24,19.34,19.2,19.24,444000
2019-04-25,19.18,19.5,19.18,19.26,252000
2019-04-26,19.2,19.46,19.2,19.4,384120
2019-04-29,19.26,19.5,19.26,19.4,506000
2019-04-30,19.3,19.44,19.3,19.32,204147
2019-05-02,19.26,19.48,19.26,19.34,287401
2019-05-03,19.3,19.54,19.3,19.48,242328
2019-05-06,19.5,19.72,19.3,19.66,1117454
2019-05-07,19.7,20.4,19.7,20.2,1540000
2019-05-08,20.0,20.3,19.8,19.88,534876
2019-05-09,19.88,19.88,19.18,19.3,566000
2019-05-10,19.42,19.52,19.34,19.46,315966
2019-05-14,19.2,19.56,19.14,19.4,391746
2019-05-15,19.46,19.58,19.4,19.52,736746
2019-05-16,19.34,19.8,19.32,19.62,460000
2019-05-17,19.6,19.82,19.5,19.6,634840
2019-05-20,19.5,19.7,19.5,19.6,212340
2019-05-21,19.6,19.74,19.44,19.48,958000
2019-05-22,19.48,19.6,19.42,19.6,272000
2019-05-23,19.6,19.6,19.48,19.54,404000
2019-05-24,19.44,19.58,19.36,19.46,275286
2019-05-27,19.3,19.5,19.22,19.36,144000
2019-05-28,19.38,19.4,19.0,19.0,960005
2019-05-29,19.14,19.28,18.88,19.0,912000
2019-05-30,18.96,19.26,18.96,19.24,282100
2019-05-31,19.14,19.26,19.14,19.26,149500
2019-06-03,19.26,19.46,19.16,19.46,266000
2019-06-04,19.48,19.88,19.3,19.8,810000
2019-06-05,19.68,19.9,19.64,19.9,274479
2019-06-06,19.88,20.1,19.88,20.05,353000
2019-06-10,20.1,20.2,20.1,20.1,442044
2019-06-11,20.2,20.25,20.0,20.1,522000
2019-06-12,20.0,20.35,19.9,20.3,840400
2019-06-13,20.3,20.75,20.2,20.75,597000
2019-06-14,20.55,21.75,20.55,21.05,2054109
2019-06-17,21.2,22.0,21.2,21.3,1761109
2019-06-18,21.75,22.4,21.5,22.3,2801010
2019-06-19,22.4,22.5,21.6,22.2,2553680
2019-06-20,22.35,22.75,22.35,22.75,1792000
2019-06-21,22.85,23.7,22.6,23.7,2718856
2019-06-24,23.5,23.8,23.3,23.65,1220000
2019-06-25,23.7,23.8,23.4,23.5,1154175
2019-06-26,23.4,23.6,23.3,23.55,1116000
2019-06-27,23.5,23.6,23.1,23.35,1041426
2019-06-28,23.4,23.5,23.05,23.25,1332166
2019-07-02,23.25,23.8,23.25,23.55,1246500
2019-07-03,23.55,23.8,23.35,23.5,637000
2019-07-04,23.5,23.6,23.4,23.5,755426
2019-07-05,23.4,23.6,23.3,23.4,651745
2019-07-08,23.4,23.5,23.2,23.4,581219
2019-07-09,23.4,23.65,23.35,23.65,1175239
2019-07-10,23.6,24.3,23.55,24.25,1763617
2019-07-11,24.45,25.3,24.45,25.15,1962198
2019-07-12,25.4,25.4,25.0,25.15,1326010
2019-07-15,25.0,25.4,24.7,25.35,1094183
2019-07-16,25.4,26.3,25.35,26.3,2237852
2019-07-17,26.5,26.5,25.85,26.15,1319862
2019-07-18,25.85,26.1,24.6,26.0,1237111
2019-07-19,25.95,26.3,25.85,26.0,832004
2019-07-22,25.7,26.0,25.25,25.25,1239200
2019-07-23,25.45,26.0,25.25,25.95,1013400
2019-07-24,26.0,26.3,25.8,26.25,1401500
2019-07-25,26.2,26.5,26.1,26.35,949300
2019-07-26,26.5,26.9,26.4,26.75,1323000
2019-07-29,26.6,26.75,25.35,25.8,1237238
2019-07-30,25.85,26.0,25.5,25.9,932377
2019-07-31,25.55,26.2,25.5,26.1,610260
2019-08-01,25.9,26.3,25.3,25.55,855000
2019-08-02,25.3,25.65,25.0,25.45,1173318
2019-08-05,25.0,25.1,24.1,24.15,1094431
2019-08-06,23.9,24.75,23.5,24.55,1391069
2019-08-07,24.5,25.3,24.5,25.3,1257058
2019-08-08,25.45,25.85,25.35,25.8,1205776
2019-08-09,25.9,26.15,25.4,25.55,886881
2019-08-12,25.35,25.35,24.6,24.85,592430
2019-08-13,24.5,24.85,24.35,24.75,1056000
2019-08-14,24.8,24.85,24.15,24.2,818623
2019-08-15,24.15,24.4,23.8,24.05,1388480
2019-08-16,24.2,24.75,23.55,24.75,964000
2019-08-19,24.7,26.0,24.7,25.95,2037142
2019-08-20,26.0,26.25,25.75,26.25,1475474
2019-08-21,26.25,26.35,25.85,26.2,1588497
2019-08-22,26.2,26.2,25.65,25.9,1012340
2019-08-23,25.95,25.95,25.35,25.45,996340
2019-08-26,24.95,25.25,24.35,25.1,907472
2019-08-27,25.1,25.5,24.85,25.05,698340
2019-08-28,25.2,25.2,24.6,24.75,1008866
2019-08-29,24.95,24.95,24.4,24.65,1842075
2019-08-30,24.9,25.15,24.65,25.0,1888000
2019-09-02,25.15,25.15,24.65,24.9,1450000
2019-09-03,24.7,24.9,24.5,24.7,824000
2019-09-04,24.75,25.95,24.6,25.85,2291931
2019-09-05,25.2,25.95,25.1,25.45,925168
2019-09-06,25.4,25.7,25.1,25.2,451038
2019-09-09,25.15,25.15,24.45,24.5,282000
2019-09-10,24.7,24.75,24.25,24.55,709936
2019-09-11,24.3,24.5,24.1,24.45,1139000
2019-09-12,24.35,24.5,24.25,24.5,276000
2019-09-13,24.4,24.85,24.35,24.8,739282
2019-09-16,24.5,24.5,24.05,24.05,368000
2019-09-17,23.85,23.85,22.6,22.65,1866821
2019-09-18,22.5,22.8,22.3,22.45,994000
2019-09-19,22.3,22.55,21.8,21.8,817000
2019-09-20,21.8,22.1,21.65,21.95,1656255
2019-09-23,21.85,21.9,21.6,21.6,992045
2019-09-24,21.6,22.15,21.6,21.95,1338414
2019-09-25,21.85,21.85,21.15,21.25,804000
2019-09-26,21.2,21.7,21.2,21.4,733784
2019-09-27,21.4,21.4,21.1,21.15,530000
2019-09-30,21.0,21.25,20.9,21.0,594000
2019-10-02,20.8,21.0,20.65,20.75,699000
2019-10-03,20.7,21.9,20.6,21.8,1157092
2019-10-04,21.6,21.8,21.4,21.6,1113465
2019-10-08,21.4,21.75,21.4,21.6,849100
2019-10-09,21.5,21.7,21.4,21.6,586138
2019-10-10,21.5,21.6,21.1,21.2,1150712
2019-10-11,21.2,21.8,21.1,21.8,1194000
2019-10-14,21.95,22.0,21.5,21.7,765118
2019-10-15,21.6,21.65,21.5,21.55,622000
2019-10-16,21.65,21.85,21.55,21.75,593523
2019-10-17,21.75,21.9,21.5,21.6,628000
2019-10-18,21.65,21.7,21.45,21.55,512000
2019-10-21,21.5,21.6,21.45,21.5,433876
2019-10-22,21.6,21.65,21.45,21.5,644639
2019-10-23,21.7,21.7,21.3,21.5,502729
2019-10-24,21.55,21.7,21.5,21.6,333420
2019-10-25,21.0,21.0,19.6,20.55,2141355
2019-10-28,20.6,21.1,20.45,21.05,1282019
2019-10-29,21.3,21.75,21.25,21.65,1347420
2019-10-30,21.5,21.55,21.05,21.45,1022000
2019-10-31,21.5,21.6,21.35,21.4,1350000
2019-11-01,21.45,21.55,20.85,20.95,516000
2019-11-04,21.0,21.6,21.0,21.6,1388506
2019-11-05,21.5,21.95,21.5,21.95,604045
2019-11-06,22.0,22.0,21.6,21.7,1756528
2019-11-07,21.85,21.9,21.5,21.65,552694
2019-11-08,21.6,21.6,21.3,21.4,548000
2019-11-11,21.45,21.45,20.3,20.35,836000
2019-11-12,20.4,20.4,20.0,20.05,1004500
2019-11-13,20.0,20.15,19.5,19.5,1255000
2019-11-14,19.5,19.7,19.3,19.46,1148904
2019-11-15,19.44,19.66,19.24,19.4,502000
2019-11-18,19.4,19.68,19.3,19.62,570000
2019-11-19,19.44,19.9,19.44,19.86,556000
2019-11-20,19.9,19.9,19.7,19.74,372024
2019-11-21,19.64,19.84,19.42,19.58,792806
2019-11-22,19.82,19.86,19.48,19.48,216165
2019-11-25,19.62,20.1,19.36,20.0,816000
2019-11-26,20.15,20.15,19.48,19.6,1158143
2019-11-27,19.6,19.62,19.3,19.3,2110317
2019-11-28,19.3,19.58,19.3,19.52,712080
2019-11-29,19.52,19.64,19.42,19.6,1482096
2019-12-02,19.64,19.86,19.32,19.34,1056171
2019-12-03,19.34,19.36,19.0,19.12,915704
2019-12-04,19.12,19.3,19.06,19.18,737548
2019-12-05,19.14,19.34,19.0,19.08,1174530
2019-12-06,19.1,19.4,19.0,19.34,957020
2019-12-09,19.36,19.4,19.1,19.14,750000
2019-12-10,19.34,19.34,19.04,19.1,1234128
2019-12-11,19.14,19.28,19.1,19.2,1930652
2019-12-12,19.14,19.32,19.08,19.26,2076000
2019-12-13,19.28,19.34,19.1,19.12,1982243
2019-12-16,19.12,19.22,19.08,19.1,1226990
2019-12-17,19.04,19.2,18.8,18.8,2163100
2019-12-18,18.8,18.8,18.4,18.48,2312000
2019-12-19,18.52,18.72,18.42,18.7,1572338
2019-12-20,18.74,19.08,18.46,18.46,2709892
2019-12-23,18.62,18.66,18.46,18.52,865612
2019-12-24,18.62,18.62,18.42,18.54,316000
2019-12-27,18.66,18.74,18.6,18.72,685962
2019-12-30,18.82,18.82,18.62,18.62,785000
2019-12-31,18.6,18.62,18.46,18.46,567000
2020-01-02,18.54,18.72,18.54,18.68,398350
2020-01-03,18.68,18.78,18.64,18.68,406000
2020-01-06,18.68,18.68,18.5,18.64,820975
2020-01-07,18.6,18.84,18.6,18.8,966000
2020-01-08,18.78,18.78,18.6,18.7,1106132
2020-01-09,18.84,19.1,18.7,19.06,2020633
2020-01-10,19.2,19.26,18.98,19.2,1601887
2020-01-13,19.3,20.25,19.22,20.1,3356906
2020-01-14,20.3,20.3,19.54,19.6,2388015
2020-01-15,19.78,19.78,19.46,19.7,1161235
2020-01-16,19.7,19.72,19.52,19.64,1286036
2020-01-17,19.72,19.8,19.52,19.64,1034000
2020-01-20,19.64,19.98,19.64,19.86,1072000
2020-01-21,19.82,19.82,19.38,19.46,1866100
2020-01-22,19.32,19.4,19.0,19.12,1890424
2020-01-23,19.16,19.16,18.66,18.7,2061066
2020-01-24,18.76,18.76,18.52,18.58,709000
2020-01-29,18.38,18.5,17.92,18.1,1553554
2020-01-30,18.0,18.02,17.42,17.44,1924174
2020-01-31,17.64,17.68,17.44,17.48,772000
2020-02-03,17.3,17.3,17.02,17.24,1078602
2020-02-04,17.24,17.64,17.22,17.52,858045
2020-02-05,17.58,17.6,17.22,17.22,1128055
2020-02-06,17.22,17.8,17.22,17.78,1212085
2020-02-07,17.74,18.22,17.58,17.6,1008276
2020-02-10,17.58,17.62,17.22,17.28,1353015
2020-02-11,17.22,17.34,17.1,17.22,1674500
2020-02-12,17.32,17.86,17.24,17.86,1389994
2020-02-13,17.9,18.06,17.5,17.54,1148000
2020-02-14,17.56,17.78,17.5,17.72,657000
2020-02-17,17.78,18.28,17.78,18.24,1174563
2020-02-18,18.3,18.3,18.0,18.0,954000
2020-02-19,17.98,18.06,17.88,17.88,578000
2020-02-20,17.86,18.08,17.64,17.7,623150
2020-02-21,17.8,17.8,17.5,17.56,368000
2020-02-24,17.58,17.58,17.3,17.32,564000
2020-02-25,17.4,17.4,17.2,17.24,908000
2020-02-26,17.2,17.68,17.06,17.54,725000
2020-02-27,17.68,17.68,17.3,17.34,732000
2020-02-28,17.2,17.26,17.08,17.08,1433679
2020-03-02,17.08,17.36,17.08,17.3,791343
2020-03-03,17.4,17.4,17.06,17.1,575000
2020-03-04,17.1,17.1,17.0,17.04,669167
2020-03-05,17.08,17.24,17.08,17.24,1000000
2020-03-06,17.24,17.24,17.02,17.04,608175
2020-03-09,16.92,17.0,16.4,16.42,1452827
2020-03-10,16.46,16.84,16.3,16.62,1554082
2020-03-11,16.8,16.8,16.4,16.4,974525
2020-03-12,16.34,16.34,15.7,15.78,1076525
2020-03-13,15.7,15.7,14.9,15.42,2069700
2020-03-16,15.5,15.5,14.5,14.54,1625194
2020-03-17,14.56,15.06,14.4,14.98,1611544
2020-03-18,14.86,15.16,14.36,14.52,1914000
2020-03-19,14.34,14.74,13.08,13.56,1656120
2020-03-20,13.8,14.54,13.7,14.54,1822683
2020-03-23,14.02,14.02,13.1,13.1,1583798
2020-03-24,13.34,13.5,13.0,13.12,1637000
2020-03-25,13.48,13.62,13.28,13.44,1290000
2020-03-26,13.58,13.58,13.16,13.2,1194531
2020-03-27,13.36,13.5,13.28,13.4,906133
2020-03-30,13.1,13.3,12.7,12.88,1938821
2020-03-31,13.0,13.02,12.7,12.72,2660285
2020-04-01,12.7,13.64,12.6,13.5,3332208
2020-04-02,13.5,13.52,13.24,13.48,760000
2020-04-03,13.5,13.96,13.5,13.94,1490072
2020-04-06,13.98,14.16,13.6,14.1,1738455
2020-04-07,14.2,14.4,14.1,14.24,2461645
2020-04-08,14.08,15.04,14.08,15.04,2190000
2020-04-09,15.3,16.0,14.88,15.96,4727000
2020-04-14,16.0,16.2,15.4,15.72,2989596
2020-04-15,15.8,15.9,15.0,15.12,3357932
2020-04-16,15.0,15.02,14.58,14.86,2368000
2020-04-17,15.1,15.36,14.94,15.34,2449000
2020-04-20,15.36,15.36,15.0,15.1,914000
2020-04-21,15.14,15.14,14.5,14.7,2219480
2020-04-22,14.68,14.8,14.3,14.62,1069700
2020-04-23,14.72,14.96,14.62,14.8,992477
2020-04-24,14.84,14.84,14.62,14.76,484768
2020-04-27,14.34,15.5,14.24,15.5,3572243
2020-04-28,15.6,16.06,15.48,16.0,3831000
2020-04-29,16.0,16.2,15.66,16.0,3463062
2020-05-04,15.22,16.12,15.22,15.4,2087606
2020-05-05,15.54,16.46,15.54,16.42,3313801
2020-05-06,16.34,16.4,15.84,16.26,3014754
2020-05-07,16.26,16.26,15.88,15.88,1577577
2020-05-08,15.92,16.3,15.92,16.18,1618873
2020-05-11,16.26,16.46,16.1,16.16,1394000
2020-05-12,16.0,16.06,15.76,15.84,1563270
2020-05-13,15.8,15.9,15.6,15.88,812000
2020-05-14,16.0,16.0,15.64,15.92,696000
2020-05-15,16.06,16.06,15.68,15.74,784052
2020-05-18,15.74,15.74,15.6,15.7,322000
2020-05-19,15.94,16.18,15.92,16.0,1235762
2020-05-20,16.0,16.1,15.64,15.8,1790000
2020-05-21,15.86,15.96,15.4,15.5,1332000
2020-05-22,15.3,15.48,14.04,14.2,5052936
2020-05-25,14.28,14.3,13.62,14.0,3496552
2020-05-26,14.16,14.34,13.98,14.1,3850000
2020-05-27,14.2,14.2,13.58,13.7,2752719
2020-05-28,13.7,13.96,13.52,13.8,2720000
2020-05-29,13.8,14.08,13.56,13.96,2544439
2020-06-01,14.1,14.54,14.04,14.5,2764000
2020-06-02,14.58,14.58,14.18,14.22,1085025
2020-06-03,14.44,14.58,14.3,14.5,1290068
2020-06-04,14.74,14.76,14.5,14.66,1312000
2020-06-05,14.7,15.02,14.48,15.0,1894687
2020-06-08,15.26,15.84,15.14,15.54,3951858
2020-06-09,15.78,16.08,15.7,16.06,5244000
2020-06-10,16.06,16.06,15.62,15.7,2576675
2020-06-11,15.62,15.7,15.1,15.2,2794000
2020-06-12,14.96,15.72,14.72,15.62,2762000
2020-06-15,15.5,15.66,14.86,15.1,4244356
2020-06-16,15.1,15.3,14.92,15.0,6408001
2020-06-17,15.1,16.18,15.1,16.0,10278412
2020-06-18,15.9,16.1,15.74,15.92,2437000
2020-06-19,15.9,16.08,15.74,16.08,3265905
2020-06-22,16.18,16.86,16.08,16.8,3821959
2020-06-23,16.94,17.1,16.52,16.88,4351060
2020-06-24,16.88,16.92,16.14,16.22,3298055
2020-06-26,16.2,16.24,15.84,15.9,2946036
2020-06-29,15.9,16.18,15.54,15.62,1982000
2020-06-30,15.72,16.08,15.64,16.04,1403482
2020-07-02,16.04,16.26,15.86,15.98,2708000
2020-07-03,16.2,16.26,15.9,16.06,1170000
2020-07-06,16.06,16.44,16.0,16.38,1954061
2020-07-07,16.58,16.68,15.7,15.8,5772000
2020-07-08,15.8,16.18,15.5,15.72,3378223
2020-07-09,15.66,15.84,14.94,15.0,6754652
2020-07-10,15.0,15.0,14.62,14.8,3107120
2020-07-13,14.8,15.0,14.66,14.92,2526000
2020-07-14,14.66,14.88,14.4,14.5,4493204
2020-07-15,14.72,14.78,14.3,14.3,2570000
2020-07-16,14.5,14.54,14.16,14.34,3390000
2020-07-17,14.3,14.8,14.3,14.8,4080000
2020-07-20,14.64,14.76,14.2,14.38,3228000
2020-07-21,14.58,15.18,14.46,15.1,6008085
2020-07-22,15.1,15.16,14.78,15.08,3686032
2020-07-23,15.0,15.12,14.9,15.06,2544000
2020-07-24,15.0,15.16,14.82,15.0,3304000
2020-07-27,14.84,15.52,14.84,15.06,3080225
2020-07-28,15.14,15.34,15.02,15.18,1350000
2020-07-29,15.12,15.12,14.92,15.0,1908400
2020-07-30,15.02,15.56,15.02,15.42,2160000
2020-07-31,15.44,15.76,15.42,15.52,1828622
2020-08-03,15.58,15.88,15.58,15.84,1874000
2020-08-04,15.96,16.26,15.8,16.08,2725887
2020-08-05,16.06,16.22,16.04,16.16,1149076
2020-08-06,16.28,16.38,16.0,16.28,1704324
2020-08-07,16.26,16.3,16.0,16.1,1072716
2020-08-10,16.1,16.42,16.1,16.34,1485425
2020-08-11,16.4,16.76,16.38,16.76,2646845
2020-08-12,16.74,16.94,16.54,16.78,1427025
2020-08-13,16.8,16.98,16.8,16.98,1354000
2020-08-14,16.98,17.0,16.84,16.96,1069684
2020-08-17,17.4,17.4,16.86,17.26,1970168
2020-08-18,17.2,17.32,17.18,17.24,1102156
2020-08-19,17.4,17.4,16.8,16.88,1169059
2020-08-20,17.0,17.02,16.46,17.02,1224152
2020-08-21,17.2,17.44,17.02,17.38,1695025
2020-08-24,17.5,18.1,17.32,18.08,2806145
2020-08-25,18.1,18.28,17.8,18.06,1713000
