Date,Open,High,Low,Close,Volume
2012-09-20,1.86,1.92,1.82,1.92,9082000
2012-09-21,1.92,2.04,1.92,2.01,15128077
2012-09-24,2.02,2.04,2.0,2.02,11509000
2012-09-25,2.02,2.07,2.01,2.07,11794000
2012-09-26,2.06,2.24,2.06,2.13,18235084
2012-09-27,2.13,2.16,2.13,2.14,11026517
2012-09-28,2.15,2.27,2.14,2.26,16258677
2012-10-03,2.29,2.41,2.29,2.37,16234000
2012-10-04,2.39,2.51,2.39,2.5,16526000
2012-10-05,2.51,2.54,2.39,2.52,20317280
2012-10-08,2.52,2.53,2.46,2.48,8351200
2012-10-09,2.48,2.56,2.47,2.55,14036000
2012-10-10,2.55,2.65,2.55,2.6,9713600
2012-10-11,2.59,2.71,2.59,2.71,16540000
2012-10-12,2.71,2.74,2.67,2.72,8679000
2012-10-15,2.72,2.74,2.62,2.69,10855000
2012-10-16,2.7,2.78,2.62,2.78,9860000
2012-10-17,2.78,2.9,2.75,2.89,8468999
2012-10-18,2.9,2.94,2.85,2.91,8610000
2012-10-19,2.9,2.93,2.88,2.89,7380000
2012-10-22,2.86,3.02,2.85,2.98,8820000
2012-10-24,2.97,3.08,2.97,3.03,8684000
2012-10-25,3.03,3.06,2.97,3.05,6350332
2012-10-26,3.04,3.05,2.98,3.01,5490000
2012-10-29,3.0,3.04,2.99,3.0,9461000
2012-10-30,3.0,3.0,2.94,2.99,9990000
2012-10-31,2.99,3.0,2.93,2.98,8828717
2012-11-01,2.96,3.04,2.96,2.99,7996908
2012-11-02,3.0,3.02,2.99,3.02,7840768
2012-11-05,3.02,3.11,3.02,3.11,8065000
2012-11-06,3.11,3.48,3.11,3.4,22906000
2012-11-07,3.4,3.42,3.31,3.36,8722000
2012-11-08,3.33,3.35,3.25,3.29,8627000
2012-11-09,3.28,3.47,3.28,3.4,9541000
2012-11-12,3.4,3.44,3.37,3.41,5976720
2012-11-13,3.4,3.42,3.34,3.38,4048440
2012-11-14,3.36,3.39,3.36,3.38,3686217
2012-11-15,3.36,3.45,3.31,3.39,8619000
2012-11-16,3.39,3.45,3.39,3.42,6342000
2012-11-19,3.42,3.44,3.36,3.38,4842051
2012-11-20,3.36,3.41,3.36,3.37,5620000
2012-11-21,3.38,3.47,3.38,3.43,10808000
2012-11-22,3.42,3.54,3.42,3.51,7250000
2012-11-23,3.51,3.52,3.45,3.47,6262000
2012-11-26,3.49,3.5,3.43,3.49,8402000
2012-11-27,3.49,3.49,3.45,3.49,6973000
2012-11-28,3.48,3.48,3.43,3.44,2778000
2012-11-29,3.44,3.47,3.43,3.46,4317407
2012-11-30,3.46,3.63,3.44,3.62,11251000
2012-12-03,3.64,3.83,3.62,3.82,10738456
2012-12-04,3.82,3.83,3.78,3.79,5459200
2012-12-05,3.79,3.84,3.74,3.8,8326000
2012-12-06,3.8,4.05,3.8,4.02,9516000
2012-12-07,4.03,4.17,4.03,4.14,9067640
2012-12-10,4.14,4.23,4.13,4.16,6399000
2012-12-11,4.14,4.26,4.12,4.23,7061628
2012-12-12,4.23,4.25,4.16,4.2,4525000
2012-12-13,4.2,4.28,4.2,4.25,6658880
2012-12-14,4.25,4.27,4.21,4.23,4942122
2012-12-17,4.23,4.24,4.09,4.18,4236022
2012-12-18,4.15,4.18,3.87,4.06,19904000
2012-12-19,4.12,4.16,4.07,4.1,16967000
2012-12-20,4.1,4.25,4.1,4.21,4514000
2012-12-21,4.22,4.52,4.22,4.51,17348000
2012-12-24,4.52,4.62,4.52,4.56,4188000
2012-12-27,4.59,4.67,4.54,4.57,4714000
2012-12-28,4.56,4.59,4.5,4.55,5756160
2012-12-31,4.54,4.55,4.51,4.55,1630000
2013-01-02,4.55,4.58,4.51,4.57,6090000
2013-01-03,4.55,4.59,4.44,4.55,8440000
2013-01-04,4.55,4.55,4.42,4.46,3802117
2013-01-07,4.46,4.67,4.38,4.62,8396008
2013-01-08,4.6,4.76,4.58,4.72,6719608
2013-01-09,4.7,4.72,4.59,4.65,3884000
2013-01-10,4.61,4.67,4.61,4.66,4684173
2013-01-11,4.65,4.66,4.47,4.5,13354332
2013-01-14,4.51,4.66,4.51,4.65,5716006
2013-01-15,4.63,4.65,4.59,4.59,4343365
2013-01-16,4.58,4.65,4.55,4.63,6722240
2013-01-17,4.63,4.63,4.49,4.54,4799000
2013-01-18,4.53,4.58,4.52,4.56,3340000
2013-01-21,4.56,4.59,4.48,4.48,5484000
2013-01-22,4.47,4.52,4.47,4.52,4743713
2013-01-23,4.51,4.51,4.38,4.49,5841858
2013-01-24,4.44,4.6,4.42,4.58,14736000
2013-01-25,4.55,4.58,4.52,4.54,3695676
2013-01-28,4.54,4.56,4.47,4.53,5452000
2013-01-29,4.52,4.55,4.47,4.53,5280000
2013-01-30,4.53,4.58,4.49,4.53,5848000
2013-01-31,4.21,4.21,3.87,3.96,147982912
2013-02-01,3.94,4.07,3.83,4.0,30006760
2013-02-04,4.0,4.09,3.99,4.04,8444106
2013-02-05,3.97,4.0,3.92,3.93,10174000
2013-02-06,3.93,3.94,3.64,3.93,17550000
2013-02-07,3.91,3.93,3.81,3.89,8784008
2013-02-08,3.82,3.95,3.82,3.94,4572289
2013-02-14,3.92,4.1,3.92,4.06,7285731
2013-02-15,4.07,4.26,4.04,4.21,12184000
2013-02-18,4.21,4.24,4.08,4.17,6562000
2013-02-19,4.17,4.24,4.17,4.21,8994000
2013-02-20,4.21,4.23,4.16,4.21,5141213
2013-02-21,4.21,4.31,4.13,4.28,10065000
2013-02-22,4.29,4.47,4.29,4.33,9694204
2013-02-25,4.31,4.43,4.27,4.37,8690000
2013-02-26,4.32,4.45,4.28,4.45,11614002
2013-02-27,4.45,4.56,4.45,4.5,10112008
2013-02-28,4.5,4.59,4.5,4.55,12816563
2013-03-01,4.55,4.58,4.43,4.46,11622000
2013-03-04,4.45,4.47,4.28,4.36,19245004
2013-03-05,4.36,4.53,4.33,4.36,14956857
2013-03-06,4.37,4.43,4.37,4.4,8557000
2013-03-07,4.4,4.42,4.34,4.37,13266000
2013-03-08,4.34,4.37,4.28,4.34,18489000
2013-03-11,4.34,4.37,4.14,4.16,13967000
2013-03-12,4.15,4.23,4.05,4.14,29489164
2013-03-13,4.14,4.2,4.13,4.17,6669178
2013-03-14,4.15,4.2,4.09,4.19,9242030
2013-03-15,4.19,4.52,4.19,4.52,8186047
2013-03-18,4.6,4.63,4.36,4.36,8661750
2013-03-19,4.34,4.48,4.34,4.44,14714626
2013-03-20,4.44,4.58,4.35,4.39,13315019
2013-03-21,4.39,4.51,4.33,4.49,12932000
2013-03-22,4.47,4.61,4.45,4.59,11745800
2013-03-25,4.62,4.74,4.61,4.64,10628000
2013-03-26,4.64,4.65,4.57,4.57,5780006
2013-03-27,4.56,4.57,4.5,4.51,5045999
2013-03-28,4.49,4.51,4.42,4.43,4792000
2013-04-02,4.42,4.42,4.4,4.42,4026814
2013-04-03,4.41,4.46,4.35,4.42,8080000
2013-04-05,4.41,4.45,4.33,4.39,9310000
2013-04-08,4.39,4.41,4.29,4.33,7948000
2013-04-09,4.31,4.54,4.31,4.54,10964016
2013-04-10,4.54,4.54,4.51,4.52,3362830
2013-04-11,4.7,5.31,4.67,5.25,30410104
2013-04-12,5.25,5.36,5.14,5.34,15724000
2013-04-15,5.32,5.6,5.25,5.46,16030881
2013-04-16,5.4,5.47,5.25,5.36,12492000
2013-04-17,5.38,5.55,5.34,5.41,11537000
2013-04-18,4.82,4.84,4.7,4.79,211499008
2013-04-19,4.79,4.83,4.75,4.8,21876460
2013-04-22,4.82,5.02,4.79,4.89,25642000
2013-04-23,4.89,4.97,4.77,4.84,11138000
2013-04-24,4.86,4.92,4.83,4.85,9136000
2013-04-25,4.84,4.92,4.78,4.84,12272000
2013-04-26,4.83,4.86,4.69,4.79,13013000
2013-04-29,4.77,4.79,4.72,4.74,4696000
2013-04-30,4.76,4.88,4.73,4.84,8494000
2013-05-02,4.89,5.18,4.89,5.09,35496000
2013-05-03,5.09,5.15,4.99,5.02,15021006
2013-05-06,5.2,5.4,5.15,5.32,20908000
2013-05-07,5.35,5.48,5.34,5.43,13273822
2013-05-08,5.42,5.59,5.41,5.57,14573850
2013-05-09,5.57,5.64,5.44,5.52,14124000
2013-05-10,5.52,5.54,5.39,5.42,4992000
2013-05-13,5.4,5.42,5.27,5.31,4563000
2013-05-14,5.34,5.68,5.34,5.55,10761500
2013-05-15,5.54,5.54,5.35,5.36,13358114
2013-05-16,5.42,5.46,5.37,5.4,14112955
2013-05-20,5.44,5.44,5.07,5.27,12733500
2013-05-21,5.29,5.38,5.28,5.36,5432000
2013-05-22,5.36,5.36,5.06,5.12,7551000
2013-05-23,5.05,5.09,4.9,4.99,11384200
2013-05-24,5.0,5.15,4.9,5.1,6998000
2013-05-27,5.09,5.41,5.02,5.4,7862000
2013-05-28,5.35,5.4,5.28,5.36,4550000
2013-05-29,5.36,5.43,5.3,5.35,3511691
2013-05-30,5.35,5.47,5.25,5.44,8102007
2013-05-31,5.53,5.53,5.35,5.45,8276899
2013-06-03,5.38,5.48,5.25,5.38,13966002
2013-06-04,5.37,5.37,5.23,5.26,10962000
2013-06-05,5.2,5.25,5.1,5.16,6376000
2013-06-06,5.12,5.12,4.89,4.98,9356700
2013-06-07,4.97,5.03,4.79,4.82,6090000
2013-06-10,4.94,4.99,4.69,4.8,8346000
2013-06-11,4.89,4.92,4.58,4.59,7945653
2013-06-13,4.5,4.5,4.3,4.43,10505215
2013-06-14,4.45,4.74,4.45,4.66,9923000
2013-06-17,4.66,4.9,4.66,4.87,5520000
2013-06-18,4.87,4.87,4.71,4.81,4858000
2013-06-19,4.79,4.88,4.79,4.83,5047000
2013-06-20,4.8,4.85,4.71,4.8,8006000
2013-06-21,4.7,4.99,4.62,4.98,7632672
2013-06-24,4.89,4.9,4.55,4.65,11076672
2013-06-25,4.5,4.75,4.05,4.39,13592017
2013-06-26,4.45,4.7,4.45,4.7,5314000
2013-06-27,4.73,4.82,4.7,4.77,6661793
2013-06-28,4.75,4.84,4.65,4.66,5462000
2013-07-02,4.7,4.71,4.66,4.67,4292000
2013-07-03,4.68,4.68,4.47,4.53,4516000
2013-07-04,4.5,4.51,4.42,4.48,1603000
2013-07-05,4.49,4.64,4.46,4.51,30275000
2013-07-08,4.52,4.52,4.28,4.33,3504004
2013-07-09,4.36,4.39,4.24,4.36,2597262
2013-07-10,4.41,4.48,4.23,4.35,3604000
2013-07-11,4.36,4.49,4.36,4.47,16280000
2013-07-12,4.47,4.52,4.36,4.42,2278000
2013-07-15,4.41,4.7,4.41,4.69,4132000
2013-07-16,4.65,4.65,4.54,4.6,13144000
2013-07-17,4.6,4.61,4.36,4.41,8926000
2013-07-18,4.41,4.43,4.26,4.29,3914000
2013-07-19,4.27,4.32,4.27,4.29,1760000
2013-07-22,4.27,4.3,4.17,4.25,2940000
2013-07-23,4.22,4.28,4.2,4.22,6964000
2013-07-24,4.22,4.25,4.17,4.25,3148627
2013-07-25,4.25,4.4,4.25,4.38,3587915
2013-07-26,4.34,4.48,4.28,4.33,3870000
2013-07-29,4.33,4.33,4.18,4.24,2644000
2013-07-30,4.24,4.29,4.12,4.2,3862000
2013-07-31,4.25,4.27,4.11,4.17,4784000
2013-08-01,4.18,4.24,4.15,4.22,4698000
2013-08-02,4.2,4.24,4.16,4.18,2868000
2013-08-05,4.55,4.7,4.28,4.66,21092468
2013-08-06,4.58,4.65,4.48,4.59,5618000
2013-08-07,4.55,4.7,4.47,4.5,6988000
2013-08-08,4.52,4.68,4.49,4.62,4748640
2013-08-09,4.64,4.8,4.64,4.8,7406000
2013-08-12,4.84,4.89,4.67,4.69,13126000
2013-08-13,4.73,4.85,4.7,4.8,8572000
2013-08-15,4.85,5.04,4.78,4.94,12912000
2013-08-16,4.9,5.0,4.81,4.88,3732000
2013-08-19,4.95,4.96,4.87,4.92,4320000
2013-08-20,4.75,4.81,4.48,4.7,12115089
2013-08-21,4.75,4.78,4.65,4.73,3722203
2013-08-22,4.7,4.7,4.53,4.61,6116000
2013-08-23,4.65,4.73,4.64,4.67,5535857
2013-08-26,4.72,4.73,4.66,4.69,2820000
2013-08-27,4.7,4.74,4.69,4.72,4128000
2013-08-28,4.68,4.76,4.63,4.72,6378000
2013-08-29,4.79,5.0,4.69,4.95,5964469
2013-08-30,4.88,5.03,4.87,5.0,7265754
2013-09-02,5.15,5.15,5.03,5.05,2349000
2013-09-03,5.16,5.16,5.05,5.09,2484000
2013-09-04,5.12,5.13,5.02,5.07,2339999
2013-09-05,5.1,5.1,4.9,5.0,2942000
2013-09-06,5.05,5.05,4.88,4.9,2254000
2013-09-09,4.9,4.97,4.88,4.97,2672000
2013-09-10,4.97,5.13,4.96,5.12,6032000
2013-09-11,5.12,5.25,5.05,5.24,5779005
2013-09-12,5.25,5.3,5.2,5.3,6544000
2013-09-13,5.31,5.31,5.22,5.26,2401000
2013-09-16,5.27,5.3,5.23,5.27,1466000
2013-09-17,5.27,5.32,5.23,5.3,1787500
2013-09-18,5.33,5.34,5.21,5.24,4624000
2013-09-19,5.26,5.27,5.13,5.21,7304000
2013-09-23,5.22,5.27,5.15,5.18,795200
2013-09-24,5.16,5.25,5.13,5.15,1994000
2013-09-25,5.15,5.17,5.12,5.15,1784000
2013-09-26,5.15,5.24,5.13,5.2,2782000
2013-09-27,5.22,5.3,5.2,5.25,2363150
2013-09-30,5.23,5.25,5.15,5.18,1418000
2013-10-02,5.22,5.28,5.17,5.18,3094000
2013-10-03,5.2,5.2,5.16,5.2,1636000
2013-10-04,5.2,5.2,5.17,5.18,1364000
2013-10-07,5.17,5.19,4.98,5.01,5034000
2013-10-08,5.05,5.05,4.91,4.95,3106000
2013-10-09,4.95,5.05,4.91,4.98,3900000
2013-10-10,5.04,5.04,4.88,4.94,2164000
2013-10-11,4.97,4.98,4.92,4.95,1694000
2013-10-15,4.96,4.96,4.88,4.88,1598800
2013-10-16,4.92,5.0,4.79,4.96,5810000
2013-10-17,4.98,5.0,4.87,4.92,2378000
2013-10-18,4.95,4.95,4.85,4.88,3742000
2013-10-21,4.88,4.99,4.88,4.94,2912000
2013-10-22,4.94,4.96,4.9,4.93,1778000
2013-10-23,4.94,4.95,4.84,4.85,3684000
2013-10-24,4.85,4.86,4.74,4.79,2320000
2013-10-25,4.79,4.79,4.74,4.79,1536000
2013-10-28,4.82,4.9,4.8,4.86,1928000
2013-10-29,4.89,4.89,4.59,4.65,6423000
2013-10-30,4.66,4.72,4.57,4.68,3884000
2013-10-31,4.7,4.75,4.66,4.72,998000
2013-11-01,4.69,4.72,4.68,4.69,1068000
2013-11-04,4.7,4.71,4.67,4.68,1789296
2013-11-05,4.66,4.69,4.62,4.65,3058000
2013-11-06,4.68,4.7,4.63,4.65,3032000
2013-11-07,4.68,4.68,4.63,4.65,1046000
2013-11-08,4.68,4.68,4.52,4.6,3484000
2013-11-11,4.58,4.61,4.55,4.55,1918000
2013-11-12,4.57,4.73,4.55,4.59,2614000
2013-11-13,4.6,4.65,4.6,4.64,1510000
2013-11-14,4.69,4.7,4.62,4.63,1638000
2013-11-15,4.66,4.68,4.6,4.64,2584000
2013-11-18,4.68,4.88,4.68,4.87,6774000
2013-11-19,4.9,5.01,4.85,4.99,8379000
2013-11-20,5.02,5.02,4.93,4.98,2290000
2013-11-21,4.96,4.98,4.91,4.94,4668000
2013-11-22,4.98,5.11,4.94,5.09,12639628
2013-11-25,5.19,5.23,5.14,5.23,7601000
2013-11-26,5.2,5.23,5.11,5.17,5262000
2013-11-27,5.2,5.2,5.16,5.19,2028000
2013-11-28,5.2,5.25,5.19,5.22,2198000
2013-11-29,5.24,5.24,5.16,5.22,2996000
2013-12-02,5.24,5.3,5.2,5.28,3798000
2013-12-03,5.29,5.3,5.19,5.29,4078814
2013-12-04,5.23,5.28,5.08,5.09,6182000
2013-12-05,5.03,5.2,5.03,5.19,8730000
2013-12-06,5.2,5.2,5.09,5.16,1667124
2013-12-09,5.2,5.2,5.15,5.2,1330000
2013-12-10,5.23,5.3,5.2,5.27,3066800
2013-12-11,5.28,5.28,5.06,5.11,2760000
2013-12-12,5.15,5.15,5.0,5.1,2756000
2013-12-13,5.14,5.15,5.08,5.12,850000
2013-12-16,5.14,5.28,5.14,5.24,3276000
2013-12-17,5.39,5.94,5.28,5.83,18025964
2013-12-18,5.87,6.0,5.57,5.98,10345619
2013-12-19,6.13,6.13,5.82,5.94,6198535
2013-12-20,5.91,5.91,5.66,5.82,4190000
2013-12-23,5.9,5.99,5.81,5.87,2248000
2013-12-24,5.82,5.92,5.7,5.9,704951
2013-12-27,5.92,5.92,5.78,5.82,1335000
2013-12-30,5.82,6.28,5.76,6.07,4255000
2013-12-31,6.14,6.4,6.12,6.33,6494000
2014-01-02,6.38,6.54,6.26,6.45,5817360
2014-01-03,6.28,6.5,6.28,6.36,4198000
2014-01-06,6.34,6.34,6.18,6.22,3358000
2014-01-07,6.2,6.33,6.09,6.13,2772000
2014-01-08,6.15,6.29,6.02,6.11,3572000
2014-01-09,6.16,6.73,6.16,6.59,13620210
2014-01-10,6.61,6.7,6.49,6.66,7592000
2014-01-13,6.5,6.66,6.46,6.48,5260000
2014-01-14,6.35,6.64,6.27,6.31,5282400
2014-01-15,6.4,6.5,6.08,6.09,6848654
2014-01-16,6.24,6.61,6.14,6.36,5006000
2014-01-17,6.39,6.49,6.27,6.28,2853400
2014-01-20,6.25,6.36,6.22,6.29,1964000
2014-01-21,6.28,6.28,6.17,6.2,1438000
2014-01-22,6.26,6.4,6.2,6.39,1855500
2014-01-23,6.42,6.49,6.28,6.34,2393062
2014-01-24,6.29,6.39,6.1,6.13,4370000
2014-01-27,6.09,6.11,5.86,5.98,9925031
2014-01-28,5.97,6.5,5.97,6.2,3254000
2014-01-29,6.26,6.61,6.25,6.61,4701053
2014-01-30,6.6,6.62,6.44,6.62,1227000
2014-02-04,6.5,6.9,6.4,6.74,4555000
2014-02-05,6.8,6.87,6.62,6.71,3032000
2014-02-06,6.79,6.79,6.63,6.73,2029000
2014-02-07,6.74,6.75,6.65,6.68,1895000
2014-02-10,6.8,6.86,6.54,6.74,1180000
2014-02-11,6.8,6.96,6.79,6.92,2801000
2014-02-12,6.95,7.18,6.9,7.14,4520000
2014-02-13,7.24,7.43,7.0,7.29,2426000
2014-02-14,7.38,7.52,7.28,7.51,4720000
2014-02-17,7.65,8.01,7.58,7.91,5431440
2014-02-18,7.9,8.13,7.7,8.04,5532000
2014-02-19,8.0,8.51,7.95,8.44,5260000
2014-02-20,8.5,8.55,8.17,8.24,4945406
2014-02-21,8.3,8.4,8.18,8.4,4276000
2014-02-24,8.45,8.5,6.7,7.24,25981000
2014-02-25,7.63,7.77,7.02,7.3,50943000
2014-02-26,7.3,7.55,7.2,7.36,12800000
2014-02-27,7.38,7.48,7.25,7.3,4594000
2014-02-28,7.38,7.38,7.23,7.27,4270000
2014-03-03,7.25,7.71,7.16,7.28,4888000
2014-03-04,7.25,7.56,7.25,7.51,8678000
2014-03-05,7.7,7.92,7.49,7.57,8224000
2014-03-06,7.6,7.6,7.32,7.35,5136000
2014-03-07,7.44,7.69,7.44,7.55,3164000
2014-03-10,7.55,7.58,7.15,7.33,2860000
2014-03-11,7.3,7.49,7.05,7.12,5746000
2014-03-12,7.1,7.2,6.56,7.1,7245300
2014-03-13,7.1,7.79,7.1,7.2,5594000
2014-03-14,7.25,7.25,6.44,6.66,12008000
2014-03-17,6.66,6.78,6.3,6.32,6420400
2014-03-18,6.32,6.54,6.05,6.26,21493000
2014-03-19,6.3,6.33,6.05,6.06,12519095
2014-03-20,6.1,6.1,5.43,5.84,30604000
2014-03-21,5.8,6.12,5.8,5.9,7475200
2014-03-24,6.07,6.07,5.82,5.86,2382062
2014-03-25,5.88,5.88,5.42,5.45,6762000
2014-03-26,5.43,5.69,5.39,5.58,6907148
2014-03-27,5.49,5.78,5.48,5.68,4536200
2014-03-28,5.62,5.99,5.61,5.97,6544000
2014-03-31,6.01,6.04,5.82,6.0,8138500
2014-04-01,6.03,6.05,5.87,6.0,4864000
2014-04-02,6.0,6.19,5.91,5.96,4184000
2014-04-03,5.96,6.12,5.9,6.05,8700000
2014-04-04,5.98,6.05,5.89,5.98,3222500
2014-04-07,6.02,6.16,5.95,5.98,8271103
2014-04-08,6.0,6.01,5.81,5.88,4438000
2014-04-09,5.97,5.97,5.85,5.94,3686186
2014-04-10,5.96,6.42,5.96,6.25,25351252
2014-04-11,6.33,6.45,6.1,6.14,5705000
2014-04-14,6.13,6.16,5.86,6.01,1922000
2014-04-15,6.09,6.09,5.88,5.91,2144000
2014-04-16,5.89,5.91,5.36,5.48,8368000
2014-04-17,5.43,5.7,5.39,5.59,4807900
2014-04-22,5.62,5.69,5.49,5.53,3893500
2014-04-23,5.58,5.58,5.46,5.5,5160500
2014-04-24,5.5,5.55,5.41,5.45,5210800
2014-04-25,5.5,5.55,5.48,5.52,1816700
2014-04-28,5.45,5.56,5.28,5.36,1849900
2014-04-29,5.43,5.45,5.11,5.24,3768400
2014-04-30,5.31,5.31,5.06,5.11,2002700
2014-05-02,5.1,5.14,4.93,5.04,5393300
2014-05-05,5.05,5.09,4.86,4.9,2880100
2014-05-07,4.93,4.93,4.76,4.77,2727500
2014-05-08,4.78,4.8,4.37,4.44,7036000
2014-05-09,4.4,4.75,4.31,4.71,5578300
2014-05-12,4.69,4.91,4.43,4.79,3015600
2014-05-13,4.79,4.85,4.73,4.82,2622000
2014-05-14,4.82,4.82,4.71,4.76,1636000
2014-05-15,4.76,4.77,4.6,4.75,722000
2014-05-16,4.64,4.74,4.62,4.72,824500
2014-05-19,4.69,4.71,4.6,4.71,1918000
2014-05-20,4.77,5.01,4.73,4.95,3302000
2014-05-21,4.94,4.94,4.76,4.81,2266080
2014-05-22,4.91,5.07,4.74,5.02,2567131
2014-05-23,5.05,5.48,5.04,5.41,23881120
2014-05-26,5.41,5.64,5.31,5.36,4889000
2014-05-27,5.3,5.36,5.29,5.32,5419400
2014-05-28,5.38,5.38,5.19,5.19,7534000
2014-05-29,5.19,5.25,5.13,5.14,3534000
2014-05-30,5.22,5.28,5.15,5.17,2748000
2014-06-03,5.22,5.63,5.15,5.4,4631000
2014-06-04,5.4,5.53,5.3,5.31,1870000
2014-06-05,5.26,5.45,5.23,5.43,3675000
2014-06-06,5.47,5.61,5.36,5.59,3730000
2014-06-09,5.64,5.8,5.57,5.75,5127700
2014-06-10,5.75,5.75,5.62,5.7,2450000
2014-06-11,5.75,5.75,5.55,5.64,3763000
2014-06-12,5.7,5.97,5.63,5.92,4558000
2014-06-13,5.91,5.99,5.84,5.93,5128240
2014-06-16,5.91,6.11,5.91,6.06,4012000
2014-06-17,6.04,6.08,5.9,5.96,2352000
2014-06-18,5.96,5.98,5.8,5.92,2205000
2014-06-19,5.95,5.99,5.86,5.9,1556800
2014-06-20,5.97,5.97,5.73,5.78,2616000
2014-06-23,5.75,5.83,5.6,5.61,2972240
2014-06-24,5.57,5.89,5.57,5.88,2884600
2014-06-25,5.85,5.88,5.7,5.73,2024000
2014-06-26,5.75,5.85,5.69,5.81,2590000
2014-06-27,5.73,5.84,5.71,5.75,2664000
2014-06-30,5.71,5.8,5.68,5.8,2018000
2014-07-02,5.81,5.91,5.75,5.76,1678000
2014-07-03,5.8,5.83,5.65,5.75,2682500
2014-07-04,5.75,5.8,5.71,5.77,1626000
2014-07-07,5.79,5.81,5.66,5.78,1489200
2014-07-08,5.78,5.88,5.76,5.88,2832000
2014-07-09,5.88,5.88,5.64,5.74,1600000
2014-07-10,5.75,5.75,5.65,5.68,2036000
2014-07-11,5.6,5.68,5.53,5.66,1048000
2014-07-14,5.6,5.66,5.58,5.59,1468000
2014-07-15,5.66,5.78,5.62,5.71,3790000
2014-07-16,5.74,5.87,5.74,5.82,2594000
2014-07-17,5.8,5.97,5.8,5.91,2734000
2014-07-18,5.9,5.94,5.78,5.9,1297000
2014-07-21,5.89,5.9,5.75,5.77,1945841
2014-07-22,5.72,5.8,5.66,5.69,3762000
2014-07-23,5.65,5.74,5.4,5.42,12646000
2014-07-24,5.42,5.45,5.26,5.3,7642000
2014-07-25,5.35,5.4,5.31,5.36,3356000
2014-07-28,5.41,5.42,5.26,5.31,4762000
2014-07-29,5.28,5.36,5.18,5.31,2448000
2014-07-30,5.28,5.46,5.28,5.35,3925000
2014-07-31,5.35,5.35,5.24,5.32,3956000
2014-08-01,5.26,5.34,5.24,5.28,3414000
2014-08-04,5.24,5.52,5.21,5.5,3868000
2014-08-05,5.49,5.56,5.36,5.39,2415848
2014-08-06,5.41,5.42,5.33,5.37,1524000
2014-08-07,5.38,5.47,5.37,5.38,2222000
2014-08-08,5.45,5.45,5.34,5.36,1824000
2014-08-11,5.34,5.45,5.34,5.38,2096929
2014-08-12,5.35,5.41,5.34,5.38,1812000
2014-08-13,5.38,5.4,5.3,5.38,3926000
2014-08-14,5.4,5.49,5.38,5.46,2587015
2014-08-15,5.44,5.52,5.42,5.45,2652000
2014-08-18,5.45,5.45,5.2,5.34,5628000
2014-08-19,5.23,5.27,4.87,4.89,24430400
2014-08-20,4.9,4.98,4.88,4.9,7650000
2014-08-21,4.98,4.99,4.75,4.78,10209190
2014-08-22,4.78,4.81,4.77,4.79,5650200
2014-08-25,4.8,4.8,4.63,4.74,11446000
2014-08-26,4.74,4.82,4.72,4.78,6420000
2014-08-27,4.72,4.77,4.59,4.59,9730000
2014-08-28,4.57,4.8,4.47,4.49,4954000
2014-08-29,4.51,4.55,4.37,4.43,11850000
2014-09-01,4.39,4.43,4.3,4.33,5205000
2014-09-02,4.33,4.39,4.24,4.25,9168000
2014-09-03,4.26,4.39,4.26,4.27,8448000
2014-09-04,4.28,4.34,4.18,4.22,6340000
2014-09-05,4.19,4.34,4.19,4.23,8076000
2014-09-08,4.23,4.26,4.02,4.09,11322000
2014-09-10,4.1,4.15,4.06,4.09,7816000
2014-09-11,4.13,4.14,3.78,3.85,19704000
2014-09-12,3.85,3.88,3.71,3.78,9565010
2014-09-15,3.8,3.97,3.76,3.94,7376000
2014-09-16,3.94,4.08,3.74,3.84,5131000
2014-09-17,3.84,4.15,3.75,4.1,29416000
2014-09-18,4.17,4.29,4.06,4.2,24670000
2014-09-19,4.2,4.31,4.07,4.2,13283000
2014-09-22,4.13,4.25,4.13,4.2,8336944
2014-09-23,4.2,4.25,4.13,4.17,3704000
2014-09-24,4.15,4.2,3.99,4.09,6618000
2014-09-25,4.06,4.11,4.05,4.05,2548000
2014-09-26,4.01,4.07,3.97,4.06,1575000
2014-09-29,3.97,4.09,3.82,3.95,6438000
2014-09-30,3.82,3.95,3.8,3.87,5590000
2014-10-03,3.86,3.86,3.65,3.72,6378000
2014-10-06,3.7,3.95,3.7,3.9,2298000
2014-10-07,3.86,3.92,3.79,3.8,3758400
2014-10-08,3.74,3.79,3.73,3.75,2587000
2014-10-09,3.76,3.8,3.74,3.79,3488000
2014-10-10,3.79,3.79,3.73,3.74,2023000
2014-10-13,3.69,3.73,3.67,3.68,1578000
2014-10-14,3.62,3.73,3.62,3.63,2473000
2014-10-15,3.66,3.71,3.54,3.6,6126000
2014-10-16,3.62,3.62,3.48,3.52,7300000
2014-10-17,3.52,3.6,3.48,3.6,1485600
2014-10-20,3.6,3.7,3.47,3.62,2160000
2014-10-21,3.64,3.83,3.61,3.71,5776000
2014-10-22,3.75,3.76,3.7,3.71,1836000
2014-10-23,3.78,3.78,3.67,3.69,1560000
2014-10-24,3.72,3.81,3.7,3.72,2426000
2014-10-27,3.73,3.75,3.63,3.67,1382000
2014-10-28,3.69,3.7,3.57,3.66,1936000
2014-10-29,3.66,3.66,3.55,3.6,2635800
2014-10-30,3.63,3.68,3.57,3.64,2824000
2014-10-31,3.68,3.68,3.6,3.65,3368000
2014-11-03,3.74,3.84,3.65,3.73,5548000
2014-11-04,3.73,3.78,3.67,3.69,1516000
2014-11-05,3.72,3.72,3.6,3.68,1986000
2014-11-06,3.76,3.76,3.53,3.54,2398000
2014-11-07,3.55,3.59,3.52,3.57,5902000
2014-11-10,3.61,3.66,3.52,3.56,4252000
2014-11-11,3.56,3.6,3.51,3.58,4028000
2014-11-12,3.52,3.59,3.51,3.55,2292000
2014-11-13,3.57,3.57,3.28,3.34,6968000
2014-11-14,3.36,3.36,2.83,2.98,32590000
2014-11-17,3.08,3.08,2.89,2.97,24954000
2014-11-18,3.04,3.04,2.96,2.98,4840000
2014-11-19,2.94,2.98,2.8,2.81,7694000
2014-11-20,2.82,2.86,2.68,2.69,8604000
2014-11-21,2.71,3.13,2.69,2.93,35904000
2014-11-24,3.05,3.16,2.93,3.16,16506000
2014-11-25,3.18,3.2,2.98,3.08,6397200
2014-11-26,3.08,3.09,2.99,3.03,3486000
2014-11-27,3.02,3.1,2.98,3.1,4274000
2014-11-28,3.08,3.08,2.93,2.96,3944000
2014-12-01,2.94,2.94,2.8,2.81,3388000
2014-12-02,2.76,2.93,2.76,2.87,2832000
2014-12-03,2.85,2.85,2.77,2.8,2104000
2014-12-04,2.8,2.94,2.77,2.79,5377300
2014-12-05,2.81,2.82,2.69,2.71,3604000
2014-12-08,2.7,2.7,2.52,2.54,10980000
2014-12-09,2.54,2.54,2.22,2.39,14372000
2014-12-10,2.33,2.44,2.27,2.34,7392000
2014-12-11,2.33,2.44,2.26,2.41,3562000
2014-12-12,2.37,2.44,2.28,2.37,7440000
2014-12-15,2.36,2.64,2.28,2.46,6900000
2014-12-16,2.54,2.94,2.45,2.75,16739500
2014-12-17,2.8,3.01,2.73,2.79,18039000
2014-12-18,2.87,2.9,2.82,2.87,10192000
2014-12-19,2.85,2.93,2.72,2.87,10076000
2014-12-22,2.84,2.98,2.8,2.9,4982000
2014-12-23,2.95,2.95,2.82,2.88,2627000
2014-12-24,2.83,2.98,2.83,2.88,3234000
2014-12-29,2.92,2.92,2.84,2.86,634000
2014-12-30,2.83,2.87,2.75,2.8,6120000
2014-12-31,2.87,3.08,2.85,2.98,4276000
2015-01-02,3.1,3.13,3.0,3.09,5960000
2015-01-05,3.09,3.15,3.05,3.12,4322000
2015-01-06,3.08,3.15,2.95,3.06,4812000
2015-01-07,3.06,3.12,3.01,3.05,3746000
2015-01-08,3.1,3.14,3.07,3.09,3484000
2015-01-09,3.1,3.16,2.95,2.99,7100000
2015-01-12,2.97,3.05,2.9,3.04,3832000
2015-01-13,3.05,3.09,2.97,2.98,1976000
2015-01-14,2.97,2.97,2.75,2.83,4682000
2015-01-15,2.87,2.87,2.76,2.78,4448000
2015-01-16,2.78,2.78,2.6,2.66,5306000
2015-01-17,3.65,3.65,3.65,3.65,0
2015-01-19,2.66,2.73,2.53,2.66,3649300
2015-01-20,2.66,2.67,2.6,2.65,2128000
2015-01-21,2.62,2.77,2.62,2.66,4650000
2015-01-22,2.65,2.68,2.6,2.6,1910000
2015-01-23,2.6,2.73,2.6,2.69,2670000
2015-01-26,2.69,2.71,2.63,2.69,2926000
2015-01-27,2.71,2.82,2.71,2.76,4114000
2015-01-28,2.76,2.85,2.76,2.79,2672800
2015-01-29,2.86,2.86,2.73,2.76,1744000
2015-01-30,2.75,2.9,2.73,2.83,2070000
2015-02-02,2.8,2.96,2.8,2.89,3382000
2015-02-03,2.87,2.92,2.78,2.8,2715072
2015-02-04,2.82,2.83,2.68,2.7,5632000
2015-02-05,2.76,2.78,2.65,2.73,3694400
2015-02-06,2.69,2.75,2.67,2.71,2920000
2015-02-09,2.68,2.79,2.67,2.79,1132900
2015-02-10,2.77,2.88,2.76,2.85,2015200
2015-02-11,2.83,2.9,2.77,2.87,2096000
2015-02-12,2.84,2.86,2.77,2.78,956000
2015-02-13,2.78,2.87,2.78,2.82,1883400
2015-02-16,2.82,2.89,2.74,2.78,2124000
2015-02-17,2.8,2.94,2.8,2.93,4832000
2015-02-18,2.9,2.94,2.89,2.93,972000
2015-02-23,2.93,2.93,2.84,2.85,1268000
2015-02-24,2.9,2.9,2.81,2.89,1154620
2015-02-25,2.88,2.88,2.82,2.87,798000
2015-02-26,2.87,2.88,2.79,2.85,978880
2015-02-27,2.84,2.84,2.76,2.78,1874000
2015-03-02,2.79,2.84,2.73,2.77,1042000
2015-03-03,2.75,2.78,2.71,2.73,972000
2015-03-04,2.77,2.77,2.7,2.75,1056000
2015-03-05,2.75,2.75,2.65,2.66,2166000
2015-03-06,2.66,2.7,2.65,2.69,472000
2015-03-09,2.69,2.73,2.67,2.71,1008000
2015-03-10,2.73,2.74,2.64,2.68,1790000
2015-03-11,2.67,2.67,2.59,2.62,2842000
2015-03-12,2.6,2.69,2.59,2.66,1392000
2015-03-13,2.66,2.67,2.59,2.6,2128000
2015-03-16,2.52,2.63,2.52,2.57,3071080
2015-03-17,2.66,3.04,2.66,2.98,16553820
2015-03-18,2.98,3.1,2.97,2.99,11899000
2015-03-19,3.0,3.03,2.93,2.98,3844000
2015-03-20,2.98,3.02,2.94,3.0,2648000
2015-03-23,3.0,3.25,2.98,3.1,10426000
2015-03-24,3.19,3.2,3.13,3.16,3644340
2015-03-25,3.16,3.18,3.07,3.12,5207000
2015-03-26,3.08,3.39,3.06,3.31,9802000
2015-03-27,3.3,3.8,3.3,3.8,16005000
2015-03-30,3.79,3.85,3.52,3.71,9074974
2015-03-31,3.72,4.15,3.65,3.83,15489000
2015-04-01,3.8,4.02,3.8,3.97,10726000
2015-04-02,4.0,4.28,4.0,4.26,19164000
2015-04-08,4.38,5.0,4.38,4.75,25294500
2015-04-09,4.84,5.0,4.25,4.63,27560000
2015-04-10,4.63,4.74,4.41,4.61,17653600
2015-04-13,4.63,4.75,4.6,4.73,11846560
2015-04-14,4.73,4.73,4.6,4.62,11150620
2015-04-15,4.62,4.73,4.51,4.54,9379600
2015-04-16,4.7,4.74,4.58,4.72,7083220
2015-04-17,4.73,4.87,4.67,4.75,8190000
2015-04-20,4.7,4.71,4.39,4.51,11222100
2015-04-21,4.58,4.67,4.54,4.66,6311867
2015-04-22,4.77,4.77,4.51,4.58,2924000
2015-04-23,4.63,4.64,4.49,4.5,6700000
2015-04-24,4.59,4.6,4.48,4.59,4490000
2015-04-27,4.63,4.64,4.42,4.55,6638950
2015-04-28,4.6,4.62,4.44,4.47,4657434
2015-04-29,4.45,4.52,4.3,4.51,6000000
2015-04-30,4.48,4.48,4.29,4.32,4603000
2015-05-04,4.3,4.3,4.0,4.15,5743080
2015-05-05,4.29,4.29,3.95,3.98,4268000
2015-05-06,3.98,4.08,3.82,3.93,4670000
2015-05-07,3.97,4.08,3.7,3.74,4564000
2015-05-08,3.83,4.05,3.83,3.95,4349200
2015-05-11,4.1,4.24,4.02,4.21,5517000
2015-05-12,4.21,4.25,3.99,4.02,4341737
2015-05-13,4.03,4.09,3.88,3.93,2782778
2015-05-14,3.93,4.06,3.9,3.98,1828000
2015-05-15,4.06,4.06,3.96,4.05,1537688
2015-05-18,4.09,4.09,3.99,4.04,2154002
2015-05-19,4.05,4.05,3.9,3.93,2152000
2015-05-20,3.96,3.97,3.75,3.8,5671000
2015-05-21,3.76,3.76,3.57,3.66,6154000
2015-05-22,3.68,4.1,3.68,4.03,9665000
2015-05-26,4.04,4.31,4.04,4.08,3392000
2015-05-27,4.18,4.18,3.97,4.02,1878040
2015-05-28,4.02,4.02,3.83,3.93,2754000
2015-05-29,3.87,3.96,3.82,3.9,2638000
2015-06-01,3.94,3.95,3.77,3.94,2874000
2015-06-02,3.9,3.92,3.75,3.87,2898000
2015-06-03,3.84,3.87,3.71,3.75,4280000
2015-06-04,3.72,3.9,3.68,3.76,4018000
2015-06-05,3.76,3.85,3.73,3.8,3644000
2015-06-08,3.83,3.85,3.78,3.81,1283080
2015-06-09,3.78,3.8,3.62,3.67,3052000
2015-06-10,3.8,3.8,3.55,3.66,4034000
2015-06-11,3.68,3.68,3.58,3.58,1695700
2015-06-12,3.58,3.61,3.47,3.52,2995200
2015-06-15,3.53,3.68,3.53,3.67,3490000
2015-06-16,3.64,3.64,3.55,3.58,1368000
2015-06-17,3.64,3.64,3.56,3.57,2400000
2015-06-18,3.63,3.67,3.61,3.66,1800000
2015-06-19,3.74,3.75,3.63,3.66,2275743
2015-06-22,3.63,3.67,3.55,3.6,746000
2015-06-23,3.64,3.75,3.6,3.75,2275435
2015-06-24,3.74,3.92,3.74,3.8,4858000
2015-06-25,3.88,3.88,3.76,3.81,1202000
2015-06-26,3.85,3.88,3.78,3.88,3044000
2015-06-29,3.96,3.97,3.43,3.6,3652000
2015-06-30,3.72,3.72,3.49,3.6,2928762
2015-07-02,3.8,3.8,3.51,3.58,3726000
2015-07-03,3.61,3.61,3.48,3.54,2610000
2015-07-06,3.52,3.57,2.91,3.06,9210000
2015-07-07,2.96,3.19,2.91,2.95,5073579
2015-07-08,2.91,2.99,2.63,2.93,10956000
2015-07-09,2.9,3.23,2.89,3.18,6148742
2015-07-10,3.26,3.43,3.19,3.26,3870000
2015-07-13,3.19,3.33,3.12,3.18,3676779
2015-07-14,3.23,3.31,3.19,3.28,3600000
2015-07-15,3.31,3.39,3.16,3.25,2332000
2015-07-16,3.17,3.35,3.17,3.28,1174000
2015-07-17,3.35,3.49,3.3,3.35,1768000
2015-07-20,3.38,3.66,3.38,3.5,1470240
2015-07-21,3.56,3.56,3.41,3.42,1178000
2015-07-22,3.32,3.48,3.32,3.45,1330000
2015-07-23,3.4,3.5,3.38,3.43,508096
2015-07-24,3.37,3.5,3.37,3.41,5516000
2015-07-27,3.37,3.37,3.2,3.28,2348000
2015-07-28,3.21,3.35,3.15,3.21,2910000
2015-07-29,3.27,3.32,3.22,3.31,925734
2015-07-30,3.37,3.49,3.35,3.41,1270028
2015-07-31,3.47,3.54,3.4,3.46,1630000
2015-08-03,3.46,3.46,3.35,3.36,872000
2015-08-04,3.35,3.44,3.27,3.39,706000
2015-08-05,3.42,3.46,3.37,3.43,1302000
2015-08-06,3.44,3.67,3.44,3.61,2734000
2015-08-07,3.61,3.69,3.55,3.58,1594000
2015-08-10,3.65,3.73,3.65,3.69,2212000
2015-08-11,3.68,3.78,3.68,3.69,716000
2015-08-12,3.61,3.63,3.51,3.53,1560000
2015-08-13,3.59,3.61,3.53,3.61,504144
2015-08-14,3.61,3.61,3.4,3.5,2412523
2015-08-17,3.47,3.53,3.39,3.41,1504000
2015-08-18,3.46,3.58,3.43,3.46,1334000
2015-08-19,3.5,3.5,3.3,3.33,1306000
2015-08-20,3.37,3.37,3.26,3.29,2528000
2015-08-21,3.26,3.26,3.0,3.01,3034000
2015-08-24,2.86,3.0,2.73,2.99,5754000
2015-08-25,2.9,3.07,2.84,2.86,6215158
2015-08-26,2.85,2.96,2.72,2.9,2976000
2015-08-27,2.98,3.04,2.91,2.99,1584000
2015-08-28,3.1,3.3,3.1,3.2,3100000
2015-08-31,2.97,3.26,2.97,3.21,2184000
2015-09-01,3.05,3.26,3.01,3.05,2524000
2015-09-02,3.12,3.12,2.88,2.92,2368000
2015-09-04,2.96,3.09,2.88,3.0,5894000
2015-09-07,3.0,3.13,2.95,2.98,644000
2015-09-08,3.07,3.16,3.0,3.1,1124000
2015-09-09,3.16,3.25,3.16,3.23,1390000
2015-09-10,3.27,3.3,3.16,3.18,772000
2015-09-11,3.27,3.3,3.16,3.19,776000
2015-09-14,3.34,3.4,3.18,3.25,1134000
2015-09-15,3.29,3.29,3.07,3.09,1044000
2015-09-16,3.11,3.14,3.03,3.11,1696240
2015-09-17,3.14,3.16,3.04,3.15,1444000
2015-09-18,3.2,3.2,3.14,3.2,1793854
2015-09-21,3.19,3.19,3.11,3.18,914000
2015-09-22,3.2,3.23,3.11,3.23,974000
2015-09-23,3.22,3.38,3.15,3.22,1312258
2015-09-24,3.28,3.29,3.15,3.23,1350000
2015-09-25,3.28,3.33,3.0,3.22,2148065
2015-09-29,3.17,3.2,2.83,2.95,3798379
2015-09-30,2.97,3.0,2.86,2.92,4050000
2015-10-02,2.92,2.98,2.86,2.92,3360183
2015-10-05,2.97,3.02,2.87,2.91,6599000
2015-10-06,2.99,3.01,2.93,2.97,1600000
2015-10-07,2.94,3.06,2.94,3.05,2898000
2015-10-08,3.06,3.14,3.01,3.04,1969191
2015-10-09,3.12,3.13,3.06,3.1,572000
2015-10-12,3.12,3.15,3.09,3.1,1501158
2015-10-13,3.15,3.15,3.06,3.11,856000
2015-10-14,3.06,3.23,3.05,3.22,4394256
2015-10-15,3.22,3.5,3.2,3.47,3558000
2015-10-16,3.46,3.65,3.42,3.58,4234400
2015-10-19,3.61,3.64,3.46,3.53,1890000
2015-10-20,3.59,3.61,3.49,3.5,1541086
2015-10-22,3.43,3.47,3.3,3.41,816400
2015-10-23,3.5,3.58,3.46,3.47,2036000
2015-10-26,3.55,3.55,3.44,3.47,547407
2015-10-27,3.52,3.52,3.4,3.52,608973
2015-10-28,3.42,3.52,3.35,3.39,1048000
2015-10-29,3.37,3.38,3.28,3.31,912000
2015-10-30,3.26,3.28,3.13,3.18,1034000
2015-11-02,3.28,3.28,3.08,3.13,2163263
2015-11-03,3.16,3.22,3.08,3.13,1785000
2015-11-04,3.21,3.3,3.15,3.28,1874768
2015-11-05,3.31,3.32,3.16,3.22,1811700
2015-11-06,3.13,3.23,3.13,3.19,684000
2015-11-09,3.2,3.23,3.16,3.19,750357
2015-11-10,3.27,3.27,3.12,3.16,570000
2015-11-11,3.13,3.23,3.05,3.07,1300000
2015-11-12,3.08,3.15,3.03,3.05,1178000
2015-11-13,3.05,3.14,3.05,3.12,648000
2015-11-16,3.02,3.17,3.02,3.14,538101
2015-11-17,3.2,3.3,3.19,3.27,1706000
2015-11-18,3.25,3.29,3.21,3.24,352000
2015-11-19,3.28,3.34,3.25,3.3,810000
2015-11-20,3.31,3.32,3.26,3.29,351600
2015-11-23,3.27,3.35,3.27,3.32,312316
2015-11-24,3.29,3.34,3.26,3.28,544000
2015-11-25,3.33,3.33,3.21,3.23,460429
2015-11-26,3.3,3.3,3.19,3.22,776507
2015-11-27,3.26,3.29,3.21,3.28,1401298
2015-11-30,3.3,3.3,3.25,3.29,552560
2015-12-01,3.3,3.31,3.26,3.31,761028
2015-12-02,3.4,3.4,3.28,3.35,1108000
2015-12-03,3.38,3.43,3.31,3.4,1924512
2015-12-04,3.36,3.39,3.34,3.37,184000
2015-12-07,3.4,3.4,3.3,3.31,214008
2015-12-08,3.39,3.39,3.22,3.22,528688
2015-12-09,3.27,3.29,3.2,3.24,718000
2015-12-10,3.2,3.21,3.2,3.21,8000
2015-12-11,3.22,3.24,3.1,3.15,915000
2015-12-14,3.03,3.12,3.03,3.09,978004
2015-12-15,3.06,3.13,3.02,3.03,736000
2015-12-16,3.07,3.16,3.07,3.11,1164000
2015-12-17,3.12,3.18,3.11,3.13,550080
2015-12-18,3.1,3.14,3.07,3.08,1061195
2015-12-21,3.02,3.11,3.02,3.08,732000
2015-12-22,3.11,3.17,3.09,3.11,786000
2015-12-23,3.13,3.13,3.07,3.08,1598000
2015-12-24,3.09,3.11,3.02,3.07,1142000
2015-12-28,3.03,3.15,3.03,3.04,787700
2015-12-29,3.03,3.06,3.02,3.02,774000
2015-12-30,3.03,3.07,3.03,3.06,598000
2015-12-31,3.1,3.1,3.03,3.04,30000
2016-01-04,3.04,3.09,2.96,3.04,572012
2016-01-05,3.04,3.04,2.92,2.96,743223
2016-01-06,3.15,3.15,2.93,2.99,820880
2016-01-07,3.04,3.04,2.84,2.9,1526000
2016-01-08,2.9,2.93,2.85,2.86,426000
2016-01-11,2.82,2.93,2.57,2.91,3589000
2016-01-12,2.91,2.95,2.79,2.91,979000
2016-01-13,2.9,2.94,2.87,2.93,640000
2016-01-14,2.89,2.89,2.8,2.86,2146676
2016-01-15,2.9,2.9,2.83,2.85,186000
2016-01-18,2.79,2.79,2.69,2.7,620000
2016-01-19,2.72,2.75,2.67,2.7,894000
2016-01-20,2.75,2.75,2.64,2.67,2791000
2016-01-21,2.6,2.73,2.57,2.65,1054000
2016-01-22,2.69,2.7,2.62,2.66,816000
2016-01-25,2.7,2.72,2.61,2.67,1107046
2016-01-26,2.61,2.63,2.51,2.61,2056000
2016-01-27,2.52,2.61,2.52,2.6,1438000
2016-01-28,2.57,2.65,2.54,2.6,458000
2016-01-29,2.64,2.68,2.59,2.61,588000
2016-02-01,2.64,2.64,2.6,2.61,344000
2016-02-02,2.6,2.7,2.58,2.69,1033048
2016-02-03,2.64,2.7,2.57,2.7,1150000
2016-02-04,2.72,2.74,2.69,2.72,344000
2016-02-05,2.72,2.75,2.7,2.73,1050000
2016-02-11,2.61,2.72,2.59,2.72,1638000
2016-02-12,2.68,2.76,2.68,2.72,1358000
2016-02-15,2.74,2.75,2.67,2.74,644000
2016-02-16,2.75,2.82,2.73,2.8,738000
2016-02-17,2.67,2.79,2.67,2.79,340000
2016-02-18,2.86,2.88,2.8,2.84,812000
2016-02-19,2.84,2.9,2.84,2.86,656000
2016-02-22,2.85,2.87,2.83,2.85,610000
2016-02-23,2.88,2.88,2.77,2.8,606000
2016-02-24,2.8,2.8,2.73,2.75,534000
2016-02-25,2.76,2.78,2.71,2.74,904000
2016-02-26,2.77,2.79,2.71,2.78,180100
2016-02-29,2.73,2.75,2.69,2.72,936000
2016-03-01,2.74,2.78,2.69,2.74,842000
2016-03-02,2.86,2.88,2.78,2.79,1388000
2016-03-03,2.84,2.85,2.79,2.81,644000
2016-03-04,2.83,2.85,2.75,2.81,628000
2016-03-07,2.84,2.86,2.82,2.82,776000
2016-03-08,2.8,2.83,2.78,2.79,979818
2016-03-09,2.81,2.82,2.75,2.81,756000
2016-03-10,2.74,2.8,2.72,2.77,510000
2016-03-11,2.77,2.82,2.69,2.78,1196000
2016-03-14,2.82,2.84,2.72,2.77,977400
2016-03-15,2.77,2.77,2.73,2.77,374000
2016-03-16,2.78,2.82,2.76,2.77,358000
2016-03-17,2.8,2.83,2.78,2.79,994000
2016-03-18,2.8,2.84,2.79,2.83,717622
2016-03-21,2.85,3.02,2.85,2.94,1596000
2016-03-22,2.96,2.96,2.85,2.87,728000
2016-03-23,2.85,3.06,2.85,2.91,2075380
2016-03-24,2.87,2.95,2.86,2.9,1134000
2016-03-29,2.92,2.94,2.72,2.8,3134000
2016-03-30,2.8,2.82,2.74,2.78,590000
2016-03-31,2.78,2.8,2.76,2.79,1058046
2016-04-01,2.78,2.81,2.76,2.78,1167212
2016-04-05,2.81,2.83,2.75,2.78,1060000
2016-04-06,2.81,2.81,2.76,2.78,960000
2016-04-07,2.78,2.81,2.76,2.8,602000
2016-04-08,2.77,2.81,2.77,2.8,704000
2016-04-11,2.82,2.82,2.77,2.79,1512000
2016-04-12,2.82,2.82,2.77,2.77,400000
2016-04-13,2.8,2.87,2.76,2.79,2290000
2016-04-14,2.83,2.86,2.77,2.8,1742000
2016-04-15,2.8,2.8,2.77,2.78,449223
2016-04-18,2.77,2.8,2.76,2.78,565223
2016-04-19,2.78,2.8,2.76,2.78,1218012
2016-04-20,2.8,2.8,2.68,2.72,3440000
2016-04-21,2.76,2.81,2.71,2.72,1646000
2016-04-22,2.71,2.77,2.66,2.71,2476000
2016-04-25,2.7,2.72,2.65,2.7,1652000
2016-04-26,2.7,2.7,2.62,2.67,4124075
2016-04-27,2.66,2.68,2.59,2.6,2828000
2016-04-28,2.65,2.68,2.62,2.65,1812000
2016-04-29,2.64,2.66,2.63,2.65,318000
2016-05-03,2.65,2.66,2.64,2.65,1020000
2016-05-04,2.67,2.67,2.58,2.61,845623
2016-05-05,2.61,2.62,2.59,2.6,1128000
2016-05-06,2.6,2.62,2.58,2.6,1925223
2016-05-09,2.6,2.61,2.54,2.6,930000
2016-05-10,2.6,2.61,2.56,2.6,746000
2016-05-11,2.62,2.62,2.51,2.57,2450000
2016-05-12,2.51,2.57,2.47,2.52,2964000
2016-05-13,2.52,2.62,2.52,2.59,1204000
2016-05-16,2.47,2.6,2.47,2.59,415700
2016-05-17,2.6,2.63,2.59,2.61,512000
2016-05-18,2.59,2.64,2.59,2.61,951700
2016-05-19,2.62,2.63,2.58,2.61,574000
2016-05-20,2.6,2.61,2.58,2.61,296000
2016-05-23,2.6,2.61,2.57,2.6,1113603
2016-05-24,2.6,2.62,2.6,2.6,102097
2016-05-25,2.64,2.64,2.6,2.62,432000
2016-05-26,2.59,2.61,2.55,2.61,824000
2016-05-27,2.62,2.63,2.58,2.61,314000
2016-05-30,2.6,2.63,2.6,2.61,114000
2016-05-31,2.58,2.77,2.56,2.75,1790587
2016-06-01,2.73,2.73,2.64,2.69,760000
2016-06-02,2.7,2.7,2.62,2.65,388000
2016-06-03,2.66,2.69,2.65,2.68,503246
2016-06-06,2.63,2.67,2.57,2.62,574000
2016-06-07,2.65,2.67,2.64,2.67,540192
2016-06-08,2.7,2.73,2.63,2.67,441223
2016-06-10,2.68,2.68,2.64,2.65,473000
2016-06-13,2.64,2.65,2.58,2.59,458000
2016-06-14,2.6,2.6,2.58,2.6,512187
2016-06-15,2.59,2.6,2.57,2.59,302000
2016-06-16,2.59,2.59,2.56,2.59,470000
2016-06-17,2.6,2.63,2.55,2.6,1060000
2016-06-20,2.6,2.6,2.53,2.56,512000
2016-06-21,2.55,2.58,2.49,2.56,726000
2016-06-22,2.56,2.6,2.55,2.59,174000
2016-06-23,2.58,2.59,2.56,2.59,88000
2016-06-24,2.57,2.58,2.46,2.54,916000
2016-06-27,2.54,2.6,2.4,2.51,868000
2016-06-28,2.53,2.54,2.48,2.5,362000
2016-06-29,2.51,2.58,2.5,2.52,674000
2016-06-30,2.56,2.59,2.5,2.53,1060000
2016-07-04,2.55,2.59,2.54,2.57,600000
2016-07-05,2.57,2.6,2.57,2.59,268000
2016-07-06,2.6,2.6,2.55,2.57,290000
2016-07-07,2.57,2.57,2.43,2.52,3432000
2016-07-08,2.53,2.58,2.5,2.53,534000
2016-07-11,2.54,2.54,2.48,2.52,736000
2016-07-12,2.53,2.56,2.43,2.51,1878000
2016-07-13,2.51,2.53,2.45,2.5,880000
2016-07-14,2.51,2.53,2.42,2.44,1992000
2016-07-15,2.44,2.48,2.41,2.42,440000
2016-07-18,2.43,2.45,2.34,2.38,3458000
2016-07-19,2.38,2.39,2.24,2.27,3038000
2016-07-20,2.27,2.28,2.19,2.23,3027170
2016-07-21,2.24,2.27,2.2,2.24,30852000
2016-07-22,2.25,2.38,2.24,2.34,6520000
2016-07-25,2.37,2.38,2.33,2.36,3918000
2016-07-26,2.36,2.37,2.33,2.35,718000
2016-07-27,2.35,2.35,2.34,2.35,1108000
2016-07-28,2.35,2.35,2.31,2.34,578869
2016-07-29,2.34,2.34,2.23,2.31,1321400
2016-08-01,2.33,2.34,2.32,2.33,2022000
2016-08-03,2.33,2.33,2.28,2.32,1300000
2016-08-04,2.32,2.38,2.32,2.36,1454052
2016-08-05,2.37,2.37,2.29,2.33,1002000
2016-08-08,2.33,2.35,2.29,2.33,3500046
2016-08-09,2.33,2.35,2.27,2.31,2989400
2016-08-10,2.3,2.32,2.27,2.31,564000
2016-08-11,2.3,2.31,2.28,2.3,192000
2016-08-12,2.29,2.3,2.27,2.29,1146000
2016-08-15,2.29,2.34,2.27,2.32,1026000
2016-08-16,2.34,2.34,2.29,2.3,1324000
2016-08-17,2.28,2.35,2.28,2.32,4341700
2016-08-18,2.32,2.44,2.32,2.39,3753734
2016-08-19,2.41,2.48,2.41,2.45,6136000
2016-08-22,2.45,2.47,2.35,2.4,2359500
2016-08-23,2.38,2.41,2.34,2.34,368000
2016-08-24,2.36,2.36,2.32,2.33,1126000
2016-08-25,2.34,2.35,2.28,2.29,704000
2016-08-26,2.3,2.34,2.28,2.33,2352000
2016-08-29,2.34,2.36,2.33,2.36,564000
2016-08-30,2.38,2.38,2.31,2.32,1090000
2016-08-31,2.33,2.33,2.3,2.3,518000
2016-09-01,2.31,2.36,2.31,2.34,1001669
2016-09-02,2.35,2.37,2.31,2.36,1070000
2016-09-05,2.35,2.38,2.31,2.35,471700
2016-09-06,2.33,2.41,2.33,2.34,938000
2016-09-07,2.33,2.37,2.33,2.34,634000
2016-09-08,2.34,2.36,2.32,2.34,1443223
2016-09-09,2.33,2.35,2.3,2.31,1125000
2016-09-12,2.27,2.3,2.23,2.24,1436000
2016-09-13,2.24,2.25,2.21,2.23,1012000
2016-09-14,2.23,2.23,2.16,2.2,5266000
2016-09-15,2.2,2.2,2.14,2.15,1380600
2016-09-19,2.16,2.22,2.15,2.18,2896000
2016-09-20,2.18,2.21,2.18,2.2,752000
2016-09-21,2.2,2.2,2.18,2.2,718000
2016-09-22,2.21,2.24,2.19,2.21,1824080
2016-09-23,2.23,2.23,2.15,2.17,1844000
2016-09-26,2.15,2.18,2.08,2.17,4426000
2016-09-27,2.18,2.18,2.12,2.14,898800
2016-09-28,2.12,2.12,2.07,2.09,2760000
2016-09-29,2.14,2.14,2.08,2.1,3934002
2016-09-30,2.08,2.11,2.07,2.08,1516000
2016-10-03,2.08,2.12,2.08,2.09,1072000
2016-10-04,2.1,2.21,2.1,2.17,4400000
2016-10-05,2.16,2.21,2.16,2.19,2467376
2016-10-06,2.2,2.21,2.14,2.16,11546000
2016-10-07,2.16,2.16,2.13,2.15,5484000
2016-10-11,2.16,2.16,2.11,2.13,1494000
2016-10-12,2.13,2.14,2.11,2.13,6240000
2016-10-13,2.14,2.16,2.06,2.1,3508000
2016-10-14,2.12,2.12,2.08,2.1,554000
2016-10-17,2.11,2.12,2.05,2.11,1540000
2016-10-18,2.13,2.14,2.11,2.14,1946544
2016-10-19,2.15,2.15,2.1,2.13,3488000
2016-10-20,2.15,2.15,2.04,2.07,3172400
2016-10-24,2.08,2.16,2.08,2.15,3468000
2016-10-25,2.15,2.16,2.1,2.11,2740000
2016-10-26,2.1,2.1,2.05,2.08,3940000
2016-10-27,2.09,2.09,2.01,2.06,3326000
2016-10-28,2.06,2.06,2.02,2.04,1092000
2016-10-31,2.05,2.05,1.97,2.0,3261376
2016-11-01,1.99,2.04,1.97,2.01,3540000
2016-11-02,2.0,2.05,2.0,2.04,2960000
2016-11-03,2.05,2.07,2.02,2.05,3876000
2016-11-04,2.03,2.05,1.99,2.03,5574000
2016-11-07,2.04,2.04,1.99,2.01,1704000
2016-11-08,2.03,2.04,1.98,2.03,3992000
2016-11-09,2.0,2.05,2.0,2.04,3538000
2016-11-10,2.05,2.06,2.02,2.06,1156000
2016-11-11,2.05,2.05,2.01,2.05,1196000
2016-11-14,2.05,2.07,2.04,2.05,4186000
2016-11-15,2.05,2.09,2.05,2.09,1174000
2016-11-16,2.09,2.11,1.96,2.04,23186000
2016-11-17,2.03,2.06,1.99,2.06,1660000
2016-11-18,2.07,2.07,2.04,2.06,2480000
2016-11-21,2.07,2.08,2.04,2.08,648000
2016-11-22,2.1,2.18,2.09,2.16,2508000
2016-11-23,2.19,2.21,2.17,2.2,2156000
2016-11-24,2.21,2.21,2.15,2.19,1842000
2016-11-25,2.2,2.21,2.17,2.2,936000
2016-11-28,2.19,2.19,2.08,2.08,1752000
2016-11-29,2.06,2.09,2.05,2.06,3338752
2016-11-30,2.07,2.15,2.05,2.12,3822000
2016-12-01,2.13,2.24,2.13,2.16,2466000
2016-12-02,2.14,2.17,2.11,2.12,1418000
2016-12-05,2.1,2.17,2.1,2.13,3924062
2016-12-06,2.15,2.16,2.13,2.13,1552000
2016-12-07,2.15,2.15,2.08,2.11,1208000
2016-12-08,2.14,2.14,2.08,2.1,628000
2016-12-09,2.1,2.1,2.03,2.07,3318752
2016-12-12,2.09,2.14,2.04,2.07,1890000
2016-12-13,2.08,2.08,2.03,2.06,1448000
2016-12-14,2.05,2.08,2.03,2.07,1324000
2016-12-15,2.05,2.07,2.03,2.06,895000
2016-12-16,2.02,2.08,2.01,2.04,2160597
2016-12-19,2.07,2.09,2.02,2.06,689376
2016-12-20,2.04,2.05,2.02,2.04,902000
2016-12-21,2.04,2.11,2.03,2.1,2185690
2016-12-22,2.11,2.12,2.05,2.06,716000
2016-12-23,2.04,2.08,2.03,2.07,296000
2016-12-28,2.06,2.06,2.0,2.03,1662000
2016-12-29,2.01,2.04,2.01,2.04,204903
2016-12-30,2.06,2.06,2.02,2.06,974400
2017-01-03,2.05,2.08,2.01,2.05,645500
2017-01-04,2.06,2.08,2.05,2.08,964000
2017-01-05,2.1,2.16,2.07,2.1,638400
2017-01-06,2.1,2.1,2.06,2.09,462259
2017-01-09,2.08,2.1,2.03,2.06,1588000
2017-01-10,2.07,2.07,2.03,2.06,1666000
2017-01-11,2.07,2.07,2.04,2.05,310000
2017-01-12,2.05,2.08,2.02,2.07,1242752
2017-01-13,2.07,2.08,2.03,2.06,1502000
2017-01-16,2.1,2.1,2.04,2.06,1020000
2017-01-17,2.09,2.09,2.03,2.06,436000
2017-01-18,2.07,2.08,2.05,2.07,1090000
2017-01-19,2.08,2.08,2.01,2.05,1430000
2017-01-20,2.04,2.05,2.03,2.04,531517
2017-01-23,2.04,2.13,2.04,2.1,1372000
2017-01-24,2.09,2.1,2.04,2.07,1708000
2017-01-25,2.08,2.09,2.05,2.09,818000
2017-01-26,2.09,2.1,2.06,2.09,936000
2017-01-27,2.09,2.11,2.07,2.11,449463
2017-02-01,2.09,2.12,2.07,2.08,1065376
2017-02-02,2.08,2.12,2.08,2.1,1246211
2017-02-03,2.1,2.17,2.08,2.13,2632400
2017-02-06,2.15,2.42,2.15,2.35,9822000
2017-02-07,2.45,4.2,2.4,3.03,42958000
2017-02-08,3.08,3.22,2.95,3.05,16989000
2017-02-09,3.1,3.11,2.98,3.05,5862000
2017-02-10,3.08,3.08,2.98,3.04,5790000
2017-02-13,3.05,3.07,2.95,3.0,6720000
2017-02-14,3.01,3.03,2.98,2.99,4094000
2017-02-15,2.99,3.02,2.82,2.94,9510000
2017-02-16,2.9,2.98,2.85,2.88,3189168
2017-02-17,2.88,3.04,2.87,2.95,5281168
2017-02-20,2.95,3.05,2.95,2.98,3226000
2017-02-21,3.02,3.03,2.97,2.98,2522000
2017-02-22,3.01,3.01,2.92,2.95,4176000
2017-02-23,2.98,2.98,2.92,2.95,3170000
2017-02-24,2.95,2.95,2.89,2.9,3178448
2017-02-27,2.93,2.93,2.83,2.84,2348000
2017-02-28,2.88,2.89,2.81,2.82,2936000
2017-03-01,2.83,2.85,2.7,2.74,4746000
2017-03-02,2.79,2.84,2.72,2.72,4740000
2017-03-03,2.72,2.76,2.68,2.7,2981788
2017-03-06,2.71,2.74,2.69,2.7,1938000
2017-03-07,2.68,2.91,2.68,2.81,8310000
2017-03-08,2.81,2.81,2.73,2.75,2470000
2017-03-09,2.75,2.75,2.6,2.61,4129000
2017-03-10,2.61,2.69,2.6,2.68,2275300
2017-03-13,2.67,2.7,2.61,2.62,2070000
2017-03-14,2.62,2.63,2.52,2.55,2402000
2017-03-15,2.51,2.57,2.48,2.53,4428000
2017-03-16,2.51,2.62,2.51,2.53,4934000
2017-03-17,2.5,2.57,2.46,2.5,5300000
2017-03-20,2.52,2.7,2.5,2.6,7698000
2017-03-21,2.6,2.66,2.53,2.57,2904000
2017-03-22,2.38,2.43,2.36,2.38,11669000
2017-03-23,2.46,2.56,2.44,2.55,8328000
2017-03-24,2.55,2.59,2.45,2.48,4966000
2017-03-27,2.44,2.45,2.4,2.43,2653000
2017-03-28,2.42,2.43,2.38,2.42,2014000
2017-03-29,2.41,2.42,2.36,2.4,2486000
2017-03-30,2.4,2.4,2.31,2.32,5078000
2017-03-31,2.35,2.37,2.17,2.22,5972000
2017-04-03,2.21,2.38,2.2,2.37,2558000
2017-04-05,2.36,2.5,2.34,2.44,4012000
2017-04-06,2.44,2.46,2.37,2.41,1915000
2017-04-07,2.43,2.43,2.34,2.41,2002000
2017-04-10,2.4,2.42,2.39,2.4,1144000
2017-04-11,2.43,2.43,2.38,2.42,1282000
2017-04-12,2.39,2.52,2.39,2.49,2559000
2017-04-13,2.47,2.53,2.43,2.43,1056000
2017-04-18,2.41,2.42,2.26,2.3,3988000
2017-04-19,2.3,2.34,2.22,2.31,3220000
2017-04-20,2.3,2.33,2.28,2.32,1619000
2017-04-21,2.32,2.38,2.32,2.37,1206000
2017-04-24,2.37,2.37,2.3,2.32,904000
2017-04-25,2.35,2.39,2.35,2.39,1836000
2017-04-26,2.37,2.42,2.34,2.41,2202000
2017-04-27,2.44,2.44,2.38,2.39,1514000
2017-04-28,2.4,2.4,2.33,2.35,1810600
2017-05-02,2.38,2.38,2.33,2.34,1411400
2017-05-04,2.34,2.34,2.3,2.32,2966586
2017-05-05,2.33,2.33,2.22,2.3,1575000
2017-05-08,2.3,2.37,2.29,2.35,1827100
2017-05-09,2.38,2.43,2.33,2.38,2778000
2017-05-10,2.41,2.42,2.36,2.42,2318000
2017-05-11,2.42,2.48,2.42,2.48,2878000
2017-05-12,2.49,2.55,2.47,2.54,2248000
2017-05-15,2.56,2.63,2.47,2.47,5106000
2017-05-16,2.47,2.56,2.47,2.54,1932000
2017-05-17,2.56,2.56,2.47,2.51,1506000
2017-05-18,2.5,2.5,2.41,2.41,2482000
2017-05-19,2.39,2.48,2.39,2.46,1244000
2017-05-22,2.49,2.52,2.47,2.47,2426000
2017-05-23,2.47,2.52,2.36,2.4,2924000
2017-05-24,2.42,2.44,2.39,2.43,1062000
2017-05-25,2.42,2.5,2.39,2.43,5082000
2017-05-26,2.44,2.46,2.4,2.43,1444000
2017-05-29,2.42,2.45,2.41,2.44,440000
2017-05-31,2.43,2.48,2.38,2.4,1904019
2017-06-01,2.4,2.5,2.39,2.5,2959798
2017-06-02,2.5,2.5,2.4,2.43,804000
2017-06-05,2.43,2.48,2.42,2.47,618000
2017-06-06,2.48,2.48,2.41,2.42,1132000
2017-06-07,2.46,2.46,2.38,2.4,1719900
2017-06-08,2.39,2.41,2.39,2.39,1024000
2017-06-09,2.41,2.43,2.39,2.39,1294000
2017-06-12,2.4,2.42,2.39,2.4,620000
2017-06-13,2.4,2.43,2.39,2.4,596000
2017-06-14,2.41,2.46,2.41,2.45,1636000
2017-06-15,2.43,2.43,2.4,2.41,254000
2017-06-16,2.43,2.44,2.39,2.4,870207
2017-06-19,2.45,2.48,2.4,2.46,1154000
2017-06-20,2.46,2.48,2.45,2.47,926000
2017-06-21,2.47,2.47,2.41,2.42,818080
2017-06-22,2.41,2.47,2.41,2.47,805000
2017-06-23,2.48,2.58,2.48,2.57,5036000
2017-06-26,2.57,2.64,2.5,2.51,1816000
2017-06-27,2.53,2.56,2.41,2.48,2252000
2017-06-28,2.48,2.48,2.42,2.42,826000
2017-06-29,2.46,2.46,2.41,2.43,920000
2017-06-30,2.41,2.42,2.32,2.39,1115000
2017-07-03,2.37,2.44,2.37,2.4,541346
2017-07-04,2.4,2.42,2.37,2.39,1222000
2017-07-05,2.41,2.41,2.39,2.4,638000
2017-07-06,2.4,2.41,2.38,2.41,784000
2017-07-07,2.39,2.4,2.38,2.38,652000
2017-07-10,2.4,2.41,2.38,2.39,714000
2017-07-11,2.37,2.4,2.36,2.4,1081775
2017-07-12,2.38,2.4,2.36,2.4,792000
2017-07-13,2.46,2.46,2.35,2.36,1146000
2017-07-14,2.36,2.38,2.35,2.36,506800
2017-07-17,2.36,2.38,2.35,2.37,490000
2017-07-18,2.35,2.35,2.27,2.33,3830000
2017-07-19,2.33,2.35,2.3,2.34,1289000
2017-07-20,2.33,2.33,2.3,2.33,628000
2017-07-21,2.33,2.34,2.31,2.33,544666
2017-07-24,2.35,2.35,2.3,2.32,994000
2017-07-25,2.31,2.32,2.27,2.3,1698000
2017-07-26,2.31,2.33,2.28,2.31,938000
2017-07-27,2.33,2.36,2.31,2.32,1601574
2017-07-28,2.31,2.32,2.29,2.31,892000
2017-07-31,2.3,2.31,2.27,2.31,1286000
2017-08-01,2.28,2.3,2.26,2.29,1405000
2017-08-02,2.29,2.3,2.28,2.29,874000
2017-08-03,2.28,2.3,2.26,2.29,916000
2017-08-04,2.3,2.3,2.27,2.3,338000
2017-08-07,2.29,2.29,2.25,2.28,836000
2017-08-08,2.26,2.29,2.24,2.27,956000
2017-08-09,2.25,2.27,2.23,2.27,1933000
2017-08-10,2.23,2.27,2.21,2.26,988400
2017-08-11,2.24,2.27,2.2,2.26,2020400
2017-08-14,2.23,2.26,2.21,2.25,668000
2017-08-15,2.22,2.25,2.18,2.19,2897000
2017-08-16,2.18,2.21,2.15,2.21,962000
2017-08-17,2.21,2.21,2.16,2.2,1324000
2017-08-18,2.18,2.2,2.13,2.2,1742000
2017-08-21,2.19,2.2,2.15,2.2,504000
2017-08-22,2.14,2.2,2.13,2.19,3494000
2017-08-24,2.19,2.19,2.15,2.16,884400
2017-08-25,2.14,2.15,2.12,2.13,2458000
2017-08-28,2.1,2.12,2.07,2.09,1086574
2017-08-29,2.09,2.12,2.07,2.11,1780000
2017-08-30,2.1,2.12,2.08,2.09,1314800
2017-08-31,2.1,2.11,2.07,2.08,992000
2017-09-01,2.05,2.12,2.04,2.09,998690
2017-09-04,2.08,2.1,2.07,2.1,326000
2017-09-05,2.09,2.11,2.07,2.11,610000
2017-09-06,2.11,2.11,2.05,2.09,960000
2017-09-07,2.08,2.1,2.07,2.1,600000
2017-09-08,2.1,2.11,2.04,2.05,1604000
2017-09-11,2.05,2.08,2.04,2.06,812000
2017-09-12,2.04,2.04,1.92,1.98,4936100
2017-09-13,1.99,2.06,1.98,2.05,1701346
2017-09-14,2.03,2.03,2.0,2.0,696000
2017-09-15,2.0,2.09,1.98,2.09,2956000
2017-09-18,2.07,2.11,2.07,2.1,914000
2017-09-19,2.07,2.09,2.01,2.05,986000
2017-09-20,2.02,2.05,2.0,2.03,1422000
2017-09-21,2.04,2.11,2.04,2.11,6292300
2017-09-22,2.1,2.17,2.1,2.14,2338000
2017-09-25,2.12,2.15,2.08,2.11,1440900
2017-09-26,2.14,2.14,2.08,2.13,1574000
2017-09-27,2.1,2.15,2.08,2.15,1334000
2017-09-28,2.17,2.17,2.1,2.13,766000
2017-09-29,2.1,2.13,2.1,2.13,654000
2017-10-03,2.16,2.16,2.06,2.16,737414
2017-10-04,2.16,2.2,2.15,2.19,1656000
2017-10-06,2.19,2.2,2.15,2.16,734000
2017-10-09,2.16,2.17,2.13,2.14,322000
2017-10-10,2.17,2.17,2.11,2.14,3064000
2017-10-11,2.15,2.15,2.1,2.13,1174000
2017-10-12,2.12,2.15,2.12,2.15,162000
2017-10-13,2.12,2.13,2.1,2.13,338000
2017-10-16,2.17,2.17,2.11,2.14,458000
2017-10-17,2.12,2.14,2.1,2.13,664000
2017-10-18,2.11,2.14,2.08,2.13,828000
2017-10-19,2.1,2.12,2.04,2.06,3452874
2017-10-20,2.08,2.08,2.06,2.08,1496000
2017-10-23,2.06,2.08,2.06,2.08,72000
2017-10-24,2.05,2.08,2.04,2.06,1058000
2017-10-25,2.05,2.05,2.03,2.04,644000
2017-10-26,2.02,2.04,2.02,2.03,472000
2017-10-27,2.03,2.04,2.02,2.02,582562
2017-10-30,2.02,2.05,2.01,2.05,706000
2017-10-31,2.05,2.06,1.98,1.99,3608000
2017-11-01,2.0,2.0,1.96,1.97,934606
2017-11-02,1.98,2.02,1.98,2.0,666000
2017-11-03,2.0,2.03,1.98,1.98,620000
2017-11-06,2.01,2.01,1.98,2.0,857900
2017-11-07,1.99,2.0,1.95,2.0,694000
2017-11-08,2.0,2.03,1.97,2.0,817700
2017-11-09,2.0,2.01,1.97,1.98,1041650
2017-11-10,2.0,2.0,1.97,1.98,530000
2017-11-13,1.98,2.0,1.95,1.96,442000
2017-11-14,1.97,2.0,1.97,2.0,420000
2017-11-15,2.0,2.01,1.98,2.0,662000
2017-11-16,2.0,2.03,1.97,2.0,596000
2017-11-17,1.97,1.99,1.96,1.99,550000
2017-11-20,1.99,1.99,1.93,1.98,1429414
2017-11-21,1.94,1.96,1.88,1.96,2138000
2017-11-22,1.9,1.96,1.88,1.89,3322000
2017-11-23,1.88,1.91,1.88,1.9,1244000
2017-11-24,1.88,1.92,1.88,1.91,1420000
2017-11-27,1.91,1.91,1.85,1.88,1648000
2017-11-28,1.88,1.88,1.83,1.85,2002000
2017-11-29,1.85,1.86,1.82,1.84,1672000
2017-11-30,1.83,1.83,1.78,1.81,1148000
2017-12-01,1.8,1.84,1.78,1.8,1420000
2017-12-04,1.8,1.84,1.78,1.84,1086000
2017-12-05,1.88,1.88,1.8,1.82,988000
2017-12-06,1.81,1.82,1.77,1.8,1690000
2017-12-07,1.77,1.81,1.75,1.8,2132000
2017-12-08,1.81,1.81,1.75,1.8,1378000
2017-12-11,1.8,1.82,1.78,1.79,1130000
2017-12-12,1.79,1.8,1.77,1.79,602000
2017-12-13,1.77,1.78,1.74,1.77,1618000
2017-12-14,1.75,1.77,1.7,1.73,3968000
2017-12-15,1.73,1.75,1.72,1.75,2116000
2017-12-18,1.73,1.77,1.72,1.73,1142000
2017-12-19,1.73,1.78,1.68,1.75,1486380
2017-12-20,1.74,1.78,1.73,1.76,698000
2017-12-21,1.78,1.8,1.77,1.8,558000
2017-12-22,1.83,1.83,1.78,1.79,2400000
2017-12-27,1.81,1.97,1.81,1.93,4062000
2017-12-28,1.92,1.93,1.89,1.93,1443366
2017-12-29,1.9,2.05,1.9,2.05,2904000
2018-01-02,2.07,2.08,2.03,2.03,1054000
2018-01-03,2.02,2.16,2.02,2.16,3547000
2018-01-04,2.16,2.17,2.14,2.16,1100600
2018-01-05,2.17,2.17,2.11,2.14,2034380
2018-01-08,2.14,2.27,2.12,2.22,3530000
2018-01-09,2.22,2.23,2.16,2.16,1060000
2018-01-10,2.2,2.22,2.16,2.2,940000
2018-01-11,2.2,2.2,2.1,2.14,1856000
2018-01-12,2.1,2.17,2.1,2.13,822000
2018-01-15,2.12,2.17,2.1,2.1,1762000
2018-01-16,2.1,2.16,2.1,2.14,832000
2018-01-17,2.09,2.11,2.05,2.06,1150000
2018-01-18,2.05,2.09,2.01,2.02,1410000
2018-01-19,2.0,2.07,2.0,2.07,843450
2018-01-22,2.03,2.07,2.0,2.01,1204000
2018-01-23,2.03,2.05,2.0,2.0,1030000
2018-01-24,1.98,2.05,1.98,2.04,1547700
2018-01-25,2.04,2.11,2.03,2.05,808000
2018-01-26,2.05,2.05,2.01,2.04,802132
2018-01-29,2.0,2.08,1.95,2.03,994000
2018-01-30,2.01,2.03,1.98,2.03,794433
2018-01-31,1.98,2.03,1.95,1.97,4430000
2018-02-01,2.0,2.0,1.98,1.98,384000
2018-02-02,1.98,2.02,1.97,1.98,388000
2018-02-05,1.96,1.98,1.93,1.98,1170000
2018-02-06,1.96,1.96,1.82,1.96,2216000
2018-02-07,1.94,1.96,1.87,1.88,1752000
2018-02-08,1.88,1.9,1.84,1.89,264000
2018-02-09,1.86,1.89,1.77,1.87,3768000
2018-02-12,1.84,1.87,1.81,1.86,750000
2018-02-13,1.83,1.88,1.83,1.86,486000
2018-02-14,1.86,1.91,1.83,1.9,415000
2018-02-15,1.91,1.95,1.85,1.91,395000
2018-02-20,1.92,1.92,1.88,1.91,166000
2018-02-21,1.89,1.93,1.88,1.91,904000
2018-02-22,1.88,1.89,1.83,1.87,1706000
2018-02-23,1.87,1.88,1.84,1.87,756000
2018-02-26,1.88,1.89,1.87,1.88,864000
2018-02-27,1.9,1.9,1.81,1.85,2678000
2018-02-28,1.85,1.86,1.81,1.84,1610000
2018-03-01,1.84,1.87,1.84,1.87,140000
2018-03-02,1.84,1.85,1.82,1.85,622000
2018-03-05,1.84,1.87,1.81,1.86,864000
2018-03-06,1.86,1.89,1.86,1.88,300000
2018-03-07,1.88,1.89,1.86,1.89,598000
2018-03-08,1.89,1.93,1.87,1.89,490380
2018-03-09,1.89,1.91,1.88,1.9,712000
2018-03-12,1.91,1.97,1.89,1.91,1830000
2018-03-13,1.95,1.95,1.92,1.92,184000
2018-03-14,1.94,1.94,1.89,1.91,1922802
2018-03-15,1.91,1.91,1.88,1.91,438000
2018-03-16,1.88,1.95,1.87,1.95,848000
2018-03-19,1.95,1.99,1.93,1.98,1112000
2018-03-20,1.96,1.98,1.95,1.98,162000
2018-03-21,1.94,2.0,1.94,1.98,544000
2018-03-22,1.96,1.96,1.89,1.89,1020140
2018-03-23,1.86,1.86,1.84,1.84,1244000
2018-03-26,1.85,1.86,1.8,1.83,1314000
2018-03-27,1.82,1.85,1.79,1.79,1766000
2018-03-28,1.8,1.82,1.79,1.81,702000
2018-03-29,1.82,1.83,1.79,1.79,1460000
2018-04-03,1.8,1.81,1.72,1.77,2758000
2018-04-04,1.77,1.77,1.74,1.77,664000
2018-04-06,1.77,1.8,1.76,1.8,728060
2018-04-09,1.81,1.81,1.75,1.77,1738000
2018-04-10,1.75,1.83,1.74,1.83,1038400
2018-04-11,1.83,1.84,1.81,1.82,614000
2018-04-12,1.84,1.84,1.8,1.84,174000
2018-04-13,1.84,1.84,1.8,1.81,248000
2018-04-16,1.8,1.8,1.78,1.8,424000
2018-04-17,1.79,1.79,1.76,1.79,238000
2018-04-18,1.79,1.8,1.75,1.8,962000
2018-04-19,1.8,1.86,1.78,1.83,1696000
2018-04-20,1.87,1.87,1.85,1.87,2412000
2018-04-23,1.85,1.85,1.8,1.82,616000
2018-04-24,1.82,1.83,1.81,1.83,56000
2018-04-25,1.8,1.85,1.8,1.84,1150000
2018-04-26,1.81,1.81,1.8,1.8,282000
2018-04-27,1.81,1.81,1.76,1.8,240000
2018-04-30,1.8,1.83,1.78,1.83,236200
2018-05-02,1.82,1.82,1.79,1.8,148000
2018-05-03,1.79,1.8,1.76,1.79,962000
2018-05-04,1.76,1.78,1.75,1.76,2782000
2018-05-07,1.79,1.8,1.76,1.77,400000
2018-05-08,1.76,1.78,1.75,1.77,270000
2018-05-09,1.75,1.78,1.73,1.74,4700000
2018-05-10,1.74,1.79,1.74,1.78,3514000
2018-05-11,1.75,1.78,1.74,1.78,218000
2018-05-14,1.74,1.77,1.74,1.77,542000
2018-05-15,1.74,1.76,1.74,1.76,1288000
2018-05-16,1.74,1.76,1.74,1.75,185007
2018-05-17,1.75,1.77,1.75,1.76,492000
2018-05-18,1.75,1.82,1.74,1.79,1688000
2018-05-21,1.77,1.82,1.74,1.75,1141000
2018-05-23,1.75,1.76,1.73,1.73,902000
2018-05-24,1.73,1.79,1.71,1.72,1478000
2018-05-25,1.72,1.75,1.72,1.75,342200
2018-05-28,1.75,1.75,1.71,1.73,301300
2018-05-29,1.71,1.73,1.69,1.73,1368000
2018-05-30,1.7,1.72,1.68,1.72,811554
2018-05-31,1.68,1.75,1.58,1.66,2914000
2018-06-01,1.61,1.7,1.61,1.7,1580000
2018-06-04,1.68,1.7,1.57,1.62,2848000
2018-06-05,1.61,1.62,1.58,1.59,8026000
2018-06-06,1.57,1.62,1.52,1.6,3682000
2018-06-07,1.62,1.62,1.56,1.61,1638000
2018-06-08,1.62,1.62,1.58,1.58,318000
2018-06-11,1.58,1.6,1.55,1.59,1742000
2018-06-12,1.6,1.61,1.54,1.6,1616000
2018-06-13,1.58,1.6,1.56,1.58,300000
2018-06-14,1.56,1.6,1.52,1.59,3968000
2018-06-15,1.56,1.56,1.51,1.51,1322000
2018-06-19,1.51,1.53,1.42,1.45,1724000
2018-06-20,1.47,1.47,1.45,1.46,1125400
2018-06-21,1.48,1.48,1.45,1.46,1614080
2018-06-22,1.45,1.53,1.44,1.45,5793000
2018-06-25,1.46,1.52,1.45,1.52,888000
2018-06-26,1.49,1.6,1.48,1.58,1742000
2018-06-27,1.58,1.6,1.48,1.59,4854000
2018-06-28,1.52,1.61,1.52,1.59,2448000
2018-06-29,1.54,1.62,1.54,1.6,1488000
2018-07-03,1.56,1.62,1.53,1.62,1678000
2018-07-04,1.62,1.64,1.57,1.62,1218000
2018-07-05,1.61,1.66,1.56,1.65,1340000
2018-07-06,1.62,1.66,1.58,1.59,5170620
2018-07-09,1.6,1.69,1.6,1.68,5686310
2018-07-10,1.69,1.79,1.68,1.76,5870000
2018-07-11,1.72,1.79,1.68,1.77,3834000
2018-07-12,1.77,1.79,1.72,1.77,5402000
2018-07-13,1.76,1.78,1.74,1.78,5520100
2018-07-16,1.75,1.8,1.74,1.8,902000
2018-07-17,1.79,1.84,1.79,1.8,2762000
2018-07-18,1.79,1.8,1.78,1.8,1324000
2018-07-19,1.78,1.81,1.77,1.8,1496000
2018-07-20,1.8,1.82,1.78,1.81,3054000
2018-07-23,1.81,1.82,1.79,1.82,1114000
2018-07-24,1.84,1.84,1.77,1.83,1864200
2018-07-25,1.84,1.86,1.82,1.85,626000
2018-07-26,1.83,1.94,1.83,1.91,3658000
2018-07-27,1.91,1.93,1.88,1.91,5672000
2018-07-30,1.93,1.93,1.89,1.93,3177604
2018-07-31,1.94,1.94,1.9,1.94,2486396
2018-08-01,1.94,1.98,1.93,1.96,3450000
2018-08-02,1.93,1.98,1.93,1.98,2732000
2018-08-03,1.98,1.99,1.95,1.99,2578000
2018-08-06,1.98,2.01,1.98,2.0,2334000
2018-08-07,1.99,2.0,1.97,2.0,4628000
2018-08-08,2.0,2.0,1.97,1.97,2056000
2018-08-09,1.99,2.0,1.96,2.0,2184000
2018-08-10,1.97,2.0,1.97,2.0,2111000
2018-08-13,1.97,2.01,1.97,2.0,2074000
2018-08-14,1.99,2.0,1.97,2.0,2366000
2018-08-15,1.99,2.0,1.94,1.98,3954000
2018-08-16,1.95,1.98,1.93,1.96,3996000
2018-08-17,1.97,1.98,1.94,1.96,2076000
2018-08-20,1.94,1.96,1.93,1.96,2178000
2018-08-21,1.95,1.97,1.88,1.97,2514000
2018-08-22,1.95,1.96,1.92,1.94,2600080
2018-08-23,1.96,1.96,1.88,1.88,2204000
2018-08-24,1.85,1.93,1.65,1.9,1718000
2018-08-27,1.92,1.94,1.89,1.92,1456874
2018-08-28,1.94,1.99,1.9,1.99,23754000
2018-08-29,2.0,2.09,2.0,2.07,13792000
2018-08-30,2.06,2.08,1.9,2.08,9118000
2018-08-31,2.09,2.09,2.04,2.09,5542000
2018-09-03,2.08,2.16,2.04,2.11,4022000
2018-09-04,2.11,2.17,2.11,2.13,3206889
2018-09-05,2.13,2.17,2.13,2.14,2818000
2018-09-06,2.17,2.17,2.11,2.15,2592000
2018-09-07,2.16,2.17,2.11,2.16,3546000
2018-09-10,2.15,2.17,2.12,2.17,3684000
2018-09-11,2.15,2.2,2.15,2.19,3902001
2018-09-12,2.2,2.22,2.18,2.21,3240000
2018-09-13,2.23,2.25,2.21,2.24,4368700
2018-09-14,2.25,2.33,2.25,2.3,4154000
2018-09-17,2.29,2.3,2.28,2.3,2028000
2018-09-18,2.28,2.3,2.27,2.3,4620000
2018-09-19,2.3,2.3,2.26,2.3,4552000
2018-09-20,2.3,2.33,2.27,2.31,3360666
2018-09-21,2.35,2.35,2.32,2.34,4910000
2018-09-24,2.35,2.37,2.3,2.35,2914000
2018-09-26,2.36,2.4,2.34,2.39,4080000
2018-09-27,2.4,2.4,2.37,2.4,2306000
2018-09-28,2.4,2.46,2.39,2.43,2926000
2018-10-02,2.46,2.47,2.4,2.45,3085361
2018-10-03,2.5,2.5,2.45,2.49,2778000
2018-10-04,2.48,2.51,2.47,2.51,3558000
2018-10-05,2.52,2.54,2.49,2.53,2036080
2018-10-08,2.53,2.58,2.52,2.56,2224000
2018-10-09,2.57,2.6,2.5,2.58,2424678
2018-10-10,2.6,2.6,2.57,2.59,2978008
2018-10-11,2.5,2.58,2.4,2.54,8326000
2018-10-12,2.53,2.59,2.53,2.56,2758400
2018-10-15,2.56,2.61,2.54,2.6,2776000
2018-10-16,2.61,2.65,2.61,2.63,3368000
2018-10-18,2.64,2.66,2.61,2.66,2412000
2018-10-19,2.66,2.69,2.64,2.67,3626000
2018-10-22,2.68,2.71,2.67,2.71,3760000
2018-10-23,2.7,2.76,2.7,2.76,2490000
2018-10-24,2.74,2.8,2.73,2.78,3528000
2018-10-25,2.8,2.81,2.75,2.8,2532000
2018-10-26,2.82,2.83,2.78,2.82,3581600
2018-10-29,2.84,2.84,2.8,2.83,1964000
2018-10-30,2.85,2.85,2.3,2.8,7904000
2018-10-31,2.82,2.85,2.72,2.84,2354000
2018-11-01,2.85,2.86,2.83,2.84,1986000
2018-11-02,2.84,2.86,2.8,2.85,3005000
2018-11-05,2.85,2.86,2.72,2.8,3280000
2018-11-06,2.81,2.84,2.76,2.8,4524000
2018-11-07,2.8,2.95,2.8,2.89,5012000
2018-11-08,2.91,2.91,2.85,2.89,2065600
2018-11-09,2.87,2.94,2.86,2.9,1730000
2018-11-12,2.9,2.93,2.88,2.93,1228000
2018-11-13,2.91,2.94,2.84,2.94,2300000
2018-11-14,2.94,2.94,2.9,2.94,1188000
2018-11-15,2.95,2.95,2.9,2.94,2600220
2018-11-16,2.92,2.96,2.89,2.96,2124966
2018-11-19,2.97,2.97,2.9,2.95,3180000
2018-11-20,2.95,2.95,2.9,2.95,2384000
2018-11-21,2.95,2.96,2.9,2.96,2716000
2018-11-22,2.96,2.97,2.9,2.95,2364000
2018-11-23,2.96,2.96,2.92,2.95,1838000
2018-11-26,2.93,2.95,2.86,2.95,4596000
2018-11-27,2.95,2.97,2.93,2.95,7664000
2018-11-28,2.95,2.95,2.91,2.92,3144000
2018-11-29,2.93,2.95,2.83,2.9,3558000
2018-11-30,2.9,2.95,2.85,2.89,4410000
2018-12-03,2.89,2.89,2.76,2.86,2534000
2018-12-04,2.87,2.87,2.71,2.76,3804000
2018-12-05,2.76,2.8,2.7,2.78,3004000
2018-12-06,2.77,2.78,2.72,2.76,1282000
2018-12-07,2.76,2.76,2.7,2.76,1370000
2018-12-10,2.72,2.72,2.58,2.62,2358000
2018-12-11,2.55,2.6,2.39,2.5,7427000
2018-12-12,2.45,2.53,2.42,2.5,4406000
2018-12-13,2.52,2.61,2.51,2.57,2878000
2018-12-14,2.6,2.65,2.58,2.61,1562000
2018-12-17,2.65,2.66,2.62,2.65,1082000
2018-12-18,2.68,2.82,2.64,2.74,1632000
2018-12-19,2.75,2.76,2.7,2.72,1114000
2018-12-20,2.75,2.75,2.65,2.72,1494000
2018-12-21,2.67,2.74,2.65,2.71,1284000
2018-12-24,2.67,2.69,2.55,2.64,858000
2018-12-27,2.6,2.64,2.51,2.54,1358740
2018-12-28,2.58,2.59,2.49,2.57,1084806
2018-12-31,2.55,2.6,2.53,2.56,768000
2019-01-02,2.59,2.59,2.47,2.55,840000
2019-01-03,2.56,2.56,2.5,2.56,460000
2019-01-04,2.5,2.58,2.49,2.55,718000
2019-01-07,2.59,2.62,2.56,2.62,1240220
2019-01-08,2.6,2.63,2.53,2.6,922124
2019-01-09,2.63,2.72,2.6,2.63,1498000
2019-01-10,2.66,2.69,2.61,2.66,1218000
2019-01-11,2.66,2.7,2.62,2.65,1037700
2019-01-14,2.68,2.68,2.55,2.57,1116000
2019-01-15,2.6,2.6,2.54,2.58,1106000
2019-01-16,2.59,2.67,2.55,2.56,1108000
2019-01-17,2.59,2.59,2.51,2.57,1664000
2019-01-18,2.6,2.63,2.51,2.56,830000
2019-01-21,2.57,2.6,2.54,2.59,172000
2019-01-22,2.6,2.66,2.5,2.56,3398000
2019-01-23,2.59,2.6,2.53,2.54,758000
2019-01-24,2.59,2.6,2.51,2.57,936000
2019-01-25,2.61,2.61,2.5,2.51,1112000
2019-01-28,2.49,2.52,2.37,2.51,1344000
2019-01-29,2.51,2.53,2.43,2.49,1394000
2019-01-30,2.52,2.52,2.48,2.51,1302000
2019-01-31,2.48,2.53,2.47,2.53,1730000
2019-02-01,2.5,2.54,2.41,2.54,1542000
2019-02-04,2.54,2.55,2.5,2.54,160000
2019-02-08,2.51,2.55,2.48,2.55,244000
2019-02-11,2.52,2.59,2.52,2.58,314000
2019-02-12,2.54,2.56,2.5,2.55,570000
2019-02-13,2.52,2.55,2.52,2.53,222000
2019-02-14,2.5,2.55,2.48,2.52,1154000
2019-02-15,2.49,2.52,2.46,2.49,524000
2019-02-18,2.48,2.5,2.41,2.47,1102000
2019-02-19,2.52,2.54,2.45,2.49,1518044
2019-02-20,2.53,2.6,2.47,2.56,1946000
2019-02-21,2.56,2.59,2.54,2.58,1218000
2019-02-22,2.54,2.55,2.5,2.5,1930000
2019-02-25,2.55,2.55,2.47,2.5,1972000
2019-02-26,2.53,2.54,2.42,2.5,2174000
2019-02-27,2.52,2.54,2.47,2.52,1272000
2019-02-28,2.48,2.5,2.41,2.44,1910000
2019-03-01,2.48,2.5,2.41,2.42,952000
2019-03-04,2.41,2.45,2.36,2.39,1292000
2019-03-05,2.4,2.42,2.35,2.38,1084000
2019-03-06,2.36,2.38,2.31,2.34,1062000
2019-03-07,2.31,2.35,2.26,2.34,1462000
2019-03-08,2.36,2.39,2.33,2.34,1032000
2019-03-11,2.35,2.35,2.24,2.34,1978000
2019-03-12,2.32,2.35,2.27,2.29,954000
2019-03-13,2.31,2.36,2.3,2.31,1076000
2019-03-14,2.31,2.35,2.28,2.31,914000
2019-03-15,2.32,2.51,2.25,2.46,2860000
2019-03-18,2.46,2.46,2.36,2.38,1342000
2019-03-19,2.36,2.37,2.32,2.35,1202000
2019-03-20,2.34,2.34,2.25,2.31,1976000
2019-03-21,2.3,2.34,2.25,2.32,1346000
2019-03-22,2.35,2.35,2.26,2.32,1895770
2019-03-25,2.37,2.37,2.28,2.32,2440000
2019-03-26,2.34,2.35,2.27,2.31,1184000
2019-03-27,2.31,2.36,2.27,2.29,2548000
2019-03-28,2.28,2.29,2.24,2.28,1256000
2019-03-29,2.29,2.34,2.23,2.24,1748000
2019-04-01,2.25,2.27,2.22,2.24,846000
2019-04-02,2.24,2.27,2.23,2.27,1072000
2019-04-03,2.24,2.27,2.21,2.24,1264000
2019-04-04,2.25,2.26,2.22,2.25,758000
2019-04-08,2.25,2.27,2.15,2.22,2046000
2019-04-09,2.21,2.26,2.18,2.25,2016370
2019-04-10,2.24,2.26,2.16,2.2,1130290
2019-04-11,2.21,2.24,2.16,2.2,1168000
2019-04-12,2.18,2.22,2.17,2.2,978000
2019-04-15,2.2,2.2,2.16,2.19,1150000
2019-04-16,2.2,2.24,2.18,2.21,1558000
2019-04-17,2.22,2.25,2.17,2.18,1272000
2019-04-18,2.2,2.2,2.16,2.16,798000
2019-04-23,2.18,2.2,2.13,2.15,1591276
2019-04-24,2.14,2.19,2.11,2.15,782133
2019-04-25,2.15,2.16,2.0,2.08,3048000
2019-04-26,2.12,2.14,2.08,2.14,1743770
2019-04-29,2.14,2.17,2.09,2.1,1164000
2019-04-30,2.14,2.17,2.11,2.16,1046500
2019-05-02,2.19,2.23,2.11,2.12,2020000
2019-05-03,2.14,2.16,2.1,2.11,1793876
2019-05-06,2.1,2.11,2.07,2.09,1379982
2019-05-07,2.09,2.1,2.05,2.08,1548000
2019-05-08,2.08,2.09,2.04,2.07,1134000
2019-05-09,2.07,2.07,2.0,2.03,1486000
2019-05-10,2.01,2.08,1.98,2.01,3094000
2019-05-14,1.99,2.07,1.94,1.99,1497885
2019-05-15,1.99,2.02,1.99,1.99,1804385
2019-05-16,2.0,2.04,1.98,2.01,1180000
2019-05-17,2.01,2.04,1.99,2.02,1458000
2019-05-20,2.0,2.0,1.94,1.99,1239045
2019-05-21,1.96,2.01,1.96,1.99,1596000
2019-05-22,1.99,2.0,1.96,1.99,644000
2019-05-23,1.98,2.0,1.93,1.94,1288000
2019-05-24,1.92,1.98,1.91,1.95,842000
2019-05-27,1.92,1.97,1.9,1.97,1346000
2019-05-28,1.94,1.97,1.87,1.91,1744377
2019-05-29,1.89,1.98,1.87,1.9,2212000
2019-05-30,1.9,1.9,1.85,1.89,998000
2019-05-31,1.88,1.88,1.82,1.87,3414370
2019-06-03,1.88,1.89,1.83,1.84,264000
2019-06-04,1.84,1.88,1.79,1.87,3493592
2019-06-05,1.86,1.87,1.8,1.85,3074000
2019-06-06,1.85,1.88,1.81,1.86,2032000
2019-06-10,1.87,1.87,1.78,1.86,3626000
2019-06-11,1.82,1.85,1.8,1.85,3422000
2019-06-12,1.82,1.83,1.76,1.8,3016000
2019-06-13,1.77,1.83,1.75,1.78,3838000
2019-06-14,1.79,1.8,1.74,1.75,1392000
2019-06-17,1.71,1.78,1.71,1.76,5744361
2019-06-18,1.77,1.78,1.74,1.76,6144000
2019-06-19,1.78,1.81,1.75,1.79,6688000
2019-06-20,1.8,1.82,1.74,1.75,6546000
2019-06-21,1.76,1.81,1.74,1.76,3578000
2019-06-24,1.78,1.78,1.75,1.75,644000
2019-06-25,1.76,1.8,1.72,1.73,1086000
2019-06-26,1.72,1.75,1.68,1.71,2592000
2019-06-27,1.71,1.78,1.71,1.77,1508000
2019-06-28,1.77,1.79,1.76,1.77,1128000
2019-07-02,1.76,1.82,1.76,1.78,658000
2019-07-03,1.78,1.8,1.75,1.75,2604000
2019-07-04,1.74,1.76,1.73,1.75,748000
2019-07-05,1.75,1.76,1.72,1.75,384000
2019-07-08,1.72,1.76,1.69,1.72,4952060
2019-07-09,1.72,1.75,1.66,1.72,606000
2019-07-10,1.74,1.75,1.67,1.71,2562107
2019-07-11,1.7,1.74,1.69,1.71,1304000
2019-07-12,1.73,1.77,1.71,1.72,910000
2019-07-15,1.76,1.78,1.72,1.73,634600
2019-07-16,1.74,1.74,1.68,1.69,1470000
2019-07-17,1.69,1.7,1.66,1.66,1432000
2019-07-18,1.69,1.73,1.66,1.69,1938000
2019-07-19,1.7,1.73,1.68,1.69,244000
2019-07-22,1.71,1.77,1.65,1.68,2549160
2019-07-23,1.68,1.69,1.66,1.67,196000
2019-07-24,1.66,1.67,1.66,1.67,558000
2019-07-25,1.67,1.68,1.65,1.67,794000
2019-07-26,1.67,1.69,1.64,1.66,408000
2019-07-29,1.66,1.66,1.64,1.66,122000
2019-07-30,1.66,1.66,1.62,1.66,542044
2019-07-31,1.67,1.67,1.6,1.66,1704000
2019-08-01,1.66,1.69,1.65,1.67,332000
2019-08-02,1.68,1.69,1.65,1.67,1136000
2019-08-05,1.69,1.75,1.65,1.68,536902
2019-08-06,1.69,1.74,1.64,1.68,736000
2019-08-07,1.69,1.69,1.62,1.67,968000
2019-08-08,1.68,1.72,1.63,1.64,634000
2019-08-09,1.67,1.68,1.64,1.68,254370
2019-08-12,1.67,1.69,1.63,1.68,500000
2019-08-13,1.68,1.68,1.62,1.65,1672000
2019-08-14,1.67,1.7,1.63,1.68,874000
2019-08-15,1.68,1.68,1.62,1.64,938000
2019-08-16,1.65,1.66,1.61,1.64,1038000
2019-08-19,1.64,1.66,1.61,1.66,756000
2019-08-20,1.66,1.67,1.65,1.66,134000
2019-08-21,1.66,1.66,1.63,1.66,209700
2019-08-22,1.65,1.67,1.6,1.65,1120000
2019-08-23,1.63,1.66,1.61,1.64,644000
2019-08-26,1.61,1.65,1.54,1.64,2782387
2019-08-27,1.6,1.66,1.6,1.63,6427097
2019-08-28,1.61,1.65,1.61,1.64,708000
2019-08-29,1.65,1.65,1.6,1.62,2530402
2019-08-30,1.64,1.64,1.59,1.62,1118890
2019-09-02,1.64,1.65,1.58,1.6,5182000
2019-09-03,1.6,1.6,1.56,1.58,1525000
2019-09-04,1.57,1.58,1.54,1.57,748000
2019-09-05,1.56,1.56,1.51,1.53,2270700
2019-09-06,1.55,1.6,1.52,1.6,668000
2019-09-09,1.58,1.6,1.54,1.56,1922000
2019-09-10,1.54,1.55,1.51,1.52,1086000
2019-09-11,1.5,1.55,1.5,1.54,1476000
2019-09-12,1.52,1.56,1.51,1.52,970575
2019-09-13,1.51,1.52,1.49,1.52,446000
2019-09-16,1.54,1.56,1.53,1.54,1546000
2019-09-17,1.54,1.57,1.52,1.54,2778900
2019-09-18,1.54,1.55,1.5,1.52,880000
2019-09-19,1.52,1.53,1.51,1.52,394000
2019-09-20,1.54,1.55,1.49,1.52,1860000
2019-09-23,1.53,1.54,1.44,1.51,3316000
2019-09-24,1.51,1.52,1.44,1.47,4935570
2019-09-25,1.51,1.51,1.47,1.49,612000
2019-09-26,1.5,1.5,1.46,1.47,62000
2019-09-27,1.49,1.5,1.44,1.48,2160000
2019-09-30,1.5,1.52,1.46,1.48,1521759
2019-10-02,1.5,1.5,1.44,1.48,490000
2019-10-03,1.47,1.48,1.44,1.47,690000
2019-10-04,1.46,1.48,1.46,1.47,474000
2019-10-08,1.47,1.49,1.42,1.47,1836000
2019-10-09,1.44,1.47,1.38,1.46,3572144
2019-10-10,1.47,1.47,1.39,1.43,652000
2019-10-11,1.44,1.44,1.41,1.42,292000
2019-10-14,1.44,1.44,1.4,1.42,345296
2019-10-15,1.44,1.44,1.4,1.41,1170560
2019-10-16,1.44,1.44,1.35,1.37,2369538
2019-10-17,1.39,1.4,1.34,1.4,1692000
2019-10-18,1.43,1.43,1.35,1.35,2004000
2019-10-21,1.37,1.37,1.29,1.33,2036000
2019-10-22,1.36,1.36,1.29,1.3,560000
2019-10-23,1.31,1.32,1.28,1.3,1420000
2019-10-24,1.35,1.35,1.28,1.3,544000
2019-10-25,1.32,1.34,1.29,1.29,858000
2019-10-28,1.31,1.31,1.26,1.29,1838846
2019-10-29,1.31,1.31,1.27,1.29,274000
2019-10-30,1.33,1.33,1.27,1.28,278000
2019-10-31,1.31,1.32,1.26,1.27,800000
2019-11-01,1.29,1.29,1.25,1.26,1408000
2019-11-04,1.28,1.31,1.26,1.27,980000
2019-11-05,1.29,1.29,1.23,1.25,1142000
2019-11-06,1.27,1.29,1.22,1.24,2846000
2019-11-07,1.26,1.26,1.23,1.24,752000
2019-11-08,1.26,1.26,1.22,1.25,952000
2019-11-11,1.26,1.26,1.19,1.23,1740000
2019-11-12,1.23,1.23,1.15,1.15,1592000
2019-11-13,1.19,1.19,1.08,1.13,4582000
2019-11-14,1.12,1.16,1.12,1.15,990000
2019-11-15,1.17,1.17,1.12,1.13,1092000
2019-11-18,1.15,1.2,1.15,1.2,2024000
2019-11-19,1.27,1.28,1.21,1.23,2256000
2019-11-20,1.25,1.25,1.18,1.18,870000
2019-11-21,1.23,1.23,1.14,1.18,2530000
2019-11-22,1.22,1.22,1.15,1.16,918000
2019-11-25,1.2,1.2,1.14,1.16,1012000
2019-11-26,1.19,1.2,1.13,1.15,648849
2019-11-27,1.17,1.17,1.1,1.14,408000
2019-11-28,1.13,1.15,1.1,1.15,1576000
2019-11-29,1.16,1.16,1.11,1.13,449776
2019-12-02,1.13,1.16,1.13,1.15,1602000
2019-12-03,1.17,1.17,1.12,1.13,1482000
2019-12-04,1.14,1.14,1.12,1.13,72000
2019-12-05,1.15,1.17,1.11,1.13,385600
2019-12-06,1.14,1.14,1.11,1.12,244000
2019-12-09,1.15,1.16,1.11,1.13,189900
2019-12-10,1.13,1.14,1.09,1.13,5697700
2019-12-11,1.13,1.13,1.1,1.1,168000
2019-12-12,1.12,1.13,1.1,1.11,1390000
2019-12-13,1.13,1.15,1.11,1.12,750000
2019-12-16,1.13,1.16,1.1,1.12,1052000
2019-12-17,1.14,1.14,1.11,1.13,448000
2019-12-18,1.14,1.17,1.11,1.14,1410360
2019-12-19,1.16,1.16,1.12,1.14,306000
2019-12-20,1.15,1.15,1.12,1.13,1933000
2019-12-23,1.14,1.14,1.12,1.13,1009705
2019-12-24,1.14,1.2,1.14,1.2,994000
2019-12-27,1.18,1.2,1.15,1.18,1458048
2019-12-30,1.19,1.19,1.15,1.17,1630000
2019-12-31,1.17,1.18,1.15,1.18,620000
2020-01-02,1.18,1.19,1.15,1.16,1988000
2020-01-03,1.17,1.17,1.15,1.16,1132000
2020-01-06,1.17,1.2,1.17,1.2,1006000
2020-01-07,1.2,1.2,1.19,1.2,1264000
2020-01-08,1.19,1.2,1.18,1.18,870000
2020-01-09,1.2,1.2,1.18,1.19,322000
2020-01-10,1.2,1.2,1.12,1.18,1388000
2020-01-13,1.19,1.19,1.1,1.17,1194000
2020-01-14,1.19,1.19,1.13,1.14,996000
2020-01-15,1.14,1.17,1.13,1.15,364000
2020-01-16,1.15,1.16,1.12,1.14,1212411
2020-01-17,1.13,1.16,1.12,1.14,1118000
2020-01-20,1.15,1.15,1.12,1.12,172000
2020-01-21,1.15,1.15,1.08,1.11,1444000
2020-01-22,1.12,1.16,1.11,1.13,694000
2020-01-23,1.14,1.17,1.11,1.13,1234000
2020-01-24,1.15,1.16,1.11,1.14,439917
2020-01-29,1.14,1.14,1.09,1.13,852000
2020-01-30,1.13,1.13,1.05,1.12,2374000
2020-01-31,1.14,1.14,1.02,1.1,1544000
2020-02-03,1.09,1.13,1.07,1.11,745000
2020-02-04,1.12,1.13,1.1,1.12,247800
2020-02-05,1.13,1.15,1.13,1.15,468000
2020-02-06,1.16,1.16,1.13,1.14,440000
2020-02-07,1.14,1.15,1.1,1.14,586000
2020-02-10,1.14,1.15,1.11,1.14,658000
2020-02-11,1.14,1.14,1.11,1.13,258000
2020-02-12,1.13,1.14,1.11,1.12,362000
2020-02-13,1.13,1.14,1.1,1.12,966000
2020-02-14,1.1,1.12,1.1,1.12,440000
2020-02-17,1.13,1.15,1.09,1.14,698083
2020-02-18,1.15,1.17,1.14,1.16,626000
2020-02-19,1.19,1.19,1.17,1.19,1295760
2020-02-20,1.19,1.19,1.17,1.19,460000
2020-02-21,1.2,1.2,1.17,1.19,174000
2020-02-24,1.17,1.19,1.16,1.18,232000
2020-02-25,1.18,1.21,1.18,1.19,1132000
2020-02-26,1.19,1.19,1.16,1.19,488000
2020-02-27,1.18,1.18,1.12,1.12,498000
2020-02-28,1.12,1.17,1.12,1.14,1724000
2020-03-02,1.15,1.18,1.13,1.13,412000
2020-03-03,1.15,1.17,1.13,1.17,214000
2020-03-04,1.17,1.25,1.15,1.24,1106000
2020-03-05,1.3,1.45,1.3,1.45,2652559
2020-03-06,1.45,1.45,1.34,1.34,370000
2020-03-09,1.31,1.33,1.15,1.24,1034000
2020-03-10,1.24,1.25,1.16,1.22,642000
2020-03-11,1.21,1.28,1.18,1.24,396000
2020-03-12,1.2,1.23,1.16,1.16,1996000
2020-03-13,1.14,1.19,1.1,1.15,579040
2020-03-16,1.14,1.2,1.13,1.2,410000
2020-03-17,1.14,1.26,1.14,1.21,776000
2020-03-18,1.21,1.23,1.13,1.18,98000
2020-03-19,1.18,1.18,1.0,1.18,1888000
2020-03-20,1.19,1.19,0.99,1.04,4818000
2020-03-23,1.02,1.09,0.88,1.08,2298000
2020-03-24,1.07,1.12,1.05,1.08,144000
2020-03-25,1.04,1.15,1.04,1.1,122000
2020-03-26,1.1,1.11,1.05,1.06,254000
2020-03-27,1.06,1.09,1.02,1.08,952997
2020-03-30,1.11,1.17,1.05,1.08,618000
2020-03-31,1.11,1.17,1.1,1.15,1174000
2020-04-01,1.14,1.17,1.11,1.15,1376800
2020-04-02,1.15,1.24,1.14,1.17,1730000
2020-04-03,1.18,1.22,1.16,1.17,1258000
2020-04-06,1.22,1.24,1.17,1.18,3072000
2020-04-07,1.18,1.19,1.15,1.17,852000
2020-04-08,1.17,1.18,1.12,1.17,1118000
2020-04-09,1.17,1.22,1.17,1.21,1480000
2020-04-14,1.19,1.19,1.13,1.17,1218000
2020-04-15,1.14,1.17,1.14,1.16,1449410
2020-04-16,1.18,1.2,1.17,1.18,1082000
2020-04-17,1.18,1.19,1.16,1.17,916000
2020-04-20,1.17,1.18,1.14,1.15,1222000
2020-04-21,1.13,1.18,1.11,1.12,1018000
2020-04-22,1.13,1.14,1.08,1.12,1600000
2020-04-23,1.14,1.15,1.09,1.1,2922000
2020-04-24,1.08,1.16,1.08,1.1,1458000
2020-04-27,1.1,1.11,1.08,1.08,996000
2020-04-28,1.06,1.09,1.01,1.08,1614000
2020-04-29,1.07,1.12,1.06,1.08,1348000
2020-05-04,1.04,1.04,0.95,1.0,3700000
2020-05-05,1.0,1.05,0.96,0.98,2730000
2020-05-06,1.0,1.03,0.96,0.99,2798000
2020-05-07,0.97,1.04,0.97,1.01,3720400
2020-05-08,0.99,1.01,0.97,0.97,2504800
2020-05-11,0.97,1.0,0.96,0.96,858000
2020-05-12,0.99,0.99,0.95,0.97,624000
2020-05-13,0.97,0.99,0.9,0.92,3660000
2020-05-14,0.91,0.93,0.83,0.9,7962000
2020-05-15,0.89,0.89,0.82,0.83,5277046
2020-05-18,0.83,0.83,0.72,0.72,8516000
2020-05-19,0.77,0.79,0.7,0.75,8444000
2020-05-20,0.75,0.78,0.72,0.77,11260000
2020-05-21,0.75,0.79,0.74,0.79,4450000
2020-05-22,0.8,0.8,0.76,0.78,1528000
2020-05-25,0.77,0.77,0.74,0.77,1278000
2020-05-26,0.78,0.79,0.74,0.76,602000
2020-05-27,0.74,0.78,0.74,0.78,3043410
2020-05-28,0.78,0.79,0.76,0.77,1856000
2020-05-29,0.74,0.76,0.71,0.71,8780619
2020-06-01,0.72,0.74,0.71,0.73,5296066
2020-06-02,0.75,0.77,0.72,0.74,1545900
2020-06-03,0.72,0.76,0.72,0.74,1759200
2020-06-04,0.74,0.75,0.73,0.73,1724000
2020-06-05,0.73,0.75,0.72,0.72,4856000
2020-06-08,0.75,0.75,0.71,0.72,3512000
2020-06-09,0.73,0.9,0.72,0.76,10156000
2020-06-10,0.76,0.79,0.72,0.74,6228000
2020-06-11,0.74,0.74,0.71,0.74,1430400
2020-06-12,0.72,0.73,0.71,0.72,1862000
2020-06-15,0.74,0.74,0.7,0.71,2386000
2020-06-16,0.71,0.73,0.71,0.71,560000
2020-06-17,0.71,0.74,0.71,0.74,176000
2020-06-18,0.74,0.77,0.72,0.75,6248000
2020-06-19,0.77,0.77,0.72,0.74,2002000
2020-06-22,0.74,0.75,0.72,0.74,3144000
2020-06-23,0.74,0.88,0.72,0.74,6368000
2020-06-24,0.74,0.77,0.72,0.75,2409000
2020-06-26,0.75,0.75,0.72,0.73,2092000
2020-06-29,0.74,0.76,0.73,0.74,1536000
2020-06-30,0.74,0.75,0.73,0.73,530000
2020-07-02,0.74,0.74,0.72,0.74,824000
2020-07-03,0.72,0.75,0.72,0.75,478000
2020-07-06,0.73,0.77,0.73,0.76,4164000
2020-07-07,0.77,0.77,0.74,0.77,2494000
2020-07-08,0.77,0.77,0.74,0.76,3624000
2020-07-09,0.76,0.76,0.74,0.76,262000
2020-07-10,0.74,0.75,0.71,0.74,778000
2020-07-13,0.73,0.74,0.72,0.74,3862000
2020-07-14,0.74,0.75,0.73,0.75,3362000
2020-07-15,0.75,0.75,0.73,0.75,586000
2020-07-16,0.75,0.76,0.74,0.75,1622000
2020-07-17,0.73,0.74,0.69,0.73,5410000
2020-07-20,0.73,0.73,0.71,0.73,846000
2020-07-21,0.73,0.74,0.71,0.74,334000
2020-07-22,0.73,0.74,0.72,0.73,4302000
2020-07-23,0.73,0.74,0.71,0.72,3542000
2020-07-24,0.72,0.72,0.69,0.71,2264000
2020-07-27,0.71,0.72,0.69,0.7,2096000
2020-07-28,0.69,0.7,0.68,0.69,1238000
2020-07-29,0.69,0.71,0.68,0.71,1552000
2020-07-30,0.7,0.71,0.69,0.69,1558000
2020-07-31,0.7,0.71,0.7,0.71,868000
2020-08-03,0.71,0.72,0.69,0.7,1696000
2020-08-04,0.7,0.7,0.67,0.7,3404581
2020-08-05,0.7,0.75,0.7,0.75,1714000
2020-08-06,0.75,0.75,0.72,0.74,3370000
2020-08-07,0.74,0.74,0.71,0.72,3724000
2020-08-10,0.72,0.73,0.71,0.72,1535000
2020-08-11,0.72,0.73,0.72,0.73,196000
2020-08-12,0.71,0.74,0.71,0.74,720000
2020-08-13,0.73,0.73,0.72,0.73,766000
2020-08-14,0.72,0.73,0.71,0.73,2606000
2020-08-17,0.71,0.73,0.71,0.73,2027000
2020-08-18,0.73,0.73,0.71,0.71,2504000
2020-08-19,0.71,0.72,0.7,0.7,66000
2020-08-20,0.7,0.71,0.69,0.7,1096000
2020-08-21,0.7,0.71,0.68,0.7,4393981
2020-08-24,0.7,0.71,0.7,0.71,3480000
2020-08-25,0.69,0.72,0.69,0.71,2550000
