Date,Open,High,Low,Close,Volume
2014-08-08,0.52,0.53,0.51,0.52,2478000
2014-08-11,0.52,0.52,0.5,0.52,2730100
2014-08-12,0.52,0.53,0.52,0.53,3496000
2014-08-13,0.53,0.53,0.52,0.53,3235870
2014-08-14,0.52,0.52,0.5,0.51,4200000
2014-08-15,0.5,0.53,0.5,0.51,6510000
2014-08-18,0.51,0.52,0.49,0.5,2231120
2014-08-19,0.5,0.51,0.49,0.495,4668750
2014-08-20,0.5,0.51,0.495,0.51,1344000
2014-08-21,0.51,0.52,0.495,0.51,2210800
2014-08-22,0.5,0.53,0.5,0.53,1554000
2014-08-25,0.52,0.52,0.51,0.52,2826000
2014-08-26,0.52,0.53,0.5,0.52,2314880
2014-08-27,0.5,0.51,0.49,0.5,2562000
2014-08-28,0.495,0.5,0.48,0.485,3580000
2014-08-29,0.485,0.485,0.47,0.475,3280000
2014-09-01,0.47,0.48,0.47,0.475,1160000
2014-09-02,0.48,0.485,0.475,0.48,371120
2014-09-03,0.48,0.495,0.48,0.495,2036000
2014-09-04,0.49,0.5,0.49,0.495,910000
2014-09-05,0.495,0.53,0.495,0.51,10537700
2014-09-08,0.51,0.52,0.51,0.51,700000
2014-09-10,0.5,0.51,0.495,0.5,3344000
2014-09-11,0.5,0.52,0.5,0.51,5196000
2014-09-12,0.51,0.51,0.5,0.51,1946000
2014-09-15,0.5,0.56,0.5,0.54,20692000
2014-09-16,0.53,0.55,0.52,0.52,5524000
2014-09-17,0.53,0.54,0.52,0.53,5088000
2014-09-18,0.53,0.53,0.51,0.51,5190000
2014-09-19,0.51,0.52,0.5,0.52,1795000
2014-09-22,0.52,0.52,0.5,0.51,2623430
2014-09-23,0.51,0.52,0.5,0.51,4330000
2014-09-24,0.51,0.55,0.51,0.53,14864000
2014-09-25,0.53,0.53,0.51,0.52,4770000
2014-09-26,0.51,0.52,0.5,0.52,5939600
2014-09-29,0.495,0.495,0.48,0.495,6254000
2014-09-30,0.48,0.495,0.48,0.49,824000
2014-10-03,0.48,0.49,0.475,0.49,1920000
2014-10-06,0.495,0.5,0.485,0.5,704000
2014-10-07,0.5,0.51,0.495,0.495,2602000
2014-10-08,0.5,0.52,0.495,0.5,6320500
2014-10-09,0.5,0.53,0.5,0.52,4989500
2014-10-10,0.51,0.51,0.5,0.51,2386000
2014-10-13,0.51,0.59,0.5,0.58,24422000
2014-10-14,0.56,0.6,0.55,0.56,11632000
2014-10-15,0.56,0.59,0.54,0.57,7876000
2014-10-16,0.55,0.64,0.55,0.63,23612000
2014-10-17,0.63,0.66,0.61,0.64,28070000
2014-10-20,0.64,0.64,0.59,0.6,6812000
2014-10-21,0.6,0.65,0.6,0.62,23314000
2014-10-22,0.62,0.64,0.6,0.63,6970000
2014-10-23,0.62,0.63,0.58,0.58,11342000
2014-10-24,0.59,0.6,0.56,0.59,7490000
2014-10-27,0.58,0.59,0.56,0.57,3940000
2014-10-28,0.57,0.6,0.57,0.6,6334000
2014-10-29,0.6,0.6,0.58,0.58,3106000
2014-10-30,0.57,0.59,0.57,0.58,3054000
2014-10-31,0.58,0.62,0.58,0.6,9936000
2014-11-03,0.6,0.62,0.58,0.59,4914000
2014-11-04,0.58,0.62,0.58,0.59,8024000
2014-11-05,0.59,0.6,0.56,0.57,7766000
2014-11-06,0.57,0.57,0.55,0.57,4692000
2014-11-07,0.56,0.57,0.54,0.56,6878000
2014-11-10,0.57,0.57,0.55,0.56,3818000
2014-11-11,0.56,0.57,0.55,0.56,4350000
2014-11-12,0.56,0.56,0.54,0.56,4926000
2014-11-13,0.56,0.57,0.55,0.56,1952000
2014-11-14,0.56,0.56,0.53,0.55,5237446
2014-11-17,0.53,0.54,0.52,0.53,4134000
2014-11-18,0.53,0.53,0.495,0.51,8672000
2014-11-19,0.5,0.52,0.5,0.51,4044000
2014-11-20,0.51,0.52,0.5,0.52,1923600
2014-11-21,0.52,0.53,0.51,0.53,2960000
2014-11-24,0.52,0.53,0.51,0.52,1824000
2014-11-25,0.51,0.54,0.5,0.53,6698000
2014-11-26,0.52,0.54,0.52,0.54,4358000
2014-11-27,0.54,0.54,0.52,0.53,1291200
2014-11-28,0.52,0.52,0.5,0.52,1960000
2014-12-01,0.51,0.51,0.49,0.495,3572000
2014-12-02,0.495,0.51,0.495,0.51,2728000
2014-12-03,0.5,0.51,0.485,0.495,3591000
2014-12-04,0.485,0.5,0.48,0.495,2636000
2014-12-05,0.485,0.495,0.48,0.49,2634000
2014-12-08,0.495,0.51,0.485,0.495,3798000
2014-12-09,0.495,0.495,0.475,0.485,2264000
2014-12-10,0.495,0.495,0.47,0.48,1646000
2014-12-11,0.49,0.49,0.47,0.48,2286000
2014-12-12,0.48,0.48,0.465,0.475,1740000
2014-12-15,0.465,0.465,0.46,0.465,650000
2014-12-16,0.45,0.465,0.44,0.45,3662000
2014-12-17,0.44,0.445,0.435,0.44,1362800
2014-12-18,0.445,0.455,0.445,0.455,1048000
2014-12-19,0.44,0.46,0.44,0.45,840000
2014-12-22,0.45,0.46,0.425,0.435,3386000
2014-12-23,0.43,0.43,0.4,0.41,6380000
2014-12-24,0.4,0.405,0.385,0.395,4195200
2014-12-29,0.395,0.405,0.395,0.405,2812000
2014-12-30,0.395,0.405,0.395,0.405,432000
2014-12-31,0.41,0.41,0.405,0.41,278000
2015-01-02,0.41,0.43,0.4,0.43,2744000
2015-01-05,0.415,0.435,0.415,0.425,1398000
2015-01-06,0.415,0.415,0.405,0.405,3132000
2015-01-07,0.4,0.42,0.4,0.41,956000
2015-01-08,0.41,0.43,0.41,0.43,3309200
2015-01-09,0.42,0.435,0.42,0.425,498000
2015-01-12,0.425,0.425,0.415,0.415,368000
2015-01-13,0.405,0.42,0.405,0.415,329757
2015-01-14,0.415,0.42,0.415,0.415,34000
2015-01-15,0.41,0.42,0.4,0.42,654000
2015-01-16,0.42,0.42,0.405,0.41,490000
2015-01-19,0.41,0.41,0.395,0.395,640000
2015-01-20,0.39,0.41,0.39,0.4,260400
2015-01-21,0.4,0.415,0.395,0.395,1100000
2015-01-22,0.41,0.41,0.395,0.4,986000
2015-01-23,0.395,0.41,0.395,0.4,796000
2015-01-26,0.395,0.41,0.395,0.41,198000
2015-01-27,0.4,0.42,0.4,0.42,1300000
2015-01-28,0.4,0.43,0.4,0.415,3946000
2015-01-29,0.41,0.42,0.405,0.42,538000
2015-01-30,0.405,0.415,0.405,0.41,316000
2015-02-02,0.405,0.405,0.39,0.39,1148000
2015-02-03,0.39,0.4,0.39,0.4,1318000
2015-02-04,0.4,0.41,0.4,0.4,510000
2015-02-05,0.395,0.41,0.395,0.4,520000
2015-02-06,0.4,0.41,0.395,0.395,710000
2015-02-09,0.4,0.4,0.395,0.395,426000
2015-02-10,0.395,0.395,0.385,0.395,88000
2015-02-11,0.39,0.395,0.385,0.39,286000
2015-02-12,0.405,0.405,0.39,0.395,240000
2015-02-13,0.385,0.395,0.385,0.395,18000
2015-02-16,0.385,0.39,0.385,0.39,224000
2015-02-17,0.39,0.415,0.39,0.415,834000
2015-02-18,0.4,0.41,0.4,0.405,390000
2015-02-23,0.42,0.42,0.4,0.42,123410
2015-02-24,0.405,0.415,0.405,0.405,178000
2015-02-25,0.4,0.415,0.395,0.405,438000
2015-02-26,0.405,0.415,0.405,0.415,552000
2015-02-27,0.41,0.41,0.405,0.405,266000
2015-03-02,0.41,0.415,0.41,0.41,1136000
2015-03-03,0.4,0.415,0.4,0.415,858000
2015-03-04,0.43,0.435,0.415,0.435,2878000
2015-03-05,0.435,0.435,0.42,0.435,2208800
2015-03-06,0.435,0.435,0.42,0.43,496000
2015-03-09,0.425,0.455,0.425,0.44,6538000
2015-03-10,0.435,0.435,0.425,0.425,3066000
2015-03-11,0.425,0.43,0.415,0.425,936000
2015-03-12,0.425,0.425,0.405,0.41,4361400
2015-03-13,0.42,0.42,0.405,0.41,582000
2015-03-16,0.41,0.415,0.405,0.41,1986000
2015-03-17,0.41,0.415,0.4,0.405,1706000
2015-03-18,0.405,0.41,0.395,0.4,2456000
2015-03-19,0.4,0.42,0.395,0.42,2868000
2015-03-20,0.415,0.425,0.405,0.425,1348000
2015-03-23,0.425,0.43,0.415,0.43,850000
2015-03-24,0.425,0.425,0.42,0.425,870000
2015-03-25,0.42,0.435,0.42,0.425,2167200
2015-03-26,0.425,0.445,0.425,0.435,3704000
2015-03-27,0.43,0.43,0.425,0.43,240000
2015-03-30,0.435,0.45,0.425,0.45,3492000
2015-03-31,0.46,0.46,0.45,0.46,3606000
2015-04-01,0.46,0.5,0.455,0.48,7926000
2015-04-02,0.485,0.53,0.485,0.53,14532000
2015-04-08,0.53,0.59,0.53,0.59,23784000
2015-04-09,0.66,0.7,0.59,0.64,43330000
2015-04-10,0.65,0.67,0.6,0.66,16912000
2015-04-13,0.65,0.71,0.64,0.68,34072800
2015-04-14,0.68,0.68,0.61,0.66,12560000
2015-04-15,0.65,0.66,0.62,0.64,5390000
2015-04-16,0.63,0.64,0.59,0.63,12800000
2015-04-17,0.63,0.63,0.61,0.63,3922000
2015-04-20,0.61,0.64,0.59,0.62,10650000
2015-04-21,0.63,0.71,0.61,0.68,25687600
2015-04-22,0.67,0.71,0.65,0.66,14739280
2015-04-23,0.66,0.69,0.65,0.67,10209683
2015-04-24,0.67,0.69,0.66,0.68,3636000
2015-04-27,0.68,0.68,0.66,0.67,4318000
2015-04-28,0.67,0.67,0.62,0.64,8642000
2015-04-29,0.64,0.67,0.62,0.65,3880000
2015-04-30,0.64,0.66,0.63,0.64,2498000
2015-05-04,0.63,0.66,0.63,0.65,3205221
2015-05-05,0.65,0.68,0.6,0.63,8338000
2015-05-06,0.62,0.63,0.61,0.61,2722000
2015-05-07,0.6,0.61,0.56,0.57,6526000
2015-05-08,0.58,0.6,0.57,0.6,4840000
2015-05-11,0.61,0.65,0.6,0.64,4184000
2015-05-12,0.64,0.64,0.6,0.63,2948000
2015-05-13,0.63,0.67,0.63,0.67,9176000
2015-05-14,0.68,0.83,0.68,0.78,75994000
2015-05-15,0.78,0.78,0.73,0.74,19092000
2015-05-18,0.73,0.91,0.73,0.85,63194200
2015-05-19,0.85,0.89,0.83,0.89,17322000
2015-05-20,0.89,0.92,0.83,0.86,12269000
2015-05-21,0.84,1.12,0.8,1.11,38132800
2015-05-22,1.09,1.17,1.02,1.05,41608200
2015-05-26,1.06,1.15,1.0,1.05,26588000
2015-05-27,1.05,1.08,1.01,1.06,7338000
2015-05-28,1.04,1.07,0.94,0.97,13518800
2015-05-29,0.96,1.03,0.9,1.0,9606000
2015-06-01,0.97,1.06,0.94,1.01,6434000
2015-06-02,1.02,1.06,0.98,0.99,5134000
2015-06-03,0.98,0.99,0.93,0.93,6380000
2015-06-04,0.91,0.99,0.88,0.96,7815000
2015-06-05,0.96,0.96,0.91,0.94,3366000
2015-06-08,0.94,0.98,0.91,0.94,5084000
2015-06-09,0.97,0.98,0.85,0.87,4600000
2015-06-10,0.82,0.94,0.82,0.86,4154000
2015-06-11,0.86,0.89,0.85,0.86,1086000
2015-06-12,0.86,0.95,0.85,0.92,5377200
2015-06-15,0.96,0.96,0.91,0.94,3358000
2015-06-16,0.9,0.93,0.88,0.88,1664000
2015-06-17,0.84,0.92,0.84,0.9,2430000
2015-06-18,0.86,0.91,0.86,0.9,2114000
2015-06-19,0.88,0.91,0.84,0.84,1670000
2015-06-22,0.8,0.87,0.8,0.82,1930000
2015-06-23,0.82,0.86,0.82,0.86,742000
2015-06-24,0.86,0.86,0.83,0.84,488000
2015-06-25,0.83,0.95,0.83,0.91,5034000
2015-06-26,0.88,0.9,0.85,0.88,1634000
2015-06-29,0.85,0.92,0.79,0.81,8780000
2015-06-30,0.78,0.84,0.75,0.82,4462000
2015-07-02,0.81,0.81,0.75,0.76,3174000
2015-07-03,0.74,0.77,0.6,0.75,19900000
2015-07-06,0.75,0.76,0.48,0.58,17943600
2015-07-07,0.56,0.62,0.49,0.495,9683200
2015-07-08,0.46,0.46,0.39,0.42,15104000
2015-07-09,0.42,0.57,0.4,0.55,7234000
2015-07-10,0.59,0.65,0.59,0.61,5655200
2015-07-13,0.61,0.7,0.6,0.7,5534000
2015-07-14,0.66,0.71,0.65,0.67,5732000
2015-07-15,0.65,0.67,0.6,0.63,7246800
2015-07-16,0.63,0.65,0.62,0.65,844000
2015-07-17,0.66,0.68,0.64,0.67,3320000
2015-07-20,0.66,0.69,0.66,0.68,839500
2015-07-21,0.67,0.68,0.66,0.68,724000
2015-07-22,0.65,0.65,0.63,0.64,1446000
2015-07-23,0.63,0.67,0.61,0.65,3542000
2015-07-24,0.64,0.65,0.6,0.63,2838000
2015-07-27,0.6,0.6,0.57,0.58,3268000
2015-07-28,0.54,0.62,0.54,0.56,6156400
2015-07-29,0.56,0.6,0.55,0.6,6430000
2015-07-30,0.58,0.61,0.58,0.59,1912000
2015-07-31,0.58,0.66,0.58,0.65,7691600
2015-08-03,0.62,0.65,0.55,0.58,8800000
2015-08-04,0.56,0.62,0.56,0.62,838000
2015-08-05,0.59,0.63,0.59,0.6,998000
2015-08-06,0.6,0.6,0.56,0.58,2210000
2015-08-07,0.59,0.63,0.58,0.63,2760000
2015-08-10,0.61,0.63,0.58,0.63,4105600
2015-08-11,0.64,0.64,0.6,0.6,288000
2015-08-12,0.59,0.6,0.54,0.58,7698800
2015-08-13,0.56,0.58,0.56,0.57,214000
2015-08-14,0.57,0.59,0.56,0.56,346000
2015-08-17,0.56,0.59,0.53,0.56,4538000
2015-08-18,0.57,0.57,0.54,0.56,1470000
2015-08-19,0.55,0.56,0.54,0.55,658000
2015-08-20,0.54,0.56,0.52,0.52,1893619
2015-08-21,0.5,0.52,0.49,0.495,936000
2015-08-24,0.465,0.475,0.4,0.425,3262000
2015-08-25,0.425,0.45,0.405,0.44,3209352
2015-08-26,0.44,0.475,0.42,0.42,1752000
2015-08-27,0.44,0.45,0.425,0.435,2636000
2015-08-28,0.445,0.47,0.44,0.465,1882000
2015-08-31,0.47,0.47,0.445,0.45,170000
2015-09-01,0.435,0.465,0.435,0.45,778000
2015-09-02,0.445,0.465,0.43,0.445,902000
2015-09-04,0.44,0.46,0.44,0.455,970000
2015-09-07,0.435,0.46,0.435,0.455,500000
2015-09-08,0.445,0.48,0.445,0.48,864000
2015-09-09,0.48,0.55,0.46,0.51,5452000
2015-09-10,0.49,0.49,0.48,0.49,914000
2015-09-11,0.485,0.51,0.485,0.49,1512000
2015-09-14,0.485,0.485,0.43,0.44,8116000
2015-09-15,0.44,0.445,0.4,0.41,9738000
2015-09-16,0.415,0.435,0.415,0.435,3260000
2015-09-17,0.435,0.47,0.435,0.45,2958000
2015-09-18,0.455,0.475,0.45,0.465,2158000
2015-09-21,0.46,0.46,0.445,0.46,368000
2015-09-22,0.46,0.475,0.46,0.465,1230000
2015-09-23,0.45,0.45,0.44,0.45,456000
2015-09-24,0.455,0.455,0.435,0.435,594880
2015-09-25,0.435,0.44,0.425,0.44,1080800
2015-09-29,0.425,0.43,0.415,0.43,286000
2015-09-30,0.435,0.45,0.425,0.44,808000
2015-10-02,0.45,0.455,0.43,0.445,272000
2015-10-05,0.455,0.47,0.44,0.455,592000
2015-10-06,0.475,0.475,0.455,0.47,1552000
2015-10-07,0.465,0.5,0.455,0.5,2344000
2015-10-08,0.51,0.51,0.475,0.485,708000
2015-10-09,0.5,0.5,0.48,0.485,734000
2015-10-12,0.49,0.51,0.485,0.495,910000
2015-10-13,0.49,0.51,0.49,0.49,268000
2015-10-14,0.49,0.52,0.475,0.5,736000
2015-10-15,0.5,0.54,0.495,0.52,2122000
2015-10-16,0.53,0.55,0.51,0.55,1218000
2015-10-19,0.54,0.54,0.53,0.53,128000
2015-10-20,0.52,0.55,0.51,0.54,479000
2015-10-22,0.52,0.53,0.51,0.52,394000
2015-10-23,0.52,0.54,0.51,0.53,1122000
2015-10-26,0.55,0.55,0.51,0.52,2012000
2015-10-27,0.51,0.51,0.495,0.495,1536000
2015-10-28,0.495,0.5,0.485,0.49,1532000
2015-10-29,0.485,0.49,0.485,0.49,96000
2015-10-30,0.49,0.52,0.485,0.51,460000
2015-11-02,0.495,0.51,0.49,0.51,672000
2015-11-03,0.52,0.52,0.49,0.5,178000
2015-11-04,0.49,0.53,0.49,0.53,1336000
2015-11-05,0.51,0.52,0.51,0.51,110000
2015-11-06,0.51,0.55,0.51,0.54,1610000
2015-11-09,0.52,0.56,0.52,0.55,938000
2015-11-10,0.53,0.54,0.53,0.53,512000
2015-11-11,0.52,0.54,0.52,0.53,74000
2015-11-12,0.53,0.54,0.51,0.53,1094000
2015-11-13,0.52,0.55,0.52,0.55,264000
2015-11-16,0.51,0.56,0.5,0.54,397600
2015-11-17,0.52,0.53,0.52,0.53,192000
2015-11-18,0.51,0.53,0.51,0.53,276000
2015-11-19,0.51,0.54,0.51,0.54,290000
2015-11-20,0.52,0.53,0.51,0.53,150000
2015-11-23,0.52,0.55,0.52,0.54,212000
2015-11-24,0.53,0.54,0.51,0.51,970000
2015-11-25,0.52,0.52,0.51,0.51,582000
2015-11-26,0.52,0.52,0.48,0.495,4508000
2015-11-27,0.49,0.49,0.45,0.46,5446000
2015-11-30,0.455,0.46,0.445,0.445,1352000
2015-12-01,0.45,0.455,0.39,0.41,35388000
2015-12-02,0.41,0.425,0.405,0.415,6606000
2015-12-03,0.415,0.42,0.405,0.41,7070000
2015-12-04,0.405,0.415,0.4,0.4,3468000
2015-12-07,0.4,0.415,0.395,0.405,2386000
2015-12-08,0.4,0.405,0.385,0.4,3127200
2015-12-09,0.39,0.395,0.375,0.385,5756000
2015-12-10,0.38,0.4,0.38,0.395,3937200
2015-12-11,0.4,0.45,0.39,0.425,26020000
2015-12-14,0.405,0.42,0.395,0.42,4078750
2015-12-15,0.42,0.425,0.405,0.415,1718800
2015-12-16,0.415,0.43,0.405,0.415,3131440
2015-12-17,0.405,0.42,0.405,0.41,1814000
2015-12-18,0.405,0.41,0.395,0.405,3360000
2015-12-21,0.4,0.41,0.39,0.405,1832000
2015-12-22,0.4,0.405,0.395,0.4,565000
2015-12-23,0.4,0.42,0.4,0.415,3466000
2015-12-24,0.42,0.425,0.41,0.41,1585200
2015-12-28,0.405,0.405,0.395,0.405,1144000
2015-12-29,0.4,0.405,0.395,0.405,320000
2015-12-30,0.405,0.41,0.4,0.41,720000
2015-12-31,0.405,0.415,0.405,0.41,1620000
2016-01-04,0.405,0.405,0.395,0.4,1322000
2016-01-05,0.395,0.4,0.39,0.4,1616000
2016-01-06,0.4,0.405,0.395,0.4,220000
2016-01-07,0.39,0.39,0.365,0.37,3790000
2016-01-08,0.375,0.385,0.365,0.385,2014000
2016-01-11,0.37,0.375,0.36,0.365,1420000
2016-01-12,0.37,0.375,0.36,0.365,1022000
2016-01-13,0.37,0.375,0.36,0.36,1340000
2016-01-14,0.355,0.365,0.335,0.355,626000
2016-01-15,0.35,0.375,0.335,0.35,3142000
2016-01-18,0.34,0.35,0.32,0.345,1610000
2016-01-19,0.34,0.355,0.34,0.355,810000
2016-01-20,0.345,0.35,0.34,0.34,774000
2016-01-21,0.335,0.35,0.33,0.345,3858400
2016-01-22,0.345,0.35,0.34,0.345,480000
2016-01-25,0.355,0.375,0.345,0.345,196000
2016-01-26,0.34,0.345,0.335,0.345,552000
2016-01-27,0.35,0.36,0.335,0.35,21458000
2016-01-28,0.345,0.345,0.335,0.335,356000
2016-01-29,0.335,0.365,0.335,0.36,6940000
2016-02-01,0.34,0.355,0.34,0.34,346000
2016-02-02,0.34,0.35,0.335,0.34,468000
2016-02-03,0.33,0.405,0.33,0.38,5856000
2016-02-04,0.36,0.405,0.355,0.39,2860000
2016-02-05,0.38,0.5,0.38,0.455,14026000
2016-02-11,0.43,0.44,0.42,0.42,1070000
2016-02-12,0.41,0.45,0.41,0.44,1652000
2016-02-15,0.44,0.455,0.435,0.455,524000
2016-02-16,0.46,0.46,0.435,0.445,1296400
2016-02-17,0.435,0.445,0.43,0.43,384000
2016-02-18,0.445,0.45,0.43,0.43,1512000
2016-02-19,0.43,0.475,0.43,0.45,1736000
2016-02-22,0.445,0.445,0.435,0.435,262000
2016-02-23,0.435,0.445,0.43,0.435,1278000
2016-02-24,0.44,0.445,0.415,0.425,1214000
2016-02-25,0.41,0.425,0.4,0.405,1788000
2016-02-26,0.41,0.425,0.41,0.415,164000
2016-02-29,0.41,0.44,0.405,0.41,1030000
2016-03-01,0.415,0.42,0.4,0.405,552000
2016-03-02,0.42,0.425,0.405,0.415,2846000
2016-03-03,0.415,0.42,0.4,0.405,1702000
2016-03-04,0.405,0.43,0.405,0.415,2034000
2016-03-07,0.41,0.425,0.41,0.42,2984000
2016-03-08,0.43,0.43,0.41,0.415,472000
2016-03-09,0.415,0.415,0.41,0.415,296400
2016-03-10,0.41,0.43,0.41,0.43,1094000
2016-03-14,0.43,0.44,0.43,0.43,380000
2016-03-15,0.44,0.44,0.42,0.425,488000
2016-03-16,0.44,0.44,0.42,0.425,560000
2016-03-17,0.42,0.43,0.42,0.42,556000
2016-03-18,0.43,0.43,0.425,0.43,764000
2016-03-21,0.425,0.435,0.425,0.425,872000
2016-03-22,0.425,0.435,0.42,0.425,610880
2016-03-24,0.42,0.42,0.42,0.42,12000
2016-03-29,0.425,0.425,0.37,0.385,9016800
2016-03-30,0.395,0.415,0.395,0.415,3578000
2016-03-31,0.405,0.42,0.4,0.415,732000
2016-04-01,0.4,0.405,0.39,0.4,2350000
2016-04-05,0.395,0.405,0.39,0.395,516000
2016-04-06,0.385,0.385,0.385,0.39,168000
2016-04-07,0.39,0.415,0.385,0.4,480000
2016-04-08,0.395,0.395,0.395,0.395,612000
2016-04-11,0.395,0.4,0.385,0.4,832000
2016-04-12,0.4,0.425,0.4,0.41,1198000
2016-04-13,0.41,0.45,0.41,0.45,2706000
2016-04-14,0.45,0.465,0.43,0.45,2921040
2016-04-15,0.445,0.46,0.44,0.455,2832000
2016-04-18,0.44,0.44,0.435,0.44,392800
2016-04-19,0.44,0.46,0.435,0.46,1843600
2016-04-20,0.45,0.465,0.445,0.46,1130000
2016-04-21,0.445,0.455,0.445,0.45,732000
2016-04-22,0.44,0.46,0.435,0.46,1072000
2016-04-25,0.465,0.465,0.445,0.46,958000
2016-04-26,0.46,0.465,0.455,0.465,1112000
2016-04-27,0.46,0.465,0.46,0.465,504000
2016-04-28,0.46,0.46,0.45,0.46,138000
2016-04-29,0.465,0.47,0.455,0.46,452000
2016-05-03,0.45,0.46,0.45,0.46,228000
2016-05-04,0.45,0.46,0.44,0.46,686000
2016-05-06,0.44,0.46,0.44,0.46,218000
2016-05-10,0.445,0.455,0.44,0.455,310000
2016-05-11,0.45,0.45,0.45,0.45,164000
2016-05-12,0.435,0.455,0.435,0.455,730000
2016-05-13,0.44,0.44,0.435,0.44,350000
2016-05-16,0.415,0.445,0.4,0.44,668000
2016-05-17,0.44,0.44,0.435,0.435,248000
2016-05-19,0.425,0.445,0.425,0.445,220000
2016-05-20,0.445,0.445,0.44,0.44,120000
2016-05-23,0.425,0.44,0.425,0.44,334000
2016-05-24,0.425,0.45,0.415,0.45,290000
2016-05-26,0.43,0.445,0.43,0.445,104000
2016-05-27,0.435,0.445,0.435,0.445,356000
2016-05-30,0.425,0.445,0.425,0.445,96000
2016-05-31,0.425,0.445,0.425,0.445,282000
2016-06-01,0.43,0.445,0.43,0.445,64000
2016-06-02,0.43,0.44,0.43,0.44,8000
2016-06-03,0.43,0.445,0.43,0.445,66000
2016-06-06,0.43,0.445,0.43,0.445,282000
2016-06-07,0.445,0.45,0.435,0.445,738950
2016-06-08,0.445,0.445,0.41,0.41,208000
2016-06-10,0.425,0.435,0.415,0.435,1264000
2016-06-13,0.41,0.415,0.395,0.395,1424160
2016-06-14,0.405,0.41,0.4,0.41,1414000
2016-06-15,0.41,0.43,0.41,0.43,464000
2016-06-16,0.42,0.42,0.41,0.41,32000
2016-06-17,0.415,0.425,0.41,0.425,112000
2016-06-20,0.4,0.43,0.4,0.43,308000
2016-06-22,0.41,0.41,0.395,0.405,2704000
2016-06-23,0.405,0.41,0.405,0.41,266000
2016-06-24,0.4,0.41,0.39,0.405,826000
2016-06-27,0.405,0.41,0.4,0.405,106000
2016-06-28,0.395,0.405,0.395,0.405,152000
2016-06-29,0.415,0.415,0.405,0.41,654000
2016-06-30,0.41,0.41,0.405,0.41,500000
2016-07-04,0.41,0.42,0.405,0.415,830000
2016-07-05,0.41,0.415,0.41,0.415,292000
2016-07-06,0.405,0.425,0.405,0.42,280000
2016-07-07,0.42,0.42,0.41,0.42,124000
2016-07-08,0.405,0.42,0.405,0.42,38000
2016-07-11,0.405,0.435,0.405,0.425,294000
2016-07-12,0.425,0.425,0.41,0.425,844000
2016-07-13,0.43,0.435,0.415,0.42,816000
2016-07-14,0.42,0.42,0.415,0.42,292000
2016-07-15,0.42,0.425,0.42,0.425,152000
2016-07-18,0.415,0.42,0.415,0.42,400000
2016-07-19,0.415,0.415,0.405,0.415,998000
2016-07-20,0.41,0.425,0.41,0.425,488000
2016-07-21,0.42,0.42,0.41,0.415,566000
2016-07-22,0.41,0.415,0.405,0.41,276000
2016-07-25,0.405,0.42,0.405,0.415,168000
2016-07-26,0.41,0.425,0.405,0.425,896000
2016-07-27,0.41,0.415,0.41,0.41,304320
2016-07-28,0.415,0.415,0.41,0.41,731200
2016-07-29,0.41,0.415,0.4,0.41,1140000
2016-08-01,0.415,0.42,0.405,0.41,314000
2016-08-03,0.42,0.42,0.41,0.415,210861
2016-08-04,0.415,0.415,0.41,0.415,342000
2016-08-05,0.405,0.42,0.405,0.415,314000
2016-08-08,0.42,0.425,0.41,0.42,1372000
2016-08-09,0.42,0.425,0.415,0.425,830000
2016-08-10,0.415,0.425,0.41,0.42,1400000
2016-08-11,0.415,0.42,0.415,0.42,764000
2016-08-12,0.425,0.445,0.42,0.44,3814000
2016-08-15,0.44,0.455,0.44,0.45,3628000
2016-08-16,0.45,0.47,0.45,0.45,2237346
2016-08-17,0.45,0.45,0.425,0.44,2556000
2016-08-18,0.445,0.455,0.43,0.43,1390000
2016-08-19,0.435,0.435,0.425,0.435,1072000
2016-08-22,0.435,0.45,0.43,0.445,1892000
2016-08-23,0.44,0.445,0.435,0.435,398000
2016-08-24,0.43,0.435,0.425,0.43,1498000
2016-08-25,0.425,0.435,0.425,0.43,418000
2016-08-26,0.43,0.435,0.425,0.435,536000
2016-08-29,0.435,0.435,0.43,0.435,960000
2016-08-30,0.435,0.435,0.425,0.43,1954000
2016-08-31,0.43,0.43,0.425,0.43,314000
2016-09-01,0.425,0.445,0.42,0.435,2544000
2016-09-02,0.44,0.44,0.43,0.435,504000
2016-09-05,0.44,0.455,0.44,0.445,1330000
2016-09-06,0.44,0.45,0.44,0.45,1814000
2016-09-07,0.45,0.47,0.445,0.455,4718000
2016-09-08,0.455,0.485,0.445,0.485,5122000
2016-09-09,0.475,0.485,0.475,0.485,1110000
2016-09-12,0.46,0.46,0.455,0.455,896000
2016-09-13,0.46,0.46,0.44,0.44,1086000
2016-09-14,0.43,0.445,0.43,0.44,1282000
2016-09-15,0.44,0.45,0.435,0.45,3238000
2016-09-19,0.45,0.46,0.435,0.445,2186000
2016-09-20,0.44,0.44,0.43,0.44,2270000
2016-09-21,0.435,0.44,0.42,0.435,3326000
2016-09-22,0.44,0.445,0.425,0.43,2306086
2016-09-23,0.43,0.435,0.41,0.425,4336000
2016-09-26,0.415,0.415,0.405,0.405,3008000
2016-09-27,0.41,0.41,0.395,0.405,5957000
2016-09-28,0.405,0.405,0.39,0.395,5338000
2016-09-29,0.395,0.405,0.39,0.39,3484000
2016-09-30,0.39,0.395,0.385,0.395,832000
2016-10-03,0.395,0.405,0.395,0.405,842000
2016-10-04,0.4,0.405,0.395,0.405,1222000
2016-10-05,0.395,0.41,0.395,0.41,856000
2016-10-06,0.405,0.425,0.405,0.415,3755983
2016-10-07,0.41,0.41,0.405,0.41,2099600
2016-10-11,0.405,0.405,0.395,0.4,2226000
2016-10-12,0.395,0.4,0.39,0.4,642000
2016-10-13,0.39,0.4,0.39,0.39,698000
2016-10-14,0.395,0.4,0.395,0.4,1304000
2016-10-17,0.395,0.395,0.39,0.395,586000
2016-10-18,0.395,0.4,0.39,0.395,2648000
2016-10-19,0.39,0.395,0.39,0.395,814000
2016-10-20,0.395,0.405,0.385,0.4,7216000
2016-10-24,0.4,0.405,0.395,0.4,282000
2016-10-25,0.4,0.415,0.395,0.41,1334000
2016-10-26,0.41,0.415,0.405,0.41,1088000
2016-10-27,0.405,0.405,0.395,0.4,1946000
2016-10-28,0.395,0.4,0.39,0.39,1064000
2016-10-31,0.385,0.395,0.385,0.395,810000
2016-11-01,0.395,0.4,0.39,0.4,1270000
2016-11-02,0.39,0.4,0.39,0.4,4490000
2016-11-03,0.395,0.395,0.39,0.395,1322000
2016-11-04,0.39,0.395,0.385,0.395,1170000
2016-11-07,0.39,0.395,0.39,0.395,260000
2016-11-08,0.39,0.395,0.39,0.395,550000
2016-11-09,0.39,0.39,0.375,0.385,1696000
2016-11-10,0.385,0.395,0.38,0.385,4578800
2016-11-11,0.385,0.39,0.38,0.39,1496000
2016-11-14,0.38,0.39,0.38,0.39,466500
2016-11-15,0.38,0.385,0.375,0.385,1500000
2016-11-16,0.385,0.395,0.385,0.395,1618000
2016-11-17,0.39,0.395,0.385,0.395,82000
2016-11-18,0.39,0.4,0.39,0.395,1134000
2016-11-21,0.4,0.405,0.37,0.38,8696000
2016-11-22,0.38,0.395,0.38,0.385,6035200
2016-11-23,0.385,0.395,0.385,0.395,1600000
2016-11-24,0.395,0.395,0.385,0.385,2610000
2016-11-25,0.38,0.39,0.38,0.385,1306000
2016-11-28,0.38,0.39,0.38,0.39,1060000
2016-11-29,0.39,0.39,0.385,0.39,1572000
2016-11-30,0.385,0.39,0.385,0.385,868000
2016-12-01,0.39,0.39,0.385,0.385,518000
2016-12-02,0.385,0.39,0.385,0.39,174000
2016-12-05,0.39,0.39,0.385,0.385,514000
2016-12-06,0.385,0.39,0.385,0.385,786000
2016-12-07,0.39,0.39,0.385,0.385,540000
2016-12-08,0.39,0.39,0.385,0.385,434000
2016-12-09,0.39,0.395,0.39,0.395,2452000
2016-12-12,0.39,0.395,0.385,0.385,2451200
2016-12-13,0.385,0.395,0.385,0.385,192000
2016-12-14,0.385,0.39,0.385,0.39,1006000
2016-12-15,0.385,0.385,0.38,0.385,453600
2016-12-16,0.38,0.385,0.375,0.385,1184000
2016-12-19,0.375,0.375,0.37,0.375,1284000
2016-12-20,0.365,0.37,0.365,0.37,872000
2016-12-21,0.365,0.375,0.365,0.37,340000
2016-12-22,0.37,0.37,0.36,0.37,740000
2016-12-23,0.37,0.37,0.36,0.37,388000
2016-12-28,0.36,0.37,0.36,0.37,328640
2016-12-29,0.37,0.37,0.36,0.365,484000
2016-12-30,0.36,0.37,0.36,0.365,106000
2017-01-03,0.37,0.375,0.365,0.37,1268000
2017-01-04,0.365,0.375,0.365,0.375,212000
2017-01-05,0.375,0.375,0.365,0.365,2910000
2017-01-06,0.37,0.37,0.365,0.365,106400
2017-01-09,0.37,0.385,0.365,0.38,2262000
2017-01-10,0.38,0.385,0.37,0.38,316700
2017-01-11,0.375,0.38,0.37,0.37,1248000
2017-01-12,0.375,0.375,0.37,0.375,510000
2017-01-13,0.37,0.375,0.37,0.375,143000
2017-01-16,0.37,0.37,0.37,0.37,278000
2017-01-17,0.37,0.38,0.37,0.38,942000
2017-01-18,0.375,0.385,0.375,0.38,704400
2017-01-19,0.38,0.38,0.38,0.38,68000
2017-01-20,0.375,0.385,0.375,0.385,184800
2017-01-23,0.375,0.38,0.37,0.38,1016000
2017-01-24,0.38,0.38,0.37,0.37,1192000
2017-01-25,0.37,0.375,0.365,0.375,1580000
2017-01-26,0.375,0.38,0.37,0.375,1358000
2017-01-27,0.375,0.38,0.375,0.38,14700
2017-02-01,0.375,0.38,0.375,0.375,762800
2017-02-02,0.38,0.38,0.38,0.38,556000
2017-02-03,0.375,0.385,0.375,0.375,641200
2017-02-06,0.375,0.39,0.375,0.39,228000
2017-02-07,0.385,0.385,0.38,0.385,676000
2017-02-08,0.385,0.39,0.375,0.39,1440000
2017-02-09,0.39,0.395,0.385,0.395,880480
2017-02-10,0.39,0.395,0.39,0.395,472000
2017-02-13,0.4,0.415,0.39,0.405,3248000
2017-02-14,0.41,0.415,0.405,0.41,616000
2017-02-15,0.41,0.415,0.405,0.41,2025600
2017-02-16,0.41,0.41,0.4,0.4,908000
2017-02-17,0.4,0.405,0.4,0.4,1182000
2017-02-20,0.395,0.4,0.395,0.4,588000
2017-02-21,0.4,0.4,0.4,0.4,302000
2017-02-22,0.395,0.4,0.395,0.4,514000
2017-02-23,0.4,0.41,0.395,0.4,1752000
2017-02-24,0.4,0.405,0.4,0.4,421600
2017-02-27,0.405,0.405,0.4,0.405,122000
2017-02-28,0.385,0.405,0.385,0.4,152000
2017-03-01,0.4,0.405,0.4,0.4,222000
2017-03-02,0.4,0.41,0.4,0.41,2161600
2017-03-03,0.41,0.41,0.4,0.4,1328000
2017-03-06,0.37,0.42,0.37,0.415,1982000
2017-03-07,0.41,0.41,0.405,0.41,1222000
2017-03-08,0.41,0.41,0.405,0.41,578000
2017-03-09,0.405,0.405,0.4,0.4,1253440
2017-03-10,0.4,0.405,0.4,0.4,912000
2017-03-13,0.41,0.46,0.41,0.445,19328000
2017-03-14,0.445,0.445,0.425,0.435,3474000
2017-03-15,0.44,0.44,0.425,0.435,746800
2017-03-16,0.43,0.44,0.43,0.44,700000
2017-03-17,0.44,0.47,0.44,0.47,10542000
2017-03-20,0.485,0.495,0.455,0.495,11758000
2017-03-21,0.5,0.52,0.485,0.51,10542000
2017-03-22,0.495,0.52,0.49,0.5,6216000
2017-03-23,0.495,0.52,0.495,0.5,3104000
2017-03-24,0.46,0.5,0.46,0.48,1953520
2017-03-27,0.485,0.52,0.475,0.495,4840000
2017-03-28,0.51,0.54,0.48,0.53,6036000
2017-03-29,0.52,0.61,0.52,0.61,28962000
2017-03-30,0.61,0.62,0.57,0.59,10290000
2017-03-31,0.59,0.66,0.56,0.66,13536000
2017-04-03,0.67,0.7,0.64,0.65,8612000
2017-04-05,0.66,0.66,0.61,0.63,14048000
2017-04-06,0.63,0.63,0.59,0.61,6634000
2017-04-07,0.6,0.6,0.57,0.59,5464800
2017-04-10,0.59,0.61,0.57,0.6,5722000
2017-04-11,0.58,0.59,0.57,0.58,3168000
2017-04-12,0.57,0.59,0.55,0.58,2940000
2017-04-13,0.57,0.58,0.56,0.57,1275292
2017-04-18,0.57,0.57,0.52,0.52,3050000
2017-04-19,0.52,0.57,0.51,0.56,2544000
2017-04-20,0.56,0.57,0.56,0.57,630000
2017-04-21,0.57,0.57,0.53,0.54,1954800
2017-04-24,0.54,0.55,0.53,0.54,2244000
2017-04-25,0.55,0.6,0.55,0.6,8696000
2017-04-26,0.59,0.63,0.56,0.58,17086000
2017-04-27,0.57,0.62,0.57,0.59,5902000
2017-04-28,0.6,0.6,0.59,0.6,1684000
2017-05-02,0.61,0.62,0.59,0.6,2240000
2017-05-04,0.6,0.6,0.56,0.57,2780000
2017-05-05,0.56,0.56,0.55,0.55,1784000
2017-05-08,0.55,0.55,0.53,0.53,1816000
2017-05-09,0.54,0.56,0.54,0.56,1172000
2017-05-10,0.57,0.58,0.56,0.58,2794353
2017-05-11,0.57,0.59,0.56,0.57,1690000
2017-05-12,0.56,0.65,0.56,0.62,16466000
2017-05-15,0.62,0.64,0.62,0.63,2514000
2017-05-16,0.62,0.64,0.62,0.64,2838000
2017-05-17,0.62,0.66,0.62,0.66,2984000
2017-05-18,0.63,0.7,0.62,0.64,12829133
2017-05-19,0.64,0.65,0.63,0.63,2196000
2017-05-22,0.64,0.65,0.63,0.63,954000
2017-05-23,0.63,0.64,0.58,0.6,2894000
2017-05-24,0.61,0.61,0.57,0.58,3124000
2017-05-25,0.58,0.6,0.57,0.57,3844000
2017-05-26,0.57,0.57,0.56,0.56,852000
2017-05-29,0.56,0.58,0.56,0.57,958975
2017-05-31,0.58,0.59,0.56,0.58,1420000
2017-06-01,0.56,0.58,0.56,0.57,302000
2017-06-02,0.57,0.58,0.56,0.57,1203131
2017-06-05,0.57,0.58,0.56,0.58,1078000
2017-06-06,0.58,0.58,0.57,0.57,630000
2017-06-07,0.56,0.57,0.56,0.57,761200
2017-06-08,0.57,0.58,0.56,0.58,564000
2017-06-09,0.59,0.59,0.57,0.58,276000
2017-06-12,0.57,0.58,0.56,0.58,1436000
2017-06-13,0.58,0.6,0.57,0.59,1336000
2017-06-14,0.59,0.59,0.58,0.58,526000
2017-06-15,0.57,0.58,0.57,0.57,1129200
2017-06-16,0.58,0.58,0.57,0.58,436000
2017-06-19,0.57,0.58,0.57,0.57,68000
2017-06-20,0.57,0.59,0.57,0.57,348000
2017-06-21,0.57,0.59,0.57,0.58,314000
2017-06-22,0.58,0.58,0.57,0.58,502000
2017-06-23,0.57,0.57,0.54,0.56,1440000
2017-06-26,0.55,0.56,0.55,0.55,220000
2017-06-27,0.55,0.56,0.5,0.54,2968000
2017-06-28,0.52,0.54,0.51,0.54,939200
2017-06-29,0.52,0.54,0.52,0.54,234000
2017-06-30,0.52,0.54,0.52,0.54,202000
2017-07-03,0.52,0.53,0.52,0.53,218000
2017-07-04,0.52,0.54,0.52,0.54,346000
2017-07-05,0.51,0.54,0.51,0.54,137600
2017-07-06,0.53,0.54,0.51,0.53,1668000
2017-07-07,0.51,0.53,0.51,0.51,76000
2017-07-10,0.5,0.53,0.5,0.53,314000
2017-07-11,0.52,0.52,0.52,0.52,312000
2017-07-12,0.52,0.52,0.51,0.52,470000
2017-07-13,0.51,0.52,0.51,0.52,1234000
2017-07-14,0.52,0.52,0.51,0.52,292000
2017-07-17,0.52,0.52,0.51,0.52,348000
2017-07-18,0.51,0.53,0.51,0.51,1036000
2017-07-19,0.52,0.54,0.52,0.54,780000
2017-07-20,0.53,0.54,0.53,0.53,199001
2017-07-21,0.52,0.54,0.5,0.51,1404000
2017-07-24,0.51,0.51,0.5,0.5,594000
2017-07-25,0.5,0.52,0.5,0.51,258000
2017-07-26,0.51,0.51,0.49,0.495,1136000
2017-07-27,0.5,0.5,0.485,0.495,674000
2017-07-28,0.49,0.495,0.485,0.49,78000
2017-07-31,0.48,0.49,0.48,0.49,592000
2017-08-01,0.49,0.49,0.465,0.475,2606000
2017-08-02,0.475,0.48,0.46,0.47,744000
2017-08-03,0.465,0.48,0.465,0.48,272000
2017-08-04,0.47,0.475,0.455,0.46,2110000
2017-08-07,0.455,0.46,0.445,0.455,2114000
2017-08-08,0.45,0.465,0.45,0.46,1824000
2017-08-09,0.455,0.475,0.455,0.475,582000
2017-08-10,0.445,0.465,0.445,0.465,8000
2017-08-11,0.46,0.46,0.445,0.46,1002000
2017-08-14,0.45,0.46,0.45,0.46,160000
2017-08-15,0.46,0.475,0.45,0.455,524000
2017-08-16,0.45,0.455,0.45,0.46,188000
2017-08-17,0.455,0.46,0.45,0.455,360000
2017-08-18,0.45,0.46,0.44,0.45,2108000
2017-08-21,0.445,0.45,0.445,0.45,192000
2017-08-22,0.44,0.455,0.44,0.445,309200
2017-08-24,0.44,0.46,0.44,0.46,942000
2017-08-25,0.46,0.48,0.455,0.47,302000
2017-08-28,0.47,0.475,0.465,0.47,164000
2017-08-29,0.455,0.465,0.455,0.465,72000
2017-08-30,0.465,0.47,0.465,0.465,554000
2017-08-31,0.47,0.47,0.455,0.455,234000
2017-09-01,0.45,0.45,0.405,0.45,806000
2017-09-04,0.445,0.445,0.42,0.44,1002000
2017-09-05,0.445,0.445,0.435,0.445,262000
2017-09-06,0.445,0.46,0.44,0.46,428000
2017-09-07,0.455,0.46,0.45,0.46,174000
2017-09-08,0.45,0.455,0.435,0.45,1098000
2017-09-11,0.445,0.455,0.445,0.455,8000
2017-09-12,0.445,0.455,0.445,0.455,218000
2017-09-13,0.46,0.46,0.445,0.46,50000
2017-09-14,0.445,0.455,0.445,0.455,62000
2017-09-15,0.45,0.48,0.45,0.48,1254000
2017-09-18,0.48,0.48,0.465,0.47,448000
2017-09-19,0.48,0.48,0.465,0.475,794000
2017-09-20,0.475,0.51,0.47,0.51,3440000
2017-09-21,0.52,0.52,0.49,0.49,1404000
2017-09-22,0.48,0.5,0.48,0.5,54000
2017-09-25,0.48,0.495,0.475,0.475,866000
2017-09-26,0.47,0.485,0.465,0.485,748400
2017-09-27,0.47,0.5,0.47,0.5,670000
2017-09-28,0.485,0.51,0.48,0.49,532000
2017-09-29,0.49,0.49,0.49,0.49,2000
2017-10-03,0.49,0.49,0.465,0.47,82000
2017-10-04,0.48,0.485,0.475,0.485,172000
2017-10-06,0.48,0.49,0.47,0.485,582000
2017-10-09,0.47,0.5,0.47,0.49,982000
2017-10-10,0.49,0.49,0.48,0.485,560000
2017-10-11,0.48,0.485,0.47,0.475,712000
2017-10-12,0.475,0.49,0.465,0.485,1284000
2017-10-13,0.48,0.5,0.465,0.475,2567761
2017-10-16,0.47,0.49,0.47,0.485,1582000
2017-10-17,0.475,0.53,0.475,0.52,7918880
2017-10-18,0.52,0.55,0.51,0.53,4904000
2017-10-19,0.52,0.52,0.48,0.485,3324000
2017-10-20,0.485,0.5,0.485,0.495,970000
2017-10-23,0.49,0.51,0.49,0.495,342000
2017-10-24,0.485,0.5,0.485,0.5,384000
2017-10-25,0.49,0.51,0.485,0.51,400000
2017-10-26,0.5,0.51,0.5,0.51,1070000
2017-10-27,0.495,0.51,0.495,0.51,246000
2017-10-30,0.51,0.51,0.485,0.5,160000
2017-10-31,0.5,0.5,0.485,0.485,344000
2017-11-01,0.485,0.5,0.48,0.5,1374000
2017-11-02,0.49,0.49,0.49,0.49,50000
2017-11-03,0.485,0.5,0.485,0.5,26000
2017-11-07,0.485,0.495,0.485,0.49,978000
2017-11-08,0.485,0.49,0.48,0.485,458000
2017-11-09,0.475,0.495,0.475,0.485,614000
2017-11-10,0.485,0.51,0.485,0.5,1609000
2017-11-13,0.5,0.5,0.485,0.49,808000
2017-11-14,0.485,0.49,0.47,0.485,1460800
2017-11-15,0.47,0.485,0.47,0.485,294000
2017-11-16,0.47,0.485,0.47,0.485,270800
2017-11-17,0.47,0.495,0.455,0.485,1528000
2017-11-20,0.475,0.48,0.465,0.48,144000
2017-11-21,0.465,0.475,0.465,0.475,760000
2017-11-22,0.47,0.475,0.47,0.47,192000
2017-11-23,0.47,0.475,0.46,0.47,282000
2017-11-24,0.47,0.47,0.465,0.47,142000
2017-11-27,0.46,0.465,0.41,0.44,4530000
2017-11-28,0.43,0.47,0.43,0.465,446000
2017-11-29,0.45,0.455,0.445,0.455,178000
2017-11-30,0.44,0.465,0.435,0.465,232000
2017-12-01,0.445,0.46,0.44,0.46,228000
2017-12-04,0.46,0.465,0.45,0.465,260400
2017-12-05,0.45,0.46,0.445,0.46,344000
2017-12-06,0.44,0.45,0.435,0.44,1128000
2017-12-07,0.44,0.445,0.425,0.425,278000
2017-12-08,0.41,0.46,0.41,0.46,122000
2017-12-11,0.43,0.45,0.43,0.445,308000
2017-12-12,0.43,0.45,0.43,0.445,610000
2017-12-13,0.435,0.44,0.425,0.44,1783200
2017-12-14,0.43,0.445,0.43,0.435,60000
2017-12-15,0.43,0.45,0.425,0.44,228000
2017-12-18,0.435,0.44,0.435,0.44,20000
2017-12-19,0.435,0.435,0.43,0.43,171760
2017-12-20,0.43,0.435,0.43,0.435,506000
2017-12-21,0.43,0.44,0.425,0.44,328400
2017-12-22,0.43,0.44,0.43,0.435,324000
2017-12-27,0.43,0.445,0.43,0.44,192000
2017-12-28,0.435,0.455,0.43,0.45,236000
2017-12-29,0.435,0.485,0.435,0.48,2966247
2018-01-02,0.46,0.48,0.46,0.48,52000
2018-01-03,0.48,0.49,0.47,0.48,2584000
2018-01-04,0.47,0.49,0.47,0.48,970000
2018-01-05,0.475,0.475,0.465,0.465,686000
2018-01-08,0.465,0.465,0.445,0.455,4586000
2018-01-09,0.445,0.455,0.43,0.445,5342000
2018-01-10,0.44,0.45,0.44,0.445,470000
2018-01-11,0.445,0.465,0.445,0.465,1176000
2018-01-12,0.455,0.46,0.45,0.46,602000
2018-01-15,0.45,0.465,0.445,0.445,1334000
2018-01-16,0.44,0.45,0.425,0.435,4262000
2018-01-17,0.43,0.45,0.425,0.44,1286000
2018-01-18,0.44,0.445,0.435,0.435,1142000
2018-01-19,0.425,0.435,0.425,0.43,686000
2018-01-22,0.425,0.445,0.425,0.435,1266000
2018-01-23,0.44,0.44,0.435,0.435,534000
2018-01-24,0.43,0.45,0.43,0.435,3242000
2018-01-25,0.435,0.45,0.435,0.45,2428000
2018-01-26,0.445,0.45,0.435,0.45,782000
2018-01-29,0.455,0.455,0.44,0.445,1230000
2018-01-30,0.445,0.45,0.44,0.445,606000
2018-01-31,0.43,0.445,0.43,0.445,94000
2018-02-01,0.44,0.445,0.43,0.445,884000
2018-02-02,0.44,0.445,0.435,0.445,120000
2018-02-05,0.43,0.445,0.43,0.44,456000
2018-02-06,0.43,0.43,0.41,0.415,1349520
2018-02-07,0.415,0.42,0.405,0.41,1520000
2018-02-08,0.415,0.435,0.4,0.415,976000
2018-02-09,0.4,0.405,0.395,0.405,975000
2018-02-12,0.4,0.415,0.4,0.41,376000
2018-02-13,0.41,0.42,0.41,0.415,366000
2018-02-14,0.41,0.42,0.41,0.42,198000
2018-02-15,0.415,0.435,0.41,0.435,210000
2018-02-20,0.415,0.48,0.41,0.445,5298000
2018-02-21,0.46,0.475,0.445,0.465,694000
2018-02-22,0.44,0.46,0.44,0.445,20000
2018-02-23,0.445,0.47,0.445,0.45,414000
2018-02-26,0.45,0.47,0.45,0.46,746000
2018-02-27,0.47,0.48,0.455,0.46,4285760
2018-02-28,0.45,0.46,0.45,0.46,402000
2018-03-01,0.455,0.455,0.44,0.45,2526000
2018-03-02,0.44,0.44,0.41,0.435,2504000
2018-03-05,0.425,0.44,0.42,0.435,1279000
2018-03-06,0.445,0.48,0.445,0.475,3010100
2018-03-07,0.5,0.5,0.455,0.455,1968000
2018-03-08,0.47,0.485,0.45,0.47,2116000
2018-03-09,0.465,0.51,0.465,0.485,16426000
2018-03-12,0.485,0.495,0.48,0.48,1267101
2018-03-13,0.48,0.485,0.47,0.475,798000
2018-03-14,0.475,0.53,0.47,0.53,21664000
2018-03-15,0.52,0.58,0.52,0.57,28026000
2018-03-16,0.57,0.57,0.53,0.54,9720000
2018-03-19,0.54,0.61,0.54,0.61,20286000
2018-03-20,0.61,0.61,0.57,0.59,6938000
2018-03-21,0.59,0.59,0.53,0.54,12832000
2018-03-22,0.53,0.56,0.51,0.52,4564000
2018-03-23,0.5,0.51,0.475,0.49,6178000
2018-03-26,0.48,0.51,0.47,0.5,3874000
2018-03-27,0.51,0.51,0.49,0.49,5033000
2018-03-28,0.5,0.5,0.47,0.47,3074000
2018-03-29,0.47,0.48,0.46,0.475,820000
2018-04-03,0.475,0.475,0.46,0.465,954000
2018-04-04,0.47,0.485,0.46,0.475,3410000
2018-04-06,0.475,0.485,0.46,0.47,2022000
2018-04-09,0.475,0.51,0.475,0.49,2678000
2018-04-10,0.485,0.49,0.48,0.485,1372000
2018-04-11,0.485,0.485,0.47,0.475,1510000
2018-04-12,0.475,0.475,0.46,0.47,2118000
2018-04-13,0.46,0.47,0.46,0.47,416000
2018-04-16,0.475,0.475,0.445,0.455,2092000
2018-04-17,0.445,0.46,0.425,0.43,2742000
2018-04-18,0.43,0.435,0.425,0.425,3382000
2018-04-19,0.43,0.45,0.43,0.435,2060000
2018-04-20,0.43,0.44,0.425,0.44,256000
2018-04-23,0.425,0.45,0.425,0.45,754800
2018-04-24,0.455,0.46,0.44,0.445,772000
2018-04-25,0.44,0.44,0.42,0.43,3368000
2018-04-26,0.42,0.425,0.415,0.42,1760000
2018-04-27,0.42,0.425,0.41,0.415,2178000
2018-04-30,0.42,0.435,0.42,0.43,714000
2018-05-02,0.42,0.425,0.42,0.425,310000
2018-05-03,0.42,0.425,0.415,0.425,334000
2018-05-04,0.42,0.42,0.42,0.42,116000
2018-05-07,0.42,0.435,0.42,0.43,1068000
2018-05-08,0.425,0.43,0.42,0.43,486000
2018-05-09,0.425,0.43,0.42,0.425,1491843
2018-05-10,0.425,0.44,0.425,0.435,1562000
2018-05-11,0.43,0.44,0.43,0.43,272000
2018-05-14,0.435,0.44,0.43,0.43,322000
2018-05-15,0.43,0.44,0.43,0.435,403200
2018-05-16,0.43,0.44,0.43,0.43,218000
2018-05-17,0.435,0.435,0.425,0.43,374000
2018-05-18,0.425,0.43,0.425,0.43,10861
2018-05-21,0.43,0.44,0.43,0.435,454000
2018-05-23,0.44,0.44,0.425,0.425,204000
2018-05-24,0.425,0.43,0.42,0.43,1711600
2018-05-25,0.43,0.43,0.425,0.425,250000
2018-05-28,0.425,0.45,0.425,0.44,2314000
2018-05-29,0.43,0.46,0.43,0.45,3924000
2018-05-30,0.44,0.46,0.44,0.46,765920
2018-05-31,0.46,0.46,0.455,0.455,244000
2018-06-01,0.44,0.44,0.435,0.44,156000
2018-06-04,0.44,0.45,0.435,0.445,806400
2018-06-05,0.44,0.455,0.44,0.45,820000
2018-06-06,0.45,0.465,0.44,0.45,2072000
2018-06-07,0.45,0.455,0.445,0.45,125200
2018-06-08,0.45,0.455,0.45,0.45,250000
2018-06-11,0.455,0.455,0.45,0.45,870000
2018-06-12,0.45,0.465,0.45,0.455,1980000
2018-06-13,0.46,0.47,0.45,0.455,1568000
2018-06-14,0.46,0.465,0.455,0.465,586000
2018-06-15,0.455,0.46,0.45,0.455,676000
2018-06-19,0.455,0.46,0.44,0.445,2864000
2018-06-20,0.445,0.455,0.445,0.45,1010000
2018-06-21,0.45,0.455,0.445,0.455,852000
2018-06-22,0.455,0.455,0.445,0.455,166000
2018-06-25,0.455,0.455,0.445,0.45,746000
2018-06-26,0.45,0.45,0.415,0.43,5392000
2018-06-27,0.43,0.445,0.42,0.42,1142000
2018-06-28,0.42,0.43,0.41,0.425,2872000
2018-06-29,0.41,0.425,0.405,0.42,679829
2018-07-03,0.42,0.42,0.41,0.41,550000
2018-07-04,0.415,0.415,0.4,0.4,1634000
2018-07-05,0.4,0.405,0.4,0.405,730000
2018-07-06,0.405,0.41,0.395,0.41,410000
2018-07-09,0.41,0.42,0.4,0.41,354000
2018-07-10,0.4,0.41,0.395,0.4,2230000
2018-07-11,0.38,0.39,0.38,0.39,766000
2018-07-12,0.385,0.41,0.385,0.405,1438000
2018-07-13,0.405,0.405,0.39,0.4,1144000
2018-07-16,0.4,0.41,0.39,0.39,1978000
2018-07-17,0.39,0.395,0.385,0.395,116000
2018-07-18,0.39,0.39,0.39,0.39,196000
2018-07-19,0.39,0.425,0.39,0.405,904000
2018-07-20,0.405,0.41,0.4,0.41,312000
2018-07-23,0.4,0.4,0.395,0.4,166000
2018-07-24,0.405,0.405,0.4,0.4,172000
2018-07-25,0.4,0.41,0.4,0.405,176000
2018-07-26,0.405,0.425,0.4,0.42,910000
2018-07-27,0.42,0.43,0.42,0.425,750000
2018-07-30,0.43,0.43,0.425,0.425,742000
2018-07-31,0.425,0.435,0.425,0.43,610000
2018-08-01,0.43,0.43,0.43,0.43,454000
2018-08-02,0.43,0.43,0.425,0.425,1870000
2018-08-03,0.425,0.425,0.415,0.415,1852000
2018-08-06,0.415,0.42,0.415,0.42,240000
2018-08-07,0.42,0.43,0.42,0.425,228000
2018-08-08,0.425,0.425,0.38,0.41,4062000
2018-08-09,0.41,0.43,0.41,0.43,1518000
2018-08-10,0.43,0.43,0.42,0.42,592000
2018-08-13,0.43,0.43,0.42,0.43,1202000
2018-08-14,0.42,0.43,0.415,0.43,2092000
2018-08-15,0.425,0.43,0.41,0.43,11746000
2018-08-16,0.42,0.42,0.405,0.42,4398000
2018-08-17,0.41,0.42,0.41,0.42,322161
2018-08-20,0.41,0.42,0.41,0.42,34000
2018-08-21,0.42,0.42,0.41,0.42,124000
2018-08-22,0.4,0.43,0.4,0.43,16000
2018-08-23,0.41,0.42,0.41,0.42,16000
2018-08-24,0.42,0.42,0.415,0.42,444000
2018-08-27,0.42,0.43,0.415,0.42,312000
2018-08-28,0.415,0.435,0.415,0.42,178000
2018-08-29,0.415,0.42,0.405,0.42,2155680
2018-08-30,0.41,0.42,0.41,0.41,134000
2018-08-31,0.41,0.42,0.405,0.42,248000
2018-09-03,0.41,0.41,0.405,0.41,264000
2018-09-04,0.405,0.42,0.4,0.415,536000
2018-09-05,0.41,0.415,0.41,0.415,276000
2018-09-06,0.415,0.42,0.41,0.42,466000
2018-09-07,0.405,0.42,0.4,0.415,460000
2018-09-10,0.41,0.415,0.395,0.41,786000
2018-09-11,0.415,0.415,0.4,0.4,296000
2018-09-12,0.415,0.415,0.41,0.415,100000
2018-09-13,0.415,0.415,0.405,0.405,210000
2018-09-14,0.41,0.42,0.405,0.42,140000
2018-09-17,0.405,0.42,0.405,0.42,64000
2018-09-18,0.405,0.415,0.405,0.415,158737
2018-09-19,0.405,0.41,0.4,0.405,596000
2018-09-20,0.4,0.4,0.35,0.39,2278000
2018-09-21,0.385,0.415,0.38,0.405,781600
2018-09-24,0.395,0.415,0.395,0.41,196000
2018-09-26,0.41,0.41,0.395,0.41,310000
2018-09-27,0.4,0.4,0.4,0.4,0
2018-09-28,0.395,0.395,0.39,0.39,416000
2018-10-02,0.385,0.395,0.385,0.395,396000
2018-10-03,0.39,0.395,0.38,0.395,308000
2018-10-04,0.39,0.395,0.39,0.395,384000
2018-10-05,0.39,0.39,0.38,0.39,162000
2018-10-08,0.39,0.39,0.38,0.38,280000
2018-10-09,0.38,0.38,0.38,0.38,172000
2018-10-10,0.38,0.39,0.36,0.38,432000
2018-10-11,0.375,0.385,0.365,0.375,1286000
2018-10-12,0.36,0.38,0.36,0.38,188000
2018-10-15,0.38,0.38,0.38,0.38,314000
2018-10-16,0.38,0.38,0.37,0.38,170000
2018-10-18,0.365,0.38,0.36,0.38,18000
2018-10-19,0.37,0.4,0.37,0.4,265600
2018-10-22,0.4,0.41,0.4,0.4,348000
2018-10-23,0.39,0.39,0.38,0.38,384000
2018-10-24,0.38,0.385,0.38,0.385,48000
2018-10-25,0.365,0.38,0.365,0.38,144000
2018-10-26,0.37,0.38,0.37,0.38,176000
2018-10-29,0.365,0.385,0.365,0.385,726000
2018-10-30,0.38,0.38,0.37,0.38,112000
2018-10-31,0.37,0.385,0.37,0.385,208400
2018-11-01,0.39,0.395,0.375,0.375,148000
2018-11-02,0.4,0.415,0.385,0.385,516000
2018-11-05,0.375,0.375,0.36,0.375,1408000
2018-11-06,0.365,0.38,0.365,0.38,138000
2018-11-07,0.37,0.39,0.37,0.39,136000
2018-11-08,0.39,0.4,0.39,0.39,206000
2018-11-14,0.37,0.39,0.365,0.385,272000
2018-11-15,0.38,0.395,0.38,0.395,112000
2018-11-16,0.38,0.395,0.38,0.39,174000
2018-11-19,0.37,0.395,0.37,0.39,10000
2018-11-20,0.38,0.38,0.38,0.38,102000
2018-11-21,0.37,0.38,0.37,0.38,319600
2018-11-26,0.375,0.385,0.375,0.375,34000
2018-11-27,0.375,0.385,0.37,0.385,84000
2018-11-28,0.385,0.39,0.38,0.39,134000
2018-11-30,0.395,0.4,0.38,0.38,224000
2018-12-03,0.38,0.39,0.38,0.38,582000
2018-12-04,0.38,0.385,0.38,0.385,90000
2018-12-05,0.38,0.385,0.375,0.38,266000
2018-12-06,0.37,0.375,0.37,0.37,200000
2018-12-07,0.37,0.38,0.365,0.365,266000
2018-12-10,0.35,0.37,0.35,0.37,166640
2018-12-11,0.365,0.38,0.365,0.38,40000
2018-12-13,0.365,0.375,0.365,0.37,83760
2018-12-14,0.36,0.375,0.36,0.375,80000
2018-12-17,0.37,0.375,0.36,0.375,221200
2018-12-18,0.365,0.37,0.365,0.37,81200
2018-12-19,0.365,0.375,0.365,0.375,244000
2018-12-20,0.365,0.38,0.365,0.405,48000
2018-12-21,0.37,0.375,0.365,0.375,686000
2018-12-27,0.36,0.385,0.36,0.375,401760
2018-12-28,0.365,0.375,0.365,0.37,408000
2019-01-02,0.37,0.38,0.37,0.375,848000
2019-01-03,0.385,0.39,0.385,0.385,230000
2019-01-04,0.375,0.385,0.37,0.385,206000
2019-01-07,0.38,0.39,0.38,0.38,134000
2019-01-08,0.37,0.38,0.37,0.38,264000
2019-01-09,0.385,0.39,0.385,0.39,152000
2019-01-10,0.39,0.39,0.39,0.39,256000
2019-01-11,0.39,0.39,0.39,0.39,98000
2019-01-14,0.39,0.395,0.38,0.38,210000
2019-01-15,0.385,0.39,0.385,0.39,108000
2019-01-16,0.38,0.385,0.38,0.38,156000
2019-01-17,0.38,0.385,0.375,0.38,388000
2019-01-18,0.38,0.4,0.38,0.38,162000
2019-01-21,0.38,0.385,0.38,0.385,70000
2019-01-22,0.375,0.39,0.375,0.39,22000
2019-01-23,0.365,0.4,0.365,0.4,178350
2019-01-24,0.38,0.39,0.375,0.38,510000
2019-01-25,0.38,0.395,0.38,0.385,190000
2019-01-28,0.385,0.395,0.385,0.385,22000
2019-01-29,0.385,0.4,0.385,0.385,146000
2019-01-31,0.395,0.395,0.395,0.395,148000
2019-02-01,0.395,0.395,0.395,0.395,96800
2019-02-08,0.39,0.41,0.38,0.41,394960
2019-02-11,0.39,0.405,0.385,0.405,436000
2019-02-12,0.4,0.41,0.395,0.4,189200
2019-02-13,0.4,0.42,0.39,0.405,2590000
2019-02-14,0.41,0.415,0.405,0.415,396000
2019-02-15,0.4,0.41,0.4,0.41,320000
2019-02-18,0.43,0.43,0.41,0.415,614000
2019-02-19,0.415,0.415,0.4,0.41,290000
2019-02-20,0.415,0.43,0.415,0.42,794000
2019-02-21,0.405,0.43,0.405,0.41,598800
2019-02-22,0.42,0.425,0.42,0.425,110000
2019-02-25,0.42,0.44,0.415,0.435,1408000
2019-02-26,0.435,0.45,0.435,0.44,2552000
2019-02-27,0.43,0.435,0.415,0.42,644000
2019-02-28,0.425,0.435,0.415,0.425,756000
2019-03-01,0.42,0.435,0.42,0.425,648000
2019-03-04,0.42,0.43,0.42,0.43,420000
2019-03-05,0.425,0.435,0.42,0.435,630000
2019-03-06,0.425,0.435,0.405,0.435,2396000
2019-03-07,0.43,0.44,0.43,0.44,574000
2019-03-08,0.435,0.465,0.43,0.445,1722000
2019-03-11,0.445,0.445,0.445,0.445,166000
2019-03-12,0.445,0.47,0.445,0.46,2606000
2019-03-14,0.45,0.465,0.45,0.465,386000
2019-03-15,0.465,0.47,0.455,0.465,1020000
2019-03-18,0.46,0.46,0.455,0.46,1260000
2019-03-19,0.46,0.465,0.46,0.46,46000
2019-03-20,0.46,0.47,0.45,0.45,1354000
2019-03-21,0.435,0.445,0.435,0.445,146000
2019-03-22,0.45,0.45,0.43,0.445,1020000
2019-03-25,0.445,0.455,0.435,0.45,1058000
2019-03-26,0.44,0.45,0.435,0.45,172000
2019-03-27,0.435,0.445,0.435,0.44,190000
2019-03-28,0.44,0.495,0.44,0.47,4972000
2019-03-29,0.455,0.47,0.455,0.465,774000
2019-04-01,0.46,0.465,0.43,0.455,4906000
2019-04-02,0.455,0.46,0.42,0.43,2553000
2019-04-03,0.43,0.45,0.43,0.44,762000
2019-04-04,0.44,0.45,0.43,0.45,512000
2019-04-08,0.44,0.45,0.44,0.45,134000
2019-04-09,0.44,0.45,0.44,0.44,226000
2019-04-10,0.435,0.44,0.435,0.435,294000
2019-04-11,0.43,0.435,0.43,0.43,570000
2019-04-12,0.425,0.44,0.41,0.43,2054000
2019-04-15,0.43,0.44,0.42,0.43,1078000
2019-04-16,0.415,0.425,0.41,0.42,2177833
2019-04-17,0.42,0.425,0.415,0.42,394000
2019-04-18,0.42,0.42,0.415,0.42,594000
2019-04-23,0.42,0.42,0.415,0.42,292000
2019-04-24,0.41,0.42,0.41,0.42,606000
2019-04-25,0.415,0.42,0.405,0.415,826000
2019-04-26,0.405,0.415,0.4,0.405,501200
2019-04-29,0.405,0.41,0.405,0.405,478000
2019-04-30,0.405,0.41,0.4,0.41,135000
2019-05-02,0.4,0.41,0.4,0.41,126000
2019-05-03,0.4,0.41,0.4,0.405,520000
2019-05-06,0.4,0.405,0.38,0.385,1641000
2019-05-07,0.385,0.395,0.385,0.395,488000
2019-05-08,0.38,0.395,0.38,0.385,364000
2019-05-09,0.38,0.41,0.38,0.39,2022000
2019-05-10,0.39,0.39,0.385,0.39,704100
2019-05-14,0.39,0.39,0.39,0.39,114000
2019-05-15,0.385,0.415,0.385,0.39,1386000
2019-05-16,0.395,0.4,0.39,0.39,442000
2019-05-17,0.39,0.395,0.385,0.39,486100
2019-05-20,0.39,0.4,0.38,0.395,428000
2019-05-21,0.395,0.395,0.39,0.39,116000
2019-05-22,0.39,0.41,0.39,0.39,386000
2019-05-23,0.39,0.39,0.385,0.39,600000
2019-05-24,0.39,0.4,0.39,0.4,350000
2019-05-27,0.39,0.4,0.385,0.39,632000
2019-05-28,0.39,0.4,0.385,0.39,102000
2019-05-29,0.385,0.39,0.385,0.39,162000
2019-05-30,0.38,0.39,0.38,0.385,20000
2019-05-31,0.39,0.4,0.385,0.385,840000
2019-06-03,0.39,0.39,0.375,0.38,1337200
2019-06-04,0.38,0.38,0.375,0.38,1098000
2019-06-05,0.38,0.385,0.38,0.38,618000
2019-06-06,0.375,0.385,0.375,0.38,1130000
2019-06-10,0.38,0.385,0.375,0.385,700000
2019-06-11,0.38,0.385,0.38,0.38,2370000
2019-06-12,0.385,0.385,0.375,0.375,2034000
2019-06-13,0.385,0.4,0.38,0.38,526000
2019-06-14,0.37,0.38,0.37,0.37,104000
2019-06-17,0.37,0.38,0.37,0.38,672000
2019-06-18,0.375,0.38,0.37,0.37,458000
2019-06-19,0.365,0.38,0.365,0.375,132000
2019-06-20,0.375,0.385,0.37,0.37,380000
2019-06-21,0.37,0.375,0.37,0.375,172000
2019-06-24,0.365,0.375,0.365,0.375,34000
2019-06-25,0.37,0.37,0.355,0.36,334000
2019-06-26,0.36,0.4,0.36,0.38,290000
2019-06-27,0.365,0.375,0.365,0.365,570800
2019-06-28,0.365,0.395,0.365,0.39,24000
2019-07-02,0.365,0.37,0.365,0.37,44000
2019-07-03,0.37,0.37,0.34,0.36,860000
2019-07-04,0.355,0.375,0.345,0.37,2222000
2019-07-05,0.375,0.38,0.37,0.375,672000
2019-07-08,0.375,0.385,0.375,0.38,1668000
2019-07-09,0.385,0.4,0.38,0.4,1626000
2019-07-10,0.39,0.395,0.39,0.395,562000
2019-07-11,0.395,0.4,0.395,0.395,312000
2019-07-12,0.39,0.4,0.39,0.395,597200
2019-07-15,0.395,0.395,0.395,0.395,124000
2019-07-16,0.395,0.405,0.395,0.395,302000
2019-07-17,0.395,0.4,0.39,0.4,844000
2019-07-18,0.395,0.4,0.39,0.395,570000
2019-07-19,0.39,0.4,0.385,0.395,154000
2019-07-22,0.395,0.4,0.395,0.4,628000
2019-07-24,0.395,0.4,0.39,0.395,1150000
2019-07-25,0.395,0.405,0.395,0.4,262000
2019-07-26,0.4,0.405,0.395,0.405,198000
2019-07-29,0.4,0.405,0.395,0.4,266000
2019-07-30,0.405,0.405,0.405,0.405,66000
2019-07-31,0.395,0.395,0.39,0.395,520000
2019-08-01,0.405,0.415,0.4,0.405,660000
2019-08-02,0.395,0.405,0.395,0.4,434000
2019-08-05,0.405,0.405,0.385,0.405,930000
2019-08-06,0.405,0.41,0.39,0.405,1084000
2019-08-07,0.405,0.415,0.4,0.415,832000
2019-08-08,0.425,0.425,0.415,0.42,500000
2019-08-09,0.42,0.435,0.405,0.42,226000
2019-08-12,0.42,0.42,0.41,0.42,920000
2019-08-13,0.415,0.42,0.4,0.42,3836000
2019-08-14,0.42,0.435,0.415,0.42,1370000
2019-08-15,0.415,0.425,0.415,0.425,456000
2019-08-16,0.42,0.425,0.415,0.42,528000
2019-08-20,0.415,0.425,0.415,0.42,604000
2019-08-21,0.415,0.43,0.415,0.43,200000
2019-08-22,0.425,0.425,0.425,0.425,130000
2019-08-23,0.42,0.425,0.41,0.425,1288000
2019-08-26,0.415,0.425,0.415,0.42,1726000
2019-08-27,0.42,0.425,0.415,0.42,286000
2019-08-28,0.42,0.425,0.415,0.415,660000
2019-08-29,0.415,0.43,0.415,0.425,698376
2019-08-30,0.42,0.425,0.415,0.425,1230000
2019-09-02,0.415,0.43,0.415,0.43,248000
2019-09-03,0.42,0.43,0.42,0.43,79000
2019-09-04,0.425,0.43,0.42,0.43,190000
2019-09-05,0.43,0.43,0.425,0.43,214400
2019-09-06,0.42,0.43,0.42,0.425,3902000
2019-09-09,0.425,0.43,0.42,0.425,420000
2019-09-10,0.425,0.43,0.42,0.43,400000
2019-09-11,0.425,0.43,0.425,0.425,396860
2019-09-12,0.425,0.43,0.42,0.43,2084000
2019-09-13,0.42,0.43,0.42,0.43,1224000
2019-09-16,0.425,0.43,0.425,0.43,124000
2019-09-17,0.425,0.43,0.425,0.425,244050
2019-09-18,0.425,0.43,0.42,0.425,216000
2019-09-19,0.425,0.43,0.425,0.425,125000
2019-09-20,0.43,0.43,0.425,0.43,212000
2019-09-23,0.42,0.435,0.42,0.435,30000
2019-09-24,0.435,0.44,0.42,0.44,5502600
2019-09-25,0.44,0.44,0.43,0.44,212000
2019-09-26,0.44,0.445,0.435,0.44,276000
2019-09-27,0.44,0.45,0.43,0.43,439400
2019-09-30,0.43,0.435,0.41,0.41,22000
2019-10-02,0.41,0.445,0.41,0.425,436000
2019-10-03,0.425,0.44,0.425,0.44,836000
2019-10-08,0.44,0.44,0.425,0.43,212000
2019-10-09,0.43,0.44,0.425,0.43,392000
2019-10-10,0.43,0.44,0.425,0.425,360000
2019-10-11,0.425,0.44,0.425,0.435,358800
2019-10-14,0.43,0.44,0.425,0.435,1414000
2019-10-15,0.435,0.435,0.425,0.435,260000
2019-10-16,0.425,0.435,0.425,0.435,74000
2019-10-17,0.425,0.435,0.425,0.435,1342000
2019-10-18,0.43,0.43,0.425,0.43,404000
2019-10-21,0.425,0.435,0.425,0.435,1444000
2019-10-22,0.435,0.44,0.425,0.425,934000
2019-10-23,0.425,0.435,0.425,0.43,497600
2019-10-24,0.43,0.435,0.425,0.43,892000
2019-10-25,0.43,0.44,0.43,0.43,766000
2019-10-28,0.43,0.445,0.43,0.435,986000
2019-10-29,0.44,0.44,0.43,0.43,1231200
2019-10-30,0.43,0.44,0.43,0.435,158000
2019-10-31,0.445,0.45,0.43,0.43,630000
2019-11-01,0.43,0.44,0.425,0.435,408000
2019-11-04,0.435,0.455,0.43,0.43,774000
2019-11-05,0.44,0.45,0.43,0.43,332000
2019-11-06,0.44,0.445,0.43,0.43,168000
2019-11-07,0.43,0.435,0.425,0.43,562000
2019-11-08,0.43,0.51,0.43,0.47,23230000
2019-11-11,0.47,0.48,0.445,0.45,2372000
2019-11-12,0.445,0.46,0.44,0.455,804000
2019-11-13,0.44,0.45,0.435,0.45,826000
2019-11-14,0.435,0.45,0.435,0.445,428000
2019-11-15,0.435,0.44,0.43,0.435,716000
2019-11-18,0.445,0.46,0.44,0.44,126000
2019-11-19,0.455,0.465,0.455,0.465,1326000
2019-11-20,0.455,0.465,0.455,0.46,258000
2019-11-21,0.455,0.475,0.455,0.475,548000
2019-11-22,0.475,0.475,0.465,0.475,546000
2019-11-25,0.475,0.48,0.47,0.48,72000
2019-11-26,0.48,0.485,0.465,0.465,290000
2019-11-27,0.45,0.47,0.45,0.47,234000
2019-11-28,0.455,0.455,0.45,0.455,342000
2019-11-29,0.45,0.46,0.445,0.45,570000
2019-12-02,0.45,0.455,0.445,0.45,233600
2019-12-03,0.445,0.47,0.44,0.465,1490000
2019-12-04,0.45,0.45,0.44,0.445,2248000
2019-12-05,0.45,0.465,0.44,0.44,1146000
2019-12-06,0.44,0.445,0.44,0.445,478000
2019-12-09,0.44,0.445,0.44,0.445,346000
2019-12-10,0.44,0.445,0.44,0.44,934000
2019-12-11,0.44,0.45,0.44,0.445,998000
2019-12-12,0.44,0.445,0.435,0.435,990000
2019-12-13,0.44,0.445,0.435,0.44,522000
2019-12-16,0.435,0.445,0.435,0.44,350000
2019-12-17,0.435,0.44,0.435,0.44,478000
2019-12-18,0.435,0.45,0.435,0.45,426000
2019-12-19,0.435,0.445,0.435,0.44,130000
2019-12-20,0.435,0.44,0.435,0.44,1576000
2019-12-23,0.44,0.45,0.435,0.44,472200
2019-12-24,0.435,0.44,0.435,0.44,84000
2019-12-27,0.44,0.44,0.435,0.435,614000
2019-12-30,0.44,0.45,0.435,0.44,128000
2019-12-31,0.44,0.45,0.44,0.445,258000
2020-01-02,0.445,0.45,0.435,0.435,360000
2020-01-03,0.445,0.46,0.44,0.455,510000
2020-01-06,0.455,0.455,0.45,0.455,190000
2020-01-07,0.455,0.455,0.45,0.455,402000
2020-01-08,0.45,0.465,0.45,0.46,724000
2020-01-09,0.47,0.47,0.455,0.465,264000
2020-01-10,0.46,0.47,0.46,0.465,118000
2020-01-13,0.45,0.46,0.45,0.455,240000
2020-01-14,0.45,0.47,0.45,0.45,304000
2020-01-15,0.45,0.46,0.45,0.45,236000
2020-01-16,0.45,0.47,0.45,0.45,448000
2020-01-17,0.45,0.465,0.445,0.465,940000
2020-01-20,0.465,0.465,0.45,0.45,1666000
2020-01-21,0.455,0.465,0.45,0.465,744000
2020-01-22,0.455,0.47,0.455,0.455,54000
2020-01-23,0.45,0.465,0.45,0.45,510000
2020-01-24,0.455,0.465,0.455,0.455,84000
2020-01-29,0.45,0.465,0.445,0.445,82000
2020-01-30,0.445,0.445,0.44,0.44,136000
2020-01-31,0.44,0.465,0.44,0.45,350000
2020-02-03,0.46,0.46,0.45,0.455,262000
2020-02-04,0.455,0.46,0.45,0.46,722000
2020-02-05,0.455,0.46,0.445,0.46,666000
2020-02-06,0.45,0.46,0.45,0.46,117200
2020-02-07,0.45,0.465,0.45,0.465,780000
2020-02-10,0.465,0.465,0.46,0.46,66000
2020-02-11,0.46,0.465,0.455,0.46,166000
2020-02-12,0.45,0.465,0.45,0.46,12000
2020-02-13,0.45,0.465,0.45,0.465,632000
2020-02-14,0.465,0.465,0.445,0.445,1386000
2020-02-17,0.445,0.455,0.445,0.455,128000
2020-02-18,0.45,0.455,0.45,0.45,918000
2020-02-19,0.45,0.45,0.42,0.435,3432000
2020-02-20,0.415,0.415,0.375,0.395,5674000
2020-02-21,0.395,0.395,0.38,0.385,2415000
2020-02-24,0.385,0.395,0.38,0.385,276000
2020-02-25,0.385,0.395,0.385,0.385,104000
2020-02-26,0.355,0.39,0.355,0.39,998000
2020-02-27,0.39,0.405,0.39,0.4,128400
2020-02-28,0.375,0.395,0.37,0.38,432000
2020-03-02,0.375,0.395,0.37,0.39,262000
2020-03-03,0.375,0.385,0.375,0.375,550000
2020-03-04,0.365,0.38,0.365,0.38,64000
2020-03-05,0.38,0.38,0.38,0.38,120000
2020-03-06,0.38,0.395,0.38,0.395,34000
2020-03-09,0.365,0.38,0.36,0.37,356000
2020-03-10,0.37,0.38,0.35,0.38,598000
2020-03-13,0.38,0.38,0.35,0.38,724000
2020-03-16,0.38,0.38,0.375,0.375,28000
2020-03-17,0.35,0.375,0.34,0.365,534000
2020-03-18,0.35,0.37,0.34,0.37,440000
2020-03-19,0.35,0.36,0.34,0.36,16000
2020-03-20,0.36,0.38,0.35,0.38,1002000
2020-03-23,0.37,0.37,0.37,0.37,0
2020-03-24,0.345,0.365,0.345,0.36,110000
2020-03-25,0.35,0.36,0.325,0.36,98000
2020-03-26,0.36,0.36,0.33,0.35,616000
2020-03-27,0.35,0.35,0.33,0.35,116400
2020-03-30,0.33,0.35,0.33,0.35,62000
2020-03-31,0.335,0.345,0.33,0.33,622000
2020-04-01,0.33,0.33,0.305,0.32,256000
2020-04-02,0.31,0.325,0.305,0.325,968000
2020-04-03,0.31,0.34,0.3,0.34,994000
2020-04-06,0.35,0.36,0.35,0.36,32000
2020-04-07,0.36,0.36,0.345,0.36,340000
2020-04-08,0.36,0.36,0.36,0.36,0
2020-04-09,0.345,0.35,0.345,0.35,32000
2020-04-14,0.35,0.35,0.35,0.35,0
2020-04-15,0.35,0.35,0.35,0.35,0
2020-04-16,0.35,0.35,0.35,0.35,98000
2020-04-17,0.35,0.35,0.35,0.35,0
2020-04-20,0.315,0.36,0.305,0.36,358000
2020-04-21,0.325,0.345,0.325,0.345,842000
2020-04-22,0.325,0.355,0.325,0.355,160000
2020-04-23,0.335,0.34,0.325,0.33,540000
2020-04-24,0.33,0.335,0.33,0.335,180000
2020-04-27,0.315,0.36,0.315,0.345,147034
2020-04-28,0.33,0.345,0.33,0.345,16000
2020-04-29,0.345,0.355,0.33,0.34,394000
2020-05-04,0.34,0.34,0.325,0.335,326000
2020-05-05,0.335,0.35,0.335,0.35,122000
2020-05-06,0.325,0.34,0.325,0.34,36000
2020-05-07,0.325,0.335,0.325,0.335,104000
2020-05-08,0.325,0.335,0.325,0.335,52000
2020-05-11,0.325,0.335,0.325,0.33,280000
2020-05-12,0.33,0.345,0.33,0.34,34000
2020-05-13,0.34,0.34,0.325,0.325,164000
2020-05-14,0.31,0.34,0.31,0.325,816000
2020-05-15,0.325,0.33,0.325,0.325,380000
2020-05-18,0.325,0.365,0.325,0.365,1070000
2020-05-19,0.365,0.405,0.345,0.4,2478000
2020-05-20,0.4,0.405,0.39,0.4,404000
2020-05-22,0.4,0.4,0.36,0.375,186000
2020-05-25,0.35,0.37,0.35,0.37,10000
2020-05-26,0.34,0.4,0.34,0.4,90000
2020-05-27,0.38,0.38,0.355,0.37,98000
2020-05-28,0.38,0.38,0.35,0.35,264000
2020-05-29,0.35,0.375,0.35,0.375,32000
2020-06-01,0.375,0.405,0.33,0.405,1519600
2020-06-02,0.38,0.405,0.38,0.405,196000
2020-06-03,0.4,0.405,0.4,0.405,846000
2020-06-04,0.39,0.41,0.39,0.41,442000
2020-06-05,0.4,0.41,0.4,0.41,364000
2020-06-08,0.4,0.41,0.4,0.41,10861
2020-06-09,0.405,0.415,0.405,0.41,96000
2020-06-11,0.41,0.41,0.39,0.4,656000
2020-06-12,0.4,0.4,0.39,0.4,326000
2020-06-15,0.4,0.4,0.39,0.4,926000
2020-06-16,0.4,0.405,0.4,0.4,126000
2020-06-17,0.4,0.41,0.4,0.41,145890
2020-06-18,0.42,0.42,0.405,0.415,166000
2020-06-19,0.41,0.42,0.4,0.415,62000
2020-06-22,0.4,0.41,0.4,0.41,246000
2020-06-23,0.4,0.415,0.4,0.415,78000
2020-06-24,0.415,0.42,0.4,0.405,162000
2020-06-26,0.4,0.41,0.395,0.405,304000
2020-06-29,0.4,0.42,0.395,0.42,592000
2020-06-30,0.425,0.425,0.405,0.41,248000
2020-07-02,0.405,0.41,0.4,0.41,48600
2020-07-03,0.4,0.405,0.4,0.4,160000
2020-07-06,0.4,0.415,0.395,0.415,1310000
2020-07-07,0.4,0.42,0.4,0.415,506000
2020-07-08,0.4,0.405,0.37,0.37,2374000
2020-07-09,0.37,0.405,0.37,0.385,1230000
2020-07-10,0.385,0.385,0.365,0.375,798000
2020-07-13,0.385,0.4,0.375,0.395,432000
2020-07-14,0.375,0.4,0.37,0.4,144000
2020-07-15,0.385,0.39,0.37,0.385,902000
2020-07-16,0.38,0.38,0.375,0.38,414000
2020-07-17,0.38,0.38,0.37,0.37,60000
2020-07-20,0.38,0.4,0.375,0.39,882000
2020-07-21,0.385,0.4,0.385,0.4,212000
2020-07-22,0.41,0.41,0.37,0.385,820000
2020-07-23,0.4,0.4,0.38,0.395,108000
2020-07-24,0.4,0.4,0.395,0.395,32000
2020-07-27,0.385,0.385,0.385,0.385,14000
2020-07-28,0.385,0.395,0.385,0.39,14000
2020-07-29,0.385,0.395,0.385,0.395,48000
2020-07-30,0.385,0.395,0.385,0.395,58000
2020-07-31,0.395,0.395,0.39,0.395,338000
2020-08-03,0.385,0.395,0.385,0.395,32430
2020-08-04,0.395,0.395,0.39,0.395,536800
2020-08-05,0.395,0.41,0.395,0.395,54000
2020-08-06,0.395,0.395,0.395,0.395,206000
2020-08-07,0.395,0.395,0.39,0.395,440000
2020-08-10,0.39,0.395,0.385,0.395,100000
2020-08-11,0.395,0.4,0.395,0.4,862000
2020-08-12,0.4,0.4,0.39,0.395,438000
2020-08-13,0.395,0.41,0.395,0.395,964430
2020-08-14,0.4,0.405,0.39,0.4,484000
2020-08-17,0.395,0.4,0.39,0.39,124000
2020-08-18,0.39,0.39,0.39,0.39,0
2020-08-19,0.39,0.39,0.39,0.39,0
2020-08-20,0.385,0.39,0.375,0.385,40000
2020-08-21,0.375,0.385,0.375,0.385,20000
2020-08-24,0.385,0.385,0.385,0.385,60000
2020-08-25,0.37,0.38,0.37,0.37,104000
