Date,Open,High,Low,Close,Volume
2012-01-31,3.43,3.46,3.34,3.46,8443590
2012-02-01,3.46,3.46,3.36,3.37,7249000
2012-02-02,3.41,3.51,3.41,3.49,13714731
2012-02-03,3.5,3.61,3.5,3.56,11744379
2012-02-06,3.6,3.67,3.59,3.65,14992932
2012-02-07,3.64,3.8,3.63,3.77,29378130
2012-02-08,3.75,3.91,3.75,3.84,18692258
2012-02-09,3.78,3.85,3.74,3.84,18839842
2012-02-10,3.8,4.0,3.79,3.91,15804235
2012-02-13,3.86,4.0,3.86,3.93,9165334
2012-02-14,3.93,4.02,3.86,3.92,4678466
2012-02-15,3.92,3.94,3.83,3.84,7114363
2012-02-16,3.81,3.9,3.8,3.86,4180213
2012-02-17,3.89,3.92,3.85,3.91,5389039
2012-02-20,4.0,4.0,3.9,3.9,5439299
2012-02-21,3.92,3.95,3.82,3.89,2478024
2012-02-22,3.9,4.07,3.85,4.06,7386836
2012-02-23,4.0,4.03,3.89,3.92,6842325
2012-02-24,3.96,3.98,3.88,3.95,7334022
2012-02-27,4.05,4.09,3.96,3.98,12286176
2012-02-28,4.0,4.0,3.92,3.98,4570499
2012-02-29,3.99,4.0,3.95,3.99,6250630
2012-03-01,3.99,4.0,3.96,3.98,4202909
2012-03-02,3.99,4.08,3.95,4.04,6299008
2012-03-05,4.2,4.2,4.05,4.11,4695882
2012-03-06,4.2,4.2,3.89,3.92,7374841
2012-03-07,3.83,3.87,3.72,3.78,11169516
2012-03-08,3.78,3.87,3.78,3.85,10233140
2012-03-09,3.88,4.0,3.85,3.98,9666014
2012-03-12,3.94,4.02,3.91,3.97,5745468
2012-03-13,3.98,4.05,3.98,4.0,4791952
2012-03-14,4.02,4.05,3.89,3.95,5262732
2012-03-15,3.9,3.94,3.86,3.94,3139073
2012-03-16,3.89,3.98,3.84,3.91,3794391
2012-03-19,3.91,3.94,3.84,3.84,3505018
2012-03-20,3.82,3.86,3.77,3.85,2825209
2012-03-21,3.85,3.85,3.59,3.67,7276636
2012-03-22,3.68,3.7,3.52,3.6,6176780
2012-03-23,3.52,3.59,3.51,3.56,3286000
2012-03-26,3.54,3.77,3.52,3.7,4304000
2012-03-27,3.72,3.79,3.71,3.73,2748000
2012-03-28,3.7,3.75,3.63,3.67,2292000
2012-03-29,3.58,3.66,3.55,3.59,11000400
2012-03-30,3.54,3.8,3.54,3.75,7184400
2012-04-02,3.81,3.81,3.72,3.78,2824448
2012-04-03,3.75,3.87,3.73,3.83,4820123
2012-04-05,3.8,3.89,3.75,3.89,3281309
2012-04-10,3.86,3.96,3.81,3.93,5716360
2012-04-11,3.82,3.95,3.82,3.89,2240994
2012-04-12,3.9,4.01,3.87,3.99,3155604
2012-04-13,3.99,3.99,3.91,3.97,2025743
2012-04-16,3.97,3.98,3.89,3.94,1371022
2012-04-17,3.86,3.93,3.86,3.89,2792000
2012-04-18,3.94,3.97,3.87,3.91,7116700
2012-04-19,3.92,4.05,3.9,4.04,11488726
2012-04-20,3.98,4.22,3.98,4.21,10057438
2012-04-23,4.14,4.2,4.11,4.17,5466800
2012-04-24,4.13,4.2,4.11,4.12,5428443
2012-04-25,4.12,4.14,3.99,4.01,2668000
2012-04-26,4.02,4.12,4.02,4.05,2282000
2012-04-27,4.05,4.12,3.98,4.02,2350026
2012-04-30,4.01,4.05,3.92,3.99,3895690
2012-05-02,4.04,4.08,3.98,4.04,4280000
2012-05-03,4.08,4.08,4.01,4.07,2425341
2012-05-04,4.07,4.07,3.95,4.06,2471782
2012-05-07,4.03,4.04,3.94,4.01,5624000
2012-05-08,4.06,4.06,3.96,4.04,3861900
2012-05-09,3.98,4.03,3.92,3.94,3325291
2012-05-10,3.88,3.99,3.88,3.96,2565420
2012-05-11,3.95,3.98,3.9,3.95,2496000
2012-05-14,3.95,3.95,3.86,3.87,2038231
2012-05-15,3.83,3.93,3.83,3.9,3215348
2012-05-16,3.85,3.85,3.67,3.68,5896000
2012-05-17,3.65,3.8,3.65,3.8,1919165
2012-05-18,3.65,3.73,3.63,3.71,3602886
2012-05-21,3.74,3.82,3.7,3.75,3196030
2012-05-22,3.87,3.87,3.75,3.8,3395275
2012-05-23,3.75,3.8,3.6,3.62,5227495
2012-05-24,3.58,3.74,3.57,3.74,6102000
2012-05-25,3.71,3.74,3.58,3.72,3666440
2012-05-28,3.75,3.79,3.66,3.71,3515200
2012-05-29,3.71,3.8,3.71,3.75,7162000
2012-05-30,3.73,3.83,3.73,3.77,6326900
2012-05-31,3.74,4.26,3.69,3.87,7344985
2012-06-01,3.8,3.89,3.78,3.82,7600815
2012-06-04,3.76,3.83,3.65,3.7,4111198
2012-06-05,3.67,3.83,3.65,3.78,3877204
2012-06-06,3.79,3.82,3.68,3.73,3542791
2012-06-07,3.75,3.85,3.75,3.77,4762000
2012-06-08,3.77,3.88,3.72,3.88,2779230
2012-06-11,3.93,3.93,3.85,3.86,2906181
2012-06-12,3.81,3.89,3.81,3.84,12029600
2012-06-13,3.84,3.9,3.82,3.87,3767402
2012-06-14,4.0,4.04,3.86,3.89,2823158
2012-06-15,3.83,3.94,3.83,3.86,2894800
2012-06-18,3.9,4.01,3.9,4.0,5483209
2012-06-19,3.98,4.0,3.95,3.98,1678589
2012-06-20,4.0,4.0,3.91,3.95,3875561
2012-06-21,3.95,3.96,3.84,3.85,2833961
2012-06-22,3.76,3.88,3.76,3.84,1800000
2012-06-25,3.84,3.85,3.75,3.83,5636982
2012-06-26,3.82,3.82,3.73,3.76,4822800
2012-06-27,3.79,3.86,3.75,3.78,3388000
2012-06-28,3.79,3.88,3.78,3.81,2817754
2012-06-29,3.81,3.89,3.78,3.82,3768258
2012-07-03,3.83,3.91,3.81,3.88,4897800
2012-07-04,3.91,3.93,3.86,3.91,4062400
2012-07-05,3.9,3.94,3.88,3.9,1298893
2012-07-06,3.91,3.92,3.88,3.89,2850000
2012-07-09,3.76,3.76,3.65,3.67,3805200
2012-07-10,3.7,3.74,3.62,3.66,4016616
2012-07-11,3.66,3.77,3.66,3.76,5139200
2012-07-12,3.75,3.77,3.69,3.73,4538000
2012-07-13,3.71,3.82,3.71,3.8,7459020
2012-07-16,3.81,3.81,3.69,3.72,2489046
2012-07-17,3.73,3.82,3.7,3.79,5713942
2012-07-18,3.79,3.94,3.78,3.93,8916463
2012-07-19,3.9,3.9,3.75,3.77,25948272
2012-07-20,3.79,3.94,3.75,3.9,4216202
2012-07-23,3.83,3.85,3.82,3.84,2396828
2012-07-24,3.82,3.9,3.82,3.86,4736005
2012-07-25,3.82,3.85,3.82,3.83,4305818
2012-07-26,3.8,3.88,3.8,3.85,5350327
2012-07-27,3.88,3.95,3.85,3.93,11214752
2012-07-30,3.93,4.05,3.93,4.04,3764600
2012-07-31,4.05,4.05,3.92,3.98,5710721
2012-08-01,3.98,4.01,3.96,3.99,5689207
2012-08-02,4.0,4.0,3.82,3.91,3775004
2012-08-03,3.91,3.92,3.85,3.9,3220898
2012-08-06,3.94,3.95,3.86,3.92,1612000
2012-08-07,3.91,3.97,3.85,3.86,8583000
2012-08-08,3.9,3.92,3.84,3.86,5265300
2012-08-09,3.9,3.92,3.85,3.9,4178920
2012-08-10,3.93,3.98,3.87,3.98,2821604
2012-08-13,4.0,4.0,3.85,3.89,1395200
2012-08-14,3.89,3.98,3.89,3.97,3003614
2012-08-15,3.95,4.02,3.93,4.01,6365845
2012-08-16,4.0,4.01,3.95,3.97,2206400
2012-08-17,3.95,3.98,3.93,3.95,654088
2012-08-20,4.0,4.0,3.87,3.93,4712000
2012-08-21,3.95,4.0,3.93,3.98,4359600
2012-08-22,4.08,4.08,3.97,4.01,5442617
2012-08-23,4.05,4.35,4.04,4.34,11826812
2012-08-24,4.31,4.31,4.14,4.19,3863910
2012-08-27,4.25,4.25,4.14,4.15,2746800
2012-08-28,4.15,4.15,4.06,4.09,2272000
2012-08-29,4.06,4.22,4.06,4.14,4708000
2012-08-30,4.08,4.17,4.04,4.14,4456300
2012-08-31,4.14,4.32,4.13,4.31,7541380
2012-09-03,4.25,4.3,4.19,4.25,7645209
2012-09-04,4.32,4.32,4.19,4.22,3126020
2012-09-05,4.16,4.23,4.09,4.2,5367890
2012-09-06,4.18,4.18,4.13,4.14,5962296
2012-09-07,4.17,4.24,4.16,4.2,4203027
2012-09-10,4.19,4.32,4.15,4.23,4171022
2012-09-11,4.16,4.21,4.15,4.19,3964840
2012-09-12,4.2,4.29,4.19,4.27,5098808
2012-09-13,4.25,4.39,4.25,4.35,4228288
2012-09-14,4.4,4.5,4.4,4.46,7185903
2012-09-17,4.65,4.65,4.52,4.57,9806591
2012-09-18,4.57,4.68,4.51,4.65,6886933
2012-09-19,4.63,4.63,4.46,4.52,8631422
2012-09-20,4.49,4.55,4.38,4.41,2255200
2012-09-21,4.39,4.56,4.38,4.47,5176400
2012-09-24,4.59,4.59,4.4,4.49,3413715
2012-09-25,4.5,4.56,4.47,4.55,2180392
2012-09-26,4.5,4.51,4.4,4.46,3366000
2012-09-27,4.48,4.53,4.42,4.46,7628403
2012-09-28,4.54,4.54,4.45,4.49,2601841
2012-10-03,4.59,4.62,4.48,4.54,6482722
2012-10-04,4.54,4.63,4.54,4.57,4132400
2012-10-05,4.6,4.74,4.6,4.69,7889796
2012-10-08,4.62,4.73,4.5,4.52,4124913
2012-10-09,4.5,4.58,4.47,4.5,3019343
2012-10-10,4.48,4.57,4.47,4.51,1588000
2012-10-11,4.43,4.56,4.43,4.54,4862000
2012-10-12,4.56,4.56,4.48,4.53,2205760
2012-10-15,4.49,4.52,4.27,4.5,3427126
2012-10-16,4.48,4.48,4.35,4.39,2412000
2012-10-17,4.4,4.47,4.38,4.41,4738086
2012-10-18,4.44,4.54,4.44,4.53,8944000
2012-10-19,4.56,4.59,4.48,4.55,2936164
2012-10-22,4.53,4.63,4.53,4.62,3934002
2012-10-24,4.57,4.6,4.45,4.46,5474033
2012-10-25,4.45,4.53,4.33,4.38,6927416
2012-10-26,4.43,4.49,4.4,4.46,3424813
2012-10-29,4.49,4.49,4.35,4.39,1334000
2012-10-30,4.4,4.44,4.33,4.41,2832000
2012-10-31,4.4,4.41,4.35,4.37,3020746
2012-11-01,4.34,4.46,4.34,4.4,4579303
2012-11-02,4.44,4.47,4.34,4.35,6197200
2012-11-05,4.38,4.46,4.36,4.38,2216000
2012-11-06,4.36,4.48,4.36,4.46,3260000
2012-11-07,4.5,4.52,4.27,4.35,6818000
2012-11-08,4.33,4.4,4.33,4.36,3253200
2012-11-09,4.4,4.4,4.26,4.3,1861600
2012-11-12,4.32,4.35,4.24,4.24,2776000
2012-11-13,4.25,4.27,4.1,4.13,2562200
2012-11-14,4.15,4.26,4.11,4.18,10211000
2012-11-15,4.17,4.27,4.09,4.2,5989175
2012-11-16,4.2,4.2,4.12,4.16,3570000
2012-11-19,4.1,4.25,4.1,4.24,3681658
2012-11-20,4.22,4.44,4.22,4.36,6470000
2012-11-21,4.36,4.36,4.27,4.31,4483600
2012-11-22,4.3,4.31,4.25,4.27,4552000
2012-11-23,4.28,4.37,4.25,4.35,7495200
2012-11-26,4.39,4.39,4.28,4.3,3474600
2012-11-27,4.33,4.36,4.29,4.32,3174000
2012-11-28,4.28,4.33,4.28,4.3,4983222
2012-11-29,4.3,4.35,4.28,4.31,5707344
2012-11-30,4.31,4.39,4.3,4.36,4624000
2012-12-03,4.39,4.4,4.3,4.33,3092237
2012-12-04,4.31,4.32,4.28,4.31,2970857
2012-12-05,4.34,4.34,4.3,4.33,8594806
2012-12-06,4.31,4.33,4.26,4.29,6287213
2012-12-07,4.29,4.3,4.21,4.23,8610909
2012-12-10,4.25,4.3,4.24,4.28,9268400
2012-12-11,4.27,4.33,4.27,4.29,15133568
2012-12-12,4.34,4.36,4.28,4.35,14056960
2012-12-13,4.38,4.42,4.35,4.4,8993522
2012-12-14,4.35,4.42,4.32,4.35,4246215
2012-12-17,4.37,4.38,4.26,4.31,6104590
2012-12-18,4.32,4.5,4.32,4.49,6472640
2012-12-19,4.49,4.57,4.43,4.53,7114213
2012-12-20,4.49,4.55,4.43,4.49,4035426
2012-12-21,4.56,4.56,4.35,4.36,3210000
2012-12-24,4.33,4.41,4.3,4.39,1336300
2012-12-27,4.41,4.5,4.41,4.47,2059218
2012-12-28,4.47,4.49,4.4,4.46,1951000
2012-12-31,4.46,4.49,4.41,4.48,1084000
2013-01-02,4.48,4.65,4.42,4.62,4164447
2013-01-03,4.75,4.75,4.66,4.7,4714311
2013-01-04,4.67,4.68,4.55,4.63,7652369
2013-01-07,4.6,4.74,4.59,4.65,7724831
2013-01-08,4.63,4.68,4.62,4.67,2564599
2013-01-09,4.71,4.72,4.63,4.67,2827649
2013-01-10,4.65,4.98,4.65,4.93,11937422
2013-01-11,4.98,4.98,4.72,4.82,5360301
2013-01-14,4.79,4.85,4.76,4.85,4220966
2013-01-15,4.88,4.97,4.81,4.96,5734328
2013-01-16,4.96,4.96,4.78,4.92,4394000
2013-01-17,4.88,4.92,4.68,4.8,4585400
2013-01-18,4.79,4.89,4.7,4.75,4111200
2013-01-21,4.75,4.8,4.67,4.71,3957600
2013-01-22,4.65,4.8,4.65,4.8,2695373
2013-01-23,4.82,4.84,4.72,4.81,2759825
2013-01-24,4.84,4.87,4.76,4.78,3362275
2013-01-25,4.76,4.76,4.44,4.46,6052820
2013-01-28,4.5,4.67,4.47,4.65,3608100
2013-01-29,4.64,4.7,4.57,4.65,4192307
2013-01-30,4.69,4.75,4.64,4.67,1835244
2013-01-31,4.67,4.73,4.65,4.72,3532418
2013-02-01,4.72,4.76,4.67,4.75,4574473
2013-02-04,4.77,4.8,4.74,4.75,2930022
2013-02-05,4.73,4.73,4.62,4.65,3088000
2013-02-06,4.65,4.86,4.65,4.76,5799775
2013-02-07,4.73,4.84,4.72,4.79,4246822
2013-02-08,4.76,4.9,4.75,4.87,5297932
2013-02-14,4.9,5.13,4.88,4.98,7302377
2013-02-15,4.96,5.06,4.93,5.04,7438254
2013-02-18,5.0,5.01,4.86,4.89,8610157
2013-02-19,4.92,4.92,4.82,4.84,3940703
2013-02-20,5.0,5.02,4.94,4.99,5000858
2013-02-21,4.9,5.08,4.9,5.07,5538386
2013-02-22,5.07,5.07,4.95,4.98,6996778
2013-02-25,4.94,5.04,4.94,5.03,2478800
2013-02-26,4.98,5.07,4.95,5.02,8458004
2013-02-27,4.96,4.96,4.72,4.84,5243600
2013-02-28,4.89,4.98,4.76,4.85,9053370
2013-03-01,4.93,4.98,4.85,4.98,2659870
2013-03-04,4.97,4.97,4.81,4.85,4551452
2013-03-05,4.83,4.88,4.81,4.85,4983779
2013-03-06,4.84,5.04,4.84,5.02,4700444
2013-03-07,5.03,5.06,4.95,4.95,3375453
2013-03-08,4.95,5.05,4.82,4.9,5570307
2013-03-11,4.9,5.08,4.89,5.0,5556137
2013-03-12,4.98,5.04,4.78,4.88,3605660
2013-03-13,4.88,4.9,4.62,4.71,7051676
2013-03-14,4.62,5.05,4.46,5.04,10797859
2013-03-15,5.19,5.32,5.1,5.22,29193258
2013-03-18,5.1,5.24,4.87,5.23,14128805
2013-03-19,5.23,5.25,4.86,4.93,14080809
2013-03-20,4.97,5.04,4.91,5.0,4092200
2013-03-21,5.0,5.08,4.94,5.01,7260511
2013-03-22,4.96,5.03,4.95,4.95,3117161
2013-03-25,4.95,4.96,4.83,4.85,4899323
2013-03-26,4.73,5.05,4.73,4.98,6863209
2013-03-27,5.04,5.2,4.94,5.16,9415013
2013-03-28,5.16,5.16,4.94,5.01,6402000
2013-04-02,5.01,5.2,5.01,5.12,9173696
2013-04-03,5.15,5.18,5.05,5.14,13470226
2013-04-05,5.17,5.17,5.04,5.12,9728923
2013-04-08,5.07,5.23,5.07,5.17,5245560
2013-04-09,5.25,5.37,5.19,5.32,13331854
2013-04-10,5.28,5.35,5.24,5.33,7120102
2013-04-11,5.32,5.32,5.17,5.19,6484200
2013-04-12,5.25,5.25,5.18,5.19,3456833
2013-04-15,5.13,5.32,5.1,5.25,7516164
2013-04-16,5.15,5.24,5.14,5.2,10311218
2013-04-17,5.2,5.23,5.16,5.19,14189479
2013-04-18,5.13,5.25,5.13,5.18,7095000
2013-04-19,5.18,5.24,5.14,5.23,7653606
2013-04-22,5.29,5.64,5.29,5.63,20159850
2013-04-23,5.63,5.64,5.47,5.56,10203946
2013-04-24,5.49,5.75,5.49,5.71,11087140
2013-04-25,5.71,5.72,5.57,5.7,11664101
2013-04-26,5.72,5.72,5.5,5.53,8464289
2013-04-29,5.56,5.68,5.52,5.68,8144265
2013-04-30,5.74,5.82,5.66,5.68,10700326
2013-05-02,5.74,5.78,5.65,5.72,10427546
2013-05-03,5.78,5.78,5.61,5.65,5456135
2013-05-06,5.7,5.77,5.67,5.73,4972516
2013-05-07,5.68,5.73,5.59,5.61,5071174
2013-05-08,5.67,5.7,5.62,5.64,4450101
2013-05-09,5.6,5.66,5.51,5.51,9180034
2013-05-10,5.55,5.59,5.48,5.55,6422606
2013-05-13,5.52,5.54,5.39,5.46,6416365
2013-05-14,5.5,5.64,5.46,5.58,4859340
2013-05-15,5.64,5.69,5.56,5.6,7264739
2013-05-16,5.6,5.65,5.38,5.4,11024004
2013-05-20,5.48,5.48,5.07,5.16,17884404
2013-05-21,5.15,5.31,5.12,5.29,14261429
2013-05-22,5.3,5.33,5.16,5.26,24894380
2013-05-23,5.29,5.39,5.25,5.31,28682180
2013-05-24,5.27,5.35,5.17,5.24,8302098
2013-05-27,5.17,5.22,5.16,5.19,2784462
2013-05-28,5.16,5.22,5.12,5.2,4803216
2013-05-29,5.22,5.31,5.16,5.19,10665793
2013-05-30,5.2,5.23,5.15,5.17,5608371
2013-05-31,5.17,5.19,5.06,5.1,7084509
2013-06-03,5.05,5.05,4.63,4.7,22204340
2013-06-04,4.75,4.88,4.71,4.87,13218416
2013-06-05,4.84,4.88,4.77,4.85,10788190
2013-06-06,4.79,4.83,4.69,4.73,8084852
2013-06-07,4.74,4.9,4.74,4.83,13662046
2013-06-10,4.84,4.89,4.78,4.8,8466000
2013-06-11,4.83,4.96,4.8,4.89,13442774
2013-06-13,4.78,4.86,4.48,4.71,16637497
2013-06-14,4.72,4.88,4.71,4.78,7103785
2013-06-17,4.8,4.87,4.74,4.82,4236929
2013-06-18,4.72,4.78,4.62,4.67,7072106
2013-06-19,4.67,4.73,4.62,4.7,5720664
2013-06-20,4.7,4.7,4.55,4.57,6178476
2013-06-21,4.48,4.62,4.48,4.6,6203535
2013-06-24,4.51,4.73,4.48,4.5,10038386
2013-06-25,4.5,4.59,4.34,4.41,9669348
2013-06-26,4.41,4.92,4.41,4.86,16854450
2013-06-27,4.92,4.95,4.78,4.88,12864002
2013-06-28,4.86,4.9,4.67,4.9,11555039
2013-07-02,4.99,4.99,4.77,4.89,7881599
2013-07-03,4.83,4.85,4.73,4.81,8142903
2013-07-04,4.86,4.86,4.74,4.76,5484954
2013-07-05,4.8,4.83,4.76,4.77,8938330
2013-07-08,4.58,4.6,4.35,4.46,9003407
2013-07-09,4.43,4.48,4.34,4.41,10708800
2013-07-10,4.45,4.46,4.36,4.4,5365226
2013-07-11,4.38,4.54,4.38,4.49,7497160
2013-07-12,4.54,4.8,4.51,4.78,10810601
2013-07-15,4.91,4.91,4.75,4.82,15361029
2013-07-16,4.79,4.8,4.62,4.66,12808830
2013-07-17,4.66,4.68,4.53,4.6,9766882
2013-07-18,4.62,4.73,4.56,4.65,5561199
2013-07-19,4.67,4.9,4.66,4.9,11403400
2013-07-22,5.0,5.0,4.79,4.81,5388125
2013-07-23,4.75,4.92,4.75,4.85,8564444
2013-07-24,4.79,4.93,4.79,4.9,15562400
2013-07-25,4.89,5.06,4.87,4.91,8684321
2013-07-26,4.9,4.98,4.83,4.9,11698482
2013-07-29,4.89,5.03,4.89,5.0,12408608
2013-07-30,4.94,5.02,4.9,4.98,4434316
2013-07-31,4.95,5.12,4.91,5.04,12166889
2013-08-01,5.02,5.32,5.02,5.23,12811561
2013-08-02,5.28,5.28,5.12,5.24,11845852
2013-08-05,5.2,5.29,5.07,5.17,7926168
2013-08-06,5.12,5.17,5.06,5.09,6891830
2013-08-07,5.08,5.2,5.03,5.05,7140913
2013-08-08,5.02,5.09,4.98,5.0,7197362
2013-08-09,5.0,5.19,4.99,5.01,6818204
2013-08-12,5.05,5.24,5.03,5.22,13269712
2013-08-13,5.25,5.25,5.15,5.23,6343822
2013-08-15,5.2,5.24,5.17,5.22,9725275
2013-08-16,5.23,5.25,5.14,5.21,7491379
2013-08-19,5.2,5.35,5.2,5.31,7375720
2013-08-20,5.29,5.29,5.21,5.27,10976498
2013-08-21,5.25,5.38,5.21,5.3,11454321
2013-08-22,5.23,5.35,5.17,5.34,13429465
2013-08-23,5.35,5.43,5.31,5.36,12992125
2013-08-26,5.36,5.42,5.29,5.37,9124790
2013-08-27,5.35,5.36,5.22,5.24,10298913
2013-08-28,5.13,5.49,5.1,5.48,16664713
2013-08-29,5.48,5.48,5.31,5.37,14509445
2013-08-30,5.31,5.38,5.1,5.21,17008660
2013-09-02,5.17,5.28,5.1,5.16,11288499
2013-09-03,5.16,5.17,5.1,5.15,14180571
2013-09-04,5.15,5.15,5.05,5.12,6955401
2013-09-05,5.08,5.14,5.01,5.02,15886396
2013-09-06,5.03,5.08,4.97,5.0,6316739
2013-09-09,4.99,5.0,4.9,4.94,9724402
2013-09-10,4.98,5.02,4.92,4.98,17892604
2013-09-11,4.98,5.02,4.91,4.92,6798796
2013-09-12,4.95,5.12,4.94,5.0,13246050
2013-09-13,5.0,5.0,4.83,4.93,11954684
2013-09-16,4.95,4.96,4.86,4.95,4039522
2013-09-17,4.95,4.96,4.84,4.91,6881941
2013-09-18,4.89,4.94,4.86,4.91,3021317
2013-09-19,4.9,4.95,4.85,4.86,4476929
2013-09-23,4.86,4.95,4.75,4.79,8341598
2013-09-24,4.77,4.83,4.7,4.71,11953716
2013-09-25,4.71,4.79,4.69,4.76,11756234
2013-09-26,4.79,4.79,4.58,4.63,13460693
2013-09-27,4.64,4.7,4.48,4.53,22427060
2013-09-30,4.45,4.54,4.38,4.53,15921795
2013-10-02,4.46,4.73,4.46,4.69,15153489
2013-10-03,4.67,4.84,4.67,4.81,14922222
2013-10-04,4.81,4.85,4.77,4.81,13677197
2013-10-07,4.83,4.83,4.75,4.79,6862837
2013-10-08,4.8,4.83,4.74,4.8,7816214
2013-10-09,4.76,4.78,4.73,4.75,9471725
2013-10-10,4.77,4.79,4.7,4.76,8667208
2013-10-11,4.83,4.94,4.77,4.91,56123676
2013-10-15,4.93,4.95,4.81,4.81,13542594
2013-10-16,4.81,4.82,4.73,4.75,9770239
2013-10-17,4.8,4.84,4.78,4.8,7432776
2013-10-18,4.8,4.84,4.79,4.83,5081098
2013-10-21,4.85,4.97,4.85,4.9,13068293
2013-10-22,4.91,4.97,4.85,4.96,11959623
2013-10-23,4.96,4.96,4.75,4.76,14709986
2013-10-24,4.79,4.84,4.71,4.79,7047212
2013-10-25,4.82,4.94,4.8,4.89,89507184
2013-10-28,4.95,4.96,4.83,4.84,4198920
2013-10-29,4.84,4.84,4.68,4.69,8372000
2013-10-30,4.71,4.87,4.71,4.85,33735732
2013-10-31,4.82,4.88,4.72,4.75,14203973
2013-11-01,4.76,4.77,4.68,4.73,11552818
2013-11-04,4.73,4.74,4.66,4.67,5835684
2013-11-05,4.68,4.74,4.67,4.7,5421408
2013-11-06,4.73,4.77,4.69,4.76,5940232
2013-11-07,4.74,4.76,4.7,4.74,3197308
2013-11-08,4.73,4.73,4.66,4.69,7041145
2013-11-11,4.64,4.66,4.54,4.57,4648042
2013-11-12,4.61,4.71,4.56,4.69,6108000
2013-11-13,4.65,4.65,4.56,4.57,6467944
2013-11-14,4.61,4.64,4.58,4.6,4832686
2013-11-15,4.65,4.74,4.61,4.69,12196458
2013-11-18,4.71,4.8,4.64,4.79,12889383
2013-11-19,4.79,4.87,4.71,4.73,8102823
2013-11-20,4.79,4.84,4.75,4.84,9352018
2013-11-21,4.88,4.88,4.76,4.83,7021827
2013-11-22,4.88,4.97,4.84,4.96,10567442
2013-11-25,5.05,5.1,4.96,5.01,12403218
2013-11-26,4.98,5.01,4.81,4.9,29741452
2013-11-27,4.87,4.98,4.84,4.88,7329428
2013-11-28,4.96,5.02,4.93,5.0,7806821
2013-11-29,5.02,5.1,4.97,5.08,8826358
2013-12-02,5.08,5.08,4.92,4.93,8739223
2013-12-03,4.96,5.0,4.89,4.9,5314151
2013-12-04,4.9,5.01,4.89,4.96,9862831
2013-12-05,5.15,5.22,4.97,5.03,26500018
2013-12-06,5.0,5.08,4.91,4.95,5547811
2013-12-09,4.96,5.01,4.87,4.9,4744790
2013-12-10,4.91,4.95,4.85,4.87,6611506
2013-12-11,4.87,4.87,4.79,4.84,7204376
2013-12-12,4.81,4.92,4.8,4.85,5688433
2013-12-13,4.8,4.87,4.8,4.83,6954437
2013-12-16,4.83,4.83,4.67,4.68,8667582
2013-12-17,4.78,4.85,4.7,4.79,7900557
2013-12-18,4.8,4.83,4.73,4.81,4646782
2013-12-19,4.78,4.86,4.7,4.71,8116109
2013-12-20,4.7,4.74,4.63,4.7,8428964
2013-12-23,4.68,4.81,4.63,4.8,6588025
2013-12-24,4.78,4.83,4.73,4.76,3818792
2013-12-27,4.73,4.82,4.72,4.81,5467171
2013-12-30,4.84,4.84,4.68,4.75,4916489
2013-12-31,4.78,4.82,4.72,4.8,3064590
2014-01-02,4.84,4.85,4.72,4.77,2561000
2014-01-03,4.74,4.79,4.68,4.72,7121027
2014-01-06,4.72,4.75,4.64,4.69,3640159
2014-01-07,4.67,4.69,4.55,4.57,6872556
2014-01-08,4.58,4.61,4.49,4.54,11038959
2014-01-09,4.54,4.54,4.36,4.38,20547700
2014-01-10,4.39,4.58,4.39,4.47,12781213
2014-01-13,4.49,4.52,4.43,4.47,5874416
2014-01-14,4.43,4.55,4.43,4.45,7463977
2014-01-15,4.44,4.48,4.4,4.41,11162790
2014-01-16,4.41,4.44,4.37,4.4,15674019
2014-01-17,4.4,4.48,4.36,4.38,11075632
2014-01-20,4.39,4.42,4.25,4.32,12910000
2014-01-21,4.33,4.42,4.33,4.39,8954862
2014-01-22,4.42,4.42,4.36,4.4,6929798
2014-01-23,4.4,4.42,4.28,4.3,6491481
2014-01-24,4.3,4.39,4.27,4.28,5082800
2014-01-27,4.2,4.25,4.13,4.16,9881264
2014-01-28,4.16,4.22,4.13,4.14,6047536
2014-01-29,4.18,4.33,4.16,4.33,7113981
2014-01-30,4.26,4.26,4.15,4.2,5550861
2014-02-04,4.1,4.25,4.1,4.11,6693451
2014-02-05,4.18,4.2,4.12,4.13,5355343
2014-02-06,4.13,4.26,4.13,4.24,5567301
2014-02-07,4.22,4.29,4.2,4.25,3521232
2014-02-10,4.26,4.27,4.16,4.2,10569930
2014-02-11,4.25,4.25,4.12,4.13,12125188
2014-02-12,4.14,4.18,4.13,4.16,10672426
2014-02-13,4.17,4.21,4.13,4.17,8783081
2014-02-14,4.22,4.23,4.15,4.17,4884259
2014-02-17,4.17,4.21,4.12,4.15,15190054
2014-02-18,4.15,4.16,4.07,4.09,8870138
2014-02-19,4.09,4.09,3.96,4.0,13611242
2014-02-20,4.01,4.1,4.01,4.07,13045543
2014-02-21,4.1,4.12,4.05,4.07,4012184
2014-02-24,4.04,4.05,4.0,4.02,3037244
2014-02-25,4.09,4.1,3.84,3.87,9796586
2014-02-26,3.82,3.89,3.82,3.86,6879744
2014-02-27,3.89,3.89,3.81,3.83,5949341
2014-02-28,3.84,3.85,3.63,3.65,25737506
2014-03-03,3.64,3.81,3.64,3.78,12008574
2014-03-04,3.79,3.84,3.78,3.8,8442507
2014-03-05,3.81,3.82,3.65,3.65,13007657
2014-03-06,3.7,3.71,3.64,3.67,13791225
2014-03-07,3.69,3.69,3.63,3.64,6745389
2014-03-10,3.64,3.71,3.6,3.65,12556781
2014-03-11,3.7,3.7,3.6,3.62,6511626
2014-03-12,3.63,3.63,3.5,3.56,7256955
2014-03-13,3.57,3.57,3.48,3.52,7325072
2014-03-14,3.45,3.52,3.43,3.43,4911030
2014-03-17,3.41,3.44,3.38,3.42,5185644
2014-03-18,3.42,3.47,3.41,3.42,4587251
2014-03-19,3.42,3.46,3.37,3.37,10561102
2014-03-20,3.36,3.4,3.28,3.29,12760000
2014-03-21,3.3,3.37,3.3,3.33,21456356
2014-03-24,3.33,3.38,3.32,3.36,19177676
2014-03-25,3.33,3.37,3.33,3.35,9399158
2014-03-26,3.34,3.41,3.3,3.34,19270800
2014-03-27,3.36,3.7,3.36,3.69,42704096
2014-03-28,3.68,3.68,3.53,3.62,17293066
2014-03-31,3.68,3.68,3.54,3.59,18451564
2014-04-01,3.55,3.6,3.45,3.47,17317828
2014-04-02,3.49,3.5,3.41,3.42,15059237
2014-04-03,3.45,3.58,3.43,3.55,18634132
2014-04-04,3.5,3.54,3.48,3.49,11373398
2014-04-07,3.47,3.56,3.46,3.5,7871509
2014-04-08,3.47,3.58,3.46,3.58,9207441
2014-04-09,3.56,3.75,3.56,3.71,26209928
2014-04-10,3.75,3.77,3.66,3.74,23470208
2014-04-11,3.71,3.79,3.66,3.71,13903996
2014-04-14,3.67,3.74,3.62,3.64,11160467
2014-04-15,3.67,3.82,3.64,3.75,17759320
2014-04-16,3.74,3.84,3.7,3.74,11345670
2014-04-17,3.75,3.8,3.74,3.77,8712795
2014-04-22,3.81,3.85,3.72,3.84,8225984
2014-04-23,3.83,3.84,3.74,3.78,8306000
2014-04-24,3.79,3.8,3.72,3.75,7745000
2014-04-25,3.76,3.79,3.7,3.7,3656000
2014-04-28,3.71,3.71,3.63,3.66,7482186
2014-04-29,3.69,3.82,3.64,3.8,7659470
2014-04-30,3.83,3.98,3.77,3.93,28477360
2014-05-02,3.88,3.91,3.73,3.75,17707504
2014-05-05,3.76,3.76,3.66,3.69,7568400
2014-05-07,3.71,3.71,3.6,3.62,6367841
2014-05-08,3.64,3.66,3.55,3.57,6943088
2014-05-09,3.6,3.7,3.56,3.68,9595026
2014-05-12,3.68,3.68,3.59,3.64,2029532
2014-05-13,3.64,3.64,3.59,3.63,3766000
2014-05-14,3.62,3.68,3.61,3.66,3652000
2014-05-15,3.64,3.65,3.59,3.64,1756247
2014-05-16,3.6,3.68,3.59,3.66,4163740
2014-05-19,3.66,3.69,3.62,3.66,1390352
2014-05-20,3.64,3.67,3.61,3.64,2928440
2014-05-21,3.62,3.67,3.61,3.65,1572900
2014-05-22,3.68,3.78,3.63,3.77,8630000
2014-05-23,3.77,3.77,3.68,3.7,6544639
2014-05-26,3.74,3.74,3.67,3.68,3380000
2014-05-27,3.75,3.9,3.75,3.82,15206000
2014-05-28,3.84,3.86,3.71,3.72,10386532
2014-05-29,3.73,3.77,3.69,3.72,6598404
2014-05-30,3.71,3.77,3.67,3.68,9633969
2014-06-03,3.7,3.73,3.56,3.6,17246000
2014-06-04,3.61,3.64,3.56,3.56,10587660
2014-06-05,3.6,3.66,3.57,3.62,5610633
2014-06-06,3.65,3.67,3.55,3.57,12821128
2014-06-09,3.58,3.63,3.56,3.57,8230422
2014-06-10,3.59,3.65,3.56,3.65,5502300
2014-06-11,3.65,3.66,3.6,3.62,5353820
2014-06-12,3.62,3.68,3.61,3.64,6860000
2014-06-13,3.65,3.72,3.64,3.7,7531046
2014-06-16,3.7,3.73,3.59,3.64,9472138
2014-06-17,3.64,3.7,3.63,3.67,6580000
2014-06-18,3.69,3.74,3.69,3.72,6294300
2014-06-19,3.74,3.74,3.62,3.65,4026601
2014-06-20,3.68,3.74,3.65,3.73,6704047
2014-06-23,3.72,3.73,3.66,3.67,2927195
2014-06-24,3.67,3.73,3.66,3.67,3485920
2014-06-25,3.69,3.71,3.65,3.68,4100000
2014-06-26,3.7,3.72,3.66,3.71,5620326
2014-06-27,3.7,3.72,3.67,3.69,9019391
2014-06-30,3.71,3.78,3.7,3.77,6434000
2014-07-02,3.8,3.85,3.75,3.83,9736374
2014-07-03,3.85,3.87,3.79,3.82,7545520
2014-07-04,3.84,3.9,3.83,3.88,12219420
2014-07-07,3.89,3.9,3.83,3.87,8632109
2014-07-08,3.78,3.78,3.7,3.73,7892242
2014-07-09,3.7,3.7,3.6,3.61,6214000
2014-07-10,3.63,3.68,3.61,3.65,14573927
2014-07-11,3.61,3.65,3.61,3.63,6929561
2014-07-14,3.75,3.99,3.75,3.92,57830064
2014-07-15,3.93,3.98,3.83,3.88,26211264
2014-07-16,3.9,3.92,3.85,3.88,39550808
2014-07-17,3.91,3.91,3.84,3.88,13794493
2014-07-18,3.83,3.91,3.81,3.87,6042592
2014-07-21,3.89,3.89,3.77,3.78,13230800
2014-07-22,3.8,3.8,3.69,3.71,25939600
2014-07-23,3.73,3.77,3.71,3.76,13953000
2014-07-24,3.78,3.85,3.76,3.85,15170650
2014-07-25,3.87,3.88,3.8,3.84,12756000
2014-07-28,3.82,3.86,3.76,3.78,17578000
2014-07-29,3.79,3.83,3.78,3.8,6928000
2014-07-30,3.81,3.82,3.73,3.75,11856000
2014-07-31,3.77,3.81,3.76,3.8,15513400
2014-08-01,3.79,3.79,3.71,3.74,11066650
2014-08-04,3.75,3.75,3.68,3.75,4950000
2014-08-05,3.76,3.79,3.72,3.75,6231334
2014-08-06,3.75,3.82,3.71,3.8,12365676
2014-08-07,3.81,3.82,3.69,3.7,14153000
2014-08-08,3.73,3.8,3.72,3.8,6618317
2014-08-11,3.8,3.8,3.73,3.76,6264400
2014-08-12,3.78,3.79,3.74,3.79,4700760
2014-08-13,3.8,3.88,3.76,3.87,9572000
2014-08-14,3.87,3.89,3.8,3.84,5579682
2014-08-15,3.83,3.87,3.8,3.82,4066892
2014-08-18,3.8,3.83,3.75,3.79,5542667
2014-08-19,3.82,3.84,3.79,3.84,7802000
2014-08-20,3.85,3.86,3.79,3.85,7152000
2014-08-21,3.88,3.89,3.82,3.84,4160000
2014-08-22,3.86,3.88,3.83,3.84,5572000
2014-08-25,3.84,3.87,3.82,3.86,4392400
2014-08-26,3.86,3.95,3.83,3.9,10737235
2014-08-27,3.94,3.97,3.89,3.9,9699940
2014-08-28,3.92,3.96,3.75,3.77,15822800
2014-08-29,3.78,3.84,3.71,3.74,15166947
2014-09-01,3.73,3.74,3.68,3.69,10740000
2014-09-02,3.7,3.73,3.68,3.68,14516000
2014-09-03,3.69,3.74,3.69,3.71,10441331
2014-09-04,3.73,3.74,3.71,3.72,16837340
2014-09-05,3.75,3.79,3.73,3.78,28753760
2014-09-08,3.78,3.84,3.78,3.82,10873200
2014-09-10,3.81,3.82,3.75,3.75,11923200
2014-09-11,3.75,3.8,3.7,3.72,14508000
2014-09-12,3.71,3.75,3.71,3.73,10283267
2014-09-15,3.7,3.73,3.69,3.7,4938148
2014-09-16,3.68,3.72,3.65,3.68,7972200
2014-09-17,3.7,3.76,3.67,3.75,10741600
2014-09-18,3.73,3.75,3.71,3.71,4478407
2014-09-19,3.75,3.76,3.73,3.75,6978890
2014-09-22,3.75,3.75,3.69,3.72,5500000
2014-09-23,3.69,3.73,3.68,3.71,8328400
2014-09-24,3.71,3.75,3.7,3.74,3437200
2014-09-25,3.76,3.76,3.7,3.72,4695200
2014-09-26,3.72,3.72,3.65,3.69,5815375
2014-09-29,3.62,3.68,3.62,3.66,9634000
2014-09-30,3.63,3.66,3.53,3.61,9890705
2014-10-03,3.58,3.58,3.51,3.57,11472800
2014-10-06,3.61,3.63,3.54,3.63,6920800
2014-10-07,3.65,3.69,3.6,3.66,8582000
2014-10-08,3.65,3.72,3.64,3.7,9415400
2014-10-09,3.7,3.72,3.61,3.62,10513618
2014-10-10,3.58,3.6,3.55,3.58,8825400
2014-10-13,3.55,3.58,3.48,3.51,5608877
2014-10-14,3.51,3.58,3.51,3.55,8381705
2014-10-15,3.53,3.56,3.51,3.53,5899398
2014-10-16,3.54,3.54,3.45,3.47,8075930
2014-10-17,3.49,3.61,3.46,3.54,29120706
2014-10-20,3.6,3.62,3.56,3.56,6164064
2014-10-21,3.56,3.61,3.53,3.54,5207089
2014-10-22,3.55,3.61,3.54,3.6,3671386
2014-10-23,3.57,3.6,3.55,3.57,1817150
2014-10-24,3.59,3.59,3.51,3.53,2602317
2014-10-27,3.51,3.55,3.49,3.55,1758009
2014-10-28,3.54,3.58,3.51,3.58,2244000
2014-10-29,3.59,3.61,3.56,3.6,5460412
2014-10-30,3.56,3.61,3.56,3.61,5837824
2014-10-31,3.63,3.65,3.6,3.64,3966000
2014-11-03,3.66,3.67,3.61,3.64,1934000
2014-11-04,3.61,3.72,3.61,3.7,6248440
2014-11-05,3.7,3.72,3.66,3.71,6046494
2014-11-06,3.73,3.73,3.67,3.7,1725342
2014-11-07,3.72,3.72,3.64,3.67,4670769
2014-11-10,3.67,3.71,3.61,3.65,7268000
2014-11-11,3.67,3.72,3.63,3.71,9686000
2014-11-12,3.73,3.75,3.71,3.73,8528708
2014-11-13,3.71,3.76,3.71,3.74,9594516
2014-11-14,3.75,3.79,3.73,3.79,6532000
2014-11-17,3.89,3.92,3.73,3.74,13688000
2014-11-18,3.77,3.77,3.67,3.71,6370401
2014-11-19,3.68,3.73,3.67,3.71,3831004
2014-11-20,3.72,3.72,3.66,3.69,3036000
2014-11-21,3.69,3.74,3.68,3.7,5217334
2014-11-24,3.77,3.78,3.74,3.77,5287800
2014-11-25,3.75,3.77,3.73,3.75,5688073
2014-11-26,3.77,3.8,3.75,3.79,2918359
2014-11-27,3.78,3.82,3.77,3.81,6439711
2014-11-28,3.81,3.82,3.77,3.78,4276400
2014-12-01,3.78,3.78,3.68,3.69,4878000
2014-12-02,3.69,3.75,3.67,3.75,6828000
2014-12-03,3.76,3.78,3.69,3.71,9685728
2014-12-04,3.73,3.79,3.71,3.79,5816908
2014-12-05,3.8,3.8,3.67,3.68,14392493
2014-12-08,3.68,3.7,3.65,3.68,6374965
2014-12-09,3.66,3.69,3.61,3.68,7120858
2014-12-10,3.64,3.74,3.63,3.73,7762624
2014-12-11,3.69,3.69,3.62,3.65,4916000
2014-12-12,3.68,3.74,3.63,3.65,5006710
2014-12-15,3.61,3.69,3.6,3.68,3658286
2014-12-16,3.68,3.72,3.65,3.72,7507626
2014-12-17,3.73,3.73,3.63,3.64,7020654
2014-12-18,3.72,3.72,3.61,3.62,4983292
2014-12-19,3.63,3.65,3.57,3.63,7448815
2014-12-22,3.63,3.66,3.61,3.62,4886355
2014-12-23,3.61,3.67,3.61,3.64,3634195
2014-12-24,3.62,3.66,3.55,3.59,4504439
2014-12-29,3.64,3.64,3.57,3.57,4604778
2014-12-30,3.56,3.63,3.56,3.61,4110800
2014-12-31,3.63,3.67,3.61,3.64,2201000
2015-01-02,3.64,3.69,3.63,3.67,2940813
2015-01-05,3.63,3.71,3.63,3.67,6306500
2015-01-06,3.71,3.73,3.67,3.72,11308292
2015-01-07,3.74,3.75,3.68,3.74,4386463
2015-01-08,3.73,3.78,3.7,3.78,6137387
2015-01-09,3.79,3.8,3.69,3.7,7600897
2015-01-12,3.7,3.74,3.66,3.66,4501383
2015-01-13,3.65,3.72,3.65,3.68,3471428
2015-01-14,3.67,3.72,3.67,3.68,3584800
2015-01-15,3.68,3.68,3.6,3.63,9038077
2015-01-16,3.59,3.65,3.58,3.6,6815684
2015-01-17,3.64,3.64,3.64,3.64,0
2015-01-19,3.6,3.61,3.44,3.53,11504000
2015-01-20,3.48,3.58,3.48,3.54,11371492
2015-01-21,3.56,3.57,3.53,3.55,7881340
2015-01-22,3.58,3.61,3.56,3.57,11068861
2015-01-23,3.59,3.6,3.55,3.57,5478772
2015-01-26,3.56,3.59,3.55,3.58,6872701
2015-01-27,3.6,3.6,3.52,3.53,8540833
2015-01-28,3.53,3.56,3.52,3.53,6483937
2015-01-29,3.52,3.55,3.49,3.51,6457368
2015-01-30,3.51,3.54,3.48,3.5,8429600
2015-02-02,3.5,3.53,3.49,3.5,5571176
2015-02-03,3.5,3.53,3.49,3.49,5036000
2015-02-04,3.5,3.52,3.45,3.49,12715841
2015-02-05,3.5,3.52,3.48,3.5,8538576
2015-02-06,3.5,3.53,3.48,3.51,5316991
2015-02-09,3.5,3.52,3.49,3.49,2522000
2015-02-10,3.54,3.55,3.49,3.52,5326813
2015-02-11,3.54,3.55,3.52,3.54,3239275
2015-02-12,3.56,3.6,3.52,3.57,14186222
2015-02-13,3.55,3.59,3.55,3.57,3407786
2015-02-16,3.6,3.6,3.52,3.52,7845800
2015-02-17,3.55,3.55,3.51,3.53,2930000
2015-02-18,3.51,3.55,3.51,3.54,932200
2015-02-23,3.56,3.56,3.52,3.54,2700797
2015-02-24,3.56,3.56,3.51,3.54,6422034
2015-02-25,3.56,3.57,3.5,3.52,6604000
2015-02-26,3.52,3.55,3.52,3.53,6246800
2015-02-27,3.55,3.59,3.52,3.56,5879053
2015-03-02,3.57,3.59,3.52,3.54,8244004
2015-03-03,3.54,3.56,3.47,3.49,9811500
2015-03-04,3.5,3.5,3.45,3.46,6324009
2015-03-05,3.46,3.49,3.43,3.44,7821142
2015-03-06,3.47,3.49,3.43,3.47,7397617
2015-03-09,3.45,3.45,3.38,3.43,8608894
2015-03-10,3.42,3.43,3.39,3.42,7953982
2015-03-11,3.39,3.42,3.37,3.38,5357026
2015-03-12,3.41,3.42,3.38,3.38,6119507
2015-03-13,3.38,3.4,3.36,3.37,6840861
2015-03-16,3.37,3.37,3.31,3.34,7809088
2015-03-17,3.35,3.36,3.33,3.33,6384400
2015-03-18,3.35,3.39,3.31,3.36,9756750
2015-03-19,3.42,3.43,3.37,3.4,9430000
2015-03-20,3.42,3.42,3.37,3.38,12571085
2015-03-23,3.4,3.42,3.38,3.39,10742511
2015-03-24,3.41,3.44,3.38,3.43,4715806
2015-03-25,3.43,3.46,3.32,3.34,14375800
2015-03-26,3.34,3.34,3.28,3.29,19244036
2015-03-27,3.33,3.34,3.3,3.31,10785891
2015-03-30,3.35,3.43,3.34,3.4,17366334
2015-03-31,3.43,3.47,3.42,3.44,14852078
2015-04-01,3.48,3.57,3.43,3.56,35190880
2015-04-02,3.58,3.66,3.57,3.65,22909972
2015-04-08,3.76,4.03,3.74,3.94,67432176
2015-04-09,4.04,4.33,4.04,4.2,57116652
2015-04-10,4.25,4.3,4.05,4.19,38496992
2015-04-13,4.2,4.21,4.11,4.19,55462200
2015-04-14,4.19,4.2,3.95,4.01,36094808
2015-04-15,4.06,4.12,3.99,4.06,19950648
2015-04-16,4.08,4.2,4.06,4.18,28488916
2015-04-17,4.21,4.37,4.19,4.2,40054704
2015-04-20,4.21,4.24,4.05,4.07,22637400
2015-04-21,4.13,4.17,4.06,4.12,12144064
2015-04-22,4.14,4.23,4.13,4.21,19717140
2015-04-23,4.26,4.33,4.15,4.18,13796804
2015-04-24,4.24,4.25,4.12,4.24,13905610
2015-04-27,4.28,4.42,4.23,4.35,21867048
2015-04-28,4.48,4.56,4.37,4.4,30924980
2015-04-29,4.4,4.46,4.24,4.35,24497524
2015-04-30,4.35,4.42,4.31,4.38,12676400
2015-05-04,4.35,4.5,4.35,4.45,19579788
2015-05-05,4.55,4.55,4.32,4.45,18440400
2015-05-06,4.58,4.69,4.3,4.35,31742242
2015-05-07,4.3,4.34,4.08,4.1,33491000
2015-05-08,4.15,4.27,4.14,4.26,15067947
2015-05-11,4.31,4.39,4.26,4.31,9213016
2015-05-12,4.33,4.35,4.26,4.3,8196032
2015-05-13,4.33,4.34,4.21,4.24,11811983
2015-05-14,4.27,4.45,4.27,4.37,16537295
2015-05-15,4.41,4.47,4.36,4.43,10487844
2015-05-18,4.44,4.47,4.33,4.37,8045990
2015-05-19,4.37,4.42,4.32,4.39,12972400
2015-05-20,4.43,4.51,4.36,4.49,15934588
2015-05-21,4.49,4.58,4.37,4.5,26406626
2015-05-22,4.5,4.56,4.43,4.55,13897500
2015-05-26,4.61,4.65,4.53,4.55,16642400
2015-05-27,4.62,4.62,4.45,4.5,8514655
2015-05-28,4.42,4.5,4.26,4.31,12782642
2015-05-29,4.31,4.38,4.21,4.25,30491776
2015-06-01,4.25,4.29,4.18,4.21,21091850
2015-06-02,4.27,4.27,4.13,4.2,15236403
2015-06-03,4.18,4.33,4.18,4.31,28518668
2015-06-04,4.33,4.34,4.18,4.25,8835840
2015-06-05,4.28,4.3,4.16,4.18,20866080
2015-06-08,4.17,4.19,4.13,4.14,14608800
2015-06-09,4.17,4.18,3.98,4.02,16444000
2015-06-10,4.09,4.1,4.0,4.04,7671000
2015-06-11,4.12,4.12,4.01,4.06,8471370
2015-06-12,4.09,4.13,4.07,4.08,9606987
2015-06-15,4.08,4.11,3.91,3.93,13598322
2015-06-16,3.99,3.99,3.85,3.88,11386600
2015-06-17,3.9,3.94,3.8,3.91,9595764
2015-06-18,3.88,3.93,3.85,3.9,8300000
2015-06-19,3.97,3.99,3.9,3.91,11015279
2015-06-22,3.9,3.97,3.85,3.9,6205287
2015-06-23,3.89,4.01,3.89,3.99,8240658
2015-06-24,4.03,4.04,3.97,3.98,8117280
2015-06-25,4.01,4.05,3.98,4.03,10862636
2015-06-26,4.01,4.03,3.89,3.92,9355000
2015-06-29,3.95,3.97,3.7,3.81,13057382
2015-06-30,3.75,3.95,3.75,3.92,11444926
2015-07-02,3.92,3.95,3.82,3.87,11199124
2015-07-03,3.9,3.9,3.66,3.71,11648000
2015-07-06,3.65,3.71,3.28,3.43,23984000
2015-07-07,3.44,3.62,3.29,3.34,18847450
2015-07-08,3.24,3.25,2.95,2.99,33213152
2015-07-09,2.98,3.41,2.98,3.4,25243926
2015-07-10,3.43,3.56,3.34,3.49,19146900
2015-07-13,3.49,3.61,3.43,3.6,15156800
2015-07-14,3.65,3.65,3.54,3.59,9880000
2015-07-15,3.62,3.62,3.5,3.54,6236683
2015-07-16,3.55,3.61,3.46,3.59,7730996
2015-07-17,3.64,3.68,3.59,3.67,8898000
2015-07-20,3.66,3.69,3.61,3.62,3467370
2015-07-21,3.68,3.75,3.57,3.69,7932765
2015-07-22,3.66,3.68,3.6,3.66,5803771
2015-07-23,3.62,3.69,3.62,3.66,3803644
2015-07-24,3.62,3.7,3.61,3.64,5293500
2015-07-27,3.59,3.6,3.39,3.43,8064407
2015-07-28,3.37,3.5,3.36,3.39,9000976
2015-07-29,3.43,3.47,3.39,3.45,14478830
2015-07-30,3.45,3.47,3.43,3.43,10373000
2015-07-31,3.48,3.52,3.43,3.51,9499880
2015-08-03,3.49,3.49,3.36,3.41,7583515
2015-08-04,3.35,3.44,3.35,3.41,4279944
2015-08-05,3.43,3.46,3.36,3.45,5675465
2015-08-06,3.4,3.46,3.33,3.35,8924303
2015-08-07,3.35,3.39,3.27,3.27,19506684
2015-08-10,3.3,3.46,3.28,3.45,15720000
2015-08-11,3.45,3.53,3.42,3.44,6748363
2015-08-12,3.38,3.45,3.36,3.42,7460000
2015-08-13,3.42,3.44,3.34,3.37,5608567
2015-08-14,3.39,3.41,3.35,3.36,3056000
2015-08-17,3.33,3.37,3.3,3.34,4828617
2015-08-18,3.29,3.37,3.27,3.28,4453379
2015-08-19,3.28,3.33,3.24,3.29,4771937
2015-08-20,3.22,3.34,3.22,3.29,12004058
2015-08-21,3.2,3.25,3.08,3.09,21206514
2015-08-24,2.91,3.08,2.91,2.95,18951152
2015-08-25,2.94,2.99,2.82,2.88,9025561
2015-08-26,2.89,3.0,2.8,2.81,18133086
2015-08-27,2.84,3.0,2.84,2.97,20682952
2015-08-28,2.95,3.11,2.9,2.93,12706500
2015-08-31,2.92,2.96,2.81,2.85,27688000
2015-09-01,2.84,2.91,2.78,2.79,19955620
2015-09-02,2.85,2.85,2.69,2.74,13037748
2015-09-04,2.75,2.83,2.71,2.79,9099200
2015-09-07,2.76,2.89,2.75,2.82,7700000
2015-09-08,2.78,2.9,2.78,2.88,12801948
2015-09-09,2.9,2.99,2.88,2.96,18388644
2015-09-10,2.9,2.96,2.89,2.94,14867019
2015-09-11,2.94,2.99,2.91,2.91,30214000
2015-09-14,2.97,3.05,2.92,2.97,10169398
2015-09-15,2.95,3.0,2.93,2.95,4995655
2015-09-16,2.96,3.14,2.96,3.09,13374000
2015-09-17,3.08,3.15,3.07,3.11,11577653
2015-09-18,3.13,3.17,3.07,3.16,13560268
2015-09-21,3.08,3.16,3.05,3.09,9281545
2015-09-22,3.09,3.22,3.09,3.14,7740667
2015-09-23,3.1,3.18,3.07,3.16,16046000
2015-09-24,3.2,3.2,3.0,3.03,10950728
2015-09-25,2.99,3.08,2.99,3.07,4896000
2015-09-29,3.01,3.06,2.93,2.98,5913055
2015-09-30,2.99,3.06,2.95,2.98,6659475
2015-10-02,3.03,3.12,2.98,3.05,9948000
2015-10-05,3.17,3.17,3.07,3.07,7144544
2015-10-06,3.13,3.14,3.05,3.11,5295301
2015-10-07,3.06,3.21,3.05,3.21,9922000
2015-10-08,3.21,3.21,3.1,3.14,4262567
2015-10-09,3.11,3.17,3.11,3.13,15618308
2015-10-12,3.15,3.25,3.11,3.24,13038000
2015-10-13,3.22,3.27,3.18,3.21,6426000
2015-10-14,3.25,3.28,3.17,3.22,8851942
2015-10-15,3.22,3.3,3.22,3.25,9831562
2015-10-16,3.3,3.31,3.21,3.24,13050970
2015-10-19,3.22,3.3,3.22,3.27,11186400
2015-10-20,3.28,3.3,3.22,3.24,5330000
2015-10-22,3.2,3.25,3.18,3.22,7312000
2015-10-23,3.26,3.28,3.22,3.26,4712992
2015-10-26,3.31,3.31,3.21,3.23,6874000
2015-10-27,3.21,3.28,3.16,3.27,7173000
2015-10-28,3.22,3.24,3.17,3.19,4195400
2015-10-29,3.22,3.22,3.15,3.16,4836224
2015-10-30,3.16,3.2,3.1,3.12,7229347
2015-11-02,3.12,3.17,3.06,3.09,13230072
2015-11-03,3.14,3.17,3.1,3.16,5785778
2015-11-04,3.19,3.28,3.17,3.25,12154687
2015-11-05,3.25,3.3,3.22,3.27,4802144
2015-11-06,3.23,3.29,3.21,3.28,3130431
2015-11-09,3.26,3.29,3.21,3.21,3670400
2015-11-10,3.22,3.24,3.15,3.16,4996000
2015-11-11,3.15,3.2,3.12,3.14,5601861
2015-11-12,3.12,3.16,3.11,3.15,4122400
2015-11-13,3.1,3.18,3.03,3.04,7631944
2015-11-16,2.98,3.05,2.98,3.0,3678260
2015-11-17,3.02,3.07,2.99,3.0,9228000
2015-11-18,3.02,3.03,2.99,3.0,4810000
2015-11-19,3.02,3.04,2.98,3.02,7316012
2015-11-20,3.02,3.1,3.02,3.09,3906000
2015-11-23,3.09,3.09,3.04,3.07,3247402
2015-11-24,3.04,3.13,3.04,3.12,7511600
2015-11-25,3.11,3.13,3.06,3.09,4992000
2015-11-26,3.08,3.12,3.05,3.09,3446073
2015-11-27,3.1,3.1,2.99,3.03,7300000
2015-11-30,3.02,3.02,2.94,2.99,16725746
2015-12-01,3.01,3.11,3.0,3.11,10960155
2015-12-02,3.05,3.12,3.04,3.08,7635100
2015-12-03,3.07,3.11,3.04,3.09,4815637
2015-12-04,3.09,3.11,3.06,3.11,3988000
2015-12-07,3.14,3.14,3.04,3.04,4238854
2015-12-08,3.02,3.09,3.01,3.09,6584593
2015-12-09,3.08,3.08,3.01,3.03,4820937
2015-12-10,3.01,3.03,2.81,2.82,19949362
2015-12-11,2.82,2.87,2.72,2.74,19664968
2015-12-14,2.75,2.89,2.73,2.84,15558818
2015-12-15,2.84,2.87,2.81,2.85,7751239
2015-12-16,2.87,2.93,2.87,2.92,9379976
2015-12-17,2.91,2.95,2.87,2.89,9171266
2015-12-18,2.86,2.9,2.83,2.86,12195382
2015-12-21,2.9,2.92,2.87,2.9,7384073
2015-12-22,2.91,2.93,2.88,2.89,4226728
2015-12-23,2.9,2.93,2.89,2.91,4195973
2015-12-24,2.91,2.93,2.9,2.9,2640265
2015-12-28,2.9,2.93,2.9,2.91,3092656
2015-12-29,2.91,2.95,2.9,2.94,2432390
2015-12-30,2.94,2.95,2.91,2.92,2966608
2015-12-31,2.91,2.92,2.9,2.91,1206378
2016-01-04,2.92,2.93,2.81,2.83,7053360
2016-01-05,2.79,2.92,2.79,2.91,8725559
2016-01-06,2.92,2.93,2.84,2.85,6676086
2016-01-07,2.89,2.91,2.78,2.82,10918274
2016-01-08,2.84,2.86,2.77,2.83,3420944
2016-01-11,2.74,2.77,2.7,2.71,7751940
2016-01-12,2.71,2.8,2.71,2.75,3928000
2016-01-13,2.78,2.83,2.75,2.78,5808060
2016-01-14,2.72,2.76,2.69,2.74,4175713
2016-01-15,2.75,2.78,2.67,2.68,7312925
2016-01-18,2.69,2.7,2.64,2.68,2950000
2016-01-19,2.7,2.76,2.66,2.74,4225000
2016-01-20,2.8,2.8,2.68,2.71,11598691
2016-01-21,2.74,2.76,2.59,2.61,7258043
2016-01-22,2.68,2.78,2.66,2.75,8386400
2016-01-25,2.84,2.87,2.77,2.8,10166000
2016-01-26,2.77,2.82,2.71,2.75,7978692
2016-01-27,2.84,2.89,2.8,2.88,8363600
2016-01-28,2.81,3.0,2.81,2.99,15734000
2016-01-29,2.98,3.05,2.95,3.04,14850798
2016-02-01,3.05,3.06,2.93,2.97,9808692
2016-02-02,2.96,2.99,2.93,2.96,7773926
2016-02-03,2.91,2.94,2.86,2.91,3254120
2016-02-04,2.94,2.97,2.89,2.96,6800000
2016-02-05,2.9,2.96,2.9,2.94,4138478
2016-02-11,2.94,2.94,2.83,2.89,7388000
2016-02-12,2.87,2.9,2.76,2.79,5566000
2016-02-15,2.9,2.93,2.81,2.9,6138000
2016-02-16,2.94,2.97,2.88,2.95,5658272
2016-02-17,2.97,3.0,2.94,2.99,13036962
2016-02-18,3.0,3.06,2.97,3.0,8934010
2016-02-19,3.0,3.11,2.98,3.06,15666694
2016-02-22,3.04,3.15,3.04,3.15,8734000
2016-02-23,3.15,3.15,3.06,3.09,6800690
2016-02-24,3.09,3.13,3.05,3.12,8387829
2016-02-25,3.13,3.17,2.99,3.03,7741906
2016-02-26,3.08,3.13,3.08,3.12,2981829
2016-02-29,3.15,3.15,3.09,3.13,7346833
2016-03-01,3.16,3.21,3.12,3.21,6656400
2016-03-02,3.28,3.3,3.23,3.24,8250446
2016-03-03,3.28,3.28,3.19,3.26,10002022
2016-03-04,3.28,3.37,3.26,3.36,11285045
2016-03-07,3.38,3.38,3.29,3.34,6326694
2016-03-08,3.35,3.39,3.27,3.36,9074309
2016-03-09,3.34,3.36,3.31,3.35,7058555
2016-03-10,3.39,3.39,3.29,3.33,6540338
2016-03-11,3.35,3.37,3.3,3.35,5479521
2016-03-14,3.35,3.38,3.32,3.38,2690589
2016-03-15,3.41,3.41,3.29,3.34,6440978
2016-03-16,3.38,3.38,3.32,3.38,3877600
2016-03-17,3.39,3.45,3.37,3.41,8725289
2016-03-18,3.48,3.6,3.44,3.55,10889389
2016-03-21,3.54,3.55,3.5,3.54,5912074
2016-03-22,3.6,3.62,3.55,3.6,10590000
2016-03-23,3.6,3.6,3.45,3.5,6741197
2016-03-24,3.52,3.57,3.45,3.53,4872400
2016-03-29,3.53,3.53,3.42,3.49,5000000
2016-03-30,3.53,3.57,3.43,3.43,5490715
2016-03-31,3.45,3.59,3.45,3.54,12538177
2016-04-01,3.59,3.59,3.46,3.56,8986800
2016-04-05,3.6,3.6,3.47,3.52,5705801
2016-04-06,3.54,3.56,3.44,3.49,8776201
2016-04-07,3.54,3.57,3.49,3.57,7760222
2016-04-08,3.55,3.56,3.46,3.55,7614401
2016-04-11,3.59,3.59,3.53,3.56,3648855
2016-04-12,3.6,3.61,3.56,3.6,5068676
2016-04-13,3.62,3.68,3.61,3.65,5139000
2016-04-14,3.73,3.76,3.67,3.69,8418134
2016-04-15,3.7,3.76,3.7,3.73,3832664
2016-04-18,3.75,3.77,3.7,3.76,4645579
2016-04-19,3.79,3.79,3.67,3.76,3831272
2016-04-20,3.78,3.78,3.64,3.7,5410120
2016-04-21,3.72,3.72,3.63,3.69,4442619
2016-04-22,3.62,3.72,3.62,3.72,4735971
2016-04-25,3.72,3.73,3.65,3.69,3824000
2016-04-26,3.67,3.73,3.6,3.67,5806660
2016-04-27,3.64,3.73,3.64,3.7,4639640
2016-04-28,3.73,3.76,3.67,3.74,7152226
2016-04-29,3.76,3.76,3.64,3.67,6994000
2016-05-03,3.72,3.72,3.64,3.67,4376422
2016-05-04,3.7,3.75,3.66,3.75,6524653
2016-05-05,3.72,3.73,3.65,3.7,3948813
2016-05-06,3.75,3.75,3.52,3.56,7158774
2016-05-09,3.61,3.61,3.42,3.44,7098424
2016-05-10,3.45,3.45,3.39,3.44,7372013
2016-05-11,3.46,3.57,3.46,3.55,8776521
2016-05-12,3.58,3.58,3.46,3.47,4542876
2016-05-13,3.52,3.52,3.43,3.5,5074627
2016-05-16,3.45,3.53,3.42,3.43,4244925
2016-05-17,3.48,3.58,3.47,3.58,6068000
2016-05-18,3.54,3.69,3.52,3.63,10116667
2016-05-19,3.6,3.68,3.55,3.59,4352000
2016-05-20,3.62,3.66,3.57,3.57,5398118
2016-05-23,3.66,3.66,3.54,3.6,2920039
2016-05-24,3.57,3.57,3.33,3.37,8708961
2016-05-25,3.45,3.48,3.36,3.48,6282013
2016-05-26,3.45,3.48,3.36,3.41,5500686
2016-05-27,3.49,3.58,3.41,3.57,6581423
2016-05-30,3.58,3.59,3.52,3.54,3933024
2016-05-31,3.54,3.7,3.51,3.65,23440364
2016-06-01,3.66,3.68,3.62,3.65,6108000
2016-06-02,3.65,3.74,3.63,3.71,9899563
2016-06-03,3.79,3.79,3.65,3.73,8388000
2016-06-06,3.73,3.75,3.67,3.71,4856000
2016-06-07,3.78,3.81,3.72,3.81,10753095
2016-06-08,3.83,3.87,3.8,3.84,7465000
2016-06-10,3.84,3.84,3.68,3.76,4644200
2016-06-13,3.7,3.72,3.64,3.68,5902837
2016-06-14,3.75,3.79,3.62,3.71,5616391
2016-06-15,3.75,3.83,3.71,3.81,9584521
2016-06-16,3.82,3.83,3.72,3.77,4107512
2016-06-17,3.78,3.9,3.77,3.85,16036230
2016-06-20,3.85,3.88,3.8,3.84,3058000
2016-06-21,3.89,3.94,3.84,3.93,6567860
2016-06-22,3.94,4.06,3.91,4.05,16715213
2016-06-23,4.05,4.05,3.94,3.99,4097370
2016-06-24,3.89,3.97,3.8,3.86,4193000
2016-06-27,3.79,3.93,3.74,3.91,2992000
2016-06-28,3.81,3.92,3.81,3.91,3621410
2016-06-29,3.89,3.97,3.85,3.96,3140000
2016-06-30,3.96,4.04,3.9,4.03,6540934
2016-07-04,4.03,4.08,3.9,3.91,8353897
2016-07-05,3.82,3.92,3.77,3.82,4048000
2016-07-06,3.89,3.9,3.63,3.82,5269083
2016-07-07,3.73,3.91,3.73,3.9,2478000
2016-07-08,3.91,3.94,3.84,3.87,2751597
2016-07-11,3.97,4.02,3.95,3.99,6568175
2016-07-12,4.05,4.05,3.92,3.98,4784000
2016-07-13,4.03,4.04,3.98,4.02,8844244
2016-07-14,4.05,4.1,4.0,4.08,9491624
2016-07-15,4.1,4.1,4.06,4.09,6883474
2016-07-18,4.06,4.12,3.99,4.09,5602139
2016-07-19,4.11,4.11,4.03,4.1,7716800
2016-07-20,4.11,4.12,4.01,4.07,5749034
2016-07-21,4.1,4.1,4.0,4.05,2632703
2016-07-22,4.08,4.17,4.06,4.15,8104907
2016-07-25,4.18,4.19,4.09,4.13,1877776
2016-07-26,4.14,4.2,4.13,4.2,5448393
2016-07-27,4.2,4.21,4.16,4.19,4518804
2016-07-28,4.21,4.22,4.15,4.22,3340000
2016-07-29,4.24,4.24,4.17,4.21,5139550
2016-08-01,4.2,4.25,4.13,4.25,8120560
2016-08-03,4.24,4.3,4.19,4.3,8624958
2016-08-04,4.3,4.33,4.25,4.29,5253615
2016-08-05,4.29,4.29,4.23,4.26,2850000
2016-08-08,4.27,4.3,4.2,4.3,3320064
2016-08-09,4.3,4.3,4.26,4.29,2537206
2016-08-10,4.3,4.3,4.19,4.24,3628800
2016-08-11,4.26,4.3,4.22,4.3,2808246
2016-08-12,4.29,4.29,4.17,4.22,5138200
2016-08-15,4.21,4.23,4.1,4.17,9250462
2016-08-16,4.24,4.24,4.12,4.22,7154350
2016-08-17,4.21,4.25,4.17,4.25,8600400
2016-08-18,4.25,4.25,4.16,4.2,6082000
2016-08-19,4.24,4.25,4.14,4.18,3135999
2016-08-22,4.19,4.22,4.1,4.14,2992000
2016-08-23,4.15,4.25,4.08,4.21,6446045
2016-08-24,4.2,4.21,4.12,4.16,2015246
2016-08-25,4.17,4.19,4.11,4.19,4960488
2016-08-26,4.23,4.3,4.18,4.3,7594031
2016-08-29,4.35,4.6,4.3,4.6,31127160
2016-08-30,4.55,4.64,4.48,4.58,14487306
2016-08-31,4.56,4.62,4.5,4.56,14026127
2016-09-01,4.52,4.6,4.39,4.52,6005380
2016-09-02,4.55,4.6,4.52,4.6,6591379
2016-09-05,4.6,4.74,4.6,4.73,6429413
2016-09-06,4.71,4.71,4.61,4.69,4330331
2016-09-07,4.68,4.69,4.53,4.54,5097297
2016-09-08,4.52,4.61,4.52,4.55,8019268
2016-09-09,4.6,4.65,4.5,4.55,10009800
2016-09-12,4.57,4.57,4.37,4.41,8512787
2016-09-13,4.48,4.65,4.45,4.6,11665332
2016-09-14,4.65,4.65,4.54,4.6,6087089
2016-09-15,4.65,4.65,4.57,4.61,5577100
2016-09-19,4.6,4.8,4.56,4.79,12902154
2016-09-20,4.8,4.8,4.7,4.75,4686202
2016-09-21,4.72,4.78,4.69,4.78,8840500
2016-09-22,4.8,4.86,4.72,4.85,12059563
2016-09-23,4.81,4.87,4.73,4.8,5190947
2016-09-26,4.74,4.83,4.63,4.68,4091622
2016-09-27,4.69,4.75,4.65,4.72,4417924
2016-09-28,4.8,4.95,4.78,4.89,14165042
2016-09-29,4.94,5.13,4.89,5.13,18055614
2016-09-30,5.05,5.07,4.85,4.85,16409332
2016-10-03,4.96,5.02,4.9,4.93,3929700
2016-10-04,4.98,5.02,4.92,4.95,5511044
2016-10-05,4.93,5.1,4.91,5.07,8812840
2016-10-06,5.12,5.13,5.06,5.13,6803443
2016-10-07,5.09,5.11,4.93,5.0,7113571
2016-10-11,4.98,5.1,4.98,5.07,5600740
2016-10-12,5.04,5.07,4.85,4.88,6471000
2016-10-13,4.84,4.93,4.76,4.87,9074000
2016-10-14,4.94,5.06,4.89,5.0,8117990
2016-10-17,5.04,5.07,4.92,4.97,3814463
2016-10-18,5.04,5.1,5.02,5.1,4261600
2016-10-19,5.1,5.13,4.98,5.0,6416806
2016-10-20,4.98,5.0,4.8,4.83,12759576
2016-10-24,4.82,4.94,4.81,4.87,11519691
2016-10-25,4.85,4.93,4.82,4.83,4510758
2016-10-26,4.82,4.87,4.81,4.83,2384000
2016-10-27,4.82,4.83,4.59,4.6,8264003
2016-10-28,4.57,4.69,4.44,4.5,8669998
2016-10-31,4.45,4.66,4.45,4.61,10868253
2016-11-01,4.6,4.66,4.48,4.5,9992003
2016-11-02,4.5,4.59,4.48,4.56,5977341
2016-11-03,4.55,4.56,4.47,4.48,3499150
2016-11-04,4.42,4.52,4.42,4.43,2687680
2016-11-07,4.4,4.59,4.4,4.53,5326062
2016-11-08,4.64,4.64,4.5,4.55,3628000
2016-11-09,4.58,4.58,4.34,4.54,7098276
2016-11-10,4.59,4.63,4.48,4.48,5158000
2016-11-11,4.45,4.5,4.24,4.24,10776000
2016-11-14,4.24,4.3,4.19,4.24,3426400
2016-11-15,4.28,4.36,4.15,4.35,5598676
2016-11-16,4.36,4.42,4.29,4.29,5109427
2016-11-17,4.3,4.35,4.26,4.28,4847200
2016-11-18,4.29,4.32,4.24,4.26,3183970
2016-11-21,4.27,4.33,4.19,4.24,4792110
2016-11-22,4.22,4.31,4.21,4.22,5213281
2016-11-23,4.21,4.36,4.21,4.3,5556444
2016-11-24,4.35,4.37,4.24,4.26,4925748
2016-11-25,4.26,4.26,4.19,4.2,2964682
2016-11-28,4.18,4.25,4.18,4.18,5283758
2016-11-29,4.23,4.45,4.14,4.35,9904850
2016-11-30,4.43,4.58,4.38,4.57,24588476
2016-12-01,4.58,4.62,4.54,4.6,7808800
2016-12-02,4.6,4.67,4.52,4.57,6979420
2016-12-05,4.6,4.64,4.54,4.64,7445391
2016-12-06,4.68,4.69,4.59,4.59,4571722
2016-12-07,4.61,4.79,4.56,4.78,8000495
2016-12-08,4.76,4.78,4.66,4.75,8118356
2016-12-09,4.7,4.79,4.62,4.69,7345138
2016-12-12,4.68,4.83,4.64,4.67,8267754
2016-12-13,4.67,4.72,4.57,4.72,7125221
2016-12-14,4.7,4.7,4.6,4.65,5592690
2016-12-15,4.77,4.85,4.65,4.71,7561586
2016-12-16,4.83,4.83,4.6,4.6,12875737
2016-12-19,4.64,4.73,4.62,4.7,4909502
2016-12-20,4.72,4.95,4.62,4.84,11172132
2016-12-21,4.87,4.94,4.78,4.84,6796708
2016-12-22,4.78,4.88,4.74,4.75,3817236
2016-12-23,4.71,4.92,4.71,4.86,6564696
2016-12-28,4.89,4.89,4.77,4.81,4731290
2016-12-29,4.85,4.93,4.81,4.9,3961130
2016-12-30,4.92,4.95,4.81,4.94,1684193
2017-01-03,4.94,5.04,4.77,4.81,4990000
2017-01-04,4.88,5.41,4.84,5.41,20150604
2017-01-05,5.36,5.5,5.23,5.46,20289592
2017-01-06,5.42,5.45,5.3,5.35,10898129
2017-01-09,5.4,5.5,5.34,5.47,11205361
2017-01-10,5.4,5.5,5.36,5.49,12533821
2017-01-11,5.5,5.67,5.4,5.4,18163188
2017-01-12,5.42,5.5,5.4,5.5,5441906
2017-01-13,5.52,5.52,5.28,5.41,8130992
2017-01-16,5.33,5.37,5.26,5.33,13660592
2017-01-17,5.28,5.38,5.25,5.33,9133056
2017-01-18,5.39,5.6,5.34,5.47,7122266
2017-01-19,5.45,5.51,5.4,5.51,5344279
2017-01-20,5.45,5.45,5.31,5.31,4502482
2017-01-23,5.3,5.42,5.3,5.34,2737905
2017-01-24,5.35,5.58,5.33,5.52,7608862
2017-01-25,5.49,5.49,5.29,5.31,8000227
2017-01-26,5.45,5.45,5.31,5.35,2515242
2017-01-27,5.38,5.38,5.29,5.29,2775000
2017-02-01,5.18,5.34,5.17,5.32,10326840
2017-02-02,5.3,5.39,5.18,5.2,6241696
2017-02-03,5.2,5.34,5.18,5.34,9778888
2017-02-06,5.31,5.52,5.31,5.43,6525729
2017-02-07,5.5,5.5,5.37,5.38,4446186
2017-02-08,5.38,5.45,5.31,5.42,3366100
2017-02-09,5.46,5.5,5.34,5.5,4464800
2017-02-10,5.49,5.5,5.25,5.28,6717695
2017-02-13,5.32,5.38,5.19,5.25,6288287
2017-02-14,5.26,5.26,5.06,5.08,10229669
2017-02-15,5.13,5.22,5.09,5.14,8618403
2017-02-16,5.11,5.19,5.11,5.19,5502974
2017-02-17,5.2,5.2,5.04,5.04,4053011
2017-02-20,5.02,5.11,4.97,5.02,2384004
2017-02-21,4.97,5.03,4.91,4.95,3620319
2017-02-22,4.99,5.22,4.91,5.22,7669272
2017-02-23,5.2,5.25,5.1,5.12,7430995
2017-02-24,5.17,5.27,5.13,5.23,7641164
2017-02-27,5.22,5.34,5.17,5.2,12676000
2017-02-28,5.21,5.27,5.17,5.19,6154177
2017-03-01,5.18,5.3,5.17,5.23,2881382
2017-03-02,5.23,5.26,5.13,5.19,4968339
2017-03-03,5.17,5.17,5.03,5.04,3196398
2017-03-06,5.09,5.24,5.02,5.2,5022881
2017-03-07,5.21,5.23,5.17,5.22,6058472
2017-03-08,5.25,5.45,5.25,5.44,11324935
2017-03-09,5.44,5.48,5.36,5.42,8858209
2017-03-10,5.46,5.47,5.26,5.27,7474182
2017-03-13,5.24,5.45,5.17,5.27,11571907
2017-03-14,5.27,5.44,5.27,5.33,5699069
2017-03-15,5.36,5.38,5.29,5.3,4554230
2017-03-16,5.35,5.5,5.29,5.32,6385472
2017-03-17,5.38,5.57,5.33,5.52,32534348
2017-03-20,5.56,5.58,5.5,5.55,12018897
2017-03-21,5.57,5.57,5.25,5.28,10196000
2017-03-22,5.21,5.25,5.04,5.1,26896340
2017-03-23,5.14,5.21,5.08,5.15,10569363
2017-03-24,5.15,5.24,5.12,5.14,7285622
2017-03-27,5.14,5.23,5.06,5.08,11714159
2017-03-28,5.11,5.13,5.03,5.05,6781806
2017-03-29,5.11,5.11,5.0,5.08,4766076
2017-03-30,5.07,5.23,5.07,5.22,9302346
2017-03-31,5.22,5.25,4.97,5.09,20247960
2017-04-03,5.07,5.07,4.98,5.07,8383435
2017-04-05,5.06,5.06,4.9,4.91,25691592
2017-04-06,4.89,4.98,4.87,4.93,10347978
2017-04-07,4.9,4.95,4.81,4.87,15036891
2017-04-10,4.91,4.93,4.83,4.89,6145259
2017-04-11,4.86,4.86,4.73,4.8,6563454
2017-04-12,4.81,4.9,4.77,4.83,14035406
2017-04-13,4.78,4.89,4.78,4.89,8694620
2017-04-18,4.83,4.83,4.72,4.76,5278093
2017-04-19,4.7,4.77,4.56,4.63,9848000
2017-04-20,4.64,4.67,4.55,4.65,7891573
2017-04-21,4.65,4.72,4.59,4.7,8603012
2017-04-24,4.72,4.74,4.6,4.67,4924303
2017-04-25,4.66,4.68,4.58,4.62,7763887
2017-04-26,4.63,4.67,4.59,4.65,9594154
2017-04-27,4.61,4.63,4.48,4.51,11489424
2017-04-28,4.49,4.52,4.34,4.38,15058052
2017-05-02,4.38,4.58,4.38,4.49,18794696
2017-05-04,4.48,4.5,4.38,4.47,9105294
2017-05-05,4.42,4.44,4.3,4.31,21124448
2017-05-08,4.32,4.48,4.32,4.46,11552743
2017-05-09,4.43,4.58,4.43,4.54,9727512
2017-05-10,4.58,4.67,4.54,4.62,10804873
2017-05-11,4.62,4.72,4.61,4.7,11916783
2017-05-12,4.7,4.7,4.61,4.63,7139268
2017-05-15,4.65,4.65,4.48,4.53,8439464
2017-05-16,4.54,4.64,4.54,4.64,7446231
2017-05-17,4.65,4.68,4.57,4.59,7007136
2017-05-18,4.57,4.59,4.42,4.47,8476481
2017-05-19,4.43,4.51,4.35,4.49,5648363
2017-05-22,4.51,4.67,4.49,4.62,16063555
2017-05-23,4.67,4.67,4.48,4.48,10650293
2017-05-24,4.49,4.55,4.38,4.48,10576471
2017-05-25,4.51,4.51,4.45,4.48,6488038
2017-05-26,4.45,4.54,4.45,4.49,7276407
2017-05-29,4.49,4.51,4.39,4.4,4470092
2017-05-31,4.47,4.58,4.45,4.58,27171492
2017-06-01,4.56,4.6,4.45,4.53,17492458
2017-06-02,4.58,4.72,4.55,4.65,9090936
2017-06-05,4.68,4.7,4.58,4.61,4090608
2017-06-06,4.63,4.63,4.55,4.59,2841202
2017-06-07,4.54,4.63,4.52,4.56,5484748
2017-06-08,4.58,4.7,4.56,4.67,7638496
2017-06-09,4.67,4.68,4.56,4.56,10819634
2017-06-12,4.53,4.65,4.53,4.6,7706546
2017-06-13,4.62,4.62,4.46,4.5,11733765
2017-06-14,4.54,4.54,4.46,4.46,5951155
2017-06-15,4.48,4.52,4.46,4.47,5485211
2017-06-16,4.49,4.52,4.45,4.48,7764224
2017-06-19,4.48,4.54,4.46,4.49,3608000
2017-06-20,4.52,4.52,4.44,4.45,5940090
2017-06-21,4.44,4.48,4.4,4.41,7774833
2017-06-22,4.4,4.46,4.35,4.44,5905613
2017-06-23,4.44,4.44,4.39,4.41,3949403
2017-06-26,4.38,4.41,4.35,4.37,5970461
2017-06-27,4.39,4.4,4.3,4.33,6697928
2017-06-28,4.31,4.36,4.3,4.32,3812273
2017-06-29,4.34,4.38,4.34,4.37,3454935
2017-06-30,4.37,4.45,4.36,4.45,5732000
2017-07-03,4.41,4.45,4.34,4.35,5701231
2017-07-04,4.26,4.28,4.13,4.18,5531322
2017-07-05,4.14,4.32,4.14,4.32,12898897
2017-07-06,4.37,4.39,4.26,4.28,4757121
2017-07-07,4.26,4.26,4.2,4.2,5854106
2017-07-10,4.24,4.24,4.14,4.16,3937498
2017-07-11,4.18,4.24,4.16,4.2,8310400
2017-07-12,4.24,4.32,4.22,4.28,5255119
2017-07-13,4.37,4.51,4.32,4.45,10903022
2017-07-14,4.51,4.51,4.39,4.46,7165139
2017-07-17,4.47,4.49,4.4,4.42,6691080
2017-07-18,4.42,4.46,4.34,4.34,7674346
2017-07-19,4.36,4.4,4.34,4.4,6778158
2017-07-20,4.37,4.45,4.36,4.41,4410947
2017-07-21,4.46,4.46,4.37,4.38,2762591
2017-07-24,4.43,4.43,4.35,4.37,4449027
2017-07-25,4.42,4.42,4.32,4.35,4284136
2017-07-26,4.4,4.42,4.3,4.38,5048319
2017-07-27,4.4,4.41,4.34,4.41,4484113
2017-07-28,4.39,4.39,4.24,4.26,4762635
2017-07-31,4.26,4.26,4.2,4.22,5984425
2017-08-01,4.28,4.28,4.19,4.19,3926463
2017-08-02,4.19,4.24,4.18,4.2,3828413
2017-08-03,4.24,4.52,4.24,4.47,13308976
2017-08-04,4.52,4.71,4.5,4.68,12481485
2017-08-07,4.71,4.84,4.66,4.72,9831257
2017-08-08,4.73,4.75,4.64,4.65,6595550
2017-08-09,4.65,4.66,4.57,4.6,3051447
2017-08-10,4.61,4.62,4.48,4.58,7171043
2017-08-11,4.48,4.53,4.39,4.4,5235600
2017-08-14,4.4,4.48,4.4,4.41,3110928
2017-08-15,4.43,4.43,4.36,4.36,4541933
2017-08-16,4.35,4.43,4.34,4.37,6171206
2017-08-17,4.4,4.41,4.34,4.35,2658615
2017-08-18,4.34,4.35,4.3,4.34,1915180
2017-08-21,4.37,4.37,4.32,4.34,2052326
2017-08-22,4.32,4.37,4.3,4.34,2324457
2017-08-24,4.35,4.35,4.22,4.22,9767325
2017-08-25,4.22,4.26,4.13,4.19,6196588
2017-08-28,4.19,4.26,4.19,4.24,3445415
2017-08-29,4.24,4.26,4.2,4.22,3702993
2017-08-30,4.24,4.38,4.24,4.36,5597989
2017-08-31,4.36,4.39,4.2,4.22,22235734
2017-09-01,4.22,4.32,4.22,4.22,6927024
2017-09-04,4.28,4.3,4.24,4.24,3107559
2017-09-05,4.24,4.28,4.24,4.28,1962000
2017-09-06,4.28,4.28,4.19,4.22,4062673
2017-09-07,4.22,4.24,4.16,4.16,7438689
2017-09-08,4.19,4.22,4.16,4.19,5484193
2017-09-11,4.22,4.3,4.2,4.26,7653000
2017-09-12,4.32,4.32,4.2,4.22,6834388
2017-09-13,4.2,4.26,4.2,4.2,4400561
2017-09-14,4.2,4.28,4.14,4.15,10312888
2017-09-15,4.18,4.18,3.99,4.05,15559149
2017-09-18,4.09,4.12,4.05,4.08,5591138
2017-09-19,4.09,4.1,4.05,4.07,5686310
2017-09-20,4.08,4.08,4.01,4.05,4197809
2017-09-21,4.03,4.05,4.01,4.01,6091000
2017-09-22,4.01,4.07,4.0,4.03,4719500
2017-09-25,4.03,4.03,3.92,3.95,7235513
2017-09-26,3.95,3.96,3.86,3.86,10461684
2017-09-27,3.87,3.9,3.86,3.88,9931600
2017-09-28,3.9,3.97,3.83,3.96,7061654
2017-09-29,3.94,4.02,3.89,4.0,8413541
2017-10-03,4.05,4.12,4.01,4.09,10132000
2017-10-04,4.13,4.38,4.13,4.37,23045504
2017-10-06,4.44,4.63,4.43,4.61,34618080
2017-10-09,4.6,4.73,4.49,4.69,28805828
2017-10-10,4.69,4.88,4.65,4.85,33172494
2017-10-11,4.87,4.9,4.67,4.67,22738364
2017-10-12,4.77,4.77,4.54,4.54,25141522
2017-10-13,4.52,4.73,4.52,4.71,14263875
2017-10-16,4.75,4.75,4.62,4.66,10124000
2017-10-17,4.72,4.74,4.64,4.66,12503003
2017-10-18,4.65,4.67,4.6,4.62,8492542
2017-10-19,4.63,4.63,4.43,4.45,12764961
2017-10-20,4.47,4.57,4.41,4.56,15026642
2017-10-23,4.59,4.62,4.45,4.5,7896360
2017-10-24,4.51,4.51,4.34,4.4,13075600
2017-10-25,4.4,4.57,4.38,4.51,7875577
2017-10-26,4.51,4.59,4.45,4.53,7880850
2017-10-27,4.52,4.6,4.51,4.56,9222977
2017-10-30,4.52,4.72,4.52,4.69,16126932
2017-10-31,4.69,4.76,4.6,4.7,14735400
2017-11-01,4.67,4.73,4.65,4.72,9110200
2017-11-02,4.72,4.79,4.61,4.71,8625000
2017-11-03,4.76,4.76,4.66,4.73,4233866
2017-11-06,4.76,4.77,4.66,4.72,7117050
2017-11-07,4.72,4.76,4.66,4.72,13865701
2017-11-08,4.7,4.85,4.69,4.81,16673001
2017-11-09,4.82,4.83,4.78,4.79,5219167
2017-11-10,4.79,4.83,4.76,4.77,3352061
2017-11-13,4.77,5.07,4.77,4.9,23526536
2017-11-14,4.88,4.88,4.67,4.71,12574412
2017-11-15,4.72,4.74,4.56,4.58,9454860
2017-11-16,4.59,4.68,4.59,4.65,5864418
2017-11-17,4.66,4.74,4.63,4.68,7287246
2017-11-20,4.65,4.72,4.54,4.58,12912000
2017-11-21,4.57,4.81,4.57,4.77,8884671
2017-11-22,4.79,4.79,4.67,4.71,6583507
2017-11-23,4.7,4.9,4.7,4.75,7018060
2017-11-24,4.81,4.82,4.72,4.82,2932947
2017-11-27,4.87,4.9,4.78,4.9,10844000
2017-11-28,4.87,4.94,4.79,4.92,15344436
2017-11-29,4.96,4.96,4.88,4.92,8343034
2017-11-30,4.94,4.94,4.88,4.93,15943288
2017-12-01,4.96,5.04,4.94,4.98,7549178
2017-12-04,4.97,5.07,4.97,5.02,6953461
2017-12-05,4.97,5.0,4.83,4.87,7159206
2017-12-06,4.82,4.99,4.77,4.81,10793494
2017-12-07,4.78,4.95,4.78,4.91,9911785
2017-12-08,4.87,4.93,4.83,4.91,4437342
2017-12-11,4.88,5.0,4.88,4.99,3024142
2017-12-12,4.97,4.99,4.88,4.96,5251096
2017-12-13,4.95,4.99,4.93,4.96,2115134
2017-12-14,4.98,4.99,4.93,4.95,9158294
2017-12-15,4.96,4.98,4.87,4.98,18000680
2017-12-18,4.99,5.14,4.97,5.12,6476264
2017-12-19,5.09,5.14,5.08,5.13,3732545
2017-12-20,5.13,5.37,5.09,5.35,13256644
2017-12-21,5.31,5.36,5.23,5.24,5119680
2017-12-22,5.19,5.27,5.12,5.19,3581626
2017-12-27,5.19,5.23,5.16,5.21,1787316
2017-12-28,5.25,5.27,5.19,5.24,2546309
2017-12-29,5.18,5.21,5.08,5.19,2734747
2018-01-02,5.18,5.22,5.13,5.18,1808289
2018-01-03,5.19,5.19,5.07,5.08,3798148
2018-01-04,5.08,5.16,5.07,5.09,3858774
2018-01-05,5.09,5.13,5.0,5.05,2807308
2018-01-08,5.08,5.1,5.06,5.08,3314088
2018-01-09,5.07,5.08,4.97,5.02,3400028
2018-01-10,5.01,5.11,4.98,5.06,3585363
2018-01-11,5.04,5.07,4.95,4.97,2964408
2018-01-12,4.99,5.04,4.85,4.87,9251800
2018-01-15,4.94,4.95,4.83,4.83,4713000
2018-01-16,4.83,4.99,4.75,4.99,4217041
2018-01-17,4.99,5.04,4.96,5.03,6735310
2018-01-18,5.05,5.05,4.93,4.94,9932927
2018-01-19,4.97,5.07,4.95,5.07,3467164
2018-01-22,5.02,5.03,4.91,4.95,6218029
2018-01-23,4.95,5.0,4.93,5.0,3916000
2018-01-24,4.98,5.13,4.96,5.13,5138002
2018-01-25,5.15,5.15,4.99,4.99,5334413
2018-01-26,5.01,5.03,4.94,4.95,5762776
2018-01-29,4.99,5.01,4.91,4.92,5515714
2018-01-30,4.96,4.97,4.81,4.84,8597950
2018-01-31,4.81,4.95,4.81,4.92,10114476
2018-02-01,4.88,4.98,4.83,4.9,7430588
2018-02-02,4.83,4.89,4.8,4.87,4567655
2018-02-05,4.82,4.82,4.65,4.65,22563176
2018-02-06,4.65,4.73,4.52,4.65,16279054
2018-02-07,4.76,4.83,4.68,4.77,8463318
2018-02-08,4.78,4.89,4.76,4.85,8723629
2018-02-09,4.74,4.77,4.53,4.53,7921582
2018-02-12,4.53,4.59,4.44,4.44,6334396
2018-02-13,4.44,4.65,4.44,4.6,7815035
2018-02-14,4.61,4.61,4.49,4.55,6520787
2018-02-15,4.6,4.7,4.54,4.64,2944697
2018-02-20,4.64,4.73,4.62,4.68,2979881
2018-02-21,4.7,4.74,4.57,4.72,5434699
2018-02-22,4.64,4.64,4.53,4.59,6425211
2018-02-23,4.64,4.66,4.55,4.64,4694400
2018-02-26,4.6,4.64,4.59,4.62,1871930
2018-02-27,4.67,4.67,4.53,4.56,5065008
2018-02-28,4.54,4.61,4.51,4.61,6611328
2018-03-01,4.6,4.6,4.51,4.57,4008221
2018-03-02,4.47,4.53,4.43,4.53,4184185
2018-03-05,4.49,4.5,4.39,4.41,4735258
2018-03-06,4.43,4.49,4.36,4.45,7120917
2018-03-07,4.45,4.5,4.41,4.42,3502099
2018-03-08,4.47,4.58,4.42,4.54,5276442
2018-03-09,4.56,4.78,4.51,4.67,7356719
2018-03-12,4.64,4.75,4.63,4.67,3368592
2018-03-13,4.62,4.71,4.6,4.66,2791510
2018-03-14,4.6,4.64,4.54,4.63,3674688
2018-03-15,4.55,4.63,4.51,4.52,5033135
2018-03-16,4.55,4.55,4.41,4.52,9711519
2018-03-19,4.46,4.53,4.46,4.52,1504813
2018-03-20,4.47,4.59,4.45,4.52,3060000
2018-03-21,4.53,4.54,4.43,4.45,2370000
2018-03-22,4.46,4.46,4.34,4.37,3619200
2018-03-23,4.35,4.36,4.23,4.28,4573979
2018-03-26,4.28,4.38,4.21,4.37,3209138
2018-03-27,4.41,4.45,4.22,4.4,4146553
2018-03-28,4.42,4.54,4.34,4.42,4988848
2018-03-29,4.51,4.73,4.43,4.64,14386743
2018-04-03,4.64,4.64,4.49,4.53,8713762
2018-04-04,4.5,4.58,4.48,4.51,2713972
2018-04-06,4.57,4.62,4.35,4.4,6271513
2018-04-09,4.45,4.51,4.37,4.48,5786384
2018-04-10,4.53,4.56,4.39,4.54,10357458
2018-04-11,4.55,4.58,4.45,4.48,14750251
2018-04-12,4.47,4.51,4.46,4.51,2235118
2018-04-13,4.51,4.53,4.46,4.51,3611487
2018-04-16,4.53,4.53,4.43,4.49,1170000
2018-04-17,4.5,4.5,4.37,4.4,5030464
2018-04-18,4.47,4.55,4.39,4.54,5819860
2018-04-19,4.5,4.64,4.5,4.62,5641800
2018-04-20,4.56,4.71,4.56,4.7,7326130
2018-04-23,4.7,4.75,4.65,4.72,3732136
2018-04-24,4.7,4.77,4.7,4.72,4244373
2018-04-25,4.68,4.73,4.67,4.71,1733000
2018-04-26,4.74,4.74,4.66,4.68,5342800
2018-04-27,4.7,4.78,4.64,4.77,4910865
2018-04-30,4.77,4.91,4.77,4.91,4796596
2018-05-02,4.95,5.0,4.87,4.98,5250974
2018-05-03,4.93,5.0,4.9,4.93,4045780
2018-05-04,4.95,4.99,4.88,4.96,4620260
2018-05-07,5.0,5.0,4.88,4.94,1579296
2018-05-08,4.93,5.05,4.93,5.03,4782725
2018-05-09,4.96,5.04,4.96,5.04,3150418
2018-05-10,5.06,5.1,5.0,5.01,3989331
2018-05-11,5.03,5.1,4.98,5.07,3098801
2018-05-14,5.08,5.12,5.01,5.06,1588000
2018-05-15,5.09,5.09,4.94,5.02,3156976
2018-05-16,5.03,5.04,4.99,5.02,2217123
2018-05-17,5.02,5.03,4.87,4.93,6636990
2018-05-18,4.94,5.06,4.91,5.05,4669796
2018-05-21,5.11,5.11,5.01,5.01,1763846
2018-05-23,5.15,5.15,5.04,5.05,6283474
2018-05-24,5.0,5.11,4.96,5.02,3434425
2018-05-25,5.07,5.1,5.02,5.04,3152000
2018-05-28,4.95,5.04,4.95,4.99,1626000
2018-05-29,4.99,4.99,4.89,4.92,4900795
2018-05-30,4.91,4.91,4.8,4.83,7607745
2018-05-31,4.9,5.0,4.82,5.0,18648804
2018-06-01,4.95,5.13,4.92,5.07,6896913
2018-06-04,5.08,5.1,5.05,5.07,2637021
2018-06-05,5.09,5.1,4.96,5.1,3648154
2018-06-06,5.05,5.09,4.99,5.07,2788390
2018-06-07,5.1,5.16,5.02,5.16,3986088
2018-06-08,5.16,5.3,5.14,5.19,6183609
2018-06-11,5.15,5.19,5.05,5.11,2302240
2018-06-12,5.24,5.24,5.01,5.12,4983093
2018-06-13,5.09,5.17,5.06,5.11,3085480
2018-06-14,5.08,5.09,4.99,5.06,4583046
2018-06-15,5.03,5.04,4.89,4.91,8910270
2018-06-19,4.65,4.93,4.65,4.7,7684000
2018-06-20,4.74,4.82,4.67,4.68,3718000
2018-06-21,4.68,4.84,4.68,4.77,11994000
2018-06-22,4.81,4.87,4.71,4.86,10537000
2018-06-25,4.81,4.83,4.7,4.73,6012800
2018-06-26,4.67,5.04,4.62,4.99,7679936
2018-06-27,5.0,5.05,4.83,4.83,8793418
2018-06-28,4.78,4.87,4.74,4.81,8481451
2018-06-29,4.85,4.95,4.79,4.92,3906000
2018-07-03,4.99,4.99,4.7,4.81,5997000
2018-07-04,4.74,4.75,4.54,4.57,3258877
2018-07-05,4.58,4.66,4.4,4.45,3384255
2018-07-06,4.53,4.59,4.35,4.42,9969033
2018-07-09,4.4,4.58,4.4,4.58,5912099
2018-07-10,4.56,4.63,4.52,4.53,4517082
2018-07-11,4.52,4.65,4.47,4.63,4662143
2018-07-12,4.59,4.78,4.59,4.69,4619606
2018-07-13,4.68,5.03,4.68,4.98,10254503
2018-07-16,4.98,5.01,4.93,4.99,8262000
2018-07-17,4.93,4.98,4.84,4.86,5379992
2018-07-18,4.8,4.9,4.75,4.85,3414000
2018-07-19,4.83,4.91,4.77,4.82,5814322
2018-07-20,4.81,4.95,4.72,4.92,3957002
2018-07-23,4.9,4.92,4.82,4.88,1805992
2018-07-24,4.81,5.01,4.8,4.88,4378000
2018-07-25,4.9,5.03,4.9,5.01,5451933
2018-07-26,4.98,5.03,4.93,5.0,3754000
2018-07-27,5.01,5.01,4.95,5.0,1425888
2018-07-30,5.03,5.03,4.88,4.95,2366368
2018-07-31,4.89,4.96,4.85,4.95,5293801
2018-08-01,4.98,5.24,4.98,5.23,8876713
2018-08-02,5.21,5.3,4.96,5.08,13198011
2018-08-03,5.13,5.17,5.02,5.08,3296400
2018-08-06,5.1,5.33,5.1,5.19,5329417
2018-08-07,5.19,5.28,5.06,5.08,5286313
2018-08-08,5.09,5.23,5.08,5.21,4252000
2018-08-09,5.21,5.28,5.15,5.26,2860074
2018-08-10,5.23,5.25,5.11,5.19,2149554
2018-08-13,5.14,5.18,5.06,5.17,4342000
2018-08-14,5.17,5.32,5.1,5.25,7819343
2018-08-15,5.22,5.28,5.0,5.28,8376483
2018-08-16,5.28,5.77,5.25,5.71,21408540
2018-08-17,5.77,5.87,5.5,5.56,19099158
2018-08-20,5.56,5.97,5.56,5.9,14048000
2018-08-21,5.97,5.97,5.69,5.85,13164379
2018-08-22,5.83,5.98,5.74,5.83,11291813
2018-08-23,5.79,5.9,5.72,5.86,7353907
2018-08-24,5.78,5.87,5.78,5.83,7100040
2018-08-27,5.81,5.89,5.72,5.82,12162777
2018-08-28,5.78,6.06,5.78,5.91,18621544
2018-08-29,5.92,5.99,5.88,5.97,8112000
2018-08-30,5.94,6.06,5.86,6.01,10566966
2018-08-31,6.04,6.47,5.95,6.47,24246506
2018-09-03,6.47,6.89,6.37,6.66,19453088
2018-09-04,6.65,6.65,6.34,6.46,17237388
2018-09-05,6.67,6.67,6.38,6.43,20854504
2018-09-06,6.43,6.46,6.1,6.22,19162742
2018-09-07,6.22,6.39,6.17,6.27,15953981
2018-09-10,6.31,6.56,6.28,6.49,13034170
2018-09-11,6.5,6.5,6.36,6.47,10083946
2018-09-12,6.57,6.86,6.51,6.6,18696968
2018-09-13,6.55,6.56,6.29,6.45,20922620
2018-09-14,6.5,7.08,6.48,6.91,33956800
2018-09-17,6.91,7.11,6.83,7.07,13204407
2018-09-18,6.96,7.07,6.74,6.93,16304784
2018-09-19,6.88,7.16,6.83,6.88,16516271
2018-09-20,6.87,6.88,6.73,6.83,11368348
2018-09-21,6.94,7.02,6.74,6.78,21416976
2018-09-24,6.78,6.83,6.57,6.61,12110022
2018-09-26,6.65,6.89,6.65,6.75,13263784
2018-09-27,6.79,6.9,6.63,6.75,14523674
2018-09-28,6.81,7.18,6.76,7.18,19022836
2018-10-02,7.12,7.4,7.06,7.31,26811036
2018-10-03,7.42,7.56,7.24,7.39,16612159
2018-10-04,7.37,7.39,7.03,7.17,17285572
2018-10-05,7.12,7.17,6.83,7.0,23666334
2018-10-08,6.97,7.17,6.81,6.86,14424882
2018-10-09,6.91,6.96,6.28,6.36,53988580
2018-10-10,6.39,6.73,6.38,6.7,23352320
2018-10-11,6.5,6.52,6.33,6.46,16389227
2018-10-12,6.51,6.57,6.41,6.54,9441600
2018-10-15,6.5,6.5,6.3,6.47,4598932
2018-10-16,6.54,6.54,6.33,6.43,9521798
2018-10-18,6.43,6.68,6.31,6.57,12198490
2018-10-19,6.49,6.65,6.38,6.55,9515307
2018-10-22,6.57,6.69,6.42,6.63,6378367
2018-10-23,6.62,7.05,6.62,6.82,19306160
2018-10-24,6.81,6.81,6.36,6.56,10088065
2018-10-25,6.47,6.51,6.35,6.41,7431453
2018-10-26,6.53,6.55,6.37,6.42,6652000
2018-10-29,6.46,6.65,6.36,6.39,6657595
2018-10-30,6.37,6.42,6.09,6.09,6451255
2018-10-31,6.11,6.34,5.72,6.31,12718976
2018-11-01,6.33,6.36,6.17,6.25,5695260
2018-11-02,6.43,6.45,5.97,6.27,11048481
2018-11-05,6.19,6.24,5.93,6.01,8546281
2018-11-06,6.03,6.32,6.01,6.18,5880757
2018-11-07,6.2,6.27,6.05,6.15,5518000
2018-11-08,6.23,6.33,6.15,6.23,7049865
2018-11-09,6.41,6.41,6.14,6.24,8294255
2018-11-12,6.12,6.24,6.08,6.14,4865010
2018-11-13,6.02,6.27,5.84,6.26,10402033
2018-11-14,6.33,6.33,6.22,6.28,6874000
2018-11-15,6.28,6.4,6.21,6.39,5104000
2018-11-16,6.39,6.91,6.37,6.87,12073449
2018-11-19,6.89,7.02,6.76,7.02,15559328
2018-11-20,6.87,7.09,6.79,6.98,9517159
2018-11-21,6.85,6.92,6.72,6.92,9266001
2018-11-22,6.92,7.0,6.83,6.92,2957912
2018-11-23,6.91,6.91,6.73,6.79,11399794
2018-11-26,6.74,6.77,6.51,6.55,18300000
2018-11-27,6.53,6.75,6.5,6.68,13123761
2018-11-28,6.73,6.96,6.72,6.9,12858601
2018-11-29,7.47,7.47,6.98,7.42,20918100
2018-11-30,7.13,7.15,6.49,6.5,24411590
2018-12-03,6.64,6.69,6.32,6.47,21965632
2018-12-04,6.54,6.75,6.53,6.67,18189500
2018-12-05,6.54,6.54,6.17,6.2,19358800
2018-12-06,6.12,6.17,5.87,5.94,15709870
2018-12-07,5.97,6.04,5.84,5.95,13396470
2018-12-10,5.91,6.01,5.7,5.81,9608722
2018-12-11,5.81,5.87,5.67,5.82,15067137
2018-12-12,5.9,6.06,5.77,5.92,20849976
2018-12-13,6.03,6.16,5.97,6.14,14553333
2018-12-14,6.04,6.07,5.77,5.83,13485761
2018-12-17,5.8,6.07,5.8,5.97,14594949
2018-12-18,5.9,6.24,5.9,6.16,16255860
2018-12-19,6.25,6.33,6.15,6.28,8383345
2018-12-20,6.23,6.39,6.23,6.31,11405289
2018-12-21,6.18,6.26,6.05,6.12,13356224
2018-12-24,6.12,6.44,6.05,6.44,4209200
2018-12-27,6.65,6.65,6.33,6.47,10088271
2018-12-28,6.44,6.44,6.19,6.31,4815442
2018-12-31,6.38,6.52,6.29,6.45,4143533
2019-01-02,6.47,6.47,6.07,6.13,5595695
2019-01-03,6.02,6.25,6.02,6.2,9717248
2019-01-04,6.19,6.47,6.12,6.36,6653773
2019-01-07,6.44,6.56,6.36,6.39,4530312
2019-01-08,6.4,6.89,6.4,6.79,17637692
2019-01-09,6.75,6.9,6.65,6.78,15410670
2019-01-10,6.79,6.91,6.61,6.81,9011330
2019-01-11,6.71,6.89,6.69,6.76,8859067
2019-01-14,6.74,7.07,6.74,7.0,11428825
2019-01-15,7.07,7.31,6.9,7.22,12205312
2019-01-16,7.23,7.28,7.11,7.16,5405581
2019-01-17,7.11,7.14,7.0,7.08,13261378
2019-01-18,7.06,7.06,6.79,6.85,17337892
2019-01-21,6.86,6.89,6.73,6.86,13686000
2019-01-22,6.82,6.9,6.69,6.89,9920000
2019-01-23,6.86,7.47,6.86,7.43,31581992
2019-01-24,7.51,7.51,7.12,7.16,24073260
2019-01-25,7.14,7.34,7.14,7.22,16173011
2019-01-28,7.24,7.24,7.08,7.18,11588480
2019-01-29,7.06,7.29,7.06,7.23,10469237
2019-01-30,7.18,7.37,7.13,7.25,15132536
2019-01-31,7.31,7.34,7.19,7.32,12779338
2019-02-01,7.38,7.38,7.12,7.28,9788525
2019-02-04,7.24,7.42,7.18,7.42,4989265
2019-02-08,7.25,7.85,7.25,7.78,16868706
2019-02-11,7.77,8.0,7.72,7.91,16649236
2019-02-12,7.85,7.85,7.66,7.68,20314878
2019-02-13,7.62,7.88,7.51,7.79,19278462
2019-02-14,7.79,8.34,7.79,8.27,26021592
2019-02-15,8.2,8.35,8.01,8.11,20292458
2019-02-18,8.2,8.46,8.09,8.41,27161832
2019-02-19,8.36,8.4,7.97,7.99,28142380
2019-02-20,7.95,8.22,7.89,7.98,24007900
2019-02-21,7.99,8.08,7.81,7.88,29098564
2019-02-22,7.82,8.06,7.77,8.06,29912784
2019-02-25,8.2,8.35,7.86,7.89,24155840
2019-02-26,7.91,7.93,7.77,7.77,19350676
2019-02-27,7.85,8.18,7.77,7.96,23853360
2019-02-28,8.01,8.04,7.81,7.85,13062097
2019-03-01,7.85,8.04,7.84,8.01,10643130
2019-03-04,8.06,8.1,7.51,7.55,38703400
2019-03-05,7.56,7.77,7.51,7.77,16634320
2019-03-06,7.78,7.91,7.67,7.82,11779408
2019-03-07,7.75,7.81,7.55,7.57,9853885
2019-03-08,7.4,7.63,7.39,7.49,11680537
2019-03-11,7.53,7.71,7.47,7.61,7302284
2019-03-12,7.66,7.76,7.58,7.66,7033905
2019-03-13,7.67,7.7,7.43,7.49,13961303
2019-03-14,7.58,7.58,7.43,7.53,8891768
2019-03-15,7.51,7.58,7.33,7.39,14868698
2019-03-18,7.34,7.5,7.22,7.47,11675030
2019-03-19,7.48,7.55,7.36,7.39,5968476
2019-03-20,7.39,7.4,7.27,7.29,7996706
2019-03-21,7.27,7.35,7.17,7.2,15231846
2019-03-22,7.21,7.35,7.21,7.32,10460626
2019-03-25,7.1,7.25,7.1,7.21,7960366
2019-03-26,7.29,7.36,7.11,7.32,7713539
2019-03-27,7.21,7.31,7.1,7.26,7358219
2019-03-28,7.26,7.41,7.2,7.25,11620199
2019-03-29,7.27,7.27,6.82,6.97,19918244
2019-04-01,6.98,6.99,6.79,6.8,18214220
2019-04-02,6.79,6.85,6.64,6.72,16222235
2019-04-03,6.75,6.76,6.32,6.61,31703376
2019-04-04,6.67,6.67,6.44,6.48,17726900
2019-04-08,6.51,6.54,6.27,6.39,33024168
2019-04-09,6.39,6.84,6.32,6.78,50282060
2019-04-10,6.79,7.12,6.76,7.05,59550260
2019-04-11,7.07,7.11,6.79,6.85,33978796
2019-04-12,6.84,6.85,6.62,6.69,16156000
2019-04-15,6.78,6.9,6.73,6.75,16312000
2019-04-16,6.73,6.95,6.64,6.93,18569588
2019-04-17,6.95,7.05,6.89,7.02,25900330
2019-04-18,7.07,7.08,6.83,6.91,13740570
2019-04-23,6.89,7.03,6.7,6.73,13243940
2019-04-24,6.76,6.84,6.64,6.73,12264092
2019-04-25,6.65,6.68,6.44,6.48,14642776
2019-04-26,6.44,6.58,6.39,6.5,11973307
2019-04-29,6.41,6.49,6.33,6.37,5479345
2019-04-30,6.34,6.38,6.27,6.29,8185134
2019-05-02,6.29,6.3,6.08,6.16,21727684
2019-05-03,6.15,6.23,6.03,6.17,14283134
2019-05-06,5.84,6.04,5.78,5.94,22384556
2019-05-07,5.93,6.11,5.87,6.04,22341702
2019-05-08,5.97,6.22,5.94,6.06,15403572
2019-05-09,6.07,6.1,5.91,5.96,13681655
2019-05-10,6.05,6.16,5.93,6.08,17108628
2019-05-14,5.88,6.07,5.72,6.02,17114578
2019-05-15,5.99,6.36,5.99,6.28,22073044
2019-05-16,6.22,6.34,6.08,6.08,9836316
2019-05-17,6.11,6.24,5.84,5.88,14580183
2019-05-20,5.87,5.92,5.72,5.83,19009968
2019-05-21,5.89,5.98,5.64,5.84,19368044
2019-05-22,5.85,6.01,5.81,5.86,13187200
2019-05-23,5.79,5.85,5.42,5.46,22942866
2019-05-24,5.46,5.84,5.46,5.72,19639044
2019-05-27,5.74,5.78,5.55,5.73,7911135
2019-05-28,5.77,5.89,5.74,5.82,17162232
2019-05-29,5.74,5.93,5.67,5.79,8156047
2019-05-30,5.91,5.92,5.74,5.82,16498621
2019-05-31,5.78,5.92,5.77,5.84,13034261
2019-06-03,5.82,6.17,5.75,6.17,21176000
2019-06-04,6.22,6.31,5.98,6.18,30429392
2019-06-05,6.28,6.3,6.11,6.18,12416054
2019-06-06,6.25,6.26,5.9,5.97,9951208
2019-06-10,6.03,6.19,5.92,6.16,9912859
2019-06-11,6.22,6.25,6.06,6.18,13429547
2019-06-12,6.09,6.11,5.83,6.0,9275600
2019-06-13,6.01,6.26,6.01,6.23,13819124
2019-06-14,6.24,6.24,5.92,5.98,6495234
2019-06-17,6.02,6.15,5.94,6.01,6599659
2019-06-18,6.0,6.06,5.94,5.97,7093738
2019-06-19,6.13,6.23,6.09,6.18,8463663
2019-06-20,6.22,6.24,6.1,6.23,8980000
2019-06-21,6.2,6.23,6.05,6.13,22542584
2019-06-24,6.13,6.13,5.96,6.04,11151015
2019-06-25,6.06,6.06,5.91,6.03,9656708
2019-06-26,6.03,6.31,5.94,6.18,13943200
2019-06-27,6.16,6.25,6.05,6.21,16500922
2019-06-28,6.21,6.21,6.01,6.03,9469855
2019-07-02,6.15,6.22,6.07,6.12,26432686
2019-07-03,6.05,6.13,5.98,6.1,10722000
2019-07-04,6.15,6.15,6.01,6.01,4997000
2019-07-05,6.01,6.03,5.93,6.0,3998140
2019-07-08,5.96,5.96,5.81,5.86,5502673
2019-07-09,5.81,5.83,5.71,5.71,5126000
2019-07-10,5.8,5.81,5.69,5.74,6195444
2019-07-11,5.76,5.8,5.56,5.64,12732331
2019-07-12,5.59,5.63,5.5,5.52,9989000
2019-07-15,5.58,5.6,5.38,5.53,11499000
2019-07-16,5.56,5.77,5.56,5.71,15516000
2019-07-17,5.65,5.75,5.64,5.67,6453000
2019-07-18,5.63,5.69,5.52,5.58,8686870
2019-07-19,5.58,5.74,5.55,5.71,9427836
2019-07-22,5.7,5.7,5.53,5.54,4388229
2019-07-23,5.6,5.6,5.48,5.56,7581450
2019-07-24,5.55,5.72,5.55,5.62,8000903
2019-07-25,5.69,5.75,5.66,5.69,9089183
2019-07-26,5.69,5.69,5.48,5.5,13921208
2019-07-29,5.49,5.55,5.45,5.53,4914814
2019-07-30,5.55,5.65,5.51,5.58,5409838
2019-07-31,5.52,5.57,5.45,5.5,6392297
2019-08-01,5.57,5.83,5.53,5.57,16400027
2019-08-02,5.45,5.48,5.25,5.29,14388149
2019-08-05,5.27,5.27,5.06,5.13,12563919
2019-08-06,4.93,5.03,4.89,4.99,18543636
2019-08-07,4.99,5.06,4.9,5.01,10919450
2019-08-08,4.95,5.15,4.95,5.12,11411438
2019-08-09,5.17,5.17,4.96,4.97,9806000
2019-08-12,5.0,5.08,5.0,5.04,6106000
2019-08-13,5.0,5.0,4.89,4.93,7442783
2019-08-14,5.03,5.04,4.92,4.93,9778536
2019-08-15,4.83,5.13,4.76,5.09,11659951
2019-08-16,5.1,5.1,4.95,4.97,10582985
2019-08-19,5.02,5.1,4.99,5.01,6893043
2019-08-20,5.02,5.06,4.96,4.99,8519051
2019-08-21,4.96,5.03,4.94,4.97,8213378
2019-08-22,4.95,4.97,4.84,4.86,10223684
2019-08-23,4.83,4.95,4.78,4.88,6719638
2019-08-26,4.76,4.81,4.66,4.68,8341056
2019-08-27,4.69,4.91,4.66,4.8,16646786
2019-08-28,4.76,4.82,4.68,4.7,6469497
2019-08-29,4.67,4.68,4.41,4.45,15870000
2019-08-30,4.47,4.5,4.36,4.39,11233458
2019-09-02,4.4,4.51,4.36,4.36,8340778
2019-09-03,4.39,4.42,4.31,4.34,7903516
2019-09-04,4.36,4.5,4.33,4.46,8826578
2019-09-05,4.49,4.7,4.48,4.7,13133520
2019-09-06,4.76,4.78,4.66,4.7,7864103
2019-09-09,4.73,4.86,4.73,4.8,12871109
2019-09-10,4.89,4.95,4.75,4.79,13801100
2019-09-11,4.85,4.85,4.72,4.82,10534681
2019-09-12,4.87,4.92,4.8,4.86,6222000
2019-09-13,4.83,4.86,4.8,4.86,3284240
2019-09-16,4.83,4.88,4.71,4.77,6123294
2019-09-17,4.72,4.78,4.59,4.66,6776020
2019-09-18,4.62,4.72,4.61,4.7,7783538
2019-09-19,4.73,4.73,4.6,4.61,5582976
2019-09-20,4.6,4.62,4.48,4.5,18352888
2019-09-23,4.5,4.54,4.4,4.43,8151485
2019-09-24,4.43,4.54,4.4,4.42,12736787
2019-09-25,4.38,4.44,4.33,4.39,12307800
2019-09-26,4.42,4.49,4.38,4.46,9323188
2019-09-27,4.46,4.47,4.36,4.4,5420489
2019-09-30,4.38,4.49,4.38,4.44,6236814
2019-10-02,4.42,4.52,4.33,4.49,6870700
2019-10-03,4.44,4.57,4.44,4.54,4937436
2019-10-04,4.54,4.6,4.45,4.48,10245520
2019-10-08,4.48,4.68,4.47,4.6,11698292
2019-10-09,4.57,4.62,4.49,4.53,10624917
2019-10-10,4.49,4.58,4.49,4.55,12279443
2019-10-11,4.57,4.68,4.57,4.65,5260000
2019-10-14,4.68,4.71,4.62,4.64,6072400
2019-10-15,4.63,4.65,4.56,4.57,6866000
2019-10-16,4.56,4.61,4.5,4.53,12420000
2019-10-17,4.5,4.55,4.46,4.48,10232000
2019-10-18,4.46,4.77,4.46,4.74,31495424
2019-10-21,4.73,4.82,4.6,4.65,10406000
2019-10-22,4.66,4.72,4.57,4.71,17422540
2019-10-23,4.7,4.71,4.6,4.65,9809000
2019-10-24,4.63,4.73,4.59,4.73,8397368
2019-10-25,4.67,4.7,4.62,4.64,7522000
2019-10-28,4.67,4.79,4.66,4.73,9046804
2019-10-29,4.73,4.75,4.66,4.68,9123616
2019-10-30,4.71,4.77,4.64,4.75,12576354
2019-10-31,4.78,4.97,4.75,4.85,18724132
2019-11-01,4.86,5.43,4.85,5.39,46065420
2019-11-04,5.46,5.55,5.2,5.25,30112824
2019-11-05,5.29,5.41,5.22,5.33,15794782
2019-11-06,5.31,5.39,5.26,5.32,9564759
2019-11-07,5.28,5.33,5.24,5.33,7277973
2019-11-08,5.35,5.58,5.35,5.42,24430824
2019-11-11,5.4,5.4,5.12,5.19,13137432
2019-11-12,5.22,5.32,5.14,5.28,11749648
2019-11-13,5.22,5.22,5.1,5.17,10365604
2019-11-14,5.11,5.19,5.02,5.06,8692440
2019-11-15,5.12,5.14,5.04,5.09,12083460
2019-11-18,5.12,5.24,5.11,5.21,7362440
2019-11-19,5.22,5.33,5.16,5.32,11164244
2019-11-20,5.3,5.3,5.15,5.2,10345996
2019-11-21,5.12,5.17,5.06,5.11,13516339
2019-11-22,5.14,5.19,5.1,5.14,23132040
2019-11-25,5.25,5.38,5.18,5.35,29431320
2019-11-26,5.41,5.41,5.2,5.3,23368856
2019-11-27,5.32,5.49,5.26,5.4,12976850
2019-11-28,5.36,5.44,5.32,5.38,8031957
2019-11-29,5.38,5.38,5.25,5.27,12290899
2019-12-02,5.26,5.29,5.18,5.2,7780200
2019-12-03,5.27,5.27,5.12,5.19,8652441
2019-12-04,5.16,5.24,5.12,5.15,11122672
2019-12-05,5.25,5.27,5.16,5.19,10929600
2019-12-06,5.2,5.29,5.18,5.24,10925829
2019-12-09,5.26,5.3,5.18,5.19,13061189
2019-12-10,5.21,5.25,5.16,5.17,8894077
2019-12-11,5.2,5.3,5.16,5.3,19276000
2019-12-12,5.32,5.43,5.3,5.3,13267406
2019-12-13,5.34,5.4,5.32,5.35,7317000
2019-12-16,5.33,5.5,5.3,5.45,10937494
2019-12-17,5.5,5.64,5.48,5.58,24314934
2019-12-18,5.64,5.68,5.39,5.43,16013699
2019-12-19,5.46,5.46,5.31,5.34,10570968
2019-12-20,5.35,5.38,5.28,5.34,13047199
2019-12-23,5.38,5.38,5.31,5.38,7746180
2019-12-24,5.36,5.42,5.32,5.36,1548000
2019-12-27,5.42,5.57,5.42,5.53,11643156
2019-12-30,5.59,5.69,5.5,5.56,20316662
2019-12-31,5.56,5.69,5.49,5.68,11272168
2020-01-02,5.69,5.76,5.63,5.67,14959800
2020-01-03,5.67,5.83,5.66,5.81,57685408
2020-01-06,5.79,5.79,5.67,5.7,14925434
2020-01-07,5.76,5.77,5.59,5.62,12478004
2020-01-08,5.55,5.62,5.46,5.55,18446648
2020-01-09,5.62,5.75,5.62,5.69,13531611
2020-01-10,5.72,5.74,5.63,5.66,7478000
2020-01-13,5.65,5.67,5.54,5.61,19859532
2020-01-14,5.62,5.63,5.46,5.5,23471912
2020-01-15,5.5,5.56,5.44,5.56,22673240
2020-01-16,5.55,5.56,5.49,5.56,8594865
2020-01-17,5.59,5.75,5.52,5.75,23554358
2020-01-20,5.79,6.28,5.78,6.26,56169716
2020-01-21,6.15,6.26,5.97,6.0,44181000
2020-01-22,6.0,6.09,5.82,6.07,23034256
2020-01-23,6.0,6.04,5.75,5.88,32539604
2020-01-24,5.9,5.93,5.8,5.91,11588249
2020-01-29,5.64,5.82,5.6,5.72,16175330
2020-01-30,5.72,5.75,5.26,5.31,24560000
2020-01-31,5.4,5.46,5.24,5.27,16278956
2020-02-03,5.2,5.38,5.13,5.32,13508350
2020-02-04,5.38,5.57,5.38,5.45,14076888
2020-02-05,5.54,5.59,5.37,5.42,13333624
2020-02-06,5.56,5.72,5.48,5.65,21868712
2020-02-07,5.63,5.83,5.61,5.71,13540290
2020-02-10,5.64,5.83,5.55,5.82,15857956
2020-02-11,5.84,5.94,5.74,5.8,16140272
2020-02-12,5.83,5.98,5.74,5.93,18299488
2020-02-13,5.99,6.0,5.79,5.84,13806686
2020-02-14,5.88,5.98,5.85,5.88,10358000
2020-02-17,5.92,6.08,5.92,6.0,12394400
2020-02-18,6.01,6.03,5.88,5.93,10588000
2020-02-19,5.94,5.96,5.87,5.94,9868429
2020-02-20,5.94,6.17,5.93,6.03,18383326
2020-02-21,5.97,6.05,5.91,5.94,8146400
2020-02-24,5.88,6.28,5.86,6.22,32154824
2020-02-25,6.18,6.4,6.1,6.18,32645742
2020-02-26,6.1,6.35,6.08,6.23,19345500
2020-02-27,6.23,6.28,6.16,6.2,9973369
2020-02-28,6.1,6.18,5.93,6.03,27784468
2020-03-02,5.97,6.29,5.97,6.19,17143200
2020-03-03,6.29,6.38,6.18,6.26,15734965
2020-03-04,6.25,6.4,6.16,6.35,16733692
2020-03-05,6.48,6.7,6.42,6.45,33808548
2020-03-06,6.35,6.41,6.27,6.29,19952908
2020-03-09,6.02,6.23,6.02,6.04,18380000
2020-03-10,6.04,6.23,5.87,6.08,19957206
2020-03-11,6.18,6.23,5.98,5.99,13112508
2020-03-12,5.93,5.93,5.62,5.69,20706352
2020-03-13,5.3,5.86,5.2,5.82,23359740
2020-03-16,5.65,5.73,5.3,5.4,20908016
2020-03-17,5.4,5.46,5.17,5.26,30560254
2020-03-18,5.24,5.44,5.06,5.13,19695436
2020-03-19,5.03,5.13,4.73,4.97,22111996
2020-03-20,5.07,5.17,4.88,4.96,30185404
2020-03-23,4.71,4.87,4.68,4.74,21849290
2020-03-24,4.91,5.08,4.9,4.95,17246360
2020-03-25,5.15,5.51,5.13,5.44,31267444
2020-03-26,5.44,5.68,5.37,5.47,26113116
2020-03-27,5.6,5.7,5.49,5.53,10322432
2020-03-30,5.49,5.51,5.32,5.35,17315204
2020-03-31,5.4,5.67,5.4,5.64,14806006
2020-04-01,5.52,5.68,5.4,5.49,18328976
2020-04-02,5.4,5.77,5.4,5.73,14059258
2020-04-03,5.67,5.9,5.67,5.75,8468255
2020-04-06,5.84,6.07,5.77,6.04,12859996
2020-04-07,6.13,6.13,5.89,6.04,16155778
2020-04-08,5.98,6.12,5.92,5.98,13276725
2020-04-09,6.08,6.12,5.97,5.99,6559000
2020-04-14,6.04,6.06,5.89,6.0,15155276
2020-04-15,5.97,6.06,5.8,5.83,17093912
2020-04-16,5.79,5.86,5.68,5.79,11338000
2020-04-17,5.96,5.96,5.72,5.76,10367094
2020-04-20,5.81,5.91,5.74,5.76,13544000
2020-04-21,5.76,5.76,5.55,5.63,9681239
2020-04-22,5.55,5.71,5.48,5.66,8383888
2020-04-23,5.73,5.74,5.55,5.57,8358699
2020-04-24,5.59,5.63,5.43,5.43,10327313
2020-04-27,5.52,5.61,5.49,5.53,7889831
2020-04-28,5.61,5.61,5.41,5.55,7010720
2020-04-29,5.56,5.61,5.47,5.51,4412799
2020-05-04,5.46,5.49,5.3,5.32,9305634
2020-05-05,5.36,5.46,5.36,5.44,4828963
2020-05-06,5.47,5.64,5.47,5.6,6396600
2020-05-07,5.64,5.69,5.56,5.6,6877315
2020-05-08,5.61,5.63,5.52,5.55,9662507
2020-05-11,5.59,5.66,5.47,5.5,15022874
2020-05-12,5.48,5.52,5.4,5.47,9175621
2020-05-13,5.43,5.46,5.37,5.41,7519000
2020-05-14,5.38,5.38,5.19,5.27,15731000
2020-05-15,5.25,5.36,5.18,5.34,9826400
2020-05-18,5.42,5.77,5.42,5.7,23096342
2020-05-19,5.98,5.98,5.64,5.68,20796424
2020-05-20,5.65,5.67,5.53,5.57,12122982
2020-05-21,5.65,5.66,5.51,5.58,9941160
2020-05-22,5.48,5.48,5.07,5.21,25433364
2020-05-25,5.13,5.29,5.09,5.29,8814000
2020-05-26,5.33,5.4,5.25,5.29,8112013
2020-05-27,5.29,5.38,5.23,5.31,9112711
2020-05-28,5.24,5.32,5.07,5.15,11483206
2020-05-29,5.14,5.2,5.03,5.13,18358136
2020-06-01,5.22,5.32,5.2,5.22,11396209
2020-06-02,5.3,5.3,5.16,5.25,6298364
2020-06-03,5.3,5.33,5.22,5.26,9986422
2020-06-04,5.32,5.4,5.22,5.27,8990552
2020-06-05,5.22,5.29,5.16,5.26,15464381
2020-06-08,5.35,5.4,5.26,5.3,13622000
2020-06-09,5.31,5.36,5.26,5.3,11837388
2020-06-10,5.35,5.35,5.2,5.23,12696558
2020-06-11,5.19,5.22,5.08,5.12,13635507
2020-06-12,4.97,5.09,4.96,5.05,12286503
2020-06-15,5.03,5.06,4.95,4.95,9822376
2020-06-16,5.02,5.15,5.02,5.14,9959722
2020-06-17,5.18,5.24,5.1,5.22,16065882
2020-06-18,5.22,5.37,5.1,5.31,15300202
2020-06-19,5.3,5.31,5.23,5.24,9877183
2020-06-22,5.25,5.25,5.1,5.12,8979798
2020-06-23,5.15,5.15,5.03,5.11,10184950
2020-06-24,5.14,5.22,5.11,5.16,8252080
2020-06-26,5.14,5.2,5.12,5.13,8949297
2020-06-29,5.11,5.15,5.0,5.03,15491420
2020-06-30,4.95,5.0,4.8,4.82,12640681
2020-07-02,4.84,4.98,4.84,4.96,13412000
2020-07-03,5.03,5.16,5.0,5.13,24171404
2020-07-06,5.2,5.4,5.2,5.39,29585484
2020-07-07,5.47,5.59,5.16,5.2,23311256
2020-07-08,5.24,5.33,5.18,5.31,18920368
2020-07-09,5.38,5.47,5.32,5.33,16188000
2020-07-10,5.32,5.34,5.17,5.2,11005200
2020-07-13,5.25,5.44,5.25,5.33,18814000
2020-07-14,5.31,5.31,5.15,5.21,12608400
2020-07-15,5.24,5.33,5.16,5.19,11017409
2020-07-16,5.2,5.21,5.03,5.04,15149603
2020-07-17,5.04,5.09,5.01,5.02,8297000
2020-07-20,5.02,5.12,4.99,5.1,9151177
2020-07-21,5.15,5.23,5.11,5.12,8526644
2020-07-22,5.15,5.2,5.04,5.04,13075386
2020-07-23,5.1,5.12,5.0,5.05,8097418
2020-07-24,5.07,5.13,4.95,4.97,16620000
2020-07-27,5.0,5.11,4.98,5.02,10615827
2020-07-28,5.03,5.11,5.03,5.1,5980400
2020-07-29,5.06,5.1,5.05,5.07,5349564
2020-07-30,5.11,5.11,5.02,5.05,6587631
2020-07-31,5.06,5.09,5.0,5.02,8307852
2020-08-03,5.01,5.17,5.01,5.1,10883045
2020-08-04,5.14,5.14,5.06,5.07,10471740
2020-08-05,5.08,5.11,5.06,5.09,13118549
2020-08-06,5.11,5.23,5.11,5.21,21181236
2020-08-07,5.22,5.3,5.08,5.16,20436992
2020-08-10,5.14,5.15,5.04,5.04,13538712
2020-08-11,5.05,5.1,4.96,4.97,15148635
2020-08-12,4.97,5.01,4.85,4.94,15864000
2020-08-13,4.96,5.12,4.96,5.1,11409953
2020-08-14,5.11,5.2,5.08,5.14,8605083
2020-08-17,5.14,5.3,5.14,5.2,10372945
2020-08-18,5.22,5.24,5.16,5.24,11189000
2020-08-19,5.18,5.23,5.13,5.16,9730365
2020-08-20,5.14,5.15,5.06,5.11,9290468
2020-08-21,5.15,5.15,5.01,5.07,8517667
2020-08-24,5.1,5.15,5.07,5.07,6451000
2020-08-25,5.14,5.14,5.08,5.11,11828000
