Date,Open,High,Low,Close,Volume
2018-08-08,1.26,1.29,1.26,1.26,4359722496
2018-08-09,1.27,1.28,1.26,1.28,1592936448
2018-08-10,1.28,1.3,1.27,1.3,2057612928
2018-08-13,1.29,1.3,1.27,1.29,1012233472
2018-08-14,1.28,1.29,1.26,1.27,1159998976
2018-08-15,1.27,1.27,1.23,1.23,1965620992
2018-08-16,1.22,1.24,1.21,1.22,696574528
2018-08-17,1.23,1.25,1.21,1.24,816088000
2018-08-20,1.26,1.27,1.25,1.26,803804928
2018-08-21,1.27,1.28,1.25,1.27,1870232832
2018-08-22,1.27,1.27,1.25,1.26,1957996928
2018-08-23,1.27,1.27,1.25,1.26,212553600
2018-08-24,1.25,1.26,1.24,1.25,298424192
2018-08-27,1.26,1.27,1.25,1.25,116325600
2018-08-28,1.26,1.26,1.24,1.25,453368000
2018-08-29,1.25,1.26,1.25,1.26,97428000
2018-08-30,1.25,1.26,1.23,1.23,391002496
2018-08-31,1.23,1.24,1.15,1.2,623325120
2018-09-03,1.2,1.2,1.17,1.18,235520704
2018-09-04,1.18,1.19,1.09,1.1,645744000
2018-09-05,1.09,1.09,0.99,1.03,1177455360
2018-09-06,1.06,1.09,1.04,1.07,657512320
2018-09-07,1.08,1.17,1.08,1.15,1203111936
2018-09-10,1.14,1.19,1.13,1.18,599996032
2018-09-11,1.19,1.2,1.15,1.17,475443296
2018-09-12,1.18,1.18,1.14,1.15,244728000
2018-09-13,1.16,1.18,1.15,1.16,407564000
2018-09-14,1.17,1.17,1.15,1.16,135122096
2018-09-17,1.16,1.19,1.16,1.17,385432000
2018-09-18,1.17,1.19,1.16,1.17,394342016
2018-09-19,1.18,1.19,1.17,1.18,104710000
2018-09-20,1.19,1.19,1.18,1.18,56975000
2018-09-21,1.19,1.2,1.17,1.18,687890304
2018-09-24,1.18,1.19,1.17,1.18,68368096
2018-09-26,1.18,1.2,1.17,1.18,193741104
2018-09-27,1.18,1.18,1.16,1.17,202279104
2018-09-28,1.17,1.18,1.14,1.14,484004992
2018-10-02,1.15,1.17,1.14,1.15,250533504
2018-10-03,1.16,1.17,1.15,1.15,45855600
2018-10-04,1.15,1.16,1.14,1.14,103378400
2018-10-05,1.15,1.15,1.13,1.14,92066000
2018-10-08,1.14,1.15,1.12,1.14,129622000
2018-10-09,1.14,1.15,1.13,1.13,41234300
2018-10-10,1.13,1.17,1.13,1.15,230920496
2018-10-11,1.12,1.12,1.09,1.1,96212704
2018-10-12,1.1,1.17,1.1,1.16,180536496
2018-10-15,1.17,1.17,1.13,1.15,85644000
2018-10-16,1.16,1.16,1.13,1.15,72687104
2018-10-18,1.15,1.16,1.14,1.16,107057000
2018-10-19,1.15,1.16,1.14,1.16,204694000
2018-10-22,1.15,1.16,1.14,1.15,312886400
2018-10-23,1.15,1.15,1.14,1.15,318557696
2018-10-24,1.15,1.15,1.13,1.13,44193700
2018-10-25,1.12,1.15,1.09,1.14,219222000
2018-10-26,1.15,1.15,1.1,1.14,293543712
2018-10-29,1.14,1.2,1.14,1.19,132990896
2018-10-30,1.19,1.21,1.18,1.19,176462800
2018-10-31,1.2,1.2,1.17,1.19,230682896
2018-11-01,1.2,1.21,1.14,1.15,194694000
2018-11-02,1.16,1.17,1.14,1.15,336326784
2018-11-05,1.15,1.16,1.12,1.14,179577200
2018-11-06,1.14,1.17,1.13,1.16,147071008
2018-11-07,1.17,1.17,1.15,1.16,150154096
2018-11-08,1.17,1.21,1.16,1.19,642858112
2018-11-09,1.19,1.19,1.15,1.16,235780896
2018-11-12,1.18,1.2,1.15,1.15,205330096
2018-11-13,1.15,1.17,1.15,1.16,143259696
2018-11-14,1.17,1.2,1.16,1.18,238113296
2018-11-15,1.18,1.2,1.17,1.19,99281904
2018-11-16,1.19,1.2,1.16,1.18,221171808
2018-11-19,1.18,1.19,1.16,1.18,227880496
2018-11-20,1.17,1.18,1.14,1.16,253477696
2018-11-21,1.15,1.17,1.13,1.14,498515488
2018-11-22,1.14,1.16,1.13,1.15,143222096
2018-11-23,1.15,1.16,1.13,1.14,140092000
2018-11-26,1.14,1.15,1.13,1.14,164730000
2018-11-27,1.14,1.15,1.13,1.13,131167800
2018-11-28,1.14,1.17,1.13,1.16,307636992
2018-11-29,1.16,1.17,1.14,1.15,235572400
2018-11-30,1.16,1.17,1.14,1.16,425817696
2018-12-03,1.16,1.2,1.15,1.2,541498880
2018-12-04,1.2,1.2,1.18,1.2,237412896
2018-12-05,1.18,1.19,1.17,1.19,178792992
2018-12-06,1.19,1.19,1.18,1.19,347011392
2018-12-07,1.19,1.25,1.19,1.24,1831122560
2018-12-10,1.25,1.29,1.24,1.28,810168704
2018-12-11,1.27,1.29,1.26,1.28,527097088
2018-12-12,1.3,1.39,1.29,1.37,973555200
2018-12-13,1.37,1.38,1.35,1.37,625857088
2018-12-14,1.37,1.37,1.34,1.36,566368704
2018-12-17,1.35,1.44,1.35,1.4,756489984
2018-12-18,1.4,1.47,1.39,1.42,687165376
2018-12-19,1.43,1.45,1.41,1.42,551713280
2018-12-20,1.43,1.46,1.35,1.37,830780992
2018-12-21,1.37,1.47,1.36,1.47,481348512
2018-12-24,1.49,1.52,1.45,1.51,336451712
2018-12-27,1.57,1.57,1.46,1.46,745240192
2018-12-28,1.48,1.49,1.41,1.43,419568896
2018-12-31,1.46,1.48,1.44,1.48,166431504
2019-01-02,1.47,1.48,1.38,1.4,521344096
2019-01-03,1.41,1.45,1.37,1.4,472971488
2019-01-04,1.39,1.46,1.38,1.44,330054688
2019-01-07,1.47,1.48,1.44,1.46,428667488
2019-01-08,1.47,1.57,1.45,1.55,884798400
2019-01-09,1.56,1.58,1.5,1.52,925085568
2019-01-10,1.51,1.51,1.47,1.48,772666368
2019-01-11,1.5,1.53,1.48,1.49,424628992
2019-01-14,1.5,1.5,1.47,1.47,403852896
2019-01-15,1.49,1.56,1.48,1.55,778379008
2019-01-16,1.55,1.57,1.53,1.54,383905792
2019-01-17,1.54,1.54,1.5,1.5,413152992
2019-01-18,1.51,1.56,1.5,1.53,442439488
2019-01-21,1.54,1.63,1.52,1.6,588511872
2019-01-22,1.61,1.62,1.56,1.6,376060000
2019-01-23,1.6,1.72,1.6,1.68,834889024
2019-01-24,1.68,1.69,1.63,1.68,556844992
2019-01-25,1.68,1.76,1.67,1.73,993156672
2019-01-28,1.75,1.75,1.64,1.65,1034240384
2019-01-29,1.64,1.67,1.62,1.64,775925696
2019-01-30,1.64,1.69,1.63,1.67,612424000
2019-01-31,1.69,1.71,1.65,1.68,597142592
2019-02-01,1.68,1.68,1.62,1.63,717387584
2019-02-04,1.62,1.63,1.6,1.6,455170304
2019-02-08,1.58,1.66,1.56,1.62,1884373376
2019-02-11,1.63,1.69,1.61,1.67,1083416064
2019-02-12,1.68,1.77,1.67,1.71,1598750976
2019-02-13,1.72,1.83,1.72,1.83,1126076288
2019-02-14,1.82,1.82,1.76,1.79,1580440576
2019-02-15,1.77,1.78,1.74,1.77,574779200
2019-02-18,1.8,1.84,1.8,1.83,1049317504
2019-02-19,1.83,1.88,1.81,1.85,884037632
2019-02-20,1.87,1.93,1.86,1.91,1182511616
2019-02-21,1.92,1.96,1.88,1.95,1024526592
2019-02-22,1.95,1.95,1.91,1.93,660514880
2019-02-25,1.96,1.98,1.86,1.9,1353016448
2019-02-26,1.88,1.9,1.86,1.88,650307968
2019-02-27,1.89,1.9,1.8,1.83,714877568
2019-02-28,1.85,1.9,1.84,1.86,692922880
2019-03-01,1.88,1.9,1.86,1.89,462676192
2019-03-04,1.91,1.96,1.85,1.85,1421511936
2019-03-05,1.82,1.84,1.73,1.82,1429844224
2019-03-06,1.83,1.88,1.82,1.86,883803776
2019-03-07,1.86,1.87,1.8,1.81,596959680
2019-03-08,1.79,1.83,1.77,1.79,745769600
2019-03-11,1.8,1.88,1.79,1.86,571078912
2019-03-12,1.88,1.9,1.86,1.86,553321984
2019-03-13,1.86,1.89,1.84,1.88,434148896
2019-03-14,1.88,1.89,1.83,1.85,476487008
2019-03-15,1.85,1.86,1.8,1.8,541671616
2019-03-18,1.81,1.82,1.77,1.82,665400704
2019-03-19,1.82,1.85,1.79,1.84,420812000
2019-03-20,1.83,1.86,1.82,1.84,391759488
2019-03-21,1.84,1.87,1.81,1.82,500905088
2019-03-22,1.84,1.86,1.83,1.86,389112704
2019-03-25,1.82,1.84,1.8,1.83,297667488
2019-03-26,1.84,1.85,1.81,1.83,192411200
2019-03-27,1.83,1.85,1.82,1.83,245631008
2019-03-28,1.82,1.83,1.78,1.79,403155104
2019-03-29,1.81,1.83,1.79,1.82,404161792
2019-04-01,1.83,1.86,1.82,1.85,448135008
2019-04-02,1.85,1.9,1.85,1.89,710438080
2019-04-03,1.9,1.96,1.9,1.94,908873216
2019-04-04,1.95,1.95,1.89,1.91,802388992
2019-04-08,1.93,2.03,1.92,2.02,1063182592
2019-04-09,2.03,2.2,2.03,2.18,1444103040
2019-04-10,2.14,2.15,2.09,2.12,989131072
2019-04-11,2.13,2.14,2.01,2.03,942821184
2019-04-12,2.03,2.1,2.02,2.08,838226432
2019-04-15,2.11,2.15,2.07,2.1,734217088
2019-04-16,2.1,2.16,2.06,2.13,621032896
2019-04-17,2.14,2.14,2.08,2.1,476389600
2019-04-18,2.15,2.24,2.13,2.2,1209469056
2019-04-23,2.2,2.3,2.19,2.28,830493312
2019-04-24,2.3,2.33,2.24,2.28,767914624
2019-04-25,2.26,2.27,2.14,2.15,998432768
2019-04-26,2.11,2.2,2.1,2.16,646716416
2019-04-29,2.18,2.19,2.12,2.14,470169504
2019-04-30,2.13,2.14,2.11,2.12,415000896
2019-05-02,2.11,2.21,2.11,2.19,563144576
2019-05-03,2.18,2.19,2.13,2.18,514844800
2019-05-06,2.08,2.14,2.06,2.08,924587520
2019-05-07,2.09,2.12,2.06,2.09,744373696
2019-05-08,2.05,2.1,2.04,2.07,638411328
2019-05-09,2.07,2.08,1.94,1.95,1081861760
2019-05-10,1.99,2.07,1.98,2.02,805011392
2019-05-14,1.95,2.03,1.94,2.0,523942112
2019-05-15,2.02,2.07,2.01,2.05,391803904
2019-05-16,2.06,2.07,2.01,2.01,446774400
2019-05-17,2.03,2.03,1.87,1.88,1398802304
2019-05-20,1.86,1.87,1.74,1.76,1753777664
2019-05-21,1.76,1.83,1.76,1.77,1139867136
2019-05-22,1.81,1.84,1.78,1.8,666174912
2019-05-23,1.79,1.8,1.72,1.72,767458880
2019-05-24,1.74,1.76,1.65,1.68,1180971648
2019-05-27,1.67,1.79,1.65,1.76,810283584
2019-05-28,1.76,1.81,1.76,1.81,708749696
2019-05-29,1.79,1.86,1.79,1.8,578760576
2019-05-30,1.82,1.82,1.77,1.79,335260192
2019-05-31,1.79,1.81,1.74,1.76,384937216
2019-06-03,1.74,1.85,1.71,1.83,804357696
2019-06-04,1.85,1.95,1.82,1.9,1258155392
2019-06-05,1.95,2.01,1.91,1.99,1192630400
2019-06-06,2.02,2.03,1.88,1.91,988759168
2019-06-10,1.94,1.96,1.91,1.94,488244704
2019-06-11,1.94,1.97,1.92,1.95,331181312
2019-06-12,1.93,1.94,1.9,1.92,305657312
2019-06-13,1.9,1.95,1.86,1.93,443792000
2019-06-14,1.94,1.95,1.9,1.92,306203712
2019-06-17,1.92,1.97,1.91,1.94,476041312
2019-06-18,1.94,1.96,1.94,1.95,185022304
2019-06-19,1.99,2.02,1.97,1.98,503864000
2019-06-20,1.99,2.08,1.98,2.06,707498816
2019-06-21,2.08,2.11,2.06,2.1,1313356544
2019-06-24,2.1,2.14,2.06,2.08,569452096
2019-06-25,2.09,2.1,2.01,2.02,369272288
2019-06-26,2.01,2.07,2.01,2.05,281934112
2019-06-27,2.07,2.1,2.05,2.08,450132608
2019-06-28,2.09,2.09,2.03,2.05,319428288
2019-07-02,2.12,2.17,2.11,2.15,883823872
2019-07-03,2.13,2.16,2.12,2.15,386148096
2019-07-04,2.15,2.21,2.14,2.19,611428288
2019-07-05,2.19,2.2,2.13,2.15,310389888
2019-07-08,2.13,2.15,2.08,2.1,375820192
2019-07-09,2.1,2.13,2.05,2.12,311746816
2019-07-10,2.14,2.15,2.1,2.13,349511104
2019-07-11,2.15,2.17,2.13,2.14,358531584
2019-07-12,2.13,2.16,2.12,2.14,250011504
2019-07-15,2.14,2.14,2.09,2.13,249648192
2019-07-16,2.13,2.14,2.09,2.1,281496288
2019-07-17,2.08,2.09,2.06,2.07,261122496
2019-07-18,2.05,2.08,2.03,2.05,336736992
2019-07-19,2.06,2.11,2.05,2.1,285071392
2019-07-22,2.08,2.1,2.04,2.06,549297216
2019-07-23,2.06,2.08,2.04,2.08,229192608
2019-07-24,2.09,2.15,2.08,2.09,444330912
2019-07-25,2.11,2.11,2.08,2.11,304383008
2019-07-26,2.09,2.1,2.05,2.05,315043200
2019-07-29,2.04,2.07,2.02,2.07,300422592
2019-07-30,2.09,2.11,2.06,2.08,335976384
2019-07-31,2.06,2.08,2.03,2.04,378248992
2019-08-01,2.02,2.04,2.0,2.02,389994816
2019-08-02,1.95,1.99,1.94,1.97,398707808
2019-08-05,1.93,1.96,1.89,1.9,488690208
2019-08-06,1.85,1.94,1.8,1.93,640493696
2019-08-07,1.93,2.02,1.88,1.96,701323008
2019-08-08,1.97,2.03,1.94,1.96,685156928
2019-08-09,1.97,1.97,1.9,1.91,584226176
2019-08-12,1.91,1.95,1.91,1.91,309598304
2019-08-13,1.9,1.93,1.88,1.89,393665216
2019-08-14,1.94,1.95,1.86,1.87,363247904
2019-08-15,1.81,1.85,1.74,1.84,1076038656
2019-08-16,1.83,1.84,1.78,1.79,689915904
2019-08-19,1.82,1.87,1.82,1.86,813739712
2019-08-20,1.85,1.92,1.84,1.87,511264192
2019-08-21,1.87,1.89,1.84,1.87,287375392
2019-08-22,1.86,1.88,1.83,1.84,255190000
2019-08-23,1.84,1.84,1.8,1.83,383556416
2019-08-26,1.79,1.82,1.76,1.81,653960000
2019-08-27,1.82,1.82,1.75,1.79,632968832
2019-08-28,1.8,1.81,1.76,1.77,363610592
2019-08-29,1.78,1.81,1.76,1.8,283193408
2019-08-30,1.81,1.83,1.78,1.79,321444192
2019-09-02,1.79,1.8,1.77,1.78,178264192
2019-09-03,1.78,1.8,1.77,1.78,252156704
2019-09-04,1.79,1.86,1.78,1.86,630324416
2019-09-05,1.85,1.9,1.84,1.86,366387488
2019-09-06,1.88,1.92,1.87,1.91,546664128
2019-09-09,1.89,1.92,1.86,1.9,432967104
2019-09-10,1.91,1.91,1.84,1.84,524338400
2019-09-11,1.85,1.86,1.82,1.83,389628800
2019-09-12,1.85,1.87,1.84,1.85,233110704
2019-09-13,1.86,1.9,1.85,1.88,355930816
2019-09-16,1.9,1.9,1.83,1.86,377555392
2019-09-17,1.84,1.86,1.84,1.86,159620992
2019-09-18,1.87,1.91,1.87,1.88,361498592
2019-09-19,1.88,1.89,1.84,1.87,234781792
2019-09-20,1.88,1.89,1.86,1.87,277668192
2019-09-23,1.87,1.89,1.85,1.85,185501200
2019-09-24,1.86,1.87,1.82,1.84,304790496
2019-09-25,1.83,1.84,1.8,1.81,261748096
2019-09-26,1.82,1.83,1.78,1.79,252299696
2019-09-27,1.79,1.79,1.77,1.78,316526304
2019-09-30,1.77,1.79,1.76,1.78,296927296
2019-10-02,1.78,1.82,1.76,1.8,383009088
2019-10-03,1.78,1.82,1.77,1.79,195538208
2019-10-04,1.8,1.81,1.76,1.77,252297296
2019-10-08,1.77,1.8,1.76,1.76,270877504
2019-10-09,1.76,1.78,1.76,1.76,169255904
2019-10-10,1.76,1.78,1.74,1.75,379000704
2019-10-11,1.76,1.77,1.73,1.75,416617792
2019-10-14,1.76,1.77,1.73,1.74,432689408
2019-10-15,1.74,1.75,1.7,1.7,595056320
2019-10-16,1.7,1.73,1.66,1.71,552657280
2019-10-17,1.7,1.73,1.68,1.71,358668608
2019-10-18,1.71,1.74,1.7,1.72,717239488
2019-10-21,1.72,1.72,1.7,1.7,136860992
2019-10-22,1.71,1.71,1.68,1.69,240353200
2019-10-23,1.68,1.7,1.67,1.69,247456496
2019-10-24,1.69,1.7,1.66,1.67,458498112
2019-10-25,1.68,1.68,1.65,1.65,250167392
2019-10-28,1.66,1.67,1.6,1.66,689850624
2019-10-29,1.66,1.72,1.66,1.7,457569216
2019-10-30,1.71,1.71,1.69,1.7,153286400
2019-10-31,1.71,1.73,1.71,1.73,247065200
2019-11-01,1.73,1.78,1.72,1.78,606870592
2019-11-04,1.79,1.81,1.76,1.76,580299776
2019-11-05,1.76,1.77,1.73,1.74,436113216
2019-11-06,1.75,1.75,1.72,1.72,329709408
2019-11-07,1.72,1.73,1.67,1.69,492040800
2019-11-08,1.68,1.7,1.68,1.69,218886000
2019-11-11,1.68,1.69,1.65,1.65,370419488
2019-11-12,1.67,1.67,1.63,1.64,270249600
2019-11-13,1.63,1.64,1.59,1.61,457524512
2019-11-14,1.61,1.62,1.58,1.58,228137600
2019-11-15,1.59,1.63,1.59,1.61,374519392
2019-11-18,1.62,1.63,1.61,1.63,265980496
2019-11-19,1.63,1.66,1.63,1.66,287060192
2019-11-20,1.66,1.67,1.63,1.63,175757504
2019-11-21,1.63,1.64,1.62,1.63,169666304
2019-11-22,1.64,1.66,1.63,1.65,143252400
2019-11-25,1.66,1.67,1.65,1.66,114716896
2019-11-26,1.67,1.68,1.63,1.64,568488192
2019-11-27,1.64,1.65,1.6,1.62,302718784
2019-11-28,1.63,1.65,1.62,1.63,282397184
2019-11-29,1.64,1.64,1.58,1.6,376360096
2019-12-02,1.59,1.62,1.59,1.61,182290704
2019-12-03,1.6,1.62,1.59,1.61,359281984
2019-12-04,1.6,1.61,1.56,1.56,288572096
2019-12-05,1.57,1.59,1.56,1.58,263828496
2019-12-06,1.61,1.61,1.58,1.59,155054592
2019-12-09,1.59,1.61,1.59,1.59,148174400
2019-12-10,1.6,1.63,1.59,1.62,321960512
2019-12-11,1.61,1.62,1.61,1.62,113727600
2019-12-12,1.63,1.68,1.63,1.65,639576576
2019-12-13,1.67,1.69,1.66,1.67,285115200
2019-12-16,1.67,1.68,1.65,1.65,277865312
2019-12-17,1.67,1.75,1.66,1.73,1050365504
2019-12-18,1.74,1.76,1.73,1.75,594960704
2019-12-19,1.76,1.76,1.71,1.73,342564512
2019-12-20,1.74,1.74,1.68,1.69,613519424
2019-12-23,1.71,1.71,1.67,1.68,178075904
2019-12-24,1.68,1.69,1.66,1.69,96116304
2019-12-27,1.7,1.72,1.7,1.71,147216000
2019-12-30,1.71,1.73,1.69,1.72,396432512
2019-12-31,1.72,1.73,1.71,1.72,196072992
2020-01-02,1.73,1.74,1.71,1.72,205082208
2020-01-03,1.73,1.74,1.69,1.7,298156192
2020-01-06,1.7,1.7,1.67,1.68,356578112
2020-01-07,1.68,1.7,1.68,1.68,211632800
2020-01-08,1.67,1.67,1.65,1.66,325752512
2020-01-09,1.68,1.7,1.67,1.7,289070112
2020-01-10,1.7,1.74,1.69,1.74,562312704
2020-01-13,1.74,1.77,1.73,1.77,526836000
2020-01-14,1.78,1.82,1.77,1.8,732317120
2020-01-15,1.82,1.82,1.77,1.79,455081088
2020-01-16,1.8,1.8,1.78,1.79,242443600
2020-01-17,1.8,1.81,1.78,1.8,462144896
2020-01-20,1.81,1.82,1.8,1.82,319728800
2020-01-21,1.81,1.82,1.75,1.75,440510784
2020-01-22,1.76,1.8,1.74,1.8,414038784
2020-01-23,1.78,1.79,1.73,1.76,533197600
2020-01-24,1.75,1.75,1.73,1.75,88954096
2020-01-29,1.69,1.71,1.68,1.69,376043008
2020-01-30,1.69,1.71,1.64,1.65,443764096
2020-01-31,1.66,1.67,1.63,1.63,336329408
2020-02-03,1.64,1.67,1.61,1.66,674156480
2020-02-04,1.68,1.74,1.68,1.74,574926400
2020-02-05,1.78,1.8,1.76,1.79,635208384
2020-02-06,1.79,1.82,1.78,1.81,544731904
2020-02-07,1.78,1.82,1.77,1.81,394665984
2020-02-10,1.78,1.81,1.78,1.79,200845296
2020-02-11,1.8,1.82,1.79,1.8,159575600
2020-02-12,1.79,1.87,1.78,1.87,587233984
2020-02-13,1.88,1.9,1.83,1.84,357645184
2020-02-14,1.84,1.85,1.8,1.81,197061904
2020-02-17,1.83,1.88,1.81,1.87,521520608
2020-02-18,1.86,1.88,1.83,1.84,368440896
2020-02-19,1.84,1.86,1.81,1.82,287838688
2020-02-20,1.82,1.85,1.8,1.85,230496304
2020-02-21,1.87,1.87,1.83,1.84,275265888
2020-02-24,1.86,1.97,1.82,1.96,1255533440
2020-02-25,1.96,2.0,1.91,1.97,949056192
2020-02-26,1.94,2.0,1.91,1.97,800819200
2020-02-27,1.96,1.97,1.92,1.95,437062592
2020-02-28,1.91,1.93,1.87,1.89,636399808
2020-03-02,1.91,1.99,1.9,1.98,769762688
2020-03-03,2.0,2.03,1.93,1.94,639508416
2020-03-04,1.95,2.0,1.91,1.99,492048096
2020-03-05,2.0,2.02,1.96,1.97,1523572352
2020-03-06,1.96,1.96,1.91,1.91,431483904
2020-03-09,1.85,1.91,1.84,1.87,617376320
2020-03-10,1.89,1.93,1.86,1.9,622325504
2020-03-11,1.93,1.93,1.88,1.9,422122112
2020-03-12,1.86,1.87,1.8,1.82,579607808
2020-03-13,1.7,1.83,1.68,1.8,1172699136
2020-03-16,1.77,1.8,1.71,1.73,560049088
2020-03-17,1.75,1.76,1.65,1.68,601544192
2020-03-18,1.68,1.79,1.66,1.68,1138156672
2020-03-19,1.72,1.72,1.46,1.5,1634304128
2020-03-20,1.53,1.68,1.53,1.68,1061096128
2020-03-23,1.59,1.64,1.56,1.58,694486400
2020-03-24,1.67,1.68,1.62,1.66,612812928
2020-03-25,1.71,1.73,1.63,1.68,778688576
2020-03-26,1.65,1.7,1.64,1.65,503985792
2020-03-27,1.68,1.7,1.66,1.67,450100000
2020-03-30,1.63,1.68,1.61,1.65,476340000
2020-03-31,1.68,1.74,1.67,1.74,674241984
2020-04-01,1.71,1.75,1.68,1.7,505112000
2020-04-02,1.67,1.75,1.67,1.72,362259008
2020-04-03,1.71,1.74,1.69,1.69,369895008
2020-04-06,1.71,1.73,1.68,1.71,665222976
2020-04-07,1.73,1.78,1.72,1.78,621011968
2020-04-08,1.75,1.79,1.71,1.73,646596992
2020-04-09,1.74,1.76,1.7,1.71,523857984
2020-04-14,1.71,1.73,1.68,1.71,432120992
2020-04-15,1.72,1.75,1.69,1.71,387864000
2020-04-16,1.7,1.73,1.69,1.69,372404000
2020-04-17,1.72,1.75,1.71,1.73,560262976
2020-04-20,1.73,1.77,1.73,1.76,348849984
2020-04-21,1.75,1.76,1.71,1.71,330118016
2020-04-22,1.69,1.75,1.69,1.72,378753984
2020-04-23,1.73,1.75,1.72,1.74,232770000
2020-04-24,1.74,1.74,1.71,1.71,239714000
2020-04-27,1.72,1.73,1.7,1.7,286572992
2020-04-28,1.71,1.72,1.69,1.72,159020992
2020-04-29,1.73,1.74,1.72,1.74,232740000
2020-05-04,1.72,1.72,1.67,1.67,465812000
2020-05-05,1.69,1.71,1.68,1.69,199764992
2020-05-06,1.7,1.74,1.69,1.71,426144992
2020-05-07,1.71,1.74,1.71,1.71,204022000
2020-05-08,1.73,1.73,1.69,1.7,344048000
2020-05-11,1.72,1.74,1.7,1.71,404137984
2020-05-12,1.7,1.71,1.68,1.69,439814016
2020-05-13,1.69,1.7,1.68,1.69,292815008
2020-05-14,1.68,1.69,1.65,1.67,436345984
2020-05-15,1.68,1.69,1.65,1.65,310600000
2020-05-18,1.66,1.67,1.62,1.62,506025984
2020-05-19,1.64,1.65,1.6,1.61,713824000
2020-05-20,1.61,1.64,1.6,1.63,384824992
2020-05-21,1.64,1.64,1.6,1.61,422620000
2020-05-22,1.59,1.6,1.48,1.51,1206832000
2020-05-25,1.51,1.54,1.48,1.54,592825024
2020-05-26,1.56,1.57,1.55,1.55,294894016
2020-05-27,1.56,1.56,1.54,1.55,273188992
2020-05-28,1.54,1.54,1.51,1.53,522668992
2020-05-29,1.53,1.56,1.52,1.56,563366016
2020-06-01,1.58,1.6,1.57,1.59,633774016
2020-06-02,1.59,1.61,1.56,1.58,490185984
2020-06-03,1.6,1.61,1.56,1.57,439612000
2020-06-04,1.57,1.58,1.54,1.57,314630016
2020-06-05,1.57,1.59,1.56,1.57,325892000
2020-06-08,1.58,1.6,1.54,1.55,427990016
2020-06-09,1.56,1.57,1.54,1.54,475500992
2020-06-10,1.55,1.56,1.53,1.54,549425984
2020-06-11,1.55,1.55,1.5,1.51,706478016
2020-06-12,1.49,1.51,1.47,1.49,480680992
2020-06-15,1.5,1.51,1.47,1.47,408783008
2020-06-16,1.5,1.53,1.49,1.51,400484992
2020-06-17,1.52,1.54,1.51,1.52,362207008
2020-06-18,1.52,1.52,1.49,1.52,333231008
2020-06-19,1.51,1.52,1.49,1.51,550132992
2020-06-22,1.51,1.51,1.47,1.48,432344992
2020-06-23,1.49,1.49,1.46,1.48,348788000
2020-06-24,1.48,1.48,1.45,1.46,653281024
2020-06-26,1.47,1.47,1.44,1.44,442672000
2020-06-29,1.44,1.44,1.38,1.4,835609024
2020-06-30,1.41,1.42,1.37,1.37,551929024
2020-07-02,1.39,1.46,1.39,1.46,821331008
2020-07-03,1.49,1.57,1.48,1.56,1253913984
2020-07-06,1.59,1.62,1.58,1.62,890913984
2020-07-07,1.64,1.66,1.54,1.55,1026497024
2020-07-08,1.58,1.6,1.56,1.59,527982016
2020-07-09,1.6,1.64,1.59,1.62,819412992
2020-07-10,1.59,1.61,1.54,1.56,1996498048
2020-07-13,1.57,1.58,1.53,1.54,662584000
2020-07-14,1.54,1.54,1.47,1.5,703654016
2020-07-15,1.52,1.52,1.46,1.47,609534016
2020-07-16,1.48,1.48,1.42,1.44,644609984
2020-07-17,1.46,1.46,1.41,1.42,573033984
2020-07-20,1.42,1.43,1.4,1.41,369158016
2020-07-21,1.43,1.47,1.42,1.46,654537024
2020-07-22,1.47,1.48,1.42,1.44,505342016
2020-07-23,1.45,1.46,1.41,1.44,483120992
2020-07-24,1.44,1.44,1.41,1.42,375057984
2020-07-27,1.43,1.44,1.39,1.4,413540992
2020-07-28,1.41,1.42,1.4,1.4,355500000
2020-07-29,1.4,1.41,1.39,1.41,233235008
2020-07-30,1.41,1.42,1.41,1.42,232148992
2020-07-31,1.42,1.43,1.4,1.41,210767008
2020-08-03,1.4,1.41,1.4,1.4,261883008
2020-08-04,1.41,1.42,1.4,1.42,459553984
2020-08-05,1.42,1.43,1.4,1.41,352072992
2020-08-06,1.41,1.51,1.4,1.5,1177346944
2020-08-07,1.51,1.56,1.47,1.52,1109188992
2020-08-10,1.52,1.55,1.5,1.51,557291008
2020-08-11,1.52,1.54,1.44,1.46,827670016
2020-08-12,1.46,1.46,1.41,1.43,576140032
2020-08-13,1.43,1.43,1.4,1.41,617763008
2020-08-14,1.41,1.49,1.41,1.45,903246976
2020-08-17,1.46,1.5,1.46,1.47,766833024
2020-08-18,1.48,1.49,1.42,1.44,714284992
2020-08-19,1.44,1.45,1.42,1.44,221940000
2020-08-20,1.43,1.44,1.43,1.43,169346000
2020-08-21,1.45,1.48,1.45,1.45,431400992
2020-08-24,1.47,1.49,1.46,1.48,570028032
2020-08-25,1.49,1.51,1.46,1.46,355049984
