Date,Open,High,Low,Close,Volume
2013-10-18,4.68,4.7,2.92,3.08,265751008
2013-10-21,3.14,3.62,3.13,3.42,139755008
2013-10-22,3.47,3.56,3.42,3.45,37842000
2013-10-23,3.52,3.72,3.51,3.53,49399000
2013-10-24,3.55,3.63,3.42,3.48,22972000
2013-10-25,3.5,3.52,3.29,3.38,25435000
2013-10-28,3.38,3.42,3.23,3.25,12984000
2013-10-29,3.28,3.28,3.08,3.09,22258000
2013-10-30,3.1,3.17,3.1,3.14,11385000
2013-10-31,3.14,3.3,3.12,3.28,7245000
2013-11-01,3.3,3.34,3.23,3.28,7245000
2013-11-04,3.33,3.33,3.17,3.19,6132000
2013-11-05,3.2,3.31,3.09,3.25,6348000
2013-11-06,3.23,3.49,3.22,3.43,17890000
2013-11-07,3.5,3.59,3.4,3.44,17927000
2013-11-08,3.45,3.54,3.36,3.38,16156000
2013-11-11,3.45,3.46,3.15,3.28,21008000
2013-11-12,3.34,3.35,3.12,3.13,14169000
2013-11-13,3.14,3.14,3.05,3.09,8161000
2013-11-14,3.15,3.23,3.13,3.16,8773000
2013-11-15,3.21,3.21,3.13,3.13,7635000
2013-11-18,3.2,3.2,3.08,3.11,7842000
2013-11-19,3.14,3.14,2.92,2.95,18380000
2013-11-20,2.95,3.13,2.95,3.11,8707000
2013-11-21,3.11,3.11,3.02,3.07,4475000
2013-11-22,3.1,3.13,3.04,3.04,3106000
2013-11-25,3.09,3.09,3.0,3.01,3308000
2013-11-26,3.16,3.17,3.06,3.08,8010000
2013-11-27,3.1,3.1,3.01,3.03,4884000
2013-11-28,3.05,3.08,2.99,3.02,4925000
2013-11-29,3.06,3.28,2.97,3.21,24103000
2013-12-02,3.24,3.27,3.12,3.22,10985000
2013-12-03,3.25,3.25,3.21,3.21,8815000
2013-12-04,3.25,3.45,3.21,3.37,22519000
2013-12-05,3.41,3.6,3.39,3.47,29292000
2013-12-06,3.5,3.5,3.36,3.4,9984200
2013-12-09,3.45,3.88,3.42,3.83,49037000
2013-12-10,3.95,4.19,3.88,3.99,72593000
2013-12-11,4.05,4.15,3.78,3.96,32562700
2013-12-12,3.96,4.11,3.85,3.99,12989000
2013-12-13,4.0,4.06,3.94,3.98,9269000
2013-12-16,4.02,4.28,4.02,4.19,22918000
2013-12-17,4.24,4.27,3.82,3.93,18043000
2013-12-18,3.94,4.03,3.86,3.91,8534000
2013-12-19,3.96,4.02,3.7,3.72,14575000
2013-12-20,3.76,3.77,3.53,3.64,14145000
2013-12-23,3.64,4.32,3.64,4.21,46008000
2013-12-24,4.25,4.69,4.25,4.56,27017996
2013-12-27,4.6,4.96,4.6,4.82,31770000
2013-12-30,4.9,4.93,4.58,4.78,19834000
2013-12-31,4.81,5.33,4.81,5.15,21606000
2014-01-02,5.29,5.8,5.07,5.8,28605000
2014-01-03,5.7,6.34,5.5,5.66,56387200
2014-01-06,5.78,6.15,5.76,6.07,39084000
2014-01-07,6.19,6.24,5.81,5.91,21937000
2014-01-08,6.04,7.69,5.92,7.67,98186000
2014-01-09,8.6,10.92,8.5,9.9,183776352
2014-01-10,9.68,10.84,9.2,9.89,104698448
2014-01-13,10.3,10.74,9.8,10.28,35197048
2014-01-14,10.1,10.48,8.74,9.01,51914400
2014-01-15,9.28,9.54,8.62,8.99,45461300
2014-01-16,9.11,9.21,8.71,8.81,17637100
2014-01-17,8.81,9.2,8.81,8.93,17134000
2014-01-20,9.05,9.73,9.01,9.7,30420000
2014-01-21,9.9,10.06,9.35,9.7,22137100
2014-01-22,9.7,9.99,9.11,9.34,14502100
2014-01-23,9.35,9.5,8.96,9.15,10548600
2014-01-24,9.0,9.28,8.68,8.7,14167000
2014-01-27,8.13,8.45,7.6,8.24,29076000
2014-01-28,8.24,8.56,8.16,8.43,10076000
2014-01-29,8.64,9.17,8.6,8.94,12004000
2014-01-30,8.92,9.13,8.55,9.08,6980000
2014-02-04,8.78,9.25,8.68,9.01,10880000
2014-02-05,9.18,9.29,8.69,8.85,7597500
2014-02-06,8.9,9.03,8.79,8.89,7385000
2014-02-07,9.08,9.08,8.75,8.82,5843000
2014-02-10,8.9,9.11,8.82,8.98,5547000
2014-02-11,9.0,9.11,8.93,8.96,5196200
2014-02-12,9.05,9.05,8.38,8.61,9665000
2014-02-13,8.75,8.86,8.09,8.1,16508000
2014-02-14,8.1,8.4,7.79,8.24,14458000
2014-02-17,8.3,9.72,8.28,9.64,48570000
2014-02-18,9.66,9.95,9.25,9.6,27456000
2014-02-19,9.69,10.82,9.67,10.34,53569848
2014-02-20,10.34,10.88,10.14,10.44,20696000
2014-02-21,10.7,10.82,10.14,10.42,10718500
2014-02-24,10.5,10.78,10.22,10.4,13352000
2014-02-25,10.58,10.62,9.61,9.87,15515600
2014-02-26,9.8,10.08,9.71,9.97,7338000
2014-02-27,9.99,10.62,9.97,10.06,19152000
2014-02-28,9.46,9.72,9.18,9.65,19124300
2014-03-03,9.55,10.23,9.5,10.0,16620000
2014-03-04,10.11,10.33,9.8,10.19,10996000
2014-03-05,10.33,10.54,10.19,10.25,9459000
2014-03-06,10.39,10.45,9.82,10.15,9457000
2014-03-07,10.23,10.25,9.71,9.92,10535000
2014-03-10,9.92,10.0,9.71,9.8,6425000
2014-03-11,9.94,9.94,9.55,9.64,7936000
2014-03-12,9.6,9.6,8.82,8.98,11768000
2014-03-13,9.06,9.4,8.9,8.97,5831000
2014-03-14,8.86,8.92,8.58,8.85,6562300
2014-03-17,8.86,8.94,8.2,8.58,7513000
2014-03-18,8.75,8.87,8.67,8.69,3431000
2014-03-19,8.72,9.06,8.72,8.92,3363000
2014-03-20,8.83,8.94,8.58,8.75,3016000
2014-03-21,8.67,8.96,8.67,8.76,2545000
2014-03-24,9.06,9.09,8.09,8.52,12141000
2014-03-25,8.48,8.49,7.99,8.09,8308000
2014-03-26,8.09,8.26,7.65,7.78,8713000
2014-03-27,7.51,7.68,6.43,6.66,29433000
2014-03-28,6.63,7.26,6.56,6.79,16793702
2014-03-31,6.92,7.06,6.63,6.85,4928044
2014-04-01,6.83,7.36,6.72,7.35,14112000
2014-04-02,7.55,7.93,7.45,7.9,14582000
2014-04-03,7.92,8.14,7.65,8.09,8461000
2014-04-04,8.04,8.04,7.6,7.85,9201000
2014-04-07,7.65,7.65,7.24,7.41,7452500
2014-04-08,7.21,7.5,6.98,7.17,7283000
2014-04-09,7.32,7.55,7.32,7.5,5096182
2014-04-10,7.69,7.79,7.01,7.45,11930000
2014-04-11,7.14,7.29,7.06,7.19,4978000
2014-04-14,7.02,7.21,6.83,7.02,3755000
2014-04-15,7.06,7.11,6.83,6.88,3112000
2014-04-16,6.89,7.17,6.89,7.02,2933000
2014-04-17,7.16,7.18,6.92,6.93,2053000
2014-04-22,7.03,7.12,6.85,6.93,3188000
2014-04-23,6.95,7.21,6.86,6.99,4592000
2014-04-24,6.99,7.07,6.9,7.03,1824000
2014-04-25,7.01,7.03,6.81,6.81,3736000
2014-04-28,6.8,6.8,5.72,5.82,16903000
2014-04-29,5.85,5.85,5.07,5.43,15712600
2014-04-30,5.51,5.51,5.18,5.22,7946000
2014-05-02,5.23,6.19,5.23,5.88,11579000
2014-05-05,5.94,6.22,5.88,5.93,5726000
2014-05-07,5.85,5.92,5.52,5.67,3010000
2014-05-08,5.65,6.07,5.51,5.57,8656000
2014-05-09,5.53,5.75,5.42,5.61,2607000
2014-05-12,5.87,6.09,5.65,5.68,9780000
2014-05-13,5.73,5.93,5.65,5.65,4486000
2014-05-14,5.65,5.7,4.97,5.44,7685000
2014-05-15,5.66,5.99,5.61,5.94,17450000
2014-05-16,5.85,6.04,5.7,5.85,6924000
2014-05-19,5.92,5.93,5.53,5.59,6504000
2014-05-20,5.63,5.74,5.36,5.55,4659500
2014-05-21,5.55,5.65,5.36,5.55,4246000
2014-05-22,5.59,5.8,5.57,5.69,5130000
2014-05-23,5.79,5.85,5.67,5.7,4270000
2014-05-26,5.77,5.93,5.76,5.92,7006000
2014-05-27,5.98,5.98,5.75,5.79,3412000
2014-05-28,5.89,5.89,5.67,5.73,4641000
2014-05-29,5.73,5.75,5.54,5.57,4008000
2014-05-30,5.57,5.98,5.46,5.79,12986000
2014-06-03,5.85,5.9,5.58,5.64,5048000
2014-06-04,5.53,5.64,5.51,5.52,4000000
2014-06-05,5.48,5.59,5.41,5.43,3839000
2014-06-06,5.48,5.57,5.25,5.3,5682080
2014-06-09,5.3,5.35,5.13,5.19,4255000
2014-06-10,5.16,5.33,5.08,5.24,4005682
2014-06-11,5.41,5.41,5.25,5.31,5353000
2014-06-12,5.36,5.46,5.23,5.36,5119000
2014-06-13,5.36,5.51,5.36,5.38,2811000
2014-06-16,5.41,5.41,5.26,5.28,2171000
2014-06-17,5.34,5.34,5.17,5.3,2477664
2014-06-18,5.26,5.28,5.17,5.22,2826000
2014-06-19,5.2,5.26,5.13,5.13,2163000
2014-06-20,5.13,5.17,4.85,4.94,7143000
2014-06-23,4.87,4.93,4.42,4.48,15259000
2014-06-24,4.35,4.59,4.3,4.39,7405000
2014-06-25,4.36,4.79,4.2,4.74,15433000
2014-06-26,4.71,4.82,4.56,4.69,7020000
2014-06-27,4.74,4.8,4.63,4.69,4122000
2014-06-30,4.73,4.79,4.61,4.62,3710000
2014-07-02,4.68,4.75,4.54,4.58,5383000
2014-07-03,4.6,4.74,4.57,4.63,5603000
2014-07-04,4.63,4.71,4.61,4.68,4149000
2014-07-07,4.43,4.6,4.37,4.52,6838000
2014-07-08,4.46,4.54,4.46,4.48,3276000
2014-07-09,4.47,4.47,4.35,4.37,4181000
2014-07-10,4.37,4.4,4.28,4.34,3539000
2014-07-11,4.34,4.34,4.16,4.25,6038000
2014-07-14,4.19,4.34,4.15,4.31,3631000
2014-07-15,4.28,4.41,4.28,4.31,3040000
2014-07-16,4.3,4.3,4.19,4.22,2272000
2014-07-17,4.23,4.29,4.2,4.24,2755000
2014-07-18,4.2,4.24,4.09,4.1,4643000
2014-07-21,4.09,4.19,3.98,3.99,8963000
2014-07-22,4.04,4.45,3.99,4.38,23830000
2014-07-23,4.45,4.63,4.36,4.49,13744000
2014-07-24,4.53,4.53,4.27,4.29,5112000
2014-07-25,4.27,4.36,4.17,4.23,8697000
2014-07-28,4.23,4.37,4.23,4.29,4755000
2014-07-29,4.31,4.34,4.09,4.14,6226000
2014-07-30,4.09,4.19,4.05,4.08,4681000
2014-07-31,4.1,4.31,4.1,4.27,7264000
2014-08-01,4.17,4.26,4.12,4.16,3595000
2014-08-04,4.18,4.24,4.1,4.14,2164000
2014-08-05,4.18,4.21,4.1,4.13,2567000
2014-08-06,4.13,4.21,4.1,4.1,3908000
2014-08-07,4.1,4.14,4.04,4.05,3110000
2014-08-08,4.09,4.13,4.01,4.11,3682000
2014-08-11,4.38,5.37,4.38,5.33,86489000
2014-08-12,5.32,5.35,4.83,4.9,52224000
2014-08-13,4.97,5.12,4.93,4.97,20450000
2014-08-14,5.0,5.07,4.75,4.77,19629620
2014-08-15,4.8,4.89,4.71,4.81,8542000
2014-08-18,4.77,4.98,4.75,4.88,10587000
2014-08-19,4.89,4.99,4.88,4.89,8097000
2014-08-20,4.92,4.92,4.75,4.76,8123000
2014-08-21,4.72,4.77,4.63,4.72,7265000
2014-08-22,4.73,4.79,4.51,4.57,11038000
2014-08-25,4.58,4.64,4.44,4.49,8038000
2014-08-26,4.56,4.56,4.3,4.39,8620000
2014-08-27,4.38,4.55,4.34,4.5,7462000
2014-08-28,4.54,4.57,4.32,4.37,5270000
2014-08-29,4.36,4.43,4.21,4.39,5911000
2014-09-01,4.39,4.4,4.29,4.29,3279000
2014-09-02,4.29,4.35,4.24,4.27,2736000
2014-09-03,4.2,4.49,4.2,4.37,9675000
2014-09-04,4.38,4.38,4.08,4.19,21626240
2014-09-05,4.1,4.19,4.09,4.17,5271000
2014-09-08,4.14,4.17,4.11,4.13,3707000
2014-09-10,4.1,4.27,4.09,4.2,7264000
2014-09-11,4.19,4.31,4.19,4.25,4377000
2014-09-12,4.29,4.29,4.16,4.17,3807000
2014-09-15,4.17,4.18,4.1,4.12,3002000
2014-09-16,4.09,4.21,4.09,4.09,2158000
2014-09-17,4.16,4.29,4.14,4.17,7558000
2014-09-18,4.19,4.27,4.16,4.24,5123000
2014-09-19,4.2,4.59,4.2,4.55,16793000
2014-09-22,4.58,4.58,4.24,4.26,10412000
2014-09-23,4.21,4.32,4.16,4.16,3844000
2014-09-24,4.19,4.31,4.16,4.18,4394000
2014-09-25,4.14,4.17,3.57,3.63,154536000
2014-09-26,3.55,3.6,3.41,3.51,15601000
2014-09-29,3.37,3.47,3.13,3.37,16642000
2014-09-30,3.37,3.55,3.31,3.39,8553000
2014-10-03,3.36,3.46,3.32,3.38,5594000
2014-10-06,3.42,3.49,3.38,3.43,5629000
2014-10-07,3.47,3.51,3.4,3.5,4190000
2014-10-08,3.47,3.49,3.34,3.38,5511000
2014-10-09,3.46,3.46,3.32,3.34,4805000
2014-10-10,3.32,3.33,3.17,3.32,8011000
2014-10-13,3.31,3.31,3.13,3.2,4897000
2014-10-14,3.15,3.24,3.14,3.2,3083000
2014-10-15,3.22,3.23,3.12,3.13,3430000
2014-10-16,3.12,3.12,2.97,3.02,5300000
2014-10-17,3.03,3.14,3.03,3.08,3844000
2014-10-20,3.05,3.15,3.05,3.11,2677000
2014-10-21,3.16,3.16,3.07,3.1,2207000
2014-10-22,3.11,3.35,3.1,3.23,14633000
2014-10-23,3.25,3.46,3.2,3.39,15861279
2014-10-24,3.39,3.45,3.26,3.29,5464000
2014-10-27,3.31,3.37,3.24,3.25,3275000
2014-10-28,3.23,3.31,3.23,3.3,2945377
2014-10-29,3.31,3.45,3.31,3.44,8595000
2014-10-30,3.47,3.47,3.37,3.42,4258000
2014-10-31,3.46,3.74,3.42,3.63,22290000
2014-11-03,3.65,3.73,3.56,3.57,7640000
2014-11-04,3.55,3.7,3.55,3.64,6677818
2014-11-05,3.65,3.68,3.59,3.61,8422000
2014-11-06,3.65,3.75,3.61,3.68,17022000
2014-11-07,3.75,3.88,3.69,3.79,14799000
2014-11-10,3.85,3.87,3.59,3.77,8187000
2014-11-11,3.87,4.03,3.66,3.7,26729100
2014-11-12,3.7,3.71,3.42,3.45,20321500
2014-11-13,3.41,3.54,3.26,3.49,15072783
2014-11-14,3.49,3.64,3.41,3.55,11029000
2014-11-17,3.63,3.68,3.47,3.48,6688000
2014-11-18,3.55,3.57,3.37,3.41,3257808
2014-11-19,3.48,3.48,3.26,3.3,5021000
2014-11-20,3.31,3.41,3.27,3.35,5730000
2014-11-21,3.41,3.41,3.33,3.35,2750000
2014-11-24,3.39,3.39,3.29,3.32,2901000
2014-11-25,3.33,3.35,3.28,3.33,1981000
2014-11-26,3.33,3.37,3.29,3.33,3106000
2014-11-27,3.34,3.35,3.28,3.29,1763000
2014-11-28,3.29,3.3,3.23,3.28,4064000
2014-12-01,3.31,3.35,3.16,3.21,4684500
2014-12-02,3.21,3.31,3.14,3.17,4589212
2014-12-03,3.2,3.24,2.9,3.02,9716000
2014-12-04,2.99,3.17,2.99,3.04,5917000
2014-12-05,3.04,3.09,2.94,2.99,9740000
2014-12-08,2.99,3.04,2.83,2.89,10781500
2014-12-09,2.92,2.93,2.68,2.71,10857930
2014-12-10,2.68,2.81,2.55,2.8,15301000
2014-12-11,2.69,2.8,2.66,2.76,5719000
2014-12-12,2.73,2.87,2.73,2.83,5234000
2014-12-15,2.82,2.84,2.7,2.82,2587000
2014-12-16,2.75,2.81,2.7,2.73,3193000
2014-12-17,2.73,2.77,2.59,2.63,4158000
2014-12-18,2.63,2.71,2.57,2.6,6214000
2014-12-19,2.63,2.7,2.55,2.58,3839000
2014-12-22,2.55,2.65,2.53,2.55,3101000
2014-12-23,2.59,2.59,2.54,2.57,1846000
2014-12-24,2.57,2.59,2.53,2.59,1060000
2014-12-29,2.58,2.76,2.57,2.69,5562000
2014-12-30,2.69,2.75,2.69,2.69,3175000
2014-12-31,2.71,2.71,2.53,2.69,1729787
2015-01-02,2.69,2.69,2.62,2.65,2627000
2015-01-05,2.63,2.95,2.59,2.89,11837169
2015-01-06,2.84,3.04,2.82,3.01,11688000
2015-01-07,3.02,3.02,2.92,2.99,6264991
2015-01-08,2.99,3.12,2.99,3.07,5312291
2015-01-09,3.14,3.14,2.96,3.02,6138000
2015-01-12,3.02,3.06,2.93,2.99,2722000
2015-01-13,3.02,3.02,2.85,2.85,3654000
2015-01-14,2.81,2.97,2.79,2.89,4287000
2015-01-15,2.9,2.9,2.82,2.84,2232000
2015-01-16,2.81,2.83,2.72,2.78,2508000
2015-01-17,3.73,3.73,3.73,3.73,0
2015-01-19,2.74,2.78,2.61,2.7,5443000
2015-01-20,2.68,2.77,2.64,2.71,2790000
2015-01-21,2.71,2.78,2.7,2.73,2254000
2015-01-22,2.72,2.76,2.66,2.69,2248000
2015-01-23,2.75,2.75,2.69,2.71,1685000
2015-01-26,2.71,3.0,2.69,2.94,10449000
2015-01-27,2.93,3.02,2.86,2.95,6432000
2015-01-28,2.93,2.96,2.89,2.91,2954000
2015-01-29,2.91,2.94,2.84,2.87,2178000
2015-01-30,2.87,2.87,2.73,2.78,3520000
2015-02-02,2.75,2.78,2.68,2.7,4328000
2015-02-03,2.71,2.77,2.7,2.75,2859000
2015-02-04,2.75,2.77,2.65,2.68,3459000
2015-02-05,2.73,2.73,2.63,2.64,4490000
2015-02-06,2.64,2.7,2.63,2.68,2502807
2015-02-09,2.68,2.71,2.65,2.69,1421030
2015-02-10,2.7,2.78,2.67,2.7,2984107
2015-02-11,2.73,2.75,2.68,2.72,3766117
2015-02-12,2.72,2.74,2.7,2.73,822434
2015-02-13,2.76,2.81,2.74,2.78,2277000
2015-02-16,2.78,2.85,2.76,2.84,1555000
2015-02-17,2.85,2.91,2.85,2.86,3048000
2015-02-18,3.0,3.0,2.89,2.93,1924000
2015-02-23,2.95,2.95,2.87,2.9,1161000
2015-02-24,2.9,2.9,2.85,2.86,1296000
2015-02-25,2.86,2.86,2.75,2.77,3212432
2015-02-26,2.76,2.82,2.73,2.78,1252142
2015-02-27,2.78,2.88,2.78,2.85,2800000
2015-03-02,2.87,2.87,2.79,2.81,1795000
2015-03-03,2.81,2.9,2.81,2.85,3075000
2015-03-04,2.85,2.9,2.85,2.85,3207085
2015-03-05,2.85,2.9,2.85,2.9,4021000
2015-03-06,2.89,3.52,2.89,3.47,54460816
2015-03-09,3.56,3.64,3.33,3.48,36987688
2015-03-10,3.8,4.0,3.49,3.6,87934696
2015-03-11,3.54,3.79,3.53,3.67,24354732
2015-03-12,3.7,3.7,3.44,3.49,21838672
2015-03-13,3.54,3.62,3.45,3.61,14482493
2015-03-16,3.62,3.85,3.57,3.72,30061000
2015-03-17,3.82,3.92,3.74,3.87,36238380
2015-03-18,3.9,3.94,3.72,3.8,18842274
2015-03-19,3.85,3.87,3.73,3.75,16778008
2015-03-20,3.75,3.79,3.64,3.74,17127876
2015-03-23,3.77,3.81,3.72,3.8,14210000
2015-03-24,3.83,4.33,3.81,4.3,72123464
2015-03-25,4.34,4.48,4.2,4.3,36954084
2015-03-26,4.2,4.39,4.16,4.28,19725644
2015-03-27,4.35,4.35,4.13,4.2,11300000
2015-03-30,4.32,4.7,4.28,4.65,53088000
2015-03-31,4.65,4.8,4.5,4.54,20519000
2015-04-01,4.8,5.35,4.75,5.26,82506000
2015-04-02,5.4,5.81,5.39,5.62,61387560
2015-04-08,6.08,7.45,6.06,7.32,80896912
2015-04-09,8.0,9.16,6.6,7.16,86325864
2015-04-10,7.48,7.5,6.74,7.25,44317460
2015-04-13,7.35,7.68,6.9,7.22,43255500
2015-04-14,7.15,7.15,6.31,6.5,52276516
2015-04-15,6.4,6.76,6.24,6.54,35752544
2015-04-16,6.75,7.22,6.71,7.04,49285724
2015-04-17,7.21,7.33,6.75,6.82,24264000
2015-04-20,6.8,6.82,6.39,6.46,25406000
2015-04-21,6.58,6.88,6.47,6.79,23566000
2015-04-22,6.8,7.06,6.56,6.91,22462250
2015-04-23,7.0,7.1,6.75,6.87,14238600
2015-04-24,6.88,6.88,6.6,6.77,11584000
2015-04-27,6.8,6.9,6.64,6.69,10952738
2015-04-28,6.68,6.69,6.44,6.48,15208000
2015-04-29,6.48,6.48,6.09,6.44,14067000
2015-04-30,6.44,6.83,6.28,6.76,16526000
2015-05-04,6.92,6.95,6.67,6.81,15281000
2015-05-05,6.71,6.78,6.44,6.54,11776000
2015-05-06,6.18,6.6,5.93,6.1,36860100
2015-05-07,5.98,6.0,5.52,5.56,33387494
2015-05-08,5.73,5.88,5.53,5.71,17542532
2015-05-11,5.82,6.35,5.75,6.2,34586344
2015-05-12,6.2,6.33,6.05,6.05,14049000
2015-05-13,6.03,6.44,5.95,6.35,26523000
2015-05-14,6.44,6.98,6.36,6.81,49616156
2015-05-15,6.92,7.03,6.47,6.63,19021530
2015-05-18,6.65,6.83,6.51,6.54,19051000
2015-05-19,6.61,6.68,6.47,6.62,11950108
2015-05-20,6.64,6.74,6.49,6.51,10718000
2015-05-21,6.54,6.56,6.2,6.31,11293000
2015-05-22,6.38,6.38,6.17,6.31,8645600
2015-05-26,6.58,6.7,6.4,6.6,19721666
2015-05-27,6.53,6.57,6.41,6.49,6485100
2015-05-28,6.5,6.52,6.05,6.26,15311000
2015-05-29,6.26,6.46,6.16,6.42,13496000
2015-06-01,6.39,6.68,6.23,6.43,12837000
2015-06-02,6.45,6.63,6.4,6.45,9269000
2015-06-03,6.59,6.6,6.27,6.33,6504000
2015-06-04,6.35,6.39,6.02,6.17,11341000
2015-06-05,6.16,6.25,6.05,6.1,4640000
2015-06-08,6.11,6.11,5.76,5.8,13464000
2015-06-09,5.8,5.84,5.2,5.31,23609000
2015-06-10,5.28,5.62,5.21,5.36,10575000
2015-06-11,5.45,5.57,5.36,5.49,4702000
2015-06-12,5.55,5.77,5.47,5.75,7907000
2015-06-15,5.65,5.65,5.48,5.59,5076000
2015-06-16,5.5,5.64,5.31,5.35,4105000
2015-06-17,5.4,5.7,5.25,5.66,6370000
2015-06-18,5.66,5.84,5.53,5.62,6219000
2015-06-19,5.65,5.79,5.49,5.62,3911130
2015-06-22,5.58,5.7,5.47,5.58,1814000
2015-06-23,5.56,5.7,5.52,5.68,2734000
2015-06-24,5.7,5.7,5.58,5.63,1769000
2015-06-25,5.6,5.6,5.5,5.58,3031000
2015-06-26,5.89,6.2,5.6,5.93,25396000
2015-06-29,5.83,6.0,5.22,5.46,13611000
2015-06-30,5.45,5.84,5.26,5.68,10002093
2015-07-02,5.75,5.78,5.24,5.34,13876000
2015-07-03,5.34,5.46,4.7,4.76,20078000
2015-07-06,4.76,4.98,3.4,4.0,32276000
2015-07-07,4.1,4.16,3.63,3.7,11132000
2015-07-08,3.47,3.6,2.98,3.23,26993000
2015-07-09,3.14,4.26,3.14,4.22,23269700
2015-07-10,4.3,4.7,4.2,4.46,15992000
2015-07-13,4.46,4.73,4.32,4.67,10903000
2015-07-14,4.76,4.83,4.54,4.68,9983000
2015-07-15,4.68,4.74,4.29,4.32,6409000
2015-07-16,4.3,4.44,4.12,4.33,4943000
2015-07-17,4.35,4.52,4.33,4.49,7408669
2015-07-20,4.65,4.71,4.48,4.54,8579545
2015-07-21,4.56,4.56,4.4,4.48,2923000
2015-07-22,4.42,4.42,4.22,4.28,3856000
2015-07-23,4.36,4.37,4.22,4.31,4050000
2015-07-24,4.28,4.31,4.18,4.22,3063000
2015-07-27,4.02,4.1,3.76,3.82,8116000
2015-07-28,3.75,4.13,3.51,3.91,8268000
2015-07-29,3.89,4.09,3.86,3.95,2395000
2015-07-30,3.96,4.04,3.82,3.82,2628000
2015-07-31,3.91,3.91,3.83,3.87,1471000
2015-08-03,3.85,3.85,3.65,3.68,2749000
2015-08-04,3.61,3.75,3.58,3.69,3710000
2015-08-05,3.69,3.7,3.6,3.64,2252000
2015-08-06,3.67,3.7,3.59,3.61,1993000
2015-08-07,3.54,3.68,3.54,3.64,2876500
2015-08-10,3.69,3.8,3.49,3.76,3945000
2015-08-11,3.8,3.88,3.7,3.73,4092000
2015-08-12,3.67,3.85,3.61,3.62,2715538
2015-08-13,3.6,3.7,3.55,3.58,1745049
2015-08-14,3.56,3.66,3.53,3.58,1624915
2015-08-17,3.57,3.59,3.45,3.55,1135000
2015-08-18,3.58,3.58,3.35,3.4,3106000
2015-08-19,3.4,3.4,3.25,3.34,1820753
2015-08-20,3.26,3.3,3.1,3.16,3719000
2015-08-21,3.0,3.22,2.99,3.2,4467000
2015-08-24,3.01,3.01,2.78,2.85,7757000
2015-08-25,2.76,3.2,2.71,2.96,8443500
2015-08-26,3.02,3.06,2.85,2.88,5973339
2015-08-27,3.02,3.06,2.92,3.06,6158071
2015-08-28,3.1,3.15,2.92,2.93,7653449
2015-08-31,2.93,3.02,2.81,2.93,2347000
2015-09-01,2.9,2.94,2.85,2.9,3507000
2015-09-02,2.78,2.91,2.76,2.81,6009600
2015-09-04,2.87,2.87,2.62,2.71,5079000
2015-09-07,2.67,2.78,2.65,2.73,2953000
2015-09-08,2.73,2.91,2.64,2.9,4749000
2015-09-09,2.96,3.06,2.94,3.03,5901300
2015-09-10,2.94,2.97,2.9,2.94,2327000
2015-09-11,2.9,2.96,2.82,2.86,3409600
2015-09-14,2.88,2.89,2.75,2.8,1664200
2015-09-15,2.77,2.84,2.68,2.71,2581300
2015-09-16,2.76,2.88,2.72,2.86,3391000
2015-09-17,2.87,2.89,2.77,2.79,2575000
2015-09-18,2.8,3.28,2.8,3.2,24297356
2015-09-21,3.1,3.4,3.07,3.33,10652000
2015-09-22,3.37,3.43,3.2,3.21,7242000
2015-09-23,3.19,3.19,2.95,3.1,7253000
2015-09-24,3.09,3.12,3.02,3.06,2380000
2015-09-25,3.06,3.12,2.96,3.05,3110620
2015-09-29,3.0,3.0,2.85,2.96,4369000
2015-09-30,2.98,3.03,2.88,2.95,4528089
2015-10-02,3.03,3.15,2.97,3.07,3651800
2015-10-05,3.11,3.18,3.07,3.09,2608000
2015-10-06,3.13,3.13,3.01,3.04,2461000
2015-10-07,3.03,3.19,3.03,3.18,7042324
2015-10-08,3.19,3.23,3.08,3.15,4091000
2015-10-09,3.19,3.25,3.14,3.14,2960000
2015-10-12,3.19,3.37,3.19,3.32,7178000
2015-10-13,3.33,3.54,3.27,3.4,6748008
2015-10-14,3.4,3.44,3.3,3.32,3871000
2015-10-15,3.34,3.44,3.3,3.4,3943000
2015-10-16,3.5,3.54,3.39,3.43,5529083
2015-10-19,3.45,3.49,3.35,3.38,3810000
2015-10-20,3.38,3.38,3.25,3.3,2952000
2015-10-22,3.26,3.26,3.16,3.25,2139500
2015-10-23,3.36,3.36,3.2,3.22,2217000
2015-10-26,3.24,3.29,3.2,3.23,2185000
2015-10-27,3.23,3.23,3.05,3.15,4787000
2015-10-28,3.16,3.16,3.09,3.1,2269000
2015-10-29,3.09,3.16,3.08,3.11,3477510
2015-10-30,3.1,3.14,3.05,3.08,1694000
2015-11-02,3.07,3.08,3.0,3.0,1968900
2015-11-03,3.02,3.15,3.02,3.11,3111000
2015-11-04,3.15,3.44,3.13,3.34,16414367
2015-11-05,3.33,3.38,3.23,3.24,4900000
2015-11-06,3.2,3.3,3.2,3.28,3393000
2015-11-09,3.26,3.27,3.18,3.18,4948000
2015-11-10,3.16,3.17,3.1,3.12,2724525
2015-11-11,3.12,3.16,3.07,3.1,2164000
2015-11-12,3.1,3.27,3.1,3.24,6843054
2015-11-13,3.18,3.36,3.16,3.29,8380397
2015-11-16,3.15,3.25,3.15,3.2,2279000
2015-11-17,3.23,3.31,3.21,3.22,3843780
2015-11-18,3.22,3.26,3.15,3.17,3159000
2015-11-19,3.2,3.28,3.16,3.25,3637000
2015-11-20,3.25,3.7,3.22,3.67,32857130
2015-11-23,3.6,3.84,3.57,3.62,23835764
2015-11-24,3.65,3.73,3.55,3.64,10004337
2015-11-25,3.63,3.75,3.6,3.7,5898354
2015-11-26,3.71,3.77,3.54,3.56,5849000
2015-11-27,3.61,3.61,3.34,3.37,7436000
2015-11-30,3.4,3.47,3.34,3.42,3800000
2015-12-01,3.45,3.46,3.37,3.39,2933000
2015-12-02,3.43,3.43,3.24,3.26,8454000
2015-12-03,3.25,3.36,3.25,3.34,3909000
2015-12-04,3.29,3.31,3.26,3.28,2647000
2015-12-07,3.3,3.35,3.24,3.29,2469378
2015-12-08,3.3,3.33,3.21,3.24,2570178
2015-12-09,3.23,3.23,3.09,3.13,4423000
2015-12-10,3.12,3.21,3.12,3.13,2215000
2015-12-11,3.13,3.13,3.01,3.04,3658000
2015-12-14,2.98,3.1,2.92,3.08,5912180
2015-12-15,3.1,3.17,3.0,3.05,2958000
2015-12-16,3.09,3.18,3.08,3.14,2864000
2015-12-17,3.16,3.2,3.13,3.15,3367000
2015-12-18,3.12,3.18,3.09,3.13,2586000
2015-12-21,3.09,3.16,3.09,3.14,1480000
2015-12-22,3.12,3.2,3.1,3.2,2400200
2015-12-23,3.18,3.27,3.18,3.23,3613000
2015-12-24,3.25,3.36,3.25,3.31,2271000
2015-12-28,3.4,3.59,3.37,3.43,14643400
2015-12-29,3.43,3.53,3.43,3.48,6762194
2015-12-30,3.5,3.55,3.41,3.5,4602730
2015-12-31,3.5,3.5,3.44,3.48,1563000
2016-01-04,3.48,3.51,3.25,3.32,7255000
2016-01-05,3.29,3.42,3.2,3.42,6867220
2016-01-06,3.41,3.69,3.37,3.65,14846234
2016-01-07,3.63,3.63,3.31,3.41,10405500
2016-01-08,3.4,3.64,3.38,3.6,10202153
2016-01-11,3.6,3.6,3.42,3.49,6439000
2016-01-12,3.55,3.65,3.46,3.46,7693000
2016-01-13,3.54,3.64,3.5,3.55,10944000
2016-01-14,3.47,3.81,3.45,3.77,13563000
2016-01-15,3.8,3.98,3.64,3.65,22776768
2016-01-18,3.59,3.73,3.51,3.63,9274979
2016-01-19,3.62,3.83,3.53,3.83,8338900
2016-01-20,3.75,3.76,3.47,3.47,11101000
2016-01-21,3.49,3.57,3.13,3.19,11932710
2016-01-22,3.31,3.36,3.1,3.28,9896023
2016-01-25,3.35,3.54,3.35,3.48,6520000
2016-01-26,3.42,3.45,3.2,3.28,6244810
2016-01-27,3.33,3.43,3.3,3.41,4203000
2016-01-28,3.39,3.45,3.32,3.38,3154711
2016-01-29,3.38,3.61,3.37,3.55,5939000
2016-02-01,3.56,3.62,3.45,3.52,4800000
2016-02-02,3.52,3.63,3.47,3.56,4373000
2016-02-03,3.46,3.55,3.42,3.55,2911000
2016-02-04,3.56,3.62,3.54,3.58,3375000
2016-02-05,3.57,3.63,3.55,3.58,2289917
2016-02-11,3.4,3.42,3.32,3.38,4082000
2016-02-12,3.3,3.45,3.3,3.37,3630000
2016-02-15,3.42,3.59,3.39,3.58,3616000
2016-02-16,3.59,3.73,3.56,3.68,6115952
2016-02-17,3.67,3.78,3.58,3.63,4495419
2016-02-18,3.73,3.74,3.63,3.7,4109000
2016-02-19,3.69,3.7,3.58,3.65,2814000
2016-02-22,3.61,3.72,3.61,3.72,4684608
2016-02-23,3.71,3.74,3.55,3.56,5351000
2016-02-24,3.57,3.6,3.42,3.52,3203000
2016-02-25,3.53,3.55,3.4,3.47,2610000
2016-02-26,3.49,3.56,3.47,3.49,2130291
2016-02-29,3.5,3.5,3.31,3.32,4749000
2016-03-01,3.33,3.41,3.33,3.41,2604000
2016-03-02,3.46,3.51,3.35,3.39,7477000
2016-03-03,3.43,3.48,3.38,3.4,5426000
2016-03-04,3.4,3.54,3.4,3.52,5480790
2016-03-07,3.52,3.56,3.45,3.49,4026000
2016-03-08,3.49,3.5,3.37,3.4,2383853
2016-03-09,3.44,3.46,3.38,3.44,2207000
2016-03-10,3.42,3.47,3.37,3.4,2020500
2016-03-11,3.38,3.46,3.37,3.46,1594000
2016-03-14,3.47,3.66,3.4,3.54,5802700
2016-03-15,3.59,3.59,3.47,3.53,2426000
2016-03-16,3.55,3.55,3.44,3.46,1676000
2016-03-17,3.51,3.56,3.46,3.56,3028000
2016-03-18,3.54,3.71,3.47,3.67,27057000
2016-03-21,3.71,3.75,3.54,3.61,10693500
2016-03-22,3.64,3.71,3.61,3.65,6004000
2016-03-23,3.65,3.68,3.58,3.59,3363500
2016-03-24,3.53,3.6,3.49,3.54,2786037
2016-03-29,3.39,3.39,3.26,3.37,4325443
2016-03-30,3.43,3.43,3.32,3.35,4635415
2016-03-31,3.37,3.39,3.33,3.34,2744146
2016-04-01,3.31,3.34,3.27,3.29,3083788
2016-04-05,3.26,3.29,3.22,3.25,3290923
2016-04-06,3.22,3.28,3.22,3.25,2654859
2016-04-07,3.26,3.26,3.22,3.25,2286148
2016-04-08,3.23,3.29,3.2,3.28,3359653
2016-04-11,3.3,3.42,3.3,3.33,4893000
2016-04-12,3.35,3.39,3.32,3.36,1968000
2016-04-13,3.39,3.47,3.36,3.42,5291000
2016-04-14,3.45,3.49,3.43,3.45,3349000
2016-04-15,3.45,3.45,3.38,3.4,1672266
2016-04-18,3.37,3.38,3.3,3.33,2383266
2016-04-19,3.38,3.39,3.33,3.36,2656000
2016-04-20,3.36,3.36,3.3,3.31,2065808
2016-04-21,3.33,3.42,3.32,3.42,3970833
2016-04-22,3.37,3.48,3.36,3.44,4997000
2016-04-25,3.42,3.61,3.42,3.53,8665760
2016-04-26,3.56,3.56,3.42,3.48,5447700
2016-04-27,3.5,3.5,3.42,3.44,3760000
2016-04-28,3.45,3.51,3.4,3.41,4921000
2016-04-29,3.38,3.42,3.37,3.38,2361000
2016-05-03,3.37,3.38,3.33,3.36,3048000
2016-05-04,3.38,3.4,3.32,3.38,1932442
2016-05-05,3.35,3.41,3.35,3.41,1410720
2016-05-06,3.37,3.51,3.36,3.44,6528967
2016-05-09,3.46,3.49,3.41,3.44,2996000
2016-05-10,3.41,3.43,3.36,3.38,2065000
2016-05-11,3.38,3.4,3.34,3.37,4165000
2016-05-12,3.37,3.41,3.34,3.4,2390184
2016-05-13,3.42,3.42,3.33,3.35,2938300
2016-05-16,3.35,3.39,3.34,3.37,2063000
2016-05-17,3.39,3.41,3.35,3.35,3131000
2016-05-18,3.37,3.41,3.32,3.38,6805421
2016-05-19,3.37,3.43,3.36,3.41,3318385
2016-05-20,3.41,3.47,3.38,3.41,4919000
2016-05-23,3.4,3.46,3.37,3.45,4319000
2016-05-24,3.43,3.51,3.42,3.49,6030000
2016-05-25,3.51,3.59,3.51,3.56,8641229
2016-05-26,3.58,3.65,3.5,3.63,6209000
2016-05-27,3.66,3.74,3.58,3.65,9754100
2016-05-30,3.69,3.77,3.64,3.71,7067000
2016-05-31,3.71,3.75,3.66,3.7,8264000
2016-06-01,3.7,3.75,3.6,3.63,4768000
2016-06-02,3.63,3.77,3.63,3.76,5323000
2016-06-03,3.8,4.12,3.79,4.06,24838066
2016-06-06,4.09,4.17,3.86,3.88,19210792
2016-06-07,3.92,4.13,3.89,4.1,14523960
2016-06-08,4.09,4.09,3.76,3.8,106528128
2016-06-10,3.82,3.83,3.58,3.59,13699500
2016-06-13,3.55,3.58,3.43,3.48,9320000
2016-06-14,3.51,3.61,3.51,3.56,5568308
2016-06-15,3.53,3.59,3.53,3.57,4091000
2016-06-16,3.58,3.58,3.49,3.5,4234000
2016-06-17,3.56,3.56,3.48,3.49,3536034
2016-06-20,3.52,3.56,3.43,3.45,6041000
2016-06-21,3.45,3.53,3.43,3.45,5724000
2016-06-22,3.45,3.52,3.44,3.46,9652000
2016-06-23,3.46,3.46,3.41,3.44,4692000
2016-06-24,3.41,3.44,3.2,3.33,11521176
2016-06-27,3.3,3.33,3.26,3.3,5135000
2016-06-28,3.24,3.29,3.24,3.29,3879021
2016-06-29,3.3,3.38,3.26,3.3,6497741
2016-06-30,3.32,3.37,3.31,3.36,13401000
2016-07-04,3.34,3.36,3.32,3.33,5146000
2016-07-05,3.35,3.35,3.26,3.27,6086222
2016-07-06,3.24,3.32,3.22,3.28,6220000
2016-07-07,3.28,3.34,3.25,3.26,5276376
2016-07-08,3.23,3.26,3.21,3.24,3816000
2016-07-11,3.26,3.28,3.21,3.25,2854000
2016-07-12,3.27,3.44,3.26,3.43,18161750
2016-07-13,3.47,3.48,3.36,3.37,7941000
2016-07-14,3.4,3.44,3.37,3.4,6943000
2016-07-15,3.42,3.43,3.33,3.35,4155000
2016-07-18,3.34,3.35,3.3,3.34,3361500
2016-07-19,3.32,3.57,3.31,3.53,19926776
2016-07-20,3.55,3.61,3.5,3.5,11128180
2016-07-21,3.5,3.6,3.49,3.51,9266000
2016-07-22,3.53,3.6,3.51,3.57,7458586
2016-07-25,3.56,3.56,3.48,3.51,5325000
2016-07-26,3.5,3.5,3.44,3.46,4324000
2016-07-27,3.45,3.48,3.39,3.41,3563495
2016-07-28,3.4,3.46,3.37,3.38,3239057
2016-07-29,3.37,3.4,3.3,3.31,5907400
2016-08-01,3.31,3.4,3.31,3.34,3914661
2016-08-03,3.31,3.4,3.3,3.35,3489000
2016-08-04,3.37,3.38,3.34,3.37,3059000
2016-08-05,3.38,3.49,3.36,3.44,9178000
2016-08-08,3.46,3.47,3.4,3.44,2971000
2016-08-09,3.42,3.47,3.42,3.46,3211000
2016-08-10,3.46,3.54,3.42,3.47,6363000
2016-08-11,3.45,3.51,3.45,3.5,7055000
2016-08-12,3.52,3.52,3.46,3.49,4246291
2016-08-15,3.49,3.55,3.49,3.54,7273000
2016-08-16,3.54,3.75,3.5,3.73,15655713
2016-08-17,3.75,3.79,3.59,3.6,9275600
2016-08-18,3.64,3.75,3.63,3.72,12398500
2016-08-19,3.74,3.74,3.61,3.7,8143000
2016-08-22,3.69,3.88,3.68,3.85,13603000
2016-08-23,3.83,3.87,3.76,3.81,9008495
2016-08-24,3.82,3.91,3.76,3.86,10779175
2016-08-25,3.82,3.93,3.82,3.85,10147000
2016-08-26,3.88,3.88,3.77,3.86,4637000
2016-08-29,3.9,4.02,3.81,3.9,25678090
2016-08-30,3.96,4.48,3.96,4.38,62677432
2016-08-31,4.45,4.58,4.38,4.45,38294232
2016-09-01,4.47,4.53,4.24,4.25,33448476
2016-09-02,4.25,4.55,4.25,4.49,28878776
2016-09-05,4.64,4.87,4.58,4.74,27400946
2016-09-06,4.79,4.91,4.66,4.79,17433622
2016-09-07,4.68,4.7,4.46,4.55,76252136
2016-09-08,4.51,4.89,4.51,4.79,27500712
2016-09-09,4.85,4.88,4.62,4.65,17386900
2016-09-12,4.51,4.64,4.48,4.54,17228000
2016-09-13,4.64,4.81,4.58,4.63,18045134
2016-09-14,4.6,4.97,4.55,4.95,31873776
2016-09-15,4.93,5.25,4.93,5.1,28057128
2016-09-19,5.15,5.29,5.07,5.21,16444833
2016-09-20,5.19,5.28,5.05,5.15,10196000
2016-09-21,5.15,5.48,5.11,5.44,23760040
2016-09-22,5.52,5.54,5.22,5.27,17707676
2016-09-23,5.27,5.45,5.19,5.37,16753322
2016-09-26,5.34,5.35,4.97,5.02,21485192
2016-09-27,5.05,5.23,5.01,5.22,13420919
2016-09-28,5.23,5.27,5.05,5.19,8580000
2016-09-29,5.25,5.3,5.23,5.29,10358526
2016-09-30,5.2,5.25,5.13,5.15,9255000
2016-10-03,5.2,5.29,5.15,5.2,4354000
2016-10-04,5.18,5.29,5.18,5.25,4355538
2016-10-05,5.25,5.25,5.15,5.21,5110312
2016-10-06,5.25,5.5,5.24,5.43,18171000
2016-10-07,5.41,5.63,5.33,5.43,15219551
2016-10-11,5.45,5.52,5.25,5.36,8022000
2016-10-12,5.33,5.48,5.27,5.47,7910000
2016-10-13,5.45,5.49,5.25,5.3,10048726
2016-10-14,5.3,5.4,5.24,5.36,7213500
2016-10-17,5.32,5.38,5.11,5.16,9759844
2016-10-18,5.19,5.26,5.14,5.25,7919728
2016-10-19,5.25,5.38,5.17,5.35,6408711
2016-10-20,5.4,5.42,5.28,5.4,6019323
2016-10-24,5.35,5.49,5.33,5.47,9243203
2016-10-25,5.49,5.88,5.41,5.82,27587264
2016-10-26,5.8,6.03,5.72,5.77,18802094
2016-10-27,5.78,5.84,5.55,5.66,12219338
2016-10-28,5.66,5.76,5.56,5.64,8297705
2016-10-31,5.6,5.71,5.58,5.67,6014312
2016-11-01,5.67,5.97,5.67,5.92,15269020
2016-11-02,5.92,5.93,5.7,5.81,10636359
2016-11-03,5.76,5.89,5.72,5.81,7888500
2016-11-04,5.82,6.1,5.82,6.01,18602976
2016-11-07,6.1,6.35,6.03,6.31,21415204
2016-11-08,6.44,6.48,6.14,6.17,15107000
2016-11-09,6.22,6.37,5.88,6.37,26717192
2016-11-10,6.48,6.66,6.36,6.5,25805478
2016-11-11,6.41,6.48,6.28,6.35,8894806
2016-11-14,6.25,6.47,6.2,6.41,6679551
2016-11-15,6.36,6.42,6.05,6.14,16191150
2016-11-16,6.19,6.26,6.09,6.1,8848238
2016-11-17,6.14,6.22,6.08,6.09,5188000
2016-11-18,6.09,6.37,6.06,6.36,10750057
2016-11-21,6.35,6.35,6.14,6.26,7082029
2016-11-22,6.26,6.32,6.19,6.24,4952982
2016-11-23,6.21,6.28,6.17,6.18,4395181
2016-11-24,6.2,6.2,6.06,6.16,3606000
2016-11-25,6.15,6.23,6.08,6.22,3042955
2016-11-28,6.22,6.45,6.16,6.18,12448000
2016-11-29,6.19,6.34,6.18,6.25,6283877
2016-11-30,6.29,6.29,6.07,6.11,10756501
2016-12-01,6.2,6.4,6.1,6.31,19773064
2016-12-02,6.23,6.35,6.13,6.18,6095000
2016-12-05,6.24,6.26,5.85,5.91,12532000
2016-12-06,6.0,6.04,5.87,5.9,9991000
2016-12-07,6.0,6.08,5.92,6.01,6873433
2016-12-08,6.06,6.06,5.83,5.85,8589274
2016-12-09,5.85,5.85,5.58,5.61,16209771
2016-12-12,5.6,5.6,5.26,5.31,18044000
2016-12-13,5.27,5.56,5.27,5.5,8917100
2016-12-14,5.5,5.57,5.29,5.34,5961323
2016-12-15,5.29,5.45,5.21,5.4,7821130
2016-12-16,5.41,5.43,5.24,5.24,7976054
2016-12-19,5.24,5.27,5.03,5.05,5779208
2016-12-20,5.01,5.1,5.0,5.08,4881923
2016-12-21,5.08,5.19,5.08,5.14,4486569
2016-12-22,5.15,5.21,5.08,5.12,3200000
2016-12-23,5.08,5.08,5.0,5.03,1980000
2016-12-28,5.0,5.2,5.0,5.17,3837132
2016-12-29,5.14,5.18,5.09,5.16,2391566
2016-12-30,5.13,5.25,5.13,5.22,2578158
2017-01-03,5.2,5.28,5.15,5.2,2536400
2017-01-04,5.2,5.3,5.05,5.28,6123854
2017-01-05,5.32,5.64,5.32,5.63,14521994
2017-01-06,5.61,5.74,5.54,5.58,9647615
2017-01-09,5.58,5.69,5.51,5.62,5172243
2017-01-10,5.64,5.83,5.56,5.7,6855365
2017-01-11,5.68,5.75,5.62,5.67,3742910
2017-01-12,5.7,5.7,5.56,5.57,4294416
2017-01-13,5.57,5.71,5.5,5.7,5138685
2017-01-16,5.62,5.72,5.62,5.66,4478441
2017-01-17,5.66,5.96,5.64,5.92,8560041
2017-01-18,5.98,6.03,5.86,5.91,7849642
2017-01-19,5.9,5.95,5.84,5.89,5015791
2017-01-20,5.87,6.06,5.87,5.97,5514917
2017-01-23,6.0,6.05,5.77,5.8,6510073
2017-01-24,5.86,5.88,5.65,5.67,5387000
2017-01-25,5.68,5.75,5.68,5.71,2322000
2017-01-26,5.71,5.87,5.71,5.86,2697000
2017-01-27,5.85,5.87,5.8,5.82,881000
2017-02-01,5.8,5.97,5.78,5.96,4288208
2017-02-02,5.99,6.2,5.98,6.14,12746208
2017-02-03,6.14,6.14,5.98,6.02,4957460
2017-02-06,6.05,6.1,5.91,6.04,6378496
2017-02-07,6.02,6.13,6.01,6.04,4948850
2017-02-08,6.09,6.11,5.93,6.05,7349000
2017-02-09,6.05,6.07,5.89,5.94,5138968
2017-02-10,5.98,5.98,5.8,5.82,7888344
2017-02-13,5.81,5.85,5.71,5.79,6683062
2017-02-14,5.82,6.0,5.73,5.99,10412138
2017-02-15,6.03,6.08,5.88,5.93,9385893
2017-02-16,5.96,6.03,5.89,5.9,7123004
2017-02-17,5.89,6.0,5.8,5.84,7457944
2017-02-20,5.85,5.93,5.82,5.87,4009000
2017-02-21,5.91,5.94,5.78,5.8,5668703
2017-02-22,5.86,5.86,5.76,5.79,5156262
2017-02-23,5.79,5.86,5.75,5.76,4969000
2017-02-24,5.79,5.79,5.63,5.67,6952063
2017-02-27,5.66,5.76,5.58,5.63,6717000
2017-02-28,5.65,5.66,5.48,5.49,10523684
2017-03-01,5.52,5.52,5.42,5.48,8601268
2017-03-02,5.53,5.65,5.45,5.59,12201000
2017-03-03,5.6,5.76,5.49,5.74,11460000
2017-03-06,5.79,6.15,5.74,6.11,23108654
2017-03-07,6.14,6.33,6.08,6.1,18135136
2017-03-08,6.14,6.17,6.03,6.1,9460250
2017-03-09,6.1,6.23,6.01,6.04,9323000
2017-03-10,6.11,6.5,6.11,6.41,34732904
2017-03-13,6.55,7.09,6.5,7.04,58294764
2017-03-14,7.12,7.66,7.05,7.25,51152672
2017-03-15,7.3,7.83,7.25,7.8,77091616
2017-03-16,7.8,8.0,7.47,7.71,51324500
2017-03-17,7.71,7.79,7.54,7.65,24877212
2017-03-20,7.75,8.88,7.31,7.91,116863520
2017-03-21,7.98,8.51,7.95,8.37,46912656
2017-03-22,8.13,8.36,8.06,8.19,27821000
2017-03-23,8.6,9.07,8.54,8.93,93441856
2017-03-24,9.23,10.09,9.1,10.03,101982464
2017-03-27,9.95,10.49,9.57,9.71,79081360
2017-03-28,9.84,10.07,9.57,9.73,39781416
2017-03-29,9.94,10.98,9.74,10.65,86268432
2017-03-30,10.75,10.85,10.31,10.59,28509428
2017-03-31,10.45,10.97,10.15,10.73,33204144
2017-04-03,10.83,11.05,10.61,10.77,19847750
2017-04-05,10.86,10.94,10.2,10.38,41114832
2017-04-06,10.38,11.12,10.24,10.48,65722680
2017-04-07,10.5,10.78,10.34,10.5,22170390
2017-04-10,10.52,10.58,9.55,9.59,50726000
2017-04-11,9.57,9.92,9.43,9.64,27573844
2017-04-12,9.64,10.02,9.56,10.0,22708368
2017-04-13,9.95,10.6,9.86,10.44,33573204
2017-04-18,10.26,10.31,9.49,9.58,37523800
2017-04-19,9.53,9.92,9.48,9.66,21373168
2017-04-20,9.72,10.45,9.69,10.31,40786436
2017-04-21,10.31,10.69,10.14,10.26,29614396
2017-04-24,10.33,10.61,10.06,10.43,23957334
2017-04-25,10.49,11.57,10.37,11.57,63835160
2017-04-26,11.69,11.75,11.3,11.37,33294070
2017-04-27,11.35,12.12,11.28,11.67,43618752
2017-04-28,11.81,12.38,11.59,11.63,41256288
2017-05-02,11.59,11.96,10.94,11.14,45000200
2017-05-04,11.08,11.28,10.33,10.51,41093688
2017-05-05,10.51,10.82,10.47,10.77,22980000
2017-05-08,11.0,11.61,10.92,11.43,36708800
2017-05-09,11.61,11.73,11.2,11.35,24499500
2017-05-10,11.45,11.73,11.0,11.2,24853768
2017-05-11,11.2,11.45,10.77,11.08,25793268
2017-05-12,11.14,11.67,11.08,11.55,28225374
2017-05-15,11.65,11.96,11.49,11.87,28567926
2017-05-16,11.93,11.98,11.59,11.77,15552000
2017-05-17,11.73,12.63,11.67,12.51,41412236
2017-05-18,12.08,12.85,10.18,10.88,119280896
2017-05-19,11.26,11.59,11.06,11.39,44422716
2017-05-22,11.53,11.93,10.98,11.18,38418200
2017-05-23,11.34,11.47,10.53,10.92,43155248
2017-05-24,10.98,10.98,10.04,10.73,34398152
2017-05-25,10.77,11.0,10.53,10.63,15371209
2017-05-26,10.73,10.77,10.33,10.37,16168000
2017-05-29,10.31,10.59,10.2,10.41,22800500
2017-05-31,10.51,10.65,10.39,10.43,18411900
2017-06-01,10.41,11.2,10.41,11.1,33907520
2017-06-02,11.37,11.49,11.12,11.18,23235556
2017-06-05,11.34,11.37,10.96,11.18,14108804
2017-06-06,11.18,11.37,11.12,11.14,14225800
2017-06-07,11.1,11.14,10.49,10.88,31922492
2017-06-08,11.04,11.89,10.78,11.87,46103296
2017-06-09,12.08,12.51,11.77,11.85,51315600
2017-06-12,11.39,11.71,11.22,11.35,28424200
2017-06-13,11.53,11.73,11.37,11.63,14076621
2017-06-14,11.85,12.4,11.63,11.94,37937300
2017-06-15,11.98,11.98,11.59,11.73,13522689
2017-06-16,11.69,11.87,11.26,11.32,19657958
2017-06-19,11.24,11.89,11.22,11.83,19303340
2017-06-20,12.0,12.12,11.77,11.94,14766884
2017-06-21,12.0,12.73,11.79,12.65,46232420
2017-06-22,12.77,12.95,11.93,12.2,35894256
2017-06-23,12.2,12.38,12.04,12.26,12733787
2017-06-26,12.3,12.51,12.18,12.36,15238489
2017-06-27,12.38,12.83,12.26,12.45,25881200
2017-06-28,12.26,12.28,11.79,12.14,22636612
2017-06-29,12.34,12.57,12.22,12.28,14979000
2017-06-30,11.89,12.08,11.75,11.83,29364836
2017-07-03,11.89,12.08,11.83,11.93,15962726
2017-07-04,11.94,11.94,11.3,11.57,27216550
2017-07-05,11.49,11.94,11.22,11.75,19499200
2017-07-06,11.89,11.94,11.65,11.71,6991000
2017-07-07,11.59,11.83,11.39,11.49,13107000
2017-07-10,11.63,11.85,11.45,11.85,12686900
2017-07-11,11.75,11.87,11.59,11.71,10752301
2017-07-12,11.75,11.89,11.59,11.79,13370000
2017-07-13,11.93,12.73,11.93,12.71,66966000
2017-07-14,12.77,12.95,12.42,12.63,18709322
2017-07-17,12.75,13.28,12.69,13.02,35462988
2017-07-18,13.14,13.42,12.93,13.14,22354064
2017-07-19,13.32,13.95,13.2,13.85,36385088
2017-07-20,13.93,14.05,13.46,13.65,16155351
2017-07-21,13.75,13.77,13.34,13.52,12989568
2017-07-24,13.54,13.63,13.28,13.61,7809584
2017-07-25,13.63,13.69,13.4,13.42,5806048
2017-07-26,13.5,13.56,12.95,13.1,18737722
2017-07-27,13.16,13.5,13.04,13.5,12560364
2017-07-28,13.26,13.34,12.79,12.83,20992822
2017-07-31,12.93,13.02,12.51,12.93,24900750
2017-08-01,12.87,13.18,12.63,13.16,24182118
2017-08-02,13.16,13.28,12.89,13.06,19926500
2017-08-03,13.04,13.16,12.69,12.83,16359000
2017-08-04,12.93,13.26,12.83,13.2,20916584
2017-08-07,13.3,13.81,13.22,13.56,27846000
2017-08-08,13.65,13.73,13.26,13.46,16133000
2017-08-09,13.3,13.36,12.71,12.87,55663872
2017-08-10,12.87,13.04,12.49,12.49,25602000
2017-08-11,11.89,12.18,11.53,11.59,39064168
2017-08-14,12.0,12.38,11.89,12.32,21075310
2017-08-15,12.42,12.73,12.04,12.06,15716400
2017-08-16,12.12,12.26,11.71,11.89,13182000
2017-08-17,12.2,12.28,11.22,11.67,30595796
2017-08-18,11.53,12.12,11.35,11.81,14323000
2017-08-21,11.96,12.18,11.85,12.14,11486000
2017-08-22,12.18,12.28,12.02,12.28,12919000
2017-08-24,12.3,12.42,11.85,12.24,17072208
2017-08-25,12.28,12.28,11.67,11.77,31499418
2017-08-28,12.48,12.63,11.67,11.94,57092636
2017-08-29,11.96,12.26,11.71,11.96,27557000
2017-08-30,12.02,12.08,11.83,11.89,16770090
2017-08-31,11.94,12.06,11.71,12.04,16007017
2017-09-01,12.04,12.08,11.85,11.98,13230092
2017-09-04,11.85,11.98,11.69,11.75,16666699
2017-09-05,11.9,12.24,11.75,12.16,22524000
2017-09-06,12.08,12.22,11.9,12.18,15811732
2017-09-07,12.22,12.26,11.96,11.96,15268616
2017-09-08,12.0,12.14,11.7,11.72,15874500
2017-09-11,11.8,11.88,10.7,10.72,50950800
2017-09-12,10.96,11.38,10.7,11.26,27760868
2017-09-13,11.34,11.36,11.0,11.24,11998226
2017-09-14,11.14,11.16,10.8,10.94,20278000
2017-09-15,10.88,11.06,10.68,10.76,13030411
2017-09-18,10.8,11.18,10.76,11.0,15798372
2017-09-19,11.12,11.16,10.82,10.86,12993374
2017-09-20,10.86,11.08,10.76,10.98,8992213
2017-09-21,11.0,11.06,10.32,10.46,30651000
2017-09-22,10.44,10.72,10.1,10.58,16760752
2017-09-25,10.58,10.58,10.0,10.02,19962530
2017-09-26,9.92,10.04,9.65,9.75,24212600
2017-09-27,9.84,10.18,9.82,10.14,13421000
2017-09-28,10.4,10.54,10.22,10.5,16707834
2017-09-29,10.6,10.7,10.32,10.46,7888834
2017-10-03,10.46,10.74,10.46,10.72,10168860
2017-10-04,10.8,11.1,10.78,10.92,10744780
2017-10-06,11.08,11.08,10.76,10.86,9721102
2017-10-09,11.1,11.1,10.9,10.9,11563000
2017-10-10,10.98,11.64,10.92,11.54,28106256
2017-10-11,11.6,11.7,11.0,11.12,21193456
2017-10-12,11.2,11.28,11.0,11.22,8318000
2017-10-13,11.22,11.22,11.0,11.04,6737000
2017-10-16,11.06,11.22,11.0,11.04,5787183
2017-10-17,11.1,11.1,10.78,10.88,8997436
2017-10-18,10.9,11.06,10.72,10.88,9038000
2017-10-19,11.0,11.06,10.68,10.7,12227694
2017-10-20,10.7,10.84,10.62,10.84,15396400
2017-10-23,10.92,10.92,10.68,10.84,5810713
2017-10-24,10.82,10.82,10.56,10.6,8540530
2017-10-25,10.7,11.28,10.68,10.98,18513212
2017-10-26,10.94,11.18,10.82,11.04,7861800
2017-10-27,11.04,11.06,10.68,10.8,8019027
2017-10-30,10.86,10.96,10.58,10.62,6629749
2017-10-31,10.62,10.64,10.46,10.46,7132100
2017-11-01,10.48,10.7,10.48,10.66,7473000
2017-11-02,10.66,10.68,10.38,10.4,8560000
2017-11-03,10.46,10.5,10.12,10.16,7950836
2017-11-06,10.34,10.68,10.14,10.62,9753344
2017-11-07,10.7,10.86,10.48,10.52,7953723
2017-11-08,10.52,10.52,10.26,10.28,7433469
2017-11-09,10.36,10.52,10.32,10.4,6136427
2017-11-10,10.3,10.44,10.2,10.36,5848000
2017-11-13,10.36,10.46,10.16,10.28,9741173
2017-11-14,10.22,10.38,10.2,10.26,5243000
2017-11-15,10.28,10.28,9.98,10.0,13593116
2017-11-16,9.92,10.0,9.44,9.49,22988506
2017-11-17,9.68,9.7,9.44,9.48,10557202
2017-11-20,9.4,9.5,8.94,9.17,18579212
2017-11-21,9.0,9.38,9.0,9.29,13581606
2017-11-22,9.35,9.36,9.07,9.29,11455152
2017-11-23,9.14,9.14,8.27,8.45,38703196
2017-11-24,8.43,8.65,8.34,8.38,10645000
2017-11-27,8.35,8.47,7.67,8.19,38920000
2017-11-28,8.19,8.5,7.81,8.41,35226980
2017-11-29,8.41,8.41,8.01,8.04,15158363
2017-11-30,7.92,8.0,7.44,7.65,44004852
2017-12-01,7.69,7.78,7.47,7.58,16747722
2017-12-04,7.59,8.08,7.42,8.05,23884000
2017-12-05,7.9,7.92,7.75,7.87,19132234
2017-12-06,7.84,8.04,7.52,7.68,23522710
2017-12-07,7.78,7.79,7.35,7.44,12911870
2017-12-08,7.51,7.6,7.35,7.49,15746000
2017-12-11,7.53,8.4,7.5,8.4,27063148
2017-12-12,8.4,8.78,8.06,8.18,26656264
2017-12-13,8.16,8.33,8.0,8.1,9290000
2017-12-14,8.14,8.3,8.05,8.23,10476359
2017-12-15,8.14,8.21,7.81,7.85,13523741
2017-12-18,8.0,8.0,7.55,7.66,12259005
2017-12-19,7.7,7.96,7.7,7.86,6844400
2017-12-20,7.83,7.86,7.75,7.82,4996000
2017-12-21,7.83,8.65,7.83,8.62,26500840
2017-12-22,8.6,8.65,8.36,8.45,12553473
2017-12-27,8.5,8.51,8.21,8.33,10527000
2017-12-28,8.34,8.72,8.21,8.55,11305408
2017-12-29,8.61,8.61,8.4,8.44,4712500
2018-01-02,8.44,8.72,8.31,8.57,10485933
2018-01-03,8.6,9.09,8.56,8.83,19017592
2018-01-04,8.74,8.8,8.59,8.65,10646766
2018-01-05,8.59,8.78,8.38,8.46,14252000
2018-01-08,8.44,8.81,8.3,8.78,16040000
2018-01-09,8.68,8.8,8.58,8.61,10380589
2018-01-10,8.58,8.6,8.42,8.47,7423000
2018-01-11,8.42,8.65,8.39,8.5,6961000
2018-01-12,8.54,9.49,8.54,9.44,53346980
2018-01-15,9.48,9.54,8.88,8.93,24470324
2018-01-16,8.88,9.3,8.87,9.13,13036388
2018-01-17,9.0,9.15,8.9,9.12,8019000
2018-01-18,9.22,9.3,8.9,8.92,9392698
2018-01-19,9.0,9.02,8.75,8.87,11497392
2018-01-22,8.85,9.29,8.74,9.22,20109544
2018-01-23,9.24,9.27,8.92,8.94,14650546
2018-01-24,9.0,9.13,8.93,9.05,12393667
2018-01-25,9.12,9.18,8.87,8.87,11293000
2018-01-26,8.93,9.11,8.93,9.11,8952174
2018-01-29,9.08,9.17,8.88,8.93,8368350
2018-01-30,8.92,8.92,8.63,8.75,10521224
2018-01-31,8.64,8.79,8.48,8.69,10907000
2018-02-01,8.71,8.92,8.71,8.74,9299350
2018-02-02,8.75,8.84,8.63,8.72,4432000
2018-02-05,8.45,8.67,8.35,8.57,7151000
2018-02-06,8.26,8.39,7.86,7.86,24955456
2018-02-07,8.1,8.35,7.75,7.76,15567000
2018-02-08,7.8,7.96,7.67,7.86,8259000
2018-02-09,7.5,7.65,7.35,7.61,18551500
2018-02-12,7.62,7.88,7.62,7.8,8743000
2018-02-13,7.96,8.27,7.87,8.15,9230036
2018-02-14,8.27,8.27,8.07,8.21,6706381
2018-02-15,8.3,8.48,8.27,8.48,5217000
2018-02-20,8.5,9.35,8.48,9.26,27474740
2018-02-21,9.38,9.45,9.17,9.24,8346002
2018-02-22,9.19,9.98,9.07,9.87,32135600
2018-02-23,9.92,10.06,9.64,9.74,19108188
2018-02-26,9.83,9.95,9.54,9.89,12164967
2018-02-27,9.95,10.04,9.53,9.57,12039700
2018-02-28,9.6,10.0,9.38,10.0,15598971
2018-03-01,9.97,10.86,9.88,10.78,32230722
2018-03-02,10.46,10.82,10.46,10.5,13005000
2018-03-05,10.6,10.76,9.96,9.96,12477000
2018-03-06,10.22,10.46,10.02,10.3,9575000
2018-03-07,10.3,10.82,10.18,10.66,13567530
2018-03-08,10.84,10.94,10.58,10.78,11292251
2018-03-09,11.0,11.06,10.64,10.76,11378500
2018-03-12,10.62,11.16,10.12,11.06,44140544
2018-03-13,11.2,12.0,11.2,11.98,59950028
2018-03-14,11.68,12.2,11.66,12.16,28086668
2018-03-15,12.1,12.22,11.62,11.78,20906896
2018-03-16,11.88,12.18,11.76,11.98,18260868
2018-03-19,12.16,12.3,11.84,11.92,13410443
2018-03-20,11.8,11.96,11.52,11.7,11495084
2018-03-21,11.82,11.98,11.34,11.38,11125224
2018-03-22,11.44,11.68,10.96,11.02,12827745
2018-03-23,10.32,10.76,10.1,10.5,21861000
2018-03-26,10.4,11.08,10.2,11.06,10444937
2018-03-27,11.2,11.56,11.16,11.34,11010170
2018-03-28,11.02,11.32,10.88,10.98,9189883
2018-03-29,10.94,11.14,10.6,10.74,11850223
2018-04-03,10.56,10.8,10.28,10.72,6808239
2018-04-04,10.8,10.88,10.42,10.48,5587760
2018-04-06,10.62,10.8,10.34,10.64,4253605
2018-04-09,10.62,10.78,10.4,10.5,7566000
2018-04-10,10.56,11.28,10.38,11.14,10497000
2018-04-11,11.14,11.36,10.82,10.9,11030387
2018-04-12,10.92,11.0,10.76,10.96,3531668
2018-04-13,11.0,11.06,10.86,10.9,3790000
2018-04-16,10.9,10.98,10.62,10.72,4000211
2018-04-17,10.8,10.84,10.2,10.2,5290967
2018-04-18,10.32,10.56,9.89,10.26,6393000
2018-04-19,10.34,10.54,10.28,10.3,3662800
2018-04-20,10.32,10.56,10.26,10.42,9279201
2018-04-23,10.46,10.68,10.3,10.44,3720750
2018-04-24,10.54,11.3,10.44,11.26,13599684
2018-04-25,11.1,11.72,11.0,11.58,16878056
2018-04-26,11.6,11.6,10.88,11.14,13148988
2018-04-27,11.22,11.6,11.22,11.56,11475802
2018-04-30,11.8,12.1,11.74,11.96,14853665
2018-05-02,11.92,12.3,11.86,12.08,14718132
2018-05-03,12.02,12.28,11.86,12.26,11281750
2018-05-04,12.3,12.58,12.06,12.14,15986707
2018-05-07,12.32,12.66,12.22,12.3,14202588
2018-05-08,12.3,12.7,12.28,12.38,7964000
2018-05-09,12.5,12.7,12.34,12.6,11553900
2018-05-10,12.8,12.98,12.7,12.82,11981722
2018-05-11,12.96,12.98,12.62,12.64,7525500
2018-05-14,12.7,12.8,12.32,12.46,8948390
2018-05-15,12.52,12.62,12.42,12.46,5838089
2018-05-16,12.5,12.6,12.26,12.42,4994000
2018-05-17,12.42,12.54,12.2,12.22,5085000
2018-05-18,12.3,12.5,12.2,12.44,8592894
2018-05-21,12.5,12.72,12.48,12.72,9313603
2018-05-23,12.64,12.72,12.08,12.08,8690833
2018-05-24,12.04,12.28,11.98,12.26,6179400
2018-05-25,12.28,12.3,11.94,11.94,3120198
2018-05-28,12.08,12.44,11.98,12.36,4510000
2018-05-29,12.38,12.48,12.1,12.16,5017000
2018-05-30,12.08,12.3,11.94,12.2,6691422
2018-05-31,12.28,12.48,12.22,12.32,5131902
2018-06-01,12.32,12.32,12.02,12.16,5060539
2018-06-04,12.3,12.34,12.0,12.28,7916150
2018-06-05,12.4,12.4,12.16,12.2,3593790
2018-06-06,12.18,12.54,12.18,12.34,5293428
2018-06-07,12.4,12.42,12.18,12.2,3344000
2018-06-08,12.18,12.18,11.78,11.78,7701382
2018-06-11,11.76,11.98,11.68,11.86,3648000
2018-06-12,11.82,11.86,10.92,11.22,23427038
2018-06-13,11.36,11.36,11.1,11.12,2684700
2018-06-14,11.2,11.2,10.74,10.82,8429784
2018-06-15,10.84,11.26,10.84,11.24,11360117
2018-06-19,11.3,11.3,10.48,10.6,14186886
2018-06-20,10.7,10.96,10.52,10.8,8497789
2018-06-21,10.84,10.96,10.56,10.64,6616835
2018-06-22,10.64,10.8,10.5,10.62,4238000
2018-06-25,10.74,10.74,9.93,10.08,13755768
2018-06-26,10.08,10.16,9.67,10.0,19545780
2018-06-27,10.0,10.22,9.45,9.5,21900806
2018-06-28,9.56,9.77,9.3,9.54,11878942
2018-06-29,9.39,10.06,9.39,10.04,5903176
2018-07-03,10.0,10.0,9.69,9.8,10578770
2018-07-04,9.77,9.89,9.35,9.41,6288072
2018-07-05,9.52,9.75,9.24,9.51,7938029
2018-07-06,9.62,9.78,9.45,9.66,8050458
2018-07-09,9.84,10.3,9.78,10.26,8775480
2018-07-10,10.4,10.6,10.2,10.4,6968000
2018-07-11,10.2,10.36,10.02,10.16,7361516
2018-07-12,10.16,11.36,10.08,11.16,15371454
2018-07-13,11.28,11.34,10.9,11.06,5984904
2018-07-16,11.06,11.28,10.82,11.0,3956010
2018-07-17,11.0,11.14,10.64,10.74,3993099
2018-07-18,10.96,11.08,10.56,10.62,4912000
2018-07-19,10.6,10.8,10.48,10.5,3856000
2018-07-20,10.58,10.6,9.95,10.2,5881300
2018-07-23,10.12,10.3,10.06,10.2,3141000
2018-07-24,10.2,10.44,10.2,10.36,3943672
2018-07-25,10.34,10.58,10.32,10.36,5307000
2018-07-26,10.44,10.46,10.12,10.26,3129204
2018-07-27,10.28,10.66,10.1,10.66,4521000
2018-07-30,10.66,10.72,10.5,10.66,3426000
2018-07-31,11.0,11.0,10.06,10.14,13921067
2018-08-01,10.3,10.3,9.75,9.81,8728000
2018-08-02,9.89,10.34,9.72,10.3,8535720
2018-08-03,10.34,10.4,9.7,9.7,10306000
2018-08-06,9.7,9.81,9.25,9.41,9290830
2018-08-07,9.5,10.04,9.5,10.0,11533100
2018-08-08,9.96,10.0,9.46,9.6,9394000
2018-08-09,9.48,9.95,8.92,9.94,31273600
2018-08-10,9.82,10.56,9.82,10.3,19133924
2018-08-13,10.18,10.54,9.99,10.32,9010810
2018-08-14,10.26,10.26,9.8,9.99,8646860
2018-08-15,9.8,9.9,9.07,9.15,18823004
2018-08-16,8.95,9.66,8.95,9.32,13829500
2018-08-17,9.56,9.56,9.1,9.19,5611000
2018-08-20,9.2,9.37,9.15,9.25,5790080
2018-08-21,9.38,9.84,9.3,9.79,9738000
2018-08-22,9.82,9.91,9.53,9.82,5118000
2018-08-23,9.88,10.34,9.73,10.24,8056000
2018-08-24,10.2,10.2,9.9,9.99,4221003
2018-08-27,10.2,10.26,9.97,10.2,3820210
2018-08-28,10.36,10.48,10.06,10.26,4693000
2018-08-29,10.3,10.3,10.08,10.18,2101000
2018-08-30,10.28,10.42,10.12,10.16,4839300
2018-08-31,9.85,9.85,9.25,9.48,16004000
2018-09-03,9.58,9.62,9.29,9.55,5003628
2018-09-04,9.54,9.7,9.41,9.6,4325220
2018-09-05,9.68,9.74,9.35,9.5,3385061
2018-09-06,9.42,9.54,9.19,9.31,6741250
2018-09-07,9.31,9.43,9.07,9.25,4961902
2018-09-10,9.4,9.4,9.08,9.23,5133000
2018-09-11,9.21,9.24,8.8,9.07,10033005
2018-09-12,9.2,9.2,8.83,8.85,6462569
2018-09-13,9.07,9.37,9.0,9.37,7105866
2018-09-14,9.4,9.64,9.37,9.5,5130000
2018-09-17,9.45,9.48,9.15,9.34,3036500
2018-09-18,9.35,9.7,9.2,9.68,3610236
2018-09-19,9.54,9.78,9.54,9.75,3692750
2018-09-20,9.78,9.84,9.52,9.61,2543000
2018-09-21,9.78,9.88,9.61,9.82,4024606
2018-09-24,9.76,9.8,9.55,9.63,1721252
2018-09-26,9.75,10.04,9.64,9.9,7484708
2018-09-27,9.91,9.91,9.54,9.58,5106900
2018-09-28,9.65,9.83,9.46,9.75,3541250
2018-10-02,9.75,9.88,9.67,9.82,3303205
2018-10-03,9.85,9.85,9.6,9.64,1600000
2018-10-04,9.55,9.8,9.55,9.74,2197000
2018-10-05,9.58,9.72,9.29,9.37,2643000
2018-10-08,9.19,9.42,9.03,9.04,4011001
2018-10-09,9.01,9.17,8.95,9.13,3280000
2018-10-10,9.13,9.33,8.99,8.99,3903490
2018-10-11,8.52,8.72,8.15,8.29,14184677
2018-10-12,8.42,8.81,8.18,8.81,8592710
2018-10-15,8.8,8.8,8.43,8.48,3161000
2018-10-16,8.55,8.75,8.53,8.66,3218876
2018-10-18,8.78,8.85,8.5,8.67,3664850
2018-10-19,8.49,8.96,8.49,8.81,7695122
2018-10-22,8.8,9.09,8.8,8.96,3774000
2018-10-23,8.92,9.18,8.72,8.8,3098000
2018-10-24,8.8,9.0,8.28,8.39,7251500
2018-10-25,8.15,8.36,8.08,8.34,5988000
2018-10-26,8.34,8.49,8.04,8.14,5461000
2018-10-29,8.12,8.28,7.71,7.83,7033734
2018-10-30,7.8,8.04,7.68,7.98,3826400
2018-10-31,8.03,8.28,7.96,8.26,5941280
2018-11-01,8.26,8.44,8.15,8.22,5658635
2018-11-02,8.43,9.16,8.39,9.16,15420247
2018-11-05,9.1,9.24,8.81,8.9,6344605
2018-11-06,9.03,9.03,8.77,8.95,2401902
2018-11-07,8.88,9.36,8.84,9.12,6228067
2018-11-08,9.39,9.4,9.1,9.21,5171630
2018-11-09,9.08,9.1,8.75,8.79,4015341
2018-11-12,8.73,9.09,8.7,8.81,2220220
2018-11-13,8.66,9.29,8.66,9.29,5897819
2018-11-14,9.3,9.39,9.06,9.25,4262000
2018-11-15,9.3,9.81,9.3,9.76,8086780
2018-11-16,9.79,9.85,9.6,9.8,4759000
2018-11-19,9.82,9.92,9.65,9.81,2880538
2018-11-20,9.78,9.78,9.26,9.38,3544052
2018-11-21,9.2,9.67,9.05,9.6,4433612
2018-11-22,9.52,9.63,9.37,9.5,1431706
2018-11-23,9.45,9.5,9.16,9.22,2828233
2018-11-26,9.12,9.52,9.12,9.42,2597000
2018-11-27,9.45,9.75,9.36,9.45,3475725
2018-11-28,9.58,9.84,9.56,9.67,4922663
2018-11-29,9.8,9.87,9.65,9.67,3474402
2018-11-30,9.64,9.8,9.44,9.44,5203256
2018-12-03,9.79,9.9,9.7,9.82,3733052
2018-12-04,9.7,9.9,9.57,9.79,3509666
2018-12-05,9.61,9.96,9.55,9.86,6555215
2018-12-06,9.73,9.88,9.42,9.47,4526168
2018-12-07,9.58,9.73,9.41,9.57,4359735
2018-12-10,9.46,9.65,9.34,9.62,3544983
2018-12-11,9.59,9.83,9.53,9.75,3190216
2018-12-12,9.9,10.36,9.84,10.32,10909000
2018-12-13,10.32,10.46,10.16,10.46,5494000
2018-12-14,10.28,10.34,10.12,10.16,4443000
2018-12-17,10.16,10.46,10.08,10.26,6106000
2018-12-18,10.24,10.38,10.08,10.34,7148075
2018-12-19,10.26,10.5,10.18,10.26,6305557
2018-12-20,10.32,10.42,10.14,10.24,7144925
2018-12-21,10.24,10.66,9.99,10.36,10075798
2018-12-24,10.28,10.56,10.22,10.26,3099550
2018-12-27,10.26,10.48,10.1,10.18,4287721
2018-12-28,10.0,10.48,10.0,10.3,3265755
2018-12-31,10.3,10.76,10.26,10.74,3142250
2019-01-02,10.86,10.86,10.5,10.56,3233000
2019-01-03,10.4,10.62,10.06,10.12,4666500
2019-01-04,9.87,10.22,9.87,10.08,5137399
2019-01-07,10.22,10.38,10.06,10.38,3803051
2019-01-08,10.28,10.86,10.28,10.84,7890336
2019-01-09,10.86,10.88,10.64,10.8,4917081
2019-01-10,10.8,11.14,10.68,10.84,6770033
2019-01-11,11.0,11.36,10.9,11.0,11632637
2019-01-14,10.86,11.1,10.86,11.0,5022000
2019-01-15,11.0,11.14,10.9,11.0,7354000
2019-01-16,11.0,11.5,10.94,11.38,14907851
2019-01-17,11.48,11.72,11.32,11.58,7802732
2019-01-18,11.6,11.68,11.44,11.64,5207000
2019-01-21,11.64,12.18,11.6,11.68,11705244
2019-01-22,11.7,11.8,11.1,11.8,3252000
2019-01-23,11.88,12.14,11.74,11.86,4250564
2019-01-24,11.66,12.0,11.58,11.94,5935276
2019-01-25,12.0,12.2,11.9,12.18,6935123
2019-01-28,12.3,12.36,11.96,12.06,4021244
2019-01-29,12.06,12.26,12.04,12.18,5839033
2019-01-30,12.0,12.18,11.88,12.06,6112000
2019-01-31,12.06,12.16,11.92,11.92,4845240
2019-02-01,12.02,12.2,12.0,12.18,4982000
2019-02-04,12.14,12.2,12.02,12.14,1355930
2019-02-08,11.96,12.4,11.96,12.2,4763978
2019-02-11,12.2,12.26,12.0,12.08,6048000
2019-02-12,12.08,12.34,12.04,12.06,6310446
2019-02-13,12.2,12.3,12.1,12.28,7800601
2019-02-14,12.3,12.3,12.1,12.18,5086993
2019-02-15,12.2,12.2,11.48,11.58,9311442
2019-02-18,11.86,11.96,11.74,11.8,4974000
2019-02-19,11.8,11.9,11.6,11.68,3309630
2019-02-20,11.54,12.0,11.5,11.94,6614395
2019-02-21,11.94,11.98,11.72,11.84,3956588
2019-02-22,11.7,11.84,11.6,11.7,7818379
2019-02-25,11.7,11.88,11.32,11.44,10266332
2019-02-26,11.52,11.62,11.14,11.24,7939747
2019-02-27,11.16,11.46,11.06,11.22,8006292
2019-02-28,11.28,11.4,11.02,11.16,6418723
2019-03-01,11.16,11.9,11.16,11.7,13920343
2019-03-04,11.88,11.96,11.58,11.76,9150484
2019-03-05,11.68,12.58,11.68,12.5,19740946
2019-03-06,12.64,12.8,12.44,12.72,6449885
2019-03-07,12.56,12.66,11.28,11.3,28313916
2019-03-08,11.02,11.18,10.7,10.82,18355440
2019-03-11,10.6,10.98,10.6,10.74,12090892
2019-03-12,11.0,11.34,10.92,11.22,13904454
2019-03-13,11.4,11.4,10.72,10.74,9560568
2019-03-14,10.72,10.92,10.7,10.78,6573775
2019-03-15,10.78,11.0,10.5,10.58,10841616
2019-03-18,10.54,10.78,10.52,10.7,6681300
2019-03-19,10.7,10.82,10.5,10.56,6041589
2019-03-20,10.56,11.18,10.56,10.96,11913179
2019-03-21,10.9,11.12,10.84,10.98,17619000
2019-03-22,10.98,11.14,10.92,11.02,8122774
2019-03-25,10.8,10.86,10.58,10.66,6303164
2019-03-26,10.6,10.8,10.6,10.74,3619390
2019-03-27,10.78,11.04,10.62,10.88,5478352
2019-03-28,10.92,11.34,10.92,11.12,11657396
2019-03-29,11.3,11.3,10.82,10.88,5667325
2019-04-01,11.0,11.0,10.7,10.8,4965500
2019-04-02,10.9,10.98,10.84,10.9,3342911
2019-04-03,10.92,10.98,10.78,10.96,5292140
2019-04-04,10.96,11.16,10.9,11.06,4955795
2019-04-08,11.0,11.08,10.8,10.86,2959310
2019-04-09,10.92,11.16,10.82,10.92,5509949
2019-04-10,10.86,11.04,10.82,10.98,7277793
2019-04-11,10.94,11.36,10.92,11.0,7190732
2019-04-12,10.96,11.0,10.52,10.6,9335000
2019-04-15,10.62,10.76,10.56,10.6,3411341
2019-04-16,10.6,10.66,10.36,10.6,3398409
2019-04-17,10.7,10.76,10.4,10.56,2785130
2019-04-18,10.56,10.64,10.46,10.62,2372659
2019-04-23,10.5,10.6,10.14,10.18,7677272
2019-04-24,10.22,10.32,9.97,10.06,6716958
2019-04-25,10.1,10.1,9.43,9.51,10774570
2019-04-26,9.46,10.04,9.46,10.0,8306062
2019-04-29,10.1,10.1,9.72,9.85,2442961
2019-04-30,9.85,10.02,9.74,9.96,3150000
2019-05-02,9.96,9.96,9.71,9.86,1678728
2019-05-03,9.8,9.85,9.7,9.83,1081589
2019-05-06,9.71,9.88,9.28,9.46,5548268
2019-05-07,9.47,9.86,9.47,9.56,3784944
2019-05-08,9.4,9.67,9.35,9.39,3077159
2019-05-09,9.3,9.5,9.15,9.15,4407000
2019-05-10,9.21,9.49,9.16,9.39,3933156
2019-05-14,9.18,9.37,9.13,9.2,3374001
2019-05-15,9.39,9.48,9.26,9.45,2811472
2019-05-16,9.38,9.54,9.29,9.5,3922462
2019-05-17,9.54,9.59,9.19,9.27,3865619
2019-05-20,9.26,9.37,8.97,9.14,5435000
2019-05-21,9.07,9.41,8.98,9.21,3021693
2019-05-22,9.25,9.42,9.18,9.3,3925512
2019-05-23,9.25,9.3,9.1,9.15,3450930
2019-05-24,9.13,9.46,9.13,9.44,3959967
2019-05-27,9.5,9.5,9.2,9.39,3089032
2019-05-28,9.38,9.65,9.31,9.51,3778000
2019-05-29,9.38,9.48,9.24,9.27,4652000
2019-05-30,9.22,9.37,9.13,9.32,2710747
2019-05-31,9.23,9.4,9.2,9.29,3979025
2019-06-03,9.29,9.29,8.88,8.88,5677320
2019-06-04,8.96,8.96,8.59,8.66,4641455
2019-06-05,8.75,8.84,8.68,8.75,3652045
2019-06-06,8.75,8.82,8.63,8.73,2679936
2019-06-10,8.79,9.02,8.65,8.96,3164907
2019-06-11,8.92,9.2,8.91,9.08,2932384
2019-06-12,9.09,9.09,8.84,8.91,1735765
2019-06-13,8.8,8.93,8.7,8.76,2691000
2019-06-14,8.6,8.78,8.47,8.52,4943740
2019-06-17,8.59,8.73,8.54,8.57,1818500
2019-06-18,8.65,8.74,8.57,8.62,1284019
2019-06-19,8.85,8.95,8.75,8.8,3509153
2019-06-20,8.9,8.95,8.82,8.9,2885195
2019-06-21,8.97,9.05,8.73,8.8,3212300
2019-06-24,8.8,8.84,8.58,8.6,2682196
2019-06-25,8.6,8.7,8.43,8.54,2025800
2019-06-26,8.59,8.62,8.37,8.48,2374150
2019-06-27,8.51,8.75,8.5,8.67,3406093
2019-06-28,8.67,8.8,8.67,8.71,1959090
2019-07-02,8.88,9.05,8.7,8.77,6923545
2019-07-03,8.77,8.83,8.46,8.55,4846000
2019-07-04,8.57,8.59,8.4,8.4,3569392
2019-07-05,8.46,8.46,8.19,8.25,4314000
2019-07-08,8.22,8.28,7.98,8.0,4708000
2019-07-09,8.02,8.34,8.01,8.32,4458696
2019-07-10,8.46,8.46,8.21,8.28,4107000
2019-07-11,8.38,8.48,8.26,8.42,2774968
2019-07-12,8.48,8.48,8.31,8.39,2059000
2019-07-15,8.36,8.38,8.17,8.24,1842198
2019-07-16,8.21,8.39,8.15,8.25,2311402
2019-07-17,8.24,8.26,8.16,8.22,1797999
2019-07-18,8.2,8.29,8.01,8.2,3764048
2019-07-19,8.26,8.27,8.06,8.1,2947919
2019-07-22,8.1,8.12,7.92,7.96,4284000
2019-07-23,8.01,8.18,8.0,8.05,3406200
2019-07-24,8.05,8.21,8.01,8.13,3033000
2019-07-25,8.1,8.12,7.89,7.98,5670801
2019-07-26,7.97,7.97,7.78,7.81,5363000
2019-07-29,7.81,7.91,7.78,7.89,2877128
2019-07-30,7.9,7.92,7.73,7.74,2873630
2019-07-31,7.74,7.78,7.35,7.49,6502000
2019-08-01,7.44,7.47,7.16,7.23,8805000
2019-08-02,7.11,7.13,7.0,7.13,6460222
2019-08-05,7.01,7.05,6.81,6.82,8714704
2019-08-06,6.33,6.5,6.03,6.31,23804710
2019-08-07,6.41,6.41,6.1,6.17,15295804
2019-08-08,6.11,6.18,5.82,5.87,13841150
2019-08-09,5.89,5.98,5.67,5.75,14656305
2019-08-12,5.71,6.11,5.65,6.08,11882050
2019-08-13,5.9,5.98,5.63,5.66,11918121
2019-08-14,5.83,5.88,5.61,5.63,12502327
2019-08-15,5.46,5.87,5.46,5.85,8695000
2019-08-16,5.68,5.69,5.47,5.54,9682802
2019-08-19,5.6,5.75,5.57,5.6,6673650
2019-08-20,5.61,5.68,5.43,5.47,9078000
2019-08-21,5.5,5.72,5.48,5.69,7855611
2019-08-22,5.74,5.75,5.46,5.48,8021300
2019-08-23,5.48,5.5,5.34,5.38,6989839
2019-08-26,5.29,5.33,5.12,5.21,9123850
2019-08-27,5.17,5.38,5.16,5.25,12268889
2019-08-28,5.33,5.38,5.25,5.31,5524700
2019-08-29,5.35,5.38,5.23,5.34,4003985
2019-08-30,5.4,5.48,5.25,5.3,6885713
2019-09-02,5.35,5.35,5.18,5.21,2943000
2019-09-03,5.2,5.37,5.16,5.21,4219690
2019-09-04,5.22,5.44,5.22,5.4,5622288
2019-09-05,5.43,5.59,5.39,5.5,4675850
2019-09-06,5.5,5.59,5.41,5.53,5537322
2019-09-09,5.58,5.58,5.36,5.38,6888721
2019-09-10,5.48,5.51,5.33,5.39,7762269
2019-09-11,5.45,5.45,5.21,5.36,7828821
2019-09-12,5.4,5.89,5.37,5.85,13418588
2019-09-13,5.8,5.82,5.56,5.65,11786430
2019-09-16,5.66,5.67,5.45,5.49,9990290
2019-09-17,5.5,5.5,5.23,5.28,12408322
2019-09-18,5.26,5.34,5.21,5.26,9562618
2019-09-19,5.29,5.3,5.15,5.19,9622000
2019-09-20,5.22,5.37,5.18,5.3,8432506
2019-09-23,5.29,5.3,5.17,5.18,6891830
2019-09-24,5.2,5.39,5.12,5.33,10813862
2019-09-25,5.3,5.3,5.07,5.12,9627122
2019-09-26,5.14,5.17,4.86,4.95,14508367
2019-09-27,4.95,4.96,4.81,4.83,5873750
2019-09-30,4.83,4.9,4.77,4.88,3294000
2019-10-02,4.87,4.96,4.77,4.95,4994000
2019-10-03,4.91,4.91,4.8,4.86,2866125
2019-10-04,4.92,5.1,4.89,4.97,6857749
2019-10-08,4.93,5.1,4.9,4.96,5861500
2019-10-09,4.95,4.95,4.79,4.79,7043000
2019-10-10,4.74,5.01,4.71,4.95,6447225
2019-10-11,4.95,5.02,4.89,4.97,4320660
2019-10-14,5.0,5.1,5.0,5.07,3863000
2019-10-15,5.08,5.08,4.86,4.9,5954486
2019-10-16,4.91,4.94,4.83,4.86,4686000
2019-10-17,4.9,5.26,4.9,5.13,18751340
2019-10-18,5.2,5.23,5.07,5.12,8606346
2019-10-21,5.12,5.19,5.03,5.18,4599100
2019-10-22,5.18,5.28,5.11,5.11,6893000
2019-10-23,5.11,5.13,4.95,4.99,7323930
2019-10-24,5.0,5.3,4.97,5.28,10607000
2019-10-25,5.28,5.28,5.18,5.26,5881000
2019-10-28,5.26,5.26,5.13,5.15,5298560
2019-10-29,5.15,5.25,5.13,5.18,4142553
2019-10-30,5.22,5.22,5.1,5.11,6077000
2019-10-31,5.08,5.26,5.07,5.13,5916348
2019-11-01,5.1,5.22,5.06,5.18,5756760
2019-11-04,5.17,5.45,5.17,5.44,13173766
2019-11-05,5.45,5.5,5.29,5.34,8862000
2019-11-06,5.37,5.39,5.29,5.34,3852400
2019-11-07,5.36,5.53,5.33,5.52,10199007
2019-11-08,5.55,5.79,5.55,5.56,17280936
2019-11-11,5.55,5.58,5.25,5.28,10794430
2019-11-12,5.28,5.33,5.21,5.29,5110000
2019-11-13,5.29,5.29,5.04,5.1,9665336
2019-11-14,5.07,5.2,5.01,5.19,5975000
2019-11-15,5.2,5.23,5.05,5.06,3966000
2019-11-18,5.09,5.17,5.06,5.16,3569190
2019-11-19,5.15,5.61,5.1,5.53,17574250
2019-11-20,5.59,6.11,5.46,5.95,38006924
2019-11-21,5.9,5.96,5.73,5.93,16333140
2019-11-22,5.93,6.24,5.87,6.15,21138770
2019-11-25,6.25,6.25,6.04,6.19,13119650
2019-11-26,6.23,6.24,5.89,6.13,17440500
2019-11-27,6.11,6.12,5.9,5.97,8096100
2019-11-28,5.87,5.99,5.8,5.84,6064000
2019-11-29,5.84,5.86,5.57,5.71,11125424
2019-12-02,5.7,5.8,5.6,5.64,5078000
2019-12-03,5.68,5.78,5.54,5.76,5990000
2019-12-04,5.68,5.9,5.65,5.82,7539000
2019-12-05,5.84,5.92,5.4,5.45,19319000
2019-12-06,5.45,5.59,5.35,5.56,8957082
2019-12-09,5.6,5.62,5.45,5.51,3161000
2019-12-10,5.5,5.67,5.46,5.6,5933648
2019-12-11,5.63,5.69,5.57,5.65,4694000
2019-12-12,5.7,5.88,5.64,5.74,8226473
2019-12-13,5.78,5.83,5.64,5.71,8911380
2019-12-16,5.7,5.97,5.67,5.95,7604177
2019-12-17,5.98,6.19,5.93,6.03,13608715
2019-12-18,6.03,6.04,5.81,5.86,7283765
2019-12-19,5.83,5.86,5.63,5.75,5910088
2019-12-20,5.85,5.85,5.68,5.75,7033222
2019-12-23,5.81,5.81,5.62,5.67,4984226
2019-12-24,5.65,5.71,5.61,5.7,2117680
2019-12-27,5.7,5.78,5.64,5.67,6280799
2019-12-30,5.67,5.77,5.62,5.72,5271521
2019-12-31,5.7,5.8,5.67,5.75,2094325
2020-01-02,5.74,6.06,5.73,5.93,11714940
2020-01-03,5.98,6.03,5.77,5.79,6326196
2020-01-06,5.73,5.75,5.56,5.63,8674587
2020-01-07,5.67,6.04,5.63,5.93,14483486
2020-01-08,5.75,5.86,5.71,5.75,8454508
2020-01-09,5.84,6.03,5.82,5.97,10746082
2020-01-10,6.1,6.65,6.0,6.56,36679216
2020-01-13,6.58,6.75,6.4,6.48,19881278
2020-01-14,6.54,6.65,6.25,6.33,14235556
2020-01-15,6.3,6.57,6.28,6.54,10888096
2020-01-16,6.56,6.89,6.44,6.62,21241524
2020-01-17,6.66,6.7,6.36,6.52,14394450
2020-01-20,6.52,6.52,6.34,6.36,8735000
2020-01-21,6.36,6.36,6.06,6.14,12586000
2020-01-22,6.1,6.25,6.09,6.23,6122960
2020-01-23,6.13,6.16,5.9,5.93,10037000
2020-01-24,5.92,6.04,5.83,6.02,3443000
2020-01-29,5.88,5.99,5.78,5.89,8766450
2020-01-30,5.9,5.97,5.45,5.48,12052944
2020-01-31,5.51,5.69,5.41,5.47,7083000
2020-02-03,5.48,5.69,5.29,5.46,13446000
2020-02-04,5.55,5.78,5.55,5.74,9411288
2020-02-05,5.8,6.06,5.78,5.9,12502035
2020-02-06,5.91,6.18,5.86,6.12,14717500
2020-02-07,6.11,6.43,6.02,6.42,25249500
2020-02-10,6.34,6.7,6.3,6.46,24895728
2020-02-11,6.58,6.71,6.22,6.28,20182000
2020-02-12,6.28,6.48,6.26,6.43,10538318
2020-02-13,6.48,6.57,6.23,6.26,15997507
2020-02-14,6.28,6.37,6.12,6.17,12060867
2020-02-17,6.19,6.36,6.16,6.29,7236000
2020-02-18,6.25,6.26,6.03,6.09,9988000
2020-02-19,6.08,6.16,6.05,6.1,6884200
2020-02-20,6.12,6.14,5.93,6.03,10217000
2020-02-21,6.05,6.1,5.95,5.99,5773607
2020-02-24,5.97,5.98,5.8,5.85,6227862
2020-02-25,5.78,5.83,5.71,5.81,8998462
2020-02-26,5.69,5.95,5.69,5.87,7371838
2020-02-27,5.87,5.94,5.79,5.9,8213328
2020-02-28,5.78,5.83,5.61,5.67,11119000
2020-03-02,5.62,5.77,5.58,5.65,9085976
2020-03-03,5.75,5.81,5.63,5.63,7723000
2020-03-04,5.63,5.69,5.54,5.63,5928298
2020-03-05,5.72,5.89,5.72,5.85,13847350
2020-03-06,5.77,5.82,5.47,5.47,22469650
2020-03-09,5.32,5.39,4.94,4.96,30892000
2020-03-10,4.95,5.15,4.89,5.07,12725464
2020-03-11,5.12,5.25,5.07,5.11,9659700
2020-03-12,5.05,5.05,4.86,4.89,13766008
2020-03-13,4.56,4.89,4.3,4.85,19316948
2020-03-16,4.7,5.0,4.53,4.58,16245000
2020-03-17,4.43,4.7,4.3,4.6,16125302
2020-03-18,4.58,4.77,4.3,4.34,13398518
2020-03-19,4.37,4.37,4.08,4.27,19422514
2020-03-20,4.3,4.51,4.3,4.46,9627000
2020-03-23,4.28,4.46,4.19,4.27,9039514
2020-03-24,4.4,4.56,4.37,4.54,9838020
2020-03-25,4.65,4.78,4.6,4.72,9304809
2020-03-26,4.7,4.75,4.57,4.64,6355867
2020-03-27,4.73,4.76,4.53,4.55,5218173
2020-03-30,4.4,4.55,4.38,4.49,4511350
2020-03-31,4.55,4.72,4.54,4.63,5230978
2020-04-01,4.64,4.85,4.56,4.63,9749104
2020-04-02,4.64,4.75,4.57,4.69,5438200
2020-04-03,4.66,4.67,4.56,4.64,3355013
2020-04-06,4.66,4.67,4.49,4.6,3647016
2020-04-07,4.67,4.87,4.67,4.76,9535232
2020-04-08,4.75,4.82,4.65,4.67,3911673
2020-04-09,4.75,4.82,4.7,4.77,4974007
2020-04-14,4.77,4.81,4.74,4.77,3928941
2020-04-15,4.86,4.93,4.72,4.74,6865262
2020-04-16,4.68,4.75,4.64,4.72,3923900
2020-04-17,4.8,4.94,4.73,4.78,7731000
2020-04-20,4.81,4.92,4.77,4.91,5458300
2020-04-21,4.82,4.86,4.62,4.62,8725000
2020-04-22,4.6,4.7,4.53,4.68,4463964
2020-04-23,4.75,4.78,4.64,4.68,3073192
2020-04-24,4.67,4.72,4.61,4.64,2083900
2020-04-27,4.66,4.72,4.58,4.72,2830000
2020-04-28,4.75,4.81,4.64,4.79,3868751
2020-04-29,4.81,4.97,4.8,4.92,7132900
2020-05-04,4.88,4.88,4.73,4.75,4162090
2020-05-05,4.77,4.91,4.74,4.89,3186600
2020-05-06,4.87,4.95,4.85,4.91,4405481
2020-05-07,4.88,5.24,4.87,5.19,14336798
2020-05-08,5.19,5.3,5.14,5.2,6142835
2020-05-11,5.25,5.4,5.13,5.19,4423700
2020-05-12,5.2,5.2,5.04,5.11,3489000
2020-05-13,5.09,5.19,5.07,5.12,3606419
2020-05-14,5.08,5.14,4.98,5.14,3934000
2020-05-15,5.16,5.16,5.02,5.07,2528367
2020-05-18,5.05,5.08,4.9,4.95,4367415
2020-05-19,5.04,5.1,4.98,5.04,4423023
2020-05-20,5.04,5.38,4.98,5.33,12811086
2020-05-21,5.38,5.39,5.0,5.01,13051950
2020-05-22,4.93,4.93,4.64,4.68,10933470
2020-05-25,4.65,4.75,4.54,4.7,5234838
2020-05-26,4.76,4.81,4.7,4.74,4235364
2020-05-27,4.74,4.8,4.62,4.67,3365624
2020-05-28,4.62,4.7,4.59,4.63,4058000
2020-05-29,4.58,4.77,4.58,4.69,6220000
2020-06-01,4.73,4.99,4.73,4.98,5781195
2020-06-02,5.01,5.09,4.92,4.98,3927400
2020-06-03,5.03,5.08,4.97,5.03,4471900
2020-06-04,5.08,5.24,5.04,5.08,6733465
2020-06-05,5.2,5.22,5.11,5.21,8434245
2020-06-08,5.22,5.37,5.16,5.26,8260560
2020-06-09,5.28,5.35,5.19,5.26,8451300
2020-06-10,5.24,5.43,5.24,5.38,10312550
2020-06-11,5.36,5.45,5.16,5.17,11696703
2020-06-12,5.06,5.3,4.97,5.27,6818469
2020-06-15,5.3,5.64,5.27,5.52,18684024
2020-06-16,5.62,5.65,5.46,5.62,11985340
2020-06-17,5.65,5.92,5.6,5.9,17694848
2020-06-18,5.95,6.17,5.88,6.1,17835736
2020-06-19,6.09,6.15,5.99,6.08,9658158
2020-06-22,6.08,6.08,5.83,5.94,7041000
2020-06-23,5.92,6.11,5.86,6.05,6148960
2020-06-24,6.08,6.28,6.02,6.1,8625134
2020-06-26,6.1,6.14,5.94,6.09,4116438
2020-06-29,6.08,6.11,5.94,6.02,10441000
2020-06-30,6.05,6.38,6.05,6.34,14649185
2020-07-02,6.29,6.75,6.29,6.69,14351336
2020-07-03,6.75,6.82,6.42,6.51,14269953
2020-07-06,6.65,6.75,6.57,6.67,11309348
2020-07-07,6.7,6.79,6.48,6.51,12078000
2020-07-08,6.48,6.73,6.44,6.68,11171003
2020-07-09,6.73,7.67,6.73,7.67,34093212
2020-07-10,7.65,8.06,7.13,7.56,23125344
2020-07-13,7.59,8.13,7.56,8.02,28605484
2020-07-14,7.89,8.15,7.65,7.77,14279197
2020-07-15,7.87,8.1,7.46,7.76,15145658
2020-07-16,7.95,7.96,6.84,6.94,24788720
2020-07-17,6.81,7.63,6.81,7.58,16837868
2020-07-20,7.42,7.84,7.42,7.74,11236310
2020-07-21,7.91,7.93,7.69,7.85,11509977
2020-07-22,7.8,7.92,7.5,7.58,14752125
2020-07-23,7.61,7.78,7.27,7.48,9841000
2020-07-24,7.59,7.59,6.99,7.13,13510086
2020-07-27,7.13,7.46,6.98,7.09,8198520
2020-07-28,7.29,7.47,7.23,7.31,5236700
2020-07-29,7.31,7.42,7.23,7.4,4695836
2020-07-30,7.46,7.49,7.14,7.21,7223600
2020-07-31,7.21,7.68,7.21,7.59,11686978
2020-08-03,7.59,7.75,7.52,7.72,10127390
2020-08-04,7.82,7.83,7.51,7.61,7125200
2020-08-05,7.7,7.78,7.54,7.74,10289710
2020-08-06,8.3,10.32,8.25,10.16,111656368
2020-08-07,10.32,11.0,9.86,10.82,68323608
2020-08-10,10.66,11.16,10.52,11.0,29320380
2020-08-11,11.08,11.5,10.72,11.14,30325540
2020-08-12,11.28,11.28,10.4,10.68,23576808
2020-08-13,10.82,10.9,10.58,10.68,10170344
2020-08-14,10.7,10.96,10.64,10.82,8604230
2020-08-17,10.8,10.8,10.34,10.52,11042003
2020-08-18,10.08,10.08,9.36,9.49,20760292
2020-08-19,9.59,9.82,9.47,9.55,9955700
2020-08-20,9.55,9.59,9.06,9.2,15523386
2020-08-21,9.21,9.64,9.18,9.41,12652849
2020-08-24,9.41,9.77,9.27,9.34,8086800
2020-08-25,9.25,9.55,9.16,9.46,6587803
