Date,Open,High,Low,Close,Volume
2013-02-28,0.54,0.56,0.54,0.55,766000
2013-03-01,0.54,0.57,0.54,0.56,351000
2013-03-04,0.55,0.55,0.54,0.55,100000
2013-03-05,0.55,0.57,0.55,0.55,294500
2013-03-06,0.56,0.56,0.54,0.54,50000
2013-03-11,0.55,0.55,0.54,0.54,800500
2013-03-12,0.54,0.54,0.54,0.54,10000
2013-03-13,0.55,0.55,0.54,0.54,146500
2013-03-14,0.54,0.55,0.54,0.55,110000
2013-03-18,0.55,0.55,0.54,0.54,385000
2013-03-19,0.53,0.55,0.53,0.55,22000
2013-03-21,0.58,0.58,0.58,0.58,20000
2013-03-28,0.58,0.58,0.58,0.58,483500
2013-04-02,0.58,0.58,0.54,0.56,145500
2013-04-03,0.54,0.54,0.54,0.54,37500
2013-04-05,0.54,0.54,0.53,0.53,40000
2013-04-08,0.54,0.54,0.54,0.54,80000
2013-04-10,0.54,0.56,0.54,0.56,167000
2013-04-11,0.53,0.53,0.53,0.54,6000
2013-04-12,0.58,0.61,0.53,0.6,711000
2013-04-15,0.62,0.63,0.62,0.63,64500
2013-04-16,0.62,0.62,0.6,0.61,297000
2013-04-17,0.62,0.62,0.62,0.62,8000
2013-04-18,0.6,0.64,0.6,0.61,171000
2013-04-19,0.65,0.65,0.61,0.64,115000
2013-04-22,0.66,0.66,0.62,0.61,4000
2013-04-23,0.67,0.7,0.66,0.7,943500
2013-04-24,0.7,0.73,0.7,0.73,991500
2013-04-25,0.76,0.77,0.73,0.74,1084500
2013-04-26,0.73,0.74,0.7,0.72,536500
2013-04-29,0.66,0.72,0.66,0.72,13000
2013-04-30,0.68,0.74,0.68,0.72,212500
2013-05-02,0.69,0.72,0.67,0.72,247500
2013-05-03,0.7,0.7,0.69,0.69,10000
2013-05-06,0.72,0.72,0.72,0.72,52000
2013-05-07,0.71,0.71,0.65,0.65,340000
2013-05-08,0.67,0.67,0.6,0.62,310000
2013-05-09,0.67,0.67,0.67,0.67,10000
2013-05-10,0.63,0.63,0.63,0.65,10000
2013-05-14,0.69,0.69,0.69,0.69,54000
2013-05-20,0.63,0.68,0.63,0.67,15500
2013-05-22,0.69,0.69,0.68,0.69,13000
2013-05-23,0.63,0.63,0.63,0.63,11000
2013-05-24,0.63,0.63,0.63,0.63,307000
2013-05-27,0.62,0.64,0.62,0.64,35000
2013-05-29,0.64,0.69,0.62,0.69,149000
2013-05-30,0.67,0.67,0.67,0.67,20000
2013-05-31,0.63,0.63,0.6,0.62,45000
2013-06-03,0.61,0.61,0.61,0.61,30000
2013-06-04,0.61,0.61,0.61,0.61,20000
2013-06-06,0.58,0.62,0.58,0.62,17500
2013-06-10,0.61,0.61,0.6,0.61,25000
2013-06-11,0.61,0.61,0.61,0.61,23000
2013-06-13,0.69,1.1,0.65,1.07,12791500
2013-06-14,0.9,1.03,0.79,1.03,8762550
2013-06-17,1.07,1.13,0.97,0.99,6272000
2013-06-18,1.02,1.03,0.88,0.95,2155500
2013-06-19,0.589,0.589,0.545,0.564,1208300
2013-06-20,0.5579999999999999,0.688,0.545,0.6759999999999999,4261500
2013-06-21,0.7070000000000001,0.8059999999999999,0.645,0.7,16186800
2013-06-24,0.669,0.738,0.6509999999999999,0.657,2202900
2013-06-25,0.632,0.669,0.545,0.608,3479800
2013-06-26,0.632,0.6509999999999999,0.589,0.62,2553000
2013-06-27,0.595,0.7,0.595,0.6629999999999999,3127300
2013-06-28,0.6629999999999999,0.775,0.657,0.769,10193500
2013-07-02,0.8059999999999999,0.905,0.769,0.8740000000000001,8241400
2013-07-03,0.868,0.899,0.8370000000000001,0.8740000000000001,2319100
2013-07-04,0.8859999999999999,0.8859999999999999,0.818,0.843,1898800
2013-07-05,0.8490000000000001,0.855,0.7929999999999999,0.818,1384200
2013-07-08,0.812,0.8490000000000001,0.775,0.8490000000000001,1282600
2013-07-09,0.868,0.9790000000000001,0.862,0.948,11632700
2013-07-10,0.961,1.0290000000000001,0.9109999999999999,1.023,14741300
2013-07-11,1.0170000000000001,1.072,0.992,1.054,16342500
2013-07-12,1.06,1.103,1.0290000000000001,1.091,10529800
2013-07-15,1.097,1.171,1.097,1.171,12535900
2013-07-16,1.1840000000000002,1.37,1.153,1.351,27949900
2013-07-17,1.339,1.426,1.308,1.345,8894000
2013-07-18,1.364,1.395,1.128,1.171,10746000
2013-07-19,1.153,1.153,0.93,0.955,12494000
2013-07-22,0.955,1.153,0.955,1.1159999999999999,6441000
2013-07-23,1.141,1.165,1.01,1.054,7192000
2013-07-24,1.06,1.06,0.992,1.054,1360000
2013-07-25,1.054,1.072,1.01,1.06,3420900
2013-07-26,1.072,1.072,1.01,1.054,1735100
2013-07-29,1.06,1.141,1.01,1.0290000000000001,8141400
2013-07-30,1.0290000000000001,1.128,1.004,1.072,9728000
2013-07-31,1.06,1.1159999999999999,1.023,1.035,2154500
2013-08-01,1.041,1.097,1.041,1.097,4931000
2013-08-02,1.091,1.109,1.06,1.079,662200
2013-08-05,1.079,1.079,1.01,1.01,2449800
2013-08-06,1.023,1.0290000000000001,0.9420000000000001,0.998,4729300
2013-08-07,0.998,0.998,0.868,0.88,4776900
2013-08-08,0.88,0.948,0.862,0.905,2826500
2013-08-09,0.93,0.948,0.893,0.9359999999999999,760700
2013-08-12,0.9359999999999999,0.961,0.93,0.93,830000
2013-08-13,0.93,0.9359999999999999,0.917,0.9359999999999999,604200
2013-08-15,0.9359999999999999,0.9420000000000001,0.917,0.924,943800
2013-08-16,0.924,0.93,0.9109999999999999,0.93,113700
2013-08-19,0.9109999999999999,0.9359999999999999,0.905,0.93,768700
2013-08-20,0.93,0.9670000000000001,0.905,0.9359999999999999,993000
2013-08-21,0.955,0.992,0.9109999999999999,0.948,1627000
2013-08-22,0.948,0.955,0.924,0.948,1260000
2013-08-23,0.961,0.961,0.93,0.9359999999999999,1129300
2013-08-26,0.9420000000000001,0.961,0.93,0.948,3462900
2013-08-27,0.948,1.246,0.948,1.19,17073300
2013-08-28,1.215,1.246,1.1340000000000001,1.141,4382500
2013-08-29,1.1840000000000002,1.1840000000000002,1.079,1.128,2157800
2013-08-30,1.128,1.209,1.054,1.103,1232500
2013-09-02,1.103,1.122,1.079,1.091,800200
2013-09-03,1.1159999999999999,1.327,1.1159999999999999,1.246,8919000
2013-09-04,1.252,1.308,1.19,1.3019999999999998,3238600
2013-09-05,1.3019999999999998,1.463,1.3019999999999998,1.376,9636100
2013-09-06,1.339,1.45,1.314,1.382,2853100
2013-09-09,1.4069999999999998,1.469,1.401,1.45,3664500
2013-09-10,1.45,1.45,1.327,1.37,2182800
2013-09-11,1.32,1.413,1.3019999999999998,1.382,1330100
2013-09-12,1.364,1.401,1.308,1.37,856600
2013-09-13,1.327,1.376,1.327,1.376,479900
2013-09-16,1.376,1.376,1.3019999999999998,1.3330000000000002,1551200
2013-09-17,1.401,1.55,1.395,1.5430000000000001,12382700
2013-09-18,1.537,1.581,1.4569999999999999,1.5430000000000001,11304600
2013-09-19,1.5190000000000001,1.581,1.5190000000000001,1.5190000000000001,1871400
2013-09-23,1.525,1.525,1.463,1.475,688100
2013-09-24,1.475,1.55,1.4380000000000002,1.5430000000000001,926000
2013-09-25,1.5190000000000001,1.6740000000000002,1.5119999999999998,1.643,5393200
2013-09-26,1.6740000000000002,1.705,1.6119999999999999,1.6119999999999999,2311800
2013-09-27,1.6740000000000002,1.984,1.6740000000000002,1.891,22616500
2013-09-30,1.891,1.922,1.829,1.922,6110300
2013-10-02,1.922,1.953,1.86,1.922,4501000
2013-10-04,2.046,2.386,1.922,2.263,150291696
2013-10-07,2.293,2.51,2.2319999999999998,2.479,29168800
2013-10-08,2.51,2.727,2.356,2.541,27780600
2013-10-09,2.572,2.572,2.448,2.51,7966300
2013-10-10,2.479,2.727,2.417,2.541,14813900
2013-10-11,2.541,2.665,2.51,2.603,16828000
2013-10-15,2.603,2.758,2.448,2.479,18181600
2013-10-16,2.479,2.727,2.479,2.634,20522400
2013-10-17,2.665,2.727,2.572,2.603,4988200
2013-10-18,2.634,2.634,2.51,2.541,4324400
2013-10-21,2.541,2.7889999999999997,2.541,2.665,17613700
2013-10-22,2.665,2.696,2.603,2.634,4401800
2013-10-23,2.634,2.696,2.572,2.603,6056200
2013-10-24,2.603,2.665,2.541,2.634,6687000
2013-10-25,2.634,2.727,2.603,2.665,7357300
2013-10-28,2.696,2.727,2.572,2.634,6036900
2013-10-29,2.634,2.696,2.448,2.541,10060400
2013-10-30,2.572,2.634,2.51,2.634,5784400
2013-10-31,2.665,3.0989999999999998,2.665,2.727,26430200
2013-11-01,2.696,2.8510000000000004,2.603,2.665,16444900
2013-11-04,2.665,3.0989999999999998,2.603,2.665,44148000
2013-11-05,2.665,2.758,2.572,2.603,16015800
2013-11-06,2.572,2.665,2.541,2.634,15906900
2013-11-07,2.634,2.665,2.386,2.51,9959500
2013-11-08,2.479,2.479,2.293,2.356,14117700
2013-11-11,2.356,2.572,2.325,2.479,12744000
2013-11-12,2.479,2.541,2.417,2.448,5508500
2013-11-13,2.479,2.51,2.356,2.417,5986900
2013-11-14,2.448,2.541,2.386,2.51,6951600
2013-11-18,2.634,2.8510000000000004,2.51,2.541,17469300
2013-11-19,2.572,2.603,2.356,2.417,9069800
2013-11-20,2.417,2.541,2.386,2.417,3264500
2013-11-21,2.448,2.479,2.293,2.325,5963500
2013-11-22,2.386,2.479,2.263,2.325,5865100
2013-11-25,2.356,2.386,2.293,2.356,3280600
2013-11-26,2.356,2.386,2.17,2.2,3550800
2013-11-27,2.2319999999999998,2.263,2.1069999999999998,2.1390000000000002,8505200
2013-11-28,2.17,2.263,2.046,2.2,12443200
2013-11-29,2.2319999999999998,2.263,2.076,2.1390000000000002,8227700
2013-12-02,2.17,2.2,2.1390000000000002,2.17,2390900
2013-12-03,2.2,2.263,2.17,2.2319999999999998,13955600
2013-12-04,2.2319999999999998,2.263,2.1390000000000002,2.2,2056900
2013-12-05,2.2,2.2319999999999998,2.1069999999999998,2.1390000000000002,2220700
2013-12-06,2.17,2.479,2.17,2.2319999999999998,21370200
2013-12-09,2.2319999999999998,2.325,2.1390000000000002,2.17,7151600
2013-12-10,2.17,2.293,2.17,2.2,11775300
2013-12-11,2.2,2.263,2.1390000000000002,2.17,9524800
2013-12-12,2.17,2.2319999999999998,2.0140000000000002,2.17,7032300
2013-12-13,2.17,2.17,2.076,2.1390000000000002,1235000
2013-12-16,2.17,2.17,2.076,2.1069999999999998,555800
2013-12-17,2.1390000000000002,2.17,2.076,2.1069999999999998,2926500
2013-12-18,2.1390000000000002,2.1390000000000002,1.891,1.984,2847400
2013-12-19,2.17,2.2,1.55,1.581,22476100
2013-12-20,1.6119999999999999,1.984,1.4880000000000002,1.55,19445600
2013-12-23,1.581,1.581,1.364,1.395,7517000
2013-12-24,1.401,1.5430000000000001,1.401,1.482,4263900
2013-12-27,1.5,1.55,1.444,1.55,6563600
2013-12-30,1.55,1.643,1.5430000000000001,1.55,5594800
2013-12-31,1.581,1.6119999999999999,1.5430000000000001,1.581,5119700
2014-01-02,1.581,1.581,1.4880000000000002,1.525,2152100
2014-01-03,1.531,1.537,1.419,1.432,2481200
2014-01-06,1.475,1.4880000000000002,1.419,1.419,966400
2014-01-07,1.4069999999999998,1.469,1.389,1.419,1632600
2014-01-08,1.55,2.1390000000000002,1.55,1.798,41655300
2014-01-09,1.829,2.046,1.736,1.829,37995000
2014-01-10,1.891,2.046,1.86,1.953,32167900
2014-01-13,1.984,2.046,1.86,1.984,17365300
2014-01-14,1.953,1.953,1.86,1.922,14017700
2014-01-15,1.953,1.953,1.798,1.798,11685700
2014-01-16,1.767,1.86,1.55,1.643,17909700
2014-01-17,1.643,1.705,1.525,1.581,17563700
2014-01-20,1.581,1.6119999999999999,1.469,1.506,7786500
2014-01-21,1.506,1.531,1.475,1.4880000000000002,3914600
2014-01-22,1.4880000000000002,1.643,1.4880000000000002,1.55,17836300
2014-01-23,1.55,1.6119999999999999,1.537,1.581,16368300
2014-01-24,1.581,1.581,1.463,1.475,17070800
2014-01-27,1.4569999999999999,1.4569999999999999,1.389,1.426,7625100
2014-01-28,1.426,1.475,1.4069999999999998,1.419,1077700
2014-01-29,1.426,1.581,1.426,1.55,6971000
2014-01-30,1.5190000000000001,1.55,1.4880000000000002,1.537,3466900
2014-02-04,1.537,1.537,1.4380000000000002,1.463,5548900
2014-02-05,1.55,1.581,1.494,1.506,13395800
2014-02-06,1.537,1.55,1.4880000000000002,1.5119999999999998,3921100
2014-02-07,1.5119999999999998,1.5119999999999998,1.444,1.45,4942300
2014-02-10,1.432,1.525,1.432,1.469,7146800
2014-02-11,1.482,1.5,1.4569999999999999,1.475,3450000
2014-02-12,1.475,1.4880000000000002,1.444,1.463,4363100
2014-02-13,1.426,1.45,1.419,1.444,6400700
2014-02-14,1.444,1.475,1.426,1.45,3986400
2014-02-17,1.45,1.5190000000000001,1.45,1.482,5273000
2014-02-18,1.4880000000000002,1.4880000000000002,1.4380000000000002,1.463,3760500
2014-02-19,1.45,1.475,1.45,1.475,4211400
2014-02-20,14.877,14.877,14.505,14.567,383310
2014-02-21,14.567,14.815,14.443,14.629000000000001,434940
2014-02-24,14.505,14.753,14.505,14.629000000000001,450670
2014-02-25,14.567,15.124,14.505,14.690999999999999,657010
2014-02-26,14.753,16.116,14.567,15.806,1038140
2014-02-27,15.806,16.116,15.373,15.806,507050
2014-02-28,15.806,15.806,14.877,15.124,567070
2014-03-03,15.062000000000001,15.806,14.629000000000001,15.373,553760
2014-03-04,15.124,15.187000000000001,14.567,14.753,196090
2014-03-05,16.736,17.355999999999998,14.939,14.939,2408370
2014-03-06,15.495999999999999,15.806,15.124,15.187000000000001,2323030
2014-03-07,15.373,15.495999999999999,14.133,14.257,1623520
2014-03-10,14.380999999999998,14.505,13.513,13.761,984500
2014-03-11,13.761,13.947000000000001,13.575,13.823,361290
2014-03-12,14.567,15.187000000000001,13.575,14.009,1290940
2014-03-13,14.133,14.257,13.450999999999999,13.575,495680
2014-03-14,13.203,13.327,12.087,12.769,403960
2014-03-17,12.520999999999999,12.583,12.149000000000001,12.397,99860
2014-03-18,12.707,12.707,12.025,12.087,102850
2014-03-19,11.839,12.707,11.839,12.520999999999999,131400
2014-03-20,12.397,12.520999999999999,11.963,12.025,102850
2014-03-21,12.087,12.273,11.839,11.901,150280
2014-03-24,11.715,12.520999999999999,11.034,12.149000000000001,392430
2014-03-25,12.087,12.087,11.095,11.157,381860
2014-03-26,11.157,11.467,11.095,11.095,93810
2014-03-27,11.095,11.095,9.67,9.918,299420
2014-03-28,9.918,10.972000000000001,9.918,10.475999999999999,420820
2014-03-31,10.475999999999999,10.538,9.98,10.475999999999999,344680
2014-04-01,10.228,10.6,10.228,10.414000000000001,188350
2014-04-02,10.352,10.6,10.228,10.538,233040
2014-04-03,10.722999999999999,10.847999999999999,10.414000000000001,10.6,123010
2014-04-04,10.722999999999999,10.722999999999999,10.29,10.475999999999999,165760
2014-04-07,10.475999999999999,10.475999999999999,10.042,10.104,138020
2014-04-08,10.414000000000001,10.909,10.228,10.6,314670
2014-04-09,10.538,10.6,10.352,10.414000000000001,80990
2014-04-10,10.414000000000001,10.414000000000001,10.104,10.166,112530
2014-04-11,9.98,9.98,9.236,9.422,137610
2014-04-14,9.298,9.918,8.926,8.926,280140
2014-04-15,9.174,9.298,7.562,7.747999999999999,470030
2014-04-16,7.996,8.802,7.996,8.43,272800
2014-04-17,8.616,8.988,8.492,8.863999999999999,134950
2014-04-22,8.926,9.607999999999999,8.74,9.546,288940
2014-04-23,9.67,13.450999999999999,9.67,12.397,3593160
2014-04-24,12.769,13.761,10.786,11.157,1668120
2014-04-25,11.343,11.777000000000001,9.236,9.298,1212700
2014-04-28,9.298,9.67,8.306000000000001,8.43,435420
2014-04-29,8.306000000000001,9.794,8.306000000000001,9.112,398560
2014-04-30,9.298,9.67,8.677999999999999,8.802,324110
2014-05-02,8.988,9.236,8.677999999999999,8.863999999999999,131720
2014-05-05,8.926,10.228,8.802,9.05,598600
2014-05-07,9.05,9.236,8.616,8.677999999999999,105270
2014-05-08,8.802,9.05,8.616,8.74,132130
2014-05-09,8.863999999999999,9.05,8.554,8.616,91630
2014-05-12,8.677999999999999,8.863999999999999,8.492,8.554,128660
2014-05-13,8.554,8.554,8.43,8.492,56950
2014-05-14,8.554,8.802,8.492,8.554,159790
2014-05-15,8.492,8.554,8.368,8.492,36540
2014-05-16,8.43,8.554,8.368,8.554,79370
2014-05-19,8.802,10.352,8.802,8.926,833090
2014-05-20,9.112,9.607999999999999,8.802,8.988,295230
2014-05-21,8.988,9.484,8.74,8.988,252150
2014-05-22,9.174,9.422,8.492,8.492,530610
2014-05-23,8.616,9.298,8.12,8.182,641110
2014-05-26,8.306000000000001,8.802,8.058,8.244,379760
2014-05-27,8.306000000000001,8.554,7.562,7.81,702260
2014-05-28,7.81,7.872000000000001,7.562,7.81,129870
2014-05-29,7.81,8.492,7.747999999999999,8.368,2198000
2014-05-30,8.368,8.802,7.996,8.244,653290
2014-06-03,8.306000000000001,8.616,7.81,8.12,392030
2014-06-04,8.182,8.306000000000001,7.624,7.81,552710
2014-06-05,7.624,7.81,7.314,7.562,489060
2014-06-06,7.562,8.058,6.571000000000001,6.632999999999999,1649890
2014-06-09,6.632999999999999,6.756,6.571000000000001,6.756,242310
2014-06-10,6.756,7.252000000000001,6.756,7.066,631520
2014-06-11,7.066,7.066,6.694,6.756,348220
2014-06-12,6.694,7.127999999999999,6.694,6.942,180440
2014-06-13,6.88,7.127999999999999,6.818,7.004,162050
2014-06-16,6.88,6.942,6.756,6.818,206900
2014-06-17,6.756,6.88,6.694,6.756,215210
2014-06-18,6.88,8.244,6.88,7.562,4044880
2014-06-19,7.747999999999999,7.934,7.314,7.376,931990
2014-06-20,7.252000000000001,7.624,7.19,7.376,259090
2014-06-23,7.438,7.624,7.004,7.19,230460
2014-06-24,7.127999999999999,7.19,6.756,6.818,340080
2014-06-25,7.004,7.624,6.818,7.5,835270
2014-06-26,7.624,7.81,7.252000000000001,7.252000000000001,323940
2014-06-27,7.252000000000001,7.252000000000001,6.818,6.942,332820
2014-06-30,7.19,7.562,6.818,7.5,527380
2014-07-02,7.5,8.12,7.19,8.058,995950
2014-07-03,8.244,9.05,7.747999999999999,8.988,1781210
2014-07-04,9.236,10.786,9.05,10.414000000000001,4018340
2014-07-07,10.786,11.280999999999999,9.98,10.847999999999999,1519220
2014-07-08,10.847999999999999,12.707,10.166,12.645,2130490
2014-07-09,12.397,13.079,11.467,11.715,1028540
2014-07-10,11.715,12.520999999999999,11.529000000000002,11.839,548430
2014-07-11,11.777000000000001,12.273,10.352,10.972000000000001,973210
2014-07-14,10.909,10.909,10.352,10.909,270220
2014-07-15,10.6,11.343,10.6,11.219000000000001,206500
2014-07-16,11.095,13.203,10.909,12.583,1670220
2014-07-17,13.017000000000001,13.017000000000001,9.174,9.794,3521860
2014-07-18,9.732000000000001,9.732000000000001,8.368,9.36,2497830
2014-07-21,9.298,9.732000000000001,8.926,9.422,678700
2014-07-22,9.298,9.67,9.236,9.298,408720
2014-07-23,9.298,9.36,9.05,9.05,192790
2014-07-24,9.236,9.236,8.988,9.112,196740
2014-07-25,8.988,9.112,8.554,8.74,415340
2014-07-28,8.554,8.74,8.368,8.677999999999999,258690
2014-07-29,8.492,9.174,8.43,9.05,182060
2014-07-30,8.863999999999999,8.988,8.616,8.926,229330
2014-07-31,8.74,9.174,8.554,8.616,309350
2014-08-01,8.616,8.988,8.554,8.616,287650
2014-08-04,8.802,8.926,8.554,8.74,168020
2014-08-05,7.702000000000001,7.702000000000001,7.484,7.537999999999999,129973
2014-08-06,7.537999999999999,7.593,7.375,7.484,189010
2014-08-07,7.375,7.593,7.32,7.428999999999999,148645
2014-08-08,7.428999999999999,7.702000000000001,7.375,7.537999999999999,203746
2014-08-11,7.484,7.648,7.428999999999999,7.484,117250
2014-08-12,7.428999999999999,7.484,7.32,7.375,177019
2014-08-13,7.428999999999999,7.484,7.265,7.375,96564
2014-08-14,7.484,7.648,7.375,7.648,338753
2014-08-15,7.757000000000001,8.904,7.757000000000001,8.467,2176222
2014-08-18,8.467,8.686,8.03,8.249,914844
2014-08-19,8.249,8.249,7.976,8.085,158713
2014-08-20,8.139,8.412,7.976,8.249,266170
2014-08-21,8.302999999999999,8.412,8.085,8.249,154320
2014-08-22,8.139,8.576,8.085,8.467,876035
2014-08-25,8.467,8.522,8.193999999999999,8.193999999999999,145625
2014-08-26,8.249,8.412,8.139,8.193999999999999,180772
2014-08-27,8.193999999999999,8.357999999999999,8.085,8.249,2935556
2014-08-28,8.249,8.412,7.702000000000001,7.812,274957
2014-08-29,7.8660000000000005,8.249,7.8660000000000005,8.03,1274009
2014-09-01,8.631,8.959,7.921,8.139,3223510
2014-09-02,8.357999999999999,8.522,6.938,7.375,7054690
2014-09-03,7.265,7.812,7.156000000000001,7.428999999999999,3121820
2014-09-04,7.484,7.593,7.211,7.32,775078
2014-09-05,7.375,7.375,6.992000000000001,7.265,1226596
2014-09-08,7.211,7.211,6.938,7.047000000000001,685470
2014-09-10,7.047000000000001,7.32,6.938,7.047000000000001,624327
2014-09-11,7.101,7.211,6.827999999999999,6.992000000000001,820843
2014-09-12,6.992000000000001,7.047000000000001,6.882999999999999,6.938,709908
2014-09-15,6.992000000000001,7.32,6.882999999999999,7.211,746337
2014-09-16,7.101,7.32,7.047000000000001,7.101,304521
2014-09-17,7.101,7.265,7.047000000000001,7.156000000000001,305619
2014-09-18,7.101,7.211,7.047000000000001,7.047000000000001,264248
2014-09-19,7.156000000000001,7.156000000000001,7.047000000000001,7.101,270746
2014-09-22,7.101,7.484,7.101,7.211,663319
2014-09-23,7.211,7.211,7.047000000000001,7.101,257061
2014-09-24,7.047000000000001,7.211,6.992000000000001,7.047000000000001,335184
2014-09-25,7.211,7.211,6.882999999999999,6.938,329234
2014-09-26,6.992000000000001,6.992000000000001,6.774,6.774,199353
2014-09-29,6.718999999999999,6.827999999999999,6.172999999999999,6.337000000000001,502684
2014-09-30,6.228,6.228,5.736000000000001,6.064,398339
2014-10-03,6.0089999999999995,6.0089999999999995,5.681,5.9,210703
2014-10-06,6.0089999999999995,6.391,6.0089999999999995,6.391,258298
2014-10-07,6.446000000000001,6.61,6.282,6.282,223883
2014-10-08,6.282,6.61,6.064,6.501,265071
2014-10-09,6.446000000000001,7.101,6.446000000000001,6.992000000000001,243745
2014-10-10,6.665,6.882999999999999,6.501,6.501,313125
2014-10-13,6.501,6.827999999999999,6.391,6.446000000000001,307450
2014-10-14,6.61,6.665,6.391,6.555,144526
2014-10-15,6.501,6.555,6.282,6.391,96564
2014-10-16,6.282,6.501,6.172999999999999,6.228,150110
2014-10-17,6.501,6.501,6.117999999999999,6.117999999999999,144069
2014-10-20,6.446000000000001,7.101,6.446000000000001,6.882999999999999,1391900
2014-10-21,6.938,7.047000000000001,6.555,6.665,341225
2014-10-22,6.665,6.718999999999999,6.446000000000001,6.446000000000001,175555
2014-10-23,6.446000000000001,6.446000000000001,6.282,6.446000000000001,153588
2014-10-24,6.501,6.501,6.282,6.282,92629
2014-10-27,6.228,6.391,6.172999999999999,6.337000000000001,69563
2014-10-28,6.228,6.555,6.172999999999999,6.446000000000001,73133
2014-10-29,6.446000000000001,6.665,6.228,6.391,132993
2014-10-30,6.391,6.391,6.282,6.282,60959
2014-10-31,6.282,6.665,6.282,6.501,214730
2014-11-03,6.446000000000001,6.501,6.282,6.337000000000001,70112
2014-11-04,6.337000000000001,6.718999999999999,6.282,6.555,197431
2014-11-05,6.501,6.555,6.337000000000001,6.446000000000001,109653
2014-11-06,6.337000000000001,6.446000000000001,6.228,6.337000000000001,211160
2014-11-07,6.337000000000001,6.337000000000001,6.228,6.282,156517
2014-11-10,6.282,6.391,6.228,6.282,75879
2014-11-11,6.282,6.282,6.172999999999999,6.228,80821
2014-11-12,6.172999999999999,6.228,6.117999999999999,6.117999999999999,210794
2014-11-13,6.064,6.117999999999999,5.9,6.064,249969
2014-11-14,5.954,6.228,5.954,6.228,141963
2014-11-17,6.0089999999999995,6.282,6.0089999999999995,6.0089999999999995,266444
2014-11-18,6.0089999999999995,6.172999999999999,5.845,6.0089999999999995,188644
2014-11-19,6.0089999999999995,6.117999999999999,5.9,5.954,218483
2014-11-20,6.0089999999999995,6.172999999999999,6.0089999999999995,6.064,98853
2014-11-21,6.0089999999999995,6.064,5.9,6.0089999999999995,160361
2014-11-24,5.9,6.228,5.9,6.228,72126
2014-11-25,6.228,6.282,6.064,6.172999999999999,85032
2014-11-26,6.172999999999999,6.882999999999999,6.172999999999999,6.61,819195
2014-11-27,6.774,7.921,6.774,7.537999999999999,6084103
2014-11-28,7.537999999999999,7.593,6.938,6.992000000000001,1143395
2014-12-01,6.938,7.156000000000001,6.555,6.555,414083
2014-12-02,6.718999999999999,7.047000000000001,6.555,6.882999999999999,250244
2014-12-03,6.882999999999999,6.938,6.61,6.718999999999999,76153
2014-12-04,6.61,6.774,6.282,6.61,351659
2014-12-05,6.446000000000001,6.555,6.337000000000001,6.446000000000001,114962
2014-12-08,6.391,6.446000000000001,5.954,6.064,256376
2014-12-09,6.064,6.064,5.736000000000001,5.845,422869
2014-12-10,5.572,6.228,5.572,6.228,244935
2014-12-11,6.172999999999999,6.391,6.172999999999999,6.337000000000001,172443
2014-12-12,6.228,6.446000000000001,6.172999999999999,6.172999999999999,89425
2014-12-15,6.172999999999999,6.446000000000001,6.064,6.337000000000001,194319
2014-12-16,6.282,6.446000000000001,6.0089999999999995,6.282,224066
2014-12-17,6.282,6.665,6.228,6.665,676866
2014-12-18,6.61,6.938,6.555,6.665,440169
2014-12-19,6.827999999999999,6.882999999999999,6.391,6.555,265071
2014-12-22,6.555,6.555,6.172999999999999,6.282,144709
2014-12-23,6.117999999999999,6.282,6.064,6.172999999999999,125762
2014-12-24,6.0089999999999995,6.228,6.0089999999999995,6.172999999999999,75055
2014-12-29,6.172999999999999,6.228,5.9,6.064,156059
2014-12-30,6.172999999999999,6.172999999999999,5.79,6.0089999999999995,209146
2014-12-31,6.117999999999999,6.446000000000001,5.9,6.117999999999999,147181
2015-01-02,6.172999999999999,6.228,5.79,6.0089999999999995,223883
2015-01-05,6.0089999999999995,6.117999999999999,5.79,6.0089999999999995,301500
2015-01-06,5.845,6.0089999999999995,5.627000000000001,5.9,56932
2015-01-07,5.9,6.172999999999999,5.845,6.117999999999999,230839
2015-01-08,6.282,6.282,5.79,5.954,308640
2015-01-09,5.954,6.117999999999999,5.845,6.0089999999999995,434768
2015-01-12,6.0089999999999995,6.117999999999999,5.79,5.954,123749
2015-01-13,6.117999999999999,6.282,5.845,6.0089999999999995,765467
2015-01-14,5.954,6.0089999999999995,5.845,5.9,193220
2015-01-15,5.954,5.954,5.736000000000001,5.9,115328
2015-01-16,5.79,5.9,5.736000000000001,5.9,207774
2015-01-19,6.117999999999999,6.172999999999999,5.681,5.79,676500
2015-01-20,5.845,5.9,5.681,5.9,437423
2015-01-21,5.845,5.9,5.681,5.9,629453
2015-01-22,5.79,5.79,5.736000000000001,5.79,128417
2015-01-23,6.0089999999999995,6.064,5.736000000000001,5.954,1339178
2015-01-26,6.064,6.064,5.736000000000001,5.9,827799
2015-01-27,5.845,5.845,5.353,5.462999999999999,1894858
2015-01-28,5.353,5.517,5.353,5.462999999999999,235965
2015-01-29,5.462999999999999,5.462999999999999,5.2989999999999995,5.2989999999999995,342506
2015-01-30,5.353,5.462999999999999,5.08,5.135,387813
2015-02-02,4.916,5.08,4.643,4.862,356693
2015-02-03,4.8069999999999995,4.916,4.753,4.8069999999999995,66634
2015-02-04,4.698,4.698,3.66,3.715,5036174
2015-02-05,3.715,3.715,3.2230000000000003,3.387,1837926
2015-02-06,3.332,3.4960000000000004,3.278,3.387,226720
2015-02-09,3.278,3.387,3.2230000000000003,3.278,419666
2015-02-10,3.278,3.66,3.2230000000000003,3.605,714302
2015-02-11,3.605,3.605,3.332,3.332,201549
2015-02-12,3.332,3.4960000000000004,3.332,3.4960000000000004,122284
2015-02-13,3.4960000000000004,3.4960000000000004,3.332,3.4419999999999997,157249
2015-02-16,3.4419999999999997,3.4419999999999997,3.278,3.332,231571
2015-02-17,3.332,3.387,3.332,3.332,66817
2015-02-18,3.332,3.332,3.278,3.332,101415
2015-02-23,3.332,3.4419999999999997,3.278,3.387,204204
2015-02-24,3.387,3.387,3.278,3.387,139126
2015-02-25,3.278,3.387,3.278,3.387,52264
2015-02-26,3.332,3.387,3.278,3.332,251891
2015-02-27,3.332,3.387,3.332,3.332,139034
2015-03-02,3.278,3.387,3.278,3.332,220405
2015-03-03,3.332,3.332,2.95,3.0589999999999997,457468
2015-03-04,2.95,3.66,2.5669999999999997,3.551,2295394
2015-03-05,3.551,3.988,3.332,3.332,2098421
2015-03-06,3.332,3.4419999999999997,3.332,3.387,189742
2015-03-09,3.332,3.715,3.332,3.387,444562
2015-03-10,3.387,3.387,3.332,3.387,233585
2015-03-11,3.332,3.4419999999999997,3.332,3.387,256101
2015-03-12,3.332,3.387,3.2230000000000003,3.332,309281
2015-03-13,3.332,3.387,3.278,3.332,226995
2015-03-16,3.387,4.753,3.387,4.534,6477134
2015-03-17,4.425,4.425,3.4419999999999997,3.66,1950508
2015-03-18,3.605,3.715,3.387,3.4960000000000004,448406
2015-03-19,3.4960000000000004,3.4960000000000004,3.332,3.4960000000000004,261685
2015-03-20,3.4960000000000004,3.878,3.4960000000000004,3.4960000000000004,451610
2015-03-23,3.4419999999999997,3.551,3.4419999999999997,3.4419999999999997,98120
2015-03-24,3.551,3.824,3.2230000000000003,3.2230000000000003,1609192
2015-03-25,3.278,3.4419999999999997,2.95,3.114,1027152
2015-03-26,3.114,3.2230000000000003,2.7039999999999997,2.786,3203099
2015-03-27,2.786,2.895,2.7039999999999997,2.895,875029
2015-03-30,2.895,3.168,2.5669999999999997,2.622,2456030
2015-03-31,2.622,2.622,2.458,2.4859999999999998,317061
2015-04-01,2.458,2.5669999999999997,2.404,2.5669999999999997,639888
2015-04-02,2.5669999999999997,2.7039999999999997,2.458,2.622,321271
2015-04-08,2.5669999999999997,2.7310000000000003,2.5669999999999997,2.7039999999999997,363375
2015-04-09,2.7310000000000003,2.7310000000000003,2.6489999999999996,2.6489999999999996,298114
2015-04-10,2.7039999999999997,2.7039999999999997,2.622,2.7039999999999997,298755
2015-04-13,2.786,3.332,2.786,3.2230000000000003,3031114
2015-04-14,3.2230000000000003,3.278,3.114,3.168,962715
2015-04-15,3.2230000000000003,3.66,3.2230000000000003,3.4960000000000004,1259364
2015-04-16,3.551,3.605,3.332,3.387,947337
2015-04-17,3.332,3.4960000000000004,3.332,3.4419999999999997,748351
2015-04-20,3.332,3.387,3.168,3.278,571881
2015-04-21,3.387,3.66,3.278,3.551,1736877
2015-04-22,3.551,3.551,3.387,3.4419999999999997,593116
2015-04-23,3.551,4.971,3.332,4.5889999999999995,4852473
2015-04-24,4.37,4.425,3.7689999999999997,3.988,2624354
2015-04-27,3.988,4.534,3.9330000000000003,4.479,2421340
2015-04-28,4.643,4.8069999999999995,4.316,4.479,2071694
2015-04-29,4.425,4.479,4.0969999999999995,4.261,1115570
2015-04-30,4.261,4.479,4.0969999999999995,4.425,912556
2015-05-04,4.479,4.479,4.152,4.479,1387964
2015-05-05,4.534,4.5889999999999995,4.206,4.261,569867
2015-05-06,4.206,4.261,3.988,4.152,598424
2015-05-07,4.0969999999999995,4.0969999999999995,3.715,3.824,843542
2015-05-08,3.824,4.042,3.7689999999999997,3.824,583963
2015-05-11,3.824,3.824,3.551,3.7689999999999997,550188
2015-05-12,3.66,3.824,3.66,3.715,166951
2015-05-13,3.715,3.824,3.66,3.715,193312
2015-05-14,3.824,4.042,3.7689999999999997,3.9330000000000003,840430
2015-05-15,3.9330000000000003,4.152,3.9330000000000003,4.042,330973
2015-05-18,4.0969999999999995,4.0969999999999995,3.988,3.988,387447
2015-05-19,4.042,4.042,3.715,3.824,1453316
2015-05-20,3.824,4.042,3.7689999999999997,3.988,757870
2015-05-21,3.988,4.206,3.824,4.0969999999999995,912831
2015-05-22,4.206,4.5889999999999995,4.206,4.37,1829322
2015-05-26,4.479,4.534,4.316,4.37,420032
2015-05-27,4.206,4.479,3.824,4.37,5045216
2015-05-28,4.37,4.534,4.152,4.316,1471600
2015-05-29,4.425,5.2989999999999995,4.316,4.862,4283152
2015-06-01,4.862,5.026,4.698,4.8069999999999995,1881407
2015-06-02,4.916,6.064,4.862,5.08,5870437
2015-06-03,5.2989999999999995,5.2989999999999995,4.862,4.862,903787
2015-06-04,4.971,4.971,4.5889999999999995,4.698,692975
2015-06-05,4.862,4.862,4.5889999999999995,4.643,274408
2015-06-08,4.698,4.862,4.643,4.8069999999999995,231209
2015-06-09,4.698,4.698,4.316,4.5889999999999995,429753
2015-06-10,4.5889999999999995,4.698,4.206,4.37,464333
2015-06-11,4.479,4.643,4.479,4.479,549364
2015-06-12,4.534,4.5889999999999995,4.316,4.425,585427
2015-06-15,4.534,4.534,4.316,4.316,172214
2015-06-16,4.316,4.316,4.0969999999999995,4.206,244788
2015-06-17,4.261,4.261,4.042,4.261,97022
2015-06-18,4.261,4.5889999999999995,4.206,4.425,471930
2015-06-19,4.5889999999999995,4.5889999999999995,4.37,4.37,218210
2015-06-22,4.534,4.643,4.479,4.479,107383
2015-06-23,4.479,4.479,4.37,4.425,109836
2015-06-24,4.479,4.5889999999999995,4.37,4.534,231407
2015-06-25,4.425,4.5889999999999995,4.37,4.479,145075
2015-06-26,4.425,4.862,4.425,4.8069999999999995,712392
2015-06-29,4.862,5.2989999999999995,4.37,4.8069999999999995,1063764
2015-06-30,4.753,4.8069999999999995,3.824,4.8069999999999995,2785721
2015-07-02,4.8069999999999995,4.8069999999999995,4.425,4.5889999999999995,194960
2015-07-03,4.5889999999999995,4.5889999999999995,3.824,3.878,522637
2015-07-06,3.551,3.7689999999999997,2.7310000000000003,2.95,971868
2015-07-07,3.168,3.168,2.677,2.841,573071
2015-07-08,2.24,2.349,2.076,2.185,1126096
2015-07-09,2.24,2.677,2.185,2.5669999999999997,984682
2015-07-10,2.841,3.005,2.7310000000000003,2.841,580484
2015-07-13,2.895,3.278,2.895,3.2230000000000003,622680
2015-07-14,3.278,3.4960000000000004,3.2230000000000003,3.278,328319
2015-07-15,3.4960000000000004,4.042,2.458,2.5669999999999997,11022450
2015-07-16,2.952,3.3930000000000002,2.908,3.173,5771952
2015-07-17,3.217,3.3489999999999998,2.9960000000000004,3.173,1329863
2015-07-20,3.0839999999999996,3.217,2.9960000000000004,3.217,753280
2015-07-21,3.217,3.9219999999999997,3.217,3.8339999999999996,4511625
2015-07-22,3.8339999999999996,3.9219999999999997,3.3930000000000002,3.525,1523127
2015-07-23,3.569,4.671,3.525,3.878,6263056
2015-07-24,4.01,4.23,3.701,3.8339999999999996,799974
2015-07-27,3.878,4.053999999999999,3.173,3.3489999999999998,2548228
2015-07-28,3.3489999999999998,3.7889999999999997,2.9960000000000004,3.04,5813482
2015-07-29,3.128,3.4810000000000003,2.688,2.82,10545696
2015-07-30,2.82,2.952,2.424,2.6,9993146
2015-07-31,2.6439999999999997,2.82,2.036,2.0709999999999997,24798224
2015-08-03,2.0709999999999997,2.186,1.93,1.956,11150368
2015-08-04,1.9480000000000002,2.2030000000000003,1.9480000000000002,2.177,12546197
2015-08-05,2.177,2.177,2.009,2.062,4881201
2015-08-06,2.0269999999999997,2.106,1.983,2.036,2048160
2015-08-07,2.053,2.124,2.001,2.0180000000000002,3052949
2015-08-10,2.009,2.0709999999999997,1.965,2.0269999999999997,2129292
2015-08-11,2.0269999999999997,2.115,1.992,1.992,2608141
2015-08-12,1.992,1.992,1.798,1.824,3395803
2015-08-13,1.824,1.851,1.745,1.78,2226311
2015-08-14,1.71,1.912,1.692,1.8419999999999999,4738902
2015-08-17,1.8419999999999999,1.9040000000000001,1.7890000000000001,1.824,7872598
2015-08-18,1.824,1.8419999999999999,1.771,1.7890000000000001,2764266
2015-08-19,1.78,1.78,1.6569999999999998,1.692,2047497
2015-08-20,1.6480000000000001,1.6480000000000001,1.5419999999999998,1.56,2644600
2015-08-21,1.4980000000000002,1.507,1.4280000000000002,1.48,4666513
2015-08-24,1.401,1.401,1.075,1.2429999999999999,2426743
2015-08-25,1.234,1.3219999999999998,1.163,1.207,1621572
2015-08-26,1.207,1.278,1.181,1.19,633405
2015-08-27,1.225,1.3659999999999999,1.225,1.3219999999999998,1715121
2015-08-28,1.3659999999999999,1.392,1.278,1.339,956822
2015-08-31,1.339,1.339,1.2429999999999999,1.278,1008313
2015-09-01,1.287,1.287,1.216,1.216,312952
2015-09-02,1.19,1.251,1.146,1.216,615583
2015-09-04,1.251,1.419,1.251,1.304,1426064
2015-09-07,1.3130000000000002,1.3130000000000002,1.26,1.2690000000000001,277438
2015-09-08,1.234,1.357,1.234,1.348,1166600
2015-09-09,1.3659999999999999,1.454,1.357,1.4280000000000002,1273445
2015-09-10,1.4369999999999998,1.4369999999999998,1.348,1.401,704090
2015-09-11,1.41,1.6130000000000002,1.41,1.507,2501786
2015-09-14,1.5419999999999998,1.577,1.463,1.463,625414
2015-09-15,1.472,1.569,1.463,1.516,1552289
2015-09-16,1.525,1.577,1.525,1.551,708945
2015-09-17,1.551,1.595,1.5419999999999998,1.5419999999999998,879815
2015-09-18,1.569,1.569,1.507,1.525,322259
2015-09-21,1.516,1.63,1.516,1.595,2515773
2015-09-22,1.6569999999999998,1.692,1.569,1.5859999999999999,746075
2015-09-23,1.5419999999999998,1.5419999999999998,1.419,1.48,1109773
2015-09-24,1.489,1.507,1.48,1.507,81926
2015-09-25,1.551,1.56,1.454,1.463,532748
2015-09-29,1.419,1.454,1.3219999999999998,1.41,500976
2015-09-30,1.472,1.56,1.41,1.419,5460246
2015-10-02,1.445,1.472,1.4280000000000002,1.463,634816
2015-10-05,1.472,1.4980000000000002,1.4369999999999998,1.472,219567
2015-10-06,1.472,1.48,1.4369999999999998,1.472,561914
2015-10-07,1.472,1.5330000000000001,1.445,1.5330000000000001,419717
2015-10-08,1.525,1.886,1.525,1.815,8572101
2015-10-09,1.8419999999999999,2.247,1.771,1.851,22179162
2015-10-12,1.886,2.001,1.8330000000000002,1.921,4665045
2015-10-13,1.868,2.053,1.868,1.992,3523643
2015-10-14,1.992,2.194,1.921,2.15,9639856
2015-10-15,2.15,2.168,2.08,2.08,2224628
2015-10-16,2.115,2.1590000000000003,2.009,2.0180000000000002,1744046
2015-10-19,1.992,2.062,1.9040000000000001,1.983,1219024
2015-10-20,1.983,2.001,1.895,1.921,861248
2015-10-22,1.868,1.868,1.807,1.8419999999999999,694332
2015-10-23,1.859,1.939,1.859,1.859,512891
2015-10-26,1.8769999999999998,1.9480000000000002,1.8330000000000002,1.9040000000000001,898694
2015-10-27,1.939,1.939,1.8419999999999999,1.886,474311
2015-10-28,1.895,1.93,1.745,1.771,2655323
2015-10-29,1.815,1.815,1.736,1.745,956564
2015-10-30,1.78,1.78,1.7269999999999999,1.736,180987
2015-11-02,1.736,1.736,1.71,1.71,243964
2015-11-03,1.745,1.745,1.6219999999999999,1.639,562251
2015-11-04,1.639,1.683,1.604,1.6740000000000002,527642
2015-11-05,1.71,1.7269999999999999,1.6569999999999998,1.6740000000000002,811888
2015-11-06,1.6569999999999998,1.6740000000000002,1.5859999999999999,1.6130000000000002,570194
2015-11-09,1.6130000000000002,1.639,1.6130000000000002,1.6130000000000002,503813
2015-11-10,1.5859999999999999,1.754,1.5859999999999999,1.7009999999999998,5261103
2015-11-11,1.71,1.71,1.6569999999999998,1.6740000000000002,212759
2015-11-12,1.639,1.639,1.63,1.639,44254
2015-11-13,1.63,1.7180000000000002,1.4980000000000002,1.683,985499
2015-11-16,1.595,1.63,1.595,1.6130000000000002,373321
2015-11-17,1.6130000000000002,1.666,1.595,1.6569999999999998,209355
2015-11-18,1.604,1.6480000000000001,1.604,1.6480000000000001,42552
2015-11-19,1.666,1.6740000000000002,1.6130000000000002,1.6130000000000002,245666
2015-11-20,1.63,1.6740000000000002,1.63,1.6569999999999998,251680
2015-11-23,1.6569999999999998,1.6569999999999998,1.6219999999999999,1.6219999999999999,264388
2015-11-24,1.595,1.71,1.595,1.63,57303
2015-11-25,1.595,1.6740000000000002,1.595,1.63,169526
2015-11-26,1.63,1.6480000000000001,1.5330000000000001,1.5330000000000001,666645
2015-11-27,1.5419999999999998,1.551,1.472,1.507,477108
2015-11-30,1.472,1.754,1.454,1.56,7318341
2015-12-01,1.5859999999999999,1.6569999999999998,1.489,1.525,2748846
2015-12-02,1.5419999999999998,1.551,1.401,1.41,3279325
2015-12-03,1.4280000000000002,1.4980000000000002,1.3219999999999998,1.348,5090896
2015-12-04,1.339,1.392,1.304,1.304,3462014
2015-12-07,1.339,1.454,1.2690000000000001,1.296,5372873
2015-12-08,1.348,1.3659999999999999,1.225,1.251,6147883
2015-12-09,1.2690000000000001,1.304,1.207,1.278,5630453
2015-12-10,1.278,1.304,1.19,1.19,3472226
2015-12-11,1.216,1.278,1.19,1.198,3552960
2015-12-14,1.207,1.207,1.137,1.172,670049
2015-12-15,1.137,1.163,1.137,1.155,468070
2015-12-16,1.172,1.207,1.163,1.163,728487
2015-12-17,1.172,1.2429999999999999,1.172,1.207,270062
2015-12-18,1.207,1.339,1.207,1.2429999999999999,1962489
2015-12-21,1.26,1.287,1.207,1.225,663808
2015-12-22,1.216,1.26,1.207,1.216,337010
2015-12-23,1.163,1.2429999999999999,1.163,1.234,1154005
2015-12-24,1.2429999999999999,1.251,1.225,1.234,154264
2015-12-28,1.225,1.251,1.207,1.225,2553223
2015-12-29,1.216,1.216,1.198,1.198,284246
2015-12-30,1.207,1.207,1.181,1.198,149782
2015-12-31,1.207,1.207,1.19,1.198,198250
2016-01-04,1.207,1.207,1.137,1.163,398285
2016-01-05,1.163,1.163,1.128,1.163,98720
2016-01-06,1.146,1.278,1.146,1.181,444241
2016-01-07,1.163,1.163,1.058,1.0659999999999998,1405507
2016-01-08,1.0490000000000002,1.102,1.04,1.093,163966
2016-01-11,1.058,1.058,0.996,1.031,536720
2016-01-12,1.014,1.058,1.005,1.058,92479
2016-01-13,1.04,1.0659999999999998,0.996,1.0490000000000002,226376
2016-01-14,1.031,1.128,0.961,1.058,1181946
2016-01-15,1.058,1.119,0.873,0.9159999999999999,3051814
2016-01-18,0.9079999999999999,0.9079999999999999,0.8370000000000001,0.846,736135
2016-01-19,0.8370000000000001,0.9079999999999999,0.802,0.8370000000000001,1166486
2016-01-20,0.8109999999999999,0.828,0.775,0.8109999999999999,1180216
2016-01-21,0.7929999999999999,0.7929999999999999,0.6609999999999999,0.705,1099538
2016-01-22,0.723,0.8109999999999999,0.687,0.732,3090962
2016-01-25,0.7490000000000001,0.7490000000000001,0.7140000000000001,0.723,344386
2016-01-26,0.705,0.732,0.643,0.643,1770155
2016-01-27,0.6609999999999999,0.732,0.643,0.705,602533
2016-01-28,0.705,0.784,0.705,0.723,463075
2016-01-29,0.723,0.775,0.705,0.723,267225
2016-02-01,0.696,0.696,0.493,0.52,9510451
2016-02-02,0.511,0.564,0.493,0.529,2160514
2016-02-03,0.52,0.573,0.493,0.52,5303635
2016-02-04,0.5379999999999999,0.626,0.5379999999999999,0.555,9575288
2016-02-05,0.5379999999999999,0.546,0.52,0.529,1097836
2016-02-11,0.502,0.52,0.467,0.493,916622
2016-02-12,0.493,0.546,0.485,0.511,1240924
2016-02-15,0.5379999999999999,0.634,0.5379999999999999,0.573,6852768
2016-02-16,0.5820000000000001,0.617,0.529,0.5820000000000001,1944333
2016-02-17,0.5820000000000001,0.5820000000000001,0.529,0.5379999999999999,1128160
2016-02-18,0.555,0.828,0.546,0.767,13429077
2016-02-19,0.7929999999999999,1.102,0.767,1.058,34344248
2016-02-22,1.0659999999999998,1.093,0.8640000000000001,0.8809999999999999,10793971
2016-02-23,0.8809999999999999,1.181,0.8809999999999999,1.005,21036264
2016-02-25,1.014,1.225,0.987,1.022,14463912
2016-02-26,1.022,1.146,0.987,1.022,7077781
2016-02-29,1.022,1.04,0.8370000000000001,0.8640000000000001,4833883
2016-03-01,0.8809999999999999,0.9159999999999999,0.723,0.7490000000000001,6527100
2016-03-02,0.723,0.7929999999999999,0.679,0.767,2041351
2016-03-03,0.767,0.767,0.643,0.652,6667015
2016-03-04,0.652,0.7140000000000001,0.652,0.679,2654324
2016-03-07,0.705,0.7140000000000001,0.67,0.705,1969297
2016-03-08,0.687,0.705,0.67,0.696,374059
2016-03-09,0.679,0.8640000000000001,0.679,0.82,10724753
2016-03-10,0.8109999999999999,0.82,0.732,0.775,2762462
2016-03-11,0.775,0.846,0.775,0.7929999999999999,2334108
2016-03-14,0.775,0.8109999999999999,0.723,0.7490000000000001,1374139
2016-03-15,0.74,0.74,0.67,0.679,2207587
2016-03-16,0.687,0.758,0.679,0.723,2420913
2016-03-17,0.723,0.7929999999999999,0.679,0.758,9217909
2016-03-18,0.758,0.943,0.74,0.8109999999999999,3950962
2016-03-21,0.7929999999999999,0.9159999999999999,0.784,0.7929999999999999,3047970
2016-03-22,0.7929999999999999,0.873,0.775,0.802,1112134
2016-03-23,0.775,0.9079999999999999,0.767,0.8370000000000001,1382082
2016-03-24,0.8370000000000001,0.934,0.8109999999999999,0.899,2633194
2016-03-29,0.925,0.925,0.8809999999999999,0.8809999999999999,568038
2016-03-30,0.8640000000000001,0.8640000000000001,0.855,0.873,119163
2016-03-31,0.8640000000000001,1.022,0.8640000000000001,1.014,2955187
2016-04-01,0.996,1.075,0.9520000000000001,0.978,907204
2016-04-05,0.925,0.9520000000000001,0.8809999999999999,0.89,661361
2016-04-06,0.8640000000000001,0.89,0.8370000000000001,0.873,444241
2016-04-07,0.828,0.828,0.828,0.828,24396
2016-04-08,0.802,0.846,0.802,0.8370000000000001,129584
2016-04-11,0.8370000000000001,0.899,0.8370000000000001,0.8370000000000001,325096
2016-04-12,0.828,0.855,0.82,0.8370000000000001,420423
2016-04-13,0.8370000000000001,0.8809999999999999,0.82,0.8809999999999999,6749508
2016-04-14,0.846,0.8640000000000001,0.8109999999999999,0.846,11019212
2016-04-15,0.8370000000000001,0.89,0.8370000000000001,0.89,21496030
2016-04-18,0.8640000000000001,0.89,0.855,0.8640000000000001,14384207
2016-04-19,0.873,0.961,0.855,0.943,7577725
2016-04-20,0.89,0.9159999999999999,0.89,0.9079999999999999,3065431
2016-04-21,0.89,0.89,0.8109999999999999,0.846,6670986
2016-04-22,0.82,0.8370000000000001,0.802,0.8109999999999999,3951076
2016-04-25,0.8370000000000001,0.8370000000000001,0.784,0.802,710899
2016-04-26,0.828,0.846,0.7490000000000001,0.767,10150701
2016-04-27,0.7490000000000001,0.828,0.7490000000000001,0.775,7556063
2016-04-28,0.775,0.802,0.758,0.775,1344069
2016-04-29,0.775,0.8109999999999999,0.775,0.784,45212
2016-05-03,0.758,0.767,0.705,0.7490000000000001,1164217
2016-05-04,0.74,0.74,0.696,0.74,426426
2016-05-05,0.723,0.7490000000000001,0.687,0.7140000000000001,816143
2016-05-06,0.74,0.8109999999999999,0.723,0.758,3034567
2016-05-09,0.758,0.8109999999999999,0.7490000000000001,0.784,906069
2016-05-10,0.784,0.784,0.784,0.784,226943
2016-05-11,0.784,0.828,0.784,0.82,781364
2016-05-12,0.8370000000000001,1.093,0.828,0.8640000000000001,23962600
2016-05-13,0.8640000000000001,0.8640000000000001,0.723,0.758,3646291
2016-05-16,0.74,0.802,0.732,0.802,607072
2016-05-17,0.8109999999999999,0.828,0.7929999999999999,0.802,295536
2016-05-18,0.775,0.8109999999999999,0.758,0.758,511265
2016-05-19,0.74,0.767,0.74,0.758,187852
2016-05-20,0.758,0.784,0.758,0.784,102124
2016-05-23,0.784,0.784,0.758,0.758,69308
2016-05-24,0.7490000000000001,0.82,0.74,0.7929999999999999,589366
2016-05-25,0.802,0.828,0.802,0.8109999999999999,3035361
2016-05-26,0.828,0.8370000000000001,0.758,0.767,1446761
2016-05-27,0.758,0.7929999999999999,0.758,0.758,8079167
2016-05-30,0.758,0.775,0.7490000000000001,0.775,363109
2016-05-31,0.7490000000000001,0.784,0.7490000000000001,0.758,300132
2016-06-01,0.7490000000000001,0.7929999999999999,0.7490000000000001,0.7929999999999999,648489
2016-06-02,0.758,0.784,0.758,0.775,358570
2016-06-03,0.784,0.784,0.767,0.775,265523
2016-06-06,0.758,0.775,0.7490000000000001,0.758,130492
2016-06-07,0.758,0.775,0.758,0.775,287083
2016-06-08,0.775,0.8109999999999999,0.775,0.8109999999999999,753643
2016-06-10,0.7929999999999999,0.7929999999999999,0.775,0.7929999999999999,39942
2016-06-13,0.7929999999999999,0.7929999999999999,0.7929999999999999,0.784,23262
2016-06-14,0.7929999999999999,0.7929999999999999,0.758,0.784,205383
2016-06-15,0.784,0.784,0.758,0.775,340414
2016-06-16,0.767,0.767,0.74,0.7490000000000001,568492
2016-06-17,0.758,0.758,0.7490000000000001,0.7490000000000001,122549
2016-06-20,0.74,0.7490000000000001,0.732,0.74,291054
2016-06-21,0.732,0.775,0.723,0.758,170548
2016-06-22,0.74,0.767,0.732,0.758,295026
2016-06-23,0.7490000000000001,0.767,0.7490000000000001,0.758,113471
2016-06-24,0.732,0.732,0.687,0.732,665510
2016-06-27,0.732,0.732,0.705,0.723,237723
2016-06-28,0.723,0.723,0.7140000000000001,0.7140000000000001,153186
2016-06-29,0.723,0.723,0.705,0.723,85104
2016-06-30,0.723,0.723,0.696,0.7140000000000001,162605
2016-07-04,0.705,0.7140000000000001,0.696,0.705,57870
2016-07-05,0.696,0.705,0.696,0.705,353237
2016-07-06,0.696,0.705,0.67,0.705,27233
2016-07-07,0.67,0.687,0.6609999999999999,0.687,164534
2016-07-08,0.679,0.7140000000000001,0.679,0.705,115017
2016-07-11,0.687,0.705,0.687,0.687,83118
2016-07-12,0.7140000000000001,0.7140000000000001,0.705,0.705,91912
2016-07-13,0.608,0.652,0.5820000000000001,0.599,14051509
2016-07-14,0.591,0.608,0.5820000000000001,0.599,1168926
2016-07-15,0.608,0.634,0.608,0.608,1099538
2016-07-18,0.599,0.608,0.5820000000000001,0.599,13353490
2016-07-19,0.5820000000000001,0.608,0.573,0.573,8582413
2016-07-20,0.5820000000000001,0.599,0.5820000000000001,0.591,4900832
2016-07-21,0.591,0.652,0.591,0.634,19191822
2016-07-22,0.634,0.634,0.599,0.617,164534
2016-07-25,0.599,0.634,0.599,0.626,111202
2016-07-26,0.599,0.626,0.599,0.626,350627
2016-07-27,0.617,0.643,0.617,0.643,725707
2016-07-28,0.626,0.643,0.52,0.529,3338897
2016-07-29,0.5379999999999999,0.573,0.5379999999999999,0.555,3686687
2016-08-01,0.5379999999999999,0.546,0.441,0.5379999999999999,3053517
2016-08-03,0.546,0.617,0.546,0.617,11363598
2016-08-04,0.617,0.7140000000000001,0.617,0.705,4187316
2016-08-05,0.705,0.74,0.687,0.723,1627746
2016-08-08,0.705,0.705,0.67,0.705,358575
2016-08-09,0.67,0.696,0.67,0.679,192618
2016-08-10,0.679,0.696,0.626,0.67,591186
2016-08-11,0.67,0.802,0.6609999999999999,0.7929999999999999,3478680
2016-08-12,0.775,0.7929999999999999,0.7490000000000001,0.767,7508405
2016-08-15,0.7490000000000001,0.784,0.7490000000000001,0.775,2186027
2016-08-16,0.767,0.775,0.7490000000000001,0.775,3636195
2016-08-17,0.775,0.775,0.74,0.74,189270
2016-08-18,0.732,0.758,0.723,0.7490000000000001,184958
2016-08-19,0.723,0.758,0.723,0.7490000000000001,9775565
2016-08-22,0.732,0.74,0.723,0.723,13898550
2016-08-23,0.82,0.82,0.82,0.82,0
2016-08-24,0.687,0.705,0.687,0.687,282544
2016-08-25,0.679,0.679,0.643,0.643,256445
2016-08-26,0.679,0.679,0.67,0.67,122550
2016-08-29,0.6609999999999999,0.679,0.643,0.6609999999999999,173440
2016-08-30,0.626,0.652,0.617,0.643,344350
2016-08-31,0.65,0.67,0.63,0.67,348000
2016-09-01,0.65,0.67,0.65,0.66,85000
2016-09-02,0.65,0.66,0.64,0.66,1319000
2016-09-05,0.64,0.66,0.64,0.66,583000
2016-09-06,0.66,0.66,0.65,0.65,186600
2016-09-07,0.65,0.65,0.65,0.65,152100
2016-09-08,0.65,0.66,0.65,0.66,598750
2016-09-09,0.65,0.66,0.65,0.66,405500
2016-09-12,0.64,0.66,0.64,0.66,1120470
2016-09-13,0.67,0.73,0.63,0.65,6664900
2016-09-14,0.67,0.67,0.64,0.65,713750
2016-09-15,0.65,0.65,0.63,0.64,932460
2016-09-19,0.64,0.64,0.63,0.63,883550
2016-09-20,0.64,0.65,0.63,0.64,701700
2016-09-21,0.64,0.65,0.63,0.64,1771040
2016-09-22,0.64,0.69,0.64,0.69,2384400
2016-09-23,0.7,0.7,0.66,0.66,1717370
2016-09-26,0.67,0.68,0.66,0.66,1459850
2016-09-27,0.66,0.7,0.66,0.66,462380
2016-09-28,0.66,0.68,0.65,0.66,856720
2016-09-29,0.65,0.66,0.65,0.66,205500
2016-09-30,0.67,0.68,0.66,0.66,223000
2016-10-03,0.66,0.67,0.65,0.67,1550000
2016-10-04,0.68,0.68,0.66,0.66,1083200
2016-10-05,0.65,0.66,0.64,0.66,1065000
2016-10-06,0.66,0.66,0.58,0.59,5670110
2016-10-07,0.6,0.63,0.6,0.61,5282010
2016-10-11,0.6,0.61,0.6,0.61,3964870
2016-10-12,0.59,0.63,0.59,0.63,6910850
2016-10-13,0.61,0.63,0.61,0.63,1986430
2016-10-14,0.62,0.65,0.61,0.65,18403130
2016-10-17,0.65,0.66,0.64,0.66,6965160
2016-10-18,0.67,0.68,0.65,0.66,2647500
2016-10-19,0.65,0.76,0.65,0.74,30815910
2016-10-20,0.72,0.72,0.67,0.68,4626430
2016-10-24,0.68,0.71,0.67,0.7,19695000
2016-10-25,0.67,0.72,0.67,0.71,2140000
2016-10-26,0.69,0.69,0.66,0.68,1083050
2016-10-27,0.68,0.68,0.67,0.68,2935000
2016-10-28,0.68,0.68,0.65,0.68,245000
2016-10-31,0.65,0.66,0.65,0.66,670000
2016-11-01,0.67,0.68,0.64,0.68,1553500
2016-11-02,0.66,0.67,0.65,0.66,183070
2016-11-03,0.66,0.67,0.66,0.67,590000
2016-11-04,0.66,0.66,0.65,0.65,3323000
2016-11-07,0.65,0.65,0.63,0.64,376500
2016-11-08,0.63,0.65,0.63,0.63,438000
2016-11-09,0.63,0.68,0.6,0.66,12959570
2016-11-10,0.66,0.73,0.66,0.69,21818650
2016-11-11,0.72,0.72,0.69,0.7,21306500
2016-11-14,0.68,0.69,0.67,0.67,15965000
2016-11-15,0.68,0.68,0.67,0.68,6782410
2016-11-16,0.68,0.68,0.67,0.67,275000
2016-11-17,0.66,0.75,0.66,0.72,8145500
2016-11-18,0.73,0.73,0.69,0.7,527860
2016-11-21,0.73,0.73,0.68,0.69,3125000
2016-11-22,0.69,0.71,0.67,0.71,925000
2016-11-23,0.67,0.67,0.67,0.67,8000
2016-11-24,0.67,0.7,0.67,0.69,486000
2016-11-25,0.69,0.71,0.68,0.7,15750000
2016-11-28,0.7,0.7,0.69,0.69,101500
2016-11-29,0.69,0.69,0.68,0.68,225000
2016-11-30,0.68,0.69,0.67,0.68,729000
2016-12-01,0.68,0.68,0.67,0.67,531000
2016-12-02,0.66,0.68,0.66,0.67,1935000
2016-12-05,0.66,0.67,0.65,0.66,475000
2016-12-06,0.69,0.69,0.66,0.66,955000
2016-12-07,0.68,0.68,0.66,0.66,46500
2016-12-08,0.66,0.66,0.66,0.66,56500
2016-12-09,0.66,0.67,0.64,0.67,910000
2016-12-12,0.65,0.67,0.64,0.67,541000
2016-12-13,0.64,0.67,0.64,0.67,3079000
2016-12-14,0.67,0.67,0.65,0.65,734000
2016-12-15,0.64,0.64,0.63,0.63,3914000
2016-12-16,0.63,0.67,0.63,0.67,580000
2016-12-19,0.68,0.71,0.67,0.69,5715500
2016-12-20,0.68,0.69,0.67,0.69,332500
2016-12-21,0.67,0.69,0.67,0.69,710000
2016-12-22,0.67,0.69,0.66,0.69,78936
2016-12-23,0.66,0.66,0.66,0.66,45000
2016-12-28,0.66,0.69,0.66,0.68,1815000
2016-12-29,0.7,0.7,0.68,0.69,860000
2016-12-30,0.67,0.69,0.67,0.69,159103
2017-01-03,0.66,0.66,0.66,0.66,95000
2017-01-04,0.65,0.67,0.65,0.66,95300
2017-01-05,0.67,0.67,0.67,0.67,145000
2017-01-06,0.67,0.68,0.67,0.68,550150
2017-01-09,0.65,0.68,0.65,0.68,35000
2017-01-10,0.73,0.75,0.66,0.66,6499712
2017-01-11,0.64,0.65,0.64,0.65,925300
2017-01-12,0.65,0.66,0.64,0.64,613000
2017-01-13,0.63,0.64,0.63,0.64,297000
2017-01-16,0.63,0.63,0.61,0.62,1061000
2017-01-17,0.62,0.62,0.6,0.61,2907000
2017-01-18,0.61,0.61,0.6,0.6,355000
2017-01-19,0.62,0.62,0.57,0.59,1280000
2017-01-20,0.59,0.59,0.56,0.59,330000
2017-01-23,0.54,0.59,0.53,0.55,220000
2017-01-24,0.53,0.57,0.53,0.55,395000
2017-01-25,0.55,0.6,0.55,0.58,364500
2017-01-26,0.6,0.6,0.57,0.58,88000
2017-02-01,0.58,0.6,0.58,0.6,20000
2017-02-02,0.59,0.59,0.59,0.59,10000
2017-02-03,0.59,0.6,0.59,0.59,350000
2017-02-06,0.59,0.59,0.58,0.58,45000
2017-02-07,0.57,0.64,0.57,0.62,13133000
2017-02-08,0.62,0.64,0.61,0.61,38056500
2017-02-09,0.62,0.64,0.61,0.61,8564000
2017-02-10,0.63,0.65,0.6,0.6,734800
2017-02-13,0.61,0.61,0.6,0.6,395000
2017-02-14,0.59,0.64,0.53,0.63,35430000
2017-02-15,0.63,0.63,0.61,0.61,7662900
2017-02-16,0.61,0.63,0.59,0.61,5300000
2017-02-17,0.61,0.61,0.59,0.59,450500
2017-02-20,0.59,0.59,0.58,0.59,271000
2017-02-21,0.57,0.69,0.57,0.65,35194860
2017-02-22,0.66,0.69,0.63,0.65,1583000
2017-02-23,0.69,0.73,0.66,0.67,3224650
2017-02-24,0.69,0.72,0.64,0.65,2060000
2017-02-27,0.68,0.68,0.64,0.64,6355500
2017-02-28,0.64,0.66,0.63,0.66,11439600
2017-03-01,0.66,0.8,0.64,0.77,51079176
2017-03-02,0.78,0.93,0.77,0.79,46498516
2017-03-03,0.83,0.9,0.8,0.85,39302320
2017-03-06,0.88,1.0,0.88,0.91,37732464
2017-03-07,0.93,0.98,0.79,0.8,38868632
2017-03-08,0.8,0.82,0.79,0.81,15325392
2017-03-09,0.81,0.83,0.8,0.81,10942076
2017-03-10,0.82,0.82,0.8,0.82,18914964
2017-03-13,0.82,0.85,0.81,0.83,5072500
2017-03-14,0.84,0.84,0.82,0.83,3283500
2017-03-15,0.83,0.84,0.81,0.82,3645000
2017-03-16,0.82,0.84,0.81,0.82,6366750
2017-03-17,0.81,0.82,0.8,0.81,2763700
2017-03-20,0.81,0.82,0.79,0.8,7916593
2017-03-21,0.79,0.79,0.76,0.77,19898000
2017-03-22,0.75,0.78,0.74,0.76,4729357
2017-03-23,0.76,0.78,0.76,0.76,1266568
2017-03-24,0.76,0.78,0.75,0.76,1899500
2017-03-27,0.76,0.78,0.75,0.76,2400000
2017-03-28,0.77,0.77,0.76,0.76,1580000
2017-03-29,0.76,1.09,0.76,0.92,62300592
2017-03-30,0.93,1.0,0.92,0.93,24933656
2017-03-31,0.96,1.23,0.96,1.06,67606544
2017-04-03,1.08,1.2,1.07,1.12,32499830
2017-04-05,1.16,1.34,1.16,1.28,68192896
2017-04-06,1.31,1.42,1.25,1.27,54521888
2017-04-07,1.31,1.35,1.13,1.24,39611100
2017-04-10,1.27,1.32,1.17,1.22,23667716
2017-04-11,1.25,1.27,1.11,1.15,22167000
2017-04-12,1.16,1.17,1.07,1.14,3253000
2017-04-13,1.15,1.18,0.95,0.99,21120240
2017-04-18,1.0,1.01,0.88,0.92,12980000
2017-04-19,0.97,0.97,0.92,0.94,3131300
2017-04-20,0.94,0.96,0.85,0.88,9227000
2017-04-21,0.89,0.89,0.86,0.87,1877000
2017-04-24,0.87,0.93,0.87,0.89,9555000
2017-04-25,0.9,0.95,0.89,0.94,22946900
2017-04-26,0.94,1.09,0.94,1.07,17805900
2017-04-27,1.13,1.5,1.08,1.32,26497600
2017-04-28,1.33,1.39,0.99,1.0,62034020
2017-05-02,1.02,1.18,0.98,1.09,33649000
2017-05-04,1.1,1.1,0.92,0.96,31895000
2017-05-05,0.97,1.0,0.92,0.95,8105000
2017-05-08,0.95,1.08,0.95,0.99,36521448
2017-05-09,1.01,1.12,0.93,0.94,48145000
2017-05-10,0.96,0.98,0.89,0.93,53823500
2017-05-11,0.95,1.04,0.84,0.85,36218000
2017-05-12,0.85,0.89,0.84,0.86,29315000
2017-05-15,0.86,0.9,0.81,0.82,49020000
2017-05-16,0.82,0.82,0.7,0.71,29262850
2017-05-17,0.72,0.74,0.7,0.71,8705000
2017-05-18,0.7,0.74,0.7,0.71,4780000
2017-05-19,0.72,0.72,0.66,0.69,20270000
2017-05-22,0.71,0.73,0.58,0.59,34515000
2017-05-23,0.59,0.61,0.51,0.52,43886608
2017-05-24,0.52,0.57,0.52,0.53,16005000
2017-05-25,0.53,0.56,0.52,0.53,7736200
2017-05-26,0.53,0.55,0.53,0.55,10911200
2017-05-29,0.55,0.56,0.54,0.55,5745000
2017-05-31,0.55,0.55,0.53,0.54,12145500
2017-06-01,0.54,0.57,0.53,0.54,17031000
2017-06-02,0.54,0.55,0.53,0.55,6949308
2017-06-05,0.55,0.69,0.54,0.69,47096000
2017-06-06,0.7,0.72,0.64,0.7,24050000
2017-06-07,0.7,0.76,0.67,0.73,17105000
2017-06-08,0.73,0.81,0.72,0.79,26476640
2017-06-09,0.78,0.78,0.74,0.77,20000000
2017-06-12,0.77,0.8,0.76,0.8,7880950
2017-06-13,0.77,0.88,0.77,0.86,15433000
2017-06-14,0.86,0.92,0.84,0.92,8820500
2017-06-15,0.92,1.0,0.87,0.98,35278416
2017-06-16,0.99,1.04,0.96,0.99,18395150
2017-06-19,1.0,1.06,1.0,1.05,16894914
2017-06-20,1.03,1.09,1.02,1.09,12862000
2017-06-21,1.1,1.13,1.07,1.13,14865500
2017-06-22,1.14,1.15,1.07,1.09,27492200
2017-06-23,1.11,1.14,1.07,1.08,15261000
2017-06-26,1.09,1.13,0.99,1.09,23412500
2017-06-27,1.09,1.09,0.62,1.03,29640218
2017-06-28,1.02,1.03,0.84,0.94,13592000
2017-06-29,0.95,0.95,0.89,0.93,3386000
2017-06-30,0.95,0.95,0.91,0.91,20074000
2017-07-03,0.93,0.98,0.91,0.97,5910400
2017-07-04,1.01,1.01,0.86,0.93,6226250
2017-07-05,0.95,0.95,0.91,0.93,7406200
2017-07-06,0.94,0.98,0.92,0.95,1639250
2017-07-07,0.98,1.0,0.91,1.0,21588000
2017-07-10,1.01,1.05,0.96,1.05,6948100
2017-07-11,1.02,1.05,1.01,1.02,3510449
2017-07-12,1.05,1.08,1.0,1.05,9043400
2017-07-13,1.02,1.08,1.01,1.03,7347000
2017-07-14,1.03,1.04,1.0,1.04,3034000
2017-07-17,1.02,1.05,1.0,1.05,8670000
2017-07-18,1.06,1.1,1.04,1.1,4320000
2017-07-19,1.12,1.15,1.11,1.15,7139550
2017-07-20,1.14,1.25,1.13,1.24,14164265
2017-07-21,1.22,1.27,1.14,1.17,11545400
2017-07-24,1.16,1.2,1.07,1.08,3507600
2017-07-25,1.09,1.16,1.05,1.14,13115500
2017-07-26,1.18,1.21,1.09,1.13,2330000
2017-07-27,1.16,1.17,1.09,1.12,16466800
2017-07-28,1.12,1.12,1.07,1.09,60925000
2017-07-31,1.11,1.11,1.02,1.02,28699500
2017-08-01,1.04,1.05,1.0,1.01,34810000
2017-08-02,1.02,1.08,0.99,1.0,14312000
2017-08-03,1.02,1.05,1.0,1.01,781000
2017-08-04,1.02,1.03,0.99,1.0,17126300
2017-08-07,1.0,1.02,0.98,1.0,1493000
2017-08-08,1.01,1.02,0.97,1.0,7825050
2017-08-09,1.0,1.01,0.98,0.99,936000
2017-08-10,1.01,1.03,0.91,0.96,6101000
2017-08-11,0.97,1.0,0.91,0.94,9527500
2017-08-14,0.95,0.97,0.89,0.9,12230575
2017-08-15,0.92,0.95,0.69,0.71,44935500
2017-08-16,0.72,0.74,0.64,0.66,48106000
2017-08-17,0.66,0.67,0.6,0.63,7755000
2017-08-18,0.63,0.63,0.58,0.62,28800150
2017-08-21,0.62,0.67,0.59,0.61,120340000
2017-08-22,0.61,0.64,0.6,0.62,39271000
2017-08-24,0.62,0.62,0.58,0.6,45501212
2017-08-25,0.61,0.61,0.56,0.57,25110000
2017-08-28,0.57,0.58,0.55,0.55,5275000
2017-08-29,0.55,0.58,0.55,0.56,4280200
2017-08-30,0.57,0.6,0.54,0.58,5428600
2017-08-31,0.58,0.7,0.58,0.63,47730648
2017-09-01,0.63,0.63,0.57,0.6,18575450
2017-09-04,0.6,0.63,0.57,0.57,8687500
2017-09-05,0.58,0.61,0.57,0.6,16265000
2017-09-06,0.6,0.6,0.56,0.58,5430000
2017-09-07,0.58,0.59,0.54,0.55,10115000
2017-09-08,0.55,0.55,0.51,0.54,10140000
2017-09-11,0.54,0.56,0.51,0.54,15910000
2017-09-12,0.54,0.56,0.51,0.51,11680000
2017-09-13,0.51,0.52,0.495,0.52,3715000
2017-09-14,0.52,0.52,0.495,0.5,5915000
2017-09-15,0.495,0.51,0.48,0.51,3430000
2017-09-18,0.5,0.52,0.495,0.52,2730000
2017-09-19,0.52,0.53,0.48,0.48,6885000
2017-09-20,0.48,0.495,0.48,0.495,2160000
2017-09-21,0.485,0.49,0.485,0.49,3163000
2017-09-22,0.485,0.49,0.45,0.465,9190000
2017-09-25,0.465,0.49,0.45,0.45,8350000
2017-09-26,0.45,0.46,0.45,0.46,651050
2017-09-27,0.46,0.49,0.455,0.475,10830000
2017-09-28,0.485,0.49,0.465,0.47,1960000
2017-09-29,0.465,0.48,0.46,0.47,4764000
2017-10-03,0.475,0.485,0.46,0.47,88298400
2017-10-04,0.47,0.495,0.455,0.475,36410000
2017-10-06,0.48,0.57,0.465,0.55,162604320
2017-10-09,0.62,0.76,0.58,0.75,71107872
2017-10-10,0.73,0.86,0.66,0.81,82131000
2017-10-11,0.84,0.98,0.84,0.97,40878000
2017-10-12,0.97,0.97,0.81,0.88,21306724
2017-10-13,0.88,0.93,0.84,0.88,12871500
2017-10-16,0.9,0.93,0.85,0.9,22620000
2017-10-17,0.9,0.9,0.86,0.87,6180000
2017-10-18,0.88,0.91,0.88,0.89,2920500
2017-10-19,0.89,0.89,0.83,0.84,10125000
2017-10-20,0.84,0.85,0.82,0.83,1560000
2017-10-23,0.81,0.84,0.75,0.77,3680000
2017-10-24,0.78,0.78,0.72,0.73,5036875
2017-10-25,0.73,0.84,0.73,0.82,3660000
2017-10-26,0.81,0.83,0.76,0.78,2923000
2017-10-27,0.77,0.77,0.76,0.77,755000
2017-10-30,0.78,0.8,0.75,0.79,2350000
2017-10-31,0.8,0.81,0.77,0.8,1035000
2017-11-01,0.79,0.8,0.79,0.8,5444591
2017-11-02,0.8,0.8,0.75,0.8,4025500
2017-11-03,0.77,0.8,0.77,0.79,765500
2017-11-06,0.79,0.8,0.76,0.8,5222143
2017-11-07,0.79,0.84,0.79,0.83,2475750
2017-11-08,0.82,0.86,0.82,0.86,8899000
2017-11-09,0.86,0.86,0.81,0.81,1448000
2017-11-10,0.81,0.82,0.8,0.81,1597000
2017-11-13,0.8,0.84,0.8,0.82,2685000
2017-11-14,0.8,0.82,0.8,0.82,1465000
2017-11-15,0.82,0.83,0.81,0.83,1595000
2017-11-16,0.81,0.87,0.81,0.86,13337300
2017-11-17,0.86,0.86,0.83,0.84,3535000
2017-11-20,0.83,0.85,0.81,0.81,625000
2017-11-21,0.81,0.82,0.79,0.81,1535200
2017-11-22,0.8,0.82,0.77,0.79,2510000
2017-11-23,0.79,0.81,0.79,0.81,30870000
2017-11-24,0.82,0.82,0.8,0.81,199400
2017-11-27,0.8,0.8,0.74,0.75,26194286
2017-11-28,0.75,0.75,0.7,0.7,2729877
2017-11-29,0.7,0.72,0.7,0.7,365000
2017-11-30,0.7,0.72,0.7,0.71,584500
2017-12-01,0.73,0.8,0.73,0.79,1635000
2017-12-04,0.8,0.8,0.75,0.78,429500
2017-12-05,0.78,0.79,0.76,0.79,10190500
2017-12-06,0.77,0.78,0.76,0.78,2511000
2017-12-07,0.77,0.79,0.76,0.77,1937400
2017-12-08,0.75,0.78,0.73,0.73,6175000
2017-12-11,0.73,0.77,0.71,0.77,40827500
2017-12-12,0.76,0.79,0.76,0.79,815000
2017-12-13,0.79,0.83,0.76,0.77,9052500
2017-12-14,0.76,0.8,0.75,0.8,2342350
2017-12-15,0.78,0.78,0.77,0.78,73500
2017-12-18,0.77,0.77,0.75,0.77,165000
2017-12-19,0.76,0.78,0.74,0.78,310150
2017-12-20,0.77,0.77,0.76,0.76,3500
2017-12-21,0.74,0.76,0.74,0.76,268478
2017-12-22,0.75,0.75,0.74,0.75,200000
2017-12-27,0.75,0.75,0.72,0.75,25000
2017-12-28,0.71,0.8,0.71,0.8,1385000
2017-12-29,0.8,0.8,0.76,0.79,12909850
2018-01-02,0.78,0.79,0.77,0.78,2896000
2018-01-03,0.78,0.78,0.76,0.77,9080000
2018-01-04,0.76,0.77,0.75,0.76,708000
2018-01-05,0.76,0.76,0.75,0.76,400000
2018-01-08,0.75,0.75,0.73,0.74,621000
2018-01-09,0.74,0.78,0.72,0.77,5732800
2018-01-10,0.74,0.78,0.74,0.75,285000
2018-01-11,0.76,0.76,0.74,0.74,9185000
2018-01-12,0.73,0.75,0.73,0.74,260000
2018-01-15,0.75,0.77,0.73,0.73,248000
2018-01-16,0.72,0.73,0.72,0.72,230200
2018-01-17,0.72,0.72,0.72,0.72,100600
2018-01-18,0.72,0.81,0.71,0.74,14579000
2018-01-19,0.74,0.75,0.73,0.74,2036500
2018-01-22,0.73,0.73,0.7,0.7,1255000
2018-01-23,0.69,0.76,0.69,0.69,8232050
2018-01-24,0.73,0.74,0.69,0.7,1848948
2018-01-25,0.71,0.71,0.7,0.7,245000
2018-01-26,0.69,0.69,0.68,0.69,325000
2018-01-29,0.68,0.69,0.68,0.68,155000
2018-01-30,0.67,0.67,0.63,0.64,1061500
2018-01-31,0.64,0.64,0.62,0.63,415000
2018-02-01,0.64,0.65,0.64,0.64,93000
2018-02-02,0.63,0.63,0.63,0.63,35000
2018-02-05,0.6,0.64,0.56,0.64,152550
2018-02-06,0.64,0.64,0.58,0.58,784724
2018-02-07,0.58,0.6,0.57,0.57,470000
2018-02-08,0.58,0.59,0.58,0.58,130000
2018-02-09,0.57,0.57,0.54,0.56,248500
2018-02-12,0.57,0.64,0.57,0.62,940000
2018-02-13,0.6,0.6,0.6,0.6,741000
2018-02-14,0.65,0.65,0.6,0.61,230000
2018-02-20,0.61,0.61,0.61,0.61,10000
2018-02-21,0.64,0.64,0.64,0.63,50150
2018-02-22,0.63,0.67,0.63,0.64,285000
2018-02-23,0.63,0.63,0.62,0.62,31500
2018-02-26,0.61,0.61,0.6,0.61,50000
2018-02-27,0.61,0.61,0.61,0.61,0
2018-02-28,0.61,0.61,0.57,0.6,1002000
2018-03-02,0.58,0.58,0.56,0.57,175000
2018-03-05,0.56,0.58,0.53,0.53,810000
2018-03-06,0.55,0.57,0.54,0.57,3056000
2018-03-07,0.57,0.57,0.56,0.56,4301000
2018-03-08,0.56,0.58,0.56,0.58,325000
2018-03-09,0.58,0.58,0.57,0.57,133000
2018-03-12,0.57,0.58,0.57,0.58,211500
2018-03-13,0.59,0.63,0.59,0.62,398500
2018-03-14,0.62,0.65,0.61,0.63,815000
2018-03-15,0.63,0.66,0.63,0.66,876000
2018-03-16,0.67,0.71,0.67,0.71,935000
2018-03-19,0.71,0.71,0.68,0.69,319500
2018-03-20,0.68,0.7,0.67,0.7,290000
2018-03-21,0.7,0.7,0.69,0.7,157500
2018-03-22,0.69,0.7,0.68,0.68,400000
2018-03-23,0.65,0.68,0.65,0.68,405100
2018-03-26,0.66,0.66,0.66,0.68,5000
2018-03-27,0.7,0.7,0.7,0.69,5000
2018-03-28,0.68,0.7,0.67,0.7,1145000
2018-03-29,0.68,0.69,0.68,0.69,320400
2018-04-03,0.67,0.7,0.67,0.7,451807
2018-04-04,0.67,0.7,0.67,0.7,370950
2018-04-06,0.67,0.7,0.67,0.7,224000
2018-04-09,0.71,0.71,0.7,0.7,305000
2018-04-10,0.7,0.8,0.7,0.72,26704500
2018-04-11,0.7,0.71,0.69,0.69,235000
2018-04-12,0.68,0.7,0.68,0.7,161000
2018-04-13,0.7,0.7,0.67,0.7,420000
2018-04-16,0.67,0.67,0.67,0.67,100000
2018-04-17,0.68,0.7,0.68,0.7,55000
2018-04-18,0.69,0.7,0.68,0.7,565000
2018-04-19,0.67,0.7,0.67,0.7,311000
2018-04-20,0.7,0.7,0.69,0.7,121000
2018-04-24,0.68,0.68,0.68,0.68,65500
2018-04-25,0.69,0.69,0.69,0.69,215000
2018-04-26,0.71,0.72,0.71,0.71,5110300
2018-04-27,0.68,0.7,0.67,0.68,250000
2018-04-30,0.71,0.71,0.69,0.7,70450
2018-05-02,0.73,0.73,0.67,0.67,140900
2018-05-03,0.72,0.72,0.67,0.7,3257000
2018-05-04,0.67,0.67,0.67,0.67,91600
2018-05-07,0.66,0.66,0.66,0.66,50000
2018-05-08,0.69,0.7,0.69,0.7,442000
2018-05-09,0.7,0.76,0.7,0.75,1866000
2018-05-10,0.75,0.79,0.75,0.79,1875000
2018-05-11,0.77,0.77,0.77,0.77,58000
2018-05-14,0.76,0.77,0.76,0.76,300000
2018-05-15,0.75,0.75,0.74,0.74,70000
2018-05-16,0.74,0.77,0.73,0.73,150000
2018-05-18,0.73,0.76,0.72,0.72,5616000
2018-05-21,0.71,0.73,0.71,0.72,260000
2018-05-23,0.7,0.72,0.7,0.72,32500
2018-05-24,0.71,0.71,0.71,0.71,1510000
2018-05-25,0.7,0.71,0.7,0.71,17500
2018-05-28,0.7,0.7,0.7,0.7,100000
2018-05-29,0.71,0.71,0.7,0.7,98000
2018-05-30,0.68,0.68,0.68,0.68,22000
2018-05-31,0.69,0.7,0.69,0.7,140000
2018-06-01,0.7,0.72,0.7,0.7,300200
2018-06-04,0.66,0.7,0.66,0.7,162000
2018-06-05,0.7,0.7,0.7,0.7,0
2018-06-06,0.68,0.68,0.68,0.68,7350
2018-06-07,0.68,0.7,0.66,0.7,251000
2018-06-08,0.66,0.68,0.65,0.68,525400
2018-06-11,0.69,0.7,0.69,0.69,375000
2018-06-12,0.68,0.68,0.68,0.68,18000
2018-06-13,0.7,0.71,0.7,0.71,186750
2018-06-14,0.68,0.68,0.68,0.68,55000
2018-06-15,0.68,0.68,0.68,0.68,25000
2018-06-19,0.76,0.76,0.76,0.68,5000
2018-06-20,0.67,0.67,0.66,0.66,313000
2018-06-21,0.66,0.66,0.65,0.65,279000
2018-06-22,0.65,0.65,0.65,0.65,46000
2018-06-25,0.66,0.66,0.64,0.64,116000
2018-06-26,0.64,0.65,0.64,0.65,170481
2018-06-27,0.66,0.75,0.63,0.64,85000
2018-06-28,0.65,0.65,0.65,0.65,0
2018-06-29,0.65,0.65,0.65,0.65,46000
2018-07-03,0.65,0.65,0.64,0.64,261500
2018-07-05,0.62,0.69,0.62,0.69,11000
2018-07-06,0.67,0.67,0.66,0.66,2500
2018-07-10,0.66,0.66,0.66,0.66,0
2018-07-11,0.63,0.63,0.62,0.63,59000
2018-07-12,0.61,0.63,0.61,0.63,25000
2018-07-13,0.62,0.63,0.62,0.63,25000
2018-07-18,0.63,0.63,0.6,0.61,150000
2018-07-23,0.64,0.67,0.64,0.66,599900
2018-07-24,0.68,0.71,0.68,0.71,1589443
2018-07-25,0.68,0.73,0.68,0.71,210000
2018-07-26,0.71,0.76,0.71,0.75,1410000
2018-08-01,0.82,0.86,0.75,0.77,11821300
2018-08-02,0.77,0.77,0.73,0.77,4000000
2018-08-03,0.78,0.79,0.74,0.77,6331800
2018-08-06,0.78,0.78,0.74,0.77,1868600
2018-08-07,0.75,0.75,0.75,0.75,110700
2018-08-08,0.75,0.77,0.75,0.77,588000
2018-08-09,0.75,0.76,0.75,0.75,800000
2018-08-10,0.75,0.75,0.75,0.75,850000
2018-08-13,0.75,0.75,0.75,0.75,74400
2018-08-14,0.75,0.76,0.74,0.75,475500
2018-08-15,0.75,0.77,0.74,0.77,1529900
2018-08-16,0.74,0.75,0.74,0.74,2170500
2018-08-17,0.75,0.75,0.73,0.74,850000
2018-08-20,0.75,0.75,0.74,0.74,370500
2018-08-21,0.74,0.76,0.74,0.76,38900
2018-08-22,0.74,0.75,0.72,0.73,2020000
2018-08-23,0.74,0.76,0.73,0.73,940300
2018-08-24,0.75,0.77,0.74,0.75,3258591
2018-08-27,0.75,0.76,0.74,0.74,665000
2018-08-28,0.74,0.76,0.74,0.74,975000
2018-08-29,0.73,0.75,0.73,0.75,268000
2018-08-30,0.76,0.76,0.74,0.74,1015000
2018-08-31,0.74,0.75,0.73,0.75,74500
2018-09-03,0.74,0.74,0.73,0.74,1065000
2018-09-04,0.73,0.74,0.73,0.74,1301572
2018-09-05,0.74,0.74,0.73,0.73,306700
2018-09-06,0.73,0.74,0.73,0.74,476000
2018-09-07,0.73,0.73,0.73,0.73,665000
2018-09-10,0.74,0.75,0.73,0.75,329017
2018-09-11,0.74,0.74,0.73,0.73,1030000
2018-09-12,0.74,0.74,0.74,0.74,20000
2018-09-13,0.74,0.75,0.74,0.75,1265000
2018-09-14,0.76,0.76,0.76,0.76,60000
2018-09-17,0.76,0.78,0.76,0.78,1390000
2018-09-18,0.78,0.79,0.77,0.78,5580000
2018-09-19,0.79,0.79,0.77,0.77,405000
2018-09-20,0.78,0.8,0.77,0.78,2470500
2018-09-21,0.78,0.78,0.77,0.77,2242000
2018-09-24,0.77,0.78,0.77,0.77,2280750
2018-09-26,0.48700000000000004,0.48700000000000004,0.475,0.48100000000000004,5530000
2018-09-27,0.48100000000000004,0.48100000000000004,0.48100000000000004,0.48100000000000004,40000
2018-09-28,0.48100000000000004,0.48100000000000004,0.469,0.475,1605000
2018-10-02,0.475,0.475,0.469,0.469,2700000
2018-10-03,0.48100000000000004,0.48100000000000004,0.469,0.469,1910000
2018-10-04,0.475,0.48100000000000004,0.469,0.48100000000000004,2060000
2018-10-05,0.5,0.506,0.494,0.506,22110750
2018-10-08,0.5,0.5,0.494,0.5,11434500
2018-10-09,0.5,0.51,0.5,0.5,18780400
2018-10-10,0.5,0.51,0.5,0.5,7135000
2018-10-11,0.5,0.51,0.5,0.5,16492000
2018-10-12,0.5,0.51,0.5,0.5,7710000
2018-10-15,0.5,0.51,0.5,0.51,2110000
2018-10-16,0.5,0.51,0.495,0.51,1298000
2018-10-18,0.5,0.5,0.5,0.5,429750
2018-10-19,0.5,0.51,0.5,0.51,43000
2018-10-22,0.5,0.51,0.5,0.5,10625000
2018-10-23,0.5,0.51,0.5,0.5,21070000
2018-10-24,0.5,0.51,0.5,0.51,70000
2018-10-25,0.5,0.5,0.5,0.5,1600000
2018-10-26,0.5,0.51,0.5,0.51,5020000
2018-10-29,0.5,0.51,0.5,0.5,12726000
2018-10-30,0.5,0.5,0.5,0.5,316950
2018-10-31,0.5,0.51,0.5,0.51,1157300
2018-11-01,0.5,0.5,0.5,0.5,240000
2018-11-02,0.5,0.5,0.5,0.5,50000
2018-11-05,0.5,0.5,0.5,0.5,19000
2018-11-06,0.5,0.5,0.5,0.5,21400
2018-11-07,0.5,0.5,0.5,0.5,61500
2018-11-08,0.5,0.5,0.5,0.5,56286
2018-11-12,0.5,0.51,0.5,0.5,85000
2018-11-13,0.5,0.5,0.5,0.5,9258
2018-11-14,0.5,0.5,0.5,0.5,13500
2018-11-15,0.5,0.5,0.49,0.49,1500
2018-11-16,0.49,0.49,0.49,0.49,5000
2018-11-19,0.49,0.49,0.49,0.49,52500
2018-11-21,0.48,0.48,0.48,0.48,100001
2018-11-22,0.405,0.455,0.405,0.45,90500
2018-11-23,0.43,0.45,0.43,0.45,28000
2018-11-26,0.49,0.55,0.49,0.55,230000
2018-11-27,0.55,0.55,0.55,0.54,50000
2018-11-28,0.52,0.52,0.52,0.52,105100
2018-11-29,0.5,0.51,0.5,0.51,130000
2018-11-30,0.5,0.5,0.5,0.5,11000
2018-12-04,0.48,0.5,0.455,0.455,297450
2018-12-06,0.48,0.5,0.48,0.495,755000
2018-12-07,0.51,0.52,0.485,0.5,1625000
2018-12-10,0.495,0.495,0.475,0.48,1410000
2018-12-11,0.49,0.495,0.475,0.485,2112000
2018-12-12,0.49,0.495,0.465,0.475,2040000
2018-12-13,0.475,0.475,0.465,0.475,1405000
2018-12-14,0.475,0.48,0.47,0.48,1955000
2018-12-17,0.48,0.51,0.48,0.485,1415000
2018-12-18,0.495,0.51,0.495,0.51,490000
2018-12-19,0.51,0.53,0.51,0.53,637500
2018-12-20,0.55,0.64,0.55,0.57,5290000
2018-12-21,0.57,0.61,0.56,0.58,2535000
2018-12-24,0.59,0.6,0.58,0.59,1230000
2018-12-27,0.6,0.6,0.56,0.59,2643200
2018-12-28,0.6,0.61,0.58,0.61,52465000
2018-12-31,0.62,0.67,0.61,0.62,2150000
2019-01-02,0.63,0.64,0.59,0.6,2550000
2019-01-03,0.59,0.61,0.56,0.61,2336000
2019-01-04,0.6,0.6,0.58,0.58,1580000
2019-01-07,0.6,0.6,0.56,0.57,2047000
2019-01-08,0.58,0.59,0.56,0.57,2025000
2019-01-09,0.58,0.6,0.57,0.59,1775000
2019-01-10,0.59,0.59,0.55,0.55,2551000
2019-01-11,0.54,0.57,0.54,0.55,2323950
2019-01-14,0.55,0.56,0.55,0.56,33505200
2019-01-15,0.56,0.58,0.53,0.53,1580000
2019-01-16,0.53,0.54,0.52,0.52,1775000
2019-01-17,0.52,0.52,0.51,0.52,1140000
2019-01-18,0.52,0.54,0.51,0.52,298000
2019-01-22,0.52,0.52,0.52,0.52,0
2019-01-23,0.52,0.52,0.52,0.52,0
2019-01-25,0.52,0.52,0.52,0.52,45000
2019-01-28,0.52,0.52,0.5,0.5,120000
2019-01-29,0.5,0.5,0.5,0.5,5000
2019-01-30,0.5,0.5,0.5,0.5,20000
2019-02-01,0.49,0.49,0.49,0.49,30000
2019-02-04,0.45,0.51,0.45,0.51,22500
2019-02-08,0.51,0.51,0.51,0.51,0
2019-02-13,0.5,0.52,0.5,0.52,40400
2019-02-18,0.5,0.5,0.5,0.5,102000
2019-02-20,0.5,0.5,0.5,0.5,140000
2019-02-21,0.5,0.5,0.5,0.5,0
2019-02-22,0.5,0.5,0.5,0.5,30000
2019-02-26,0.5,0.5,0.5,0.5,40000
2019-02-27,0.53,0.53,0.465,0.47,265000
2019-02-28,0.51,0.52,0.51,0.51,135000
2019-03-01,0.55,0.61,0.55,0.59,1045876
2019-03-04,0.6,0.6,0.59,0.59,382000
2019-03-05,0.58,0.6,0.58,0.59,409000
2019-03-07,0.61,0.65,0.6,0.64,966500
2019-03-08,0.63,0.63,0.6,0.61,1170000
2019-03-11,0.63,0.64,0.63,0.63,160000
2019-03-12,0.64,0.68,0.64,0.66,621000
2019-03-13,0.65,0.66,0.63,0.66,275050
2019-03-14,0.65,0.66,0.63,0.64,109000
2019-03-15,0.64,0.65,0.62,0.64,355000
2019-03-18,0.66,0.66,0.64,0.65,720000
2019-03-19,0.64,0.67,0.64,0.67,1079869
2019-03-20,0.67,0.68,0.67,0.67,85000
2019-03-21,0.67,0.67,0.65,0.65,855000
2019-03-22,0.65,0.66,0.65,0.66,116000
2019-03-25,0.64,0.67,0.64,0.65,660000
2019-03-26,0.65,0.67,0.64,0.67,190000
2019-03-27,0.67,0.67,0.66,0.67,65000
2019-03-28,0.67,0.67,0.67,0.67,130000
2019-03-29,0.66,0.66,0.66,0.66,10000
2019-04-01,0.66,0.66,0.66,0.66,50500
2019-04-02,0.67,0.67,0.66,0.66,120200
2019-04-08,0.65,0.65,0.65,0.65,42800
2019-04-11,0.65,0.66,0.65,0.65,65000
2019-04-12,0.65,0.65,0.64,0.64,58500
2019-04-15,0.65,0.66,0.64,0.64,190000
2019-04-16,0.65,0.66,0.65,0.65,95000
2019-04-17,0.66,0.67,0.65,0.65,808000
2019-04-18,0.51,0.52,0.5,0.5,485000
2019-04-25,0.455,0.455,0.455,0.475,5000
2019-04-26,0.49,0.495,0.49,0.495,105000
2019-04-29,0.48,0.48,0.48,0.48,105000
2019-04-30,0.48,0.48,0.48,0.48,20000
2019-05-03,0.48,0.48,0.48,0.48,15000
2019-05-07,0.38,0.475,0.38,0.48,100000
2019-05-21,0.46,0.46,0.46,0.46,15000
2019-05-22,0.44,0.44,0.44,0.44,180000
2019-05-23,0.44,0.44,0.435,0.435,50000
2019-05-24,0.41,0.41,0.41,0.41,9000
2019-05-28,0.42,0.47,0.42,0.465,41000
2019-05-31,0.465,0.465,0.44,0.44,3000
2019-06-03,0.44,0.44,0.44,0.44,15000
2019-06-06,0.44,0.44,0.44,0.44,0
2019-06-10,0.43,0.44,0.43,0.44,68571
2019-06-11,0.465,0.54,0.465,0.54,431550
2019-06-18,0.5,0.53,0.5,0.51,22500
2019-06-19,0.5,0.5,0.5,0.5,20000
2019-06-21,0.5,0.5,0.45,0.47,57500
2019-06-25,0.46,0.46,0.46,0.46,10000
2019-07-02,0.45,0.49,0.45,0.49,163744
2019-07-03,0.49,0.49,0.49,0.49,190000
2019-07-05,0.49,0.5,0.49,0.5,180500
2019-07-10,0.5,0.5,0.45,0.47,71500
2019-07-11,0.5,0.5,0.5,0.5,10000
2019-07-12,0.48,0.48,0.48,0.48,161500
2019-07-22,0.48,0.51,0.48,0.495,655000
2019-07-29,0.48,0.48,0.48,0.48,0
2019-07-31,0.48,0.48,0.48,0.48,40000
2019-08-08,0.45,0.45,0.45,0.45,15000
2019-08-15,0.455,0.455,0.455,0.455,0
2019-08-20,0.42,0.455,0.42,0.455,31000
2019-08-21,0.42,0.43,0.4,0.43,67500
2019-08-22,0.43,0.43,0.43,0.43,15489
2019-09-03,0.36,0.4,0.36,0.43,25000
2019-09-09,0.43,0.43,0.43,0.43,0
2019-09-10,0.43,0.43,0.43,0.43,0
2019-09-13,0.36,0.36,0.36,0.405,5000
2019-09-16,0.385,0.385,0.385,0.395,7000
2019-09-19,0.395,0.395,0.395,0.395,0
2019-10-08,0.45,0.45,0.445,0.445,15000
2019-10-10,0.39,0.39,0.39,0.4,6000
2019-10-11,0.4,0.4,0.4,0.4,0
2019-10-15,0.38,0.38,0.38,0.38,40000
2019-10-16,0.34,0.385,0.34,0.38,112000
2019-10-28,0.38,0.38,0.37,0.37,1000
2019-10-29,0.35,0.42,0.35,0.41,73000
2019-10-31,0.31,0.31,0.31,0.35,10000
2019-11-01,0.365,0.365,0.365,0.365,5000
2019-11-04,0.41,0.41,0.41,0.41,11000
2019-11-15,0.33,0.33,0.33,0.36,6000
2019-11-18,0.36,0.36,0.36,0.36,5000
2019-11-19,0.375,0.375,0.375,0.375,5000
2019-11-25,0.375,0.375,0.375,0.375,45000
2019-11-28,0.375,0.375,0.375,0.375,0
2019-12-03,0.29,0.29,0.29,0.325,10000
2019-12-09,0.33,0.33,0.33,0.33,0
2019-12-10,0.35,0.35,0.34,0.34,27000
2019-12-11,0.34,0.34,0.34,0.34,70000
2019-12-20,0.33,0.33,0.33,0.33,60600
2019-12-24,0.33,0.33,0.33,0.33,10000
2020-01-07,0.33,0.33,0.33,0.33,0
2020-01-08,0.35,0.38,0.35,0.36,191608
2020-01-09,0.35,0.35,0.35,0.35,20500
2020-01-20,0.35,0.35,0.35,0.35,5500
2020-02-04,0.35,0.35,0.35,0.35,0
2020-02-12,0.35,0.35,0.35,0.35,5000
2020-02-18,0.35,0.35,0.35,0.35,0
2020-02-19,0.35,0.35,0.35,0.35,0
2020-02-21,0.35,0.35,0.35,0.35,0
2020-02-26,0.35,0.35,0.35,0.35,10000
2020-02-27,0.27,0.27,0.27,0.31,8000
2020-02-28,0.31,0.31,0.31,0.31,25000
2020-03-02,0.25,0.3,0.25,0.29,45000
2020-03-06,0.255,0.275,0.25,0.275,72600
2020-03-09,0.25,0.25,0.25,0.25,30000
2020-03-10,0.26,0.26,0.26,0.26,50000
2020-03-19,0.25,0.25,0.25,0.25,60000
2020-03-20,0.25,0.25,0.24,0.24,207000
2020-03-23,0.22,0.22,0.22,0.22,0
2020-03-24,0.2,0.2,0.2,0.21,5000
2020-03-25,0.21,0.21,0.21,0.21,0
2020-03-26,0.21,0.21,0.21,0.21,0
2020-03-27,0.25,0.25,0.21,0.22,40000
2020-03-30,0.22,0.22,0.22,0.22,0
2020-03-31,0.22,0.225,0.22,0.22,65000
2020-04-01,0.19,0.19,0.19,0.19,5000
2020-04-02,0.24,0.25,0.24,0.25,85000
2020-04-03,0.25,0.25,0.25,0.25,0
2020-04-06,0.25,0.25,0.25,0.25,0
2020-04-07,0.25,0.25,0.25,0.25,0
2020-04-08,0.25,0.25,0.25,0.25,0
2020-04-09,0.245,0.245,0.245,0.245,5000
2020-04-14,0.245,0.245,0.245,0.245,0
2020-04-15,0.245,0.245,0.245,0.245,250
2020-04-16,0.215,0.215,0.21100000000000002,0.215,15000
2020-04-17,0.22,0.22,0.22,0.22,0
2020-04-20,0.23800000000000002,0.23800000000000002,0.23800000000000002,0.23800000000000002,5000
2020-04-22,0.23800000000000002,0.23800000000000002,0.23800000000000002,0.23800000000000002,2151
2020-04-23,0.20800000000000002,0.20800000000000002,0.20800000000000002,0.20800000000000002,8000
2020-04-24,0.215,0.215,0.215,0.215,0
2020-04-27,0.22,0.22,0.22,0.22,0
2020-04-28,0.22,0.22,0.22,0.22,600
2020-04-29,0.225,0.225,0.225,0.225,0
2020-05-04,0.225,0.225,0.225,0.225,500
2020-05-05,0.225,0.225,0.225,0.225,526500
2020-05-07,0.22,0.22,0.22,0.22,183000
2020-05-08,0.2,0.22,0.2,0.22,55000
2020-05-11,0.21899999999999997,0.21899999999999997,0.21899999999999997,0.21899999999999997,45000
2020-05-12,0.21899999999999997,0.21899999999999997,0.21899999999999997,0.21899999999999997,4000
2020-05-14,0.2,0.21,0.2,0.21,106000
2020-05-15,0.2,0.21899999999999997,0.2,0.21899999999999997,150000
2020-05-18,0.174,0.2,0.174,0.2,105000
2020-05-19,0.18100000000000002,0.18100000000000002,0.18100000000000002,0.18100000000000002,7500
2020-05-20,0.19,0.2,0.19,0.2,10000
2020-05-21,0.198,0.198,0.198,0.198,15000
2020-05-22,0.215,0.22,0.215,0.22,310000
2020-05-25,0.21,0.22,0.21,0.22,81000
2020-05-26,0.22,0.24,0.201,0.24,710000
2020-05-27,0.24,0.24,0.24,0.24,2050
2020-05-29,0.24,0.24,0.24,0.24,1000
2020-06-01,0.24,0.24,0.24,0.24,0
2020-06-02,0.24,0.24,0.24,0.24,0
2020-06-03,0.24,0.24,0.24,0.24,0
2020-06-04,0.24,0.24,0.24,0.24,0
2020-06-05,0.24,0.24,0.24,0.24,0
2020-06-08,0.22,0.24,0.22,0.22,141000
2020-06-09,0.23800000000000002,0.23800000000000002,0.23800000000000002,0.23800000000000002,20000
2020-06-10,0.24,0.24,0.22,0.225,118000
2020-06-11,0.225,0.225,0.225,0.225,0
2020-06-12,0.225,0.225,0.225,0.225,0
2020-06-15,0.23,0.23,0.23,0.23,100000
2020-06-16,0.22,0.24,0.22,0.24,34000
2020-06-18,0.25,0.25,0.25,0.25,85000
2020-06-19,0.27,0.29,0.26,0.27,180000
2020-06-22,0.27,0.27,0.27,0.27,2000
2020-06-23,0.245,0.26,0.245,0.26,55450
2020-06-24,0.26,0.26,0.26,0.26,0
2020-06-26,0.28,0.29,0.28,0.29,170000
2020-06-29,0.29,0.29,0.29,0.29,0
2020-06-30,0.29,0.29,0.29,0.29,0
2020-07-02,0.28,0.28,0.28,0.28,10200
2020-07-03,0.25,0.285,0.25,0.285,121950
2020-07-06,0.285,0.285,0.285,0.285,0
2020-07-07,0.285,0.285,0.285,0.285,1150
2020-07-08,0.27,0.27,0.27,0.27,7000
2020-07-09,0.3,0.3,0.3,0.3,130000
2020-07-10,0.3,0.3,0.3,0.295,20000
2020-07-13,0.295,0.295,0.25,0.26,40000
2020-07-14,0.295,0.3,0.295,0.3,95000
2020-07-15,0.285,0.3,0.285,0.3,51500
2020-07-16,0.305,0.38,0.27,0.3,855000
2020-07-17,0.29,0.29,0.29,0.29,7900
2020-07-20,0.3,0.3,0.3,0.3,100000
2020-07-21,0.3,0.3,0.3,0.305,5000
2020-07-22,0.3,0.315,0.3,0.315,61000
2020-07-23,0.315,0.315,0.315,0.315,0
2020-07-24,0.33,0.34,0.325,0.34,227717
2020-07-27,0.34,0.34,0.34,0.34,0
2020-07-28,0.32,0.34,0.32,0.34,60000
2020-07-29,0.33,0.36,0.33,0.36,180000
2020-07-30,0.355,0.355,0.35,0.35,4000
2020-07-31,0.325,0.325,0.325,0.33,5000
2020-08-03,0.3,0.33,0.3,0.33,20000
2020-08-05,0.3,0.3,0.3,0.3,6500
2020-08-07,0.325,0.325,0.325,0.325,11000
2020-08-10,0.325,0.325,0.325,0.325,0
2020-08-11,0.325,0.34,0.325,0.33,21500
2020-08-12,0.33,0.33,0.33,0.33,20000
2020-08-14,0.33,0.33,0.33,0.33,581000
2020-08-17,0.35,0.36,0.33,0.36,1570000
2020-08-18,0.35,0.375,0.35,0.37,85000
2020-08-19,0.375,0.39,0.375,0.39,210000
2020-08-20,0.35,0.355,0.35,0.355,245000
2020-08-21,0.39,0.415,0.39,0.405,455000
2020-08-24,0.405,0.405,0.405,0.405,50000
