Date,High,Low,Open,Close,Volume
2019-07-16,1.3200000524520874,1.0299999713897705,1.2899999618530271,1.0599999427795408,48904000.0
2019-07-17,1.1399999856948853,1.0099999904632568,1.0499999523162842,1.0299999713897705,15804000.0
2019-07-18,1.0499999523162842,1.0,1.0299999713897705,1.0099999904632568,6644000.0
2019-07-19,1.1100000143051147,0.9399999976158142,1.0199999809265137,1.0399999618530271,15684000.0
2019-07-22,1.0700000524520874,1.0,1.0399999618530271,1.0099999904632568,10168000.0
2019-07-23,1.0800000429153442,1.0099999904632568,1.0099999904632568,1.0499999523162842,3484000.0
2019-07-24,1.1100000143051147,1.0399999618530271,1.0399999618530271,1.0599999427795408,2724000.0
2019-07-25,1.0700000524520874,1.0399999618530271,1.0700000524520874,1.0399999618530271,1252000.0
2019-07-26,1.0700000524520874,1.0399999618530271,1.0399999618530271,1.0399999618530271,1964000.0
2019-07-29,1.0499999523162842,1.0,1.0499999523162842,1.0199999809265137,1936000.0
2019-07-30,1.0299999713897705,1.0,1.0199999809265137,1.0099999904632568,1072000.0
2019-07-31,1.0099999904632568,0.9399999976158142,1.0099999904632568,0.9900000095367432,2588000.0
2019-08-01,1.0499999523162842,0.9800000190734864,0.9900000095367432,1.0299999713897705,1676000.0
2019-08-02,1.0299999713897705,0.959999978542328,1.0299999713897705,1.0099999904632568,1776000.0
2019-08-05,0.9800000190734864,0.9499999880790709,0.9800000190734864,0.959999978542328,708000.0
2019-08-06,0.9499999880790709,0.8700000047683716,0.8999999761581421,0.9399999976158142,1980000.0
2019-08-07,0.9900000095367432,0.9100000262260436,0.9100000262260436,0.9900000095367432,612000.0
2019-08-08,0.9800000190734864,0.9399999976158142,0.959999978542328,0.9700000286102296,1176000.0
2019-08-09,0.9700000286102296,0.9300000071525574,0.9700000286102296,0.9700000286102296,580000.0
2019-08-12,0.959999978542328,0.9300000071525574,0.9300000071525574,0.959999978542328,252000.0
2019-08-13,0.959999978542328,0.9300000071525574,0.9300000071525574,0.959999978542328,376000.0
2019-08-14,0.959999978542328,0.9300000071525574,0.9300000071525574,0.959999978542328,644000.0
2019-08-15,0.9499999880790709,0.8999999761581421,0.9399999976158142,0.9499999880790709,728000.0
2019-08-16,0.9800000190734864,0.9399999976158142,0.9499999880790709,0.9800000190734864,1876000.0
2019-08-19,1.1599999666213991,1.0,1.0,1.149999976158142,10344000.0
2019-08-20,1.2699999809265137,1.1299999952316284,1.1599999666213991,1.2000000476837158,13000000.0
2019-08-21,1.25,1.0099999904632568,1.2000000476837158,1.0299999713897705,7308000.0
2019-08-22,1.0599999427795408,0.9499999880790709,1.0199999809265137,1.0199999809265137,3840000.0
2019-08-23,1.0499999523162842,0.959999978542328,0.9800000190734864,1.0,2440000.0
2019-08-26,0.9900000095367432,0.9499999880790709,0.9700000286102296,0.9900000095367432,1152000.0
2019-08-27,0.9800000190734864,0.9300000071525574,0.9800000190734864,0.959999978542328,1396000.0
2019-08-28,0.9499999880790709,0.9100000262260436,0.9399999976158142,0.9200000166893004,716000.0
2019-08-29,0.9499999880790709,0.8799999952316284,0.8999999761581421,0.9300000071525574,1208000.0
2019-08-30,0.9399999976158142,0.8799999952316284,0.9300000071525574,0.9200000166893004,748000.0
2019-09-02,0.9200000166893004,0.8700000047683716,0.8899999856948853,0.8899999856948853,1128000.0
2019-09-03,0.8999999761581421,0.8600000143051147,0.8999999761581421,0.8799999952316284,504000.0
2019-09-04,0.9100000262260436,0.8700000047683716,0.8799999952316284,0.8999999761581421,412000.0
2019-09-05,0.9300000071525574,0.8999999761581421,0.8999999761581421,0.9300000071525574,264000.0
2019-09-06,0.959999978542328,0.9399999976158142,0.9499999880790709,0.959999978542328,688000.0
2019-09-09,0.9700000286102296,0.9399999976158142,0.9399999976158142,0.9399999976158142,272000.0
2019-09-10,0.9399999976158142,0.8899999856948853,0.9399999976158142,0.8899999856948853,1272000.0
2019-09-11,0.8999999761581421,0.8799999952316284,0.8799999952316284,0.8999999761581421,1168000.0
2019-09-12,0.9100000262260436,0.8799999952316284,0.8899999856948853,0.8999999761581421,656000.0
2019-09-13,0.9100000262260436,0.8799999952316284,0.8899999856948853,0.8999999761581421,276000.0
2019-09-16,0.959999978542328,0.9100000262260436,0.9100000262260436,0.9499999880790709,1276000.0
2019-09-17,1.0700000524520874,0.9499999880790709,0.9499999880790709,1.0199999809265137,3476000.0
2019-09-18,1.0199999809265137,0.9399999976158142,1.0199999809265137,0.9700000286102296,1412000.0
2019-09-19,1.0,0.9200000166893004,0.9700000286102296,0.9499999880790709,2872000.0
2019-09-20,0.959999978542328,0.9200000166893004,0.9300000071525574,0.9300000071525574,740000.0
2019-09-23,0.9200000166893004,0.8899999856948853,0.9100000262260436,0.9100000262260436,856000.0
2019-09-24,0.9200000166893004,0.8999999761581421,0.8999999761581421,0.9200000166893004,480000.0
2019-09-25,0.9200000166893004,0.8799999952316284,0.8899999856948853,0.9200000166893004,1060000.0
2019-09-26,0.9200000166893004,0.8600000143051147,0.8899999856948853,0.8799999952316284,1840000.0
2019-09-27,0.8899999856948853,0.8600000143051147,0.8700000047683716,0.8700000047683716,972000.0
2019-09-30,0.8700000047683716,0.8600000143051147,0.8600000143051147,0.8700000047683716,500000.0
2019-10-02,0.8799999952316284,0.8399999737739563,0.8500000238418579,0.8799999952316284,716000.0
2019-10-03,0.8600000143051147,0.8199999928474426,0.8500000238418579,0.8600000143051147,228000.0
2019-10-04,0.8999999761581421,0.8100000023841858,0.8299999833106995,0.8600000143051147,13436000.0
2019-10-08,0.8600000143051147,0.8500000238418579,0.8600000143051147,0.8500000238418579,164000.0
2019-10-09,0.8700000047683716,0.8500000238418579,0.8600000143051147,0.8600000143051147,1008000.0
2019-10-10,0.8799999952316284,0.8399999737739563,0.8500000238418579,0.8500000238418579,1012000.0
2019-10-11,0.8700000047683716,0.8399999737739563,0.8500000238418579,0.8700000047683716,308000.0
2019-10-14,0.8700000047683716,0.8500000238418579,0.8700000047683716,0.8500000238418579,140000.0
2019-10-15,0.8799999952316284,0.8500000238418579,0.8500000238418579,0.8799999952316284,204000.0
2019-10-16,0.9300000071525574,0.8500000238418579,0.8500000238418579,0.9100000262260436,6988000.0
2019-10-17,0.9100000262260436,0.8600000143051147,0.8899999856948853,0.8700000047683716,2292000.0
2019-10-18,0.8799999952316284,0.8299999833106995,0.8600000143051147,0.8799999952316284,844000.0
2019-10-21,0.8999999761581421,0.8700000047683716,0.8700000047683716,0.8799999952316284,3320000.0
2019-10-22,0.8799999952316284,0.7799999713897705,0.8600000143051147,0.8399999737739563,2416000.0
2019-10-23,0.8600000143051147,0.8100000023841858,0.8100000023841858,0.8600000143051147,300000.0
2019-10-24,0.8799999952316284,0.8299999833106995,0.8299999833106995,0.8700000047683716,184000.0
2019-10-25,0.8999999761581421,0.8399999737739563,0.8399999737739563,0.8999999761581421,800000.0
2019-10-28,0.8899999856948853,0.8500000238418579,0.8600000143051147,0.8799999952316284,504000.0
2019-10-29,0.8700000047683716,0.8600000143051147,0.8600000143051147,0.8700000047683716,36000.0
2019-10-30,0.8700000047683716,0.8399999737739563,0.8600000143051147,0.8399999737739563,716000.0
2019-10-31,0.8600000143051147,0.8299999833106995,0.8299999833106995,0.8600000143051147,80000.0
2019-11-01,0.8600000143051147,0.8399999737739563,0.8600000143051147,0.8600000143051147,228000.0
2019-11-04,0.8799999952316284,0.8399999737739563,0.8600000143051147,0.8700000047683716,340000.0
2019-11-05,0.8999999761581421,0.8500000238418579,0.8500000238418579,0.8899999856948853,328000.0
2019-11-06,0.9399999976158142,0.8799999952316284,0.8899999856948853,0.8899999856948853,356000.0
2019-11-07,0.8999999761581421,0.8700000047683716,0.8999999761581421,0.8799999952316284,96000.0
2019-11-08,0.8600000143051147,0.8600000143051147,0.8600000143051147,0.8700000047683716,120000.0
2019-11-11,0.8500000238418579,0.4699999988079071,0.8500000238418579,0.6000000238418579,41504000.0
2019-11-12,0.6000000238418579,0.5299999713897705,0.6000000238418579,0.5600000023841858,3764000.0
2019-11-13,0.5299999713897705,0.4350000023841858,0.5199999809265137,0.44999998807907104,8604000.0
2019-11-14,0.479999989271164,0.41999998688697815,0.41999998688697815,0.44999998807907104,3180000.0
2019-11-15,0.4600000083446503,0.4449999928474426,0.4600000083446503,0.4449999928474426,676000.0
2019-11-18,0.5400000214576721,0.4650000035762787,0.4650000035762787,0.4950000047683716,3272000.0
2019-11-19,0.5400000214576721,0.479999989271164,0.4950000047683716,0.4850000143051148,1176000.0
2019-11-20,0.5,0.4650000035762787,0.4850000143051148,0.4650000035762787,2100000.0
2019-11-21,0.4699999988079071,0.4399999976158142,0.4650000035762787,0.4600000083446503,1456000.0
2019-11-22,0.4449999928474426,0.4099999964237213,0.4449999928474426,0.41999998688697815,1156000.0
2019-11-25,0.44999998807907104,0.4300000071525574,0.4300000071525574,0.4449999928474426,268000.0
2019-11-26,0.4699999988079071,0.4350000023841858,0.4449999928474426,0.4600000083446503,588000.0
2019-11-27,0.4900000095367432,0.4300000071525574,0.4600000083446503,0.4399999976158142,716000.0
2019-11-28,0.4600000083446503,0.4600000083446503,0.4600000083446503,0.4600000083446503,0.0
2019-11-29,0.479999989271164,0.44999998807907104,0.44999998807907104,0.4600000083446503,636000.0
2019-12-02,0.479999989271164,0.4600000083446503,0.4749999940395355,0.4600000083446503,252000.0
2019-12-03,0.4600000083446503,0.4449999928474426,0.4600000083446503,0.44999998807907104,4136000.0
2019-12-04,0.5899999737739563,0.4550000131130218,0.4650000035762787,0.5099999904632568,6068000.0
2019-12-05,0.7099999785423279,0.5099999904632568,0.5099999904632568,0.699999988079071,19536000.0
2019-12-06,0.7799999713897705,0.6000000238418579,0.699999988079071,0.6700000166893005,14580000.0
2019-12-09,0.8199999928474426,0.6800000071525574,0.6800000071525574,0.7599999904632568,6528000.0
2019-12-10,0.7699999809265137,0.7400000095367432,0.7699999809265137,0.7599999904632568,1052000.0
2019-12-11,0.75,0.7099999785423279,0.7200000286102295,0.7200000286102295,1064000.0
2019-12-12,0.7699999809265137,0.699999988079071,0.7200000286102295,0.7599999904632568,860000.0
2019-12-13,0.7699999809265137,0.7200000286102295,0.7599999904632568,0.75,372000.0
2019-12-16,0.9100000262260436,0.7400000095367432,0.7400000095367432,0.8899999856948853,8300000.0
2019-12-17,0.9399999976158142,0.8799999952316284,0.9200000166893004,0.9100000262260436,10348450.0
2019-12-18,0.9399999976158142,0.8700000047683716,0.8999999761581421,0.9200000166893004,5796000.0
2019-12-19,0.9200000166893004,0.8899999856948853,0.9200000166893004,0.9100000262260436,952000.0
2019-12-20,0.9300000071525574,0.8899999856948853,0.8999999761581421,0.9200000166893004,804000.0
2019-12-23,0.9200000166893004,0.8899999856948853,0.9200000166893004,0.9100000262260436,460000.0
2019-12-24,0.8899999856948853,0.8899999856948853,0.8899999856948853,0.8899999856948853,36000.0
2019-12-27,0.9800000190734864,0.8999999761581421,0.8999999761581421,0.9200000166893004,1444000.0
2019-12-30,0.9300000071525574,0.8999999761581421,0.9300000071525574,0.9100000262260436,852000.0
2019-12-31,0.9200000166893004,0.8899999856948853,0.8899999856948853,0.9200000166893004,164000.0
2020-01-02,0.9200000166893004,0.8799999952316284,0.8999999761581421,0.9200000166893004,492000.0
2020-01-03,0.8999999761581421,0.8299999833106995,0.8999999761581421,0.8999999761581421,8792000.0
2020-01-06,0.8799999952316284,0.8600000143051147,0.8700000047683716,0.8700000047683716,520000.0
2020-01-07,0.8999999761581421,0.8600000143051147,0.8600000143051147,0.8899999856948853,5152000.0
2020-01-08,0.8899999856948853,0.8600000143051147,0.8899999856948853,0.8899999856948853,1048000.0
2020-01-09,0.959999978542328,0.8899999856948853,0.8899999856948853,0.9300000071525574,2056000.0
2020-01-10,0.9300000071525574,0.8999999761581421,0.8999999761581421,0.9300000071525574,328000.0
2020-01-13,0.9800000190734864,0.9100000262260436,0.9399999976158142,0.9300000071525574,2104000.0
2020-01-14,1.0499999523162842,0.9399999976158142,0.9399999976158142,1.0499999523162842,2720000.0
2020-01-15,1.0499999523162842,0.9499999880790709,1.0199999809265137,1.0499999523162842,3204000.0
2020-01-16,1.0399999618530271,1.0,1.0299999713897705,1.0,380000.0
2020-01-17,1.0,0.9700000286102296,1.0,0.9800000190734864,208000.0
2020-01-20,0.9800000190734864,0.9700000286102296,0.9700000286102296,0.9800000190734864,244000.0
2020-01-21,1.0700000524520874,0.959999978542328,0.9700000286102296,1.0299999713897705,1320000.0
2020-01-22,1.0499999523162842,1.0299999713897705,1.0299999713897705,1.0499999523162842,596000.0
2020-01-23,1.0399999618530271,1.0,1.0399999618530271,1.0099999904632568,1272000.0
2020-01-24,1.0099999904632568,1.0,1.0099999904632568,1.0,84000.0
2020-01-29,1.0,0.9700000286102296,0.9700000286102296,0.9800000190734864,1192000.0
2020-01-30,1.0,0.9499999880790709,1.0,0.9900000095367432,488000.0
2020-01-31,0.9499999880790709,0.8999999761581421,0.9399999976158142,0.9499999880790709,1424000.0
2020-02-03,0.9300000071525574,0.9300000071525574,0.9300000071525574,0.9300000071525574,0.0
2020-02-04,0.9700000286102296,0.9700000286102296,0.9700000286102296,0.9700000286102296,0.0
2020-02-05,0.9100000262260436,0.8700000047683716,0.9100000262260436,0.9100000262260436,304000.0
2020-02-06,0.9200000166893004,0.9100000262260436,0.9100000262260436,0.9200000166893004,52000.0
2020-02-07,0.9800000190734864,0.9100000262260436,0.9800000190734864,0.9100000262260436,2048000.0
2020-02-10,0.959999978542328,0.9300000071525574,0.959999978542328,0.9300000071525574,8000.0
2020-02-11,0.959999978542328,0.9399999976158142,0.9300000071525574,0.959999978542328,48000.0
2020-02-12,0.9900000095367432,0.9200000166893004,0.9399999976158142,0.9900000095367432,88000.0
2020-02-13,0.9800000190734864,0.9800000190734864,0.9800000190734864,0.9800000190734864,0.0
2020-02-14,0.959999978542328,0.9200000166893004,0.9300000071525574,0.959999978542328,80000.0
2020-02-17,0.959999978542328,0.959999978542328,0.959999978542328,0.959999978542328,0.0
2020-02-18,0.9300000071525574,0.9200000166893004,0.9300000071525574,0.9200000166893004,1432000.0
2020-02-19,0.9800000190734864,0.9200000166893004,0.9800000190734864,0.9200000166893004,3608000.0
2020-02-20,0.9300000071525574,0.8999999761581421,0.9300000071525574,0.8999999761581421,1388000.0
2020-02-21,0.9399999976158142,0.8999999761581421,0.8999999761581421,0.9200000166893004,188000.0
2020-02-24,0.9200000166893004,0.9200000166893004,0.9200000166893004,0.9200000166893004,12000.0
2020-02-25,0.8999999761581421,0.8600000143051147,0.8999999761581421,0.8600000143051147,2396000.0
2020-02-26,0.8700000047683716,0.8399999737739563,0.8700000047683716,0.8700000047683716,312000.0
2020-02-27,0.8700000047683716,0.8700000047683716,0.8700000047683716,0.8700000047683716,0.0
2020-02-28,0.8500000238418579,0.8299999833106995,0.8299999833106995,0.8500000238418579,32000.0
2020-03-02,0.8500000238418579,0.8299999833106995,0.8299999833106995,0.8500000238418579,4000.0
2020-03-03,0.8500000238418579,0.8500000238418579,0.8500000238418579,0.8500000238418579,68000.0
2020-03-04,0.9300000071525574,0.8500000238418579,0.8500000238418579,0.8999999761581421,372000.0
2020-03-05,0.8399999737739563,0.7799999713897705,0.8399999737739563,0.8199999928474426,284000.0
2020-03-06,0.8199999928474426,0.7900000214576721,0.8100000023841858,0.8000000119209291,600000.0
2020-03-09,0.8000000119209291,0.8000000119209291,0.8000000119209291,0.8000000119209291,0.0
2020-03-10,0.7799999713897705,0.7799999713897705,0.7799999713897705,0.7799999713897705,0.0
2020-03-11,0.75,0.75,0.75,0.75,44000.0
2020-03-12,0.75,0.6499999761581421,0.6899999976158142,0.75,224000.0
2020-03-13,0.8100000023841858,0.75,0.75,0.7799999713897705,332000.0
2020-03-16,0.8000000119209291,0.7699999809265137,0.8000000119209291,0.7699999809265137,504000.0
2020-03-17,0.7699999809265137,0.7699999809265137,0.7699999809265137,0.7699999809265137,0.0
2020-03-18,0.7699999809265137,0.6800000071525574,0.75,0.7099999785423279,704000.0
2020-03-19,0.7099999785423279,0.7099999785423279,0.7099999785423279,0.7099999785423279,0.0
2020-03-20,0.7099999785423279,0.699999988079071,0.699999988079071,0.7099999785423279,100000.0
2020-03-23,0.7099999785423279,0.7099999785423279,0.7099999785423279,0.7099999785423279,0.0
2020-03-24,0.7099999785423279,0.7099999785423279,0.7099999785423279,0.7099999785423279,0.0
2020-03-25,0.699999988079071,0.699999988079071,0.699999988079071,0.699999988079071,0.0
2020-03-26,0.699999988079071,0.699999988079071,0.699999988079071,0.699999988079071,0.0
2020-03-27,0.699999988079071,0.699999988079071,0.699999988079071,0.699999988079071,0.0
2020-03-30,0.699999988079071,0.699999988079071,0.699999988079071,0.699999988079071,0.0
2020-03-31,0.6800000071525574,0.6800000071525574,0.6800000071525574,0.6800000071525574,0.0
2020-04-01,0.6800000071525574,0.6800000071525574,0.6800000071525574,0.6800000071525574,0.0
2020-04-02,0.6800000071525574,0.6800000071525574,0.6800000071525574,0.6800000071525574,0.0
2020-04-03,0.7200000286102295,0.6100000143051147,0.6100000143051147,0.7200000286102295,96000.0
2020-04-06,0.6899999976158142,0.6499999761581421,0.6899999976158142,0.6600000262260437,20000.0
2020-04-07,0.6600000262260437,0.6600000262260437,0.6600000262260437,0.6600000262260437,0.0
2020-04-08,0.8000000119209291,0.6800000071525574,0.6800000071525574,0.7799999713897705,212000.0
2020-04-09,0.7799999713897705,0.7799999713897705,0.7799999713897705,0.7799999713897705,0.0
2020-04-14,0.7599999904632568,0.7300000190734863,0.7400000095367432,0.7599999904632568,128000.0
2020-04-15,0.7699999809265137,0.699999988079071,0.75,0.7699999809265137,156000.0
2020-04-16,0.8000000119209291,0.7799999713897705,0.7799999713897705,0.8000000119209291,916000.0
2020-04-17,0.7799999713897705,0.7799999713897705,0.7799999713897705,0.7799999713897705,0.0
2020-04-20,0.8299999833106995,0.7099999785423279,0.8299999833106995,0.7099999785423279,68000.0
2020-04-21,0.7400000095367432,0.6399999856948853,0.7099999785423279,0.7200000286102295,112000.0
2020-04-22,0.8500000238418579,0.7099999785423279,0.7099999785423279,0.8399999737739563,108000.0
2020-04-23,0.9700000286102296,0.8100000023841858,0.8100000023841858,0.8600000143051147,3144000.0
2020-04-24,0.9200000166893004,0.8500000238418579,0.8600000143051147,0.8899999856948853,4520000.0
2020-04-27,0.8899999856948853,0.8000000119209291,0.8899999856948853,0.8199999928474426,648000.0
2020-04-28,0.9100000262260436,0.8000000119209291,0.8199999928474426,0.8899999856948853,828000.0
2020-04-29,0.8399999737739563,0.8000000119209291,0.8500000238418579,0.8199999928474426,468000.0
2020-05-04,0.7599999904632568,0.75,0.7599999904632568,0.75,48000.0
2020-05-05,0.7599999904632568,0.6800000071525574,0.7599999904632568,0.7099999785423279,988000.0
2020-05-06,0.7300000190734863,0.6499999761581421,0.6700000166893005,0.6700000166893005,700000.0
2020-05-07,0.6899999976158142,0.6000000238418579,0.6200000047683716,0.6800000071525574,716000.0
2020-05-08,0.6800000071525574,0.6800000071525574,0.6800000071525574,0.6800000071525574,0.0
2020-05-11,0.6600000262260437,0.5600000023841858,0.6299999952316284,0.6100000143051147,400000.0
2020-05-12,0.6499999761581421,0.6100000143051147,0.6100000143051147,0.6499999761581421,132000.0
2020-05-13,0.6499999761581421,0.6499999761581421,0.6499999761581421,0.6499999761581421,0.0
2020-05-14,0.6399999856948853,0.6299999952316284,0.6399999856948853,0.6200000047683716,40000.0
2020-05-15,0.6200000047683716,0.6200000047683716,0.6200000047683716,0.6200000047683716,0.0
2020-05-18,0.6299999952316284,0.6299999952316284,0.6299999952316284,0.6299999952316284,0.0
2020-05-19,0.6399999856948853,0.6399999856948853,0.6299999952316284,0.6399999856948853,40000.0
2020-05-20,0.6499999761581421,0.5899999737739563,0.6399999856948853,0.6399999856948853,56000.0
2020-05-21,0.6700000166893005,0.6499999761581421,0.6499999761581421,0.6600000262260437,96000.0
2020-05-22,0.6600000262260437,0.6299999952316284,0.6600000262260437,0.6299999952316284,48000.0
2020-05-25,0.6399999856948853,0.6399999856948853,0.6399999856948853,0.6399999856948853,0.0
2020-05-26,0.6600000262260437,0.6299999952316284,0.6299999952316284,0.6499999761581421,72000.0
2020-05-27,0.6499999761581421,0.6499999761581421,0.6499999761581421,0.6499999761581421,0.0
2020-05-28,0.6499999761581421,0.6499999761581421,0.6499999761581421,0.6499999761581421,80000.0
2020-05-29,0.6299999952316284,0.6000000238418579,0.6299999952316284,0.6000000238418579,28000.0
2020-06-01,0.6200000047683716,0.6100000143051147,0.6100000143051147,0.6100000143051147,28000.0
2020-06-02,0.6600000262260437,0.6100000143051147,0.6100000143051147,0.6499999761581421,44000.0
2020-06-03,0.699999988079071,0.699999988079071,0.699999988079071,0.699999988079071,0.0
2020-06-04,0.6899999976158142,0.6700000166893005,0.6899999976158142,0.6700000166893005,132000.0
2020-06-05,0.6700000166893005,0.6700000166893005,0.6700000166893005,0.6700000166893005,0.0
2020-06-08,0.6899999976158142,0.6200000047683716,0.6899999976158142,0.6299999952316284,12000.0
2020-06-09,0.699999988079071,0.6299999952316284,0.6299999952316284,0.6899999976158142,56000.0
2020-06-10,0.6899999976158142,0.6100000143051147,0.6899999976158142,0.6100000143051147,28000.0
2020-06-11,0.6100000143051147,0.6100000143051147,0.6100000143051147,0.6100000143051147,0.0
2020-06-12,0.6200000047683716,0.6100000143051147,0.6200000047683716,0.6100000143051147,584000.0
2020-06-15,0.6100000143051147,0.6100000143051147,0.6100000143051147,0.6100000143051147,0.0
2020-06-16,0.9300000071525574,0.6299999952316284,0.6700000166893005,0.9300000071525574,2632000.0
2020-06-17,1.100000023841858,0.8299999833106995,0.8899999856948853,1.0,10732000.0
2020-06-18,1.0599999427795408,1.0099999904632568,1.0199999809265137,1.0299999713897705,2888000.0
2020-06-19,1.0499999523162842,0.9800000190734864,0.9800000190734864,1.0299999713897705,1204000.0
2020-06-22,1.0399999618530271,1.0,1.0299999713897705,1.0199999809265137,1060000.0
2020-06-23,1.0,0.8299999833106995,1.0,0.8299999833106995,2872000.0
2020-06-24,0.8799999952316284,0.6700000166893005,0.8799999952316284,0.6700000166893005,1956000.0
2020-06-26,0.8799999952316284,0.699999988079071,0.7099999785423279,0.7400000095367432,712000.0
2020-06-29,0.7400000095367432,0.699999988079071,0.7400000095367432,0.7099999785423279,476000.0
2020-06-30,0.8399999737739563,0.699999988079071,0.7200000286102295,0.8100000023841858,752000.0
2020-07-02,0.8100000023841858,0.7300000190734863,0.8100000023841858,0.7300000190734863,496000.0
2020-07-03,0.7599999904632568,0.699999988079071,0.7099999785423279,0.699999988079071,452000.0
2020-07-06,0.7200000286102295,0.6899999976158142,0.699999988079071,0.699999988079071,184000.0
2020-07-07,0.7200000286102295,0.6700000166893005,0.699999988079071,0.7099999785423279,744000.0
2020-07-08,0.7300000190734863,0.699999988079071,0.7300000190734863,0.7099999785423279,20000.0
2020-07-09,0.7099999785423279,0.6499999761581421,0.7099999785423279,0.6899999976158142,68000.0
2020-07-10,0.6899999976158142,0.6499999761581421,0.6499999761581421,0.6800000071525574,92000.0
2020-07-13,0.699999988079071,0.6499999761581421,0.6499999761581421,0.6600000262260437,372000.0
2020-07-14,0.8399999737739563,0.6899999976158142,0.6899999976158142,0.7900000214576721,1424000.0
2020-07-15,0.8399999737739563,0.7900000214576721,0.7900000214576721,0.8199999928474426,2636000.0
2020-07-16,0.8199999928474426,0.8000000119209291,0.8199999928474426,0.8100000023841858,552000.0
2020-07-17,0.8100000023841858,0.7900000214576721,0.8100000023841858,0.8100000023841858,204000.0
2020-07-20,0.8199999928474426,0.7200000286102295,0.8100000023841858,0.7400000095367432,168000.0
2020-07-21,0.8100000023841858,0.7799999713897705,0.8100000023841858,0.7799999713897705,88000.0
2020-07-22,0.7599999904632568,0.7200000286102295,0.7200000286102295,0.7599999904632568,156000.0
2020-07-23,0.9300000071525574,0.7799999713897705,0.9300000071525574,0.7799999713897705,128000.0
2020-07-24,0.8100000023841858,0.75,0.8000000119209291,0.7900000214576721,1852000.0
2020-07-27,0.8500000238418579,0.8100000023841858,0.8500000238418579,0.7900000214576721,20000.0
2020-07-28,0.8199999928474426,0.7900000214576721,0.7900000214576721,0.8000000119209291,184000.0
2020-07-29,0.8999999761581421,0.8199999928474426,0.8199999928474426,0.8999999761581421,720000.0
2020-07-30,0.959999978542328,0.8600000143051147,0.8999999761581421,0.9100000262260436,1072000.0
2020-07-31,0.9300000071525574,0.9300000071525574,0.9300000071525574,0.8999999761581421,4000.0
2020-08-03,0.9399999976158142,0.8100000023841858,0.9399999976158142,0.8500000238418579,300000.0
2020-08-04,0.8999999761581421,0.8199999928474426,0.8500000238418579,0.8399999737739563,120000.0
2020-08-05,0.8899999856948853,0.8000000119209291,0.8899999856948853,0.8100000023841858,500000.0
2020-08-06,0.8799999952316284,0.699999988079071,0.8799999952316284,0.7599999904632568,916000.0
2020-08-07,0.8000000119209291,0.6899999976158142,0.7799999713897705,0.7200000286102295,2432000.0
2020-08-10,0.7400000095367432,0.6000000238418579,0.7400000095367432,0.6399999856948853,7240000.0
2020-08-11,0.75,0.6299999952316284,0.6600000262260437,0.7300000190734863,2888000.0
2020-08-12,0.7400000095367432,0.6600000262260437,0.7300000190734863,0.7099999785423279,888000.0
2020-08-13,0.7099999785423279,0.699999988079071,0.7099999785423279,0.7099999785423279,48000.0
2020-08-14,0.7099999785423279,0.7099999785423279,0.7099999785423279,0.7099999785423279,0.0
2020-08-17,0.699999988079071,0.6800000071525574,0.699999988079071,0.6800000071525574,20000.0
2020-08-18,0.6800000071525574,0.6800000071525574,0.6800000071525574,0.6800000071525574,92000.0
2020-08-19,0.6800000071525574,0.6700000166893005,0.6800000071525574,0.6700000166893005,24000.0
2020-08-20,0.6700000166893005,0.6700000166893005,0.6700000166893005,0.6700000166893005,0.0
2020-08-21,0.6700000166893005,0.6700000166893005,0.6700000166893005,0.6700000166893005,0.0
2020-08-24,0.6600000262260437,0.6299999952316284,0.6499999761581421,0.6600000262260437,1240000.0
2020-08-25,0.6700000166893005,0.6399999856948853,0.6399999856948853,0.6600000262260437,52000.0
