Date,Open,High,Low,Close,Volume
2012-10-19,0.17,0.18,0.17,0.18,650000
2012-10-22,0.18,0.18,0.17,0.17,972000
2012-10-24,0.17,0.18,0.17,0.18,104000
2012-10-25,0.17,0.18,0.17,0.18,1098000
2012-10-26,0.18,0.18,0.18,0.18,366000
2012-10-29,0.18,0.24,0.18,0.22,8136000
2012-10-30,0.24,0.24,0.22,0.22,7046000
2012-10-31,0.22,0.22,0.21,0.21,3054000
2012-11-01,0.21,0.22,0.21,0.21,2890000
2012-11-02,0.23,0.24,0.21,0.23,5678000
2012-11-05,0.23,0.28,0.23,0.28,17964000
2012-11-06,0.28,0.3,0.27,0.29,6648000
2012-11-07,0.28,0.3,0.28,0.3,7194000
2012-11-08,0.29,0.32,0.28,0.31,4914000
2012-11-09,0.3,0.32,0.29,0.3,2874000
2012-11-12,0.3,0.34,0.3,0.32,6458000
2012-11-13,0.32,0.33,0.31,0.33,1049000
2012-11-14,0.32,0.34,0.29,0.32,3188000
2012-11-15,0.3,0.32,0.3,0.31,990000
2012-11-16,0.31,0.31,0.3,0.3,1550000
2012-11-19,0.31,0.31,0.3,0.3,2450000
2012-11-20,0.3,0.3,0.29,0.29,506000
2012-11-21,0.3,0.31,0.3,0.3,1070000
2012-11-22,0.3,0.3,0.3,0.3,5634000
2012-11-23,0.3,0.31,0.3,0.3,1170000
2012-11-26,0.3,0.3,0.29,0.3,2134000
2012-11-27,0.3,0.31,0.3,0.3,2510000
2012-11-28,0.3,0.31,0.29,0.3,1330000
2012-11-29,0.3,0.34,0.3,0.32,1352000
2012-11-30,0.32,0.32,0.3,0.3,1300000
2012-12-03,0.3,0.3,0.3,0.3,236000
2012-12-04,0.3,0.3,0.29,0.29,944000
2012-12-06,0.29,0.29,0.28,0.28,432000
2012-12-07,0.28,0.28,0.27,0.27,422000
2012-12-10,0.27,0.28,0.27,0.28,476000
2012-12-11,0.27,0.27,0.27,0.27,60000
2012-12-12,0.27,0.28,0.27,0.27,1440000
2012-12-13,0.28,0.28,0.27,0.27,298000
2012-12-14,0.28,0.42,0.28,0.33,16034000
2012-12-17,0.33,0.38,0.33,0.37,12214000
2012-12-18,0.38,0.4,0.34,0.37,4386000
2012-12-19,0.37,0.37,0.34,0.36,4748000
2012-12-20,0.37,0.38,0.33,0.35,3932000
2012-12-21,0.34,0.34,0.32,0.33,3708000
2012-12-24,0.33,0.35,0.33,0.34,3108000
2012-12-27,0.34,0.39,0.34,0.37,15052000
2012-12-28,0.38,0.38,0.36,0.37,7736000
2012-12-31,0.37,0.37,0.35,0.36,1838000
2013-01-02,0.36,0.39,0.36,0.39,14286000
2013-01-03,0.39,0.39,0.36,0.37,6051460
2013-01-04,0.38,0.42,0.36,0.41,10716000
2013-01-07,0.41,0.45,0.41,0.44,9746000
2013-01-08,0.46,0.47,0.42,0.47,10988000
2013-01-09,0.48,0.53,0.47,0.53,10532000
2013-01-10,0.54,0.64,0.54,0.64,22188000
2013-01-11,0.64,0.67,0.59,0.62,6608000
2013-01-14,0.62,0.62,0.56,0.58,5264000
2013-01-15,0.59,0.64,0.59,0.62,6288000
2013-01-16,0.63,0.64,0.6,0.63,2734000
2013-01-17,0.62,0.63,0.6,0.63,2258000
2013-01-18,0.63,0.64,0.61,0.63,3048000
2013-01-21,0.61,0.66,0.61,0.65,7766000
2013-01-22,0.66,0.74,0.65,0.73,14498000
2013-01-23,0.73,0.92,0.73,0.87,27114000
2013-01-24,0.87,0.9,0.8,0.82,11418000
2013-01-25,0.78,0.9,0.7,0.89,14945400
2013-01-28,0.89,0.9,0.83,0.88,3646000
2013-01-29,0.85,0.88,0.84,0.86,2928000
2013-01-30,0.86,0.87,0.83,0.87,4470000
2013-01-31,0.87,0.96,0.85,0.94,21774000
2013-02-01,0.94,0.96,0.87,0.91,8740000
2013-02-04,0.91,0.99,0.91,0.98,10190000
2013-02-05,0.97,1.06,0.95,1.05,15484000
2013-02-06,1.05,1.16,1.02,1.13,12383660
2013-02-07,1.13,1.39,1.12,1.18,43668000
2013-02-08,1.18,1.24,1.13,1.18,4938000
2013-02-14,1.21,1.31,1.18,1.26,12726000
2013-02-15,1.23,1.29,1.23,1.27,8798000
2013-02-18,1.28,1.3,1.27,1.29,6418000
2013-02-19,1.3,1.3,1.27,1.29,8712000
2013-02-20,1.28,1.29,1.26,1.27,22248000
2013-02-21,1.27,1.27,1.13,1.16,11090000
2013-02-22,1.13,1.22,1.1,1.16,8554540
2013-02-25,1.16,1.25,1.16,1.22,6428000
2013-02-26,1.22,1.27,1.22,1.25,8768700
2013-02-27,1.26,1.28,1.17,1.18,14502000
2013-02-28,1.2,1.22,1.18,1.2,3571240
2013-03-01,1.2,1.24,1.18,1.21,2562000
2013-03-04,1.19,1.19,1.17,1.19,1908000
2013-03-05,1.19,1.19,1.12,1.16,4294000
2013-03-06,1.16,1.19,1.04,1.06,9866000
2013-03-07,1.05,1.06,0.96,0.99,7598000
2013-03-08,0.98,1.09,0.91,0.92,10966000
2013-03-11,0.92,0.92,0.79,0.82,8874000
2013-03-12,0.82,1.05,0.82,1.03,9252000
2013-03-13,1.03,1.09,0.92,1.0,12172000
2013-03-14,1.0,1.01,0.92,0.95,9344000
2013-03-15,0.98,1.02,0.98,1.0,6242000
2013-03-18,1.0,1.01,0.95,0.98,5306000
2013-03-19,1.01,1.03,0.97,0.99,3526000
2013-03-20,0.99,0.99,0.95,0.98,4954000
2013-03-21,0.98,1.0,0.98,0.98,5094000
2013-03-22,0.99,1.01,0.99,1.01,2476000
2013-03-25,1.01,1.01,0.94,0.98,2460000
2013-03-26,1.0,1.01,0.98,1.01,2690000
2013-03-27,1.01,1.02,1.0,1.01,6926000
2013-03-28,1.0,1.02,1.0,1.02,2112000
2013-04-02,1.02,1.02,0.99,1.0,4800000
2013-04-03,0.99,1.0,0.98,1.0,3748000
2013-04-05,0.98,0.99,0.98,0.99,368000
2013-04-08,0.99,0.99,0.97,0.97,1066000
2013-04-09,0.96,1.02,0.96,0.99,498000
2013-04-10,0.99,1.02,0.99,1.0,1210000
2013-04-11,1.0,1.03,1.0,1.0,2870000
2013-04-12,1.0,1.02,1.0,1.01,2738000
2013-04-15,1.01,1.04,1.0,1.01,5086000
2013-04-16,1.01,1.02,1.0,1.02,1438000
2013-04-17,1.02,1.06,1.02,1.06,8026000
2013-04-18,1.1,1.1,1.04,1.06,13604000
2013-04-19,1.04,1.08,1.02,1.08,6158000
2013-04-22,1.05,1.06,1.03,1.05,1110000
2013-04-23,1.05,1.05,1.03,1.04,924000
2013-04-24,1.04,1.05,1.01,1.03,1660000
2013-04-25,1.03,1.04,1.01,1.03,604000
2013-04-26,1.06,1.07,1.03,1.07,6034000
2013-04-29,1.07,1.26,1.05,1.24,6102000
2013-04-30,1.22,1.24,1.15,1.17,8334000
2013-05-02,1.17,1.17,1.1,1.13,8662000
2013-05-03,1.13,1.18,1.13,1.18,6040000
2013-05-06,1.18,1.18,1.14,1.15,9892000
2013-05-07,1.14,1.15,1.13,1.15,2126000
2013-05-08,1.14,1.16,1.12,1.14,2686000
2013-05-09,1.14,1.14,1.07,1.1,2924000
2013-05-10,1.1,1.11,1.04,1.07,7962000
2013-05-13,1.05,1.05,0.88,0.89,14400000
2013-05-14,0.9,0.97,0.9,0.93,3158000
2013-05-15,0.94,0.99,0.92,0.99,5760000
2013-05-16,1.0,1.0,0.94,0.96,2746000
2013-05-20,0.96,0.96,0.95,0.95,556000
2013-05-21,0.96,1.02,0.95,0.96,3766000
2013-05-22,0.98,0.98,0.93,0.96,1896000
2013-05-23,0.96,1.01,0.95,0.97,4482000
2013-05-24,0.95,0.97,0.93,0.96,1972000
2013-05-27,0.95,0.98,0.94,0.94,7334000
2013-05-28,0.94,1.01,0.94,1.01,3476000
2013-05-29,1.02,1.02,0.94,0.97,6902000
2013-05-30,0.97,0.99,0.94,0.96,6780000
2013-05-31,0.95,0.97,0.93,0.95,6718000
2013-06-03,0.95,0.95,0.93,0.94,1820000
2013-06-04,0.93,0.93,0.92,0.92,388000
2013-06-05,0.9,0.94,0.9,0.92,2900000
2013-06-06,0.93,0.95,0.92,0.95,502000
2013-06-07,0.95,0.95,0.92,0.94,1372000
2013-06-10,0.94,0.97,0.93,0.97,1988000
2013-06-11,0.98,0.99,0.95,0.95,800000
2013-06-13,0.94,0.95,0.9,0.94,1128000
2013-06-14,0.95,0.95,0.93,0.93,76000
2013-06-17,0.95,1.0,0.95,0.98,6954000
2013-06-18,0.97,0.99,0.96,0.99,882000
2013-06-19,0.99,1.01,0.98,1.01,2820000
2013-06-20,1.01,1.02,0.99,1.01,1920000
2013-06-21,1.0,1.23,0.98,1.16,13718000
2013-06-24,1.15,1.15,1.06,1.1,5248000
2013-06-25,1.12,1.16,1.08,1.13,3776000
2013-06-26,1.17,1.18,1.15,1.17,2118000
2013-06-27,1.15,1.16,1.1,1.15,1590000
2013-06-28,1.14,1.17,1.14,1.16,1928000
2013-07-02,1.16,1.3,1.15,1.28,12742000
2013-07-03,1.29,1.42,1.28,1.29,6578000
2013-07-04,1.3,1.37,1.28,1.28,2504000
2013-07-05,1.27,1.44,1.27,1.43,15342000
2013-07-08,1.45,1.59,1.35,1.37,16330000
2013-07-09,1.38,1.5,1.38,1.49,5210000
2013-07-10,1.52,1.54,1.49,1.52,4710000
2013-07-11,1.53,1.59,1.49,1.55,6440000
2013-07-12,1.56,1.62,1.55,1.56,5532000
2013-07-15,1.56,1.62,1.55,1.6,5236000
2013-07-16,1.62,1.73,1.62,1.72,11418000
2013-07-17,1.72,1.92,1.72,1.89,15512000
2013-07-18,1.92,1.94,1.75,1.76,19568000
2013-07-19,1.76,1.86,1.74,1.8,7278000
2013-07-22,1.79,1.81,1.7,1.77,5074000
2013-07-23,1.8,1.88,1.78,1.84,4940000
2013-07-24,1.84,1.91,1.84,1.89,10926000
2013-07-25,1.89,2.0,1.89,1.99,12057000
2013-07-26,2.05,2.16,2.0,2.09,15100000
2013-07-29,2.14,2.2,2.12,2.16,9566000
2013-07-30,2.16,2.21,2.05,2.09,9464000
2013-07-31,2.12,2.13,2.04,2.08,5698000
2013-08-01,2.08,2.1,1.98,2.03,5456000
2013-08-02,2.07,2.31,2.04,2.3,22000000
2013-08-05,2.38,2.74,2.38,2.73,23023900
2013-08-06,2.74,3.07,2.73,3.06,26750000
2013-08-07,3.1,3.56,2.83,3.09,45434000
2013-08-08,3.2,3.37,3.19,3.31,16882000
2013-08-09,3.38,3.5,3.37,3.46,10390000
2013-08-12,3.5,3.54,3.33,3.46,10895700
2013-08-13,3.49,3.53,3.36,3.44,7386000
2013-08-15,3.45,3.45,3.34,3.38,5276000
2013-08-16,3.37,3.37,3.05,3.1,13660000
2013-08-19,3.1,3.45,3.1,3.44,9912000
2013-08-20,3.45,3.48,3.22,3.29,8330000
2013-08-21,3.32,3.45,3.1,3.24,7218000
2013-08-22,3.2,3.31,3.15,3.26,5210000
2013-08-23,3.24,3.33,3.24,3.28,3922000
2013-08-26,3.28,3.38,3.22,3.34,7180000
2013-08-27,3.35,3.38,3.32,3.34,2538000
2013-08-28,3.33,3.33,3.26,3.28,5626000
2013-08-29,3.28,3.33,3.21,3.28,4976000
2013-08-30,3.3,3.3,3.25,3.3,5464000
2013-09-02,3.31,3.55,3.31,3.48,20282000
2013-09-03,3.38,3.5,3.38,3.5,7460000
2013-09-04,3.5,3.52,3.46,3.5,4126000
2013-09-05,3.51,3.52,3.48,3.49,5346000
2013-09-06,3.46,3.51,3.46,3.5,3458000
2013-09-09,3.51,3.52,3.44,3.46,5756000
2013-09-10,3.46,3.47,3.28,3.3,5528000
2013-09-11,3.27,3.3,3.1,3.12,6580000
2013-09-12,3.1,3.41,3.1,3.36,5150000
2013-09-13,3.37,3.38,3.16,3.3,7640000
2013-09-16,3.25,3.3,3.11,3.15,7570000
2013-09-17,3.14,3.24,2.93,2.95,15312000
2013-09-18,2.9,3.09,2.9,3.0,9286000
2013-09-19,3.01,3.08,2.99,3.05,11250000
2013-09-23,3.05,3.08,3.03,3.06,5176000
2013-09-24,3.05,3.25,3.05,3.25,12454020
2013-09-25,3.24,3.31,3.08,3.14,4904000
2013-09-26,3.14,3.15,3.08,3.12,3362000
2013-09-27,3.13,3.17,3.08,3.11,2634000
2013-09-30,3.12,3.33,3.09,3.17,8488020
2013-10-02,3.18,3.3,3.18,3.25,2636015
2013-10-03,3.25,3.29,3.24,3.26,1874033
2013-10-04,3.27,3.3,3.25,3.29,1954000
2013-10-07,3.35,3.35,3.23,3.32,4612000
2013-10-08,3.2,3.32,3.2,3.3,4790015
2013-10-09,3.28,4.05,3.28,4.04,29006004
2013-10-10,4.04,4.95,4.04,4.94,31390028
2013-10-11,5.0,5.0,4.3,4.59,23028104
2013-10-15,4.59,4.9,4.42,4.84,14564018
2013-10-16,4.84,5.56,4.71,5.39,21696096
2013-10-17,5.42,5.8,5.15,5.58,28058000
2013-10-18,5.67,5.88,5.6,5.7,21472820
2013-10-21,5.71,5.75,5.46,5.58,17336032
2013-10-22,5.58,5.58,4.4,4.69,78036496
2013-10-23,4.69,5.43,4.65,5.33,39194180
2013-11-04,6.0,7.3,6.0,6.36,71479440
2013-11-05,6.48,6.61,6.36,6.48,20392004
2013-11-06,6.5,6.62,6.36,6.45,12036000
2013-11-07,6.4,6.51,6.38,6.43,7724000
2013-11-08,6.4,6.52,6.4,6.44,10418100
2013-11-11,6.48,6.99,6.48,6.83,18522000
2013-11-12,6.9,6.91,6.48,6.6,12235500
2013-11-13,6.75,6.9,6.32,6.37,25678000
2013-11-14,6.35,6.35,5.67,6.0,24776000
2013-11-15,6.0,6.25,5.7,6.11,18028000
2013-11-18,6.3,6.3,5.86,6.05,12225073
2013-11-19,6.17,6.17,5.95,6.06,9426000
2013-11-20,6.1,6.1,5.89,5.89,10174000
2013-11-21,5.87,5.87,5.5,5.62,11756000
2013-11-22,5.62,5.8,5.16,5.77,15240000
2013-11-25,5.8,6.28,5.7,6.02,14269500
2013-11-26,6.06,6.26,5.83,6.25,12313000
2013-11-27,6.25,6.43,6.12,6.23,10514000
2013-11-28,6.23,6.38,6.19,6.24,3040000
2013-11-29,6.26,6.35,6.22,6.3,2048000
2013-12-02,6.19,6.3,6.0,6.1,5496000
2013-12-03,6.02,6.21,5.8,6.07,5224000
2013-12-04,6.06,6.15,5.92,6.03,2978000
2013-12-05,6.15,6.27,6.06,6.24,6606000
2013-12-06,6.24,6.26,6.18,6.21,5150000
2013-12-09,6.35,6.48,6.27,6.3,6844000
2013-12-10,6.35,6.36,6.18,6.22,3406000
2013-12-11,6.23,6.28,6.15,6.2,2515000
2013-12-12,6.26,6.27,5.88,6.04,4646000
2013-12-13,6.04,6.24,5.88,6.13,8066000
2013-12-16,6.02,6.2,6.02,6.06,2984000
2013-12-17,6.1,6.15,6.0,6.01,3040000
2013-12-18,6.01,6.12,6.01,6.05,2721000
2013-12-19,6.06,6.15,6.01,6.02,2686000
2013-12-20,6.11,6.17,5.95,6.09,7736593
2013-12-23,6.09,6.1,5.91,5.93,5133000
2013-12-24,6.0,6.0,5.63,5.65,4778000
2013-12-27,5.6,6.14,5.6,6.13,7574700
2013-12-30,6.08,6.32,6.0,6.15,4064000
2013-12-31,6.28,6.31,6.12,6.19,2086000
2014-01-02,6.15,6.18,6.08,6.09,4036000
2014-01-03,6.22,6.22,5.99,6.0,4308000
2014-01-06,6.14,6.14,5.9,5.95,3108000
2014-01-07,6.0,6.13,5.95,6.12,2884000
2014-01-08,6.21,6.48,6.13,6.19,17137000
2014-01-09,6.21,6.27,6.1,6.21,4254001
2014-01-10,6.2,6.27,6.15,6.27,8026000
2014-01-13,6.28,6.32,6.2,6.23,4726000
2014-01-14,6.27,6.28,6.15,6.2,2972000
2014-01-15,6.22,6.23,6.13,6.15,4856000
2014-01-16,6.2,6.2,6.1,6.15,3468000
2014-01-17,6.16,6.16,6.07,6.12,5005180
2014-01-20,6.09,6.12,5.95,5.99,3062000
2014-01-21,6.0,6.15,5.95,6.11,4968000
2014-01-22,6.15,6.15,6.06,6.1,2704000
2014-01-23,6.14,6.14,6.0,6.0,2094000
2014-01-24,6.0,6.06,5.96,5.97,1733000
2014-01-27,5.96,6.15,5.9,6.05,2168000
2014-01-28,6.0,6.0,5.87,5.94,2292000
2014-01-29,5.95,6.01,5.91,6.01,1244000
2014-01-30,6.0,6.05,5.92,6.04,608000
2014-02-04,6.06,6.06,5.87,5.99,800000
2014-02-05,5.99,6.0,5.9,5.9,726000
2014-02-06,5.92,6.03,5.92,6.01,823672
2014-02-07,6.01,6.21,5.9,5.94,4234000
2014-02-10,5.9,5.99,5.9,5.98,1384000
2014-02-11,6.08,6.08,5.98,6.0,2338446
2014-02-12,6.09,6.1,5.93,5.98,2110000
2014-02-13,6.04,6.04,5.95,5.98,1202001
2014-02-14,6.0,6.0,5.94,5.95,2202000
2014-02-17,6.0,6.15,5.98,5.99,4620000
2014-02-18,6.03,6.03,5.95,6.0,3136000
2014-02-19,6.0,6.09,6.0,6.08,3204000
2014-02-20,6.08,6.08,6.0,6.02,2598000
2014-02-21,6.07,6.88,6.05,6.68,34281000
2014-02-24,6.88,7.06,6.68,6.83,24350200
2014-02-25,6.91,6.91,6.68,6.77,14742000
2014-02-26,6.79,7.12,6.75,7.02,21645568
2014-02-27,7.04,7.18,6.85,6.9,19060000
2014-02-28,6.89,7.02,6.79,7.0,7270000
2014-03-03,6.8,7.01,6.78,6.97,8630000
2014-03-04,6.97,7.01,6.81,6.99,8869000
2014-03-05,6.99,7.15,6.97,6.99,7558000
2014-03-06,7.02,7.1,6.94,7.0,5582452
2014-03-07,7.01,7.58,6.99,7.2,15560000
2014-03-10,7.2,7.68,7.13,7.48,16798000
2014-03-11,7.53,8.08,7.49,8.0,20942000
2014-03-12,8.0,8.23,7.77,8.14,13300000
2014-03-13,8.1,8.2,7.93,7.98,9090000
2014-03-14,7.99,8.1,7.86,8.04,8967700
2014-03-17,8.2,8.32,8.08,8.24,6624100
2014-03-18,8.24,8.4,8.16,8.32,6720000
2014-03-19,8.4,8.58,8.25,8.53,12155400
2014-03-20,8.6,8.88,8.5,8.79,13561900
2014-03-21,8.87,9.05,8.67,9.01,17440500
2014-03-24,9.1,9.1,8.35,8.38,14987030
2014-03-25,8.37,8.8,7.7,8.49,25940000
2014-03-26,8.54,8.9,8.53,8.84,9144000
2014-03-27,8.84,9.34,8.71,8.99,15218500
2014-03-28,8.96,9.14,8.8,8.87,4436000
2014-03-31,8.9,9.08,8.89,9.05,3824000
2014-04-01,9.05,9.13,8.88,8.98,5833100
2014-04-02,8.9,9.0,8.62,8.68,6560000
2014-04-03,8.74,9.0,8.64,8.98,7446000
2014-04-04,8.9,8.95,8.81,8.89,3507000
2014-04-07,8.9,8.9,8.66,8.78,1756000
2014-04-08,8.85,8.98,8.78,8.83,4580100
2014-04-09,8.8,8.94,8.77,8.79,3877170
2014-04-10,8.88,8.89,8.7,8.79,3216000
2014-04-11,8.79,8.84,8.71,8.79,5882000
2014-04-14,8.81,8.89,8.79,8.81,3350000
2014-04-15,8.8,9.1,8.8,8.88,5052000
2014-04-16,8.88,9.0,8.83,8.87,2344900
2014-04-17,8.94,9.09,8.91,9.03,6160000
2014-04-22,9.1,9.15,9.02,9.06,6152000
2014-04-23,9.15,9.24,9.11,9.24,5972000
2014-04-24,9.3,9.65,9.19,9.54,13208000
2014-04-25,9.45,10.1,9.45,10.08,16692000
2014-04-28,10.16,10.18,9.92,10.0,7458000
2014-04-29,10.1,10.16,9.82,10.08,4684050
2014-04-30,10.18,10.2,9.98,9.99,3195600
2014-05-02,10.0,10.1,9.91,10.02,1086000
2014-05-05,10.1,10.34,10.02,10.02,6938000
2014-05-07,10.12,10.32,10.1,10.28,4342000
2014-05-08,10.28,10.62,10.28,10.52,5332300
2014-05-09,10.62,11.02,10.62,11.0,8184000
2014-05-12,11.1,12.0,11.06,11.98,14218000
2014-05-13,12.02,12.08,11.4,11.74,10640398
2014-05-14,11.82,11.9,11.48,11.8,8840450
2014-05-15,11.8,11.9,11.66,11.68,5547664
2014-05-16,11.74,11.76,11.0,11.02,8838000
2014-05-19,11.16,11.22,10.7,10.82,6051000
2014-05-20,10.9,11.04,10.52,10.56,7443864
2014-05-21,10.56,10.7,10.26,10.4,8418170
2014-05-22,10.46,10.56,10.0,10.32,11350000
2014-05-23,10.56,11.3,10.26,11.08,10796000
2014-05-26,11.1,11.1,10.78,10.98,4919000
2014-05-27,10.9,11.4,10.86,10.98,4758506
2014-05-28,10.9,10.98,10.2,10.38,11024000
2014-05-29,10.3,10.48,10.2,10.44,5814000
2014-05-30,10.44,10.62,9.85,10.58,14002000
2014-06-03,10.72,10.72,9.98,10.16,7137000
2014-06-04,10.16,10.26,10.02,10.18,3836500
2014-06-05,10.24,10.3,10.08,10.28,4046068
2014-06-06,10.34,10.34,10.14,10.32,3042070
2014-06-09,10.26,10.68,10.26,10.64,5248010
2014-06-10,10.64,10.72,10.24,10.5,5794000
2014-06-11,10.38,10.5,10.26,10.28,3000000
2014-06-12,10.3,10.44,10.28,10.36,1648000
2014-06-13,10.5,10.66,10.32,10.5,4968000
2014-06-16,10.4,10.5,10.08,10.2,7214010
2014-06-17,10.2,10.36,10.06,10.18,4302000
2014-06-18,10.18,10.18,10.02,10.12,4925000
2014-06-19,10.12,10.24,10.0,10.0,3840000
2014-06-20,10.06,10.06,9.04,9.65,19205430
2014-06-23,9.65,10.26,9.56,10.08,5017700
2014-06-24,10.08,10.22,10.08,10.12,2040100
2014-06-25,10.12,10.22,10.04,10.2,3400000
2014-06-26,10.2,10.4,10.1,10.18,3906000
2014-06-27,10.0,10.2,9.98,10.18,2823000
2014-06-30,10.1,10.24,10.0,10.12,2460000
2014-07-02,10.04,10.16,10.02,10.04,3387000
2014-07-03,10.14,10.14,10.0,10.12,4944000
2014-07-04,10.12,10.12,10.06,10.12,2580000
2014-07-07,10.04,10.16,10.02,10.1,2002000
2014-07-08,10.08,10.24,10.08,10.14,3024000
2014-07-09,10.1,10.2,10.02,10.1,2324000
2014-07-10,10.16,10.16,9.85,10.0,2941219
2014-07-11,10.06,10.06,9.9,9.91,1876000
2014-07-14,9.96,10.0,9.89,9.95,2396000
2014-07-15,9.91,9.91,9.28,9.46,5757000
2014-07-16,9.38,9.71,8.89,9.54,8495000
2014-07-17,9.56,9.61,8.99,9.23,6015000
2014-07-18,9.23,9.65,9.18,9.45,4398328
2014-07-21,9.37,9.45,9.21,9.41,1730700
2014-07-22,9.56,9.85,9.25,9.27,3903174
2014-07-23,9.31,9.47,9.16,9.26,1906000
2014-07-24,9.19,9.25,9.05,9.11,3146001
2014-07-25,9.27,9.32,9.08,9.27,1972000
2014-07-28,9.29,9.29,9.05,9.17,2292000
2014-07-29,9.17,9.17,8.95,9.03,3681000
2014-07-30,8.97,9.0,8.42,8.7,12527000
2014-07-31,8.7,8.83,8.57,8.63,2932000
2014-08-01,8.58,8.63,7.99,8.1,7593000
2014-08-04,8.0,8.58,7.99,8.43,4236470
2014-08-05,8.46,9.36,8.4,9.16,9418000
2014-08-06,9.17,9.5,9.17,9.31,5258000
2014-08-07,9.35,9.35,9.03,9.2,4159238
2014-08-08,9.31,9.59,9.2,9.25,2466000
2014-08-11,9.25,9.53,9.25,9.47,3615000
2014-08-12,9.48,9.5,9.34,9.42,2400000
2014-08-13,9.55,10.26,9.55,10.18,10961000
2014-08-14,10.22,10.5,10.16,10.26,7045000
2014-08-15,10.26,10.44,10.14,10.22,3665200
2014-08-18,10.22,10.4,9.8,10.04,8680000
2014-08-19,10.04,10.2,10.02,10.1,1204000
2014-08-20,10.1,10.22,9.8,10.02,5080300
2014-08-21,10.2,10.2,9.9,10.04,2855000
2014-08-22,10.0,10.18,9.86,10.14,4074000
2014-08-25,10.1,10.1,9.9,10.08,2920000
2014-08-26,10.08,10.08,9.82,9.91,1720000
2014-08-27,9.92,10.0,9.91,9.99,1960000
2014-08-28,9.99,10.0,9.88,9.96,2423550
2014-08-29,9.99,10.1,9.8,9.8,2112000
2014-09-01,9.98,9.98,9.33,9.45,2560000
2014-09-02,9.55,9.8,9.32,9.45,2119000
2014-09-03,9.5,9.6,9.4,9.43,2327600
2014-09-04,9.45,9.8,9.42,9.79,2682000
2014-09-05,9.8,9.9,9.5,9.52,3659000
2014-09-08,9.61,9.72,9.44,9.45,1656000
2014-09-10,9.47,9.68,9.43,9.53,1825200
2014-09-11,9.56,9.56,9.29,9.3,1942000
2014-09-12,9.3,9.3,8.79,9.14,3650848
2014-09-15,9.0,9.2,9.0,9.11,2380000
2014-09-16,9.1,9.2,8.85,8.88,2998000
2014-09-17,8.9,8.98,8.8,8.87,2052000
2014-09-18,8.76,8.92,8.46,8.52,5626000
2014-09-19,8.4,8.58,7.9,8.23,12096000
2014-09-23,8.18,8.18,7.56,7.57,12808000
2014-09-24,7.56,8.31,7.5,7.89,8252000
2014-09-25,7.99,8.05,7.63,7.64,3919005
2014-09-26,7.42,7.67,6.7,6.81,17127012
2014-09-29,6.7,7.43,5.8,7.24,17063000
2014-09-30,7.24,7.24,6.82,7.01,4056000
2014-10-03,7.0,7.66,6.9,7.55,4664659
2014-10-06,7.6,8.04,7.55,7.76,4531000
2014-10-07,7.87,7.93,7.48,7.55,2226000
2014-10-08,7.55,7.69,7.1,7.25,3242000
2014-10-09,7.38,7.38,7.03,7.1,3142000
2014-10-10,7.0,7.16,6.9,6.95,3634904
2014-10-13,6.95,7.25,6.72,7.01,4486000
2014-10-14,7.0,7.13,6.9,6.95,4236800
2014-10-15,6.84,7.14,6.84,6.99,4170000
2014-10-16,6.95,7.04,6.85,6.92,2844000
2014-10-17,7.0,7.15,6.93,7.1,4132000
2014-10-20,7.09,7.12,6.87,6.96,2352000
2014-10-21,6.96,7.06,6.88,6.91,2193950
2014-10-22,6.92,6.99,6.85,6.93,1768000
2014-10-23,6.94,7.0,6.9,6.96,1110000
2014-10-24,6.88,7.0,6.85,6.96,2284000
2014-10-27,6.92,6.97,6.81,6.92,2136000
2014-10-28,6.92,6.96,6.75,6.87,1522000
2014-10-29,6.95,7.08,6.88,6.92,2874000
2014-10-30,6.99,6.99,6.82,6.82,1888000
2014-10-31,6.82,6.83,6.32,6.47,8068229
2014-11-03,6.55,6.55,5.92,5.93,16793000
2014-11-04,5.88,6.58,5.42,6.3,25273500
2014-11-05,6.3,6.48,6.1,6.16,5844000
2014-11-06,6.21,6.21,5.9,5.92,6423400
2014-11-07,5.99,6.02,5.83,5.95,4100000
2014-11-10,6.0,6.15,5.84,5.99,6762000
2014-11-11,5.92,6.02,5.77,5.88,5184000
2014-11-12,5.93,5.93,5.65,5.7,7878000
2014-11-13,5.7,6.02,5.7,6.0,5582000
2014-11-14,6.0,6.98,6.0,6.9,18294000
2014-11-17,7.1,7.65,6.99,7.05,15459800
2014-11-18,7.02,7.18,6.65,6.75,8273000
2014-11-19,6.63,7.16,6.63,7.1,7373200
2014-11-20,7.21,7.21,7.04,7.06,4245000
2014-11-21,7.0,7.15,6.97,7.0,3571200
2014-11-24,7.0,7.15,6.69,6.84,6948000
2014-11-25,6.8,6.84,6.7,6.75,4132000
2014-11-26,6.86,6.86,6.7,6.78,2151232
2014-11-27,6.87,6.87,6.69,6.71,3088000
2014-11-28,6.72,6.72,6.5,6.69,3278000
2014-12-01,6.69,6.8,6.23,6.31,4856000
2014-12-02,6.38,6.4,5.98,6.11,7204011
2014-12-03,6.15,6.15,5.86,5.9,8351130
2014-12-04,5.86,6.05,5.83,5.9,7414000
2014-12-05,5.91,5.98,5.7,5.96,6687407
2014-12-08,5.99,6.05,5.85,5.89,2920000
2014-12-09,5.9,5.96,5.53,5.63,6112000
2014-12-10,5.82,5.82,5.65,5.77,2306000
2014-12-11,5.66,5.8,5.6,5.77,2866000
2014-12-12,5.86,5.86,5.65,5.7,2568000
2014-12-15,5.61,5.7,5.5,5.53,3432000
2014-12-16,5.53,5.53,5.39,5.45,5162000
2014-12-17,5.4,5.4,5.0,5.05,11160000
2014-12-18,5.1,5.63,5.1,5.38,7605600
2014-12-19,5.3,6.5,5.18,5.98,8138000
2014-12-22,5.9,6.0,5.5,5.52,9086000
2014-12-23,5.44,5.84,5.42,5.47,4078760
2014-12-24,5.33,5.5,5.33,5.43,1042000
2014-12-29,5.34,5.77,5.34,5.49,2164000
2014-12-30,5.58,5.58,5.44,5.55,1188000
2014-12-31,5.57,5.58,5.45,5.49,664000
2015-01-02,5.52,5.52,5.4,5.43,722000
2015-01-05,5.42,5.72,5.42,5.5,6118000
2015-01-06,5.5,5.77,5.48,5.73,4152000
2015-01-07,5.75,6.05,5.68,5.93,5798938
2015-01-08,5.93,6.05,5.85,5.89,3166000
2015-01-09,5.98,6.2,5.92,6.05,5952000
2015-01-12,6.16,6.75,6.05,6.5,10370000
2015-01-13,6.59,6.9,6.55,6.69,7012400
2015-01-14,6.75,6.75,6.42,6.59,3680000
2015-01-15,6.59,6.67,6.23,6.39,3310000
2015-01-16,6.47,6.8,6.4,6.49,8890000
2015-01-17,6.47,6.47,6.47,6.47,0
2015-01-19,6.48,6.48,6.15,6.2,2040000
2015-01-20,6.4,6.44,6.13,6.14,2656000
2015-01-21,6.18,6.32,6.08,6.17,2769000
2015-01-22,6.25,6.29,6.05,6.13,2212000
2015-01-23,6.15,6.15,6.06,6.14,2930000
2015-01-26,6.06,6.3,6.06,6.11,2135900
2015-01-27,6.13,6.28,6.05,6.13,1744000
2015-01-28,6.03,6.24,6.03,6.12,2134000
2015-01-29,6.06,6.16,6.06,6.07,1090000
2015-01-30,6.03,6.14,5.78,5.99,5011000
2015-02-02,6.03,6.06,5.83,6.0,2294000
2015-02-03,5.94,6.01,5.84,5.89,610000
2015-02-04,5.94,5.99,5.8,5.82,1192000
2015-02-05,5.94,6.05,5.85,5.91,1633316
2015-02-06,5.95,5.98,5.67,5.68,3220000
2015-02-09,5.52,5.73,5.52,5.6,2282000
2015-02-10,5.65,5.95,5.54,5.94,3356000
2015-02-11,5.96,6.09,5.5,5.52,10550000
2015-02-12,5.54,5.6,5.17,5.22,28758420
2015-02-13,5.22,5.5,5.22,5.4,4082000
2015-02-16,5.42,5.48,5.22,5.29,6772000
2015-02-17,5.28,5.32,5.2,5.29,7252000
2015-02-18,5.29,5.4,5.22,5.26,1936000
2015-02-23,5.32,5.37,5.11,5.17,1774000
2015-02-24,5.15,5.22,5.15,5.2,874000
2015-02-25,5.23,5.31,5.17,5.18,2838000
2015-02-26,5.16,5.25,5.16,5.22,1868000
2015-02-27,5.23,5.25,5.18,5.19,3882000
2015-03-02,5.22,5.27,5.15,5.19,5961000
2015-03-03,5.2,5.21,5.03,5.09,9701000
2015-03-04,5.1,5.11,5.0,5.04,7180000
2015-03-05,5.07,5.14,4.91,5.14,10019730
2015-03-06,5.18,5.24,4.8,4.96,9043168
2015-03-09,4.99,5.14,4.83,4.86,6186000
2015-03-10,4.8,4.87,4.3,4.32,18896000
2015-03-11,4.32,4.87,3.88,4.79,26390000
2015-03-12,4.66,5.05,4.51,4.66,10548000
2015-03-13,4.79,4.79,4.57,4.64,2888000
2015-03-16,4.45,5.02,4.45,5.0,17425000
2015-03-17,5.0,5.25,4.98,5.0,22677000
2015-03-18,5.04,5.47,5.04,5.4,16892000
2015-03-19,5.45,6.0,5.45,5.99,23585000
2015-03-20,5.98,6.8,5.73,6.55,30838700
2015-03-23,6.57,6.8,6.12,6.3,23642000
2015-03-24,6.3,6.4,5.9,5.96,17319400
2015-03-25,6.0,6.06,5.65,5.97,19943692
2015-03-26,5.98,6.07,5.79,5.86,12830000
2015-03-27,5.99,6.36,5.72,5.74,17570000
2015-03-30,5.87,5.93,5.58,5.86,18990000
2015-03-31,5.86,5.97,5.74,5.84,9682893
2015-04-01,5.92,5.92,5.65,5.76,11438000
2015-04-02,5.82,5.92,5.7,5.87,11318000
2015-04-08,6.34,6.78,6.01,6.5,41257040
2015-04-09,6.8,7.32,6.4,6.77,41986804
2015-04-10,7.0,7.15,6.75,6.93,24984000
2015-04-13,7.1,7.26,6.98,7.21,50132000
2015-04-14,7.36,7.39,6.88,6.95,29874000
2015-04-15,7.07,7.07,6.4,6.52,26225280
2015-04-16,6.5,6.57,6.22,6.39,18660000
2015-04-17,6.47,6.86,6.46,6.61,28100600
2015-04-20,6.56,6.56,6.04,6.1,20642870
2015-04-21,6.2,6.26,5.96,6.15,12124000
2015-04-22,6.23,6.26,6.08,6.2,18672000
2015-04-23,6.26,6.35,6.09,6.11,23479210
2015-04-24,6.19,6.19,6.0,6.08,11658000
2015-04-27,6.16,6.18,5.7,5.92,33594888
2015-04-28,5.95,5.95,5.72,5.73,16646000
2015-04-29,5.74,5.77,5.4,5.6,23334620
2015-04-30,5.63,5.63,5.42,5.48,14882100
2015-05-04,5.49,5.53,5.23,5.24,23143000
2015-05-05,5.3,5.6,5.2,5.36,31715954
2015-05-06,5.36,5.45,5.3,5.35,17243000
2015-05-07,5.3,5.3,5.0,5.01,23130600
2015-05-08,5.04,5.18,5.02,5.15,17888000
2015-05-11,5.3,5.32,5.11,5.19,15833000
2015-05-12,5.2,5.2,5.0,5.08,17142000
2015-05-13,5.1,5.14,5.01,5.07,13256056
2015-05-14,5.1,5.12,5.01,5.05,17990922
2015-05-15,5.28,5.28,5.08,5.13,18204764
2015-05-18,5.17,5.2,5.06,5.1,19239500
2015-05-19,5.14,5.14,5.0,5.07,24224000
2015-05-20,5.05,5.05,4.83,4.98,31072000
2015-05-21,5.0,5.55,4.99,5.54,55897000
2015-05-22,5.66,5.97,5.65,5.81,54772000
2015-05-26,5.77,6.2,5.58,5.74,49900000
2015-05-27,5.71,5.79,5.51,5.52,23080850
2015-05-28,5.43,5.75,5.4,5.56,40505200
2015-05-29,5.56,5.58,5.42,5.45,19199232
2015-06-01,5.41,5.45,5.2,5.27,31876000
2015-06-02,5.32,5.32,5.06,5.1,22702556
2015-06-03,5.1,5.17,5.0,5.08,14163182
2015-06-04,5.08,5.25,5.0,5.18,21132000
2015-06-05,5.16,5.24,5.05,5.09,14750000
2015-06-08,5.11,5.15,5.01,5.04,14908000
2015-06-09,5.01,5.04,4.83,4.91,21060050
2015-06-10,4.91,4.99,4.85,4.88,13888260
2015-06-11,4.98,4.98,4.83,4.9,9827961
2015-06-12,4.9,4.94,4.65,4.7,28896988
2015-06-15,4.71,4.75,4.39,4.4,21545000
2015-06-16,4.4,4.78,4.4,4.53,16314588
2015-06-17,4.62,4.88,4.6,4.82,15495000
2015-06-18,4.99,4.99,4.67,4.7,9961000
2015-06-19,4.76,5.0,4.72,4.97,11521178
2015-06-22,4.96,4.98,4.85,4.87,7878025
2015-06-23,4.94,4.97,4.75,4.75,14656000
2015-06-24,4.82,4.83,4.73,4.74,8162094
2015-06-25,4.77,4.78,4.66,4.7,8038000
2015-06-26,4.7,4.74,4.45,4.5,12918000
2015-06-29,4.55,4.55,4.0,4.25,18444000
2015-06-30,4.27,4.37,4.04,4.3,11950000
2015-07-02,4.42,4.46,4.04,4.07,13476000
2015-07-03,4.07,4.1,3.66,3.72,27674000
2015-07-06,3.8,3.89,2.79,3.0,80576384
2015-07-07,3.0,3.1,2.38,2.4,36984000
2015-07-08,2.2,2.33,1.6,2.0,90096000
2015-07-09,2.13,2.88,1.97,2.83,85793352
2015-07-10,2.93,3.55,2.9,3.25,51422000
2015-07-13,3.35,3.43,3.16,3.26,34358000
2015-07-14,3.49,3.49,3.18,3.19,22442394
2015-07-15,3.23,3.25,2.91,2.95,20386000
2015-07-16,2.93,3.14,2.76,3.04,15108000
2015-07-17,3.09,3.09,2.99,3.06,10088000
2015-07-20,3.09,3.16,3.05,3.09,6912000
2015-07-21,3.12,3.22,3.05,3.1,8956000
2015-07-22,3.13,3.26,3.07,3.15,12046000
2015-07-23,3.15,3.17,2.97,3.01,19046000
2015-07-24,2.96,3.03,2.88,2.91,13232000
2015-07-27,2.91,2.91,2.56,2.65,22236888
2015-07-28,2.59,2.81,2.59,2.66,10888000
2015-07-29,2.7,2.8,2.65,2.74,8154000
2015-07-30,2.73,2.82,2.68,2.69,7322192
2015-07-31,2.7,2.79,2.66,2.78,5173000
2015-08-03,2.79,2.82,2.66,2.68,3631000
2015-08-04,2.64,2.71,2.61,2.68,3478000
2015-08-05,2.6,2.6,2.27,2.35,29740000
2015-08-06,2.35,2.4,2.12,2.22,32228000
2015-08-07,2.25,2.33,2.19,2.24,20516000
2015-08-10,2.26,2.26,2.16,2.22,22744000
2015-08-11,2.22,2.28,2.16,2.17,19013800
2015-08-12,2.19,2.19,2.06,2.08,29624000
2015-08-13,2.11,2.44,2.08,2.43,46635464
2015-08-14,2.4,2.55,2.3,2.32,34490108
2015-08-17,2.3,2.39,2.24,2.38,18732350
2015-08-18,2.37,2.41,2.2,2.26,18412500
2015-08-19,2.23,2.28,2.09,2.21,17660000
2015-08-20,2.19,2.29,2.08,2.12,19518000
2015-08-21,2.07,2.15,1.95,2.09,29814000
2015-08-24,1.96,1.96,1.85,1.85,20942000
2015-08-25,1.88,2.05,1.79,1.86,18562000
2015-08-26,1.92,1.99,1.85,1.88,16450000
2015-08-27,1.97,2.04,1.9,2.01,9878000
2015-08-28,2.09,2.11,1.96,1.96,15470000
2015-08-31,1.92,1.93,1.85,1.86,10086400
2015-09-01,1.85,1.98,1.85,1.97,9360000
2015-09-02,1.96,2.05,1.88,1.93,7684000
2015-09-04,1.94,1.96,1.86,1.89,2172800
2015-09-07,1.85,1.97,1.83,1.88,5824000
2015-09-08,1.87,1.98,1.87,1.92,10158000
2015-09-09,1.95,2.02,1.95,1.99,14674000
2015-09-10,1.91,1.97,1.9,1.93,8360000
2015-09-11,1.95,1.97,1.89,1.92,7698000
2015-09-14,1.94,1.95,1.85,1.89,8422000
2015-09-15,1.87,1.9,1.83,1.84,5380000
2015-09-16,1.87,1.91,1.85,1.9,6850000
2015-09-17,1.93,1.94,1.87,1.93,7070000
2015-09-18,1.93,2.2,1.91,2.15,64808300
2015-09-21,2.12,2.25,2.08,2.21,23400000
2015-09-22,2.23,2.33,2.22,2.24,22482000
2015-09-23,2.2,2.22,2.05,2.1,15526000
2015-09-24,2.11,2.13,2.05,2.05,7858108
2015-09-25,2.03,2.08,1.99,2.04,8970000
2015-09-29,2.0,2.0,1.87,1.94,5392000
2015-09-30,2.0,2.01,1.92,1.97,3408000
2015-10-02,1.95,2.06,1.95,2.0,3756000
2015-10-05,2.05,2.2,2.05,2.13,11736000
2015-10-06,2.18,2.2,2.1,2.12,8284000
2015-10-07,2.13,2.18,2.12,2.17,6004000
2015-10-08,2.18,2.21,2.12,2.17,11030108
2015-10-09,2.18,2.22,2.17,2.17,11066000
2015-10-12,2.2,2.38,2.2,2.38,28860000
2015-10-13,2.38,2.45,2.33,2.43,20022000
2015-10-14,2.42,2.75,2.37,2.63,42482000
2015-10-15,2.67,3.2,2.66,3.08,111491000
2015-10-16,3.12,3.3,3.03,3.09,69221392
2015-10-19,3.06,3.08,2.73,2.85,52156000
2015-10-20,2.85,2.85,2.64,2.69,34162000
2015-10-22,2.64,2.85,2.58,2.74,41291112
2015-10-23,2.8,2.87,2.73,2.77,28508000
2015-10-26,2.82,2.85,2.55,2.61,39690000
2015-10-27,2.63,2.63,2.49,2.56,21278000
2015-10-28,2.57,2.62,2.3,2.35,54686080
2015-10-29,2.41,2.46,2.3,2.33,56503672
2015-10-30,2.35,2.54,2.24,2.49,47602300
2015-11-02,2.49,2.57,2.4,2.46,25100000
2015-11-03,2.49,2.51,2.42,2.46,9284000
2015-11-04,2.49,2.63,2.48,2.57,23458000
2015-11-05,2.55,2.56,2.48,2.51,11006000
2015-11-06,2.55,2.55,2.5,2.53,7490000
2015-11-09,2.51,2.55,2.45,2.48,9686000
2015-11-10,2.47,2.47,2.37,2.39,9770000
2015-11-11,2.35,2.44,2.35,2.37,7820000
2015-11-12,2.4,2.41,2.33,2.36,10656000
2015-11-13,2.32,2.36,2.27,2.29,12264000
2015-11-16,2.3,2.46,2.22,2.39,20144000
2015-11-17,2.43,2.46,2.34,2.38,10684740
2015-11-18,2.38,2.39,2.31,2.34,4778000
2015-11-19,2.36,2.41,2.34,2.4,7980000
2015-11-20,2.4,2.4,2.36,2.39,6956000
2015-11-23,2.4,2.4,2.33,2.35,6958000
2015-11-24,2.37,2.38,2.3,2.36,5756000
2015-11-25,2.36,2.55,2.33,2.49,23258000
2015-11-26,2.56,2.6,2.4,2.46,19132000
2015-11-27,2.44,2.45,2.29,2.34,15006000
2015-11-30,2.34,2.46,2.24,2.43,22756000
2015-12-01,2.4,2.41,2.34,2.36,9448000
2015-12-02,2.37,2.39,2.29,2.32,17642100
2015-12-03,2.32,2.32,2.24,2.27,10134000
2015-12-04,2.25,2.37,2.23,2.28,15156000
2015-12-07,2.32,2.33,2.21,2.22,14030000
2015-12-08,2.24,2.25,2.1,2.12,17664000
2015-12-09,2.12,2.17,2.1,2.14,12038000
2015-12-10,2.1,2.14,2.03,2.06,11072000
2015-12-11,2.06,2.08,1.95,1.95,20230000
2015-12-14,1.95,2.02,1.87,2.0,10775480
2015-12-15,1.96,2.02,1.93,1.94,11860000
2015-12-16,1.99,2.02,1.95,1.97,13410000
2015-12-17,2.0,2.14,2.0,2.06,23858000
2015-12-18,2.0,2.05,1.95,1.96,38649460
2015-12-21,1.97,2.0,1.94,1.94,11022488
2015-12-22,1.97,1.99,1.94,1.96,8360000
2015-12-23,1.97,2.07,1.97,2.02,17135552
2015-12-24,2.03,2.08,2.02,2.03,7228000
2015-12-28,2.05,2.06,1.98,2.01,9180000
2015-12-29,2.0,2.0,1.96,1.97,6971657
2015-12-30,1.98,2.0,1.96,1.97,6321644
2015-12-31,1.97,1.98,1.95,1.97,4128000
2016-01-04,1.97,1.97,1.85,1.88,12148000
2016-01-05,1.85,1.92,1.85,1.87,10137678
2016-01-06,1.88,1.9,1.85,1.88,9196000
2016-01-07,1.85,1.86,1.7,1.76,18616000
2016-01-08,1.75,1.83,1.75,1.77,8754000
2016-01-11,1.71,1.8,1.56,1.58,29406000
2016-01-12,1.61,1.64,1.55,1.56,7980000
2016-01-13,1.6,1.62,1.54,1.57,13294000
2016-01-14,1.56,1.56,1.49,1.54,17372000
2016-01-15,1.5,1.51,1.28,1.29,54490332
2016-01-18,1.25,1.31,1.23,1.23,18376000
2016-01-19,1.21,1.35,1.21,1.31,28231998
2016-01-20,1.28,1.29,1.18,1.19,26571488
2016-01-21,1.21,1.28,1.12,1.15,22844356
2016-01-22,1.2,1.22,1.15,1.18,21688000
2016-01-25,1.23,1.25,1.19,1.22,21006000
2016-01-26,1.19,1.19,1.08,1.11,27720800
2016-01-27,1.15,1.17,1.1,1.11,14367544
2016-01-28,1.12,1.15,1.04,1.07,20010000
2016-01-29,1.07,1.13,1.04,1.11,18278000
2016-02-01,1.11,1.13,1.09,1.11,9202000
2016-02-02,1.12,1.21,1.11,1.2,11024000
2016-02-03,1.13,1.17,1.11,1.15,8271776
2016-02-04,1.15,1.2,1.12,1.16,6644000
2016-02-05,1.14,1.17,1.1,1.13,5362000
2016-02-11,1.08,1.1,0.99,1.06,5230000
2016-02-12,1.06,1.06,1.02,1.03,4812000
2016-02-15,1.06,1.13,1.04,1.08,16946000
2016-02-16,1.08,1.14,1.08,1.11,12670000
2016-02-17,1.11,1.22,1.11,1.15,18894000
2016-02-18,1.18,1.25,1.18,1.23,30218000
2016-02-19,1.25,1.29,1.19,1.21,23522000
2016-02-22,1.22,1.23,1.18,1.22,16099800
2016-02-23,1.24,1.38,1.22,1.36,45562444
2016-02-24,1.36,1.45,1.31,1.41,49840000
2016-02-25,1.4,1.41,1.31,1.32,28588000
2016-02-26,1.36,1.41,1.34,1.39,15645332
2016-02-29,1.39,1.39,1.27,1.28,38472400
2016-03-01,1.3,1.33,1.28,1.32,12802000
2016-03-02,1.34,1.4,1.33,1.39,19718000
2016-03-03,1.4,1.43,1.37,1.38,10152000
2016-03-04,1.38,1.42,1.35,1.4,13685440
2016-03-07,1.4,1.63,1.4,1.61,58024000
2016-03-08,1.59,1.63,1.52,1.57,31634000
2016-03-09,1.54,1.72,1.53,1.62,28320000
2016-03-10,1.62,1.7,1.53,1.53,28688000
2016-03-11,1.53,1.57,1.49,1.52,16445949
2016-03-14,1.54,1.59,1.53,1.53,9858156
2016-03-15,1.52,1.55,1.48,1.49,12364000
2016-03-16,1.5,1.51,1.42,1.42,12860000
2016-03-17,1.45,1.49,1.44,1.45,9082000
2016-03-18,1.48,1.7,1.46,1.66,18456000
2016-03-21,1.61,1.68,1.59,1.6,21191000
2016-03-22,1.61,1.67,1.59,1.62,16538744
2016-03-23,1.6,1.62,1.52,1.56,14134000
2016-03-24,1.55,1.56,1.5,1.52,9912904
2016-03-29,1.48,1.5,1.44,1.46,12348000
2016-03-30,1.48,1.56,1.48,1.54,10354000
2016-03-31,1.56,1.58,1.48,1.52,8316000
2016-04-01,1.51,1.52,1.44,1.44,10396000
2016-04-05,1.5,1.5,1.42,1.45,7538000
2016-04-06,1.43,1.53,1.43,1.53,11950000
2016-04-07,1.51,1.57,1.51,1.54,9556000
2016-04-08,1.52,1.52,1.49,1.5,4477342
2016-04-11,1.5,1.54,1.49,1.52,7555384
2016-04-12,1.48,1.52,1.48,1.52,10036026
2016-04-13,1.53,1.56,1.52,1.53,10820000
2016-04-14,1.55,1.57,1.52,1.56,7277739
2016-04-15,1.57,1.65,1.56,1.64,21556000
2016-04-18,1.62,1.62,1.55,1.57,8102000
2016-04-19,1.6,1.62,1.59,1.59,6988000
2016-04-20,1.59,1.62,1.56,1.57,8791150
2016-04-21,1.59,1.59,1.52,1.53,7226000
2016-04-22,1.51,1.57,1.51,1.53,4632000
2016-04-25,1.52,1.56,1.5,1.51,6941950
2016-04-26,1.51,1.53,1.46,1.49,5354000
2016-04-27,1.5,1.52,1.48,1.49,4268482
2016-04-28,1.5,1.52,1.46,1.49,6261730
2016-04-29,1.48,1.49,1.46,1.47,1448700
2016-05-03,1.48,1.48,1.43,1.46,7210636
2016-05-04,1.44,1.46,1.43,1.46,2560000
2016-05-05,1.44,1.46,1.4,1.41,6593650
2016-05-06,1.4,1.41,1.36,1.36,6188000
2016-05-09,1.37,1.38,1.29,1.3,5104000
2016-05-10,1.28,1.33,1.26,1.3,5936000
2016-05-11,1.32,1.33,1.26,1.29,3388000
2016-05-12,1.29,1.31,1.25,1.25,1968000
2016-05-13,1.25,1.29,1.23,1.25,3644000
2016-05-16,1.22,1.26,1.22,1.25,3196000
2016-05-17,1.28,1.35,1.27,1.28,5590000
2016-05-18,1.27,1.27,1.23,1.24,4200000
2016-05-19,1.24,1.26,1.22,1.23,2490000
2016-05-20,1.24,1.25,1.18,1.22,4152000
2016-05-23,1.22,1.24,1.21,1.21,2354000
2016-05-24,1.24,1.25,1.15,1.16,12034000
2016-05-25,1.17,1.2,1.15,1.16,7692000
2016-05-26,1.17,1.19,1.12,1.18,6384000
2016-05-27,1.17,1.19,1.11,1.15,14218000
2016-05-30,1.13,1.16,1.12,1.14,4197946
2016-05-31,1.13,1.22,1.13,1.19,12574000
2016-06-01,1.3,1.35,1.26,1.31,34968000
2016-06-02,1.31,1.33,1.25,1.26,11228049
2016-06-03,1.27,1.27,1.17,1.19,28064720
2016-06-06,1.16,1.2,1.13,1.14,32027200
2016-06-07,1.15,1.18,1.12,1.16,18966000
2016-06-08,1.18,1.18,1.1,1.11,21418000
2016-06-10,1.07,1.1,1.03,1.07,12000000
2016-06-13,1.06,1.06,1.02,1.03,15820000
2016-06-14,1.02,1.05,1.0,1.03,14090000
2016-06-15,1.02,1.05,0.99,1.01,29980000
2016-06-16,1.0,1.01,0.95,0.98,37914000
2016-06-17,0.98,1.11,0.95,1.07,37265000
2016-06-20,1.07,1.07,1.0,1.01,24003000
2016-06-21,1.0,1.03,1.0,1.01,10159263
2016-06-22,1.01,1.04,1.01,1.02,7764000
2016-06-23,1.02,1.04,1.02,1.03,3028000
2016-06-24,1.01,1.03,0.96,0.98,15724000
2016-06-27,0.98,1.01,0.96,1.01,4758000
2016-06-28,0.99,1.01,0.98,1.01,5490000
2016-06-29,1.02,1.03,0.99,1.01,7954000
2016-06-30,1.02,1.02,1.0,1.01,4666000
2016-07-04,1.01,1.03,1.01,1.01,6086000
2016-07-05,1.02,1.03,1.01,1.01,5972000
2016-07-06,1.02,1.03,1.0,1.02,14704000
2016-07-07,1.02,1.07,1.01,1.03,18414000
2016-07-08,1.03,1.04,1.0,1.02,11536000
2016-07-11,1.03,1.04,1.02,1.03,5070000
2016-07-12,1.03,1.04,1.02,1.04,6232000
2016-07-13,1.04,1.05,1.01,1.03,9556000
2016-07-14,1.02,1.03,1.0,1.0,16482000
2016-07-15,1.02,1.02,1.0,1.01,29582000
2016-07-18,1.01,1.01,1.0,1.01,9526000
2016-07-19,1.01,1.02,1.0,1.0,5946079
2016-07-20,1.01,1.03,1.01,1.02,9573150
2016-07-21,1.02,1.05,1.01,1.05,13408000
2016-07-22,1.04,1.05,1.03,1.05,3567000
2016-07-25,1.05,1.05,1.03,1.04,3454000
2016-07-26,1.03,1.07,1.03,1.06,11743800
2016-07-27,1.05,1.05,1.01,1.02,10800000
2016-07-28,1.01,1.02,1.01,1.02,4478000
2016-07-29,1.02,1.02,0.97,0.98,21828000
2016-08-01,0.98,1.0,0.97,0.99,5312000
2016-08-03,0.98,1.0,0.97,0.99,4232000
2016-08-04,0.99,1.0,0.98,1.0,7002000
2016-08-05,1.0,1.01,0.99,1.0,6994000
2016-08-08,1.0,1.01,0.99,1.01,6928000
2016-08-09,1.0,1.05,1.0,1.05,10852000
2016-08-10,1.04,1.11,1.04,1.09,26952000
2016-08-11,1.07,1.13,1.07,1.12,17810000
2016-08-12,1.12,1.16,1.11,1.13,14132000
2016-08-15,1.13,1.13,1.1,1.13,6596000
2016-08-16,1.13,1.14,1.1,1.12,10512000
2016-08-17,1.11,1.18,1.11,1.15,17714000
2016-08-18,1.15,1.16,1.13,1.14,7314385
2016-08-19,1.14,1.14,1.1,1.12,6182000
2016-08-22,1.12,1.12,1.06,1.07,10990868
2016-08-23,1.05,1.07,1.04,1.06,11202000
2016-08-24,1.05,1.06,1.03,1.04,5334000
2016-08-25,1.04,1.05,1.03,1.05,4555495
2016-08-26,1.04,1.07,1.03,1.07,3686000
2016-08-29,1.07,1.07,1.03,1.04,6268000
2016-08-30,1.04,1.05,1.02,1.03,7739550
2016-08-31,1.03,1.06,1.02,1.04,7139800
2016-09-01,1.03,1.08,1.03,1.07,7860000
2016-09-02,1.07,1.08,1.05,1.06,7496411
2016-09-05,1.06,1.07,0.99,1.01,16472050
2016-09-06,1.0,1.02,1.0,1.02,7438000
2016-09-07,1.02,1.02,1.0,1.01,5684000
2016-09-08,1.01,1.05,1.0,1.05,16393204
2016-09-09,1.05,1.06,1.04,1.05,9402151
2016-09-12,1.02,1.02,1.0,1.0,7774000
2016-09-13,1.01,1.03,1.0,1.02,6234000
2016-09-14,1.01,1.02,1.0,1.0,1858000
2016-09-15,1.01,1.04,1.0,1.04,6424650
2016-09-19,1.04,1.04,1.0,1.02,10783474
2016-09-20,1.01,1.01,1.0,1.0,7308150
2016-09-21,1.01,1.03,1.01,1.01,12704531
2016-09-22,1.01,1.03,1.01,1.02,5980000
2016-09-23,1.02,1.02,1.0,1.01,3408000
2016-09-26,1.02,1.02,0.99,0.99,4686000
2016-09-27,0.98,1.0,0.97,0.98,8364971
2016-09-28,0.98,0.98,0.92,0.92,21941000
2016-09-29,0.92,0.94,0.91,0.94,6726373
2016-09-30,0.93,0.94,0.91,0.92,6684000
2016-10-03,0.93,0.93,0.91,0.92,1798000
2016-10-04,0.91,0.96,0.91,0.94,5176000
2016-10-05,0.94,0.95,0.93,0.93,1296000
2016-10-06,0.95,0.95,0.93,0.94,2715660
2016-10-07,0.94,0.99,0.94,0.96,11396000
2016-10-11,0.96,0.97,0.93,0.94,6562000
2016-10-12,0.93,0.93,0.91,0.92,4065722
2016-10-13,0.92,0.92,0.9,0.92,4824000
2016-10-14,0.92,0.92,0.9,0.91,4742000
2016-10-17,0.91,0.94,0.9,0.92,1392000
2016-10-18,0.92,0.92,0.89,0.9,6054000
2016-10-19,0.89,0.9,0.85,0.86,9147270
2016-10-20,0.87,0.88,0.85,0.87,4110000
2016-10-24,0.86,0.87,0.74,0.74,45940000
2016-10-25,0.75,0.79,0.74,0.75,22688000
2016-10-26,0.75,0.76,0.74,0.76,6208000
2016-10-27,0.76,0.76,0.71,0.73,7133000
2016-10-28,0.73,0.73,0.68,0.7,14050000
2016-10-31,0.7,0.7,0.66,0.66,9007000
2016-11-01,0.66,0.68,0.66,0.67,6542000
2016-11-02,0.65,0.66,0.64,0.66,6496000
2016-11-03,0.65,0.74,0.64,0.7,25727958
2016-11-04,0.7,0.74,0.69,0.7,6412000
2016-11-07,0.71,0.72,0.7,0.71,3502000
2016-11-08,0.72,0.72,0.7,0.7,2734000
2016-11-09,0.7,0.71,0.66,0.69,5636000
2016-11-10,0.7,0.71,0.69,0.69,3336000
2016-11-11,0.69,0.71,0.65,0.65,8230000
2016-11-14,0.65,0.66,0.64,0.65,5378156
2016-11-15,0.66,0.68,0.66,0.67,2789443
2016-11-16,0.67,0.72,0.67,0.7,8708000
2016-11-17,0.69,0.71,0.68,0.7,2575870
2016-11-18,0.69,0.69,0.67,0.68,3024000
2016-11-21,0.65,0.67,0.65,0.67,2678811
2016-11-22,0.67,0.68,0.66,0.68,4134000
2016-11-23,0.68,0.68,0.66,0.66,5096447
2016-11-24,0.66,0.68,0.66,0.67,5062000
2016-11-25,0.66,0.68,0.66,0.67,2412000
2016-11-28,0.68,0.71,0.67,0.69,8400000
2016-11-29,0.69,0.7,0.68,0.68,4044000
2016-11-30,0.68,0.69,0.66,0.66,5270000
2016-12-01,0.67,0.69,0.66,0.68,3358000
2016-12-02,0.67,0.68,0.67,0.67,1638000
2016-12-05,0.67,0.68,0.66,0.66,2100000
2016-12-06,0.67,0.68,0.66,0.66,1559480
2016-12-07,0.67,0.68,0.66,0.68,3502000
2016-12-08,0.68,0.69,0.66,0.68,4972000
2016-12-09,0.67,0.68,0.65,0.65,4401945
2016-12-12,0.65,0.65,0.61,0.62,8772000
2016-12-13,0.62,0.62,0.6,0.61,4270000
2016-12-14,0.61,0.62,0.6,0.62,3446000
2016-12-15,0.62,0.62,0.6,0.61,6812202
2016-12-16,0.6,0.6,0.55,0.59,25148536
2016-12-19,0.58,0.58,0.55,0.56,4118000
2016-12-20,0.56,0.56,0.5,0.51,18882000
2016-12-21,0.51,0.52,0.485,0.49,21150284
2016-12-22,0.49,0.49,0.47,0.485,8660665
2016-12-23,0.485,0.49,0.47,0.485,3843181
2016-12-28,0.485,0.49,0.475,0.49,4152000
2016-12-29,0.48,0.49,0.475,0.49,4967465
2016-12-30,0.49,0.495,0.48,0.485,3732000
2017-01-03,0.485,0.49,0.475,0.48,3476000
2017-01-04,0.48,0.49,0.475,0.49,3070000
2017-01-05,0.49,0.495,0.47,0.475,20058000
2017-01-06,0.475,0.485,0.47,0.48,4332184
2017-01-09,0.455,0.455,0.43,0.43,17152000
2017-01-10,0.425,0.435,0.42,0.43,7926000
2017-01-11,0.43,0.43,0.425,0.425,4000000
2017-01-12,0.425,0.435,0.425,0.43,3058000
2017-01-13,0.43,0.435,0.425,0.425,3356000
2017-01-16,0.425,0.43,0.42,0.42,4420000
2017-01-17,0.425,0.44,0.425,0.435,4334000
2017-01-18,0.435,0.435,0.425,0.435,3266000
2017-01-19,0.43,0.44,0.425,0.435,1498000
2017-01-20,0.43,0.52,0.43,0.51,41338000
2017-01-23,0.51,0.55,0.5,0.53,33112682
2017-01-24,0.54,0.54,0.48,0.495,26890000
2017-01-25,0.49,0.51,0.49,0.51,5128000
2017-01-26,0.51,0.51,0.49,0.495,6356000
2017-01-27,0.5,0.51,0.49,0.495,1066000
2017-02-01,0.5,0.5,0.475,0.48,5882000
2017-02-02,0.48,0.48,0.465,0.465,5720144
2017-02-03,0.47,0.47,0.455,0.465,5768400
2017-02-06,0.46,0.52,0.46,0.5,28978000
2017-02-07,0.51,0.55,0.5,0.51,29342000
2017-02-08,0.51,0.52,0.49,0.51,14174000
2017-02-09,0.51,0.52,0.51,0.51,6632764
2017-02-10,0.52,0.54,0.51,0.53,21876060
2017-02-13,0.54,0.63,0.54,0.63,97352000
2017-02-14,0.63,0.64,0.59,0.61,29011290
2017-02-15,0.61,0.73,0.61,0.72,110832000
2017-02-16,0.72,0.78,0.69,0.76,119663288
2017-02-17,0.78,0.78,0.69,0.73,47078000
2017-02-20,0.73,0.73,0.65,0.67,41880100
2017-02-21,0.66,0.73,0.65,0.71,39756000
2017-02-22,0.71,0.72,0.69,0.71,18063936
2017-02-23,0.72,0.75,0.7,0.7,32598000
2017-02-24,0.71,0.76,0.7,0.74,31185500
2017-02-27,0.74,0.84,0.72,0.81,98484000
2017-02-28,0.81,0.85,0.79,0.8,40636000
2017-03-01,0.8,0.8,0.75,0.79,34505044
2017-03-02,0.8,0.81,0.73,0.74,38508304
2017-03-03,0.72,0.74,0.69,0.71,34990584
2017-03-06,0.72,0.79,0.72,0.77,59740000
2017-03-07,0.77,0.78,0.74,0.76,23854000
2017-03-08,0.76,0.76,0.72,0.73,25346000
2017-03-09,0.72,0.73,0.7,0.71,17189854
2017-03-10,0.72,0.73,0.67,0.69,26570532
2017-03-13,0.69,0.73,0.68,0.72,16558000
2017-03-14,0.71,0.72,0.69,0.7,7960000
2017-03-15,0.69,0.73,0.68,0.73,17554000
2017-03-16,0.73,0.74,0.71,0.72,12853799
2017-03-17,0.72,0.72,0.66,0.66,47100000
2017-03-20,0.67,0.69,0.66,0.67,17870000
2017-03-21,0.67,0.69,0.67,0.69,16743854
2017-03-22,0.68,0.68,0.64,0.65,37998988
2017-03-23,0.66,0.66,0.6,0.61,45760000
2017-03-24,0.57,0.58,0.53,0.55,61518000
2017-03-27,0.55,0.57,0.54,0.56,20552000
2017-03-28,0.56,0.56,0.495,0.52,48162684
2017-03-29,0.51,0.56,0.51,0.53,30979126
2017-03-30,0.54,0.55,0.52,0.52,6718000
2017-03-31,0.52,0.53,0.5,0.51,10044000
2017-04-03,0.51,0.52,0.485,0.51,14444472
2017-04-05,0.51,0.53,0.5,0.53,11981236
2017-04-06,0.53,0.58,0.52,0.57,36610000
2017-04-07,0.59,0.59,0.54,0.58,12530996
2017-04-10,0.58,0.58,0.55,0.57,7490000
2017-04-11,0.57,0.57,0.55,0.56,8110180
2017-04-12,0.56,0.61,0.55,0.6,31555012
2017-04-13,0.59,0.6,0.57,0.58,16236000
2017-04-18,0.57,0.58,0.54,0.55,12872000
2017-04-19,0.55,0.55,0.495,0.52,36245144
2017-04-20,0.52,0.52,0.5,0.51,9606000
2017-04-21,0.52,0.52,0.5,0.52,7672000
2017-04-24,0.52,0.52,0.5,0.51,6292000
2017-04-25,0.51,0.52,0.5,0.5,9920000
2017-04-26,0.5,0.51,0.49,0.5,8990000
2017-04-27,0.5,0.51,0.49,0.495,7494000
2017-04-28,0.495,0.5,0.46,0.48,16616000
2017-05-02,0.485,0.495,0.47,0.49,3976000
2017-05-04,0.49,0.52,0.49,0.52,8772000
2017-05-05,0.52,0.52,0.5,0.51,3930000
2017-05-08,0.5,0.51,0.495,0.5,3734000
2017-05-09,0.51,0.51,0.49,0.495,2692000
2017-05-10,0.5,0.51,0.48,0.48,4100000
2017-05-11,0.485,0.495,0.475,0.48,4224000
2017-05-12,0.485,0.49,0.475,0.48,3226000
2017-05-15,0.485,0.485,0.45,0.455,18668000
2017-05-16,0.47,0.47,0.445,0.455,9098000
2017-05-17,0.455,0.465,0.445,0.46,5964000
2017-05-18,0.45,0.455,0.445,0.455,3420000
2017-05-19,0.455,0.465,0.445,0.465,16454000
2017-05-22,0.465,0.47,0.45,0.465,9206000
2017-05-23,0.46,0.475,0.455,0.46,9894000
2017-05-24,0.455,0.47,0.45,0.45,4848000
2017-05-25,0.45,0.465,0.45,0.46,4864000
2017-05-26,0.455,0.465,0.45,0.455,3812000
2017-05-29,0.455,0.455,0.445,0.45,2450000
2017-05-31,0.45,0.46,0.445,0.46,3820000
2017-06-01,0.45,0.46,0.45,0.45,2144000
2017-06-02,0.45,0.46,0.44,0.455,5526000
2017-06-05,0.45,0.46,0.44,0.445,5794000
2017-06-06,0.45,0.455,0.44,0.45,5340000
2017-06-07,0.45,0.455,0.445,0.45,2510000
2017-06-08,0.445,0.52,0.44,0.52,43649260
2017-06-09,0.52,0.53,0.495,0.51,26280000
2017-06-12,0.5,0.51,0.475,0.485,9292000
2017-06-13,0.485,0.5,0.48,0.49,12442000
2017-06-14,0.485,0.495,0.48,0.48,5304000
2017-06-15,0.48,0.48,0.46,0.47,5184000
2017-06-16,0.465,0.465,0.44,0.44,18245184
2017-06-19,0.45,0.455,0.44,0.445,15121995
2017-06-20,0.44,0.45,0.44,0.44,5781949
2017-06-21,0.44,0.445,0.425,0.44,6362000
2017-06-22,0.45,0.455,0.44,0.45,3600000
2017-06-23,0.46,0.46,0.44,0.44,2422000
2017-06-26,0.445,0.455,0.445,0.445,4950000
2017-06-27,0.445,0.47,0.445,0.455,14435800
2017-06-28,0.455,0.455,0.435,0.435,9166000
2017-06-29,0.44,0.45,0.435,0.45,4434000
2017-06-30,0.45,0.45,0.435,0.44,1540000
2017-07-03,0.44,0.45,0.435,0.44,1896000
2017-07-04,0.44,0.44,0.425,0.43,5100000
2017-07-05,0.425,0.44,0.425,0.43,2348000
2017-07-06,0.43,0.44,0.425,0.43,1496000
2017-07-07,0.43,0.43,0.425,0.43,2554000
2017-07-10,0.43,0.43,0.42,0.425,2650000
2017-07-11,0.425,0.425,0.4,0.41,10818150
2017-07-12,0.41,0.415,0.39,0.395,15668000
2017-07-13,0.395,0.42,0.395,0.405,5524300
2017-07-14,0.405,0.41,0.39,0.405,4916000
2017-07-17,0.4,0.415,0.395,0.41,5406000
2017-07-18,0.41,0.41,0.395,0.4,8538000
2017-07-19,0.395,0.42,0.395,0.42,9382000
2017-07-20,0.41,0.42,0.4,0.41,7610000
2017-07-21,0.41,0.415,0.405,0.415,2781259
2017-07-24,0.41,0.42,0.405,0.41,3708000
2017-07-25,0.405,0.43,0.405,0.43,10404000
2017-07-26,0.425,0.43,0.415,0.425,2898000
2017-07-27,0.42,0.435,0.415,0.42,3464000
2017-07-28,0.415,0.42,0.4,0.415,6792000
2017-07-31,0.405,0.425,0.4,0.425,5686018
2017-08-01,0.425,0.425,0.405,0.415,2604000
2017-08-02,0.415,0.43,0.405,0.42,10968000
2017-08-03,0.415,0.425,0.41,0.425,2206000
2017-08-04,0.415,0.43,0.41,0.425,6762000
2017-08-07,0.425,0.445,0.42,0.425,11438000
2017-08-08,0.42,0.43,0.405,0.42,17982000
2017-08-09,0.415,0.42,0.41,0.415,1592000
2017-08-10,0.415,0.415,0.395,0.405,9984000
2017-08-11,0.4,0.4,0.39,0.39,7382000
2017-08-14,0.39,0.41,0.38,0.395,4712000
2017-08-15,0.39,0.4,0.37,0.38,20656000
2017-08-16,0.38,0.38,0.335,0.365,42574000
2017-08-17,0.36,0.375,0.34,0.37,22658000
2017-08-18,0.355,0.36,0.35,0.355,7096000
2017-08-21,0.35,0.35,0.335,0.35,12178000
2017-08-22,0.35,0.355,0.34,0.35,6706000
2017-08-24,0.35,0.355,0.34,0.355,7812545
2017-08-25,0.35,0.35,0.345,0.35,8102000
2017-08-28,0.35,0.355,0.34,0.34,6776000
2017-08-29,0.34,0.345,0.33,0.335,10614000
2017-08-30,0.335,0.34,0.33,0.34,6386000
2017-08-31,0.34,0.34,0.33,0.34,4042000
2017-09-01,0.34,0.39,0.335,0.38,57378000
2017-09-04,0.38,0.385,0.36,0.37,14264000
2017-09-05,0.365,0.38,0.36,0.365,7380000
2017-09-06,0.365,0.37,0.355,0.36,6810000
2017-09-07,0.36,0.36,0.355,0.36,1750000
2017-09-08,0.36,0.365,0.35,0.355,7122000
2017-09-11,0.35,0.365,0.35,0.365,5732000
2017-09-12,0.365,0.395,0.36,0.395,36890000
2017-09-13,0.395,0.405,0.375,0.4,29559500
2017-09-14,0.4,0.485,0.385,0.465,101372000
2017-09-15,0.46,0.485,0.435,0.465,63236000
2017-09-18,0.475,0.5,0.465,0.49,36482000
2017-09-19,0.495,0.495,0.465,0.47,22956000
2017-09-20,0.47,0.53,0.465,0.52,69658000
2017-09-21,0.52,0.53,0.48,0.49,25446000
2017-09-22,0.48,0.495,0.465,0.475,17216000
2017-09-25,0.465,0.47,0.415,0.42,33880000
2017-09-26,0.42,0.435,0.41,0.42,10652700
2017-09-27,0.41,0.445,0.41,0.435,12372000
2017-09-28,0.435,0.435,0.415,0.425,7424000
2017-09-29,0.42,0.435,0.415,0.43,5772000
2017-10-03,0.42,0.44,0.41,0.42,12610000
2017-10-04,0.425,0.425,0.415,0.425,6019000
2017-10-06,0.43,0.435,0.41,0.43,12246000
2017-10-09,0.43,0.43,0.415,0.42,3947000
2017-10-10,0.42,0.465,0.415,0.465,52446000
2017-10-11,0.465,0.465,0.44,0.445,23380000
2017-10-12,0.445,0.485,0.435,0.485,28560000
2017-10-13,0.48,0.51,0.465,0.49,51262000
2017-10-16,0.49,0.55,0.49,0.54,69370000
2017-10-17,0.54,0.54,0.5,0.52,32800000
2017-10-18,0.52,0.55,0.52,0.54,55070000
2017-10-19,0.54,0.55,0.48,0.49,41664000
2017-10-20,0.495,0.52,0.495,0.52,23260000
2017-10-23,0.52,0.53,0.5,0.51,11246000
2017-10-24,0.51,0.51,0.485,0.49,14818000
2017-10-25,0.49,0.51,0.49,0.5,7121432
2017-10-26,0.49,0.51,0.485,0.495,16914000
2017-10-27,0.495,0.51,0.49,0.5,12721716
2017-10-30,0.495,0.5,0.485,0.5,8474000
2017-10-31,0.495,0.52,0.49,0.52,15895997
2017-11-01,0.52,0.52,0.5,0.51,8510000
2017-11-02,0.51,0.51,0.49,0.5,11182000
2017-11-03,0.5,0.5,0.45,0.485,25548000
2017-11-06,0.475,0.475,0.46,0.475,8186199
2017-11-07,0.46,0.48,0.46,0.47,15648000
2017-11-08,0.455,0.47,0.45,0.47,11226000
2017-11-09,0.46,0.475,0.46,0.47,10021000
2017-11-10,0.46,0.465,0.44,0.45,24459254
2017-11-13,0.44,0.46,0.44,0.46,6838000
2017-11-14,0.45,0.495,0.445,0.495,32070000
2017-11-15,0.48,0.495,0.465,0.475,11102000
2017-11-16,0.47,0.485,0.455,0.47,10216759
2017-11-17,0.46,0.48,0.44,0.455,16812972
2017-11-20,0.45,0.455,0.43,0.445,8492000
2017-11-21,0.44,0.445,0.425,0.435,12178000
2017-11-22,0.43,0.445,0.425,0.445,7356000
2017-11-23,0.435,0.465,0.435,0.455,14860000
2017-11-24,0.455,0.46,0.435,0.445,6942000
2017-11-27,0.45,0.47,0.45,0.46,15860000
2017-11-28,0.45,0.46,0.44,0.45,5398000
2017-11-29,0.445,0.455,0.425,0.44,15654000
2017-11-30,0.435,0.435,0.425,0.435,7054000
2017-12-01,0.425,0.435,0.425,0.435,3216000
2017-12-04,0.435,0.45,0.43,0.44,3026000
2017-12-05,0.435,0.44,0.415,0.425,10876000
2017-12-06,0.42,0.42,0.405,0.415,9058000
2017-12-07,0.415,0.415,0.39,0.405,5554000
2017-12-08,0.395,0.405,0.39,0.4,4016000
2017-12-11,0.395,0.405,0.39,0.4,3196000
2017-12-12,0.405,0.41,0.39,0.39,3336000
2017-12-13,0.4,0.415,0.4,0.405,3508500
2017-12-14,0.405,0.405,0.39,0.4,4162706
2017-12-15,0.395,0.4,0.355,0.38,7593479
2017-12-18,0.38,0.395,0.37,0.39,5046000
2017-12-19,0.395,0.415,0.395,0.405,10410000
2017-12-20,0.4,0.41,0.395,0.405,8094000
2017-12-21,0.41,0.42,0.405,0.415,16983868
2017-12-22,0.415,0.435,0.415,0.43,16414000
2017-12-27,0.43,0.435,0.415,0.425,7539306
2017-12-28,0.42,0.43,0.41,0.42,6490920
2017-12-29,0.42,0.42,0.41,0.42,4798000
2018-01-02,0.415,0.435,0.415,0.425,9180000
2018-01-03,0.42,0.435,0.41,0.425,11886000
2018-01-04,0.43,0.445,0.42,0.44,20404940
2018-01-05,0.43,0.44,0.42,0.44,12154000
2018-01-08,0.43,0.46,0.43,0.445,21600000
2018-01-09,0.445,0.455,0.415,0.42,14511959
2018-01-10,0.415,0.44,0.41,0.43,15490000
2018-01-11,0.425,0.44,0.425,0.43,6422000
2018-01-12,0.42,0.435,0.42,0.43,5278904
2018-01-15,0.42,0.43,0.42,0.425,7950000
2018-01-16,0.42,0.425,0.41,0.415,7956000
2018-01-17,0.405,0.415,0.4,0.415,7260000
2018-01-18,0.41,0.415,0.405,0.41,4282000
2018-01-19,0.4,0.41,0.4,0.41,3872000
2018-01-22,0.405,0.41,0.385,0.385,30726000
2018-01-23,0.39,0.405,0.39,0.395,15134000
2018-01-24,0.405,0.405,0.395,0.405,5396000
2018-01-25,0.405,0.405,0.39,0.395,3404000
2018-01-26,0.395,0.405,0.39,0.395,3730000
2018-01-29,0.4,0.405,0.39,0.39,6104000
2018-01-30,0.39,0.395,0.385,0.395,2210000
2018-01-31,0.39,0.39,0.385,0.385,2342000
2018-02-01,0.385,0.39,0.37,0.375,7328000
2018-02-02,0.38,0.39,0.375,0.385,3868000
2018-02-05,0.375,0.38,0.365,0.365,6706000
2018-02-06,0.36,0.365,0.335,0.335,19782000
2018-02-07,0.35,0.355,0.335,0.35,8150000
2018-02-08,0.35,0.37,0.35,0.365,6794479
2018-02-09,0.345,0.36,0.34,0.35,12098200
2018-02-12,0.37,0.37,0.345,0.345,7982000
2018-02-13,0.345,0.355,0.345,0.345,3516000
2018-02-14,0.35,0.355,0.345,0.355,2826000
2018-02-15,0.355,0.36,0.345,0.36,1476000
2018-02-20,0.35,0.37,0.345,0.37,4544000
2018-02-21,0.36,0.37,0.355,0.37,674000
2018-02-22,0.375,0.375,0.36,0.37,3468000
2018-02-23,0.37,0.37,0.355,0.36,1796000
2018-02-26,0.36,0.37,0.355,0.365,2699017
2018-02-27,0.36,0.365,0.35,0.36,4044000
2018-02-28,0.35,0.365,0.35,0.365,1914000
2018-03-01,0.365,0.365,0.355,0.36,2994000
2018-03-02,0.355,0.36,0.35,0.36,3032000
2018-03-05,0.36,0.365,0.35,0.35,4590000
2018-03-06,0.35,0.355,0.345,0.355,1654000
2018-03-07,0.355,0.355,0.35,0.35,1128000
2018-03-08,0.35,0.355,0.35,0.35,1488000
2018-03-09,0.35,0.355,0.35,0.355,2016000
2018-03-12,0.35,0.365,0.35,0.355,4196000
2018-03-13,0.35,0.355,0.345,0.35,10886000
2018-03-14,0.35,0.355,0.34,0.345,2788000
2018-03-15,0.34,0.345,0.335,0.335,10852000
2018-03-16,0.335,0.34,0.31,0.32,30690000
2018-03-19,0.32,0.32,0.295,0.31,37156000
2018-03-20,0.31,0.31,0.3,0.305,5166000
2018-03-21,0.31,0.325,0.305,0.31,6220000
2018-03-22,0.315,0.315,0.305,0.305,4806000
2018-03-23,0.3,0.305,0.285,0.295,15704000
2018-03-26,0.29,0.32,0.29,0.29,6534000
2018-03-27,0.3,0.31,0.295,0.295,6724000
2018-03-28,0.3,0.3,0.285,0.295,9002000
2018-03-29,0.295,0.305,0.285,0.3,4974000
2018-04-03,0.3,0.3,0.285,0.295,2606000
2018-04-04,0.29,0.3,0.29,0.29,572000
2018-04-06,0.29,0.3,0.29,0.29,372000
2018-04-09,0.29,0.295,0.285,0.29,1614000
2018-04-10,0.29,0.3,0.285,0.285,2432000
2018-04-11,0.285,0.29,0.285,0.285,1133914
2018-04-12,0.285,0.29,0.285,0.285,5554000
2018-04-13,0.29,0.29,0.28,0.28,5308000
2018-04-16,0.28,0.28,0.265,0.27,9786000
2018-04-17,0.27,0.275,0.265,0.265,4796000
2018-04-18,0.265,0.265,0.25,0.26,6974000
2018-04-19,0.255,0.26,0.255,0.26,10658000
2018-04-20,0.255,0.26,0.25,0.25,4620000
2018-04-23,0.255,0.29,0.25,0.265,45702000
2018-04-24,0.27,0.295,0.265,0.29,7883209
2018-04-25,0.285,0.325,0.27,0.32,21688000
2018-04-26,0.32,0.32,0.295,0.3,6554000
2018-04-27,0.305,0.31,0.3,0.305,2546000
2018-04-30,0.31,0.31,0.3,0.305,2844000
2018-05-02,0.305,0.31,0.305,0.305,1430000
2018-05-03,0.305,0.31,0.29,0.305,3272000
2018-05-04,0.31,0.315,0.305,0.31,3448000
2018-05-07,0.31,0.33,0.305,0.305,7772000
2018-05-08,0.305,0.305,0.3,0.3,1400000
2018-05-09,0.3,0.3,0.29,0.29,3418000
2018-05-10,0.29,0.295,0.285,0.29,9892964
2018-05-11,0.29,0.3,0.28,0.3,3096000
2018-05-14,0.295,0.31,0.295,0.305,2539721
2018-05-15,0.3,0.305,0.29,0.295,2274000
2018-05-16,0.295,0.305,0.295,0.3,2569025
2018-05-17,0.3,0.31,0.295,0.3,2050000
2018-05-18,0.3,0.3,0.29,0.29,2232000
2018-05-21,0.29,0.305,0.29,0.3,1056000
2018-05-23,0.3,0.3,0.28,0.295,7542000
2018-05-24,0.29,0.295,0.28,0.295,1800000
2018-05-25,0.285,0.29,0.28,0.285,862000
2018-05-28,0.28,0.285,0.275,0.28,3910000
2018-05-29,0.28,0.28,0.26,0.275,7372000
2018-05-30,0.27,0.275,0.27,0.27,2207000
2018-05-31,0.275,0.28,0.27,0.275,2034000
2018-06-01,0.27,0.28,0.27,0.28,652000
2018-06-04,0.275,0.275,0.26,0.26,4876000
2018-06-05,0.255,0.26,0.245,0.255,8728000
2018-06-06,0.255,0.255,0.245,0.255,6076000
2018-06-07,0.255,0.255,0.24600000000000002,0.247,4160000
2018-06-08,0.247,0.255,0.245,0.25,4002000
2018-06-11,0.255,0.255,0.25,0.25,1642000
2018-06-12,0.25,0.25,0.248,0.25,1138000
2018-06-13,0.25,0.255,0.248,0.255,1676000
2018-06-14,0.25,0.255,0.25,0.255,518000
2018-06-15,0.25,0.25,0.247,0.247,922000
2018-06-19,0.242,0.245,0.23,0.235,4916000
2018-06-20,0.235,0.248,0.228,0.24,3210000
2018-06-21,0.24100000000000002,0.24100000000000002,0.237,0.23800000000000002,482000
2018-06-22,0.23800000000000002,0.255,0.23600000000000002,0.25,3290000
2018-06-25,0.242,0.242,0.237,0.237,1110000
2018-06-26,0.233,0.24,0.231,0.235,2074000
2018-06-27,0.235,0.239,0.214,0.214,3296000
2018-06-28,0.212,0.22399999999999998,0.2,0.217,5028000
2018-06-29,0.222,0.222,0.201,0.212,1271269
2018-07-03,0.21100000000000002,0.217,0.20600000000000002,0.21,1890000
2018-07-04,0.204,0.209,0.19699999999999998,0.20199999999999999,3554000
2018-07-05,0.19899999999999998,0.204,0.195,0.196,2184000
2018-07-06,0.196,0.2,0.191,0.19699999999999998,2666000
2018-07-09,0.2,0.2,0.193,0.19699999999999998,1730000
2018-07-10,0.19899999999999998,0.19899999999999998,0.193,0.19699999999999998,5476000
2018-07-11,0.196,0.225,0.196,0.222,6782000
2018-07-12,0.22399999999999998,0.265,0.215,0.26,19582000
2018-07-13,0.25,0.275,0.25,0.265,16411500
2018-07-16,0.265,0.29,0.265,0.285,14154000
2018-07-17,0.28,0.29,0.275,0.285,8284000
2018-07-18,0.285,0.295,0.275,0.285,6350000
2018-07-19,0.285,0.29,0.265,0.27,6098000
2018-07-20,0.27,0.275,0.26,0.27,2904000
2018-07-23,0.27,0.285,0.27,0.275,2316000
2018-07-24,0.275,0.295,0.275,0.29,5520000
2018-07-25,0.285,0.3,0.285,0.295,6356000
2018-07-26,0.3,0.355,0.3,0.335,39106000
2018-07-27,0.35,0.35,0.33,0.35,16930000
2018-07-30,0.35,0.35,0.325,0.335,7354000
2018-07-31,0.34,0.345,0.325,0.335,3442000
2018-08-01,0.335,0.34,0.32,0.325,4110000
2018-08-02,0.32,0.325,0.285,0.3,5168000
2018-08-03,0.31,0.35,0.3,0.31,7352000
2018-08-06,0.295,0.31,0.29,0.305,726000
2018-08-07,0.305,0.325,0.305,0.31,2774000
2018-08-08,0.31,0.33,0.305,0.31,4024790
2018-08-09,0.3,0.325,0.3,0.31,1842000
2018-08-10,0.305,0.325,0.305,0.315,5314000
2018-08-13,0.31,0.315,0.3,0.305,1368000
2018-08-14,0.3,0.315,0.29,0.295,4428000
2018-08-15,0.29,0.29,0.275,0.275,2048000
2018-08-16,0.26,0.28,0.26,0.275,1636000
2018-08-17,0.275,0.285,0.265,0.28,1808000
2018-08-20,0.275,0.295,0.27,0.28,1850000
2018-08-21,0.28,0.3,0.28,0.295,1662000
2018-08-22,0.29,0.3,0.29,0.29,110000
2018-08-23,0.29,0.295,0.285,0.295,692000
2018-08-24,0.295,0.305,0.285,0.3,1328000
2018-08-27,0.295,0.295,0.29,0.295,569100
2018-08-28,0.3,0.3,0.25,0.26,12187000
2018-08-29,0.265,0.27,0.255,0.27,432000
2018-08-30,0.265,0.265,0.23399999999999999,0.239,12424000
2018-08-31,0.243,0.255,0.235,0.255,3128000
2018-09-03,0.265,0.28,0.255,0.26,3654000
2018-09-04,0.26,0.265,0.26,0.265,1268000
2018-09-05,0.25,0.26,0.245,0.26,6226000
2018-09-06,0.25,0.255,0.23800000000000002,0.24,3206000
2018-09-07,0.24,0.25,0.22899999999999998,0.23600000000000002,15192000
2018-09-10,0.23600000000000002,0.242,0.23600000000000002,0.24,3004000
2018-09-11,0.23,0.24600000000000002,0.23,0.244,3914000
2018-09-12,0.24,0.245,0.23399999999999999,0.23399999999999999,2638000
2018-09-13,0.24,0.244,0.23600000000000002,0.239,2564000
2018-09-14,0.239,0.242,0.239,0.242,606000
2018-09-17,0.24,0.242,0.23800000000000002,0.242,956000
2018-09-18,0.24,0.255,0.24,0.24600000000000002,3560000
2018-09-19,0.25,0.255,0.24600000000000002,0.24600000000000002,1082700
2018-09-20,0.25,0.335,0.25,0.33,65043720
2018-09-28,0.39,0.4,0.32,0.335,71524000
2018-10-02,0.335,0.345,0.3,0.31,4946000
2018-10-03,0.31,0.32,0.285,0.295,4125300
2018-10-04,0.29,0.295,0.275,0.285,2518000
2018-10-05,0.285,0.3,0.275,0.285,2928000
2018-10-08,0.275,0.28,0.265,0.265,3640000
2018-10-09,0.275,0.28,0.265,0.275,2157100
2018-10-10,0.28,0.3,0.275,0.285,3804000
2018-10-11,0.28,0.28,0.265,0.275,3096000
2018-10-12,0.27,0.28,0.265,0.275,1250000
2018-10-15,0.275,0.285,0.275,0.275,956000
2018-10-16,0.275,0.29,0.27,0.285,1580683
2018-10-18,0.28,0.29,0.275,0.28,1316000
2018-10-19,0.295,0.295,0.28,0.29,3204761
2018-10-22,0.29,0.295,0.28,0.285,7200000
2018-10-23,0.295,0.295,0.28,0.285,3938000
2018-10-24,0.285,0.295,0.285,0.29,4853300
2018-10-25,0.29,0.295,0.28,0.29,5617000
2018-10-26,0.29,0.295,0.285,0.295,2530000
2018-10-29,0.29,0.29,0.28,0.285,938000
2018-10-30,0.285,0.305,0.285,0.29,4300000
2018-10-31,0.3,0.3,0.275,0.29,3300000
2018-11-01,0.295,0.295,0.285,0.29,1040000
2018-11-02,0.29,0.295,0.29,0.295,3476000
2018-11-05,0.3,0.31,0.29,0.305,9788000
2018-11-06,0.305,0.345,0.295,0.335,17426000
2018-11-07,0.335,0.35,0.305,0.33,15952000
2018-11-08,0.33,0.375,0.33,0.375,33050000
2018-11-09,0.37,0.42,0.37,0.41,61190000
2018-11-12,0.405,0.42,0.39,0.405,20262000
2018-11-13,0.4,0.41,0.39,0.4,6704000
2018-11-14,0.4,0.4,0.38,0.39,6642000
2018-11-15,0.39,0.41,0.385,0.405,9810000
2018-11-16,0.395,0.42,0.395,0.41,6658322
2018-11-19,0.425,0.485,0.405,0.485,65746000
2018-11-20,0.48,0.51,0.425,0.435,81340000
2018-11-21,0.44,0.49,0.43,0.465,28382000
2018-11-22,0.46,0.48,0.455,0.46,9222000
2018-11-23,0.46,0.485,0.435,0.475,12878000
2018-11-26,0.485,0.5,0.47,0.485,18348000
2018-11-27,0.485,0.51,0.465,0.48,18352000
2018-11-28,0.48,0.48,0.47,0.475,9914000
2018-11-29,0.48,0.485,0.465,0.475,13624000
2018-11-30,0.48,0.485,0.465,0.48,10970000
2018-12-03,0.49,0.495,0.47,0.475,9182000
2018-12-04,0.475,0.485,0.46,0.475,11406000
2018-12-05,0.47,0.48,0.465,0.475,3300000
2018-12-06,0.47,0.48,0.465,0.475,8996000
2018-12-07,0.465,0.475,0.465,0.475,15640000
2018-12-10,0.46,0.53,0.46,0.52,76508000
2019-03-25,0.48,0.49,0.25,0.265,120130000
2019-03-26,0.255,0.305,0.25,0.29,103520000
2019-03-27,0.3,0.36,0.3,0.345,56200000
2019-03-28,0.36,0.365,0.32,0.34,25231000
2019-03-29,0.34,0.34,0.305,0.31,26841000
2019-04-01,0.31,0.31,0.26,0.295,11352000
2019-04-02,0.305,0.305,0.29,0.305,4954013
2019-04-03,0.295,0.305,0.29,0.29,2392000
2019-04-04,0.295,0.325,0.295,0.31,11610000
2019-04-08,0.31,0.31,0.29,0.29,5720000
2019-04-09,0.29,0.29,0.285,0.285,3252000
2019-04-10,0.285,0.285,0.27,0.275,6004000
2019-04-11,0.275,0.285,0.27,0.28,2392000
2019-04-12,0.285,0.29,0.275,0.275,1372000
2019-04-15,0.275,0.275,0.255,0.27,5970000
2019-04-16,0.265,0.275,0.255,0.27,5534000
2019-04-17,0.27,0.28,0.27,0.27,1876000
2019-04-18,0.27,0.27,0.265,0.27,674000
2019-04-23,0.27,0.27,0.26,0.265,3012000
2019-04-24,0.265,0.275,0.265,0.265,2960000
2019-04-25,0.27,0.28,0.27,0.27,4733364
2019-04-26,0.27,0.285,0.27,0.275,8316000
2019-04-29,0.275,0.28,0.27,0.275,1522000
2019-04-30,0.28,0.28,0.27,0.27,1170000
2019-05-02,0.27,0.27,0.265,0.27,1842000
2019-05-03,0.275,0.3,0.275,0.28,2784000
2019-05-06,0.27,0.285,0.27,0.275,3134000
2019-05-07,0.275,0.29,0.27,0.28,5014000
2019-05-08,0.28,0.29,0.27,0.285,3880000
2019-05-09,0.285,0.315,0.275,0.295,16034000
2019-05-10,0.3,0.31,0.275,0.285,16262000
2019-05-14,0.275,0.29,0.27,0.275,8975000
2019-05-15,0.28,0.29,0.275,0.28,6398000
2019-05-16,0.285,0.29,0.28,0.285,2824000
2019-05-17,0.29,0.29,0.28,0.28,6878000
2019-05-20,0.28,0.29,0.28,0.28,1206000
2019-05-21,0.285,0.285,0.275,0.28,2521000
2019-05-22,0.285,0.285,0.275,0.28,4148200
2019-05-23,0.28,0.285,0.275,0.28,9884000
2019-05-24,0.285,0.285,0.28,0.28,3854000
2019-05-27,0.285,0.285,0.28,0.28,2826000
2019-05-28,0.28,0.295,0.28,0.285,2600000
2019-05-29,0.285,0.29,0.28,0.285,3420000
2019-05-30,0.285,0.305,0.285,0.29,7446000
2019-05-31,0.29,0.31,0.275,0.3,10408000
2019-06-03,0.3,0.305,0.3,0.3,3226000
2019-06-04,0.3,0.31,0.285,0.285,3408000
2019-06-05,0.285,0.295,0.285,0.29,1694000
2019-06-06,0.29,0.29,0.285,0.285,2806000
2019-06-10,0.29,0.29,0.285,0.285,1058000
2019-06-11,0.285,0.295,0.285,0.285,2402000
2019-06-12,0.295,0.295,0.285,0.29,1676000
2019-06-13,0.29,0.29,0.285,0.285,1368000
2019-06-14,0.29,0.29,0.285,0.29,2636000
2019-06-17,0.29,0.3,0.29,0.295,7878000
2019-06-18,0.3,0.305,0.295,0.3,4206000
2019-06-19,0.3,0.305,0.295,0.295,1174000
2019-06-20,0.295,0.325,0.295,0.32,4958000
2019-06-21,0.32,0.325,0.305,0.305,2948000
2019-06-24,0.305,0.315,0.305,0.31,480000
2019-06-25,0.31,0.315,0.295,0.3,2364000
2019-06-26,0.295,0.31,0.295,0.3,1154000
2019-06-27,0.295,0.3,0.29,0.295,3160000
2019-06-28,0.29,0.295,0.285,0.295,676000
2019-07-02,0.29,0.3,0.29,0.3,1094000
2019-07-03,0.295,0.305,0.285,0.285,3890000
2019-07-04,0.28,0.29,0.28,0.29,2334000
2019-07-05,0.28,0.29,0.28,0.285,968000
2019-07-08,0.28,0.29,0.27,0.285,3740000
2019-07-09,0.275,0.29,0.275,0.29,1344000
2019-07-10,0.285,0.3,0.285,0.295,1372000
2019-07-11,0.29,0.295,0.29,0.29,1414000
2019-07-12,0.29,0.3,0.285,0.295,1320000
2019-07-15,0.29,0.3,0.29,0.29,1686000
2019-07-16,0.29,0.3,0.285,0.29,4162000
2019-07-17,0.29,0.3,0.285,0.285,4368000
2019-07-18,0.29,0.295,0.285,0.295,2582000
2019-07-19,0.29,0.3,0.29,0.295,910000
2019-07-22,0.29,0.295,0.29,0.295,3424000
2019-07-23,0.295,0.31,0.29,0.305,14180000
2019-07-24,0.295,0.305,0.29,0.29,8964000
2019-07-25,0.29,0.3,0.29,0.3,4746000
2019-07-26,0.295,0.3,0.295,0.3,714000
2019-07-29,0.29,0.305,0.29,0.3,5194000
2019-07-30,0.295,0.31,0.29,0.305,5640000
2019-07-31,0.31,0.31,0.305,0.305,98000
2019-08-01,0.3,0.31,0.3,0.305,3766850
2019-08-02,0.295,0.31,0.29,0.3,5236000
2019-08-05,0.3,0.305,0.29,0.3,11208000
2019-08-06,0.29,0.295,0.285,0.29,5246000
2019-08-07,0.29,0.295,0.275,0.285,3424000
2019-08-08,0.29,0.3,0.28,0.29,6556000
2019-08-09,0.285,0.295,0.28,0.285,1454000
2019-08-12,0.28,0.28,0.265,0.27,5988000
2019-08-13,0.265,0.27,0.221,0.225,8244000
2019-08-14,0.23,0.245,0.188,0.19899999999999998,11578000
2019-08-15,0.192,0.20199999999999999,0.192,0.2,1736000
2019-08-16,0.196,0.201,0.196,0.19899999999999998,1302000
2019-08-19,0.19899999999999998,0.228,0.19899999999999998,0.222,4971495
2019-08-20,0.222,0.222,0.213,0.217,556000
2019-08-21,0.205,0.22399999999999998,0.19,0.212,2160000
2019-08-22,0.201,0.223,0.201,0.21899999999999997,1130000
2019-08-23,0.21899999999999997,0.222,0.2,0.20800000000000002,12086000
2019-08-26,0.2,0.20600000000000002,0.2,0.20199999999999999,2012000
2019-08-27,0.205,0.21899999999999997,0.205,0.215,2402000
2019-08-28,0.201,0.214,0.19699999999999998,0.19699999999999998,2026000
2019-08-29,0.19699999999999998,0.212,0.19699999999999998,0.19899999999999998,486000
2019-08-30,0.215,0.215,0.19899999999999998,0.19899999999999998,1244000
2019-09-02,0.19899999999999998,0.21,0.19899999999999998,0.2,256000
2019-09-03,0.2,0.212,0.19899999999999998,0.2,1392000
2019-09-04,0.19899999999999998,0.209,0.19899999999999998,0.2,840000
2019-09-05,0.203,0.20800000000000002,0.2,0.20600000000000002,446000
2019-09-06,0.2,0.204,0.2,0.203,438000
2019-09-09,0.20199999999999999,0.20800000000000002,0.201,0.20199999999999999,680000
2019-09-10,0.2,0.20600000000000002,0.2,0.205,946000
2019-09-11,0.2,0.20800000000000002,0.2,0.204,752000
2019-09-12,0.214,0.214,0.205,0.212,2192000
2019-09-13,0.20199999999999999,0.215,0.20199999999999999,0.212,1342000
2019-09-16,0.21100000000000002,0.22699999999999998,0.20600000000000002,0.22,1746000
2019-09-17,0.22,0.225,0.21100000000000002,0.22,370000
2019-09-18,0.213,0.223,0.213,0.21899999999999997,722000
2019-09-19,0.21,0.221,0.21,0.217,898000
2019-09-20,0.212,0.223,0.212,0.215,306000
2019-09-23,0.212,0.223,0.212,0.22,312000
2019-09-24,0.21100000000000002,0.222,0.21100000000000002,0.221,644000
2019-09-25,0.22,0.22,0.207,0.21,540000
2019-09-26,0.203,0.21,0.2,0.204,2442000
2019-09-27,0.205,0.205,0.2,0.203,308000
2019-09-30,0.19699999999999998,0.20600000000000002,0.19699999999999998,0.2,124000
2019-10-02,0.2,0.203,0.2,0.2,386000
2019-10-03,0.19899999999999998,0.20199999999999999,0.19899999999999998,0.2,534000
2019-10-04,0.2,0.201,0.19899999999999998,0.19899999999999998,836000
2019-10-08,0.19899999999999998,0.209,0.195,0.195,1326000
2019-10-09,0.195,0.2,0.188,0.19,1880000
2019-10-10,0.19,0.19899999999999998,0.19,0.19699999999999998,1095931
2019-10-11,0.19699999999999998,0.19699999999999998,0.184,0.19,3050000
2019-10-14,0.196,0.21,0.18899999999999997,0.204,2094000
2019-10-15,0.204,0.20800000000000002,0.20199999999999999,0.207,1958000
2019-10-16,0.205,0.21,0.205,0.205,786000
2019-10-17,0.203,0.209,0.20199999999999999,0.203,556000
2019-10-18,0.205,0.21,0.2,0.20199999999999999,810000
2019-10-21,0.20199999999999999,0.209,0.2,0.207,238000
2019-10-22,0.207,0.207,0.2,0.2,220000
2019-10-23,0.2,0.2,0.192,0.2,300000
2019-10-24,0.192,0.19899999999999998,0.192,0.192,70000
2019-10-25,0.192,0.19699999999999998,0.19,0.19699999999999998,314000
2019-10-28,0.191,0.2,0.19,0.2,366000
2019-10-29,0.198,0.207,0.19399999999999998,0.195,744000
2019-10-30,0.19699999999999998,0.19899999999999998,0.19,0.191,226000
2019-10-31,0.191,0.198,0.191,0.196,138000
2019-11-01,0.2,0.2,0.183,0.188,3052000
2019-11-04,0.182,0.19399999999999998,0.18,0.18,994000
2019-11-05,0.185,0.195,0.185,0.192,1382000
2019-11-06,0.185,0.187,0.18100000000000002,0.183,1506000
2019-11-07,0.18100000000000002,0.18899999999999997,0.179,0.183,2222000
2019-11-08,0.188,0.18899999999999997,0.18,0.18100000000000002,1860000
2019-11-11,0.18100000000000002,0.184,0.179,0.179,954000
2019-11-12,0.177,0.18600000000000003,0.177,0.18,962000
2019-11-13,0.177,0.18100000000000002,0.177,0.18,742000
2019-11-14,0.17800000000000002,0.179,0.174,0.175,1346000
2019-11-15,0.177,0.18,0.177,0.17800000000000002,470000
2019-11-26,0.22,0.25,0.17300000000000001,0.174,27270000
2019-11-27,0.175,0.175,0.156,0.17300000000000001,3644000
2019-11-28,0.17300000000000001,0.18,0.159,0.163,1828000
2019-11-29,0.163,0.16899999999999998,0.153,0.156,918000
2019-12-02,0.155,0.156,0.14400000000000002,0.149,3112000
2019-12-03,0.142,0.149,0.135,0.149,632000
2019-12-04,0.149,0.149,0.125,0.14400000000000002,1106000
2019-12-05,0.135,0.142,0.128,0.139,3092000
2019-12-06,0.139,0.146,0.134,0.141,528000
2019-12-09,0.14,0.152,0.138,0.138,1086000
2019-12-10,0.14,0.14400000000000002,0.13,0.135,1039000
2019-12-11,0.13,0.158,0.129,0.131,9392000
2019-12-12,0.14400000000000002,0.146,0.131,0.132,5288000
2019-12-13,0.133,0.138,0.128,0.131,5010000
2019-12-16,0.135,0.136,0.11800000000000001,0.12300000000000001,10928477
2019-12-17,0.122,0.128,0.12,0.127,2110000
2019-12-18,0.128,0.129,0.12,0.124,1074000
2019-12-19,0.122,0.129,0.121,0.127,1428000
2019-12-20,0.125,0.13,0.12300000000000001,0.126,964000
2019-12-23,0.12300000000000001,0.128,0.113,0.11800000000000001,8416000
2019-12-24,0.11599999999999999,0.122,0.114,0.114,2824000
2019-12-27,0.11699999999999999,0.12300000000000001,0.11,0.11199999999999999,11528000
2019-12-30,0.11199999999999999,0.11900000000000001,0.109,0.11199999999999999,4734000
2019-12-31,0.114,0.11800000000000001,0.113,0.11699999999999999,1362000
2020-01-02,0.11699999999999999,0.122,0.11199999999999999,0.114,19046000
2020-01-03,0.113,0.11900000000000001,0.113,0.11699999999999999,3440000
2020-01-06,0.113,0.11900000000000001,0.113,0.11599999999999999,562000
2020-01-07,0.113,0.115,0.102,0.11,4536000
2020-01-08,0.11,0.114,0.105,0.105,3442000
2020-01-09,0.105,0.111,0.105,0.111,3182000
2020-01-10,0.107,0.11,0.105,0.10800000000000001,452000
2020-01-13,0.107,0.109,0.105,0.107,2218000
2020-01-14,0.107,0.139,0.107,0.126,10390000
2020-01-15,0.121,0.125,0.11599999999999999,0.121,4768000
2020-01-16,0.12300000000000001,0.12300000000000001,0.115,0.11699999999999999,1080000
2020-01-17,0.111,0.11599999999999999,0.111,0.115,544000
2020-01-20,0.11199999999999999,0.11900000000000001,0.10800000000000001,0.114,1394000
2020-01-21,0.11599999999999999,0.11900000000000001,0.109,0.11,2326000
2020-01-22,0.11,0.113,0.109,0.111,366000
2020-01-23,0.113,0.113,0.109,0.11199999999999999,300000
2020-01-24,0.10099999999999999,0.111,0.1,0.111,224000
2020-01-29,0.105,0.11,0.102,0.102,5016000
2020-01-30,0.102,0.106,0.1,0.10099999999999999,1516000
2020-01-31,0.1,0.10400000000000001,0.1,0.10400000000000001,1056000
2020-02-03,0.096,0.11,0.096,0.11,2568000
2020-02-04,0.1,0.105,0.1,0.10400000000000001,2244000
2020-02-05,0.1,0.11199999999999999,0.1,0.10300000000000001,916000
2020-02-06,0.10300000000000001,0.111,0.102,0.107,3760000
2020-02-07,0.106,0.111,0.10400000000000001,0.10800000000000001,6928000
2020-02-10,0.10300000000000001,0.109,0.102,0.106,5295265
2020-02-11,0.106,0.12300000000000001,0.106,0.115,8348000
2020-02-12,0.115,0.145,0.115,0.141,40068000
2020-02-13,0.14300000000000002,0.146,0.125,0.125,16244000
2020-02-14,0.126,0.132,0.122,0.125,3396000
2020-02-17,0.125,0.14300000000000002,0.125,0.13,15590000
2020-02-18,0.13,0.133,0.128,0.128,1806000
2020-02-19,0.14,0.14,0.131,0.132,6022000
2020-02-20,0.132,0.134,0.13,0.13,2560000
2020-02-21,0.129,0.133,0.126,0.131,3792000
2020-02-24,0.131,0.131,0.126,0.126,2062000
2020-02-25,0.125,0.125,0.114,0.11699999999999999,2342000
2020-02-26,0.11800000000000001,0.12300000000000001,0.113,0.11900000000000001,1172000
2020-02-27,0.11699999999999999,0.12300000000000001,0.11599999999999999,0.12,616000
2020-02-28,0.11900000000000001,0.122,0.113,0.113,890000
2020-03-02,0.114,0.11699999999999999,0.114,0.11699999999999999,424000
2020-03-03,0.11599999999999999,0.11900000000000001,0.111,0.11199999999999999,1368000
2020-03-04,0.11199999999999999,0.115,0.11199999999999999,0.113,572000
2020-03-05,0.11800000000000001,0.11800000000000001,0.11,0.11599999999999999,1060000
2020-03-06,0.114,0.11599999999999999,0.11,0.114,1926000
2020-03-09,0.113,0.114,0.1,0.109,2580000
2020-03-10,0.105,0.111,0.10400000000000001,0.105,442000
2020-03-11,0.105,0.111,0.105,0.10800000000000001,832000
2020-03-12,0.105,0.105,0.098,0.10099999999999999,3456000
2020-03-13,0.095,0.1,0.092,0.098,1902000
2020-03-18,0.115,0.115,0.08900000000000001,0.08900000000000001,1152000
2020-03-19,0.076,0.087,0.061,0.081,12036000
2020-03-20,0.081,0.08800000000000001,0.06,0.069,33318000
2020-03-23,0.066,0.066,0.061,0.063,4074000
2020-03-24,0.063,0.071,0.061,0.065,2048000
2020-03-25,0.066,0.066,0.063,0.065,5034000
2020-03-26,0.064,0.065,0.063,0.065,2384000
2020-03-27,0.062,0.08800000000000001,0.062,0.07,5588000
2020-03-30,0.07,0.081,0.07,0.07400000000000001,4026000
2020-03-31,0.075,0.079,0.07,0.075,1934000
2020-04-01,0.07200000000000001,0.07400000000000001,0.066,0.069,2218000
2020-04-02,0.066,0.07,0.066,0.069,290000
2020-04-03,0.067,0.069,0.066,0.066,1302000
2020-04-06,0.065,0.069,0.063,0.064,778000
2020-04-07,0.064,0.13,0.064,0.085,10678000
2020-04-08,0.085,0.085,0.066,0.078,11694000
2020-04-09,0.081,0.08199999999999999,0.076,0.078,1556000
2020-04-14,0.076,0.079,0.073,0.078,1758000
2020-04-15,0.083,0.083,0.077,0.08199999999999999,1992000
2020-04-16,0.081,0.09,0.077,0.08,15538000
2020-04-17,0.079,0.087,0.079,0.08,6286000
2020-04-20,0.079,0.08,0.077,0.079,3372000
2020-04-21,0.078,0.081,0.076,0.079,2036000
2020-04-22,0.078,0.08,0.075,0.08,1714000
2020-04-23,0.077,0.083,0.077,0.08,604000
2020-04-24,0.078,0.08199999999999999,0.076,0.076,398000
2020-04-27,0.09,0.09,0.075,0.078,80000
2020-04-28,0.076,0.077,0.076,0.077,510000
2020-04-29,0.079,0.079,0.075,0.075,194000
2020-05-04,0.075,0.08,0.075,0.078,444000
2020-05-05,0.08,0.08199999999999999,0.078,0.078,392000
2020-05-06,0.075,0.076,0.075,0.076,424000
2020-05-07,0.073,0.076,0.073,0.07400000000000001,12000
2020-05-08,0.07400000000000001,0.078,0.07400000000000001,0.077,1858000
2020-05-11,0.07400000000000001,0.077,0.073,0.075,2186000
2020-05-12,0.073,0.079,0.073,0.077,378000
2020-05-13,0.07400000000000001,0.07400000000000001,0.07400000000000001,0.07400000000000001,766000
2020-05-14,0.07200000000000001,0.078,0.071,0.071,376000
2020-05-15,0.07200000000000001,0.07200000000000001,0.07,0.071,324000
2020-05-18,0.07,0.071,0.068,0.07200000000000001,2740000
2020-05-19,0.071,0.07200000000000001,0.067,0.069,2520000
2020-05-20,0.07,0.073,0.068,0.07,2548000
2020-05-21,0.07,0.07,0.068,0.07,2612000
2020-05-22,0.07,0.07,0.066,0.068,486000
2020-05-25,0.07200000000000001,0.07200000000000001,0.069,0.069,130000
2020-05-26,0.067,0.07200000000000001,0.066,0.068,1642000
2020-05-27,0.067,0.067,0.066,0.067,694000
2020-05-28,0.067,0.067,0.064,0.066,860000
2020-05-29,0.066,0.071,0.066,0.066,1978000
2020-06-01,0.065,0.066,0.065,0.066,200000
2020-06-02,0.064,0.065,0.062,0.063,830000
2020-06-03,0.062,0.067,0.062,0.066,856000
2020-06-04,0.064,0.066,0.064,0.065,40000
2020-06-05,0.065,0.069,0.065,0.069,440000
2020-06-08,0.066,0.066,0.063,0.065,3046000
2020-06-09,0.065,0.073,0.065,0.07,3070000
2020-06-10,0.068,0.068,0.064,0.065,936000
2020-06-11,0.065,0.067,0.064,0.066,2438000
2020-06-12,0.062,0.066,0.062,0.066,228000
2020-06-15,0.064,0.066,0.064,0.064,164000
2020-06-16,0.063,0.07400000000000001,0.063,0.067,2376000
2020-06-17,0.065,0.069,0.063,0.068,3140000
2020-06-18,0.066,0.069,0.066,0.068,428000
2020-06-19,0.065,0.069,0.064,0.065,320000
2020-06-22,0.069,0.069,0.065,0.065,76000
2020-06-23,0.069,0.09,0.069,0.073,11208000
2020-06-24,0.071,0.073,0.068,0.07,4782000
2020-06-26,0.07200000000000001,0.075,0.07,0.071,644000
2020-06-29,0.071,0.07400000000000001,0.07,0.073,1452000
2020-06-30,0.073,0.079,0.066,0.07400000000000001,1452000
2020-07-02,0.079,0.084,0.07400000000000001,0.077,6462000
2020-07-03,0.079,0.084,0.077,0.079,10456000
2020-07-06,0.079,0.084,0.079,0.083,4152000
2020-07-07,0.084,0.122,0.08,0.087,40582000
2020-07-08,0.087,0.1,0.087,0.1,3502000
2020-07-09,0.10400000000000001,0.10800000000000001,0.1,0.10300000000000001,9420000
2020-07-10,0.10300000000000001,0.105,0.1,0.10099999999999999,6900000
2020-07-13,0.1,0.10099999999999999,0.09300000000000001,0.099,6736000
2020-07-14,0.09699999999999999,0.1,0.096,0.09699999999999999,2182000
2020-07-15,0.096,0.096,0.094,0.094,1974000
2020-07-16,0.09300000000000001,0.09699999999999999,0.08800000000000001,0.08900000000000001,4722000
2020-07-17,0.087,0.09,0.081,0.08900000000000001,4554000
