Date,Open,High,Low,Close,Volume
2012-02-07,1.73,1.73,1.69,1.72,5814500
2012-02-08,1.72,1.81,1.69,1.8,11478000
2012-02-09,1.81,1.96,1.74,1.93,16950000
2012-02-10,1.95,1.96,1.81,1.85,10027000
2012-02-13,1.83,1.83,1.75,1.81,6111000
2012-02-14,1.79,1.86,1.79,1.83,3425000
2012-02-15,1.83,1.88,1.8,1.87,8484000
2012-02-16,1.83,1.85,1.77,1.78,4382000
2012-02-17,1.82,1.83,1.77,1.79,8983500
2012-02-20,1.84,1.93,1.84,1.9,8688000
2012-02-21,1.89,1.93,1.83,1.89,6632000
2012-02-22,1.88,2.07,1.87,2.04,19753000
2012-02-23,2.01,2.12,1.94,2.0,23891000
2012-02-24,2.0,2.02,1.87,2.02,13048000
2012-02-27,2.02,2.09,1.96,2.01,14829000
2012-02-28,2.01,2.05,1.96,2.03,5980000
2012-02-29,2.0,2.05,1.97,2.04,5832000
2012-03-01,1.99,2.0,1.87,1.88,5677000
2012-03-02,1.91,2.0,1.89,1.98,7719000
2012-03-05,1.98,2.0,1.87,1.88,7092000
2012-03-06,1.89,1.89,1.77,1.77,4008000
2012-03-07,1.72,1.77,1.71,1.71,9065000
2012-03-08,1.74,1.78,1.72,1.74,8169000
2012-03-09,1.77,1.78,1.73,1.76,4658000
2012-03-12,1.76,1.77,1.72,1.74,3842000
2012-03-13,1.73,1.82,1.73,1.8,3707000
2012-03-14,1.85,1.87,1.73,1.73,6383000
2012-03-15,1.71,1.74,1.63,1.64,12512000
2012-03-16,1.63,1.71,1.62,1.7,19375284
2012-03-19,1.7,1.7,1.62,1.63,8516240
2012-03-20,1.63,1.65,1.6,1.64,6165000
2012-03-21,1.66,1.66,1.59,1.63,10712000
2012-03-22,1.65,1.66,1.6,1.63,5493000
2012-03-23,1.59,1.59,1.55,1.57,5033000
2012-03-26,1.56,1.59,1.53,1.57,3299000
2012-03-27,1.6,1.63,1.58,1.62,2394000
2012-03-28,1.63,1.63,1.57,1.58,2721000
2012-03-29,1.61,1.61,1.53,1.56,2651000
2012-03-30,1.53,1.59,1.53,1.57,2857306
2012-04-02,1.55,1.57,1.49,1.57,6238000
2012-04-03,1.56,1.65,1.54,1.65,5693000
2012-04-05,1.57,1.67,1.56,1.65,8905000
2012-04-10,1.63,1.63,1.57,1.58,3313000
2012-04-11,1.53,1.58,1.53,1.57,5145000
2012-04-12,1.58,1.6,1.56,1.57,2483000
2012-04-13,1.62,1.63,1.59,1.61,3627000
2012-04-16,1.58,1.6,1.57,1.58,1245000
2012-04-17,1.58,1.59,1.53,1.54,10336000
2012-04-18,1.57,1.57,1.52,1.54,5073000
2012-04-19,1.56,1.58,1.55,1.58,1072000
2012-04-20,1.55,1.57,1.54,1.55,2258000
2012-04-23,1.54,1.59,1.53,1.54,2748146
2012-04-24,1.54,1.56,1.54,1.55,2352000
2012-04-25,1.55,1.57,1.53,1.56,5413000
2012-04-26,1.57,1.59,1.56,1.58,1569000
2012-04-27,1.57,1.57,1.54,1.57,917000
2012-04-30,1.57,1.63,1.56,1.62,2707000
2012-05-02,1.64,1.66,1.62,1.64,4139000
2012-05-03,1.6,1.66,1.6,1.66,2064000
2012-05-04,1.65,1.67,1.62,1.67,1059000
2012-05-07,1.65,1.65,1.55,1.57,5381000
2012-05-08,1.57,1.59,1.52,1.57,9184000
2012-05-09,1.54,1.57,1.52,1.57,7457000
2012-05-10,1.53,1.58,1.51,1.58,8075000
2012-05-11,1.59,1.59,1.53,1.57,11184000
2012-05-14,1.58,1.58,1.54,1.57,11211000
2012-05-15,1.55,1.58,1.54,1.58,9431000
2012-05-16,1.57,1.58,1.54,1.58,12371000
2012-05-17,1.57,1.58,1.55,1.58,9325000
2012-05-18,1.55,1.56,1.54,1.56,2971000
2012-05-21,1.56,1.56,1.54,1.56,3101000
2012-05-22,1.56,1.61,1.54,1.61,2359000
2012-05-23,1.61,1.61,1.57,1.59,4010000
2012-05-24,1.59,1.63,1.57,1.61,4416000
2012-05-25,1.62,1.63,1.59,1.63,2127000
2012-05-28,1.62,1.67,1.62,1.67,1676000
2012-05-29,1.64,1.73,1.64,1.73,3814000
2012-05-30,1.7,1.73,1.68,1.69,2762000
2012-05-31,1.67,1.76,1.66,1.76,4214000
2012-06-01,1.73,1.73,1.68,1.7,3183000
2012-06-04,1.66,1.68,1.59,1.64,3291000
2012-06-05,1.64,1.67,1.6,1.63,3893000
2012-06-06,1.64,1.69,1.63,1.69,3083000
2012-06-07,1.72,1.76,1.67,1.69,2865000
2012-06-08,1.72,1.74,1.68,1.72,2560000
2012-06-11,1.77,1.78,1.73,1.76,3029000
2012-06-12,1.75,1.8,1.72,1.77,15489564
2012-06-13,1.81,1.88,1.8,1.81,19381000
2012-06-14,1.79,1.85,1.79,1.82,6988000
2012-06-15,1.85,1.95,1.85,1.94,11997000
2012-06-18,1.98,2.04,1.95,1.96,12209500
2012-06-19,1.96,1.96,1.88,1.89,6268000
2012-06-20,1.91,1.93,1.86,1.89,5512571
2012-06-21,1.9,1.91,1.81,1.81,9632000
2012-06-22,1.76,1.88,1.7,1.84,4114000
2012-06-25,1.84,1.89,1.81,1.83,1729429
2012-06-26,1.83,1.83,1.78,1.82,1190492
2012-06-27,1.81,1.89,1.81,1.87,3041270
2012-06-28,1.87,1.9,1.8,1.8,2520000
2012-06-29,1.84,1.85,1.8,1.85,2186753
2012-07-03,1.86,1.91,1.85,1.85,3177000
2012-07-04,1.87,1.95,1.85,1.94,4613759
2012-07-05,1.94,1.95,1.89,1.94,2141479
2012-07-06,1.95,2.07,1.95,2.06,13452173
2012-07-09,2.04,2.04,1.95,1.95,3672000
2012-07-10,1.99,1.99,1.91,1.91,2025000
2012-07-11,1.9,1.93,1.88,1.88,1963000
2012-07-12,1.88,1.88,1.82,1.83,1932642
2012-07-13,1.83,1.87,1.82,1.85,908637
2012-07-16,1.85,1.85,1.73,1.74,3308001
2012-07-17,1.76,1.8,1.74,1.74,3823000
2012-07-18,1.74,1.77,1.72,1.72,1784000
2012-07-19,1.77,1.78,1.7,1.71,1543000
2012-07-20,1.7,1.74,1.7,1.73,585553
2012-07-23,1.67,1.68,1.65,1.67,2034000
2012-07-24,1.67,1.68,1.66,1.68,428983
2012-07-25,1.69,1.69,1.61,1.63,1603000
2012-07-26,1.62,1.71,1.62,1.65,1421000
2012-07-27,1.71,1.71,1.67,1.7,631000
2012-07-30,1.7,1.7,1.61,1.64,3016453
2012-07-31,1.65,1.73,1.65,1.67,3467000
2012-08-01,1.69,1.7,1.67,1.69,691000
2012-08-02,1.66,1.69,1.65,1.68,577000
2012-08-03,1.64,1.68,1.64,1.68,756000
2012-08-06,1.7,1.72,1.69,1.7,744000
2012-08-07,1.69,1.71,1.63,1.68,1196000
2012-08-08,1.68,1.72,1.68,1.69,1044000
2012-08-09,1.7,1.78,1.7,1.77,2209000
2012-08-10,1.77,1.78,1.69,1.7,2523000
2012-08-13,1.72,1.72,1.66,1.67,1217000
2012-08-14,1.69,1.69,1.66,1.66,683000
2012-08-15,1.65,1.66,1.63,1.65,567000
2012-08-16,1.67,1.68,1.65,1.66,594000
2012-08-17,1.68,1.69,1.66,1.67,728000
2012-08-20,1.66,1.68,1.66,1.67,402000
2012-08-21,1.66,1.71,1.66,1.71,3490291
2012-08-22,1.71,1.71,1.69,1.7,999000
2012-08-23,1.7,1.73,1.7,1.71,1591000
2012-08-24,1.7,1.7,1.68,1.68,646000
2012-08-27,1.69,1.69,1.65,1.66,270735
2012-08-28,1.66,1.68,1.66,1.68,464000
2012-08-29,1.67,1.68,1.63,1.64,617000
2012-08-30,1.65,1.66,1.62,1.65,1045000
2012-08-31,1.64,1.66,1.61,1.62,1822000
2012-09-03,1.62,1.67,1.62,1.63,1372000
2012-09-04,1.62,1.65,1.59,1.62,1061000
2012-09-05,1.6,1.62,1.59,1.61,1342000
2012-09-06,1.63,1.63,1.59,1.61,380000
2012-09-07,1.64,1.67,1.63,1.67,1922441
2012-09-10,1.67,1.67,1.64,1.64,454566
2012-09-11,1.63,1.65,1.6,1.64,1495000
2012-09-12,1.66,1.66,1.63,1.64,865000
2012-09-13,1.62,1.7,1.62,1.65,2808682
2012-09-14,1.7,1.73,1.68,1.72,6035000
2012-09-17,1.73,1.76,1.67,1.69,3336000
2012-09-18,1.67,1.72,1.66,1.69,1555000
2012-09-19,1.69,1.73,1.69,1.71,1260694
2012-09-20,1.72,1.75,1.66,1.67,2140618
2012-09-21,1.71,1.71,1.66,1.69,1815000
2012-09-24,1.66,1.68,1.65,1.66,611053
2012-09-25,1.69,1.69,1.66,1.69,1033000
2012-09-26,1.67,1.68,1.66,1.67,1454556
2012-09-27,1.64,1.68,1.63,1.65,2134000
2012-09-28,1.65,1.67,1.65,1.66,1022953
2012-10-03,1.68,1.7,1.65,1.66,1062000
2012-10-04,1.67,1.7,1.67,1.69,1127429
2012-10-05,1.7,1.71,1.68,1.71,1514048
2012-10-08,1.7,1.7,1.67,1.68,760835
2012-10-09,1.69,1.72,1.69,1.7,1744000
2012-10-10,1.67,1.7,1.66,1.7,340259
2012-10-11,1.7,1.71,1.67,1.67,1189000
2012-10-12,1.7,1.71,1.69,1.7,955379
2012-10-15,1.71,1.81,1.71,1.76,5064000
2012-10-16,1.76,1.83,1.76,1.8,3170609
2012-10-17,1.82,1.83,1.76,1.78,2545000
2012-10-18,1.8,1.81,1.76,1.79,3687000
2012-10-19,1.8,1.8,1.76,1.76,2190000
2012-10-22,1.75,1.8,1.75,1.8,1776000
2012-10-24,1.76,1.93,1.76,1.92,5781711
2012-10-25,1.93,1.94,1.83,1.85,3103000
2012-10-26,1.87,1.87,1.77,1.77,1875000
2012-10-29,1.75,1.79,1.74,1.76,3111047
2012-10-30,1.76,1.78,1.75,1.76,1291000
2012-10-31,1.76,1.8,1.76,1.78,4275000
2012-11-01,1.77,1.85,1.77,1.85,3433922
2012-11-02,1.87,1.92,1.85,1.9,4957484
2012-11-05,1.9,1.94,1.88,1.93,2690242
2012-11-06,1.96,1.96,1.86,1.89,2098000
2012-11-07,1.91,1.94,1.9,1.94,2536000
2012-11-08,1.87,1.91,1.86,1.87,3178000
2012-11-09,1.86,1.88,1.83,1.86,2035000
2012-11-12,1.86,1.96,1.86,1.91,4362242
2012-11-13,1.88,1.92,1.84,1.85,3235000
2012-11-14,1.85,1.9,1.85,1.9,1478000
2012-11-15,1.86,1.92,1.86,1.89,1770000
2012-11-16,1.9,1.93,1.87,1.89,1468000
2012-11-19,1.9,1.91,1.87,1.89,1026000
2012-11-20,1.92,1.92,1.88,1.89,1803000
2012-11-21,1.9,1.91,1.87,1.89,1822000
2012-11-22,1.89,1.94,1.89,1.92,2755902
2012-11-23,1.93,2.09,1.93,2.09,13733194
2012-11-26,2.1,2.22,2.09,2.15,10489750
2012-11-27,2.15,2.32,2.11,2.27,13971000
2012-11-28,2.27,2.41,2.24,2.41,22777508
2012-11-29,2.4,2.5,2.34,2.39,21248000
2012-11-30,2.39,2.75,2.36,2.68,27022892
2012-12-03,2.65,2.72,2.48,2.5,16018957
2012-12-04,2.5,2.65,2.39,2.57,24902784
2012-12-05,2.54,2.65,2.52,2.57,16235290
2012-12-06,2.56,2.72,2.56,2.71,22248040
2012-12-07,2.75,2.86,2.75,2.8,18827038
2012-12-10,2.84,2.89,2.76,2.79,14190226
2012-12-11,2.79,2.79,2.59,2.65,14844484
2012-12-12,2.62,2.71,2.6,2.67,17157000
2012-12-13,2.68,2.71,2.6,2.63,13189121
2012-12-14,2.63,2.65,2.58,2.6,11681178
2012-12-17,2.56,2.61,2.49,2.51,10154000
2012-12-18,2.5,2.6,2.48,2.5,11684000
2012-12-19,2.52,2.59,2.51,2.55,8081387
2012-12-20,2.55,2.55,2.5,2.51,5838000
2012-12-21,2.52,2.52,2.41,2.42,14637000
2012-12-24,2.4,2.41,2.35,2.38,4983000
2012-12-27,2.45,2.69,2.45,2.69,17585000
2012-12-28,2.69,2.72,2.6,2.71,10607484
2012-12-31,2.69,2.78,2.66,2.72,8768004
2013-01-02,2.78,2.85,2.76,2.81,16317532
2013-01-03,2.84,2.85,2.76,2.8,8268362
2013-01-04,2.76,2.83,2.73,2.81,10065000
2013-01-07,2.81,3.17,2.81,3.15,28124712
2013-01-08,3.12,3.13,2.87,2.89,18871024
2013-01-09,2.9,3.13,2.9,3.11,19256484
2013-01-10,3.14,3.19,2.99,3.0,16210000
2013-01-11,3.1,3.14,2.88,2.93,17606000
2013-01-14,2.94,3.08,2.9,3.01,12363278
2013-01-15,3.06,3.08,2.96,3.02,6965260
2013-01-16,3.02,3.09,2.97,3.06,11246314
2013-01-17,3.06,3.08,2.95,3.01,8118000
2013-01-18,3.02,3.07,2.92,2.98,5545000
2013-01-21,3.0,3.04,2.97,3.01,6100242
2013-01-22,3.02,3.13,3.0,3.12,12483227
2013-01-23,3.12,3.13,2.99,3.03,7690000
2013-01-24,3.02,3.05,2.96,2.99,4706421
2013-01-25,2.96,3.0,2.87,2.93,10702822
2013-01-28,2.9,2.95,2.84,2.87,4129000
2013-01-29,2.85,2.93,2.83,2.9,4621726
2013-01-30,2.93,2.97,2.9,2.91,3417000
2013-01-31,2.91,2.92,2.83,2.84,2205000
2013-02-01,2.82,2.85,2.77,2.8,4355000
2013-02-04,2.83,2.86,2.8,2.8,2119000
2013-02-05,2.75,2.78,2.69,2.74,2734000
2013-02-06,2.76,2.77,2.69,2.7,2636000
2013-02-07,2.73,2.75,2.63,2.74,6590000
2013-02-08,2.71,2.74,2.69,2.72,1507000
2013-02-14,2.72,2.79,2.7,2.79,1496000
2013-02-15,2.79,2.81,2.75,2.81,1874000
2013-02-18,2.82,2.82,2.73,2.76,2313000
2013-02-19,2.78,2.78,2.64,2.65,3856000
2013-02-20,2.66,2.69,2.59,2.66,2320000
2013-02-21,2.59,2.64,2.57,2.59,2067000
2013-02-22,2.59,2.68,2.58,2.66,3031895
2013-02-25,2.67,2.68,2.51,2.54,2047958
2013-02-26,2.5,2.51,2.42,2.44,2554000
2013-02-27,2.45,2.51,2.43,2.5,5636000
2013-02-28,2.53,2.58,2.51,2.55,5896000
2013-03-01,2.54,2.54,2.45,2.47,3392475
2013-03-04,2.44,2.44,2.25,2.28,6244145
2013-03-05,2.28,2.31,2.28,2.29,3937000
2013-03-06,2.33,2.35,2.28,2.29,4974000
2013-03-07,2.3,2.31,2.25,2.3,2859000
2013-03-08,2.3,2.39,2.3,2.34,8675000
2013-03-11,2.32,2.33,2.27,2.29,2976363
2013-03-12,2.32,2.32,2.22,2.25,1685000
2013-03-13,2.25,2.25,2.16,2.17,2758000
2013-03-14,2.2,2.21,2.1,2.21,3199000
2013-03-15,2.18,2.22,2.07,2.09,6025531
2013-03-18,2.06,2.09,2.02,2.08,3486119
2013-03-19,2.1,2.17,2.07,2.1,3168000
2013-03-20,2.08,2.28,2.08,2.25,7085500
2013-03-21,2.25,2.31,2.18,2.22,4457000
2013-03-22,2.18,2.22,2.15,2.22,2077000
2013-03-25,2.22,2.26,2.18,2.23,1833242
2013-03-26,2.23,2.28,2.19,2.27,2415000
2013-03-27,2.3,2.35,2.27,2.34,4910596
2013-03-28,2.31,2.4,2.29,2.39,5117500
2013-04-02,2.39,2.45,2.31,2.33,5543000
2013-04-03,2.32,2.35,2.29,2.33,3776014
2013-04-05,2.31,2.32,2.22,2.24,2689000
2013-04-08,2.24,2.28,2.21,2.28,2139000
2013-04-09,2.29,2.3,2.27,2.29,1287000
2013-04-10,2.31,2.34,2.27,2.34,3770000
2013-04-11,2.36,2.41,2.34,2.37,2561000
2013-04-12,2.4,2.41,2.37,2.4,1888765
2013-04-15,2.35,2.38,2.32,2.35,841242
2013-04-16,2.31,2.44,2.26,2.41,2826000
2013-04-17,2.41,2.43,2.37,2.4,1992872
2013-04-18,2.38,2.5,2.38,2.5,2698000
2013-04-19,2.5,2.71,2.5,2.7,7202000
2013-04-22,2.66,2.66,2.6,2.63,4023180
2013-04-23,2.63,2.63,2.51,2.58,1808180
2013-04-24,2.63,2.64,2.6,2.62,1429000
2013-04-25,2.65,2.65,2.57,2.59,910421
2013-04-26,2.58,2.58,2.5,2.53,1722000
2013-04-29,2.52,2.59,2.47,2.58,2273000
2013-04-30,2.59,2.63,2.54,2.61,650000
2013-05-02,2.58,2.62,2.56,2.59,1329000
2013-05-03,2.61,2.64,2.5,2.55,2326000
2013-05-06,2.59,2.6,2.55,2.57,823000
2013-05-07,2.59,2.62,2.54,2.59,2596000
2013-05-08,2.6,2.64,2.57,2.61,1532421
2013-05-09,2.61,2.65,2.6,2.63,1897900
2013-05-10,2.62,2.63,2.57,2.61,1149242
2013-05-13,2.59,2.6,2.51,2.54,682000
2013-05-14,2.58,2.58,2.46,2.47,1468000
2013-05-15,2.5,2.52,2.47,2.47,1259000
2013-05-16,2.5,2.5,2.43,2.47,1130000
2013-05-20,2.52,2.57,2.51,2.53,2462000
2013-05-21,2.54,2.56,2.49,2.52,728000
2013-05-22,2.52,2.55,2.46,2.51,681000
2013-05-23,2.47,2.48,2.39,2.4,1595000
2013-05-24,2.43,2.43,2.35,2.38,2152484
2013-05-27,2.38,2.42,2.37,2.38,1367688
2013-05-28,2.37,2.43,2.37,2.43,680000
2013-05-29,2.43,2.47,2.38,2.41,1340000
2013-05-30,2.42,2.48,2.37,2.42,1141660
2013-05-31,2.35,2.4,2.35,2.36,1204002
2013-06-03,2.4,2.41,2.27,2.28,727299
2013-06-04,2.34,2.34,2.26,2.31,604331
2013-06-05,2.28,2.31,2.26,2.3,408000
2013-06-06,2.27,2.31,2.25,2.27,435000
2013-06-07,2.3,2.37,2.3,2.33,1173000
2013-06-10,2.34,2.35,2.27,2.27,605000
2013-06-11,2.25,2.33,2.24,2.26,1708556
2013-06-13,2.23,2.23,2.18,2.18,964000
2013-06-14,2.22,2.26,2.21,2.22,596000
2013-06-17,2.22,2.33,2.22,2.26,1404000
2013-06-18,2.22,2.27,2.22,2.24,1198000
2013-06-19,2.24,2.25,2.2,2.23,686322
2013-06-20,2.17,2.18,2.12,2.16,1453000
2013-06-21,2.1,2.11,2.0,2.11,1233000
2013-06-24,2.04,2.13,2.0,2.03,970000
2013-06-25,2.02,2.08,1.87,2.0,1607017
2013-06-26,2.03,2.09,2.03,2.09,931000
2013-06-27,2.11,2.18,2.08,2.18,1942000
2013-06-28,2.18,2.28,2.18,2.22,1623866
2013-07-02,2.28,2.28,2.19,2.21,857000
2013-07-03,2.21,2.21,2.11,2.12,1077000
2013-07-04,2.12,2.18,2.12,2.17,307000
2013-07-05,2.17,2.2,2.14,2.16,337000
2013-07-08,2.1,2.15,2.09,2.13,428004
2013-07-09,2.18,2.2,2.13,2.14,185583
2013-07-10,2.13,2.15,2.09,2.12,658000
2013-07-11,2.2,2.26,2.14,2.24,1659890
2013-07-12,2.23,2.26,2.2,2.23,779000
2013-07-15,2.21,2.26,2.21,2.26,793000
2013-07-16,2.23,2.24,2.19,2.21,697000
2013-07-17,2.15,2.21,2.15,2.17,1274000
2013-07-18,2.18,2.2,2.14,2.18,748815
2013-07-19,2.17,2.18,2.08,2.15,1216842
2013-07-22,2.13,2.13,1.97,1.99,3856726
2013-07-23,1.98,2.06,1.98,2.04,2699124
2013-07-24,2.06,2.08,2.03,2.08,602000
2013-07-25,2.03,2.08,2.03,2.07,224117
2013-07-26,2.06,2.1,2.04,2.06,1020000
2013-07-29,2.04,2.07,2.01,2.01,369000
2013-07-30,2.03,2.03,1.96,1.96,993121
2013-07-31,2.02,2.07,1.98,2.0,1990150
2013-08-01,2.0,2.07,2.0,2.04,2394000
2013-08-02,2.05,2.14,2.05,2.1,4534000
2013-08-05,2.1,2.16,2.1,2.12,1342000
2013-08-06,2.12,2.12,2.07,2.11,1277000
2013-08-07,2.09,2.14,2.07,2.09,1732000
2013-08-08,2.08,2.12,2.07,2.08,692121
2013-08-09,2.07,2.1,2.01,2.07,1261000
2013-08-12,2.11,2.15,2.09,2.15,1815093
2013-08-13,2.19,2.25,2.15,2.24,4574000
2013-08-15,2.25,2.3,2.2,2.21,2258000
2013-08-16,2.16,2.24,2.16,2.2,2146000
2013-08-19,2.2,2.22,2.16,2.18,707000
2013-08-20,2.16,2.21,2.08,2.09,891000
2013-08-21,2.08,2.11,2.05,2.1,1027000
2013-08-22,2.03,2.12,2.03,2.09,1134000
2013-08-23,2.13,2.14,2.08,2.08,641434
2013-08-26,2.08,2.11,2.04,2.04,905000
2013-08-27,2.04,2.11,2.03,2.08,903000
2013-08-28,2.03,2.07,2.01,2.04,1221842
2013-08-29,2.04,2.05,2.01,2.03,676000
2013-08-30,2.04,2.07,2.03,2.05,1941000
2013-09-02,2.02,2.08,2.02,2.04,1070530
2013-09-03,2.06,2.07,2.02,2.07,1056000
2013-09-04,2.06,2.06,2.04,2.05,430000
2013-09-05,2.07,2.08,2.03,2.06,1967000
2013-09-06,2.06,2.08,2.04,2.08,1591152
2013-09-09,2.1,2.15,2.03,2.12,1853000
2013-09-10,2.13,2.17,2.11,2.16,2009000
2013-09-11,2.17,2.18,2.13,2.16,1305005
2013-09-12,2.16,2.18,2.12,2.16,1194000
2013-09-13,2.15,2.16,2.12,2.13,1195086
2013-09-16,2.16,2.18,2.14,2.18,2808732
2013-09-17,2.18,2.27,2.17,2.21,2937217
2013-09-18,2.21,2.22,2.18,2.21,1875281
2013-09-19,2.26,2.26,2.18,2.2,1459375
2013-09-23,2.23,2.27,2.16,2.16,1386000
2013-09-24,2.21,2.21,2.14,2.17,1134106
2013-09-25,2.15,2.18,2.14,2.16,465000
2013-09-26,2.14,2.16,2.13,2.14,1593000
2013-09-27,2.19,2.19,2.14,2.14,1164470
2013-09-30,2.12,2.15,2.07,2.08,569000
2013-10-02,2.08,2.1,2.06,2.06,1562000
2013-10-03,2.1,2.12,2.08,2.09,745000
2013-10-04,2.12,2.12,2.08,2.1,484000
2013-10-07,2.14,2.14,2.07,2.1,1187000
2013-10-08,2.07,2.23,2.07,2.21,3661000
2013-10-09,2.2,2.25,2.2,2.25,1771000
2013-10-10,2.24,2.28,2.21,2.24,1211000
2013-10-11,2.29,2.3,2.26,2.27,1451005
2013-10-15,2.3,2.3,2.18,2.2,1297118
2013-10-16,2.16,2.22,2.16,2.19,1115006
2013-10-17,2.19,2.21,2.15,2.15,818000
2013-10-18,2.16,2.19,2.13,2.14,647000
2013-10-21,2.14,2.16,2.13,2.14,1560000
2013-10-22,2.14,2.14,2.1,2.12,1019000
2013-10-23,2.15,2.18,2.09,2.09,1355000
2013-10-24,2.1,2.11,2.06,2.07,1360000
2013-10-25,2.06,2.08,2.04,2.06,851000
2013-10-28,2.09,2.1,2.07,2.09,591000
2013-10-29,2.07,2.09,2.04,2.07,720868
2013-10-30,2.09,2.12,2.05,2.09,1228804
2013-10-31,2.08,2.12,2.05,2.09,2276000
2013-11-01,2.07,2.09,2.06,2.08,389000
2013-11-04,2.09,2.1,2.06,2.08,513056
2013-11-05,2.08,2.08,2.05,2.06,673000
2013-11-06,2.06,2.09,2.06,2.09,353000
2013-11-07,2.09,2.09,2.05,2.05,811000
2013-11-08,2.05,2.06,2.04,2.04,1010000
2013-11-11,2.04,2.04,2.01,2.02,1437000
2013-11-12,2.02,2.1,2.02,2.09,1679000
2013-11-13,2.05,2.07,2.03,2.04,464957
2013-11-14,2.08,2.1,2.06,2.07,953055
2013-11-15,2.07,2.09,2.06,2.06,668002
2013-11-18,2.07,2.11,2.07,2.1,1353073
2013-11-19,2.12,2.13,2.06,2.08,1001421
2013-11-20,2.08,2.09,2.04,2.05,1674016
2013-11-21,2.06,2.06,2.04,2.05,1178000
2013-11-22,2.05,2.08,2.03,2.06,3054000
2013-11-25,2.05,2.07,2.04,2.06,635812
2013-11-26,2.05,2.06,2.02,2.03,985000
2013-11-27,2.02,2.07,2.02,2.06,990000
2013-11-28,2.07,2.07,2.03,2.03,1513327
2013-11-29,2.03,2.06,2.03,2.06,1159000
2013-12-02,2.07,2.07,2.03,2.04,1215000
2013-12-03,2.04,2.07,2.03,2.06,1004168
2013-12-04,2.05,2.06,2.03,2.05,1306000
2013-12-05,2.06,2.06,2.02,2.03,1397000
2013-12-06,2.03,2.09,2.03,2.07,1242000
2013-12-09,2.09,2.09,2.03,2.03,926000
2013-12-10,2.05,2.05,2.01,2.04,819050
2013-12-11,2.01,2.04,1.98,2.0,1355000
2013-12-12,1.98,2.04,1.96,1.97,1119000
2013-12-13,1.97,1.99,1.95,1.97,529111
2013-12-16,1.95,1.98,1.94,1.94,1000000
2013-12-17,1.94,1.95,1.92,1.94,2112016
2013-12-18,1.96,2.03,1.95,2.02,1137000
2013-12-19,2.0,2.03,1.96,1.98,550000
2013-12-20,1.95,2.01,1.93,1.94,834000
2013-12-23,1.93,1.96,1.9,1.93,346000
2013-12-24,1.93,1.94,1.91,1.92,98081
2013-12-27,1.89,1.93,1.88,1.92,1134986
2013-12-30,1.97,1.97,1.89,1.91,579000
2013-12-31,1.91,1.96,1.9,1.95,509000
2014-01-02,1.97,1.97,1.92,1.95,513000
2014-01-03,1.92,1.94,1.9,1.91,932000
2014-01-06,1.9,1.94,1.88,1.89,746332
2014-01-07,1.88,1.88,1.84,1.84,797000
2014-01-08,1.84,1.9,1.84,1.9,1373259
2014-01-09,1.88,1.96,1.86,1.87,1136000
2014-01-10,1.86,1.89,1.86,1.88,354000
2014-01-13,1.86,1.87,1.84,1.84,523000
2014-01-14,1.82,1.84,1.8,1.81,623000
2014-01-15,1.81,1.86,1.8,1.82,851000
2014-01-16,1.84,1.89,1.83,1.84,1305000
2014-01-17,1.83,1.86,1.82,1.84,837000
2014-01-20,1.86,1.86,1.78,1.81,1126000
2014-01-21,1.8,1.81,1.75,1.78,1010893
2014-01-22,1.75,1.82,1.75,1.8,2555058
2014-01-23,1.8,1.8,1.75,1.76,1681000
2014-01-24,1.74,1.77,1.74,1.75,1354000
2014-01-27,1.7,1.71,1.65,1.68,1946000
2014-01-28,1.67,1.71,1.66,1.66,805000
2014-01-29,1.66,1.69,1.66,1.68,853000
2014-01-30,1.67,1.68,1.67,1.68,283000
2014-02-04,1.68,1.68,1.64,1.65,527000
2014-02-05,1.66,1.68,1.62,1.64,410000
2014-02-06,1.65,1.7,1.65,1.69,468000
2014-02-07,1.71,1.71,1.66,1.68,680029
2014-02-10,1.7,1.7,1.66,1.67,1231000
2014-02-11,1.67,1.75,1.67,1.71,1306900
2014-02-12,1.71,1.83,1.71,1.83,4236000
2014-02-13,1.85,1.86,1.76,1.86,2882000
2014-02-14,1.88,1.88,1.83,1.86,1535000
2014-02-17,1.83,1.86,1.79,1.85,1836001
2014-02-18,1.84,1.84,1.76,1.82,1248000
2014-02-19,1.8,1.85,1.79,1.83,617363
2014-02-20,1.8,1.83,1.75,1.77,962121
2014-02-21,1.79,1.79,1.72,1.73,863900
2014-02-24,1.72,1.72,1.63,1.64,2265000
2014-02-25,1.66,1.7,1.65,1.67,927000
2014-02-26,1.69,1.72,1.64,1.69,1601000
2014-02-27,1.69,1.72,1.68,1.72,751000
2014-02-28,1.72,1.72,1.65,1.7,1076000
2014-03-03,1.66,1.71,1.66,1.71,295076
2014-03-04,1.72,1.75,1.7,1.72,1271000
2014-03-05,1.72,1.74,1.7,1.71,410000
2014-03-06,1.71,1.87,1.7,1.85,3637000
2014-03-07,1.82,1.85,1.8,1.83,1448242
2014-03-10,1.79,1.8,1.75,1.76,2355242
2014-03-11,1.76,1.83,1.76,1.78,891000
2014-03-12,1.75,1.76,1.72,1.73,1190000
2014-03-13,1.73,1.77,1.68,1.69,2116000
2014-03-14,1.69,1.72,1.67,1.68,814375
2014-03-17,1.68,1.68,1.64,1.68,694000
2014-03-18,1.69,1.72,1.65,1.66,1771000
2014-03-19,1.7,1.7,1.64,1.64,804000
2014-03-20,1.64,1.64,1.57,1.58,4055000
2014-03-21,1.6,1.73,1.58,1.72,3459818
2014-03-24,1.69,1.72,1.65,1.7,801000
2014-03-25,1.69,1.69,1.65,1.66,839000
2014-03-26,1.66,1.72,1.66,1.71,2577121
2014-03-27,1.69,1.71,1.63,1.64,1694000
2014-03-28,1.65,1.68,1.63,1.67,1283814
2014-03-31,1.69,1.72,1.66,1.71,1606000
2014-04-01,1.71,1.72,1.68,1.72,1077000
2014-04-02,1.72,1.81,1.7,1.78,2759257
2014-04-03,1.8,1.83,1.7,1.74,1555629
2014-04-04,1.76,1.77,1.71,1.72,550001
2014-04-07,1.75,1.75,1.7,1.7,482000
2014-04-08,1.7,1.71,1.68,1.7,3080000
2014-04-09,1.7,1.75,1.59,1.61,6949000
2014-04-10,1.63,1.64,1.58,1.63,2763000
2014-04-11,1.63,1.63,1.6,1.6,1417000
2014-04-14,1.62,1.62,1.59,1.59,1330000
2014-04-15,1.6,1.62,1.55,1.55,2380000
2014-04-16,1.55,1.6,1.55,1.56,1912000
2014-04-17,1.56,1.6,1.53,1.53,2718000
2014-04-22,1.55,1.55,1.46,1.48,2186000
2014-04-23,1.52,1.52,1.47,1.49,716000
2014-04-24,1.49,1.55,1.49,1.54,1241000
2014-04-25,1.53,1.54,1.49,1.5,1150000
2014-04-28,1.48,1.5,1.46,1.48,2145000
2014-04-29,1.48,1.5,1.43,1.47,4026547
2014-04-30,1.48,1.5,1.44,1.47,729000
2014-05-02,1.47,1.49,1.44,1.46,2526000
2014-05-05,1.48,1.48,1.41,1.41,5912868
2014-05-07,1.41,1.43,1.36,1.37,3427000
2014-05-08,1.36,1.38,1.33,1.34,2924000
2014-05-09,1.34,1.34,1.3,1.31,2914000
2014-05-12,1.31,1.35,1.3,1.34,2522000
2014-05-13,1.34,1.42,1.33,1.42,2044000
2014-05-14,1.42,1.43,1.39,1.42,2188187
2014-05-15,1.44,1.44,1.39,1.41,802000
2014-05-16,1.38,1.4,1.37,1.38,588000
2014-05-19,1.38,1.38,1.35,1.37,812000
2014-05-20,1.37,1.41,1.37,1.4,1782242
2014-05-21,1.39,1.39,1.35,1.35,2092000
2014-05-22,1.4,1.4,1.36,1.36,1356000
2014-05-23,1.36,1.51,1.35,1.5,4382000
2014-05-26,1.5,1.5,1.46,1.47,1186000
2014-05-27,1.46,1.48,1.45,1.47,718000
2014-05-28,1.46,1.48,1.46,1.47,718000
2014-05-29,1.45,1.48,1.45,1.47,857134
2014-05-30,1.47,1.49,1.46,1.48,1260000
2014-06-03,1.48,1.54,1.48,1.52,1601000
2014-06-04,1.5,1.5,1.47,1.48,2723000
2014-06-05,1.48,1.48,1.45,1.46,6818387
2014-06-06,1.46,1.46,1.43,1.43,770000
2014-06-09,1.42,1.45,1.42,1.43,307000
2014-06-10,1.43,1.46,1.43,1.43,407000
2014-06-11,1.42,1.46,1.42,1.46,380000
2014-06-12,1.44,1.45,1.44,1.44,178099
2014-06-13,1.44,1.45,1.43,1.43,1855000
2014-06-16,1.43,1.45,1.43,1.44,613000
2014-06-17,1.44,1.45,1.44,1.44,1692000
2014-06-18,1.49,1.54,1.49,1.5,3527000
2014-06-19,1.49,1.49,1.46,1.46,951000
2014-06-20,1.46,1.47,1.46,1.47,480000
2014-06-23,1.48,1.49,1.45,1.46,772000
2014-06-24,1.46,1.46,1.42,1.43,1194000
2014-06-25,1.42,1.46,1.38,1.44,161586000
2014-06-26,1.49,1.52,1.45,1.46,1692000
2014-06-27,1.48,1.49,1.44,1.45,3514000
2014-06-30,1.47,1.47,1.43,1.43,1893000
2014-07-02,1.45,1.46,1.43,1.45,4656000
2014-07-03,1.45,1.49,1.44,1.48,4947000
2014-07-04,1.47,1.55,1.47,1.55,5749656
2014-07-07,1.57,1.59,1.53,1.58,2601000
2014-07-08,1.58,1.58,1.53,1.54,1520000
2014-07-09,1.5,1.53,1.49,1.51,2257000
2014-07-10,1.55,1.55,1.5,1.51,1324000
2014-07-11,1.51,1.52,1.48,1.51,2561000
2014-07-14,1.52,1.54,1.51,1.53,1174971
2014-07-15,1.55,1.55,1.53,1.54,861000
2014-07-16,1.53,1.54,1.51,1.54,571000
2014-07-17,1.53,1.54,1.52,1.53,757000
2014-07-18,1.52,1.53,1.51,1.53,898000
2014-07-21,1.55,1.55,1.51,1.52,582000
2014-07-22,1.52,1.54,1.52,1.54,1139000
2014-07-23,1.56,1.6,1.54,1.58,3890712
2014-07-24,1.59,1.68,1.58,1.66,12722000
2014-07-25,1.69,1.69,1.63,1.68,10425000
2014-07-28,1.66,1.71,1.66,1.68,5019363
2014-07-29,1.69,1.69,1.63,1.64,3804030
2014-07-30,1.67,1.68,1.61,1.61,3359187
2014-07-31,1.65,1.72,1.62,1.71,4056000
2014-08-01,1.68,1.72,1.65,1.69,3016000
2014-08-04,1.71,1.74,1.67,1.71,2016000
2014-08-05,1.73,1.73,1.68,1.71,3411000
2014-08-06,1.72,1.74,1.67,1.73,1876000
2014-08-07,1.73,1.73,1.69,1.7,1482000
2014-08-08,1.68,1.68,1.63,1.65,1583434
2014-08-11,1.66,1.72,1.66,1.69,1498000
2014-08-12,1.67,1.67,1.65,1.67,506000
2014-08-13,1.67,1.7,1.66,1.69,877000
2014-08-14,1.7,1.7,1.66,1.67,641484
2014-08-15,1.66,1.68,1.66,1.67,474000
2014-08-18,1.68,1.68,1.62,1.63,1192000
2014-08-19,1.64,1.68,1.64,1.67,1005185
2014-08-20,1.67,1.69,1.66,1.66,551000
2014-08-21,1.65,1.69,1.64,1.69,1525000
2014-08-22,1.7,1.74,1.69,1.72,3057901
2014-08-25,1.71,1.74,1.7,1.72,934000
2014-08-26,1.7,1.76,1.7,1.74,1552000
2014-08-27,1.76,1.84,1.71,1.72,3289217
2014-08-28,1.69,1.76,1.64,1.67,1862000
2014-08-29,1.68,1.68,1.62,1.63,1091000
2014-09-01,1.64,1.64,1.6,1.6,976000
2014-09-02,1.62,1.63,1.6,1.61,715000
2014-09-03,1.61,1.65,1.61,1.64,1297000
2014-09-04,1.65,1.65,1.61,1.62,1442000
2014-09-05,1.67,1.67,1.61,1.63,1115837
2014-09-08,1.62,1.62,1.58,1.58,1078000
2014-09-10,1.58,1.58,1.52,1.56,2108000
2014-09-11,1.56,1.56,1.52,1.53,1483390
2014-09-12,1.53,1.55,1.5,1.52,1539000
2014-09-15,1.51,1.51,1.48,1.5,1500008
2014-09-16,1.49,1.49,1.45,1.47,1705000
2014-09-17,1.49,1.52,1.48,1.5,1493129
2014-09-18,1.5,1.5,1.44,1.44,1657000
2014-09-19,1.46,1.5,1.45,1.47,1105000
2014-09-22,1.45,1.46,1.42,1.44,463093
2014-09-23,1.43,1.48,1.43,1.46,465000
2014-09-24,1.45,1.47,1.43,1.45,524000
2014-09-25,1.45,1.47,1.44,1.44,566484
2014-09-26,1.44,1.46,1.42,1.43,630000
2014-09-29,1.43,1.43,1.36,1.38,776000
2014-09-30,1.37,1.37,1.33,1.36,499000
2014-10-03,1.34,1.44,1.31,1.43,2350938
2014-10-06,1.43,1.47,1.4,1.46,1428000
2014-10-07,1.49,1.53,1.49,1.52,2126937
2014-10-08,1.5,1.5,1.48,1.5,1053000
2014-10-09,1.52,1.52,1.5,1.51,354000
2014-10-10,1.49,1.49,1.43,1.46,1264000
2014-10-13,1.44,1.46,1.4,1.45,1039000
2014-10-14,1.43,1.48,1.42,1.45,871000
2014-10-15,1.44,1.44,1.41,1.43,2442000
2014-10-16,1.41,1.41,1.37,1.4,2350000
2014-10-17,1.4,1.42,1.37,1.42,324000
2014-10-20,1.43,1.43,1.39,1.4,135000
2014-10-21,1.41,1.42,1.38,1.4,272000
2014-10-22,1.41,1.42,1.4,1.42,579000
2014-10-23,1.39,1.4,1.39,1.39,301000
2014-10-24,1.4,1.4,1.38,1.39,283096
2014-10-27,1.38,1.38,1.32,1.33,1169000
2014-10-28,1.35,1.38,1.34,1.35,308242
2014-10-29,1.36,1.39,1.36,1.38,376000
2014-10-30,1.38,1.38,1.36,1.38,221242
2014-10-31,1.38,1.4,1.38,1.38,340008
2014-11-03,1.39,1.44,1.39,1.43,1794000
2014-11-04,1.43,1.47,1.43,1.45,588000
2014-11-05,1.44,1.47,1.43,1.46,611000
2014-11-06,1.45,1.45,1.4,1.44,495000
2014-11-07,1.42,1.42,1.4,1.42,680000
2014-11-10,1.46,1.46,1.4,1.41,1210329
2014-11-11,1.4,1.42,1.39,1.4,396145
2014-11-12,1.41,1.42,1.4,1.4,450000
2014-11-13,1.4,1.44,1.4,1.44,254000
2014-11-14,1.41,1.43,1.41,1.43,301000
2014-11-17,1.43,1.45,1.4,1.4,434000
2014-11-18,1.41,1.41,1.36,1.37,916000
2014-11-19,1.36,1.4,1.35,1.35,860000
2014-11-20,1.35,1.39,1.35,1.37,384000
2014-11-21,1.39,1.4,1.36,1.36,270000
2014-11-24,1.44,1.5,1.43,1.49,5081000
2014-11-25,1.5,1.52,1.43,1.45,1905000
2014-11-26,1.45,1.47,1.44,1.47,768314
2014-11-27,1.46,1.48,1.44,1.44,722000
2014-11-28,1.48,1.51,1.45,1.48,3390000
2014-12-01,1.48,1.53,1.46,1.46,2687094
2014-12-02,1.46,1.51,1.45,1.5,904156
2014-12-03,1.52,1.56,1.5,1.51,1581000
2014-12-04,1.52,1.53,1.5,1.52,837000
2014-12-05,1.53,1.53,1.47,1.48,1257000
2014-12-08,1.48,1.48,1.43,1.44,1882000
2014-12-09,1.44,1.46,1.4,1.42,1601242
2014-12-10,1.44,1.44,1.4,1.4,679788
2014-12-11,1.39,1.4,1.38,1.4,681000
2014-12-12,1.4,1.41,1.38,1.39,1040384
2014-12-15,1.37,1.39,1.37,1.37,168384
2014-12-16,1.43,1.43,1.37,1.4,336500
2014-12-17,1.4,1.4,1.36,1.36,581000
2014-12-18,1.36,1.38,1.36,1.36,356290
2014-12-19,1.37,1.37,1.3,1.3,1539000
2014-12-22,1.31,1.36,1.29,1.32,1533000
2014-12-23,1.34,1.35,1.27,1.31,1472000
2014-12-24,1.32,1.33,1.3,1.31,432000
2014-12-29,1.33,1.34,1.31,1.33,653768
2014-12-30,1.35,1.38,1.33,1.36,1914000
2014-12-31,1.36,1.36,1.28,1.35,1144000
2015-01-02,1.34,1.47,1.31,1.46,12082000
2015-01-05,1.46,1.55,1.45,1.48,6528000
2015-01-06,1.46,1.49,1.44,1.48,2116000
2015-01-07,1.49,1.5,1.45,1.48,4796757
2015-01-08,1.5,1.5,1.43,1.45,1658000
2015-01-09,1.49,1.49,1.42,1.45,2439000
2015-01-12,1.42,1.44,1.38,1.4,1541484
2015-01-13,1.42,1.43,1.38,1.42,845000
2015-01-14,1.41,1.43,1.37,1.4,1160000
2015-01-15,1.4,1.4,1.36,1.37,919000
2015-01-16,1.36,1.38,1.33,1.35,1774000
2015-01-17,1.38,1.38,1.38,1.38,0
2015-01-19,1.35,1.38,1.31,1.33,1110000
2015-01-20,1.35,1.35,1.32,1.33,685000
2015-01-21,1.34,1.36,1.33,1.36,677000
2015-01-22,1.38,1.38,1.33,1.37,1254000
2015-01-23,1.41,1.41,1.35,1.38,773000
2015-01-26,1.37,1.38,1.33,1.35,1161929
2015-01-27,1.38,1.38,1.33,1.35,152000
2015-01-28,1.37,1.37,1.32,1.36,502000
2015-01-29,1.37,1.37,1.32,1.34,530000
2015-01-30,1.37,1.38,1.32,1.34,421000
2015-02-02,1.34,1.35,1.31,1.32,586000
2015-02-03,1.35,1.35,1.31,1.32,504000
2015-02-04,1.36,1.36,1.32,1.36,709000
2015-02-05,1.4,1.43,1.37,1.39,2029000
2015-02-06,1.35,1.38,1.35,1.37,35000
2015-02-09,1.37,1.37,1.33,1.34,214000
2015-02-10,1.33,1.34,1.3,1.33,128000
2015-02-11,1.32,1.35,1.31,1.33,447072
2015-02-12,1.33,1.34,1.32,1.34,897000
2015-02-13,1.36,1.36,1.31,1.34,163000
2015-02-16,1.33,1.37,1.32,1.34,376000
2015-02-17,1.35,1.36,1.34,1.35,273000
2015-02-18,1.37,1.38,1.36,1.36,257000
2015-02-23,1.429,1.429,1.35,1.36,726430
2015-02-24,1.35,1.37,1.331,1.37,133920
2015-02-25,1.35,1.35,1.331,1.341,300310
2015-02-26,1.331,1.37,1.331,1.35,447420
2015-02-27,1.35,1.39,1.35,1.38,598590
2015-03-02,1.409,1.409,1.36,1.37,1476190
2015-03-03,1.4,1.409,1.37,1.38,2691640
2015-03-04,1.4,1.4,1.37,1.37,560040
2015-03-05,1.38,1.39,1.36,1.36,788320
2015-03-06,1.36,1.37,1.291,1.321,1232170
2015-03-09,1.301,1.35,1.281,1.35,487300
2015-03-10,1.321,1.331,1.321,1.321,226250
2015-03-11,1.321,1.331,1.301,1.301,430170
2015-03-12,1.311,1.321,1.301,1.301,732510
2015-03-13,1.321,1.35,1.301,1.331,335820
2015-03-16,1.321,1.321,1.301,1.311,122760
2015-03-17,1.321,1.321,1.301,1.301,585400
2015-03-18,1.301,1.331,1.301,1.311,284080
2015-03-19,1.331,1.331,1.301,1.321,298280
2015-03-20,1.301,1.311,1.281,1.301,932380
2015-03-23,1.35,1.35,1.301,1.321,985090
2015-03-24,1.311,1.321,1.291,1.311,169430
2015-03-25,1.311,1.321,1.291,1.311,726430
2015-03-26,1.36,1.38,1.331,1.341,3518590
2015-03-27,1.37,1.39,1.331,1.39,2679460
2015-03-30,1.4,1.459,1.39,1.449,3959840
2015-03-31,1.459,1.518,1.4,1.419,5500190
2015-04-01,1.39,1.419,1.38,1.409,2782360
2015-04-02,1.429,1.429,1.4,1.419,1865780
2015-04-08,1.429,1.528,1.429,1.4880000000000002,8782180
2015-04-09,1.528,1.597,1.449,1.4880000000000002,12934850
2015-04-10,1.528,1.538,1.4780000000000002,1.508,8692780
2015-04-13,1.528,1.666,1.528,1.636,20583450
2015-04-14,1.626,1.725,1.607,1.617,18199770
2015-04-15,1.607,1.666,1.587,1.597,5719090
2015-04-16,1.597,1.666,1.597,1.666,6563850
2015-04-17,1.695,1.705,1.636,1.666,5855040
2015-04-20,1.666,1.685,1.577,1.626,7764320
2015-04-21,1.587,1.646,1.587,1.607,4491470
2015-04-22,1.587,1.666,1.587,1.666,4864040
2015-04-23,1.685,1.725,1.656,1.685,6624420
2015-04-24,1.705,1.705,1.646,1.695,5137170
2015-04-27,1.705,1.754,1.695,1.745,7171770
2015-04-28,1.774,1.794,1.725,1.784,5783250
2015-04-29,1.784,1.804,1.754,1.774,4332180
2015-04-30,1.725,1.952,1.725,1.942,12037880
2015-05-04,1.9709999999999999,2.247,1.9709999999999999,2.228,23734500
2015-05-05,2.168,2.316,1.9909999999999999,2.09,16249240
2015-05-06,2.119,2.1590000000000003,2.001,2.021,7095310
2015-05-07,1.9909999999999999,2.021,1.8730000000000002,1.902,8556820
2015-05-08,1.922,2.07,1.892,2.021,9040480
2015-05-11,2.119,2.129,2.021,2.05,9048890
2015-05-12,2.09,2.09,2.011,2.05,3571260
2015-05-13,2.05,2.07,1.9909999999999999,2.03,2919910
2015-05-14,2.011,2.04,1.9809999999999999,2.001,2809330
2015-05-15,2.021,2.04,1.9909999999999999,2.001,2296970
2015-05-18,2.011,2.06,2.011,2.05,2812370
2015-05-19,2.06,2.08,2.03,2.07,2969790
2015-05-20,2.08,2.08,2.03,2.07,1996660
2015-05-21,2.07,2.08,1.932,1.9709999999999999,5235150
2015-05-22,2.001,2.021,1.9609999999999999,2.001,7317500
2015-05-26,1.9809999999999999,2.03,1.952,2.011,3588850
2015-05-27,2.04,2.04,1.922,1.9709999999999999,3931430
2015-05-28,1.9909999999999999,1.9909999999999999,1.8630000000000002,1.912,4714670
2015-05-29,1.902,1.932,1.8630000000000002,1.8630000000000002,3964140
2015-06-01,1.942,1.952,1.8630000000000002,1.932,1787390
2015-06-02,1.932,1.952,1.902,1.932,2935130
2015-06-03,2.385,2.425,2.08,2.1390000000000002,53330600
2015-06-04,2.099,2.168,2.011,2.109,11260640
2015-06-05,2.1390000000000002,2.149,2.06,2.09,5627220
2015-06-08,2.09,2.099,2.011,2.04,6238550
2015-06-09,2.021,2.03,1.952,1.9709999999999999,6458710
2015-06-10,2.021,2.04,1.932,1.9809999999999999,6783370
2015-06-11,2.001,2.001,1.942,1.9709999999999999,4423490
2015-06-12,1.9709999999999999,2.001,1.952,1.9909999999999999,7581000
2015-06-15,1.952,1.9709999999999999,1.922,1.9609999999999999,3560430
2015-06-16,1.9809999999999999,1.9809999999999999,1.912,1.922,3596800
2015-06-17,1.922,1.9609999999999999,1.902,1.952,2810510
2015-06-18,1.9609999999999999,1.9809999999999999,1.922,1.9709999999999999,1970280
2015-06-19,1.912,1.9909999999999999,1.912,1.932,2129990
2015-06-22,1.952,1.9609999999999999,1.922,1.952,1374730
2015-06-23,1.9609999999999999,2.001,1.932,1.9809999999999999,4214490
2015-06-24,1.9709999999999999,1.9709999999999999,1.942,1.942,1886530
2015-06-25,1.922,1.9709999999999999,1.922,1.9609999999999999,2432920
2015-06-26,1.9709999999999999,1.9709999999999999,1.912,1.932,2518150
2015-06-29,1.932,1.952,1.784,1.8230000000000002,5081950
2015-06-30,1.8430000000000002,1.892,1.774,1.8630000000000002,1442710
2015-07-02,1.8230000000000002,1.8730000000000002,1.814,1.8430000000000002,1417340
2015-07-03,1.774,1.8630000000000002,1.735,1.745,3691990
2015-07-06,1.774,1.774,1.4780000000000002,1.607,4592930
2015-07-07,1.538,1.666,1.4880000000000002,1.4880000000000002,4808010
2015-07-08,1.439,1.4980000000000002,1.35,1.459,10217960
2015-07-09,1.4880000000000002,1.685,1.439,1.656,4583470
2015-07-10,1.656,1.774,1.656,1.715,3437340
2015-07-13,1.676,1.8730000000000002,1.676,1.8430000000000002,3439370
2015-07-14,1.8330000000000002,1.922,1.8330000000000002,1.8430000000000002,2132820
2015-07-15,1.883,1.902,1.784,1.804,1933760
2015-07-16,1.8530000000000002,1.8530000000000002,1.774,1.784,3535750
2015-07-17,1.804,1.8330000000000002,1.804,1.8230000000000002,1068330
2015-07-20,1.8530000000000002,1.8630000000000002,1.804,1.8530000000000002,743670
2015-07-21,1.8630000000000002,1.8630000000000002,1.8230000000000002,1.8330000000000002,618880
2015-07-22,1.784,1.814,1.774,1.794,340260
2015-07-23,1.8230000000000002,1.8430000000000002,1.804,1.8430000000000002,553440
2015-07-24,1.804,1.902,1.804,1.8230000000000002,2363930
2015-07-27,1.8730000000000002,1.932,1.8430000000000002,1.8730000000000002,10335030
2015-07-28,1.804,1.932,1.804,1.902,5648070
2015-07-29,1.912,1.932,1.902,1.922,2360890
2015-07-30,1.932,1.932,1.912,1.922,1709000
2015-07-31,1.952,1.952,1.912,1.932,2047390
2015-08-03,1.912,1.952,1.892,1.932,2896580
2015-08-04,1.902,1.9709999999999999,1.883,1.9609999999999999,3864470
2015-08-05,1.9709999999999999,2.021,1.9709999999999999,1.9809999999999999,5189490
2015-08-06,2.001,2.011,1.9809999999999999,2.001,1214230
2015-08-07,2.011,2.03,2.001,2.03,2132240
2015-08-10,2.03,2.03,1.9909999999999999,2.011,632070
2015-08-11,2.05,2.05,2.001,2.001,606710
2015-08-12,1.9909999999999999,2.001,1.9709999999999999,1.9809999999999999,5520240
2015-08-13,1.9809999999999999,2.011,1.9809999999999999,1.9909999999999999,1327050
2015-08-14,2.011,2.021,1.9809999999999999,1.9909999999999999,650330
2015-08-17,1.9909999999999999,2.03,1.9809999999999999,2.011,1041540
2015-08-18,2.021,2.021,1.9809999999999999,2.001,1072390
2015-08-19,2.011,2.011,1.9709999999999999,1.9809999999999999,2672360
2015-08-20,1.9809999999999999,1.9909999999999999,1.9709999999999999,1.9809999999999999,4730910
2015-08-21,1.9809999999999999,1.9909999999999999,1.9709999999999999,1.9809999999999999,7527160
2015-08-24,1.952,1.9809999999999999,1.794,1.8330000000000002,5252390
2015-08-25,1.784,1.8630000000000002,1.764,1.804,3856350
2015-08-26,1.912,1.912,1.784,1.804,1716640
2015-08-27,1.8430000000000002,1.912,1.814,1.892,2514230
2015-08-28,1.922,1.922,1.804,1.804,4410310
2015-08-31,1.814,1.8330000000000002,1.804,1.8230000000000002,1242840
2015-09-01,1.774,1.8330000000000002,1.735,1.745,1895550
2015-09-02,1.725,1.814,1.725,1.764,2089470
2015-09-04,1.745,1.774,1.725,1.745,2423790
2015-09-07,1.774,1.794,1.735,1.754,1403140
2015-09-08,1.794,1.804,1.754,1.794,1936800
2015-09-09,1.8630000000000002,1.922,1.8330000000000002,1.922,2491770
2015-09-10,1.922,1.922,1.8530000000000002,1.8730000000000002,1142400
2015-09-11,1.922,1.922,1.8530000000000002,1.883,941510
2015-09-14,1.8730000000000002,1.922,1.8430000000000002,1.8730000000000002,2436980
2015-09-15,1.902,1.902,1.8530000000000002,1.8630000000000002,824000
2015-09-16,1.8630000000000002,1.932,1.8630000000000002,1.912,1620260
2015-09-17,1.912,1.942,1.8730000000000002,1.892,1597940
2015-09-18,1.932,1.932,1.892,1.892,409640
2015-09-21,1.922,1.922,1.892,1.892,520470
2015-09-22,1.932,1.932,1.912,1.922,1256030
2015-09-23,1.922,1.922,1.8730000000000002,1.902,887740
2015-09-24,1.932,1.932,1.8430000000000002,1.883,1227620
2015-09-25,1.912,1.912,1.8630000000000002,1.8630000000000002,479890
2015-09-29,1.892,1.892,1.794,1.814,1410580
2015-09-30,1.883,1.883,1.804,1.8330000000000002,1940860
2015-10-02,1.8530000000000002,1.902,1.8530000000000002,1.883,858320
2015-10-05,1.892,1.932,1.892,1.912,1207330
2015-10-06,1.942,1.942,1.883,1.902,512350
2015-10-07,1.892,2.001,1.892,1.9809999999999999,2175090
2015-10-08,1.9809999999999999,2.001,1.932,1.9809999999999999,617870
2015-10-09,1.9809999999999999,2.021,1.9809999999999999,2.001,782800
2015-10-12,2.03,2.03,1.952,2.021,939730
2015-10-13,2.07,2.07,1.9809999999999999,2.021,404810
2015-10-14,2.07,2.07,1.9809999999999999,2.011,461630
2015-10-15,2.03,2.03,1.9809999999999999,2.011,898900
2015-10-16,2.04,2.109,1.9909999999999999,2.08,5424870
2015-10-19,2.09,2.099,2.05,2.08,516410
2015-10-20,2.109,2.119,2.021,2.03,1405170
2015-10-22,2.001,2.09,2.001,2.05,651350
2015-10-23,2.08,2.08,2.021,2.021,294690
2015-10-26,2.109,2.109,1.9809999999999999,2.021,821800
2015-10-27,2.05,2.05,1.9809999999999999,2.001,399740
2015-10-28,1.9909999999999999,2.03,1.9809999999999999,1.9809999999999999,621930
2015-10-29,2.05,2.05,1.9909999999999999,2.03,570180
2015-10-30,2.04,2.04,1.9609999999999999,1.9609999999999999,3196910
2015-11-02,1.9809999999999999,2.09,1.9809999999999999,2.07,1979410
2015-11-03,2.07,2.188,2.07,2.178,9311970
2015-11-04,2.178,2.198,2.1590000000000003,2.188,4396100
2015-11-05,2.198,2.218,2.168,2.188,934410
2015-11-06,2.1590000000000003,2.188,2.1590000000000003,2.168,577290
2015-11-09,2.168,2.247,2.168,2.228,1428900
2015-11-10,2.198,2.198,2.168,2.188,240450
2015-11-11,2.178,2.218,2.149,2.168,547860
2015-11-12,2.149,2.247,2.149,2.208,858120
2015-11-13,2.1590000000000003,2.188,2.149,2.168,707150
2015-11-16,2.109,2.129,2.09,2.119,828610
2015-11-17,2.129,2.1390000000000002,2.109,2.1390000000000002,453510
2015-11-18,2.178,2.188,2.1590000000000003,2.188,764980
2015-11-19,2.188,2.218,2.1590000000000003,2.208,1397050
2015-11-20,2.198,2.198,2.168,2.178,758890
2015-11-23,2.208,2.208,2.149,2.149,359160
2015-11-24,2.129,2.198,2.129,2.178,788490
2015-11-25,2.1590000000000003,2.198,2.1390000000000002,2.149,638200
2015-11-26,2.168,2.188,2.129,2.149,438290
2015-11-27,2.168,2.168,2.06,2.1390000000000002,2830000
2015-11-30,2.119,2.149,2.08,2.109,1228640
2015-12-01,2.099,2.149,2.099,2.1390000000000002,484960
2015-12-02,2.1390000000000002,2.267,2.119,2.208,2662210
2015-12-03,2.218,2.218,2.1390000000000002,2.1590000000000003,271900
2015-12-04,2.1590000000000003,2.1590000000000003,2.119,2.119,177250
2015-12-07,2.119,2.168,2.119,2.149,756860
2015-12-08,2.1390000000000002,2.1390000000000002,2.109,2.129,592240
2015-12-09,2.1390000000000002,2.1390000000000002,2.109,2.119,195020
2015-12-10,2.099,2.129,2.099,2.109,836090
2015-12-11,2.109,2.119,2.09,2.109,2705840
2015-12-14,2.08,2.119,2.08,2.099,429160
2015-12-15,2.1390000000000002,2.149,2.109,2.129,193780
2015-12-16,2.1590000000000003,2.1590000000000003,2.119,2.129,369870
2015-12-17,2.1590000000000003,2.1590000000000003,2.1390000000000002,2.1590000000000003,594530
2015-12-18,2.168,2.267,2.1590000000000003,2.218,5916940
2015-12-21,2.218,2.405,2.208,2.395,3246600
2015-12-22,2.385,2.415,2.356,2.405,3340960
2015-12-23,2.405,2.434,2.365,2.365,1915500
2015-12-24,2.375,2.385,2.365,2.375,387560
2015-12-28,2.365,2.395,2.336,2.365,2030140
2015-12-29,2.395,2.395,2.365,2.375,364230
2015-12-30,2.395,2.395,2.365,2.385,814820
2015-12-31,2.444,2.444,2.365,2.385,92330
2016-01-04,2.375,2.375,2.346,2.365,2233860
2016-01-05,2.365,2.375,2.346,2.375,3783310
2016-01-06,2.385,2.513,2.385,2.415,2900640
2016-01-07,2.415,2.434,2.326,2.365,4751200
2016-01-08,2.365,2.415,2.365,2.385,1394010
2016-01-11,2.415,2.415,2.356,2.385,4011580
2016-01-12,2.385,2.405,2.365,2.385,2446740
2016-01-13,2.385,2.425,2.375,2.425,3460670
2016-01-14,2.425,2.464,2.365,2.415,2714710
2016-01-15,2.425,2.434,2.375,2.385,1199480
2016-01-18,2.336,2.385,2.336,2.375,2483130
2016-01-19,2.365,2.385,2.356,2.375,1536050
2016-01-20,2.356,2.375,2.346,2.365,3859590
2016-01-21,2.405,2.405,2.336,2.365,4497180
2016-01-22,2.405,2.405,2.365,2.385,2272670
2016-01-25,2.415,2.415,2.375,2.395,2253340
2016-01-26,2.375,2.385,2.365,2.365,1250430
2016-01-27,2.385,2.385,2.365,2.385,2194500
2016-01-28,2.385,2.385,2.356,2.375,2092030
2016-01-29,2.365,2.375,2.356,2.375,5232590
2016-02-01,2.385,2.415,2.365,2.375,1423620
2016-02-02,2.385,2.385,2.365,2.385,1736410
2016-02-03,2.365,2.415,2.356,2.356,515400
2016-02-04,2.356,2.385,2.356,2.356,457570
2016-02-05,2.356,2.385,2.356,2.365,560040
2016-02-11,2.415,2.415,2.306,2.365,1750120
2016-02-12,2.326,2.365,2.2769999999999997,2.287,2323560
2016-02-15,2.306,2.346,2.287,2.316,963830
2016-02-16,2.316,2.365,2.306,2.306,927310
2016-02-17,2.316,2.385,2.316,2.365,1740610
2016-02-18,2.405,2.405,2.356,2.365,1113990
2016-02-19,2.346,2.395,2.346,2.375,1408620
2016-02-22,2.405,2.425,2.395,2.415,468730
2016-02-23,2.405,2.503,2.405,2.454,2788020
2016-02-24,2.454,2.484,2.415,2.434,586420
2016-02-25,2.425,2.434,2.365,2.385,890110
2016-02-26,2.415,2.425,2.395,2.405,335820
2016-02-29,2.395,2.454,2.385,2.444,620910
2016-03-01,2.444,2.444,2.385,2.425,392980
2016-03-02,2.444,2.494,2.434,2.464,2311170
2016-03-03,2.474,2.474,2.434,2.444,1160660
2016-03-04,2.434,2.454,2.405,2.454,1309800
2016-03-07,2.454,2.474,2.415,2.454,1055160
2016-03-08,2.434,2.494,2.415,2.454,1462990
2016-03-09,2.444,2.454,2.425,2.434,310150
2016-03-10,2.444,2.444,2.415,2.425,516410
2016-03-11,2.415,2.434,2.415,2.425,610770
2016-03-14,2.444,2.503,2.444,2.494,1159220
2016-03-15,2.474,2.484,2.434,2.444,270890
2016-03-16,2.444,2.464,2.405,2.444,1222550
2016-03-17,2.454,2.474,2.415,2.434,803530
2016-03-18,2.434,2.464,2.425,2.464,1510760
2016-03-21,2.434,2.494,2.434,2.454,645260
2016-03-22,2.454,2.474,2.434,2.454,1204730
2016-03-23,2.464,2.494,2.464,2.484,1597940
2016-03-24,2.405,2.405,2.237,2.2569999999999997,4882080
2016-03-29,2.2569999999999997,2.2969999999999997,2.168,2.2569999999999997,3549430
2016-03-30,2.2569999999999997,2.336,2.2569999999999997,2.2769999999999997,1386910
2016-03-31,2.2769999999999997,2.316,2.267,2.2769999999999997,1369660
2016-04-01,2.2769999999999997,2.346,2.247,2.336,1195370
2016-04-05,2.306,2.336,2.287,2.287,850200
2016-04-06,2.2969999999999997,2.356,2.2969999999999997,2.326,578300
2016-04-07,2.346,2.346,2.316,2.336,737590
2016-04-08,2.287,2.326,2.2769999999999997,2.326,659470
2016-04-11,2.316,2.336,2.287,2.306,1338570
2016-04-12,2.287,2.346,2.287,2.336,1125150
2016-04-13,2.356,2.356,2.316,2.336,594530
2016-04-14,2.346,2.346,2.2969999999999997,2.336,939490
2016-04-15,2.336,2.336,2.2969999999999997,2.316,577290
2016-04-18,2.316,2.336,2.287,2.326,382490
2016-04-19,2.336,2.336,2.2769999999999997,2.316,482930
2016-04-20,2.306,2.336,2.2769999999999997,2.2969999999999997,294220
2016-04-21,2.2969999999999997,2.365,2.2969999999999997,2.326,1133270
2016-04-22,2.326,2.326,2.2969999999999997,2.306,591490
2016-04-25,2.316,2.316,2.2769999999999997,2.2969999999999997,910060
2016-04-26,2.316,2.316,2.2769999999999997,2.287,530110
2016-04-27,2.2769999999999997,2.2969999999999997,2.267,2.2769999999999997,755720
2016-04-28,2.2769999999999997,2.306,2.237,2.267,492060
2016-04-29,2.237,2.237,2.198,2.228,619900
2016-05-03,2.237,2.237,2.1590000000000003,2.168,1229760
2016-05-04,2.1390000000000002,2.168,2.109,2.129,1418360
2016-05-05,2.119,2.149,2.07,2.09,637150
2016-05-06,2.07,2.09,2.021,2.07,1248930
2016-05-09,2.07,2.07,2.03,2.04,371330
2016-05-10,2.021,2.05,2.021,2.021,869480
2016-05-11,2.021,2.04,2.001,2.021,801500
2016-05-12,2.011,2.021,1.9909999999999999,1.9909999999999999,968910
2016-05-13,1.9709999999999999,2.001,1.942,1.9609999999999999,880640
2016-05-16,1.942,1.9709999999999999,1.932,1.952,927780
2016-05-17,1.942,2.011,1.932,2.011,306400
2016-05-18,1.9809999999999999,1.9809999999999999,1.942,1.952,117690
2016-05-19,1.9609999999999999,2.001,1.9609999999999999,1.9809999999999999,248570
2016-05-20,1.9709999999999999,1.9809999999999999,1.952,1.9709999999999999,660480
2016-05-23,1.9809999999999999,2.021,1.9709999999999999,2.011,936440
2016-05-24,1.942,1.952,1.922,1.932,203930
2016-05-25,1.952,1.9909999999999999,1.932,1.932,224220
2016-05-26,1.932,1.9709999999999999,1.912,1.9609999999999999,2202620
2016-05-27,1.9709999999999999,1.9909999999999999,1.952,1.9809999999999999,486990
2016-05-30,2.021,2.03,1.9809999999999999,2.021,715270
2016-05-31,2.03,2.07,2.021,2.05,3250660
2016-06-01,2.06,2.099,2.06,2.099,571200
2016-06-02,2.109,2.129,2.099,2.119,851220
2016-06-03,2.1390000000000002,2.1590000000000003,2.129,2.149,1504600
2016-06-06,2.149,2.149,2.099,2.1390000000000002,429160
2016-06-07,2.1390000000000002,2.168,2.1390000000000002,2.149,281030
2016-06-08,2.1390000000000002,2.149,2.021,2.1390000000000002,426550
2016-06-10,2.119,2.119,2.08,2.08,270890
2016-06-13,2.05,2.05,1.9609999999999999,1.9809999999999999,1104860
2016-06-14,1.9809999999999999,2.011,1.9809999999999999,2.001,119840
2016-06-15,1.9709999999999999,2.021,1.9709999999999999,1.9909999999999999,618880
2016-06-16,1.9809999999999999,1.9909999999999999,1.942,1.9909999999999999,893830
2016-06-17,2.001,2.021,1.952,2.021,1915500
2016-06-20,2.03,2.03,1.9909999999999999,2.001,64930
2016-06-21,2.001,2.109,2.001,2.03,778170
2016-06-22,2.011,2.03,1.9809999999999999,2.021,449450
2016-06-23,1.9909999999999999,2.021,1.9609999999999999,1.9909999999999999,345970
2016-06-24,1.9709999999999999,2.001,1.942,2.001,1680120
2016-06-27,1.9809999999999999,1.9909999999999999,1.9709999999999999,1.9709999999999999,195810
2016-06-28,1.942,2.001,1.942,1.9709999999999999,211030
2016-06-29,1.9809999999999999,2.001,1.9709999999999999,1.9809999999999999,241470
2016-06-30,2.001,2.021,1.9909999999999999,2.021,290410
2016-07-04,2.011,2.05,1.952,2.04,618650
2016-07-05,2.04,2.05,1.9709999999999999,2.011,129860
2016-07-06,1.9909999999999999,2.001,1.9809999999999999,1.9909999999999999,307410
2016-07-07,1.9909999999999999,2.021,1.9909999999999999,2.021,265820
2016-07-08,2.011,2.021,1.9709999999999999,2.001,258710
2016-07-11,2.04,2.05,2.011,2.03,439310
2016-07-12,2.04,2.05,2.021,2.03,993260
2016-07-13,2.07,2.09,2.021,2.09,798710
2016-07-14,2.08,2.109,2.05,2.09,64930
2016-07-15,2.08,2.099,2.06,2.07,106530
2016-07-18,2.07,2.109,2.021,2.04,693960
2016-07-19,2.05,2.129,2.04,2.04,403800
2016-07-20,2.03,2.06,2.001,2.04,503220
2016-07-21,2.03,2.04,1.9609999999999999,2.03,1703450
2016-07-22,1.9809999999999999,2.03,1.9809999999999999,2.021,210010
2016-07-25,1.9909999999999999,2.021,1.9809999999999999,2.011,314510
2016-07-26,2.021,2.06,1.9809999999999999,2.05,388580
2016-07-27,2.04,2.07,1.9909999999999999,2.06,380460
2016-07-28,2.05,2.05,2.001,2.021,172480
2016-07-29,2.011,2.021,1.9609999999999999,1.9809999999999999,508110
2016-08-01,2.001,2.03,1.9909999999999999,2.021,482930
2016-08-03,1.9909999999999999,2.021,1.9709999999999999,2.001,234360
2016-08-04,2.001,2.03,1.9709999999999999,2.011,705120
2016-08-05,2.011,2.04,2.011,2.03,349010
2016-08-08,2.05,2.06,2.03,2.05,230310
2016-08-09,2.05,2.168,2.05,2.1390000000000002,1264150
2016-08-10,2.1590000000000003,2.168,2.07,2.09,569170
2016-08-11,2.099,2.119,2.09,2.099,182340
2016-08-12,2.099,2.1390000000000002,2.08,2.129,402780
2016-08-15,2.129,2.168,2.09,2.1590000000000003,410900
2016-08-16,2.109,2.1590000000000003,2.109,2.119,377420
2016-08-17,2.119,2.168,2.119,2.149,749360
2016-08-18,2.168,2.168,2.149,2.1590000000000003,417080
2016-08-19,2.168,2.228,2.1390000000000002,2.168,1435610
2016-08-22,2.208,2.208,2.129,2.1590000000000003,144070
2016-08-23,2.119,2.129,2.09,2.099,433220
2016-08-24,2.09,2.09,2.03,2.04,567140
2016-08-25,2.05,2.07,1.9909999999999999,2.03,653020
2016-08-26,2.04,2.04,2.001,2.011,610770
2016-08-29,2.021,2.021,1.9609999999999999,1.9909999999999999,1138340
2016-08-30,2.03,2.03,1.9809999999999999,2.021,732510
2016-08-31,2.03,2.03,1.9709999999999999,1.9809999999999999,1999700
2016-09-01,2.001,2.001,1.952,1.9809999999999999,1648660
2016-09-02,1.9809999999999999,2.001,1.9709999999999999,1.9809999999999999,1523060
2016-09-05,2.011,2.011,1.9609999999999999,1.9909999999999999,1121090
2016-09-06,1.9809999999999999,2.05,1.9709999999999999,2.05,1084570
2016-09-07,2.05,2.05,2.011,2.021,735560
2016-09-08,2.03,2.05,2.03,2.04,129860
2016-09-09,2.021,2.06,2.021,2.05,936440
2016-09-12,2.001,2.011,1.9709999999999999,1.9709999999999999,2121640
2016-09-13,1.9709999999999999,2.011,1.9709999999999999,1.9909999999999999,553950
2016-09-14,1.9909999999999999,2.001,1.9809999999999999,1.9909999999999999,383500
2016-09-15,2.001,2.04,1.9909999999999999,2.03,767010
2016-09-19,2.021,2.07,2.011,2.04,1335160
2016-09-20,2.03,2.03,2.001,2.03,560040
2016-09-21,2.021,2.04,2.011,2.021,1731860
2016-09-22,2.021,2.05,2.021,2.021,947600
2016-09-23,2.021,2.03,2.001,2.001,1163950
2016-09-26,1.9809999999999999,2.011,1.9809999999999999,2.001,242480
2016-09-27,1.9809999999999999,2.03,1.9809999999999999,2.021,391000
2016-09-28,2.001,2.05,2.001,2.001,302340
2016-09-29,2.03,2.08,2.011,2.021,1472130
2016-09-30,2.001,2.07,2.001,2.001,1224580
2016-10-03,2.011,2.03,2.001,2.001,742660
2016-10-04,2.03,2.03,2.001,2.021,1188800
2016-10-05,2.001,2.04,2.001,2.021,3239500
2016-10-06,2.06,2.06,2.03,2.03,2539450
2016-10-07,2.03,2.03,2.021,2.03,818750
2016-10-11,2.04,2.05,2.011,2.011,942530
2016-10-12,2.001,2.001,1.9909999999999999,1.9909999999999999,682800
2016-10-13,2.001,2.011,1.9809999999999999,1.9909999999999999,699030
2016-10-14,1.9909999999999999,2.06,1.9909999999999999,2.021,1148490
2016-10-17,2.021,2.021,1.9709999999999999,1.9809999999999999,3565350
2016-10-18,1.9809999999999999,2.011,1.9809999999999999,2.011,453510
2016-10-19,2.011,2.021,1.9909999999999999,2.001,436940
2016-10-20,2.011,2.021,1.9709999999999999,1.9809999999999999,3807660
2016-10-24,1.9909999999999999,2.099,1.9909999999999999,2.099,1783330
2016-10-25,2.09,2.168,2.09,2.149,881660
2016-10-26,2.129,2.149,2.08,2.119,521490
2016-10-27,2.129,2.1390000000000002,2.04,2.109,495110
2016-10-28,2.09,2.119,2.05,2.08,448440
2016-10-31,2.07,2.09,2.04,2.04,332780
2016-11-01,2.03,2.109,2.03,2.05,371690
2016-11-02,2.03,2.04,2.021,2.04,389590
2016-11-03,2.03,2.109,2.03,2.07,457210
2016-11-04,2.07,2.09,2.011,2.08,1187040
2016-11-07,2.08,2.099,2.03,2.06,910060
2016-11-08,2.129,2.129,2.06,2.099,808990
2016-11-09,2.07,2.09,2.03,2.05,1316900
2016-11-10,2.099,2.099,2.07,2.08,179580
2016-11-11,2.07,2.09,2.06,2.06,315530
2016-11-14,2.04,2.09,2.04,2.08,331760
2016-11-15,2.09,2.149,2.07,2.099,729470
2016-11-16,2.119,2.119,2.05,2.09,869480
2016-11-17,2.08,2.099,2.08,2.08,114650
2016-11-18,2.08,2.099,2.07,2.09,400750
2016-11-21,2.09,2.129,2.09,2.119,701060
2016-11-22,2.119,2.1590000000000003,2.099,2.149,1035870
2016-11-23,2.1390000000000002,2.178,2.09,2.178,1366620
2016-11-24,2.178,2.346,2.178,2.267,1719680
2016-11-25,2.2569999999999997,2.267,2.178,2.198,1063260
2016-11-28,2.198,2.198,2.149,2.1590000000000003,922240
2016-11-29,2.1590000000000003,2.188,2.129,2.149,882670
2016-11-30,2.1590000000000003,2.198,2.129,2.1390000000000002,1121090
2016-12-01,2.178,2.188,2.1590000000000003,2.168,535690
2016-12-02,2.237,2.237,2.129,2.1390000000000002,2741060
2016-12-05,2.1590000000000003,2.178,2.1390000000000002,2.149,309440
2016-12-06,2.149,2.168,2.149,2.1590000000000003,106530
2016-12-07,2.1590000000000003,2.168,2.1390000000000002,2.149,382010
2016-12-08,2.168,2.198,2.119,2.178,427130
2016-12-09,2.178,2.178,2.149,2.178,162330
2016-12-12,2.1590000000000003,2.1590000000000003,2.099,2.099,248570
2016-12-13,2.09,2.1590000000000003,2.09,2.1590000000000003,160300
2016-12-14,2.1590000000000003,2.168,2.1390000000000002,2.1390000000000002,435250
2016-12-15,2.119,2.168,2.099,2.109,822150
2016-12-16,2.168,2.178,2.09,2.129,554140
2016-12-19,2.119,2.168,2.109,2.109,141020
2016-12-20,2.149,2.1590000000000003,2.099,2.119,707150
2016-12-21,2.149,2.149,2.08,2.08,472790
2016-12-22,2.07,2.119,2.07,2.099,386550
2016-12-23,2.09,2.099,2.08,2.09,104090
2016-12-28,2.1390000000000002,2.178,2.129,2.168,810640
2016-12-29,2.149,2.247,2.149,2.178,1137950
2016-12-30,2.198,2.2569999999999997,2.168,2.228,881920
2017-01-03,2.228,2.237,2.218,2.218,271900
2017-01-04,2.168,2.237,2.168,2.228,464020
2017-01-05,2.208,2.267,2.208,2.237,834690
2017-01-06,2.2569999999999997,2.287,2.228,2.267,756320
2017-01-09,2.267,2.267,2.2569999999999997,2.2569999999999997,307410
2017-01-10,2.237,2.365,2.237,2.365,1676060
2017-01-11,2.385,2.405,2.316,2.336,1961150
2017-01-12,2.356,2.365,2.306,2.336,1048040
2017-01-13,2.346,2.395,2.346,2.365,712380
2017-01-16,2.326,2.336,2.316,2.326,231320
2017-01-17,2.336,2.346,2.306,2.316,239680
2017-01-18,2.336,2.336,2.287,2.326,570180
2017-01-19,2.306,2.326,2.287,2.316,87250
2017-01-20,2.316,2.385,2.306,2.346,780200
2017-01-23,2.346,2.365,2.336,2.365,546850
2017-01-24,2.356,2.365,2.336,2.365,405830
2017-01-25,2.346,2.346,2.326,2.336,522500
2017-01-26,2.346,2.356,2.336,2.346,212040
2017-01-27,2.346,2.365,2.306,2.326,517430
2017-02-01,2.346,2.356,2.2969999999999997,2.356,638160
2017-02-02,2.356,2.356,2.316,2.336,176530
2017-02-03,2.336,2.356,2.306,2.336,569040
2017-02-06,2.306,2.326,2.287,2.326,601800
2017-02-07,2.2969999999999997,2.316,2.267,2.306,274950
2017-02-08,2.316,2.385,2.2769999999999997,2.356,1447630
2017-02-09,2.356,2.395,2.326,2.365,1151530
2017-02-10,2.326,2.346,2.287,2.306,521490
2017-02-13,2.306,2.326,2.2569999999999997,2.306,1254000
2017-02-14,2.306,2.306,2.2569999999999997,2.267,1838480
2017-02-15,2.287,2.316,2.267,2.316,1380820
2017-02-16,2.306,2.316,2.2769999999999997,2.306,350020
2017-02-17,2.306,2.306,2.228,2.267,1892160
2017-02-20,2.247,2.267,2.237,2.267,570180
2017-02-21,2.237,2.267,2.228,2.237,535520
2017-02-22,2.247,2.306,2.247,2.306,884700
2017-02-23,2.306,2.306,2.237,2.2769999999999997,1570540
2017-02-24,2.267,2.2769999999999997,2.228,2.2769999999999997,428860
2017-02-27,2.228,2.2769999999999997,2.228,2.2569999999999997,328720
2017-02-28,2.306,2.356,2.237,2.336,1647650
2017-03-01,2.346,2.346,2.306,2.336,691930
2017-03-02,2.356,2.365,2.267,2.306,2415670
2017-03-03,2.306,2.336,2.267,2.2969999999999997,690920
2017-03-06,2.287,2.287,2.218,2.2569999999999997,622940
2017-03-07,2.2569999999999997,2.2569999999999997,2.198,2.237,1495470
2017-03-08,2.218,2.2769999999999997,2.218,2.237,629500
2017-03-09,2.237,2.267,2.218,2.237,576270
2017-03-10,2.247,2.2569999999999997,2.198,2.198,448630
2017-03-13,2.198,2.2769999999999997,2.149,2.247,1906360
2017-03-14,2.228,2.237,2.208,2.228,1029780
2017-03-15,2.129,2.149,2.021,2.07,9394800
2017-03-16,2.06,2.099,2.06,2.08,5125090
2017-03-17,2.08,2.09,2.05,2.06,10508370
2017-03-20,2.08,2.1,2.06,2.09,3949000
2017-03-21,2.09,2.11,2.08,2.1,2873000
2017-03-22,2.08,2.11,2.08,2.08,1921000
2017-03-23,2.08,2.09,2.06,2.07,842490
2017-03-24,2.05,2.08,2.02,2.07,2933000
2017-03-27,2.05,2.08,2.04,2.05,2176240
2017-03-28,2.05,2.06,2.04,2.05,659040
2017-03-29,2.04,2.05,2.02,2.04,1195240
2017-03-30,2.04,2.06,2.03,2.03,654000
2017-03-31,2.03,2.06,2.03,2.06,1210000
2017-04-03,2.05,2.06,2.03,2.06,2016000
2017-04-05,2.05,2.06,2.04,2.06,4636250
2017-04-06,2.05,2.06,2.03,2.04,809080
2017-04-07,2.04,2.05,2.03,2.04,2261940
2017-04-10,2.04,2.06,2.03,2.05,1815130
2017-04-11,2.04,2.05,2.02,2.04,833000
2017-04-12,2.04,2.04,2.01,2.03,1175360
2017-04-13,2.04,2.07,2.01,2.02,10789000
2017-04-18,2.03,2.03,2.01,2.01,3884000
2017-04-19,2.02,2.03,2.01,2.03,1334000
2017-04-20,2.03,2.04,2.02,2.02,1479500
2017-04-21,2.02,2.03,2.01,2.02,1432434
2017-04-24,2.02,2.03,2.0,2.01,1252737
2017-04-25,2.01,2.02,2.0,2.01,1191000
2017-04-26,2.01,2.02,1.94,1.96,3698000
2017-04-27,1.96,1.97,1.93,1.95,1278484
2017-04-28,1.96,2.03,1.96,2.0,2703633
2017-05-02,1.99,2.0,1.98,1.99,900576
2017-05-04,2.0,2.01,1.96,1.99,1912937
2017-05-05,1.97,1.97,1.94,1.95,836500
2017-05-08,1.95,1.95,1.91,1.92,2112268
2017-05-09,1.93,1.93,1.9,1.91,640366
2017-05-10,1.91,1.99,1.91,1.99,3137178
2017-05-11,1.97,2.02,1.97,2.0,866225
2017-05-12,2.0,2.0,1.96,1.98,814000
2017-05-15,1.95,1.98,1.94,1.98,1255500
2017-05-16,1.97,1.97,1.94,1.95,871000
2017-05-17,1.94,1.96,1.93,1.93,1253000
2017-05-18,1.92,1.95,1.92,1.95,529000
2017-05-19,1.93,2.01,1.92,1.98,1601000
2017-05-22,1.99,1.99,1.97,1.97,313548
2017-05-23,1.97,1.97,1.94,1.95,654000
2017-05-24,1.94,1.97,1.94,1.95,110000
2017-05-25,1.97,1.99,1.94,1.95,1046000
2017-05-26,1.94,1.95,1.92,1.92,1278000
2017-05-29,1.94,1.98,1.92,1.95,1444309
2017-05-31,1.94,1.99,1.91,1.97,4550000
2017-06-01,1.96,1.96,1.93,1.94,270000
2017-06-02,1.93,1.94,1.92,1.92,520582
2017-06-05,1.94,1.95,1.92,1.94,336434
2017-06-06,1.94,1.94,1.92,1.92,1338000
2017-06-07,1.92,1.93,1.91,1.93,984000
2017-06-08,1.93,1.95,1.92,1.93,1670000
2017-06-09,1.94,1.94,1.9,1.92,1863000
2017-06-12,1.9,1.91,1.89,1.9,779000
2017-06-13,1.91,1.91,1.88,1.89,583000
2017-06-14,1.89,1.89,1.84,1.85,2111421
2017-06-15,1.84,1.87,1.81,1.81,3552524
2017-06-16,1.81,1.81,1.74,1.78,7827000
2017-06-19,1.78,1.9,1.78,1.87,2458000
2017-06-20,1.86,1.9,1.85,1.88,798000
2017-06-21,1.86,1.9,1.86,1.88,465000
2017-06-22,1.88,1.9,1.88,1.89,149000
2017-06-23,1.89,1.89,1.83,1.83,578000
2017-06-26,1.83,1.86,1.8,1.8,2154000
2017-06-27,1.8,1.8,1.78,1.78,770000
2017-06-28,1.77,1.77,1.74,1.76,2074500
2017-06-29,1.75,1.82,1.75,1.81,1093000
2017-06-30,1.79,1.82,1.77,1.78,365000
2017-07-03,1.78,1.82,1.77,1.8,754000
2017-07-04,1.82,1.84,1.77,1.77,603000
2017-07-05,1.79,1.82,1.78,1.81,383000
2017-07-06,1.81,1.84,1.79,1.82,448000
2017-07-07,1.81,1.83,1.79,1.82,151000
2017-07-10,1.8,1.81,1.78,1.78,557766
2017-07-11,1.77,1.81,1.77,1.8,884000
2017-07-12,1.8,1.82,1.76,1.77,683000
2017-07-13,1.78,1.79,1.76,1.77,945000
2017-07-14,1.76,1.82,1.76,1.8,1176890
2017-07-17,1.8,1.81,1.76,1.8,467500
2017-07-18,1.79,1.79,1.76,1.77,557000
2017-07-19,1.77,1.82,1.76,1.82,1270847
2017-07-20,1.8,1.85,1.8,1.82,1144000
2017-07-21,1.81,1.86,1.76,1.77,8348000
2017-07-24,1.77,1.79,1.73,1.74,2569990
2017-07-25,1.75,1.75,1.72,1.73,665000
2017-07-26,1.73,1.75,1.72,1.75,635024
2017-07-27,1.75,1.81,1.75,1.8,1754315
2017-07-28,1.78,1.8,1.77,1.8,370000
2017-07-31,1.81,1.81,1.77,1.78,102000
2017-08-01,1.8,1.81,1.77,1.81,1019000
2017-08-02,1.83,1.83,1.76,1.79,684000
2017-08-03,1.77,1.79,1.77,1.79,360000
2017-08-04,1.76,1.78,1.76,1.77,293000
2017-08-07,1.77,1.79,1.76,1.79,756000
2017-08-08,1.77,1.79,1.76,1.78,339000
2017-08-09,1.75,1.81,1.75,1.78,1042000
2017-08-10,1.77,1.81,1.75,1.76,580000
2017-08-11,1.74,1.76,1.72,1.73,739210
2017-08-14,1.71,1.77,1.71,1.76,324000
2017-08-15,1.73,1.79,1.7,1.71,960000
2017-08-16,1.71,1.72,1.69,1.7,1848000
2017-08-17,1.69,1.73,1.67,1.72,1951223
2017-08-18,1.69,1.71,1.68,1.69,78000
2017-08-21,1.67,1.7,1.67,1.69,768500
2017-08-22,1.68,1.73,1.68,1.7,834000
2017-08-24,1.73,1.79,1.73,1.79,3025000
2017-08-25,1.79,1.86,1.79,1.8,1255469
2017-08-28,1.78,1.79,1.74,1.74,988428
2017-08-29,1.74,1.74,1.69,1.73,2417758
2017-08-30,1.74,1.74,1.69,1.72,983000
2017-08-31,1.72,1.76,1.7,1.72,1014000
2017-09-01,1.71,1.75,1.7,1.72,573000
2017-09-04,1.72,1.73,1.69,1.71,897000
2017-09-05,1.71,1.74,1.7,1.72,411000
2017-09-06,1.71,1.72,1.68,1.72,821000
2017-09-07,1.72,1.77,1.71,1.77,3080991
2017-09-08,1.77,1.81,1.75,1.76,1887000
2017-09-11,1.74,1.74,1.71,1.73,663000
2017-09-12,1.73,1.75,1.71,1.74,459000
2017-09-13,1.72,1.73,1.7,1.73,904000
2017-09-14,1.7,1.72,1.69,1.71,958187
2017-09-15,1.7,2.08,1.7,1.95,20547500
2017-09-18,1.96,2.0,1.87,1.88,9162413
2017-09-19,1.88,1.88,1.8,1.8,3837000
2017-09-20,1.82,1.86,1.81,1.82,3062000
2017-09-21,1.82,1.92,1.8,1.87,4477000
2017-09-22,1.87,1.87,1.81,1.84,2298000
2017-09-25,1.82,1.82,1.74,1.76,2778000
2017-09-26,1.73,1.77,1.72,1.73,1779000
2017-09-27,1.75,1.78,1.73,1.76,1006000
2017-09-28,1.74,1.76,1.73,1.73,463000
2017-09-29,1.75,1.76,1.74,1.76,808000
2017-10-03,1.78,1.8,1.7,1.78,2408000
2017-10-04,1.78,1.78,1.75,1.76,660000
2017-10-06,1.78,1.82,1.76,1.81,1564000
2017-10-09,1.8,1.81,1.75,1.78,974000
2017-10-10,1.76,1.78,1.74,1.76,1327641
2017-10-11,1.75,1.76,1.72,1.74,1029000
2017-10-12,1.73,1.75,1.72,1.73,1016000
2017-10-13,1.73,1.75,1.71,1.75,652000
2017-10-16,1.74,1.75,1.72,1.74,1162000
2017-10-17,1.73,1.74,1.72,1.73,287242
2017-10-18,1.74,1.75,1.72,1.73,308000
2017-10-19,1.74,1.77,1.72,1.73,1267000
2017-10-20,1.74,1.75,1.72,1.75,428000
2017-10-23,1.75,1.75,1.72,1.74,377000
2017-10-24,1.74,1.74,1.71,1.73,865336
2017-10-25,1.72,1.74,1.7,1.73,445000
2017-10-26,1.7,1.73,1.7,1.72,338000
2017-10-27,1.74,1.74,1.71,1.72,211000
2017-10-30,1.73,1.73,1.7,1.71,471000
2017-10-31,1.71,1.73,1.7,1.7,502484
2017-11-01,1.7,1.72,1.7,1.71,349000
2017-11-02,1.72,1.74,1.7,1.73,289000
2017-11-03,1.75,1.75,1.71,1.73,45000
2017-11-06,1.75,1.75,1.69,1.72,424000
2017-11-07,1.71,1.72,1.69,1.72,351000
2017-11-08,1.7,1.7,1.69,1.69,929000
2017-11-09,1.7,1.71,1.68,1.71,902000
2017-11-10,1.69,1.7,1.66,1.69,764000
2017-11-13,1.68,1.72,1.68,1.71,785000
2017-11-14,1.68,1.69,1.68,1.69,72000
2017-11-15,1.73,1.73,1.65,1.66,750000
2017-11-16,1.64,1.67,1.62,1.67,1931000
2017-11-17,1.67,1.67,1.62,1.63,917308
2017-11-20,1.63,1.64,1.6,1.63,622342
2017-11-21,1.63,1.66,1.57,1.64,2203000
2017-11-22,1.62,1.65,1.58,1.64,927001
2017-11-23,1.66,1.68,1.64,1.66,227000
2017-11-24,1.64,1.68,1.63,1.67,307500
2017-11-27,1.67,1.68,1.62,1.65,282000
2017-11-28,1.65,1.7,1.63,1.69,155000
2017-11-29,1.7,1.72,1.63,1.66,595000
2017-11-30,1.65,1.66,1.6,1.65,517000
2017-12-01,1.63,1.63,1.6,1.62,449000
2017-12-04,1.59,1.63,1.59,1.62,660000
2017-12-05,1.62,1.62,1.6,1.6,130000
2017-12-06,1.6,1.6,1.55,1.58,919500
2017-12-07,1.56,1.58,1.55,1.56,355000
2017-12-08,1.57,1.59,1.56,1.59,199000
2017-12-11,1.56,1.58,1.55,1.55,218242
2017-12-12,1.58,1.66,1.58,1.66,1802283
2017-12-13,1.65,1.68,1.62,1.68,438000
2017-12-14,1.62,1.68,1.62,1.68,475537
2017-12-15,1.65,1.71,1.64,1.67,416000
2017-12-18,1.68,1.69,1.67,1.68,790302
2017-12-19,1.68,1.71,1.65,1.7,751000
2017-12-20,1.69,1.71,1.67,1.68,631977
2017-12-21,1.68,1.69,1.66,1.67,548000
2017-12-22,1.67,1.69,1.64,1.68,623000
2017-12-27,1.72,1.75,1.71,1.73,1662000
2017-12-28,1.71,1.75,1.71,1.73,359000
2017-12-29,1.72,1.74,1.72,1.73,334000
2018-01-02,1.66,1.76,1.65,1.74,1462000
2018-01-03,1.74,1.75,1.73,1.74,711000
2018-01-04,1.75,1.78,1.73,1.76,1329000
2018-01-05,1.75,1.79,1.75,1.78,1069000
2018-01-08,1.75,1.8,1.75,1.79,429000
2018-01-09,1.79,1.82,1.77,1.8,615000
2018-01-10,1.79,1.8,1.76,1.77,909000
2018-01-11,1.75,1.76,1.75,1.75,21000
2018-01-12,1.77,1.8,1.77,1.8,524250
2018-01-15,1.78,1.8,1.76,1.78,924000
2018-01-16,1.78,1.8,1.77,1.8,837000
2018-01-17,1.78,1.8,1.78,1.8,1028038
2018-01-18,1.79,1.8,1.78,1.8,1737000
2018-01-19,1.78,1.82,1.78,1.8,1346600
2018-01-22,1.8,1.83,1.79,1.82,1558681
2018-01-23,1.8,1.81,1.78,1.8,729000
2018-01-24,1.79,1.81,1.78,1.79,1251260
2018-01-25,1.8,1.8,1.79,1.8,928000
2018-01-26,1.8,1.82,1.79,1.81,900000
2018-01-29,1.83,1.83,1.8,1.81,498000
2018-01-30,1.8,1.81,1.76,1.8,686000
2018-01-31,1.8,1.8,1.76,1.79,604016
2018-02-01,1.79,1.79,1.78,1.79,229000
2018-02-02,1.79,1.79,1.75,1.78,380341
2018-02-05,1.75,1.77,1.73,1.75,683000
2018-02-06,1.72,1.72,1.64,1.67,1560000
2018-02-07,1.69,1.74,1.69,1.71,3194434
2018-02-08,1.7,1.73,1.65,1.71,3564450
2018-02-09,1.68,1.71,1.66,1.7,2116413
2018-02-12,1.7,1.71,1.67,1.71,1611552
2018-02-13,1.71,1.73,1.7,1.7,572000
2018-02-14,1.7,1.72,1.67,1.72,344000
2018-02-15,1.72,1.76,1.72,1.75,291000
2018-02-20,1.74,1.81,1.74,1.79,1281000
2018-02-21,1.8,1.8,1.75,1.8,1253477
2018-02-22,1.76,1.77,1.76,1.77,6000
2018-02-23,1.79,1.8,1.77,1.8,304000
2018-02-26,1.76,1.79,1.76,1.78,386000
2018-02-27,1.79,1.8,1.78,1.8,938000
2018-02-28,1.77,1.81,1.77,1.81,376000
2018-03-01,1.78,1.8,1.78,1.8,1251000
2018-03-02,1.77,1.78,1.75,1.77,181000
2018-03-05,1.78,1.78,1.76,1.77,468000
2018-03-06,1.79,1.8,1.78,1.78,403000
2018-03-07,1.78,1.8,1.78,1.78,753000
2018-03-08,1.77,1.8,1.77,1.8,70804
2018-03-09,1.8,1.82,1.79,1.82,1130141
2018-03-12,1.82,1.82,1.79,1.81,477000
2018-03-13,1.81,1.83,1.79,1.82,431434
2018-03-14,1.81,1.81,1.79,1.79,215000
2018-03-15,1.79,1.82,1.79,1.82,134000
2018-03-16,1.83,1.97,1.83,1.93,4625000
2018-03-19,1.93,1.93,1.86,1.89,479000
2018-03-20,1.86,1.86,1.84,1.85,189000
2018-03-21,1.85,1.86,1.79,1.84,474000
2018-03-22,1.82,1.85,1.8,1.83,199000
2018-03-23,1.8,1.81,1.76,1.79,1203000
2018-03-26,1.79,1.8,1.76,1.8,608000
2018-03-27,1.81,1.82,1.76,1.79,1170000
2018-03-28,1.77,1.8,1.77,1.8,513000
2018-03-29,1.78,1.81,1.78,1.79,456000
2018-04-03,1.78,1.8,1.76,1.79,2206283
2018-04-04,1.78,1.79,1.78,1.79,329000
2018-04-06,1.81,1.82,1.79,1.82,635302
2018-04-09,1.79,1.82,1.79,1.82,222977
2018-04-10,1.8,1.82,1.79,1.8,524000
2018-04-11,1.8,1.81,1.8,1.81,524000
2018-04-12,1.82,1.82,1.79,1.81,406000
2018-04-13,1.8,1.82,1.79,1.8,273000
2018-04-16,1.79,1.81,1.78,1.81,1150000
2018-04-17,1.81,1.81,1.79,1.8,315000
2018-04-18,1.79,1.81,1.78,1.79,941632
2018-04-19,1.79,1.82,1.79,1.82,573500
2018-04-20,1.8,1.81,1.8,1.8,31000
2018-04-23,1.8,1.8,1.77,1.79,513000
2018-04-24,1.79,1.82,1.77,1.8,372000
2018-04-25,1.8,1.8,1.79,1.79,193000
2018-04-26,1.79,1.79,1.75,1.78,217000
2018-04-27,1.78,1.8,1.73,1.8,186000
2018-04-30,1.8,1.81,1.79,1.8,611004
2018-05-02,1.81,1.82,1.79,1.81,311000
2018-05-03,1.79,1.8,1.79,1.8,111000
2018-05-04,1.8,1.82,1.78,1.8,942000
2018-05-07,1.77,1.81,1.76,1.8,1182000
2018-05-08,1.79,1.81,1.71,1.8,986000
2018-05-09,1.79,1.8,1.78,1.8,491000
2018-05-10,1.8,1.8,1.78,1.8,601000
2018-05-11,1.79,1.8,1.79,1.8,173823
2018-05-14,1.79,1.8,1.79,1.8,235072
2018-05-15,1.8,1.82,1.79,1.81,623000
2018-05-16,1.79,1.82,1.78,1.82,400696
2018-05-17,1.81,1.82,1.79,1.81,189000
2018-05-18,1.81,1.82,1.79,1.8,173000
2018-05-21,1.79,1.81,1.78,1.8,710192
2018-05-23,1.8,1.82,1.8,1.82,271450
2018-05-24,1.82,1.82,1.79,1.8,311000
2018-05-25,1.81,1.81,1.79,1.8,255000
2018-05-28,1.79,1.81,1.79,1.8,827000
2018-05-29,1.8,1.81,1.78,1.8,766000
2018-05-30,1.8,1.8,1.78,1.8,633396
2018-05-31,1.79,1.8,1.75,1.79,3220775
2018-06-01,1.78,1.79,1.77,1.79,134000
2018-06-04,1.79,1.81,1.79,1.8,384907
2018-06-05,1.8,1.81,1.79,1.8,896000
2018-06-06,1.79,1.8,1.79,1.79,640000
2018-06-07,1.79,1.8,1.77,1.79,852000
2018-06-08,1.79,1.79,1.77,1.79,690000
2018-06-11,1.78,1.8,1.77,1.79,364702
2018-06-12,1.8,1.8,1.79,1.79,188000
2018-06-13,1.79,1.8,1.78,1.79,493000
2018-06-14,1.79,1.8,1.78,1.8,282000
2018-06-15,1.79,1.8,1.78,1.8,842000
2018-06-19,1.8,1.8,1.74,1.75,1796260
2018-06-20,1.75,1.77,1.74,1.76,711726
2018-06-21,1.76,1.77,1.75,1.76,522000
2018-06-22,1.76,1.8,1.74,1.77,562687
2018-06-25,1.77,1.77,1.74,1.76,810856
2018-06-26,1.76,1.77,1.73,1.75,1101000
2018-06-27,1.75,1.76,1.74,1.75,733673
2018-06-28,1.75,1.77,1.74,1.75,727000
2018-06-29,1.75,1.77,1.75,1.75,330000
2018-07-03,1.75,1.75,1.73,1.74,734000
2018-07-04,1.74,1.77,1.73,1.74,703645
2018-07-05,1.74,1.75,1.71,1.74,900000
2018-07-06,1.74,1.75,1.72,1.74,1156000
2018-07-09,1.75,1.77,1.74,1.75,314937
2018-07-10,1.75,1.77,1.72,1.75,753000
2018-07-11,1.73,1.75,1.72,1.73,913989
2018-07-12,1.73,1.77,1.73,1.77,520000
2018-07-13,1.78,1.78,1.75,1.75,850000
2018-07-16,1.75,1.76,1.75,1.75,19000
2018-07-17,1.74,1.75,1.74,1.75,68000
2018-07-18,1.77,1.77,1.73,1.74,890000
2018-07-19,1.74,1.77,1.74,1.75,4780000
2018-07-20,1.74,1.76,1.74,1.75,582500
2018-07-23,1.75,1.76,1.7,1.74,1953000
2018-07-24,1.77,1.77,1.74,1.76,975187
2018-07-25,1.81,1.81,1.76,1.77,310000
2018-07-26,1.82,1.82,1.75,1.76,1356875
2018-07-27,1.75,1.8,1.74,1.77,197000
2018-07-30,1.75,1.77,1.73,1.77,795000
2018-07-31,1.76,1.8,1.74,1.76,4376242
2018-08-01,1.8,1.8,1.76,1.77,479000
2018-08-02,1.77,1.81,1.74,1.8,6312000
2018-08-03,1.82,1.86,1.72,1.8,21951000
2018-08-06,1.8,1.83,1.77,1.83,4149500
2018-08-07,1.83,1.89,1.83,1.88,4671924
2018-08-08,1.89,1.92,1.88,1.91,1873000
2018-08-09,1.89,1.91,1.88,1.91,1481000
2018-08-10,1.91,1.92,1.88,1.91,623000
2018-08-13,1.85,1.88,1.83,1.87,650000
2018-08-14,1.87,1.89,1.84,1.88,12642000
2018-08-15,1.9,1.9,1.86,1.88,722000
2018-08-16,1.85,1.89,1.85,1.89,1274434
2018-08-17,1.89,1.92,1.88,1.89,2927217
2018-08-20,1.9,1.92,1.9,1.9,600000
2018-08-21,1.91,1.91,1.9,1.9,897824
2018-08-22,1.88,1.91,1.88,1.91,351000
2018-08-23,1.89,1.91,1.89,1.91,442370
2018-08-24,1.9,1.91,1.9,1.91,432000
2018-08-27,1.92,1.92,1.9,1.92,2088000
2018-08-28,1.92,1.92,1.9,1.92,147000
2018-08-29,1.92,1.92,1.87,1.91,2794000
2018-08-30,1.92,1.92,1.89,1.91,417000
2018-08-31,1.9,1.96,1.89,1.92,1865000
2018-09-03,1.92,1.92,1.89,1.9,1201834
2018-09-04,1.9,1.91,1.89,1.91,289075
2018-09-05,1.9,1.91,1.88,1.89,1415000
2018-09-06,1.88,1.89,1.86,1.87,1719000
2018-09-07,1.85,1.88,1.85,1.88,724000
2018-09-10,1.88,1.89,1.88,1.89,1238000
2018-09-11,1.89,1.96,1.89,1.9,3952521
2018-09-12,1.89,1.92,1.89,1.9,4558745
2018-09-13,1.89,1.91,1.89,1.91,1356000
2018-09-14,1.89,1.92,1.89,1.92,1254000
2018-09-17,1.91,1.91,1.91,1.91,0
2018-09-18,1.91,1.93,1.91,1.93,1350000
2018-09-19,1.9,1.93,1.9,1.93,44000
2018-09-20,1.93,1.93,1.9,1.91,4830000
2018-09-21,1.93,1.98,1.88,1.9,50358328
2018-09-24,1.91,1.95,1.91,1.95,2554000
2018-09-26,1.96,2.0,1.94,1.94,169000
2018-09-27,1.99,1.99,1.91,1.94,520000
2018-09-28,1.94,1.94,1.9,1.94,900000
2018-10-02,1.92,1.95,1.91,1.93,173000
2018-10-03,1.92,1.93,1.92,1.93,187000
2018-10-04,1.95,1.95,1.89,1.9,734543
2018-10-05,1.9,1.94,1.9,1.91,94413
2018-10-08,1.91,1.97,1.87,1.94,2377489
2018-10-09,1.9,1.92,1.89,1.92,930648
2018-10-10,1.91,1.92,1.91,1.91,1119014
2018-10-11,1.86,1.9,1.85,1.89,3187652
2018-10-12,1.89,1.9,1.85,1.89,1229000
2018-10-15,1.89,1.9,1.87,1.88,1871000
2018-10-16,1.9,1.9,1.85,1.87,1933000
2018-10-18,1.88,1.9,1.87,1.88,691000
2018-10-19,1.91,1.91,1.82,1.89,12062000
2018-10-22,1.85,1.9,1.84,1.89,1520000
2018-10-23,1.87,1.9,1.85,1.87,2451000
2018-10-24,1.89,1.89,1.83,1.87,4004130
2018-10-25,1.85,1.85,1.84,1.84,1181000
2018-10-26,1.88,1.88,1.85,1.86,2019000
2018-10-29,1.88,1.88,1.85,1.86,1327641
2018-10-30,1.85,1.87,1.84,1.87,2518129
2018-10-31,1.86,1.87,1.85,1.86,1892000
2018-11-01,1.88,1.88,1.86,1.88,582000
2018-11-02,1.88,1.94,1.87,1.89,1229000
2018-11-05,1.86,1.88,1.86,1.87,277000
2018-11-06,1.89,1.9,1.87,1.9,202000
2018-11-07,1.89,1.92,1.87,1.88,567000
2018-11-08,1.94,1.94,1.88,1.9,447000
2018-11-09,1.89,1.89,1.82,1.88,1133682
2018-11-12,1.86,1.88,1.76,1.84,330000
2018-11-13,1.79,1.81,1.73,1.76,1163297
2018-11-14,1.76,1.76,1.62,1.68,9939001
2018-11-15,1.71,1.82,1.69,1.8,4525000
2018-11-16,1.83,1.86,1.78,1.84,4781000
2018-11-19,1.88,1.89,1.82,1.88,2757020
2018-11-20,1.82,1.84,1.78,1.82,3067520
2018-11-21,1.78,1.83,1.78,1.82,4469046
2018-11-22,1.82,1.85,1.81,1.84,4541000
2018-11-23,1.84,1.86,1.77,1.8,3362000
2018-11-26,1.79,1.85,1.79,1.82,3219855
2018-11-27,1.82,1.83,1.81,1.81,2851088
2018-11-28,1.82,1.84,1.81,1.83,3160000
2018-11-29,1.81,1.86,1.81,1.85,4464000
2018-11-30,1.87,1.95,1.81,1.84,34228352
2018-12-03,1.83,1.9,1.83,1.86,2430500
2018-12-04,1.88,1.93,1.87,1.92,1998303
2018-12-05,1.88,1.94,1.88,1.92,967000
2018-12-06,1.9,1.91,1.85,1.85,1267000
2018-12-07,1.86,1.86,1.81,1.85,921000
2018-12-10,1.81,1.87,1.81,1.84,815000
2018-12-11,1.82,1.85,1.81,1.82,905000
2018-12-12,1.83,1.91,1.83,1.88,861500
2018-12-13,1.92,1.92,1.89,1.9,845000
2018-12-14,1.93,1.94,1.89,1.9,831000
2018-12-17,1.94,1.94,1.89,1.91,715000
2018-12-18,1.94,1.94,1.83,1.86,1538000
2018-12-19,1.92,1.92,1.84,1.86,3205000
2018-12-20,1.87,1.89,1.85,1.88,663000
2018-12-21,1.84,1.91,1.74,1.87,1484000
2018-12-27,1.83,1.89,1.83,1.89,641000
2018-12-28,1.89,1.91,1.88,1.9,185274
2018-12-31,1.83,1.9,1.83,1.89,36000
2019-01-02,1.84,1.84,1.77,1.8,249000
2019-01-03,1.8,1.83,1.8,1.82,301000
2019-01-04,1.79,1.84,1.79,1.82,269000
2019-01-07,1.84,1.84,1.8,1.8,326000
2019-01-08,1.79,1.81,1.79,1.8,209000
2019-01-09,1.79,1.89,1.79,1.83,237000
2019-01-10,1.83,1.83,1.81,1.82,34000
2019-01-11,1.83,1.84,1.82,1.83,118000
2019-01-14,1.81,1.83,1.81,1.83,24000
2019-01-15,1.84,1.85,1.81,1.84,128000
2019-01-16,1.82,1.84,1.8,1.84,219000
2019-01-17,1.81,1.83,1.79,1.8,163000
2019-01-18,1.84,1.84,1.8,1.81,273000
2019-01-21,1.83,1.83,1.82,1.83,64000
2019-01-22,1.78,1.85,1.78,1.81,76000
2019-01-23,1.71,1.84,1.71,1.82,320000
2019-01-24,1.8,1.82,1.78,1.8,823000
2019-01-25,1.8,1.81,1.79,1.8,321213
2019-01-28,1.8,1.81,1.8,1.8,56194
2019-01-29,1.8,1.81,1.79,1.8,278000
2019-01-30,1.81,1.82,1.8,1.81,89000
2019-01-31,1.79,1.82,1.79,1.81,38000
2019-02-01,1.8,1.82,1.76,1.8,261000
2019-02-04,1.82,1.83,1.8,1.82,27000
2019-02-08,1.8,1.84,1.8,1.83,74000
2019-02-11,1.8,1.83,1.8,1.83,54000
2019-02-12,1.76,1.83,1.76,1.81,205000
2019-02-13,1.76,1.84,1.76,1.83,53000
2019-02-14,1.8,1.83,1.8,1.83,88000
2019-02-15,1.8,1.84,1.76,1.83,89000
2019-02-18,1.84,1.84,1.79,1.83,200000
2019-02-19,1.8,1.83,1.8,1.81,13000
2019-02-20,1.75,1.83,1.75,1.81,64000
2019-02-21,1.77,1.83,1.77,1.82,151000
2019-02-22,1.77,1.84,1.77,1.84,170000
2019-02-25,1.81,1.83,1.8,1.83,173000
2019-02-26,1.78,1.84,1.78,1.81,118209
2019-02-27,1.75,1.84,1.75,1.82,184000
2019-02-28,1.81,1.81,1.79,1.79,205000
2019-03-01,1.8,1.81,1.79,1.81,116000
2019-03-04,1.81,1.83,1.8,1.81,104000
2019-03-05,1.8,1.82,1.79,1.81,226260
2019-03-06,1.81,1.83,1.81,1.81,44000
2019-03-07,1.82,1.83,1.79,1.8,108000
2019-03-08,1.8,1.83,1.79,1.81,330000
2019-03-11,1.8,1.82,1.8,1.82,66000
2019-03-12,1.8,1.82,1.8,1.8,459000
2019-03-13,1.8,1.81,1.8,1.81,79000
2019-03-14,1.76,1.81,1.76,1.79,90000
2019-03-15,1.79,1.84,1.76,1.82,408198
2019-03-18,1.8,1.84,1.76,1.8,247000
2019-03-19,1.8,1.83,1.76,1.8,562000
2019-03-20,1.8,1.82,1.8,1.8,125000
2019-03-21,1.78,1.84,1.78,1.84,508000
2019-03-22,1.82,1.84,1.8,1.8,83000
2019-03-25,1.85,1.85,1.8,1.8,152000
2019-03-26,1.71,1.82,1.71,1.78,4559000
2019-03-27,1.73,1.84,1.73,1.77,10257500
2019-03-28,1.77,1.81,1.75,1.78,14038000
2019-03-29,1.77,1.82,1.77,1.77,74000
2019-04-01,1.76,1.82,1.76,1.77,3689000
2019-04-02,1.77,1.8,1.77,1.8,76000
2019-04-03,1.79,1.82,1.77,1.79,289000
2019-04-04,1.79,1.81,1.79,1.79,237000
2019-04-08,1.8,1.8,1.79,1.8,225612
2019-04-09,1.79,1.8,1.75,1.8,1350000
2019-04-10,1.79,1.8,1.79,1.8,257065
2019-04-11,1.78,1.8,1.78,1.79,133000
2019-04-12,1.78,1.8,1.78,1.8,171000
2019-04-15,1.79,1.81,1.79,1.79,190000
2019-04-16,1.79,1.83,1.79,1.8,276500
2019-04-17,1.79,1.81,1.79,1.81,190141
2019-04-18,1.79,1.82,1.79,1.81,282641
2019-04-23,1.79,1.81,1.76,1.8,560616
2019-04-24,1.81,1.81,1.79,1.79,295527
2019-04-25,1.79,1.81,1.79,1.79,69500
2019-04-26,1.76,1.81,1.76,1.79,572000
2019-04-29,1.81,1.81,1.79,1.8,346641
2019-04-30,1.79,1.81,1.79,1.81,78000
2019-05-02,1.8,1.81,1.78,1.81,398000
2019-05-03,1.8,1.82,1.78,1.82,461528
2019-05-06,1.79,1.82,1.78,1.8,547000
2019-05-07,1.74,1.8,1.74,1.8,344200
2019-05-08,1.79,1.8,1.79,1.79,267100
2019-05-09,1.79,1.8,1.75,1.78,618000
2019-05-10,1.78,1.8,1.78,1.78,311000
2019-05-14,1.78,1.79,1.75,1.78,467000
2019-05-15,1.79,1.79,1.78,1.79,70000
2019-05-16,1.78,1.8,1.78,1.8,55000
2019-05-17,1.79,1.8,1.79,1.8,353509
2019-05-20,1.79,1.8,1.79,1.8,134000
2019-05-21,1.8,1.8,1.79,1.8,228152
2019-05-22,1.79,1.81,1.77,1.81,61328860
2019-05-23,1.8,1.82,1.79,1.8,212000
2019-05-24,1.79,1.82,1.79,1.8,76000
2019-05-27,1.8,1.8,1.78,1.8,326000
2019-05-28,1.79,1.8,1.78,1.78,451580
2019-05-29,1.78,1.82,1.78,1.81,221000
2019-05-30,1.81,1.81,1.78,1.79,315000
2019-05-31,1.79,1.79,1.78,1.79,369000
2019-06-03,1.78,1.8,1.78,1.8,115000
2019-06-04,1.79,1.8,1.78,1.78,247770
2019-06-05,1.79,1.8,1.79,1.79,255500
2019-06-06,1.8,1.8,1.79,1.8,298612
2019-06-10,1.8,1.81,1.79,1.8,102484
2019-06-11,1.8,1.81,1.8,1.81,289000
2019-06-12,1.8,1.82,1.8,1.8,77000
2019-06-13,1.8,1.81,1.8,1.8,304500
2019-06-14,1.8,1.81,1.8,1.81,459000
2019-06-17,1.8,1.81,1.8,1.81,220663
2019-06-18,1.81,1.81,1.78,1.81,777500
2019-06-19,1.81,1.82,1.8,1.8,144000
2019-06-20,1.8,1.82,1.8,1.81,262000
2019-06-21,1.81,1.82,1.8,1.8,175978
2019-06-24,1.8,1.81,1.8,1.81,71000
2019-06-25,1.8,1.81,1.8,1.81,103000
2019-06-26,1.81,1.81,1.8,1.81,316000
2019-06-27,1.8,1.82,1.8,1.82,295086
2019-06-28,1.81,1.82,1.81,1.81,200622
2019-07-02,1.81,1.83,1.81,1.81,190000
2019-07-03,1.8,1.82,1.8,1.82,80000
2019-07-04,1.81,1.82,1.81,1.81,412000
2019-07-05,1.81,1.82,1.81,1.81,95000
2019-07-09,1.8,1.81,1.8,1.8,176695
2019-07-10,1.8,1.81,1.8,1.8,224000
2019-07-11,1.8,1.81,1.8,1.8,216000
2019-07-12,1.8,1.81,1.8,1.8,302223
2019-07-15,1.8,1.82,1.8,1.8,73000
2019-07-16,1.8,1.81,1.8,1.8,235000
2019-07-17,1.78,1.81,1.78,1.8,76000
2019-07-18,1.8,1.81,1.8,1.8,178000
2019-07-19,1.8,1.81,1.8,1.8,396000
2019-07-22,1.8,1.81,1.8,1.8,281434
2019-07-23,1.8,1.81,1.8,1.8,184000
2019-07-24,1.8,1.82,1.78,1.8,740000
2019-07-25,1.8,1.81,1.8,1.8,154000
2019-07-26,1.8,1.81,1.8,1.8,240453
2019-07-29,1.8,1.81,1.79,1.8,544541
2019-07-30,1.8,1.82,1.8,1.8,146000
2019-07-31,1.8,1.81,1.8,1.8,557000
2019-08-01,1.8,1.82,1.8,1.8,61000
2019-08-02,1.79,1.81,1.79,1.79,119000
2019-08-05,1.79,1.8,1.79,1.79,724000
2019-08-06,1.79,1.8,1.78,1.79,1623000
2019-08-07,1.79,1.8,1.79,1.79,272693
2019-08-08,1.79,1.8,1.79,1.79,528000
2019-08-09,1.79,1.81,1.79,1.81,172000
2019-08-12,1.79,1.81,1.79,1.79,268000
2019-08-13,1.79,1.81,1.78,1.79,346241
2019-08-14,1.8,1.81,1.79,1.81,583500
2019-08-15,1.8,1.81,1.79,1.8,553000
2019-08-16,1.8,1.82,1.8,1.8,177000
2019-08-19,1.8,1.81,1.8,1.8,146500
2019-08-20,1.8,1.81,1.8,1.8,154500
2019-08-21,1.8,1.81,1.8,1.8,184000
2019-08-22,1.8,1.8,1.77,1.79,498000
2019-08-23,1.8,1.81,1.8,1.8,290000
2019-08-26,1.79,1.8,1.78,1.78,220000
2019-08-27,1.8,1.8,1.51,1.79,554550
2019-08-28,1.79,1.8,1.78,1.79,602000
2019-08-29,1.79,1.8,1.79,1.8,16000
2019-08-30,1.8,1.81,1.79,1.8,218906
2019-09-03,1.8,1.8,1.79,1.79,551000
2019-09-04,1.79,1.8,1.79,1.8,37000
2019-09-05,1.79,1.85,1.79,1.8,156555
2019-09-06,1.8,1.82,1.79,1.8,352466
2019-09-09,1.8,1.8,1.78,1.78,1138000
2019-09-10,1.78,1.79,1.78,1.79,80000
2019-09-11,1.79,1.81,1.79,1.81,19000
2019-09-12,1.8,1.81,1.8,1.8,252000
2019-09-13,1.8,1.81,1.8,1.8,121500
2019-09-16,1.8,1.81,1.79,1.79,358000
2019-09-17,1.79,1.8,1.79,1.79,29000
2019-09-18,1.8,1.81,1.78,1.79,1281000
2019-09-19,1.8,1.8,1.75,1.75,1601000
2019-09-20,1.75,1.82,1.75,1.81,560566
2019-09-23,1.79,1.87,1.79,1.86,2197500
2019-09-24,1.87,1.92,1.87,1.88,3028500
2019-09-25,1.85,1.9,1.83,1.86,90000
2019-09-26,1.81,1.85,1.8,1.83,274000
2019-09-27,1.83,1.85,1.82,1.84,187000
2019-09-30,1.82,1.85,1.82,1.84,143850
2019-10-03,1.82,1.84,1.82,1.84,348000
2019-10-04,1.83,1.85,1.82,1.83,296500
2019-10-08,1.82,1.82,1.8,1.82,193000
2019-10-09,1.82,1.82,1.82,1.82,5000
2019-10-10,1.82,1.83,1.78,1.81,569000
2019-10-11,1.81,1.82,1.78,1.81,3620210
2019-10-14,1.81,1.83,1.8,1.82,1122996
2019-10-15,1.8,1.82,1.79,1.82,581000
2019-10-16,1.81,1.82,1.8,1.8,196000
2019-10-17,1.81,1.82,1.76,1.79,406004
2019-10-18,1.79,1.79,1.79,1.79,3000
2019-10-21,1.79,1.79,1.79,1.79,5000
2019-10-22,1.79,1.8,1.78,1.78,201000
2019-10-23,1.79,1.8,1.78,1.8,248000
2019-10-24,1.8,1.82,1.79,1.8,254145
2019-10-28,1.8,1.82,1.79,1.8,532000
2019-10-29,1.79,1.8,1.75,1.76,217000
2019-10-30,1.77,1.78,1.76,1.78,63000
2019-11-01,1.76,1.79,1.76,1.77,80000
2019-11-04,1.77,1.78,1.77,1.77,62000
2019-11-05,1.78,1.78,1.73,1.75,721000
2019-11-06,1.75,1.76,1.75,1.75,29000
2019-11-07,1.75,1.75,1.73,1.74,375000
2019-11-08,1.74,1.77,1.74,1.77,2000
2019-11-11,1.75,1.75,1.72,1.74,168000
2019-11-12,1.74,1.78,1.73,1.75,136000
2019-11-13,1.74,1.76,1.74,1.75,252000
2019-11-14,1.75,1.77,1.75,1.75,35000
2019-11-15,1.75,1.78,1.75,1.75,522000
2019-11-18,1.75,1.77,1.75,1.75,326000
2019-11-20,1.75,1.76,1.74,1.74,266000
2019-11-21,1.74,1.75,1.72,1.73,375000
2019-11-22,1.74,1.79,1.68,1.73,348000
2019-11-26,1.74,1.79,1.73,1.78,27000
2019-11-27,1.75,1.79,1.74,1.75,349000
2019-11-28,1.76,1.8,1.73,1.76,8470000
2019-11-29,1.75,1.8,1.73,1.73,2120000
2019-12-02,1.74,1.78,1.73,1.73,81000
2019-12-03,1.73,1.73,1.73,1.73,2000
2019-12-04,1.72,1.74,1.72,1.73,48000
2019-12-05,1.75,1.75,1.74,1.74,21500
2019-12-06,1.72,1.75,1.72,1.73,12000
2019-12-09,1.72,1.73,1.72,1.72,83000
2019-12-10,1.72,1.73,1.72,1.72,168000
2019-12-11,1.72,1.72,1.71,1.71,392000
2019-12-12,1.71,1.73,1.7,1.71,400815
2019-12-13,1.73,1.73,1.71,1.71,173000
2019-12-16,1.71,1.72,1.66,1.7,519000
2019-12-17,1.77,1.77,1.71,1.72,35097000
2019-12-18,1.72,1.75,1.68,1.72,532848
2019-12-19,1.74,1.77,1.69,1.71,20213954
2019-12-20,1.71,1.72,1.63,1.63,524954
2019-12-23,1.63,1.67,1.63,1.66,69605400
2019-12-24,1.66,1.69,1.63,1.68,20674000
2019-12-27,1.66,1.73,1.66,1.72,46000
2019-12-30,1.72,1.8,1.72,1.79,16353000
2019-12-31,1.79,1.8,1.74,1.79,57413
2020-01-02,1.75,1.78,1.75,1.78,111000
2020-01-03,1.79,1.79,1.71,1.78,236000
2020-01-06,1.78,1.78,1.73,1.74,304000
2020-01-07,1.74,1.76,1.74,1.76,179000
2020-01-08,1.73,1.78,1.73,1.77,24000
2020-01-09,1.75,1.77,1.74,1.77,123000
2020-01-10,1.75,1.78,1.75,1.75,96641
2020-01-13,1.75,1.78,1.75,1.77,18000
2020-01-14,1.78,1.8,1.76,1.77,71000
2020-01-15,1.76,1.78,1.76,1.78,4000
2020-01-16,1.78,1.8,1.7,1.77,333000
2020-01-17,1.79,1.79,1.77,1.78,72000
2020-01-20,1.78,1.79,1.78,1.79,92000
2020-01-21,1.77,1.78,1.77,1.77,88000
2020-01-22,1.77,1.79,1.77,1.79,45000
2020-01-23,1.79,1.79,1.77,1.77,322000
2020-01-24,1.77,1.77,1.77,1.79,18000
2020-01-29,1.77,1.85,1.77,1.84,458624
2020-01-30,1.84,1.84,1.78,1.82,462826
2020-01-31,1.81,1.82,1.78,1.8,969000
2020-02-03,1.78,1.81,1.78,1.8,174000
2020-02-04,1.78,1.81,1.78,1.81,78331
2020-02-05,1.78,1.82,1.78,1.8,248000
2020-02-06,1.79,1.82,1.79,1.82,231000
2020-02-07,1.82,1.82,1.8,1.82,127000
2020-02-10,1.79,1.82,1.79,1.82,39000
2020-02-11,1.82,1.82,1.79,1.82,306825
2020-02-12,1.8,1.82,1.8,1.8,261500
2020-02-13,1.8,1.83,1.8,1.83,23000
2020-02-14,1.8,1.82,1.8,1.81,305110
2020-02-17,1.8,1.82,1.78,1.79,490610
2020-02-18,1.81,1.82,1.8,1.8,300498
2020-02-19,1.85,1.85,1.8,1.8,220000
2020-02-20,1.8,1.83,1.79,1.81,140000
2020-02-21,1.81,1.83,1.8,1.82,103602
2020-02-24,1.8,1.83,1.78,1.82,192102
2020-02-25,1.83,1.83,1.8,1.82,191044
2020-02-26,1.81,1.84,1.8,1.82,111196
2020-02-27,1.84,1.84,1.78,1.83,225596
2020-02-28,1.83,1.84,1.79,1.8,335596
2020-03-02,1.81,1.82,1.8,1.8,92500
2020-03-03,1.82,1.83,1.8,1.8,123413
2020-03-04,1.8,1.83,1.8,1.8,115000
2020-03-05,1.83,1.84,1.8,1.8,62000
2020-03-06,1.8,1.82,1.8,1.82,43000
2020-03-09,1.79,1.8,1.79,1.8,574562
2020-03-10,1.79,1.81,1.78,1.81,451000
2020-03-11,1.8,1.82,1.8,1.82,17197
2020-03-12,1.8,1.81,1.79,1.79,197000
2020-03-13,1.78,1.79,1.76,1.79,831000
2020-03-16,1.78,1.79,1.76,1.76,333500
2020-03-17,1.78,1.79,1.76,1.79,704000
2020-03-18,1.78,1.78,1.74,1.74,721000
2020-03-19,1.74,1.74,1.68,1.7,1397935
2020-03-20,1.71,1.84,1.63,1.65,1641210
2020-03-23,1.58,1.66,1.55,1.62,169000
2020-03-24,1.63,1.78,1.62,1.78,214000
2020-03-25,1.77,1.82,1.76,1.78,319641
2020-03-26,1.76,1.85,1.76,1.84,153000
2020-03-27,1.8,1.81,1.79,1.79,210000
2020-03-30,1.75,1.78,1.75,1.77,265000
2020-03-31,1.77,1.79,1.77,1.77,125000
2020-04-01,1.8,1.8,1.76,1.76,232000
2020-04-02,1.75,1.81,1.75,1.79,65000
2020-04-03,1.76,1.78,1.67,1.76,382000
2020-04-06,1.78,1.79,1.77,1.79,108058
2020-04-07,1.8,1.8,1.66,1.79,267500
2020-04-08,1.78,1.79,1.78,1.79,98000
2020-04-09,1.78,1.8,1.78,1.79,174000
2020-04-14,1.8,1.8,1.78,1.8,178000
2020-04-15,1.78,1.8,1.77,1.77,148000
2020-04-16,1.8,1.81,1.78,1.78,16400000
2020-04-17,1.8,1.81,1.78,1.79,5879000
2020-04-20,1.78,1.81,1.78,1.8,430500
2020-04-21,1.79,1.81,1.79,1.8,1384000
2020-04-22,1.79,1.8,1.79,1.8,225000
2020-04-23,1.79,1.81,1.78,1.8,301000
2020-04-24,1.78,1.8,1.78,1.8,114000
2020-04-27,1.8,1.82,1.79,1.8,224000
2020-04-28,1.8,1.82,1.8,1.81,53000
2020-04-29,1.8,1.81,1.67,1.8,220000
2020-05-04,1.8,1.8,1.8,1.8,0
2020-05-05,1.79,1.8,1.79,1.8,82000
2020-05-06,1.8,1.8,1.79,1.8,113000
2020-05-07,1.79,1.82,1.79,1.79,129000
2020-05-08,1.79,1.79,1.79,1.79,0
2020-05-11,1.79,1.8,1.79,1.79,113000
2020-05-12,1.79,1.82,1.52,1.78,135000
2020-05-14,1.79,1.79,1.6,1.74,1421000
2020-05-15,1.75,1.8,1.74,1.76,165000
2020-05-18,1.75,1.77,1.67,1.77,445000
2020-05-19,1.77,1.79,1.7,1.79,1706000
2020-05-20,1.77,1.8,1.77,1.78,128000
2020-05-21,1.74,1.78,1.71,1.78,12079000
2020-05-22,1.78,1.79,1.71,1.74,2764000
2020-05-25,1.78,1.78,1.72,1.75,22028000
2020-05-26,1.74,1.78,1.74,1.75,984349
2020-05-27,1.75,1.75,1.72,1.75,9273146
2020-05-28,1.72,1.75,1.72,1.72,95803
2020-05-29,1.72,1.73,1.72,1.72,3998435
2020-06-01,1.72,1.76,1.72,1.74,1359363
2020-06-02,1.76,1.78,1.76,1.78,147000
2020-06-03,1.76,1.78,1.73,1.78,196242
2020-06-04,1.8,1.83,1.78,1.8,286696
2020-06-05,1.75,1.8,1.75,1.78,87000
2020-06-08,1.78,1.82,1.73,1.77,131434
2020-06-09,1.77,1.8,1.77,1.8,30000
2020-06-11,1.78,1.79,1.73,1.73,416000
2020-06-12,1.73,1.73,1.73,1.73,36000
2020-06-15,1.74,1.75,1.73,1.75,24000
2020-06-16,1.72,1.76,1.72,1.75,65000
2020-06-17,1.74,1.75,1.74,1.74,77000
2020-06-18,1.74,1.74,1.67,1.72,165000
2020-06-19,1.72,1.8,1.68,1.74,1144000
2020-06-22,1.73,1.85,1.73,1.8,190639
2020-06-23,1.79,1.8,1.76,1.8,89744
2020-06-24,1.79,1.79,1.77,1.77,131744
2020-06-26,1.77,1.77,1.77,1.77,0
2020-06-29,1.73,1.75,1.73,1.73,55000
2020-06-30,1.77,1.81,1.75,1.77,3691000
2020-07-02,1.73,1.78,1.69,1.77,1000000
2020-07-03,1.75,1.78,1.75,1.77,257000
2020-07-06,1.78,1.78,1.75,1.8,342000
2020-07-07,1.77,1.77,1.73,1.75,498000
2020-07-08,1.75,1.75,1.75,1.75,75000
2020-07-09,1.75,1.75,1.67,1.74,518000
2020-07-10,1.74,1.74,1.74,1.74,22242
2020-07-13,1.74,1.74,1.71,1.74,702000
2020-07-15,1.74,1.74,1.7,1.73,742000
2020-07-16,1.73,1.74,1.71,1.74,874000
2020-07-17,1.73,1.74,1.73,1.73,225000
2020-07-20,1.73,1.73,1.73,1.73,26000
2020-07-21,1.74,1.75,1.74,1.74,163000
2020-07-22,1.74,1.74,1.72,1.73,272000
2020-07-23,1.73,1.73,1.71,1.72,369000
2020-07-24,1.72,1.73,1.71,1.71,1018000
2020-07-27,1.73,1.74,1.72,1.72,705268
2020-07-28,1.74,1.74,1.73,1.73,347000
2020-07-29,1.74,1.74,1.73,1.73,72000
2020-07-30,1.73,1.74,1.73,1.74,87000
2020-07-31,1.73,1.74,1.73,1.74,141000
2020-08-03,1.74,1.74,1.73,1.74,335000
2020-08-04,1.74,1.75,1.73,1.74,254688
2020-08-05,1.73,1.74,1.71,1.74,650777
2020-08-06,1.73,1.74,1.72,1.74,245905
2020-08-07,1.73,1.73,1.71,1.71,411000
2020-08-10,1.72,1.72,1.71,1.72,492210
2020-08-11,1.72,1.72,1.71,1.72,835000
2020-08-12,1.72,1.73,1.7,1.72,1665500
2020-08-13,1.72,1.72,1.71,1.72,438000
2020-08-14,1.71,1.72,1.71,1.72,200000
2020-08-17,1.72,1.72,1.7,1.72,567000
2020-08-18,1.71,1.71,1.71,1.71,55000
2020-08-19,1.71,1.72,1.71,1.72,37000
2020-08-20,1.71,1.71,1.69,1.71,227000
2020-08-21,1.71,1.71,1.65,1.71,250000
2020-08-24,1.71,1.71,1.7,1.71,553000
2020-08-25,1.71,1.72,1.71,1.72,70000
