Date,Open,High,Low,Close,Volume
2012-02-07,1.25,1.25,1.23,1.25,644015
2012-02-08,1.25,1.33,1.24,1.32,6133000
2012-02-09,1.33,1.37,1.32,1.35,5409002
2012-02-10,1.36,1.37,1.31,1.32,4090000
2012-02-13,1.31,1.34,1.3,1.3,2290004
2012-02-14,1.33,1.33,1.28,1.29,3958409
2012-02-15,1.29,1.37,1.29,1.37,3288000
2012-02-16,1.35,1.35,1.32,1.33,1291000
2012-02-17,1.36,1.38,1.33,1.36,3527000
2012-02-20,1.38,1.4,1.36,1.38,4541000
2012-02-21,1.39,1.45,1.37,1.44,6068000
2012-02-22,1.44,1.45,1.41,1.44,3372000
2012-02-23,1.44,1.52,1.43,1.5,7921000
2012-02-24,1.5,1.51,1.46,1.47,3136000
2012-02-27,1.48,1.52,1.46,1.48,3474000
2012-02-28,1.47,1.52,1.47,1.49,2439000
2012-02-29,1.5,1.56,1.48,1.53,3424000
2012-03-01,1.53,1.54,1.48,1.49,2599000
2012-03-02,1.49,1.5,1.49,1.5,738002
2012-03-05,1.5,1.51,1.48,1.48,1575000
2012-03-06,1.47,1.5,1.44,1.46,3172000
2012-03-07,1.45,1.5,1.45,1.49,865000
2012-03-08,1.5,1.5,1.48,1.49,580000
2012-03-09,1.51,1.55,1.48,1.48,1835000
2012-03-12,1.48,1.5,1.45,1.45,2673000
2012-03-13,1.46,1.47,1.45,1.46,2558000
2012-03-14,1.46,1.48,1.43,1.44,4257000
2012-03-15,1.43,1.43,1.32,1.4,3918000
2012-03-16,1.4,1.41,1.35,1.39,6138000
2012-03-19,1.39,1.41,1.35,1.37,1850000
2012-03-20,1.36,1.36,1.34,1.35,1633000
2012-03-21,1.38,1.38,1.28,1.29,3008000
2012-03-22,1.29,1.3,1.27,1.28,1780789
2012-03-23,1.28,1.3,1.25,1.25,1163000
2012-03-26,1.26,1.3,1.24,1.25,964000
2012-03-27,1.26,1.27,1.25,1.26,2177000
2012-03-28,1.26,1.28,1.25,1.28,99000
2012-03-29,1.26,1.26,1.22,1.25,5045000
2012-03-30,1.25,1.26,1.24,1.25,2963386
2012-04-02,1.25,1.25,1.2,1.22,2780000
2012-04-03,1.23,1.25,1.22,1.25,1445781
2012-04-05,1.25,1.25,1.2,1.24,1601404
2012-04-10,1.24,1.25,1.23,1.25,1320000
2012-04-11,1.22,1.24,1.2,1.21,1999350
2012-04-12,1.22,1.26,1.22,1.24,2022000
2012-04-13,1.25,1.26,1.22,1.24,198079
2012-04-16,1.23,1.24,1.21,1.21,520000
2012-04-17,1.22,1.22,1.19,1.19,1209000
2012-04-18,1.21,1.22,1.2,1.2,1089000
2012-04-19,1.2,1.25,1.2,1.23,182000
2012-04-20,1.23,1.23,1.23,1.23,41000
2012-04-23,1.22,1.24,1.21,1.21,352000
2012-04-24,1.21,1.22,1.17,1.19,2367000
2012-04-25,1.19,1.2,1.17,1.18,1869000
2012-04-26,1.17,1.22,1.17,1.18,2202000
2012-04-27,1.2,1.22,1.2,1.21,1703000
2012-04-30,1.23,1.26,1.22,1.26,447000
2012-05-02,1.26,1.3,1.25,1.28,838033
2012-05-03,1.27,1.27,1.24,1.25,354000
2012-05-04,1.25,1.25,1.22,1.24,808000
2012-05-07,1.22,1.24,1.2,1.2,3982000
2012-05-08,1.22,1.22,1.19,1.19,2076000
2012-05-09,1.19,1.2,1.18,1.19,4559000
2012-05-10,1.18,1.2,1.17,1.18,727316
2012-05-11,1.18,1.2,1.18,1.19,2094000
2012-05-14,1.19,1.21,1.18,1.18,1554000
2012-05-15,1.18,1.21,1.17,1.21,2530000
2012-05-16,1.18,1.2,1.17,1.17,1252000
2012-05-17,1.2,1.2,1.18,1.2,478000
2012-05-18,1.17,1.2,1.16,1.19,2107000
2012-05-21,1.18,1.2,1.18,1.2,70000
2012-05-22,1.21,1.22,1.18,1.21,620000
2012-05-23,1.22,1.26,1.21,1.26,1346000
2012-05-24,1.25,1.25,1.22,1.25,126000
2012-05-25,1.21,1.22,1.21,1.22,228000
2012-05-28,1.22,1.24,1.21,1.24,1077000
2012-05-29,1.25,1.26,1.23,1.25,1048000
2012-05-30,1.24,1.31,1.24,1.31,3112000
2012-05-31,1.3,1.33,1.28,1.33,3370000
2012-06-01,1.26,1.31,1.22,1.25,3077000
2012-06-04,1.22,1.24,1.21,1.22,699000
2012-06-05,1.22,1.24,1.19,1.21,2790000
2012-06-06,1.2,1.2,1.17,1.17,528000
2012-06-07,1.2,1.21,1.18,1.21,136000
2012-06-08,1.21,1.22,1.17,1.2,248000
2012-06-11,1.21,1.21,1.18,1.21,1623000
2012-06-12,1.18,1.21,1.17,1.21,864000
2012-06-13,1.21,1.21,1.19,1.21,513000
2012-06-14,1.2,1.2,1.15,1.16,1439000
2012-06-15,1.18,1.2,1.15,1.19,1587000
2012-06-18,1.19,1.2,1.17,1.17,1847000
2012-06-19,1.17,1.19,1.16,1.19,1609000
2012-06-20,1.19,1.19,1.16,1.19,1677000
2012-06-21,1.17,1.19,1.17,1.18,1544000
2012-06-22,1.17,1.17,1.15,1.16,1239000
2012-06-25,1.17,1.17,1.14,1.14,1255000
2012-06-26,1.15,1.17,1.14,1.15,569000
2012-06-27,1.15,1.18,1.15,1.17,1626000
2012-06-28,1.18,1.18,1.16,1.16,197000
2012-06-29,1.17,1.25,1.17,1.19,2578000
2012-07-03,1.21,1.27,1.21,1.24,4899000
2012-07-04,1.23,1.26,1.22,1.24,2907000
2012-07-05,1.23,1.28,1.23,1.26,2404000
2012-07-06,1.26,1.27,1.24,1.25,1863000
2012-07-09,1.23,1.23,1.21,1.23,767000
2012-07-10,1.22,1.27,1.22,1.24,6316000
2012-07-11,1.25,1.26,1.23,1.24,1116000
2012-07-12,1.24,1.24,1.21,1.21,1715000
2012-07-13,1.21,1.24,1.21,1.24,1239000
2012-07-16,1.23,1.27,1.23,1.25,2666000
2012-07-17,1.24,1.26,1.23,1.23,3956000
2012-07-18,1.23,1.24,1.2,1.21,1809000
2012-07-19,1.2,1.21,1.2,1.21,1916000
2012-07-20,1.2,1.2,1.18,1.2,2738000
2012-07-23,1.17,1.19,1.17,1.18,855000
2012-07-24,1.18,1.2,1.17,1.18,1681000
2012-07-25,1.17,1.2,1.17,1.17,854000
2012-07-26,1.17,1.19,1.16,1.16,878000
2012-07-27,1.17,1.2,1.17,1.2,876000
2012-07-30,1.2,1.2,1.17,1.17,313000
2012-07-31,1.18,1.2,1.16,1.19,1624006
2012-08-01,1.19,1.2,1.17,1.2,2375000
2012-08-02,1.15,1.18,1.15,1.18,284000
2012-08-03,1.19,1.2,1.16,1.19,2117000
2012-08-06,1.2,1.21,1.17,1.19,1699000
2012-08-07,1.2,1.22,1.19,1.22,4741000
2012-08-08,1.22,1.25,1.2,1.21,3518000
2012-08-09,1.21,1.24,1.21,1.23,868000
2012-08-10,1.24,1.25,1.21,1.24,1095000
2012-08-13,1.24,1.24,1.24,1.24,306000
2012-08-14,1.24,1.27,1.21,1.27,5315000
2012-08-15,1.27,1.28,1.25,1.26,4934000
2012-08-16,1.26,1.28,1.25,1.26,5578000
2012-08-17,1.35,1.39,1.3,1.36,28637000
2012-08-20,1.37,1.42,1.35,1.4,11851000
2012-08-21,1.42,1.46,1.37,1.44,6617000
2012-08-22,1.45,1.45,1.38,1.41,2977000
2012-08-23,1.41,1.51,1.41,1.49,6913000
2012-08-24,1.47,1.53,1.44,1.45,3209000
2012-08-27,1.45,1.47,1.4,1.43,2030010
2012-08-28,1.4,1.46,1.4,1.43,1467000
2012-08-29,1.41,1.46,1.41,1.45,3378000
2012-08-30,1.44,1.45,1.43,1.45,1106000
2012-08-31,1.45,1.45,1.39,1.44,1985000
2012-09-03,1.43,1.53,1.43,1.5,3995006
2012-09-04,1.7,1.72,1.5,1.51,28583000
2012-09-05,1.51,1.54,1.48,1.5,6299000
2012-09-06,1.51,1.53,1.47,1.5,3313000
2012-09-07,1.52,1.54,1.5,1.51,4799000
2012-09-10,1.53,1.59,1.53,1.56,9269000
2012-09-11,1.55,1.55,1.52,1.55,2675000
2012-09-12,1.55,1.58,1.53,1.55,1441000
2012-09-13,1.55,1.56,1.52,1.53,3677000
2012-09-14,1.55,1.58,1.54,1.55,6510879
2012-09-17,1.56,1.56,1.49,1.51,5903000
2012-09-18,1.51,1.52,1.48,1.52,3630000
2012-09-19,1.51,1.53,1.5,1.52,3671000
2012-09-20,1.52,1.52,1.49,1.51,2955000
2012-09-21,1.5,1.53,1.5,1.52,1850000
2012-09-24,1.52,1.52,1.5,1.52,3366000
2012-09-25,1.51,1.52,1.5,1.52,2657000
2012-09-26,1.52,1.52,1.49,1.51,2860000
2012-09-27,1.5,1.54,1.46,1.5,3155000
2012-09-28,1.48,1.49,1.45,1.47,2625000
2012-10-03,1.47,1.47,1.43,1.43,2342000
2012-10-04,1.43,1.46,1.43,1.45,1249000
2012-10-05,1.44,1.5,1.44,1.5,1892006
2012-10-08,1.5,1.52,1.49,1.51,1399003
2012-10-09,1.52,1.56,1.52,1.52,3448000
2012-10-10,1.5,1.55,1.5,1.55,1157001
2012-10-11,1.55,1.58,1.53,1.55,1669121
2012-10-12,1.55,1.56,1.53,1.55,1478000
2012-10-15,1.55,1.56,1.53,1.55,1738000
2012-10-16,1.56,1.57,1.54,1.55,1515000
2012-10-17,1.58,1.73,1.57,1.7,22954000
2012-10-18,1.68,1.75,1.66,1.71,10899000
2012-10-19,1.71,1.74,1.69,1.69,7379300
2012-10-22,1.67,1.71,1.64,1.7,1600000
2012-10-24,1.72,1.82,1.72,1.81,13125000
2012-10-25,1.82,1.85,1.78,1.8,8467000
2012-10-26,1.77,1.78,1.71,1.74,3139000
2012-10-29,1.72,1.78,1.72,1.75,1038000
2012-10-30,1.75,1.78,1.72,1.76,2685000
2012-10-31,1.75,1.85,1.74,1.83,4966000
2012-11-01,1.85,1.93,1.83,1.9,8800000
2012-11-02,1.89,1.92,1.85,1.88,4059000
2012-11-05,1.88,1.93,1.85,1.91,8160000
2012-11-06,1.91,1.91,1.85,1.91,8133000
2012-11-07,1.9,1.91,1.89,1.89,3997000
2012-11-08,1.86,1.9,1.86,1.87,6200002
2012-11-09,1.87,1.87,1.85,1.85,3251000
2012-11-12,1.85,1.88,1.85,1.85,4852000
2012-11-13,1.85,1.85,1.79,1.84,4744000
2012-11-14,1.84,1.86,1.83,1.85,3515000
2012-11-15,1.83,1.85,1.82,1.83,2369003
2012-11-16,1.83,1.87,1.82,1.86,2431000
2012-11-19,1.85,1.89,1.85,1.87,3383000
2012-11-20,1.87,1.97,1.87,1.95,9007000
2012-11-21,1.95,2.02,1.95,2.01,17092000
2012-11-22,2.02,2.04,2.0,2.02,16410000
2012-11-23,2.01,2.06,2.01,2.05,5959000
2012-11-26,2.05,2.05,2.02,2.05,4046000
2012-11-27,2.02,2.08,2.02,2.06,6994000
2012-11-28,2.06,2.21,2.05,2.2,22707000
2012-11-29,2.21,2.26,2.19,2.24,10191000
2012-11-30,2.28,2.33,2.22,2.29,7896004
2012-12-03,2.29,2.29,2.22,2.22,5167000
2012-12-04,2.22,2.28,2.17,2.27,4516052
2012-12-05,2.28,2.33,2.15,2.15,5536008
2012-12-06,2.12,2.18,2.04,2.11,7348010
2012-12-07,2.11,2.16,2.11,2.12,3709004
2012-12-10,2.12,2.21,2.1,2.18,4077000
2012-12-11,2.19,2.23,2.15,2.19,6194000
2012-12-12,2.23,2.23,2.08,2.11,6158000
2012-12-13,2.1,2.17,2.06,2.08,3533000
2012-12-14,2.1,2.18,2.07,2.11,5228005
2012-12-17,2.14,2.14,2.08,2.08,3541000
2012-12-18,2.06,2.12,2.04,2.06,4794002
2012-12-19,2.05,2.13,2.05,2.09,2934018
2012-12-20,2.07,2.08,2.02,2.06,1912000
2012-12-21,2.03,2.09,1.97,2.05,8540000
2012-12-24,2.05,2.08,2.01,2.06,774000
2012-12-27,2.06,2.07,2.03,2.07,1618000
2012-12-28,2.08,2.08,2.05,2.05,985209
2012-12-31,2.08,2.08,2.01,2.04,783000
2013-01-02,2.02,2.27,2.02,2.27,9090012
2013-01-03,2.29,2.39,2.2,2.36,10365000
2013-01-04,2.38,2.46,2.33,2.42,7211003
2013-01-07,2.42,2.49,2.34,2.49,7943016
2013-01-08,2.43,2.48,2.4,2.44,3976016
2013-01-09,2.41,2.41,2.36,2.37,2876000
2013-01-10,2.35,2.39,2.33,2.38,3151000
2013-01-11,2.38,2.66,2.38,2.61,12874006
2013-01-14,2.6,2.7,2.55,2.63,10436106
2013-01-15,2.63,2.66,2.58,2.6,4135004
2013-01-16,2.6,2.6,2.51,2.53,3876000
2013-01-17,2.55,2.55,2.41,2.46,13904000
2013-01-18,2.5,2.52,2.45,2.49,5338500
2013-01-21,2.49,2.62,2.48,2.61,13242000
2013-01-22,2.7,2.77,2.65,2.66,23210678
2013-01-23,2.66,2.7,2.53,2.68,8134017
2013-01-24,2.64,2.8,2.61,2.79,10866000
2013-01-25,2.79,2.79,2.35,2.44,45058000
2013-01-28,2.4,2.53,2.38,2.48,35206000
2013-01-29,2.49,2.63,2.49,2.58,11047000
2013-01-30,2.6,2.62,2.53,2.56,5279290
2013-01-31,2.6,2.72,2.55,2.68,12590000
2013-02-01,2.7,2.75,2.65,2.7,5810000
2013-02-04,2.7,2.75,2.65,2.67,4667000
2013-02-05,2.65,2.66,2.6,2.64,4702000
2013-02-06,2.65,2.72,2.64,2.7,5565000
2013-02-07,2.71,2.78,2.66,2.7,5198008
2013-02-08,2.7,2.7,2.65,2.68,1722001
2013-02-14,2.69,2.7,2.65,2.66,1286000
2013-02-15,2.66,3.07,2.66,3.0,18647000
2013-02-18,3.04,3.07,2.91,2.92,5513000
2013-02-19,2.92,3.02,2.89,2.98,8725000
2013-02-20,2.99,3.0,2.95,2.99,4523000
2013-02-21,2.92,2.95,2.85,2.94,3859153
2013-02-22,2.9,2.99,2.89,2.95,2027004
2013-02-25,2.95,2.98,2.91,2.91,2663000
2013-02-26,2.87,2.91,2.75,2.82,3946004
2013-02-27,2.83,2.9,2.77,2.87,1261012
2013-02-28,2.9,2.95,2.89,2.9,1250004
2013-03-01,2.91,2.95,2.89,2.9,1085000
2013-03-04,2.88,2.97,2.81,2.96,3500010
2013-03-05,2.96,3.16,2.95,3.03,15508000
2013-03-06,3.06,3.09,3.01,3.03,6656000
2013-03-07,3.02,3.09,3.0,3.03,3109000
2013-03-08,3.06,3.08,2.87,2.95,7362000
2013-03-11,2.92,3.02,2.85,2.9,5111000
2013-03-12,2.9,2.9,2.6,2.71,18623000
2013-03-13,2.71,2.72,2.58,2.59,8035000
2013-03-14,2.61,2.68,2.51,2.68,5067061
2013-03-15,2.68,2.72,2.62,2.63,4203000
2013-03-18,2.56,2.57,2.52,2.56,2039004
2013-03-19,2.6,2.62,2.49,2.57,7963000
2013-03-20,2.57,2.8,2.57,2.72,14038959
2013-03-21,2.77,2.79,2.66,2.67,8596000
2013-03-22,2.69,2.77,2.65,2.7,10319000
2013-03-25,2.7,2.83,2.7,2.77,13541000
2013-03-26,2.83,2.86,2.59,2.68,18307006
2013-03-27,2.71,2.73,2.65,2.71,8491000
2013-03-28,2.71,2.71,2.6,2.63,6998000
2013-04-02,2.64,2.78,2.64,2.69,7916004
2013-04-03,2.72,2.72,2.59,2.63,5535000
2013-04-05,2.6,2.6,2.45,2.59,10965000
2013-04-08,2.54,2.65,2.5,2.56,3206000
2013-04-09,2.56,2.64,2.55,2.57,3340024
2013-04-10,2.58,2.62,2.57,2.61,4089541
2013-04-11,2.62,2.65,2.59,2.6,5260006
2013-04-12,2.6,2.63,2.57,2.57,3887093
2013-04-15,2.59,2.69,2.57,2.65,7049001
2013-04-16,2.6,2.67,2.6,2.65,4220698
2013-04-17,2.64,2.72,2.63,2.67,8444000
2013-04-18,2.68,2.72,2.62,2.64,3240002
2013-04-19,2.67,2.73,2.65,2.72,9343552
2013-04-22,2.72,2.81,2.72,2.8,12653000
2013-04-23,2.82,2.82,2.74,2.81,8615000
2013-04-24,2.82,3.04,2.81,3.02,31392500
2013-04-25,3.04,3.04,2.91,2.96,5448000
2013-04-26,2.96,2.97,2.88,2.9,6361000
2013-04-29,2.84,2.95,2.84,2.93,4145000
2013-04-30,2.94,2.99,2.9,2.93,4943000
2013-05-02,2.9,3.07,2.86,3.04,14101003
2013-05-03,3.05,3.13,3.03,3.09,17704004
2013-05-06,3.36,3.36,3.2,3.27,30251000
2013-05-07,3.28,3.35,3.24,3.29,13143000
2013-05-08,3.26,3.35,3.26,3.3,8717000
2013-05-09,3.3,3.39,3.29,3.38,9954210
2013-05-10,3.4,3.46,3.39,3.42,10916000
2013-05-13,3.45,3.45,3.33,3.4,9308996
2013-05-14,3.36,3.4,3.33,3.4,5989000
2013-05-15,3.4,3.43,3.36,3.41,4857000
2013-05-16,3.4,3.41,3.35,3.36,5891497
2013-05-20,3.38,3.59,3.36,3.57,24490000
2013-05-21,3.59,3.74,3.56,3.7,22484734
2013-05-22,3.71,3.78,3.51,3.56,14642000
2013-05-23,3.52,3.72,3.5,3.57,22022000
2013-05-24,3.58,3.66,3.57,3.65,6300000
2013-05-27,3.66,3.69,3.6,3.67,11001000
2013-05-28,3.69,3.76,3.66,3.71,8508000
2013-05-29,3.74,3.81,3.7,3.77,13353000
2013-05-30,3.76,3.82,3.67,3.71,7849007
2013-05-31,3.75,3.8,3.72,3.78,6491002
2013-06-03,3.74,3.78,3.68,3.72,7374324
2013-06-04,3.68,3.77,3.67,3.71,8989000
2013-06-05,3.68,3.76,3.67,3.72,4449000
2013-06-06,3.68,3.72,3.56,3.63,8872000
2013-06-07,3.62,3.68,3.6,3.65,7041000
2013-06-10,3.63,3.74,3.63,3.69,9737834
2013-06-11,3.18,3.21,3.05,3.2,17630000
2013-06-13,3.18,3.36,3.07,3.33,15018000
2013-06-19,3.45,3.46,3.4,3.43,93811112
2013-06-20,3.43,3.44,3.43,3.44,39990000
2013-06-21,3.44,3.45,3.43,3.44,26918252
2013-06-24,3.45,3.45,3.44,3.44,22560500
2013-06-25,3.44,3.46,3.44,3.44,32898808
2013-06-26,3.44,3.45,3.44,3.45,8843000
2013-06-27,3.44,3.45,3.44,3.45,12992000
2013-06-28,3.46,3.46,3.44,3.45,13732026
2013-07-02,3.45,3.5,3.45,3.46,13261506
2013-07-03,3.45,3.46,3.44,3.45,13055000
2013-07-04,3.45,3.46,3.44,3.45,22709550
2013-07-05,3.45,3.46,3.44,3.45,13098001
2013-07-08,3.45,3.46,3.45,3.46,11236073
2013-07-09,3.46,3.46,3.45,3.46,9610566
2013-07-10,3.46,3.48,3.45,3.47,16663000
2013-07-11,3.47,3.48,3.46,3.46,4759000
2013-07-12,3.46,3.47,3.46,3.47,9704000
2013-07-15,3.47,3.48,3.46,3.46,7647000
2013-07-16,3.47,3.49,3.46,3.49,21313310
2013-07-17,3.49,3.55,3.48,3.52,30030000
2013-07-18,3.5,3.51,3.49,3.5,7298000
2013-07-19,3.5,3.5,3.48,3.48,3819000
2013-07-22,3.49,3.5,3.49,3.49,4370250
2013-07-23,3.5,3.5,3.48,3.49,3112877
2013-07-24,3.5,3.5,3.48,3.5,6054000
2013-07-25,3.5,3.5,3.48,3.48,3688005
2013-07-26,3.5,3.5,3.48,3.49,5191724
2013-07-29,3.49,3.49,3.48,3.48,6907000
2013-07-30,3.49,3.5,3.49,3.5,5966000
2013-07-31,3.49,3.5,3.48,3.48,5773000
2013-08-01,3.5,3.53,3.5,3.53,16517000
2013-08-02,3.54,3.63,3.53,3.59,16268260
2013-08-05,3.57,3.7,3.55,3.68,27957048
2013-08-06,3.68,3.68,3.5,3.52,36442488
2013-08-07,3.52,3.52,3.49,3.52,31990924
2013-08-08,3.51,3.52,3.5,3.5,32833868
2013-08-09,3.51,3.51,3.49,3.5,8298558
2013-08-12,3.5,3.51,3.49,3.5,7988285
2013-08-13,3.5,3.76,3.5,3.62,9896528
2013-11-11,4.4,4.45,3.91,4.24,530608416
2013-11-12,4.1,4.31,4.1,4.16,38072636
2013-11-13,4.15,4.44,4.12,4.29,26420688
2013-11-14,4.3,4.62,4.3,4.6,27133698
2013-11-15,4.65,4.93,4.61,4.74,42400176
2013-11-18,5.09,5.29,5.02,5.2,39734000
2013-11-19,5.2,5.28,5.04,5.09,27608376
2013-11-20,5.08,5.54,5.05,5.5,34044780
2013-11-21,5.42,5.49,5.12,5.14,34725000
2013-11-22,5.16,5.22,5.07,5.16,11898036
2013-11-25,5.25,5.27,5.05,5.09,14519000
2013-11-26,5.03,5.03,4.8,4.98,20335000
2013-11-27,4.98,5.1,4.89,4.98,13434118
2013-11-28,4.98,5.01,4.8,4.86,15405000
2013-11-29,4.87,4.96,4.68,4.92,17502052
2013-12-02,4.92,4.93,4.7,4.73,14378286
2013-12-03,4.67,4.85,4.67,4.73,7918000
2013-12-04,4.73,4.98,4.6,4.94,17587000
2013-12-05,4.91,5.04,4.8,4.91,19403000
2013-12-06,4.94,4.94,4.85,4.86,8036000
2013-12-09,4.94,4.98,4.73,4.74,6282000
2013-12-10,4.75,4.94,4.74,4.87,8473000
2013-12-11,4.87,4.87,4.77,4.8,5288000
2013-12-12,4.8,4.83,4.65,4.7,6604200
2013-12-13,4.7,4.77,4.67,4.73,6269000
2013-12-16,4.73,4.77,4.66,4.67,4347688
2013-12-17,4.71,4.71,4.44,4.52,13287108
2013-12-18,4.45,4.68,4.38,4.67,7252500
2013-12-19,4.69,4.74,4.42,4.46,5346000
2013-12-20,4.5,4.55,4.22,4.32,7515000
2013-12-23,4.33,4.52,4.27,4.51,5071045
2013-12-24,4.51,4.68,4.51,4.66,3289000
2013-12-27,4.68,4.75,4.62,4.69,5077524
2013-12-30,4.71,4.71,4.6,4.64,3118000
2013-12-31,4.69,4.79,4.65,4.75,4807000
2014-01-02,4.85,4.85,4.75,4.83,6232000
2014-01-03,4.78,4.84,4.72,4.77,5189000
2014-01-06,4.77,4.8,4.63,4.63,3553000
2014-01-07,4.62,4.62,4.45,4.56,5157685
2014-01-08,4.56,4.64,4.45,4.47,6148000
2014-01-09,4.49,4.63,4.44,4.54,4712018
2014-01-10,4.5,4.58,4.4,4.52,3059670
2014-01-13,4.52,4.73,4.41,4.69,6461000
2014-01-14,4.69,4.77,4.65,4.69,5851000
2014-01-15,4.75,4.75,4.63,4.69,2251000
2014-01-16,4.75,4.8,4.55,4.61,4191000
2014-01-17,4.6,4.6,4.48,4.55,4484000
2014-01-20,4.51,4.57,4.4,4.43,4711000
2014-01-21,4.4,4.46,4.29,4.33,4682000
2014-01-22,4.31,4.46,4.3,4.31,3813376
2014-01-23,4.36,4.47,4.28,4.44,3338000
2014-01-24,4.4,4.46,4.11,4.19,5498000
2014-01-27,4.08,4.13,3.84,4.1,4092000
2014-01-28,4.08,4.2,4.08,4.13,1846000
2014-01-29,4.13,4.21,4.09,4.14,1260000
2014-01-30,4.1,4.14,4.03,4.08,1921060
2014-02-04,4.03,4.23,4.0,4.19,3114000
2014-02-05,4.16,4.25,4.06,4.09,1680000
2014-02-06,4.1,4.19,4.08,4.13,1308000
2014-02-07,4.14,4.26,4.14,4.17,1393000
2014-02-10,4.17,4.31,4.16,4.26,2216000
2014-02-11,4.3,4.45,4.21,4.29,3272007
2014-02-12,4.34,4.59,4.34,4.44,10057000
2014-02-13,4.46,4.48,4.36,4.38,2716000
2014-02-14,4.38,4.44,4.33,4.35,2265000
2014-02-17,4.32,4.4,4.2,4.23,5473000
2014-02-18,4.18,4.25,4.1,4.19,8965000
2014-02-19,4.18,4.25,4.14,4.19,16973000
2014-02-20,4.19,4.19,4.08,4.09,2911000
2014-02-21,4.12,4.15,4.05,4.14,5671000
2014-02-24,4.06,4.11,4.0,4.09,3195000
2014-02-25,4.09,4.15,4.0,4.05,18004012
2014-02-26,4.05,4.06,3.93,3.99,5793000
2014-02-27,4.0,4.08,3.91,3.92,3539900
2014-02-28,3.9,4.1,3.81,4.05,5056000
2014-03-03,3.98,4.03,3.92,4.03,2637000
2014-03-04,4.03,4.17,3.95,4.16,11127000
2014-03-05,4.16,4.25,4.12,4.15,13873000
2014-03-06,4.18,4.2,4.08,4.11,3394000
2014-03-07,4.09,4.16,4.0,4.09,3351000
2014-03-10,4.1,4.2,4.08,4.09,4487000
2014-03-11,4.12,4.17,4.1,4.11,6354000
2014-03-12,4.03,4.05,3.98,4.02,3591000
2014-03-13,4.01,4.13,4.0,4.1,3518000
2014-03-14,4.05,4.12,3.82,4.0,4644000
2014-03-17,4.04,4.14,3.97,4.01,2856000
2014-03-18,4.03,4.17,4.03,4.15,2144000
2014-03-19,4.21,4.23,4.14,4.15,2678000
2014-03-20,4.12,4.16,4.07,4.08,2580000
2014-03-21,4.08,4.13,4.05,4.07,3914000
2014-03-24,4.08,4.1,4.0,4.08,2652000
2014-03-25,3.79,4.02,3.66,3.66,12008000
2014-03-26,3.7,3.86,3.6,3.61,9242000
2014-03-27,3.64,3.69,3.38,3.56,11406000
2014-03-28,3.59,3.62,3.44,3.48,6248000
2014-03-31,3.49,3.5,3.35,3.48,6837000
2014-04-01,3.48,3.49,3.37,3.44,4449000
2014-04-02,3.45,3.5,3.36,3.38,5142604
2014-04-03,3.41,3.43,3.35,3.36,4034000
2014-04-04,3.35,3.51,3.35,3.48,7528000
2014-04-07,3.48,3.57,3.41,3.41,5883000
2014-04-08,3.44,3.8,3.44,3.74,13675000
2014-04-09,3.79,3.96,3.75,3.94,13450000
2014-04-10,3.95,3.96,3.78,3.87,8030000
2014-04-11,3.88,3.9,3.76,3.84,11736000
2014-04-14,3.84,3.86,3.76,3.79,2792000
2014-04-15,3.78,3.78,3.71,3.72,1392000
2014-04-16,3.72,3.82,3.72,3.75,1755000
2014-04-17,3.78,3.78,3.72,3.75,1095000
2014-04-22,3.77,3.95,3.71,3.92,2269000
2014-04-23,3.97,4.07,3.9,4.05,6053000
2014-04-24,4.0,4.18,4.0,4.14,7214000
2014-04-25,4.14,4.14,4.03,4.07,5308000
2014-04-28,4.1,4.14,3.93,3.98,6777000
2014-04-29,3.95,3.96,3.79,3.84,2667000
2014-04-30,3.87,3.87,3.71,3.75,2464000
2014-05-02,3.74,3.91,3.74,3.85,3111000
2014-05-05,3.78,3.78,3.69,3.71,1334000
2014-05-07,3.72,3.77,3.56,3.61,2608000
2014-05-08,3.59,3.63,3.55,3.58,1330000
2014-05-09,3.53,3.71,3.52,3.7,1549000
2014-05-12,3.67,3.79,3.62,3.77,737062
2014-05-13,3.85,3.88,3.71,3.81,2303000
2014-05-14,3.76,3.84,3.76,3.82,738000
2014-05-15,3.82,3.84,3.78,3.8,602207
2014-05-16,3.8,3.8,3.71,3.71,229000
2014-05-19,3.7,3.76,3.68,3.72,1598000
2014-05-20,3.68,3.73,3.64,3.66,2628000
2014-05-21,3.62,3.7,3.59,3.66,690000
2014-05-22,3.66,3.68,3.62,3.65,1140000
2014-05-23,3.68,3.68,3.62,3.63,1151372
2014-05-26,3.6,3.6,3.47,3.5,5991100
2014-05-27,3.51,3.56,3.47,3.51,2038350
2014-05-28,3.49,3.52,3.38,3.4,6380623
2014-05-29,3.4,3.41,3.26,3.28,3552000
2014-05-30,3.26,3.35,3.18,3.31,5115000
2014-06-03,3.33,3.4,3.17,3.19,9299000
2014-06-04,3.22,3.22,3.05,3.1,8733000
2014-06-05,3.13,3.26,3.04,3.19,7539000
2014-06-06,3.19,3.2,3.07,3.07,5910000
2014-06-09,3.07,3.07,2.87,2.92,14945000
2014-06-10,2.85,2.88,2.78,2.87,8499000
2014-06-11,2.9,3.07,2.86,3.05,9065000
2014-06-12,3.02,3.14,2.96,3.06,6897000
2014-06-13,3.06,3.08,2.89,2.9,5368000
2014-06-16,2.94,2.94,2.74,2.77,9518000
2014-06-17,2.78,2.8,2.72,2.73,6469000
2014-06-18,2.72,2.77,2.69,2.71,3829000
2014-06-19,2.71,2.76,2.71,2.72,3885000
2014-06-20,2.75,2.85,2.75,2.78,3967000
2014-06-23,2.78,2.83,2.7,2.74,3725000
2014-06-24,2.73,2.76,2.72,2.75,3316000
2014-06-25,2.76,2.79,2.71,2.75,5048000
2014-06-26,2.75,2.81,2.72,2.8,3578000
2014-06-27,2.81,2.81,2.76,2.8,1016000
2014-06-30,2.8,2.82,2.79,2.82,1170000
2014-07-02,2.83,2.86,2.75,2.85,3321000
2014-07-03,2.86,2.94,2.85,2.94,2104000
2014-07-04,2.95,2.98,2.88,2.98,2480000
2014-07-07,3.0,3.05,2.99,3.03,3576000
2014-07-08,3.05,3.05,3.0,3.01,1364000
2014-07-09,3.0,3.0,2.89,2.92,3107000
2014-07-10,2.92,2.94,2.89,2.9,1544000
2014-07-11,2.9,2.93,2.9,2.91,681746
2014-07-14,2.91,2.91,2.87,2.88,1224000
2014-07-15,2.88,2.95,2.86,2.88,741000
2014-07-16,2.89,2.91,2.88,2.9,1529000
2014-07-17,2.89,3.04,2.88,2.94,1121000
2014-07-18,2.9,2.97,2.89,2.9,711000
2014-07-21,2.9,2.91,2.84,2.84,1266000
2014-07-22,2.84,2.86,2.8,2.81,1646000
2014-07-23,2.86,2.87,2.79,2.84,1850000
2014-07-24,2.81,2.83,2.79,2.82,1075000
2014-07-25,2.8,2.83,2.8,2.8,3113000
2014-07-28,2.79,2.82,2.78,2.81,1928000
2014-07-29,2.79,2.81,2.78,2.8,2059000
2014-07-30,2.79,2.83,2.77,2.77,1210000
2014-07-31,2.76,2.78,2.72,2.76,1546000
2014-08-01,2.75,2.77,2.7,2.72,1811000
2014-08-04,2.71,2.76,2.71,2.74,1027000
2014-08-05,2.75,2.82,2.71,2.78,631000
2014-08-06,2.76,2.77,2.73,2.75,984000
2014-08-07,2.75,2.8,2.75,2.78,1003000
2014-08-08,2.77,2.84,2.77,2.84,1691000
2014-08-11,2.85,2.91,2.81,2.86,1752000
2014-08-12,2.86,2.89,2.85,2.86,579000
2014-08-13,2.84,2.87,2.84,2.86,1022000
2014-08-14,2.9,2.93,2.87,2.92,1395000
2014-08-15,2.92,2.93,2.9,2.9,894000
2014-08-18,2.9,2.91,2.87,2.88,964000
2014-08-19,2.88,2.89,2.87,2.89,1451000
2014-08-20,2.89,2.89,2.86,2.86,3292000
2014-08-21,2.85,2.87,2.77,2.78,3238000
2014-08-22,2.77,2.78,2.7,2.74,2679000
2014-08-25,2.74,2.76,2.65,2.67,2222000
2014-08-26,2.68,2.75,2.68,2.72,1399000
2014-08-27,2.65,2.72,2.65,2.69,2237000
2014-08-28,2.68,2.68,2.54,2.6,4809000
2014-08-29,2.61,2.61,2.51,2.59,2396874
2014-09-01,2.58,2.58,2.49,2.49,1972000
2014-09-02,2.51,2.53,2.47,2.5,2150000
2014-09-03,2.5,2.55,2.49,2.51,2139000
2014-09-04,2.51,2.63,2.5,2.54,4363000
2014-09-05,2.59,2.59,2.51,2.55,2528286
2014-09-08,2.55,2.58,2.55,2.56,2596000
2014-09-10,2.55,2.57,2.53,2.55,3638000
2014-09-11,2.55,2.58,2.47,2.48,2313000
2014-09-12,2.48,2.48,2.4,2.41,3868893
2014-09-15,2.42,2.44,2.28,2.36,4935000
2014-09-16,2.36,2.36,2.25,2.25,5231000
2014-09-17,2.3,2.3,2.23,2.27,2772000
2014-09-18,2.26,2.26,2.15,2.18,4189000
2014-09-19,2.17,2.3,2.16,2.27,2485000
2014-09-22,2.24,2.33,2.2,2.33,2136000
2014-09-23,2.33,2.38,2.3,2.37,3751000
2014-09-24,2.35,2.39,2.29,2.3,5067000
2014-09-25,2.31,2.31,2.26,2.28,2079000
2014-09-26,2.27,2.27,2.16,2.17,3313835
2014-09-29,2.17,2.21,2.1,2.14,4778000
2014-09-30,2.12,2.13,2.07,2.11,2396000
2014-10-03,2.11,2.17,2.07,2.09,3061000
2014-10-06,2.08,2.16,2.08,2.13,1915000
2014-10-07,2.17,2.2,2.13,2.19,1594000
2014-10-08,2.17,2.39,2.17,2.38,21548000
2014-10-09,2.41,2.65,2.4,2.61,23098000
2014-10-10,2.61,2.85,2.53,2.8,21509000
2014-10-13,2.81,2.92,2.75,2.91,17669000
2014-10-14,2.9,2.9,2.72,2.73,5527000
2014-10-15,2.73,2.84,2.71,2.82,5504000
2014-10-16,2.82,2.82,2.71,2.72,6779000
2014-10-17,2.7,2.77,2.68,2.7,5999226
2014-10-20,2.71,2.83,2.71,2.76,6455300
2014-10-21,2.8,2.8,2.62,2.68,8012126
2014-10-22,2.66,2.76,2.65,2.69,4841000
2014-10-23,2.7,2.7,2.65,2.67,1495000
2014-10-24,2.7,2.88,2.68,2.84,9391000
2014-10-27,2.84,2.94,2.81,2.89,9451000
2014-10-28,2.88,3.17,2.88,3.17,17583000
2014-10-31,3.4,3.44,2.78,2.88,43080000
2014-11-03,2.92,2.96,2.75,2.82,21391000
2014-11-04,2.84,2.84,2.61,2.64,20235000
2014-11-05,2.66,2.66,2.48,2.49,16439000
2014-11-06,2.51,2.61,2.45,2.5,9821000
2014-11-07,2.54,2.54,2.46,2.49,5579500
2014-11-10,2.5,2.54,2.42,2.46,4775000
2014-11-11,2.46,2.52,2.45,2.48,4484000
2014-11-12,2.48,2.48,2.45,2.45,2921000
2014-11-13,2.45,2.47,2.41,2.45,3791000
2014-11-14,2.45,2.58,2.44,2.56,4296000
2014-11-17,2.6,2.66,2.55,2.59,7302000
2014-11-18,2.61,2.73,2.6,2.64,10464000
2014-11-19,2.65,2.67,2.55,2.57,2766000
2014-11-20,2.6,2.6,2.48,2.51,3445000
2014-11-21,2.47,2.55,2.41,2.45,4826000
2014-11-24,2.46,2.5,2.43,2.44,3071000
2014-11-25,2.42,2.47,2.42,2.44,1701000
2014-11-26,2.42,2.49,2.42,2.46,4614000
2014-11-27,2.45,2.45,2.41,2.42,4954000
2014-11-28,2.45,2.45,2.34,2.35,5402000
2014-12-01,2.35,2.37,2.28,2.3,2835000
2014-12-02,2.3,2.33,2.26,2.3,4400000
2014-12-03,2.31,2.32,2.27,2.27,3304000
2014-12-04,2.27,2.28,2.23,2.25,3209000
2014-12-05,2.25,2.3,2.16,2.19,4968000
2014-12-08,2.18,2.27,2.17,2.17,2860000
2014-12-09,2.17,2.23,2.15,2.17,2765000
2014-12-10,2.18,2.37,2.18,2.26,5116000
2014-12-11,2.24,2.32,2.23,2.3,3149000
2014-12-12,2.32,2.34,2.27,2.33,1520000
2014-12-15,2.29,2.33,2.26,2.28,1029000
2014-12-16,2.29,2.33,2.15,2.17,3015108
2014-12-17,2.14,2.2,2.11,2.13,2301000
2014-12-18,2.13,2.19,2.1,2.15,1085000
2014-12-19,2.14,2.35,2.14,2.24,2475000
2014-12-22,2.22,2.29,2.17,2.17,1302000
2014-12-23,2.17,2.2,2.13,2.17,1265000
2014-12-24,2.17,2.22,2.17,2.2,771000
2014-12-29,2.22,2.23,2.15,2.23,1049000
2014-12-30,2.24,2.26,2.16,2.16,1722000
2014-12-31,2.15,2.28,2.14,2.19,1862000
2015-01-02,2.18,2.37,2.18,2.35,2714000
2015-01-05,2.31,2.35,2.29,2.33,2936000
2015-01-06,2.33,2.39,2.3,2.38,2780650
2015-01-07,2.35,2.36,2.32,2.34,1382000
2015-01-08,2.32,2.39,2.26,2.27,2099000
2015-01-09,2.27,2.38,2.27,2.36,3178000
2015-01-12,2.35,2.36,2.31,2.31,2492000
2015-01-13,2.3,2.33,2.27,2.28,2321000
2015-01-14,2.24,2.32,2.14,2.3,6835000
2015-01-15,2.3,2.31,2.27,2.27,1666000
2015-01-16,2.24,2.3,2.22,2.24,1149000
2015-01-17,2.88,2.88,2.88,2.88,0
2015-01-19,2.25,2.25,2.17,2.19,2038000
2015-01-20,2.17,2.24,2.17,2.22,1498000
2015-01-21,2.22,2.33,2.22,2.29,2436000
2015-01-22,2.27,2.38,2.27,2.36,2084000
2015-01-23,2.37,2.43,2.31,2.38,4452000
2015-01-26,2.38,2.48,2.38,2.47,7869000
2015-01-27,2.47,2.48,2.38,2.41,3933000
2015-01-28,2.4,2.44,2.36,2.41,928000
2015-01-29,2.38,2.43,2.36,2.42,1027000
2015-01-30,2.39,2.42,2.39,2.41,850000
2015-02-02,2.41,2.61,2.39,2.6,9489000
2015-02-03,2.61,2.78,2.6,2.75,11422000
2015-02-04,2.74,2.96,2.72,2.95,25577000
2015-02-05,2.91,3.01,2.91,3.0,15198000
2015-02-06,2.97,3.0,2.86,2.93,7012000
2015-02-09,2.88,2.97,2.86,2.97,3802000
2015-02-10,2.91,2.97,2.86,2.97,4022000
2015-02-11,2.96,2.98,2.94,2.96,1743000
2015-02-12,2.94,2.98,2.9,2.97,4608000
2015-02-13,2.95,2.99,2.95,2.99,8505000
2015-02-16,2.97,3.05,2.97,3.04,3922000
2015-02-17,3.04,3.04,3.0,3.03,738000
2015-02-18,3.03,3.07,3.03,3.06,1618000
2015-02-23,3.03,3.07,3.03,3.05,407000
2015-02-24,3.04,3.04,2.9,2.91,3481000
2015-02-25,2.88,2.88,2.8,2.84,7109000
2015-02-26,2.82,2.87,2.8,2.83,1441000
2015-02-27,2.8,2.86,2.64,2.66,14076000
2015-03-02,2.7,2.7,2.62,2.69,2652000
2015-03-03,2.69,2.7,2.65,2.67,2535000
2015-03-04,2.68,2.74,2.65,2.69,4003000
2015-03-05,2.66,2.72,2.66,2.69,1879000
2015-03-06,2.69,2.71,2.68,2.69,459000
2015-03-09,2.65,2.69,2.61,2.68,2115000
2015-03-10,2.61,2.66,2.61,2.61,2300000
2015-03-11,2.61,2.62,2.56,2.6,3813000
2015-03-12,2.59,2.6,2.57,2.59,1417000
2015-03-13,2.58,2.67,2.56,2.66,2041000
2015-03-16,2.63,2.7,2.6,2.7,1062000
2015-03-17,2.71,2.71,2.59,2.69,1069000
2015-03-18,2.67,2.71,2.65,2.7,897000
2015-03-19,2.69,2.73,2.69,2.71,1799000
2015-03-20,2.71,2.92,2.71,2.9,4005000
2015-03-23,2.92,2.92,2.8,2.82,1695000
2015-03-24,2.8,2.83,2.77,2.79,806000
2015-03-25,2.78,2.87,2.77,2.86,1160530
2015-03-26,2.82,2.85,2.74,2.82,1906000
2015-03-27,2.82,2.85,2.69,2.75,1988000
2015-03-30,2.73,2.88,2.71,2.85,5472000
2015-03-31,2.89,2.9,2.72,2.81,3508020
2015-04-01,2.8,2.85,2.75,2.83,1088000
2015-04-02,2.81,2.89,2.79,2.86,4014750
2015-04-08,2.89,3.08,2.89,3.04,10911000
2015-04-09,3.08,3.28,3.0,3.07,13320000
2015-04-10,3.1,3.13,2.85,2.94,12168000
2015-04-13,2.98,2.98,2.88,2.89,11076000
2015-04-14,2.95,2.95,2.78,2.81,7637000
2015-04-15,2.83,2.91,2.78,2.84,5268000
2015-04-16,2.82,2.92,2.81,2.9,4499000
2015-04-17,2.88,2.95,2.84,2.94,6683000
2015-04-20,2.88,2.92,2.78,2.81,4515000
2015-04-21,2.81,2.89,2.72,2.77,5633000
2015-04-22,2.8,2.83,2.75,2.8,3487000
2015-04-23,2.84,2.86,2.79,2.82,4607000
2015-04-24,2.85,2.85,2.72,2.74,4717000
2015-04-27,2.75,2.79,2.71,2.75,2926000
2015-04-28,2.78,2.78,2.66,2.7,3165000
2015-04-29,2.7,2.7,2.65,2.67,2602000
2015-04-30,2.62,2.67,2.62,2.66,2250000
2015-05-04,2.64,2.74,2.64,2.67,4734000
2015-05-05,2.71,2.71,2.54,2.58,7620000
2015-05-06,2.55,2.63,2.55,2.6,5209000
2015-05-07,2.64,2.64,2.54,2.6,4188000
2015-05-08,2.59,2.63,2.56,2.61,3378000
2015-05-11,2.63,2.67,2.58,2.65,3285000
2015-05-12,2.67,2.71,2.64,2.66,2921000
2015-05-13,2.66,2.67,2.59,2.62,2140000
2015-05-14,2.63,2.63,2.59,2.62,2201000
2015-05-15,2.63,2.64,2.6,2.6,623000
2015-05-18,2.6,2.63,2.55,2.59,1119000
2015-05-19,2.61,2.64,2.6,2.62,1246000
2015-05-20,2.62,2.63,2.58,2.61,3639000
2015-05-21,2.63,2.63,2.59,2.6,1981000
2015-05-22,2.6,2.62,2.58,2.6,1967000
2015-05-26,2.64,2.66,2.57,2.6,11242000
2015-05-27,2.63,2.78,2.58,2.77,9128000
2015-05-28,2.78,2.83,2.63,2.67,4940000
2015-05-29,2.65,2.74,2.63,2.72,5033000
2015-06-01,2.66,2.71,2.63,2.68,2906000
2015-06-02,2.7,2.7,2.63,2.69,3291000
2015-06-03,2.7,2.7,2.62,2.65,2086000
2015-06-04,2.63,2.69,2.57,2.59,2924000
2015-06-05,2.59,2.62,2.56,2.58,3423000
2015-06-08,2.56,2.61,2.51,2.55,2567000
2015-06-09,2.55,2.55,2.43,2.51,3693000
2015-06-10,2.48,2.56,2.47,2.49,1516000
2015-06-11,2.55,2.55,2.49,2.54,2470000
2015-06-12,2.52,2.62,2.5,2.58,3220960
2015-06-15,2.58,2.6,2.51,2.54,1235000
2015-06-16,2.53,2.53,2.44,2.46,1881000
2015-06-17,2.48,2.49,2.4,2.43,3064000
2015-06-18,2.47,2.52,2.4,2.51,856000
2015-06-19,2.53,2.53,2.47,2.51,475000
2015-06-22,2.51,2.51,2.43,2.46,249800
2015-06-23,2.46,2.51,2.4,2.5,1224000
2015-06-24,2.5,2.5,2.45,2.48,658000
2015-06-25,2.48,2.48,2.43,2.43,935000
2015-06-26,2.46,2.46,2.4,2.41,1213000
2015-06-29,2.38,2.41,2.24,2.31,3706000
2015-06-30,2.34,2.45,2.26,2.38,2284000
2015-07-02,2.4,2.41,2.18,2.3,2562800
2015-07-03,2.23,2.28,2.21,2.27,1985000
2015-07-06,2.29,2.29,2.0,2.13,4818000
2015-07-07,2.13,2.14,2.0,2.03,4452000
2015-07-08,2.0,2.0,1.76,1.82,6900000
2015-07-09,1.8,2.03,1.8,1.99,4098000
2015-07-10,1.99,2.15,1.99,2.12,3290000
2015-07-13,2.12,2.13,2.05,2.11,1845000
2015-07-14,2.14,2.22,2.13,2.19,1476000
2015-07-15,2.26,2.26,2.11,2.17,811000
2015-07-16,2.19,2.2,2.11,2.15,796000
2015-07-17,2.15,2.2,2.15,2.18,513000
2015-07-20,2.27,2.28,2.2,2.23,1181000
2015-07-21,2.3,2.3,2.22,2.23,594000
2015-07-22,2.27,2.35,2.24,2.28,3366000
2015-07-23,2.3,2.34,2.23,2.27,1868000
2015-07-24,2.23,2.38,2.23,2.35,4842000
2015-07-27,2.3,2.35,2.12,2.18,4367000
2015-07-28,2.1,2.23,2.0,2.21,1459000
2015-07-29,2.22,2.22,2.15,2.22,284000
2015-07-30,2.28,2.28,2.2,2.26,387000
2015-07-31,2.24,2.25,2.17,2.25,483000
2015-08-03,2.27,2.27,2.15,2.16,495000
2015-08-04,2.17,2.17,2.05,2.09,1179000
2015-08-05,2.07,2.21,2.07,2.19,1279000
2015-08-06,2.18,2.18,2.15,2.18,607000
2015-08-07,2.26,2.26,2.15,2.15,308000
2015-08-10,2.18,2.19,2.12,2.19,1428000
2015-08-11,2.18,2.25,2.18,2.18,374000
2015-08-12,2.15,2.18,2.1,2.13,973000
2015-08-13,2.25,2.26,2.16,2.21,1645000
2015-08-14,2.19,2.19,2.15,2.16,266000
2015-08-17,2.2,2.2,2.12,2.14,456000
2015-08-18,2.19,2.19,2.1,2.12,849000
2015-08-19,2.16,2.16,2.05,2.06,98000
2015-08-20,2.05,2.05,1.91,1.93,1798000
2015-08-21,1.87,1.95,1.83,1.93,1161000
2015-08-24,1.89,1.89,1.75,1.75,2465000
2015-08-25,1.71,1.85,1.71,1.78,1358000
2015-08-26,1.85,1.85,1.76,1.79,408000
2015-08-27,1.78,1.98,1.71,1.98,2041000
2015-08-28,2.0,2.0,1.92,1.95,1395000
2015-08-31,1.9,1.98,1.9,1.95,337000
2015-09-01,1.96,1.96,1.8,1.85,361000
2015-09-02,1.76,1.85,1.76,1.8,257000
2015-09-04,1.82,1.86,1.74,1.79,128000
2015-09-07,1.8,1.91,1.8,1.9,566000
2015-09-08,1.95,1.97,1.88,1.97,422000
2015-09-09,2.02,2.06,1.99,2.06,1000000
2015-09-10,2.05,2.06,1.95,2.01,902000
2015-09-11,2.06,2.06,1.98,1.98,204000
2015-09-14,1.94,2.05,1.94,1.98,458000
2015-09-15,2.0,2.03,1.94,1.99,464000
2015-09-16,2.04,2.1,2.01,2.05,429000
2015-09-17,2.03,2.03,1.94,1.95,692000
2015-09-18,1.93,2.09,1.93,2.03,1263000
2015-09-21,2.03,2.04,1.95,1.99,612000
2015-09-22,2.05,2.12,2.0,2.03,1383000
2015-09-23,2.05,2.05,1.9,1.98,1960000
2015-09-24,1.93,1.96,1.86,1.89,3278000
2015-09-25,1.9,1.92,1.89,1.9,667000
2015-09-29,1.85,2.04,1.85,1.96,3924000
2015-09-30,2.04,2.04,1.9,1.93,217000
2015-10-02,2.03,2.03,1.92,1.98,126000
2015-10-05,2.04,2.05,1.97,2.0,658000
2015-10-06,1.9,2.0,1.9,1.95,121000
2015-10-07,1.97,2.03,1.95,1.97,87000
2015-10-08,2.0,2.05,1.97,2.0,737000
2015-10-09,2.0,2.05,1.97,2.05,5511000
2015-10-12,2.03,2.08,2.03,2.04,1035000
2015-10-13,2.08,2.12,2.06,2.1,1199000
2015-10-14,2.1,2.1,2.04,2.1,976000
2015-10-15,2.1,2.1,2.05,2.1,837000
2015-10-16,2.08,2.21,2.08,2.19,4763000
2015-10-19,2.21,2.21,2.16,2.18,399000
2015-10-20,2.21,2.21,2.15,2.16,248000
2015-10-22,2.17,2.17,2.08,2.11,1449000
2015-10-23,2.15,2.15,2.08,2.13,205000
2015-10-26,2.2,2.2,2.11,2.13,572000
2015-10-27,2.17,2.17,2.08,2.1,378000
2015-10-28,2.13,2.13,2.04,2.09,667000
2015-10-29,2.11,2.12,2.05,2.08,168000
2015-10-30,2.28,2.35,2.17,2.21,14236100
2015-11-02,2.16,2.2,2.02,2.06,3685000
2015-11-03,2.1,2.1,2.05,2.06,1538000
2015-11-04,2.06,2.12,2.05,2.09,1970000
2015-11-05,2.12,2.14,2.08,2.13,640000
2015-11-06,2.13,2.21,2.13,2.14,2071000
2015-11-09,2.16,2.19,2.14,2.16,574000
2015-11-10,2.11,2.17,2.11,2.13,425000
2015-11-11,2.13,2.14,2.06,2.13,2025000
2015-11-12,2.12,2.15,2.06,2.15,632000
2015-11-13,2.1,2.15,2.06,2.07,497000
2015-11-16,2.01,2.04,1.85,2.02,4698000
2015-11-17,2.1,2.1,1.96,1.99,472000
2015-11-18,2.0,2.04,1.96,1.98,1237000
2015-11-19,2.05,2.08,1.98,1.98,3289000
2015-11-20,2.07,2.07,1.98,1.99,132000
2015-11-23,2.0,2.02,1.99,2.0,268000
2015-11-24,1.96,2.03,1.96,1.99,408000
2015-11-25,1.96,1.96,1.91,1.93,1455000
2015-11-26,1.95,1.95,1.88,1.89,1205000
2015-11-27,1.93,1.94,1.89,1.91,264000
2015-11-30,1.89,1.91,1.85,1.87,451000
2015-12-01,1.95,1.95,1.88,1.91,128000
2015-12-02,1.91,1.96,1.91,1.94,5844000
2015-12-03,1.95,1.95,1.88,1.89,240000
2015-12-04,1.92,1.93,1.9,1.91,779000
2015-12-07,1.92,1.97,1.9,1.95,411000
2015-12-08,1.93,1.97,1.86,1.92,251000
2015-12-09,1.94,1.94,1.88,1.89,153000
2015-12-10,1.94,1.94,1.89,1.9,549000
2015-12-11,1.93,1.93,1.86,1.89,326000
2015-12-14,1.9,1.91,1.86,1.9,1030420
2015-12-15,1.94,1.94,1.87,1.87,88000
2015-12-16,1.9,1.94,1.88,1.92,500000
2015-12-17,1.92,1.94,1.88,1.9,597000
2015-12-18,1.87,1.91,1.82,1.83,1197768
2015-12-21,1.83,1.86,1.81,1.85,394000
2015-12-22,1.86,1.89,1.85,1.87,153000
2015-12-23,1.9,1.93,1.88,1.88,4295000
2015-12-24,1.92,1.93,1.88,1.89,119000
2015-12-28,1.92,1.96,1.88,1.89,610000
2015-12-29,1.89,1.92,1.88,1.92,61000
2015-12-30,1.95,1.95,1.89,1.9,369000
2015-12-31,1.9,1.94,1.9,1.93,126000
2016-01-04,1.98,1.98,1.87,1.9,411000
2016-01-05,1.86,1.94,1.86,1.9,228000
2016-01-06,1.94,1.94,1.9,1.92,632000
2016-01-07,1.91,1.91,1.82,1.85,620000
2016-01-08,1.87,1.87,1.8,1.85,851000
2016-01-11,1.81,1.84,1.7,1.75,1531000
2016-01-12,1.77,1.77,1.71,1.72,215000
2016-01-13,1.78,1.78,1.75,1.76,439000
2016-01-14,1.71,1.76,1.71,1.75,322000
2016-01-15,1.71,1.75,1.7,1.74,399000
2016-01-18,1.69,1.71,1.65,1.67,654000
2016-01-19,1.71,1.78,1.71,1.73,24000
2016-01-20,1.72,1.74,1.62,1.65,387000
2016-01-21,1.65,1.68,1.58,1.6,711000
2016-01-22,1.63,1.63,1.6,1.61,490000
2016-01-25,1.6,1.71,1.6,1.68,843000
2016-01-26,1.68,1.73,1.66,1.68,793000
2016-01-27,1.71,1.72,1.66,1.72,270000
2016-01-28,1.72,1.77,1.72,1.73,1237000
2016-01-29,1.73,1.75,1.73,1.74,555000
2016-02-01,1.74,1.82,1.74,1.8,622000
2016-02-02,1.77,1.79,1.72,1.78,138000
2016-02-03,1.75,1.81,1.75,1.76,254000
2016-02-04,1.77,1.81,1.69,1.79,386000
2016-02-05,1.78,1.79,1.78,1.79,603000
2016-02-11,1.72,1.84,1.69,1.79,782000
2016-02-12,1.78,1.87,1.73,1.82,436000
2016-02-15,1.82,1.88,1.82,1.88,414000
2016-02-16,1.9,1.93,1.87,1.9,836000
2016-02-17,1.93,1.93,1.82,1.89,514000
2016-02-18,1.93,1.94,1.86,1.87,1856000
2016-02-19,1.86,1.86,1.75,1.82,811000
2016-02-22,1.83,1.85,1.83,1.85,77000
2016-02-23,1.85,1.85,1.77,1.78,316000
2016-02-24,1.73,1.75,1.73,1.75,70000
2016-02-25,1.77,1.77,1.75,1.75,867000
2016-02-26,1.7,1.78,1.7,1.7,270000
2016-02-29,1.69,1.69,1.63,1.64,1128000
2016-03-01,1.7,1.7,1.66,1.68,157000
2016-03-02,1.66,1.75,1.66,1.7,452000
2016-03-03,1.7,1.75,1.68,1.71,894000
2016-03-04,1.74,1.78,1.72,1.74,816000
2016-03-07,1.78,1.78,1.72,1.74,570000
2016-03-08,1.8,1.8,1.71,1.74,460000
2016-03-09,1.72,1.74,1.69,1.72,205000
2016-03-10,1.71,1.75,1.7,1.71,131000
2016-03-11,1.7,1.72,1.66,1.69,249000
2016-03-14,1.72,1.74,1.68,1.69,461000
2016-03-15,1.69,1.69,1.64,1.67,491000
2016-03-16,1.68,1.69,1.63,1.66,588000
2016-03-17,1.67,1.69,1.64,1.68,845000
2016-03-18,1.68,1.7,1.66,1.68,497000
2016-03-21,1.7,1.74,1.67,1.69,605000
2016-03-22,1.7,1.73,1.66,1.69,379000
2016-03-23,1.65,1.72,1.63,1.68,745000
2016-03-24,1.7,1.7,1.64,1.67,673000
2016-03-29,1.68,1.71,1.65,1.71,620000
2016-03-30,1.72,1.76,1.71,1.76,2083000
2016-03-31,1.75,1.79,1.72,1.75,1543800
2016-04-01,1.76,1.76,1.73,1.73,1405000
2016-04-05,1.73,1.81,1.73,1.77,2240503
2016-04-06,1.77,1.79,1.7,1.72,2869000
2016-04-07,1.73,1.78,1.73,1.76,878000
2016-04-08,1.79,1.79,1.72,1.73,1022000
2016-04-11,1.73,1.8,1.73,1.8,1052000
2016-04-12,1.79,1.81,1.74,1.81,1305000
2016-04-13,1.84,1.84,1.8,1.81,1311000
2016-04-14,1.84,2.06,1.84,1.94,10095497
2016-04-15,1.97,2.0,1.92,1.98,1450000
2016-04-18,1.98,2.03,1.94,2.0,3787000
2016-04-19,2.02,2.24,2.0,2.07,5517009
2016-04-20,2.07,2.09,1.96,2.0,1301000
2016-04-21,2.0,2.07,1.97,2.01,795000
2016-04-22,2.01,2.04,1.97,2.03,783000
2016-04-25,2.0,2.02,1.97,1.99,741000
2016-04-26,2.02,2.02,1.95,1.97,200000
2016-04-27,1.95,1.96,1.91,1.93,329000
2016-04-28,1.92,1.96,1.9,1.96,721000
2016-04-29,1.92,1.92,1.88,1.88,772000
2016-05-03,1.88,1.91,1.86,1.91,423828
2016-05-04,1.89,1.91,1.85,1.87,416000
2016-05-05,1.85,1.86,1.79,1.79,950000
2016-05-06,1.77,1.83,1.76,1.78,1174000
2016-05-09,1.8,1.83,1.73,1.75,679000
2016-05-10,1.77,1.8,1.73,1.79,1347000
2016-05-11,1.78,1.81,1.76,1.81,599000
2016-05-12,1.8,1.81,1.78,1.8,631000
2016-05-13,1.81,1.94,1.81,1.89,2642000
2016-05-16,1.86,1.93,1.82,1.9,3885000
2016-05-17,1.91,1.92,1.79,1.8,1026000
2016-05-18,1.76,1.8,1.7,1.71,1745000
2016-05-19,1.72,1.74,1.66,1.7,1720000
2016-05-20,1.68,1.73,1.66,1.7,1230000
2016-05-23,1.7,1.72,1.67,1.68,507000
2016-05-24,1.66,1.7,1.63,1.68,1069000
2016-05-25,1.72,1.73,1.69,1.71,433000
2016-05-26,1.7,1.73,1.67,1.7,235000
2016-05-27,1.72,1.75,1.68,1.73,1098000
2016-05-30,1.73,1.73,1.69,1.69,1275000
2016-05-31,1.7,1.76,1.64,1.72,8711000
2016-06-01,1.7,1.7,1.65,1.69,1425000
2016-06-02,1.69,1.75,1.69,1.72,2233000
2016-06-03,1.72,1.74,1.71,1.73,757000
2016-06-06,1.73,1.73,1.69,1.71,937000
2016-06-07,1.72,1.76,1.67,1.74,2792000
2016-06-08,1.74,1.78,1.69,1.75,497000
2016-06-10,1.71,1.73,1.69,1.7,208000
2016-06-13,1.67,1.7,1.65,1.67,1645000
2016-06-14,1.66,1.68,1.65,1.66,496000
2016-06-15,1.64,1.71,1.64,1.67,645000
2016-06-16,1.65,1.68,1.65,1.66,115000
2016-06-17,1.67,1.68,1.65,1.67,444000
2016-06-20,1.68,1.69,1.66,1.67,146000
2016-06-21,1.67,1.74,1.63,1.73,519000
2016-06-22,1.72,1.74,1.7,1.74,634000
2016-06-23,1.73,1.76,1.7,1.74,327000
2016-06-24,1.74,1.76,1.65,1.71,1266000
2016-06-27,1.69,1.74,1.62,1.7,1417000
2016-06-28,1.67,1.72,1.63,1.68,1247000
2016-06-29,1.68,1.73,1.66,1.7,887000
2016-06-30,1.71,1.72,1.66,1.69,678000
2016-07-04,1.68,1.72,1.66,1.71,3320386
2016-07-05,1.7,1.71,1.68,1.7,264000
2016-07-06,1.68,1.69,1.65,1.69,572000
2016-07-07,1.69,1.69,1.66,1.69,60000
2016-07-08,1.67,1.68,1.66,1.67,235000
2016-07-11,1.69,1.72,1.67,1.69,777000
2016-07-12,1.69,1.7,1.68,1.7,241000
2016-07-13,1.7,1.76,1.67,1.74,1434028
2016-07-14,1.72,1.74,1.7,1.72,1807000
2016-07-15,1.73,1.73,1.69,1.71,345000
2016-07-18,1.71,1.72,1.7,1.7,192000
2016-07-19,1.69,1.72,1.69,1.71,88000
2016-07-20,1.7,1.72,1.68,1.71,374000
2016-07-21,1.7,1.72,1.68,1.7,368000
2016-07-22,1.7,1.73,1.69,1.71,353000
2016-07-25,1.71,1.73,1.69,1.73,1394000
2016-07-26,1.7,1.72,1.69,1.7,192000
2016-07-27,1.7,1.7,1.66,1.67,456000
2016-07-28,1.67,1.69,1.67,1.68,146000
2016-07-29,1.68,1.7,1.66,1.68,1817000
2016-08-01,1.68,1.68,1.66,1.67,719000
2016-08-03,1.67,1.68,1.66,1.66,502000
2016-08-04,1.67,1.69,1.67,1.69,126000
2016-08-05,1.69,1.7,1.67,1.68,243000
2016-08-08,1.68,1.7,1.68,1.69,1038000
2016-08-09,1.69,1.73,1.69,1.72,511000
2016-08-10,1.72,1.72,1.71,1.71,77000
2016-08-11,1.71,1.72,1.69,1.72,508000
2016-08-12,1.72,1.77,1.7,1.74,582000
2016-08-15,1.75,1.75,1.73,1.74,192000
2016-08-16,1.73,1.82,1.73,1.77,3355000
2016-08-17,1.75,1.93,1.73,1.81,4653000
2016-08-18,1.83,1.83,1.78,1.79,1435000
2016-08-19,1.74,1.81,1.72,1.73,3197000
2016-08-22,1.73,1.73,1.7,1.7,331000
2016-08-23,1.7,1.71,1.69,1.71,496000
2016-08-24,1.71,1.71,1.69,1.7,431000
2016-08-25,1.69,1.7,1.64,1.65,1270000
2016-08-26,1.68,1.73,1.65,1.67,2732000
2016-08-29,1.73,1.73,1.68,1.7,1236000
2016-08-30,1.7,1.71,1.65,1.66,1733000
2016-08-31,1.67,1.69,1.65,1.68,626000
2016-09-01,1.67,1.7,1.67,1.7,1411000
2016-09-02,1.69,1.71,1.68,1.68,290000
2016-09-05,1.7,1.73,1.7,1.72,1022000
2016-09-06,1.72,1.74,1.71,1.72,1170000
2016-09-07,1.74,1.74,1.72,1.73,944000
2016-09-08,1.75,1.75,1.71,1.74,2550000
2016-09-09,1.75,1.81,1.72,1.77,6617000
2016-09-12,1.73,1.77,1.69,1.72,2787000
2016-09-13,1.74,1.74,1.71,1.71,131000
2016-09-14,1.7,1.72,1.7,1.71,173000
2016-09-15,1.71,1.78,1.71,1.78,413000
2016-09-19,1.75,1.82,1.73,1.8,3232000
2016-09-20,1.81,1.82,1.72,1.82,4592000
2016-09-21,1.81,1.82,1.75,1.79,2482000
2016-09-22,1.8,1.88,1.75,1.78,3155000
2016-09-23,1.78,1.78,1.74,1.76,2258000
2016-09-26,1.75,1.78,1.72,1.75,1081000
2016-09-27,1.74,1.77,1.73,1.75,2354000
2016-09-28,1.75,1.75,1.71,1.74,2687000
2016-09-29,1.74,1.74,1.72,1.73,92000
2016-09-30,1.71,1.72,1.71,1.72,300000
2016-10-03,1.76,1.76,1.71,1.72,207000
2016-10-04,1.73,1.73,1.7,1.72,377000
2016-10-05,1.71,1.73,1.71,1.72,209000
2016-10-06,1.73,1.74,1.71,1.73,482000
2016-10-07,1.73,1.76,1.73,1.74,351000
2016-10-11,1.74,1.8,1.72,1.74,3552000
2016-10-12,1.73,1.77,1.71,1.75,1644000
2016-10-13,1.75,1.77,1.69,1.71,1890000
2016-10-14,1.72,1.72,1.69,1.71,2048000
2016-10-17,1.7,1.71,1.65,1.68,2833000
2016-10-18,1.68,1.71,1.67,1.71,3118000
2016-10-19,1.7,1.71,1.67,1.68,971000
2016-10-20,1.68,1.7,1.62,1.62,4180000
2016-10-24,1.63,1.67,1.63,1.67,2509000
2016-10-25,1.68,1.69,1.65,1.68,510000
2016-10-26,1.69,1.69,1.65,1.68,1253000
2016-10-27,1.66,1.67,1.63,1.65,1443000
2016-10-28,1.65,1.66,1.62,1.63,1171000
2016-10-31,1.61,1.61,1.55,1.58,3163000
2016-11-01,1.57,1.6,1.56,1.6,1487000
2016-11-02,1.58,1.6,1.56,1.6,1155000
2016-11-03,1.58,1.6,1.53,1.57,1887000
2016-11-04,1.54,1.55,1.52,1.55,2324000
2016-11-07,1.56,1.58,1.52,1.57,2241446
2016-11-08,1.59,1.59,1.55,1.57,452000
2016-11-09,1.57,1.58,1.52,1.55,863000
2016-11-10,1.56,1.57,1.54,1.56,1171000
2016-11-11,1.54,1.54,1.51,1.53,2171000
2016-11-14,1.52,1.54,1.52,1.54,775000
2016-11-15,1.55,1.63,1.54,1.61,2088000
2016-11-16,1.61,1.61,1.57,1.6,2331000
2016-11-17,1.58,1.59,1.57,1.58,820000
2016-11-18,1.57,1.58,1.57,1.57,438000
2016-11-21,1.57,1.6,1.56,1.57,1743000
2016-11-22,1.57,1.59,1.56,1.59,1108000
2016-11-23,1.59,1.62,1.59,1.61,1108000
2016-11-24,1.6,1.62,1.59,1.6,429000
2016-11-25,1.6,1.62,1.57,1.6,1198000
2016-11-28,1.58,1.63,1.58,1.61,1048000
2016-11-29,1.61,1.65,1.61,1.63,1967000
2016-11-30,1.63,1.64,1.59,1.62,1993000
2016-12-01,1.62,1.62,1.58,1.59,1856474
2016-12-02,1.59,1.61,1.57,1.58,902000
2016-12-05,1.58,1.59,1.56,1.57,646000
2016-12-06,1.57,1.58,1.56,1.56,933000
2016-12-07,1.56,1.62,1.56,1.6,1980000
2016-12-08,1.61,1.62,1.59,1.59,951000
2016-12-09,1.6,1.6,1.56,1.56,510000
2016-12-12,1.56,1.56,1.52,1.53,1376000
2016-12-13,1.53,1.55,1.52,1.53,531000
2016-12-14,1.54,1.56,1.54,1.55,618000
2016-12-15,1.53,1.54,1.48,1.5,2075000
2016-12-16,1.49,1.53,1.48,1.48,1503572
2016-12-19,1.48,1.5,1.47,1.47,1269000
2016-12-20,1.46,1.5,1.46,1.48,963000
2016-12-21,1.48,1.55,1.47,1.53,2159000
2016-12-22,1.53,1.53,1.46,1.48,1055000
2016-12-23,1.47,1.48,1.45,1.47,2644000
2016-12-28,1.47,1.47,1.44,1.45,1262000
2016-12-29,1.47,1.48,1.46,1.48,860558
2016-12-30,1.49,1.52,1.47,1.49,994000
2017-01-03,1.49,1.51,1.47,1.48,401000
2017-01-04,1.55,1.55,1.48,1.49,720000
2017-01-05,1.51,1.54,1.51,1.54,3269000
2017-01-06,1.54,1.55,1.49,1.5,1408314
2017-01-09,1.5,1.5,1.47,1.49,3151000
2017-01-10,1.49,1.5,1.47,1.48,4703000
2017-01-11,1.48,1.49,1.47,1.47,1198000
2017-01-12,1.48,1.51,1.48,1.49,3398000
2017-01-13,1.49,1.51,1.46,1.48,2529000
2017-01-16,1.47,1.48,1.46,1.46,1707000
2017-01-17,1.46,1.47,1.4,1.44,3441000
2017-01-18,1.42,1.46,1.41,1.45,2990000
2017-01-19,1.43,1.45,1.42,1.42,2065000
2017-01-20,1.43,1.48,1.43,1.44,3999000
2017-01-23,1.45,1.6,1.44,1.58,21499000
2017-01-24,1.58,1.64,1.57,1.6,4918000
2017-01-25,1.6,1.66,1.6,1.64,1930000
2017-01-26,1.64,1.64,1.59,1.61,1719000
2017-01-27,1.59,1.64,1.59,1.64,747000
2017-02-01,1.64,1.66,1.6,1.66,1312862
2017-02-02,1.66,1.68,1.63,1.63,844000
2017-02-03,1.63,1.68,1.54,1.6,5761200
2017-02-06,1.61,1.66,1.6,1.64,2159000
2017-02-07,1.65,1.68,1.62,1.62,1012000
2017-02-08,1.62,1.64,1.61,1.62,2731000
2017-02-09,1.61,1.7,1.61,1.68,5049000
2017-02-10,1.67,1.72,1.67,1.72,2843000
2017-02-13,1.72,1.72,1.64,1.69,11076000
2017-02-14,1.69,1.69,1.66,1.68,2088000
2017-02-15,1.68,1.71,1.66,1.69,2554000
2017-02-16,1.67,1.69,1.66,1.69,2416000
2017-02-17,1.67,1.69,1.66,1.66,1494000
2017-02-20,1.65,1.68,1.64,1.64,1273000
2017-02-21,1.64,1.64,1.58,1.59,3345000
2017-02-22,1.6,1.62,1.58,1.59,3245000
2017-02-23,1.59,1.62,1.57,1.6,3671000
2017-02-24,1.6,1.62,1.56,1.59,3113000
2017-02-27,1.59,1.6,1.57,1.58,1666000
2017-02-28,1.59,1.59,1.55,1.56,1570000
2017-03-01,1.56,1.59,1.56,1.58,1276000
2017-03-02,1.57,1.59,1.57,1.59,1525000
2017-03-03,1.58,1.59,1.56,1.57,766000
2017-03-06,1.58,1.59,1.56,1.57,1201000
2017-03-07,1.56,1.59,1.56,1.57,1323000
2017-03-08,1.56,1.58,1.55,1.55,1915000
2017-03-09,1.55,1.57,1.52,1.55,3495000
2017-03-10,1.54,1.55,1.52,1.54,1599000
2017-03-13,1.56,1.6,1.56,1.57,855000
2017-03-14,1.58,1.58,1.49,1.57,1013000
2017-03-15,1.56,1.58,1.54,1.55,736000
2017-03-16,1.55,1.58,1.53,1.55,2815636
2017-03-17,1.55,1.57,1.51,1.55,3978000
2017-03-20,1.55,1.56,1.52,1.53,3217000
2017-03-21,1.54,1.55,1.51,1.55,3255000
2017-03-22,1.54,1.55,1.51,1.52,3000000
2017-03-23,1.53,1.53,1.51,1.51,3748000
2017-03-24,1.51,1.54,1.47,1.54,7201000
2017-03-27,1.53,1.53,1.48,1.5,3042000
2017-03-28,1.51,1.54,1.51,1.52,1645000
2017-03-29,1.55,1.55,1.51,1.51,758000
2017-03-30,1.52,1.53,1.48,1.51,472000
2017-03-31,1.52,1.53,1.47,1.48,1037000
2017-04-03,1.48,1.53,1.47,1.48,772000
2017-04-05,1.49,1.52,1.48,1.51,1225000
2017-04-06,1.51,1.52,1.49,1.5,1864000
2017-04-07,1.5,1.5,1.48,1.5,2566000
2017-04-10,1.5,1.51,1.49,1.5,1081000
2017-04-11,1.49,1.5,1.48,1.5,815000
2017-04-12,1.49,1.5,1.48,1.5,980000
2017-04-13,1.49,1.49,1.48,1.48,1111000
2017-04-18,1.49,1.49,1.41,1.46,2219000
2017-04-19,1.43,1.46,1.37,1.37,8848000
2017-04-20,1.38,1.39,1.37,1.37,2299000
2017-04-21,1.37,1.4,1.37,1.39,1250000
2017-04-24,1.39,1.39,1.34,1.34,2869000
2017-04-25,1.37,1.37,1.34,1.35,1739000
2017-04-26,1.35,1.38,1.34,1.37,3052000
2017-04-27,1.36,1.37,1.35,1.36,1150000
2017-04-28,1.36,1.36,1.35,1.36,596000
2017-05-02,1.36,1.36,1.29,1.32,7015000
2017-05-04,1.32,1.33,1.31,1.32,1508000
2017-05-05,1.34,1.34,1.3,1.32,615000
2017-05-08,1.33,1.34,1.31,1.33,166000
2017-05-09,1.33,1.36,1.32,1.34,624000
2017-05-10,1.33,1.36,1.32,1.33,860000
2017-05-11,1.34,1.36,1.31,1.33,1074000
2017-05-12,1.33,1.33,1.3,1.3,497000
2017-05-15,1.32,1.32,1.3,1.31,476000
2017-05-16,1.32,1.32,1.3,1.32,2071000
2017-05-17,1.32,1.35,1.32,1.35,1375000
2017-05-18,1.33,1.35,1.33,1.34,617000
2017-05-19,1.33,1.38,1.33,1.36,2553000
2017-05-22,1.37,1.44,1.37,1.44,2151000
2017-05-23,1.43,1.44,1.41,1.43,767999
2017-05-24,1.42,1.43,1.38,1.42,606000
2017-05-25,1.42,1.44,1.42,1.44,28000
2017-05-26,1.45,1.45,1.38,1.4,183000
2017-05-29,1.4,1.41,1.39,1.41,300000
2017-05-31,1.41,1.42,1.32,1.35,1371000
2017-06-01,1.36,1.4,1.36,1.37,3616000
2017-06-02,1.37,1.46,1.37,1.45,1352000
2017-06-05,1.48,1.51,1.41,1.49,2791000
2017-06-06,1.55,1.55,1.47,1.5,793000
2017-06-07,1.44,1.52,1.4,1.44,12022000
2017-06-08,1.43,1.52,1.38,1.5,6961000
2017-06-09,1.54,1.54,1.49,1.5,916714
2017-06-12,1.53,1.54,1.44,1.51,5118000
2017-06-13,1.46,1.52,1.46,1.5,201000
2017-06-14,1.53,1.53,1.48,1.48,400100
2017-06-15,1.5,1.5,1.47,1.48,217000
2017-06-16,1.46,1.52,1.46,1.52,1131000
2017-06-19,1.57,1.57,1.48,1.5,140000
2017-06-20,1.54,1.54,1.49,1.5,88000
2017-06-21,1.5,1.5,1.48,1.49,172000
2017-06-22,1.49,1.52,1.48,1.48,332000
2017-06-23,1.48,1.5,1.45,1.48,401000
2017-06-26,1.48,1.53,1.48,1.53,514000
2017-06-27,1.48,1.53,1.48,1.51,98000
2017-06-28,1.51,1.52,1.46,1.5,893000
2017-06-29,1.47,1.49,1.46,1.47,358000
2017-06-30,1.48,1.51,1.48,1.51,3115000
2017-07-03,1.51,1.51,1.51,1.51,2000
2017-07-04,1.51,1.51,1.46,1.5,264000
2017-07-05,1.5,1.5,1.48,1.49,32000
2017-07-06,1.49,1.49,1.47,1.47,200000
2017-07-07,1.46,1.47,1.45,1.47,160000
2017-07-10,1.47,1.47,1.45,1.46,717000
2017-07-11,1.44,1.47,1.44,1.44,441000
2017-07-12,1.45,1.45,1.4,1.42,407000
2017-07-13,1.42,1.42,1.4,1.41,433000
2017-07-14,1.41,1.43,1.41,1.42,121000
2017-07-17,1.41,1.43,1.4,1.4,350000
2017-07-18,1.41,1.41,1.39,1.39,1698000
2017-07-19,1.45,1.45,1.4,1.4,683000
2017-07-20,1.4,1.45,1.4,1.4,903000
2017-07-21,1.4,1.42,1.39,1.41,1804000
2017-07-24,1.39,1.41,1.39,1.41,1033000
2017-07-25,1.42,1.42,1.4,1.42,234000
2017-07-26,1.41,1.43,1.4,1.41,90000
2017-07-27,1.39,1.41,1.39,1.41,156000
2017-07-28,1.39,1.42,1.39,1.4,101000
2017-07-31,1.39,1.45,1.39,1.41,1549000
2017-08-01,1.39,1.41,1.39,1.4,1207000
2017-08-02,1.4,1.42,1.4,1.41,299000
2017-08-03,1.38,1.44,1.38,1.44,671000
2017-08-04,1.57,1.62,1.47,1.48,5127000
2017-08-07,1.44,1.47,1.4,1.43,2456000
2017-08-08,1.43,1.46,1.43,1.43,206000
2017-08-09,1.42,1.45,1.42,1.44,303000
2017-08-10,1.5,1.5,1.38,1.43,329000
2017-08-11,1.4,1.44,1.38,1.4,1641000
2017-08-14,1.42,1.42,1.4,1.41,48000
2017-08-15,1.41,1.44,1.28,1.43,2637000
2017-08-16,1.43,1.44,1.41,1.42,78000
2017-08-17,1.41,1.43,1.4,1.42,125000
2017-08-18,1.39,1.41,1.39,1.4,87000
2017-08-21,1.4,1.41,1.4,1.4,95000
2017-08-22,1.4,1.47,1.39,1.45,3674000
2017-08-24,1.46,1.47,1.4,1.46,3303000
2017-08-25,1.44,1.5,1.44,1.49,7593000
2017-08-28,1.5,1.58,1.45,1.58,4704000
2017-08-29,1.57,1.59,1.55,1.56,3818000
2017-08-30,1.51,1.58,1.43,1.47,6389000
2017-08-31,1.44,1.56,1.44,1.51,4955000
2017-09-01,1.52,1.58,1.51,1.54,1773000
2017-09-04,1.52,1.56,1.51,1.52,3602000
2017-09-05,1.53,1.57,1.48,1.49,2410000
2017-09-06,1.55,1.55,1.48,1.48,501000
2017-09-07,1.47,1.51,1.47,1.49,1100000
2017-09-08,1.52,1.52,1.48,1.49,442000
2017-09-11,1.49,1.49,1.49,1.49,18065
2017-09-12,1.5,1.51,1.49,1.5,744000
2017-09-13,1.5,1.52,1.5,1.51,482000
2017-09-14,1.51,1.52,1.48,1.51,1565000
2017-09-15,1.5,1.54,1.5,1.54,471000
2017-09-18,1.49,1.52,1.46,1.51,391000
2017-09-19,1.51,1.53,1.47,1.5,284000
2017-09-20,1.5,1.51,1.48,1.5,651000
2017-09-21,1.5,1.5,1.47,1.49,415000
2017-09-22,1.48,1.51,1.46,1.47,333000
2017-09-25,1.47,1.5,1.44,1.46,510000
2017-09-26,1.48,1.5,1.48,1.48,2152000
2017-09-27,1.48,1.55,1.48,1.53,1443000
2017-09-28,1.53,1.55,1.53,1.55,74000
2017-09-29,1.55,1.66,1.55,1.66,1905000
2017-10-03,1.71,1.71,1.64,1.71,1285000
2017-10-04,1.72,1.73,1.7,1.71,570000
2017-10-06,1.7,1.74,1.65,1.69,2883000
2017-10-09,1.62,1.67,1.62,1.64,3351000
2017-10-10,1.7,1.71,1.63,1.69,3600000
2017-10-11,1.69,1.69,1.66,1.67,1834000
2017-10-12,1.68,1.74,1.67,1.71,1505000
2017-10-13,1.71,1.77,1.7,1.73,1939000
2017-10-16,1.71,1.75,1.71,1.71,581000
2017-10-17,1.7,1.75,1.7,1.72,2081000
2017-10-18,1.65,1.76,1.63,1.74,3161000
2017-10-19,1.74,1.74,1.7,1.71,2535000
2017-10-20,1.67,1.75,1.66,1.73,3791000
2017-10-23,1.71,1.8,1.7,1.75,5218000
2017-10-24,1.8,1.86,1.73,1.8,11717000
2017-10-25,1.79,1.82,1.77,1.8,4317000
2017-10-26,1.8,1.83,1.79,1.79,789000
2017-10-27,1.79,1.81,1.75,1.77,1694000
2017-10-30,1.77,1.77,1.71,1.75,532000
2017-10-31,1.75,1.81,1.74,1.75,720000
2017-11-01,1.75,1.75,1.71,1.71,2718000
2017-11-02,1.71,1.73,1.61,1.72,1452000
2017-11-03,1.67,1.71,1.66,1.69,522000
2017-11-06,1.64,1.69,1.64,1.69,86000
2017-11-07,1.69,1.69,1.56,1.66,9138188
2017-11-08,1.68,1.68,1.61,1.61,330000
2017-11-09,1.64,1.65,1.6,1.64,1760000
2017-11-10,1.61,1.66,1.56,1.62,7376000
2017-11-13,1.58,1.64,1.57,1.57,5908000
2017-11-14,1.59,1.6,1.55,1.59,691000
2017-11-15,1.58,1.62,1.54,1.6,1326000
2017-11-16,1.58,1.6,1.58,1.6,439000
2017-11-17,1.6,1.6,1.55,1.55,1873000
2017-11-20,1.54,1.58,1.48,1.56,572000
2017-11-21,1.56,1.56,1.53,1.56,494000
2017-11-22,1.56,1.59,1.53,1.59,441000
2017-11-23,1.59,1.61,1.56,1.6,738000
2017-11-24,1.6,1.66,1.56,1.65,1890000
2017-11-27,1.66,1.66,1.58,1.61,511000
2017-11-28,1.61,1.61,1.55,1.56,727000
2017-11-29,1.55,1.55,1.52,1.54,382000
2017-11-30,1.53,1.56,1.51,1.54,2554000
2017-12-01,1.55,1.55,1.49,1.52,970000
2017-12-04,1.5,1.55,1.5,1.55,412000
2017-12-05,1.5,1.53,1.49,1.5,214000
2017-12-06,1.5,1.5,1.44,1.49,1161000
2017-12-07,1.45,1.52,1.43,1.52,1613000
2017-12-08,1.52,1.53,1.47,1.5,128000
2017-12-11,1.5,1.51,1.45,1.51,755000
2017-12-12,1.49,1.52,1.48,1.52,310000
2017-12-13,1.52,1.59,1.5,1.56,558000
2017-12-14,1.52,1.54,1.5,1.52,265000
2017-12-15,1.52,1.54,1.47,1.54,1137000
2017-12-18,1.49,1.53,1.49,1.52,94000
2017-12-19,1.52,1.53,1.5,1.53,361000
2017-12-20,1.51,1.53,1.49,1.53,685000
2017-12-21,1.55,1.55,1.53,1.54,795000
2017-12-22,1.54,1.55,1.5,1.54,1498000
2017-12-27,1.54,1.55,1.49,1.54,1400000
2017-12-28,1.54,1.55,1.48,1.5,456000
2017-12-29,1.48,1.52,1.48,1.5,720406
2018-01-02,1.5,1.52,1.49,1.51,516000
2018-01-03,1.49,1.51,1.47,1.5,674000
2018-01-04,1.5,1.51,1.47,1.5,1175000
2018-01-05,1.48,1.5,1.47,1.5,1121000
2018-01-08,1.49,1.49,1.45,1.47,3228000
2018-01-09,1.4340000000000002,1.454,1.4040000000000001,1.4240000000000002,4319000
2018-01-10,1.4140000000000001,1.4340000000000002,1.3940000000000001,1.4340000000000002,1537000
2018-01-11,1.4240000000000002,1.473,1.4240000000000002,1.454,1754000
2018-01-12,1.454,1.464,1.4340000000000002,1.454,958000
2018-01-15,1.4340000000000002,1.454,1.4240000000000002,1.4340000000000002,982000
2018-01-16,1.444,1.454,1.4240000000000002,1.454,2784000
2018-01-17,1.454,1.454,1.4240000000000002,1.444,1826000
2018-01-18,1.4240000000000002,1.444,1.4240000000000002,1.4340000000000002,5236000
2018-01-19,1.444,1.464,1.4340000000000002,1.454,2808600
2018-01-22,1.483,1.483,1.4340000000000002,1.464,1445000
2018-01-23,1.493,1.5130000000000001,1.493,1.5030000000000001,5240000
2018-01-24,1.5130000000000001,1.5619999999999998,1.5030000000000001,1.5619999999999998,1786000
2018-01-25,1.5619999999999998,1.5719999999999998,1.5130000000000001,1.5230000000000001,1296000
2018-01-26,1.5230000000000001,1.5330000000000001,1.483,1.5130000000000001,780000
2018-01-29,1.5130000000000001,1.5230000000000001,1.493,1.5130000000000001,738000
2018-01-30,1.5330000000000001,1.5430000000000001,1.483,1.5230000000000001,970000
2018-01-31,1.493,1.5030000000000001,1.473,1.5030000000000001,850000
2018-02-01,1.5030000000000001,1.5330000000000001,1.473,1.5030000000000001,1731000
2018-02-02,1.5030000000000001,1.5030000000000001,1.464,1.483,777000
2018-02-05,1.464,1.464,1.4140000000000001,1.4240000000000002,1527000
2018-02-06,1.4040000000000001,1.4040000000000001,1.335,1.365,2093000
2018-02-07,1.315,1.375,1.295,1.325,1724000
2018-02-08,1.355,1.375,1.315,1.335,3435804
2018-02-09,1.315,1.315,1.177,1.206,6699000
2018-02-12,1.216,1.305,1.206,1.295,2218000
2018-02-13,1.266,1.315,1.266,1.315,91000
2018-02-14,1.315,1.345,1.305,1.345,628000
2018-02-15,1.315,1.355,1.246,1.355,135000
2018-02-20,1.345,1.345,1.325,1.335,303000
2018-02-21,1.335,1.365,1.335,1.345,625000
2018-02-22,1.335,1.454,1.335,1.3940000000000001,1666000
2018-02-23,1.4340000000000002,1.473,1.4140000000000001,1.444,3091000
2018-02-26,1.4240000000000002,1.464,1.375,1.375,4242000
2018-02-27,1.375,1.3840000000000001,1.365,1.3840000000000001,466000
2018-02-28,1.3840000000000001,1.3940000000000001,1.375,1.375,888000
2018-03-01,1.375,1.375,1.345,1.355,962400
2018-03-02,1.335,1.355,1.305,1.355,1495000
2018-03-05,1.355,1.3840000000000001,1.305,1.365,392000
2018-03-06,1.375,1.444,1.365,1.4040000000000001,1597000
2018-03-07,1.4340000000000002,1.473,1.4340000000000002,1.473,3145000
2018-03-08,1.483,1.5819999999999999,1.483,1.5619999999999998,7525000
2018-03-09,1.5430000000000001,1.5819999999999999,1.5130000000000001,1.5819999999999999,1649000
2018-03-12,1.5719999999999998,1.641,1.5719999999999998,1.641,2180000
2018-03-13,1.6219999999999999,1.75,1.6219999999999999,1.7209999999999999,6877000
2018-03-14,1.78,1.8,1.7209999999999999,1.7209999999999999,5358000
2018-03-15,1.7109999999999999,1.77,1.7109999999999999,1.75,2823000
2018-03-16,1.74,1.829,1.7209999999999999,1.8,5362000
2018-03-19,1.8,1.81,1.74,1.78,3055000
2018-03-20,1.77,1.869,1.76,1.849,2344000
2018-03-21,1.849,1.859,1.8,1.829,3562000
2018-03-22,1.829,1.849,1.76,1.77,2018000
2018-03-23,1.7009999999999998,1.78,1.6909999999999998,1.73,2662000
2018-03-26,1.7009999999999998,1.7109999999999999,1.681,1.6909999999999998,1256000
2018-03-27,1.78,1.78,1.681,1.6909999999999998,1859000
2018-03-28,1.651,1.7209999999999999,1.641,1.7109999999999999,1119000
2018-03-29,1.74,1.81,1.73,1.79,2646000
2018-04-03,1.79,1.9380000000000002,1.75,1.849,6468000
2018-04-04,1.909,1.9180000000000001,1.849,1.859,1586000
2018-04-06,1.81,1.879,1.81,1.829,1778000
2018-04-09,1.819,1.899,1.81,1.859,4450000
2018-04-10,1.859,1.899,1.829,1.829,2566000
2018-04-11,1.829,1.879,1.819,1.839,3902000
2018-04-12,1.829,1.859,1.76,1.79,4680000
2018-04-13,1.8,1.829,1.76,1.76,5145000
2018-04-16,1.75,1.8,1.7209999999999999,1.76,1757000
2018-04-17,1.76,1.78,1.74,1.77,390000
2018-04-18,1.76,1.79,1.75,1.76,1442000
2018-04-19,1.78,1.78,1.681,1.681,7469000
2018-04-20,1.74,1.74,1.681,1.7009999999999998,1152000
2018-04-23,1.7109999999999999,1.74,1.7009999999999998,1.73,167000
2018-04-24,1.73,1.79,1.73,1.79,257000
2018-04-25,1.77,1.78,1.75,1.77,132000
2018-04-26,1.78,1.78,1.75,1.76,76000
2018-04-27,1.75,1.77,1.74,1.77,148000
2018-04-30,1.77,1.77,1.74,1.76,117000
2018-05-02,1.79,1.8,1.76,1.79,474000
2018-05-03,1.79,1.79,1.74,1.76,410000
2018-05-04,1.76,1.76,1.7109999999999999,1.74,339000
2018-05-07,1.7209999999999999,1.76,1.5819999999999999,1.76,434000
2018-05-08,1.79,1.8,1.651,1.74,670000
2018-05-09,1.75,1.76,1.651,1.671,1112000
2018-05-10,1.681,1.76,1.681,1.75,400000
2018-05-11,1.76,1.76,1.7209999999999999,1.73,1079000
2018-05-14,1.7209999999999999,1.75,1.7209999999999999,1.74,979000
2018-05-15,1.75,1.78,1.7209999999999999,1.74,668000
2018-05-16,1.73,1.77,1.73,1.77,604076
2018-05-17,1.75,1.839,1.7209999999999999,1.8,3603000
2018-05-18,1.8,2.037,1.8,1.9680000000000002,9618000
2018-05-21,2.017,2.096,1.9380000000000002,1.9480000000000002,6129000
2018-05-23,1.9580000000000002,2.126,1.9580000000000002,2.077,12986000
2018-05-24,2.126,2.126,1.9980000000000002,2.057,3371000
2018-05-25,2.057,2.077,1.9680000000000002,1.9880000000000002,2429000
2018-05-28,1.9280000000000002,1.9880000000000002,1.879,1.9180000000000001,3164000
2018-05-29,1.9380000000000002,1.9480000000000002,1.79,1.81,5131000
2018-05-30,1.8,1.829,1.7109999999999999,1.819,3824000
2018-05-31,1.819,1.899,1.819,1.899,2252000
2018-06-01,1.909,1.909,1.839,1.849,683000
2018-06-04,1.859,1.9280000000000002,1.829,1.839,866000
2018-06-05,1.849,1.879,1.829,1.839,1048000
2018-06-06,1.859,1.859,1.78,1.819,1020000
2018-06-07,1.869,1.869,1.8,1.8,1201000
2018-06-08,1.81,1.81,1.76,1.8,1378000
2018-06-11,1.79,1.81,1.76,1.78,1204000
2018-06-12,1.839,1.889,1.8,1.849,3303000
2018-06-13,1.849,1.9280000000000002,1.839,1.9180000000000001,1343000
2018-06-14,1.9280000000000002,2.0069999999999997,1.9280000000000002,1.9380000000000002,1404000
2018-06-15,1.9480000000000002,1.9880000000000002,1.899,1.9380000000000002,784000
2018-06-19,1.899,1.899,1.75,1.78,3516000
2018-06-20,1.78,1.839,1.76,1.81,533859
2018-06-21,1.78,1.81,1.76,1.78,235000
2018-06-22,1.78,1.79,1.75,1.76,432000
2018-06-25,1.76,1.78,1.74,1.74,1255000
2018-06-26,1.77,1.78,1.74,1.78,1223000
2018-06-27,1.79,1.79,1.75,1.77,1184000
2018-06-28,1.76,1.78,1.7209999999999999,1.77,856000
2018-06-29,1.76,1.8,1.74,1.76,564000
2018-07-03,1.76,1.76,1.7109999999999999,1.73,998000
2018-07-04,1.73,1.73,1.7009999999999998,1.7109999999999999,221000
2018-07-05,1.7109999999999999,1.73,1.681,1.7109999999999999,428000
2018-07-06,1.7209999999999999,1.7209999999999999,1.641,1.7109999999999999,279000
2018-07-09,1.73,1.73,1.6909999999999998,1.7209999999999999,252000
2018-07-10,1.73,1.73,1.5819999999999999,1.661,834000
2018-07-11,1.661,1.661,1.5719999999999998,1.5719999999999998,901000
2018-07-12,1.5819999999999999,1.5919999999999999,1.5030000000000001,1.5619999999999998,1273000
2018-07-13,1.5619999999999998,1.5719999999999998,1.5330000000000001,1.5619999999999998,358000
2018-07-16,1.5330000000000001,1.5619999999999998,1.5030000000000001,1.5230000000000001,1002000
2018-07-17,1.493,1.5230000000000001,1.493,1.5030000000000001,269000
2018-07-18,1.5130000000000001,1.5230000000000001,1.5130000000000001,1.5230000000000001,64000
2018-07-19,1.5519999999999998,1.5619999999999998,1.5130000000000001,1.5519999999999998,468800
2018-07-20,1.5519999999999998,1.5519999999999998,1.5230000000000001,1.5430000000000001,285000
2018-07-23,1.5619999999999998,1.671,1.5619999999999998,1.6019999999999999,649200
2018-07-24,1.5430000000000001,1.6119999999999999,1.5430000000000001,1.5919999999999999,230000
2018-07-25,1.5919999999999999,1.6019999999999999,1.5819999999999999,1.5819999999999999,66000
2018-07-26,1.5919999999999999,1.641,1.5919999999999999,1.6019999999999999,203000
2018-07-30,1.5519999999999998,1.5919999999999999,1.5330000000000001,1.5430000000000001,96000
2018-07-31,1.5619999999999998,1.5619999999999998,1.5619999999999998,1.5619999999999998,1000
2018-08-01,1.5619999999999998,1.5719999999999998,1.5030000000000001,1.5330000000000001,168000
2018-08-02,1.5330000000000001,1.5330000000000001,1.483,1.5230000000000001,104000
2018-08-03,1.5230000000000001,1.5619999999999998,1.4040000000000001,1.493,937000
2018-08-06,1.4340000000000002,1.6019999999999999,1.4240000000000002,1.464,734000
2018-08-07,1.454,1.473,1.454,1.464,596000
2018-08-08,1.464,1.5330000000000001,1.444,1.464,1604000
2018-08-09,1.454,1.464,1.444,1.444,269000
2018-08-10,1.464,1.464,1.4340000000000002,1.4340000000000002,78000
2018-08-13,1.454,1.454,1.4340000000000002,1.454,237000
2018-08-14,1.454,1.473,1.375,1.454,440000
2018-08-15,1.4340000000000002,1.444,1.3840000000000001,1.444,569000
2018-08-16,1.3840000000000001,1.444,1.375,1.444,2977000
2018-08-17,1.4340000000000002,1.483,1.3940000000000001,1.473,906000
2018-08-20,1.473,1.473,1.3840000000000001,1.444,608000
2018-08-21,1.444,1.493,1.444,1.493,45000
2018-08-22,1.5030000000000001,1.5030000000000001,1.464,1.483,57000
2018-08-23,1.483,1.5130000000000001,1.4240000000000002,1.473,207000
2018-08-24,1.493,1.493,1.483,1.483,38000
2018-08-27,1.464,1.483,1.464,1.473,158000
2018-08-28,1.473,1.5330000000000001,1.444,1.483,491000
2018-08-29,1.493,1.5230000000000001,1.493,1.5030000000000001,144000
2018-08-30,1.5519999999999998,1.5819999999999999,1.493,1.5330000000000001,320000
2018-08-31,1.5819999999999999,1.5819999999999999,1.483,1.5619999999999998,213000
2018-09-03,1.6119999999999999,1.6119999999999999,1.5130000000000001,1.5619999999999998,80300
2018-09-04,1.5619999999999998,1.5619999999999998,1.5030000000000001,1.5430000000000001,26000
2018-09-05,1.5430000000000001,1.5430000000000001,1.5330000000000001,1.5330000000000001,2000
2018-09-06,1.5030000000000001,1.5330000000000001,1.473,1.5130000000000001,127000
2018-09-07,1.5130000000000001,1.5230000000000001,1.483,1.493,26000
2018-09-10,1.464,1.5130000000000001,1.464,1.5030000000000001,385000
2018-09-11,1.5030000000000001,1.5430000000000001,1.5030000000000001,1.5430000000000001,138000
2018-09-12,1.5430000000000001,1.5430000000000001,1.483,1.483,164000
2018-09-13,1.5030000000000001,1.5130000000000001,1.473,1.483,112000
2018-09-14,1.493,1.5230000000000001,1.464,1.493,78000
2018-09-17,1.5130000000000001,1.5230000000000001,1.493,1.5030000000000001,107000
2018-09-18,1.3940000000000001,1.483,1.355,1.444,586000
2018-09-19,1.483,1.493,1.444,1.483,111000
2018-09-20,1.5330000000000001,1.5330000000000001,1.444,1.473,23000
2018-09-21,1.483,1.5819999999999999,1.483,1.5719999999999998,198000
2018-09-24,1.5719999999999998,1.5719999999999998,1.5619999999999998,1.5719999999999998,4000
2018-09-26,1.493,1.5619999999999998,1.444,1.473,1049000
2018-09-27,1.454,1.454,1.454,1.454,10000
2018-09-28,1.454,1.483,1.454,1.454,119000
2018-10-03,1.454,1.493,1.454,1.473,56000
2018-10-04,1.464,1.493,1.464,1.483,46000
2018-10-05,1.444,1.464,1.375,1.4340000000000002,275000
2018-10-08,1.454,1.483,1.4340000000000002,1.464,681000
2018-10-09,1.4140000000000001,1.473,1.4140000000000001,1.444,17150
2018-10-10,1.4340000000000002,1.4340000000000002,1.345,1.4340000000000002,10008
2018-10-11,1.4240000000000002,1.444,1.3840000000000001,1.4140000000000001,255000
2018-10-12,1.4340000000000002,1.444,1.3840000000000001,1.444,1127000
2018-10-15,1.444,1.464,1.4340000000000002,1.4340000000000002,197000
2018-10-16,1.3840000000000001,1.4240000000000002,1.3840000000000001,1.4040000000000001,12000
2018-10-18,1.3840000000000001,1.3840000000000001,1.335,1.355,169000
2018-10-19,1.365,1.365,1.226,1.355,120000
2018-10-22,1.365,1.4340000000000002,1.355,1.375,176000
2018-10-23,1.4240000000000002,1.4240000000000002,1.305,1.315,33000
2018-10-24,1.3940000000000001,1.3940000000000001,1.286,1.375,356000
2018-10-25,1.315,1.355,1.305,1.345,292000
2018-10-26,1.345,1.375,1.305,1.325,643000
2018-10-29,1.335,1.365,1.286,1.345,91000
2018-10-30,1.315,1.315,1.276,1.276,180000
2018-10-31,1.295,1.3840000000000001,1.286,1.335,484000
2018-11-01,1.335,1.335,1.276,1.305,656000
2018-11-02,1.325,1.355,1.305,1.345,902000
2018-11-06,1.335,1.335,1.315,1.335,26000
2018-11-07,1.276,1.276,1.276,1.315,1000
2018-11-08,1.305,1.325,1.305,1.305,115000
2018-11-09,1.345,1.365,1.305,1.335,440000
2018-11-12,1.305,1.335,1.305,1.335,31000
2018-11-13,1.4340000000000002,1.4340000000000002,1.335,1.375,119000
2018-11-14,1.325,1.375,1.325,1.345,98000
2018-11-16,1.335,1.4040000000000001,1.335,1.345,56000
2018-11-20,1.345,1.355,1.315,1.325,163000
2018-11-21,1.295,1.375,1.286,1.345,102000
2018-11-22,1.345,1.355,1.345,1.355,31000
2018-11-23,1.295,1.345,1.286,1.345,74000
2018-11-26,1.345,1.4040000000000001,1.345,1.375,126000
2018-11-27,1.375,1.4240000000000002,1.375,1.3940000000000001,124000
2018-11-29,1.295,1.3940000000000001,1.286,1.345,301000
2018-11-30,1.315,1.315,1.315,1.315,55000
2018-12-03,1.365,1.4140000000000001,1.315,1.375,232000
2018-12-05,1.4240000000000002,1.4240000000000002,1.365,1.3940000000000001,75000
2018-12-06,1.3840000000000001,1.3840000000000001,1.305,1.315,38000
2018-12-07,1.315,1.375,1.286,1.315,168000
2018-12-10,1.286,1.355,1.286,1.335,87000
2018-12-11,1.295,1.355,1.295,1.345,267000
2018-12-12,1.345,1.345,1.315,1.335,503000
2018-12-13,1.335,1.355,1.335,1.345,386000
2018-12-14,1.325,1.325,1.286,1.325,362000
2018-12-17,1.335,1.3840000000000001,1.335,1.345,441000
2018-12-18,1.345,1.3840000000000001,1.335,1.355,1283000
2018-12-19,1.3840000000000001,1.3840000000000001,1.345,1.3840000000000001,91000
2018-12-21,1.3840000000000001,1.3840000000000001,1.276,1.325,751541
2018-12-24,1.325,1.355,1.305,1.355,73000
2018-12-27,1.365,1.3840000000000001,1.365,1.375,145000
2018-12-28,1.375,1.3840000000000001,1.375,1.3840000000000001,230000
2018-12-31,1.3840000000000001,1.4140000000000001,1.3840000000000001,1.3840000000000001,38000
2019-01-04,1.286,1.365,1.286,1.345,130000
2019-01-07,1.3840000000000001,1.3840000000000001,1.365,1.365,158000
2019-01-08,1.365,1.3840000000000001,1.345,1.365,48000
2019-01-09,1.355,1.375,1.345,1.365,124000
2019-01-10,1.315,1.365,1.295,1.365,197000
2019-01-11,1.305,1.335,1.295,1.325,288000
2019-01-14,1.305,1.325,1.305,1.315,213000
2019-01-15,1.305,1.335,1.295,1.305,625000
2019-01-16,1.315,1.325,1.256,1.256,2034000
2019-01-17,1.236,1.276,1.236,1.276,101000
2019-01-18,1.286,1.295,1.286,1.286,221000
2019-01-21,1.295,1.295,1.256,1.276,566000
2019-01-22,1.286,1.286,1.246,1.266,574000
2019-01-23,1.295,1.335,1.266,1.276,304000
2019-01-24,1.276,1.286,1.276,1.286,22000
2019-01-25,1.286,1.305,1.266,1.295,37000
2019-01-28,1.315,1.315,1.315,1.315,18000
2019-01-29,1.315,1.335,1.286,1.295,222000
2019-01-30,1.295,1.305,1.295,1.305,54000
2019-01-31,1.315,1.335,1.295,1.295,70836
2019-02-01,1.315,1.335,1.315,1.325,23000
2019-02-08,1.345,1.345,1.335,1.345,87000
2019-02-11,1.305,1.325,1.295,1.305,747000
2019-02-12,1.286,1.345,1.266,1.276,411000
2019-02-13,1.276,1.325,1.266,1.286,644000
2019-02-14,1.305,1.305,1.236,1.256,1920000
2019-02-15,1.246,1.276,1.226,1.236,820000
2019-02-18,1.226,1.276,1.226,1.256,982000
2019-02-19,1.276,1.286,1.266,1.276,870000
2019-02-20,1.266,1.305,1.256,1.276,1834000
2019-02-21,1.276,1.325,1.256,1.266,1292000
2019-02-22,1.295,1.295,1.266,1.276,4175000
2019-02-25,1.286,1.295,1.266,1.286,1683000
2019-02-26,1.295,1.295,1.266,1.276,521000
2019-02-27,1.266,1.276,1.236,1.236,1332000
2019-02-28,1.226,1.305,1.226,1.256,6022500
2019-03-01,1.266,1.335,1.256,1.305,2692000
2019-03-04,1.305,1.315,1.266,1.276,2084500
2019-03-05,1.286,1.315,1.256,1.286,874000
2019-03-06,1.305,1.305,1.276,1.286,623000
2019-03-07,1.295,1.295,1.206,1.226,2923000
2019-03-08,1.236,1.246,1.196,1.196,5881000
2019-03-11,1.196,1.236,1.127,1.137,2487000
2019-03-12,1.137,1.167,1.068,1.127,3788000
2019-03-13,1.088,1.157,1.088,1.157,518000
2019-03-14,1.137,1.157,1.088,1.0979999999999999,912000
2019-03-15,1.117,1.266,1.107,1.117,19598956
2019-03-18,1.226,1.226,1.127,1.137,1698000
2019-03-19,1.137,1.147,1.127,1.127,411000
2019-03-20,1.127,1.157,1.0979999999999999,1.137,337000
2019-03-21,1.137,1.137,1.088,1.107,719000
2019-03-22,1.137,1.137,1.078,1.088,1210000
2019-03-25,1.147,1.147,1.068,1.0979999999999999,1092000
2019-03-26,1.147,1.147,1.078,1.088,871000
2019-03-27,1.157,1.157,1.058,1.068,2419000
2019-03-28,1.068,1.137,1.048,1.068,2663000
2019-03-29,1.068,1.157,1.048,1.058,7574000
2019-04-01,1.038,1.088,1.028,1.038,3657000
2019-04-02,1.038,1.038,1.0090000000000001,1.018,1855000
2019-04-03,1.0090000000000001,1.048,0.9990000000000001,1.038,1177000
2019-04-04,1.038,1.038,1.0090000000000001,1.028,1845000
2019-04-08,1.028,1.068,1.028,1.038,7082000
2019-04-09,1.038,1.068,1.038,1.068,7292000
2019-04-10,1.078,1.147,1.058,1.147,4094000
2019-04-11,1.137,1.157,1.107,1.127,1037000
2019-04-12,1.127,1.157,1.127,1.137,855000
2019-04-15,1.137,1.157,1.127,1.137,401000
2019-04-16,1.137,1.137,1.117,1.127,481000
2019-04-17,1.117,1.157,1.107,1.137,760000
2019-04-18,1.177,1.177,1.127,1.127,1202000
2019-04-23,1.117,1.117,1.078,1.0979999999999999,682000
2019-04-24,1.068,1.0979999999999999,1.068,1.078,435000
2019-04-25,1.068,1.088,1.048,1.078,582000
2019-04-26,1.137,1.137,1.068,1.068,199000
2019-04-29,1.137,1.137,1.038,1.068,671000
2019-04-30,1.058,1.068,1.048,1.058,211000
2019-05-02,1.058,1.0979999999999999,1.058,1.088,89000
2019-05-03,1.107,1.107,1.078,1.078,38000
2019-05-06,1.068,1.078,1.0090000000000001,1.028,855000
2019-05-07,1.028,1.058,1.0090000000000001,1.0090000000000001,1010000
2019-05-08,1.0090000000000001,1.068,0.9990000000000001,1.038,1792000
2019-05-09,1.0090000000000001,1.0090000000000001,0.9690000000000001,0.9690000000000001,808000
2019-05-10,0.9890000000000001,1.0090000000000001,0.9890000000000001,1.0090000000000001,213000
2019-05-14,0.9890000000000001,1.0090000000000001,0.9690000000000001,0.9890000000000001,239000
2019-05-15,0.9990000000000001,0.9990000000000001,0.9690000000000001,0.9990000000000001,294000
2019-05-16,1.0090000000000001,1.018,0.9990000000000001,0.9990000000000001,243000
2019-05-17,0.9990000000000001,1.018,0.9790000000000001,0.9790000000000001,421000
2019-05-20,0.9890000000000001,0.9890000000000001,0.9590000000000001,0.9590000000000001,534000
2019-05-21,0.9590000000000001,0.9790000000000001,0.9390000000000001,0.9490000000000001,609000
2019-05-22,0.9690000000000001,0.9790000000000001,0.9490000000000001,0.9490000000000001,238000
2019-05-23,0.929,0.9390000000000001,0.91,0.92,493000
2019-05-24,0.9,0.92,0.9,0.91,157000
2019-05-27,0.92,0.92,0.9,0.91,212000
2019-05-28,0.89,0.9390000000000001,0.88,0.9,649000
2019-05-29,0.88,0.92,0.85,0.87,945000
2019-05-30,0.9390000000000001,0.9390000000000001,0.86,0.89,507000
2019-05-31,0.87,0.929,0.87,0.9,88000
2019-06-03,0.92,1.048,0.91,0.9890000000000001,1043000
2019-06-04,1.018,1.117,0.9890000000000001,1.088,4259000
2019-06-05,1.107,1.117,1.0090000000000001,1.018,958000
2019-06-06,1.018,1.048,0.9890000000000001,1.018,1554000
2019-06-10,0.9890000000000001,0.9990000000000001,0.9590000000000001,0.9790000000000001,1521000
2019-06-11,0.9890000000000001,1.068,0.9790000000000001,1.0090000000000001,1333000
2019-06-12,1.03,1.06,1.0,1.04,3043000
2019-06-13,1.12,1.12,1.03,1.05,159000
2019-06-14,1.04,1.08,1.04,1.07,1113000
2019-06-17,1.06,1.08,1.04,1.07,290000
2019-06-18,1.04,1.11,1.04,1.07,741000
2019-06-19,1.07,1.08,1.05,1.06,248000
2019-06-20,1.04,1.09,1.04,1.08,279000
2019-06-21,1.08,1.15,1.06,1.11,3046000
2019-06-24,1.12,1.12,1.08,1.1,388000
2019-06-25,1.11,1.15,1.09,1.13,1671000
2019-06-26,1.12,1.15,1.1,1.14,346000
2019-06-27,1.17,1.21,1.14,1.15,2452000
2019-06-28,1.14,1.14,1.11,1.14,656000
2019-07-02,1.14,1.18,1.13,1.14,253000
2019-07-03,1.15,1.18,1.15,1.18,13000
2019-07-04,1.18,1.18,1.13,1.14,281000
2019-07-05,1.14,1.16,1.13,1.14,276000
2019-07-08,1.14,1.15,1.13,1.13,69000
2019-07-09,1.12,1.16,1.06,1.12,438000
2019-07-10,1.15,1.15,1.12,1.13,1371000
2019-07-11,1.13,1.15,1.11,1.15,1659000
2019-07-12,1.12,1.16,1.12,1.12,559000
2019-07-15,1.12,1.12,1.1,1.1,264000
2019-07-16,1.06,1.09,1.04,1.06,338000
2019-07-17,1.12,1.12,1.12,1.08,1000
2019-07-18,1.08,1.1,1.06,1.1,13000
2019-07-19,1.07,1.1,1.05,1.07,13000
2019-07-22,1.08,1.08,1.03,1.03,756000
2019-07-23,1.05,1.06,1.03,1.04,260000
2019-07-24,1.04,1.07,1.04,1.07,145000
2019-07-25,1.15,1.15,1.03,1.05,348000
2019-07-26,1.05,1.06,1.03,1.04,88000
2019-07-29,1.1,1.1,1.03,1.03,30000
2019-07-30,1.03,1.09,1.02,1.03,110000
2019-08-01,1.02,1.03,1.02,1.02,14000
2019-08-02,1.05,1.05,1.02,1.02,102000
2019-08-05,0.96,0.96,0.94,0.94,106000
2019-08-06,0.93,0.93,0.92,0.92,36000
2019-08-07,0.93,0.97,0.92,0.96,74000
2019-08-08,0.96,1.0,0.92,0.96,265000
2019-08-12,0.92,0.92,0.92,0.92,36000
2019-08-13,0.98,0.98,0.9,0.94,171000
2019-08-14,0.93,0.93,0.92,0.92,66000
2019-08-15,0.92,0.95,0.92,0.95,4000
2019-08-20,0.95,0.95,0.94,0.94,1772387
2019-08-21,0.94,0.94,0.92,0.92,22000
2019-08-22,0.9,1.02,0.9,0.93,82000
2019-08-23,0.99,1.0,0.97,0.97,4511000
2019-08-26,0.93,0.94,0.93,0.93,27000
2019-08-27,0.99,1.0,0.93,1.0,99000
2019-08-28,0.93,1.01,0.93,0.98,251000
2019-08-29,0.95,0.99,0.93,0.96,69000
2019-08-30,0.96,0.97,0.95,0.96,75000
2019-09-02,0.97,0.98,0.95,0.97,87000
2019-09-04,0.95,1.0,0.93,1.0,46000
2019-09-05,1.0,1.0,0.93,0.93,95000
2019-09-06,0.94,1.03,0.94,0.97,46000
2019-09-09,0.95,1.02,0.95,0.98,26000
2019-09-11,0.95,0.97,0.95,0.95,176000
2019-09-12,0.95,0.99,0.93,0.94,42000
2019-09-13,0.93,0.95,0.93,0.94,10000
2019-09-16,0.96,0.98,0.94,0.94,128000
2019-09-17,0.97,1.0,0.93,0.95,230000
2019-09-18,0.97,1.02,0.95,0.97,21000
2019-09-19,0.96,0.99,0.94,0.94,107000
2019-09-20,0.95,0.96,0.94,0.95,66000
2019-09-23,0.96,0.96,0.93,0.94,60000
2019-09-24,0.94,0.98,0.91,0.91,209000
2019-09-25,0.91,0.91,0.84,0.84,631000
2019-09-26,0.85,0.86,0.82,0.82,308000
2019-09-27,0.84,0.9,0.84,0.89,244000
2019-09-30,0.88,0.9,0.87,0.87,299000
2019-10-02,0.88,0.95,0.87,0.88,163000
2019-10-03,0.88,0.94,0.88,0.89,41000
2019-10-04,0.89,0.89,0.87,0.88,300000
2019-10-08,0.86,0.89,0.84,0.89,372593
2019-10-09,0.86,0.9,0.86,0.89,15000
2019-10-10,0.86,0.89,0.86,0.87,208000
2019-10-11,0.88,0.9,0.86,0.89,216000
2019-10-14,0.89,0.91,0.89,0.91,86000
2019-10-15,0.87,0.9,0.86,0.86,29000
2019-10-16,0.88,0.95,0.88,0.92,49000
2019-10-17,0.92,0.93,0.88,0.88,77000
2019-10-22,0.88,0.95,0.88,0.88,16000
2019-10-23,0.87,0.88,0.87,0.87,213000
2019-10-24,0.87,0.88,0.86,0.86,201000
2019-10-25,0.91,0.91,0.86,0.86,16000
2019-10-28,0.87,0.88,0.85,0.88,3435000
2019-10-29,0.88,0.88,0.88,0.88,20000
2019-10-30,0.88,0.88,0.85,0.86,130000
2019-10-31,0.85,0.86,0.85,0.85,68000
2019-11-01,0.85,0.85,0.83,0.85,163000
2019-11-04,0.83,0.85,0.82,0.83,37000
2019-11-05,0.85,0.9,0.83,0.84,160000
2019-11-06,0.83,0.86,0.83,0.85,113000
2019-11-08,0.84,0.85,0.81,0.84,230000
2019-11-11,0.83,0.83,0.83,0.83,13000
2019-11-13,0.81,0.82,0.81,0.81,53000
2019-11-14,0.81,0.86,0.8,0.82,120000
2019-11-15,0.81,0.81,0.8,0.8,652000
2019-11-18,0.76,0.8,0.75,0.76,755000
2019-11-19,0.74,0.75,0.74,0.74,180000
2019-11-20,0.72,0.73,0.72,0.73,202000
2019-11-21,0.71,0.73,0.71,0.72,409000
2019-11-22,0.72,0.75,0.7,0.7,614000
2019-11-25,0.72,0.74,0.71,0.72,125000
2019-11-26,0.71,0.72,0.68,0.69,941000
2019-11-27,0.69,0.72,0.67,0.72,1364000
2019-11-29,0.72,0.72,0.7,0.7,21000
2019-12-02,0.7,0.72,0.69,0.72,445000
2019-12-03,0.7,0.75,0.7,0.7,22000
2019-12-05,0.7,0.7,0.7,0.7,148000
2019-12-06,0.71,0.74,0.7,0.71,29000
2019-12-09,0.74,0.74,0.71,0.71,12000
2019-12-10,0.71,0.74,0.7,0.7,77000
2019-12-12,0.72,0.73,0.7,0.7,256000
2019-12-13,0.71,0.74,0.66,0.7,5784451
2019-12-17,0.71,0.72,0.7,0.7,1008000
2019-12-18,0.71,0.75,0.7,0.7,65000
2019-12-19,0.7,0.7,0.7,0.7,78000
2019-12-20,0.7,0.7,0.7,0.7,89000
2019-12-23,0.7,0.7,0.69,0.7,3701000
2019-12-24,0.69,0.7,0.62,0.7,4431000
2019-12-27,0.7,0.71,0.69,0.71,109000
2019-12-30,0.7,0.71,0.7,0.7,170000
2020-01-03,0.7,0.74,0.7,0.72,128000
2020-01-06,0.76,0.76,0.71,0.71,89000
2020-01-07,0.71,0.71,0.69,0.71,289000
2020-01-08,0.69,0.73,0.69,0.73,98000
2020-01-09,0.71,0.72,0.71,0.72,157000
2020-01-10,0.75,0.86,0.73,0.82,1070000
2020-01-13,0.82,0.82,0.76,0.8,693000
2020-01-14,0.78,0.8,0.77,0.78,211000
2020-01-15,0.77,0.77,0.73,0.74,198000
2020-01-16,0.76,0.8,0.74,0.8,67000
2020-01-17,0.75,0.76,0.74,0.74,378000
2020-01-20,0.75,0.75,0.68,0.68,1609000
2020-01-21,0.7,0.7,0.67,0.69,99000
2020-01-22,0.69,0.69,0.66,0.69,92000
2020-01-30,0.67,0.72,0.67,0.68,101000
2020-01-31,0.67,0.7,0.67,0.67,97000
2020-02-03,0.65,0.69,0.64,0.65,54000
2020-02-04,0.65,0.65,0.61,0.62,33000
2020-02-05,0.64,0.66,0.6,0.63,223000
2020-02-06,0.63,0.66,0.63,0.64,61000
2020-02-10,0.63,0.64,0.57,0.6,1377000
2020-02-11,0.59,0.6,0.58,0.6,190000
2020-02-12,0.61,0.64,0.61,0.63,22000
2020-02-13,0.62,0.68,0.58,0.66,2905000
2020-02-14,0.68,0.68,0.63,0.63,417000
2020-02-17,0.68,0.68,0.61,0.62,169000
2020-02-19,0.62,0.64,0.62,0.62,29000
2020-02-20,0.62,0.62,0.61,0.61,126000
2020-02-21,0.64,0.66,0.62,0.62,256000
2020-02-24,0.63,0.63,0.61,0.61,114000
2020-02-25,0.61,0.63,0.6,0.62,98000
2020-02-27,0.62,0.63,0.62,0.62,4000
2020-02-28,0.6,0.61,0.58,0.6,580000
2020-03-02,0.6,0.65,0.6,0.62,71000
2020-03-03,0.6,0.64,0.55,0.6,866000
2020-03-04,0.59,0.59,0.58,0.58,112000
2020-03-05,0.59,0.65,0.59,0.65,27000
2020-03-09,0.6,0.62,0.58,0.62,1109000
2020-03-10,0.6,0.61,0.58,0.6,138000
2020-03-11,0.6,0.61,0.59,0.6,65000
2020-03-12,0.59,0.6,0.53,0.6,535000
2020-03-13,0.6,0.61,0.53,0.6,585000
2020-03-16,0.57,0.58,0.55,0.56,265000
2020-03-17,0.55,0.58,0.52,0.53,695000
2020-03-18,0.53,0.55,0.53,0.53,69000
2020-03-19,0.53,0.57,0.46,0.53,54000
2020-03-20,0.53,0.53,0.5,0.5,133000
2020-03-23,0.51,0.51,0.47,0.5,36000
2020-03-24,0.51,0.53,0.47,0.49,243000
2020-03-25,0.485,0.52,0.46,0.49,610000
2020-03-26,0.52,0.52,0.485,0.485,2045000
2020-03-27,0.49,0.51,0.49,0.495,247000
2020-03-30,0.5,0.5,0.48,0.495,159000
2020-03-31,0.57,0.57,0.495,0.5,4356000
2020-04-01,0.495,0.53,0.495,0.51,573000
2020-04-02,0.51,0.56,0.49,0.495,819000
2020-04-03,0.5,0.52,0.49,0.5,368000
2020-04-06,0.5,0.5,0.49,0.5,5024000
2020-04-07,0.51,0.51,0.49,0.49,1195000
2020-04-08,0.49,0.495,0.48,0.49,236000
2020-04-09,0.5,0.56,0.495,0.495,966000
2020-04-14,0.5,0.5,0.49,0.49,1112000
2020-04-15,0.495,0.495,0.485,0.485,757000
2020-04-16,0.485,0.49,0.47,0.485,981000
2020-04-17,0.475,0.49,0.475,0.48,287000
2020-04-20,0.495,0.495,0.475,0.475,1232000
2020-04-21,0.475,0.485,0.475,0.48,600000
2020-04-22,0.485,0.485,0.455,0.48,332000
2020-04-23,0.46,0.48,0.45,0.47,665000
2020-04-24,0.455,0.465,0.445,0.455,868000
2020-04-27,0.46,0.465,0.445,0.465,1053000
2020-04-28,0.45,0.465,0.445,0.45,1508000
2020-04-29,0.45,0.465,0.445,0.445,530000
2020-05-04,0.45,0.465,0.44,0.445,309000
2020-05-05,0.445,0.445,0.44,0.44,415000
2020-05-06,0.445,0.47,0.44,0.45,347000
2020-05-07,0.455,0.46,0.45,0.45,35000
2020-05-08,0.45,0.455,0.445,0.445,206000
2020-05-11,0.45,0.455,0.445,0.45,891000
2020-05-12,0.45,0.455,0.44,0.45,68000
2020-05-13,0.45,0.465,0.45,0.46,3686000
2020-05-14,0.46,0.465,0.445,0.45,5856000
2020-05-15,0.45,0.45,0.445,0.445,500000
2020-05-18,0.45,0.45,0.445,0.445,670000
2020-05-19,0.45,0.46,0.445,0.445,655000
2020-05-20,0.45,0.45,0.445,0.45,356000
2020-05-21,0.45,0.455,0.445,0.455,1144000
2020-05-22,0.455,0.46,0.435,0.44,657000
2020-05-25,0.44,0.445,0.43,0.445,413000
2020-05-26,0.445,0.46,0.44,0.46,1761000
2020-05-27,0.45,0.46,0.445,0.45,86000
2020-05-28,0.45,0.455,0.44,0.455,1540000
2020-05-29,0.44,0.45,0.44,0.45,483000
2020-06-01,0.45,0.48,0.44,0.45,2484000
2020-06-02,0.45,0.46,0.45,0.45,975000
2020-06-03,0.45,0.46,0.45,0.45,4759000
2020-06-04,0.45,0.465,0.45,0.465,4716000
2020-06-05,0.465,0.475,0.455,0.46,1700000
2020-06-08,0.47,0.475,0.46,0.465,655000
2020-06-09,0.465,0.49,0.465,0.49,6229000
2020-06-10,0.49,0.54,0.48,0.52,5755000
2020-06-11,0.52,0.54,0.49,0.54,3983000
2020-06-12,0.52,0.55,0.49,0.53,5565000
2020-06-15,0.53,0.54,0.52,0.53,6419000
2020-06-16,0.54,0.54,0.53,0.54,2583000
2020-06-17,0.54,0.54,0.52,0.53,1149000
2020-06-18,0.53,0.54,0.52,0.52,3149000
2020-06-19,0.52,0.53,0.52,0.53,1182000
2020-06-22,0.53,0.54,0.51,0.51,3103000
2020-06-23,0.51,0.51,0.495,0.51,982000
2020-06-24,0.5,0.51,0.495,0.5,952000
2020-06-26,0.5,0.52,0.5,0.52,265000
2020-06-29,0.52,0.52,0.49,0.495,1239000
2020-06-30,0.5,0.51,0.5,0.51,1056000
2020-07-02,0.5,0.51,0.5,0.51,351000
2020-07-03,0.51,0.52,0.5,0.52,1349000
2020-07-06,0.52,0.58,0.52,0.55,1702000
2020-07-07,0.54,0.57,0.53,0.55,1192000
2020-07-08,0.53,0.58,0.52,0.56,2121000
2020-07-09,0.55,0.58,0.55,0.56,1285000
2020-07-10,0.55,0.58,0.55,0.55,1031000
2020-07-13,0.55,0.57,0.53,0.56,2093000
2020-07-14,0.55,0.57,0.55,0.55,4927000
2020-07-15,0.55,0.56,0.55,0.55,766000
2020-07-16,0.55,0.56,0.54,0.56,1037000
2020-07-17,0.55,0.55,0.54,0.55,482000
2020-07-20,0.56,0.57,0.55,0.57,5566000
2020-07-21,0.57,0.65,0.57,0.57,5907000
2020-07-22,0.57,0.59,0.57,0.57,4915000
2020-07-23,0.58,0.58,0.57,0.57,257000
2020-07-24,0.55,0.57,0.54,0.55,997000
2020-07-27,0.54,0.55,0.54,0.55,320000
2020-07-28,0.55,0.57,0.55,0.57,102000
2020-07-29,0.57,0.7,0.55,0.6,18975000
2020-07-30,0.57,0.6,0.57,0.57,1781000
2020-07-31,0.57,0.59,0.56,0.59,306000
2020-08-03,0.61,0.63,0.6,0.62,4273000
2020-08-04,0.63,0.65,0.59,0.63,16339000
2020-08-05,0.63,0.63,0.61,0.62,1800000
2020-08-06,0.62,0.63,0.61,0.62,4402000
2020-08-07,0.62,0.62,0.6,0.62,1108000
2020-08-10,0.62,0.62,0.6,0.6,1789000
2020-08-11,0.61,0.61,0.59,0.6,1032000
2020-08-12,0.59,0.61,0.56,0.58,1409000
2020-08-13,0.58,0.6,0.58,0.59,837000
2020-08-14,0.58,0.6,0.58,0.58,1028000
2020-08-17,0.58,0.59,0.56,0.58,1477000
2020-08-18,0.58,0.59,0.57,0.58,1767000
2020-08-19,0.59,0.59,0.57,0.59,1975000
2020-08-20,0.57,0.59,0.56,0.59,633000
2020-08-21,0.58,0.59,0.57,0.58,643000
2020-08-24,0.57,0.59,0.57,0.58,526000
2020-08-25,0.58,0.59,0.57,0.59,139000
