Date,High,Low,Open,Close,Volume
2020-03-12,0.18400000035762787,0.14800000190734866,0.16099999845027926,0.15000000596046448,259330000
2020-03-13,0.14399999380111694,0.1120000034570694,0.13500000536441806,0.1340000033378601,67220000
2020-03-16,0.17000000178813934,0.125,0.1340000033378601,0.13899999856948853,31000000
2020-03-17,0.1379999965429306,0.1379999965429306,0.1379999965429306,0.1379999965429306,0
2020-03-18,0.13699999451637268,0.125,0.12600000202655792,0.1330000013113022,4660000
2020-03-19,0.12700000405311584,0.1120000034570694,0.12600000202655792,0.119999997317791,5820000
2020-03-20,0.1550000011920929,0.119999997317791,0.12700000405311584,0.1379999965429306,9790000
2020-03-23,0.1589999943971634,0.12999999523162842,0.1379999965429306,0.14499999582767487,4440000
2020-03-24,0.15000000596046448,0.1379999965429306,0.1420000046491623,0.13899999856948853,1390000
2020-03-25,0.1589999943971634,0.14100000262260434,0.14100000262260434,0.14399999380111694,5460000
2020-03-26,0.14900000393390656,0.13699999451637268,0.1459999978542328,0.1430000066757202,1940000
2020-03-27,0.14499999582767487,0.1379999965429306,0.1430000066757202,0.14399999380111694,2330000
2020-03-30,0.14000000059604645,0.12800000607967374,0.13500000536441806,0.12800000607967374,3040000
2020-03-31,0.1379999965429306,0.12800000607967374,0.13099999725818634,0.1289999932050705,30840000
2020-04-01,0.1430000066757202,0.12800000607967374,0.1289999932050705,0.1340000033378601,6560000
2020-04-02,0.13899999856948853,0.12800000607967374,0.1340000033378601,0.1340000033378601,1400000
2020-04-03,0.13500000536441806,0.12800000607967374,0.12800000607967374,0.13099999725818634,2410000
2020-04-06,0.1340000033378601,0.12800000607967374,0.1340000033378601,0.1289999932050705,440000
2020-04-07,0.1330000013113022,0.12399999797344208,0.1330000013113022,0.1289999932050705,4530000
2020-04-08,0.13099999725818634,0.119999997317791,0.13099999725818634,0.119999997317791,2180000
2020-04-09,0.125,0.119999997317791,0.12200000137090684,0.12399999797344208,550000
2020-04-14,0.12399999797344208,0.11500000208616255,0.12399999797344208,0.12099999934434892,3600000
2020-04-15,0.12800000607967374,0.11800000071525575,0.11900000274181365,0.11900000274181365,1690000
2020-04-16,0.13500000536441806,0.1169999986886978,0.119999997317791,0.12300000339746475,7570000
2020-04-17,0.12800000607967374,0.119999997317791,0.12800000607967374,0.12200000137090684,1420000
2020-04-20,0.12600000202655792,0.12099999934434892,0.12600000202655792,0.12300000339746475,3170000
2020-04-21,0.12700000405311584,0.12099999934434892,0.12700000405311584,0.12300000339746475,490000
2020-04-22,0.12600000202655792,0.119999997317791,0.12200000137090684,0.119999997317791,680000
2020-04-23,0.12300000339746475,0.11800000071525575,0.12300000339746475,0.12200000137090684,1220000
2020-04-24,0.12700000405311584,0.11599999666213988,0.11800000071525575,0.12300000339746475,6370000
2020-04-27,0.15700000524520874,0.12399999797344208,0.12600000202655792,0.15700000524520874,54950000
2020-04-28,0.36000001430511475,0.16699999570846558,0.1679999977350235,0.36000001430511475,234370000
2020-04-29,0.4350000023841858,0.10899999737739564,0.3199999928474426,0.11599999666213988,857960000
2020-05-04,0.10999999940395357,0.0949999988079071,0.10300000011920928,0.0989999994635582,123130000
2020-05-05,0.119999997317791,0.0989999994635582,0.10000000149011612,0.10300000011920928,108030000
2020-05-06,0.1040000021457672,0.0949999988079071,0.10300000011920928,0.09600000083446504,43750000
2020-05-07,0.10000000149011612,0.090999998152256,0.09700000286102296,0.09399999678134917,18100000
2020-05-08,0.10100000351667404,0.090999998152256,0.09399999678134917,0.0949999988079071,26650000
2020-05-11,0.09799999743700027,0.08900000154972076,0.09799999743700027,0.090999998152256,29990000
2020-05-12,0.090999998152256,0.08399999886751175,0.090999998152256,0.08699999749660492,17540000
2020-05-13,0.09000000357627869,0.08100000023841858,0.08500000089406967,0.08299999684095383,15300000
2020-05-14,0.08299999684095383,0.07800000160932541,0.08299999684095383,0.07999999821186066,12900000
2020-05-15,0.08399999886751175,0.07599999755620956,0.08299999684095383,0.07999999821186066,7140000
2020-05-18,0.08100000023841858,0.07100000232458115,0.08100000023841858,0.0729999989271164,17100000
2020-05-19,0.07500000298023224,0.07000000029802322,0.07199999690055847,0.07100000232458115,13230000
2020-05-20,0.0729999989271164,0.06700000166893005,0.07199999690055847,0.07000000029802322,15000000
2020-05-21,0.07100000232458115,0.06599999964237213,0.07000000029802322,0.06700000166893005,16280000
2020-05-22,0.06700000166893005,0.059999998658895486,0.06499999761581421,0.06199999898672104,13350000
2020-05-25,0.06199999898672104,0.0560000017285347,0.06199999898672104,0.05799999833106995,13830000
2020-05-26,0.10000000149011612,0.05799999833106995,0.05799999833106995,0.09000000357627869,191580000
2020-05-27,0.1080000028014183,0.07999999821186066,0.08900000154972076,0.0820000022649765,168430000
2020-05-28,0.09000000357627869,0.07199999690055847,0.08799999952316284,0.07999999821186066,38660000
2020-05-29,0.10999999940395357,0.08100000023841858,0.08100000023841858,0.08299999684095383,140030000
2020-06-01,0.08799999952316284,0.07999999821186066,0.08900000154972076,0.08299999684095383,16310000
2020-06-02,0.0860000029206276,0.07599999755620956,0.0860000029206276,0.07699999958276749,15580000
2020-06-03,0.07999999821186066,0.07000000029802322,0.07699999958276749,0.07100000232458115,10260000
2020-06-04,0.08100000023841858,0.06800000369548798,0.07000000029802322,0.0729999989271164,12580000
2020-06-05,0.07800000160932541,0.06800000369548798,0.07500000298023224,0.07000000029802322,11170000
2020-06-08,0.08399999886751175,0.07000000029802322,0.07000000029802322,0.07100000232458115,29290000
2020-06-09,0.07199999690055847,0.06599999964237213,0.07199999690055847,0.0689999982714653,8270000
2020-06-10,0.07100000232458115,0.06700000166893005,0.06800000369548798,0.06700000166893005,7230000
2020-06-11,0.06700000166893005,0.06400000303983687,0.06599999964237213,0.06499999761581421,7960000
2020-06-12,0.07599999755620956,0.06400000303983687,0.06499999761581421,0.06700000166893005,29030000
2020-06-15,0.07199999690055847,0.06300000101327896,0.07199999690055847,0.06499999761581421,4380000
2020-06-16,0.06800000369548798,0.06499999761581421,0.06599999964237213,0.06599999964237213,4850000
2020-06-17,0.06599999964237213,0.059999998658895486,0.06599999964237213,0.06400000303983687,4820000
2020-06-18,0.06499999761581421,0.06300000101327896,0.06400000303983687,0.06400000303983687,2410000
2020-06-19,0.06700000166893005,0.06400000303983687,0.06400000303983687,0.06400000303983687,1680000
2020-06-22,0.06499999761581421,0.06199999898672104,0.06400000303983687,0.06400000303983687,3220000
2020-06-23,0.06499999761581421,0.061000000685453415,0.06199999898672104,0.06300000101327896,4320000
2020-06-24,0.06400000303983687,0.061000000685453415,0.06400000303983687,0.06400000303983687,2910000
2020-06-26,0.06499999761581421,0.061000000685453415,0.061000000685453415,0.06499999761581421,1890000
2020-06-29,0.07800000160932541,0.061000000685453415,0.06400000303983687,0.06800000369548798,31280000
2020-06-30,0.07000000029802322,0.06400000303983687,0.06800000369548798,0.06599999964237213,7150000
2020-07-02,0.06700000166893005,0.06499999761581421,0.06499999761581421,0.06700000166893005,1250000
2020-07-03,0.06700000166893005,0.06400000303983687,0.06700000166893005,0.06599999964237213,3210000
2020-07-06,0.0729999989271164,0.06400000303983687,0.06599999964237213,0.0689999982714653,4780000
2020-07-07,0.0689999982714653,0.06499999761581421,0.06599999964237213,0.06599999964237213,4130000
2020-07-08,0.06700000166893005,0.06300000101327896,0.06499999761581421,0.06499999761581421,2750000
2020-07-09,0.06599999964237213,0.061000000685453415,0.06599999964237213,0.06400000303983687,5880000
2020-07-10,0.06400000303983687,0.06199999898672104,0.06300000101327896,0.06300000101327896,3790000
2020-07-13,0.07100000232458115,0.06199999898672104,0.06300000101327896,0.06400000303983687,35050000
2020-07-14,0.06700000166893005,0.06300000101327896,0.06400000303983687,0.06599999964237213,10360000
2020-07-15,0.07599999755620956,0.06599999964237213,0.06599999964237213,0.0689999982714653,28920000
2020-07-16,0.06800000369548798,0.06199999898672104,0.06700000166893005,0.06300000101327896,7680000
2020-07-17,0.06499999761581421,0.06300000101327896,0.06300000101327896,0.06300000101327896,2700000
2020-08-25,0.052000001072883606,0.04800000041723251,0.052000001072883606,0.050999999046325684,15000
