Date,Open,High,Low,Close,Volume
2015-10-15,4.08,4.37,3.95,4.17,5140000
2015-10-16,4.21,4.25,3.93,3.98,1326000
2015-10-19,3.98,4.2,3.92,4.1,874000
2015-10-20,4.1,4.14,4.06,4.08,281000
2015-10-22,3.93,4.08,3.92,3.97,477000
2015-10-23,4.0,4.06,3.93,3.93,268000
2015-10-26,3.96,4.02,3.92,3.92,200000
2015-10-27,3.9,3.99,3.9,3.91,197000
2015-10-28,3.92,4.02,3.92,3.92,122000
2015-10-29,3.92,3.95,3.88,3.88,161000
2015-10-30,3.88,3.96,3.73,3.92,566000
2015-11-02,3.92,3.92,3.92,3.92,247000
2015-11-03,3.92,3.92,3.92,3.92,134000
2015-11-04,3.92,4.11,3.92,3.95,762000
2015-11-05,3.94,4.03,3.93,3.95,696000
2015-11-06,3.93,4.01,3.93,3.98,455000
2015-11-09,3.98,4.25,3.98,4.14,780000
2015-11-10,4.06,4.21,4.06,4.09,358000
2015-11-11,4.09,4.13,3.98,4.03,200000
2015-11-12,4.05,4.05,3.95,3.96,190000
2015-11-13,3.93,3.96,3.85,3.95,187000
2015-11-16,3.89,3.9,3.62,3.68,527000
2015-11-17,3.7,3.91,3.7,3.79,88000
2015-11-18,3.8,3.81,3.75,3.8,82000
2015-11-19,3.82,3.82,3.76,3.76,37000
2015-11-20,3.75,3.75,3.69,3.71,38000
2015-11-23,3.72,3.81,3.72,3.8,27000
2015-11-24,3.83,3.83,3.77,3.81,37000
2015-11-25,3.81,3.9,3.76,3.88,48000
2015-11-26,3.86,3.87,3.8,3.85,21000
2015-11-27,3.7,3.81,3.7,3.81,31000
2015-11-30,3.89,3.89,3.7,3.7,30000
2015-12-01,3.73,3.73,3.7,3.71,12000
2015-12-02,3.72,3.73,3.72,3.73,36000
2015-12-03,3.69,3.79,3.69,3.72,13000
2015-12-04,3.73,3.73,3.71,3.73,61000
2015-12-07,3.73,3.73,3.73,3.73,43000
2015-12-08,3.75,3.75,3.7,3.7,33000
2015-12-09,3.71,3.71,3.6,3.6,47000
2015-12-10,3.7,3.7,3.65,3.7,45000
2015-12-11,3.65,3.7,3.63,3.7,41000
2015-12-14,3.7,3.7,3.7,3.7,55000
2015-12-15,3.7,3.78,3.7,3.78,154000
2015-12-16,3.78,3.78,3.78,3.78,30000
2015-12-17,3.84,4.0,3.84,3.93,153000
2015-12-18,4.0,4.04,3.99,3.99,121000
2015-12-21,4.04,4.04,4.0,4.0,46000
2015-12-22,4.05,4.06,4.01,4.02,68000
2015-12-23,4.01,4.13,4.01,4.13,253000
2015-12-24,4.13,4.13,4.13,4.12,3000
2015-12-28,4.12,5.5,4.12,5.22,842000
2015-12-29,5.22,5.25,4.65,5.16,684000
2015-12-30,5.13,6.26,5.12,6.2,1609000
2015-12-31,6.05,7.09,5.7,7.0,1081000
2016-01-04,7.0,7.0,5.96,6.0,1057000
2016-01-05,5.94,6.0,5.5,5.68,596000
2016-01-06,5.59,5.59,5.2,5.48,74000
2016-01-07,5.3,5.3,4.4,4.43,249000
2016-01-08,4.42,4.87,4.4,4.5,586000
2016-01-11,4.28,4.48,4.0,4.1,110000
2016-01-12,4.2,4.49,4.01,4.06,417000
2016-01-13,4.15,4.2,4.01,4.01,298000
2016-01-14,3.9,4.0,3.7,4.0,294000
2016-01-15,3.9,3.99,3.75,3.86,35000
2016-01-18,3.7,4.3,3.7,4.08,83000
2016-01-19,4.08,4.32,4.08,4.1,38000
2016-01-20,4.15,4.15,3.9,3.9,45000
2016-01-21,3.84,3.91,3.84,3.88,53000
2016-01-22,4.08,4.08,4.08,4.08,1000
2016-01-25,4.07,4.07,4.07,4.07,28000
2016-01-26,4.07,4.07,3.7,3.81,85000
2016-01-27,3.75,3.75,3.65,3.65,215000
2016-01-28,3.88,3.88,3.65,3.8,204000
2016-01-29,3.8,4.02,3.65,3.65,255000
2016-02-01,3.65,3.8,3.65,3.7,58000
2016-02-02,3.8,3.89,3.66,3.8,258000
2016-02-03,3.8,3.8,3.68,3.68,49000
2016-02-04,3.84,3.84,3.69,3.69,38000
2016-02-05,3.7,3.7,3.67,3.67,105000
2016-02-11,3.7,3.7,3.38,3.38,46000
2016-02-12,3.38,3.38,2.63,3.34,29000
2016-02-15,3.34,3.9,3.34,3.83,48000
2016-02-16,3.83,3.85,3.83,3.82,47000
2016-02-17,3.85,3.85,3.85,3.85,2000
2016-02-18,3.83,3.85,3.6,3.85,96000
2016-02-19,3.6,3.6,3.49,3.5,493000
2016-02-22,3.5,3.65,3.33,3.35,282000
2016-02-23,3.35,3.44,3.24,3.3,281000
2016-02-25,3.26,3.26,3.19,3.19,95000
2016-02-26,3.08,3.09,3.06,3.08,85000
2016-02-29,3.01,3.4,3.0,3.0,28000
2016-03-01,3.0,3.11,2.89,3.11,80000
2016-03-02,3.1,3.4,3.1,3.35,371000
2016-03-03,3.2,3.28,3.2,3.21,14000
2016-03-04,3.21,3.3,3.17,3.18,82000
2016-03-07,3.2,3.2,3.2,3.2,47000
2016-03-08,3.1,3.1,3.09,3.1,161000
2016-03-09,3.11,3.11,3.11,3.11,1000
2016-03-10,3.1,3.1,3.1,3.1,17000
2016-03-11,3.04,3.05,3.04,3.05,24000
2016-03-14,3.05,3.1,3.03,3.06,112000
2016-03-16,3.06,3.06,3.0,3.0,13000
2016-03-17,3.01,3.03,2.85,2.9,113000
2016-03-18,3.05,3.05,2.98,3.0,835000
2016-03-21,3.03,3.28,2.9,3.12,2044000
2016-03-22,3.2,3.34,3.15,3.23,731000
2016-03-23,3.23,3.25,3.08,3.21,447000
2016-03-24,3.2,3.25,3.15,3.17,1201000
2016-03-29,3.31,3.5,3.26,3.3,1550000
2016-03-30,3.35,3.5,3.35,3.5,636000
2016-03-31,3.55,3.55,3.42,3.49,731000
2016-04-01,3.49,3.49,3.33,3.43,328000
2016-04-05,3.43,3.43,3.39,3.4,396000
2016-04-06,3.4,3.4,3.33,3.36,768000
2016-04-07,3.42,3.42,3.33,3.34,110000
2016-04-08,3.54,3.54,3.15,3.33,172000
2016-04-11,3.5,3.6,3.41,3.47,361000
2016-04-12,3.44,3.58,3.41,3.53,97000
2016-04-13,3.5,3.75,3.5,3.7,452000
2016-04-14,3.75,4.1,3.75,3.95,669000
2016-04-15,4.15,4.15,3.97,4.03,226000
2016-04-18,3.96,3.96,3.79,3.87,184000
2016-04-19,4.0,4.0,3.86,3.89,119000
2016-04-20,3.88,3.88,3.7,3.77,157000
2016-04-21,3.81,3.93,3.81,3.86,75000
2016-04-22,3.8,3.92,3.75,3.9,52000
2016-04-25,3.89,3.96,3.89,3.92,51000
2016-04-26,3.88,3.88,3.71,3.81,128000
2016-04-27,3.76,3.8,3.73,3.73,134000
2016-04-28,3.74,3.75,3.65,3.68,112000
2016-04-29,3.69,3.69,3.62,3.62,39000
2016-05-03,3.46,3.6,3.46,3.56,115000
2016-05-04,3.5,3.54,3.5,3.54,12000
2016-05-05,3.54,3.57,3.45,3.5,134000
2016-05-06,3.44,3.47,3.41,3.47,22000
2016-05-09,3.46,3.47,3.46,3.46,79000
2016-05-10,3.36,3.54,3.35,3.5,43000
2016-05-11,3.42,3.58,3.41,3.58,84000
2016-05-12,3.45,3.54,3.45,3.49,14000
2016-05-13,3.44,3.55,3.44,3.44,146000
2016-05-16,3.44,4.4,3.44,4.01,1755000
2016-05-17,4.08,4.15,3.8,3.95,503000
2016-05-18,3.91,3.91,3.8,3.84,91000
2016-05-19,3.89,3.91,3.71,3.75,63000
2016-05-20,3.72,3.9,3.72,3.81,111000
2016-05-23,3.87,3.87,3.8,3.8,57000
2016-05-25,3.8,3.83,3.71,3.75,21000
2016-05-26,3.74,3.74,3.72,3.72,25000
2016-05-27,3.72,3.85,3.72,3.84,38000
2016-05-30,3.89,3.96,3.87,3.96,169000
2016-05-31,3.97,4.07,3.97,4.01,229000
2016-06-01,3.98,3.98,3.96,3.98,0
2016-06-02,3.97,3.97,3.9,3.92,74000
2016-06-03,3.93,4.05,3.93,4.04,173000
2016-06-06,4.04,4.07,3.92,3.92,67000
2016-06-07,3.92,3.95,3.92,3.99,31000
2016-06-08,4.0,4.02,3.99,3.99,61000
2016-06-10,3.81,3.81,3.81,3.81,5000
2016-06-13,3.81,3.81,3.61,3.61,105000
2016-06-14,3.55,3.67,3.55,3.67,66000
2016-06-15,3.61,3.9,3.61,3.63,343000
2016-06-16,3.57,3.62,3.57,3.58,244000
2016-06-17,3.7,3.7,3.7,3.69,10000
2016-06-20,3.63,3.65,3.62,3.63,192000
2016-06-21,3.63,3.65,3.63,3.64,217000
2016-06-22,3.6,3.75,3.58,3.71,166000
2016-06-23,3.68,3.72,3.64,3.64,84000
2016-06-24,3.61,3.64,3.55,3.58,237000
2016-06-27,3.58,3.58,3.58,3.6,95000
2016-06-28,3.58,3.6,3.52,3.58,27000
2016-06-29,3.7,3.75,3.69,3.71,60000
2016-06-30,3.78,3.78,3.7,3.7,95000
2016-07-04,3.72,3.76,3.68,3.75,323000
2016-07-05,3.85,3.85,3.76,3.76,16000
2016-07-06,3.68,3.78,3.68,3.78,44000
2016-07-07,3.8,3.8,3.8,3.8,4000
2016-07-08,3.8,3.8,3.75,3.77,37000
2016-07-11,3.82,3.85,3.8,3.79,39000
2016-07-12,3.73,3.85,3.71,3.8,192000
2016-07-13,3.8,3.8,3.8,3.8,10000
2016-07-14,3.79,3.8,3.77,3.8,51000
2016-07-15,3.74,3.81,3.74,3.74,188000
2016-07-18,3.68,3.75,3.68,3.74,99000
2016-07-19,3.65,3.75,3.52,3.62,195000
2016-07-20,3.65,3.65,3.64,3.64,74000
2016-07-21,3.67,3.67,3.67,3.67,5000
2016-07-22,3.7,3.8,3.7,3.76,65000
2016-07-25,3.76,3.85,3.66,3.7,285000
2016-07-26,3.71,3.71,3.71,3.71,7000
2016-07-27,3.71,3.71,3.71,3.71,7000
2016-07-28,3.7,3.7,3.7,3.7,5000
2016-07-29,3.66,3.66,3.66,3.66,2000
2016-08-03,3.67,3.67,3.66,3.66,5000
2016-08-04,3.65,3.65,3.6,3.63,15000
2016-08-08,3.63,3.63,3.6,3.61,65000
2016-08-10,3.63,3.63,3.63,3.63,1000
2016-08-11,3.64,3.79,3.64,3.72,140000
2016-08-12,3.71,3.72,3.71,3.72,47000
2016-08-15,3.78,4.05,3.78,3.95,234000
2016-08-16,3.95,3.99,3.8,3.8,63000
2016-08-17,3.8,3.8,3.71,3.79,56000
2016-08-18,3.89,3.89,3.88,3.86,92000
2016-08-19,3.93,4.29,3.8,3.82,537000
2016-08-22,3.82,3.83,3.75,3.75,75000
2016-08-23,3.72,3.72,3.6,3.63,114000
2016-08-24,3.63,3.63,3.63,3.63,9000
2016-08-25,3.63,3.72,3.63,3.72,2000
2016-08-26,3.71,3.72,3.71,3.72,0
2016-08-29,3.71,3.72,3.69,3.72,0
2016-08-30,3.74,3.75,3.73,3.73,59000
2016-08-31,3.72,3.72,3.72,3.72,0
2016-09-02,3.65,3.65,3.58,3.59,49000
2016-09-05,3.59,3.72,3.59,3.71,24000
2016-09-06,3.72,3.81,3.71,3.76,134000
2016-09-07,3.71,3.74,3.71,3.74,4000
2016-09-08,3.75,3.75,3.74,3.74,106000
2016-09-09,3.84,4.1,3.81,3.88,335000
2016-09-12,3.65,3.79,3.6,3.75,52000
2016-09-13,3.75,3.75,3.75,3.75,20000
2016-09-14,3.76,3.76,3.65,3.67,52000
2016-09-15,3.84,3.84,3.84,3.75,2000
2016-09-19,3.66,3.75,3.61,3.69,52000
2016-09-20,3.64,3.64,3.6,3.61,103000
2016-09-21,3.59,3.66,3.59,3.66,47000
2016-09-22,3.66,3.73,3.66,3.72,168000
2016-09-23,3.62,3.66,3.61,3.61,36000
2016-09-27,3.6,3.6,3.58,3.6,24000
2016-09-28,3.6,3.6,3.6,3.6,8000
2016-09-29,3.62,3.64,3.62,3.64,0
2016-09-30,3.6,3.6,3.6,3.6,2000
2016-10-05,3.7,3.8,3.7,3.74,52000
2016-10-06,3.74,3.74,3.74,3.74,15000
2016-10-07,3.73,3.73,3.67,3.67,5900
2016-10-11,3.64,3.64,3.5,3.5,414000
2016-10-12,3.53,3.54,3.53,3.54,36000
2016-10-14,3.56,3.56,3.56,3.58,1000
2016-10-17,3.5,3.6,3.5,3.5,203000
2016-10-18,3.58,3.58,3.58,3.58,10000
2016-10-19,3.59,3.59,3.59,3.59,23000
2016-10-20,3.6,3.61,3.6,3.6,0
2016-10-24,3.6,3.6,3.55,3.55,15000
2016-10-25,3.5,3.61,3.5,3.6,22000
2016-10-26,3.59,3.59,3.59,3.58,2000
2016-10-27,3.56,3.57,3.56,3.56,26000
2016-11-01,3.56,3.6,3.46,3.6,79000
2016-11-02,3.59,3.59,3.59,3.59,0
2016-11-03,3.55,3.55,3.55,3.55,5000
2016-11-04,3.55,3.55,3.55,3.54,28000
2016-11-07,3.55,3.58,3.55,3.57,28000
2016-11-08,3.56,3.6,3.56,3.6,69000
2016-11-09,3.56,3.56,3.5,3.5,42000
2016-11-10,3.51,3.51,3.49,3.49,96000
2016-11-11,3.6,3.6,3.55,3.56,51000
2016-11-14,3.53,3.61,3.5,3.6,416000
2016-11-15,3.46,3.46,3.46,3.47,1000
2016-11-16,3.61,3.61,3.61,3.6,10000
2016-11-17,3.6,3.6,3.6,3.6,10000
2016-11-22,3.62,3.62,3.62,3.62,2000
2016-11-23,3.7,3.7,3.63,3.63,32000
2016-11-28,3.7,3.7,3.6,3.6,25000
2016-11-29,3.53,3.53,3.53,3.53,17000
2016-11-30,3.54,3.55,3.54,3.55,59000
2016-12-01,3.55,3.55,3.55,3.55,11000
2016-12-06,3.67,3.68,3.51,3.62,8000
2016-12-07,3.69,3.69,3.69,3.58,20000
2016-12-08,3.65,3.65,3.47,3.51,18000
2016-12-12,3.48,3.48,3.47,3.47,15000
2016-12-13,3.46,3.46,3.41,3.41,23000
2016-12-14,3.4,3.4,3.37,3.38,17000
2016-12-16,3.38,3.38,3.38,3.38,13000
2016-12-19,3.34,3.34,3.25,3.26,10000
2016-12-20,3.25,3.25,3.24,3.24,8000
2016-12-21,3.33,3.33,3.33,3.33,5000
2016-12-22,3.33,3.33,3.3,3.32,0
2016-12-23,3.3,3.3,3.29,3.3,0
2016-12-28,3.29,3.29,3.12,3.2,30000
2016-12-29,3.18,3.7,3.18,3.5,142000
2016-12-30,3.79,4.53,3.71,4.5,4421000
2017-01-03,4.45,4.45,3.7,3.7,662000
2017-01-04,3.65,3.65,3.45,3.45,1047000
2017-01-05,3.44,3.45,3.4,3.4,193000
2017-01-06,3.41,3.46,3.41,3.46,6001
2017-01-09,3.38,3.48,3.38,3.46,23000
2017-01-10,3.4,3.45,3.36,3.4,83000
2017-01-11,3.54,3.54,3.54,3.54,42000
2017-01-17,3.63,3.7,3.6,3.7,16000
2017-01-18,3.63,3.63,3.54,3.54,21000
2017-01-19,3.44,3.55,3.4,3.55,12000
2017-01-20,3.57,3.57,3.54,3.54,2000
2017-01-26,3.56,3.56,3.54,3.54,0
2017-01-27,3.55,3.55,3.51,3.51,3000
2017-02-01,3.15,3.5,3.15,3.5,13000
2017-02-02,3.25,3.5,3.25,3.5,39000
2017-02-03,3.31,3.4,3.28,3.34,353000
2017-02-07,3.42,3.47,3.33,3.45,124000
2017-02-08,3.5,3.51,3.45,3.45,41000
2017-02-09,3.45,3.56,3.45,3.55,67000
2017-02-10,3.55,3.55,3.32,3.4,73000
2017-02-13,3.4,3.4,3.38,3.38,34000
2017-02-14,3.42,3.42,3.33,3.33,62000
2017-02-15,3.34,3.39,3.34,3.39,15000
2017-02-16,3.49,3.5,3.35,3.35,21000
2017-02-17,3.49,3.58,3.43,3.43,208000
2017-02-20,3.46,3.54,3.46,3.54,9000
2017-02-21,3.56,3.58,3.5,3.52,149000
2017-02-22,3.55,3.55,3.55,3.55,10000
2017-02-23,3.56,3.56,3.42,3.42,31000
2017-02-24,3.5,3.5,3.5,3.48,10000
2017-02-27,3.4,3.4,3.4,3.4,12000
2017-02-28,3.4,3.4,3.4,3.4,6000
2017-03-01,3.49,3.49,3.38,3.38,18000
2017-03-02,3.49,3.51,3.49,3.5,21000
2017-03-03,3.39,3.39,3.36,3.36,47000
2017-03-06,3.48,3.48,3.47,3.4,13000
2017-03-08,3.36,3.43,3.33,3.42,37000
2017-03-09,3.41,3.42,3.41,3.42,0
2017-03-13,3.4,3.4,3.4,3.4,0
2017-03-14,3.33,3.38,3.3,3.38,113000
2017-03-15,3.36,3.36,3.36,3.34,5000
2017-03-16,3.34,3.56,3.32,3.45,602000
2017-03-17,3.46,3.46,3.4,3.4,30000
2017-03-20,3.56,3.56,3.5,3.5,32000
2017-03-21,3.5,3.56,3.38,3.4,118000
2017-03-22,3.35,3.35,3.35,3.35,23000
2017-03-23,3.5,3.5,3.49,3.5,166000
2017-03-24,3.49,3.5,3.43,3.5,0
2017-03-27,3.39,3.39,3.39,3.4,1000
2017-03-28,3.54,3.54,3.54,3.54,1000
2017-03-29,3.53,3.54,3.52,3.52,0
2017-03-30,3.51,3.52,3.51,3.52,3000
2017-04-06,3.43,3.43,3.43,3.46,10000
2017-04-07,3.48,3.48,3.47,3.47,27000
2017-04-10,3.43,3.43,3.36,3.36,87000
2017-04-11,3.33,3.33,3.21,3.3,66000
2017-04-12,3.26,3.29,3.26,3.29,25000
2017-04-13,3.28,3.28,3.28,3.28,5000
2017-04-19,3.27,3.27,3.21,3.21,30000
2017-04-20,3.21,3.21,3.21,3.21,20000
2017-04-25,3.17,3.21,3.05,3.05,148000
2017-04-26,3.1,3.11,3.05,3.1,203000
2017-04-27,3.18,3.18,3.18,3.18,1000
2017-04-28,3.17,3.18,3.16,3.16,0
2017-05-02,3.14,3.15,3.14,3.15,20000
2017-05-04,3.17,3.17,2.98,3.0,45000
2017-05-05,3.15,3.15,3.09,3.09,15000
2017-05-08,3.28,3.28,3.03,3.03,101000
2017-05-09,3.29,3.29,2.99,3.0,56000
2017-05-10,3.1,3.1,3.0,3.0,0
2017-05-11,3.01,3.01,3.0,3.0,0
2017-05-12,3.02,3.02,3.0,3.0,93000
2017-05-15,3.0,3.0,3.0,3.0,10000
2017-05-16,3.07,3.18,3.02,3.14,70000
2017-05-17,3.19,3.2,3.19,3.16,10000
2017-05-18,3.15,3.16,3.13,3.16,0
2017-05-23,3.03,3.03,3.03,3.04,1000
2017-05-24,3.03,3.03,3.02,3.02,0
2017-05-25,2.99,3.14,2.98,3.13,37000
2017-05-26,3.0,3.01,3.0,3.01,6000
2017-06-02,3.01,3.03,3.01,3.03,10000
2017-06-06,2.92,2.92,2.92,2.98,3000
2017-06-07,3.0,3.0,2.98,3.0,0
2017-06-08,3.14,3.14,3.14,3.14,2000
2017-06-09,3.09,3.09,3.08,3.08,24000
2017-06-12,2.9,2.99,2.9,2.98,21000
2017-06-13,2.98,2.98,2.98,2.98,18000
2017-06-14,2.99,2.99,2.98,2.98,0
2017-06-16,3.01,3.01,3.0,3.0,0
2017-06-20,2.99,2.99,2.99,2.99,0
2017-06-21,2.97,2.98,2.97,2.98,0
2017-06-22,2.91,2.91,2.89,2.9,42000
2017-06-23,2.9,2.9,2.9,2.9,10000
2017-06-26,2.86,2.86,2.84,2.85,458000
2017-06-27,2.87,2.87,2.85,2.87,117000
2017-06-28,2.81,2.81,2.81,2.81,12000
2017-06-29,2.81,2.81,2.8,2.8,42000
2017-07-03,2.81,2.82,2.8,2.81,53000
2017-07-04,2.8,2.81,2.75,2.75,46000
2017-07-05,2.75,2.75,2.72,2.72,290000
2017-07-06,2.72,2.72,2.7,2.7,17000
2017-07-07,2.7,2.7,2.63,2.64,203000
2017-07-10,2.62,2.62,2.6,2.58,60000
2017-07-11,2.58,2.65,2.58,2.65,60000
2017-07-12,2.73,2.73,2.73,2.73,50000
2017-07-13,2.7,2.7,2.7,2.7,1000
2017-07-14,2.74,2.75,2.7,2.7,75000
2017-07-17,2.7,2.7,2.7,2.7,1000
2017-07-20,2.88,2.9,2.81,2.82,292000
2017-07-21,2.82,2.82,2.82,2.82,1000
2017-07-25,2.74,2.9,2.74,2.77,61000
2017-07-26,2.74,2.74,2.73,2.73,22000
2017-07-27,2.74,2.74,2.74,2.74,101000
2017-07-31,2.8,2.8,2.8,2.8,30000
2017-08-01,2.72,2.72,2.72,2.72,1000
2017-08-02,2.76,2.81,2.76,2.8,65000
2017-08-03,2.8,2.81,2.7,2.71,338000
2017-08-04,2.71,2.71,2.71,2.77,5000
2017-08-07,2.71,2.71,2.71,2.71,2000
2017-08-08,2.71,2.71,2.71,2.71,22000
2017-08-09,2.69,2.69,2.69,2.69,28000
2017-08-10,2.69,2.69,2.62,2.63,1054000
2017-08-11,2.63,2.63,2.63,2.63,12000
2017-08-15,2.6,2.6,2.6,2.6,77000
2017-08-16,2.61,2.68,2.6,2.68,41000
2017-08-17,2.62,2.62,2.62,2.6,4000
2017-08-18,2.61,2.61,2.6,2.6,1000
2017-08-21,2.6,2.61,2.58,2.58,481000
2017-08-24,2.59,2.59,2.58,2.58,0
2017-08-25,2.6,2.87,2.6,2.87,42000
2017-08-28,2.7,2.86,2.66,2.68,537000
2017-08-29,2.62,2.62,2.62,2.65,10000
2017-08-30,2.71,2.72,2.71,2.72,4000
2017-08-31,2.71,2.8,2.71,2.71,255000
2017-09-01,2.72,2.72,2.72,2.72,10000
2017-09-04,2.75,2.75,2.74,2.75,86000
2017-09-06,2.72,2.72,2.72,2.75,6000
2017-09-07,2.76,2.76,2.76,2.76,6000
2017-09-08,2.77,2.78,2.76,2.78,0
2017-09-11,2.8,2.83,2.79,2.8,118000
2017-09-12,2.82,2.82,2.79,2.79,49000
2017-09-13,2.79,2.79,2.78,2.78,121000
2017-09-14,2.87,2.96,2.78,2.88,118000
2017-09-15,2.79,3.07,2.79,3.04,338000
2017-09-18,2.78,3.0,2.78,3.0,30000
2017-09-19,2.95,2.95,2.95,2.95,13000
2017-09-20,2.88,3.0,2.88,2.9,44000
2017-09-21,2.85,2.96,2.84,2.89,39000
2017-09-22,3.07,3.07,3.07,3.06,2000
2017-09-25,3.04,3.04,3.04,3.03,10000
2017-09-27,3.04,3.04,3.03,3.03,8000
2017-09-29,3.03,3.15,2.9,2.9,100000
2017-10-03,2.9,2.9,2.9,2.9,10000
2017-10-06,3.0,3.01,2.99,2.99,76000
2017-10-09,2.99,2.99,2.89,2.9,258000
2017-10-10,2.91,2.91,2.91,2.91,10000
2017-10-11,2.97,2.98,2.97,2.96,29000
2017-10-12,2.97,2.97,2.97,2.97,1000
2017-10-13,2.97,2.97,2.97,2.97,50000
2017-10-17,2.97,2.97,2.97,2.97,27000
2017-10-18,2.9,2.9,2.9,2.92,18000
2017-10-20,2.91,2.92,2.91,2.92,2000
2017-10-23,2.91,2.92,2.9,2.91,58000
2017-11-01,2.71,2.85,2.71,2.85,111000
2017-11-02,2.85,2.85,2.85,2.84,13000
2017-11-03,2.63,2.73,2.63,2.73,70000
2017-11-06,2.71,2.73,2.68,2.68,26000
2017-11-07,2.7,2.71,2.7,2.7,78000
2017-11-08,2.71,2.71,2.7,2.7,0
2017-11-13,2.69,2.7,2.68,2.7,31000
2017-11-14,2.69,2.69,2.69,2.69,1000
2017-11-15,2.68,2.69,2.68,2.69,68000
2017-11-16,2.69,2.69,2.65,2.65,26000
2017-11-17,2.64,2.64,2.63,2.65,47000
2017-11-20,2.66,2.66,2.64,2.66,43000
2017-11-21,2.67,2.67,2.61,2.63,204000
2017-11-22,2.69,2.69,2.69,2.69,3000
2017-11-24,2.75,2.8,2.75,2.75,55000
2017-11-29,2.75,2.76,2.5,2.54,63000
2017-11-30,2.56,2.76,2.56,2.76,130000
2017-12-01,2.65,2.68,2.65,2.65,25000
2017-12-04,2.97,2.97,2.56,2.75,140000
2017-12-05,2.75,2.75,2.75,2.75,1000
2017-12-06,2.7,2.7,2.66,2.66,18000
2017-12-07,2.66,2.66,2.62,2.63,24000
2017-12-08,2.8,2.8,2.68,2.7,245000
2017-12-11,2.98,2.98,2.73,2.8,51000
2017-12-12,2.88,2.89,2.72,2.73,265000
2017-12-13,2.73,2.75,2.73,2.75,0
2017-12-14,2.81,2.81,2.81,2.81,5000
2017-12-15,2.8,2.8,2.74,2.79,180000
2017-12-18,2.84,2.84,2.73,2.77,81000
2017-12-19,2.8,2.8,2.7,2.72,118000
2017-12-20,2.78,2.86,2.73,2.73,68000
2017-12-21,2.75,2.77,2.73,2.74,0
2017-12-22,2.8,2.9,2.79,2.81,62000
2017-12-27,2.9,2.91,2.85,2.88,94000
2017-12-28,2.95,2.95,2.87,2.92,31000
2017-12-29,2.92,2.95,2.8,2.92,869000
2018-01-02,2.8,2.86,2.8,2.81,89000
2018-01-03,2.9,4.8,2.9,3.63,18535000
2018-01-04,3.85,3.85,3.39,3.39,2643000
2018-01-05,3.7,3.7,3.33,3.45,648000
2018-01-08,3.45,3.45,3.3,3.42,392000
2018-01-09,3.38,3.51,3.35,3.37,236000
2018-01-10,3.23,3.46,3.23,3.45,300000
2018-01-11,3.45,3.5,3.4,3.5,137000
2018-01-12,3.5,3.52,3.45,3.49,225000
2018-01-15,3.42,3.47,3.4,3.4,142000
2018-01-16,3.4,3.5,3.37,3.4,428000
2018-01-17,3.34,3.4,3.25,3.38,345000
2018-01-18,3.38,3.46,3.25,3.28,404000
2018-01-19,3.1,3.43,3.1,3.4,252000
2018-01-22,3.4,3.41,3.4,3.41,319000
2018-01-23,3.4,3.4,3.4,3.4,14000
2018-01-24,3.4,3.4,3.32,3.4,266000
2018-01-25,3.35,3.4,3.35,3.4,311000
2018-01-26,3.48,3.59,3.37,3.4,345000
2018-01-29,3.42,3.42,3.35,3.36,62000
2018-01-30,3.31,3.35,3.15,3.29,97000
2018-01-31,3.23,3.28,3.13,3.27,107000
2018-02-01,3.22,3.4,3.21,3.39,5000
2018-02-02,3.22,3.51,3.22,3.32,91000
2018-02-05,3.17,3.26,3.17,3.25,33000
2018-02-06,3.11,3.19,2.66,2.95,226000
2018-02-07,3.15,3.15,3.0,3.01,23000
2018-02-08,3.01,3.03,3.01,3.03,15000
2018-02-09,2.88,3.0,2.88,2.96,79000
2018-02-12,2.95,3.04,2.95,2.95,42000
2018-02-13,2.96,2.96,2.95,2.95,0
2018-02-15,2.76,2.9,2.76,2.87,342000
2018-02-20,2.88,3.04,2.88,2.91,183000
2018-02-21,3.05,3.05,3.01,3.01,7000
2018-02-22,3.19,3.19,2.98,3.01,91000
2018-02-23,3.01,3.01,3.01,3.06,51000
2018-02-26,3.02,3.18,3.01,3.08,80000
2018-02-27,3.16,3.25,3.08,3.12,52000
2018-02-28,3.0,3.03,2.99,2.99,40000
2018-03-01,2.94,2.96,2.94,3.0,71000
2018-03-02,3.0,3.0,2.95,2.95,51000
2018-03-05,2.95,2.95,2.92,2.93,51000
2018-03-06,2.92,2.92,2.9,2.98,13000
2018-03-07,2.9,2.92,2.9,2.92,14000
2018-03-08,2.93,2.94,2.93,2.94,0
2018-03-09,3.05,3.05,3.03,3.03,5000
2018-03-12,3.04,3.1,3.04,3.1,7000
2018-03-13,3.05,3.1,3.05,3.1,0
2018-03-14,3.0,3.0,3.0,3.0,3000
2018-03-15,2.99,3.0,2.9,2.95,128000
2018-03-16,2.95,2.95,2.95,2.95,8000
2018-03-20,2.94,2.94,2.94,2.94,51000
2018-03-21,2.96,3.05,2.95,3.03,30000
2018-03-22,3.0,3.07,3.0,3.03,157000
2018-03-23,2.89,3.05,2.87,2.93,169000
2018-03-26,2.93,2.94,2.92,2.92,16000
2018-03-27,2.94,2.94,2.87,2.9,11000
2018-03-28,2.94,2.96,2.9,2.94,143000
2018-03-29,3.0,3.0,2.9,2.96,112000
2018-04-03,2.88,2.9,2.86,2.9,42000
2018-04-04,2.75,2.88,2.74,2.79,144000
2018-04-09,2.79,2.79,2.79,2.79,18000
2018-04-10,2.71,2.78,2.64,2.67,145000
2018-04-11,2.7,2.85,2.7,2.84,35000
2018-04-12,2.78,2.78,2.78,2.78,12000
2018-04-13,2.75,2.75,2.75,2.75,12000
2018-04-16,2.76,2.76,2.62,2.62,138000
2018-04-17,2.69,2.69,2.64,2.64,15000
2018-04-18,2.62,2.65,2.62,2.65,9000
2018-04-19,2.63,2.63,2.62,2.63,21000
2018-04-20,2.66,2.67,2.66,2.66,54000
2018-04-23,2.67,2.67,2.66,2.66,0
2018-04-24,2.62,2.65,2.6,2.65,87000
2018-04-25,2.6,2.64,2.6,2.64,11000
2018-04-26,2.65,2.67,2.64,2.64,36000
2018-04-27,2.65,2.65,2.64,2.64,0
2018-04-30,2.65,2.65,2.64,2.64,0
2018-05-02,2.65,2.65,2.64,2.64,40000
2018-05-03,2.66,2.66,2.62,2.62,91000
2018-05-04,2.63,2.65,2.62,2.62,4000
2018-05-07,2.65,2.65,2.62,2.62,39000
2018-05-08,2.65,2.66,2.62,2.63,62000
2018-05-09,2.65,3.1,2.65,2.87,63000
2018-05-10,2.85,2.85,2.75,2.78,52000
2018-05-11,2.77,2.77,2.73,2.74,0
2018-05-14,2.66,2.66,2.66,2.67,2000
2018-05-15,2.7,2.7,2.7,2.7,5000
2018-05-17,2.63,2.63,2.63,2.63,14000
2018-05-18,2.69,2.69,2.69,2.69,10000
2018-05-25,2.63,2.63,2.63,2.63,2000
2018-05-28,2.68,2.68,2.67,2.65,2000
2018-05-29,2.64,2.64,2.61,2.61,14000
2018-05-30,2.6,2.61,2.58,2.58,264000
2018-05-31,2.6,2.62,2.6,2.62,4000
2018-06-01,2.58,2.58,2.58,2.58,44000
2018-06-04,2.59,2.71,2.59,2.69,55000
2018-06-05,2.58,2.61,2.58,2.61,33000
2018-06-06,2.67,2.67,2.67,2.67,12000
2018-06-07,2.68,2.73,2.68,2.65,6000
2018-06-08,2.88,2.9,2.8,2.69,95000
2018-06-11,2.7,2.7,2.7,2.7,7000
2018-06-12,2.67,2.68,2.6,2.6,52000
2018-06-13,2.62,2.62,2.61,2.61,0
2018-06-14,2.68,2.68,2.67,2.67,29000
2018-06-15,2.65,2.65,2.65,2.65,0
2018-06-19,2.57,2.58,2.56,2.65,117000
2018-06-25,2.64,2.65,2.55,2.65,5000
2018-06-26,2.64,2.65,2.64,2.65,0
2018-06-27,2.63,2.64,2.63,2.64,200000
2018-06-28,2.4,2.65,2.4,2.65,3000
2018-06-29,2.23,2.65,2.23,2.64,232000
2018-07-03,2.64,2.64,2.64,2.57,100000
2018-07-04,2.56,2.56,2.56,2.56,0
2018-07-05,2.4,2.4,2.27,2.39,90000
2018-07-06,2.43,2.47,2.43,2.47,0
2018-07-10,2.32,2.34,2.32,2.32,40000
2018-07-11,2.3,2.3,2.19,2.24,237000
2018-07-12,2.25,2.5,2.22,2.4,25000
2018-07-13,2.4,2.4,2.4,2.36,5000
2018-07-17,2.55,2.55,2.55,2.55,1000
2018-07-18,2.22,2.3,2.2,2.22,67000
2018-07-19,2.29,2.29,2.28,2.28,15000
2018-07-24,2.28,2.28,2.28,2.28,57000
2018-07-25,2.25,2.34,2.2,2.3,41000
2018-07-27,2.2,2.22,2.2,2.22,7000
2018-07-30,2.29,2.29,2.29,2.29,9000
2018-07-31,2.28,2.28,2.28,2.28,0
2018-08-01,2.1,2.2,2.1,2.15,20000
2018-08-02,2.18,2.18,2.11,2.12,18000
2018-08-06,2.13,2.13,2.13,2.13,10000
2018-08-08,2.18,2.18,2.15,2.17,53000
2018-08-09,2.16,2.16,2.12,2.16,22000
2018-08-10,2.12,2.12,2.01,2.02,30000
2018-08-14,2.3,2.3,2.22,2.22,5000
2018-08-15,2.02,2.02,2.02,2.02,7000
2018-08-20,2.02,2.02,2.0,2.0,136000
2018-08-21,2.0,2.01,2.0,2.0,7000
2018-08-22,1.99,2.0,1.99,2.0,49000
2018-08-23,1.96,1.97,1.95,1.95,46000
2018-08-29,1.95,1.95,1.95,1.95,21000
2018-08-30,1.52,1.52,1.52,1.68,5000
2018-08-31,1.89,1.89,1.84,1.82,8000
2018-09-04,1.89,1.95,1.89,1.95,5000
2018-09-06,1.8,1.8,1.77,1.77,38000
2018-09-12,1.89,2.1,1.89,1.99,27000
2018-09-13,1.9,1.9,1.9,1.9,4000
2018-09-14,2.0,2.0,1.75,1.75,19000
2018-09-17,1.67,1.67,1.67,1.75,4000
2018-09-18,1.7,1.7,1.67,1.75,7000
2018-09-19,1.68,1.69,1.67,1.68,65000
2018-09-20,1.79,1.79,1.73,1.73,15000
2018-10-03,1.68,1.73,1.68,1.73,4000
2018-10-04,1.84,1.84,1.84,1.8,2000
2018-10-11,1.58,1.65,1.58,1.65,66000
2018-10-12,1.85,1.85,1.7,1.72,21000
2018-10-15,1.7,1.8,1.7,1.78,4000
2018-10-16,1.78,1.84,1.78,1.78,30000
2018-10-18,1.79,1.79,1.68,1.68,84000
2018-10-19,1.6,1.6,1.6,1.62,6000
2018-10-22,1.67,1.69,1.67,1.75,66000
2018-10-23,1.69,1.69,1.59,1.62,81000
2018-10-29,1.52,1.72,1.52,1.72,5000
2018-10-30,1.53,1.69,1.48,1.51,677000
2018-10-31,1.55,1.59,1.46,1.52,112000
2018-11-01,1.55,1.71,1.38,1.41,496000
2018-11-02,1.47,1.58,1.4,1.4,340000
2018-11-05,1.4,1.53,1.4,1.41,156000
2018-11-06,1.43,1.47,1.34,1.34,54000
2018-11-07,1.34,1.35,1.31,1.32,105000
2018-11-08,1.45,1.7,1.35,1.36,277000
2018-11-09,1.3,1.36,1.3,1.34,28000
2018-11-12,1.47,1.47,1.47,1.43,1000
2018-11-13,1.4,1.4,1.39,1.39,5000
2018-11-14,1.39,1.44,1.39,1.4,102000
2018-11-15,1.34,1.35,1.33,1.36,56000
2018-11-16,1.44,1.51,1.44,1.5,157000
2018-11-20,1.41,1.48,1.41,1.46,4000
2018-11-22,1.46,1.46,1.41,1.45,33000
2018-11-26,1.54,1.57,1.54,1.55,12000
2018-11-27,1.58,1.58,1.58,1.55,1000
2018-11-30,1.41,1.45,1.41,1.41,24000
2018-12-03,1.49,1.5,1.45,1.45,21000
2018-12-04,1.52,1.52,1.52,1.52,1000
2018-12-05,1.41,1.5,1.41,1.5,11000
2018-12-06,1.54,1.54,1.51,1.51,6000
2018-12-07,1.51,1.51,1.49,1.4,34000
2018-12-10,1.48,1.49,1.48,1.49,4000
2018-12-11,1.58,1.58,1.57,1.55,8000
2018-12-14,1.46,1.46,1.46,1.47,2000
2018-12-18,1.47,1.48,1.47,1.48,13000
2018-12-19,1.56,1.66,1.56,1.58,159000
2018-12-20,1.56,1.6,1.43,1.53,2043000
2018-12-21,1.64,1.64,1.47,1.48,39000
2018-12-24,1.55,1.55,1.5,1.55,21000
2018-12-27,1.64,2.0,1.57,1.95,1246000
2018-12-28,1.9,2.35,1.9,2.2,1868000
2018-12-31,2.25,2.29,2.18,2.18,36526000
2019-01-02,2.14,2.14,1.75,1.82,347000
2019-01-03,1.75,1.75,1.69,1.7,88000
2019-01-04,1.75,1.84,1.68,1.82,171000
2019-01-07,1.87,1.9,1.86,1.9,95000
2019-01-08,1.86,1.87,1.82,1.82,83000
2019-01-09,1.9,1.9,1.82,1.9,51000
2019-01-10,1.9,1.9,1.89,1.9,9000
2019-01-11,1.81,1.9,1.8,1.9,79000
2019-01-14,1.83,1.93,1.8,1.93,150000
2019-01-15,1.97,1.97,1.97,1.97,3000
2019-01-17,1.91,1.96,1.88,1.95,26000
2019-01-18,1.91,1.91,1.91,1.91,4000
2019-01-21,1.9,1.9,1.9,1.9,12000
2019-01-24,1.85,1.85,1.85,1.86,1000
2019-01-25,1.86,1.98,1.85,1.98,30000
2019-01-28,1.85,1.85,1.85,1.85,9000
2019-01-30,1.85,2.03,1.84,2.0,106000
2019-01-31,2.0,2.0,1.89,2.0,15000
2019-02-01,2.0,2.0,2.0,2.0,30000
2019-02-08,2.14,2.14,2.14,2.14,2000
2019-02-12,1.9,1.9,1.9,1.92,3000
2019-02-13,2.12,2.2,2.08,2.2,125000
2019-02-14,2.26,2.3,2.0,2.3,373000
2019-02-15,2.3,2.3,2.3,2.3,78000
2019-02-18,2.3,2.34,2.3,2.34,84000
2019-02-20,2.4,2.4,2.3,2.35,13000
2019-02-22,2.35,2.35,2.35,2.35,10000
2019-02-25,2.43,2.6,2.42,2.6,122000
2019-02-26,2.58,2.59,2.58,2.58,100000
2019-02-27,2.7,2.7,2.53,2.53,12000
2019-02-28,2.58,2.58,2.58,2.58,20000
2019-03-01,2.6,2.6,2.41,2.6,73000
2019-03-04,2.6,2.6,2.5,2.6,49000
2019-03-05,2.6,2.6,2.6,2.6,51000
2019-03-06,2.68,2.78,2.68,2.78,20000
2019-03-07,2.78,2.97,2.78,2.97,210000
2019-03-08,3.0,3.0,2.7,3.0,213000
2019-03-11,3.0,3.0,3.0,3.0,11000
2019-03-12,3.0,3.0,3.0,3.0,19000
2019-03-13,3.01,3.09,2.92,3.09,193000
2019-03-14,3.11,3.11,3.11,3.09,3000
2019-03-15,3.09,3.09,3.05,3.03,3000
2019-03-18,3.03,3.04,2.95,3.0,146000
2019-03-19,3.0,3.0,2.7,2.74,137000
2019-03-20,2.98,3.0,2.85,2.98,220000
2019-03-21,3.0,3.0,2.99,2.99,201000
2019-03-22,3.01,3.01,2.98,2.98,208000
2019-03-25,3.0,3.0,2.85,2.85,201000
2019-03-26,2.85,3.0,2.85,2.9,248000
2019-03-27,2.9,2.9,2.81,2.9,37000
2019-03-29,2.9,2.9,2.9,2.9,24000
2019-04-01,2.9,2.98,2.86,3.0,254000
2019-04-02,3.01,3.01,2.99,3.0,346000
2019-04-03,3.0,3.0,3.0,3.0,10000
2019-04-08,2.9,2.92,2.9,2.92,43000
2019-04-09,3.07,3.07,2.89,2.9,60000
2019-04-10,2.97,2.97,2.97,2.97,1000
2019-04-11,2.97,2.97,2.97,2.97,0
2019-04-12,3.01,3.01,2.9,2.95,135000
2019-04-15,2.95,2.95,2.95,2.95,1000
2019-04-16,2.95,2.95,2.95,2.95,3000
2019-04-17,2.97,2.97,2.94,2.95,13000
2019-04-18,2.81,2.99,2.81,2.95,47000
2019-04-26,2.95,2.95,2.95,2.95,70000
2019-04-29,2.83,2.95,2.82,2.95,53000
2019-05-02,2.93,2.93,2.93,2.93,9000
2019-05-06,2.93,2.95,2.53,2.53,22000
2019-05-07,2.76,2.9,2.74,2.74,35957
2019-05-27,2.65,2.65,2.65,2.65,12000
2019-05-29,2.69,3.0,2.62,3.0,104000
2019-05-30,3.06,3.06,2.68,3.0,80000
2019-05-31,2.96,3.49,2.96,3.4,597000
2019-06-03,3.4,4.1,3.4,4.01,2794000
2019-06-04,4.1,4.1,3.5,3.65,77000
2019-06-05,3.41,3.5,3.27,3.5,107000
2019-06-10,3.27,3.31,3.27,3.3,20000
2019-06-11,3.3,3.3,3.3,3.3,4000
2019-06-12,3.3,3.3,3.3,3.3,4000
2019-06-13,3.46,3.46,3.46,3.46,8000
2019-06-17,3.56,4.0,3.39,4.0,423000
2019-06-19,3.51,3.51,3.51,3.51,9000
2019-06-20,3.55,3.55,3.55,3.55,6000
2019-06-21,3.55,3.55,3.55,3.55,0
2019-06-25,3.5,3.5,3.5,3.5,10000
2019-06-26,3.51,3.51,3.5,3.5,12000
2019-06-27,3.5,3.5,3.49,3.5,25000
2019-06-28,3.51,4.2,3.5,4.0,1078000
2019-07-02,3.95,3.95,3.95,3.9,4000
2019-07-04,3.85,3.85,3.85,3.85,4000
2019-07-08,3.79,3.79,3.79,3.79,4000
2019-07-10,3.51,3.51,3.5,3.5,28000
2019-07-11,3.51,3.51,3.48,3.5,73000
2019-07-12,3.5,3.5,3.5,3.5,12000
2019-07-15,3.5,3.5,3.44,3.5,75000
2019-07-19,3.5,3.5,3.48,3.5,101000
2019-07-22,3.5,3.5,3.5,3.5,100000
2019-08-01,3.51,3.51,3.51,3.51,2000
2019-08-05,3.51,3.51,3.4,3.5,80000
2019-08-06,3.51,3.51,3.5,3.5,16000
2019-08-08,3.4,3.4,3.4,3.4,10000
2019-08-09,3.49,3.5,3.49,3.5,16000
2019-08-12,3.51,3.51,3.5,3.5,8000
2019-08-15,3.5,3.5,3.4,3.4,10000
2019-08-19,3.49,3.5,3.49,3.5,28000
2019-08-22,3.5,3.5,3.3,3.5,43000
2019-08-27,3.49,3.5,3.3,3.5,66000
2019-08-29,3.5,3.5,3.46,3.5,73000
2019-09-10,3.5,3.5,3.5,3.5,2000
2019-09-20,3.5,3.5,3.49,3.5,100000
2019-09-23,3.5,3.5,3.4,3.5,101000
2019-09-24,3.4,3.4,3.4,3.4,6000
2019-10-15,3.9,3.9,3.85,3.85,3000
2019-10-29,3.7,3.7,3.7,3.7,33000
2019-11-01,2.87,3.05,2.87,2.93,53000
2019-11-04,3.09,3.25,3.09,3.25,15000
2019-11-06,3.44,3.45,3.44,3.44,6000
2019-11-07,3.4,3.4,3.4,3.4,4000
2019-11-14,2.92,2.92,2.92,2.92,2000
2019-11-15,3.35,3.45,3.35,3.4,6000
2019-11-27,3.5,3.5,3.5,3.4,5000
2019-12-02,3.1,3.1,2.8,2.95,21000
2019-12-03,3.1,3.3,3.1,3.3,6000
2019-12-04,3.1,3.1,3.0,3.0,6000
2019-12-06,3.38,3.4,3.3,3.3,11000
2019-12-11,3.4,3.5,3.4,3.5,10000
2019-12-16,3.45,3.45,3.45,3.45,10000
2019-12-17,3.46,3.5,3.46,3.48,10000
2019-12-18,3.5,3.55,3.01,3.37,51000
2019-12-19,3.5,3.6,3.3,3.41,71000
2019-12-23,3.45,3.6,3.28,3.55,153000
2019-12-24,3.6,3.6,3.6,3.58,40000
2019-12-27,3.58,3.75,3.56,3.75,72000
2019-12-30,3.75,3.75,3.75,3.75,8000
2019-12-31,3.88,4.0,3.88,4.0,241000
2020-01-02,3.99,3.99,3.99,3.99,1000
2020-01-03,4.0,4.0,4.0,3.95,70000
2020-01-14,3.5,3.5,3.5,3.5,1000
2020-01-16,3.6,3.6,3.6,3.6,1000
2020-01-17,3.51,3.51,3.5,3.5,50000
2020-02-12,3.38,3.38,3.37,3.38,30000
2020-02-17,3.37,3.37,3.37,3.37,5000
2020-02-19,3.29,3.29,3.29,3.29,3000
2020-02-21,3.03,3.1,2.98,3.1,53000
2020-02-25,3.2,3.2,3.15,3.15,6000
2020-02-26,3.16,3.16,3.16,3.16,1000
2020-03-09,3.16,3.16,3.16,3.16,15000
2020-03-10,3.15,3.15,3.15,3.15,4000
2020-03-17,3.2,3.2,3.2,3.19,1000
2020-03-20,3.17,3.18,3.17,3.18,80000
2020-03-23,3.18,3.18,3.18,3.18,0
2020-03-24,2.8,3.1,2.8,3.1,66000
2020-03-25,3.1,3.18,3.1,3.18,6000
2020-03-26,2.42,2.94,2.42,2.82,66000
2020-03-27,3.1,3.1,3.0,3.0,29000
2020-03-30,3.0,3.0,3.0,3.0,20000
2020-03-31,3.0,3.4,2.95,3.39,143000
2020-04-01,3.38,3.38,3.38,3.38,0
2020-04-02,3.3,3.3,3.3,3.3,11000
2020-04-03,3.28,3.28,3.28,3.28,0
2020-04-06,3.02,3.02,3.02,3.02,6000
2020-04-07,3.05,3.05,3.05,3.01,10000
2020-04-08,3.0,3.0,3.0,3.0,0
2020-04-09,3.0,3.0,3.0,3.0,0
2020-04-14,3.0,3.0,3.0,3.0,0
2020-04-15,3.0,3.0,3.0,3.0,0
2020-04-16,3.0,3.0,3.0,3.0,0
2020-04-17,2.8,2.8,2.8,2.8,2000
2020-04-20,2.8,2.8,2.8,2.8,0
2020-04-21,2.8,2.8,2.8,2.8,0
2020-04-22,2.8,2.8,2.8,2.8,0
2020-04-23,2.8,2.8,2.8,2.8,0
2020-04-24,2.8,2.8,2.8,2.8,0
2020-04-27,2.8,2.8,2.8,2.8,0
2020-04-28,2.8,2.8,2.8,2.8,0
2020-04-29,2.8,2.8,2.8,2.8,0
2020-05-04,2.8,2.8,2.8,2.8,0
2020-05-05,2.8,2.8,2.8,2.8,0
2020-05-06,2.8,2.8,2.8,2.8,0
2020-05-07,2.8,2.8,2.8,2.8,0
2020-05-08,2.8,2.8,2.8,2.8,0
2020-05-11,2.8,2.8,2.8,2.8,0
2020-05-12,2.8,2.8,2.8,2.8,0
2020-05-13,2.8,2.8,2.8,2.8,0
2020-05-14,2.8,2.8,2.8,2.8,0
2020-05-15,2.8,2.8,2.8,2.8,0
2020-05-18,2.8,2.8,2.8,2.8,0
2020-05-19,2.8,2.8,2.8,2.8,0
2020-05-20,2.8,2.8,2.8,2.8,0
2020-05-21,2.8,2.8,2.8,2.8,0
2020-05-22,2.8,2.8,2.8,2.8,0
2020-05-25,2.8,2.8,2.8,2.8,0
2020-05-26,2.8,2.8,2.8,2.8,0
2020-05-27,2.61,2.61,2.43,2.51,5000
2020-05-28,2.51,2.51,2.51,2.51,0
2020-05-29,2.51,2.51,2.51,2.51,0
2020-06-01,2.51,2.51,2.51,2.51,0
2020-06-02,2.51,2.51,2.51,2.51,0
2020-06-03,2.51,2.51,2.51,2.51,0
2020-06-04,2.51,2.51,2.51,2.51,0
2020-06-05,2.51,2.51,2.51,2.51,0
2020-06-08,2.6,2.6,2.6,2.6,2050
2020-06-10,2.6,2.6,2.6,2.6,100000
2020-06-12,2.34,2.34,2.34,2.5,1000
2020-06-15,2.5,2.5,2.5,2.5,0
2020-06-16,2.26,2.3,2.26,2.3,55000
2020-06-17,2.3,2.3,2.3,2.3,0
2020-06-18,2.32,2.32,2.32,2.32,3000
2020-06-19,2.32,2.32,2.32,2.32,0
2020-06-22,2.35,2.35,2.35,2.35,0
2020-06-23,2.35,2.35,2.35,2.35,0
2020-06-24,2.35,2.35,2.35,2.35,0
2020-06-26,2.45,2.45,2.45,2.46,2000
2020-06-29,2.46,2.46,2.46,2.46,0
2020-06-30,2.66,2.94,2.66,2.94,5000
2020-07-02,2.95,2.95,2.95,2.95,10000
2020-07-03,2.95,2.95,2.95,2.95,0
2020-07-06,2.95,3.2,2.8,2.96,146000
2020-07-07,2.96,2.96,2.96,2.96,0
2020-07-08,2.96,2.96,2.96,2.96,0
2020-07-09,2.96,3.0,2.96,2.96,12000
2020-07-10,2.73,2.9,2.68,2.8,15000
2020-07-13,2.8,2.8,2.8,2.8,0
2020-07-14,2.8,2.8,2.8,2.8,0
2020-07-15,2.8,2.8,2.8,2.8,0
2020-07-16,2.88,2.88,2.88,2.88,1000
2020-07-17,2.88,2.88,2.88,2.88,10000
2020-07-20,2.88,2.88,2.88,2.88,0
2020-07-21,2.88,2.88,2.88,2.88,0
2020-07-22,2.88,2.88,2.88,2.88,0
2020-07-23,2.71,2.71,2.71,2.71,0
2020-07-24,2.46,2.65,2.46,2.65,6000
2020-07-27,2.62,2.62,2.62,2.62,0
2020-07-28,2.62,2.62,2.62,2.62,0
2020-07-29,2.62,2.62,2.62,2.62,4000
2020-07-30,2.62,2.62,2.62,2.62,0
2020-07-31,2.61,2.61,2.61,2.61,0
2020-08-03,2.61,2.61,2.61,2.61,0
2020-08-04,2.61,2.61,2.61,2.61,0
2020-08-05,2.21,2.21,2.21,2.4,1000
2020-08-07,2.4,2.4,2.4,2.4,10000
2020-08-10,2.4,2.4,2.4,2.4,0
2020-08-11,2.4,2.4,2.4,2.4,0
2020-08-12,2.4,2.4,2.4,2.4,0
2020-08-13,2.4,2.4,2.4,2.4,0
2020-08-14,2.4,2.4,2.4,2.4,0
2020-08-17,2.6,2.7,2.6,2.7,96000
2020-08-18,2.7,2.7,2.7,2.7,0
2020-08-19,2.7,2.7,2.7,2.7,0
2020-08-20,2.7,2.7,2.7,2.7,0
2020-08-21,2.7,2.7,2.7,2.7,0
2020-08-24,2.7,2.7,2.7,2.7,0
2020-08-25,2.69,2.69,2.69,2.69,5000
