Date,High,Low,Open,Close,Volume
2017-01-11,1.1699999570846558,1.0299999713897705,1.100000023841858,1.0499999523162842,99934000
2017-01-12,1.0399999618530271,0.9800000190734864,1.0299999713897705,1.0,19938000
2017-01-13,1.1599999666213991,0.9900000095367432,1.0,1.149999976158142,43212000
2017-01-16,1.1699999570846558,1.0700000524520874,1.1599999666213991,1.0900000333786009,15108000
2017-01-17,1.100000023841858,1.0499999523162842,1.0900000333786009,1.0499999523162842,6492000
2017-01-18,1.0800000429153442,1.0299999713897705,1.0499999523162842,1.0399999618530271,4228000
2017-01-19,1.0599999427795408,0.9900000095367432,1.0399999618530271,0.9900000095367432,9612000
2017-01-20,1.0299999713897705,0.9900000095367432,0.9900000095367432,1.0,5330000
2017-01-23,1.0199999809265137,0.9900000095367432,1.0,1.0199999809265137,1700000
2017-01-24,1.0299999713897705,1.0,1.0099999904632568,1.0199999809265137,1490000
2017-01-25,1.0199999809265137,1.0,1.0199999809265137,1.0099999904632568,1344000
2017-01-26,1.0099999904632568,1.0,1.0,1.0099999904632568,1140000
2017-01-27,1.0199999809265137,1.0,1.0099999904632568,1.0099999904632568,414000
2017-02-01,1.100000023841858,1.0,1.0,1.0499999523162842,4822000
2017-02-02,1.0399999618530271,1.0199999809265137,1.0399999618530271,1.0199999809265137,1432000
2017-02-03,1.0700000524520874,1.0299999713897705,1.0299999713897705,1.0599999427795408,1736000
2017-02-06,1.0599999427795408,1.0399999618530271,1.0599999427795408,1.0399999618530271,740000
2017-02-07,1.0800000429153442,1.0299999713897705,1.0399999618530271,1.0700000524520874,3522000
2017-02-08,1.1399999856948853,1.0700000524520874,1.0700000524520874,1.1100000143051147,9062000
2017-02-09,1.1200000047683716,1.0700000524520874,1.1100000143051147,1.0700000524520874,1468000
2017-02-10,1.1200000047683716,1.0700000524520874,1.0900000333786009,1.0800000429153442,6592000
2017-02-13,1.100000023841858,1.0599999427795408,1.0800000429153442,1.0599999427795408,2742000
2017-02-14,1.0700000524520874,1.0399999618530271,1.0700000524520874,1.0499999523162842,2406000
2017-02-15,1.0599999427795408,1.0399999618530271,1.0499999523162842,1.0399999618530271,1800000
2017-02-16,1.0599999427795408,1.0299999713897705,1.0399999618530271,1.0399999618530271,2600000
2017-02-17,1.100000023841858,1.0299999713897705,1.0399999618530271,1.0599999427795408,5024000
2017-02-20,1.0800000429153442,1.0399999618530271,1.0700000524520874,1.0800000429153442,1424000
2017-02-21,1.1100000143051147,1.0599999427795408,1.0800000429153442,1.0700000524520874,4102000
2017-02-22,1.0800000429153442,1.0299999713897705,1.0599999427795408,1.0399999618530271,2928000
2017-02-23,1.0700000524520874,1.0299999713897705,1.0399999618530271,1.0299999713897705,2472000
2017-02-24,1.0399999618530271,1.0099999904632568,1.0299999713897705,1.0299999713897705,1698000
2017-02-27,1.0299999713897705,1.0099999904632568,1.0199999809265137,1.0099999904632568,652000
2017-02-28,1.0399999618530271,1.0199999809265137,1.0199999809265137,1.0399999618530271,770000
2017-03-01,1.0599999427795408,1.0399999618530271,1.0399999618530271,1.0399999618530271,1132000
2017-03-02,1.0599999427795408,1.0399999618530271,1.0399999618530271,1.0499999523162842,732000
2017-03-03,1.0499999523162842,1.0399999618530271,1.0499999523162842,1.0399999618530271,516000
2017-03-06,1.0399999618530271,1.0399999618530271,1.0399999618530271,1.0399999618530271,120000
2017-03-07,1.0499999523162842,1.0399999618530271,1.0399999618530271,1.0399999618530271,240000
2017-03-08,1.0399999618530271,1.0199999809265137,1.0399999618530271,1.0299999713897705,460000
2017-03-09,1.0399999618530271,1.0199999809265137,1.0299999713897705,1.0199999809265137,606000
2017-03-10,1.0299999713897705,1.0099999904632568,1.0199999809265137,1.0199999809265137,600000
2017-03-13,1.0299999713897705,1.0,1.0099999904632568,1.0199999809265137,760000
2017-03-14,1.0,0.959999978542328,0.9900000095367432,0.9800000190734864,1366000
2017-03-15,1.0099999904632568,0.9700000286102296,0.9700000286102296,1.0,920000
2017-03-16,1.0,0.9800000190734864,1.0,0.9800000190734864,188000
2017-03-17,1.0399999618530271,0.9800000190734864,1.0199999809265137,0.9900000095367432,464000
2017-03-20,0.9900000095367432,0.9800000190734864,0.9900000095367432,0.9800000190734864,302000
2017-03-21,1.0,0.9800000190734864,0.9800000190734864,0.9900000095367432,624000
2017-03-22,0.9900000095367432,0.9800000190734864,0.9800000190734864,0.9900000095367432,256000
2017-03-23,1.0199999809265137,0.9800000190734864,0.9900000095367432,1.0199999809265137,500000
2017-03-24,1.0499999523162842,1.0099999904632568,1.0199999809265137,1.0199999809265137,450000
2017-03-27,1.0,1.0,1.0,1.0,82000
2017-03-28,1.0,0.9900000095367432,0.9900000095367432,1.0,448000
2017-03-29,1.0099999904632568,0.9900000095367432,1.0099999904632568,1.0,782000
2017-03-30,1.0399999618530271,0.9900000095367432,1.0199999809265137,1.0,1154000
2017-03-31,1.0399999618530271,0.9800000190734864,0.9900000095367432,1.0399999618530271,1718000
2017-04-03,1.0299999713897705,1.0,1.0199999809265137,1.0299999713897705,342000
2017-04-05,1.0299999713897705,1.0,1.0299999713897705,1.0,1018000
2017-04-06,1.0399999618530271,1.0099999904632568,1.0099999904632568,1.0199999809265137,1588000
2017-04-07,1.0399999618530271,1.0099999904632568,1.0199999809265137,1.0199999809265137,664000
2017-04-10,1.0199999809265137,1.0099999904632568,1.0199999809265137,1.0099999904632568,344000
2017-04-11,1.0299999713897705,0.9900000095367432,0.9900000095367432,1.0099999904632568,500000
2017-04-12,1.0199999809265137,1.0,1.0,1.0199999809265137,124000
2017-04-13,1.0199999809265137,1.0,1.0199999809265137,1.0,58000
2017-04-18,1.0,0.9700000286102296,0.9900000095367432,0.9700000286102296,208000
2017-04-19,1.0299999713897705,0.9700000286102296,0.9800000190734864,1.0199999809265137,484000
2017-04-20,0.9800000190734864,0.9700000286102296,0.9700000286102296,0.9700000286102296,114000
2017-04-21,1.0099999904632568,0.9800000190734864,0.9800000190734864,0.9900000095367432,588000
2017-04-24,1.0,1.0,1.0,1.0,80000
2017-04-25,1.0,0.9900000095367432,0.9900000095367432,1.0,240000
2017-04-26,1.0,0.9800000190734864,0.9900000095367432,1.0,68000
2017-04-27,1.0,0.9800000190734864,0.9800000190734864,1.0,180000
2017-04-28,1.0,0.9800000190734864,1.0,0.9800000190734864,254000
2017-05-02,1.0,0.9800000190734864,0.9800000190734864,0.9800000190734864,324000
2017-05-04,1.0,0.959999978542328,0.9800000190734864,1.0,32000
2017-05-05,1.0,0.9800000190734864,1.0,1.0,138000
2017-05-08,1.0099999904632568,0.9900000095367432,0.9900000095367432,1.0,94000
2017-05-09,1.0,0.9900000095367432,0.9900000095367432,0.9900000095367432,188000
2017-05-10,0.9800000190734864,0.9800000190734864,0.9800000190734864,0.9800000190734864,162000
2017-05-11,1.0,0.9800000190734864,0.9800000190734864,1.0,54000
2017-05-12,0.9800000190734864,0.9800000190734864,0.9800000190734864,0.9800000190734864,70000
2017-05-15,1.0199999809265137,0.9800000190734864,0.9800000190734864,0.9800000190734864,118000
2017-05-16,1.0299999713897705,0.9900000095367432,1.0199999809265137,1.0099999904632568,360000
2017-05-17,1.0299999713897705,1.0,1.0199999809265137,1.0,218000
2017-05-18,1.0199999809265137,0.9900000095367432,1.0,1.0099999904632568,408000
2017-05-19,1.0,0.9800000190734864,1.0,1.0,572000
2017-05-22,0.9800000190734864,0.959999978542328,0.9800000190734864,0.9700000286102296,476000
2017-05-23,1.0,0.9900000095367432,1.0,0.9900000095367432,478000
2017-05-24,1.0,0.9900000095367432,0.9900000095367432,1.0,112000
2017-05-25,0.9900000095367432,0.9900000095367432,0.9900000095367432,0.9900000095367432,18000
2017-05-26,1.0,1.0,1.0,1.0,82000
2017-05-29,1.0099999904632568,0.9700000286102296,1.0,1.0,508000
2017-05-31,1.0199999809265137,1.0,1.0,1.0,360000
2017-06-01,0.9900000095367432,0.9800000190734864,0.9900000095367432,0.9800000190734864,118000
2017-06-02,1.0,0.9900000095367432,0.9900000095367432,1.0,412000
2017-06-05,1.0,1.0,1.0,1.0,148000
2017-06-06,1.0099999904632568,1.0,1.0,1.0,156000
2017-06-07,1.0,1.0,1.0,1.0,50000
2017-06-08,1.0099999904632568,0.9900000095367432,0.9900000095367432,1.0,178000
2017-06-09,0.9900000095367432,0.9900000095367432,0.9900000095367432,0.9900000095367432,70000
2017-06-12,1.0,0.9900000095367432,0.9900000095367432,1.0,56000
2017-06-13,1.0,0.9100000262260436,0.9900000095367432,0.9900000095367432,158000
2017-06-14,1.0,0.9900000095367432,1.0,0.9900000095367432,254000
2017-06-15,1.0,1.0,1.0,1.0,88000
2017-06-16,1.0,1.0,1.0,1.0,68000
2017-06-19,0.9800000190734864,0.9700000286102296,0.9800000190734864,0.9800000190734864,224000
2017-06-20,1.0,0.9800000190734864,0.9800000190734864,0.9800000190734864,150000
2017-06-21,0.9800000190734864,0.9800000190734864,0.9800000190734864,0.9800000190734864,0
2017-06-22,0.9900000095367432,0.959999978542328,0.9900000095367432,0.9800000190734864,186000
2017-06-23,0.9800000190734864,0.9499999880790709,0.9700000286102296,0.9800000190734864,762000
2017-06-26,0.9800000190734864,0.9399999976158142,0.9800000190734864,0.9499999880790709,102000
2017-06-27,0.959999978542328,0.8600000143051147,0.959999978542328,0.8799999952316284,4012000
2017-06-28,0.8600000143051147,0.8399999737739563,0.8600000143051147,0.8399999737739563,556000
2017-06-29,0.8500000238418579,0.8000000119209291,0.8500000238418579,0.8500000238418579,226000
2017-06-30,0.8500000238418579,0.8000000119209291,0.8299999833106995,0.8500000238418579,20000
2017-07-03,0.9100000262260436,0.8700000047683716,0.8799999952316284,0.8999999761581421,1074000
2017-07-04,0.8999999761581421,0.8700000047683716,0.8999999761581421,0.8999999761581421,474000
2017-07-05,0.8700000047683716,0.8299999833106995,0.8399999737739563,0.8700000047683716,296000
2017-07-06,0.8299999833106995,0.8299999833106995,0.8299999833106995,0.8299999833106995,52000
2017-07-07,0.8100000023841858,0.8000000119209291,0.8100000023841858,0.8000000119209291,296000
2017-07-10,0.8100000023841858,0.7400000095367432,0.8000000119209291,0.8000000119209291,942000
2017-07-11,0.8500000238418579,0.7699999809265137,0.8500000238418579,0.8399999737739563,310000
2017-07-12,0.8999999761581421,0.7900000214576721,0.8999999761581421,0.8000000119209291,594000
2017-07-13,0.8299999833106995,0.8000000119209291,0.8000000119209291,0.8000000119209291,268000
2017-07-14,0.8299999833106995,0.8199999928474426,0.8199999928474426,0.8199999928474426,152000
2017-07-17,0.8500000238418579,0.8199999928474426,0.8299999833106995,0.8500000238418579,658000
2017-07-18,0.8500000238418579,0.8500000238418579,0.8500000238418579,0.8500000238418579,20000
2017-07-19,0.8500000238418579,0.8500000238418579,0.8500000238418579,0.8500000238418579,0
2017-07-20,0.8399999737739563,0.75,0.75,0.8000000119209291,204000
2017-07-21,0.8100000023841858,0.8000000119209291,0.8000000119209291,0.8100000023841858,90000
2017-07-24,0.8399999737739563,0.8100000023841858,0.8100000023841858,0.8399999737739563,50000
2017-07-25,0.8000000119209291,0.7699999809265137,0.8000000119209291,0.7699999809265137,12000
2017-07-26,0.8199999928474426,0.7599999904632568,0.7799999713897705,0.8000000119209291,342000
2017-07-27,0.8299999833106995,0.7799999713897705,0.7900000214576721,0.8000000119209291,198000
2017-07-28,0.8000000119209291,0.7699999809265137,0.7799999713897705,0.7900000214576721,392000
2017-07-31,0.7900000214576721,0.7900000214576721,0.7900000214576721,0.7900000214576721,6000
2017-08-01,0.8100000023841858,0.7799999713897705,0.7799999713897705,0.7799999713897705,386000
2017-08-02,0.8000000119209291,0.7599999904632568,0.7799999713897705,0.8000000119209291,78000
2017-08-03,0.7799999713897705,0.7799999713897705,0.7799999713897705,0.7799999713897705,150000
2017-08-04,0.8000000119209291,0.8000000119209291,0.8000000119209291,0.7900000214576721,90000
2017-08-07,0.7900000214576721,0.7900000214576721,0.7900000214576721,0.7900000214576721,0
2017-08-08,0.7900000214576721,0.7799999713897705,0.7900000214576721,0.7799999713897705,166000
2017-08-09,0.7699999809265137,0.7699999809265137,0.7699999809265137,0.7699999809265137,102000
2017-08-10,0.7799999713897705,0.699999988079071,0.7599999904632568,0.7599999904632568,4472000
2017-08-11,0.7599999904632568,0.699999988079071,0.7099999785423279,0.7599999904632568,206000
2017-08-14,0.7900000214576721,0.7599999904632568,0.7599999904632568,0.7900000214576721,218000
2017-08-15,0.8000000119209291,0.8000000119209291,0.8000000119209291,0.8000000119209291,3430000
2017-08-16,0.8199999928474426,0.7799999713897705,0.8199999928474426,0.7900000214576721,16000
2017-08-17,0.9100000262260436,0.8199999928474426,0.8199999928474426,0.9100000262260436,1002000
2017-08-18,1.0099999904632568,0.9200000166893004,0.9200000166893004,0.9300000071525574,1360000
2017-08-21,1.0,0.9300000071525574,0.9300000071525574,1.0,62000
2017-08-22,0.9900000095367432,0.9499999880790709,0.9700000286102296,0.9700000286102296,3280000
2017-08-23,0.9700000286102296,0.9700000286102296,0.9700000286102296,0.9700000286102296,0
2017-08-24,0.9700000286102296,0.9200000166893004,0.9700000286102296,0.9399999976158142,238000
2017-08-25,0.9399999976158142,0.9300000071525574,0.9300000071525574,0.9399999976158142,3068000
2017-08-28,0.9900000095367432,0.9499999880790709,0.9499999880790709,0.9700000286102296,6496000
2017-08-29,0.9800000190734864,0.959999978542328,0.9700000286102296,0.9700000286102296,6678000
2017-08-30,0.9800000190734864,0.9499999880790709,0.959999978542328,0.9800000190734864,10510000
2017-08-31,1.149999976158142,0.9900000095367432,0.9900000095367432,1.0599999427795408,10204000
2017-09-01,1.0599999427795408,1.0099999904632568,1.0599999427795408,1.0299999713897705,548000
2017-09-04,1.0599999427795408,1.0099999904632568,1.0599999427795408,1.0299999713897705,230000
2017-09-05,1.0599999427795408,1.0099999904632568,1.0099999904632568,1.0499999523162842,1838000
2017-09-06,1.0399999618530271,1.0,1.0199999809265137,1.0199999809265137,294000
2017-09-07,1.0,1.0,1.0,1.0,200000
2017-09-08,1.0499999523162842,1.0099999904632568,1.0299999713897705,1.0399999618530271,13078000
2017-09-11,1.0399999618530271,0.9800000190734864,1.0399999618530271,1.0099999904632568,6834000
2017-09-12,1.0499999523162842,0.9800000190734864,0.9900000095367432,1.0499999523162842,6394000
2017-09-13,1.0299999713897705,1.0299999713897705,1.0299999713897705,1.0299999713897705,0
2017-09-14,1.0199999809265137,1.0,1.0199999809265137,1.0,230000
2017-09-15,1.0,0.9900000095367432,1.0,0.9900000095367432,110000
2017-09-18,1.0499999523162842,1.0,1.0099999904632568,1.0299999713897705,10938000
2017-09-19,1.0299999713897705,1.0099999904632568,1.0099999904632568,1.0099999904632568,112000
2017-09-20,1.0499999523162842,1.0099999904632568,1.0399999618530271,1.0199999809265137,1414000
2017-09-21,1.0299999713897705,1.0099999904632568,1.0199999809265137,1.0299999713897705,2152000
2017-09-22,1.1599999666213991,1.0099999904632568,1.0199999809265137,1.1200000047683716,5586000
2017-09-25,1.1100000143051147,1.0700000524520874,1.100000023841858,1.1100000143051147,348000
2017-09-26,1.100000023841858,1.0599999427795408,1.100000023841858,1.0800000429153442,316000
2017-09-27,1.0900000333786009,1.0700000524520874,1.0800000429153442,1.0800000429153442,292000
2017-09-28,1.0900000333786009,1.0599999427795408,1.0800000429153442,1.0599999427795408,360000
2017-09-29,1.0599999427795408,1.0199999809265137,1.0599999427795408,1.0199999809265137,224000
2017-10-03,1.0599999427795408,1.0199999809265137,1.0299999713897705,1.0599999427795408,280000
2017-10-04,1.0800000429153442,1.0499999523162842,1.0599999427795408,1.0800000429153442,224000
2017-10-06,1.0599999427795408,1.0199999809265137,1.0499999523162842,1.0199999809265137,722000
2017-10-09,1.1200000047683716,1.0299999713897705,1.0299999713897705,1.100000023841858,1308000
2017-10-10,1.100000023841858,1.0800000429153442,1.100000023841858,1.0800000429153442,382000
2017-10-11,1.0499999523162842,1.0399999618530271,1.0399999618530271,1.0399999618530271,216000
2017-10-12,1.0700000524520874,1.0099999904632568,1.0399999618530271,1.0700000524520874,402000
2017-10-13,1.0599999427795408,1.0399999618530271,1.0399999618530271,1.0599999427795408,54000
2017-10-16,1.1399999856948853,1.0499999523162842,1.0599999427795408,1.100000023841858,5284000
2017-10-17,1.1200000047683716,1.0499999523162842,1.0700000524520874,1.1100000143051147,540000
2017-10-18,1.1200000047683716,1.0900000333786009,1.100000023841858,1.0900000333786009,414000
2017-10-19,1.100000023841858,1.0399999618530271,1.0800000429153442,1.0900000333786009,16644000
2017-10-20,1.1299999952316284,1.0700000524520874,1.0900000333786009,1.1200000047683716,1646000
2017-10-23,1.2799999713897705,1.0700000524520874,1.1200000047683716,1.25,6444000
2017-10-24,1.309999942779541,1.190000057220459,1.25,1.2100000381469729,4812000
2017-10-25,1.2000000476837158,1.149999976158142,1.2000000476837158,1.1599999666213991,1106000
2017-10-26,1.2000000476837158,1.1599999666213991,1.190000057220459,1.2000000476837158,2850000
2017-10-27,1.2100000381469729,1.149999976158142,1.2100000381469729,1.1699999570846558,2062000
2017-10-30,1.1799999475479126,1.1200000047683716,1.1799999475479126,1.1200000047683716,972000
2017-10-31,1.1200000047683716,1.100000023841858,1.1200000047683716,1.100000023841858,356000
2017-11-01,1.1599999666213991,1.0800000429153442,1.100000023841858,1.1599999666213991,6376000
2017-11-02,1.1399999856948853,1.1100000143051147,1.1399999856948853,1.1100000143051147,504000
2017-11-03,1.2400000095367432,1.1100000143051147,1.1100000143051147,1.149999976158142,5998000
2017-11-06,1.1799999475479126,1.1399999856948853,1.149999976158142,1.1799999475479126,358000
2017-11-07,1.1799999475479126,1.1399999856948853,1.1399999856948853,1.1599999666213991,438000
2017-11-08,1.1699999570846558,1.1399999856948853,1.1599999666213991,1.149999976158142,642000
2017-11-09,1.2599999904632568,1.149999976158142,1.149999976158142,1.2100000381469729,3614000
2017-11-10,1.350000023841858,1.2300000190734863,1.2300000190734863,1.309999942779541,10104000
2017-11-13,1.5299999713897705,1.3200000524520874,1.3200000524520874,1.5,12598000
2017-11-14,1.6000000238418581,1.4199999570846558,1.5900000333786009,1.4199999570846558,8044000
2017-11-15,1.399999976158142,1.2400000095367432,1.3600000143051147,1.2999999523162842,5020000
2017-11-16,1.4199999570846558,1.2599999904632568,1.2999999523162842,1.350000023841858,2694000
2017-11-17,1.399999976158142,1.2899999618530271,1.350000023841858,1.2899999618530271,2354000
2017-11-20,1.3300000429153442,1.2200000286102295,1.2799999713897705,1.2999999523162842,1400000
2017-11-21,1.3300000429153442,1.2899999618530271,1.309999942779541,1.2999999523162842,406000
2017-11-22,1.3799999952316284,1.25,1.2899999618530271,1.3600000143051147,1720000
2017-11-23,1.350000023841858,1.2899999618530271,1.3600000143051147,1.309999942779541,1756000
2017-11-24,1.3600000143051147,1.2999999523162842,1.2999999523162842,1.350000023841858,1100000
2017-11-27,1.4500000476837158,1.3300000429153442,1.3400000333786009,1.4099999666213991,1468000
2017-11-28,1.7300000190734863,1.4800000190734863,1.4800000190734863,1.5900000333786009,14508000
2017-11-29,1.7699999809265137,1.5099999904632568,1.5900000333786009,1.7100000381469729,10446000
2017-11-30,1.7599999904632568,1.6399999856948853,1.6799999475479126,1.7100000381469729,2256000
2017-12-01,1.7300000190734863,1.5800000429153442,1.7100000381469729,1.6000000238418581,2068000
2017-12-04,1.6399999856948853,1.5700000524520874,1.6000000238418581,1.5700000524520874,1140000
2017-12-05,1.6399999856948853,1.5700000524520874,1.5700000524520874,1.5800000429153442,1566000
2017-12-06,1.6100000143051147,1.5199999809265137,1.5800000429153442,1.5299999713897705,2554000
2017-12-07,1.6000000238418581,1.4700000286102295,1.5299999713897705,1.5199999809265137,884000
2017-12-08,1.6100000143051147,1.5199999809265137,1.5199999809265137,1.5800000429153442,966000
2017-12-11,1.6000000238418581,1.5399999618530271,1.5800000429153442,1.5700000524520874,1342000
2017-12-12,1.5700000524520874,1.4900000095367432,1.4900000095367432,1.5700000524520874,152000
2017-12-13,1.5700000524520874,1.5299999713897705,1.559999942779541,1.5299999713897705,184000
2017-12-14,1.6000000238418581,1.4900000095367432,1.5,1.5499999523162842,1110000
2017-12-15,1.5499999523162842,1.5199999809265137,1.5299999713897705,1.5199999809265137,588000
2017-12-18,1.6499999761581419,1.5199999809265137,1.5399999618530271,1.5800000429153442,1550000
2017-12-19,1.5499999523162842,1.5,1.5499999523162842,1.5199999809265137,1108000
2017-12-20,1.5299999713897705,1.5,1.5299999713897705,1.5099999904632568,468000
2017-12-21,1.5399999618530271,1.399999976158142,1.5,1.4299999475479126,1502000
2017-12-22,1.4800000190734863,1.399999976158142,1.440000057220459,1.4299999475479126,334000
2017-12-27,1.4299999475479126,1.3700000047683716,1.4099999666213991,1.3899999856948853,1134000
2017-12-28,1.4500000476837158,1.350000023841858,1.350000023841858,1.4299999475479126,596000
2017-12-29,1.4500000476837158,1.3899999856948853,1.4500000476837158,1.4199999570846558,740000
2018-01-02,1.4500000476837158,1.4199999570846558,1.4500000476837158,1.4199999570846558,544000
2018-01-03,1.4500000476837158,1.3899999856948853,1.4199999570846558,1.440000057220459,620000
2018-01-04,1.4700000286102295,1.399999976158142,1.4199999570846558,1.4299999475479126,308000
2018-01-05,1.4299999475479126,1.3700000047683716,1.4199999570846558,1.4099999666213991,710000
2018-01-08,1.4900000095367432,1.4099999666213991,1.4199999570846558,1.4199999570846558,924000
2018-01-09,1.440000057220459,1.3799999952316284,1.399999976158142,1.4099999666213991,806000
2018-01-10,1.4199999570846558,1.3799999952316284,1.4199999570846558,1.399999976158142,876000
2018-01-11,1.4199999570846558,1.399999976158142,1.4199999570846558,1.399999976158142,80000
2018-01-12,1.4199999570846558,1.3799999952316284,1.4099999666213991,1.4099999666213991,780000
2018-01-15,1.4500000476837158,1.3700000047683716,1.440000057220459,1.440000057220459,2348000
2018-01-16,1.5499999523162842,1.4500000476837158,1.4500000476837158,1.4900000095367432,2452000
2018-01-17,1.6200000047683716,1.4700000286102295,1.5099999904632568,1.5800000429153442,3010000
2018-01-18,1.6599999666213991,1.5099999904632568,1.5800000429153442,1.5299999713897705,3206000
2018-01-19,1.5700000524520874,1.5199999809265137,1.5700000524520874,1.5199999809265137,502000
2018-01-22,1.5499999523162842,1.4800000190734863,1.5499999523162842,1.5,620000
2018-01-23,1.5700000524520874,1.4700000286102295,1.5700000524520874,1.5,552000
2018-01-24,1.5099999904632568,1.4600000381469729,1.5099999904632568,1.4800000190734863,496000
2018-01-25,1.5499999523162842,1.4800000190734863,1.5099999904632568,1.5299999713897705,980000
2018-01-26,1.5800000429153442,1.5,1.5199999809265137,1.5299999713897705,996000
2018-01-29,1.6000000238418581,1.5,1.5700000524520874,1.5900000333786009,2588000
2018-01-30,1.5900000333786009,1.5299999713897705,1.5700000524520874,1.5700000524520874,588000
2018-01-31,1.6799999475479126,1.5700000524520874,1.5700000524520874,1.6499999761581419,1480000
2018-02-01,1.7400000095367432,1.6299999952316284,1.6499999761581419,1.6799999475479126,2752000
2018-02-02,1.7100000381469729,1.6200000047683716,1.6499999761581419,1.6699999570846558,1348000
2018-02-05,1.6699999570846558,1.6699999570846558,1.6699999570846558,1.6699999570846558,0
2018-02-06,1.6699999570846558,1.6699999570846558,1.6699999570846558,1.6699999570846558,0
2018-02-07,1.6699999570846558,1.6699999570846558,1.6699999570846558,1.6699999570846558,0
2018-02-08,1.950000047683716,1.7699999809265137,1.8799999952316284,1.7799999713897705,131942000
2018-02-09,1.7899999618530271,1.7799999713897705,1.7799999713897705,1.7799999713897705,15606000
2018-02-12,1.7899999618530271,1.7799999713897705,1.7799999713897705,1.7799999713897705,6030000
2018-02-13,1.7899999618530271,1.7799999713897705,1.7899999618530271,1.7799999713897705,3778000
2018-02-14,1.7899999618530271,1.7799999713897705,1.7799999713897705,1.7799999713897705,3966000
2018-02-15,1.7999999523162842,1.7799999713897705,1.7799999713897705,1.7999999523162842,2560000
2018-02-20,1.7999999523162842,1.7799999713897705,1.7899999618530271,1.7799999713897705,4192000
2018-02-21,1.7899999618530271,1.7799999713897705,1.7899999618530271,1.7899999618530271,2474000
2018-02-22,1.7899999618530271,1.7799999713897705,1.7799999713897705,1.7899999618530271,21726000
2018-02-23,1.7899999618530271,1.7799999713897705,1.7899999618530271,1.7799999713897705,506000
2018-02-26,1.7899999618530271,1.7799999713897705,1.7899999618530271,1.7899999618530271,1408000
2018-02-27,1.7899999618530271,1.7799999713897705,1.7799999713897705,1.7799999713897705,3756000
2018-02-28,1.7899999618530271,1.7699999809265137,1.7899999618530271,1.7799999713897705,2987000
2018-03-01,1.7899999618530271,1.7799999713897705,1.7799999713897705,1.7799999713897705,1060000
2018-03-02,1.7799999713897705,1.7799999713897705,1.7799999713897705,1.7799999713897705,1325000
2018-03-05,1.7799999713897705,1.7699999809265137,1.7799999713897705,1.7799999713897705,362000
2018-03-06,1.7799999713897705,1.7699999809265137,1.7699999809265137,1.7699999809265137,964000
2018-03-07,1.7799999713897705,1.7699999809265137,1.7699999809265137,1.7799999713897705,752000
2018-03-08,1.7799999713897705,1.7699999809265137,1.7799999713897705,1.7699999809265137,514000
2018-03-09,1.7799999713897705,1.7699999809265137,1.7799999713897705,1.7699999809265137,2302000
2018-03-12,1.7799999713897705,1.7699999809265137,1.7799999713897705,1.7799999713897705,1204000
2018-03-13,1.7799999713897705,1.7699999809265137,1.7799999713897705,1.7799999713897705,714000
2018-03-14,1.7799999713897705,1.7699999809265137,1.7799999713897705,1.7799999713897705,1904000
2018-03-15,1.7799999713897705,1.7699999809265137,1.7699999809265137,1.7699999809265137,1130000
2018-03-16,1.7899999618530271,1.7699999809265137,1.7699999809265137,1.7899999618530271,3546000
2018-03-19,1.7899999618530271,1.7799999713897705,1.7899999618530271,1.7799999713897705,786000
2018-03-20,1.7899999618530271,1.7699999809265137,1.7799999713897705,1.7699999809265137,9638000
2018-03-21,1.7799999713897705,1.7699999809265137,1.7799999713897705,1.7799999713897705,702000
2018-03-22,2.309999942779541,1.7799999713897705,1.7799999713897705,1.8999999761581419,209002000
2018-03-23,1.9600000381469729,1.8200000524520876,1.830000042915344,1.8799999952316284,63838000
2018-03-26,1.950000047683716,1.8500000238418581,1.8799999952316284,1.9099999666213991,22074000
2018-03-27,1.9299999475479128,1.8600000143051147,1.919999957084656,1.8600000143051147,12794800
2018-03-28,1.8600000143051147,1.8200000524520876,1.8600000143051147,1.8500000238418581,10700000
2018-03-29,1.870000004768372,1.809999942779541,1.8600000143051147,1.8400000333786009,6276000
2018-04-03,1.9099999666213991,1.8400000333786009,1.8400000333786009,1.8500000238418581,10130000
2018-04-04,1.870000004768372,1.8200000524520876,1.8400000333786009,1.830000042915344,4020000
2018-04-06,1.8600000143051147,1.809999942779541,1.8500000238418581,1.8500000238418581,3420000
2018-04-09,1.8500000238418581,1.7999999523162842,1.8500000238418581,1.830000042915344,5962000
2018-04-10,1.919999957084656,1.8200000524520876,1.830000042915344,1.8999999761581419,12034000
2018-04-11,1.950000047683716,1.6299999952316284,1.9099999666213991,1.7799999713897705,24148000
2018-04-12,2.009999990463257,1.7300000190734863,1.7799999713897705,1.919999957084656,25888000
2018-04-13,1.9800000190734863,1.8500000238418581,1.919999957084656,1.870000004768372,7614000
2018-04-16,1.9600000381469729,1.75,1.8600000143051147,1.8600000143051147,14432000
2018-04-17,1.919999957084656,1.8200000524520876,1.870000004768372,1.8799999952316284,7948000
2018-04-18,1.919999957084656,1.7999999523162842,1.8899999856948853,1.8799999952316284,7444000
2018-04-19,1.8999999761581419,1.8600000143051147,1.8799999952316284,1.8899999856948853,3802000
2018-04-20,1.8999999761581419,1.8400000333786009,1.870000004768372,1.8899999856948853,3378000
2018-04-23,3.259999990463257,1.8899999856948853,1.8899999856948853,3.240000009536743,116536001
2018-04-24,3.3399999141693115,1.3200000524520874,3.2799999713897705,1.5,154918751
2018-04-25,1.7100000381469729,0.9800000190734864,1.6200000047683716,1.1100000143051147,144984000
2018-04-26,1.0299999713897705,0.8000000119209291,1.0299999713897705,0.8100000023841858,91245800
2018-04-27,1.0199999809265137,0.8199999928474426,0.8899999856948853,0.959999978542328,96066000
2018-04-30,1.0,0.8700000047683716,0.9800000190734864,0.8899999856948853,16526000
2018-05-02,0.9399999976158142,0.8600000143051147,0.9200000166893004,0.8799999952316284,9526000
2018-05-03,0.9800000190734864,0.8299999833106995,0.8600000143051147,0.8899999856948853,30984000
2018-05-04,0.9100000262260436,0.8399999737739563,0.8899999856948853,0.8500000238418579,8662000
2018-05-07,0.8700000047683716,0.8299999833106995,0.8500000238418579,0.8500000238418579,6142000
2018-05-08,0.8500000238418579,0.8299999833106995,0.8500000238418579,0.8500000238418579,5632000
2018-05-09,0.8399999737739563,0.8100000023841858,0.8299999833106995,0.8199999928474426,5082000
2018-05-10,0.8700000047683716,0.7900000214576721,0.8199999928474426,0.8299999833106995,8410000
2018-05-11,0.8299999833106995,0.8000000119209291,0.8299999833106995,0.8100000023841858,2394000
2018-05-14,0.8199999928474426,0.7900000214576721,0.8100000023841858,0.7900000214576721,2510000
2018-05-15,0.8000000119209291,0.75,0.7900000214576721,0.75,7424000
2018-05-16,0.7900000214576721,0.75,0.7900000214576721,0.7699999809265137,9286000
2018-05-17,0.8000000119209291,0.7599999904632568,0.7900000214576721,0.7599999904632568,4134000
2018-05-18,0.7799999713897705,0.7599999904632568,0.7599999904632568,0.7699999809265137,1674000
2018-05-21,0.7699999809265137,0.7200000286102295,0.7699999809265137,0.7300000190734863,5070000
2018-05-23,0.7400000095367432,0.6899999976158142,0.7200000286102295,0.7099999785423279,3778000
2018-05-24,0.699999988079071,0.6600000262260437,0.699999988079071,0.6700000166893005,5730000
2018-05-25,0.6600000262260437,0.6200000047683716,0.6600000262260437,0.6600000262260437,3322000
2018-05-28,0.8199999928474426,0.6299999952316284,0.6600000262260437,0.7799999713897705,19746000
2018-05-29,0.7900000214576721,0.7099999785423279,0.7900000214576721,0.7200000286102295,6072000
2018-05-30,0.7300000190734863,0.699999988079071,0.7200000286102295,0.7099999785423279,1654000
2018-05-31,0.7300000190734863,0.7099999785423279,0.7099999785423279,0.7099999785423279,1198000
2018-06-01,0.7699999809265137,0.6899999976158142,0.7099999785423279,0.7300000190734863,5536000
2018-06-04,0.7300000190734863,0.699999988079071,0.7300000190734863,0.699999988079071,2652000
2018-06-05,0.7099999785423279,0.6899999976158142,0.699999988079071,0.6899999976158142,840000
2018-06-06,0.7099999785423279,0.6800000071525574,0.6800000071525574,0.7099999785423279,1002000
2018-06-07,0.7099999785423279,0.6899999976158142,0.6899999976158142,0.7099999785423279,702000
2018-06-08,0.7099999785423279,0.6800000071525574,0.699999988079071,0.6899999976158142,738000
2018-06-11,0.699999988079071,0.6800000071525574,0.6899999976158142,0.6899999976158142,976000
2018-06-12,0.6899999976158142,0.6800000071525574,0.6899999976158142,0.6899999976158142,652000
2018-06-13,0.699999988079071,0.6800000071525574,0.6899999976158142,0.6899999976158142,654000
2018-06-14,0.699999988079071,0.6800000071525574,0.6800000071525574,0.6899999976158142,1446000
2018-06-15,0.6899999976158142,0.6700000166893005,0.6899999976158142,0.6800000071525574,1444000
2018-06-19,0.6600000262260437,0.6299999952316284,0.6600000262260437,0.6399999856948853,1006000
2018-06-20,0.6499999761581421,0.6200000047683716,0.6399999856948853,0.6299999952316284,1092000
2018-06-21,0.6399999856948853,0.6100000143051147,0.6299999952316284,0.6200000047683716,854000
2018-06-22,0.6600000262260437,0.6100000143051147,0.6100000143051147,0.6200000047683716,468000
2018-06-25,0.6299999952316284,0.6100000143051147,0.6299999952316284,0.6100000143051147,376000
2018-06-26,0.6200000047683716,0.6000000238418579,0.6100000143051147,0.6000000238418579,878000
2018-06-27,0.6000000238418579,0.550000011920929,0.6000000238418579,0.550000011920929,604000
2018-06-28,0.5699999928474426,0.550000011920929,0.5600000023841858,0.550000011920929,1256000
2018-06-29,0.5699999928474426,0.5199999809265137,0.550000011920929,0.5299999713897705,2536000
2018-07-03,0.5299999713897705,0.4950000047683716,0.5,0.5099999904632568,1628000
2018-07-04,0.5099999904632568,0.5,0.5,0.5,792000
2018-07-05,0.5,0.479999989271164,0.4950000047683716,0.4900000095367432,3442000
2018-07-06,0.4900000095367432,0.4699999988079071,0.4900000095367432,0.4900000095367432,768000
2018-07-09,0.4900000095367432,0.4699999988079071,0.4900000095367432,0.479999989271164,662000
2018-07-10,0.4850000143051148,0.4449999928474426,0.479999989271164,0.4749999940395355,736000
2018-07-11,0.4600000083446503,0.4099999964237213,0.4600000083446503,0.4600000083446503,974000
2018-07-12,0.44999998807907104,0.4350000023841858,0.4399999976158142,0.4399999976158142,958000
2018-07-13,0.4550000131130218,0.42500001192092896,0.42500001192092896,0.4399999976158142,878000
2018-07-16,0.44999998807907104,0.4149999916553497,0.4300000071525574,0.4350000023841858,1754000
2018-07-17,0.4449999928474426,0.4149999916553497,0.4350000023841858,0.41999998688697815,602000
2018-07-18,0.41999998688697815,0.4099999964237213,0.4149999916553497,0.4099999964237213,552100
2018-07-19,0.7400000095367432,0.4099999964237213,0.41999998688697815,0.7200000286102295,46374000
2018-07-20,0.8399999737739563,0.6100000143051147,0.7599999904632568,0.6700000166893005,36190000
2018-07-23,0.7200000286102295,0.6399999856948853,0.6700000166893005,0.6700000166893005,6140000
2018-07-24,0.6600000262260437,0.6399999856948853,0.6600000262260437,0.6499999761581421,2446000
2018-07-25,0.8600000143051147,0.6299999952316284,0.6600000262260437,0.7900000214576721,24064000
2018-07-26,0.8299999833106995,0.7400000095367432,0.8000000119209291,0.7599999904632568,6384000
2018-07-27,0.7599999904632568,0.7200000286102295,0.7400000095367432,0.7300000190734863,2716000
2018-07-30,0.7300000190734863,0.6800000071525574,0.7300000190734863,0.699999988079071,1418000
2018-07-31,0.8399999737739563,0.6700000166893005,0.6899999976158142,0.7400000095367432,6158000
2018-08-01,0.75,0.6800000071525574,0.7200000286102295,0.699999988079071,1356000
2018-08-02,0.6899999976158142,0.6499999761581421,0.6899999976158142,0.6700000166893005,1436000
2018-08-03,0.7099999785423279,0.6499999761581421,0.6600000262260437,0.6899999976158142,1318000
2018-08-06,0.7400000095367432,0.6899999976158142,0.699999988079071,0.699999988079071,1000000
2018-08-07,0.8000000119209291,0.699999988079071,0.699999988079071,0.7099999785423279,11176000
2018-08-08,0.7300000190734863,0.699999988079071,0.7099999785423279,0.7099999785423279,785000
2018-08-09,0.7099999785423279,0.6899999976158142,0.7099999785423279,0.7099999785423279,750000
2018-08-10,0.7200000286102295,0.699999988079071,0.7200000286102295,0.7099999785423279,1142000
2018-08-13,0.7099999785423279,0.6700000166893005,0.699999988079071,0.6800000071525574,448000
2018-08-14,0.6600000262260437,0.6499999761581421,0.6600000262260437,0.6499999761581421,1226000
2018-08-15,0.6499999761581421,0.6000000238418579,0.6499999761581421,0.6299999952316284,1278000
2018-08-16,0.6000000238418579,0.5899999737739563,0.6000000238418579,0.6000000238418579,288000
2018-08-17,0.6100000143051147,0.5799999833106995,0.6100000143051147,0.6100000143051147,516000
2018-08-20,0.6399999856948853,0.6100000143051147,0.6100000143051147,0.6100000143051147,278000
2018-08-21,0.6800000071525574,0.5899999737739563,0.6000000238418579,0.6200000047683716,1298000
2018-08-22,0.6299999952316284,0.6299999952316284,0.6299999952316284,0.6299999952316284,0
2018-08-23,0.6399999856948853,0.6000000238418579,0.6000000238418579,0.6299999952316284,280000
2018-08-24,0.6200000047683716,0.550000011920929,0.6100000143051147,0.5699999928474426,428000
2018-08-27,0.5899999737739563,0.5600000023841858,0.5899999737739563,0.5899999737739563,1010000
2018-08-28,0.6000000238418579,0.6000000238418579,0.6000000238418579,0.6000000238418579,104000
2018-08-29,0.5799999833106995,0.5699999928474426,0.5799999833106995,0.5699999928474426,112000
2018-08-30,0.6100000143051147,0.5699999928474426,0.5699999928474426,0.6100000143051147,66000
2018-08-31,0.5899999737739563,0.5899999737739563,0.5899999737739563,0.5899999737739563,0
2018-09-03,0.5799999833106995,0.550000011920929,0.5600000023841858,0.5699999928474426,378000
2018-09-04,0.5899999737739563,0.550000011920929,0.550000011920929,0.5699999928474426,302000
2018-09-05,0.5600000023841858,0.550000011920929,0.550000011920929,0.550000011920929,84000
2018-09-06,0.5400000214576721,0.5099999904632568,0.5299999713897705,0.5400000214576721,558000
2018-09-07,0.5400000214576721,0.5199999809265137,0.5299999713897705,0.5299999713897705,278000
2018-09-10,0.5400000214576721,0.5,0.5,0.5,464000
2018-09-11,0.4950000047683716,0.4749999940395355,0.4900000095367432,0.4950000047683716,268000
2018-09-12,0.4950000047683716,0.4699999988079071,0.4950000047683716,0.4749999940395355,48000
2018-09-13,0.4850000143051148,0.4600000083446503,0.4699999988079071,0.4749999940395355,358000
2018-09-14,0.550000011920929,0.479999989271164,0.479999989271164,0.5400000214576721,856000
2018-09-17,0.5199999809265137,0.4900000095367432,0.5199999809265137,0.4950000047683716,492000
2018-09-18,0.5099999904632568,0.5099999904632568,0.5099999904632568,0.5099999904632568,0
2018-09-19,0.5099999904632568,0.4950000047683716,0.5,0.5,200000
2018-09-20,0.5099999904632568,0.4749999940395355,0.4900000095367432,0.4900000095367432,1312000
2018-09-21,0.5099999904632568,0.4900000095367432,0.4900000095367432,0.5099999904632568,200000
2018-09-24,0.5099999904632568,0.4900000095367432,0.4950000047683716,0.4950000047683716,162000
2018-09-26,0.5,0.479999989271164,0.479999989271164,0.4900000095367432,232000
2018-09-27,0.6100000143051147,0.5,0.5299999713897705,0.5299999713897705,5268000
2018-09-28,0.5400000214576721,0.5199999809265137,0.5199999809265137,0.5199999809265137,324000
2018-10-02,0.5199999809265137,0.4850000143051148,0.5099999904632568,0.4950000047683716,554000
2018-10-03,0.4950000047683716,0.4650000035762787,0.4950000047683716,0.479999989271164,792000
2018-10-04,0.4699999988079071,0.4650000035762787,0.4699999988079071,0.4650000035762787,346000
2018-10-05,0.4850000143051148,0.4650000035762787,0.4650000035762787,0.4650000035762787,226000
2018-10-08,0.4699999988079071,0.4449999928474426,0.4699999988079071,0.4449999928474426,246000
2018-10-09,0.4600000083446503,0.4399999976158142,0.4449999928474426,0.44999998807907104,96000
2018-10-10,0.4550000131130218,0.4449999928474426,0.4550000131130218,0.4449999928474426,392000
2018-10-11,0.41999998688697815,0.4000000059604645,0.4099999964237213,0.4099999964237213,614000
2018-10-12,0.550000011920929,0.4000000059604645,0.41999998688697815,0.41999998688697815,7350000
2018-10-15,0.41999998688697815,0.4050000011920929,0.4149999916553497,0.4149999916553497,202000
2018-10-16,0.42500001192092896,0.4099999964237213,0.41999998688697815,0.41999998688697815,132250
2018-10-18,0.4149999916553497,0.4000000059604645,0.4099999964237213,0.4149999916553497,324000
2018-10-19,0.41999998688697815,0.3950000107288361,0.4000000059604645,0.4000000059604645,686000
2018-10-22,0.42500001192092896,0.4050000011920929,0.4099999964237213,0.4099999964237213,240000
2018-10-23,0.4099999964237213,0.4000000059604645,0.4099999964237213,0.4000000059604645,196000
2018-10-24,0.3950000107288361,0.3899999856948853,0.3950000107288361,0.3950000107288361,268000
2018-10-25,0.3950000107288361,0.375,0.3950000107288361,0.3899999856948853,474000
2018-10-26,0.3950000107288361,0.3700000047683716,0.3950000107288361,0.3799999952316284,284000
2018-10-29,0.375,0.3499999940395355,0.3700000047683716,0.35499998927116394,834000
2018-10-30,0.3650000095367432,0.3449999988079071,0.3499999940395355,0.3499999940395355,706000
2018-10-31,0.3700000047683716,0.3449999988079071,0.3499999940395355,0.3499999940395355,362000
2018-11-01,0.3650000095367432,0.3449999988079071,0.36000001430511475,0.36000001430511475,472000
2018-11-02,0.3700000047683716,0.3449999988079071,0.3499999940395355,0.3650000095367432,1342000
2018-11-05,0.36000001430511475,0.35499998927116394,0.36000001430511475,0.36000001430511475,406000
2018-11-06,0.3849999904632568,0.35499998927116394,0.35499998927116394,0.3700000047683716,832200
2018-11-07,0.3899999856948853,0.3799999952316284,0.3799999952316284,0.3899999856948853,702000
2018-11-08,0.4000000059604645,0.375,0.375,0.3799999952316284,314000
2018-11-09,0.3899999856948853,0.3799999952316284,0.3799999952316284,0.3799999952316284,284000
2018-11-12,0.375,0.3700000047683716,0.375,0.3700000047683716,376000
2018-11-13,0.3849999904632568,0.36000001430511475,0.3849999904632568,0.3700000047683716,274000
2018-11-14,0.36000001430511475,0.36000001430511475,0.36000001430511475,0.36000001430511475,68000
2018-11-15,0.41999998688697815,0.3650000095367432,0.3700000047683716,0.3849999904632568,2720000
2018-11-16,0.4099999964237213,0.3849999904632568,0.3849999904632568,0.3899999856948853,950000
2018-11-19,0.3950000107288361,0.3799999952316284,0.3899999856948853,0.3950000107288361,598000
2018-11-20,0.3950000107288361,0.3849999904632568,0.3849999904632568,0.3899999856948853,176000
2018-11-21,0.5400000214576721,0.4149999916553497,0.4149999916553497,0.5400000214576721,25958000
2018-11-22,0.5799999833106995,0.5,0.550000011920929,0.5099999904632568,10280000
2018-11-23,0.5099999904632568,0.4749999940395355,0.5099999904632568,0.479999989271164,3126000
2018-11-26,0.479999989271164,0.44999998807907104,0.479999989271164,0.4650000035762787,1756000
2018-11-27,0.5,0.4699999988079071,0.4699999988079071,0.4749999940395355,1282000
2018-11-28,0.479999989271164,0.4650000035762787,0.4699999988079071,0.479999989271164,698000
2018-11-29,0.5600000023841858,0.479999989271164,0.479999989271164,0.5299999713897705,13618000
2018-11-30,0.5400000214576721,0.5,0.5299999713897705,0.5199999809265137,5080000
2018-12-03,0.5199999809265137,0.4900000095367432,0.5199999809265137,0.5,1828000
2018-12-04,0.4950000047683716,0.4650000035762787,0.4950000047683716,0.4850000143051148,2378000
2018-12-05,0.4749999940395355,0.4600000083446503,0.4699999988079071,0.4650000035762787,1382000
2018-12-06,0.4699999988079071,0.4449999928474426,0.4600000083446503,0.4699999988079071,1350000
2018-12-07,0.479999989271164,0.44999998807907104,0.44999998807907104,0.4749999940395355,350000
2018-12-10,0.4699999988079071,0.44999998807907104,0.4650000035762787,0.4699999988079071,136000
2018-12-11,0.4950000047683716,0.44999998807907104,0.44999998807907104,0.4900000095367432,2414000
2018-12-12,0.5099999904632568,0.4650000035762787,0.5099999904632568,0.4699999988079071,1606000
2018-12-13,0.4699999988079071,0.4550000131130218,0.4699999988079071,0.4650000035762787,98000
2018-12-14,0.4699999988079071,0.44999998807907104,0.4550000131130218,0.4550000131130218,466000
2018-12-17,0.4399999976158142,0.4300000071525574,0.4399999976158142,0.4399999976158142,698000
2018-12-18,0.4399999976158142,0.41999998688697815,0.4399999976158142,0.42500001192092896,508000
2018-12-19,0.4399999976158142,0.4300000071525574,0.4350000023841858,0.4300000071525574,174000
2018-12-20,0.4300000071525574,0.4149999916553497,0.41999998688697815,0.41999998688697815,130000
2018-12-21,0.4350000023841858,0.4099999964237213,0.41999998688697815,0.41999998688697815,2244000
2018-12-24,0.41999998688697815,0.41999998688697815,0.41999998688697815,0.41999998688697815,0
2018-12-27,0.41999998688697815,0.4099999964237213,0.41999998688697815,0.41999998688697815,162000
2018-12-28,0.4149999916553497,0.4099999964237213,0.4099999964237213,0.4149999916553497,30000
2018-12-31,0.4149999916553497,0.4149999916553497,0.4149999916553497,0.4149999916553497,70000
2019-01-02,0.4050000011920929,0.3899999856948853,0.4000000059604645,0.4050000011920929,510000
2019-01-03,0.4000000059604645,0.3899999856948853,0.4000000059604645,0.3899999856948853,120000
2019-01-04,0.4099999964237213,0.4099999964237213,0.4099999964237213,0.4099999964237213,0
2019-01-07,0.4000000059604645,0.4000000059604645,0.4000000059604645,0.4000000059604645,20000
2019-01-08,0.4050000011920929,0.3899999856948853,0.4000000059604645,0.3899999856948853,162000
2019-01-09,0.4050000011920929,0.3950000107288361,0.3950000107288361,0.4050000011920929,82000
2019-01-10,0.4000000059604645,0.4000000059604645,0.4000000059604645,0.4050000011920929,40000
2019-01-11,0.4099999964237213,0.4000000059604645,0.4099999964237213,0.4050000011920929,226000
2019-01-14,0.4300000071525574,0.3950000107288361,0.3950000107288361,0.4300000071525574,78000
2019-01-15,0.41999998688697815,0.4050000011920929,0.4050000011920929,0.4099999964237213,432000
2019-01-16,0.4149999916553497,0.3950000107288361,0.3950000107288361,0.4000000059604645,352000
2019-01-17,0.4050000011920929,0.3950000107288361,0.4000000059604645,0.4000000059604645,374000
2019-01-18,0.4099999964237213,0.3950000107288361,0.4000000059604645,0.4000000059604645,294000
2019-01-21,0.4099999964237213,0.3899999856948853,0.3899999856948853,0.4099999964237213,274000
2019-01-22,0.4099999964237213,0.3899999856948853,0.3899999856948853,0.3899999856948853,24000
2019-01-23,0.4000000059604645,0.3899999856948853,0.3899999856948853,0.4000000059604645,152000
2019-01-24,0.4000000059604645,0.3950000107288361,0.4000000059604645,0.3950000107288361,38000
2019-01-25,0.4149999916553497,0.3899999856948853,0.3950000107288361,0.4000000059604645,266000
2019-01-28,0.4000000059604645,0.3899999856948853,0.3899999856948853,0.3899999856948853,254000
2019-01-29,0.3950000107288361,0.375,0.375,0.3849999904632568,66000
2019-01-30,0.4300000071525574,0.3849999904632568,0.3849999904632568,0.4050000011920929,1204000
2019-01-31,0.4099999964237213,0.4099999964237213,0.4099999964237213,0.4099999964237213,46000
2019-02-01,0.4099999964237213,0.3950000107288361,0.3950000107288361,0.4000000059604645,246000
2019-02-04,0.4050000011920929,0.3950000107288361,0.4050000011920929,0.4000000059604645,174000
2019-02-08,0.4099999964237213,0.4000000059604645,0.4000000059604645,0.4000000059604645,194000
2019-02-11,0.4149999916553497,0.4099999964237213,0.4149999916553497,0.4099999964237213,166000
2019-02-12,0.4149999916553497,0.4099999964237213,0.4099999964237213,0.4149999916553497,126000
2019-02-13,0.4149999916553497,0.4000000059604645,0.4099999964237213,0.4050000011920929,164000
2019-02-14,0.4099999964237213,0.4050000011920929,0.4050000011920929,0.4099999964237213,488000
2019-02-15,0.4149999916553497,0.4099999964237213,0.4149999916553497,0.4149999916553497,246000
2019-02-18,0.4050000011920929,0.3899999856948853,0.4050000011920929,0.4050000011920929,472000
2019-02-19,0.4050000011920929,0.3899999856948853,0.4000000059604645,0.3950000107288361,182000
2019-02-20,0.4099999964237213,0.3899999856948853,0.3899999856948853,0.4099999964237213,432000
2019-02-21,0.4099999964237213,0.4050000011920929,0.4099999964237213,0.4050000011920929,132000
2019-02-22,0.4099999964237213,0.3950000107288361,0.4000000059604645,0.3950000107288361,260000
2019-02-25,0.4149999916553497,0.3899999856948853,0.3899999856948853,0.4050000011920929,144000
2019-02-26,0.4050000011920929,0.4050000011920929,0.4050000011920929,0.4050000011920929,0
2019-02-27,0.4149999916553497,0.4000000059604645,0.4000000059604645,0.4099999964237213,116000
2019-02-28,0.4149999916553497,0.4000000059604645,0.4000000059604645,0.4000000059604645,86000
2019-03-01,0.4650000035762787,0.4099999964237213,0.4099999964237213,0.4449999928474426,5304000
2019-03-04,0.44999998807907104,0.42500001192092896,0.4300000071525574,0.4300000071525574,1056000
2019-03-05,0.5,0.42500001192092896,0.42500001192092896,0.4950000047683716,6972000
2019-03-06,0.5099999904632568,0.4550000131130218,0.5,0.4650000035762787,6450000
2019-03-07,0.4650000035762787,0.4399999976158142,0.4650000035762787,0.44999998807907104,1452000
2019-03-08,0.4449999928474426,0.42500001192092896,0.4449999928474426,0.42500001192092896,1452000
2019-03-11,0.4350000023841858,0.41999998688697815,0.42500001192092896,0.41999998688697815,570000
2019-03-12,0.4300000071525574,0.4149999916553497,0.4300000071525574,0.42500001192092896,576000
2019-03-13,0.4300000071525574,0.4149999916553497,0.4149999916553497,0.41999998688697815,728000
2019-03-14,0.4300000071525574,0.4149999916553497,0.42500001192092896,0.4149999916553497,514000
2019-03-15,0.4650000035762787,0.41999998688697815,0.41999998688697815,0.4550000131130218,1054000
2019-03-18,0.4600000083446503,0.4350000023841858,0.4350000023841858,0.4399999976158142,118000
2019-03-19,0.4749999940395355,0.4300000071525574,0.4300000071525574,0.4600000083446503,1462000
2019-03-20,0.4749999940395355,0.4550000131130218,0.4600000083446503,0.4699999988079071,960000
2019-03-21,0.4749999940395355,0.4449999928474426,0.4600000083446503,0.4600000083446503,258000
2019-03-22,0.4749999940395355,0.4699999988079071,0.4749999940395355,0.4699999988079071,218000
2019-03-25,0.4850000143051148,0.4699999988079071,0.4699999988079071,0.4699999988079071,482000
2019-03-26,0.4900000095367432,0.4399999976158142,0.4600000083446503,0.479999989271164,1470000
2019-03-27,0.4950000047683716,0.4600000083446503,0.4650000035762787,0.479999989271164,448000
2019-03-28,0.4749999940395355,0.44999998807907104,0.4600000083446503,0.4550000131130218,642000
2019-03-29,0.4850000143051148,0.4600000083446503,0.4650000035762787,0.4650000035762787,572000
2019-04-01,0.4699999988079071,0.44999998807907104,0.44999998807907104,0.44999998807907104,256000
2019-04-02,0.4600000083446503,0.4449999928474426,0.4449999928474426,0.4600000083446503,66000
2019-04-03,0.4600000083446503,0.4350000023841858,0.4449999928474426,0.4550000131130218,264000
2019-04-04,0.4550000131130218,0.4399999976158142,0.4550000131130218,0.4550000131130218,212000
2019-04-08,0.44999998807907104,0.4350000023841858,0.44999998807907104,0.4350000023841858,14000
2019-04-09,0.4600000083446503,0.4449999928474426,0.4449999928474426,0.4600000083446503,68000
2019-04-10,0.4550000131130218,0.4399999976158142,0.44999998807907104,0.44999998807907104,168000
2019-04-11,0.4449999928474426,0.4300000071525574,0.4449999928474426,0.4399999976158142,150000
2019-04-12,0.4449999928474426,0.4350000023841858,0.4350000023841858,0.4399999976158142,230000
2019-04-15,0.4350000023841858,0.42500001192092896,0.4300000071525574,0.42500001192092896,230000
2019-04-16,0.4350000023841858,0.41999998688697815,0.42500001192092896,0.42500001192092896,102000
2019-04-17,0.44999998807907104,0.4350000023841858,0.4350000023841858,0.44999998807907104,430000
2019-04-18,0.4449999928474426,0.41999998688697815,0.4350000023841858,0.4399999976158142,504000
2019-04-23,0.4350000023841858,0.4350000023841858,0.4350000023841858,0.4350000023841858,0
2019-04-24,0.4399999976158142,0.4300000071525574,0.4399999976158142,0.4350000023841858,212000
2019-04-25,0.44999998807907104,0.4399999976158142,0.4399999976158142,0.4399999976158142,190000
2019-04-26,0.4399999976158142,0.4350000023841858,0.4399999976158142,0.4350000023841858,336000
2019-04-29,0.4300000071525574,0.4099999964237213,0.4300000071525574,0.4099999964237213,410000
2019-04-30,0.4099999964237213,0.4000000059604645,0.4050000011920929,0.4099999964237213,260000
2019-05-02,0.4099999964237213,0.4099999964237213,0.4099999964237213,0.4099999964237213,0
2019-05-03,0.4050000011920929,0.4000000059604645,0.4000000059604645,0.4050000011920929,4000
2019-05-06,0.4050000011920929,0.3799999952316284,0.4000000059604645,0.3849999904632568,388000
2019-05-07,0.3899999856948853,0.3849999904632568,0.3899999856948853,0.3899999856948853,236000
2019-05-08,0.3950000107288361,0.3849999904632568,0.3849999904632568,0.3849999904632568,134000
2019-05-09,0.3799999952316284,0.3799999952316284,0.3799999952316284,0.3799999952316284,90000
2019-05-10,0.3899999856948853,0.3799999952316284,0.3799999952316284,0.3899999856948853,544000
2019-05-14,0.3849999904632568,0.3799999952316284,0.3799999952316284,0.3849999904632568,288000
2019-05-15,0.375,0.3650000095367432,0.3650000095367432,0.3700000047683716,256000
2019-05-16,0.3700000047683716,0.3700000047683716,0.3700000047683716,0.3700000047683716,56000
2019-05-17,0.375,0.375,0.375,0.375,7000
2019-05-20,0.375,0.3700000047683716,0.375,0.3700000047683716,40000
2019-05-21,0.3650000095367432,0.35499998927116394,0.36000001430511475,0.35499998927116394,172000
2019-05-22,0.375,0.3650000095367432,0.3650000095367432,0.3700000047683716,318000
2019-05-23,0.3700000047683716,0.35499998927116394,0.35499998927116394,0.36000001430511475,104000
2019-05-24,0.36000001430511475,0.36000001430511475,0.36000001430511475,0.36000001430511475,0
2019-05-27,0.36000001430511475,0.3499999940395355,0.3499999940395355,0.36000001430511475,360000
2019-05-28,0.36000001430511475,0.3499999940395355,0.36000001430511475,0.3499999940395355,54000
2019-05-29,0.3499999940395355,0.3499999940395355,0.3499999940395355,0.35499998927116394,14000
2019-05-30,0.3499999940395355,0.3499999940395355,0.3499999940395355,0.3499999940395355,8000
2019-05-31,0.3499999940395355,0.3449999988079071,0.3449999988079071,0.3499999940395355,128000
2019-06-03,0.3449999988079071,0.3449999988079071,0.3449999988079071,0.3449999988079071,78000
2019-06-04,0.3499999940395355,0.3499999940395355,0.3499999940395355,0.3499999940395355,0
2019-06-05,0.3499999940395355,0.3449999988079071,0.3449999988079071,0.3499999940395355,82000
2019-06-06,0.3499999940395355,0.3400000035762787,0.3449999988079071,0.3499999940395355,82000
2019-06-10,0.3499999940395355,0.3350000083446503,0.3350000083446503,0.3499999940395355,52000
2019-06-11,0.36000001430511475,0.35499998927116394,0.35499998927116394,0.36000001430511475,14000
2019-06-12,0.36000001430511475,0.3449999988079071,0.36000001430511475,0.3449999988079071,136000
2019-06-13,0.3899999856948853,0.3499999940395355,0.35499998927116394,0.3700000047683716,290000
2019-06-14,0.36000001430511475,0.36000001430511475,0.36000001430511475,0.36000001430511475,116000
2019-06-17,0.5299999713897705,0.4000000059604645,0.4000000059604645,0.4300000071525574,12974000
2019-06-18,0.4300000071525574,0.3899999856948853,0.4300000071525574,0.4000000059604645,988000
2019-06-19,0.42500001192092896,0.3799999952316284,0.3899999856948853,0.3899999856948853,2230000
2019-06-20,0.4300000071525574,0.3950000107288361,0.3950000107288361,0.3950000107288361,1508000
2019-06-21,0.4099999964237213,0.3950000107288361,0.4000000059604645,0.4099999964237213,272000
2019-06-24,0.41999998688697815,0.4000000059604645,0.41999998688697815,0.4149999916553497,66000
2019-06-25,0.4099999964237213,0.3950000107288361,0.4050000011920929,0.4099999964237213,396000
2019-06-26,0.41999998688697815,0.4000000059604645,0.4050000011920929,0.4050000011920929,450000
2019-06-27,0.41999998688697815,0.4000000059604645,0.4050000011920929,0.41999998688697815,238000
2019-06-28,0.41999998688697815,0.3799999952316284,0.41999998688697815,0.3799999952316284,458000
2019-07-02,0.4000000059604645,0.3799999952316284,0.3849999904632568,0.3849999904632568,324000
2019-07-03,0.3849999904632568,0.3799999952316284,0.3849999904632568,0.3849999904632568,334000
2019-07-04,0.3849999904632568,0.3849999904632568,0.3849999904632568,0.3849999904632568,182000
2019-07-05,0.3849999904632568,0.3700000047683716,0.3849999904632568,0.3700000047683716,116000
2019-07-08,0.36000001430511475,0.3499999940395355,0.36000001430511475,0.36000001430511475,744000
2019-07-09,0.36000001430511475,0.36000001430511475,0.36000001430511475,0.36000001430511475,0
2019-07-10,0.36000001430511475,0.3499999940395355,0.35499998927116394,0.36000001430511475,410000
2019-07-11,0.35499998927116394,0.35499998927116394,0.35499998927116394,0.35499998927116394,204000
2019-07-12,0.36000001430511475,0.3499999940395355,0.35499998927116394,0.35499998927116394,360000
2019-07-15,0.3499999940395355,0.3499999940395355,0.3499999940395355,0.3499999940395355,40000
2019-07-16,0.35499998927116394,0.3449999988079071,0.3449999988079071,0.3499999940395355,34000
2019-07-17,0.3499999940395355,0.3499999940395355,0.3499999940395355,0.3499999940395355,10000
2019-07-18,0.3499999940395355,0.3449999988079071,0.3499999940395355,0.3499999940395355,304000
2019-07-19,0.3499999940395355,0.3449999988079071,0.3449999988079071,0.3499999940395355,84000
2019-07-22,0.36000001430511475,0.3449999988079071,0.3449999988079071,0.36000001430511475,196000
2019-07-23,0.3499999940395355,0.3449999988079071,0.3499999940395355,0.3499999940395355,56000
2019-07-24,0.375,0.3499999940395355,0.3499999940395355,0.36000001430511475,402000
2019-07-25,0.36000001430511475,0.3499999940395355,0.36000001430511475,0.35499998927116394,168000
2019-07-26,0.35499998927116394,0.3499999940395355,0.35499998927116394,0.3499999940395355,130000
2019-07-29,0.35499998927116394,0.3499999940395355,0.35499998927116394,0.3499999940395355,46000
2019-07-30,0.3499999940395355,0.3449999988079071,0.3449999988079071,0.3499999940395355,38000
2019-07-31,0.3499999940395355,0.3499999940395355,0.3499999940395355,0.3499999940395355,0
2019-08-01,0.3449999988079071,0.3449999988079071,0.3449999988079071,0.3449999988079071,0
2019-08-02,0.3499999940395355,0.33000001311302185,0.3400000035762787,0.3449999988079071,288000
2019-08-05,0.3350000083446503,0.3149999976158142,0.3350000083446503,0.33000001311302185,358000
2019-08-06,0.3199999928474426,0.3100000023841858,0.3100000023841858,0.3100000023841858,194000
2019-08-07,0.3149999976158142,0.3149999976158142,0.3149999976158142,0.3149999976158142,0
2019-08-08,0.3350000083446503,0.3350000083446503,0.3199999928474426,0.3350000083446503,108100
2019-08-09,0.35499998927116394,0.32499998807907104,0.32499998807907104,0.3400000035762787,604000
2019-08-12,0.3449999988079071,0.32499998807907104,0.3449999988079071,0.33000001311302185,64000
2019-08-13,0.33000001311302185,0.3199999928474426,0.33000001311302185,0.33000001311302185,218000
2019-08-14,0.32499998807907104,0.32499998807907104,0.32499998807907104,0.32499998807907104,8000
2019-08-15,0.3149999976158142,0.3149999976158142,0.3149999976158142,0.3149999976158142,202000
2019-08-16,0.3199999928474426,0.3149999976158142,0.3199999928474426,0.3149999976158142,130000
2019-08-19,0.3149999976158142,0.3100000023841858,0.3149999976158142,0.3149999976158142,36000
2019-08-20,0.3149999976158142,0.3149999976158142,0.3149999976158142,0.3149999976158142,0
2019-08-21,0.3149999976158142,0.3149999976158142,0.3149999976158142,0.3149999976158142,0
2019-08-22,0.33000001311302185,0.3050000071525574,0.3100000023841858,0.33000001311302185,248000
2019-08-23,0.3149999976158142,0.3149999976158142,0.3149999976158142,0.3149999976158142,78000
2019-08-26,0.3199999928474426,0.30000001192092896,0.3199999928474426,0.3149999976158142,112000
2019-08-27,0.3100000023841858,0.3100000023841858,0.3100000023841858,0.3100000023841858,14000
2019-08-28,0.3149999976158142,0.3100000023841858,0.3149999976158142,0.3149999976158142,180000
2019-08-29,0.3100000023841858,0.30000001192092896,0.3100000023841858,0.3100000023841858,220000
2019-08-30,0.3050000071525574,0.2949999868869781,0.30000001192092896,0.30000001192092896,266000
2019-09-02,0.3199999928474426,0.2899999916553497,0.3149999976158142,0.3050000071525574,436000
2019-09-03,0.2949999868869781,0.2949999868869781,0.2949999868869781,0.2949999868869781,0
2019-09-04,0.3100000023841858,0.2949999868869781,0.2949999868869781,0.3100000023841858,260000
2019-09-05,0.3050000071525574,0.30000001192092896,0.30000001192092896,0.3050000071525574,120000
2019-09-06,0.30000001192092896,0.30000001192092896,0.30000001192092896,0.30000001192092896,0
2019-09-09,0.30000001192092896,0.2949999868869781,0.30000001192092896,0.30000001192092896,204000
2019-09-10,0.30000001192092896,0.30000001192092896,0.30000001192092896,0.30000001192092896,0
2019-09-11,0.32499998807907104,0.2800000011920929,0.30000001192092896,0.3100000023841858,942000
2019-09-12,0.3149999976158142,0.2949999868869781,0.3149999976158142,0.2949999868869781,126000
2019-09-13,0.2949999868869781,0.2949999868869781,0.2949999868869781,0.2949999868869781,0
2019-09-16,0.2849999964237213,0.2849999964237213,0.2849999964237213,0.2949999868869781,10000
2019-09-17,0.2949999868869781,0.2949999868869781,0.2949999868869781,0.2949999868869781,0
2019-09-18,0.3449999988079071,0.30000001192092896,0.30000001192092896,0.3100000023841858,2344000
2019-09-19,0.3050000071525574,0.30000001192092896,0.3050000071525574,0.30000001192092896,230000
2019-09-20,0.30000001192092896,0.2949999868869781,0.30000001192092896,0.2949999868869781,174000
2019-09-23,0.2949999868869781,0.2949999868869781,0.2949999868869781,0.2949999868869781,0
2019-09-24,0.2899999916553497,0.2849999964237213,0.2849999964237213,0.2899999916553497,62000
2019-09-25,0.2899999916553497,0.2800000011920929,0.2849999964237213,0.2849999964237213,46000
2019-09-26,0.2849999964237213,0.2800000011920929,0.2800000011920929,0.2849999964237213,84000
2019-09-27,0.2949999868869781,0.2849999964237213,0.2849999964237213,0.2949999868869781,110000
2019-09-30,0.2949999868869781,0.2949999868869781,0.2949999868869781,0.2949999868869781,0
2019-10-02,0.2899999916553497,0.2899999916553497,0.2899999916553497,0.2899999916553497,0
2019-10-03,0.2899999916553497,0.2899999916553497,0.2899999916553497,0.2899999916553497,0
2019-10-04,0.2849999964237213,0.2800000011920929,0.2899999916553497,0.2849999964237213,324000
2019-10-08,0.2849999964237213,0.2750000059604645,0.2849999964237213,0.2800000011920929,252000
2019-10-09,0.2800000011920929,0.2800000011920929,0.2800000011920929,0.2800000011920929,0
2019-10-10,0.2800000011920929,0.2800000011920929,0.2800000011920929,0.2800000011920929,0
2019-10-11,0.2750000059604645,0.2700000107288361,0.2800000011920929,0.2750000059604645,276000
2019-10-14,0.2750000059604645,0.26499998569488525,0.2700000107288361,0.2750000059604645,372000
2019-10-15,0.2750000059604645,0.2750000059604645,0.2750000059604645,0.2750000059604645,0
2019-10-16,0.2700000107288361,0.25999999046325684,0.26499998569488525,0.2700000107288361,330000
2019-10-17,0.2700000107288361,0.25999999046325684,0.25999999046325684,0.2700000107288361,8000
2019-10-18,0.2700000107288361,0.25999999046325684,0.25999999046325684,0.2700000107288361,64000
2019-10-21,0.2700000107288361,0.2700000107288361,0.2700000107288361,0.2700000107288361,0
2019-10-22,0.25999999046325684,0.25999999046325684,0.25999999046325684,0.26499998569488525,20000
2019-10-23,0.25999999046325684,0.2549999952316284,0.25999999046325684,0.2549999952316284,32000
2019-10-24,0.25999999046325684,0.25999999046325684,0.25999999046325684,0.25999999046325684,36000
2019-10-25,0.2899999916553497,0.2750000059604645,0.2750000059604645,0.2750000059604645,744000
2019-10-28,0.2700000107288361,0.25999999046325684,0.26499998569488525,0.26499998569488525,196000
2019-10-29,0.26499998569488525,0.26499998569488525,0.26499998569488525,0.26499998569488525,0
2019-10-30,0.26499998569488525,0.25,0.25,0.26499998569488525,70000
2019-10-31,0.26499998569488525,0.2430000007152557,0.25,0.26499998569488525,182000
2019-11-01,0.26499998569488525,0.2489999979734421,0.2489999979734421,0.26499998569488525,146000
2019-11-04,0.26499998569488525,0.26499998569488525,0.26499998569488525,0.26499998569488525,0
2019-11-05,0.26499998569488525,0.26499998569488525,0.26499998569488525,0.26499998569488525,0
2019-11-06,0.25999999046325684,0.25999999046325684,0.25999999046325684,0.25999999046325684,8000
2019-11-07,0.25999999046325684,0.25999999046325684,0.25999999046325684,0.25999999046325684,0
2019-11-08,0.2549999952316284,0.25,0.2549999952316284,0.2549999952316284,44000
2019-11-11,0.25999999046325684,0.25,0.25999999046325684,0.25,50000
2019-11-12,0.25,0.25,0.25,0.25,0
2019-11-13,0.2750000059604645,0.25,0.25,0.25999999046325684,768000
2019-11-14,0.25999999046325684,0.25999999046325684,0.25999999046325684,0.25999999046325684,0
2019-11-15,0.2549999952316284,0.2549999952316284,0.2549999952316284,0.2549999952316284,52000
2019-11-18,0.25999999046325684,0.25,0.2549999952316284,0.25999999046325684,380000
2019-11-19,0.3799999952316284,0.2750000059604645,0.2899999916553497,0.2899999916553497,20786000
2019-11-20,0.3199999928474426,0.2849999964237213,0.2849999964237213,0.2899999916553497,3094000
2019-11-21,0.2899999916553497,0.2750000059604645,0.2899999916553497,0.2750000059604645,592000
2019-11-22,0.2800000011920929,0.2549999952316284,0.26499998569488525,0.2800000011920929,970000
2019-11-25,0.2700000107288361,0.26499998569488525,0.2700000107288361,0.2700000107288361,300000
2019-11-26,0.2949999868869781,0.25999999046325684,0.2700000107288361,0.2899999916553497,1116000
2019-11-27,0.2949999868869781,0.2849999964237213,0.2899999916553497,0.2949999868869781,438000
2019-11-28,0.30000001192092896,0.2700000107288361,0.30000001192092896,0.2750000059604645,660000
2019-11-29,0.2800000011920929,0.25999999046325684,0.2800000011920929,0.2700000107288361,666000
2019-12-02,0.26499998569488525,0.25999999046325684,0.26499998569488525,0.26499998569488525,14000
2019-12-03,0.26499998569488525,0.25,0.2549999952316284,0.26499998569488525,352000
2019-12-04,0.3100000023841858,0.25,0.2549999952316284,0.26499998569488525,1296000
2019-12-05,0.26499998569488525,0.26499998569488525,0.26499998569488525,0.26499998569488525,0
2019-12-06,0.2750000059604645,0.2750000059604645,0.2750000059604645,0.2750000059604645,0
2019-12-09,0.25999999046325684,0.25999999046325684,0.25999999046325684,0.25999999046325684,104000
2019-12-10,0.25999999046325684,0.25999999046325684,0.25999999046325684,0.25999999046325684,0
2019-12-11,0.2700000107288361,0.25999999046325684,0.25999999046325684,0.25999999046325684,340000
2019-12-12,0.26499998569488525,0.25999999046325684,0.25999999046325684,0.26499998569488525,6000
2019-12-13,0.30000001192092896,0.25999999046325684,0.25999999046325684,0.26499998569488525,1024000
2019-12-16,0.2700000107288361,0.2700000107288361,0.2700000107288361,0.2700000107288361,10000
2019-12-17,0.2800000011920929,0.2700000107288361,0.2700000107288361,0.2800000011920929,80000
2019-12-18,0.2800000011920929,0.2700000107288361,0.2800000011920929,0.2800000011920929,30000
2019-12-19,0.2700000107288361,0.2700000107288361,0.2700000107288361,0.2700000107288361,0
2019-12-20,0.25999999046325684,0.25999999046325684,0.25999999046325684,0.25999999046325684,260000
2019-12-23,0.25999999046325684,0.25999999046325684,0.25999999046325684,0.25999999046325684,0
2019-12-24,0.2700000107288361,0.25999999046325684,0.25999999046325684,0.2700000107288361,172000
2019-12-27,0.2750000059604645,0.2700000107288361,0.2700000107288361,0.2750000059604645,160000
2019-12-30,0.25999999046325684,0.25999999046325684,0.25999999046325684,0.25999999046325684,28000
2019-12-31,0.2750000059604645,0.2750000059604645,0.2750000059604645,0.2750000059604645,20000
2020-01-02,0.2750000059604645,0.2750000059604645,0.2750000059604645,0.2750000059604645,0
2020-01-03,0.26499998569488525,0.25999999046325684,0.25999999046325684,0.26499998569488525,26000
2020-01-06,0.26499998569488525,0.26499998569488525,0.26499998569488525,0.26499998569488525,0
2020-01-07,0.26499998569488525,0.25999999046325684,0.25999999046325684,0.26499998569488525,64000
2020-01-08,0.2700000107288361,0.25999999046325684,0.26499998569488525,0.2700000107288361,150000
2020-01-09,0.26499998569488525,0.25999999046325684,0.26499998569488525,0.26499998569488525,106000
2020-01-10,0.2800000011920929,0.25999999046325684,0.25999999046325684,0.2750000059604645,1386000
2020-01-13,0.2750000059604645,0.2750000059604645,0.2750000059604645,0.2750000059604645,0
2020-01-14,0.2750000059604645,0.2750000059604645,0.2750000059604645,0.2750000059604645,0
2020-01-15,0.2750000059604645,0.2700000107288361,0.2700000107288361,0.2750000059604645,94000
2020-01-16,0.2700000107288361,0.26499998569488525,0.26499998569488525,0.2700000107288361,416000
2020-01-17,0.2700000107288361,0.26499998569488525,0.2700000107288361,0.2700000107288361,38000
2020-01-20,0.2700000107288361,0.2700000107288361,0.2700000107288361,0.2700000107288361,20000
2020-01-21,0.2700000107288361,0.2700000107288361,0.2700000107288361,0.2700000107288361,10000
2020-01-22,0.2750000059604645,0.26499998569488525,0.2700000107288361,0.2700000107288361,196000
2020-01-23,0.26499998569488525,0.26499998569488525,0.26499998569488525,0.26499998569488525,80000
2020-01-24,0.26499998569488525,0.26499998569488525,0.26499998569488525,0.2700000107288361,80000
2020-01-29,0.2700000107288361,0.25999999046325684,0.2700000107288361,0.2700000107288361,336000
2020-01-30,0.25999999046325684,0.2549999952316284,0.2549999952316284,0.2700000107288361,452000
2020-01-31,0.2700000107288361,0.2549999952316284,0.25999999046325684,0.2700000107288361,342000
2020-02-03,0.26499998569488525,0.2549999952316284,0.25999999046325684,0.26499998569488525,558000
2020-02-04,0.2750000059604645,0.2750000059604645,0.2750000059604645,0.2750000059604645,182000
2020-02-05,0.2750000059604645,0.2750000059604645,0.2750000059604645,0.2750000059604645,0
2020-02-06,0.2750000059604645,0.25999999046325684,0.25999999046325684,0.2750000059604645,56000
2020-02-07,0.2750000059604645,0.2750000059604645,0.2750000059604645,0.2750000059604645,0
2020-02-10,0.2700000107288361,0.2700000107288361,0.2700000107288361,0.2700000107288361,0
2020-02-11,0.2700000107288361,0.26499998569488525,0.26499998569488525,0.2700000107288361,610000
2020-02-12,0.2700000107288361,0.25999999046325684,0.2700000107288361,0.25999999046325684,570000
2020-02-13,0.26499998569488525,0.26499998569488525,0.26499998569488525,0.26499998569488525,2800000
2020-02-14,0.2750000059604645,0.2750000059604645,0.2750000059604645,0.2750000059604645,190000
2020-02-17,0.2800000011920929,0.2800000011920929,0.2800000011920929,0.2800000011920929,0
2020-02-18,0.26499998569488525,0.25999999046325684,0.26499998569488525,0.25999999046325684,158000
2020-02-19,0.25999999046325684,0.25999999046325684,0.25999999046325684,0.25999999046325684,0
2020-02-20,0.26499998569488525,0.26499998569488525,0.26499998569488525,0.26499998569488525,44000
2020-02-21,0.26499998569488525,0.26499998569488525,0.26499998569488525,0.26499998569488525,0
2020-02-24,0.26499998569488525,0.26499998569488525,0.26499998569488525,0.26499998569488525,0
2020-02-25,0.26499998569488525,0.26499998569488525,0.26499998569488525,0.26499998569488525,0
2020-02-26,0.25999999046325684,0.25999999046325684,0.25999999046325684,0.25999999046325684,124000
2020-02-27,0.26499998569488525,0.25999999046325684,0.26499998569488525,0.25999999046325684,186000
2020-02-28,0.25999999046325684,0.25999999046325684,0.25999999046325684,0.25999999046325684,512000
2020-03-02,0.25999999046325684,0.25999999046325684,0.25999999046325684,0.25999999046325684,0
2020-03-03,0.25999999046325684,0.25999999046325684,0.25999999046325684,0.25999999046325684,0
2020-03-04,0.25999999046325684,0.25999999046325684,0.25999999046325684,0.25999999046325684,56000
2020-03-05,0.25999999046325684,0.25999999046325684,0.25999999046325684,0.25999999046325684,30000
2020-03-06,0.25999999046325684,0.25999999046325684,0.25999999046325684,0.25999999046325684,662000
2020-03-09,0.25999999046325684,0.25999999046325684,0.25999999046325684,0.25999999046325684,0
2020-03-10,0.2549999952316284,0.2549999952316284,0.2549999952316284,0.2549999952316284,0
2020-03-11,0.2549999952316284,0.2549999952316284,0.2549999952316284,0.2549999952316284,490000
2020-03-12,0.25999999046325684,0.25,0.25,0.25,5428000
2020-03-13,0.2549999952316284,0.2450000047683716,0.25,0.25,784000
2020-03-16,0.25999999046325684,0.25,0.25,0.2549999952316284,808000
2020-03-17,0.25,0.25,0.25,0.25,196000
2020-03-18,0.2549999952316284,0.25,0.25,0.25,500000
2020-03-19,0.25,0.2409999966621399,0.25,0.2409999966621399,1432000
2020-03-20,0.25,0.2409999966621399,0.2409999966621399,0.2489999979734421,12000
2020-03-23,0.2489999979734421,0.23000000417232516,0.23199999332427976,0.2489999979734421,206000
2020-03-24,0.2430000007152557,0.23499999940395355,0.23499999940395355,0.2430000007152557,14000
2020-03-25,0.25,0.2450000047683716,0.2450000047683716,0.2460000067949295,146000
2020-03-26,0.2549999952316284,0.2460000067949295,0.2460000067949295,0.25,76000
2020-03-27,0.2460000067949295,0.2460000067949295,0.2460000067949295,0.25,312000
2020-03-30,0.25,0.239999994635582,0.2460000067949295,0.25,204000
2020-03-31,0.25,0.2440000027418137,0.25,0.24699999392032626,172000
2020-04-01,0.2460000067949295,0.2460000067949295,0.2460000067949295,0.2460000067949295,0
2020-04-02,0.24699999392032626,0.24699999392032626,0.24699999392032626,0.24699999392032626,0
2020-04-03,0.24799999594688416,0.24799999594688416,0.24799999594688416,0.24799999594688416,120000
2020-04-06,0.2450000047683716,0.2450000047683716,0.2450000047683716,0.2450000047683716,98000
2020-04-07,0.25,0.2460000067949295,0.2460000067949295,0.2460000067949295,264000
2020-04-08,0.2460000067949295,0.2460000067949295,0.2460000067949295,0.2460000067949295,0
2020-04-09,0.24799999594688416,0.24799999594688416,0.24799999594688416,0.24799999594688416,290000
2020-04-14,0.2549999952316284,0.24699999392032626,0.25,0.2489999979734421,4484000
2020-04-15,0.26499998569488525,0.25,0.24799999594688416,0.26499998569488525,522000
2020-04-16,0.26499998569488525,0.2549999952316284,0.2549999952316284,0.26499998569488525,12000
2020-04-17,0.2700000107288361,0.25999999046325684,0.25999999046325684,0.26499998569488525,578000
2020-04-20,0.2750000059604645,0.26499998569488525,0.26499998569488525,0.2750000059604645,56000
2020-04-21,0.2750000059604645,0.2750000059604645,0.2750000059604645,0.2750000059604645,0
2020-04-22,0.2750000059604645,0.2700000107288361,0.2700000107288361,0.2750000059604645,320000
2020-04-23,0.2849999964237213,0.26499998569488525,0.2750000059604645,0.26499998569488525,74000
2020-04-24,0.2800000011920929,0.26499998569488525,0.26499998569488525,0.2700000107288361,280000
2020-04-27,0.2700000107288361,0.26499998569488525,0.26499998569488525,0.26499998569488525,134000
2020-04-28,0.2750000059604645,0.25999999046325684,0.26499998569488525,0.2750000059604645,182000
2020-04-29,0.2899999916553497,0.2800000011920929,0.2800000011920929,0.2899999916553497,764000
2020-05-04,0.2899999916553497,0.2800000011920929,0.2899999916553497,0.2800000011920929,228000
2020-05-05,0.2949999868869781,0.2849999964237213,0.2849999964237213,0.2949999868869781,180000
2020-05-06,0.2949999868869781,0.2849999964237213,0.2849999964237213,0.2849999964237213,64000
2020-05-07,0.30000001192092896,0.2849999964237213,0.2849999964237213,0.2849999964237213,86000
2020-05-08,0.3199999928474426,0.2949999868869781,0.30000001192092896,0.3050000071525574,938000
2020-05-11,0.3199999928474426,0.2949999868869781,0.2949999868869781,0.3149999976158142,66000
2020-05-12,0.3449999988079071,0.3149999976158142,0.3149999976158142,0.3149999976158142,1336000
2020-05-13,0.3199999928474426,0.3199999928474426,0.3199999928474426,0.3199999928474426,100000
2020-05-14,0.3400000035762787,0.3199999928474426,0.3400000035762787,0.32499998807907104,582000
2020-05-15,0.3350000083446503,0.3050000071525574,0.3350000083446503,0.32499998807907104,290000
2020-05-18,0.33000001311302185,0.3199999928474426,0.32499998807907104,0.3199999928474426,274000
2020-05-19,0.32499998807907104,0.3149999976158142,0.3149999976158142,0.3199999928474426,354000
2020-05-20,0.3199999928474426,0.3050000071525574,0.3199999928474426,0.3199999928474426,394000
2020-05-21,0.32499998807907104,0.3149999976158142,0.3199999928474426,0.3149999976158142,322000
2020-05-22,0.3100000023841858,0.2849999964237213,0.3100000023841858,0.30000001192092896,588000
2020-05-25,0.3149999976158142,0.2949999868869781,0.2949999868869781,0.3149999976158142,344000
2020-05-26,0.33000001311302185,0.3149999976158142,0.3149999976158142,0.33000001311302185,14000
2020-05-27,0.3199999928474426,0.3100000023841858,0.3199999928474426,0.3100000023841858,216000
2020-05-28,0.33000001311302185,0.3100000023841858,0.3100000023841858,0.3199999928474426,128000
2020-05-29,0.3199999928474426,0.3100000023841858,0.3100000023841858,0.3199999928474426,154000
2020-06-01,0.33000001311302185,0.3199999928474426,0.3199999928474426,0.3199999928474426,192000
2020-06-02,0.33000001311302185,0.32499998807907104,0.32499998807907104,0.33000001311302185,224000
2020-06-03,0.375,0.33000001311302185,0.33000001311302185,0.3700000047683716,730000
2020-06-04,0.3499999940395355,0.3499999940395355,0.3499999940395355,0.3499999940395355,0
2020-06-05,0.36000001430511475,0.3449999988079071,0.36000001430511475,0.36000001430511475,594000
2020-06-08,0.3700000047683716,0.3700000047683716,0.3700000047683716,0.3700000047683716,206000
2020-06-09,0.3799999952316284,0.3700000047683716,0.3700000047683716,0.3799999952316284,130000
2020-06-10,0.3799999952316284,0.3799999952316284,0.3799999952316284,0.3799999952316284,34000
2020-06-11,0.4000000059604645,0.3799999952316284,0.3799999952316284,0.3799999952316284,86000
2020-06-12,0.375,0.375,0.375,0.375,16000
2020-06-15,0.375,0.375,0.375,0.375,0
2020-06-16,0.375,0.375,0.375,0.375,0
2020-06-17,0.3700000047683716,0.35499998927116394,0.35499998927116394,0.3700000047683716,56000
2020-06-18,0.3700000047683716,0.36000001430511475,0.36000001430511475,0.3700000047683716,122000
2020-06-19,0.3700000047683716,0.3650000095367432,0.3700000047683716,0.3650000095367432,112000
2020-06-22,0.3700000047683716,0.3650000095367432,0.3650000095367432,0.3650000095367432,214000
2020-06-23,0.3650000095367432,0.36000001430511475,0.3650000095367432,0.36000001430511475,220000
2020-06-24,0.3799999952316284,0.35499998927116394,0.35499998927116394,0.3799999952316284,210000
2020-06-26,0.375,0.375,0.375,0.375,0
2020-06-29,0.3199999928474426,0.30000001192092896,0.3199999928474426,0.3050000071525574,980000
2020-06-30,0.3050000071525574,0.3050000071525574,0.3050000071525574,0.3050000071525574,0
2020-07-02,0.2800000011920929,0.26499998569488525,0.2700000107288361,0.2800000011920929,1114000
2020-07-03,0.2849999964237213,0.2700000107288361,0.2700000107288361,0.2849999964237213,226000
2020-07-06,0.2800000011920929,0.2800000011920929,0.2800000011920929,0.2800000011920929,100000
2020-07-07,0.2700000107288361,0.26499998569488525,0.26499998569488525,0.2700000107288361,32000
2020-07-08,0.2700000107288361,0.2700000107288361,0.2700000107288361,0.2700000107288361,12000
2020-07-09,0.26499998569488525,0.25999999046325684,0.26499998569488525,0.25999999046325684,418000
2020-07-10,0.25,0.23100000619888306,0.25,0.2489999979734421,454000
2020-07-13,0.23399999737739566,0.23199999332427976,0.23399999737739566,0.23199999332427976,94000
2020-07-14,0.23199999332427976,0.23199999332427976,0.23199999332427976,0.23199999332427976,18000
2020-07-15,0.26499998569488525,0.2460000067949295,0.25,0.26499998569488525,142000
2020-07-16,0.26499998569488525,0.26499998569488525,0.26499998569488525,0.26499998569488525,0
2020-07-17,0.26499998569488525,0.26499998569488525,0.26499998569488525,0.26499998569488525,116000
2020-07-20,0.26499998569488525,0.26499998569488525,0.26499998569488525,0.26499998569488525,0
2020-07-21,0.2800000011920929,0.26499998569488525,0.26499998569488525,0.2800000011920929,154000
2020-07-22,0.2800000011920929,0.2700000107288361,0.2800000011920929,0.2700000107288361,30000
2020-07-23,0.2700000107288361,0.2700000107288361,0.2700000107288361,0.2700000107288361,58000
2020-07-24,0.2700000107288361,0.2700000107288361,0.2700000107288361,0.2700000107288361,56000
2020-07-27,0.2700000107288361,0.26499998569488525,0.26499998569488525,0.2700000107288361,240000
2020-07-28,0.26499998569488525,0.25999999046325684,0.26499998569488525,0.25999999046325684,144000
2020-07-29,0.25999999046325684,0.2549999952316284,0.25999999046325684,0.2549999952316284,360000
2020-07-30,0.25,0.25,0.25,0.25,10000
2020-07-31,0.25,0.2430000007152557,0.25,0.25,2914000
2020-08-03,0.25,0.25,0.25,0.25,0
2020-08-04,0.25,0.25,0.25,0.25,20000
2020-08-05,0.25999999046325684,0.2549999952316284,0.2549999952316284,0.2549999952316284,190000
2020-08-06,0.2549999952316284,0.2549999952316284,0.2549999952316284,0.2549999952316284,4000
2020-08-07,0.2549999952316284,0.25,0.2549999952316284,0.25,146000
2020-08-10,0.25,0.25,0.25,0.25,0
2020-08-11,0.25999999046325684,0.2450000047683716,0.25,0.25999999046325684,510000
2020-08-12,0.25999999046325684,0.25999999046325684,0.25999999046325684,0.25999999046325684,0
2020-08-13,0.2549999952316284,0.2450000047683716,0.2460000067949295,0.2549999952316284,6000
2020-08-14,0.2450000047683716,0.2450000047683716,0.2450000047683716,0.2450000047683716,94000
2020-08-17,0.2549999952316284,0.2450000047683716,0.2450000047683716,0.2450000047683716,82000
2020-08-18,0.2549999952316284,0.2450000047683716,0.2450000047683716,0.2549999952316284,26000
2020-08-19,0.25999999046325684,0.25,0.25999999046325684,0.25,34000
2020-08-20,0.25,0.25,0.25,0.25,0
2020-08-21,0.25,0.25,0.25,0.25,0
2020-08-24,0.25,0.25,0.25,0.25,0
