Date,High,Low,Open,Close,Volume
2020-01-21,1.5399999618530271,1.3799999952316284,1.4500000476837158,1.5199999809265137,54942000.0
2020-01-22,1.5199999809265137,1.4500000476837158,1.4700000286102295,1.4800000190734863,4562000.0
2020-01-23,1.4600000381469729,1.399999976158142,1.440000057220459,1.399999976158142,2438000.0
2020-01-24,1.5,1.3200000524520874,1.350000023841858,1.5,2538000.0
2020-01-29,1.4600000381469729,1.3300000429153442,1.4600000381469729,1.350000023841858,1804000.0
2020-01-30,1.2999999523162842,1.1799999475479126,1.2999999523162842,1.1799999475479126,1926000.0
2020-01-31,1.2300000190734863,1.0700000524520874,1.0700000524520874,1.1200000047683716,1082000.0
2020-02-03,1.1399999856948853,1.0199999809265137,1.0299999713897705,1.100000023841858,960000.0
2020-02-04,1.1599999666213991,1.0800000429153442,1.100000023841858,1.1299999952316284,668000.0
2020-02-05,1.2300000190734863,1.1299999952316284,1.1299999952316284,1.149999976158142,992000.0
2020-02-06,1.2000000476837158,1.1200000047683716,1.149999976158142,1.1599999666213991,754000.0
2020-02-07,1.190000057220459,1.1399999856948853,1.149999976158142,1.1699999570846558,314000.0
2020-02-10,1.1699999570846558,1.1299999952316284,1.1299999952316284,1.1599999666213991,158000.0
2020-02-11,1.2200000286102295,1.1299999952316284,1.149999976158142,1.2000000476837158,266000.0
2020-02-12,1.2000000476837158,1.1299999952316284,1.2000000476837158,1.1799999475479126,468000.0
2020-02-13,1.1799999475479126,1.1200000047683716,1.1399999856948853,1.1399999856948853,570000.0
2020-02-14,1.149999976158142,1.1100000143051147,1.1299999952316284,1.149999976158142,168000.0
2020-02-17,1.1699999570846558,1.1200000047683716,1.149999976158142,1.1399999856948853,426000.0
2020-02-18,1.149999976158142,1.1100000143051147,1.1299999952316284,1.1399999856948853,430000.0
2020-02-19,1.1399999856948853,1.1100000143051147,1.1200000047683716,1.1399999856948853,220000.0
2020-02-20,1.1399999856948853,1.1100000143051147,1.1200000047683716,1.1399999856948853,166000.0
2020-02-21,1.1399999856948853,1.1100000143051147,1.1299999952316284,1.1200000047683716,468000.0
2020-02-24,1.1100000143051147,1.0900000333786009,1.100000023841858,1.1100000143051147,108000.0
2020-02-25,1.1100000143051147,1.0599999427795408,1.100000023841858,1.0800000429153442,334000.0
2020-02-26,1.0700000524520874,1.0399999618530271,1.0700000524520874,1.0399999618530271,272000.0
2020-02-27,1.0800000429153442,1.0199999809265137,1.0399999618530271,1.0199999809265137,244000.0
2020-02-28,1.0299999713897705,1.0,1.0,1.0199999809265137,228000.0
2020-03-02,1.0800000429153442,1.0099999904632568,1.0099999904632568,1.0299999713897705,144000.0
2020-03-03,1.0599999427795408,1.0199999809265137,1.0299999713897705,1.0399999618530271,118000.0
2020-03-04,1.0499999523162842,1.0099999904632568,1.0399999618530271,1.0299999713897705,622000.0
2020-03-05,1.0399999618530271,1.0299999713897705,1.0299999713897705,1.0299999713897705,68000.0
2020-03-06,1.0299999713897705,1.0199999809265137,1.0299999713897705,1.0299999713897705,22000.0
2020-03-09,1.0299999713897705,1.0299999713897705,1.0299999713897705,1.0299999713897705,0.0
2020-03-10,0.9499999880790709,0.9499999880790709,0.9499999880790709,0.9499999880790709,0.0
2020-03-11,0.9700000286102296,0.9200000166893004,0.959999978542328,0.9300000071525574,148000.0
2020-03-12,0.8999999761581421,0.8299999833106995,0.8999999761581421,0.8399999737739563,760000.0
2020-03-13,0.8299999833106995,0.699999988079071,0.8299999833106995,0.7699999809265137,1590000.0
2020-03-16,0.75,0.699999988079071,0.7300000190734863,0.7400000095367432,98000.0
2020-03-17,0.7400000095367432,0.6800000071525574,0.7400000095367432,0.6899999976158142,488000.0
2020-03-18,0.8999999761581421,0.6899999976158142,0.6899999976158142,0.7300000190734863,608000.0
2020-03-19,0.699999988079071,0.6800000071525574,0.699999988079071,0.6899999976158142,220000.0
2020-03-20,0.8399999737739563,0.699999988079071,0.699999988079071,0.7400000095367432,150000.0
2020-03-23,0.7400000095367432,0.6899999976158142,0.7400000095367432,0.699999988079071,82000.0
2020-03-24,0.7400000095367432,0.7099999785423279,0.7099999785423279,0.7300000190734863,84000.0
2020-03-25,0.7799999713897705,0.7300000190734863,0.7300000190734863,0.7699999809265137,36000.0
2020-03-26,0.7699999809265137,0.75,0.7699999809265137,0.7599999904632568,38000.0
2020-03-27,0.7900000214576721,0.75,0.7599999904632568,0.7900000214576721,192000.0
2020-03-30,0.7799999713897705,0.7599999904632568,0.7599999904632568,0.7799999713897705,32000.0
2020-03-31,0.8999999761581421,0.7799999713897705,0.7799999713897705,0.8299999833106995,696000.0
2020-04-01,0.959999978542328,0.8299999833106995,0.8299999833106995,0.8500000238418579,602000.0
2020-04-02,0.8899999856948853,0.8500000238418579,0.8500000238418579,0.8899999856948853,52000.0
2020-04-03,0.8600000143051147,0.8000000119209291,0.8500000238418579,0.8199999928474426,108000.0
2020-04-06,0.8199999928474426,0.8199999928474426,0.8199999928474426,0.8199999928474426,10000.0
2020-04-07,0.8199999928474426,0.7799999713897705,0.8199999928474426,0.8000000119209291,84000.0
2020-04-08,0.8000000119209291,0.7699999809265137,0.7900000214576721,0.8000000119209291,18000.0
2020-04-09,0.8000000119209291,0.7799999713897705,0.8000000119209291,0.7799999713897705,192000.0
2020-04-14,0.7900000214576721,0.7699999809265137,0.7699999809265137,0.7799999713897705,108000.0
2020-04-15,0.8500000238418579,0.7900000214576721,0.7900000214576721,0.7900000214576721,108000.0
2020-04-16,0.8100000023841858,0.8000000119209291,0.8000000119209291,0.8100000023841858,38000.0
2020-04-17,0.8100000023841858,0.7900000214576721,0.7900000214576721,0.8000000119209291,70000.0
2020-04-20,0.8000000119209291,0.7699999809265137,0.8000000119209291,0.7699999809265137,98000.0
2020-04-21,0.7799999713897705,0.7699999809265137,0.7699999809265137,0.7799999713897705,56000.0
2020-04-22,0.7799999713897705,0.7699999809265137,0.7799999713897705,0.7799999713897705,26000.0
2020-04-23,0.8600000143051147,0.75,0.7699999809265137,0.8399999737739563,222000.0
2020-04-24,0.8199999928474426,0.8100000023841858,0.8199999928474426,0.8100000023841858,68000.0
2020-04-27,0.8199999928474426,0.8000000119209291,0.8100000023841858,0.8199999928474426,68000.0
2020-04-28,0.8299999833106995,0.8100000023841858,0.8299999833106995,0.8199999928474426,438000.0
2020-04-29,0.8100000023841858,0.8100000023841858,0.8100000023841858,0.8100000023841858,24000.0
2020-05-04,0.7799999713897705,0.7400000095367432,0.7799999713897705,0.7599999904632568,32000.0
2020-05-05,0.8000000119209291,0.75,0.7599999904632568,0.7599999904632568,44000.0
2020-05-06,0.8000000119209291,0.7599999904632568,0.7599999904632568,0.7799999713897705,98000.0
2020-05-07,0.7799999713897705,0.7599999904632568,0.7599999904632568,0.7699999809265137,28000.0
2020-05-08,0.8500000238418579,0.7599999904632568,0.7699999809265137,0.7599999904632568,180000.0
2020-05-11,0.7799999713897705,0.7799999713897705,0.7799999713897705,0.7799999713897705,32000.0
2020-05-12,0.8199999928474426,0.7699999809265137,0.7799999713897705,0.8000000119209291,36000.0
2020-05-13,0.8000000119209291,0.7799999713897705,0.7900000214576721,0.8000000119209291,58000.0
2020-05-14,0.8000000119209291,0.7799999713897705,0.8000000119209291,0.8000000119209291,90000.0
2020-05-15,0.8000000119209291,0.7799999713897705,0.7900000214576721,0.8000000119209291,244000.0
2020-05-18,0.7900000214576721,0.7599999904632568,0.7900000214576721,0.7900000214576721,220000.0
2020-05-19,0.8000000119209291,0.7699999809265137,0.7699999809265137,0.7799999713897705,32000.0
2020-05-20,0.8199999928474426,0.7799999713897705,0.7799999713897705,0.8000000119209291,276000.0
2020-05-21,0.8100000023841858,0.7300000190734863,0.8000000119209291,0.7699999809265137,326000.0
2020-05-22,0.7699999809265137,0.7300000190734863,0.7300000190734863,0.7699999809265137,22000.0
2020-05-25,0.7900000214576721,0.7300000190734863,0.7300000190734863,0.7799999713897705,74000.0
2020-05-26,0.7799999713897705,0.7300000190734863,0.7799999713897705,0.7400000095367432,74000.0
2020-05-27,0.7599999904632568,0.7400000095367432,0.7400000095367432,0.7599999904632568,34000.0
2020-05-28,0.7699999809265137,0.7200000286102295,0.7599999904632568,0.7699999809265137,94000.0
2020-05-29,0.8000000119209291,0.75,0.75,0.7699999809265137,66000.0
2020-06-01,0.7900000214576721,0.75,0.7599999904632568,0.75,78000.0
2020-06-02,0.7799999713897705,0.7599999904632568,0.7599999904632568,0.7699999809265137,142000.0
2020-06-03,0.8000000119209291,0.7599999904632568,0.7599999904632568,0.8000000119209291,130000.0
2020-06-04,0.8000000119209291,0.7699999809265137,0.7799999713897705,0.7699999809265137,88000.0
2020-06-05,0.8000000119209291,0.7599999904632568,0.7599999904632568,0.7799999713897705,120000.0
2020-06-08,0.8000000119209291,0.7799999713897705,0.7799999713897705,0.8000000119209291,100000.0
2020-06-09,0.8199999928474426,0.7900000214576721,0.8199999928474426,0.7900000214576721,244000.0
2020-06-10,0.8199999928474426,0.7799999713897705,0.7900000214576721,0.8100000023841858,196000.0
2020-06-11,0.8199999928474426,0.8000000119209291,0.8100000023841858,0.8000000119209291,102000.0
2020-06-12,0.8000000119209291,0.7699999809265137,0.7799999713897705,0.7900000214576721,92000.0
2020-06-15,0.9399999976158142,0.8199999928474426,0.8199999928474426,0.8899999856948853,1840000.0
2020-06-16,1.0499999523162842,0.8899999856948853,0.8899999856948853,1.0199999809265137,2569200.0
2020-06-17,1.0399999618530271,0.9100000262260436,0.9700000286102296,0.9300000071525574,964000.0
2020-06-18,0.9200000166893004,0.8799999952316284,0.9100000262260436,0.9100000262260436,556000.0
2020-06-19,0.9300000071525574,0.8999999761581421,0.9100000262260436,0.9100000262260436,214000.0
2020-06-22,0.9900000095367432,0.8799999952316284,0.8999999761581421,0.9800000190734864,210000.0
2020-06-23,1.0099999904632568,0.9499999880790709,0.9800000190734864,0.9900000095367432,674000.0
2020-06-24,0.9800000190734864,0.9200000166893004,0.9399999976158142,0.9300000071525574,316000.0
2020-06-26,0.9300000071525574,0.8999999761581421,0.8999999761581421,0.9100000262260436,194000.0
2020-06-29,0.9100000262260436,0.8700000047683716,0.8999999761581421,0.8799999952316284,160000.0
2020-06-30,0.8999999761581421,0.8700000047683716,0.8700000047683716,0.8799999952316284,536000.0
2020-07-02,0.8899999856948853,0.7799999713897705,0.8500000238418579,0.8299999833106995,440000.0
2020-07-03,2.6700000762939453,0.8399999737739563,0.8899999856948853,1.0499999523162842,1836000.0
2020-07-06,1.2000000476837158,1.0099999904632568,1.0499999523162842,1.190000057220459,1160000.0
2020-07-07,1.2000000476837158,1.100000023841858,1.190000057220459,1.1200000047683716,600000.0
2020-07-08,1.1699999570846558,1.1100000143051147,1.1100000143051147,1.1200000047683716,358000.0
2020-07-09,1.1100000143051147,1.0199999809265137,1.1100000143051147,1.0800000429153442,418000.0
2020-07-10,1.0800000429153442,1.0199999809265137,1.0800000429153442,1.0299999713897705,158000.0
2020-07-13,1.0199999809265137,0.959999978542328,1.0199999809265137,0.9800000190734864,200000.0
2020-07-14,0.9900000095367432,0.9399999976158142,0.9700000286102296,0.9900000095367432,314000.0
2020-07-15,0.9900000095367432,0.9499999880790709,0.9499999880790709,0.9900000095367432,86000.0
2020-07-16,0.9800000190734864,0.9499999880790709,0.959999978542328,0.9499999880790709,150000.0
2020-07-17,0.9499999880790709,0.8999999761581421,0.9300000071525574,0.9300000071525574,52000.0
2020-07-20,0.9200000166893004,0.8899999856948853,0.8999999761581421,0.9200000166893004,74000.0
2020-07-21,0.959999978542328,0.9300000071525574,0.9300000071525574,0.9399999976158142,106000.0
2020-07-22,0.9499999880790709,0.8999999761581421,0.9100000262260436,0.9200000166893004,162000.0
2020-07-23,0.9700000286102296,0.8999999761581421,0.8999999761581421,0.9300000071525574,38000.0
2020-07-24,0.9100000262260436,0.9100000262260436,0.9100000262260436,0.9100000262260436,0.0
2020-07-27,0.8999999761581421,0.8700000047683716,0.8999999761581421,0.8999999761581421,8000.0
2020-07-28,0.8999999761581421,0.8500000238418579,0.8999999761581421,0.8999999761581421,180000.0
2020-07-29,0.8999999761581421,0.8700000047683716,0.8799999952316284,0.8899999856948853,42000.0
2020-07-30,0.9200000166893004,0.8899999856948853,0.8899999856948853,0.9100000262260436,18000.0
2020-07-31,0.8999999761581421,0.8999999761581421,0.8999999761581421,0.8999999761581421,0.0
2020-08-03,0.959999978542328,0.8999999761581421,0.959999978542328,0.9499999880790709,112000.0
2020-08-04,0.9200000166893004,0.8899999856948853,0.8999999761581421,0.9200000166893004,12000.0
2020-08-05,1.0,0.8500000238418579,0.8999999761581421,0.959999978542328,2266000.0
2020-08-06,0.9700000286102296,0.9200000166893004,0.9700000286102296,0.9499999880790709,342000.0
2020-08-07,0.959999978542328,0.8899999856948853,0.9100000262260436,0.959999978542328,772000.0
2020-08-10,0.959999978542328,0.9499999880790709,0.9499999880790709,0.959999978542328,324000.0
2020-08-11,0.959999978542328,0.9300000071525574,0.9399999976158142,0.959999978542328,22000.0
2020-08-12,0.959999978542328,0.9300000071525574,0.9300000071525574,0.959999978542328,116000.0
2020-08-13,0.959999978542328,0.9300000071525574,0.9300000071525574,0.959999978542328,110000.0
2020-08-14,0.959999978542328,0.9300000071525574,0.959999978542328,0.959999978542328,100000.0
2020-08-17,0.959999978542328,0.9300000071525574,0.959999978542328,0.959999978542328,44000.0
2020-08-18,0.9700000286102296,0.9700000286102296,0.9700000286102296,0.9700000286102296,50000.0
2020-08-19,0.959999978542328,0.9499999880790709,0.959999978542328,0.959999978542328,16000.0
2020-08-20,0.9700000286102296,0.8999999761581421,0.9399999976158142,0.959999978542328,114000.0
2020-08-21,0.959999978542328,0.9399999976158142,0.9399999976158142,0.959999978542328,42000.0
2020-08-24,0.959999978542328,0.9200000166893004,0.9399999976158142,0.959999978542328,96000.0
2020-08-25,1.0399999618530271,0.9399999976158142,0.9499999880790709,1.0299999713897705,552000.0
