Date,High,Low,Open,Close,Volume
2018-03-05,0.4650000035762787,0.375,0.4350000023841858,0.3849999904632568,277378300.0
2018-03-06,0.4300000071525574,0.3700000047683716,0.4000000059604645,0.3849999904632568,141688000.0
2018-03-07,0.4050000011920929,0.35499998927116394,0.3849999904632568,0.36000001430511475,93880000.0
2018-03-08,0.3700000047683716,0.3449999988079071,0.36000001430511475,0.36000001430511475,32544000.0
2018-03-09,0.3849999904632568,0.3499999940395355,0.3650000095367432,0.3700000047683716,93728000.0
2018-03-12,0.3950000107288361,0.375,0.3799999952316284,0.3799999952316284,49712000.0
2018-03-13,0.3799999952316284,0.36000001430511475,0.3799999952316284,0.36000001430511475,14120000.0
2018-03-14,0.36000001430511475,0.3499999940395355,0.36000001430511475,0.35499998927116394,8892000.0
2018-03-15,0.3499999940395355,0.3199999928474426,0.3499999940395355,0.33000001311302185,33680000.0
2018-03-16,0.33000001311302185,0.3149999976158142,0.33000001311302185,0.3149999976158142,17376000.0
2018-03-19,0.33000001311302185,0.3050000071525574,0.3149999976158142,0.3050000071525574,10600000.0
2018-03-20,0.3050000071525574,0.2899999916553497,0.30000001192092896,0.2949999868869781,17004000.0
2018-03-21,0.3050000071525574,0.26499998569488525,0.30000001192092896,0.2700000107288361,23232000.0
2018-03-22,0.2899999916553497,0.2549999952316284,0.26499998569488525,0.2849999964237213,16704000.0
2018-03-23,0.2800000011920929,0.2549999952316284,0.2750000059604645,0.2700000107288361,7440000.0
2018-03-26,0.2750000059604645,0.2549999952316284,0.25999999046325684,0.2700000107288361,5888000.0
2018-03-27,0.2849999964237213,0.26499998569488525,0.2700000107288361,0.2700000107288361,5256000.0
2018-03-28,0.2700000107288361,0.25999999046325684,0.2700000107288361,0.25999999046325684,5824000.0
2018-03-29,0.26499998569488525,0.25,0.25999999046325684,0.25,7560000.0
2018-04-03,0.2549999952316284,0.239999994635582,0.25,0.2450000047683716,3560000.0
2018-04-04,0.2700000107288361,0.2489999979734421,0.2489999979734421,0.25,7016000.0
2018-04-06,0.2549999952316284,0.2409999966621399,0.2549999952316284,0.2489999979734421,2488000.0
2018-04-09,0.2489999979734421,0.2380000054836273,0.2460000067949295,0.23899999260902405,3320000.0
2018-04-10,0.2750000059604645,0.2380000054836273,0.23899999260902405,0.26499998569488525,11552000.0
2018-04-11,0.2800000011920929,0.2549999952316284,0.2700000107288361,0.25999999046325684,3752000.0
2018-04-12,0.25999999046325684,0.2489999979734421,0.25999999046325684,0.25,2864000.0
2018-04-13,0.2700000107288361,0.25,0.25,0.25999999046325684,1464000.0
2018-04-16,0.2549999952316284,0.24799999594688416,0.25,0.25,2344000.0
2018-04-17,0.25999999046325684,0.24699999392032626,0.24799999594688416,0.25,1536000.0
2018-04-18,0.25,0.2460000067949295,0.25,0.24799999594688416,3432000.0
2018-04-19,0.25999999046325684,0.2450000047683716,0.24699999392032626,0.25,1896000.0
2018-04-20,0.25,0.2440000027418137,0.25,0.2450000047683716,2144000.0
2018-04-23,0.2419999986886978,0.23899999260902405,0.2419999986886978,0.2409999966621399,1592000.0
2018-04-24,0.25,0.2409999966621399,0.2409999966621399,0.24699999392032626,520000.0
2018-04-25,0.2489999979734421,0.2380000054836273,0.2450000047683716,0.2489999979734421,1568000.0
2018-04-26,0.2450000047683716,0.239999994635582,0.2440000027418137,0.239999994635582,1840000.0
2018-04-27,0.2440000027418137,0.2380000054836273,0.2380000054836273,0.239999994635582,264000.0
2018-04-30,0.2450000047683716,0.239999994635582,0.239999994635582,0.2419999986886978,400000.0
2018-05-02,0.2549999952316284,0.2419999986886978,0.2450000047683716,0.2549999952316284,1696000.0
2018-05-03,0.25,0.24699999392032626,0.25,0.25,744000.0
2018-05-04,0.25,0.2460000067949295,0.25,0.25,376000.0
2018-05-07,0.2750000059604645,0.25,0.25,0.25999999046325684,9728000.0
2018-05-08,0.2700000107288361,0.2549999952316284,0.26499998569488525,0.2549999952316284,3624000.0
2018-05-09,0.3050000071525574,0.25999999046325684,0.25999999046325684,0.2899999916553497,26912000.0
2018-05-10,0.3050000071525574,0.2700000107288361,0.2949999868869781,0.2899999916553497,7952000.0
2018-05-11,0.2899999916553497,0.2700000107288361,0.2899999916553497,0.2750000059604645,6432000.0
2018-05-14,0.2949999868869781,0.2750000059604645,0.2750000059604645,0.2949999868869781,5272000.0
2018-05-15,0.32499998807907104,0.2899999916553497,0.2899999916553497,0.3149999976158142,45512001.0
2018-05-16,0.3400000035762787,0.30000001192092896,0.3149999976158142,0.3050000071525574,32116000.0
2018-05-17,0.3050000071525574,0.2899999916553497,0.3050000071525574,0.2949999868869781,4176000.0
2018-05-18,0.3199999928474426,0.2899999916553497,0.2949999868869781,0.3100000023841858,12912000.0
2018-05-21,0.3350000083446503,0.30000001192092896,0.3100000023841858,0.32499998807907104,17744000.0
2018-05-23,0.32499998807907104,0.3149999976158142,0.3149999976158142,0.3199999928474426,3472000.0
2018-05-24,0.33000001311302185,0.3149999976158142,0.3149999976158142,0.3199999928474426,3320000.0
2018-05-25,0.33000001311302185,0.3149999976158142,0.3199999928474426,0.3199999928474426,6768000.0
2018-05-28,0.3149999976158142,0.3100000023841858,0.3100000023841858,0.3100000023841858,2496000.0
2018-05-29,0.3149999976158142,0.2849999964237213,0.3100000023841858,0.2899999916553497,7896000.0
2018-05-30,0.2949999868869781,0.2800000011920929,0.2849999964237213,0.2899999916553497,3752000.0
2018-05-31,0.30000001192092896,0.2899999916553497,0.2899999916553497,0.2949999868869781,1280000.0
2018-06-01,0.3050000071525574,0.2899999916553497,0.2899999916553497,0.30000001192092896,1664000.0
2018-06-04,0.3050000071525574,0.2899999916553497,0.3050000071525574,0.2949999868869781,1648000.0
2018-06-05,0.2949999868869781,0.2849999964237213,0.2949999868869781,0.2849999964237213,1124700.0
2018-06-06,0.2849999964237213,0.2700000107288361,0.2849999964237213,0.2750000059604645,3584000.0
2018-06-07,0.2849999964237213,0.26499998569488525,0.2750000059604645,0.2750000059604645,2376000.0
2018-06-08,0.2750000059604645,0.26499998569488525,0.2700000107288361,0.2700000107288361,984000.0
2018-06-11,0.2800000011920929,0.26499998569488525,0.2800000011920929,0.2700000107288361,808000.0
2018-06-12,0.2899999916553497,0.2750000059604645,0.2750000059604645,0.2800000011920929,1864000.0
2018-06-13,0.2800000011920929,0.2700000107288361,0.2800000011920929,0.2700000107288361,512000.0
2018-06-14,0.2800000011920929,0.2700000107288361,0.2700000107288361,0.2800000011920929,1496000.0
2018-06-15,0.2899999916553497,0.2700000107288361,0.2700000107288361,0.2849999964237213,1304000.0
2018-06-19,0.2750000059604645,0.26499998569488525,0.2750000059604645,0.2700000107288361,1264000.0
2018-06-20,0.2700000107288361,0.25999999046325684,0.2700000107288361,0.26499998569488525,1976000.0
2018-06-21,0.2700000107288361,0.25999999046325684,0.2700000107288361,0.26499998569488525,1744000.0
2018-06-22,0.26499998569488525,0.25999999046325684,0.25999999046325684,0.25999999046325684,664000.0
2018-06-25,0.2700000107288361,0.25999999046325684,0.25999999046325684,0.25999999046325684,440000.0
2018-06-26,0.25999999046325684,0.239999994635582,0.25999999046325684,0.25,1568000.0
2018-06-27,0.2549999952316284,0.25,0.25,0.2549999952316284,1200000.0
2018-06-28,0.25,0.2450000047683716,0.25,0.2450000047683716,2304000.0
2018-06-29,0.25,0.2460000067949295,0.2460000067949295,0.24799999594688416,1080000.0
2018-07-03,0.24699999392032626,0.2419999986886978,0.24699999392032626,0.2430000007152557,720000.0
2018-07-04,0.2430000007152557,0.239999994635582,0.2430000007152557,0.239999994635582,472000.0
2018-07-05,0.2489999979734421,0.2370000034570694,0.2419999986886978,0.2430000007152557,1880000.0
2018-07-06,0.23899999260902405,0.2360000014305115,0.2380000054836273,0.2380000054836273,920000.0
2018-07-09,0.2430000007152557,0.2380000054836273,0.2380000054836273,0.2430000007152557,696000.0
2018-07-10,0.2800000011920929,0.2430000007152557,0.2430000007152557,0.25999999046325684,4352000.0
2018-07-11,0.2549999952316284,0.239999994635582,0.2549999952316284,0.239999994635582,3064000.0
2018-07-12,0.2450000047683716,0.23899999260902405,0.239999994635582,0.23899999260902405,464000.0
2018-07-13,0.2489999979734421,0.239999994635582,0.239999994635582,0.24699999392032626,1720000.0
2018-07-16,0.24699999392032626,0.239999994635582,0.24699999392032626,0.2409999966621399,280000.0
2018-07-17,0.2440000027418137,0.2370000034570694,0.239999994635582,0.2409999966621399,888000.0
2018-07-18,0.239999994635582,0.2380000054836273,0.239999994635582,0.23899999260902405,464000.0
2018-07-19,0.239999994635582,0.2380000054836273,0.23899999260902405,0.23899999260902405,376000.0
2018-07-20,0.2460000067949295,0.2370000034570694,0.23899999260902405,0.2460000067949295,2384000.0
2018-07-23,0.25999999046325684,0.2370000034570694,0.2419999986886978,0.2549999952316284,8456000.0
2018-07-24,0.25,0.239999994635582,0.25,0.2419999986886978,1872000.0
2018-07-25,0.25999999046325684,0.2450000047683716,0.24699999392032626,0.24799999594688416,2104000.0
2018-07-26,0.25,0.2460000067949295,0.24799999594688416,0.2460000067949295,1352000.0
2018-07-27,0.25,0.2419999986886978,0.2419999986886978,0.2450000047683716,808000.0
2018-07-30,0.2450000047683716,0.2450000047683716,0.2450000047683716,0.2450000047683716,0.0
2018-07-31,0.2419999986886978,0.2360000014305115,0.2419999986886978,0.2409999966621399,448000.0
2018-08-01,0.2419999986886978,0.2380000054836273,0.2419999986886978,0.2380000054836273,720000.0
2018-08-02,0.239999994635582,0.2290000021457672,0.2370000034570694,0.2290000021457672,1904000.0
2018-08-03,0.23199999332427976,0.22599999606609344,0.2290000021457672,0.23199999332427976,1344000.0
2018-08-06,0.23199999332427976,0.22599999606609344,0.22699999809265134,0.23000000417232516,8000.0
2018-08-07,0.22699999809265134,0.21699999272823334,0.22699999809265134,0.22300000488758087,1328000.0
2018-08-08,0.23399999737739566,0.22699999809265134,0.22699999809265134,0.23000000417232516,112000.0
2018-08-09,0.22699999809265134,0.22699999809265134,0.22699999809265134,0.22699999809265134,448000.0
2018-08-10,0.2360000014305115,0.22300000488758087,0.2360000014305115,0.22499999403953552,408000.0
2018-08-13,0.23499999940395355,0.22300000488758087,0.22699999809265134,0.23499999940395355,2744000.0
2018-08-14,0.22699999809265134,0.22599999606609344,0.22699999809265134,0.22599999606609344,1032000.0
2018-08-15,0.22699999809265134,0.22599999606609344,0.22599999606609344,0.22599999606609344,464000.0
2018-08-16,0.22599999606609344,0.22100000083446505,0.22599999606609344,0.22100000083446505,448000.0
2018-08-17,0.23000000417232516,0.21699999272823334,0.23000000417232516,0.2240000069141388,64000.0
2018-08-20,0.22300000488758087,0.2150000035762787,0.2199999988079071,0.22300000488758087,528000.0
2018-08-21,0.22300000488758087,0.21699999272823334,0.2199999988079071,0.22300000488758087,2208000.0
2018-08-22,0.22300000488758087,0.2140000015497208,0.2140000015497208,0.2199999988079071,896000.0
2018-08-23,0.2199999988079071,0.2199999988079071,0.2199999988079071,0.2199999988079071,40000.0
2018-08-24,0.2179999947547913,0.20999999344348907,0.21199999749660486,0.21699999272823334,512000.0
2018-08-27,0.2140000015497208,0.2140000015497208,0.2140000015497208,0.2140000015497208,16000.0
2018-08-28,0.21299999952316284,0.2070000022649765,0.21299999952316284,0.21199999749660486,1056000.0
2018-08-29,0.2280000001192093,0.20000000298023224,0.2070000022649765,0.22200000286102292,1816000.0
2018-08-30,0.22200000286102292,0.21199999749660486,0.21199999749660486,0.22200000286102292,48000.0
2018-08-31,0.2199999988079071,0.21199999749660486,0.21299999952316284,0.21199999749660486,216000.0
2018-09-03,0.20900000631809235,0.2029999941587448,0.2029999941587448,0.20900000631809235,568000.0
2018-09-04,0.23399999737739566,0.2029999941587448,0.2029999941587448,0.2280000001192093,3064000.0
2018-09-05,0.22599999606609344,0.2160000056028366,0.22599999606609344,0.22100000083446505,1168000.0
2018-09-06,0.2329999953508377,0.21199999749660486,0.21199999749660486,0.2240000069141388,888000.0
2018-09-07,0.2240000069141388,0.2140000015497208,0.2240000069141388,0.2140000015497208,360000.0
2018-09-10,0.2199999988079071,0.21199999749660486,0.2140000015497208,0.21199999749660486,80000.0
2018-09-11,0.20999999344348907,0.2029999941587448,0.20999999344348907,0.2029999941587448,544000.0
2018-09-12,0.20499999821186066,0.19499999284744265,0.19599999487400052,0.20100000500679016,632000.0
2018-09-13,0.2140000015497208,0.20100000500679016,0.2140000015497208,0.2080000042915344,168000.0
2018-09-14,0.20100000500679016,0.20000000298023224,0.20100000500679016,0.20000000298023224,216000.0
2018-09-17,0.19599999487400052,0.19200000166893005,0.19599999487400052,0.1940000057220459,504000.0
2018-09-18,0.20000000298023224,0.18700000643730166,0.193000003695488,0.19900000095367432,896000.0
2018-09-19,0.21299999952316284,0.19200000166893005,0.19200000166893005,0.1979999989271164,1040000.0
2018-09-20,0.19599999487400052,0.19499999284744265,0.19599999487400052,0.19599999487400052,80000.0
2018-09-21,0.210999995470047,0.20000000298023224,0.2070000022649765,0.20399999618530276,944000.0
2018-09-24,0.20900000631809235,0.20000000298023224,0.20000000298023224,0.20399999618530276,384000.0
2018-09-26,0.20900000631809235,0.2029999941587448,0.20399999618530276,0.20499999821186066,400000.0
2018-09-27,0.20600000023841855,0.20499999821186066,0.20499999821186066,0.20600000023841855,64000.0
2018-09-28,0.20499999821186066,0.19499999284744265,0.20499999821186066,0.19900000095367432,1976000.0
2018-10-02,0.20000000298023224,0.19200000166893005,0.20000000298023224,0.1940000057220459,1032000.0
2018-10-03,0.20000000298023224,0.19599999487400052,0.19599999487400052,0.19900000095367432,176000.0
2018-10-04,0.19900000095367432,0.19900000095367432,0.19900000095367432,0.19900000095367432,0.0
2018-10-05,0.20000000298023224,0.1899999976158142,0.19099999964237213,0.19599999487400052,464000.0
2018-10-08,0.19200000166893005,0.1850000023841858,0.1850000023841858,0.19200000166893005,224000.0
2018-10-09,0.19099999964237213,0.1850000023841858,0.19099999964237213,0.18700000643730166,200000.0
2018-10-10,0.19200000166893005,0.18700000643730166,0.18700000643730166,0.19200000166893005,200000.0
2018-10-11,0.1860000044107437,0.1809999942779541,0.1809999942779541,0.181999996304512,472000.0
2018-10-12,0.18700000643730166,0.18700000643730166,0.18700000643730166,0.18700000643730166,8000.0
2018-10-15,0.1850000023841858,0.1809999942779541,0.1809999942779541,0.1809999942779541,80000.0
2018-10-16,0.18299999833106995,0.1809999942779541,0.181999996304512,0.18299999833106995,240000.0
2018-10-18,0.19499999284744265,0.19499999284744265,0.19499999284744265,0.1940000057220459,48000.0
2018-10-19,0.18299999833106995,0.17100000381469727,0.18299999833106995,0.17800000309944153,1128000.0
2018-10-22,0.1770000010728836,0.17499999701976776,0.1770000010728836,0.17900000512599945,104000.0
2018-10-23,0.17800000309944153,0.17800000309944153,0.17800000309944153,0.17800000309944153,0.0
2018-10-24,0.17800000309944153,0.17800000309944153,0.17800000309944153,0.17800000309944153,0.0
2018-10-25,0.17499999701976776,0.17499999701976776,0.17499999701976776,0.17499999701976776,0.0
2018-10-26,0.17800000309944153,0.17800000309944153,0.17000000178813934,0.17800000309944153,304000.0
2018-10-29,0.17599999904632568,0.17100000381469727,0.17100000381469727,0.1720000058412552,184000.0
2018-10-30,0.17100000381469727,0.16899999976158142,0.17100000381469727,0.17100000381469727,816000.0
2018-10-31,0.16899999976158142,0.16899999976158142,0.16899999976158142,0.16899999976158142,0.0
2018-11-01,0.18400000035762787,0.17000000178813934,0.17399999499320984,0.18299999833106995,704000.0
2018-11-02,0.18700000643730166,0.18299999833106995,0.18299999833106995,0.1860000044107437,88000.0
2018-11-05,0.18400000035762787,0.18000000715255735,0.18000000715255735,0.18400000035762787,56000.0
2018-11-06,0.1899999976158142,0.181999996304512,0.181999996304512,0.1899999976158142,16000.0
2018-11-07,0.1979999989271164,0.1879999935626984,0.1879999935626984,0.19699999690055847,232000.0
2018-11-08,0.21199999749660486,0.19499999284744265,0.20000000298023224,0.19900000095367432,832000.0
2018-11-09,0.19499999284744265,0.19499999284744265,0.19499999284744265,0.19499999284744265,0.0
2018-11-12,0.19499999284744265,0.19499999284744265,0.19499999284744265,0.19499999284744265,0.0
2018-11-13,0.19099999964237213,0.1899999976158142,0.19099999964237213,0.19099999964237213,32000.0
2018-11-14,0.19099999964237213,0.1860000044107437,0.19099999964237213,0.1860000044107437,216000.0
2018-11-15,0.1860000044107437,0.1860000044107437,0.1860000044107437,0.1860000044107437,0.0
2018-11-16,0.1860000044107437,0.1860000044107437,0.1860000044107437,0.1860000044107437,0.0
2018-11-19,0.19200000166893005,0.18700000643730166,0.1899999976158142,0.19099999964237213,584000.0
2018-11-20,0.22599999606609344,0.19900000095367432,0.19900000095367432,0.2150000035762787,4040000.0
2018-11-21,0.2450000047683716,0.21699999272823334,0.21699999272823334,0.22499999403953552,3400000.0
2018-11-22,0.2329999953508377,0.22300000488758087,0.23000000417232516,0.23100000619888306,1512000.0
2018-11-23,0.23100000619888306,0.22100000083446505,0.23100000619888306,0.22200000286102292,344000.0
2018-11-26,0.2290000021457672,0.21199999749660486,0.21299999952316284,0.2290000021457672,568000.0
2018-11-27,0.2280000001192093,0.2189999967813492,0.2189999967813492,0.22300000488758087,216000.0
2018-11-28,0.22300000488758087,0.22300000488758087,0.22300000488758087,0.22300000488758087,0.0
2018-11-29,0.22300000488758087,0.22300000488758087,0.22300000488758087,0.22300000488758087,0.0
2018-11-30,0.22200000286102292,0.22200000286102292,0.22200000286102292,0.22200000286102292,0.0
2018-12-03,0.2080000042915344,0.2080000042915344,0.2080000042915344,0.2080000042915344,0.0
2018-12-04,0.23000000417232516,0.2080000042915344,0.2179999947547913,0.2160000056028366,328000.0
2018-12-05,0.20999999344348907,0.2029999941587448,0.2070000022649765,0.2070000022649765,352000.0
2018-12-06,0.2070000022649765,0.1979999989271164,0.20100000500679016,0.20000000298023224,344000.0
2018-12-07,0.19499999284744265,0.19499999284744265,0.19499999284744265,0.1979999989271164,192000.0
2018-12-10,0.1979999989271164,0.19699999690055847,0.1979999989271164,0.19699999690055847,64000.0
2018-12-11,0.19699999690055847,0.19699999690055847,0.19699999690055847,0.19699999690055847,0.0
2018-12-12,0.1899999976158142,0.18700000643730166,0.1899999976158142,0.18700000643730166,56000.0
2018-12-13,0.19499999284744265,0.19499999284744265,0.19499999284744265,0.19499999284744265,24000.0
2018-12-14,0.19499999284744265,0.19499999284744265,0.19499999284744265,0.19499999284744265,0.0
2018-12-17,0.19499999284744265,0.19499999284744265,0.19499999284744265,0.19499999284744265,0.0
2018-12-18,0.19499999284744265,0.19499999284744265,0.19499999284744265,0.19499999284744265,0.0
2018-12-19,0.19499999284744265,0.19499999284744265,0.19499999284744265,0.19499999284744265,0.0
2018-12-20,0.19499999284744265,0.19499999284744265,0.19499999284744265,0.19499999284744265,0.0
2018-12-21,0.18299999833106995,0.1720000058412552,0.17299999296665192,0.17900000512599945,400000.0
2018-12-24,0.18299999833106995,0.181999996304512,0.181999996304512,0.18299999833106995,112000.0
2018-12-27,0.1860000044107437,0.18400000035762787,0.1850000023841858,0.1850000023841858,265000.0
2018-12-28,0.1850000023841858,0.1850000023841858,0.1850000023841858,0.1850000023841858,0.0
2018-12-31,0.1850000023841858,0.1850000023841858,0.1850000023841858,0.1850000023841858,24000.0
2019-01-02,0.1850000023841858,0.1809999942779541,0.1850000023841858,0.1850000023841858,736000.0
2019-01-03,0.1850000023841858,0.1850000023841858,0.1850000023841858,0.1850000023841858,0.0
2019-01-04,0.20999999344348907,0.1850000023841858,0.1850000023841858,0.20499999821186066,328000.0
2019-01-07,0.20000000298023224,0.20000000298023224,0.20000000298023224,0.20000000298023224,0.0
2019-01-08,0.19499999284744265,0.1899999976158142,0.19099999964237213,0.19499999284744265,376000.0
2019-01-09,0.1899999976158142,0.1899999976158142,0.1899999976158142,0.1899999976158142,0.0
2019-01-10,0.20000000298023224,0.1850000023841858,0.1850000023841858,0.20000000298023224,160000.0
2019-01-11,0.20000000298023224,0.1879999935626984,0.1879999935626984,0.19499999284744265,48000.0
2019-01-14,0.19499999284744265,0.1860000044107437,0.19499999284744265,0.1860000044107437,232000.0
2019-01-15,0.18700000643730166,0.1860000044107437,0.1860000044107437,0.18700000643730166,48000.0
2019-01-16,0.1899999976158142,0.18000000715255735,0.1850000023841858,0.18700000643730166,200000.0
2019-01-17,0.1889999955892563,0.1850000023841858,0.1850000023841858,0.1879999935626984,96000.0
2019-01-18,0.19200000166893005,0.18700000643730166,0.18700000643730166,0.18700000643730166,400000.0
2019-01-21,0.20000000298023224,0.1770000010728836,0.1770000010728836,0.20000000298023224,136000.0
2019-01-22,0.19900000095367432,0.19900000095367432,0.19900000095367432,0.19900000095367432,0.0
2019-01-23,0.19599999487400052,0.19599999487400052,0.19599999487400052,0.19599999487400052,0.0
2019-01-24,0.19599999487400052,0.19599999487400052,0.19599999487400052,0.19599999487400052,0.0
2019-01-25,0.1899999976158142,0.1899999976158142,0.1899999976158142,0.1899999976158142,8000.0
2019-01-28,0.1850000023841858,0.18299999833106995,0.1850000023841858,0.18400000035762787,160000.0
2019-01-29,0.1860000044107437,0.1860000044107437,0.1860000044107437,0.1860000044107437,248000.0
2019-01-30,0.17800000309944153,0.17800000309944153,0.17800000309944153,0.17800000309944153,96000.0
2019-01-31,0.19200000166893005,0.181999996304512,0.181999996304512,0.19099999964237213,840000.0
2019-02-01,0.1850000023841858,0.17800000309944153,0.1850000023841858,0.18000000715255735,352000.0
2019-02-04,0.18000000715255735,0.18000000715255735,0.18000000715255735,0.18000000715255735,0.0
2019-02-08,0.1940000057220459,0.17100000381469727,0.17100000381469727,0.17900000512599945,792000.0
2019-02-11,0.17900000512599945,0.17900000512599945,0.17900000512599945,0.17900000512599945,0.0
2019-02-12,0.193000003695488,0.17000000178813934,0.17599999904632568,0.1889999955892563,384000.0
2019-02-13,0.19599999487400052,0.1850000023841858,0.1860000044107437,0.19200000166893005,512000.0
2019-02-14,0.19200000166893005,0.19200000166893005,0.19200000166893005,0.19200000166893005,0.0
2019-02-15,0.19200000166893005,0.1889999955892563,0.1889999955892563,0.19200000166893005,48000.0
2019-02-18,0.19200000166893005,0.18299999833106995,0.18400000035762787,0.19200000166893005,408000.0
2019-02-19,0.19699999690055847,0.1850000023841858,0.1860000044107437,0.19699999690055847,656000.0
2019-02-20,0.20000000298023224,0.19499999284744265,0.19499999284744265,0.20000000298023224,120000.0
2019-02-21,0.19900000095367432,0.19900000095367432,0.19900000095367432,0.19900000095367432,0.0
2019-02-22,0.1979999989271164,0.1879999935626984,0.1879999935626984,0.1979999989271164,24000.0
2019-02-25,0.2080000042915344,0.1979999989271164,0.1979999989271164,0.20000000298023224,320000.0
2019-02-26,0.19699999690055847,0.19699999690055847,0.19699999690055847,0.19699999690055847,16000.0
2019-02-27,0.20000000298023224,0.19699999690055847,0.20000000298023224,0.19900000095367432,624000.0
2019-02-28,0.20399999618530276,0.20399999618530276,0.20399999618530276,0.20399999618530276,0.0
2019-03-01,0.19599999487400052,0.19599999487400052,0.19599999487400052,0.19599999487400052,0.0
2019-03-04,0.2199999988079071,0.19200000166893005,0.193000003695488,0.21299999952316284,1968000.0
2019-03-05,0.210999995470047,0.20399999618530276,0.20499999821186066,0.20999999344348907,192000.0
2019-03-06,0.2160000056028366,0.2070000022649765,0.2080000042915344,0.2160000056028366,256000.0
2019-03-07,0.2150000035762787,0.20999999344348907,0.20999999344348907,0.2140000015497208,72000.0
2019-03-08,0.20900000631809235,0.20000000298023224,0.20499999821186066,0.20900000631809235,976000.0
2019-03-11,0.20900000631809235,0.20900000631809235,0.20900000631809235,0.20900000631809235,0.0
2019-03-12,0.20999999344348907,0.20000000298023224,0.20999999344348907,0.20900000631809235,264000.0
2019-03-13,0.19699999690055847,0.19699999690055847,0.19699999690055847,0.19699999690055847,32000.0
2019-03-14,0.2150000035762787,0.19699999690055847,0.19699999690055847,0.2150000035762787,496000.0
2019-03-15,0.20000000298023224,0.20000000298023224,0.20000000298023224,0.20100000500679016,24000.0
2019-03-18,0.20200000703334808,0.20200000703334808,0.20200000703334808,0.20200000703334808,0.0
2019-03-19,0.20200000703334808,0.20200000703334808,0.20200000703334808,0.20200000703334808,48000.0
2019-03-20,0.20200000703334808,0.20200000703334808,0.20200000703334808,0.20200000703334808,0.0
2019-03-21,0.2029999941587448,0.1940000057220459,0.19599999487400052,0.2029999941587448,128000.0
2019-03-22,0.1940000057220459,0.19200000166893005,0.193000003695488,0.1940000057220459,568000.0
2019-03-25,0.21199999749660486,0.19499999284744265,0.19599999487400052,0.2070000022649765,136000.0
2019-03-26,0.2199999988079071,0.19200000166893005,0.19499999284744265,0.20900000631809235,1120000.0
2019-03-27,0.20600000023841855,0.20200000703334808,0.20200000703334808,0.20600000023841855,120000.0
2019-03-28,0.2080000042915344,0.19900000095367432,0.20000000298023224,0.2080000042915344,320000.0
2019-03-29,0.2179999947547913,0.2070000022649765,0.2080000042915344,0.2070000022649765,712000.0
2019-04-01,0.20000000298023224,0.20000000298023224,0.20000000298023224,0.20000000298023224,632000.0
2019-04-02,0.2029999941587448,0.19599999487400052,0.19599999487400052,0.20000000298023224,368000.0
2019-04-03,0.20100000500679016,0.1899999976158142,0.1940000057220459,0.20100000500679016,1368000.0
2019-04-04,0.20399999618530276,0.19900000095367432,0.20399999618530276,0.19900000095367432,320000.0
2019-04-08,0.210999995470047,0.20100000500679016,0.20100000500679016,0.2080000042915344,32000.0
2019-04-09,0.20399999618530276,0.193000003695488,0.1979999989271164,0.20399999618530276,608000.0
2019-04-10,0.1979999989271164,0.19499999284744265,0.1979999989271164,0.19499999284744265,120000.0
2019-04-11,0.19499999284744265,0.1899999976158142,0.19499999284744265,0.1899999976158142,1064000.0
2019-04-12,0.19099999964237213,0.1850000023841858,0.1850000023841858,0.19099999964237213,120000.0
2019-04-15,0.1879999935626984,0.1879999935626984,0.1879999935626984,0.1879999935626984,0.0
2019-04-16,0.18400000035762787,0.18000000715255735,0.1809999942779541,0.18400000035762787,184000.0
2019-04-17,0.1860000044107437,0.1850000023841858,0.1850000023841858,0.1879999935626984,56000.0
2019-04-18,0.18400000035762787,0.18400000035762787,0.18400000035762787,0.18400000035762787,8000.0
2019-04-23,0.18400000035762787,0.18400000035762787,0.18400000035762787,0.18400000035762787,16000.0
2019-04-24,0.181999996304512,0.181999996304512,0.181999996304512,0.181999996304512,32000.0
2019-04-25,0.17900000512599945,0.17499999701976776,0.17900000512599945,0.17499999701976776,288000.0
2019-04-26,0.17499999701976776,0.17499999701976776,0.17499999701976776,0.17499999701976776,0.0
2019-04-29,0.1860000044107437,0.17499999701976776,0.17499999701976776,0.1860000044107437,176000.0
2019-04-30,0.1850000023841858,0.1850000023841858,0.1850000023841858,0.1850000023841858,0.0
2019-05-02,0.18400000035762787,0.18400000035762787,0.18400000035762787,0.18400000035762787,0.0
2019-05-03,0.18000000715255735,0.18000000715255735,0.18000000715255735,0.18000000715255735,0.0
2019-05-06,0.17299999296665192,0.16500000655651093,0.16500000655651093,0.17299999296665192,384000.0
2019-05-07,0.17299999296665192,0.17299999296665192,0.17299999296665192,0.17299999296665192,0.0
2019-05-08,0.17299999296665192,0.1679999977350235,0.1679999977350235,0.1679999977350235,176000.0
2019-05-09,0.1679999977350235,0.1679999977350235,0.1679999977350235,0.1679999977350235,0.0
2019-05-10,0.17499999701976776,0.17499999701976776,0.17499999701976776,0.17499999701976776,8000.0
2019-05-14,0.17000000178813934,0.17000000178813934,0.17000000178813934,0.17000000178813934,64000.0
2019-05-15,0.17000000178813934,0.16099999845027926,0.16099999845027926,0.17000000178813934,152000.0
2019-05-16,0.1679999977350235,0.16200000047683716,0.16200000047683716,0.1679999977350235,328000.0
2019-05-17,0.17000000178813934,0.16300000250339508,0.16300000250339508,0.17000000178813934,40000.0
2019-05-20,0.17000000178813934,0.17000000178813934,0.17000000178813934,0.17000000178813934,0.0
2019-05-21,0.16899999976158142,0.16899999976158142,0.16899999976158142,0.16899999976158142,8000.0
2019-05-22,0.16500000655651093,0.15700000524520874,0.16500000655651093,0.16099999845027926,200000.0
2019-05-23,0.16300000250339508,0.15700000524520874,0.15800000727176666,0.16099999845027926,256000.0
2019-05-24,0.16099999845027926,0.16099999845027926,0.16099999845027926,0.16099999845027926,0.0
2019-05-27,0.16099999845027926,0.16099999845027926,0.16099999845027926,0.16099999845027926,0.0
2019-05-28,0.16099999845027926,0.15600000321865082,0.15600000321865082,0.16099999845027926,208000.0
2019-05-29,0.1599999964237213,0.1550000011920929,0.15600000321865082,0.15600000321865082,496000.0
2019-05-30,0.16300000250339508,0.1599999964237213,0.1599999964237213,0.16300000250339508,104000.0
2019-05-31,0.1599999964237213,0.1599999964237213,0.1599999964237213,0.1599999964237213,16000.0
2019-06-03,0.1599999964237213,0.1599999964237213,0.1599999964237213,0.1599999964237213,0.0
2019-06-04,0.1599999964237213,0.1599999964237213,0.1599999964237213,0.1599999964237213,0.0
2019-06-05,0.1589999943971634,0.15700000524520874,0.15700000524520874,0.1589999943971634,88000.0
2019-06-06,0.1589999943971634,0.1589999943971634,0.1589999943971634,0.1589999943971634,0.0
2019-06-10,0.1599999964237213,0.1589999943971634,0.1589999943971634,0.1599999964237213,128000.0
2019-06-11,0.16200000047683716,0.1599999964237213,0.1599999964237213,0.16200000047683716,16000.0
2019-06-12,0.1550000011920929,0.1550000011920929,0.1550000011920929,0.1550000011920929,0.0
2019-06-13,0.1599999964237213,0.1599999964237213,0.1599999964237213,0.1599999964237213,0.0
2019-06-14,0.16500000655651093,0.16500000655651093,0.16500000655651093,0.16500000655651093,8000.0
2019-06-17,0.16500000655651093,0.16500000655651093,0.16500000655651093,0.16500000655651093,8000.0
2019-06-18,0.16500000655651093,0.16500000655651093,0.16500000655651093,0.16500000655651093,0.0
2019-06-19,0.1679999977350235,0.1679999977350235,0.1679999977350235,0.1679999977350235,8000.0
2019-06-20,0.1679999977350235,0.15000000596046448,0.1679999977350235,0.16599999368190765,112000.0
2019-06-21,0.16599999368190765,0.16599999368190765,0.16599999368190765,0.16599999368190765,8000.0
2019-06-24,0.16599999368190765,0.16599999368190765,0.16599999368190765,0.16599999368190765,0.0
2019-06-25,0.17000000178813934,0.15800000727176666,0.15800000727176666,0.16200000047683716,416000.0
2019-06-26,0.17000000178813934,0.16200000047683716,0.16200000047683716,0.17000000178813934,344000.0
2019-06-27,0.17000000178813934,0.17000000178813934,0.17000000178813934,0.17000000178813934,0.0
2019-06-28,0.17800000309944153,0.1679999977350235,0.1679999977350235,0.17000000178813934,200000.0
2019-07-02,0.16899999976158142,0.1679999977350235,0.16899999976158142,0.1679999977350235,40000.0
2019-07-03,0.1679999977350235,0.1679999977350235,0.1679999977350235,0.1679999977350235,0.0
2019-07-04,0.1770000010728836,0.17499999701976776,0.1770000010728836,0.17499999701976776,48000.0
2019-07-05,0.17599999904632568,0.16099999845027926,0.17000000178813934,0.1679999977350235,136000.0
2019-07-08,0.16500000655651093,0.16500000655651093,0.16500000655651093,0.16500000655651093,0.0
2019-07-09,0.16200000047683716,0.15700000524520874,0.15700000524520874,0.16200000047683716,16000.0
2019-07-10,0.16200000047683716,0.15399999916553495,0.15399999916553495,0.16200000047683716,208000.0
2019-07-11,0.16200000047683716,0.16200000047683716,0.16200000047683716,0.16200000047683716,0.0
2019-07-12,0.17900000512599945,0.16599999368190765,0.17900000512599945,0.16599999368190765,104000.0
2019-07-15,0.1679999977350235,0.1599999964237213,0.1599999964237213,0.1679999977350235,64000.0
2019-07-16,0.1599999964237213,0.1599999964237213,0.1599999964237213,0.1599999964237213,0.0
2019-07-17,0.15700000524520874,0.15700000524520874,0.15700000524520874,0.15700000524520874,16000.0
2019-07-18,0.15700000524520874,0.15399999916553495,0.15600000321865082,0.15399999916553495,608000.0
2019-07-19,0.15700000524520874,0.15399999916553495,0.15399999916553495,0.15700000524520874,88000.0
2019-07-22,0.15600000321865082,0.15600000321865082,0.15600000321865082,0.15600000321865082,0.0
2019-07-23,0.15600000321865082,0.15600000321865082,0.15600000321865082,0.15600000321865082,0.0
2019-07-24,0.16099999845027926,0.15299999713897705,0.15600000321865082,0.16099999845027926,200000.0
2019-07-25,0.1589999943971634,0.15399999916553495,0.15399999916553495,0.1589999943971634,24000.0
2019-07-26,0.1589999943971634,0.1589999943971634,0.1589999943971634,0.1589999943971634,0.0
2019-07-29,0.15800000727176666,0.15000000596046448,0.15399999916553495,0.15800000727176666,432000.0
2019-07-30,0.1599999964237213,0.15199999511241913,0.15800000727176666,0.1589999943971634,152000.0
2019-07-31,0.1589999943971634,0.1589999943971634,0.1589999943971634,0.1589999943971634,0.0
2019-08-01,0.1589999943971634,0.15299999713897705,0.15700000524520874,0.1589999943971634,184000.0
2019-08-02,0.1589999943971634,0.1589999943971634,0.1589999943971634,0.1589999943971634,0.0
2019-08-05,0.1589999943971634,0.15199999511241913,0.1589999943971634,0.15199999511241913,224000.0
2019-08-06,0.15600000321865082,0.1509999930858612,0.15600000321865082,0.1509999930858612,112000.0
2019-08-07,0.1509999930858612,0.1469999998807907,0.1469999998807907,0.1509999930858612,24000.0
2019-08-08,0.15399999916553495,0.1509999930858612,0.1509999930858612,0.15299999713897705,88000.0
2019-08-09,0.15199999511241913,0.1459999978542328,0.1509999930858612,0.15000000596046448,320000.0
2019-08-12,0.15399999916553495,0.14399999380111694,0.15000000596046448,0.15399999916553495,104000.0
2019-08-13,0.15399999916553495,0.15000000596046448,0.15399999916553495,0.1550000011920929,336000.0
2019-08-14,0.1550000011920929,0.14499999582767487,0.1459999978542328,0.1550000011920929,1136000.0
2019-08-15,0.15299999713897705,0.14499999582767487,0.1469999998807907,0.14800000190734866,384000.0
2019-08-16,0.14800000190734866,0.14499999582767487,0.14800000190734866,0.14499999582767487,72000.0
2019-08-19,0.1459999978542328,0.1430000066757202,0.1430000066757202,0.1459999978542328,168000.0
2019-08-20,0.1550000011920929,0.15199999511241913,0.15199999511241913,0.1550000011920929,128000.0
2019-08-21,0.15299999713897705,0.14800000190734866,0.14800000190734866,0.15299999713897705,72000.0
2019-08-22,0.15299999713897705,0.15299999713897705,0.15299999713897705,0.15299999713897705,0.0
2019-08-23,0.15299999713897705,0.15299999713897705,0.15299999713897705,0.15299999713897705,0.0
2019-08-26,0.15299999713897705,0.15299999713897705,0.15299999713897705,0.15299999713897705,0.0
2019-08-27,0.15299999713897705,0.15299999713897705,0.15299999713897705,0.15299999713897705,0.0
2019-08-28,0.1459999978542328,0.14100000262260434,0.14499999582767487,0.14499999582767487,616000.0
2019-08-29,0.14800000190734866,0.14100000262260434,0.14499999582767487,0.14800000190734866,384000.0
2019-08-30,0.14800000190734866,0.14800000190734866,0.14800000190734866,0.14800000190734866,0.0
2019-09-02,0.14900000393390656,0.1469999998807907,0.1469999998807907,0.14900000393390656,104000.0
2019-09-03,0.15299999713897705,0.14800000190734866,0.14800000190734866,0.15299999713897705,80000.0
2019-09-04,0.1420000046491623,0.14000000059604645,0.1420000046491623,0.14000000059604645,264000.0
2019-09-05,0.1469999998807907,0.14000000059604645,0.14399999380111694,0.1469999998807907,128000.0
2019-09-06,0.1469999998807907,0.1469999998807907,0.1469999998807907,0.1469999998807907,0.0
2019-09-09,0.1469999998807907,0.1379999965429306,0.14000000059604645,0.1469999998807907,152000.0
2019-09-10,0.1469999998807907,0.1469999998807907,0.1469999998807907,0.1469999998807907,0.0
2019-09-11,0.15399999916553495,0.14900000393390656,0.14900000393390656,0.15199999511241913,24000.0
2019-09-12,0.15199999511241913,0.15199999511241913,0.15199999511241913,0.15199999511241913,0.0
2019-09-13,0.15199999511241913,0.15199999511241913,0.15199999511241913,0.15199999511241913,0.0
2019-09-16,0.15199999511241913,0.15199999511241913,0.15199999511241913,0.15199999511241913,0.0
2019-09-17,0.15199999511241913,0.15199999511241913,0.15199999511241913,0.15199999511241913,0.0
2019-09-18,0.14800000190734866,0.14800000190734866,0.14800000190734866,0.1509999930858612,64000.0
2019-09-19,0.15000000596046448,0.15000000596046448,0.15000000596046448,0.15000000596046448,0.0
2019-09-20,0.15000000596046448,0.15000000596046448,0.15000000596046448,0.15000000596046448,0.0
2019-09-23,0.15000000596046448,0.15000000596046448,0.15000000596046448,0.15000000596046448,0.0
2019-09-24,0.1420000046491623,0.14000000059604645,0.14100000262260434,0.1459999978542328,184000.0
2019-09-25,0.14499999582767487,0.14499999582767487,0.14499999582767487,0.14499999582767487,0.0
2019-09-26,0.14800000190734866,0.14399999380111694,0.14399999380111694,0.14800000190734866,96000.0
2019-09-27,0.15000000596046448,0.14499999582767487,0.14499999582767487,0.15000000596046448,136000.0
2019-09-30,0.14900000393390656,0.14100000262260434,0.14100000262260434,0.14900000393390656,16000.0
2019-10-02,0.14499999582767487,0.14000000059604645,0.14000000059604645,0.14499999582767487,152000.0
2019-10-03,0.14499999582767487,0.14000000059604645,0.14000000059604645,0.14499999582767487,64000.0
2019-10-04,0.14399999380111694,0.14399999380111694,0.14399999380111694,0.14399999380111694,152000.0
2019-10-08,0.14399999380111694,0.14399999380111694,0.14399999380111694,0.14399999380111694,0.0
2019-10-09,0.14399999380111694,0.14399999380111694,0.14399999380111694,0.14399999380111694,0.0
2019-10-10,0.14100000262260434,0.13600000739097595,0.13600000739097595,0.14100000262260434,48000.0
2019-10-11,0.1379999965429306,0.13099999725818634,0.13500000536441806,0.1379999965429306,424000.0
2019-10-14,0.13600000739097595,0.13600000739097595,0.13600000739097595,0.13600000739097595,0.0
2019-10-15,0.13500000536441806,0.12800000607967374,0.12999999523162842,0.1340000033378601,648000.0
2019-10-16,0.1340000033378601,0.1330000013113022,0.1330000013113022,0.1340000033378601,192000.0
2019-10-17,0.1340000033378601,0.1340000033378601,0.1340000033378601,0.1340000033378601,0.0
2019-10-18,0.1330000013113022,0.12700000405311584,0.12999999523162842,0.1330000013113022,704000.0
2019-10-21,0.13699999451637268,0.1330000013113022,0.1330000013113022,0.13699999451637268,216000.0
2019-10-22,0.13699999451637268,0.13699999451637268,0.13699999451637268,0.13699999451637268,0.0
2019-10-23,0.13699999451637268,0.13699999451637268,0.13699999451637268,0.13699999451637268,0.0
2019-10-24,0.13699999451637268,0.13699999451637268,0.13699999451637268,0.13699999451637268,0.0
2019-10-25,0.13699999451637268,0.13699999451637268,0.13699999451637268,0.13699999451637268,0.0
2019-10-28,0.12999999523162842,0.12999999523162842,0.12999999523162842,0.13099999725818634,112000.0
2019-10-29,0.12999999523162842,0.12700000405311584,0.12800000607967374,0.12999999523162842,376000.0
2019-10-30,0.12999999523162842,0.12999999523162842,0.12999999523162842,0.12999999523162842,64000.0
2019-10-31,0.12999999523162842,0.12700000405311584,0.12999999523162842,0.12999999523162842,264000.0
2019-11-01,0.13500000536441806,0.12999999523162842,0.12999999523162842,0.13500000536441806,312000.0
2019-11-04,0.14100000262260434,0.13500000536441806,0.13500000536441806,0.1379999965429306,424000.0
2019-11-05,0.1459999978542328,0.1459999978542328,0.1469999998807907,0.1459999978542328,40000.0
2019-11-06,0.1459999978542328,0.1330000013113022,0.13699999451637268,0.1459999978542328,224000.0
2019-11-07,0.14499999582767487,0.1379999965429306,0.14499999582767487,0.1379999965429306,24000.0
2019-11-08,0.14499999582767487,0.13600000739097595,0.14499999582767487,0.14000000059604645,216000.0
2019-11-11,0.13899999856948853,0.13899999856948853,0.13899999856948853,0.13899999856948853,0.0
2019-11-12,0.13699999451637268,0.13699999451637268,0.13699999451637268,0.13699999451637268,0.0
2019-11-13,0.13500000536441806,0.125,0.13199999928474426,0.1340000033378601,296000.0
2019-11-14,0.13500000536441806,0.12300000339746475,0.125,0.12300000339746475,88000.0
2019-11-15,0.12800000607967374,0.12800000607967374,0.12800000607967374,0.12800000607967374,0.0
2019-11-18,0.13500000536441806,0.119999997317791,0.13500000536441806,0.13199999928474426,208000.0
2019-11-19,0.13600000739097595,0.12999999523162842,0.13199999928474426,0.13600000739097595,112000.0
2019-11-20,0.1330000013113022,0.1330000013113022,0.1330000013113022,0.1330000013113022,0.0
2019-11-21,0.13600000739097595,0.13600000739097595,0.12700000405311584,0.13600000739097595,16000.0
2019-11-22,0.13600000739097595,0.13600000739097595,0.13600000739097595,0.13600000739097595,0.0
2019-11-25,0.1379999965429306,0.1379999965429306,0.1379999965429306,0.1379999965429306,0.0
2019-11-26,0.1379999965429306,0.1379999965429306,0.1379999965429306,0.1379999965429306,0.0
2019-11-27,0.13699999451637268,0.13699999451637268,0.13699999451637268,0.13699999451637268,0.0
2019-11-28,0.14499999582767487,0.125,0.125,0.1340000033378601,216000.0
2019-11-29,0.1330000013113022,0.1330000013113022,0.1330000013113022,0.1330000013113022,0.0
2019-12-02,0.1340000033378601,0.1289999932050705,0.1289999932050705,0.12999999523162842,328000.0
2019-12-03,0.13500000536441806,0.13500000536441806,0.13500000536441806,0.13500000536441806,0.0
2019-12-04,0.14000000059604645,0.12300000339746475,0.14000000059604645,0.13500000536441806,120000.0
2019-12-05,0.1379999965429306,0.1379999965429306,0.1379999965429306,0.1379999965429306,152000.0
2019-12-06,0.1379999965429306,0.1379999965429306,0.1379999965429306,0.1379999965429306,0.0
2019-12-09,0.13199999928474426,0.13199999928474426,0.13199999928474426,0.13199999928474426,24000.0
2019-12-10,0.13199999928474426,0.13199999928474426,0.13199999928474426,0.13199999928474426,0.0
2019-12-11,0.13199999928474426,0.13199999928474426,0.13199999928474426,0.13199999928474426,0.0
2019-12-12,0.12999999523162842,0.12999999523162842,0.12999999523162842,0.12999999523162842,64000.0
2019-12-13,0.13500000536441806,0.13099999725818634,0.13099999725818634,0.13500000536441806,176000.0
2019-12-16,0.15399999916553495,0.1289999932050705,0.13099999725818634,0.13899999856948853,736000.0
2019-12-17,0.1430000066757202,0.13199999928474426,0.1430000066757202,0.1430000066757202,448000.0
2019-12-18,0.15399999916553495,0.1340000033378601,0.15399999916553495,0.1420000046491623,312000.0
2019-12-19,0.1420000046491623,0.13099999725818634,0.1420000046491623,0.14100000262260434,200000.0
2019-12-20,0.14399999380111694,0.13199999928474426,0.1420000046491623,0.1430000066757202,360000.0
2019-12-23,0.13600000739097595,0.13199999928474426,0.13199999928474426,0.13600000739097595,248000.0
2019-12-24,0.13600000739097595,0.13600000739097595,0.13600000739097595,0.13600000739097595,48000.0
2019-12-27,0.1420000046491623,0.13500000536441806,0.13699999451637268,0.1420000046491623,520000.0
2019-12-30,0.1430000066757202,0.1430000066757202,0.1430000066757202,0.1430000066757202,0.0
2019-12-31,0.1469999998807907,0.1330000013113022,0.1330000013113022,0.14399999380111694,112000.0
2020-01-02,0.14900000393390656,0.1340000033378601,0.14900000393390656,0.13500000536441806,1664000.0
2020-01-03,0.13600000739097595,0.13500000536441806,0.13600000739097595,0.13500000536441806,112000.0
2020-01-06,0.13600000739097595,0.1330000013113022,0.1340000033378601,0.13600000739097595,248000.0
2020-01-07,0.13600000739097595,0.13600000739097595,0.13600000739097595,0.13600000739097595,0.0
2020-01-08,0.13600000739097595,0.12800000607967374,0.1289999932050705,0.13600000739097595,136000.0
2020-01-09,0.13500000536441806,0.1289999932050705,0.1289999932050705,0.13500000536441806,272000.0
2020-01-10,0.13899999856948853,0.125,0.13600000739097595,0.13899999856948853,696000.0
2020-01-13,0.14000000059604645,0.1289999932050705,0.14000000059604645,0.13899999856948853,792000.0
2020-01-14,0.13899999856948853,0.13899999856948853,0.13899999856948853,0.13899999856948853,0.0
2020-01-15,0.13899999856948853,0.13899999856948853,0.13899999856948853,0.13899999856948853,0.0
2020-01-16,0.1379999965429306,0.12999999523162842,0.1330000013113022,0.1379999965429306,344000.0
2020-01-17,0.1379999965429306,0.13099999725818634,0.13899999856948853,0.1379999965429306,368000.0
2020-01-20,0.13899999856948853,0.1330000013113022,0.13899999856948853,0.13899999856948853,184000.0
2020-01-21,0.13899999856948853,0.1289999932050705,0.14000000059604645,0.13699999451637268,488000.0
2020-01-22,0.13699999451637268,0.12999999523162842,0.13899999856948853,0.13699999451637268,368000.0
2020-01-23,0.13899999856948853,0.12999999523162842,0.1379999965429306,0.1379999965429306,296000.0
2020-01-24,0.13899999856948853,0.13199999928474426,0.1379999965429306,0.1379999965429306,368000.0
2020-01-29,0.13899999856948853,0.125,0.1379999965429306,0.125,448000.0
2020-01-30,0.1340000033378601,0.12399999797344208,0.12399999797344208,0.1340000033378601,232000.0
2020-01-31,0.13899999856948853,0.12600000202655792,0.13500000536441806,0.13199999928474426,672000.0
2020-02-03,0.13199999928474426,0.125,0.1289999932050705,0.13199999928474426,432000.0
2020-02-04,0.13500000536441806,0.12600000202655792,0.1289999932050705,0.13199999928474426,424000.0
2020-02-05,0.12999999523162842,0.125,0.1289999932050705,0.12999999523162842,792000.0
2020-02-06,0.12999999523162842,0.12999999523162842,0.12999999523162842,0.12999999523162842,0.0
2020-02-07,0.12399999797344208,0.12399999797344208,0.12399999797344208,0.12399999797344208,0.0
2020-02-10,0.12300000339746475,0.11800000071525575,0.12300000339746475,0.12099999934434892,336000.0
2020-02-11,0.1289999932050705,0.119999997317791,0.119999997317791,0.125,640000.0
2020-02-12,0.1289999932050705,0.12099999934434892,0.12399999797344208,0.1289999932050705,408000.0
2020-02-13,0.125,0.125,0.125,0.125,56000.0
2020-02-14,0.125,0.125,0.125,0.125,0.0
2020-02-17,0.14100000262260434,0.12099999934434892,0.125,0.12800000607967374,2216000.0
2020-02-18,0.13199999928474426,0.12200000137090684,0.12800000607967374,0.12800000607967374,480000.0
2020-02-19,0.12399999797344208,0.12399999797344208,0.125,0.12399999797344208,80000.0
2020-02-20,0.12700000405311584,0.12700000405311584,0.12700000405311584,0.12700000405311584,0.0
2020-02-21,0.12600000202655792,0.12600000202655792,0.12600000202655792,0.12600000202655792,0.0
2020-02-24,0.13899999856948853,0.12600000202655792,0.12700000405311584,0.12700000405311584,176000.0
2020-02-25,0.12300000339746475,0.11900000274181365,0.12300000339746475,0.12300000339746475,240000.0
2020-02-26,0.12700000405311584,0.11800000071525575,0.11900000274181365,0.12300000339746475,856000.0
2020-02-27,0.11900000274181365,0.11900000274181365,0.11900000274181365,0.12300000339746475,424000.0
2020-02-28,0.12600000202655792,0.11800000071525575,0.11900000274181365,0.12600000202655792,320000.0
2020-03-02,0.12800000607967374,0.12800000607967374,0.12800000607967374,0.12800000607967374,0.0
2020-03-03,0.12800000607967374,0.12800000607967374,0.12800000607967374,0.12800000607967374,0.0
2020-03-04,0.12600000202655792,0.12200000137090684,0.12399999797344208,0.12600000202655792,280000.0
2020-03-05,0.1289999932050705,0.12600000202655792,0.12600000202655792,0.1289999932050705,160000.0
2020-03-06,0.1289999932050705,0.1289999932050705,0.1289999932050705,0.1289999932050705,0.0
2020-03-09,0.1289999932050705,0.1289999932050705,0.1289999932050705,0.1289999932050705,0.0
2020-03-10,0.11500000208616255,0.11500000208616255,0.11500000208616255,0.11500000208616255,0.0
2020-03-11,0.10899999737739564,0.10499999672174454,0.10599999874830246,0.10899999737739564,328000.0
2020-03-12,0.10899999737739564,0.10899999737739564,0.10899999737739564,0.10899999737739564,0.0
2020-03-13,0.10999999940395357,0.09600000083446504,0.10599999874830246,0.10999999940395357,1224000.0
2020-03-16,0.10599999874830246,0.09600000083446504,0.10199999809265137,0.09700000286102296,824000.0
2020-03-17,0.10199999809265137,0.09600000083446504,0.09600000083446504,0.10199999809265137,16000.0
2020-03-18,0.10000000149011612,0.08799999952316284,0.09300000220537186,0.0989999994635582,312000.0
2020-03-19,0.0989999994635582,0.09000000357627869,0.09000000357627869,0.0989999994635582,32000.0
2020-03-20,0.0989999994635582,0.0989999994635582,0.0989999994635582,0.0989999994635582,0.0
2020-03-23,0.09700000286102296,0.09700000286102296,0.09700000286102296,0.09700000286102296,232000.0
2020-03-24,0.10000000149011612,0.10000000149011612,0.10000000149011612,0.09700000286102296,72000.0
2020-03-25,0.09700000286102296,0.09700000286102296,0.09700000286102296,0.09700000286102296,8000.0
2020-03-26,0.09700000286102296,0.090999998152256,0.090999998152256,0.09700000286102296,104000.0
2020-03-27,0.09700000286102296,0.09700000286102296,0.09700000286102296,0.09700000286102296,0.0
2020-03-30,0.10300000011920928,0.10300000011920928,0.10300000011920928,0.10300000011920928,0.0
2020-03-31,0.10300000011920928,0.10300000011920928,0.10300000011920928,0.10300000011920928,0.0
2020-04-01,0.10300000011920928,0.10300000011920928,0.10300000011920928,0.10300000011920928,0.0
2020-04-02,0.10300000011920928,0.10300000011920928,0.10300000011920928,0.10300000011920928,0.0
2020-04-03,0.10300000011920928,0.10300000011920928,0.10300000011920928,0.10300000011920928,0.0
2020-04-06,0.10300000011920928,0.10300000011920928,0.10300000011920928,0.10300000011920928,0.0
2020-04-07,0.10300000011920928,0.10300000011920928,0.10300000011920928,0.10300000011920928,0.0
2020-04-08,0.10300000011920928,0.10300000011920928,0.10300000011920928,0.10300000011920928,0.0
2020-04-09,0.10199999809265137,0.10199999809265137,0.10199999809265137,0.10199999809265137,40000.0
2020-04-14,0.0949999988079071,0.09300000220537186,0.09399999678134917,0.09300000220537186,216000.0
2020-04-15,0.09000000357627869,0.09000000357627869,0.09000000357627869,0.09200000017881392,16000.0
2020-04-16,0.09200000017881392,0.09200000017881392,0.09200000017881392,0.09200000017881392,0.0
2020-04-17,0.10499999672174454,0.08699999749660492,0.08699999749660492,0.10499999672174454,112000.0
2020-04-20,0.10499999672174454,0.10499999672174454,0.10499999672174454,0.10499999672174454,0.0
2020-04-21,0.10499999672174454,0.10499999672174454,0.10499999672174454,0.10499999672174454,0.0
2020-04-22,0.09700000286102296,0.09600000083446504,0.09700000286102296,0.09600000083446504,72000.0
2020-04-23,0.09700000286102296,0.09700000286102296,0.09700000286102296,0.09700000286102296,0.0
2020-04-24,0.09700000286102296,0.09700000286102296,0.09700000286102296,0.09700000286102296,0.0
2020-04-27,0.09700000286102296,0.09700000286102296,0.09700000286102296,0.09700000286102296,8000.0
2020-04-28,0.09300000220537186,0.09000000357627869,0.09300000220537186,0.09300000220537186,1888000.0
2020-04-29,0.09300000220537186,0.09300000220537186,0.09300000220537186,0.09300000220537186,0.0
2020-05-04,0.09200000017881392,0.09200000017881392,0.09200000017881392,0.09200000017881392,0.0
2020-05-05,0.09200000017881392,0.09200000017881392,0.09200000017881392,0.09200000017881392,0.0
2020-05-06,0.0989999994635582,0.09200000017881392,0.09200000017881392,0.0989999994635582,192000.0
2020-05-07,0.0989999994635582,0.0989999994635582,0.0989999994635582,0.0989999994635582,0.0
2020-05-08,0.09700000286102296,0.09300000220537186,0.09700000286102296,0.09300000220537186,152000.0
2020-05-11,0.09300000220537186,0.09300000220537186,0.09300000220537186,0.09300000220537186,0.0
2020-05-12,0.10199999809265137,0.09300000220537186,0.09300000220537186,0.10199999809265137,152000.0
2020-05-13,0.10199999809265137,0.10199999809265137,0.10199999809265137,0.10199999809265137,0.0
2020-05-14,0.09399999678134917,0.09399999678134917,0.09399999678134917,0.09799999743700027,16000.0
2020-05-15,0.09799999743700027,0.09799999743700027,0.09799999743700027,0.09799999743700027,0.0
2020-05-18,0.09700000286102296,0.09700000286102296,0.09700000286102296,0.09700000286102296,104000.0
2020-05-19,0.09700000286102296,0.09700000286102296,0.09700000286102296,0.09700000286102296,120000.0
2020-05-20,0.09700000286102296,0.0949999988079071,0.09700000286102296,0.09700000286102296,168000.0
2020-05-21,0.09700000286102296,0.09700000286102296,0.09700000286102296,0.09700000286102296,0.0
2020-05-22,0.09200000017881392,0.08500000089406967,0.08900000154972076,0.09200000017881392,560000.0
2020-05-25,0.08699999749660492,0.08399999886751175,0.08399999886751175,0.08699999749660492,24000.0
2020-05-26,0.09200000017881392,0.07999999821186066,0.08799999952316284,0.09200000017881392,512000.0
2020-05-27,0.09200000017881392,0.08500000089406967,0.09200000017881392,0.090999998152256,80000.0
2020-05-28,0.090999998152256,0.090999998152256,0.090999998152256,0.090999998152256,0.0
2020-05-29,0.08900000154972076,0.0820000022649765,0.0820000022649765,0.08799999952316284,200000.0
2020-06-01,0.08900000154972076,0.07999999821186066,0.08900000154972076,0.08799999952316284,616000.0
2020-06-02,0.08699999749660492,0.0820000022649765,0.0820000022649765,0.08699999749660492,144000.0
2020-06-03,0.0860000029206276,0.0820000022649765,0.0820000022649765,0.0860000029206276,56000.0
2020-06-04,0.0860000029206276,0.08299999684095383,0.0860000029206276,0.0860000029206276,136000.0
2020-06-05,0.08699999749660492,0.08299999684095383,0.08299999684095383,0.08699999749660492,144000.0
2020-06-08,0.08699999749660492,0.08699999749660492,0.08699999749660492,0.08699999749660492,0.0
2020-06-09,0.08699999749660492,0.08699999749660492,0.08699999749660492,0.08699999749660492,144000.0
2020-06-10,0.09000000357627869,0.0860000029206276,0.09000000357627869,0.08699999749660492,544000.0
2020-06-11,0.08900000154972076,0.08500000089406967,0.08500000089406967,0.08900000154972076,16000.0
2020-06-12,0.08900000154972076,0.08900000154972076,0.08900000154972076,0.08900000154972076,0.0
2020-06-15,0.08699999749660492,0.08699999749660492,0.08699999749660492,0.08699999749660492,0.0
2020-06-16,0.090999998152256,0.08100000023841858,0.08799999952316284,0.09000000357627869,744000.0
2020-06-17,0.08799999952316284,0.07900000363588333,0.08799999952316284,0.08100000023841858,3440000.0
2020-06-18,0.08299999684095383,0.08100000023841858,0.0820000022649765,0.08100000023841858,1008000.0
2020-06-19,0.08500000089406967,0.08500000089406967,0.08500000089406967,0.08500000089406967,0.0
2020-06-22,0.07999999821186066,0.07599999755620956,0.07999999821186066,0.07999999821186066,1616000.0
2020-06-23,0.07999999821186066,0.07599999755620956,0.07900000363588333,0.07999999821186066,168000.0
2020-06-24,0.0860000029206276,0.07800000160932541,0.07999999821186066,0.0860000029206276,1128000.0
2020-06-26,0.08299999684095383,0.07500000298023224,0.07999999821186066,0.08299999684095383,1456000.0
2020-06-29,0.0820000022649765,0.07699999958276749,0.07699999958276749,0.0820000022649765,464000.0
2020-06-30,0.0820000022649765,0.0820000022649765,0.07800000160932541,0.0820000022649765,160000.0
2020-07-02,0.08299999684095383,0.07500000298023224,0.07800000160932541,0.08299999684095383,688000.0
2020-07-03,0.07900000363588333,0.07900000363588333,0.07900000363588333,0.07900000363588333,0.0
2020-07-06,0.07699999958276749,0.07400000095367433,0.07699999958276749,0.07699999958276749,200000.0
2020-07-07,0.0820000022649765,0.07599999755620956,0.07900000363588333,0.07999999821186066,2184000.0
2020-07-08,0.07999999821186066,0.07999999821186066,0.07999999821186066,0.07999999821186066,0.0
2020-07-09,0.08100000023841858,0.07500000298023224,0.07599999755620956,0.08100000023841858,192000.0
2020-07-10,0.0820000022649765,0.07599999755620956,0.0820000022649765,0.07999999821186066,312000.0
2020-07-13,0.07699999958276749,0.07199999690055847,0.07599999755620956,0.07699999958276749,1352000.0
2020-07-14,0.07699999958276749,0.07500000298023224,0.07500000298023224,0.07599999755620956,104000.0
2020-07-15,0.08299999684095383,0.07599999755620956,0.07599999755620956,0.08299999684095383,408000.0
2020-07-16,0.0860000029206276,0.08299999684095383,0.08299999684095383,0.0860000029206276,728000.0
2020-07-17,0.08799999952316284,0.0860000029206276,0.0860000029206276,0.09000000357627869,488000.0
2020-07-20,0.0860000029206276,0.0820000022649765,0.08399999886751175,0.0860000029206276,272000.0
2020-07-21,0.08900000154972076,0.0860000029206276,0.0860000029206276,0.08900000154972076,120000.0
2020-07-22,0.08900000154972076,0.08900000154972076,0.08900000154972076,0.08900000154972076,0.0
2020-07-23,0.08900000154972076,0.08900000154972076,0.08900000154972076,0.08900000154972076,0.0
2020-07-24,0.08900000154972076,0.08900000154972076,0.08900000154972076,0.08900000154972076,0.0
2020-07-27,0.08799999952316284,0.08799999952316284,0.08799999952316284,0.08799999952316284,0.0
2020-07-28,0.08799999952316284,0.08799999952316284,0.08799999952316284,0.08699999749660492,96000.0
2020-07-29,0.08699999749660492,0.08699999749660492,0.08699999749660492,0.08699999749660492,0.0
2020-07-30,0.08699999749660492,0.08699999749660492,0.08699999749660492,0.08699999749660492,0.0
2020-07-31,0.08500000089406967,0.0820000022649765,0.0820000022649765,0.08500000089406967,280000.0
2020-08-03,0.08500000089406967,0.08500000089406967,0.08500000089406967,0.08500000089406967,0.0
2020-08-04,0.08500000089406967,0.08500000089406967,0.08500000089406967,0.08500000089406967,0.0
2020-08-05,0.08399999886751175,0.07500000298023224,0.07999999821186066,0.08399999886751175,1608000.0
2020-08-06,0.08399999886751175,0.08399999886751175,0.08399999886751175,0.08399999886751175,0.0
2020-08-07,0.08399999886751175,0.08399999886751175,0.08399999886751175,0.08399999886751175,0.0
2020-08-10,0.08500000089406967,0.08299999684095383,0.08299999684095383,0.08500000089406967,328000.0
2020-08-11,0.10000000149011612,0.08500000089406967,0.08500000089406967,0.09799999743700027,688000.0
2020-08-12,0.09799999743700027,0.09799999743700027,0.09799999743700027,0.09799999743700027,200000.0
2020-08-13,0.09799999743700027,0.09799999743700027,0.09799999743700027,0.09799999743700027,40000.0
2020-08-14,0.090999998152256,0.09000000357627869,0.090999998152256,0.0949999988079071,72000.0
2020-08-17,0.0949999988079071,0.0949999988079071,0.0949999988079071,0.0949999988079071,96000.0
2020-08-18,0.0949999988079071,0.0949999988079071,0.0949999988079071,0.0949999988079071,48000.0
2020-08-19,0.0949999988079071,0.0949999988079071,0.0949999988079071,0.0949999988079071,0.0
2020-08-20,0.0949999988079071,0.0949999988079071,0.0949999988079071,0.0949999988079071,160000.0
2020-08-21,0.10000000149011612,0.08900000154972076,0.08900000154972076,0.10000000149011612,360000.0
2020-08-24,0.10000000149011612,0.10000000149011612,0.10000000149011612,0.10000000149011612,0.0
