Date,High,Low,Open,Close,Volume
2017-05-15,1.4099999666213991,1.2599999904632568,1.3799999952316284,1.2799999713897705,157115000
2017-05-16,1.309999942779541,1.2300000190734863,1.2899999618530271,1.2699999809265137,28865000
2017-05-17,1.4800000190734863,1.2699999809265137,1.2799999713897705,1.4299999475479126,141120000
2017-05-18,1.5900000333786009,1.3700000047683716,1.3899999856948853,1.5700000524520874,101295000
2017-05-19,1.7100000381469729,1.5,1.5900000333786009,1.5499999523162842,81965000
2017-05-22,1.5800000429153442,1.399999976158142,1.5700000524520874,1.4199999570846558,36050000
2017-05-23,1.4500000476837158,1.3200000524520874,1.4299999475479126,1.3300000429153442,32105000
2017-05-24,1.3700000047683716,1.3200000524520874,1.3400000333786009,1.3600000143051147,9030000
2017-05-25,1.3700000047683716,1.2899999618530271,1.3700000047683716,1.2999999523162842,10575000
2017-05-26,1.3300000429153442,1.2599999904632568,1.2999999523162842,1.2899999618530271,10150000
2017-05-29,1.3400000333786009,1.2799999713897705,1.2999999523162842,1.2799999713897705,8622000
2017-05-31,1.2999999523162842,1.2799999713897705,1.2799999713897705,1.2799999713897705,5065000
2017-06-01,1.2899999618530271,1.2300000190734863,1.2799999713897705,1.2799999713897705,5830000
2017-06-02,1.309999942779541,1.2699999809265137,1.2699999809265137,1.309999942779541,3480000
2017-06-05,1.3700000047683716,1.309999942779541,1.309999942779541,1.3200000524520874,4100000
2017-06-06,1.3300000429153442,1.2799999713897705,1.3300000429153442,1.2999999523162842,2000000
2017-06-07,1.2999999523162842,1.2799999713897705,1.2799999713897705,1.2899999618530271,2480000
2017-06-08,1.3400000333786009,1.2799999713897705,1.2899999618530271,1.309999942779541,5265000
2017-06-09,1.309999942779541,1.2899999618530271,1.309999942779541,1.2999999523162842,2820000
2017-06-12,1.309999942779541,1.2899999618530271,1.2899999618530271,1.2999999523162842,1402000
2017-06-13,1.3200000524520874,1.2899999618530271,1.309999942779541,1.309999942779541,2590000
2017-06-14,1.309999942779541,1.2799999713897705,1.2999999523162842,1.2999999523162842,1285000
2017-06-15,1.2999999523162842,1.2799999713897705,1.2799999713897705,1.2899999618530271,2765000
2017-06-16,1.2999999523162842,1.2799999713897705,1.2999999523162842,1.2899999618530271,2690000
2017-06-19,1.2899999618530271,1.2799999713897705,1.2899999618530271,1.2899999618530271,840000
2017-06-20,1.2999999523162842,1.2799999713897705,1.2899999618530271,1.2799999713897705,805000
2017-06-21,1.3300000429153442,1.2899999618530271,1.2899999618530271,1.2999999523162842,2100000
2017-06-22,1.309999942779541,1.2899999618530271,1.2899999618530271,1.2999999523162842,1990000
2017-06-23,1.399999976158142,1.3200000524520874,1.3200000524520874,1.3400000333786009,15250000
2017-06-26,1.350000023841858,1.2999999523162842,1.350000023841858,1.309999942779541,1780000
2017-06-27,1.309999942779541,1.25,1.309999942779541,1.2899999618530271,4575000
2017-06-28,1.2899999618530271,1.2599999904632568,1.2899999618530271,1.2899999618530271,3355000
2017-06-29,1.309999942779541,1.2899999618530271,1.2899999618530271,1.2999999523162842,1575000
2017-06-30,1.2999999523162842,1.2899999618530271,1.2999999523162842,1.2999999523162842,2965000
2017-07-03,1.2999999523162842,1.2899999618530271,1.2999999523162842,1.2899999618530271,915000
2017-07-04,1.2999999523162842,1.2799999713897705,1.2999999523162842,1.2799999713897705,1040000
2017-07-05,1.2999999523162842,1.2799999713897705,1.2899999618530271,1.2899999618530271,425000
2017-07-06,1.2899999618530271,1.2799999713897705,1.2899999618530271,1.2899999618530271,800000
2017-07-07,1.2899999618530271,1.2799999713897705,1.2899999618530271,1.2799999713897705,795000
2017-07-10,1.2899999618530271,1.2799999713897705,1.2799999713897705,1.2899999618530271,795000
2017-07-11,1.2899999618530271,1.2799999713897705,1.2899999618530271,1.2799999713897705,585000
2017-07-12,1.2799999713897705,1.2699999809265137,1.2799999713897705,1.2699999809265137,780000
2017-07-13,1.2699999809265137,1.25,1.2699999809265137,1.2599999904632568,1755000
2017-07-14,1.2699999809265137,1.25,1.2599999904632568,1.2599999904632568,1720000
2017-07-17,1.2699999809265137,1.25,1.2599999904632568,1.2599999904632568,1305000
2017-07-18,1.2799999713897705,1.25,1.2599999904632568,1.2599999904632568,580000
2017-07-19,1.2599999904632568,1.2000000476837158,1.2599999904632568,1.2300000190734863,2885000
2017-07-20,1.2400000095367432,1.2000000476837158,1.2300000190734863,1.2400000095367432,2135000
2017-07-21,1.2400000095367432,1.2300000190734863,1.2400000095367432,1.2300000190734863,230000
2017-07-24,1.2400000095367432,1.2300000190734863,1.2300000190734863,1.2400000095367432,220000
2017-07-25,1.25,1.2400000095367432,1.2400000095367432,1.25,275000
2017-07-26,1.25,1.2300000190734863,1.2400000095367432,1.25,505000
2017-07-27,1.2400000095367432,1.2300000190734863,1.2400000095367432,1.2400000095367432,270000
2017-07-28,1.2400000095367432,1.2300000190734863,1.2400000095367432,1.2400000095367432,590000
2017-07-31,1.2400000095367432,1.2300000190734863,1.2400000095367432,1.2300000190734863,405000
2017-08-01,1.25,1.2300000190734863,1.2300000190734863,1.2400000095367432,350000
2017-08-02,1.25,1.2300000190734863,1.2400000095367432,1.25,690000
2017-08-03,1.25,1.2400000095367432,1.25,1.25,540000
2017-08-04,1.25,1.2300000190734863,1.25,1.2300000190734863,210000
2017-08-07,1.2400000095367432,1.2300000190734863,1.2400000095367432,1.2300000190734863,410000
2017-08-08,1.25,1.2300000190734863,1.2400000095367432,1.25,720000
2017-08-09,1.25,1.2400000095367432,1.25,1.2400000095367432,730000
2017-08-10,1.2400000095367432,1.2300000190734863,1.2400000095367432,1.2400000095367432,340000
2017-08-11,1.2300000190734863,1.2000000476837158,1.2300000190734863,1.2300000190734863,1105000
2017-08-14,1.2400000095367432,1.2200000286102295,1.2200000286102295,1.2400000095367432,335000
2017-08-15,1.2300000190734863,1.2200000286102295,1.2300000190734863,1.2300000190734863,900000
2017-08-16,1.2300000190734863,1.2300000190734863,1.2300000190734863,1.2300000190734863,585000
2017-08-17,1.2400000095367432,1.2300000190734863,1.2300000190734863,1.2300000190734863,335000
2017-08-18,1.2300000190734863,1.2200000286102295,1.2300000190734863,1.2200000286102295,320000
2017-08-21,1.2200000286102295,1.2000000476837158,1.2200000286102295,1.2100000381469729,590000
2017-08-22,1.2400000095367432,1.2000000476837158,1.2000000476837158,1.2400000095367432,595000
2017-08-23,1.2400000095367432,1.2400000095367432,1.2400000095367432,1.2400000095367432,0
2017-08-24,1.2400000095367432,1.2400000095367432,1.2400000095367432,1.2400000095367432,340000
2017-08-25,1.2400000095367432,1.2300000190734863,1.2300000190734863,1.2400000095367432,185000
2017-08-28,1.2400000095367432,1.2300000190734863,1.2300000190734863,1.2300000190734863,365000
2017-08-29,1.2300000190734863,1.2200000286102295,1.2300000190734863,1.2200000286102295,370000
2017-08-30,1.2400000095367432,1.2200000286102295,1.2200000286102295,1.2300000190734863,370000
2017-08-31,1.2300000190734863,1.2200000286102295,1.2200000286102295,1.2300000190734863,245000
2017-09-01,1.350000023841858,1.2200000286102295,1.2200000286102295,1.3200000524520874,2670000
2017-09-04,1.2899999618530271,1.25,1.2899999618530271,1.25,765000
2017-09-05,1.2599999904632568,1.2400000095367432,1.2400000095367432,1.25,515000
2017-09-06,1.2799999713897705,1.25,1.25,1.2799999713897705,485000
2017-09-07,1.3899999856948853,1.2799999713897705,1.2799999713897705,1.309999942779541,2695000
2017-09-08,1.3300000429153442,1.2899999618530271,1.309999942779541,1.3200000524520874,375000
2017-09-11,1.2899999618530271,1.2699999809265137,1.2899999618530271,1.2899999618530271,220000
2017-09-12,1.2899999618530271,1.25,1.2799999713897705,1.2599999904632568,1135000
2017-09-13,1.3799999952316284,1.25,1.25,1.350000023841858,6860000
2017-09-14,1.440000057220459,1.2999999523162842,1.3600000143051147,1.3400000333786009,8165000
2017-09-15,1.350000023841858,1.2599999904632568,1.350000023841858,1.2799999713897705,4470000
2017-09-18,1.309999942779541,1.2799999713897705,1.2899999618530271,1.2899999618530271,1655000
2017-09-19,1.309999942779541,1.2799999713897705,1.309999942779541,1.2899999618530271,830000
2017-09-20,1.3200000524520874,1.2899999618530271,1.2999999523162842,1.2899999618530271,630000
2017-09-21,1.2999999523162842,1.2799999713897705,1.2799999713897705,1.2899999618530271,1370000
2017-09-22,1.2999999523162842,1.2899999618530271,1.2999999523162842,1.2899999618530271,720000
2017-09-25,1.2799999713897705,1.2599999904632568,1.2799999713897705,1.2599999904632568,480000
2017-09-26,1.2699999809265137,1.25,1.2599999904632568,1.2599999904632568,1710000
2017-09-27,1.2599999904632568,1.25,1.25,1.2599999904632568,2505000
2017-09-28,1.2599999904632568,1.25,1.25,1.2599999904632568,345000
2017-09-29,1.2699999809265137,1.25,1.25,1.2599999904632568,505000
2017-10-03,1.2699999809265137,1.25,1.2699999809265137,1.2599999904632568,395000
2017-10-04,1.2699999809265137,1.25,1.2699999809265137,1.25,430000
2017-10-06,1.2699999809265137,1.25,1.2599999904632568,1.2599999904632568,270000
2017-10-09,1.2899999618530271,1.25,1.25,1.2699999809265137,590000
2017-10-10,1.2699999809265137,1.2599999904632568,1.2699999809265137,1.2699999809265137,135000
2017-10-11,1.2699999809265137,1.2599999904632568,1.2699999809265137,1.2699999809265137,310000
2017-10-12,1.309999942779541,1.2599999904632568,1.2599999904632568,1.2799999713897705,545000
2017-10-13,1.2799999713897705,1.2699999809265137,1.2799999713897705,1.2799999713897705,175000
2017-10-16,1.2999999523162842,1.2699999809265137,1.2699999809265137,1.2999999523162842,395000
2017-10-17,1.2999999523162842,1.2799999713897705,1.2999999523162842,1.2799999713897705,330000
2017-10-18,1.2899999618530271,1.2699999809265137,1.2699999809265137,1.2899999618530271,250000
2017-10-19,1.2999999523162842,1.2799999713897705,1.2899999618530271,1.2799999713897705,535000
2017-10-20,1.2799999713897705,1.2799999713897705,1.2799999713897705,1.2799999713897705,165000
2017-10-23,1.2799999713897705,1.2699999809265137,1.2699999809265137,1.2699999809265137,240000
2017-10-24,1.2799999713897705,1.2699999809265137,1.2799999713897705,1.2699999809265137,160000
2017-10-25,1.2899999618530271,1.2699999809265137,1.2799999713897705,1.2899999618530271,405000
2017-10-26,1.2899999618530271,1.2599999904632568,1.2799999713897705,1.2599999904632568,380000
2017-10-27,1.2899999618530271,1.2599999904632568,1.2599999904632568,1.2899999618530271,405000
2017-10-30,1.2799999713897705,1.25,1.25,1.2799999713897705,545000
2017-10-31,1.2699999809265137,1.25,1.2599999904632568,1.2699999809265137,130000
2017-11-01,1.2799999713897705,1.2699999809265137,1.2799999713897705,1.2699999809265137,120000
2017-11-02,1.2799999713897705,1.2599999904632568,1.2699999809265137,1.2699999809265137,630000
2017-11-03,1.2799999713897705,1.2699999809265137,1.2699999809265137,1.2699999809265137,160000
2017-11-06,1.2699999809265137,1.25,1.2699999809265137,1.2599999904632568,845000
2017-11-07,1.2699999809265137,1.2400000095367432,1.2699999809265137,1.2599999904632568,850000
2017-11-08,1.25,1.25,1.25,1.25,255000
2017-11-09,1.2699999809265137,1.25,1.25,1.2699999809265137,535000
2017-11-10,1.2599999904632568,1.25,1.25,1.2599999904632568,315000
2017-11-13,1.2599999904632568,1.25,1.25,1.2599999904632568,105000
2017-11-14,1.2599999904632568,1.25,1.25,1.25,475000
2017-11-15,1.2599999904632568,1.25,1.25,1.2599999904632568,390000
2017-11-16,1.2599999904632568,1.25,1.25,1.2599999904632568,335000
2017-11-17,1.2799999713897705,1.2599999904632568,1.2699999809265137,1.2799999713897705,185000
2017-11-20,1.2599999904632568,1.2599999904632568,1.2599999904632568,1.2599999904632568,80000
2017-11-21,1.2599999904632568,1.25,1.2599999904632568,1.2599999904632568,400000
2017-11-22,1.2699999809265137,1.2599999904632568,1.2599999904632568,1.2599999904632568,175000
2017-11-23,1.2899999618530271,1.25,1.2899999618530271,1.25,765000
2017-11-24,1.25,1.25,1.25,1.25,20000
2017-11-27,1.25,1.25,1.25,1.25,20000
2017-11-28,1.25,1.25,1.25,1.25,200000
2017-11-29,1.25,1.2400000095367432,1.25,1.2400000095367432,600000
2017-11-30,1.2400000095367432,1.2100000381469729,1.2300000190734863,1.2300000190734863,470000
2017-12-01,1.2300000190734863,1.2200000286102295,1.2300000190734863,1.2200000286102295,275000
2017-12-04,1.25,1.2200000286102295,1.2200000286102295,1.2300000190734863,50000
2017-12-05,1.2400000095367432,1.2400000095367432,1.2400000095367432,1.2400000095367432,30000
2017-12-06,1.2400000095367432,1.190000057220459,1.2300000190734863,1.2300000190734863,545000
2017-12-07,1.2300000190734863,1.1799999475479126,1.2300000190734863,1.2300000190734863,365000
2017-12-08,1.2200000286102295,1.2000000476837158,1.2100000381469729,1.2200000286102295,155000
2017-12-11,1.2300000190734863,1.2100000381469729,1.2200000286102295,1.2200000286102295,315000
2017-12-12,1.2200000286102295,1.2200000286102295,1.2000000476837158,1.2200000286102295,190000
2017-12-13,1.190000057220459,1.1299999952316284,1.190000057220459,1.1399999856948853,190000
2017-12-14,1.2000000476837158,1.1699999570846558,1.1699999570846558,1.2000000476837158,190000
2017-12-15,1.2699999809265137,1.2200000286102295,1.2200000286102295,1.2699999809265137,115000
2017-12-18,1.2100000381469729,1.2100000381469729,1.2100000381469729,1.2100000381469729,0
2017-12-19,1.2000000476837158,1.2000000476837158,1.2000000476837158,1.2000000476837158,70000
2017-12-20,1.2000000476837158,1.2000000476837158,1.2000000476837158,1.2000000476837158,20000
2017-12-21,1.2100000381469729,1.2100000381469729,1.2100000381469729,1.2100000381469729,0
2017-12-22,1.2100000381469729,1.2000000476837158,1.2100000381469729,1.2000000476837158,235000
2017-12-27,1.2000000476837158,1.2000000476837158,1.2000000476837158,1.2000000476837158,0
2017-12-28,1.25,1.2000000476837158,1.2000000476837158,1.2000000476837158,105000
2017-12-29,1.25,1.2300000190734863,1.25,1.2300000190734863,180000
2018-01-02,1.2200000286102295,1.1799999475479126,1.2200000286102295,1.2200000286102295,180000
2018-01-03,1.2300000190734863,1.2000000476837158,1.2200000286102295,1.2100000381469729,310000
2018-01-04,1.25,1.2000000476837158,1.2000000476837158,1.2300000190734863,65000
2018-01-05,1.2799999713897705,1.2400000095367432,1.2400000095367432,1.2599999904632568,140000
2018-01-08,1.2400000095367432,1.1799999475479126,1.2400000095367432,1.2000000476837158,390000
2018-01-09,1.2400000095367432,1.2000000476837158,1.2000000476837158,1.2200000286102295,55000
2018-01-10,1.2300000190734863,1.2300000190734863,1.2300000190734863,1.2300000190734863,25000
2018-01-11,1.2300000190734863,1.2200000286102295,1.2200000286102295,1.2300000190734863,65000
2018-01-12,1.2100000381469729,1.2000000476837158,1.2100000381469729,1.2100000381469729,110000
2018-01-15,1.2200000286102295,1.2000000476837158,1.2200000286102295,1.2100000381469729,120000
2018-01-16,1.2200000286102295,1.2000000476837158,1.2000000476837158,1.2200000286102295,405000
2018-01-17,1.25,1.190000057220459,1.2999999523162842,1.2000000476837158,510000
2018-01-18,1.2100000381469729,1.190000057220459,1.2000000476837158,1.190000057220459,325000
2018-01-19,1.25,1.190000057220459,1.2200000286102295,1.2100000381469729,355000
2018-01-22,1.2100000381469729,1.2000000476837158,1.2100000381469729,1.2000000476837158,125000
2018-01-23,1.2100000381469729,1.2000000476837158,1.2100000381469729,1.2000000476837158,160000
2018-01-24,1.2000000476837158,1.2000000476837158,1.2000000476837158,1.2000000476837158,110000
2018-01-25,1.2200000286102295,1.2000000476837158,1.2000000476837158,1.2000000476837158,40000
2018-01-26,1.2000000476837158,1.1699999570846558,1.2000000476837158,1.190000057220459,225000
2018-01-29,1.2200000286102295,1.190000057220459,1.190000057220459,1.2000000476837158,490000
2018-01-30,1.2000000476837158,1.1699999570846558,1.190000057220459,1.2000000476837158,235000
2018-01-31,1.2100000381469729,1.2100000381469729,1.2100000381469729,1.2100000381469729,5000
2018-02-01,1.2899999618530271,1.2000000476837158,1.2100000381469729,1.2200000286102295,640000
2018-02-02,1.2100000381469729,1.2000000476837158,1.2000000476837158,1.2100000381469729,395000
2018-02-05,1.2100000381469729,1.190000057220459,1.2000000476837158,1.2000000476837158,170000
2018-02-06,1.25,1.100000023841858,1.190000057220459,1.2200000286102295,1825000
2018-02-07,1.25,1.1799999475479126,1.25,1.1799999475479126,380000
2018-02-08,1.190000057220459,1.1799999475479126,1.1799999475479126,1.1799999475479126,150000
2018-02-09,1.1799999475479126,1.149999976158142,1.1699999570846558,1.1599999666213991,240000
2018-02-12,1.1599999666213991,1.1599999666213991,1.1599999666213991,1.1699999570846558,5000
2018-02-13,1.1599999666213991,1.1599999666213991,1.1599999666213991,1.1599999666213991,0
2018-02-14,1.1599999666213991,1.149999976158142,1.149999976158142,1.1599999666213991,140000
2018-02-15,1.1599999666213991,1.1599999666213991,1.1599999666213991,1.1599999666213991,0
2018-02-20,1.1399999856948853,1.1399999856948853,1.1399999856948853,1.1399999856948853,0
2018-02-21,1.190000057220459,1.1599999666213991,1.1599999666213991,1.190000057220459,15000
2018-02-22,1.2400000095367432,1.2400000095367432,1.2400000095367432,1.2000000476837158,10000
2018-02-23,1.2000000476837158,1.2000000476837158,1.2000000476837158,1.2000000476837158,0
2018-02-26,1.190000057220459,1.190000057220459,1.190000057220459,1.190000057220459,0
2018-02-27,1.2000000476837158,1.190000057220459,1.190000057220459,1.2000000476837158,40000
2018-02-28,1.2000000476837158,1.2000000476837158,1.2000000476837158,1.2000000476837158,0
2018-03-01,1.1799999475479126,1.1699999570846558,1.1699999570846558,1.1799999475479126,15000
2018-03-02,1.190000057220459,1.190000057220459,1.190000057220459,1.190000057220459,0
2018-03-05,1.190000057220459,1.1799999475479126,1.190000057220459,1.1799999475479126,20000
2018-03-06,1.1799999475479126,1.1799999475479126,1.1799999475479126,1.1799999475479126,0
2018-03-07,1.1799999475479126,1.1799999475479126,1.1799999475479126,1.1799999475479126,0
2018-03-08,1.1799999475479126,1.1699999570846558,1.1799999475479126,1.1799999475479126,90000
2018-03-09,1.1799999475479126,1.1799999475479126,1.1799999475479126,1.1799999475479126,60000
2018-03-12,1.190000057220459,1.1799999475479126,1.1799999475479126,1.190000057220459,65000
2018-03-13,1.190000057220459,1.190000057220459,1.190000057220459,1.190000057220459,0
2018-03-14,1.190000057220459,1.190000057220459,1.190000057220459,1.190000057220459,0
2018-03-15,1.1799999475479126,1.1799999475479126,1.1799999475479126,1.1799999475479126,50000
2018-03-16,1.1799999475479126,1.1799999475479126,1.1799999475479126,1.1799999475479126,55000
2018-03-19,1.1799999475479126,1.1799999475479126,1.1799999475479126,1.1799999475479126,0
2018-03-20,1.1799999475479126,1.1799999475479126,1.1799999475479126,1.1799999475479126,0
2018-03-21,1.1799999475479126,1.1799999475479126,1.1799999475479126,1.1799999475479126,30000
2018-03-22,1.190000057220459,1.1799999475479126,1.190000057220459,1.1799999475479126,210000
2018-03-23,1.190000057220459,1.1299999952316284,1.1799999475479126,1.1299999952316284,210000
2018-03-26,1.1599999666213991,1.149999976158142,1.149999976158142,1.1599999666213991,275000
2018-03-27,1.1599999666213991,1.149999976158142,1.149999976158142,1.1699999570846558,20000
2018-03-28,1.149999976158142,1.149999976158142,1.149999976158142,1.149999976158142,0
2018-03-29,1.1599999666213991,1.1299999952316284,1.1399999856948853,1.1599999666213991,370000
2018-04-03,1.190000057220459,1.149999976158142,1.1699999570846558,1.1599999666213991,70000
2018-04-04,1.1399999856948853,1.1399999856948853,1.1399999856948853,1.1399999856948853,35000
2018-04-06,1.1599999666213991,1.1200000047683716,1.1200000047683716,1.1399999856948853,45000
2018-04-09,1.1399999856948853,1.1200000047683716,1.1299999952316284,1.1399999856948853,50000
2018-04-10,1.1299999952316284,1.0900000333786009,1.0900000333786009,1.1299999952316284,95000
2018-04-11,1.1299999952316284,1.1299999952316284,1.1299999952316284,1.1299999952316284,0
2018-04-12,1.1299999952316284,1.1299999952316284,1.1299999952316284,1.1299999952316284,0
2018-04-13,1.100000023841858,1.0700000524520874,1.0700000524520874,1.100000023841858,60000
2018-04-16,1.100000023841858,1.100000023841858,1.100000023841858,1.100000023841858,0
2018-04-17,1.100000023841858,1.100000023841858,1.100000023841858,1.100000023841858,0
2018-04-18,1.0900000333786009,1.0599999427795408,1.0599999427795408,1.0900000333786009,50000
2018-04-19,1.0700000524520874,1.0299999713897705,1.0700000524520874,1.0299999713897705,95000
2018-04-20,1.0700000524520874,1.0399999618530271,1.0700000524520874,1.0599999427795408,295000
2018-04-23,1.0599999427795408,1.0599999427795408,1.0599999427795408,1.0599999427795408,0
2018-04-24,1.0599999427795408,1.0599999427795408,1.0599999427795408,1.0599999427795408,0
2018-04-25,1.149999976158142,1.0700000524520874,1.100000023841858,1.0700000524520874,420000
2018-04-26,1.0599999427795408,1.0599999427795408,1.0599999427795408,1.0599999427795408,30000
2018-04-27,1.0399999618530271,0.959999978542328,1.0499999523162842,1.0399999618530271,60000
2018-04-30,1.0299999713897705,1.0099999904632568,1.0099999904632568,1.0299999713897705,15000
2018-05-02,1.0399999618530271,1.0399999618530271,1.0399999618530271,1.0399999618530271,15000
2018-05-03,1.0599999427795408,1.0599999427795408,1.0599999427795408,1.0599999427795408,5000
2018-05-04,1.0399999618530271,1.0299999713897705,1.0299999713897705,1.0399999618530271,70000
2018-05-07,1.0399999618530271,1.0399999618530271,1.0299999713897705,1.0399999618530271,35000
2018-05-08,1.0299999713897705,1.0299999713897705,1.0299999713897705,1.0299999713897705,10000
2018-05-09,1.0499999523162842,1.0299999713897705,1.0299999713897705,1.0499999523162842,10000
2018-05-10,1.0499999523162842,1.0499999523162842,1.0499999523162842,1.0499999523162842,0
2018-05-11,1.0499999523162842,1.0499999523162842,1.0499999523162842,1.0499999523162842,0
2018-05-14,1.0499999523162842,1.0499999523162842,1.0499999523162842,1.0499999523162842,0
2018-05-15,1.0599999427795408,1.0599999427795408,1.0599999427795408,1.0599999427795408,15000
2018-05-16,1.0599999427795408,1.0599999427795408,1.0599999427795408,1.0599999427795408,20000
2018-05-17,1.0299999713897705,1.0199999809265137,1.0199999809265137,1.0299999713897705,35000
2018-05-18,1.0199999809265137,1.0199999809265137,1.0199999809265137,1.0299999713897705,50000
2018-05-21,1.0299999713897705,1.0299999713897705,1.0299999713897705,1.0299999713897705,0
2018-05-23,1.0299999713897705,1.0299999713897705,1.0299999713897705,1.0299999713897705,0
2018-05-24,1.0499999523162842,1.0499999523162842,1.0499999523162842,1.0499999523162842,0
2018-05-25,1.0399999618530271,1.0099999904632568,1.0399999618530271,1.0199999809265137,30000
2018-05-28,1.0599999427795408,1.0199999809265137,1.0199999809265137,1.0499999523162842,165000
2018-05-29,1.0499999523162842,1.0499999523162842,1.0499999523162842,1.0499999523162842,5000
2018-05-30,1.0499999523162842,1.0499999523162842,1.0499999523162842,1.0499999523162842,0
2018-05-31,1.0800000429153442,1.0399999618530271,1.0499999523162842,1.0800000429153442,125000
2018-06-01,1.1299999952316284,1.0800000429153442,1.0800000429153442,1.1299999952316284,25000
2018-06-04,1.1299999952316284,1.1299999952316284,1.1299999952316284,1.1299999952316284,0
2018-06-05,1.100000023841858,1.0800000429153442,1.100000023841858,1.100000023841858,140000
2018-06-06,1.100000023841858,1.100000023841858,1.100000023841858,1.100000023841858,0
2018-06-07,1.0700000524520874,1.0700000524520874,1.0700000524520874,1.0700000524520874,5000
2018-06-08,1.0700000524520874,1.0700000524520874,1.0700000524520874,1.0700000524520874,0
2018-06-11,1.0700000524520874,1.0700000524520874,1.0700000524520874,1.0700000524520874,0
2018-06-12,1.0700000524520874,1.0700000524520874,1.0700000524520874,1.0700000524520874,0
2018-06-13,1.0700000524520874,1.0700000524520874,1.0700000524520874,1.0700000524520874,0
2018-06-14,1.0700000524520874,1.0700000524520874,1.0700000524520874,1.0700000524520874,0
2018-06-15,1.1200000047683716,1.0599999427795408,1.0700000524520874,1.100000023841858,90000
2018-06-19,1.0399999618530271,1.0299999713897705,1.0399999618530271,1.0299999713897705,15000
2018-06-20,1.1599999666213991,1.0499999523162842,1.0499999523162842,1.1599999666213991,250000
2018-06-21,1.25,1.1599999666213991,1.2000000476837158,1.1699999570846558,1235000
2018-06-22,1.2100000381469729,1.1799999475479126,1.1799999475479126,1.2000000476837158,655000
2018-06-25,1.2000000476837158,1.190000057220459,1.2000000476837158,1.190000057220459,150000
2018-06-26,1.2000000476837158,1.1699999570846558,1.2000000476837158,1.1699999570846558,395000
2018-06-27,1.2100000381469729,1.149999976158142,1.2100000381469729,1.1599999666213991,250000
2018-06-28,1.1599999666213991,1.1599999666213991,1.1599999666213991,1.1599999666213991,55000
2018-06-29,1.190000057220459,1.1599999666213991,1.1599999666213991,1.190000057220459,330000
2018-07-03,1.1599999666213991,1.1599999666213991,1.1599999666213991,1.1599999666213991,50000
2018-07-04,1.2300000190734863,1.1799999475479126,1.2300000190734863,1.1799999475479126,105000
2018-07-05,1.2300000190734863,1.1799999475479126,1.1799999475479126,1.1799999475479126,5000
2018-07-06,1.1799999475479126,1.1799999475479126,1.1799999475479126,1.1799999475479126,5000
2018-07-09,1.1799999475479126,1.1799999475479126,1.1799999475479126,1.1799999475479126,0
2018-07-10,1.1799999475479126,1.1699999570846558,1.1799999475479126,1.1699999570846558,50000
2018-07-11,1.1799999475479126,1.1799999475479126,1.1799999475479126,1.1799999475479126,0
2018-07-12,1.1699999570846558,1.1599999666213991,1.1699999570846558,1.1699999570846558,35000
2018-07-13,1.1599999666213991,1.1599999666213991,1.1599999666213991,1.1599999666213991,25000
2018-07-16,1.190000057220459,1.190000057220459,1.190000057220459,1.190000057220459,50000
2018-07-17,1.149999976158142,1.149999976158142,1.149999976158142,1.149999976158142,0
2018-07-18,1.149999976158142,1.149999976158142,1.149999976158142,1.149999976158142,0
2018-07-19,1.149999976158142,1.149999976158142,1.149999976158142,1.149999976158142,40000
2018-07-20,1.149999976158142,1.149999976158142,1.149999976158142,1.149999976158142,15000
2018-07-23,1.149999976158142,1.149999976158142,1.149999976158142,1.149999976158142,0
2018-07-24,1.2200000286102295,1.1399999856948853,1.149999976158142,1.1699999570846558,165000
2018-07-25,1.1799999475479126,1.1799999475479126,1.1799999475479126,1.1799999475479126,35000
2018-07-26,1.1699999570846558,1.0700000524520874,1.1699999570846558,1.100000023841858,315000
2018-07-27,1.149999976158142,1.149999976158142,1.149999976158142,1.149999976158142,0
2018-07-30,1.149999976158142,1.149999976158142,1.149999976158142,1.149999976158142,0
2018-07-31,1.2200000286102295,1.2000000476837158,1.2200000286102295,1.2000000476837158,10000
2018-08-01,1.2000000476837158,1.2000000476837158,1.2000000476837158,1.2000000476837158,0
2018-08-02,1.1200000047683716,1.1100000143051147,1.1100000143051147,1.1200000047683716,100000
2018-08-03,1.1299999952316284,1.1299999952316284,1.1299999952316284,1.1299999952316284,0
2018-08-06,1.2000000476837158,1.1599999666213991,1.2000000476837158,1.1699999570846558,35000
2018-08-07,1.1699999570846558,1.1699999570846558,1.1699999570846558,1.1699999570846558,0
2018-08-08,1.1699999570846558,1.1699999570846558,1.1699999570846558,1.1699999570846558,40000
2018-08-09,1.1799999475479126,1.1699999570846558,1.0800000429153442,1.1799999475479126,160000
2018-08-10,1.1699999570846558,1.0900000333786009,1.100000023841858,1.1699999570846558,70000
2018-08-13,1.2100000381469729,1.190000057220459,1.2000000476837158,1.2100000381469729,275000
2018-08-14,1.149999976158142,1.149999976158142,1.149999976158142,1.149999976158142,0
2018-08-15,1.1799999475479126,1.149999976158142,1.149999976158142,1.1799999475479126,50000
2018-08-16,1.1799999475479126,1.1399999856948853,1.1799999475479126,1.1399999856948853,180000
2018-08-17,1.1599999666213991,1.1399999856948853,1.1399999856948853,1.149999976158142,85000
2018-08-20,1.149999976158142,1.149999976158142,1.149999976158142,1.149999976158142,0
2018-08-21,1.149999976158142,1.149999976158142,1.149999976158142,1.149999976158142,0
2018-08-22,1.1599999666213991,1.1599999666213991,1.1599999666213991,1.1599999666213991,30000
2018-08-23,1.1599999666213991,1.1599999666213991,1.1599999666213991,1.1599999666213991,10000
2018-08-24,1.1599999666213991,1.1599999666213991,1.1599999666213991,1.1599999666213991,0
2018-08-27,1.25,1.1699999570846558,1.2100000381469729,1.2000000476837158,420000
2018-08-28,1.2000000476837158,1.2000000476837158,1.2000000476837158,1.2000000476837158,0
2018-08-29,1.1799999475479126,1.1799999475479126,1.1799999475479126,1.1799999475479126,0
2018-08-30,1.1799999475479126,1.1799999475479126,1.1799999475479126,1.1799999475479126,0
2018-08-31,1.1799999475479126,1.1799999475479126,1.1799999475479126,1.1799999475479126,0
2018-09-03,1.1799999475479126,1.1799999475479126,1.2000000476837158,1.1799999475479126,10000
2018-09-04,1.190000057220459,1.1699999570846558,1.1799999475479126,1.1699999570846558,135000
2018-09-05,1.1699999570846558,1.1699999570846558,1.1699999570846558,1.1699999570846558,0
2018-09-06,1.1699999570846558,1.1699999570846558,1.1699999570846558,1.1699999570846558,0
2018-09-07,1.149999976158142,1.149999976158142,1.149999976158142,1.149999976158142,0
2018-09-10,1.149999976158142,1.149999976158142,1.149999976158142,1.149999976158142,15000
2018-09-11,1.149999976158142,1.149999976158142,1.149999976158142,1.149999976158142,60000
2018-09-12,1.1399999856948853,1.1399999856948853,1.1399999856948853,1.1399999856948853,100000
2018-09-13,1.1399999856948853,1.1399999856948853,1.1399999856948853,1.1399999856948853,0
2018-09-14,1.1399999856948853,1.1399999856948853,1.1399999856948853,1.1399999856948853,80000
2018-09-17,1.1399999856948853,1.1399999856948853,1.1399999856948853,1.1399999856948853,0
2018-09-18,1.1100000143051147,1.1100000143051147,1.1100000143051147,1.1100000143051147,20000
2018-09-19,1.149999976158142,1.149999976158142,1.149999976158142,1.149999976158142,45000
2018-09-20,1.149999976158142,1.149999976158142,1.149999976158142,1.149999976158142,0
2018-09-21,1.149999976158142,1.149999976158142,1.149999976158142,1.149999976158142,0
2018-09-24,1.149999976158142,1.149999976158142,1.149999976158142,1.149999976158142,0
2018-09-26,1.149999976158142,1.149999976158142,1.149999976158142,1.149999976158142,0
2018-09-27,1.190000057220459,1.149999976158142,1.190000057220459,1.149999976158142,75000
2018-09-28,1.149999976158142,1.149999976158142,1.149999976158142,1.149999976158142,0
2018-10-02,1.149999976158142,1.149999976158142,1.149999976158142,1.149999976158142,0
2018-10-03,1.149999976158142,1.149999976158142,1.149999976158142,1.149999976158142,0
2018-10-04,1.1399999856948853,1.1399999856948853,1.1399999856948853,1.1399999856948853,15000
2018-10-05,1.1399999856948853,1.1399999856948853,1.1399999856948853,1.1399999856948853,0
2018-10-08,1.1399999856948853,1.0399999618530271,1.0399999618530271,1.1399999856948853,45000
2018-10-09,1.149999976158142,1.1399999856948853,1.149999976158142,1.1399999856948853,95000
2018-10-10,1.1399999856948853,1.1200000047683716,1.1399999856948853,1.1200000047683716,180000
2018-10-11,1.100000023841858,1.0299999713897705,1.0299999713897705,1.0700000524520874,265000
2018-10-12,1.0599999427795408,1.0499999523162842,1.0599999427795408,1.0499999523162842,135000
2018-10-15,1.0299999713897705,0.9100000262260436,0.9399999976158142,1.0199999809265137,70000
2018-10-16,1.0199999809265137,1.0099999904632568,1.0199999809265137,1.0099999904632568,55000
2018-10-18,1.0399999618530271,1.0399999618530271,1.0399999618530271,1.0399999618530271,10000
2018-10-19,1.0399999618530271,1.0399999618530271,1.0399999618530271,1.0399999618530271,0
2018-10-22,1.0700000524520874,1.0599999427795408,1.0700000524520874,1.0599999427795408,15000
2018-10-23,1.100000023841858,1.100000023841858,1.100000023841858,1.100000023841858,0
2018-10-24,1.1100000143051147,1.0700000524520874,1.1100000143051147,1.0700000524520874,110000
2018-10-25,1.0700000524520874,1.0700000524520874,1.0700000524520874,1.0700000524520874,0
2018-10-26,1.100000023841858,1.100000023841858,1.100000023841858,1.100000023841858,5000
2018-10-29,1.0900000333786009,1.0900000333786009,1.0900000333786009,1.0900000333786009,0
2018-10-30,1.0800000429153442,1.0800000429153442,1.0800000429153442,1.0800000429153442,30000
2018-10-31,1.0800000429153442,1.0800000429153442,1.0800000429153442,1.0800000429153442,0
2018-11-01,1.2000000476837158,1.2000000476837158,1.2000000476837158,1.1799999475479126,5400
2018-11-02,1.1799999475479126,1.1799999475479126,1.1799999475479126,1.1799999475479126,0
2018-11-05,1.1399999856948853,1.1200000047683716,1.1399999856948853,1.1200000047683716,15000
2018-11-06,1.1399999856948853,1.1399999856948853,1.1399999856948853,1.1399999856948853,0
2018-11-07,1.1399999856948853,1.1399999856948853,1.1399999856948853,1.1399999856948853,0
2018-11-08,1.1399999856948853,1.1399999856948853,1.1399999856948853,1.1399999856948853,0
2018-11-09,1.1399999856948853,1.1399999856948853,1.1399999856948853,1.1399999856948853,0
2018-11-12,1.1399999856948853,1.1399999856948853,1.1399999856948853,1.1399999856948853,0
2018-11-13,1.1399999856948853,1.1399999856948853,1.1399999856948853,1.1399999856948853,0
2018-11-14,1.149999976158142,1.149999976158142,1.149999976158142,1.149999976158142,25000
2018-11-15,1.149999976158142,1.149999976158142,1.149999976158142,1.149999976158142,0
2018-11-16,1.149999976158142,1.149999976158142,1.149999976158142,1.149999976158142,0
2018-11-19,1.2000000476837158,1.149999976158142,1.149999976158142,1.2000000476837158,25000
2018-11-20,1.190000057220459,1.190000057220459,1.190000057220459,1.190000057220459,0
2018-11-21,1.190000057220459,1.190000057220459,1.190000057220459,1.190000057220459,0
2018-11-22,1.0800000429153442,1.0800000429153442,1.0800000429153442,1.0800000429153442,5000
2018-11-23,1.0800000429153442,1.0800000429153442,1.0800000429153442,1.0800000429153442,0
2018-11-26,1.0499999523162842,1.0499999523162842,1.0499999523162842,1.0499999523162842,5000
2018-11-27,1.0499999523162842,1.0499999523162842,1.0499999523162842,1.0499999523162842,0
2018-11-28,1.0499999523162842,1.0499999523162842,1.0499999523162842,1.0499999523162842,20000
2018-11-29,1.0700000524520874,1.0700000524520874,1.0700000524520874,1.0700000524520874,0
2018-11-30,1.0700000524520874,1.0700000524520874,1.0700000524520874,1.0700000524520874,0
2018-12-03,1.0700000524520874,1.0700000524520874,1.0700000524520874,1.0700000524520874,0
2018-12-04,1.0499999523162842,1.0499999523162842,1.0499999523162842,1.0499999523162842,5000
2018-12-05,1.0499999523162842,1.0499999523162842,1.0499999523162842,1.0499999523162842,0
2018-12-06,0.9900000095367432,0.9900000095367432,0.9900000095367432,1.0,20000
2018-12-07,1.100000023841858,0.9800000190734864,0.9800000190734864,1.0900000333786009,65000
2018-12-10,1.0900000333786009,1.0900000333786009,1.0900000333786009,1.0900000333786009,0
2018-12-11,1.0599999427795408,0.9900000095367432,0.9900000095367432,1.0599999427795408,65000
2018-12-12,1.1299999952316284,1.100000023841858,1.100000023841858,1.1299999952316284,105000
2018-12-13,1.1299999952316284,1.1299999952316284,1.1299999952316284,1.1299999952316284,0
2018-12-14,1.190000057220459,1.149999976158142,1.190000057220459,1.190000057220459,285000
2018-12-17,1.2000000476837158,1.190000057220459,1.190000057220459,1.2000000476837158,70000
2018-12-18,1.2400000095367432,1.149999976158142,1.2400000095367432,1.1699999570846558,60000
2018-12-19,1.25,1.149999976158142,1.1599999666213991,1.149999976158142,230000
2018-12-20,1.1399999856948853,1.1399999856948853,1.1399999856948853,1.1399999856948853,0
2018-12-21,1.2000000476837158,1.149999976158142,1.1599999666213991,1.2000000476837158,645000
2018-12-24,1.2000000476837158,1.2000000476837158,1.2000000476837158,1.2000000476837158,0
2018-12-27,1.2699999809265137,1.1799999475479126,1.25,1.1799999475479126,4225000
2018-12-28,1.1799999475479126,1.1799999475479126,1.1799999475479126,1.1799999475479126,0
2018-12-31,1.1799999475479126,1.1799999475479126,1.1799999475479126,1.1799999475479126,0
2019-01-02,1.100000023841858,1.100000023841858,1.100000023841858,1.100000023841858,10000
2019-01-03,1.100000023841858,1.100000023841858,1.100000023841858,1.100000023841858,0
2019-01-04,1.100000023841858,1.100000023841858,1.100000023841858,1.100000023841858,0
2019-01-07,1.100000023841858,1.100000023841858,1.100000023841858,1.100000023841858,0
2019-01-08,1.100000023841858,1.100000023841858,1.100000023841858,1.100000023841858,0
2019-01-09,1.25,1.1200000047683716,1.1200000047683716,1.1599999666213991,3785000
2019-01-10,1.25,1.1100000143051147,1.1100000143051147,1.2300000190734863,75000
2019-01-11,1.2300000190734863,1.2300000190734863,1.2300000190734863,1.2300000190734863,0
2019-01-14,1.2300000190734863,1.2300000190734863,1.2300000190734863,1.2300000190734863,0
2019-01-15,1.2100000381469729,1.1599999666213991,1.1599999666213991,1.2100000381469729,10000
2019-01-16,1.2000000476837158,1.2000000476837158,1.2000000476837158,1.2000000476837158,0
2019-01-17,1.2200000286102295,1.190000057220459,1.190000057220459,1.2200000286102295,40000
2019-01-18,1.1100000143051147,1.0800000429153442,1.0800000429153442,1.1100000143051147,15000
2019-01-21,1.1100000143051147,1.1100000143051147,1.1100000143051147,1.1100000143051147,5000
2019-01-22,1.149999976158142,1.149999976158142,1.149999976158142,1.149999976158142,0
2019-01-23,1.1599999666213991,1.1599999666213991,1.1599999666213991,1.1599999666213991,0
2019-01-24,1.1599999666213991,1.1599999666213991,1.1599999666213991,1.1599999666213991,0
2019-01-25,1.1599999666213991,1.1599999666213991,1.1599999666213991,1.1599999666213991,0
2019-01-28,1.1599999666213991,1.1599999666213991,1.1599999666213991,1.1599999666213991,0
2019-01-29,1.1599999666213991,1.1599999666213991,1.1599999666213991,1.1599999666213991,0
2019-01-30,1.1599999666213991,1.1599999666213991,1.1599999666213991,1.1599999666213991,0
2019-01-31,1.1699999570846558,1.1599999666213991,1.1599999666213991,1.1599999666213991,30000
2019-02-01,1.1599999666213991,1.1599999666213991,1.1599999666213991,1.1599999666213991,0
2019-02-04,1.1599999666213991,1.1599999666213991,1.1599999666213991,1.1599999666213991,0
2019-02-08,1.1799999475479126,1.1799999475479126,1.1799999475479126,1.1799999475479126,0
2019-02-11,1.1799999475479126,1.1799999475479126,1.1799999475479126,1.1799999475479126,0
2019-02-12,1.1799999475479126,1.1799999475479126,1.1799999475479126,1.1799999475479126,0
2019-02-13,1.1799999475479126,1.1799999475479126,1.1799999475479126,1.1799999475479126,0
2019-02-14,1.1699999570846558,1.1699999570846558,1.1699999570846558,1.1699999570846558,0
2019-02-15,1.190000057220459,1.190000057220459,1.190000057220459,1.190000057220459,0
2019-02-18,1.190000057220459,1.190000057220459,1.190000057220459,1.190000057220459,20000
2019-02-19,1.2200000286102295,1.2000000476837158,1.2100000381469729,1.2000000476837158,40000
2019-02-20,1.2000000476837158,1.2000000476837158,1.2000000476837158,1.2000000476837158,0
2019-02-21,1.2000000476837158,1.2000000476837158,1.2000000476837158,1.2000000476837158,0
2019-02-22,1.2100000381469729,1.2100000381469729,1.2100000381469729,1.2100000381469729,0
2019-02-25,1.2100000381469729,1.2100000381469729,1.2100000381469729,1.2100000381469729,0
2019-02-26,1.2100000381469729,1.2100000381469729,1.2100000381469729,1.2100000381469729,10000
2019-02-27,1.2100000381469729,1.2100000381469729,1.2100000381469729,1.2100000381469729,0
2019-02-28,1.1799999475479126,1.1799999475479126,1.1799999475479126,1.1799999475479126,10000
2019-03-01,1.1799999475479126,1.1799999475479126,1.1799999475479126,1.1799999475479126,0
2019-03-04,1.0800000429153442,1.0399999618530271,1.0700000524520874,1.0700000524520874,55000
2019-03-05,1.0900000333786009,1.0900000333786009,1.0900000333786009,1.0900000333786009,0
2019-03-06,1.100000023841858,1.0800000429153442,1.0800000429153442,1.100000023841858,20000
2019-03-07,1.100000023841858,1.100000023841858,1.100000023841858,1.100000023841858,0
2019-03-08,1.100000023841858,1.100000023841858,1.100000023841858,1.100000023841858,0
2019-03-11,1.1200000047683716,1.1200000047683716,1.1200000047683716,1.1200000047683716,0
2019-03-12,1.1200000047683716,1.1200000047683716,1.1200000047683716,1.1200000047683716,0
2019-03-13,1.1200000047683716,1.1200000047683716,1.1200000047683716,1.1200000047683716,0
2019-03-14,1.1200000047683716,1.1200000047683716,1.1200000047683716,1.1200000047683716,0
2019-03-15,1.1200000047683716,1.1200000047683716,1.1200000047683716,1.1200000047683716,0
2019-03-18,1.1200000047683716,1.1200000047683716,1.1200000047683716,1.1200000047683716,0
2019-03-19,1.1200000047683716,1.1200000047683716,1.1200000047683716,1.1200000047683716,0
2019-03-20,1.1200000047683716,1.1200000047683716,1.1200000047683716,1.1200000047683716,0
2019-03-21,1.1100000143051147,1.1100000143051147,1.1100000143051147,1.1100000143051147,5000
2019-03-22,1.1100000143051147,1.1100000143051147,1.1100000143051147,1.1100000143051147,0
2019-03-25,1.1100000143051147,1.1100000143051147,1.1100000143051147,1.1100000143051147,0
2019-03-26,1.1100000143051147,1.1100000143051147,1.1100000143051147,1.1100000143051147,0
2019-03-27,1.1100000143051147,1.1100000143051147,1.1100000143051147,1.1100000143051147,0
2019-03-28,1.1100000143051147,1.1100000143051147,1.1100000143051147,1.1100000143051147,0
2019-03-29,1.1100000143051147,1.1100000143051147,1.1100000143051147,1.1100000143051147,0
2019-04-01,1.1100000143051147,1.1100000143051147,1.1100000143051147,1.1100000143051147,0
2019-04-02,1.1100000143051147,1.1100000143051147,1.1100000143051147,1.1100000143051147,0
2019-04-03,1.1100000143051147,1.1100000143051147,1.1100000143051147,1.1100000143051147,0
2019-04-04,1.100000023841858,1.100000023841858,1.100000023841858,1.100000023841858,0
2019-04-08,1.0299999713897705,1.0299999713897705,1.0299999713897705,1.0399999618530271,20000
2019-04-09,1.0900000333786009,1.0800000429153442,1.0900000333786009,1.0800000429153442,15000
2019-04-10,1.0800000429153442,1.0800000429153442,1.0800000429153442,1.0800000429153442,0
2019-04-11,1.0800000429153442,1.0800000429153442,1.0800000429153442,1.0800000429153442,0
2019-04-12,1.0800000429153442,1.0800000429153442,1.0800000429153442,1.0800000429153442,0
2019-04-15,1.0800000429153442,1.0800000429153442,1.0800000429153442,1.0800000429153442,0
2019-04-16,1.0800000429153442,1.0800000429153442,1.0800000429153442,1.0800000429153442,0
2019-04-17,1.0800000429153442,1.0800000429153442,1.0800000429153442,1.0800000429153442,0
2019-04-18,1.0800000429153442,1.0800000429153442,1.0800000429153442,1.0800000429153442,0
2019-04-23,1.0800000429153442,1.0800000429153442,1.0800000429153442,1.0800000429153442,0
2019-04-24,1.0800000429153442,1.0800000429153442,1.0800000429153442,1.0800000429153442,0
2019-04-25,1.0800000429153442,1.0800000429153442,1.0800000429153442,1.0800000429153442,0
2019-04-26,1.0800000429153442,1.0800000429153442,1.0800000429153442,1.0800000429153442,0
2019-04-29,1.0800000429153442,1.0800000429153442,1.0800000429153442,1.0800000429153442,0
2019-04-30,1.0800000429153442,1.0800000429153442,1.0800000429153442,1.0800000429153442,0
2019-05-02,1.0800000429153442,1.0800000429153442,1.0800000429153442,1.0800000429153442,0
2019-05-03,1.0800000429153442,1.0800000429153442,1.0800000429153442,1.0800000429153442,0
2019-05-06,1.0800000429153442,1.0800000429153442,1.0800000429153442,1.0800000429153442,0
2019-05-07,1.0800000429153442,1.0800000429153442,1.0800000429153442,1.0800000429153442,0
2019-05-08,1.0800000429153442,1.0800000429153442,1.0800000429153442,1.0800000429153442,0
2019-05-09,1.0,1.0,1.0,1.0,0
2019-05-10,1.100000023841858,1.0700000524520874,1.0800000429153442,1.100000023841858,255000
2019-05-14,1.0800000429153442,1.0800000429153442,1.0800000429153442,1.0800000429153442,5000
2019-05-15,1.0900000333786009,1.0900000333786009,1.0900000333786009,1.0900000333786009,0
2019-05-16,1.2000000476837158,1.2000000476837158,1.2000000476837158,1.2000000476837158,0
2019-05-17,1.190000057220459,1.190000057220459,1.190000057220459,1.190000057220459,0
2019-05-20,1.1799999475479126,1.1799999475479126,1.1799999475479126,1.1799999475479126,0
2019-05-21,1.149999976158142,1.149999976158142,1.149999976158142,1.149999976158142,0
2019-05-22,1.1599999666213991,1.1599999666213991,1.1599999666213991,1.1599999666213991,15000
2019-05-23,1.1799999475479126,1.1399999856948853,1.1399999856948853,1.149999976158142,2780000
2019-05-24,1.2000000476837158,1.149999976158142,1.149999976158142,1.2000000476837158,125000
2019-05-27,1.1699999570846558,1.149999976158142,1.1699999570846558,1.149999976158142,1050000
2019-05-28,1.149999976158142,1.149999976158142,1.149999976158142,1.149999976158142,0
2019-05-29,1.149999976158142,1.100000023841858,1.149999976158142,1.149999976158142,955000
2019-05-30,1.1699999570846558,1.149999976158142,1.149999976158142,1.149999976158142,970000
2019-05-31,1.190000057220459,1.1599999666213991,1.1599999666213991,1.1699999570846558,1035000
2019-06-03,1.2300000190734863,1.1699999570846558,1.1699999570846558,1.2300000190734863,540000
2019-06-04,1.2100000381469729,1.2000000476837158,1.2000000476837158,1.2000000476837158,1205000
2019-06-05,1.2000000476837158,1.2000000476837158,1.2000000476837158,1.2000000476837158,0
2019-06-06,1.2000000476837158,1.2000000476837158,1.2000000476837158,1.2000000476837158,0
2019-06-10,1.2300000190734863,1.2200000286102295,1.2200000286102295,1.2300000190734863,40000
2019-06-11,1.2300000190734863,1.2300000190734863,1.2300000190734863,1.2300000190734863,0
2019-06-12,1.2300000190734863,1.2300000190734863,1.2300000190734863,1.2300000190734863,0
2019-06-13,1.2599999904632568,1.2599999904632568,1.2599999904632568,1.2599999904632568,0
2019-06-14,1.25,1.25,1.25,1.25,0
2019-06-17,1.190000057220459,1.1799999475479126,1.190000057220459,1.1799999475479126,60000
2019-06-18,1.1799999475479126,1.1799999475479126,1.1799999475479126,1.1799999475479126,0
2019-06-19,1.1799999475479126,1.1799999475479126,1.1799999475479126,1.1799999475479126,0
2019-06-20,1.1799999475479126,1.1799999475479126,1.1799999475479126,1.1799999475479126,0
2019-06-21,1.2300000190734863,1.2300000190734863,1.2300000190734863,1.2300000190734863,5000
2019-06-24,1.2300000190734863,1.2300000190734863,1.2300000190734863,1.2300000190734863,0
2019-06-25,1.2200000286102295,1.2200000286102295,1.2200000286102295,1.2200000286102295,0
2019-06-26,1.2200000286102295,1.2200000286102295,1.2200000286102295,1.2200000286102295,0
2019-06-27,1.2200000286102295,1.2200000286102295,1.2200000286102295,1.2200000286102295,0
2019-06-28,1.2200000286102295,1.2200000286102295,1.2200000286102295,1.2200000286102295,0
2019-07-02,1.2200000286102295,1.2200000286102295,1.2200000286102295,1.2200000286102295,0
2019-07-03,1.2200000286102295,1.2200000286102295,1.2200000286102295,1.2200000286102295,0
2019-07-04,1.2200000286102295,1.2200000286102295,1.2200000286102295,1.2200000286102295,0
2019-07-05,1.2200000286102295,1.2200000286102295,1.2200000286102295,1.2200000286102295,0
2019-07-08,1.2200000286102295,1.2200000286102295,1.2200000286102295,1.2200000286102295,0
2019-07-09,1.1799999475479126,1.0800000429153442,1.0800000429153442,1.1799999475479126,40000
2019-07-10,1.1799999475479126,1.1100000143051147,1.1799999475479126,1.1200000047683716,4195000
2019-07-11,1.190000057220459,1.190000057220459,1.190000057220459,1.190000057220459,0
2019-07-12,1.190000057220459,1.1299999952316284,1.1599999666213991,1.190000057220459,255000
2019-07-15,1.190000057220459,1.190000057220459,1.190000057220459,1.190000057220459,0
2019-07-16,1.1699999570846558,1.1299999952316284,1.1299999952316284,1.1699999570846558,35000
2019-07-17,1.1699999570846558,1.1699999570846558,1.1699999570846558,1.1699999570846558,0
2019-07-18,1.1699999570846558,1.1699999570846558,1.1699999570846558,1.1699999570846558,0
2019-07-19,1.1699999570846558,1.1699999570846558,1.1699999570846558,1.1699999570846558,0
2019-07-22,1.1699999570846558,1.1699999570846558,1.1699999570846558,1.1699999570846558,0
2019-07-23,1.1699999570846558,1.1699999570846558,1.1699999570846558,1.1699999570846558,0
2019-07-24,1.1699999570846558,1.1699999570846558,1.1699999570846558,1.1699999570846558,0
2019-07-25,1.1699999570846558,1.1699999570846558,1.1699999570846558,1.1699999570846558,0
2019-07-26,1.1699999570846558,1.1699999570846558,1.1699999570846558,1.1699999570846558,0
2019-07-29,1.1699999570846558,1.1699999570846558,1.1699999570846558,1.1699999570846558,0
2019-07-30,1.1699999570846558,1.1699999570846558,1.1699999570846558,1.1699999570846558,0
2019-07-31,1.1699999570846558,1.1699999570846558,1.1699999570846558,1.1699999570846558,0
2019-08-01,1.1699999570846558,1.1699999570846558,1.1699999570846558,1.1699999570846558,0
2019-08-02,1.0599999427795408,1.0599999427795408,1.0599999427795408,1.0599999427795408,15000
2019-08-05,1.0599999427795408,1.0599999427795408,1.0599999427795408,1.0599999427795408,0
2019-08-06,1.0599999427795408,1.0599999427795408,1.0599999427795408,1.0599999427795408,0
2019-08-07,1.0599999427795408,1.0599999427795408,1.0599999427795408,1.0599999427795408,0
2019-08-08,1.0599999427795408,1.0599999427795408,1.0599999427795408,1.0599999427795408,0
2019-08-09,1.0599999427795408,1.0599999427795408,1.0599999427795408,1.0599999427795408,0
2019-08-12,1.0599999427795408,1.0599999427795408,1.0599999427795408,1.0599999427795408,0
2019-08-13,1.0499999523162842,1.0499999523162842,1.0499999523162842,1.0499999523162842,0
2019-08-14,1.0499999523162842,1.0499999523162842,1.0499999523162842,1.0499999523162842,0
2019-08-15,1.0499999523162842,1.0499999523162842,1.0499999523162842,1.0499999523162842,0
2019-08-16,1.1799999475479126,1.0800000429153442,1.0800000429153442,1.0900000333786009,375000
2019-08-19,1.1799999475479126,1.1799999475479126,1.1799999475479126,1.1599999666213991,5000
2019-08-20,1.1599999666213991,1.1599999666213991,1.1599999666213991,1.1599999666213991,0
2019-08-21,1.1599999666213991,1.1599999666213991,1.1599999666213991,1.1599999666213991,0
2019-08-22,1.1599999666213991,1.1599999666213991,1.1599999666213991,1.1599999666213991,0
2019-08-23,1.1599999666213991,1.1200000047683716,1.1599999666213991,1.149999976158142,785000
2019-08-26,1.1799999475479126,1.1200000047683716,1.149999976158142,1.1799999475479126,920000
2019-08-27,1.2000000476837158,1.2000000476837158,1.2000000476837158,1.2000000476837158,0
2019-08-28,1.2599999904632568,1.1799999475479126,1.1799999475479126,1.190000057220459,4145000
2019-08-29,1.190000057220459,1.1799999475479126,1.1799999475479126,1.190000057220459,2210000
2019-08-30,1.1799999475479126,1.1799999475479126,1.1799999475479126,1.1799999475479126,0
2019-09-02,1.1799999475479126,1.100000023841858,1.100000023841858,1.1699999570846558,20000
2019-09-03,1.1699999570846558,1.1699999570846558,1.1699999570846558,1.1699999570846558,0
2019-09-04,1.1699999570846558,1.1699999570846558,1.1699999570846558,1.1699999570846558,0
2019-09-05,1.1799999475479126,1.1799999475479126,1.1799999475479126,1.1799999475479126,100000
2019-09-06,1.1799999475479126,1.1799999475479126,1.1799999475479126,1.1799999475479126,160000
2019-09-09,1.1799999475479126,1.1799999475479126,1.1799999475479126,1.1799999475479126,50000
2019-09-10,1.1799999475479126,1.1799999475479126,1.1799999475479126,1.1799999475479126,0
2019-09-11,1.1799999475479126,1.1799999475479126,1.1799999475479126,1.1799999475479126,0
2019-09-12,1.1699999570846558,1.1699999570846558,1.1699999570846558,1.1699999570846558,0
2019-09-13,1.1699999570846558,1.1699999570846558,1.1699999570846558,1.1699999570846558,600000
2019-09-16,1.1699999570846558,1.1699999570846558,1.1699999570846558,1.1699999570846558,0
2019-09-17,1.1699999570846558,1.1699999570846558,1.1699999570846558,1.1699999570846558,0
2019-09-18,1.1699999570846558,1.1699999570846558,1.1699999570846558,1.1699999570846558,0
2019-09-19,1.1799999475479126,1.1799999475479126,1.1799999475479126,1.1799999475479126,0
2019-09-20,1.2100000381469729,1.2100000381469729,1.2100000381469729,1.2100000381469729,0
2019-09-23,1.2300000190734863,1.2100000381469729,1.2100000381469729,1.2300000190734863,820000
2019-09-24,1.2300000190734863,1.2200000286102295,1.2200000286102295,1.2200000286102295,765000
2019-09-25,1.2300000190734863,1.2200000286102295,1.2300000190734863,1.2200000286102295,140000
2019-09-26,1.2200000286102295,1.2200000286102295,1.2200000286102295,1.2200000286102295,0
2019-09-27,1.2000000476837158,1.2000000476837158,1.2000000476837158,1.2000000476837158,0
2019-09-30,1.1399999856948853,1.1399999856948853,1.1399999856948853,1.1399999856948853,0
2019-10-02,1.1399999856948853,1.1399999856948853,1.1399999856948853,1.1399999856948853,0
2019-10-03,1.1399999856948853,1.1399999856948853,1.1399999856948853,1.1399999856948853,0
2019-10-04,1.2000000476837158,1.149999976158142,1.190000057220459,1.149999976158142,1285000
2019-10-08,1.149999976158142,1.149999976158142,1.149999976158142,1.149999976158142,320000
2019-10-09,1.1399999856948853,1.1399999856948853,1.1399999856948853,1.1399999856948853,0
2019-10-10,1.1399999856948853,1.1399999856948853,1.1399999856948853,1.1399999856948853,310000
2019-10-11,1.1399999856948853,1.1299999952316284,1.1299999952316284,1.1399999856948853,1005000
2019-10-14,1.149999976158142,1.1299999952316284,1.1299999952316284,1.1399999856948853,1060000
2019-10-15,1.1399999856948853,1.1399999856948853,1.1399999856948853,1.1399999856948853,0
2019-10-16,1.1299999952316284,1.1299999952316284,1.1299999952316284,1.1299999952316284,0
2019-10-17,1.1299999952316284,1.1299999952316284,1.1299999952316284,1.1299999952316284,0
2019-10-18,1.1299999952316284,1.1299999952316284,1.1299999952316284,1.1299999952316284,0
2019-10-21,1.1299999952316284,1.1299999952316284,1.1299999952316284,1.1299999952316284,0
2019-10-22,1.0700000524520874,1.0599999427795408,1.0700000524520874,1.0599999427795408,55000
2019-10-23,1.2000000476837158,1.190000057220459,1.2000000476837158,1.190000057220459,1860000
2019-10-24,1.190000057220459,1.190000057220459,1.190000057220459,1.190000057220459,0
2019-10-25,1.190000057220459,1.190000057220459,1.190000057220459,1.190000057220459,0
2019-10-28,1.190000057220459,1.190000057220459,1.190000057220459,1.190000057220459,0
2019-10-29,1.190000057220459,1.190000057220459,1.190000057220459,1.190000057220459,0
2019-10-30,1.190000057220459,1.190000057220459,1.190000057220459,1.190000057220459,0
2019-10-31,1.190000057220459,1.190000057220459,1.190000057220459,1.190000057220459,0
2019-11-01,1.1599999666213991,1.1599999666213991,1.1599999666213991,1.1599999666213991,0
2019-11-04,1.1599999666213991,1.1599999666213991,1.1599999666213991,1.1599999666213991,0
2019-11-05,1.1599999666213991,1.1599999666213991,1.1599999666213991,1.1599999666213991,0
2019-11-06,1.1599999666213991,1.1599999666213991,1.1599999666213991,1.1599999666213991,0
2019-11-07,1.1599999666213991,1.1599999666213991,1.1599999666213991,1.1599999666213991,0
2019-11-08,1.1599999666213991,1.1599999666213991,1.1599999666213991,1.1599999666213991,0
2019-11-11,1.1599999666213991,1.1599999666213991,1.1599999666213991,1.1599999666213991,0
2019-11-12,1.1599999666213991,1.1599999666213991,1.1599999666213991,1.1599999666213991,0
2019-11-13,1.1599999666213991,1.1599999666213991,1.1599999666213991,1.1599999666213991,0
2019-11-14,1.1599999666213991,1.1599999666213991,1.1599999666213991,1.1599999666213991,0
2019-11-15,1.1599999666213991,1.1599999666213991,1.1599999666213991,1.1599999666213991,0
2019-11-18,1.1599999666213991,1.1599999666213991,1.1599999666213991,1.1599999666213991,0
2019-11-19,1.1599999666213991,1.1599999666213991,1.1599999666213991,1.1599999666213991,0
2019-11-20,1.1599999666213991,1.1599999666213991,1.1599999666213991,1.1599999666213991,0
2019-11-21,1.1599999666213991,1.1599999666213991,1.1599999666213991,1.1599999666213991,0
2019-11-22,1.1599999666213991,1.1599999666213991,1.1599999666213991,1.1599999666213991,0
2019-11-25,1.1599999666213991,1.1599999666213991,1.1599999666213991,1.1599999666213991,0
2019-11-26,1.1599999666213991,1.1599999666213991,1.1599999666213991,1.1599999666213991,0
2019-11-27,1.1599999666213991,1.1599999666213991,1.1599999666213991,1.1599999666213991,0
2019-11-28,1.1599999666213991,1.1599999666213991,1.1599999666213991,1.1599999666213991,0
2019-11-29,1.100000023841858,1.100000023841858,1.100000023841858,1.100000023841858,0
2019-12-02,1.100000023841858,1.100000023841858,1.100000023841858,1.100000023841858,0
2019-12-03,1.100000023841858,1.100000023841858,1.100000023841858,1.100000023841858,0
2019-12-04,1.100000023841858,1.100000023841858,1.100000023841858,1.100000023841858,0
2019-12-05,1.100000023841858,1.100000023841858,1.100000023841858,1.100000023841858,10000
2019-12-06,1.100000023841858,1.100000023841858,1.100000023841858,1.100000023841858,0
2019-12-09,1.100000023841858,1.100000023841858,1.100000023841858,1.100000023841858,0
2019-12-10,1.100000023841858,1.100000023841858,1.100000023841858,1.100000023841858,0
2019-12-11,1.100000023841858,1.100000023841858,1.100000023841858,1.100000023841858,0
2019-12-12,1.0800000429153442,1.0,1.0,1.0800000429153442,40000
2019-12-13,1.0800000429153442,1.0800000429153442,1.0800000429153442,1.0800000429153442,0
2019-12-16,1.0800000429153442,1.0800000429153442,1.0800000429153442,1.0800000429153442,0
2019-12-17,1.0099999904632568,1.0,1.0099999904632568,1.0,45000
2019-12-18,1.0499999523162842,1.0499999523162842,1.0499999523162842,1.0499999523162842,0
2019-12-19,1.0499999523162842,1.0499999523162842,1.0499999523162842,1.0499999523162842,0
2019-12-20,1.0499999523162842,1.0499999523162842,1.0499999523162842,1.0499999523162842,0
2019-12-23,1.0499999523162842,1.0499999523162842,1.0499999523162842,1.0499999523162842,0
2019-12-24,1.0499999523162842,1.0499999523162842,1.0499999523162842,1.0499999523162842,0
2019-12-27,1.0499999523162842,1.0499999523162842,1.0499999523162842,1.0499999523162842,0
2019-12-30,1.0499999523162842,1.0499999523162842,1.0499999523162842,1.0499999523162842,0
2019-12-31,0.9900000095367432,0.9900000095367432,0.9900000095367432,0.9900000095367432,5000
2020-01-02,1.0,0.75,0.75,1.0,10000
2020-01-03,1.0,1.0,1.0,1.0,0
2020-01-06,1.0,1.0,1.0,1.0,0
2020-01-07,0.9800000190734864,0.9800000190734864,0.9800000190734864,0.9800000190734864,10000
2020-01-08,0.9800000190734864,0.9800000190734864,0.9800000190734864,0.9800000190734864,0
2020-01-09,0.9800000190734864,0.9800000190734864,0.9800000190734864,0.9800000190734864,0
2020-01-10,0.9800000190734864,0.9800000190734864,0.9800000190734864,0.9800000190734864,0
2020-01-13,0.9800000190734864,0.9800000190734864,0.9800000190734864,0.9800000190734864,5000
2020-01-14,0.9800000190734864,0.9800000190734864,0.9800000190734864,0.9800000190734864,0
2020-01-15,0.9800000190734864,0.9800000190734864,0.9800000190734864,0.9800000190734864,0
2020-01-16,0.9800000190734864,0.9800000190734864,0.9800000190734864,0.9800000190734864,0
2020-01-17,0.9499999880790709,0.8299999833106995,0.8399999737739563,0.9499999880790709,55000
2020-01-20,0.9499999880790709,0.8700000047683716,0.9499999880790709,0.9100000262260436,55000
2020-01-21,0.9100000262260436,0.9100000262260436,0.9100000262260436,0.9100000262260436,15000
2020-01-22,0.9100000262260436,0.9100000262260436,0.9100000262260436,0.9100000262260436,0
2020-01-23,0.9100000262260436,0.8899999856948853,0.8999999761581421,0.9100000262260436,110000
2020-01-24,0.9100000262260436,0.9100000262260436,0.9100000262260436,0.9100000262260436,0
2020-01-29,1.100000023841858,0.8999999761581421,0.8999999761581421,1.100000023841858,160000
2020-01-30,1.0800000429153442,0.9200000166893004,0.9200000166893004,0.9800000190734864,365000
2020-01-31,0.9800000190734864,0.959999978542328,0.9800000190734864,0.959999978542328,40000
2020-02-03,0.959999978542328,0.959999978542328,0.959999978542328,0.959999978542328,0
2020-02-04,0.959999978542328,0.959999978542328,0.959999978542328,0.959999978542328,0
2020-02-05,0.959999978542328,0.959999978542328,0.959999978542328,0.959999978542328,0
2020-02-06,0.8999999761581421,0.8899999856948853,0.8899999856948853,0.8899999856948853,75000
2020-02-07,0.8899999856948853,0.8899999856948853,0.8899999856948853,0.8899999856948853,0
2020-02-10,0.8899999856948853,0.8899999856948853,0.8899999856948853,0.8899999856948853,0
2020-02-11,0.8899999856948853,0.8899999856948853,0.8899999856948853,0.8899999856948853,0
2020-02-12,0.8899999856948853,0.8899999856948853,0.8899999856948853,0.8899999856948853,0
2020-02-13,0.8899999856948853,0.8899999856948853,0.8899999856948853,0.8899999856948853,0
2020-02-14,0.8899999856948853,0.8899999856948853,0.8899999856948853,0.8899999856948853,0
2020-02-17,0.8899999856948853,0.8899999856948853,0.8899999856948853,0.8899999856948853,0
2020-02-18,0.8899999856948853,0.8899999856948853,0.8899999856948853,0.8899999856948853,0
2020-02-19,0.8899999856948853,0.8899999856948853,0.8899999856948853,0.8899999856948853,0
2020-02-20,0.8899999856948853,0.8899999856948853,0.8899999856948853,0.8899999856948853,0
2020-02-21,0.8899999856948853,0.8899999856948853,0.8899999856948853,0.8899999856948853,0
2020-02-24,0.7300000190734863,0.699999988079071,0.7300000190734863,0.7200000286102295,15000
2020-02-25,0.7200000286102295,0.7200000286102295,0.7200000286102295,0.7200000286102295,0
2020-02-26,0.8600000143051147,0.8000000119209291,0.8000000119209291,0.8399999737739563,15000
2020-02-27,0.8500000238418579,0.7200000286102295,0.7200000286102295,0.8500000238418579,15000
2020-02-28,0.8500000238418579,0.8500000238418579,0.8500000238418579,0.8500000238418579,0
2020-03-02,0.9800000190734864,0.7099999785423279,0.7300000190734863,0.9499999880790709,140000
2020-03-03,0.9499999880790709,0.9499999880790709,0.9499999880790709,0.9499999880790709,0
2020-03-04,0.9499999880790709,0.9499999880790709,0.9499999880790709,0.9499999880790709,0
2020-03-05,0.8299999833106995,0.8299999833106995,0.8299999833106995,0.8299999833106995,0
2020-03-06,0.8299999833106995,0.8299999833106995,0.8299999833106995,0.8299999833106995,0
2020-03-09,0.8299999833106995,0.8299999833106995,0.8299999833106995,0.8299999833106995,0
2020-03-10,0.8299999833106995,0.8299999833106995,0.8299999833106995,0.8299999833106995,0
2020-03-11,0.8299999833106995,0.8299999833106995,0.8299999833106995,0.8299999833106995,0
2020-03-12,0.8500000238418579,0.8500000238418579,0.8500000238418579,0.8500000238418579,25000
2020-03-13,0.8500000238418579,0.8500000238418579,0.8500000238418579,0.8500000238418579,0
2020-03-16,0.8000000119209291,0.699999988079071,0.699999988079071,0.75,20000
2020-03-17,0.8199999928474426,0.8199999928474426,0.8199999928474426,0.8199999928474426,5000
2020-03-18,0.8199999928474426,0.8199999928474426,0.8199999928474426,0.8199999928474426,5000
2020-03-19,0.8199999928474426,0.8199999928474426,0.8199999928474426,0.8199999928474426,0
2020-03-20,0.9499999880790709,0.9499999880790709,0.9499999880790709,0.9100000262260436,5000
2020-03-23,0.9100000262260436,0.9100000262260436,0.9100000262260436,0.9100000262260436,0
2020-03-24,0.9100000262260436,0.9100000262260436,0.9100000262260436,0.8999999761581421,5000
2020-03-25,0.8999999761581421,0.8999999761581421,0.8999999761581421,0.8999999761581421,0
2020-03-26,0.8999999761581421,0.8999999761581421,0.8999999761581421,0.8999999761581421,0
2020-03-27,0.8999999761581421,0.8999999761581421,0.8999999761581421,0.8999999761581421,0
2020-03-30,0.8999999761581421,0.8999999761581421,0.8999999761581421,0.8999999761581421,0
2020-03-31,0.8899999856948853,0.7400000095367432,0.7400000095367432,0.8899999856948853,45000
2020-04-01,0.8899999856948853,0.8899999856948853,0.8899999856948853,0.8899999856948853,5000
2020-04-02,0.8799999952316284,0.8799999952316284,0.8799999952316284,0.8799999952316284,5000
2020-04-03,0.8899999856948853,0.7900000214576721,0.8899999856948853,0.8799999952316284,10000
2020-04-06,0.8500000238418579,0.7699999809265137,0.8000000119209291,0.7699999809265137,25000
2020-04-07,0.8899999856948853,0.8700000047683716,0.8899999856948853,0.8700000047683716,15000
2020-04-08,0.8700000047683716,0.8700000047683716,0.8700000047683716,0.8700000047683716,5000
2020-04-09,0.8600000143051147,0.8600000143051147,0.8600000143051147,0.8600000143051147,0
2020-04-14,0.8600000143051147,0.7599999904632568,0.7599999904632568,0.8600000143051147,40000
2020-04-15,0.8700000047683716,0.8700000047683716,0.8700000047683716,0.8700000047683716,0
2020-04-16,0.8700000047683716,0.8700000047683716,0.8700000047683716,0.8700000047683716,0
2020-04-17,0.9100000262260436,0.9100000262260436,0.9100000262260436,0.9100000262260436,60000
2020-04-20,0.9300000071525574,0.9100000262260436,0.9200000166893004,0.9100000262260436,40000
2020-04-21,0.9100000262260436,0.9100000262260436,0.9100000262260436,0.9100000262260436,95000
2020-04-22,0.8700000047683716,0.8199999928474426,0.8199999928474426,0.8700000047683716,25000
2020-04-23,0.8500000238418579,0.8500000238418579,0.8500000238418579,0.8500000238418579,250000
2020-04-24,0.8500000238418579,0.8500000238418579,0.8500000238418579,0.8500000238418579,30000
2020-04-27,0.8500000238418579,0.8500000238418579,0.8500000238418579,0.8500000238418579,0
2020-04-28,0.8999999761581421,0.8999999761581421,0.8999999761581421,0.8999999761581421,25000
2020-04-29,0.8999999761581421,0.8999999761581421,0.8999999761581421,0.8999999761581421,25000
2020-05-04,0.8999999761581421,0.8999999761581421,0.8999999761581421,0.8999999761581421,0
2020-05-05,0.8999999761581421,0.8999999761581421,0.8999999761581421,0.8999999761581421,0
2020-05-06,0.8999999761581421,0.8999999761581421,0.8999999761581421,0.8999999761581421,0
2020-05-07,0.8999999761581421,0.8999999761581421,0.8999999761581421,0.8999999761581421,0
2020-05-08,0.8999999761581421,0.8999999761581421,0.8999999761581421,0.8999999761581421,0
2020-05-11,0.8999999761581421,0.8999999761581421,0.8999999761581421,0.8999999761581421,0
2020-05-12,0.8999999761581421,0.8999999761581421,0.8999999761581421,0.8999999761581421,0
2020-05-13,0.8999999761581421,0.8999999761581421,0.8999999761581421,0.8999999761581421,0
2020-05-14,0.8999999761581421,0.8999999761581421,0.8999999761581421,0.8999999761581421,0
2020-05-15,0.8999999761581421,0.8999999761581421,0.8999999761581421,0.8999999761581421,0
2020-05-18,0.8999999761581421,0.8999999761581421,0.8999999761581421,0.8999999761581421,0
2020-05-19,0.8999999761581421,0.8999999761581421,0.8999999761581421,0.8999999761581421,0
2020-05-20,0.8999999761581421,0.8999999761581421,0.8999999761581421,0.8999999761581421,0
2020-05-21,0.8999999761581421,0.8999999761581421,0.8999999761581421,0.8999999761581421,0
2020-05-22,0.8999999761581421,0.8999999761581421,0.8999999761581421,0.8999999761581421,0
2020-05-25,0.8999999761581421,0.8999999761581421,0.8999999761581421,0.8999999761581421,0
2020-05-26,0.8999999761581421,0.8999999761581421,0.8999999761581421,0.8999999761581421,0
2020-05-27,0.8999999761581421,0.8999999761581421,0.8999999761581421,0.8999999761581421,0
2020-05-28,0.8999999761581421,0.8999999761581421,0.8999999761581421,0.8999999761581421,0
2020-05-29,0.8999999761581421,0.8999999761581421,0.8999999761581421,0.8999999761581421,0
2020-06-01,0.8999999761581421,0.8999999761581421,0.8999999761581421,0.8999999761581421,0
2020-06-02,0.8999999761581421,0.8999999761581421,0.8999999761581421,0.8999999761581421,1530000
2020-06-03,0.9100000262260436,0.8999999761581421,0.8999999761581421,0.9100000262260436,1025000
2020-06-04,0.8999999761581421,0.8999999761581421,0.8999999761581421,0.8999999761581421,0
2020-06-05,0.8999999761581421,0.8999999761581421,0.8999999761581421,0.8999999761581421,1005000
2020-06-08,0.8999999761581421,0.8999999761581421,0.8999999761581421,0.8999999761581421,0
2020-06-09,0.8999999761581421,0.8999999761581421,0.8999999761581421,0.8999999761581421,0
2020-06-10,0.8999999761581421,0.8999999761581421,0.8999999761581421,0.8999999761581421,0
2020-06-11,0.8999999761581421,0.8999999761581421,0.8999999761581421,0.8999999761581421,0
2020-06-12,0.8999999761581421,0.8999999761581421,0.8999999761581421,0.8999999761581421,0
2020-06-15,0.8899999856948853,0.8899999856948853,0.8899999856948853,0.8899999856948853,0
2020-06-16,0.8000000119209291,0.6899999976158142,0.7599999904632568,0.8000000119209291,1090000
2020-06-17,0.8299999833106995,0.8299999833106995,0.8299999833106995,0.8299999833106995,85000
2020-06-18,0.8299999833106995,0.8299999833106995,0.8299999833106995,0.8299999833106995,0
2020-06-19,0.8299999833106995,0.8299999833106995,0.8299999833106995,0.8299999833106995,0
2020-06-22,0.8299999833106995,0.8299999833106995,0.8299999833106995,0.8299999833106995,0
2020-06-23,0.8299999833106995,0.8299999833106995,0.8299999833106995,0.8299999833106995,0
2020-06-24,0.8299999833106995,0.8299999833106995,0.8299999833106995,0.8299999833106995,0
2020-06-26,0.8299999833106995,0.8299999833106995,0.8299999833106995,0.8299999833106995,0
2020-06-29,0.8299999833106995,0.8299999833106995,0.8299999833106995,0.8299999833106995,0
2020-06-30,0.8299999833106995,0.8299999833106995,0.8299999833106995,0.8299999833106995,0
2020-07-02,0.8299999833106995,0.8299999833106995,0.8299999833106995,0.8299999833106995,0
2020-07-03,0.8000000119209291,0.8000000119209291,0.8000000119209291,0.8000000119209291,0
2020-07-06,0.7699999809265137,0.7200000286102295,0.7300000190734863,0.7699999809265137,60000
2020-07-07,0.7799999713897705,0.7799999713897705,0.7799999713897705,0.7799999713897705,0
2020-07-08,0.8600000143051147,0.8600000143051147,0.8600000143051147,0.8600000143051147,100000
2020-07-09,0.8600000143051147,0.8600000143051147,0.8600000143051147,0.8600000143051147,0
2020-07-10,0.8600000143051147,0.8600000143051147,0.8600000143051147,0.8600000143051147,0
2020-07-13,0.8600000143051147,0.8600000143051147,0.8600000143051147,0.8600000143051147,0
2020-07-14,0.8600000143051147,0.8600000143051147,0.8600000143051147,0.8600000143051147,0
2020-07-15,0.7599999904632568,0.75,0.75,0.7599999904632568,25000
2020-07-16,0.7599999904632568,0.7599999904632568,0.7599999904632568,0.7599999904632568,0
2020-07-17,0.7599999904632568,0.7599999904632568,0.7599999904632568,0.7599999904632568,0
2020-07-20,0.7599999904632568,0.7599999904632568,0.7599999904632568,0.7599999904632568,0
2020-07-21,0.8199999928474426,0.8199999928474426,0.8199999928474426,0.8199999928474426,5000
2020-07-22,0.8199999928474426,0.8199999928474426,0.8199999928474426,0.8199999928474426,0
2020-07-23,0.8199999928474426,0.8199999928474426,0.8199999928474426,0.8199999928474426,0
2020-07-24,0.8199999928474426,0.8199999928474426,0.8199999928474426,0.8199999928474426,0
2020-07-27,0.8199999928474426,0.8199999928474426,0.8199999928474426,0.8199999928474426,0
2020-07-28,0.8199999928474426,0.8199999928474426,0.8199999928474426,0.8199999928474426,0
2020-07-29,0.8199999928474426,0.8199999928474426,0.8199999928474426,0.8199999928474426,0
2020-07-30,0.8199999928474426,0.8199999928474426,0.8199999928474426,0.8199999928474426,0
2020-07-31,0.8199999928474426,0.8199999928474426,0.8199999928474426,0.8199999928474426,0
2020-08-03,0.8199999928474426,0.8199999928474426,0.8199999928474426,0.8199999928474426,0
2020-08-04,0.8199999928474426,0.8199999928474426,0.8199999928474426,0.8199999928474426,0
2020-08-05,0.8199999928474426,0.8199999928474426,0.8199999928474426,0.8199999928474426,0
2020-08-06,0.8199999928474426,0.8199999928474426,0.8199999928474426,0.8199999928474426,0
2020-08-07,0.8199999928474426,0.8199999928474426,0.8199999928474426,0.8199999928474426,0
2020-08-10,0.7799999713897705,0.7300000190734863,0.7300000190734863,0.7799999713897705,10000
2020-08-11,0.7799999713897705,0.7799999713897705,0.7799999713897705,0.7799999713897705,0
2020-08-12,0.7799999713897705,0.7799999713897705,0.7799999713897705,0.7799999713897705,0
2020-08-13,0.7799999713897705,0.7799999713897705,0.7799999713897705,0.7799999713897705,0
2020-08-14,0.7799999713897705,0.7799999713897705,0.7799999713897705,0.7799999713897705,0
2020-08-17,0.7799999713897705,0.7799999713897705,0.7799999713897705,0.7799999713897705,0
2020-08-18,0.7799999713897705,0.7799999713897705,0.7799999713897705,0.7799999713897705,0
2020-08-19,0.7799999713897705,0.7799999713897705,0.7799999713897705,0.7799999713897705,0
2020-08-20,0.7799999713897705,0.7799999713897705,0.7799999713897705,0.7799999713897705,0
2020-08-21,0.7400000095367432,0.7400000095367432,0.7400000095367432,0.7400000095367432,5000
2020-08-24,0.7400000095367432,0.7400000095367432,0.7400000095367432,0.7400000095367432,0
