Date,Open,High,Low,Close,Volume
2012-02-08,8.16,8.38,8.16,8.37,6796500
2012-02-09,8.45,9.07,8.19,8.98,23625270
2012-02-10,8.96,9.38,8.72,8.84,14158000
2012-02-13,8.84,8.95,8.64,8.9,4940290
2012-02-14,8.91,8.91,8.66,8.7,7756040
2012-02-15,8.7,9.2,8.7,9.2,14111000
2012-02-16,9.18,9.61,9.12,9.5,12765395
2012-02-17,9.6,9.92,9.5,9.74,11625000
2012-02-20,9.71,9.84,9.49,9.6,25069000
2012-02-21,9.52,9.59,9.17,9.3,8539500
2012-02-22,9.31,9.55,9.23,9.37,7089700
2012-02-23,9.35,9.35,9.13,9.23,6027847
2012-02-24,9.27,9.35,8.85,9.09,7163500
2012-02-27,9.15,9.2,8.88,8.99,4182410
2012-02-28,8.99,9.09,8.77,9.06,8501861
2012-02-29,9.1,9.62,9.06,9.54,8720571
2012-03-01,9.47,9.47,8.95,9.11,4581125
2012-03-02,9.26,9.26,8.85,9.04,11911520
2012-03-05,9.16,9.16,8.65,8.77,3766000
2012-03-06,8.8,8.8,8.05,8.24,20301500
2012-03-07,8.02,8.77,8.02,8.58,16224415
2012-03-08,8.5,8.89,8.48,8.72,9380000
2012-03-09,8.85,9.2,8.74,8.78,7412876
2012-03-12,8.68,8.68,8.35,8.53,8005022
2012-03-13,8.6,8.75,8.48,8.49,6069936
2012-03-14,8.69,8.75,8.47,8.55,4053678
2012-03-15,8.7,8.72,8.27,8.31,7460500
2012-03-16,8.39,8.39,8.0,8.18,15491000
2012-03-19,8.27,8.4,8.14,8.17,5209696
2012-03-20,8.17,8.17,7.8,7.91,8405752
2012-03-21,7.87,7.9,7.25,7.47,19115600
2012-03-22,7.5,7.74,7.35,7.53,3912500
2012-03-23,7.39,7.52,7.3,7.39,7119500
2012-03-26,7.27,7.42,7.25,7.34,6203475
2012-03-27,7.4,7.63,6.77,7.54,33378000
2012-03-28,7.59,7.76,7.45,7.58,12067050
2012-03-29,7.5,7.53,7.18,7.3,9507500
2012-03-30,7.26,7.8,7.21,7.78,7124000
2012-04-02,7.78,7.78,7.4,7.71,15565500
2012-04-03,7.77,8.18,7.56,8.02,14580000
2012-04-05,8.0,8.43,7.9,8.37,9215087
2012-04-10,8.4,8.4,8.04,8.09,4752590
2012-04-11,8.06,8.29,7.88,8.29,7752762
2012-04-12,8.18,8.7,8.16,8.44,8402542
2012-04-13,8.8,8.8,8.3,8.6,10734940
2012-04-16,8.56,8.61,8.4,8.58,5468683
2012-04-17,8.58,8.61,8.16,8.24,2108986
2012-04-18,8.35,8.39,8.19,8.29,3589926
2012-04-19,8.28,8.44,8.13,8.2,2068385
2012-04-20,8.2,8.26,7.95,7.99,5708697
2012-04-23,8.0,8.2,7.91,7.98,2837500
2012-04-24,7.96,8.06,7.88,7.98,2017000
2012-04-25,8.03,8.15,7.94,8.01,1546500
2012-04-26,8.1,8.1,7.79,7.91,3152215
2012-04-27,8.08,8.08,7.46,7.65,9109350
2012-04-30,7.7,7.75,7.57,7.66,3427000
2012-05-02,7.64,7.7,7.52,7.56,5792534
2012-05-03,7.9,7.9,7.4,7.5,6114000
2012-05-04,7.5,7.5,7.42,7.47,1562040
2012-05-07,7.3,7.5,7.3,7.41,2281448
2012-05-08,7.62,7.62,7.02,7.06,8110725
2012-05-09,7.23,7.27,6.72,7.22,13191526
2012-05-10,7.3,7.3,6.92,6.98,5460500
2012-05-11,7.05,7.12,6.67,6.76,3146364
2012-05-14,6.89,6.89,6.35,6.39,7074000
2012-05-15,6.3,6.45,6.15,6.3,8499500
2012-05-16,6.26,6.26,5.92,6.0,7639434
2012-05-17,6.2,6.2,6.06,6.16,21144916
2012-05-18,6.15,6.15,5.4,5.41,24013500
2012-05-21,5.5,5.53,4.98,5.01,21808224
2012-05-22,5.09,5.26,4.9,5.24,43142000
2012-05-23,5.17,5.17,4.73,4.93,29850960
2012-05-24,4.93,5.13,4.81,4.9,14790000
2012-05-25,5.06,5.06,4.64,4.69,9607500
2012-05-28,4.76,5.11,4.69,5.05,20695982
2012-05-29,5.07,5.52,5.07,5.41,32920792
2012-05-30,5.44,5.5,5.05,5.1,15516842
2012-05-31,5.0,5.05,4.8,4.85,21470896
2012-06-01,4.89,4.97,4.76,4.8,21965706
2012-06-04,4.69,4.69,4.48,4.57,5650500
2012-06-05,4.56,4.8,4.56,4.78,3911178
2012-06-06,4.85,4.89,4.65,4.68,5479000
2012-06-07,4.78,4.86,4.53,4.54,3296000
2012-06-08,4.6,4.64,4.46,4.57,8898500
2012-06-11,4.65,4.79,4.48,4.66,9684992
2012-06-12,4.67,4.8,4.6,4.73,13891492
2012-06-13,4.79,5.18,4.73,5.14,32809168
2012-06-14,5.06,5.17,4.97,5.04,12487950
2012-06-15,5.08,5.2,5.05,5.12,5491500
2012-06-18,5.25,5.25,4.95,4.99,8623067
2012-06-19,5.0,5.07,4.93,5.04,2508500
2012-06-20,5.12,5.12,4.9,4.91,7905960
2012-06-21,4.89,4.98,4.62,4.65,4539032
2012-06-22,4.6,4.6,4.5,4.55,6634500
2012-06-25,4.57,4.6,4.32,4.35,9974847
2012-06-26,4.35,4.35,3.96,4.03,27365018
2012-06-27,4.04,4.07,3.97,4.04,9934650
2012-06-28,4.16,4.16,3.98,4.06,5008860
2012-06-29,4.08,4.18,4.0,4.08,7736140
2012-07-03,4.03,4.19,3.85,4.15,7829000
2012-07-04,4.18,4.5,4.15,4.37,7412567
2012-07-05,4.37,4.38,4.27,4.34,3281405
2012-07-06,4.32,4.46,4.26,4.45,6507955
2012-07-09,4.35,4.46,4.31,4.38,3622500
2012-07-10,4.4,4.5,4.3,4.33,816982
2012-07-11,4.4,4.4,4.04,4.14,9942000
2012-07-12,4.1,4.12,3.96,4.1,11832000
2012-07-13,4.06,4.23,4.0,4.12,10445500
2012-07-16,4.12,4.12,3.99,4.02,5285000
2012-07-17,4.0,4.06,3.98,4.02,7216812
2012-07-18,4.01,4.02,3.97,4.0,4199896
2012-07-19,4.0,4.12,4.0,4.03,6385500
2012-07-20,4.03,4.03,3.87,3.93,9786426
2012-07-23,3.9,3.9,3.68,3.9,7733245
2012-07-24,3.97,3.99,3.88,3.97,3717150
2012-07-25,3.9,3.91,3.68,3.75,9281665
2012-07-26,3.88,3.88,3.73,3.75,1691236
2012-07-27,3.78,3.81,3.68,3.69,3222500
2012-07-30,3.71,3.74,3.61,3.7,5219888
2012-07-31,3.72,3.79,3.63,3.7,2562000
2012-08-01,3.7,3.74,3.67,3.71,5525500
2012-08-02,3.8,3.8,3.7,3.74,10326793
2012-08-03,3.72,3.72,3.62,3.65,4151150
2012-08-06,3.71,3.93,3.7,3.85,13043491
2012-08-07,3.95,4.16,3.83,4.05,13719425
2012-08-08,4.15,4.22,4.06,4.13,13526100
2012-08-09,4.28,4.28,4.07,4.11,5361849
2012-08-10,4.1,4.2,3.94,3.96,8554000
2012-08-13,4.03,4.05,3.82,3.83,2140244
2012-08-14,3.92,3.92,3.62,3.73,8187115
2012-08-15,3.74,3.74,3.64,3.68,4187113
2012-08-16,3.8,3.81,3.7,3.77,10694503
2012-08-17,3.73,3.83,3.72,3.79,4305500
2012-08-20,3.85,3.9,3.74,3.86,7772361
2012-08-21,3.85,4.23,3.85,4.14,16251336
2012-08-22,4.27,4.27,4.05,4.05,11447500
2012-08-23,4.15,4.25,4.06,4.22,8943500
2012-08-24,4.2,4.25,4.12,4.13,6270821
2012-08-27,3.8,4.14,3.78,4.06,16318000
2012-08-28,4.06,4.35,4.05,4.28,17581500
2012-08-29,4.3,4.68,4.3,4.56,24469736
2012-08-30,4.5,4.72,4.49,4.65,14267500
2012-08-31,4.74,4.76,4.6,4.64,9090917
2012-09-03,4.62,4.67,4.45,4.49,5229000
2012-09-04,4.51,4.57,4.47,4.48,578000
2012-09-05,4.35,4.46,4.25,4.28,7641798
2012-09-06,4.23,4.27,4.15,4.22,4168251
2012-09-07,4.29,4.48,4.29,4.44,3145000
2012-09-10,4.45,4.62,4.38,4.59,2935056
2012-09-11,4.59,4.72,4.48,4.55,4955048
2012-09-12,4.57,4.65,4.46,4.64,1963811
2012-09-13,4.7,4.7,4.48,4.54,2436398
2012-09-14,4.62,4.75,4.62,4.72,9704295
2012-09-17,4.9,4.9,4.57,4.65,6947204
2012-09-18,4.64,4.9,4.63,4.75,9289466
2012-09-19,4.8,4.93,4.75,4.88,5368909
2012-09-20,4.88,4.92,4.76,4.8,4596500
2012-09-21,4.9,5.09,4.83,5.04,12006997
2012-09-24,5.04,5.06,4.91,5.0,10702905
2012-09-25,4.97,5.0,4.9,4.93,6293936
2012-09-26,4.83,4.89,4.66,4.86,4649877
2012-09-27,4.86,4.95,4.72,4.9,3460563
2012-09-28,4.85,4.92,4.81,4.89,4411838
2012-10-03,4.86,5.06,4.86,4.99,3317521
2012-10-04,5.06,5.09,4.73,4.73,2796550
2012-10-05,4.83,5.15,4.83,5.02,4087648
2012-10-08,5.06,5.06,4.87,4.95,2030090
2012-10-09,4.95,4.98,4.74,4.8,3038279
2012-10-10,4.8,4.9,4.73,4.84,1859500
2012-10-11,4.86,4.95,4.76,4.81,5543500
2012-10-12,4.86,4.87,4.72,4.85,8590144
2012-10-15,4.92,4.93,4.8,4.81,3599585
2012-10-16,4.81,4.88,4.68,4.71,1426000
2012-10-17,4.73,4.85,4.73,4.79,7685330
2012-10-18,4.79,4.98,4.79,4.94,3810000
2012-10-19,4.94,5.14,4.93,5.01,5632073
2012-10-22,4.92,5.01,4.91,4.96,3059308
2012-10-24,4.84,5.06,4.84,5.05,5899653
2012-10-25,5.0,5.26,5.0,5.25,5431438
2012-10-26,5.44,5.44,5.1,5.16,5884321
2012-10-29,5.11,5.23,5.11,5.18,1495967
2012-10-30,5.16,5.18,5.03,5.09,4902000
2012-10-31,5.1,5.26,5.09,5.25,2866121
2012-11-01,5.29,5.56,5.29,5.53,8572784
2012-11-02,5.8,6.09,5.48,5.6,16026000
2012-11-05,5.51,5.76,5.51,5.75,4227677
2012-11-06,5.58,5.8,5.55,5.69,8876000
2012-11-07,5.69,5.77,5.36,5.37,13416050
2012-11-08,5.32,5.32,5.15,5.27,7001213
2012-11-09,5.19,5.25,5.06,5.06,5461000
2012-11-12,5.01,5.12,4.89,5.05,5779976
2012-11-13,4.97,4.98,4.75,4.83,5501555
2012-11-14,4.85,4.98,4.75,4.97,6316529
2012-11-15,4.85,4.86,4.7,4.82,8907300
2012-11-16,4.9,4.92,4.79,4.83,7728500
2012-11-19,4.85,4.92,4.81,4.82,2418212
2012-11-20,4.85,5.14,4.85,5.07,8893500
2012-11-21,5.1,5.28,5.03,5.08,4286500
2012-11-22,5.11,5.28,5.09,5.21,4722398
2012-11-23,5.3,5.32,5.21,5.27,2955000
2012-11-26,5.22,5.44,5.22,5.4,4158712
2012-11-27,5.6,5.6,5.2,5.25,5275406
2012-11-28,5.16,5.3,5.16,5.24,1044351
2012-11-29,5.28,5.37,5.0,5.22,4083740
2012-11-30,5.25,5.28,4.96,5.05,71139872
2012-12-03,5.1,5.11,4.87,4.97,11728039
2012-12-04,4.96,4.97,4.82,4.83,5130698
2012-12-05,4.83,5.02,4.83,5.0,7682500
2012-12-06,5.11,5.13,5.02,5.04,5042500
2012-12-07,5.07,5.22,5.07,5.13,4429900
2012-12-10,5.21,5.28,5.02,5.03,4156368
2012-12-11,5.03,5.17,5.02,5.1,4225876
2012-12-12,5.2,5.25,5.12,5.23,8535570
2012-12-13,5.24,5.37,5.24,5.33,9325417
2012-12-14,5.34,5.43,5.26,5.32,7009000
2012-12-17,5.32,5.37,5.18,5.2,3514675
2012-12-18,5.24,5.3,5.15,5.16,2543500
2012-12-19,5.25,5.34,5.18,5.31,4025332
2012-12-20,5.39,5.42,5.3,5.4,2848372
2012-12-21,5.45,5.46,5.35,5.43,3662500
2012-12-24,5.4,5.47,5.37,5.41,337000
2012-12-27,5.43,5.56,5.43,5.48,3096191
2012-12-28,5.48,5.55,5.41,5.45,2350905
2012-12-31,5.48,5.48,5.33,5.39,1874000
2013-01-02,5.4,5.55,5.32,5.45,4647510
2013-01-03,5.5,5.94,5.43,5.92,8368600
2013-01-04,5.9,6.31,5.79,6.24,23008862
2013-01-07,6.3,6.76,6.25,6.64,18451296
2013-01-08,6.68,6.7,6.19,6.26,8839669
2013-01-09,6.32,6.43,6.2,6.27,4439717
2013-01-10,6.4,6.67,6.38,6.46,9036002
2013-01-11,6.5,6.57,6.29,6.42,9815778
2013-01-14,6.41,6.6,6.41,6.57,4309500
2013-01-15,6.48,6.64,6.32,6.39,2769000
2013-01-16,6.36,6.36,6.19,6.21,4316000
2013-01-17,6.39,6.39,6.09,6.17,2722000
2013-01-18,6.25,6.38,6.18,6.25,5783500
2013-01-21,6.25,6.8,6.2,6.54,15091328
2013-01-22,6.57,6.96,6.54,6.96,16262500
2013-01-23,7.0,7.48,7.0,7.09,26187800
2013-01-24,7.11,7.16,6.93,7.09,6493030
2013-01-25,7.12,7.24,6.97,7.02,9448000
2013-01-28,7.05,7.2,6.7,7.04,5112010
2013-01-29,7.0,7.0,6.81,6.9,5394000
2013-01-30,6.95,7.1,6.94,6.98,7733590
2013-01-31,6.99,6.99,6.85,6.9,2646500
2013-02-01,6.89,6.89,6.71,6.8,2432629
2013-02-04,6.9,7.14,6.79,7.05,3804101
2013-02-05,6.88,6.96,6.83,6.89,1296400
2013-02-06,6.95,7.05,6.88,7.0,3047505
2013-02-07,7.05,7.09,6.7,6.84,6017000
2013-02-08,6.77,6.93,6.7,6.89,3489000
2013-02-14,6.95,7.3,6.95,7.05,2797500
2013-02-15,7.01,7.13,6.92,7.03,1877000
2013-02-18,7.05,7.34,7.05,7.16,6593000
2013-02-19,7.24,7.24,6.92,6.94,2542500
2013-02-20,6.99,7.2,6.94,7.12,9794000
2013-02-21,7.08,7.12,6.68,6.69,6434400
2013-02-22,6.62,6.7,6.4,6.6,3799961
2013-02-25,6.6,6.6,6.07,6.24,5958045
2013-02-26,6.2,6.43,5.83,5.93,6510500
2013-02-27,6.08,6.2,5.76,5.95,9325500
2013-02-28,6.0,6.3,5.97,6.2,7989325
2013-03-01,6.2,6.25,6.02,6.05,2706411
2013-03-04,6.1,6.14,5.72,5.79,5614000
2013-03-05,5.92,6.12,5.76,6.07,13715000
2013-03-06,6.2,6.52,6.2,6.5,6320542
2013-03-07,6.5,6.58,6.28,6.4,6699444
2013-03-08,6.45,6.56,6.43,6.49,5019300
2013-03-11,6.52,6.52,6.1,6.13,3632730
2013-03-12,6.08,6.24,5.79,5.82,8036875
2013-03-13,5.8,5.82,5.25,5.45,11131300
2013-03-14,5.45,5.7,5.31,5.64,7391500
2013-03-15,5.68,5.79,5.43,5.53,11393950
2013-03-18,5.35,5.37,5.15,5.19,10723004
2013-03-19,5.25,5.38,5.19,5.23,4257517
2013-03-20,5.29,5.41,5.24,5.4,6153928
2013-03-21,5.55,5.6,5.45,5.51,4905000
2013-03-22,5.48,5.55,5.38,5.55,3812854
2013-03-25,5.65,5.71,5.54,5.57,2555000
2013-03-26,5.58,5.59,5.34,5.4,8236900
2013-03-27,5.4,5.46,5.25,5.27,5689500
2013-03-28,5.3,5.33,4.98,5.07,4942500
2013-04-02,4.7,4.73,4.45,4.49,25261000
2013-04-03,4.55,4.79,4.55,4.73,19395380
2013-04-05,4.75,4.86,4.67,4.74,9594620
2013-04-08,4.63,4.75,4.58,4.7,9090344
2013-04-09,4.7,5.09,4.7,5.04,14108000
2013-04-10,5.05,5.2,5.02,5.06,6342740
2013-04-11,5.05,5.21,5.05,5.12,7792601
2013-04-12,5.16,5.2,5.05,5.09,2766000
2013-04-15,5.02,5.09,4.95,5.03,4152500
2013-04-16,4.96,4.96,4.71,4.83,6408490
2013-04-17,4.83,4.94,4.7,4.74,4319500
2013-04-18,4.79,4.82,4.68,4.72,3939600
2013-04-19,4.73,5.02,4.73,4.99,4242500
2013-04-22,5.06,5.38,5.0,5.27,9653000
2013-04-23,5.28,5.29,5.1,5.16,4276500
2013-04-24,5.18,5.32,5.04,5.14,4357500
2013-04-25,5.16,5.23,5.1,5.14,3340000
2013-04-26,5.14,5.25,5.03,5.05,2877600
2013-04-29,5.05,5.15,4.87,4.95,2552500
2013-04-30,4.95,5.09,4.76,4.81,6077855
2013-05-02,4.8,4.82,4.54,4.72,9613000
2013-05-03,4.82,4.83,4.68,4.71,3569000
2013-05-06,4.79,4.84,4.65,4.7,5892500
2013-05-07,4.7,4.9,4.65,4.89,4475300
2013-05-08,4.9,5.04,4.87,4.98,3289795
2013-05-09,4.99,5.01,4.78,4.79,3436000
2013-05-10,4.75,4.91,4.75,4.8,2893000
2013-05-13,4.77,4.82,4.63,4.65,4584000
2013-05-14,4.7,4.76,4.65,4.66,4500575
2013-05-15,4.75,4.8,4.5,4.53,5371500
2013-05-16,4.53,4.65,4.37,4.42,5203500
2013-05-20,4.42,4.5,4.32,4.36,7184175
2013-05-21,4.44,4.58,4.4,4.57,4684500
2013-05-22,4.51,4.65,4.5,4.54,3378000
2013-05-23,4.51,4.54,4.34,4.37,5038705
2013-05-24,4.37,4.45,4.16,4.2,4052055
2013-05-27,4.31,4.35,4.02,4.17,4169720
2013-05-28,4.18,4.35,4.18,4.33,2357200
2013-05-29,4.36,4.47,4.33,4.4,3683233
2013-05-30,4.35,4.65,4.22,4.36,5093007
2013-05-31,4.4,4.5,4.33,4.35,5544002
2013-06-03,4.35,4.5,4.35,4.43,3120502
2013-06-04,4.52,4.6,4.46,4.58,5238000
2013-06-05,4.6,4.63,4.54,4.6,3162500
2013-06-06,4.57,4.59,4.41,4.51,3528000
2013-06-07,4.5,4.59,4.41,4.42,2389500
2013-06-10,4.42,4.5,4.21,4.3,1067020
2013-06-11,4.2,4.33,4.07,4.1,4309770
2013-06-13,4.0,4.09,3.99,4.04,6574500
2013-06-14,4.04,4.14,4.04,4.08,3842000
2013-06-17,4.08,4.19,4.01,4.18,1543500
2013-06-18,4.24,4.36,4.1,4.19,2090500
2013-06-19,4.21,4.28,4.06,4.15,2277500
2013-06-20,4.11,4.11,3.96,4.02,4885000
2013-06-21,3.8,3.99,3.7,3.91,3554500
2013-06-24,3.84,3.9,3.69,3.71,2435500
2013-06-25,3.68,3.8,3.4,3.58,8717517
2013-06-26,3.59,4.03,3.59,3.87,5745500
2013-06-27,3.98,4.09,3.76,3.79,5458160
2013-06-28,3.81,3.94,3.62,3.64,7320500
2013-07-02,3.79,3.8,3.6,3.65,8164000
2013-07-03,3.68,3.7,3.57,3.61,3882000
2013-07-04,3.62,3.75,3.52,3.6,1799000
2013-07-05,3.62,3.69,3.54,3.59,6451501
2013-07-08,3.64,3.64,3.4,3.47,4383004
2013-07-09,3.45,3.54,3.44,3.48,3444875
2013-07-10,3.48,3.51,3.37,3.45,7329300
2013-07-11,3.52,3.55,3.45,3.5,7587600
2013-07-12,3.55,3.63,3.5,3.53,6617000
2013-07-15,3.51,3.6,3.42,3.56,2785000
2013-07-16,3.56,3.59,3.48,3.51,7883500
2013-07-17,3.52,3.59,3.47,3.55,4854150
2013-07-18,3.6,3.67,3.56,3.65,10822758
2013-07-19,3.65,3.92,3.65,3.86,13337300
2013-07-22,3.93,3.93,3.77,3.79,4689500
2013-07-23,3.77,3.93,3.77,3.91,3750000
2013-07-24,3.93,4.13,3.88,4.1,6637059
2013-07-25,4.19,4.38,4.12,4.21,10571005
2013-07-26,4.35,4.35,4.16,4.17,7005382
2013-07-29,4.18,4.3,3.97,4.0,6147989
2013-07-30,4.06,4.07,3.7,3.92,5846000
2013-07-31,3.88,3.98,3.78,3.83,8126500
2013-08-01,3.88,3.97,3.78,3.89,7215031
2013-08-02,3.97,4.08,3.93,3.95,8174160
2013-08-05,4.03,4.12,4.03,4.1,4281901
2013-08-06,4.1,4.44,4.08,4.38,11326396
2013-08-07,4.38,4.41,4.32,4.35,10073000
2013-08-08,4.4,4.4,4.22,4.24,2719562
2013-08-09,4.3,4.43,4.26,4.41,4170500
2013-08-12,4.39,4.67,4.38,4.65,6404000
2013-08-13,4.69,4.78,4.64,4.73,8854617
2013-08-15,4.75,4.85,4.58,4.7,3899000
2013-08-16,4.72,4.72,4.45,4.58,1815534
2013-08-19,4.5,4.72,4.42,4.52,1546500
2013-08-20,4.52,4.52,4.27,4.28,4967000
2013-08-21,4.3,4.34,4.2,4.33,1453000
2013-08-22,4.26,4.39,4.26,4.33,4917000
2013-08-23,4.34,4.45,4.28,4.4,4454665
2013-08-26,4.39,4.43,4.32,4.4,1180000
2013-08-27,4.46,4.46,4.39,4.43,6339500
2013-08-28,4.4,4.55,4.19,4.5,10869156
2013-08-29,4.54,4.78,4.52,4.75,20139894
2013-08-30,4.78,4.9,4.76,4.8,13716866
2013-09-02,4.87,4.87,4.71,4.8,2988731
2013-09-03,4.81,5.08,4.81,4.96,9500000
2013-09-04,4.96,4.99,4.91,4.97,3852000
2013-09-05,5.0,5.18,5.0,5.07,5717000
2013-09-06,5.07,5.12,5.02,5.05,4193937
2013-09-09,5.05,5.33,5.05,5.24,6382340
2013-09-10,5.26,5.39,5.25,5.35,6101899
2013-09-11,5.38,5.55,5.3,5.32,7574607
2013-09-12,5.29,5.48,5.11,5.22,6369500
2013-09-13,5.21,5.26,5.13,5.19,6033000
2013-09-16,5.33,5.38,5.18,5.3,4370040
2013-09-17,5.32,5.32,5.11,5.12,1444000
2013-09-18,5.12,5.17,5.0,5.03,2056500
2013-09-19,5.1,5.25,5.1,5.14,3656400
2013-09-23,5.14,5.21,5.13,5.2,1782931
2013-09-24,5.17,5.23,5.11,5.15,4520300
2013-09-25,5.17,5.2,5.1,5.17,2531190
2013-09-26,5.11,5.12,4.9,5.01,5101500
2013-09-27,4.97,5.03,4.97,5.01,3667000
2013-09-30,4.97,4.97,4.77,4.85,4081093
2013-10-02,4.85,5.0,4.85,4.93,3520576
2013-10-03,4.98,5.22,4.94,5.2,6509500
2013-10-04,5.2,5.25,5.16,5.21,5272000
2013-10-07,5.22,5.22,5.07,5.14,1056000
2013-10-08,5.06,5.23,5.02,5.2,1676238
2013-10-09,5.18,5.21,5.1,5.17,2027300
2013-10-10,5.21,5.38,5.19,5.32,5229698
2013-10-11,5.4,5.65,5.4,5.6,11180780
2013-10-15,5.7,5.75,5.45,5.49,9752007
2013-10-16,5.58,5.59,5.45,5.52,6328745
2013-10-17,5.59,5.59,5.43,5.46,6730100
2013-10-18,5.51,5.68,5.51,5.63,5142500
2013-10-21,5.69,5.73,5.63,5.68,8407100
2013-10-22,5.64,5.94,5.64,5.84,10342796
2013-10-23,5.91,5.93,5.64,5.68,6699200
2013-10-24,5.68,5.68,5.42,5.51,8208000
2013-10-25,5.58,5.58,5.06,5.44,14471006
2013-10-28,5.41,5.45,5.18,5.39,4478500
2013-10-29,5.38,5.44,5.22,5.37,2804500
2013-10-30,5.38,5.47,5.23,5.43,3375500
2013-10-31,5.29,5.42,5.24,5.4,5680154
2013-11-01,5.4,5.47,5.34,5.44,2596806
2013-11-04,5.48,5.5,5.34,5.42,3433345
2013-11-05,5.48,5.48,5.42,5.46,1620500
2013-11-06,5.45,5.6,5.43,5.53,4609500
2013-11-07,5.56,5.58,5.39,5.46,3859400
2013-11-08,5.44,5.49,5.4,5.43,3664500
2013-11-11,5.36,5.39,5.0,5.25,9415000
2013-11-12,5.25,5.25,5.09,5.14,2505500
2013-11-13,5.1,5.12,4.76,4.78,11439500
2013-11-14,4.8,4.96,4.73,4.95,8809500
2013-11-15,4.99,5.23,4.99,5.23,9723687
2013-11-18,5.28,5.28,5.12,5.2,4200000
2013-11-19,5.24,5.37,5.19,5.21,2214900
2013-11-20,5.05,5.34,5.04,5.24,6019100
2013-11-21,5.19,5.21,5.04,5.05,3512300
2013-11-22,5.06,5.17,5.02,5.05,3682500
2013-11-25,5.18,5.18,5.05,5.15,3441000
2013-11-26,5.16,5.3,5.12,5.22,4282000
2013-11-27,5.2,5.32,5.2,5.25,7601500
2013-11-28,5.32,5.35,5.26,5.27,4342500
2013-11-29,5.29,5.31,5.13,5.27,5434500
2013-12-02,5.23,5.23,5.06,5.08,4572000
2013-12-03,5.06,5.12,4.99,5.08,3342434
2013-12-04,5.08,5.17,5.03,5.15,2427500
2013-12-05,5.16,5.22,5.16,5.21,3431537
2013-12-06,5.2,5.2,5.08,5.1,5306500
2013-12-09,5.16,5.22,5.14,5.19,1526500
2013-12-10,5.21,5.22,5.14,5.2,4790850
2013-12-11,5.22,5.26,5.17,5.2,4814730
2013-12-12,5.15,5.2,5.09,5.11,4500190
2013-12-13,5.08,5.15,5.06,5.1,3323000
2013-12-16,5.09,5.15,4.85,4.9,3045911
2013-12-17,4.97,5.0,4.9,4.93,4968198
2013-12-18,4.86,4.98,4.82,4.85,1783700
2013-12-19,4.9,4.94,4.58,4.59,8157300
2013-12-20,4.59,4.7,4.56,4.6,3496800
2013-12-23,4.66,4.72,4.48,4.49,4940600
2013-12-24,4.53,4.85,4.53,4.77,1879320
2013-12-27,4.77,4.89,4.77,4.88,1961261
2013-12-30,4.99,4.99,4.73,4.91,3130400
2013-12-31,4.95,5.0,4.92,4.97,2441400
2014-01-02,4.97,5.04,4.91,5.01,3359000
2014-01-03,4.95,5.04,4.85,4.91,5102500
2014-01-06,4.94,5.0,4.68,4.75,3155330
2014-01-07,4.75,4.85,4.65,4.75,8028403
2014-01-08,4.83,4.84,4.76,4.79,5277000
2014-01-09,4.82,4.87,4.59,4.7,10429100
2014-01-10,4.8,4.81,4.61,4.67,3884713
2014-01-13,4.65,4.97,4.65,4.77,4357350
2014-01-14,4.73,4.82,4.72,4.74,4748000
2014-01-15,4.74,4.79,4.63,4.68,3443000
2014-01-16,4.71,4.79,4.7,4.78,3767439
2014-01-17,4.81,4.84,4.73,4.76,3430330
2014-01-20,4.84,5.04,4.79,4.8,6094500
2014-01-21,4.8,4.95,4.8,4.94,4175500
2014-01-22,4.95,4.95,4.85,4.86,6296810
2014-01-23,4.94,4.94,4.85,4.86,1141000
2014-01-24,4.82,4.87,4.73,4.8,7740912
2014-01-27,4.68,4.69,4.55,4.64,3823858
2014-01-28,4.64,4.78,4.64,4.7,4935347
2014-01-29,4.8,4.8,4.7,4.73,1735468
2014-01-30,4.73,4.74,4.7,4.74,1135025
2014-02-04,4.75,4.78,4.35,4.46,7005400
2014-02-05,4.51,4.71,4.46,4.5,4811800
2014-02-06,4.5,4.61,4.4,4.47,2373500
2014-02-07,4.5,4.64,4.5,4.57,1159390
2014-02-10,4.65,4.74,4.58,4.67,2600610
2014-02-11,4.63,4.75,4.63,4.73,3710310
2014-02-12,4.73,4.75,4.71,4.73,5289500
2014-02-13,4.73,4.75,4.71,4.73,1172800
2014-02-14,4.85,4.85,4.7,4.73,3262375
2014-02-17,4.75,4.77,4.72,4.73,2722500
2014-02-18,4.68,4.74,4.57,4.63,5429800
2014-02-19,4.63,4.77,4.55,4.66,1111500
2014-02-20,4.61,4.67,4.41,4.48,6530395
2014-02-21,4.54,4.54,4.32,4.45,5148160
2014-02-24,4.65,4.65,4.44,4.46,3111000
2014-02-25,4.46,4.51,4.42,4.45,3014275
2014-02-26,4.43,4.48,4.33,4.38,8488275
2014-02-27,4.4,4.5,4.35,4.39,3837000
2014-02-28,4.4,4.45,4.32,4.34,2834000
2014-03-03,4.4,4.47,4.26,4.39,1839000
2014-03-04,4.28,4.4,4.28,4.33,2384560
2014-03-05,4.38,4.42,4.26,4.35,1017000
2014-03-06,4.47,4.55,4.44,4.51,4215000
2014-03-07,4.5,4.55,4.43,4.54,2299000
2014-03-10,4.6,4.6,4.36,4.37,1643100
2014-03-11,4.39,4.5,4.3,4.39,1219000
2014-03-12,4.29,4.35,4.16,4.22,2133500
2014-03-13,4.17,4.4,4.13,4.15,7663000
2014-03-14,4.14,4.2,3.96,3.98,2202000
2014-03-17,4.02,4.1,3.92,3.99,1791761
2014-03-18,3.96,4.08,3.96,3.98,5209000
2014-03-19,4.0,4.1,3.98,4.08,5239000
2014-03-20,4.02,4.05,3.98,4.01,649500
2014-03-21,4.0,4.14,3.98,4.1,2096037
2014-03-24,4.13,4.17,4.02,4.03,1263500
2014-03-25,4.01,4.22,4.01,4.12,5376500
2014-03-26,4.2,4.24,4.17,4.23,1271620
2014-03-27,4.18,4.18,4.01,4.1,595000
2014-03-28,4.06,4.37,4.06,4.3,4616300
2014-03-31,4.3,4.35,4.2,4.31,1439000
2014-04-01,4.34,4.34,4.19,4.27,4949500
2014-04-02,4.34,4.71,4.34,4.66,6779000
2014-04-03,4.66,4.73,4.52,4.69,7525500
2014-04-04,4.65,4.86,4.58,4.64,4233080
2014-04-07,4.52,4.78,4.48,4.54,2674500
2014-04-08,4.6,4.6,4.41,4.54,2974500
2014-04-09,4.53,4.61,4.49,4.58,10355500
2014-04-10,4.58,4.64,4.48,4.6,5940960
2014-04-11,4.61,4.62,4.5,4.57,5914043
2014-04-14,4.59,4.59,4.5,4.58,6513000
2014-04-15,4.58,4.64,4.44,4.45,2375000
2014-04-16,4.49,4.68,4.47,4.54,5769500
2014-04-17,4.53,4.58,4.38,4.44,2889000
2014-04-22,4.5,4.58,4.39,4.43,1252500
2014-04-23,4.41,4.41,4.19,4.29,3580500
2014-04-24,4.37,4.39,4.28,4.37,2194550
2014-04-25,4.4,4.44,4.22,4.27,638000
2014-04-28,4.23,4.24,4.1,4.16,1887500
2014-04-29,4.2,4.22,4.08,4.14,1355843
2014-04-30,4.3,4.3,4.11,4.22,3560450
2014-05-02,4.18,4.31,4.06,4.2,3535000
2014-05-05,4.2,4.2,4.07,4.13,1876500
2014-05-07,4.05,4.16,3.94,3.95,4584000
2014-05-08,4.0,4.0,3.68,3.77,6709000
2014-05-09,3.75,3.9,3.71,3.84,4211000
2014-05-12,3.87,3.87,3.67,3.7,5249678
2014-05-13,3.71,3.87,3.71,3.78,6010000
2014-05-14,3.82,3.85,3.68,3.79,4806660
2014-05-15,3.84,3.84,3.6,3.63,7120700
2014-05-16,3.65,3.69,3.56,3.67,2423362
2014-05-19,3.72,3.72,3.6,3.65,2343734
2014-05-20,3.71,3.77,3.67,3.76,7172500
2014-05-21,3.79,3.86,3.73,3.81,3487580
2014-05-22,3.82,3.95,3.8,3.85,4691000
2014-05-23,3.85,3.92,3.85,3.86,1603940
2014-05-26,3.87,3.93,3.8,3.91,1502000
2014-05-27,3.95,3.98,3.8,3.89,5394500
2014-05-28,3.85,3.95,3.85,3.94,7403304
2014-05-29,4.13,4.22,4.03,4.18,10745000
2014-05-30,4.08,4.18,3.97,4.01,7529000
2014-06-03,4.02,4.16,3.95,4.07,5468840
2014-06-04,4.09,4.16,4.05,4.07,1856023
2014-06-05,4.07,4.11,4.01,4.07,1200000
2014-06-06,4.09,4.18,4.07,4.12,2424812
2014-06-09,4.16,4.21,4.08,4.2,4517000
2014-06-10,4.19,4.38,4.18,4.28,3459090
2014-06-11,4.35,4.35,4.2,4.28,1902000
2014-06-12,4.33,4.33,4.2,4.25,445500
2014-06-13,4.23,4.32,4.22,4.29,1128803
2014-06-16,4.33,4.33,4.25,4.27,2512728
2014-06-17,4.22,4.36,4.22,4.34,1934070
2014-06-18,4.34,4.39,4.26,4.37,887820
2014-06-19,4.34,4.39,4.24,4.32,985070
2014-06-20,4.3,4.45,4.3,4.36,1101000
2014-06-23,4.36,4.48,4.33,4.36,2034200
2014-06-24,4.38,4.4,4.35,4.39,488000
2014-06-25,4.36,4.4,4.33,4.37,1615500
2014-06-26,4.36,4.4,4.26,4.3,2568491
2014-06-27,4.31,4.38,4.27,4.34,1549074
2014-06-30,4.34,4.49,4.27,4.34,1774320
2014-07-02,4.41,4.53,4.36,4.47,5845500
2014-07-03,4.5,4.5,4.42,4.5,2086330
2014-07-04,4.53,4.6,4.47,4.55,2096000
2014-07-07,4.58,4.58,4.46,4.49,1948500
2014-07-08,4.55,4.56,4.37,4.5,2851000
2014-07-09,4.46,4.53,4.31,4.48,2192500
2014-07-10,4.47,4.55,4.42,4.45,4548734
2014-07-11,4.39,4.46,4.39,4.46,3598500
2014-07-14,4.46,4.49,4.38,4.43,805500
2014-07-15,4.47,4.47,4.33,4.36,2991500
2014-07-16,4.39,4.39,4.19,4.2,4394021
2014-07-17,4.24,4.33,4.2,4.24,11318000
2014-07-18,4.22,4.36,4.17,4.23,1782574
2014-07-21,4.21,4.23,4.14,4.18,1672000
2014-07-22,4.15,4.17,4.01,4.03,6711495
2014-07-23,4.05,4.23,4.05,4.15,7449000
2014-07-24,4.19,4.43,4.19,4.42,7542000
2014-07-25,4.4,4.5,4.34,4.49,4923115
2014-07-28,4.51,4.6,4.49,4.55,4485000
2014-07-29,4.59,4.6,4.3,4.39,4831500
2014-07-30,4.44,4.55,4.36,4.37,7583726
2014-07-31,4.36,4.41,4.23,4.32,11969317
2014-08-01,4.33,4.33,4.07,4.1,10899000
2014-08-04,4.13,4.24,4.07,4.19,8312974
2014-08-05,4.2,4.23,4.1,4.18,9236500
2014-08-06,4.12,4.23,4.09,4.13,5520500
2014-08-07,4.15,4.2,3.94,4.18,5564000
2014-08-08,4.18,4.23,4.06,4.08,5468500
2014-08-11,4.15,4.17,4.08,4.1,6074460
2014-08-12,4.1,4.31,4.1,4.28,6560500
2014-08-13,4.31,4.33,4.25,4.3,6055500
2014-08-14,4.33,4.4,4.28,4.31,5979000
2014-08-15,4.36,4.48,4.35,4.37,4024814
2014-08-18,4.37,4.37,4.28,4.32,7347000
2014-08-19,4.36,4.39,4.25,4.27,3607500
2014-08-20,4.3,4.3,4.27,4.29,5073000
2014-08-21,4.28,4.29,4.11,4.14,16313204
2014-08-22,4.14,4.24,4.14,4.19,3346000
2014-08-25,4.2,4.28,4.18,4.21,2865000
2014-08-26,4.21,4.27,4.15,4.16,3422500
2014-08-27,4.2,4.24,4.11,4.11,2510500
2014-08-28,4.14,4.15,4.07,4.11,4385870
2014-08-29,4.09,4.14,4.08,4.14,3746500
2014-09-01,4.15,4.22,4.14,4.19,4573800
2014-09-02,4.17,4.21,4.14,4.19,3805000
2014-09-03,4.21,4.26,4.19,4.2,4370500
2014-09-04,4.18,4.33,4.18,4.32,5792500
2014-09-05,4.34,4.57,4.34,4.51,15513520
2014-09-08,4.5,4.75,4.5,4.72,5185350
2014-09-10,4.65,4.75,4.59,4.72,9339250
2014-09-11,4.76,4.76,4.68,4.71,3007000
2014-09-12,4.71,4.72,4.67,4.71,5450000
2014-09-15,4.68,4.72,4.6,4.65,4333500
2014-09-16,4.59,4.79,4.59,4.75,4654500
2014-09-17,4.77,4.9,4.69,4.81,3735000
2014-09-18,4.8,4.8,4.67,4.71,2706000
2014-09-19,4.68,4.76,4.64,4.71,2033319
2014-09-22,4.66,4.66,4.5,4.58,2522500
2014-09-23,4.52,4.6,4.45,4.59,1539500
2014-09-24,4.56,4.63,4.52,4.58,2045600
2014-09-25,4.7,4.78,4.6,4.73,4589000
2014-09-26,4.73,4.8,4.63,4.65,5787000
2014-09-29,4.54,4.55,4.38,4.49,3709500
2014-09-30,4.42,4.55,4.35,4.54,2206500
2014-10-03,4.41,4.47,4.3,4.41,5712150
2014-10-06,4.4,4.54,4.4,4.51,2866500
2014-10-07,4.5,4.66,4.5,4.63,2530420
2014-10-08,4.58,4.65,4.58,4.64,1514500
2014-10-09,4.65,4.66,4.62,4.65,1392900
2014-10-10,4.57,4.6,4.54,4.55,4095540
2014-10-13,4.46,4.54,4.46,4.5,2684500
2014-10-14,4.5,4.6,4.42,4.47,1263000
2014-10-15,4.45,4.46,4.32,4.35,2885729
2014-10-16,4.36,4.45,4.35,4.43,3043000
2014-10-17,4.41,4.43,4.35,4.4,2146500
2014-10-20,4.47,4.47,4.38,4.4,5324500
2014-10-21,4.42,4.45,4.28,4.37,1115500
2014-10-22,4.4,4.46,4.38,4.41,5168570
2014-10-23,4.4,4.46,4.4,4.41,6898000
2014-10-24,4.4,4.47,4.39,4.41,9257000
2014-10-27,4.41,4.45,4.33,4.4,2849000
2014-10-28,4.38,4.45,4.38,4.44,3521091
2014-10-29,4.4,4.43,4.35,4.39,7230500
2014-10-30,4.38,4.45,4.38,4.44,5185000
2014-10-31,4.44,4.44,4.36,4.39,4572000
2014-11-03,4.4,4.43,4.38,4.4,4046500
2014-11-04,4.38,4.43,4.26,4.28,7074500
2014-11-05,4.4,4.4,4.27,4.29,4556500
2014-11-06,4.3,4.3,4.1,4.11,6324535
2014-11-07,4.1,4.17,4.06,4.12,1782500
2014-11-10,4.19,4.24,3.96,4.13,4624000
2014-11-11,4.12,4.15,4.08,4.09,3759000
2014-11-12,4.2,4.2,3.99,4.06,4312998
2014-11-13,4.05,4.11,4.04,4.07,3656000
2014-11-14,4.04,4.05,3.97,4.0,7698000
2014-11-17,4.0,4.12,4.0,4.06,4000000
2014-11-18,4.05,4.05,3.94,3.98,1278500
2014-11-19,4.0,4.02,3.96,3.99,2076500
2014-11-20,4.06,4.06,3.97,4.0,2227724
2014-11-21,3.97,4.0,3.9,3.92,4971500
2014-11-24,4.05,4.07,3.96,3.97,4056500
2014-11-25,4.02,4.05,3.95,3.98,6028500
2014-11-26,4.0,4.02,3.95,4.0,1108500
2014-11-27,4.0,4.04,3.95,3.99,3116000
2014-11-28,4.0,4.0,3.86,3.9,2491000
2014-12-01,3.98,3.98,3.75,3.76,1865570
2014-12-02,3.77,3.83,3.7,3.74,7314000
2014-12-03,3.76,3.82,3.6,3.65,8894000
2014-12-04,3.65,3.69,3.61,3.68,4774500
2014-12-05,3.68,3.7,3.6,3.65,7769901
2014-12-08,3.64,3.82,3.64,3.74,4339771
2014-12-09,3.7,3.76,3.63,3.67,8308500
2014-12-10,3.68,3.69,3.61,3.63,4175500
2014-12-11,3.63,3.67,3.61,3.62,1362000
2014-12-12,3.6,3.6,3.39,3.4,7598500
2014-12-15,3.4,3.49,3.37,3.45,4519000
2014-12-16,3.45,3.49,3.41,3.45,1420574
2014-12-17,3.45,3.46,3.4,3.44,2379500
2014-12-18,3.44,3.44,3.27,3.32,2381317
2014-12-19,3.33,3.38,3.31,3.36,2108000
2014-12-22,3.33,3.38,3.28,3.33,5110500
2014-12-23,3.33,3.46,3.33,3.46,2363400
2014-12-24,3.48,3.59,3.48,3.54,2093000
2014-12-29,3.54,3.56,3.4,3.42,979500
2014-12-30,3.4,3.43,3.32,3.36,2033000
2014-12-31,3.38,3.49,3.38,3.45,346000
2015-01-02,3.44,3.59,3.39,3.58,1706500
2015-01-05,3.58,3.59,3.47,3.55,4561500
2015-01-06,3.56,3.66,3.46,3.66,8901500
2015-01-07,3.63,4.06,3.55,4.01,11292000
2015-01-08,4.02,4.03,3.9,4.03,5205520
2015-01-09,4.06,4.18,4.01,4.16,8759500
2015-01-12,4.0,4.09,4.0,4.05,5397500
2015-01-13,4.14,4.14,4.04,4.1,3458889
2015-01-14,4.09,4.09,3.96,3.98,3300000
2015-01-15,3.98,3.98,3.74,3.86,2616000
2015-01-16,3.81,3.86,3.72,3.8,2602000
2015-01-17,4.39,4.39,4.39,4.39,0
2015-01-19,3.82,3.83,3.68,3.75,2170280
2015-01-20,3.84,3.84,3.77,3.78,1467000
2015-01-21,3.83,3.83,3.72,3.79,1993500
2015-01-22,3.78,3.84,3.78,3.8,5332000
2015-01-23,3.84,4.0,3.8,3.97,13317600
2015-01-26,4.03,4.06,3.9,4.01,3049500
2015-01-27,4.02,4.05,4.0,4.04,1684000
2015-01-28,4.05,4.06,3.99,4.05,1297900
2015-01-29,4.04,4.04,3.97,4.02,1613000
2015-01-30,4.07,4.07,3.88,3.89,2133500
2015-02-02,3.9,4.1,3.89,3.91,4460000
2015-02-03,3.96,4.06,3.91,3.92,984000
2015-02-04,3.99,4.05,3.92,3.92,1157770
2015-02-05,4.0,4.0,3.81,3.86,1669500
2015-02-06,3.89,3.98,3.85,3.88,509000
2015-02-09,3.9,3.98,3.84,3.89,1312100
2015-02-10,4.0,4.0,3.84,3.88,2736500
2015-02-11,3.85,4.0,3.85,3.93,2714410
2015-02-12,3.97,3.98,3.86,3.9,1393700
2015-02-13,3.88,3.95,3.86,3.88,1610766
2015-02-16,3.95,4.09,3.93,4.04,4134000
2015-02-17,4.07,4.07,3.95,3.99,1607000
2015-02-18,3.96,4.03,3.96,4.03,73500
2015-02-23,4.02,4.11,4.02,4.09,1168000
2015-02-24,4.1,4.1,4.02,4.07,549000
2015-02-25,4.09,4.09,3.99,4.02,697500
2015-02-26,4.05,4.08,4.0,4.03,1509500
2015-02-27,4.07,4.1,4.02,4.08,799500
2015-03-02,4.09,4.14,4.04,4.08,950000
2015-03-03,4.1,4.1,4.05,4.06,1067000
2015-03-04,4.08,4.08,4.0,4.02,1160000
2015-03-05,4.05,4.08,4.03,4.06,807500
2015-03-06,4.1,4.1,3.97,3.97,529500
2015-03-09,3.99,4.03,3.88,3.96,3653500
2015-03-10,3.96,4.1,3.94,4.01,2619000
2015-03-11,3.99,4.05,3.94,3.94,3056500
2015-03-12,4.06,4.06,3.92,3.93,2190500
2015-03-13,3.98,4.0,3.88,3.9,414000
2015-03-16,3.97,3.97,3.91,3.97,2253500
2015-03-17,3.99,4.03,3.93,4.0,2234000
2015-03-18,4.02,4.02,3.79,3.82,2629300
2015-03-19,3.88,3.88,3.72,3.84,3466500
2015-03-20,3.81,3.84,3.79,3.84,2236000
2015-03-23,3.7,3.88,3.7,3.85,8132400
2015-03-24,3.89,3.9,3.8,3.85,1161000
2015-03-25,3.87,3.88,3.81,3.85,771500
2015-03-26,3.84,3.84,3.77,3.79,504500
2015-03-27,3.77,3.77,3.68,3.71,1998200
2015-03-30,3.71,3.79,3.66,3.75,5968000
2015-03-31,3.7,3.8,3.62,3.67,5748200
2015-04-01,3.63,3.74,3.63,3.69,2777000
2015-04-02,3.76,4.23,3.73,4.16,8156500
2015-04-08,4.21,4.7,4.21,4.66,12086000
2015-04-09,4.67,5.84,4.66,5.6,30437500
2015-04-10,5.31,5.41,4.86,5.15,24124500
2015-04-13,5.17,5.33,5.07,5.26,10147100
2015-04-14,5.34,5.36,5.05,5.12,9867500
2015-04-15,5.1,5.22,5.0,5.1,8385710
2015-04-16,5.12,5.19,4.99,5.08,5807500
2015-04-17,5.1,5.1,4.9,4.92,7253500
2015-04-20,4.82,4.94,4.74,4.83,2855000
2015-04-21,4.85,5.03,4.85,5.02,6523290
2015-04-22,5.06,5.08,4.9,4.96,3612000
2015-04-23,4.95,5.05,4.89,4.96,2356500
2015-04-24,5.0,5.1,4.47,5.09,3835000
2015-04-27,5.1,5.7,5.09,5.6,12646000
2015-04-28,5.5,5.66,5.38,5.41,6075500
2015-04-29,5.32,5.47,5.01,5.19,5647000
2015-04-30,5.18,5.34,5.0,5.31,7744000
2015-05-04,5.15,5.5,5.15,5.35,4570500
2015-05-05,5.52,5.6,5.37,5.4,6787500
2015-05-06,5.44,5.55,5.38,5.42,7451500
2015-05-07,5.41,5.49,5.11,5.13,3465500
2015-05-08,5.34,5.34,5.14,5.18,4404000
2015-05-11,5.19,5.23,5.07,5.14,3395000
2015-05-12,5.15,5.23,4.92,5.06,2457367
2015-05-13,5.1,5.15,5.0,5.1,4111302
2015-05-14,5.05,5.2,5.05,5.13,3414500
2015-05-15,5.3,5.3,5.1,5.18,3376818
2015-05-18,5.18,5.45,5.14,5.42,7541000
2015-05-19,5.42,5.74,5.36,5.73,8677000
2015-05-20,5.67,5.82,5.4,5.54,7753640
2015-05-21,5.62,5.62,5.33,5.38,2899000
2015-05-22,5.4,5.49,5.26,5.4,5132500
2015-05-26,5.45,5.56,5.3,5.5,7494500
2015-05-27,5.5,5.55,5.33,5.37,7679500
2015-05-28,5.3,5.36,5.09,5.11,4549770
2015-05-29,5.04,5.22,5.04,5.06,4520000
2015-06-01,5.2,5.42,5.12,5.34,3481500
2015-06-02,5.18,5.38,5.07,5.1,4923500
2015-06-03,5.14,5.35,5.13,5.3,5976000
2015-06-04,5.38,5.53,5.32,5.45,9045000
2015-06-05,5.4,5.43,5.29,5.34,3805500
2015-06-08,5.4,5.4,5.18,5.2,1667000
2015-06-09,5.25,5.26,4.86,4.99,6574500
2015-06-10,5.05,5.09,4.95,5.03,3655500
2015-06-11,5.11,5.11,4.97,4.99,834800
2015-06-12,4.98,5.05,4.98,5.04,4291698
2015-06-15,5.19,5.19,4.88,4.91,2503000
2015-06-16,4.91,5.06,4.71,4.72,3750000
2015-06-17,4.71,4.85,4.48,4.73,3901500
2015-06-18,4.8,4.97,4.79,4.85,6082000
2015-06-19,4.95,5.3,4.88,5.13,12413000
2015-06-22,5.1,5.28,4.97,5.24,3006128
2015-06-23,5.19,5.31,5.11,5.24,4377500
2015-06-24,5.2,5.43,5.2,5.33,2759500
2015-06-25,5.33,5.37,5.11,5.2,7957000
2015-06-26,5.2,5.32,5.09,5.25,6803500
2015-06-29,5.2,5.24,5.03,5.06,3353000
2015-06-30,5.1,5.25,5.0,5.05,8035500
2015-07-02,5.08,5.22,5.04,5.1,4533000
2015-07-03,5.2,5.2,4.82,5.0,5513000
2015-07-06,4.89,5.2,4.59,4.79,8094000
2015-07-07,4.7,5.13,4.54,4.6,6275789
2015-07-08,4.5,4.5,3.9,4.1,13099500
2015-07-09,4.1,4.59,4.05,4.57,6063546
2015-07-10,4.77,5.22,4.51,4.86,14875260
2015-07-13,4.8,5.06,4.75,5.0,11833500
2015-07-14,5.15,5.15,4.96,4.96,11881500
2015-07-15,4.96,4.96,4.67,4.72,11442500
2015-07-16,4.65,4.97,4.58,4.86,13481500
2015-07-17,4.82,5.05,4.76,5.04,18208500
2015-07-20,4.98,5.0,4.57,4.68,26656000
2015-07-21,4.7,4.81,4.64,4.68,14061000
2015-07-22,4.75,4.97,4.68,4.75,17559500
2015-07-23,4.77,4.97,4.62,4.65,34282000
2015-07-24,4.65,4.72,4.34,4.64,16056000
2015-07-27,4.52,4.52,4.1,4.14,21490198
2015-07-28,3.94,4.38,3.94,4.15,21399500
2015-07-29,4.32,4.37,4.05,4.09,21520000
2015-07-30,4.21,4.29,4.07,4.14,25557000
2015-07-31,4.23,4.35,4.1,4.14,25832500
2015-08-03,4.3,4.3,3.78,3.91,18359000
2015-08-04,4.0,4.05,3.73,3.98,21793500
2015-08-05,4.0,4.15,3.87,4.01,28471500
2015-08-06,4.1,4.19,3.99,4.01,18352000
2015-08-07,4.05,4.09,3.95,4.05,18364500
2015-08-10,4.05,4.11,3.93,4.11,24164500
2015-08-11,4.1,4.1,3.81,3.87,24222500
2015-08-12,3.81,3.82,3.53,3.76,13705000
2015-08-13,3.93,3.93,3.57,3.66,9005700
2015-08-14,3.77,3.78,3.48,3.68,18775500
2015-08-17,3.68,3.68,3.54,3.57,6087000
2015-08-18,3.66,3.75,3.46,3.53,22492000
2015-08-19,3.52,3.64,3.33,3.4,21946600
2015-08-20,3.45,3.58,3.37,3.46,21455500
2015-08-21,3.4,3.4,3.14,3.26,28314860
2015-08-24,3.35,3.35,2.93,2.95,30414000
2015-08-25,3.05,3.22,2.8,2.91,29555398
2015-08-26,3.07,3.18,2.87,3.02,26872500
2015-08-27,3.18,3.18,3.02,3.12,24205500
2015-08-28,3.25,3.25,3.02,3.14,20999500
2015-08-31,3.08,3.22,3.03,3.07,25656000
2015-09-01,3.0,3.13,2.92,2.96,14500000
2015-09-02,2.97,2.97,2.66,2.69,15121500
2015-09-04,2.62,2.74,2.59,2.63,5473500
2015-09-07,2.72,2.74,2.58,2.64,13493000
2015-09-08,2.7,2.78,2.62,2.73,12885000
2015-09-09,2.81,3.08,2.76,3.03,21593000
2015-09-10,3.06,3.09,2.88,3.01,20400070
2015-09-11,3.05,3.12,2.97,3.05,9629500
2015-09-14,3.12,3.12,3.02,3.05,7791500
2015-09-15,3.08,3.08,2.89,2.91,7418500
2015-09-16,3.15,3.31,3.08,3.22,25173500
2015-09-17,3.22,3.4,3.2,3.22,16874000
2015-09-18,3.26,3.26,3.09,3.1,9067791
2015-09-21,3.1,3.16,3.04,3.08,6893000
2015-09-22,3.13,3.19,3.08,3.17,10508500
2015-09-23,3.07,3.16,3.05,3.1,15533500
2015-09-24,3.11,3.2,3.08,3.12,5816000
2015-09-25,3.12,3.18,3.05,3.08,7679000
2015-09-29,3.1,3.17,3.04,3.11,13207500
2015-09-30,3.25,3.25,3.15,3.2,9621500
2015-10-02,3.26,3.4,3.24,3.34,10758000
2015-10-05,3.5,3.55,3.4,3.44,5978500
2015-10-06,3.53,3.53,3.34,3.37,1952000
2015-10-07,3.34,3.55,3.32,3.54,9528000
2015-10-08,3.6,3.6,3.35,3.47,6215000
2015-10-09,3.68,3.68,3.52,3.6,12344000
2015-10-12,3.65,3.78,3.61,3.65,11564000
2015-10-13,3.62,3.66,3.48,3.52,5309500
2015-10-14,3.47,3.52,3.38,3.4,6867500
2015-10-15,3.48,3.55,3.38,3.52,5649180
2015-10-16,3.64,3.7,3.52,3.6,10594000
2015-10-19,3.66,3.75,3.63,3.7,5284000
2015-10-20,3.69,3.69,3.55,3.57,5048000
2015-10-22,3.52,3.52,3.36,3.41,11178500
2015-10-23,3.42,3.57,3.42,3.48,8568000
2015-10-26,3.61,3.64,3.53,3.6,5237000
2015-10-27,3.6,3.64,3.51,3.56,3097000
2015-10-28,3.55,3.56,3.42,3.45,5930000
2015-10-29,3.55,3.58,3.46,3.51,4741500
2015-10-30,3.54,3.58,3.39,3.47,4358870
2015-11-02,3.5,3.7,3.46,3.5,9578000
2015-11-03,3.58,3.63,3.47,3.52,8162500
2015-11-04,3.56,3.75,3.52,3.65,10597880
2015-11-05,3.62,3.74,3.55,3.73,3747500
2015-11-06,3.72,3.79,3.67,3.69,3801500
2015-11-09,3.68,3.72,3.65,3.67,3306000
2015-11-10,3.64,3.7,3.4,3.56,5672000
2015-11-11,3.59,3.61,3.42,3.46,5704400
2015-11-12,3.47,3.48,3.41,3.46,5157000
2015-11-13,3.42,3.44,3.26,3.3,7912800
2015-11-16,3.3,3.34,3.15,3.31,4366800
2015-11-17,3.33,3.43,3.33,3.38,3993500
2015-11-18,3.38,3.42,3.23,3.3,4265000
2015-11-19,3.31,3.39,3.29,3.33,4835000
2015-11-20,3.31,3.48,3.31,3.41,2764000
2015-11-23,3.41,3.51,3.36,3.4,2392000
2015-11-24,3.41,3.49,3.36,3.45,1904500
2015-11-25,3.42,3.48,3.36,3.45,1885500
2015-11-26,3.49,3.49,3.39,3.42,1134500
2015-11-27,3.47,3.47,3.23,3.24,2011500
2015-11-30,3.25,3.25,3.07,3.17,4435000
2015-12-01,3.22,3.24,3.14,3.21,3873519
2015-12-02,3.2,3.3,3.18,3.27,2636500
2015-12-03,3.27,3.58,3.25,3.53,6442500
2015-12-04,3.5,3.53,3.43,3.45,3515500
2015-12-07,3.5,3.53,3.37,3.42,4314750
2015-12-08,3.43,3.52,3.35,3.52,3009000
2015-12-09,3.48,3.66,3.41,3.66,6768500
2015-12-10,3.69,3.7,3.51,3.57,7567630
2015-12-11,3.51,3.62,3.44,3.47,4452500
2015-12-14,3.43,3.51,3.27,3.36,6254520
2015-12-15,3.36,3.42,3.28,3.29,4417500
2015-12-16,3.35,3.39,3.3,3.33,6305500
2015-12-17,3.35,3.47,3.34,3.45,3128750
2015-12-18,3.41,3.51,3.41,3.48,2839123
2015-12-21,3.52,3.52,3.4,3.47,841500
2015-12-22,3.44,3.53,3.36,3.4,3410000
2015-12-23,3.38,3.46,3.37,3.42,5075337
2015-12-24,3.46,3.57,3.39,3.57,2092500
2015-12-28,3.6,3.7,3.59,3.65,3771500
2015-12-29,3.6,3.64,3.57,3.6,461500
2015-12-30,3.51,3.62,3.47,3.55,1989049
2015-12-31,3.56,3.61,3.52,3.57,522000
2016-01-04,3.57,3.58,3.31,3.34,3137512
2016-01-05,3.34,3.37,3.22,3.36,4124500
2016-01-06,3.42,3.42,3.28,3.36,3194361
2016-01-07,3.42,3.42,3.1,3.19,4106312
2016-01-08,3.23,3.45,3.19,3.29,3518372
2016-01-11,3.21,3.29,3.01,3.04,5440500
2016-01-12,3.06,3.08,2.8,2.87,3713878
2016-01-13,2.87,2.99,2.87,2.95,7352238
2016-01-14,2.84,2.98,2.69,2.88,5905795
2016-01-15,2.83,2.89,2.75,2.83,6511458
2016-01-18,2.8,2.87,2.79,2.81,4133112
2016-01-19,2.82,3.03,2.82,2.92,5633241
2016-01-20,2.81,2.88,2.76,2.79,5115877
2016-01-21,2.74,2.85,2.55,2.55,8971316
2016-01-22,2.68,2.79,2.58,2.75,6117101
2016-01-25,2.6,2.89,2.6,2.8,3016281
2016-01-26,2.71,2.74,2.63,2.68,1915525
2016-01-27,2.73,2.76,2.65,2.71,2778819
2016-01-28,2.65,2.75,2.65,2.73,2107918
2016-01-29,2.69,2.88,2.69,2.86,5880301
2016-02-01,2.86,2.89,2.69,2.73,5643237
2016-02-02,2.73,2.83,2.71,2.83,3373626
2016-02-03,2.77,2.79,2.71,2.73,1326337
2016-02-04,2.76,2.76,2.7,2.71,2550840
2016-02-05,2.74,2.79,2.72,2.72,4789000
2016-02-11,2.7,2.7,2.62,2.63,3233000
2016-02-12,2.57,2.67,2.54,2.56,1074235
2016-02-15,2.62,2.67,2.57,2.65,1877266
2016-02-16,2.72,2.79,2.69,2.73,1522919
2016-02-17,2.75,2.9,2.75,2.84,2258544
2016-02-18,2.9,3.0,2.84,2.98,4361650
2016-02-19,2.94,2.97,2.88,2.91,1573605
2016-02-22,2.96,2.98,2.91,2.94,2938424
2016-02-23,2.95,2.95,2.8,2.85,2847506
2016-02-24,2.85,2.85,2.75,2.8,1935638
2016-02-25,2.76,2.8,2.67,2.7,1043046
2016-02-26,2.75,2.79,2.66,2.7,965427
2016-02-29,2.72,2.75,2.69,2.72,1267080
2016-03-01,2.75,2.77,2.7,2.77,1862352
2016-03-02,2.84,2.94,2.82,2.85,3661878
2016-03-03,2.9,2.91,2.78,2.85,3115571
2016-03-04,2.87,2.97,2.84,2.93,3465318
2016-03-07,2.95,3.08,2.95,3.02,4131760
2016-03-08,2.93,3.0,2.91,2.99,10244645
2016-03-09,2.9,2.94,2.86,2.87,1126631
2016-03-10,2.91,2.98,2.82,2.83,2295083
2016-03-11,2.8,2.86,2.76,2.8,2998046
2016-03-14,2.83,2.93,2.82,2.87,1688538
2016-03-15,2.93,2.93,2.81,2.83,1552524
2016-03-16,2.81,2.86,2.78,2.8,2422047
2016-03-17,2.84,2.84,2.79,2.79,5986000
2016-03-18,2.82,2.86,2.8,2.82,8241890
2016-03-21,2.83,2.93,2.8,2.92,11884286
2016-03-22,2.91,3.04,2.91,3.03,5580809
2016-03-23,3.0,3.04,2.95,3.01,3650000
2016-03-24,2.98,3.01,2.83,2.89,2330000
2016-03-29,2.75,2.87,2.75,2.85,6718000
2016-03-30,2.89,2.94,2.83,2.93,6857000
2016-03-31,2.95,2.98,2.86,2.96,3234620
2016-04-01,2.96,2.99,2.86,2.89,4091500
2016-04-05,2.89,2.89,2.76,2.78,3812500
2016-04-06,2.78,2.79,2.72,2.79,2973000
2016-04-07,2.8,2.84,2.77,2.8,3291500
2016-04-08,2.77,2.81,2.73,2.79,2904000
2016-04-11,2.79,2.83,2.73,2.82,4025500
2016-04-12,2.8,2.85,2.76,2.84,4312291
2016-04-13,2.87,2.94,2.83,2.94,3834083
2016-04-14,2.97,2.98,2.93,2.96,2626300
2016-04-15,3.0,3.14,3.0,3.06,6166500
2016-04-18,2.99,3.1,2.98,3.06,5861600
2016-04-19,3.1,3.19,3.09,3.18,9260402
2016-04-20,3.23,3.23,3.08,3.12,6476000
2016-04-21,3.19,3.19,3.09,3.14,8244500
2016-04-22,3.12,3.21,3.11,3.16,5788500
2016-04-25,3.16,3.21,3.14,3.18,1451236
2016-04-26,3.16,3.19,3.06,3.16,1667368
2016-04-27,3.18,3.2,3.12,3.17,381500
2016-04-28,3.3,3.3,3.12,3.16,1059000
2016-04-29,3.25,3.25,3.14,3.18,1342000
2016-05-03,3.21,3.21,3.13,3.14,1380500
2016-05-04,3.23,3.23,3.11,3.13,2483500
2016-05-05,3.1,3.16,3.07,3.08,1437000
2016-05-06,3.05,3.1,3.04,3.08,1026500
2016-05-09,3.07,3.13,3.0,3.0,1864000
2016-05-10,3.09,3.09,3.02,3.03,779500
2016-05-11,3.18,3.18,3.0,3.04,442000
2016-05-12,3.03,3.05,2.97,2.98,942000
2016-05-13,3.04,3.04,2.83,2.84,984434
2016-05-16,2.83,2.89,2.83,2.86,669779
2016-05-17,2.93,2.95,2.87,2.91,1631368
2016-05-18,2.84,2.94,2.84,2.91,1997079
2016-05-19,2.98,3.0,2.9,2.97,3405500
2016-05-20,2.95,3.01,2.92,3.0,5271000
2016-05-23,3.15,3.19,2.75,2.78,6328674
2016-05-24,2.78,2.8,2.72,2.78,1828039
2016-05-25,2.79,2.85,2.78,2.83,1357500
2016-05-26,2.74,2.76,2.71,2.75,772000
2016-05-27,2.7,2.81,2.7,2.8,1085000
2016-05-30,2.82,2.82,2.75,2.81,512000
2016-05-31,2.82,2.87,2.79,2.83,1783000
2016-06-01,2.79,2.87,2.78,2.85,825000
2016-06-02,2.87,2.89,2.81,2.88,985500
2016-06-03,2.92,2.93,2.8,2.91,1780000
2016-06-06,2.94,3.03,2.89,3.01,2375500
2016-06-07,3.03,3.09,3.02,3.07,2631870
2016-06-08,3.04,3.11,3.04,3.07,567500
2016-06-10,3.07,3.11,2.99,3.01,1787000
2016-06-13,2.96,3.02,2.91,2.94,2068000
2016-06-14,2.97,2.97,2.88,2.88,2942500
2016-06-15,2.86,3.0,2.86,2.93,2854500
2016-06-16,2.93,3.0,2.82,2.89,2401000
2016-06-17,2.94,2.95,2.88,2.89,3249500
2016-06-20,2.92,2.93,2.88,2.9,263500
2016-06-21,2.91,2.94,2.87,2.91,3632500
2016-06-22,2.99,2.99,2.89,2.93,2603000
2016-06-23,2.93,2.95,2.89,2.91,1101900
2016-06-24,2.91,2.95,2.75,2.87,2007000
2016-06-27,2.84,2.86,2.81,2.86,983500
2016-06-28,3.0,3.0,2.76,2.8,1264500
2016-06-29,2.8,2.85,2.8,2.81,2657000
2016-06-30,2.8,2.85,2.8,2.85,3288500
2016-07-04,2.96,2.96,2.85,2.89,2936000
2016-07-05,2.88,2.88,2.8,2.85,1086000
2016-07-06,2.83,2.85,2.81,2.82,1062000
2016-07-07,2.83,2.87,2.8,2.85,1633000
2016-07-08,2.85,2.85,2.78,2.81,1661500
2016-07-11,2.87,2.87,2.77,2.81,1925500
2016-07-12,2.84,2.86,2.8,2.84,3095500
2016-07-13,2.87,2.89,2.81,2.84,3523500
2016-07-14,2.86,2.91,2.82,2.9,5415132
2016-07-15,2.92,2.93,2.84,2.91,1939000
2016-07-18,2.92,2.95,2.89,2.92,3851000
2016-07-19,2.92,2.99,2.9,2.97,2324000
2016-07-20,2.96,3.17,2.95,3.13,6209500
2016-07-21,3.11,3.15,3.06,3.13,2954500
2016-07-22,3.1,3.18,3.1,3.17,1934000
2016-07-25,3.18,3.19,3.12,3.14,1329500
2016-07-26,3.11,3.25,3.1,3.18,1046500
2016-07-27,3.28,3.28,3.08,3.14,1743258
2016-07-28,3.13,3.3,3.13,3.21,3846629
2016-07-29,3.2,3.23,3.13,3.16,2735500
2016-08-01,3.28,3.28,3.09,3.12,1661387
2016-08-03,3.07,3.11,3.01,3.05,1385000
2016-08-04,3.06,3.14,3.03,3.07,961000
2016-08-05,3.07,3.16,3.07,3.12,681000
2016-08-08,3.15,3.25,3.13,3.22,2567000
2016-08-09,3.25,3.28,3.22,3.26,2559500
2016-08-10,3.23,3.32,3.15,3.19,2152670
2016-08-11,3.2,3.2,3.15,3.19,1194500
2016-08-12,3.25,3.35,3.19,3.2,665500
2016-08-15,3.2,3.27,3.14,3.18,2315500
2016-08-16,3.27,3.27,3.08,3.18,2636516
2016-08-17,3.16,3.2,3.09,3.09,1764960
2016-08-18,3.13,3.24,3.11,3.22,2673000
2016-08-19,3.26,3.27,3.15,3.26,3041000
2016-08-22,3.29,3.53,3.16,3.44,5595000
2016-08-23,3.06,3.06,2.8,2.9,29695758
2016-08-24,2.9,2.9,2.8,2.8,16298129
2016-08-25,2.79,2.83,2.7,2.71,14686500
2016-08-26,2.71,2.83,2.7,2.75,5862000
2016-08-29,2.8,2.8,2.75,2.75,1841500
2016-08-30,2.74,2.75,2.71,2.74,2633000
2016-08-31,2.74,2.75,2.69,2.7,4970000
2016-09-01,2.7,2.71,2.68,2.69,4603000
2016-09-02,2.7,2.74,2.68,2.73,9868000
2016-09-05,2.74,2.81,2.74,2.77,10067500
2016-09-06,2.79,2.8,2.74,2.77,14508500
2016-09-07,2.79,2.79,2.73,2.75,14041092
2016-09-08,2.76,2.78,2.73,2.75,10332638
2016-09-09,2.75,2.77,2.72,2.73,11858000
2016-09-12,2.72,2.72,2.6,2.62,7619959
2016-09-13,2.64,2.69,2.53,2.55,6118281
2016-09-14,2.55,2.61,2.54,2.55,5189000
2016-09-15,2.56,2.59,2.53,2.59,1545800
2016-09-19,2.62,2.63,2.58,2.62,7074500
2016-09-20,2.62,2.62,2.56,2.58,5679000
2016-09-21,2.58,2.58,2.53,2.55,7428500
2016-09-22,2.58,2.6,2.52,2.56,7374000
2016-09-23,2.56,2.58,2.53,2.55,4958990
2016-09-26,2.55,2.56,2.46,2.47,13289000
2016-09-27,2.51,2.53,2.46,2.5,10266000
2016-09-28,2.5,2.51,2.45,2.49,4639500
2016-09-29,2.52,2.52,2.47,2.5,1490500
2016-09-30,2.47,2.49,2.42,2.45,1682500
2016-10-03,2.5,2.5,2.34,2.39,2767000
2016-10-04,2.42,2.42,2.37,2.4,1234000
2016-10-05,2.38,2.44,2.38,2.44,2363000
2016-10-06,2.46,2.51,2.42,2.48,2706500
2016-10-07,2.52,2.52,2.43,2.45,2321000
2016-10-11,2.5,2.52,2.42,2.42,5460500
2016-10-12,2.45,2.45,2.41,2.43,3610000
2016-10-13,2.46,2.46,2.4,2.42,4089500
2016-10-14,2.45,2.46,2.4,2.43,5070500
2016-10-17,2.45,2.47,2.4,2.44,6685500
2016-10-18,2.47,2.5,2.43,2.47,7646500
2016-10-19,2.49,2.63,2.47,2.57,21656094
2016-10-20,2.61,2.64,2.57,2.63,19651000
2016-10-24,2.61,2.64,2.57,2.61,12606000
2016-10-25,2.61,2.67,2.58,2.62,14180000
2016-10-26,2.65,2.65,2.58,2.58,10942500
2016-10-27,2.62,2.62,2.49,2.52,9605000
2016-10-28,2.5,2.54,2.49,2.5,10126500
2016-10-31,2.53,2.53,2.47,2.49,2718000
2016-11-01,2.53,2.53,2.42,2.47,10034000
2016-11-02,2.45,2.48,2.37,2.38,15762500
2016-11-03,2.41,2.43,2.38,2.41,9958100
2016-11-04,2.44,2.44,2.35,2.39,10709100
2016-11-07,2.41,2.48,2.38,2.47,9300500
2016-11-08,2.49,2.49,2.43,2.45,6808500
2016-11-09,2.45,2.48,2.34,2.39,14113500
2016-11-10,2.42,2.43,2.38,2.4,6425729
2016-11-11,2.4,2.42,2.33,2.33,11666000
2016-11-14,2.34,2.35,2.24,2.27,16040500
2016-11-15,2.24,2.27,2.22,2.27,17265000
2016-11-16,2.29,2.29,2.24,2.27,3313800
2016-11-17,2.27,2.27,2.23,2.25,3649094
2016-11-18,2.26,2.26,2.23,2.26,2095000
2016-11-21,2.28,2.29,2.26,2.28,3936000
2016-11-22,2.29,2.29,2.26,2.28,8767500
2016-11-23,2.28,2.29,2.26,2.28,3542000
2016-11-24,2.27,2.3,2.27,2.27,2902500
2016-11-25,2.28,2.33,2.26,2.32,4559000
2016-11-28,2.33,2.34,2.26,2.29,6515000
2016-11-29,2.29,2.31,2.28,2.31,1509500
2016-11-30,2.31,2.33,2.29,2.32,2490500
2016-12-01,2.3,2.4,2.3,2.35,7050500
2016-12-02,2.35,2.37,2.34,2.37,5136500
2016-12-05,2.38,2.38,2.31,2.34,3708000
2016-12-06,2.34,2.35,2.27,2.31,5004500
2016-12-07,2.33,2.37,2.32,2.36,3364500
2016-12-08,2.35,2.39,2.34,2.35,1621500
2016-12-09,2.32,2.36,2.32,2.34,720000
2016-12-12,2.34,2.35,2.28,2.29,3493800
2016-12-13,2.31,2.32,2.27,2.32,1646500
2016-12-14,2.33,2.33,2.28,2.28,1916000
2016-12-15,2.28,2.29,2.25,2.28,4183500
2016-12-16,2.26,2.32,2.26,2.31,2106375
2016-12-19,2.32,2.32,2.27,2.27,1700000
2016-12-20,2.29,2.29,2.24,2.25,3956500
2016-12-21,2.28,2.28,2.24,2.25,4007500
2016-12-22,2.28,2.28,2.23,2.26,2257000
2016-12-23,2.28,2.28,2.22,2.23,2582000
2016-12-28,2.23,2.23,2.2,2.21,4907000
2016-12-29,2.23,2.23,2.2,2.22,1337813
2016-12-30,2.23,2.29,2.2,2.26,6257890
2017-01-03,2.27,2.29,2.25,2.26,1496500
2017-01-04,2.27,2.28,2.25,2.28,1593500
2017-01-05,2.28,2.3,2.26,2.29,1861500
2017-01-06,2.31,2.31,2.27,2.27,1187776
2017-01-09,2.27,2.3,2.26,2.28,1638500
2017-01-10,2.28,2.3,2.27,2.3,2069500
2017-01-11,2.31,2.32,2.27,2.28,3148000
2017-01-12,2.3,2.3,2.25,2.28,3992501
2017-01-13,2.29,2.43,2.27,2.42,15258000
2017-01-16,2.43,2.43,2.38,2.39,5191000
2017-01-17,2.41,2.41,2.34,2.39,5032000
2017-01-18,2.4,2.61,2.39,2.59,31701106
2017-01-19,2.63,2.68,2.55,2.62,19178000
2017-01-20,2.62,2.67,2.59,2.64,10177500
2017-01-23,2.65,2.84,2.65,2.83,21941000
2017-01-24,2.83,2.85,2.7,2.73,16582799
2017-01-25,2.77,2.78,2.66,2.71,6273000
2017-01-26,2.75,2.75,2.7,2.73,2666500
2017-01-27,2.72,2.79,2.69,2.76,2208500
2017-02-01,2.76,2.87,2.74,2.85,5213000
2017-02-02,2.85,2.92,2.79,2.84,4754000
2017-02-03,2.84,2.84,2.72,2.78,3655952
2017-02-06,2.79,2.81,2.74,2.79,6287586
2017-02-07,2.78,2.85,2.72,2.79,19351000
2017-02-08,2.8,2.86,2.74,2.85,11224500
2017-02-09,2.86,3.04,2.84,2.91,32336800
2017-02-10,2.94,2.98,2.9,2.9,8735390
2017-02-13,2.94,2.96,2.85,2.94,8343000
2017-02-14,2.91,2.93,2.86,2.89,6077804
2017-02-15,2.88,2.92,2.84,2.86,6856500
2017-02-16,2.9,2.9,2.82,2.84,3377407
2017-02-17,2.83,2.83,2.71,2.75,11410000
2017-02-20,2.73,2.82,2.72,2.78,4697460
2017-02-21,2.78,2.84,2.71,2.72,12203000
2017-02-22,2.76,2.9,2.71,2.84,13775956
2017-02-23,2.87,2.92,2.79,2.88,21282000
2017-02-24,2.84,2.93,2.83,2.85,9648310
2017-02-27,2.86,3.01,2.84,2.99,12960500
2017-02-28,2.99,3.26,2.96,3.25,33682500
2017-03-01,3.25,3.5,3.2,3.47,29246000
2017-03-02,3.49,3.94,3.49,3.79,40248000
2017-03-03,3.82,3.9,3.42,3.72,28863000
2017-03-06,3.68,3.7,3.55,3.65,12588000
2017-03-07,3.6,3.75,3.53,3.71,12645000
2017-03-08,3.72,4.07,3.67,3.97,17254500
2017-03-09,3.97,4.01,3.9,3.98,14395896
2017-03-10,4.0,4.32,3.96,4.24,31153000
2017-03-13,4.24,4.73,4.23,4.72,26485252
2017-03-14,4.68,4.89,4.51,4.53,29130808
2017-03-15,4.51,4.72,4.42,4.63,24406312
2017-03-16,4.74,4.79,4.61,4.65,18915500
2017-03-17,4.64,4.72,4.15,4.34,53679500
2017-03-20,4.44,4.79,4.29,4.68,34037000
2017-03-21,4.7,4.79,4.4,4.4,29617352
2017-03-22,4.3,4.7,4.09,4.63,26313000
2017-03-23,4.63,4.76,4.54,4.73,12557701
2017-03-24,4.8,5.06,4.71,4.93,27270500
2017-03-27,5.0,5.06,4.73,4.78,13341500
2017-03-28,4.88,4.88,4.58,4.79,17675500
2017-03-29,4.8,4.8,4.65,4.7,7779000
2017-03-30,4.73,4.74,4.61,4.72,2629500
2017-03-31,4.74,4.76,4.58,4.67,6522500
2017-04-03,4.76,4.78,4.64,4.7,3887028
2017-04-05,4.71,4.71,4.59,4.66,10220275
2017-04-06,4.67,4.75,4.58,4.63,9503500
2017-04-07,4.67,4.67,4.52,4.66,6551672
2017-04-10,4.62,4.66,4.49,4.58,4936500
2017-04-11,4.56,4.61,4.37,4.47,7623091
2017-04-12,4.47,4.54,4.36,4.43,7618500
2017-04-13,4.44,4.86,4.43,4.73,16817000
2017-04-18,4.7,4.7,4.43,4.44,5517500
2017-04-19,4.44,4.48,4.26,4.43,5973500
2017-04-20,4.4,4.5,4.34,4.47,7205000
2017-04-21,4.49,4.54,4.39,4.44,6381500
2017-04-24,4.41,4.46,4.29,4.37,5180500
2017-04-25,4.37,4.55,4.37,4.55,9230000
2017-04-26,4.55,4.59,4.32,4.36,11869000
2017-04-27,4.43,4.45,4.24,4.38,7318000
2017-04-28,4.4,4.4,4.21,4.28,7642500
2017-05-02,4.31,4.38,4.17,4.19,13963000
2017-05-04,4.21,4.24,4.11,4.19,6006500
2017-05-05,4.23,4.24,4.0,4.06,7394500
2017-05-08,4.06,4.19,3.94,4.19,7997500
2017-05-09,4.15,4.17,4.08,4.14,5417000
2017-05-10,4.16,4.55,4.14,4.51,14565500
2017-05-11,4.52,4.6,4.4,4.47,6775000
2017-05-12,4.51,4.51,4.32,4.5,12574000
2017-05-15,4.5,4.52,4.32,4.37,6058600
2017-05-16,4.4,4.43,4.37,4.4,11779586
2017-05-17,4.45,4.64,4.37,4.64,7840000
2017-05-18,4.58,4.71,4.5,4.56,9414500
2017-05-19,4.6,4.85,4.6,4.8,11306000
2017-05-22,4.79,4.85,4.71,4.85,6953500
2017-05-23,4.8,4.82,4.65,4.69,10150500
2017-05-24,4.68,4.77,4.39,4.48,17213802
2017-05-25,4.51,4.63,4.5,4.57,5646451
2017-05-26,4.63,4.65,4.47,4.53,5486078
2017-05-29,4.5,4.7,4.49,4.64,2544000
2017-05-31,4.65,4.69,4.49,4.49,8241200
2017-06-01,4.5,4.62,4.5,4.62,6020434
2017-06-02,4.6,5.13,4.6,5.11,17944468
2017-06-05,5.11,5.15,4.92,4.95,16727048
2017-06-06,5.05,5.05,4.81,4.82,12109500
2017-06-07,4.82,4.93,4.76,4.83,11484840
2017-06-08,4.83,4.91,4.75,4.86,10838159
2017-06-09,4.88,4.93,4.78,4.84,5495741
2017-06-12,4.8,4.94,4.79,4.86,7019000
2017-06-13,4.89,5.39,4.88,5.29,27777528
2017-06-14,5.4,5.67,5.29,5.52,15185500
2017-06-15,5.5,5.58,5.36,5.45,15481210
2017-06-16,5.47,6.05,5.45,5.73,27235480
2017-06-19,5.73,5.87,5.65,5.85,12721098
2017-06-20,5.82,6.3,5.82,6.25,26647140
2017-06-21,6.24,6.49,6.07,6.2,14549867
2017-06-22,6.25,6.32,6.05,6.07,10224500
2017-06-23,6.1,6.24,5.94,6.18,12169119
2017-06-26,6.11,6.19,6.04,6.06,10958131
2017-06-27,6.04,6.2,6.0,6.2,14352300
2017-06-28,6.16,6.22,5.92,6.13,6259500
2017-06-29,6.16,6.41,6.02,6.05,10876578
2017-06-30,6.06,6.4,6.0,6.25,22557400
2017-07-03,6.29,6.86,6.28,6.73,20383500
2017-07-04,6.76,6.76,6.37,6.56,15027500
2017-07-05,6.56,7.06,6.44,7.0,19234400
2017-07-06,7.05,7.35,6.88,6.99,20079500
2017-07-07,7.0,7.34,7.0,7.3,13895578
2017-07-10,7.35,7.38,7.09,7.24,7220500
2017-07-11,7.16,7.26,7.07,7.16,12244500
2017-07-12,7.19,7.33,7.13,7.24,8261079
2017-07-13,7.25,7.54,7.22,7.47,10187231
2017-07-14,7.69,7.87,7.47,7.57,17871396
2017-07-17,7.66,7.83,7.59,7.7,16653384
2017-07-18,7.72,7.97,7.65,7.8,12619500
2017-07-19,7.8,7.9,7.68,7.74,14121500
2017-07-20,7.72,8.1,7.72,8.04,11287964
2017-07-21,8.1,8.18,7.63,7.73,19640500
2017-07-24,7.72,8.07,7.63,7.97,13391161
2017-07-25,7.98,7.98,7.69,7.7,13547500
2017-07-26,7.8,7.84,7.48,7.53,11876127
2017-07-27,7.56,7.74,7.56,7.69,10806400
2017-07-28,7.65,7.7,7.39,7.44,12532500
2017-07-31,7.5,7.73,7.26,7.72,16135948
2017-08-01,7.73,7.78,7.29,7.48,16647479
2017-08-02,7.49,7.49,7.24,7.35,13939500
2017-08-03,7.7,7.71,7.35,7.71,0
2017-08-04,7.5,7.73,7.35,7.68,17854248
2017-08-07,7.78,8.36,7.78,8.16,27822658
2017-08-08,8.2,8.2,7.95,8.06,12185000
2017-08-09,8.1,8.1,7.79,7.89,15469000
2017-08-10,7.93,7.93,7.57,7.66,14849500
2017-08-11,7.5,7.51,6.96,6.98,16153000
2017-08-14,7.12,7.46,7.12,7.38,13845341
2017-08-15,7.47,7.76,7.47,7.61,17328500
2017-08-16,7.61,7.69,7.4,7.69,5762000
2017-08-17,7.77,7.77,7.53,7.68,5439000
2017-08-18,7.6,7.6,7.39,7.42,10408658
2017-08-21,7.56,7.85,7.37,7.76,22178000
2017-08-22,7.7,8.05,7.7,8.0,21337000
2017-08-24,8.05,8.05,7.9,7.98,13234160
2017-08-25,7.99,8.05,7.91,7.99,8893246
2017-08-28,8.02,8.08,7.64,7.69,13774500
2017-08-29,7.76,7.86,7.55,7.71,13507279
2017-08-30,7.76,7.84,7.56,7.62,4757000
2017-08-31,7.65,7.66,7.32,7.4,16321060
2017-09-01,7.38,7.63,7.15,7.52,13780500
2017-09-04,7.45,7.52,7.26,7.32,13299999
2017-09-05,7.32,7.65,7.32,7.62,11628283
2017-09-06,7.62,7.66,7.44,7.54,5890395
2017-09-07,7.6,7.95,7.54,7.89,17876754
2017-09-08,7.88,8.05,7.7,7.85,11154515
2017-09-11,7.87,7.92,7.74,7.83,8257000
2017-09-12,7.9,8.41,7.78,8.39,21773000
2017-09-13,8.44,8.94,8.42,8.55,20212000
2017-09-14,8.63,8.84,8.49,8.51,11338385
2017-09-15,8.64,8.67,8.32,8.41,7224000
2017-09-18,8.57,8.6,8.31,8.5,5835114
2017-09-19,8.6,8.79,8.35,8.45,7118265
2017-09-20,8.45,9.63,8.45,9.4,31784036
2017-09-21,9.65,9.65,9.05,9.3,10324374
2017-09-22,9.3,9.3,8.8,8.9,8951500
2017-09-25,8.97,8.97,8.1,8.4,9663500
2017-09-26,8.3,8.63,8.06,8.26,9809741
2017-09-27,8.29,8.5,8.11,8.36,14019242
2017-09-28,8.35,8.43,7.86,8.0,13148740
2017-09-29,8.2,8.48,7.94,8.48,11426000
2017-10-03,9.0,9.49,8.96,9.18,21704000
2017-10-04,9.3,9.55,9.06,9.26,6829000
2017-10-06,9.36,9.49,9.28,9.35,7952000
2017-10-09,9.48,9.48,8.74,8.85,14191500
2017-10-10,8.86,9.05,8.79,8.97,5412555
2017-10-11,9.05,9.28,8.92,8.92,13044000
2017-10-12,9.16,9.18,8.91,8.96,8890497
2017-10-13,9.07,9.07,8.9,8.92,8767777
2017-10-16,9.06,9.06,8.62,8.7,9727800
2017-10-17,8.78,8.78,8.3,8.34,12013765
2017-10-18,8.35,8.52,8.22,8.49,6234957
2017-10-19,8.58,8.58,8.08,8.18,5644657
2017-10-20,8.29,8.48,8.18,8.37,12643861
2017-10-23,8.39,8.75,8.29,8.75,10693000
2017-10-24,8.73,8.8,8.43,8.68,11059500
2017-10-25,8.76,8.76,8.52,8.64,5731500
2017-10-26,8.57,8.6,8.34,8.35,3997000
2017-10-27,8.5,8.5,7.57,7.6,26455052
2017-10-30,7.6,7.94,7.6,7.86,16011000
2017-10-31,7.88,8.34,7.88,8.21,14505672
2017-11-01,8.39,8.39,8.01,8.03,5474195
2017-11-02,8.25,8.28,8.05,8.23,6046728
2017-11-03,8.3,8.3,7.88,7.99,7957023
2017-11-06,8.23,8.9,8.11,8.64,18978804
2017-11-07,8.82,9.07,8.76,8.78,14977770
2017-11-08,8.84,9.22,8.84,9.08,19035500
2017-11-09,9.08,9.59,9.08,9.59,24011826
2017-11-10,9.5,10.0,9.33,9.85,16816326
2017-11-13,9.95,10.04,9.62,9.8,9737438
2017-11-14,9.8,9.99,9.64,9.88,10336191
2017-11-15,9.75,9.88,9.27,9.5,10849077
2017-11-16,9.59,9.59,9.05,9.35,12430786
2017-11-17,9.36,9.5,9.0,9.05,14023500
2017-11-20,9.03,9.11,8.75,9.0,8597664
2017-11-21,9.02,9.14,8.59,8.7,13340582
2017-11-22,8.75,9.01,8.74,8.94,11194131
2017-11-23,8.9,8.97,8.55,8.66,8373500
2017-11-24,8.67,8.73,8.56,8.69,4098500
2017-11-27,8.68,8.75,8.42,8.45,3658000
2017-11-28,8.45,8.59,8.28,8.46,6673200
2017-11-29,8.46,8.64,8.33,8.43,4703760
2017-11-30,8.42,8.42,7.9,8.13,9813500
2017-12-01,8.1,8.2,7.95,7.97,8735733
2017-12-04,7.95,8.25,7.78,8.22,15074425
2017-12-05,8.19,8.24,7.87,7.92,12581348
2017-12-06,7.86,7.95,7.24,7.28,17753092
2017-12-07,7.4,8.09,7.4,7.7,28482002
2017-12-08,7.91,8.02,7.73,7.82,13023248
2017-12-11,7.85,8.27,7.68,8.16,11115500
2017-12-12,8.16,8.17,7.87,7.93,6264000
2017-12-13,7.98,8.04,7.8,7.9,4480592
2017-12-14,7.95,8.2,7.95,8.0,6612414
2017-12-15,7.98,8.0,7.98,8.0,0
2017-12-18,8.0,8.15,7.4,7.52,17358000
2017-12-19,7.42,7.65,7.34,7.65,11915015
2017-12-20,7.56,7.56,7.08,7.28,15172500
2017-12-21,7.25,7.42,7.23,7.3,10719722
2017-12-22,7.32,7.88,7.3,7.76,9157500
2017-12-27,7.84,7.87,7.36,7.69,4261000
2017-12-28,7.68,7.83,7.55,7.71,7738000
2017-12-29,7.81,8.15,7.75,7.91,8100500
2018-01-02,7.99,8.29,7.93,8.25,10805759
2018-01-03,8.22,8.48,8.17,8.32,14459500
2018-01-04,8.33,8.4,8.18,8.29,5469500
2018-01-05,8.3,8.3,7.78,8.01,15891128
2018-01-08,8.06,8.28,8.02,8.24,7578333
2018-01-09,8.2,8.29,8.06,8.2,5314476
2018-01-10,8.25,8.86,8.25,8.75,27057000
2018-01-12,8.06,8.44,7.8,8.37,137858688
2018-01-15,8.3,8.41,7.9,8.1,27938000
2018-01-16,8.13,8.18,8.01,8.11,14483500
2018-01-17,8.04,8.16,7.8,7.9,14794000
2018-01-18,7.91,7.99,7.57,7.69,20425000
2018-01-19,7.9,8.04,7.71,8.01,26780000
2018-01-22,7.92,8.27,7.92,8.18,41650500
2018-01-23,8.29,8.38,8.11,8.18,32535500
2018-01-24,8.15,8.24,7.93,8.03,19579500
2018-01-25,8.03,8.1,7.85,7.86,18370678
2018-01-26,7.93,8.02,7.8,7.85,11505564
2018-01-29,7.92,7.94,7.7,7.8,9950417
2018-01-30,7.8,7.91,7.69,7.8,13577535
2018-01-31,7.75,7.99,7.74,7.96,16155000
2018-02-01,7.96,8.07,7.9,7.95,7495918
2018-02-02,7.95,8.22,7.85,8.05,16191357
2018-02-05,7.82,7.87,7.75,7.76,10769500
2018-02-06,7.53,7.54,6.76,7.07,45070392
2018-02-07,7.26,7.48,6.49,6.49,41201500
2018-02-08,6.55,6.75,6.51,6.73,26866868
2018-02-09,6.5,6.53,6.15,6.32,36421240
2018-02-12,6.5,6.51,6.25,6.36,18097546
2018-02-13,6.48,6.73,6.48,6.6,16890500
2018-02-14,6.64,6.7,6.42,6.59,13595684
2018-02-15,6.7,6.75,6.63,6.7,5412849
2018-02-20,6.71,7.05,6.71,6.95,6573500
2018-02-21,7.0,7.22,6.86,7.18,13434500
2018-02-22,7.1,7.22,6.86,7.11,7421689
2018-02-23,7.11,7.29,7.06,7.23,8158000
2018-02-26,7.33,7.4,7.1,7.36,6983686
2018-02-27,7.3,7.36,6.87,6.93,15213000
2018-02-28,6.93,7.11,6.83,7.08,18763330
2018-03-01,7.04,7.15,6.96,7.12,6926000
2018-03-02,7.01,7.12,6.95,7.0,4894810
2018-03-05,7.02,7.1,6.85,6.89,12933320
2018-03-06,6.92,7.07,6.81,7.07,6416000
2018-03-07,6.88,7.03,6.88,7.03,9288200
2018-03-08,6.99,7.1,6.99,7.08,8054012
2018-03-09,7.06,7.16,6.99,7.13,5547000
2018-03-12,7.08,7.43,7.08,7.4,9627000
2018-03-13,7.4,7.4,7.28,7.38,4999000
2018-03-14,7.29,7.42,7.25,7.37,4885500
2018-03-15,7.37,7.44,7.25,7.43,4741660
2018-03-16,7.51,7.51,7.3,7.39,9669733
2018-03-19,7.48,7.65,7.47,7.57,9951500
2018-03-20,7.5,7.54,7.3,7.4,9805500
2018-03-21,7.42,7.55,7.13,7.21,10662500
2018-03-22,6.85,6.96,6.55,6.67,51848000
2018-03-23,6.41,6.43,6.1,6.35,25889938
2018-03-26,6.2,6.47,6.09,6.44,18722500
2018-03-27,6.58,6.6,6.11,6.19,20403830
2018-03-28,6.08,6.17,5.6,5.61,20408008
2018-03-29,5.69,5.86,5.52,5.7,18235500
2018-04-03,5.7,5.96,5.37,5.95,30053500
2018-04-04,5.95,6.17,5.92,6.0,21821312
2018-04-06,6.1,6.12,5.82,5.96,16749872
2018-04-09,6.08,6.08,5.77,5.95,20830656
2018-04-10,6.05,6.72,5.94,6.62,54721684
2018-04-11,6.76,6.8,6.53,6.55,61493988
2018-04-12,6.46,6.56,6.25,6.31,14931264
2018-04-13,6.4,6.43,6.26,6.31,11294531
2018-04-16,6.31,6.37,6.08,6.26,21194600
2018-04-17,6.51,6.54,6.11,6.16,9829000
2018-04-18,6.3,6.5,5.36,6.5,44194500
2018-04-19,6.46,6.46,6.21,6.25,8870267
2018-04-20,6.3,6.3,6.11,6.16,6548500
2018-04-23,6.16,6.16,5.85,6.04,6662000
2018-04-24,6.12,6.12,5.92,6.08,7260000
2018-04-25,6.0,6.18,5.98,6.08,6323000
2018-04-26,6.11,6.11,5.92,5.95,9315500
2018-04-27,6.05,6.06,5.83,5.95,11228000
2018-04-30,6.13,6.46,6.08,6.43,16939568
2018-05-02,6.48,6.49,6.31,6.38,14248049
2018-05-03,6.38,6.42,6.13,6.3,12147144
2018-05-04,6.31,6.31,6.1,6.12,9509698
2018-05-07,6.25,6.35,6.1,6.25,10444000
2018-05-08,6.28,6.38,6.22,6.26,3763445
2018-05-09,6.31,6.31,6.16,6.28,4178273
2018-05-10,6.34,6.44,6.24,6.44,7073348
2018-05-11,6.5,6.6,6.45,6.47,6589500
2018-05-14,6.56,6.65,6.47,6.5,6983885
2018-05-15,6.56,6.56,6.39,6.45,2800000
2018-05-16,6.4,6.58,6.38,6.48,4441340
2018-05-17,6.5,6.62,6.48,6.55,4262600
2018-05-18,6.51,6.81,6.48,6.76,10262500
2018-05-21,6.8,6.81,6.7,6.76,8112000
2018-05-23,7.0,7.08,6.52,6.62,26410314
2018-05-24,6.65,6.79,6.65,6.7,7368450
2018-05-25,6.7,6.79,6.5,6.53,11173919
2018-05-28,6.5,6.53,6.28,6.4,10623500
2018-05-29,6.36,6.64,6.36,6.45,8876724
2018-05-30,6.32,6.48,6.18,6.45,8384893
2018-05-31,6.49,6.77,6.48,6.77,9286700
2018-06-01,6.77,6.77,6.46,6.61,6631500
2018-06-04,6.63,6.75,6.59,6.72,6319000
2018-06-05,6.78,6.79,6.54,6.64,5520000
2018-06-06,6.65,6.65,6.55,6.59,5432900
2018-06-07,6.63,6.82,6.63,6.75,6333223
2018-06-08,6.75,6.84,6.65,6.83,8931094
2018-06-11,6.86,6.9,6.66,6.76,5390444
2018-06-12,6.81,6.85,6.58,6.59,10814500
2018-06-13,6.58,6.59,6.22,6.28,14613000
2018-06-14,6.28,6.32,6.05,6.15,10258500
2018-06-15,6.18,6.18,6.06,6.12,4790500
2018-06-19,6.1,6.1,5.78,6.02,13113188
2018-06-20,6.0,6.0,5.74,5.84,8778181
2018-06-21,5.78,5.85,5.56,5.6,11291515
2018-06-22,5.5,5.82,5.47,5.74,8195000
2018-06-25,5.74,5.79,5.6,5.63,5808796
2018-06-26,5.54,5.54,5.18,5.28,11620449
2018-06-27,5.31,5.35,5.05,5.09,13845200
2018-06-28,5.1,5.18,5.0,5.03,10791400
2018-06-29,5.05,5.27,5.05,5.23,8943000
2018-07-03,5.11,5.11,4.82,5.0,8743000
2018-07-04,5.0,5.01,4.73,4.76,10889577
2018-07-05,4.76,4.9,4.68,4.82,9616000
2018-07-06,4.86,5.07,4.81,4.91,22104000
2018-07-09,4.95,4.97,4.82,4.87,9675500
2018-07-10,5.0,5.0,4.87,4.91,7762000
2018-07-11,4.86,4.88,4.7,4.8,8028000
2018-07-12,4.8,4.97,4.68,4.94,10113300
2018-07-13,5.0,5.05,4.9,5.05,9387500
2018-07-16,5.05,5.11,4.95,5.0,6889000
2018-07-17,4.92,5.04,4.91,4.94,6934000
2018-07-18,5.0,5.01,4.87,5.0,14345500
2018-07-19,4.98,5.06,4.85,4.93,11891500
2018-07-20,4.9,4.9,4.72,4.78,12673200
2018-07-23,4.75,4.9,4.62,4.87,10623400
2018-07-24,4.93,5.01,4.85,4.88,8537000
2018-07-25,4.92,5.03,4.87,4.91,6006500
2018-07-26,4.91,4.95,4.82,4.91,9114000
2018-07-27,4.89,4.94,4.76,4.81,7496000
2018-07-30,4.73,4.84,4.62,4.65,10317500
2018-07-31,4.61,4.68,4.38,4.65,14766000
2018-08-01,4.8,4.8,4.48,4.57,14615000
2018-08-02,4.58,4.6,4.39,4.42,7498200
2018-08-03,4.54,4.56,4.34,4.47,7190000
2018-08-06,4.52,4.55,4.31,4.41,5950000
2018-08-07,4.46,4.47,4.32,4.46,7994000
2018-08-08,4.51,4.52,4.38,4.4,4736000
2018-08-09,4.49,4.74,4.37,4.74,8727000
2018-08-10,4.74,4.76,4.61,4.65,4057500
2018-08-13,4.49,4.54,4.29,4.41,8971000
2018-08-14,4.35,4.41,4.23,4.39,5787796
2018-08-15,4.39,4.45,4.1,4.24,11347000
2018-08-16,4.2,4.37,4.06,4.31,10174500
2018-08-17,4.41,4.41,4.19,4.34,11250400
2018-08-20,4.47,4.56,4.21,4.56,5547000
2018-08-21,4.58,4.87,4.52,4.76,11262000
2018-08-22,4.85,4.96,4.7,4.95,11501300
2018-08-23,5.0,5.1,4.79,5.1,10448000
2018-08-24,5.1,5.13,4.91,5.12,10613000
2018-08-27,5.26,5.26,4.8,4.85,17564500
2018-08-28,4.9,4.95,4.76,4.91,7792500
2018-08-29,4.93,4.93,4.69,4.71,12045000
2018-08-30,4.8,4.8,4.56,4.58,4962500
2018-08-31,4.54,4.81,4.45,4.81,9370600
2018-09-03,4.72,4.72,4.38,4.5,10751000
2018-09-04,4.5,4.69,4.46,4.65,5320210
2018-09-05,4.58,4.63,4.49,4.51,3324000
2018-09-06,4.52,4.53,4.35,4.37,12947000
2018-09-07,4.46,4.48,4.3,4.32,8274300
2018-09-10,4.32,4.51,4.2,4.36,5609000
2018-09-11,4.3,4.33,4.23,4.28,6560500
2018-09-12,4.25,4.31,4.2,4.29,6683000
2018-09-13,4.27,4.42,4.27,4.34,2836500
2018-09-14,4.3,4.48,4.3,4.41,12929000
2018-09-17,4.28,4.32,4.22,4.3,5113000
2018-09-18,4.39,4.39,4.25,4.35,2094500
2018-09-19,4.36,4.58,4.35,4.55,16564000
2018-09-20,4.57,4.62,4.51,4.61,10779800
2018-09-21,4.69,5.09,4.65,5.04,17757500
2018-09-24,5.03,5.17,4.8,5.14,10144000
2018-09-26,5.14,5.14,4.98,5.04,10826000
2018-09-27,5.08,5.12,4.97,5.1,7603500
2018-09-28,5.19,5.19,5.05,5.14,6799960
2018-10-02,5.19,5.42,5.18,5.24,9389000
2018-10-03,5.36,5.36,5.08,5.18,7315500
2018-10-04,5.19,5.22,5.07,5.17,4486000
2018-10-05,5.14,5.19,5.05,5.11,3919500
2018-10-08,5.1,5.1,4.81,4.85,5168300
2018-10-09,4.88,4.95,4.61,4.61,4839474
2018-10-10,4.61,4.7,4.57,4.62,4449738
2018-10-11,4.46,4.47,4.31,4.46,6849425
2018-10-12,4.45,4.62,4.45,4.62,4095500
2018-10-15,4.63,4.76,4.41,4.49,6836132
2018-10-16,4.47,4.47,4.26,4.28,5755000
2018-10-18,4.31,4.39,4.29,4.3,6576000
2018-10-19,4.23,4.23,3.97,4.11,15768001
2018-10-22,4.09,4.3,4.09,4.29,10263000
2018-10-23,4.23,4.23,3.9,3.91,11319502
2018-10-24,4.04,4.07,3.88,3.98,6104003
2018-10-25,3.92,3.97,3.75,3.97,5928002
2018-10-26,3.98,4.03,3.88,3.91,5985501
2018-10-29,3.9,3.9,3.64,3.68,13369968
2018-10-30,3.85,3.85,3.5,3.52,18409504
2018-10-31,3.62,3.74,3.4,3.74,16017880
2018-11-01,3.81,3.82,3.7,3.75,19676010
2018-11-02,3.86,4.02,3.73,3.97,23591502
2018-11-05,3.9,3.9,3.58,3.69,11627500
2018-11-06,3.69,3.71,3.6,3.69,5987501
2018-11-07,3.75,3.85,3.65,3.77,5048500
2018-11-08,3.95,3.95,3.8,3.84,4701500
2018-11-09,3.9,3.9,3.69,3.7,4252501
2018-11-12,3.71,3.87,3.67,3.8,4347500
2018-11-13,3.79,3.8,3.65,3.76,6465500
2018-11-14,3.85,4.13,3.81,3.9,15286501
2018-11-15,3.94,4.01,3.82,4.01,8848011
2018-11-16,4.03,4.18,3.94,4.06,11828003
2018-11-19,4.1,4.12,4.03,4.05,3954002
2018-11-20,4.05,4.13,3.96,4.0,4041000
2018-11-21,4.0,4.23,3.96,4.22,5773001
2018-11-22,4.36,4.36,4.15,4.34,5509000
2018-11-23,4.36,4.36,4.16,4.23,2267000
2018-11-26,4.29,4.49,4.14,4.32,4643500
2018-11-27,4.4,4.45,4.25,4.38,6691000
2018-11-28,4.5,4.55,4.43,4.52,6346333
2018-11-29,4.57,4.58,4.42,4.5,6684001
2018-11-30,4.52,4.6,4.37,4.6,2432501
2018-12-03,4.83,4.83,4.65,4.75,6849000
2018-12-04,4.74,4.85,4.61,4.68,8082700
2018-12-05,4.51,4.62,4.46,4.56,3023000
2018-12-06,4.58,4.62,4.48,4.51,4566000
2018-12-07,4.6,4.6,4.41,4.43,1728500
2018-12-10,4.41,4.48,4.34,4.4,2673500
2018-12-11,4.28,4.38,4.2,4.38,4781000
2018-12-12,4.45,4.55,4.25,4.28,6375500
2018-12-13,4.38,4.44,4.26,4.4,6030200
2018-12-14,4.48,4.48,4.27,4.32,4559000
2018-12-17,4.38,4.38,4.21,4.25,4058902
2018-12-18,4.21,4.21,4.06,4.14,6893500
2018-12-19,4.14,4.16,4.06,4.09,2983329
2018-12-20,4.15,4.15,3.96,4.02,8115600
2018-12-21,4.2,4.2,3.88,4.07,4075786
2018-12-24,3.95,4.1,3.95,4.1,611500
2018-12-27,4.09,4.19,4.07,4.14,1980000
2018-12-28,4.13,4.27,4.1,4.19,3682339
2018-12-31,4.2,4.75,4.2,4.67,11866000
2019-01-02,5.0,5.0,4.2,4.22,4828000
2019-01-03,4.25,4.3,4.05,4.09,2268000
2019-01-04,4.07,4.15,3.91,4.02,4294500
2019-01-07,4.06,4.11,3.97,4.02,2955000
2019-01-08,4.13,4.13,3.93,3.95,4341500
2019-01-09,4.1,4.1,3.98,4.07,4736000
2019-01-10,4.1,4.16,4.03,4.13,4968500
2019-01-11,4.18,4.18,4.06,4.13,2719500
2019-01-14,4.24,4.24,4.0,4.04,2345500
2019-01-15,4.1,4.14,4.03,4.14,3392000
2019-01-16,4.12,4.32,4.11,4.22,3032500
2019-01-17,4.29,4.29,4.06,4.2,2594000
2019-01-18,4.32,4.32,4.2,4.27,1731000
2019-01-21,4.38,4.38,4.17,4.2,3324500
2019-01-22,4.16,4.19,4.05,4.12,2605000
2019-01-23,4.11,4.23,4.09,4.14,1882500
2019-01-24,4.15,4.2,4.07,4.07,2748000
2019-01-25,4.14,4.19,4.1,4.17,3756000
2019-01-28,4.3,4.3,4.04,4.11,5659500
2019-01-29,4.07,4.18,4.06,4.18,4901000
2019-01-30,4.22,4.22,4.11,4.12,1933000
2019-01-31,4.18,4.18,3.98,4.14,11442000
2019-02-01,4.18,4.18,4.07,4.09,10738000
2019-02-04,4.1,4.24,4.1,4.2,8000095
2019-02-08,4.16,4.22,4.08,4.19,6218500
2019-02-11,4.21,4.21,4.08,4.13,5687000
2019-02-12,4.15,4.28,4.1,4.25,9291000
2019-02-13,4.34,4.49,4.28,4.48,16859000
2019-02-14,4.5,4.59,4.33,4.45,8530000
2019-02-15,4.46,4.46,4.32,4.39,5073700
2019-02-18,4.42,4.47,4.33,4.41,4628067
2019-02-19,4.42,4.49,4.34,4.4,4098000
2019-02-20,4.44,4.57,4.39,4.51,7108168
2019-02-21,4.62,4.84,4.54,4.75,12886000
2019-02-22,4.8,4.85,4.7,4.84,8544500
2019-02-25,4.96,5.1,4.87,5.04,15373779
2019-02-26,5.24,5.24,4.86,5.01,12047000
2019-02-27,5.05,5.05,4.78,4.82,5306000
2019-02-28,4.92,4.92,4.73,4.79,5797415
2019-03-01,4.88,4.88,4.69,4.78,4737000
2019-03-04,4.8,4.88,4.67,4.71,6111500
2019-03-05,4.74,4.96,4.6,4.9,4724500
2019-03-06,4.9,5.01,4.81,4.93,6800000
2019-03-07,4.99,4.99,4.68,4.78,7652500
2019-03-08,4.78,4.78,4.6,4.68,4899500
2019-03-11,4.72,4.72,4.46,4.62,5512852
2019-03-12,4.77,4.9,4.65,4.67,4238000
2019-03-13,4.8,4.8,4.58,4.67,1814000
2019-03-14,4.66,4.66,4.36,4.41,3188000
2019-03-15,4.5,4.5,4.35,4.43,3202000
2019-03-18,4.53,4.63,4.4,4.52,7115000
2019-03-19,4.6,4.67,4.43,4.5,3266834
2019-03-20,4.46,4.48,4.33,4.37,4799500
2019-03-21,4.37,4.37,4.23,4.27,4102500
2019-03-22,4.3,4.38,4.25,4.3,3195000
2019-03-25,4.24,4.31,4.14,4.22,1659834
2019-03-26,4.22,4.34,4.22,4.29,2391000
2019-03-27,4.35,4.37,4.21,4.34,4291500
2019-03-28,4.23,4.4,4.23,4.31,1784415
2019-03-29,4.39,4.4,4.25,4.36,3242500
2019-04-01,4.46,4.53,4.28,4.37,8393696
2019-04-02,4.37,4.41,4.22,4.28,15415500
2019-04-03,4.28,4.44,4.23,4.44,7468338
2019-04-04,4.45,4.62,4.37,4.6,8609875
2019-04-08,4.65,4.82,4.54,4.74,7479500
2019-04-09,4.82,4.9,4.75,4.82,10482500
2019-04-10,4.8,4.83,4.65,4.79,9219500
2019-04-11,4.89,4.9,4.57,4.63,5185334
2019-04-12,4.58,4.7,4.58,4.65,2464500
2019-04-15,4.65,4.67,4.38,4.39,6492000
2019-04-16,4.38,4.38,4.2,4.33,4851000
2019-04-17,4.39,4.66,4.22,4.59,20930500
2019-04-18,4.66,4.79,4.58,4.74,16186000
2019-04-23,4.7,4.86,4.66,4.82,12093478
2019-04-24,4.76,4.78,4.66,4.69,8065000
2019-04-25,4.68,4.75,4.49,4.54,6272333
2019-04-26,4.49,4.49,4.33,4.36,5388500
2019-04-29,4.56,4.56,4.33,4.38,2899000
2019-04-30,4.43,4.43,4.3,4.34,3348834
2019-05-02,4.3,4.37,4.26,4.31,4122500
2019-05-03,4.36,4.36,4.22,4.34,3538000
2019-05-06,4.16,4.2,4.06,4.15,7324500
2019-05-07,4.07,4.13,3.93,4.03,7760213
2019-05-08,4.03,4.03,3.86,3.93,15219722
2019-05-09,3.86,3.86,3.6,3.8,16070500
2019-05-10,3.79,3.94,3.74,3.88,8148500
2019-05-14,3.69,3.83,3.64,3.7,7368042
2019-05-15,3.73,3.79,3.63,3.68,4360296
2019-05-16,3.67,3.72,3.6,3.69,8373000
2019-05-17,3.69,3.7,3.48,3.49,5404500
2019-05-20,3.52,3.52,3.3,3.42,7369254
2019-05-21,3.4,3.58,3.4,3.5,5389805
2019-05-22,3.5,3.54,3.29,3.33,5732000
2019-05-23,3.3,3.32,3.17,3.18,7216200
2019-05-24,3.25,3.25,3.07,3.16,16484211
2019-05-27,3.12,3.12,2.94,3.05,21227500
2019-05-28,2.99,3.28,2.99,3.16,14505000
2019-05-29,3.15,3.23,3.1,3.19,6913000
2019-05-30,3.19,3.19,3.03,3.07,5985172
2019-05-31,3.11,3.17,3.06,3.09,14144000
2019-06-03,3.1,3.15,3.06,3.13,4562500
2019-06-04,3.15,3.15,3.0,3.01,7505248
2019-06-05,3.1,3.1,2.98,3.01,7467225
2019-06-06,2.92,2.94,2.85,2.9,6419000
2019-06-10,2.88,3.0,2.84,2.88,6833755
2019-06-11,2.86,2.97,2.83,2.94,6457000
2019-06-12,2.9,2.9,2.82,2.85,4978000
2019-06-13,2.85,2.89,2.74,2.79,6760500
2019-06-14,2.75,2.78,2.69,2.7,6633500
2019-06-17,2.73,2.89,2.71,2.85,29686254
2019-06-18,2.9,2.96,2.87,2.92,8598500
2019-06-19,2.99,3.01,2.93,2.95,9600100
2019-06-20,3.04,3.08,2.95,3.06,7070000
2019-06-21,3.08,3.2,3.04,3.2,15556500
2019-06-24,3.2,3.2,3.08,3.11,4861000
2019-06-25,3.11,3.13,3.03,3.1,3543000
2019-06-26,3.05,3.07,2.97,3.03,5074000
2019-06-27,3.03,3.29,3.03,3.27,8552500
2019-06-28,3.28,3.28,3.15,3.24,3218500
2019-07-02,3.33,3.41,3.22,3.35,9662377
2019-07-03,3.3,3.3,3.05,3.1,11997500
2019-07-04,3.15,3.15,3.06,3.09,6234000
2019-07-05,3.12,3.18,3.05,3.17,7948500
2019-07-08,3.13,3.16,3.07,3.09,3043000
2019-07-09,3.09,3.09,2.93,2.96,3447500
2019-07-10,3.02,3.04,2.92,2.96,3969000
2019-07-11,2.98,3.0,2.93,2.96,7614000
2019-07-12,2.94,2.98,2.9,2.95,9452000
2019-07-15,2.92,3.03,2.92,2.97,8683500
2019-07-16,2.98,3.05,2.95,2.98,3921254
2019-07-17,2.94,3.01,2.94,2.99,2936600
2019-07-18,3.03,3.07,2.98,3.0,4995400
2019-07-19,3.02,3.04,2.98,3.0,1256000
2019-07-22,2.98,3.0,2.95,2.95,3949500
2019-07-23,2.94,2.99,2.93,2.97,2049500
2019-07-24,2.99,3.08,2.97,3.07,6711000
2019-07-25,3.07,3.11,3.05,3.08,2135000
2019-07-26,3.05,3.07,2.99,3.04,3173500
2019-07-29,3.07,3.13,2.98,3.02,1832500
2019-07-30,3.03,3.05,2.98,3.01,2449521
2019-07-31,2.98,2.98,2.86,2.96,4040754
2019-08-01,2.92,2.92,2.85,2.91,11595562
2019-08-02,2.8,2.9,2.8,2.84,18846000
2019-08-05,2.81,2.81,2.68,2.71,5278500
2019-08-06,2.62,2.68,2.49,2.56,7196500
2019-08-07,2.56,2.57,2.5,2.52,2764500
2019-08-08,2.53,2.58,2.49,2.55,3028000
2019-08-09,2.6,2.66,2.57,2.58,8372500
2019-08-12,2.61,2.65,2.57,2.6,6870056
2019-08-13,2.75,2.77,2.55,2.58,6278782
2019-08-14,2.68,2.68,2.61,2.64,2629110
2019-08-15,2.63,2.68,2.52,2.64,2837500
2019-08-16,2.68,2.75,2.64,2.71,5924000
2019-08-19,2.75,2.78,2.7,2.76,5622500
2019-08-20,2.75,2.79,2.7,2.71,3544500
2019-08-21,2.67,2.67,2.6,2.64,5825500
2019-08-22,2.65,2.74,2.64,2.73,5884000
2019-08-23,2.72,2.8,2.71,2.75,4678700
2019-08-26,2.69,2.72,2.63,2.69,9991500
2019-08-27,2.72,2.85,2.72,2.76,8478244
2019-08-28,2.81,2.86,2.77,2.77,8092633
2019-08-29,2.8,2.8,2.63,2.7,4530178
2019-08-30,2.74,2.86,2.74,2.82,12647148
2019-09-02,2.72,2.72,2.4,2.41,46345840
2019-09-03,2.42,2.47,2.39,2.42,30704100
2019-09-04,2.46,2.46,2.3,2.42,33292508
2019-09-05,2.42,2.59,2.38,2.49,30603500
2019-09-06,2.51,2.56,2.44,2.48,13533500
2019-09-09,2.48,2.64,2.47,2.62,11701000
2019-09-10,2.61,2.64,2.57,2.61,6085000
2019-09-11,2.58,2.62,2.55,2.57,8346000
2019-09-12,2.64,2.64,2.57,2.62,3480500
2019-09-13,2.59,2.8,2.58,2.78,6182500
2019-09-16,2.74,2.79,2.67,2.69,4472500
2019-09-17,2.71,2.71,2.61,2.65,8991500
2019-09-18,2.63,2.73,2.62,2.73,46351000
2019-09-19,2.71,2.73,2.66,2.67,3611000
2019-09-20,2.7,2.7,2.58,2.65,8271000
2019-09-23,2.55,2.61,2.52,2.57,7175000
2019-09-24,2.54,2.54,2.39,2.42,13512500
2019-09-25,2.4,2.4,2.26,2.29,12516192
2019-09-26,2.3,2.34,2.23,2.28,10351605
2019-09-27,2.24,2.33,2.24,2.31,5457500
2019-09-30,2.3,2.3,2.2,2.26,3199502
2019-10-02,2.32,2.32,2.18,2.25,2163500
2019-10-03,2.25,2.25,2.17,2.24,4188500
2019-10-04,2.27,2.28,2.18,2.24,4230500
2019-10-08,2.29,2.36,2.24,2.25,7293500
2019-10-09,2.28,2.28,2.19,2.21,6250000
2019-10-10,2.23,2.26,2.2,2.24,8230500
2019-10-11,2.26,2.32,2.24,2.28,6954500
2019-10-14,2.31,2.38,2.28,2.29,7230000
2019-10-15,2.33,2.33,2.22,2.22,6337000
2019-10-16,2.23,2.3,2.23,2.26,13313639
2019-10-17,2.27,2.38,2.27,2.37,13726500
2019-10-18,2.37,2.41,2.35,2.39,10477000
2019-10-21,2.37,2.43,2.36,2.41,3804977
2019-10-22,2.41,2.49,2.41,2.46,8220500
2019-10-23,2.46,2.47,2.43,2.47,3811000
2019-10-24,2.46,2.48,2.44,2.45,4017500
2019-10-25,2.45,2.54,2.43,2.43,3176600
2019-10-28,2.45,2.5,2.42,2.47,5370000
2019-10-29,2.47,2.5,2.43,2.45,3424500
2019-10-30,2.47,2.5,2.34,2.34,4854002
2019-10-31,2.33,2.37,2.31,2.35,4557000
2019-11-01,2.36,2.37,2.29,2.34,6098500
2019-11-04,2.38,2.41,2.35,2.36,7566500
2019-11-05,2.38,2.41,2.33,2.41,6508500
2019-11-06,2.42,2.56,2.4,2.51,12478400
2019-11-07,2.51,2.55,2.46,2.51,4215500
2019-11-08,2.51,2.58,2.41,2.46,8060000
2019-11-11,2.44,2.44,2.31,2.33,5376500
2019-11-12,2.34,2.34,2.25,2.29,9054700
2019-11-13,2.29,2.29,2.24,2.26,3763000
2019-11-14,2.26,2.29,2.18,2.19,8528000
2019-11-15,2.21,2.22,2.17,2.21,3340096
2019-11-18,2.2,2.22,2.17,2.22,9889500
2019-11-19,2.2,2.29,2.17,2.27,6788204
2019-11-20,2.25,2.28,2.22,2.26,4575500
2019-11-21,2.25,2.27,2.23,2.24,2275500
2019-11-22,2.26,2.33,2.25,2.28,5370500
2019-11-25,2.33,2.33,2.29,2.32,2526000
2019-11-26,2.32,2.33,2.27,2.3,6870383
2019-11-27,2.31,2.32,2.25,2.31,8348324
2019-11-28,2.31,2.32,2.25,2.31,2721500
2019-11-29,2.33,2.33,2.21,2.23,3357000
2019-12-02,2.24,2.39,2.24,2.37,8579996
2019-12-03,2.36,2.52,2.32,2.5,11320996
2019-12-04,2.49,2.58,2.43,2.5,10382000
2019-12-05,2.52,2.52,2.42,2.44,6269500
2019-12-06,2.47,2.57,2.43,2.53,6813600
2019-12-09,2.53,2.57,2.49,2.49,2886000
2019-12-10,2.49,2.5,2.36,2.39,3636500
2019-12-11,2.37,2.46,2.32,2.44,3416000
2019-12-12,2.47,2.84,2.47,2.84,31124000
2019-12-13,2.89,2.94,2.75,2.8,13199500
2019-12-16,2.78,3.05,2.76,3.0,15950000
2019-12-17,3.06,3.09,2.87,2.94,16358500
2019-12-18,2.94,2.98,2.76,2.85,13114000
2019-12-19,2.85,2.85,2.72,2.77,6940000
2019-12-20,2.79,2.79,2.59,2.65,14576000
2019-12-23,2.65,2.67,2.56,2.64,15938000
2019-12-24,2.65,2.79,2.63,2.71,7166500
2019-12-27,2.75,2.79,2.69,2.75,8296742
2019-12-30,2.71,2.81,2.69,2.69,10499650
2019-12-31,2.7,2.8,2.65,2.78,7921500
2020-01-02,2.78,2.8,2.72,2.78,3782500
2020-01-03,2.86,2.87,2.72,2.73,6180500
2020-01-06,2.76,2.79,2.65,2.73,5536306
2020-01-07,2.77,2.77,2.71,2.75,4718500
2020-01-08,2.72,2.72,2.58,2.64,7841000
2020-01-09,2.69,2.69,2.6,2.61,10020000
2020-01-10,2.61,2.63,2.52,2.54,13150000
2020-01-13,2.55,2.71,2.54,2.65,18047500
2020-01-14,2.7,2.74,2.63,2.66,11851000
2020-01-15,2.68,2.69,2.57,2.62,19983000
2020-01-16,2.64,2.78,2.64,2.67,37524500
2020-01-17,2.7,2.72,2.61,2.63,13082000
2020-01-20,2.66,2.66,2.54,2.54,11938000
2020-01-21,2.54,2.54,2.4,2.41,13674500
2020-01-22,2.44,2.47,2.4,2.43,5268856
2020-01-23,2.43,2.44,2.34,2.35,13743500
2020-01-24,2.35,2.36,2.28,2.35,4587500
2020-01-29,2.24,2.24,2.12,2.14,10647600
2020-01-30,2.15,2.16,2.05,2.06,6715500
2020-01-31,2.08,2.12,2.04,2.09,5194503
2020-02-03,2.08,2.15,2.0,2.12,12556064
2020-02-04,2.09,2.15,2.08,2.12,4327578
2020-02-05,2.13,2.29,2.1,2.28,14428000
2020-02-06,2.27,2.33,2.21,2.28,7480000
2020-02-07,2.32,2.32,2.18,2.21,4035500
2020-02-10,2.16,2.27,2.15,2.25,4120500
2020-02-11,2.25,2.3,2.25,2.27,4601000
2020-02-12,2.26,2.33,2.24,2.3,4687060
2020-02-13,2.33,2.33,2.25,2.25,2471390
2020-02-14,2.29,2.32,2.25,2.27,4735500
2020-02-17,2.27,2.41,2.27,2.36,6192500
2020-02-18,2.36,2.4,2.3,2.33,2930500
2020-02-19,2.38,2.46,2.36,2.43,7954000
2020-02-20,2.46,2.48,2.41,2.46,5458000
2020-02-21,2.46,2.51,2.41,2.43,7604000
2020-02-24,2.48,2.48,2.28,2.3,8175000
2020-02-25,2.33,2.38,2.21,2.33,8122000
2020-02-26,2.3,2.38,2.26,2.28,15260500
2020-02-27,2.34,2.34,2.27,2.3,10583000
2020-02-28,2.29,2.29,2.16,2.16,13480000
2020-03-02,2.21,2.24,2.14,2.14,11255000
2020-03-03,2.2,2.24,2.12,2.16,12424445
2020-03-04,2.18,2.18,2.1,2.11,10273000
2020-03-05,2.13,2.15,2.06,2.11,17554130
2020-03-06,2.09,2.1,2.05,2.1,8811705
2020-03-09,2.04,2.06,1.94,1.94,9946630
2020-03-10,1.93,1.99,1.83,1.99,10402500
2020-03-11,1.99,2.0,1.87,1.88,7092500
2020-03-12,1.83,1.86,1.77,1.8,9159000
2020-03-13,1.68,1.75,1.6,1.7,26233000
2020-03-16,1.68,1.68,1.59,1.63,10840440
2020-03-17,1.59,1.62,1.49,1.54,14316000
2020-03-18,1.54,1.58,1.42,1.45,10814500
2020-03-19,1.45,1.45,1.3,1.34,16986000
2020-03-20,1.36,1.36,1.27,1.3,22312914
2020-03-23,1.23,1.28,1.17,1.22,17010500
2020-03-24,1.26,1.37,1.23,1.33,22504576
2020-03-25,1.37,1.43,1.34,1.37,11483180
2020-03-26,1.37,1.39,1.33,1.36,8651500
2020-03-27,1.4,1.44,1.38,1.39,10311796
2020-03-30,1.35,1.38,1.29,1.31,5927500
2020-03-31,1.29,1.31,1.22,1.24,13644500
2020-04-01,1.25,1.26,1.18,1.24,12137804
2020-04-02,1.23,1.23,1.1,1.12,10228500
2020-04-03,1.14,1.14,1.0,1.05,16831016
2020-04-06,1.05,1.16,1.01,1.16,9420444
2020-04-07,1.16,1.22,1.16,1.18,12437020
2020-04-08,1.19,1.22,1.15,1.19,6995600
2020-04-09,1.23,1.28,1.19,1.27,14903000
2020-04-14,1.28,1.3,1.21,1.23,8063555
2020-04-15,1.25,1.27,1.08,1.1,31191600
2020-04-16,1.1,1.16,1.08,1.14,8766000
2020-04-17,1.17,1.19,1.14,1.15,6546000
2020-04-20,1.17,1.23,1.17,1.17,3730500
2020-04-21,1.17,1.17,1.1,1.13,6668000
2020-04-22,1.13,1.14,1.09,1.12,4044522
2020-04-23,1.15,1.15,1.1,1.12,3287500
2020-04-24,1.12,1.13,1.09,1.13,3331500
2020-04-27,1.14,1.15,1.1,1.13,3766000
2020-04-28,1.11,1.17,1.11,1.16,3192500
2020-04-29,1.17,1.23,1.17,1.21,9276500
2020-05-04,1.16,1.18,1.12,1.14,4084000
2020-05-05,1.14,1.23,1.13,1.2,3680600
2020-05-06,1.2,1.22,1.18,1.19,6376000
2020-05-07,1.2,1.2,1.17,1.19,2082666
2020-05-08,1.21,1.26,1.19,1.25,13648600
2020-05-11,1.26,1.28,1.21,1.23,6218500
2020-05-12,1.23,1.24,1.19,1.19,3651500
2020-05-13,1.18,1.21,1.17,1.18,3195500
2020-05-14,1.18,1.18,1.12,1.13,4421000
2020-05-15,1.14,1.17,1.11,1.16,5264003
2020-05-18,1.16,1.18,1.15,1.18,3726000
2020-05-19,1.22,1.22,1.17,1.19,6507000
2020-05-20,1.19,1.22,1.17,1.18,3228000
2020-05-21,1.2,1.21,1.07,1.08,20944000
2020-05-22,1.07,1.07,1.01,1.04,10665000
2020-05-25,1.04,1.04,0.98,1.02,7036010
2020-05-26,1.02,1.09,1.02,1.08,7438000
2020-05-27,1.08,1.09,1.03,1.04,3240500
2020-05-28,1.04,1.06,1.01,1.01,4984000
2020-05-29,1.03,1.03,0.98,0.98,12462000
2020-06-01,1.0,1.04,0.98,0.98,10672500
2020-06-02,0.99,1.01,0.99,1.0,7186000
2020-06-03,1.01,1.01,0.99,1.0,19752500
2020-06-04,1.02,1.02,0.98,0.99,12299500
2020-06-05,1.0,1.01,0.96,0.99,19476238
2020-06-08,1.0,1.0,0.97,0.99,20988900
2020-06-09,0.99,1.33,0.99,1.31,157927648
2020-06-10,1.32,1.41,1.2,1.34,132907344
2020-06-11,1.36,1.38,1.23,1.26,47060000
2020-06-12,1.21,1.29,1.18,1.26,26164000
2020-06-15,1.3,1.3,1.14,1.17,37234500
2020-06-16,1.21,1.24,1.17,1.18,17404000
2020-06-17,1.19,1.24,1.18,1.2,12076000
2020-06-18,1.21,1.21,1.17,1.18,24105500
2020-06-19,1.2,1.27,1.19,1.23,34585000
2020-06-22,1.23,1.26,1.16,1.17,23512500
2020-06-23,1.19,1.19,1.14,1.17,9536465
2020-06-24,1.18,1.2,1.16,1.19,6631500
2020-06-26,1.19,1.19,1.14,1.15,12261000
2020-06-29,1.15,1.15,1.1,1.12,15519135
2020-06-30,1.13,1.15,1.11,1.11,6641500
2020-07-02,1.11,1.17,1.11,1.14,9050000
2020-07-03,1.16,1.35,1.16,1.32,70779504
2020-07-06,1.37,1.44,1.29,1.43,56635500
2020-07-07,1.47,1.52,1.31,1.35,46659500
2020-07-08,1.38,1.41,1.33,1.34,23663000
2020-07-09,1.36,1.41,1.35,1.37,19675000
2020-07-10,1.37,1.37,1.28,1.3,19658000
2020-07-13,1.32,1.57,1.29,1.42,82788496
2020-07-14,1.42,1.44,1.36,1.39,31916500
2020-07-15,1.44,1.44,1.28,1.29,45183408
2020-07-16,1.16,1.17,1.0,1.03,509149504
2020-07-17,1.04,1.06,1.02,1.02,38278000
2020-07-20,1.03,1.07,0.99,1.03,59268500
2020-07-21,1.05,1.07,0.88,0.92,197268000
2020-07-22,0.89,0.93,0.83,0.84,104229000
2020-07-23,0.86,0.86,0.76,0.79,62292000
2020-07-24,0.83,0.86,0.78,0.81,89620704
2020-07-27,0.83,0.83,0.72,0.75,53140000
2020-07-28,0.77,0.79,0.75,0.77,22378000
2020-07-29,0.77,0.84,0.76,0.82,73049000
2020-07-30,0.83,0.84,0.8,0.81,40270000
2020-07-31,1.3,1.34,1.09,1.12,491753504
2020-08-03,1.15,1.16,1.04,1.08,111647504
2020-08-04,1.1,1.11,1.06,1.1,42510000
2020-08-05,1.11,1.12,1.06,1.07,49728500
2020-08-06,1.07,1.11,1.06,1.07,39993500
2020-08-07,1.08,1.09,1.03,1.06,25895000
2020-08-10,1.05,1.1,1.03,1.08,39353000
2020-08-11,1.09,1.11,1.07,1.1,34792000
2020-08-12,1.1,1.11,1.08,1.1,20408000
2020-08-13,1.1,1.16,1.08,1.12,54931500
2020-08-14,1.13,1.13,1.08,1.08,22638500
2020-08-17,1.08,1.11,1.08,1.09,13580500
2020-08-18,1.1,1.1,1.06,1.07,19697000
2020-08-19,1.06,1.07,1.04,1.05,6874300
2020-08-20,1.06,1.07,1.04,1.06,11581500
2020-08-21,1.06,1.1,1.04,1.06,21765000
2020-08-24,1.05,1.07,1.04,1.05,13850900
2020-08-25,1.06,1.07,1.05,1.05,12556000
