Date,Open,High,Low,Close,Volume
2014-10-03,1.93,2.04,1.88,1.96,820193600
2014-10-06,2.0,2.35,2.0,2.33,390894912
2014-10-07,2.36,2.42,2.25,2.27,131485000
2014-10-08,2.27,2.46,2.26,2.31,195796000
2014-10-09,2.34,2.4,2.28,2.3,71334000
2014-10-10,2.25,2.33,2.24,2.25,50004000
2014-10-13,2.23,2.28,2.15,2.24,59698000
2014-10-14,2.22,2.31,2.21,2.23,34293000
2014-10-15,2.24,2.26,2.14,2.17,32980000
2014-10-16,2.11,2.17,2.08,2.13,32228900
2014-10-17,2.15,2.22,2.14,2.18,28932400
2014-10-20,2.22,2.27,2.21,2.27,23550000
2014-10-21,2.28,2.56,2.28,2.54,185071504
2014-10-22,2.55,2.61,2.47,2.5,64798000
2014-10-23,2.48,2.6,2.42,2.46,59348800
2014-10-24,2.47,2.51,2.43,2.46,20266000
2014-10-27,2.44,2.45,2.35,2.35,31974000
2014-10-28,2.38,2.63,2.36,2.62,84963000
2014-10-29,2.64,2.66,2.54,2.56,43218000
2014-10-30,2.56,2.71,2.53,2.58,66400000
2014-10-31,2.6,2.62,2.49,2.53,39274000
2014-11-03,2.53,2.62,2.53,2.59,30180000
2014-11-04,2.58,2.76,2.56,2.73,65802000
2014-11-05,2.74,2.86,2.64,2.65,109842000
2014-11-06,2.67,2.77,2.67,2.75,37028000
2014-11-07,2.77,2.8,2.66,2.69,40782000
2014-11-10,2.72,2.74,2.61,2.65,31492000
2014-11-11,2.63,2.65,2.55,2.58,30904000
2014-11-12,2.58,2.71,2.53,2.55,49384000
2014-11-13,2.55,2.61,2.44,2.55,54370000
2014-11-14,2.56,2.61,2.51,2.59,35118000
2014-11-17,2.61,2.64,2.51,2.54,16324000
2014-11-18,2.55,2.55,2.43,2.45,28228000
2014-11-19,2.46,2.54,2.43,2.52,13922300
2014-11-20,2.5,2.57,2.49,2.52,15966000
2014-11-21,2.53,2.54,2.46,2.52,19982000
2014-11-24,2.54,2.64,2.5,2.64,28390200
2014-11-25,2.64,2.65,2.53,2.55,24332000
2014-11-26,2.56,2.57,2.45,2.46,30292000
2014-11-27,2.46,2.51,2.46,2.47,16818000
2014-11-28,2.49,2.5,2.32,2.33,36531000
2014-12-01,2.33,2.33,2.2,2.25,34682000
2014-12-02,2.26,2.41,2.25,2.4,24340000
2014-12-03,2.41,2.44,2.29,2.3,20800000
2014-12-04,2.33,2.33,2.23,2.28,18748200
2014-12-05,2.27,2.27,2.16,2.19,21484000
2014-12-08,2.16,2.28,2.16,2.21,19902500
2014-12-09,2.21,2.21,2.05,2.19,25844000
2014-12-10,2.22,2.23,2.08,2.14,20164000
2014-12-11,2.1,2.22,2.09,2.11,27013400
2014-12-12,2.12,2.14,2.03,2.05,23082000
2014-12-15,2.01,2.04,1.99,2.04,10087400
2014-12-16,2.02,2.04,1.98,2.01,10003000
2014-12-17,2.0,2.0,1.84,1.87,22869000
2014-12-18,1.91,1.99,1.9,1.93,18187000
2014-12-19,1.97,1.98,1.93,1.95,7024000
2014-12-22,1.97,2.12,1.97,2.06,16426000
2014-12-23,2.08,2.09,2.0,2.02,7614000
2014-12-24,2.04,2.05,2.0,2.02,3592000
2014-12-29,2.01,2.06,1.96,2.0,9304000
2014-12-30,2.01,2.02,2.0,2.01,2312000
2014-12-31,2.0,2.02,1.99,2.0,3172000
2015-01-02,1.99,2.05,1.99,2.01,5928000
2015-01-05,2.0,2.13,2.0,2.06,17410000
2015-01-06,2.03,2.13,2.03,2.13,9529000
2015-01-07,2.11,2.14,2.06,2.08,8748000
2015-01-08,2.12,2.34,2.11,2.31,61890000
2015-01-09,2.34,2.35,2.27,2.29,15677000
2015-01-12,2.3,2.3,2.19,2.22,10405000
2015-01-13,2.21,2.29,2.21,2.27,5188000
2015-01-14,2.29,2.37,2.26,2.32,26260000
2015-01-15,2.33,2.35,2.25,2.28,8896000
2015-01-16,2.27,2.3,2.25,2.26,4238000
2015-01-19,2.26,2.26,2.12,2.18,9174000
2015-01-20,2.17,2.3,2.17,2.28,7666000
2015-01-21,2.29,2.34,2.27,2.28,7628000
2015-01-22,2.3,2.3,2.21,2.27,4560000
2015-01-23,2.3,2.3,2.23,2.27,7108000
2015-01-26,2.26,2.3,2.26,2.27,3622000
2015-01-27,2.27,2.29,2.25,2.27,8166000
2015-01-28,2.26,2.27,2.25,2.27,3602000
2015-01-29,2.26,2.41,2.26,2.36,22054000
2015-01-30,2.38,2.4,2.28,2.29,10454000
2015-02-02,2.28,2.28,2.18,2.2,8264000
2015-02-03,2.2,2.23,2.18,2.21,2394000
2015-02-04,2.24,2.24,2.18,2.21,8196000
2015-02-05,2.21,2.23,2.17,2.18,5396000
2015-02-06,2.2,2.2,2.07,2.1,11384000
2015-02-09,2.1,2.12,2.04,2.08,7350000
2015-02-10,2.05,2.13,2.05,2.06,3070000
2015-02-11,2.08,2.11,2.06,2.07,6976000
2015-02-12,2.07,2.11,2.05,2.09,3810000
2015-02-13,2.09,2.1,2.06,2.08,4349000
2015-02-16,2.09,2.2,2.08,2.18,4418000
2015-02-17,2.18,2.23,2.16,2.17,2936000
2015-02-18,2.17,2.2,2.17,2.19,526000
2015-02-23,2.2,2.22,2.12,2.13,2212000
2015-02-24,2.11,2.14,2.06,2.09,4444000
2015-02-25,2.09,2.09,2.05,2.06,4880000
2015-02-26,2.08,2.11,2.07,2.09,3582000
2015-02-27,2.09,2.15,2.08,2.14,3654000
2015-03-02,2.15,2.17,2.06,2.09,11516000
2015-03-03,2.1,2.25,2.09,2.19,26094000
2015-03-04,2.2,2.23,2.16,2.18,8368000
2015-03-05,2.16,2.19,2.13,2.13,3108000
2015-03-06,2.19,2.19,2.13,2.15,2654000
2015-03-09,2.13,2.13,2.07,2.09,5546000
2015-03-10,2.09,2.11,2.08,2.08,2993000
2015-03-11,2.09,2.19,2.07,2.18,12050000
2015-03-12,2.2,2.22,2.12,2.15,6998000
2015-03-13,2.15,2.18,2.1,2.12,4626000
2015-03-16,2.11,2.26,2.11,2.2,15748000
2015-03-17,2.23,2.24,2.18,2.21,6862000
2015-03-18,2.21,2.24,2.17,2.22,9138000
2015-03-19,2.26,2.26,2.18,2.21,6960000
2015-03-20,2.22,2.24,2.16,2.21,5412000
2015-03-23,2.2,2.23,2.15,2.21,6068000
2015-03-24,2.21,2.21,2.18,2.21,4452000
2015-03-25,2.21,2.21,2.18,2.2,3024000
2015-03-26,2.18,2.29,2.17,2.28,18334000
2015-03-27,2.28,2.32,2.25,2.27,8130000
2015-03-30,2.27,2.34,2.21,2.34,11611000
2015-03-31,2.33,2.36,2.27,2.27,13094000
2015-04-01,2.25,2.35,2.25,2.34,12326000
2015-04-02,2.35,2.56,2.32,2.51,40888000
2015-04-08,2.58,2.95,2.57,2.88,84166000
2015-04-09,2.94,3.33,2.66,3.01,70100200
2015-04-10,3.1,3.15,2.87,3.04,27094000
2015-04-13,3.11,3.44,3.11,3.4,45157800
2015-04-14,3.23,3.46,3.11,3.13,30597000
2015-04-15,3.22,3.3,2.9,3.01,34462000
2015-04-16,3.07,3.27,3.03,3.11,42178000
2015-04-17,3.16,3.2,3.03,3.06,24676000
2015-04-20,3.03,3.06,2.84,2.86,21972000
2015-04-21,2.88,2.99,2.86,2.93,11350000
2015-04-22,2.97,3.08,2.95,3.06,22624000
2015-04-23,3.15,3.17,3.04,3.05,13222000
2015-04-24,3.08,3.1,2.9,3.06,9190000
2015-04-27,3.08,3.16,3.06,3.09,16154000
2015-04-28,3.13,3.13,3.01,3.06,11080000
2015-04-29,3.05,3.06,2.98,3.05,9260000
2015-04-30,3.05,3.05,2.96,3.02,13186000
2015-05-04,3.01,3.1,2.99,3.0,15296000
2015-05-05,3.0,3.02,2.87,2.88,19112000
2015-05-06,2.88,2.97,2.86,2.87,9888000
2015-05-07,2.85,2.9,2.81,2.87,10020000
2015-05-08,2.81,2.98,2.81,2.95,10582000
2015-05-11,3.0,3.03,2.84,2.91,13720000
2015-05-12,2.87,2.94,2.83,2.86,12070000
2015-05-13,2.88,2.94,2.86,2.91,7662000
2015-05-14,2.9,3.16,2.85,3.0,47747000
2015-05-15,3.03,3.06,2.91,3.0,28236000
2015-05-18,3.0,3.13,3.0,3.11,24422000
2015-05-19,3.06,3.11,3.02,3.02,15948000
2015-05-20,3.04,3.07,2.98,3.02,6776000
2015-05-21,3.04,3.04,2.92,2.97,6076000
2015-05-22,2.96,2.97,2.91,2.93,9384000
2015-05-26,3.0,3.12,2.97,3.11,39849000
2015-05-27,3.1,3.11,2.99,3.09,15746000
2015-05-28,3.13,3.13,2.98,2.99,20962000
2015-05-29,2.99,3.11,2.98,3.08,20442000
2015-06-01,3.08,3.26,3.01,3.22,22096000
2015-06-02,3.25,3.33,3.13,3.22,22030000
2015-06-03,3.22,3.22,3.07,3.12,10460000
2015-06-04,3.08,3.15,2.98,3.09,21994000
2015-06-05,3.1,3.1,3.02,3.08,9846000
2015-06-08,3.11,3.11,3.04,3.11,13690000
2015-06-09,3.12,3.12,2.99,3.03,12514000
2015-06-10,3.05,3.08,2.95,2.99,14706000
2015-06-11,3.06,3.15,3.02,3.15,39552000
2015-06-12,3.19,3.49,3.15,3.47,97758000
2015-06-15,3.47,3.6,3.2,3.49,51959100
2015-06-16,3.39,3.52,3.24,3.25,27300000
2015-06-17,3.4,3.42,3.22,3.28,48979000
2015-06-18,3.4,3.42,3.08,3.16,32233000
2015-06-19,3.2,3.28,3.11,3.14,26612300
2015-06-22,3.17,3.17,3.07,3.11,8814000
2015-06-23,3.13,3.19,3.08,3.11,17922000
2015-06-24,3.14,3.14,2.96,3.09,31228000
2015-06-25,3.1,3.1,3.01,3.04,14210000
2015-06-26,3.04,3.04,2.92,2.97,15141400
2015-06-29,2.98,3.01,2.66,2.94,17978000
2015-06-30,2.9,3.02,2.76,2.97,15072500
2015-07-02,2.92,2.99,2.82,2.91,11576000
2015-07-03,2.88,2.88,2.57,2.65,13917000
2015-07-06,2.74,2.79,2.0,2.34,24307000
2015-07-07,2.43,2.43,2.04,2.09,26778000
2015-07-08,2.0,2.04,1.53,1.91,46103000
2015-07-09,1.9,2.53,1.81,2.42,40807000
2015-07-10,2.51,2.62,2.37,2.48,31210000
2015-07-13,2.6,2.65,2.5,2.64,31018000
2015-07-14,2.67,2.67,2.54,2.58,10984000
2015-07-15,2.52,2.61,2.52,2.57,9208000
2015-07-16,2.52,2.65,2.49,2.64,5784000
2015-07-17,2.67,2.8,2.67,2.76,10974000
2015-07-20,2.8,2.8,2.7,2.78,5590200
2015-07-21,2.78,2.8,2.74,2.77,3798000
2015-07-22,2.8,2.8,2.71,2.74,4860000
2015-07-23,2.72,2.79,2.72,2.73,2008100
2015-07-24,2.72,2.77,2.63,2.66,5692000
2015-07-27,2.65,2.66,2.38,2.39,9862000
2015-07-28,2.4,2.59,2.36,2.5,5952000
2015-07-29,2.51,2.62,2.44,2.5,4150000
2015-07-30,2.53,2.56,2.45,2.46,4196000
2015-07-31,2.46,2.5,2.38,2.43,6152000
2015-08-03,2.36,2.4,2.29,2.31,7782000
2015-08-04,2.28,2.44,2.24,2.43,7982000
2015-08-05,2.47,2.51,2.36,2.49,4976000
2015-08-06,2.47,2.56,2.45,2.49,3550000
2015-08-07,2.41,2.57,2.41,2.49,3752000
2015-08-10,2.42,2.54,2.42,2.5,5250000
2015-08-11,2.49,2.58,2.46,2.48,3732000
2015-08-12,2.51,2.52,2.4,2.43,3488000
2015-08-13,2.39,2.48,2.39,2.44,2454100
2015-08-14,2.4,2.57,2.4,2.51,3236000
2015-08-17,2.47,2.51,2.41,2.45,1748000
2015-08-18,2.41,2.47,2.36,2.39,1808000
2015-08-19,2.39,2.39,2.14,2.18,9196000
2015-08-20,2.18,2.22,2.0,2.03,17500000
2015-08-21,1.94,2.01,1.79,1.86,21047500
2015-08-24,1.7,1.88,1.7,1.76,9138000
2015-08-25,1.71,1.96,1.7,1.74,11956000
2015-08-26,1.75,1.89,1.72,1.76,11142000
2015-08-27,1.84,1.92,1.8,1.89,10704000
2015-08-28,1.96,1.99,1.87,1.88,8326000
2015-08-31,1.89,1.89,1.82,1.85,3512000
2015-09-01,1.84,1.84,1.77,1.81,4400000
2015-09-02,1.73,1.88,1.73,1.81,3802000
2015-09-04,1.81,1.9,1.8,1.89,5454000
2015-09-07,1.82,1.93,1.82,1.85,1742000
2015-09-08,1.85,1.94,1.85,1.91,2172000
2015-09-09,1.95,1.99,1.93,1.94,7558000
2015-09-10,1.85,1.94,1.85,1.86,5670000
2015-09-11,1.86,1.9,1.82,1.84,5710000
2015-09-14,1.85,1.88,1.81,1.81,2426000
2015-09-15,1.8,1.88,1.8,1.81,5582000
2015-09-16,1.85,1.91,1.84,1.86,4274200
2015-09-17,1.91,1.98,1.88,1.89,8646000
2015-09-18,1.88,1.93,1.87,1.92,9210000
2015-09-21,1.9,1.96,1.86,1.94,5500000
2015-09-22,1.92,2.02,1.92,1.95,13804000
2015-09-23,1.95,1.95,1.83,1.88,8182200
2015-09-24,1.91,1.93,1.87,1.9,3096000
2015-09-25,1.89,1.89,1.87,1.87,6182000
2015-09-29,1.84,1.85,1.78,1.83,5004000
2015-09-30,1.85,1.95,1.81,1.92,4288000
2015-10-02,1.95,1.96,1.91,1.93,4176600
2015-10-05,1.97,1.98,1.89,1.94,5714000
2015-10-06,1.95,1.95,1.89,1.9,3328000
2015-10-07,1.89,1.99,1.87,1.98,7718000
2015-10-08,1.99,2.01,1.93,1.94,10740000
2015-10-09,1.98,2.0,1.92,1.94,17412000
2015-10-12,1.95,2.06,1.95,2.06,30712000
2015-10-13,2.08,2.09,2.03,2.06,7056000
2015-10-14,2.02,2.11,2.01,2.04,15698000
2015-10-15,2.06,2.21,2.03,2.14,24028000
2015-10-16,2.18,2.19,2.09,2.12,13518000
2015-10-19,2.13,2.17,2.09,2.11,24650000
2015-10-20,2.13,2.16,2.1,2.11,9555600
2015-10-22,2.1,2.13,2.05,2.08,8179200
2015-10-23,2.12,2.13,2.07,2.11,7410000
2015-10-26,2.14,2.14,2.04,2.04,3376000
2015-10-27,2.03,2.05,1.97,1.99,9804000
2015-10-28,1.98,1.98,1.92,1.93,3422000
2015-10-29,1.94,1.96,1.87,1.88,9225000
2015-10-30,1.89,1.89,1.81,1.88,6448000
2015-11-02,1.88,1.92,1.84,1.86,3822000
2015-11-03,1.88,1.92,1.85,1.86,4188000
2015-11-04,1.86,2.0,1.86,1.93,10714400
2015-11-05,1.91,1.93,1.88,1.89,3694000
2015-11-06,1.91,1.95,1.89,1.93,4934000
2015-11-09,1.92,1.95,1.89,1.9,2830000
2015-11-10,1.88,1.91,1.86,1.87,3386000
2015-11-11,1.86,1.89,1.84,1.85,2864000
2015-11-12,1.84,1.88,1.84,1.86,1892000
2015-11-13,1.86,1.89,1.8,1.83,4666000
2015-11-16,1.79,1.85,1.78,1.8,4126000
2015-11-17,1.83,1.83,1.75,1.76,7184000
2015-11-18,1.75,1.81,1.75,1.76,3592000
2015-11-19,1.78,1.8,1.75,1.8,3942000
2015-11-20,1.8,1.8,1.76,1.78,3856000
2015-11-23,1.77,1.78,1.7,1.73,10148000
2015-11-24,1.71,1.74,1.7,1.71,5406000
2015-11-25,1.72,1.73,1.69,1.72,5542000
2015-11-26,1.75,1.76,1.63,1.64,8224500
2015-11-27,1.66,1.69,1.59,1.63,13042000
2015-11-30,1.61,1.68,1.57,1.61,21206000
2015-12-01,1.63,1.65,1.6,1.61,8294000
2015-12-02,1.62,1.64,1.6,1.61,5240000
2015-12-03,1.6,1.61,1.57,1.59,7716000
2015-12-04,1.56,1.63,1.56,1.61,6554000
2015-12-07,1.64,1.65,1.61,1.64,7808000
2015-12-08,1.64,1.65,1.59,1.59,8693500
2015-12-09,1.57,1.63,1.49,1.62,14792000
2015-12-10,1.58,1.61,1.53,1.58,9069000
2015-12-11,1.56,1.59,1.49,1.52,10632000
2015-12-14,1.48,1.53,1.45,1.51,5504000
2015-12-15,1.52,1.59,1.52,1.57,4030000
2015-12-16,1.6,1.61,1.53,1.54,5896000
2015-12-17,1.54,1.59,1.53,1.57,6096000
2015-12-18,1.56,1.59,1.53,1.55,6168000
2015-12-21,1.52,1.61,1.52,1.6,4456000
2015-12-22,1.6,1.63,1.57,1.6,4310000
2015-12-23,1.62,1.74,1.61,1.72,11866620
2015-12-24,1.73,1.83,1.73,1.8,12898000
2015-12-28,1.8,1.81,1.7,1.71,7468000
2015-12-29,1.72,1.75,1.71,1.73,2756000
2015-12-30,1.74,1.76,1.69,1.71,3029240
2015-12-31,1.72,1.72,1.69,1.7,846640
2016-01-04,1.7,1.7,1.58,1.6,8962000
2016-01-05,1.57,1.63,1.56,1.6,4732200
2016-01-06,1.6,1.61,1.58,1.59,3450000
2016-01-07,1.55,1.56,1.49,1.52,6316000
2016-01-08,1.55,1.55,1.49,1.5,4600000
2016-01-11,1.45,1.52,1.43,1.48,6198000
2016-01-12,1.48,1.53,1.42,1.43,5218000
2016-01-13,1.48,1.49,1.44,1.45,4826000
2016-01-14,1.4,1.47,1.35,1.43,3698000
2016-01-15,1.43,1.47,1.42,1.42,2758190
2016-01-18,1.4,1.41,1.3,1.34,4532000
2016-01-19,1.32,1.42,1.32,1.4,3198000
2016-01-20,1.37,1.37,1.23,1.26,11766000
2016-01-21,1.25,1.28,1.12,1.13,12870190
2016-01-22,1.15,1.19,1.1,1.16,14334000
2016-01-25,1.19,1.21,1.16,1.17,6472000
2016-01-26,1.13,1.14,1.08,1.09,11794000
2016-01-27,1.12,1.12,1.06,1.07,7533400
2016-01-28,1.06,1.1,1.06,1.09,4332000
2016-01-29,1.08,1.16,1.08,1.14,6748000
2016-02-01,1.16,1.18,1.1,1.11,3758000
2016-02-02,1.09,1.15,1.09,1.14,4168000
2016-02-03,1.09,1.13,1.09,1.09,4949590
2016-02-04,1.09,1.12,1.09,1.11,2300000
2016-02-05,1.11,1.12,1.04,1.06,8246000
2016-02-11,1.01,1.04,0.98,1.0,4570000
2016-02-12,1.0,1.02,0.98,1.01,5710000
2016-02-15,1.02,1.07,1.02,1.06,5728000
2016-02-16,1.07,1.11,1.07,1.09,7180000
2016-02-17,1.11,1.14,1.07,1.09,7586000
2016-02-18,1.12,1.17,1.11,1.15,8354000
2016-02-19,1.15,1.16,1.12,1.16,3002000
2016-02-22,1.18,1.19,1.15,1.18,3016000
2016-02-23,1.18,1.19,1.14,1.15,3191400
2016-02-24,1.16,1.16,1.13,1.15,2266000
2016-02-25,1.14,1.15,1.11,1.12,2144000
2016-02-26,1.15,1.16,1.11,1.15,1864190
2016-02-29,1.14,1.16,1.13,1.16,2346000
2016-03-01,1.15,1.18,1.14,1.17,1576000
2016-03-02,1.19,1.21,1.17,1.19,3784000
2016-03-03,1.2,1.21,1.13,1.15,4744000
2016-03-04,1.17,1.24,1.16,1.22,7366000
2016-03-07,1.24,1.25,1.22,1.22,6536000
2016-03-08,1.23,1.25,1.18,1.21,3304200
2016-03-09,1.18,1.21,1.18,1.2,1720000
2016-03-10,1.22,1.23,1.18,1.2,2450000
2016-03-11,1.18,1.2,1.17,1.19,4008000
2016-03-14,1.22,1.22,1.18,1.21,3753400
2016-03-15,1.21,1.22,1.19,1.22,2034000
2016-03-16,1.21,1.22,1.19,1.21,3124000
2016-03-17,1.19,1.26,1.19,1.25,8590600
2016-03-18,1.26,1.36,1.25,1.36,11446000
2016-03-21,1.38,1.42,1.35,1.38,14481000
2016-03-22,1.4,1.42,1.34,1.36,4007400
2016-03-23,1.36,1.36,1.32,1.34,2152000
2016-03-24,1.3,1.36,1.28,1.33,5780000
2016-03-29,1.31,1.34,1.3,1.31,1620000
2016-03-30,1.31,1.36,1.31,1.34,4804000
2016-03-31,1.33,1.36,1.32,1.33,4310000
2016-04-01,1.35,1.35,1.29,1.33,7282000
2016-04-05,1.33,1.33,1.28,1.29,3992000
2016-04-06,1.29,1.32,1.29,1.31,3806000
2016-04-07,1.3,1.32,1.3,1.31,4100000
2016-04-08,1.28,1.31,1.28,1.29,3458000
2016-04-11,1.29,1.32,1.29,1.32,4214000
2016-04-12,1.32,1.34,1.31,1.33,4615100
2016-04-13,1.34,1.38,1.34,1.37,4888000
2016-04-14,1.4,1.41,1.34,1.38,11560000
2016-04-15,1.38,1.38,1.35,1.35,2512200
2016-04-18,1.34,1.34,1.28,1.33,4602200
2016-04-19,1.35,1.37,1.3,1.36,7482000
2016-04-20,1.36,1.38,1.31,1.33,11114000
2016-04-21,1.34,1.34,1.31,1.33,3594000
2016-04-22,1.33,1.33,1.3,1.31,8932000
2016-04-25,1.31,1.31,1.29,1.29,1680000
2016-04-26,1.29,1.34,1.25,1.26,4318500
2016-04-27,1.26,1.26,1.19,1.21,5590000
2016-04-28,1.21,1.21,1.16,1.19,7804000
2016-04-29,1.18,1.2,1.16,1.18,2856000
2016-05-03,1.21,1.22,1.16,1.17,7508000
2016-05-04,1.16,1.16,1.12,1.13,6914200
2016-05-05,1.11,1.15,1.11,1.12,5100000
2016-05-06,1.11,1.13,1.08,1.08,7604200
2016-05-09,1.08,1.09,1.06,1.06,2576000
2016-05-10,1.04,1.12,1.04,1.11,4572000
2016-05-11,1.13,1.13,1.1,1.12,2036000
2016-05-12,1.11,1.14,1.1,1.11,2676000
2016-05-13,1.1,1.12,1.07,1.08,3752000
2016-05-16,1.08,1.1,1.07,1.09,1176000
2016-05-17,1.1,1.14,1.08,1.12,5348000
2016-05-18,1.09,1.12,1.09,1.11,2280000
2016-05-19,1.09,1.13,1.09,1.1,2692000
2016-05-20,1.09,1.11,1.09,1.1,650000
2016-05-23,1.1,1.11,1.09,1.1,832000
2016-05-24,1.09,1.1,1.08,1.1,1882000
2016-05-25,1.12,1.12,1.1,1.1,2336000
2016-05-26,1.1,1.11,1.08,1.08,1991000
2016-05-27,1.08,1.09,1.07,1.07,2474000
2016-05-30,1.07,1.1,1.07,1.1,3278000
2016-05-31,1.09,1.13,1.09,1.12,4840000
2016-06-01,1.14,1.2,1.12,1.16,11770000
2016-06-02,1.17,1.18,1.15,1.18,3284000
2016-06-03,1.16,1.22,1.16,1.21,6130000
2016-06-06,1.2,1.22,1.18,1.2,5678000
2016-06-07,1.2,1.21,1.18,1.19,4820100
2016-06-08,1.2,1.21,1.17,1.21,8414200
2016-06-10,1.19,1.2,1.15,1.15,3332000
2016-06-13,1.12,1.15,1.1,1.12,5454000
2016-06-14,1.1,1.13,1.1,1.11,1152000
2016-06-15,1.1,1.14,1.08,1.08,3626000
2016-06-16,1.09,1.1,1.08,1.08,2562000
2016-06-17,1.09,1.11,1.07,1.09,3912000
2016-06-20,1.09,1.09,1.05,1.06,5842000
2016-06-21,1.06,1.08,1.06,1.07,1400000
2016-06-22,1.07,1.12,1.06,1.1,2646000
2016-06-23,1.1,1.12,1.09,1.09,1468000
2016-06-24,1.08,1.11,1.02,1.02,14278000
2016-06-27,1.0,1.05,1.0,1.04,1942000
2016-06-28,1.02,1.05,1.02,1.03,2962000
2016-06-29,1.04,1.05,1.03,1.03,5166000
2016-06-30,1.06,1.07,1.04,1.05,3156000
2016-07-04,1.05,1.08,1.03,1.08,3114000
2016-07-05,1.08,1.08,1.06,1.06,1416000
2016-07-06,1.06,1.07,1.05,1.05,1148000
2016-07-07,1.06,1.06,1.05,1.06,868000
2016-07-08,1.05,1.11,1.05,1.1,2534000
2016-07-11,1.15,1.16,1.12,1.15,7852000
2016-07-12,1.17,1.18,1.14,1.17,3860000
2016-07-13,1.18,1.18,1.15,1.16,2666000
2016-07-14,1.15,1.16,1.13,1.15,2182000
2016-07-15,1.15,1.15,1.12,1.13,5174000
2016-07-18,1.14,1.14,1.12,1.13,1914000
2016-07-19,1.13,1.14,1.12,1.13,648000
2016-07-20,1.13,1.14,1.11,1.14,2032000
2016-07-21,1.13,1.22,1.13,1.22,14214000
2016-07-22,1.17,1.18,1.15,1.15,5280000
2016-07-25,1.15,1.17,1.15,1.15,2020000
2016-07-26,1.15,1.17,1.15,1.17,3734000
2016-07-27,1.17,1.19,1.15,1.16,3892000
2016-07-28,1.15,1.16,1.14,1.15,1916000
2016-07-29,1.15,1.15,1.12,1.14,3423200
2016-08-01,1.14,1.15,1.13,1.15,1850000
2016-08-03,1.13,1.15,1.13,1.14,1978000
2016-08-04,1.15,1.16,1.13,1.14,2300000
2016-08-05,1.15,1.18,1.14,1.17,4898000
2016-08-08,1.18,1.2,1.16,1.19,5304000
2016-08-09,1.19,1.2,1.17,1.18,3596000
2016-08-10,1.19,1.2,1.18,1.19,5598000
2016-08-11,1.19,1.29,1.19,1.27,12530000
2016-08-12,1.28,1.3,1.26,1.27,7322000
2016-08-15,1.27,1.3,1.26,1.28,6186000
2016-08-16,1.29,1.3,1.27,1.27,4796000
2016-08-17,1.26,1.36,1.26,1.29,12957600
2016-08-18,1.29,1.29,1.26,1.29,5456000
2016-08-19,1.31,1.33,1.28,1.3,4008000
2016-08-22,1.29,1.3,1.27,1.27,3556000
2016-08-23,1.26,1.26,1.22,1.25,3764000
2016-08-24,1.23,1.25,1.23,1.24,2832000
2016-08-25,1.27,1.28,1.24,1.28,1638000
2016-08-26,1.27,1.3,1.26,1.27,1144000
2016-08-29,1.26,1.27,1.25,1.26,1284000
2016-08-30,1.26,1.29,1.25,1.29,1034000
2016-08-31,1.28,1.29,1.27,1.27,1756000
2016-09-01,1.28,1.29,1.26,1.26,1198000
2016-09-02,1.27,1.27,1.25,1.26,1128000
2016-09-05,1.27,1.32,1.27,1.3,3252000
2016-09-06,1.3,1.31,1.28,1.31,3690000
2016-09-07,1.3,1.31,1.27,1.28,5840000
2016-09-08,1.28,1.29,1.27,1.28,2618000
2016-09-09,1.28,1.35,1.26,1.33,17328000
2016-09-12,1.29,1.31,1.26,1.27,6125600
2016-09-13,1.29,1.3,1.25,1.26,2684000
2016-09-14,1.25,1.25,1.22,1.24,3399000
2016-09-15,1.24,1.26,1.23,1.24,1878000
2016-09-19,1.25,1.28,1.25,1.28,2358000
2016-09-20,1.26,1.28,1.26,1.27,1958000
2016-09-21,1.28,1.29,1.27,1.28,2290000
2016-09-22,1.29,1.33,1.29,1.31,5004000
2016-09-23,1.31,1.31,1.28,1.28,674000
2016-09-26,1.27,1.27,1.2,1.21,8582000
2016-09-27,1.21,1.24,1.21,1.23,860000
2016-09-28,1.23,1.23,1.22,1.23,858000
2016-09-29,1.24,1.24,1.22,1.22,1122000
2016-09-30,1.22,1.23,1.18,1.19,4104000
2016-10-03,1.17,1.19,1.14,1.15,11843000
2016-10-04,1.14,1.2,1.14,1.18,2000000
2016-10-05,1.18,1.21,1.18,1.2,1384000
2016-10-06,1.2,1.2,1.19,1.2,2828000
2016-10-07,1.21,1.21,1.19,1.2,3526000
2016-10-11,1.2,1.22,1.16,1.18,3690000
2016-10-12,1.18,1.18,1.14,1.17,1380000
2016-10-13,1.16,1.18,1.14,1.14,2706000
2016-10-14,1.14,1.19,1.14,1.18,2320000
2016-10-17,1.18,1.19,1.14,1.15,2258000
2016-10-18,1.17,1.18,1.15,1.18,1140000
2016-10-19,1.19,1.19,1.16,1.17,1166000
2016-10-20,1.18,1.21,1.17,1.18,2368000
2016-10-24,1.19,1.2,1.17,1.2,2022000
2016-10-25,1.19,1.2,1.18,1.19,1146000
2016-10-26,1.18,1.19,1.15,1.15,1918000
2016-10-27,1.15,1.16,1.14,1.14,5450000
2016-10-28,1.14,1.16,1.13,1.13,6836000
2016-10-31,1.13,1.14,1.13,1.13,2666000
2016-11-01,1.15,1.15,1.13,1.15,660000
2016-11-02,1.14,1.14,1.12,1.12,2590000
2016-11-03,1.11,1.13,1.1,1.11,2036000
2016-11-04,1.1,1.13,1.1,1.12,1948000
2016-11-07,1.13,1.13,1.11,1.12,2942000
2016-11-08,1.13,1.14,1.13,1.13,868000
2016-11-09,1.14,1.16,1.1,1.14,7524000
2016-11-10,1.16,1.18,1.14,1.17,4080000
2016-11-11,1.17,1.19,1.15,1.17,4524000
2016-11-14,1.17,1.18,1.12,1.13,2854000
2016-11-15,1.13,1.16,1.13,1.15,938000
2016-11-16,1.17,1.17,1.14,1.15,1602000
2016-11-17,1.16,1.17,1.14,1.15,1124000
2016-11-18,1.15,1.16,1.14,1.16,1300000
2016-11-21,1.16,1.17,1.14,1.15,2340000
2016-11-22,1.17,1.17,1.15,1.15,2044000
2016-11-23,1.15,1.17,1.14,1.14,1906000
2016-11-24,1.14,1.15,1.13,1.14,2660000
2016-11-25,1.13,1.14,1.13,1.14,2260000
2016-11-28,1.16,1.19,1.14,1.19,7412000
2016-11-29,1.17,1.23,1.17,1.23,6782000
2016-11-30,1.23,1.24,1.2,1.22,2006000
2016-12-01,1.21,1.22,1.19,1.2,4268000
2016-12-02,1.21,1.22,1.19,1.19,4948000
2016-12-05,1.21,1.26,1.21,1.24,9940000
2016-12-06,1.25,1.25,1.22,1.22,6004000
2016-12-07,1.24,1.24,1.22,1.24,4590000
2016-12-08,1.26,1.27,1.21,1.23,9514000
2016-12-09,1.21,1.23,1.19,1.21,6300000
2016-12-12,1.21,1.21,1.17,1.19,3048000
2016-12-13,1.19,1.21,1.17,1.19,3566000
2016-12-14,1.2,1.21,1.18,1.19,1364000
2016-12-15,1.19,1.19,1.15,1.17,3193000
2016-12-16,1.17,1.17,1.13,1.14,4204000
2016-12-19,1.15,1.15,1.11,1.11,3872000
2016-12-20,1.12,1.14,1.12,1.14,2172000
2016-12-21,1.15,1.15,1.12,1.13,1026000
2016-12-22,1.14,1.16,1.13,1.14,1532000
2016-12-23,1.13,1.14,1.12,1.13,1452000
2016-12-28,1.12,1.13,1.12,1.12,2094000
2016-12-29,1.13,1.14,1.12,1.13,816000
2016-12-30,1.14,1.15,1.12,1.15,1354000
2017-01-03,1.13,1.15,1.13,1.14,812800
2017-01-04,1.14,1.14,1.08,1.12,5416000
2017-01-05,1.12,1.14,1.12,1.13,2378400
2017-01-06,1.14,1.15,1.12,1.12,2526000
2017-01-09,1.12,1.14,1.12,1.13,3932000
2017-01-10,1.13,1.15,1.13,1.13,4036000
2017-01-11,1.13,1.15,1.13,1.14,1544000
2017-01-12,1.14,1.17,1.14,1.16,2694000
2017-01-13,1.15,1.16,1.15,1.15,1258000
2017-01-16,1.15,1.15,1.12,1.12,2746000
2017-01-17,1.12,1.18,1.12,1.16,2982500
2017-01-18,1.17,1.19,1.16,1.18,6122000
2017-01-19,1.17,1.19,1.16,1.18,1880000
2017-01-20,1.18,1.19,1.17,1.17,2932000
2017-01-23,1.18,1.21,1.15,1.18,5346000
2017-01-24,1.18,1.22,1.16,1.21,7626000
2017-01-25,1.22,1.23,1.17,1.18,4108000
2017-01-26,1.19,1.2,1.18,1.18,2504000
2017-01-27,1.17,1.18,1.17,1.17,246000
2017-02-01,1.19,1.19,1.14,1.15,5436000
2017-02-02,1.16,1.17,1.14,1.15,2564000
2017-02-03,1.16,1.17,1.15,1.15,3532400
2017-02-06,1.15,1.22,1.15,1.2,17358000
2017-02-07,1.19,1.22,1.19,1.2,9480000
2017-02-08,1.2,1.23,1.2,1.21,9422000
2017-02-09,1.21,1.23,1.2,1.23,12098000
2017-02-10,1.22,1.3,1.22,1.28,23528000
2017-02-13,1.29,1.32,1.28,1.29,10218000
2017-02-14,1.29,1.31,1.27,1.28,7908000
2017-02-15,1.28,1.35,1.28,1.31,27338000
2017-02-16,1.32,1.33,1.29,1.29,11772100
2017-02-17,1.28,1.29,1.25,1.27,7248000
2017-02-20,1.27,1.28,1.26,1.28,3666000
2017-02-21,1.27,1.28,1.23,1.24,8960000
2017-02-22,1.24,1.27,1.24,1.24,10742000
2017-02-23,1.25,1.27,1.22,1.24,15174000
2017-02-24,1.24,1.25,1.23,1.23,9905600
2017-02-27,1.24,1.25,1.23,1.24,3004000
2017-02-28,1.24,1.25,1.22,1.23,2610000
2017-03-01,1.23,1.25,1.23,1.25,2410000
2017-03-02,1.26,1.27,1.24,1.24,9746000
2017-03-03,1.25,1.25,1.22,1.23,3312000
2017-03-06,1.23,1.26,1.23,1.26,3602000
2017-03-07,1.26,1.27,1.24,1.26,7296000
2017-03-08,1.25,1.26,1.23,1.26,6166000
2017-03-09,1.26,1.26,1.22,1.23,8478000
2017-03-10,1.23,1.23,1.2,1.22,4353000
2017-03-13,1.22,1.23,1.2,1.22,7768000
2017-03-14,1.22,1.23,1.21,1.23,1972000
2017-03-15,1.22,1.24,1.17,1.2,13006000
2017-03-16,1.21,1.24,1.2,1.24,11508000
2017-03-17,1.23,1.25,1.21,1.22,4264000
2017-03-20,1.22,1.26,1.21,1.24,7478000
2017-03-21,1.24,1.27,1.24,1.25,13140000
2017-03-22,1.24,1.29,1.23,1.29,22736000
2017-03-23,1.29,1.32,1.28,1.3,13838000
2017-03-24,1.31,1.32,1.27,1.27,8098000
2017-03-27,1.31,1.31,1.26,1.27,7664000
2017-03-28,1.27,1.28,1.26,1.28,3532000
2017-03-29,1.27,1.27,1.25,1.26,4248000
2017-03-30,1.25,1.26,1.23,1.25,4988000
2017-03-31,1.23,1.25,1.23,1.24,3834000
2017-04-03,1.24,1.26,1.23,1.25,2986000
2017-04-05,1.25,1.28,1.25,1.26,7998000
2017-04-06,1.26,1.26,1.24,1.26,2166000
2017-04-07,1.26,1.26,1.23,1.24,4266000
2017-04-10,1.24,1.25,1.23,1.23,4820000
2017-04-11,1.24,1.24,1.22,1.22,3998000
2017-04-12,1.24,1.24,1.21,1.22,2604000
2017-04-13,1.22,1.26,1.21,1.26,7496000
2017-04-18,1.25,1.25,1.2,1.21,9440000
2017-04-19,1.21,1.21,1.19,1.21,5170000
2017-04-20,1.21,1.22,1.2,1.22,1524000
2017-04-21,1.22,1.23,1.2,1.2,3572000
2017-04-24,1.2,1.21,1.16,1.21,8572000
2017-04-25,1.21,1.22,1.2,1.2,2754000
2017-04-26,1.2,1.22,1.19,1.19,2948000
2017-04-27,1.19,1.2,1.17,1.19,3741500
2017-04-28,1.19,1.19,1.13,1.15,20198000
2017-05-02,1.14,1.15,1.11,1.13,15114000
2017-05-04,1.13,1.15,1.11,1.12,13872000
2017-05-05,1.12,1.12,1.1,1.12,7150644
2017-05-08,1.12,1.12,1.1,1.1,1736000
2017-05-09,1.12,1.14,1.11,1.14,4292000
2017-05-10,1.14,1.15,1.13,1.13,4472000
2017-05-11,1.14,1.14,1.12,1.14,1358000
2017-05-12,1.13,1.13,1.11,1.11,2242000
2017-05-15,1.11,1.15,1.11,1.15,3434000
2017-05-16,1.15,1.17,1.13,1.16,4804000
2017-05-17,1.16,1.17,1.12,1.15,9048000
2017-05-18,1.13,1.16,1.12,1.15,6488000
2017-05-19,1.16,1.16,1.11,1.15,5746000
2017-05-22,1.15,1.15,1.13,1.13,1496000
2017-05-23,1.14,1.16,1.13,1.14,5936000
2017-05-24,1.14,1.15,1.13,1.15,1226000
2017-05-25,1.15,1.18,1.15,1.16,2524000
2017-05-26,1.13,1.17,1.13,1.15,3308000
2017-05-29,1.16,1.16,1.13,1.15,1206000
2017-05-31,1.14,1.15,1.12,1.14,2954000
2017-06-01,1.14,1.15,1.13,1.14,3110000
2017-06-02,1.14,1.14,1.12,1.13,3132000
2017-06-05,1.14,1.15,1.13,1.15,2330000
2017-06-06,1.14,1.16,1.13,1.13,2268000
2017-06-07,1.13,1.15,1.13,1.14,844000
2017-06-08,1.14,1.16,1.13,1.15,3798000
2017-06-09,1.16,1.16,1.14,1.15,3250000
2017-06-12,1.14,1.15,1.13,1.13,1562000
2017-06-13,1.14,1.14,1.13,1.13,2192000
2017-06-14,1.14,1.15,1.12,1.12,2682000
2017-06-15,1.12,1.14,1.11,1.13,4988000
2017-06-16,1.13,1.13,1.1,1.12,4120000
2017-06-19,1.12,1.12,1.1,1.11,4558000
2017-06-20,1.1,1.11,1.07,1.07,5704000
2017-06-21,1.07,1.11,1.07,1.1,3448000
2017-06-22,1.11,1.11,1.09,1.11,2748000
2017-06-23,1.1,1.11,1.08,1.1,3214000
2017-06-26,1.09,1.11,1.09,1.1,2206000
2017-06-27,1.1,1.11,1.08,1.1,5776000
2017-06-28,1.08,1.09,1.07,1.08,1992000
2017-06-29,1.1,1.1,1.08,1.09,2020000
2017-06-30,1.08,1.09,1.07,1.07,3116000
2017-07-03,1.08,1.09,1.07,1.07,5086000
2017-07-04,1.09,1.09,1.07,1.08,3176000
2017-07-05,1.08,1.1,1.07,1.09,3740000
2017-07-06,1.09,1.1,1.08,1.09,3922000
2017-07-07,1.09,1.09,1.08,1.09,5208000
2017-07-10,1.08,1.09,1.08,1.09,1490000
2017-07-11,1.09,1.1,1.08,1.09,3034000
2017-07-12,1.1,1.14,1.09,1.12,8056000
2017-07-13,1.12,1.14,1.11,1.13,5496000
2017-07-14,1.13,1.15,1.13,1.14,4672000
2017-07-17,1.15,1.17,1.13,1.15,5134000
2017-07-18,1.13,1.15,1.13,1.15,1588000
2017-07-19,1.15,1.16,1.13,1.16,2430000
2017-07-20,1.16,1.17,1.14,1.16,3690678
2017-07-21,1.16,1.16,1.14,1.14,3142000
2017-07-24,1.15,1.15,1.12,1.14,2036000
2017-07-25,1.15,1.15,1.12,1.13,1312000
2017-07-26,1.13,1.13,1.11,1.11,2480000
2017-07-27,1.11,1.13,1.11,1.12,1302000
2017-07-28,1.12,1.14,1.12,1.12,2274000
2017-07-31,1.12,1.13,1.11,1.13,2470000
2017-08-01,1.12,1.14,1.11,1.14,4296000
2017-08-02,1.13,1.13,1.12,1.13,1550000
2017-08-03,1.13,1.13,1.12,1.12,2604000
2017-08-04,1.12,1.13,1.11,1.13,858000
2017-08-07,1.13,1.13,1.12,1.12,1630000
2017-08-08,1.12,1.13,1.11,1.12,2864000
2017-08-09,1.13,1.13,1.09,1.1,5508000
2017-08-10,1.1,1.11,1.08,1.09,2866000
2017-08-11,1.09,1.09,1.07,1.07,4226000
2017-08-14,1.07,1.11,1.07,1.1,2992000
2017-08-15,1.11,1.11,1.09,1.09,1316000
2017-08-16,1.09,1.1,1.06,1.1,4390000
2017-08-17,1.09,1.1,1.07,1.09,5418000
2017-08-18,1.09,1.1,1.06,1.07,7396000
2017-08-21,1.07,1.1,1.07,1.07,5794000
2017-08-22,1.08,1.09,1.07,1.08,2336000
2017-08-24,1.08,1.1,1.08,1.1,2124000
2017-08-25,1.1,1.1,1.08,1.08,2732000
2017-08-28,1.09,1.09,1.03,1.04,11216000
2017-08-29,1.05,1.06,1.04,1.05,6186000
2017-08-30,1.05,1.06,1.02,1.04,5684400
2017-08-31,1.04,1.05,1.0,1.01,6662000
2017-09-01,1.02,1.03,1.01,1.01,5454000
2017-09-04,1.02,1.03,1.0,1.02,3036000
2017-09-05,1.02,1.05,1.02,1.05,3184000
2017-09-06,1.05,1.05,1.03,1.04,1154000
2017-09-07,1.06,1.06,1.05,1.06,2596000
2017-09-08,1.05,1.06,1.03,1.03,1638000
2017-09-11,1.04,1.05,1.03,1.04,2550000
2017-09-12,1.05,1.06,1.04,1.05,1790000
2017-09-13,1.06,1.06,1.02,1.04,6645000
2017-09-14,1.04,1.04,1.02,1.02,3580000
2017-09-15,1.02,1.05,1.02,1.02,3664000
2017-09-18,1.04,1.07,1.04,1.06,5340000
2017-09-19,1.05,1.09,1.05,1.08,4450000
2017-09-20,1.08,1.09,1.06,1.08,3959000
2017-09-21,1.08,1.08,1.06,1.07,2136000
2017-09-22,1.07,1.07,1.06,1.06,1254000
2017-09-25,1.06,1.07,1.05,1.05,1894000
2017-09-26,1.05,1.06,1.04,1.04,1640000
2017-09-27,1.04,1.07,1.04,1.05,4136000
2017-09-28,1.05,1.06,1.04,1.05,530000
2017-09-29,1.05,1.09,1.05,1.07,2076000
2017-10-03,1.08,1.09,1.06,1.07,858000
2017-10-04,1.08,1.09,1.06,1.07,1080000
2017-10-06,1.09,1.1,1.07,1.09,2110000
2017-10-09,1.09,1.1,1.07,1.1,3574000
2017-10-10,1.1,1.1,1.08,1.08,3214000
2017-10-11,1.08,1.09,1.07,1.08,5898000
2017-10-12,1.08,1.09,1.06,1.08,8736000
2017-10-13,1.07,1.08,1.07,1.08,4792000
2017-10-16,1.08,1.11,1.07,1.11,13730000
2017-10-17,1.11,1.11,1.09,1.1,4020000
2017-10-18,1.1,1.11,1.08,1.1,3812000
2017-10-19,1.11,1.2,1.11,1.13,26356000
2017-10-20,1.14,1.21,1.14,1.21,18980000
2017-10-23,1.22,1.22,1.18,1.2,6304000
2017-10-24,1.2,1.2,1.15,1.17,4728000
2017-10-25,1.17,1.17,1.14,1.16,2882000
2017-10-26,1.14,1.17,1.13,1.14,4312000
2017-10-27,1.15,1.17,1.14,1.16,4948000
2017-10-30,1.16,1.17,1.14,1.16,2118000
2017-10-31,1.16,1.18,1.15,1.17,4010000
2017-11-01,1.17,1.18,1.15,1.16,1402000
2017-11-02,1.16,1.17,1.13,1.14,3334000
2017-11-03,1.14,1.15,1.13,1.15,2166000
2017-11-06,1.14,1.17,1.14,1.17,5612000
2017-11-07,1.16,1.17,1.14,1.16,4134000
2017-11-08,1.15,1.19,1.15,1.18,8364563
2017-11-09,1.18,1.19,1.16,1.18,7298000
2017-11-10,1.18,1.18,1.15,1.16,2516000
2017-11-13,1.15,1.18,1.13,1.17,8286000
2017-11-14,1.16,1.17,1.14,1.14,1542000
2017-11-15,1.14,1.15,1.13,1.15,2510000
2017-11-16,1.14,1.15,1.13,1.14,1736000
2017-11-17,1.15,1.15,1.1,1.11,7504000
2017-11-20,1.09,1.1,1.08,1.1,7098000
2017-11-21,1.1,1.13,1.09,1.12,4438000
2017-11-22,1.1,1.13,1.08,1.13,4050000
2017-11-23,1.12,1.2,1.12,1.16,10324000
2017-11-24,1.17,1.17,1.1,1.12,8356000
2017-11-27,1.12,1.12,1.11,1.12,2996000
2017-11-28,1.11,1.12,1.09,1.12,3702000
2017-11-29,1.11,1.13,1.11,1.11,846000
2017-11-30,1.11,1.13,1.11,1.13,722000
2017-12-01,1.13,1.13,1.1,1.12,1374000
2017-12-04,1.1,1.12,1.1,1.11,910000
2017-12-05,1.1,1.13,1.1,1.12,1506000
2017-12-06,1.11,1.12,1.08,1.1,6542000
2017-12-07,1.09,1.11,1.08,1.11,1748000
2017-12-08,1.1,1.11,1.09,1.1,424000
2017-12-11,1.1,1.11,1.09,1.09,1442000
2017-12-12,1.09,1.1,1.08,1.1,2088000
2017-12-13,1.09,1.11,1.08,1.09,672000
2017-12-14,1.09,1.1,1.09,1.1,444000
2017-12-15,1.1,1.1,1.08,1.08,844000
2017-12-18,1.09,1.12,1.09,1.1,1354000
2017-12-19,1.09,1.1,1.07,1.08,3564000
2017-12-20,1.07,1.08,1.05,1.07,2118000
2017-12-21,1.06,1.11,1.06,1.1,3158092
2017-12-22,1.1,1.11,1.09,1.1,1072000
2017-12-27,1.09,1.1,1.08,1.1,1662000
2017-12-28,1.1,1.1,1.08,1.08,768000
2017-12-29,1.09,1.12,1.08,1.1,1314000
2018-01-02,1.1,1.18,1.1,1.16,6913180
2018-01-03,1.15,1.19,1.14,1.15,4512000
2018-01-04,1.15,1.16,1.14,1.15,930770
2018-01-05,1.15,1.15,1.13,1.15,794000
2018-01-08,1.14,1.16,1.14,1.14,1184000
2018-01-09,1.16,1.16,1.14,1.14,1430000
2018-01-10,1.15,1.15,1.12,1.13,1544000
2018-01-11,1.13,1.14,1.12,1.12,3062000
2018-01-12,1.13,1.15,1.12,1.12,5936000
2018-01-15,1.13,1.14,1.1,1.1,3450000
2018-01-16,1.1,1.12,1.08,1.11,5362000
2018-01-17,1.11,1.11,1.08,1.1,3142000
2018-01-18,1.1,1.12,1.09,1.11,3078000
2018-01-19,1.1,1.12,1.1,1.1,1336000
2018-01-22,1.11,1.13,1.1,1.12,2934000
2018-01-23,1.12,1.12,1.1,1.1,3268000
2018-01-24,1.1,1.11,1.09,1.11,4624000
2018-01-25,1.12,1.18,1.12,1.15,15296000
2018-01-26,1.16,1.16,1.13,1.14,7388000
2018-01-29,1.15,1.15,1.13,1.14,3562000
2018-01-30,1.11,1.14,1.11,1.12,5330000
2018-01-31,1.12,1.13,1.1,1.12,2982000
2018-02-01,1.13,1.13,1.1,1.11,3654000
2018-02-02,1.11,1.13,1.1,1.13,1662000
2018-02-05,1.11,1.12,1.1,1.11,2496000
2018-02-06,1.1,1.1,1.03,1.04,10274000
2018-02-07,1.05,1.07,0.99,1.01,14794000
2018-02-08,1.0,1.02,0.99,1.01,4234000
2018-02-09,1.0,1.0,0.96,0.98,6484000
2018-02-12,0.99,1.0,0.96,0.96,5636000
2018-02-13,0.96,1.01,0.96,0.99,1614000
2018-02-14,0.99,1.02,0.99,1.01,936000
2018-02-15,1.02,1.03,1.01,1.03,920000
2018-02-20,1.03,1.03,1.01,1.02,1936000
2018-02-21,1.03,1.03,1.01,1.02,1008000
2018-02-22,1.02,1.05,1.01,1.04,5828000
2018-02-23,1.04,1.06,1.03,1.05,3664000
2018-02-26,1.06,1.06,1.04,1.05,4290000
2018-02-27,1.05,1.06,1.05,1.05,3730000
2018-02-28,1.06,1.06,1.0,1.06,3096770
2018-03-01,1.05,1.05,1.04,1.05,614000
2018-03-02,1.04,1.05,1.02,1.03,1733400
2018-03-05,1.03,1.03,1.01,1.01,1016000
2018-03-06,1.03,1.06,1.01,1.03,1236000
2018-03-07,1.04,1.04,1.02,1.03,618000
2018-03-08,1.04,1.06,1.03,1.06,1972000
2018-03-09,1.06,1.06,1.04,1.05,364000
2018-03-12,1.05,1.06,1.02,1.04,1340000
2018-03-13,1.04,1.04,1.01,1.01,2890000
2018-03-14,1.03,1.03,1.01,1.02,416000
2018-03-15,1.02,1.08,1.02,1.03,5248000
2018-03-16,1.03,1.04,1.02,1.02,1980000
2018-03-19,1.03,1.03,1.01,1.03,1228000
2018-03-20,1.03,1.04,1.02,1.03,2116000
2018-03-21,1.03,1.05,1.03,1.04,1620000
2018-03-22,1.05,1.09,1.03,1.09,8371200
2018-03-23,1.08,1.08,1.02,1.06,3938000
2018-03-26,1.06,1.09,1.04,1.06,2012000
2018-03-27,1.08,1.09,1.06,1.08,2422000
2018-03-28,1.08,1.08,1.05,1.05,548000
2018-03-29,1.05,1.07,1.04,1.06,602000
2018-04-03,1.06,1.06,1.02,1.03,1018000
2018-04-04,1.05,1.08,1.03,1.07,1778000
2018-04-06,1.07,1.07,1.06,1.07,372000
2018-04-09,1.07,1.09,1.05,1.06,540000
2018-04-10,1.06,1.09,1.04,1.09,3596000
2018-04-11,1.09,1.11,1.07,1.08,2872000
2018-04-12,1.1,1.1,1.08,1.1,686000
2018-04-13,1.1,1.13,1.1,1.12,6366000
2018-04-16,1.1,1.12,1.08,1.1,2270000
2018-04-17,1.1,1.11,1.06,1.08,482000
2018-04-18,1.08,1.09,1.05,1.06,3916000
2018-04-19,1.09,1.09,1.06,1.06,772000
2018-04-20,1.06,1.08,1.06,1.06,652800
2018-04-23,1.06,1.07,1.04,1.04,1526000
2018-04-24,1.04,1.07,1.04,1.05,466000
2018-04-25,1.05,1.08,1.03,1.04,924000
2018-04-26,1.04,1.04,1.01,1.03,2858000
2018-04-27,1.03,1.05,1.03,1.03,734000
2018-04-30,1.03,1.07,1.03,1.06,1110000
2018-05-02,1.05,1.08,1.05,1.07,1218000
2018-05-03,1.05,1.1,1.04,1.09,2744000
2018-05-04,1.07,1.12,1.07,1.11,2040000
2018-05-07,1.11,1.11,1.08,1.09,580000
2018-05-08,1.08,1.09,1.06,1.07,776000
2018-05-09,1.06,1.09,1.06,1.09,396000
2018-05-10,1.1,1.13,1.09,1.12,3476000
2018-05-11,1.12,1.13,1.1,1.1,1212000
2018-05-14,1.1,1.13,1.09,1.1,930000
2018-05-15,1.1,1.16,1.1,1.14,3676000
2018-05-16,1.15,1.15,1.13,1.13,984000
2018-05-17,1.13,1.15,1.13,1.14,616000
2018-05-18,1.15,1.15,1.12,1.12,642000
2018-05-21,1.13,1.14,1.12,1.13,1620000
2018-05-23,1.17,1.34,1.17,1.33,53514000
2018-05-24,1.33,1.48,1.33,1.41,45998000
2018-05-25,1.41,1.41,1.34,1.39,10140000
2018-05-28,1.37,1.4,1.35,1.38,6418000
2018-05-29,1.39,1.42,1.31,1.39,11584000
2018-05-30,1.39,1.39,1.36,1.39,4138000
2018-05-31,1.4,1.44,1.38,1.39,5746000
2018-06-01,1.39,1.42,1.37,1.42,7184000
2018-06-04,1.41,1.41,1.32,1.35,8024000
2018-06-05,1.37,1.38,1.34,1.36,3606000
2018-06-06,1.38,1.38,1.3,1.32,8604000
2018-06-07,1.32,1.36,1.31,1.32,7736000
2018-06-08,1.32,1.34,1.31,1.33,1670000
2018-06-11,1.34,1.34,1.31,1.34,2792000
2018-06-12,1.32,1.36,1.31,1.34,3060000
2018-06-13,1.34,1.36,1.33,1.34,1604000
2018-06-14,1.34,1.42,1.34,1.38,11058000
2018-06-15,1.38,1.41,1.37,1.4,8558000
2018-06-19,1.39,1.43,1.34,1.37,23290000
2018-06-20,1.37,1.39,1.36,1.38,4396000
2018-06-21,1.37,1.49,1.36,1.47,17328380
2018-06-22,1.48,1.51,1.38,1.49,8260000
2018-06-25,1.49,1.54,1.46,1.46,7856000
2018-06-26,1.42,1.47,1.41,1.45,5064000
2018-06-27,1.45,1.45,1.37,1.39,5026000
2018-06-28,1.37,1.41,1.37,1.38,2468000
2018-06-29,1.38,1.42,1.37,1.39,1816139
2018-07-03,1.39,1.44,1.35,1.44,4552000
2018-07-04,1.44,1.46,1.39,1.41,2066000
2018-07-05,1.4,1.4,1.31,1.35,1760000
2018-07-06,1.3,1.35,1.29,1.32,4228000
2018-07-09,1.34,1.38,1.32,1.38,2430000
2018-07-10,1.36,1.38,1.34,1.38,1170000
2018-07-11,1.32,1.37,1.26,1.32,1502000
2018-07-12,1.3,1.38,1.3,1.37,948000
2018-07-13,1.37,1.39,1.36,1.38,479475
2018-07-16,1.38,1.38,1.36,1.38,868000
2018-07-17,1.36,1.38,1.34,1.35,1506000
2018-07-18,1.39,1.39,1.35,1.36,2068000
2018-07-19,1.36,1.36,1.34,1.35,2104000
2018-07-20,1.35,1.38,1.32,1.37,3116000
2018-07-23,1.36,1.38,1.33,1.36,1006000
2018-07-24,1.36,1.42,1.35,1.39,5288000
2018-07-25,1.38,1.38,1.34,1.35,1690000
2018-07-26,1.35,1.35,1.33,1.35,220000
2018-07-27,1.35,1.37,1.32,1.34,1068000
2018-07-30,1.32,1.33,1.24,1.24,5918000
2018-07-31,1.28,1.29,1.24,1.28,4572000
2018-08-01,1.27,1.27,1.22,1.22,1454000
2018-08-02,1.22,1.25,1.21,1.23,1632000
2018-08-03,1.22,1.23,1.18,1.18,964000
2018-08-06,1.19,1.2,1.13,1.13,3264000
2018-08-07,1.16,1.23,1.15,1.23,2212000
2018-08-08,1.23,1.23,1.16,1.17,1394000
2018-08-09,1.17,1.2,1.16,1.2,258000
2018-08-10,1.2,1.2,1.17,1.18,312000
2018-08-13,1.17,1.19,1.15,1.19,590000
2018-08-14,1.18,1.18,1.13,1.16,1814000
2018-08-15,1.18,1.19,1.13,1.17,3108000
2018-08-16,1.15,1.17,1.11,1.13,1068000
2018-08-17,1.16,1.16,1.15,1.15,380000
2018-08-20,1.17,1.19,1.13,1.18,2592000
2018-08-21,1.19,1.24,1.17,1.21,762000
2018-08-22,1.2,1.23,1.18,1.19,434000
2018-08-23,1.2,1.25,1.17,1.2,2194000
2018-08-24,1.22,1.22,1.19,1.22,4346000
2018-08-27,1.24,1.3,1.22,1.28,2879570
2018-08-28,1.33,1.36,1.28,1.36,4268000
2018-08-29,1.37,1.37,1.33,1.35,2546000
2018-08-30,1.36,1.36,1.31,1.35,1474000
2018-08-31,1.35,1.37,1.29,1.37,4112000
2018-09-03,1.39,1.39,1.32,1.35,308000
2018-09-04,1.38,1.38,1.3,1.35,1582000
2018-09-05,1.34,1.34,1.29,1.31,738000
2018-09-06,1.31,1.32,1.27,1.29,516000
2018-09-07,1.3,1.33,1.28,1.3,1078000
2018-09-10,1.37,1.37,1.26,1.28,490869
2018-09-11,1.34,1.34,1.26,1.32,1120000
2018-09-12,1.32,1.32,1.28,1.3,430000
2018-09-13,1.34,1.34,1.26,1.31,1372000
2018-09-14,1.33,1.33,1.29,1.31,1266000
2018-09-17,1.33,1.34,1.3,1.34,654000
2018-09-18,1.33,1.34,1.31,1.34,1110000
2018-09-19,1.34,1.36,1.33,1.35,2348000
2018-09-20,1.37,1.37,1.31,1.35,1336000
2018-09-21,1.37,1.37,1.3,1.35,2062000
2018-09-24,1.34,1.35,1.31,1.32,446000
2018-09-26,1.35,1.37,1.3,1.31,1282000
2018-09-27,1.31,1.33,1.28,1.29,648000
2018-09-28,1.32,1.33,1.29,1.29,308000
2018-10-02,1.31,1.31,1.28,1.29,166000
2018-10-03,1.28,1.33,1.24,1.29,2306000
2018-10-04,1.3,1.3,1.26,1.26,206000
2018-10-05,1.25,1.27,1.22,1.22,560000
2018-10-08,1.24,1.3,1.2,1.21,1744000
2018-10-09,1.22,1.22,1.14,1.15,1324000
2018-10-10,1.17,1.18,1.16,1.16,140000
2018-10-11,1.13,1.13,1.05,1.08,3312000
2018-10-12,1.08,1.13,1.05,1.12,1514000
2018-10-15,1.12,1.12,1.05,1.1,1380000
2018-10-16,1.09,1.1,1.06,1.07,2238000
2018-10-18,1.08,1.08,1.04,1.07,2712000
2018-10-19,1.07,1.08,1.03,1.03,7010000
2018-10-22,1.06,1.08,1.03,1.06,2044000
2018-10-23,1.07,1.07,1.02,1.04,910000
2018-10-24,1.07,1.07,1.02,1.06,2200000
2018-10-25,1.04,1.07,1.02,1.02,1612000
2018-10-26,1.02,1.03,1.0,1.02,472000
2018-10-29,1.03,1.03,0.94,0.99,2496000
2018-10-30,0.98,1.01,0.97,0.99,1474000
2018-10-31,1.02,1.03,0.98,1.03,534000
2018-11-01,1.03,1.1,1.0,1.03,1474000
2018-11-02,1.06,1.08,1.03,1.06,1926000
2018-11-05,1.06,1.07,1.0,1.02,2822000
2018-11-06,1.02,1.06,1.02,1.03,638000
2018-11-07,1.03,1.08,1.03,1.06,2408000
2018-11-08,1.09,1.1,1.07,1.08,1572000
2018-11-09,1.07,1.08,1.04,1.05,1228000
2018-11-12,1.05,1.16,1.04,1.13,2594000
2018-11-13,1.12,1.13,1.08,1.12,1196000
2018-11-14,1.09,1.13,1.08,1.08,316000
2018-11-15,1.09,1.1,1.08,1.09,370000
2018-11-16,1.08,1.11,1.08,1.09,618000
2018-11-19,1.11,1.11,1.08,1.09,462000
2018-11-20,1.1,1.11,1.07,1.07,694000
2018-11-21,1.09,1.09,1.06,1.08,458000
2018-11-22,1.08,1.09,1.06,1.07,382000
2018-11-23,1.07,1.08,1.04,1.05,1264100
2018-11-26,1.06,1.07,1.04,1.05,1348000
2018-11-27,1.07,1.1,1.05,1.1,1606000
2018-11-28,1.1,1.15,1.08,1.15,2629190
2018-11-29,1.16,1.21,1.16,1.16,2498000
2018-11-30,1.16,1.22,1.12,1.21,1960949
2018-12-03,1.2,1.25,1.2,1.23,3586000
2018-12-04,1.25,1.27,1.17,1.26,3842000
2018-12-05,1.25,1.26,1.2,1.23,332000
2018-12-06,1.28,1.28,1.21,1.25,342000
2018-12-07,1.25,1.25,1.18,1.22,246000
2018-12-10,1.18,1.22,1.15,1.15,264000
2018-12-11,1.17,1.17,1.12,1.13,876000
2018-12-12,1.19,1.19,1.13,1.17,620000
2018-12-13,1.17,1.19,1.16,1.17,134000
2018-12-14,1.15,1.17,1.12,1.13,1126000
2018-12-17,1.14,1.17,1.13,1.15,170000
2018-12-18,1.15,1.15,1.12,1.13,928000
2018-12-19,1.15,1.16,1.12,1.15,520000
2018-12-20,1.14,1.15,1.11,1.15,540000
2018-12-21,1.12,1.14,1.09,1.09,2226000
2018-12-24,1.11,1.18,1.11,1.12,116000
2018-12-27,1.12,1.14,1.1,1.11,102000
2018-12-28,1.12,1.12,1.09,1.11,208000
2018-12-31,1.1,1.1,1.07,1.08,94000
2019-01-02,1.08,1.09,1.06,1.08,160000
2019-01-03,1.07,1.08,1.04,1.04,786000
2019-01-04,1.04,1.09,1.03,1.04,1092000
2019-01-07,1.04,1.07,1.04,1.05,912000
2019-01-08,1.05,1.08,1.04,1.05,604000
2019-01-09,1.07,1.1,1.06,1.06,440000
2019-01-10,1.06,1.08,1.06,1.06,626000
2019-01-11,1.07,1.1,1.07,1.1,718000
2019-01-14,1.09,1.09,1.07,1.08,176000
2019-01-15,1.08,1.1,1.06,1.08,784000
2019-01-16,1.06,1.09,1.05,1.09,1700000
2019-01-17,1.07,1.1,1.07,1.1,746000
2019-01-18,1.09,1.1,1.07,1.1,678000
2019-01-21,1.11,1.13,1.09,1.1,888000
2019-01-22,1.09,1.11,1.08,1.11,778000
2019-01-23,1.1,1.11,1.09,1.09,414000
2019-01-24,1.09,1.1,1.08,1.1,276000
2019-01-25,1.09,1.12,1.09,1.09,1116000
2019-01-28,1.09,1.12,1.08,1.09,1028000
2019-01-29,1.08,1.11,1.08,1.08,1114000
2019-01-30,1.09,1.11,1.09,1.1,684000
2019-01-31,1.09,1.12,1.09,1.1,1438000
2019-02-01,1.09,1.12,1.09,1.11,142000
2019-02-04,1.1,1.12,1.1,1.1,88000
2019-02-08,1.1,1.15,1.08,1.13,1222000
2019-02-11,1.13,1.16,1.13,1.15,582000
2019-02-12,1.14,1.16,1.13,1.15,618000
2019-02-13,1.13,1.18,1.13,1.18,706000
2019-02-14,1.14,1.18,1.14,1.18,670000
2019-02-15,1.16,1.17,1.14,1.16,434000
2019-02-18,1.17,1.17,1.14,1.16,1840000
2019-02-19,1.15,1.15,1.11,1.11,976000
2019-02-20,1.13,1.16,1.12,1.15,1382000
2019-02-21,1.14,1.16,1.13,1.15,612000
2019-02-22,1.13,1.17,1.12,1.15,2566000
2019-02-25,1.14,1.19,1.14,1.17,1912000
2019-02-26,1.17,1.18,1.15,1.18,2756018
2019-02-27,1.17,1.24,1.16,1.23,5148000
2019-02-28,1.22,1.24,1.17,1.19,2328000
2019-03-01,1.18,1.2,1.15,1.19,1668000
2019-03-04,1.21,1.22,1.14,1.17,4132000
2019-03-05,1.17,1.18,1.14,1.17,2054000
2019-03-06,1.17,1.22,1.16,1.2,2582000
2019-03-07,1.2,1.21,1.16,1.18,1648000
2019-03-08,1.18,1.24,1.18,1.18,4440000
2019-03-11,1.19,1.25,1.19,1.22,6582500
2019-03-12,1.25,1.3,1.21,1.28,6860000
2019-03-13,1.28,1.34,1.24,1.24,9202000
2019-03-14,1.25,1.26,1.21,1.23,3460000
2019-03-15,1.23,1.29,1.23,1.29,4112000
2019-03-18,1.27,1.31,1.25,1.25,2620008
2019-03-19,1.25,1.29,1.25,1.27,3302000
2019-03-20,1.27,1.29,1.24,1.26,2526000
2019-03-21,1.26,1.32,1.26,1.28,7916000
2019-03-22,1.29,1.3,1.25,1.26,7136000
2019-03-25,1.22,1.24,1.19,1.2,3302000
2019-03-26,1.23,1.24,1.21,1.22,786000
2019-03-27,1.21,1.25,1.19,1.19,1585992
2019-03-28,1.2,1.2,1.18,1.2,1724000
2019-03-29,1.23,1.23,1.19,1.19,894000
2019-04-01,1.22,1.23,1.21,1.23,1364000
2019-04-02,1.26,1.26,1.21,1.22,1604863
2019-04-03,1.25,1.27,1.23,1.27,3206000
2019-04-04,1.25,1.25,1.22,1.22,2347879
2019-04-08,1.25,1.25,1.22,1.22,1866000
2019-04-09,1.22,1.22,1.19,1.21,2474340
2019-04-10,1.2,1.22,1.19,1.2,1252000
2019-04-11,1.2,1.21,1.18,1.18,727242
2019-04-12,1.19,1.19,1.18,1.18,338000
2019-04-15,1.2,1.23,1.19,1.2,1992016
2019-04-16,1.2,1.24,1.19,1.23,3924000
2019-04-17,1.22,1.24,1.21,1.22,329937
2019-04-18,1.22,1.24,1.2,1.2,784000
2019-04-23,1.21,1.23,1.19,1.19,1338000
2019-04-24,1.2,1.23,1.18,1.23,2384000
2019-04-25,1.21,1.21,1.19,1.19,786000
2019-04-26,1.19,1.2,1.17,1.17,1746000
2019-04-29,1.19,1.19,1.17,1.17,106000
2019-04-30,1.17,1.19,1.16,1.18,2300774
2019-05-02,1.16,1.18,1.16,1.18,482000
2019-05-03,1.2,1.21,1.17,1.18,236272
2019-05-06,1.16,1.18,1.14,1.16,1646544
2019-05-07,1.17,1.18,1.11,1.16,4412000
2019-05-08,1.14,1.15,1.12,1.12,840000
2019-05-09,1.14,1.17,1.09,1.1,1010000
2019-05-10,1.11,1.14,1.1,1.12,798000
2019-05-14,1.09,1.11,1.08,1.08,472000
2019-05-15,1.08,1.13,1.08,1.1,512020
2019-05-16,1.11,1.13,1.1,1.11,304000
2019-05-17,1.1,1.11,1.08,1.08,428000
2019-05-20,1.08,1.1,1.07,1.09,360000
2019-05-21,1.09,1.09,1.07,1.08,418000
2019-05-22,1.07,1.09,1.04,1.05,1004000
2019-05-23,1.03,1.07,1.01,1.04,1276000
2019-05-24,1.04,1.08,1.04,1.06,624000
2019-05-27,1.06,1.09,1.05,1.07,1146000
2019-05-28,1.07,1.11,1.05,1.11,1850000
2019-05-29,1.09,1.1,1.09,1.09,88000
2019-05-30,1.09,1.11,1.07,1.07,758000
2019-05-31,1.07,1.13,1.07,1.09,1608340
2019-06-03,1.08,1.11,1.03,1.03,1064000
2019-06-04,1.02,1.04,1.01,1.02,1464000
2019-06-05,1.03,1.04,1.0,1.0,1376000
2019-06-06,1.03,1.03,1.01,1.03,392000
2019-06-10,1.02,1.07,1.01,1.03,1258000
2019-06-11,1.03,1.07,1.02,1.06,1578000
2019-06-12,1.06,1.07,1.04,1.07,396000
2019-06-13,1.04,1.06,1.04,1.06,76000
2019-06-14,1.04,1.06,1.04,1.04,478000
2019-06-17,1.04,1.05,1.03,1.03,264000
2019-06-18,1.03,1.05,1.02,1.02,554000
2019-06-19,1.03,1.04,1.02,1.02,748790
2019-06-20,1.03,1.05,1.02,1.04,984000
2019-06-21,1.04,1.05,1.03,1.04,1917158
2019-06-24,1.04,1.09,1.04,1.08,1112000
2019-06-25,1.07,1.07,1.04,1.07,492000
2019-06-26,1.08,1.08,1.04,1.05,1630000
2019-06-27,1.04,1.06,1.04,1.05,1104000
2019-06-28,1.04,1.05,1.02,1.03,758000
2019-07-02,1.04,1.08,1.04,1.04,5314000
2019-07-03,1.04,1.05,1.02,1.03,2884000
2019-07-04,1.04,1.04,1.01,1.01,7900000
2019-07-05,1.01,1.02,1.0,1.01,2568000
2019-07-08,1.01,1.04,1.0,1.0,2670000
2019-07-09,1.0,1.01,0.99,0.99,2320700
2019-07-10,0.99,1.02,0.99,1.02,955300
2019-07-11,1.01,1.02,1.0,1.01,1620500
2019-07-12,1.02,1.02,0.99,1.0,1788000
2019-07-15,1.0,1.01,0.99,1.0,646000
2019-07-16,1.02,1.02,0.99,1.01,1106000
2019-07-17,1.0,1.02,1.0,1.01,384000
2019-07-18,1.0,1.03,0.99,1.01,1804000
2019-07-19,1.01,1.02,1.0,1.01,220000
2019-07-22,1.01,1.01,0.99,0.99,256000
2019-07-23,0.99,1.01,0.99,1.0,886000
2019-07-24,1.01,1.02,1.0,1.01,756000
2019-07-25,1.01,1.01,0.99,1.0,2054000
2019-07-26,1.01,1.03,1.0,1.02,1310000
2019-07-29,1.01,1.03,1.0,1.01,822000
2019-07-30,1.02,1.02,1.01,1.01,258000
2019-07-31,1.02,1.02,1.01,1.01,112000
2019-08-01,1.01,1.04,1.0,1.03,1992000
2019-08-02,1.02,1.02,1.0,1.0,738000
2019-08-05,1.02,1.02,0.99,1.0,610000
2019-08-06,0.98,0.99,0.97,0.97,858000
2019-08-07,0.97,0.99,0.96,0.97,356000
2019-08-08,0.97,1.0,0.96,1.0,358000
2019-08-09,0.99,1.0,0.98,0.98,214000
2019-08-12,0.98,0.98,0.94,0.95,1366000
2019-08-13,0.95,0.96,0.91,0.91,2122000
2019-08-14,0.92,0.95,0.92,0.94,900000
2019-08-15,0.94,0.94,0.9,0.91,1612000
2019-08-16,0.89,0.93,0.89,0.93,666000
2019-08-19,0.92,0.95,0.9,0.93,2182000
2019-08-20,0.92,0.94,0.92,0.94,693269
2019-08-21,0.93,0.96,0.91,0.92,3344000
2019-08-22,0.93,0.95,0.91,0.91,2056000
2019-08-23,0.91,0.92,0.9,0.9,2202000
2019-08-26,0.9,0.9,0.87,0.87,4738000
2019-08-27,0.88,0.89,0.88,0.88,1260000
2019-08-28,0.88,0.9,0.88,0.88,4114000
2019-08-29,0.89,0.9,0.88,0.89,1094000
2019-08-30,0.89,0.89,0.88,0.88,754000
2019-09-02,0.9,0.9,0.88,0.88,1908000
2019-09-03,0.88,0.9,0.88,0.89,1802000
2019-09-04,0.89,0.93,0.88,0.91,3088000
2019-09-05,0.91,0.95,0.91,0.93,3046000
2019-09-06,0.94,0.95,0.93,0.94,946000
2019-09-09,0.93,0.94,0.91,0.93,2156000
2019-09-10,0.92,0.94,0.91,0.94,1414000
2019-09-11,0.92,0.95,0.92,0.94,1912000
2019-09-12,0.95,0.96,0.95,0.95,1996000
2019-09-13,0.95,0.96,0.95,0.96,346000
2019-09-16,0.95,0.97,0.94,0.95,1628000
2019-09-17,0.95,0.95,0.91,0.91,2572000
2019-09-18,0.92,0.97,0.92,0.94,6986000
2019-09-19,0.94,0.95,0.93,0.94,1352000
2019-09-20,0.94,0.94,0.92,0.93,3434000
2019-09-23,0.94,0.94,0.89,0.9,4346000
2019-09-24,0.9,0.91,0.89,0.89,2604000
2019-09-25,0.89,0.9,0.88,0.89,3268000
2019-09-26,0.9,0.9,0.87,0.88,3254000
2019-09-27,0.88,0.88,0.85,0.86,1515000
2019-09-30,0.86,0.88,0.85,0.85,1416000
2019-10-02,0.84,0.86,0.84,0.84,762000
2019-10-03,0.84,0.85,0.82,0.82,1870000
2019-10-04,0.84,0.87,0.84,0.85,5796000
2019-10-08,0.87,0.9,0.85,0.87,10116000
2019-10-09,0.86,0.91,0.86,0.9,6753000
2019-10-10,0.91,1.07,0.91,1.06,30370000
2019-10-11,1.08,1.08,1.0,1.02,11688000
2019-10-14,1.02,1.06,1.02,1.02,7142000
2019-10-15,1.05,1.05,1.02,1.05,4820000
2019-10-16,1.05,1.05,1.02,1.02,3280000
2019-10-17,1.03,1.03,1.01,1.02,1794000
2019-10-18,1.03,1.04,0.98,1.0,3536000
2019-10-21,1.01,1.01,0.98,0.99,1100000
2019-10-22,0.99,1.04,0.99,1.02,3130000
2019-10-23,1.01,1.03,1.01,1.02,1122000
2019-10-24,1.04,1.17,1.02,1.15,12952000
2019-10-25,1.13,1.18,1.08,1.14,5806000
2019-10-28,1.14,1.25,1.14,1.25,14448000
2019-10-29,1.24,1.28,1.2,1.2,8450000
2019-10-30,1.2,1.22,1.16,1.2,12016000
2019-10-31,1.2,1.21,1.16,1.18,3986000
2019-11-01,1.17,1.18,1.13,1.14,5712000
2019-11-04,1.14,1.14,1.07,1.07,6888000
2019-11-05,1.06,1.08,1.05,1.07,3978000
2019-11-06,1.07,1.12,1.07,1.07,3786000
2019-11-07,1.09,1.09,1.06,1.07,1324000
2019-11-08,1.09,1.13,1.06,1.07,5744000
2019-11-11,1.08,1.23,1.06,1.18,22806000
2019-11-12,1.19,1.19,1.12,1.15,2704000
2019-11-13,1.14,1.15,1.12,1.12,2178000
2019-11-14,1.14,1.18,1.13,1.14,3254000
2019-11-15,1.14,1.15,1.11,1.11,2550000
2019-11-18,1.11,1.21,1.1,1.13,5068000
2019-11-19,1.14,1.14,1.13,1.13,568000
2019-11-20,1.13,1.13,1.11,1.13,1550000
2019-11-21,1.12,1.12,1.1,1.1,1886000
2019-11-22,1.1,1.11,1.09,1.09,994000
2019-11-25,1.09,1.11,1.09,1.11,774000
2019-11-26,1.11,1.12,1.09,1.09,1342000
2019-11-27,1.1,1.11,1.1,1.11,536000
2019-11-28,1.11,1.12,1.1,1.1,1280000
2019-11-29,1.1,1.1,1.08,1.09,1566000
2019-12-02,1.1,1.14,1.1,1.1,2500000
2019-12-03,1.11,1.11,1.07,1.08,2116000
2019-12-04,1.09,1.1,1.06,1.08,4550000
2019-12-05,1.08,1.09,1.06,1.08,2154000
2019-12-06,1.07,1.13,1.06,1.12,4540000
2019-12-09,1.08,1.12,1.07,1.08,1756000
2019-12-10,1.08,1.1,1.06,1.08,2456000
2019-12-11,1.09,1.09,1.06,1.08,1100000
2019-12-12,1.1,1.14,1.09,1.14,3566000
2019-12-13,1.14,1.15,1.12,1.14,3248000
2019-12-16,1.12,1.14,1.12,1.12,1058000
2019-12-17,1.1,1.13,1.1,1.12,2292000
2019-12-18,1.11,1.13,1.09,1.1,2650000
2019-12-19,1.11,1.11,1.08,1.1,3104000
2019-12-20,1.1,1.14,1.09,1.14,4150000
2019-12-23,1.13,1.14,1.11,1.12,1092000
2019-12-24,1.12,1.14,1.11,1.13,1134000
2019-12-27,1.11,1.13,1.11,1.11,784000
2019-12-30,1.11,1.13,1.1,1.11,1212000
2019-12-31,1.11,1.12,1.08,1.11,2026000
2020-01-02,1.11,1.13,1.11,1.12,1434000
2020-01-03,1.12,1.13,1.09,1.09,3700000
2020-01-06,1.09,1.1,1.06,1.08,6422000
2020-01-07,1.1,1.11,1.06,1.08,8632000
2020-01-08,1.07,1.08,1.03,1.04,9068000
2020-01-09,1.05,1.06,1.02,1.03,5024000
2020-01-10,1.04,1.06,1.03,1.05,4480000
2020-01-13,1.05,1.08,1.04,1.07,3278000
2020-01-14,1.06,1.08,1.06,1.06,1436000
2020-01-15,1.07,1.08,1.07,1.08,3078000
2020-01-16,1.09,1.09,1.07,1.07,1760000
2020-01-17,1.08,1.08,1.07,1.08,1454000
2020-01-20,1.06,1.07,1.05,1.05,2576000
2020-01-21,1.05,1.07,1.05,1.07,2512000
2020-01-22,1.06,1.1,1.06,1.08,1076000
2020-01-23,1.09,1.1,1.05,1.05,844000
2020-01-24,1.05,1.05,1.04,1.05,164000
2020-01-29,1.04,1.05,0.99,1.0,2218000
2020-01-30,1.0,1.0,0.95,0.96,1624000
2020-01-31,0.97,1.03,0.97,0.98,4054000
2020-02-03,0.99,1.02,0.99,1.01,6784000
2020-02-04,1.02,1.04,1.02,1.02,2572000
2020-02-05,1.03,1.04,1.03,1.04,3108000
2020-02-06,1.02,1.06,1.02,1.06,1810000
2020-02-07,1.05,1.06,1.03,1.04,2066000
2020-02-10,1.06,1.06,1.03,1.04,488000
2020-02-11,1.04,1.07,1.04,1.07,1918000
2020-02-12,1.06,1.07,1.05,1.07,530000
2020-02-13,1.06,1.08,1.06,1.07,1772000
2020-02-14,1.07,1.08,1.07,1.07,1298000
2020-02-17,1.06,1.08,1.05,1.08,3586000
2020-02-18,1.07,1.09,1.06,1.07,3024000
2020-02-19,1.08,1.09,1.07,1.08,1158000
2020-02-20,1.09,1.13,1.08,1.12,6054000
2020-02-21,1.12,1.25,1.12,1.23,19178300
2020-02-24,1.23,1.24,1.15,1.19,7988000
2020-02-25,1.17,1.2,1.17,1.17,7212000
2020-02-26,1.17,1.2,1.14,1.19,7222000
2020-02-27,1.17,1.19,1.15,1.15,10314000
2020-02-28,1.12,1.2,1.12,1.19,15872000
2020-03-03,1.5,1.58,1.47,1.51,168653200
2020-03-04,1.51,1.57,1.51,1.57,48120000
2020-03-05,1.57,1.6,1.57,1.58,19044000
2020-03-06,1.58,1.63,1.55,1.62,28961000
2020-03-09,1.6,1.61,1.53,1.57,24250000
2020-03-10,1.55,1.58,1.54,1.57,20190000
2020-03-11,1.59,1.59,1.55,1.57,17346000
2020-03-12,1.55,1.58,1.53,1.56,12532000
2020-03-13,1.51,1.56,1.49,1.55,24000800
2020-03-16,1.53,1.55,1.49,1.51,16382000
2020-03-17,1.49,1.54,1.46,1.54,21256000
2020-03-18,1.51,1.55,1.44,1.49,15306000
2020-03-19,1.49,1.49,1.38,1.44,8752000
2020-03-20,1.45,1.52,1.45,1.47,26958920
2020-03-23,1.45,1.5,1.44,1.47,38146000
2020-03-24,1.53,1.56,1.5,1.52,26475000
2020-03-25,1.55,1.6,1.55,1.59,11982000
2020-03-26,1.6,1.61,1.56,1.58,10336000
2020-03-27,1.59,1.61,1.54,1.6,21971000
2020-03-30,1.58,1.62,1.57,1.59,15440000
2020-03-31,1.6,1.62,1.59,1.61,11562000
2020-04-01,1.61,1.62,1.55,1.59,19410000
2020-04-02,1.57,1.61,1.57,1.6,15686000
2020-04-03,1.59,1.61,1.59,1.61,9526000
2020-04-06,1.6,1.6,1.57,1.59,8220000
2020-04-07,1.59,1.6,1.56,1.59,13420000
2020-04-08,1.59,1.6,1.58,1.6,10714000
2020-04-09,1.6,1.65,1.59,1.63,48846000
2020-04-14,1.62,1.63,1.59,1.6,15788000
2020-04-15,1.61,1.63,1.6,1.62,9454000
2020-04-16,1.61,1.62,1.58,1.61,10636000
2020-04-17,1.62,1.65,1.61,1.64,22866000
2020-04-20,1.63,1.65,1.62,1.63,12406000
2020-04-21,1.63,1.64,1.6,1.61,14488000
2020-04-22,1.61,1.62,1.58,1.62,16689400
2020-04-23,1.6,1.61,1.57,1.58,20678000
2020-04-24,1.58,1.58,1.54,1.57,15442000
2020-04-27,1.57,1.6,1.56,1.56,16640000
2020-04-28,1.58,1.59,1.56,1.59,12344000
2020-04-29,1.57,1.6,1.57,1.6,7521540
2020-05-04,1.59,1.59,1.54,1.56,12542000
2020-05-05,1.57,1.57,1.49,1.52,14840000
2020-05-06,1.52,1.54,1.45,1.47,18124000
2020-05-07,1.47,1.47,1.39,1.42,16680000
2020-05-08,1.43,1.44,1.41,1.42,4950000
2020-05-11,1.42,1.44,1.38,1.4,7156000
2020-05-12,1.4,1.4,1.37,1.39,8060000
2020-05-13,1.38,1.45,1.37,1.42,9530000
2020-05-14,1.42,1.44,1.38,1.42,10734000
2020-05-15,1.42,1.44,1.4,1.42,3090000
2020-05-18,1.42,1.45,1.41,1.44,6758000
2020-05-19,1.45,1.49,1.45,1.49,4645113
2020-05-20,1.48,1.48,1.44,1.44,5172000
2020-05-21,1.44,1.46,1.43,1.44,4056000
2020-05-22,1.43,1.43,1.4,1.41,7568000
2020-05-25,1.4,1.43,1.4,1.42,1866000
2020-05-26,1.42,1.44,1.41,1.43,3674000
2020-05-27,1.43,1.5,1.43,1.47,9316000
2020-05-28,1.46,1.55,1.46,1.53,12782000
2020-05-29,1.52,1.55,1.46,1.54,16606000
2020-06-01,1.51,1.54,1.49,1.51,7830000
2020-06-02,1.53,1.54,1.5,1.52,14814000
2020-06-03,1.53,1.54,1.49,1.5,11222000
2020-06-04,1.52,1.52,1.49,1.5,3074000
2020-06-05,1.49,1.49,1.46,1.48,5410000
2020-06-08,1.48,1.5,1.44,1.46,9596050
2020-06-09,1.47,1.48,1.44,1.46,2628000
2020-06-10,1.47,1.48,1.44,1.45,3298000
2020-06-11,1.46,1.46,1.39,1.42,8116000
2020-06-12,1.42,1.43,1.38,1.42,7688000
2020-06-15,1.43,1.49,1.41,1.47,16792000
2020-06-16,1.47,1.52,1.44,1.5,15420000
2020-06-17,1.5,1.5,1.45,1.48,6490000
2020-06-18,1.47,1.55,1.47,1.51,20442362
2020-06-19,1.51,1.52,1.49,1.49,7227688
2020-06-22,1.5,1.5,1.47,1.48,4524000
2020-06-23,1.49,1.52,1.46,1.51,11886000
2020-06-24,1.52,1.52,1.44,1.46,7100000
2020-06-26,1.47,1.51,1.45,1.49,6872000
2020-06-29,1.46,1.5,1.45,1.49,5804000
2020-06-30,1.47,1.5,1.47,1.49,7403000
2020-07-02,1.47,1.48,1.45,1.48,7516000
2020-07-03,1.48,1.49,1.46,1.49,15938000
2020-07-06,1.49,1.5,1.47,1.49,17922000
2020-07-07,1.5,1.53,1.49,1.5,21998000
2020-07-08,1.49,1.51,1.48,1.48,7508000
2020-07-09,1.48,1.5,1.47,1.5,7414000
2020-07-10,1.49,1.51,1.47,1.5,9474000
2020-07-13,1.52,1.52,1.49,1.5,14648000
2020-07-14,1.5,1.65,1.5,1.55,27546000
2020-07-15,1.57,1.58,1.48,1.49,12290000
2020-07-16,1.49,1.51,1.41,1.44,11894000
2020-07-17,1.45,1.45,1.42,1.44,5324000
2020-07-20,1.44,1.44,1.42,1.43,3836000
2020-07-21,1.43,1.47,1.42,1.46,2340000
2020-07-22,1.45,1.47,1.43,1.45,2568000
2020-07-23,1.45,1.45,1.43,1.44,6084000
2020-07-24,1.43,1.44,1.41,1.42,8844000
2020-07-27,1.42,1.44,1.41,1.41,5842000
2020-07-28,1.41,1.42,1.38,1.38,6864000
2020-07-29,1.4,1.4,1.33,1.36,7968000
2020-07-30,1.41,1.41,1.34,1.36,9014000
2020-07-31,1.38,1.4,1.37,1.4,2714000
2020-08-03,1.39,1.42,1.37,1.4,3220000
2020-08-04,1.39,1.41,1.38,1.38,5572000
2020-08-05,1.39,1.45,1.39,1.42,5220000
2020-08-06,1.42,1.42,1.41,1.42,2902000
2020-08-07,1.42,1.46,1.4,1.41,14556000
2020-08-10,1.43,1.44,1.41,1.42,3924000
2020-08-11,1.42,1.47,1.42,1.47,8608000
2020-08-12,1.44,1.46,1.44,1.44,1371000
2020-08-13,1.44,1.46,1.43,1.44,2484000
2020-08-14,1.44,1.46,1.43,1.45,1202000
2020-08-17,1.45,1.45,1.43,1.45,2870000
2020-08-18,1.44,1.44,1.43,1.44,2420000
2020-08-19,1.44,1.44,1.42,1.43,1806000
2020-08-20,1.43,1.43,1.41,1.43,730000
2020-08-21,1.42,1.43,1.41,1.43,938000
2020-08-24,1.43,1.43,1.4,1.42,5492000
2020-08-25,1.42,1.42,1.4,1.4,1922000
