Date,High,Low,Open,Close,Volume
2017-01-11,5.050000190734863,4.110000133514403,4.739999771118164,4.599999904632568,19966500
2017-01-12,4.760000228881836,3.5999999046325684,4.639999866485597,3.7000000476837163,12870800
2017-01-13,3.900000095367432,3.0,3.7000000476837163,3.1600000858306885,4885500
2017-01-16,3.130000114440918,2.799999952316284,3.130000114440918,2.900000095367432,2207000
2017-01-17,3.2000000476837163,2.900000095367432,2.900000095367432,3.0699999332427983,1845000
2017-01-18,3.190000057220459,3.0699999332427983,3.150000095367432,3.0999999046325684,1020500
2017-01-19,3.0999999046325684,2.9500000476837163,3.0999999046325684,2.970000028610229,775000
2017-01-20,3.0499999523162837,2.9600000381469727,3.0499999523162837,2.9800000190734863,340000
2017-01-23,3.039999961853028,2.900000095367432,3.0,2.900000095367432,640000
2017-01-24,2.9500000476837163,2.880000114440918,2.9500000476837163,2.900000095367432,400000
2017-01-25,2.9500000476837163,2.900000095367432,2.900000095367432,2.9200000762939453,200000
2017-01-26,2.9200000762939453,2.799999952316284,2.9200000762939453,2.859999895095825,220000
2017-01-27,2.900000095367432,2.799999952316284,2.859999895095825,2.900000095367432,155000
2017-02-01,2.890000104904175,2.799999952316284,2.799999952316284,2.8499999046325684,115000
2017-02-02,2.880000114440918,2.7100000381469727,2.8499999046325684,2.75,630000
2017-02-03,2.799999952316284,2.7300000190734863,2.799999952316284,2.759999990463257,130000
2017-02-06,2.789999961853028,2.7100000381469727,2.759999990463257,2.7300000190734863,410000
2017-02-07,2.7300000190734863,2.6700000762939453,2.7300000190734863,2.6700000762939453,625000
2017-02-08,2.650000095367432,2.5,2.650000095367432,2.5999999046325684,610000
2017-02-09,2.5999999046325684,2.509999990463257,2.549999952316284,2.5199999809265137,454956
2017-02-10,2.740000009536743,2.5,2.5199999809265137,2.6700000762939453,740000
2017-02-13,2.759999990463257,2.700000047683716,2.75,2.7300000190734863,415000
2017-02-14,2.720000028610229,2.549999952316284,2.720000028610229,2.619999885559082,301000
2017-02-15,2.6700000762939453,2.5699999332427983,2.619999885559082,2.5799999237060547,510000
2017-02-16,2.5799999237060547,2.549999952316284,2.5799999237060547,2.549999952316284,225000
2017-02-17,2.549999952316284,2.5199999809265137,2.549999952316284,2.539999961853028,195000
2017-02-20,2.549999952316284,2.5,2.5,2.509999990463257,365000
2017-02-21,2.5299999713897705,2.5,2.5,2.509999990463257,260000
2017-02-22,2.5299999713897705,2.509999990463257,2.509999990463257,2.5299999713897705,90000
2017-02-23,2.5199999809265137,2.5,2.5199999809265137,2.5,95000
2017-02-24,2.490000009536743,2.450000047683716,2.450000047683716,2.470000028610229,255000
2017-02-27,2.450000047683716,2.4200000762939453,2.440000057220459,2.4300000667572017,385000
2017-02-28,2.4100000858306885,2.299999952316284,2.400000095367432,2.309999942779541,380000
2017-03-01,2.0999999046325684,1.9900000095367432,2.059999942779541,2.0299999713897705,1565000
2017-03-02,2.0299999713897705,1.7999999523162842,2.0299999713897705,1.8999999761581419,840000
2017-03-03,1.8899999856948853,1.7999999523162842,1.8899999856948853,1.8500000238418581,180000
2017-03-06,1.8600000143051147,1.809999942779541,1.8400000333786009,1.830000042915344,275000
2017-03-07,1.8600000143051147,1.830000042915344,1.830000042915344,1.830000042915344,170000
2017-03-08,1.870000004768372,1.8500000238418581,1.8600000143051147,1.8500000238418581,145000
2017-03-09,1.830000042915344,1.7999999523162842,1.830000042915344,1.830000042915344,165000
2017-03-10,1.7999999523162842,1.6100000143051147,1.7999999523162842,1.6399999856948853,285000
2017-03-13,1.6399999856948853,1.350000023841858,1.6399999856948853,1.5299999713897705,710000
2017-03-14,1.5099999904632568,1.4800000190734863,1.4800000190734863,1.5,100000
2017-03-15,1.5,1.4600000381469729,1.5,1.4600000381469729,35000
2017-03-16,1.5499999523162842,1.4600000381469729,1.4600000381469729,1.5099999904632568,135000
2017-03-17,1.4500000476837158,1.399999976158142,1.399999976158142,1.440000057220459,230000
2017-03-20,1.4299999475479126,1.3899999856948853,1.3899999856948853,1.4099999666213991,155000
2017-03-21,1.399999976158142,1.3600000143051147,1.3600000143051147,1.3899999856948853,110000
2017-03-22,1.3799999952316284,1.3400000333786009,1.3600000143051147,1.3600000143051147,275000
2017-03-23,1.3600000143051147,1.350000023841858,1.350000023841858,1.3600000143051147,335000
2017-03-24,1.4500000476837158,1.3899999856948853,1.399999976158142,1.4299999475479126,260000
2017-03-27,2.509999990463257,1.440000057220459,1.4500000476837158,2.1199998855590816,1835000
2017-03-28,2.559999942779541,2.150000095367432,2.150000095367432,2.200000047683716,3145000
2017-03-29,2.390000104904175,2.200000047683716,2.200000047683716,2.2699999809265137,862000
2017-03-30,2.2300000190734863,2.200000047683716,2.2300000190734863,2.200000047683716,352000
2017-03-31,2.200000047683716,2.190000057220459,2.190000057220459,2.190000057220459,330000
2017-04-03,2.2699999809265137,2.0899999141693115,2.259999990463257,2.0899999141693115,85000
2017-04-05,2.0199999809265137,1.7000000476837158,2.009999990463257,1.8999999761581419,315000
2017-04-06,1.9099999666213991,1.8999999761581419,1.9099999666213991,1.8999999761581419,35000
2017-04-07,1.8999999761581419,1.7899999618530271,1.8999999761581419,1.809999942779541,150000
2017-04-10,2.509999990463257,2.0,2.0,2.2100000381469727,1860000
2017-04-11,2.3499999046325684,2.220000028610229,2.220000028610229,2.2699999809265137,755000
2017-04-12,2.299999952316284,2.1199998855590816,2.299999952316284,2.190000057220459,190000
2017-04-13,2.190000057220459,2.0,2.0,2.1099998950958248,105000
2017-04-18,2.1800000667572017,2.0,2.1800000667572017,2.0799999237060547,290000
2017-04-19,2.1700000762939453,2.0999999046325684,2.0999999046325684,2.1199998855590816,85000
2017-04-20,2.1600000858306885,2.0999999046325684,2.0999999046325684,2.1600000858306885,145120
2017-04-21,2.1600000858306885,2.150000095367432,2.1600000858306885,2.1600000858306885,140000
2017-04-24,2.1800000667572017,2.150000095367432,2.1700000762939453,2.150000095367432,140000
2017-04-25,2.259999990463257,2.1700000762939453,2.259999990463257,2.1700000762939453,40000
2017-04-26,2.1800000667572017,2.049999952316284,2.1800000667572017,2.0899999141693115,90000
2017-04-27,2.1300001144409184,2.0299999713897705,2.1300001144409184,2.0299999713897705,210000
2017-04-28,2.1199998855590816,2.0,2.0,2.0899999141693115,130000
2017-05-02,2.220000028610229,2.0899999141693115,2.0899999141693115,2.1099998950958248,155000
2017-05-04,2.1300001144409184,2.0899999141693115,2.1300001144409184,2.0999999046325684,85000
2017-05-05,2.0899999141693115,2.049999952316284,2.0699999332427983,2.0799999237060547,75000
2017-05-08,2.0699999332427983,2.0699999332427983,2.0699999332427983,2.0699999332427983,0
2017-05-09,2.0699999332427983,2.0299999713897705,2.0699999332427983,2.059999942779541,70000
2017-05-10,2.039999961853028,2.0199999809265137,2.039999961853028,2.0199999809265137,175000
2017-05-11,2.0199999809265137,1.9800000190734863,2.009999990463257,1.9900000095367432,105000
2017-05-12,2.0,1.9800000190734863,2.0,1.9800000190734863,75000
2017-05-15,2.009999990463257,1.9900000095367432,2.009999990463257,2.0,95000
2017-05-16,2.0,1.9900000095367432,2.0,1.9900000095367432,10000
2017-05-17,1.9900000095367432,1.950000047683716,1.9900000095367432,1.9700000286102293,75000
2017-05-18,1.9299999475479128,1.8999999761581419,1.919999957084656,1.919999957084656,200000
2017-05-19,2.059999942779541,1.919999957084656,2.0,1.919999957084656,65000
2017-05-22,2.049999952316284,1.9299999475479128,2.049999952316284,1.9700000286102293,65000
2017-05-23,1.9700000286102293,1.9700000286102293,1.9700000286102293,1.9700000286102293,30000
2017-05-24,1.9600000381469729,1.9600000381469729,1.919999957084656,1.9600000381469729,30000
2017-05-25,1.9900000095367432,1.9600000381469729,1.9600000381469729,1.9600000381469729,85000
2017-05-26,1.9600000381469729,1.8500000238418581,1.8999999761581419,1.8999999761581419,35000
2017-05-29,1.8799999952316284,1.5499999523162842,1.8799999952316284,1.5499999523162842,100000
2017-05-31,2.0699999332427983,1.7999999523162842,1.7999999523162842,1.870000004768372,380000
2017-06-01,1.940000057220459,1.8799999952316284,1.940000057220459,1.9099999666213991,80000
2017-06-02,1.9099999666213991,1.870000004768372,1.8999999761581419,1.870000004768372,75000
2017-06-05,1.950000047683716,1.8799999952316284,1.9099999666213991,1.8899999856948853,45000
2017-06-06,1.8899999856948853,1.8500000238418581,1.8899999856948853,1.8500000238418581,65000
2017-06-07,1.8799999952316284,1.8799999952316284,1.8799999952316284,1.8799999952316284,65000
2017-06-08,1.9099999666213991,1.8500000238418581,1.8799999952316284,1.9099999666213991,50000
2017-06-09,1.8999999761581419,1.8799999952316284,1.8999999761581419,1.8899999856948853,75000
2017-06-12,1.8600000143051147,1.7599999904632568,1.7599999904632568,1.8600000143051147,60000
2017-06-13,1.870000004768372,1.8500000238418581,1.870000004768372,1.8600000143051147,95000
2017-06-14,1.870000004768372,1.8500000238418581,1.830000042915344,1.8500000238418581,15000
2017-06-15,1.830000042915344,1.7799999713897705,1.830000042915344,1.7999999523162842,120000
2017-06-16,1.809999942779541,1.7799999713897705,1.7999999523162842,1.7999999523162842,85000
2017-06-19,1.8799999952316284,1.7999999523162842,1.7999999523162842,1.8899999856948853,45000
2017-06-20,1.8899999856948853,1.8799999952316284,1.8899999856948853,1.8799999952316284,50000
2017-06-21,1.8799999952316284,1.7899999618530271,1.8799999952316284,1.809999942779541,75000
2017-06-22,1.7999999523162842,1.7999999523162842,1.7999999523162842,1.7999999523162842,5000
2017-06-23,1.7799999713897705,1.75,1.7799999713897705,1.75,305000
2017-06-26,1.7699999809265137,1.7699999809265137,1.7699999809265137,1.7699999809265137,25000
2017-06-27,1.75,1.7300000190734863,1.75,1.75,110050
2017-06-28,1.7599999904632568,1.6799999475479126,1.7599999904632568,1.7000000476837158,100000
2017-06-29,1.7200000286102295,1.7000000476837158,1.7100000381469729,1.7300000190734863,50000
2017-06-30,1.7000000476837158,1.6799999475479126,1.7000000476837158,1.7000000476837158,55000
2017-07-03,1.7000000476837158,1.7000000476837158,1.7000000476837158,1.7000000476837158,140000
2017-07-04,1.7000000476837158,1.399999976158142,1.7000000476837158,1.5,315000
2017-07-05,1.7999999523162842,1.5499999523162842,1.5900000333786009,1.7799999713897705,630000
2017-07-06,1.7799999713897705,1.6599999666213991,1.6599999666213991,1.7699999809265137,10000
2017-07-07,1.7000000476837158,1.6799999475479126,1.6799999475479126,1.7000000476837158,20000
2017-07-10,1.75,1.5800000429153442,1.7000000476837158,1.7000000476837158,65000
2017-07-11,1.7000000476837158,1.6499999761581419,1.6499999761581419,1.6499999761581419,30000
2017-07-12,1.6499999761581419,1.5900000333786009,1.5900000333786009,1.6499999761581419,20000
2017-07-13,1.7000000476837158,1.559999942779541,1.6000000238418581,1.690000057220459,20000
2017-07-14,1.7000000476837158,1.6000000238418581,1.6000000238418581,1.6799999475479126,40000
2017-07-17,1.7000000476837158,1.690000057220459,1.690000057220459,1.6799999475479126,85000
2017-07-18,1.6799999475479126,1.6799999475479126,1.6799999475479126,1.6799999475479126,0
2017-07-19,1.7000000476837158,1.6799999475479126,1.6799999475479126,1.6799999475479126,130000
2017-07-20,1.7000000476837158,1.5,1.559999942779541,1.6799999475479126,120000
2017-07-21,1.6799999475479126,1.6799999475479126,1.6799999475479126,1.6799999475479126,0
2017-07-24,1.6699999570846558,1.6000000238418581,1.6000000238418581,1.6100000143051147,35000
2017-07-25,1.6000000238418581,1.5700000524520874,1.5700000524520874,1.6000000238418581,70000
2017-07-26,1.6000000238418581,1.6000000238418581,1.6000000238418581,1.6000000238418581,25000
2017-07-27,1.6000000238418581,1.559999942779541,1.6000000238418581,1.5700000524520874,210000
2017-07-28,1.5800000429153442,1.5800000429153442,1.5800000429153442,1.5900000333786009,55000
2017-07-31,1.6000000238418581,1.5499999523162842,1.5900000333786009,1.6000000238418581,115000
2017-08-01,1.5,1.4900000095367432,1.5,1.5199999809265137,100000
2017-08-02,1.5499999523162842,1.5299999713897705,1.5299999713897705,1.5499999523162842,55000
2017-08-03,1.5499999523162842,1.5299999713897705,1.5299999713897705,1.5499999523162842,35000
2017-08-04,1.5,1.5,1.5099999904632568,1.5499999523162842,15000
2017-08-07,1.5499999523162842,1.5,1.5499999523162842,1.5199999809265137,40000
2017-08-08,1.5099999904632568,1.5,1.5,1.5099999904632568,65000
2017-08-09,1.5099999904632568,1.5,1.4500000476837158,1.5099999904632568,125000
2017-08-10,1.5,1.4299999475479126,1.4800000190734863,1.4900000095367432,220000
2017-08-11,1.4500000476837158,1.399999976158142,1.399999976158142,1.4500000476837158,50000
2017-08-14,1.4299999475479126,1.399999976158142,1.399999976158142,1.4199999570846558,145000
2017-08-15,1.4600000381469729,1.4199999570846558,1.4299999475479126,1.4600000381469729,45000
2017-08-16,1.4600000381469729,1.4500000476837158,1.4500000476837158,1.4600000381469729,55000
2017-08-17,1.4800000190734863,1.4500000476837158,1.4600000381469729,1.4500000476837158,75000
2017-08-18,1.4500000476837158,1.4500000476837158,1.4500000476837158,1.4500000476837158,60000
2017-08-21,1.4500000476837158,1.399999976158142,1.4500000476837158,1.399999976158142,60000
2017-08-22,1.4500000476837158,1.4099999666213991,1.4500000476837158,1.440000057220459,60000
2017-08-23,1.440000057220459,1.440000057220459,1.440000057220459,1.440000057220459,0
2017-08-24,1.4299999475479126,1.399999976158142,1.4299999475479126,1.4299999475479126,70000
2017-08-25,1.399999976158142,1.399999976158142,1.3700000047683716,1.399999976158142,105000
2017-08-28,1.399999976158142,1.3799999952316284,1.399999976158142,1.399999976158142,75000
2017-08-29,1.399999976158142,1.3700000047683716,1.3899999856948853,1.399999976158142,85000
2017-08-30,1.3700000047683716,1.3700000047683716,1.399999976158142,1.3700000047683716,15000
2017-08-31,1.3700000047683716,1.3700000047683716,1.3700000047683716,1.3700000047683716,15000
2017-09-01,1.3700000047683716,1.3700000047683716,1.3700000047683716,1.3700000047683716,50000
2017-09-04,1.3799999952316284,1.25,1.25,1.3700000047683716,30000
2017-09-05,1.3600000143051147,1.350000023841858,1.350000023841858,1.3300000429153442,20000
2017-09-06,1.3200000524520874,1.2999999523162842,1.3200000524520874,1.3200000524520874,150000
2017-09-07,1.3200000524520874,1.2799999713897705,1.2799999713897705,1.3200000524520874,65000
2017-09-08,1.3200000524520874,1.2699999809265137,1.2699999809265137,1.2799999713897705,60000
2017-09-11,1.3799999952316284,1.2799999713897705,1.2799999713897705,1.3799999952316284,70000
2017-09-12,1.3799999952316284,1.3799999952316284,1.3799999952316284,1.3799999952316284,20000
2017-09-13,1.350000023841858,1.2899999618530271,1.2899999618530271,1.309999942779541,35000
2017-09-14,1.3600000143051147,1.2699999809265137,1.309999942779541,1.2899999618530271,45000
2017-09-15,1.3200000524520874,1.2999999523162842,1.3200000524520874,1.3400000333786009,50000
2017-09-18,1.3799999952316284,1.3700000047683716,1.3799999952316284,1.3799999952316284,60000
2017-09-19,1.350000023841858,1.2999999523162842,1.2999999523162842,1.350000023841858,130000
2017-09-20,1.350000023841858,1.350000023841858,1.350000023841858,1.350000023841858,0
2017-09-21,1.350000023841858,1.350000023841858,1.350000023841858,1.3400000333786009,25000
2017-09-22,1.3600000143051147,1.2899999618530271,1.3600000143051147,1.2899999618530271,90000
2017-09-25,1.2899999618530271,1.2799999713897705,1.2799999713897705,1.2799999713897705,105000
2017-09-26,1.2799999713897705,1.25,1.25,1.2799999713897705,50044
2017-09-27,1.2799999713897705,1.25,1.2799999713897705,1.25,100000
2017-09-28,1.2699999809265137,1.25,1.25,1.2699999809265137,135000
2017-09-29,1.2699999809265137,1.2599999904632568,1.2699999809265137,1.2699999809265137,95000
2017-10-03,1.2799999713897705,1.2699999809265137,1.2699999809265137,1.2799999713897705,40000
2017-10-04,1.2799999713897705,1.2799999713897705,1.2799999713897705,1.2799999713897705,0
2017-10-06,1.2999999523162842,1.2599999904632568,1.2799999713897705,1.2899999618530271,135000
2017-10-09,1.2899999618530271,1.2699999809265137,1.2899999618530271,1.2699999809265137,120000
2017-10-10,1.2699999809265137,1.25,1.2699999809265137,1.2699999809265137,75000
2017-10-11,1.3300000429153442,1.2799999713897705,1.2799999713897705,1.3200000524520874,6850000
2017-10-12,1.8500000238418581,1.3200000524520874,1.3300000429153442,1.7799999713897705,4055000
2017-10-13,1.75,1.559999942779541,1.75,1.6000000238418581,900000
2017-10-16,1.6000000238418581,1.4199999570846558,1.6000000238418581,1.5399999618530271,485000
2017-10-17,1.5499999523162842,1.5,1.5499999523162842,1.5399999618530271,115000
2017-10-18,1.4600000381469729,1.4600000381469729,1.4600000381469729,1.4600000381469729,5000
2017-10-19,1.4600000381469729,1.4199999570846558,1.4600000381469729,1.4199999570846558,205000
2017-10-20,1.4299999475479126,1.4199999570846558,1.4199999570846558,1.4500000476837158,15000
2017-10-23,1.4600000381469729,1.4600000381469729,1.4600000381469729,1.4600000381469729,30000
2017-10-24,1.6499999761581419,1.5,1.5,1.5800000429153442,300000
2017-10-25,1.5,1.4900000095367432,1.5,1.4900000095367432,120000
2017-10-26,1.5,1.4900000095367432,1.5,1.4900000095367432,25000
2017-10-27,1.5099999904632568,1.4500000476837158,1.4500000476837158,1.5,50000
2017-10-30,1.4600000381469729,1.4500000476837158,1.4500000476837158,1.4600000381469729,110000
2017-10-31,1.4600000381469729,1.4299999475479126,1.4299999475479126,1.4700000286102295,75000
2017-11-01,1.4600000381469729,1.4500000476837158,1.4600000381469729,1.4500000476837158,60000
2017-11-02,1.75,1.5700000524520874,1.6000000238418581,1.6399999856948853,680000
2017-11-03,1.6799999475479126,1.6000000238418581,1.6399999856948853,1.6100000143051147,140397
2017-11-06,1.6599999666213991,1.5700000524520874,1.5700000524520874,1.5800000429153442,25000
2017-11-07,1.6399999856948853,1.5900000333786009,1.5900000333786009,1.5900000333786009,100000
2017-11-08,1.6000000238418581,1.5900000333786009,1.5900000333786009,1.5900000333786009,105000
2017-11-09,1.6399999856948853,1.5700000524520874,1.5700000524520874,1.6200000047683716,125000
2017-11-10,1.5800000429153442,1.5,1.5800000429153442,1.5700000524520874,120000
2017-11-13,1.5199999809265137,1.5,1.5199999809265137,1.5,175000
2017-11-14,1.5099999904632568,1.5099999904632568,1.5099999904632568,1.5099999904632568,15000
2017-11-15,1.440000057220459,1.4199999570846558,1.4199999570846558,1.4500000476837158,10000
2017-11-16,1.5199999809265137,1.4500000476837158,1.4500000476837158,1.4600000381469729,50000
2017-11-17,1.4700000286102295,1.4600000381469729,1.4600000381469729,1.4700000286102295,110750
2017-11-20,1.440000057220459,1.440000057220459,1.440000057220459,1.4500000476837158,30000
2017-11-21,1.4500000476837158,1.4099999666213991,1.4500000476837158,1.4299999475479126,170000
2017-11-22,1.440000057220459,1.440000057220459,1.440000057220459,1.440000057220459,15000
2017-11-23,1.4199999570846558,1.4099999666213991,1.4199999570846558,1.4099999666213991,110000
2017-11-24,1.4099999666213991,1.399999976158142,1.4099999666213991,1.4299999475479126,85000
2017-11-27,1.4299999475479126,1.4299999475479126,1.4299999475479126,1.4299999475479126,15000
2017-11-28,1.4299999475479126,1.4299999475479126,1.4299999475479126,1.4299999475479126,0
2017-11-29,1.399999976158142,1.3700000047683716,1.3899999856948853,1.399999976158142,25000
2017-11-30,1.4299999475479126,1.4299999475479126,1.4299999475479126,1.4299999475479126,10000
2017-12-01,1.4299999475479126,1.399999976158142,1.4299999475479126,1.399999976158142,10000
2017-12-04,1.3899999856948853,1.3899999856948853,1.3899999856948853,1.3899999856948853,45000
2017-12-05,1.4099999666213991,1.4099999666213991,1.4099999666213991,1.4099999666213991,0
2017-12-06,1.4099999666213991,1.4099999666213991,1.4099999666213991,1.4099999666213991,0
2017-12-07,1.4099999666213991,1.350000023841858,1.350000023841858,1.3799999952316284,115000
2017-12-08,1.350000023841858,1.3300000429153442,1.350000023841858,1.3300000429153442,170000
2017-12-11,1.4099999666213991,1.4099999666213991,1.4099999666213991,1.4099999666213991,65000
2017-12-12,1.3300000429153442,1.3300000429153442,1.3300000429153442,1.3700000047683716,65000
2017-12-13,1.3700000047683716,1.350000023841858,1.3600000143051147,1.3700000047683716,55000
2017-12-14,1.3799999952316284,1.3799999952316284,1.3799999952316284,1.3799999952316284,0
2017-12-15,1.3300000429153442,1.3200000524520874,1.3200000524520874,1.3300000429153442,20000
2017-12-18,1.3300000429153442,1.3300000429153442,1.3300000429153442,1.3300000429153442,0
2017-12-19,1.3400000333786009,1.2999999523162842,1.3200000524520874,1.2999999523162842,70000
2017-12-20,1.2999999523162842,1.2999999523162842,1.2999999523162842,1.2999999523162842,0
2017-12-21,1.309999942779541,1.2999999523162842,1.309999942779541,1.2999999523162842,65000
2017-12-22,1.2999999523162842,1.2899999618530271,1.2999999523162842,1.2999999523162842,70000
2017-12-27,1.2999999523162842,1.2999999523162842,1.2999999523162842,1.2999999523162842,0
2017-12-28,1.2999999523162842,1.2999999523162842,1.2999999523162842,1.2999999523162842,0
2017-12-29,1.2999999523162842,1.2999999523162842,1.2999999523162842,1.2999999523162842,0
2018-01-02,1.309999942779541,1.2999999523162842,1.2999999523162842,1.309999942779541,155000
2018-01-03,1.399999976158142,1.309999942779541,1.3799999952316284,1.3799999952316284,180000
2018-01-04,1.3700000047683716,1.3600000143051147,1.3600000143051147,1.3600000143051147,125000
2018-01-05,1.350000023841858,1.3200000524520874,1.350000023841858,1.3400000333786009,60000
2018-01-08,1.3200000524520874,1.309999942779541,1.3200000524520874,1.3200000524520874,105000
2018-01-09,1.3200000524520874,1.3200000524520874,1.3200000524520874,1.3200000524520874,0
2018-01-10,1.3200000524520874,1.3200000524520874,1.3200000524520874,1.3200000524520874,10000
2018-01-11,1.3600000143051147,1.3200000524520874,1.3200000524520874,1.3600000143051147,70000
2018-01-12,1.3600000143051147,1.3600000143051147,1.3600000143051147,1.3600000143051147,60000
2018-01-15,1.3600000143051147,1.309999942779541,1.3600000143051147,1.309999942779541,75000
2018-01-16,1.4099999666213991,1.309999942779541,1.309999942779541,1.3200000524520874,40000
2018-01-17,1.3400000333786009,1.3300000429153442,1.3300000429153442,1.3400000333786009,25000
2018-01-18,1.350000023841858,1.3200000524520874,1.3400000333786009,1.3400000333786009,135000
2018-01-19,1.3400000333786009,1.3400000333786009,1.3400000333786009,1.3400000333786009,0
2018-01-22,1.3600000143051147,1.3300000429153442,1.3400000333786009,1.350000023841858,145000
2018-01-23,1.3600000143051147,1.3200000524520874,1.3600000143051147,1.3200000524520874,55000
2018-01-24,1.3300000429153442,1.3200000524520874,1.3300000429153442,1.3200000524520874,135000
2018-01-25,1.3300000429153442,1.3200000524520874,1.3300000429153442,1.3200000524520874,30000
2018-01-26,1.3200000524520874,1.3200000524520874,1.3200000524520874,1.3200000524520874,0
2018-01-29,1.3200000524520874,1.309999942779541,1.3200000524520874,1.309999942779541,40000
2018-01-30,1.309999942779541,1.309999942779541,1.309999942779541,1.309999942779541,30000
2018-01-31,1.309999942779541,1.309999942779541,1.309999942779541,1.309999942779541,0
2018-02-01,1.309999942779541,1.309999942779541,1.309999942779541,1.309999942779541,0
2018-02-02,1.3300000429153442,1.309999942779541,1.309999942779541,1.3300000429153442,60000
2018-02-05,1.3300000429153442,1.25,1.3200000524520874,1.2999999523162842,70000
2018-02-06,1.2999999523162842,1.2400000095367432,1.2999999523162842,1.2599999904632568,185000
2018-02-07,1.2699999809265137,1.2599999904632568,1.2699999809265137,1.2599999904632568,85000
2018-02-08,1.2699999809265137,1.2699999809265137,1.2699999809265137,1.2699999809265137,0
2018-02-09,1.2999999523162842,1.2999999523162842,1.2999999523162842,1.2999999523162842,30000
2018-02-12,1.2599999904632568,1.2400000095367432,1.2599999904632568,1.2400000095367432,100000
2018-02-13,1.2400000095367432,1.2400000095367432,1.2400000095367432,1.2400000095367432,15000
2018-02-14,1.2999999523162842,1.2400000095367432,1.2400000095367432,1.2999999523162842,140000
2018-02-15,1.2999999523162842,1.2999999523162842,1.2999999523162842,1.2999999523162842,0
2018-02-20,1.3400000333786009,1.2999999523162842,1.2999999523162842,1.3400000333786009,35000
2018-02-21,1.3300000429153442,1.2999999523162842,1.3300000429153442,1.2999999523162842,50000
2018-02-22,1.3799999952316284,1.2999999523162842,1.3300000429153442,1.3600000143051147,110000
2018-02-23,1.309999942779541,1.309999942779541,1.309999942779541,1.309999942779541,0
2018-02-26,1.309999942779541,1.309999942779541,1.309999942779541,1.309999942779541,30000
2018-02-27,1.309999942779541,1.309999942779541,1.309999942779541,1.309999942779541,0
2018-02-28,1.3200000524520874,1.309999942779541,1.3200000524520874,1.309999942779541,20000
2018-03-01,1.309999942779541,1.2999999523162842,1.309999942779541,1.2999999523162842,60000
2018-03-02,1.25,1.25,1.25,1.25,0
2018-03-05,1.25,1.25,1.25,1.25,5000
2018-03-06,1.25,1.25,1.25,1.25,0
2018-03-07,1.2799999713897705,1.2799999713897705,1.2799999713897705,1.2799999713897705,30000
2018-03-08,1.2799999713897705,1.2799999713897705,1.2799999713897705,1.2799999713897705,0
2018-03-09,1.309999942779541,1.2999999523162842,1.2999999523162842,1.309999942779541,105000
2018-03-12,1.2999999523162842,1.2999999523162842,1.2999999523162842,1.2999999523162842,10000
2018-03-13,1.2899999618530271,1.2599999904632568,1.2899999618530271,1.2599999904632568,50000
2018-03-14,1.2599999904632568,1.2599999904632568,1.2599999904632568,1.2599999904632568,20000
2018-03-15,1.2999999523162842,1.2799999713897705,1.2799999713897705,1.2999999523162842,30853
2018-03-16,1.2999999523162842,1.2899999618530271,1.2999999523162842,1.2999999523162842,50000
2018-03-19,1.2999999523162842,1.2999999523162842,1.2999999523162842,1.2999999523162842,0
2018-03-20,1.2999999523162842,1.2599999904632568,1.2699999809265137,1.2999999523162842,75000
2018-03-21,1.350000023841858,1.2999999523162842,1.2999999523162842,1.2999999523162842,235000
2018-03-22,1.350000023841858,1.3300000429153442,1.350000023841858,1.3300000429153442,55000
2018-03-23,1.2999999523162842,1.2799999713897705,1.2799999713897705,1.2999999523162842,150000
2018-03-26,1.2999999523162842,1.2799999713897705,1.2899999618530271,1.2799999713897705,150000
2018-03-27,1.2899999618530271,1.2899999618530271,1.2899999618530271,1.2899999618530271,10000
2018-03-28,1.2899999618530271,1.2799999713897705,1.2899999618530271,1.2799999713897705,90000
2018-03-29,1.3400000333786009,1.309999942779541,1.3400000333786009,1.309999942779541,40000
2018-04-03,1.2799999713897705,1.2300000190734863,1.2799999713897705,1.25,60000
2018-04-04,1.2799999713897705,1.2300000190734863,1.2799999713897705,1.2799999713897705,20000
2018-04-06,1.2799999713897705,1.2799999713897705,1.2799999713897705,1.2799999713897705,30000
2018-04-09,1.3200000524520874,1.2699999809265137,1.2699999809265137,1.3200000524520874,205000
2018-04-10,1.3200000524520874,1.3200000524520874,1.3200000524520874,1.3200000524520874,0
2018-04-11,1.2799999713897705,1.2799999713897705,1.2799999713897705,1.2799999713897705,15000
2018-04-12,1.2999999523162842,1.2799999713897705,1.2799999713897705,1.2899999618530271,35000
2018-04-13,1.2999999523162842,1.2799999713897705,1.2799999713897705,1.2899999618530271,65000
2018-04-16,1.2999999523162842,1.2899999618530271,1.2899999618530271,1.2899999618530271,80000
2018-04-17,1.2899999618530271,1.2899999618530271,1.2899999618530271,1.2899999618530271,30000
2018-04-18,1.2899999618530271,1.2799999713897705,1.2899999618530271,1.2799999713897705,70000
2018-04-19,1.2699999809265137,1.2699999809265137,1.2699999809265137,1.2699999809265137,20000
2018-04-20,1.2699999809265137,1.2699999809265137,1.2699999809265137,1.2699999809265137,15000
2018-04-23,1.2599999904632568,1.2599999904632568,1.2599999904632568,1.2599999904632568,0
2018-04-24,1.2599999904632568,1.2599999904632568,1.2599999904632568,1.2599999904632568,45000
2018-04-25,1.2599999904632568,1.2599999904632568,1.2599999904632568,1.2599999904632568,0
2018-04-26,1.2599999904632568,1.25,1.2599999904632568,1.25,25000
2018-04-27,1.25,1.25,1.25,1.25,15000
2018-04-30,1.2999999523162842,1.25,1.25,1.2999999523162842,70000
2018-05-02,1.2999999523162842,1.2999999523162842,1.2999999523162842,1.2999999523162842,0
2018-05-03,1.3600000143051147,1.2999999523162842,1.2999999523162842,1.3600000143051147,405000
2018-05-04,1.3600000143051147,1.3400000333786009,1.3600000143051147,1.3400000333786009,50000
2018-05-07,1.309999942779541,1.25,1.2599999904632568,1.309999942779541,35000
2018-05-08,1.2999999523162842,1.2999999523162842,1.2999999523162842,1.2999999523162842,35000
2018-05-09,1.2999999523162842,1.2999999523162842,1.2999999523162842,1.2999999523162842,30000
2018-05-10,1.2999999523162842,1.2999999523162842,1.2999999523162842,1.2999999523162842,5000
2018-05-11,1.2899999618530271,1.2699999809265137,1.2899999618530271,1.2799999713897705,200000
2018-05-14,1.2899999618530271,1.25,1.25,1.2899999618530271,31000
2018-05-15,1.2899999618530271,1.2899999618530271,1.2899999618530271,1.2899999618530271,0
2018-05-16,1.2999999523162842,1.2899999618530271,1.2899999618530271,1.2899999618530271,30000
2018-05-17,1.3200000524520874,1.2999999523162842,1.2999999523162842,1.3200000524520874,115000
2018-05-18,1.399999976158142,1.3400000333786009,1.3600000143051147,1.3899999856948853,205000
2018-05-21,1.399999976158142,1.3600000143051147,1.3600000143051147,1.3600000143051147,105000
2018-05-23,1.3799999952316284,1.3600000143051147,1.3600000143051147,1.3799999952316284,35000
2018-05-24,1.399999976158142,1.3700000047683716,1.3799999952316284,1.399999976158142,465000
2018-05-25,1.399999976158142,1.3700000047683716,1.399999976158142,1.3700000047683716,45000
2018-05-28,1.3899999856948853,1.3799999952316284,1.3799999952316284,1.3899999856948853,75620
2018-05-29,1.5,1.440000057220459,1.4500000476837158,1.4600000381469729,400600
2018-05-30,1.8899999856948853,1.4600000381469729,1.4600000381469729,1.8200000524520876,1750678
2018-05-31,1.919999957084656,1.7300000190734863,1.8200000524520876,1.7899999618530271,1215000
2018-06-01,1.7999999523162842,1.6000000238418581,1.7599999904632568,1.6200000047683716,1145010
2018-06-04,1.7999999523162842,1.6100000143051147,1.6100000143051147,1.7799999713897705,345000
2018-06-05,2.0699999332427983,1.7599999904632568,1.7999999523162842,2.059999942779541,1775000
2018-06-06,2.5999999046325684,2.0899999141693115,2.0899999141693115,2.490000009536743,9411702
2018-06-07,2.450000047683716,2.1099998950958248,2.450000047683716,2.200000047683716,2560000
2018-06-08,2.309999942779541,2.1099998950958248,2.190000057220459,2.309999942779541,720000
2018-06-11,2.5199999809265137,2.309999942779541,2.3199999332427983,2.4600000381469727,1931000
2018-06-12,2.539999961853028,2.380000114440918,2.4600000381469727,2.4800000190734863,1075000
2018-06-13,2.4800000190734863,2.4100000858306885,2.4800000190734863,2.4600000381469727,295000
2018-06-14,2.470000028610229,2.369999885559082,2.4600000381469727,2.4600000381469727,300000
2018-06-15,2.450000047683716,2.220000028610229,2.450000047683716,2.259999990463257,330000
2018-06-19,2.200000047683716,2.0,2.150000095367432,2.1099998950958248,250000
2018-06-20,2.1400001049041752,2.0,2.1199998855590816,2.1400001049041752,100000
2018-06-21,2.1700000762939453,2.0,2.1400001049041752,2.0,215000
2018-06-22,2.1400001049041752,2.0,2.0199999809265137,2.1199998855590816,90000
2018-06-25,2.150000095367432,2.1199998855590816,2.150000095367432,2.0999999046325684,85000
2018-06-26,2.0999999046325684,1.8999999761581419,2.0999999046325684,1.9800000190734863,470000
2018-06-27,1.9600000381469729,1.8999999761581419,1.9600000381469729,1.940000057220459,80000
2018-06-28,1.950000047683716,1.8999999761581419,1.8999999761581419,1.950000047683716,120000
2018-06-29,1.950000047683716,1.8400000333786009,1.950000047683716,1.8999999761581419,70000
2018-07-03,1.870000004768372,1.870000004768372,1.870000004768372,1.870000004768372,70000
2018-07-04,1.830000042915344,1.8200000524520876,1.8200000524520876,1.830000042915344,15000
2018-07-05,1.809999942779541,1.7999999523162842,1.809999942779541,1.7999999523162842,100000
2018-07-06,1.809999942779541,1.7799999713897705,1.7899999618530271,1.7799999713897705,135000
2018-07-09,2.009999990463257,1.9700000286102293,2.009999990463257,1.950000047683716,54000
2018-07-10,1.940000057220459,1.7999999523162842,1.919999957084656,1.8600000143051147,70000
2018-07-11,1.8400000333786009,1.8400000333786009,1.8400000333786009,1.8400000333786009,0
2018-07-12,1.9900000095367432,1.8400000333786009,1.8400000333786009,1.9600000381469729,35000
2018-07-13,2.0199999809265137,1.7200000286102295,1.830000042915344,1.8899999856948853,160000
2018-07-16,1.8899999856948853,1.8899999856948853,1.8899999856948853,1.8899999856948853,0
2018-07-17,2.0899999141693115,2.0199999809265137,2.0899999141693115,2.0199999809265137,115000
2018-07-18,1.9299999475479128,1.9299999475479128,1.9299999475479128,1.9299999475479128,10000
2018-07-19,1.9299999475479128,1.9299999475479128,1.9299999475479128,1.9299999475479128,0
2018-07-20,1.950000047683716,1.919999957084656,1.950000047683716,1.9099999666213991,15000
2018-07-23,1.8600000143051147,1.830000042915344,1.8500000238418581,1.8500000238418581,120000
2018-07-24,2.0299999713897705,1.8600000143051147,1.8600000143051147,2.009999990463257,75000
2018-07-25,2.0299999713897705,2.0199999809265137,2.0299999713897705,2.0199999809265137,140000
2018-07-26,1.870000004768372,1.870000004768372,1.870000004768372,1.940000057220459,5000
2018-07-27,1.9900000095367432,1.8799999952316284,1.8799999952316284,2.0,45000
2018-07-30,1.9900000095367432,1.9900000095367432,1.9900000095367432,1.9900000095367432,0
2018-07-31,1.8799999952316284,1.8799999952316284,1.8799999952316284,1.8799999952316284,10000
2018-08-01,1.9099999666213991,1.9099999666213991,1.9099999666213991,1.9099999666213991,0
2018-08-02,1.9099999666213991,1.8600000143051147,1.8600000143051147,1.8899999856948853,75000
2018-08-03,1.8999999761581419,1.8999999761581419,1.8999999761581419,1.919999957084656,15000
2018-08-06,1.9700000286102293,1.9700000286102293,1.9700000286102293,1.9700000286102293,0
2018-08-07,1.950000047683716,1.950000047683716,1.950000047683716,1.950000047683716,0
2018-08-08,1.8799999952316284,1.8799999952316284,1.8799999952316284,1.8799999952316284,0
2018-08-09,1.919999957084656,1.919999957084656,1.919999957084656,1.919999957084656,25000
2018-08-10,1.8799999952316284,1.870000004768372,1.870000004768372,1.870000004768372,25000
2018-08-13,1.8999999761581419,1.8600000143051147,1.8600000143051147,1.8899999856948853,45000
2018-08-14,1.8999999761581419,1.8799999952316284,1.8999999761581419,1.8799999952316284,20000
2018-08-15,1.8799999952316284,1.809999942779541,1.809999942779541,1.8500000238418581,45000
2018-08-16,1.870000004768372,1.809999942779541,1.8200000524520876,1.870000004768372,60000
2018-08-17,1.830000042915344,1.809999942779541,1.809999942779541,1.830000042915344,35000
2018-08-20,1.8500000238418581,1.830000042915344,1.830000042915344,1.8400000333786009,20000
2018-08-21,1.919999957084656,1.919999957084656,1.919999957084656,1.919999957084656,0
2018-08-22,1.8500000238418581,1.8400000333786009,1.8400000333786009,1.8500000238418581,30000
2018-08-23,1.8500000238418581,1.8500000238418581,1.8500000238418581,1.8500000238418581,0
2018-08-24,1.8500000238418581,1.8500000238418581,1.8500000238418581,1.8500000238418581,15000
2018-08-27,1.8999999761581419,1.809999942779541,1.809999942779541,1.8999999761581419,30000
2018-08-28,1.8999999761581419,1.8999999761581419,1.8999999761581419,1.8999999761581419,0
2018-08-29,1.8500000238418581,1.7300000190734863,1.8500000238418581,1.7400000095367432,185000
2018-08-30,1.7400000095367432,1.7400000095367432,1.7400000095367432,1.7400000095367432,0
2018-08-31,1.7400000095367432,1.7400000095367432,1.7400000095367432,1.7400000095367432,30000
2018-09-03,1.7400000095367432,1.7400000095367432,1.7400000095367432,1.7400000095367432,0
2018-09-04,1.7400000095367432,1.7400000095367432,1.7400000095367432,1.7400000095367432,0
2018-09-05,1.6000000238418581,1.5,1.6000000238418581,1.5299999713897705,265000
2018-09-06,1.7599999904632568,1.6499999761581419,1.7400000095367432,1.6499999761581419,70000
2018-09-07,1.6599999666213991,1.6499999761581419,1.6599999666213991,1.6599999666213991,30000
2018-09-10,1.7100000381469729,1.7000000476837158,1.7000000476837158,1.7000000476837158,20000
2018-09-11,1.7300000190734863,1.5499999523162842,1.6499999761581419,1.6000000238418581,65000
2018-09-12,1.6000000238418581,1.5,1.5,1.6000000238418581,35000
2018-09-13,1.75,1.6000000238418581,1.6000000238418581,1.690000057220459,25000
2018-09-14,1.75,1.6000000238418581,1.6799999475479126,1.690000057220459,10000
2018-09-17,1.690000057220459,1.690000057220459,1.690000057220459,1.690000057220459,0
2018-09-18,1.809999942779541,1.6000000238418581,1.6000000238418581,1.809999942779541,75000
2018-09-19,1.809999942779541,1.6000000238418581,1.809999942779541,1.809999942779541,6018
2018-09-20,1.7999999523162842,1.6499999761581419,1.7999999523162842,1.6499999761581419,10000
2018-09-21,1.7000000476837158,1.7000000476837158,1.7000000476837158,1.7000000476837158,0
2018-09-24,1.7000000476837158,1.7000000476837158,1.7000000476837158,1.7000000476837158,0
2018-09-26,1.75,1.6000000238418581,1.6000000238418581,1.75,45000
2018-09-27,1.75,1.75,1.75,1.75,0
2018-09-28,1.809999942779541,1.75,1.7999999523162842,1.75,50000
2018-10-02,1.7400000095367432,1.7400000095367432,1.7400000095367432,1.7400000095367432,0
2018-10-03,1.7400000095367432,1.7400000095367432,1.7400000095367432,1.7400000095367432,0
2018-10-04,1.7400000095367432,1.7400000095367432,1.7400000095367432,1.7400000095367432,0
2018-10-05,1.7400000095367432,1.7400000095367432,1.7400000095367432,1.7400000095367432,0
2018-10-08,1.6599999666213991,1.6000000238418581,1.6599999666213991,1.6200000047683716,65000
2018-10-09,1.559999942779541,1.559999942779541,1.559999942779541,1.559999942779541,20000
2018-10-10,1.559999942779541,1.559999942779541,1.559999942779541,1.559999942779541,25000
2018-10-11,1.5,1.4199999570846558,1.4199999570846558,1.4299999475479126,435000
2018-10-12,1.4299999475479126,1.4299999475479126,1.4299999475479126,1.4299999475479126,115000
2018-10-15,1.4299999475479126,1.4299999475479126,1.4299999475479126,1.4299999475479126,0
2018-10-16,1.4600000381469729,1.440000057220459,1.4600000381469729,1.440000057220459,45000
2018-10-18,1.5,1.440000057220459,1.440000057220459,1.5,75000
2018-10-19,1.5,1.5,1.5,1.5,0
2018-10-22,1.5,1.5,1.5,1.5,10000
2018-10-23,1.5,1.5,1.5,1.5,0
2018-10-24,1.5,1.5,1.5,1.5,0
2018-10-25,1.5199999809265137,1.5099999904632568,1.5099999904632568,1.5499999523162842,25000
2018-10-26,1.5499999523162842,1.5499999523162842,1.5499999523162842,1.5499999523162842,20000
2018-10-29,1.5499999523162842,1.5499999523162842,1.5499999523162842,1.5499999523162842,0
2018-10-30,1.5,1.399999976158142,1.4900000095367432,1.4299999475479126,800000
2018-10-31,1.5399999618530271,1.4099999666213991,1.4199999570846558,1.4199999570846558,440000
2018-11-01,1.4800000190734863,1.399999976158142,1.4299999475479126,1.4299999475479126,660000
2018-11-02,1.4900000095367432,1.4500000476837158,1.4500000476837158,1.4800000190734863,445000
2018-11-05,1.5099999904632568,1.440000057220459,1.4600000381469729,1.5,440000
2018-11-06,1.5099999904632568,1.5099999904632568,1.5099999904632568,1.5099999904632568,0
2018-11-07,1.5099999904632568,1.5099999904632568,1.5299999713897705,1.5099999904632568,10000
2018-11-08,1.690000057220459,1.5,1.5,1.690000057220459,145000
2018-11-09,1.6599999666213991,1.6299999952316284,1.6299999952316284,1.6499999761581419,41000
2018-11-12,1.5800000429153442,1.5800000429153442,1.5800000429153442,1.5800000429153442,0
2018-11-13,1.5800000429153442,1.5800000429153442,1.5800000429153442,1.5800000429153442,0
2018-11-14,1.5800000429153442,1.5800000429153442,1.5800000429153442,1.5800000429153442,0
2018-11-15,1.8899999856948853,1.5800000429153442,1.5800000429153442,1.8600000143051147,25227304
2018-11-16,1.8600000143051147,1.7200000286102295,1.8600000143051147,1.7999999523162842,200000
2018-11-19,1.8500000238418581,1.7799999713897705,1.7899999618530271,1.8400000333786009,205000
2018-11-20,1.7999999523162842,1.7899999618530271,1.7999999523162842,1.7999999523162842,235000
2018-11-21,1.8200000524520876,1.75,1.8200000524520876,1.75,120000
2018-11-22,1.75,1.6299999952316284,1.75,1.6699999570846558,127304
2018-11-23,1.7400000095367432,1.7000000476837158,1.7000000476837158,1.7400000095367432,110000
2018-11-26,1.7400000095367432,1.7000000476837158,1.7400000095367432,1.7400000095367432,100000
2018-11-27,1.8500000238418581,1.7400000095367432,1.7599999904632568,1.7400000095367432,125000
2018-11-28,1.7799999713897705,1.7599999904632568,1.7699999809265137,1.7799999713897705,65000
2018-11-29,1.8500000238418581,1.7799999713897705,1.8400000333786009,1.7799999713897705,125000
2018-11-30,1.7799999713897705,1.7599999904632568,1.7799999713897705,1.7699999809265137,80000
2018-12-03,1.8999999761581419,1.7799999713897705,1.7899999618530271,1.7799999713897705,365000
2018-12-04,1.7799999713897705,1.7599999904632568,1.7799999713897705,1.7599999904632568,160000
2018-12-05,1.75,1.7400000095367432,1.75,1.7400000095367432,85000
2018-12-06,1.690000057220459,1.6699999570846558,1.6799999475479126,1.690000057220459,90000
2018-12-07,1.690000057220459,1.6699999570846558,1.6799999475479126,1.6699999570846558,80000
2018-12-10,1.6799999475479126,1.6599999666213991,1.6799999475479126,1.6599999666213991,85000
2018-12-11,1.7000000476837158,1.6799999475479126,1.7000000476837158,1.6799999475479126,100000
2018-12-12,1.870000004768372,1.7300000190734863,1.7300000190734863,1.7300000190734863,220000
2018-12-13,1.75,1.7300000190734863,1.7300000190734863,1.7300000190734863,110000
2018-12-14,1.8200000524520876,1.7300000190734863,1.7300000190734863,1.7300000190734863,110000
2018-12-17,1.830000042915344,1.7300000190734863,1.7400000095367432,1.7999999523162842,245000
2018-12-18,1.7999999523162842,1.75,1.7999999523162842,1.7699999809265137,110000
2018-12-19,1.7699999809265137,1.75,1.75,1.7599999904632568,105000
2018-12-20,1.7599999904632568,1.7300000190734863,1.7599999904632568,1.7599999904632568,120000
2018-12-21,1.7999999523162842,1.7899999618530271,1.7899999618530271,1.7999999523162842,145000
2018-12-24,1.8400000333786009,1.8200000524520876,1.8400000333786009,1.8200000524520876,85000
2018-12-27,1.8999999761581419,1.7999999523162842,1.8999999761581419,1.8200000524520876,95000
2018-12-28,1.8400000333786009,1.8200000524520876,1.8200000524520876,1.8400000333786009,80000
2018-12-31,1.8600000143051147,1.7999999523162842,1.8600000143051147,1.7999999523162842,80000
2019-01-02,1.8200000524520876,1.7200000286102295,1.8200000524520876,1.7200000286102295,105000
2019-01-03,1.7999999523162842,1.7200000286102295,1.7999999523162842,1.7899999618530271,120000
2019-01-04,1.7899999618530271,1.7799999713897705,1.7899999618530271,1.7799999713897705,90000
2019-01-07,1.7799999713897705,1.75,1.7799999713897705,1.75,90000
2019-01-08,1.7999999523162842,1.75,1.7999999523162842,1.7799999713897705,85000
2019-01-09,1.7799999713897705,1.75,1.7799999713897705,1.7599999904632568,105000
2019-01-10,1.7799999713897705,1.75,1.7799999713897705,1.7599999904632568,90000
2019-01-11,1.7799999713897705,1.75,1.7799999713897705,1.7599999904632568,105000
2019-01-14,1.7599999904632568,1.7000000476837158,1.7599999904632568,1.7599999904632568,65000
2019-01-15,1.7599999904632568,1.7599999904632568,1.7599999904632568,1.7599999904632568,75000
2019-01-16,1.7599999904632568,1.7300000190734863,1.75,1.7400000095367432,80000
2019-01-17,1.7599999904632568,1.7400000095367432,1.7400000095367432,1.7599999904632568,100000
2019-01-18,1.75,1.7300000190734863,1.7300000190734863,1.75,170000
2019-01-21,1.7599999904632568,1.7300000190734863,1.7599999904632568,1.75,190000
2019-01-22,1.7599999904632568,1.7000000476837158,1.7599999904632568,1.75,140000
2019-01-23,1.7599999904632568,1.7300000190734863,1.7599999904632568,1.75,120000
2019-01-24,1.75,1.7000000476837158,1.7300000190734863,1.75,180000
2019-01-25,1.75,1.7300000190734863,1.75,1.7400000095367432,90000
2019-01-28,1.7699999809265137,1.75,1.7599999904632568,1.75,185000
2019-01-29,1.7899999618530271,1.75,1.75,1.7899999618530271,245000
2019-01-30,1.8500000238418581,1.7799999713897705,1.7899999618530271,1.8200000524520876,845000
2019-01-31,2.0899999141693115,1.8500000238418581,1.8899999856948853,2.0899999141693115,4525000
2019-02-01,2.2100000381469727,2.0899999141693115,2.0999999046325684,2.0899999141693115,620000
2019-02-04,2.0,1.8500000238418581,2.0,1.919999957084656,165000
2019-02-08,1.919999957084656,1.870000004768372,1.919999957084656,1.919999957084656,240000
2019-02-11,2.2799999713897705,2.0999999046325684,2.1600000858306885,2.200000047683716,1910000
2019-02-12,2.200000047683716,2.0,2.200000047683716,2.0999999046325684,750000
2019-02-13,2.0999999046325684,2.0299999713897705,2.049999952316284,2.049999952316284,445000
2019-02-14,2.0999999046325684,1.9900000095367432,2.039999961853028,2.0,790000
2019-02-15,2.059999942779541,1.950000047683716,2.0,2.0299999713897705,795000
2019-02-18,2.0899999141693115,1.950000047683716,2.0899999141693115,1.9800000190734863,830000
2019-02-19,2.039999961853028,1.9900000095367432,2.0,1.9900000095367432,950000
2019-02-20,2.0,1.8400000333786009,1.9900000095367432,1.8400000333786009,865000
2019-02-21,2.039999961853028,1.8500000238418581,1.8500000238418581,1.8999999761581419,700000
2019-02-22,1.9299999475479128,1.8999999761581419,1.9299999475479128,1.9299999475479128,180000
2019-02-25,1.8899999856948853,1.8500000238418581,1.870000004768372,1.870000004768372,140000
2019-02-26,1.870000004768372,1.7899999618530271,1.870000004768372,1.8500000238418581,150000
2019-02-27,1.7999999523162842,1.75,1.7999999523162842,1.75,40000
2019-02-28,1.8400000333786009,1.75,1.75,1.8200000524520876,300000
2019-03-01,1.7699999809265137,1.75,1.7599999904632568,1.7599999904632568,250000
2019-03-04,1.7899999618530271,1.7400000095367432,1.7400000095367432,1.7799999713897705,195000
2019-03-05,1.7799999713897705,1.75,1.75,1.7699999809265137,130000
2019-03-06,1.7999999523162842,1.75,1.7999999523162842,1.75,70000
2019-03-07,1.75,1.7000000476837158,1.7400000095367432,1.7400000095367432,195000
2019-03-08,1.7000000476837158,1.6499999761581419,1.7000000476837158,1.6499999761581419,140000
2019-03-11,1.6499999761581419,1.5499999523162842,1.5800000429153442,1.6499999761581419,215000
2019-03-12,1.6499999761581419,1.5700000524520874,1.6499999761581419,1.6499999761581419,175000
2019-03-13,1.6299999952316284,1.6000000238418581,1.6299999952316284,1.6000000238418581,70000
2019-03-14,1.6599999666213991,1.6100000143051147,1.6100000143051147,1.6299999952316284,45000
2019-03-15,1.6299999952316284,1.6100000143051147,1.6200000047683716,1.6100000143051147,60000
2019-03-18,1.6799999475479126,1.5199999809265137,1.6599999666213991,1.5700000524520874,95000
2019-03-19,1.5700000524520874,1.5199999809265137,1.5499999523162842,1.5299999713897705,170000
2019-03-20,1.5399999618530271,1.5299999713897705,1.5399999618530271,1.5399999618530271,65000
2019-03-21,1.559999942779541,1.559999942779541,1.559999942779541,1.559999942779541,0
2019-03-22,1.5900000333786009,1.5900000333786009,1.5900000333786009,1.5900000333786009,0
2019-03-25,1.5,1.4199999570846558,1.4800000190734863,1.5,450000
2019-03-26,1.5,1.4500000476837158,1.5,1.4500000476837158,155002
2019-03-27,1.4800000190734863,1.4600000381469729,1.4600000381469729,1.4700000286102295,85000
2019-03-28,1.4500000476837158,1.440000057220459,1.4500000476837158,1.440000057220459,225000
2019-03-29,1.440000057220459,1.440000057220459,1.440000057220459,1.440000057220459,0
2019-04-01,1.4500000476837158,1.4500000476837158,1.4500000476837158,1.4500000476837158,0
2019-04-02,1.4900000095367432,1.4500000476837158,1.4900000095367432,1.4500000476837158,110000
2019-04-03,1.4500000476837158,1.4500000476837158,1.4500000476837158,1.4500000476837158,0
2019-04-04,1.4500000476837158,1.4500000476837158,1.4500000476837158,1.4500000476837158,0
2019-04-08,1.4199999570846558,1.4099999666213991,1.4099999666213991,1.4199999570846558,70000
2019-04-09,1.4800000190734863,1.4199999570846558,1.4500000476837158,1.440000057220459,140000
2019-04-10,1.5399999618530271,1.440000057220459,1.440000057220459,1.5299999713897705,360000
2019-04-11,1.5299999713897705,1.4900000095367432,1.5299999713897705,1.5199999809265137,100000
2019-04-12,1.5399999618530271,1.5,1.5299999713897705,1.5299999713897705,180000
2019-04-15,1.5099999904632568,1.4800000190734863,1.5099999904632568,1.5099999904632568,35000
2019-04-16,1.4600000381469729,1.399999976158142,1.4600000381469729,1.5,130000
2019-04-17,1.4800000190734863,1.4800000190734863,1.4800000190734863,1.4800000190734863,0
2019-04-18,1.4800000190734863,1.440000057220459,1.440000057220459,1.4500000476837158,40000
2019-04-23,1.4800000190734863,1.2999999523162842,1.4299999475479126,1.4600000381469729,160000
2019-04-24,1.440000057220459,1.440000057220459,1.440000057220459,1.440000057220459,0
2019-04-25,1.440000057220459,1.399999976158142,1.440000057220459,1.399999976158142,45000
2019-04-26,1.399999976158142,1.399999976158142,1.399999976158142,1.399999976158142,0
2019-04-29,1.3899999856948853,1.3400000333786009,1.3400000333786009,1.3700000047683716,120000
2019-04-30,1.5399999618530271,1.350000023841858,1.350000023841858,1.4900000095367432,105000
2019-05-02,1.4800000190734863,1.4800000190734863,1.4800000190734863,1.4800000190734863,0
2019-05-03,1.4600000381469729,1.4600000381469729,1.4600000381469729,1.4600000381469729,0
2019-05-06,1.3600000143051147,1.3600000143051147,1.3600000143051147,1.3600000143051147,5000
2019-05-07,1.5199999809265137,1.4600000381469729,1.5199999809265137,1.4600000381469729,10000
2019-05-08,1.3700000047683716,1.3700000047683716,1.3700000047683716,1.3700000047683716,0
2019-05-09,1.3799999952316284,1.3600000143051147,1.3600000143051147,1.3600000143051147,90000
2019-05-10,1.3700000047683716,1.3600000143051147,1.3700000047683716,1.3600000143051147,45000
2019-05-14,1.3200000524520874,1.3200000524520874,1.3200000524520874,1.3200000524520874,0
2019-05-15,1.3600000143051147,1.3600000143051147,1.3600000143051147,1.3600000143051147,0
2019-05-16,1.3600000143051147,1.3600000143051147,1.3600000143051147,1.3600000143051147,0
2019-05-17,1.3300000429153442,1.3200000524520874,1.3300000429153442,1.3600000143051147,35000
2019-05-20,1.350000023841858,1.350000023841858,1.350000023841858,1.350000023841858,0
2019-05-21,1.2999999523162842,1.2899999618530271,1.2999999523162842,1.2999999523162842,40000
2019-05-22,1.3300000429153442,1.3200000524520874,1.3300000429153442,1.3200000524520874,10000
2019-05-23,1.3200000524520874,1.3200000524520874,1.3200000524520874,1.3200000524520874,0
2019-05-24,1.3300000429153442,1.3200000524520874,1.2899999618530271,1.3200000524520874,25000
2019-05-27,1.2999999523162842,1.2999999523162842,1.2999999523162842,1.2999999523162842,0
2019-05-28,1.3799999952316284,1.2999999523162842,1.2999999523162842,1.3799999952316284,195000
2019-05-29,1.3700000047683716,1.3400000333786009,1.3400000333786009,1.3700000047683716,130000
2019-05-30,1.350000023841858,1.350000023841858,1.350000023841858,1.350000023841858,20000
2019-05-31,1.350000023841858,1.350000023841858,1.350000023841858,1.350000023841858,5000
2019-06-03,1.399999976158142,1.350000023841858,1.350000023841858,1.399999976158142,55000
2019-06-04,1.3899999856948853,1.3600000143051147,1.3600000143051147,1.3899999856948853,30000
2019-06-05,1.3799999952316284,1.3799999952316284,1.3799999952316284,1.3799999952316284,0
2019-06-06,1.3799999952316284,1.2899999618530271,1.3799999952316284,1.3300000429153442,80000
2019-06-10,1.440000057220459,1.2799999713897705,1.2899999618530271,1.4299999475479126,150000
2019-06-11,1.4700000286102295,1.4099999666213991,1.4500000476837158,1.4700000286102295,60000
2019-06-12,1.4800000190734863,1.4299999475479126,1.4299999475479126,1.5,70000
2019-06-13,1.5199999809265137,1.4700000286102295,1.5,1.5,160000
2019-06-14,1.5299999713897705,1.5,1.5,1.5,125000
2019-06-17,1.5399999618530271,1.5,1.5399999618530271,1.5,60000
2019-06-18,1.5299999713897705,1.4900000095367432,1.4900000095367432,1.5299999713897705,70000
2019-06-19,1.5499999523162842,1.5099999904632568,1.5499999523162842,1.5099999904632568,150000
2019-06-20,1.5700000524520874,1.5499999523162842,1.5499999523162842,1.5700000524520874,100000
2019-06-21,1.5199999809265137,1.350000023841858,1.350000023841858,1.4500000476837158,125000
2019-06-24,1.5199999809265137,1.5199999809265137,1.5199999809265137,1.5199999809265137,0
2019-06-25,1.5299999713897705,1.5299999713897705,1.5299999713897705,1.5299999713897705,0
2019-06-26,1.5,1.4600000381469729,1.4800000190734863,1.5,55000
2019-06-27,1.5,1.440000057220459,1.4500000476837158,1.5,35000
2019-06-28,1.5,1.5,1.5,1.5,0
2019-07-02,1.5,1.4199999570846558,1.5,1.5,170000
2019-07-03,1.5,1.440000057220459,1.4900000095367432,1.5,175000
2019-07-04,1.5,1.4299999475479126,1.440000057220459,1.5,30000
2019-07-05,1.4900000095367432,1.399999976158142,1.4299999475479126,1.4900000095367432,35000
2019-07-08,1.4500000476837158,1.4500000476837158,1.4500000476837158,1.4500000476837158,0
2019-07-09,1.399999976158142,1.399999976158142,1.399999976158142,1.399999976158142,0
2019-07-10,1.5,1.399999976158142,1.399999976158142,1.5,85000
2019-07-11,1.4900000095367432,1.4900000095367432,1.4900000095367432,1.4900000095367432,0
2019-07-12,1.399999976158142,1.399999976158142,1.399999976158142,1.399999976158142,20000
2019-07-15,1.3600000143051147,1.3200000524520874,1.3200000524520874,1.350000023841858,55000
2019-07-16,1.3700000047683716,1.3600000143051147,1.3600000143051147,1.3700000047683716,20000
2019-07-17,1.350000023841858,1.350000023841858,1.350000023841858,1.350000023841858,5000
2019-07-18,1.350000023841858,1.350000023841858,1.350000023841858,1.350000023841858,0
2019-07-19,1.3600000143051147,1.350000023841858,1.3600000143051147,1.350000023841858,45000
2019-07-22,1.25,1.25,1.25,1.25,20000
2019-07-23,1.3400000333786009,1.2599999904632568,1.2599999904632568,1.3300000429153442,90000
2019-07-24,1.399999976158142,1.399999976158142,1.399999976158142,1.399999976158142,75000
2019-07-25,1.399999976158142,1.399999976158142,1.399999976158142,1.399999976158142,0
2019-07-26,1.399999976158142,1.399999976158142,1.399999976158142,1.399999976158142,0
2019-07-29,1.3600000143051147,1.25,1.3600000143051147,1.25,75000
2019-07-30,1.2699999809265137,1.2699999809265137,1.2599999904632568,1.2799999713897705,25000
2019-07-31,1.2799999713897705,1.2799999713897705,1.2799999713897705,1.2799999713897705,0
2019-08-01,1.3700000047683716,1.3700000047683716,1.3700000047683716,1.3700000047683716,0
2019-08-02,1.2799999713897705,1.2599999904632568,1.2599999904632568,1.2799999713897705,40000
2019-08-05,1.25,1.1799999475479126,1.25,1.1799999475479126,100000
2019-08-06,1.1799999475479126,1.100000023841858,1.1799999475479126,1.149999976158142,150000
2019-08-07,1.25,1.2400000095367432,1.2400000095367432,1.25,110000
2019-08-08,1.2300000190734863,1.2300000190734863,1.2300000190734863,1.2300000190734863,0
2019-08-09,1.0299999713897705,1.0299999713897705,1.0299999713897705,1.1100000143051147,20000
2019-08-12,1.1100000143051147,1.1100000143051147,1.1100000143051147,1.1100000143051147,0
2019-08-13,1.1299999952316284,1.100000023841858,1.100000023841858,1.1299999952316284,55000
2019-08-14,1.1200000047683716,1.1200000047683716,1.1200000047683716,1.1200000047683716,0
2019-08-15,1.1200000047683716,1.1200000047683716,1.1200000047683716,1.1200000047683716,55000
2019-08-16,1.1200000047683716,1.0299999713897705,1.1200000047683716,1.0900000333786009,400000
2019-08-19,1.100000023841858,1.100000023841858,1.100000023841858,1.100000023841858,30000
2019-08-20,1.149999976158142,1.1399999856948853,1.1399999856948853,1.1399999856948853,55000
2019-08-21,1.1399999856948853,1.1399999856948853,1.1399999856948853,1.1399999856948853,0
2019-08-22,1.1399999856948853,1.1399999856948853,1.1399999856948853,1.1399999856948853,0
2019-08-23,1.0099999904632568,1.0099999904632568,1.0099999904632568,1.0299999713897705,10000
2019-08-26,1.0199999809265137,0.9800000190734864,1.0199999809265137,0.9900000095367432,60000
2019-08-27,1.0,1.0,1.0,1.0,25000
2019-08-28,0.9900000095367432,0.9900000095367432,0.9900000095367432,0.9900000095367432,0
2019-08-29,0.9900000095367432,0.9300000071525574,0.9700000286102296,0.9800000190734864,85000
2019-08-30,1.100000023841858,1.0700000524520874,1.100000023841858,1.0900000333786009,55000
2019-09-02,1.0900000333786009,1.0900000333786009,1.0900000333786009,1.0900000333786009,0
2019-09-03,1.0499999523162842,1.0499999523162842,1.0499999523162842,1.0499999523162842,0
2019-09-04,1.0499999523162842,1.0499999523162842,1.0499999523162842,1.0499999523162842,0
2019-09-05,1.0299999713897705,1.0299999713897705,1.0299999713897705,1.0299999713897705,0
2019-09-06,1.0700000524520874,1.0700000524520874,1.0700000524520874,1.0700000524520874,0
2019-09-09,1.0099999904632568,1.0099999904632568,1.0800000429153442,1.0700000524520874,5000
2019-09-10,1.0700000524520874,1.0700000524520874,1.0700000524520874,1.0700000524520874,0
2019-09-11,1.149999976158142,1.149999976158142,1.149999976158142,1.149999976158142,0
2019-09-12,1.149999976158142,1.1100000143051147,1.1100000143051147,1.2000000476837158,50000
2019-09-13,1.25,1.1599999666213991,1.2000000476837158,1.2200000286102295,180000
2019-09-16,1.2999999523162842,1.1799999475479126,1.2999999523162842,1.190000057220459,90000
2019-09-17,1.2000000476837158,1.2000000476837158,1.2000000476837158,1.2000000476837158,10000
2019-09-18,1.2000000476837158,1.2000000476837158,1.2000000476837158,1.2000000476837158,30000
2019-09-19,1.2000000476837158,1.149999976158142,1.2000000476837158,1.1799999475479126,40000
2019-09-20,1.1799999475479126,1.1799999475479126,1.1799999475479126,1.1799999475479126,0
2019-09-23,1.1599999666213991,1.1599999666213991,1.1599999666213991,1.1599999666213991,0
2019-09-24,1.1599999666213991,1.1599999666213991,1.1599999666213991,1.1599999666213991,0
2019-09-25,1.1100000143051147,1.1100000143051147,1.1100000143051147,1.1100000143051147,5000
2019-09-26,1.1100000143051147,1.1100000143051147,1.1100000143051147,1.1100000143051147,0
2019-09-27,1.1100000143051147,1.1100000143051147,1.1100000143051147,1.1100000143051147,30000
2019-09-30,1.1100000143051147,1.1100000143051147,1.1100000143051147,1.1100000143051147,5000
2019-10-02,1.1100000143051147,1.1100000143051147,1.1100000143051147,1.1100000143051147,0
2019-10-03,1.0800000429153442,1.0800000429153442,1.0800000429153442,1.0800000429153442,140000
2019-10-04,1.0800000429153442,1.0800000429153442,1.0800000429153442,1.0800000429153442,35000
2019-10-08,1.0800000429153442,1.0800000429153442,1.0800000429153442,1.0800000429153442,10000
2019-10-09,1.0499999523162842,1.0499999523162842,1.0499999523162842,1.0499999523162842,0
2019-10-10,1.0599999427795408,1.0499999523162842,1.0499999523162842,1.0599999427795408,15000
2019-10-11,1.0599999427795408,1.0499999523162842,1.0599999427795408,1.0399999618530271,15000
2019-10-14,1.0099999904632568,1.0099999904632568,1.0099999904632568,1.0099999904632568,0
2019-10-15,1.0099999904632568,1.0099999904632568,1.0099999904632568,1.0099999904632568,0
2019-10-16,1.0099999904632568,1.0099999904632568,1.0099999904632568,1.0099999904632568,0
2019-10-17,1.0099999904632568,1.0099999904632568,1.0099999904632568,1.0099999904632568,0
2019-10-18,1.0099999904632568,1.0099999904632568,1.0099999904632568,1.0099999904632568,5000
2019-10-21,1.0199999809265137,1.0199999809265137,1.0199999809265137,1.0199999809265137,0
2019-10-22,1.0399999618530271,1.0199999809265137,1.0199999809265137,1.0399999618530271,35000
2019-10-23,1.0399999618530271,1.0399999618530271,1.0399999618530271,1.0399999618530271,0
2019-10-24,1.1399999856948853,1.1299999952316284,1.1399999856948853,1.1299999952316284,25000
2019-10-25,1.1100000143051147,1.1100000143051147,1.1100000143051147,1.1100000143051147,0
2019-10-28,1.1100000143051147,1.1100000143051147,1.1100000143051147,1.1100000143051147,0
2019-10-29,1.0700000524520874,1.0599999427795408,1.0599999427795408,1.0700000524520874,10000
2019-10-30,1.0599999427795408,1.0599999427795408,1.0599999427795408,1.0599999427795408,0
2019-10-31,0.8999999761581421,0.8999999761581421,0.8999999761581421,0.9300000071525574,5000
2019-11-01,0.9800000190734864,0.9800000190734864,0.9800000190734864,0.9900000095367432,20000
2019-11-04,1.100000023841858,0.9800000190734864,1.100000023841858,1.0199999809265137,30000
2019-11-05,1.0199999809265137,1.0199999809265137,1.0199999809265137,1.0199999809265137,0
2019-11-06,1.0199999809265137,1.0199999809265137,1.0199999809265137,1.0199999809265137,0
2019-11-07,1.0199999809265137,1.0199999809265137,1.0199999809265137,1.0199999809265137,0
2019-11-08,1.0199999809265137,1.0199999809265137,1.0199999809265137,1.0199999809265137,0
2019-11-11,0.9100000262260436,0.9100000262260436,0.9100000262260436,0.9399999976158142,5000
2019-11-12,1.0,0.959999978542328,0.959999978542328,0.959999978542328,5995000
2019-11-13,1.8200000524520876,1.0599999427795408,0.9800000190734864,1.149999976158142,9939000
2019-11-14,1.1399999856948853,1.0,1.1299999952316284,1.1100000143051147,12530000
2019-11-15,1.1100000143051147,1.0199999809265137,1.1100000143051147,1.0399999618530271,3185000
2019-11-18,1.0499999523162842,1.0299999713897705,1.0499999523162842,1.0499999523162842,2490000
2019-11-19,1.0399999618530271,1.0,1.0299999713897705,1.0299999713897705,10170000
2019-11-20,1.0199999809265137,0.9700000286102296,0.9700000286102296,1.0199999809265137,20000
2019-11-21,1.0199999809265137,1.0199999809265137,1.0199999809265137,1.0199999809265137,0
2019-11-22,1.1399999856948853,1.0700000524520874,1.0800000429153442,1.0700000524520874,135000
2019-11-25,1.0900000333786009,0.9800000190734864,0.9900000095367432,1.0099999904632568,155000
2019-11-26,1.0099999904632568,1.0099999904632568,1.0099999904632568,1.0099999904632568,0
2019-11-27,0.9900000095367432,0.9800000190734864,0.9900000095367432,0.9900000095367432,20000
2019-11-28,0.9900000095367432,0.9800000190734864,0.9800000190734864,0.9900000095367432,55000
2019-11-29,1.0199999809265137,1.0,1.0,1.0199999809265137,10000
2019-12-02,1.0199999809265137,1.0199999809265137,1.0199999809265137,1.0199999809265137,0
2019-12-03,1.0199999809265137,1.0199999809265137,1.0199999809265137,1.0199999809265137,0
2019-12-04,0.959999978542328,0.959999978542328,0.959999978542328,0.959999978542328,25000
2019-12-05,0.9700000286102296,0.9700000286102296,0.9700000286102296,0.9700000286102296,0
2019-12-06,1.0399999618530271,0.9499999880790709,0.9499999880790709,0.9700000286102296,25000
2019-12-09,1.0099999904632568,1.0099999904632568,1.0099999904632568,1.0099999904632568,0
2019-12-10,1.0,0.9900000095367432,1.0,0.9900000095367432,15000
2019-12-11,1.0099999904632568,1.0099999904632568,1.0099999904632568,1.0099999904632568,0
2019-12-12,1.0099999904632568,1.0,1.0,1.0,25000
2019-12-13,1.0399999618530271,1.0,1.0399999618530271,1.0,85000
2019-12-16,1.0199999809265137,1.0,1.0199999809265137,1.0,20000
2019-12-17,1.0,1.0,1.0,1.0,25000
2019-12-18,1.0,0.959999978542328,1.0,0.959999978542328,20000
2019-12-19,0.9700000286102296,0.9700000286102296,0.9700000286102296,0.9700000286102296,0
2019-12-20,0.9900000095367432,0.9700000286102296,0.9700000286102296,1.0,25000
2019-12-23,0.9800000190734864,0.9700000286102296,0.9800000190734864,0.9700000286102296,20000
2019-12-24,0.9800000190734864,0.959999978542328,0.9700000286102296,0.959999978542328,30000
2019-12-27,1.0099999904632568,0.959999978542328,0.9800000190734864,0.959999978542328,50000
2019-12-30,1.0199999809265137,1.0199999809265137,1.0199999809265137,1.0199999809265137,0
2019-12-31,1.0099999904632568,1.0,1.0,1.0099999904632568,15000
2020-01-02,0.9700000286102296,0.9700000286102296,0.9700000286102296,0.9700000286102296,0
2020-01-03,1.0,0.9800000190734864,1.0,0.9900000095367432,45000
2020-01-06,1.0700000524520874,0.9800000190734864,1.0199999809265137,0.9900000095367432,75000
2020-01-07,1.0099999904632568,0.9900000095367432,1.0099999904632568,0.9900000095367432,35000
2020-01-08,1.0099999904632568,0.959999978542328,1.0099999904632568,0.9700000286102296,95000
2020-01-09,0.9900000095367432,0.9700000286102296,0.9900000095367432,0.9700000286102296,35000
2020-01-10,1.0199999809265137,0.9700000286102296,0.9700000286102296,0.9900000095367432,45000
2020-01-13,0.9800000190734864,0.959999978542328,0.9800000190734864,0.9700000286102296,65000
2020-01-14,0.959999978542328,0.959999978542328,0.959999978542328,0.959999978542328,0
2020-01-15,1.0099999904632568,0.959999978542328,0.9800000190734864,0.959999978542328,70000
2020-01-16,0.959999978542328,0.959999978542328,0.959999978542328,0.959999978542328,30000
2020-01-17,0.959999978542328,0.959999978542328,0.959999978542328,0.959999978542328,20000
2020-01-20,0.9800000190734864,0.9700000286102296,0.9700000286102296,0.9800000190734864,30000
2020-01-21,1.0099999904632568,0.9499999880790709,1.0099999904632568,0.959999978542328,60000
2020-01-22,1.1599999666213991,0.9499999880790709,1.1599999666213991,0.9700000286102296,130000
2020-01-23,0.9800000190734864,0.9300000071525574,0.9800000190734864,0.9700000286102296,95000
2020-01-24,0.9900000095367432,0.9900000095367432,0.9900000095367432,0.9800000190734864,45000
2020-01-29,0.9100000262260436,0.8999999761581421,0.8999999761581421,0.9200000166893004,55000
2020-01-30,0.9300000071525574,0.8799999952316284,0.9300000071525574,0.8899999856948853,90000
2020-01-31,0.8899999856948853,0.8700000047683716,0.8899999856948853,0.8799999952316284,55000
2020-02-03,0.8799999952316284,0.8799999952316284,0.8799999952316284,0.8799999952316284,0
2020-02-04,0.8600000143051147,0.8600000143051147,0.8600000143051147,0.8600000143051147,5000
2020-02-05,0.8600000143051147,0.8600000143051147,0.8600000143051147,0.8600000143051147,0
2020-02-06,0.8600000143051147,0.8600000143051147,0.8600000143051147,0.8600000143051147,5000
2020-02-07,0.9100000262260436,0.8399999737739563,0.8799999952316284,0.8399999737739563,85000
2020-02-10,0.8399999737739563,0.8399999737739563,0.8399999737739563,0.8399999737739563,0
2020-02-11,0.8399999737739563,0.8399999737739563,0.8399999737739563,0.8399999737739563,0
2020-02-12,0.8199999928474426,0.7099999785423279,0.7099999785423279,0.8000000119209291,200000
2020-02-13,0.9200000166893004,0.8299999833106995,0.8299999833106995,0.8399999737739563,90000
2020-02-14,0.8700000047683716,0.8700000047683716,0.8700000047683716,0.8700000047683716,15000
2020-02-17,0.8700000047683716,0.8700000047683716,0.8700000047683716,0.8700000047683716,0
2020-02-18,0.8600000143051147,0.8600000143051147,0.8600000143051147,0.8600000143051147,0
2020-02-19,1.0,0.8999999761581421,1.0,0.9399999976158142,55000
2020-02-20,0.9100000262260436,0.9100000262260436,0.9100000262260436,0.9100000262260436,0
2020-02-21,0.9100000262260436,0.9100000262260436,0.9100000262260436,0.9100000262260436,0
2020-02-24,0.9100000262260436,0.9100000262260436,0.9100000262260436,0.9100000262260436,0
2020-02-25,0.9100000262260436,0.9100000262260436,0.9100000262260436,0.9100000262260436,0
2020-02-26,0.8999999761581421,0.8999999761581421,0.8999999761581421,0.8999999761581421,0
2020-02-27,0.9100000262260436,0.9100000262260436,0.9100000262260436,0.9100000262260436,0
2020-02-28,0.8799999952316284,0.8799999952316284,0.8799999952316284,0.8799999952316284,0
2020-03-02,0.8500000238418579,0.8399999737739563,0.8399999737739563,0.8399999737739563,30000
2020-03-03,0.8700000047683716,0.7799999713897705,0.8700000047683716,0.8100000023841858,45000
2020-03-04,0.8299999833106995,0.8299999833106995,0.8299999833106995,0.8299999833106995,0
2020-03-05,0.8399999737739563,0.7900000214576721,0.7900000214576721,0.8299999833106995,95000
2020-03-06,0.8000000119209291,0.8000000119209291,0.8000000119209291,0.8000000119209291,5000
2020-03-09,0.8000000119209291,0.8000000119209291,0.8000000119209291,0.8000000119209291,0
2020-03-10,0.7900000214576721,0.7900000214576721,0.7900000214576721,0.7900000214576721,0
2020-03-11,0.7699999809265137,0.7699999809265137,0.7699999809265137,0.7699999809265137,5000
2020-03-12,0.75,0.75,0.75,0.75,20000
2020-03-13,0.699999988079071,0.5899999737739563,0.699999988079071,0.6499999761581421,250000
2020-03-16,0.6899999976158142,0.6100000143051147,0.6899999976158142,0.6100000143051147,65000
2020-03-17,0.6499999761581421,0.5799999833106995,0.6499999761581421,0.6499999761581421,111000
2020-03-18,0.6499999761581421,0.6499999761581421,0.6499999761581421,0.6499999761581421,5000
2020-03-19,0.5899999737739563,0.5600000023841858,0.5699999928474426,0.5899999737739563,80000
2020-03-20,0.6499999761581421,0.5799999833106995,0.5799999833106995,0.6499999761581421,95000
2020-03-23,0.6000000238418579,0.6000000238418579,0.6000000238418579,0.6000000238418579,0
2020-03-24,0.5899999737739563,0.5899999737739563,0.5899999737739563,0.5899999737739563,0
2020-03-25,0.5699999928474426,0.5600000023841858,0.5699999928474426,0.5600000023841858,10000
2020-03-26,0.5699999928474426,0.5699999928474426,0.5699999928474426,0.5699999928474426,0
2020-03-27,0.5699999928474426,0.5699999928474426,0.5699999928474426,0.5699999928474426,0
2020-03-30,0.5899999737739563,0.5600000023841858,0.5600000023841858,0.5899999737739563,30000
2020-03-31,0.6200000047683716,0.5699999928474426,0.5899999737739563,0.5699999928474426,55000
2020-04-01,0.5699999928474426,0.5699999928474426,0.5699999928474426,0.5699999928474426,35000
2020-04-02,0.5699999928474426,0.5699999928474426,0.5699999928474426,0.5699999928474426,10000
2020-04-03,0.5699999928474426,0.5600000023841858,0.5699999928474426,0.5600000023841858,55000
2020-04-06,0.6600000262260437,0.5600000023841858,0.5600000023841858,0.6000000238418579,95000
2020-04-07,0.6000000238418579,0.6000000238418579,0.6000000238418579,0.6000000238418579,0
2020-04-08,0.6000000238418579,0.6000000238418579,0.6000000238418579,0.6000000238418579,0
2020-04-09,0.6100000143051147,0.6000000238418579,0.6000000238418579,0.6100000143051147,30000
2020-04-14,0.7099999785423279,0.6299999952316284,0.6299999952316284,0.7099999785423279,90000
2020-04-15,0.7099999785423279,0.6499999761581421,0.7099999785423279,0.6499999761581421,125000
2020-04-16,0.6499999761581421,0.5899999737739563,0.5899999737739563,0.6499999761581421,40000
2020-04-17,0.6200000047683716,0.6000000238418579,0.6000000238418579,0.6200000047683716,15000
2020-04-20,0.6299999952316284,0.6200000047683716,0.6200000047683716,0.6299999952316284,25000
2020-04-21,0.6100000143051147,0.6100000143051147,0.6100000143051147,0.6100000143051147,0
2020-04-22,0.6100000143051147,0.6100000143051147,0.6100000143051147,0.6100000143051147,0
2020-04-23,0.6000000238418579,0.6000000238418579,0.6000000238418579,0.6000000238418579,0
2020-04-24,0.6000000238418579,0.6000000238418579,0.6000000238418579,0.6000000238418579,0
2020-04-27,0.5600000023841858,0.5600000023841858,0.5600000023841858,0.5699999928474426,5000
2020-04-28,0.6399999856948853,0.5799999833106995,0.5799999833106995,0.6200000047683716,20000
2020-04-29,0.6200000047683716,0.6200000047683716,0.6200000047683716,0.6200000047683716,0
2020-05-04,0.6299999952316284,0.6299999952316284,0.6299999952316284,0.6299999952316284,0
2020-05-05,0.6299999952316284,0.6299999952316284,0.6299999952316284,0.6299999952316284,0
2020-05-06,0.6499999761581421,0.6399999856948853,0.6499999761581421,0.6399999856948853,20000
2020-05-07,0.6399999856948853,0.6399999856948853,0.6399999856948853,0.6399999856948853,0
2020-05-08,0.6399999856948853,0.6399999856948853,0.6399999856948853,0.6399999856948853,0
2020-05-11,0.6200000047683716,0.6000000238418579,0.6000000238418579,0.6200000047683716,60000
2020-05-12,0.6399999856948853,0.6200000047683716,0.6200000047683716,0.6399999856948853,15000
2020-05-13,0.6399999856948853,0.6399999856948853,0.6399999856948853,0.6399999856948853,0
2020-05-14,0.6399999856948853,0.6399999856948853,0.6399999856948853,0.6399999856948853,0
2020-05-15,0.7400000095367432,0.6499999761581421,0.6499999761581421,0.7200000286102295,135000
2020-05-18,0.6600000262260437,0.6600000262260437,0.6600000262260437,0.6600000262260437,0
2020-05-19,0.6800000071525574,0.6800000071525574,0.6800000071525574,0.6800000071525574,5000
2020-05-20,0.6800000071525574,0.6800000071525574,0.6800000071525574,0.6800000071525574,0
2020-05-21,0.699999988079071,0.6899999976158142,0.6899999976158142,0.6899999976158142,30000
2020-05-22,0.6399999856948853,0.6399999856948853,0.6399999856948853,0.6399999856948853,20000
2020-05-25,0.6499999761581421,0.6399999856948853,0.6399999856948853,0.6499999761581421,50000
2020-05-26,0.6499999761581421,0.6499999761581421,0.6499999761581421,0.6499999761581421,56000
2020-05-27,0.6499999761581421,0.6499999761581421,0.6499999761581421,0.6499999761581421,0
2020-05-28,0.6899999976158142,0.6499999761581421,0.6499999761581421,0.6700000166893005,45000
2020-05-29,0.6499999761581421,0.6499999761581421,0.6499999761581421,0.6499999761581421,5000
2020-06-01,0.6499999761581421,0.6499999761581421,0.6499999761581421,0.6499999761581421,0
2020-06-02,0.6600000262260437,0.6499999761581421,0.6600000262260437,0.6499999761581421,65000
2020-06-03,0.6700000166893005,0.6499999761581421,0.6499999761581421,0.6700000166893005,25000
2020-06-04,0.6700000166893005,0.6700000166893005,0.6700000166893005,0.6800000071525574,5000
2020-06-05,0.699999988079071,0.6800000071525574,0.6800000071525574,0.699999988079071,55000
2020-06-08,0.6899999976158142,0.6899999976158142,0.6899999976158142,0.6899999976158142,25000
2020-06-09,0.699999988079071,0.699999988079071,0.699999988079071,0.699999988079071,80000
2020-06-10,0.8000000119209291,0.75,0.7599999904632568,0.8000000119209291,75000
2020-06-11,0.8000000119209291,0.7200000286102295,0.8000000119209291,0.7599999904632568,70000
2020-06-12,0.7400000095367432,0.7400000095367432,0.7400000095367432,0.7400000095367432,0
2020-06-15,0.7400000095367432,0.550000011920929,0.550000011920929,0.7400000095367432,10000
2020-06-16,0.75,0.6700000166893005,0.75,0.6700000166893005,65000
2020-06-17,0.699999988079071,0.699999988079071,0.699999988079071,0.699999988079071,15000
2020-06-18,0.699999988079071,0.699999988079071,0.699999988079071,0.699999988079071,0
2020-06-19,0.699999988079071,0.699999988079071,0.699999988079071,0.699999988079071,0
2020-06-22,0.699999988079071,0.699999988079071,0.699999988079071,0.699999988079071,0
2020-06-23,0.6299999952316284,0.6299999952316284,0.6299999952316284,0.6299999952316284,0
2020-06-24,0.6499999761581421,0.6399999856948853,0.6399999856948853,0.6399999856948853,85000
2020-06-26,0.6499999761581421,0.6200000047683716,0.6499999761581421,0.6299999952316284,40000
2020-06-29,0.6299999952316284,0.6200000047683716,0.6200000047683716,0.6299999952316284,25000
2020-06-30,0.6299999952316284,0.6299999952316284,0.6299999952316284,0.6299999952316284,0
2020-07-02,0.6299999952316284,0.6299999952316284,0.6299999952316284,0.6299999952316284,60000
2020-07-03,0.6299999952316284,0.6299999952316284,0.6299999952316284,0.6299999952316284,0
2020-07-06,0.6299999952316284,0.5799999833106995,0.6299999952316284,0.5899999737739563,200000
2020-07-07,0.5899999737739563,0.5899999737739563,0.5899999737739563,0.5899999737739563,0
2020-07-08,0.5699999928474426,0.5699999928474426,0.5699999928474426,0.5699999928474426,0
2020-07-09,0.6800000071525574,0.5899999737739563,0.6000000238418579,0.6299999952316284,90000
2020-07-10,0.6000000238418579,0.6000000238418579,0.6000000238418579,0.6000000238418579,10000
2020-07-13,0.6299999952316284,0.6000000238418579,0.6000000238418579,0.6200000047683716,55000
2020-07-14,0.6299999952316284,0.6299999952316284,0.6299999952316284,0.6299999952316284,25000
2020-07-15,0.6299999952316284,0.6299999952316284,0.6299999952316284,0.6299999952316284,0
2020-07-16,0.6299999952316284,0.6299999952316284,0.6299999952316284,0.6299999952316284,0
2020-07-17,0.6299999952316284,0.6299999952316284,0.6299999952316284,0.6299999952316284,0
2020-07-20,0.6899999976158142,0.6600000262260437,0.6899999976158142,0.6600000262260437,10000
2020-07-21,0.6200000047683716,0.5299999713897705,0.5299999713897705,0.6200000047683716,20000
2020-07-22,0.6200000047683716,0.6200000047683716,0.6200000047683716,0.6200000047683716,30000
2020-07-23,0.6000000238418579,0.6000000238418579,0.6000000238418579,0.6000000238418579,35000
2020-07-24,0.6000000238418579,0.6000000238418579,0.6000000238418579,0.6000000238418579,0
2020-07-27,0.6200000047683716,0.5400000214576721,0.550000011920929,0.6200000047683716,130000
2020-07-28,0.6200000047683716,0.6200000047683716,0.6200000047683716,0.6200000047683716,0
2020-07-29,0.6100000143051147,0.6100000143051147,0.6100000143051147,0.6100000143051147,5000
2020-07-30,0.6000000238418579,0.6000000238418579,0.6000000238418579,0.6000000238418579,0
2020-07-31,0.6000000238418579,0.5899999737739563,0.5899999737739563,0.6000000238418579,10000
2020-08-03,0.5899999737739563,0.5899999737739563,0.5899999737739563,0.5899999737739563,0
2020-08-04,0.5899999737739563,0.5899999737739563,0.5899999737739563,0.5899999737739563,0
2020-08-05,0.6200000047683716,0.6200000047683716,0.6200000047683716,0.6100000143051147,5000
2020-08-06,0.6100000143051147,0.6100000143051147,0.6100000143051147,0.6100000143051147,0
2020-08-07,0.6100000143051147,0.6100000143051147,0.6100000143051147,0.6100000143051147,0
2020-08-10,0.5899999737739563,0.5899999737739563,0.5899999737739563,0.5899999737739563,20000
2020-08-11,0.5799999833106995,0.5799999833106995,0.5799999833106995,0.5799999833106995,0
2020-08-12,0.5799999833106995,0.5799999833106995,0.5799999833106995,0.5799999833106995,0
2020-08-13,0.6299999952316284,0.5699999928474426,0.5699999928474426,0.6100000143051147,10000
2020-08-14,0.6100000143051147,0.6100000143051147,0.6100000143051147,0.6100000143051147,0
2020-08-17,0.6200000047683716,0.6100000143051147,0.6100000143051147,0.6200000047683716,20000
2020-08-18,0.6000000238418579,0.6000000238418579,0.6000000238418579,0.6000000238418579,0
2020-08-19,0.6000000238418579,0.6000000238418579,0.6000000238418579,0.6000000238418579,0
2020-08-20,0.6000000238418579,0.6000000238418579,0.6000000238418579,0.6000000238418579,0
2020-08-21,0.6000000238418579,0.6000000238418579,0.6000000238418579,0.6000000238418579,0
2020-08-24,0.6000000238418579,0.6000000238418579,0.6000000238418579,0.6000000238418579,0
2020-08-25,0.6000000238418579,0.6000000238418579,0.6000000238418579,0.6000000238418579,20000
