Date,High,Low,Open,Close,Volume
2019-10-23,1.870000004768372,0.5699999928474426,1.190000057220459,0.6100000143051147,574226270
2019-10-24,0.6200000047683716,0.5299999713897705,0.6100000143051147,0.5400000214576721,62710000
2019-10-25,0.5699999928474426,0.5,0.5400000214576721,0.5199999809265137,37916000
2019-10-28,0.5199999809265137,0.4749999940395355,0.5199999809265137,0.4900000095367432,29980000
2019-10-29,0.5299999713897705,0.4850000143051148,0.4900000095367432,0.5,20012000
2019-10-30,0.5199999809265137,0.4850000143051148,0.5099999904632568,0.4900000095367432,19618270
2019-10-31,0.4900000095367432,0.4449999928474426,0.4900000095367432,0.44999998807907104,22358000
2019-11-01,0.44999998807907104,0.4350000023841858,0.4449999928474426,0.4449999928474426,14060000
2019-11-04,0.4650000035762787,0.42500001192092896,0.4449999928474426,0.4399999976158142,20200000
2019-11-05,0.4749999940395355,0.4300000071525574,0.4350000023841858,0.4449999928474426,24920000
2019-11-06,0.4699999988079071,0.4399999976158142,0.44999998807907104,0.4449999928474426,10220000
2019-11-07,0.4600000083446503,0.4399999976158142,0.4449999928474426,0.4399999976158142,5940000
2019-11-08,0.4449999928474426,0.42500001192092896,0.4449999928474426,0.4300000071525574,6512000
2019-11-11,0.42500001192092896,0.3950000107288361,0.41999998688697815,0.4050000011920929,9536000
2019-11-12,0.4149999916553497,0.3950000107288361,0.4000000059604645,0.4000000059604645,4348000
2019-11-13,0.41999998688697815,0.3799999952316284,0.3950000107288361,0.3950000107288361,12076000
2019-11-14,0.3950000107288361,0.3799999952316284,0.3899999856948853,0.3849999904632568,5206000
2019-11-15,0.3849999904632568,0.35499998927116394,0.3849999904632568,0.3650000095367432,11272000
2019-11-18,0.36000001430511475,0.3499999940395355,0.36000001430511475,0.3499999940395355,3658000
2019-11-19,0.3799999952316284,0.35499998927116394,0.36000001430511475,0.3700000047683716,5924000
2019-11-20,0.3899999856948853,0.36000001430511475,0.3650000095367432,0.375,5760000
2019-11-21,0.3700000047683716,0.3499999940395355,0.3700000047683716,0.3499999940395355,5062000
2019-11-22,0.3449999988079071,0.3199999928474426,0.3449999988079071,0.3350000083446503,10160000
2019-11-25,0.3350000083446503,0.3199999928474426,0.33000001311302185,0.33000001311302185,4068000
2019-11-26,0.3899999856948853,0.33000001311302185,0.33000001311302185,0.375,12652000
2019-11-27,0.4650000035762787,0.3899999856948853,0.3950000107288361,0.4650000035762787,77516000
2019-11-28,0.4550000131130218,0.3899999856948853,0.44999998807907104,0.3950000107288361,30500000
2019-11-29,0.4000000059604645,0.3650000095367432,0.3849999904632568,0.3799999952316284,7916000
2019-12-02,0.75,0.42500001192092896,0.4399999976158142,0.7099999785423279,313916000
2019-12-03,0.699999988079071,0.4699999988079071,0.6700000166893005,0.5799999833106995,277432000
2019-12-04,0.6399999856948853,0.5400000214576721,0.5699999928474426,0.5600000023841858,93368000
2019-12-05,0.5899999737739563,0.5199999809265137,0.5799999833106995,0.5299999713897705,27228000
2019-12-06,0.5899999737739563,0.5099999904632568,0.5299999713897705,0.550000011920929,45364000
2019-12-09,0.5600000023841858,0.5199999809265137,0.550000011920929,0.5299999713897705,12148000
2019-12-10,0.550000011920929,0.4950000047683716,0.5299999713897705,0.5,22282000
2019-12-11,0.5099999904632568,0.4749999940395355,0.4900000095367432,0.479999989271164,15512000
2019-12-12,0.5099999904632568,0.4749999940395355,0.479999989271164,0.4900000095367432,11892000
2019-12-13,0.5099999904632568,0.4699999988079071,0.4950000047683716,0.4749999940395355,9932000
2019-12-16,0.4699999988079071,0.44999998807907104,0.4699999988079071,0.4550000131130218,10220000
2019-12-17,0.479999989271164,0.4449999928474426,0.4550000131130218,0.4699999988079071,16040000
2019-12-18,0.4749999940395355,0.44999998807907104,0.4650000035762787,0.4600000083446503,4316000
2019-12-19,0.4850000143051148,0.44999998807907104,0.4550000131130218,0.4699999988079071,8300000
2019-12-20,0.479999989271164,0.4550000131130218,0.4699999988079071,0.4650000035762787,5948000
2019-12-23,0.4749999940395355,0.4550000131130218,0.4650000035762787,0.4600000083446503,3712000
2019-12-24,0.4650000035762787,0.4550000131130218,0.4550000131130218,0.4600000083446503,1628000
2019-12-27,0.4600000083446503,0.44999998807907104,0.4600000083446503,0.4600000083446503,3640000
2019-12-30,0.4600000083446503,0.44999998807907104,0.4600000083446503,0.4600000083446503,2396000
2019-12-31,0.4550000131130218,0.44999998807907104,0.4550000131130218,0.44999998807907104,2384000
2020-01-02,0.44999998807907104,0.42500001192092896,0.44999998807907104,0.4300000071525574,8196000
2020-01-03,0.4350000023841858,0.4050000011920929,0.4350000023841858,0.4149999916553497,4384000
2020-01-06,0.4050000011920929,0.3799999952316284,0.4050000011920929,0.3849999904632568,7312000
2020-01-07,0.42500001192092896,0.3899999856948853,0.3899999856948853,0.4000000059604645,8328000
2020-01-08,0.4050000011920929,0.3899999856948853,0.4000000059604645,0.3899999856948853,3504000
2020-01-09,0.4000000059604645,0.3899999856948853,0.3950000107288361,0.3950000107288361,2340000
2020-01-10,0.3950000107288361,0.3799999952316284,0.3950000107288361,0.3899999856948853,2852000
2020-01-13,0.3899999856948853,0.3700000047683716,0.3849999904632568,0.375,3348000
2020-01-14,0.3799999952316284,0.3650000095367432,0.3700000047683716,0.3799999952316284,2028000
2020-01-15,0.3799999952316284,0.3700000047683716,0.3799999952316284,0.3700000047683716,968000
2020-01-16,0.4350000023841858,0.375,0.3799999952316284,0.41999998688697815,19992000
2020-01-17,0.4300000071525574,0.3950000107288361,0.42500001192092896,0.4050000011920929,7000000
2020-01-20,0.41999998688697815,0.3950000107288361,0.4000000059604645,0.4000000059604645,2176000
2020-01-21,0.3950000107288361,0.3700000047683716,0.3950000107288361,0.3799999952316284,3976000
2020-01-22,0.3950000107288361,0.375,0.375,0.3899999856948853,2004000
2020-01-23,0.3799999952316284,0.3650000095367432,0.3799999952316284,0.3799999952316284,3616000
2020-01-24,0.375,0.3700000047683716,0.3700000047683716,0.375,1640000
2020-01-29,0.36000001430511475,0.3400000035762787,0.36000001430511475,0.3499999940395355,2924000
2020-01-30,0.35499998927116394,0.32499998807907104,0.35499998927116394,0.32499998807907104,5096000
2020-01-31,0.3449999988079071,0.3199999928474426,0.32499998807907104,0.3350000083446503,3804000
2020-02-03,0.3350000083446503,0.32499998807907104,0.32499998807907104,0.33000001311302185,2560000
2020-02-04,0.3499999940395355,0.33000001311302185,0.3350000083446503,0.3499999940395355,2164000
2020-02-05,0.375,0.3499999940395355,0.3499999940395355,0.3650000095367432,7396000
2020-02-06,0.3700000047683716,0.35499998927116394,0.36000001430511475,0.3650000095367432,1432000
2020-02-07,0.3650000095367432,0.3449999988079071,0.35499998927116394,0.36000001430511475,1348000
2020-02-10,0.3499999940395355,0.3400000035762787,0.3499999940395355,0.3499999940395355,1340000
2020-02-11,0.36000001430511475,0.3499999940395355,0.3499999940395355,0.35499998927116394,1024000
2020-02-12,0.35499998927116394,0.3400000035762787,0.35499998927116394,0.35499998927116394,1372000
2020-02-13,0.3499999940395355,0.3400000035762787,0.3499999940395355,0.3499999940395355,812000
2020-02-14,0.3449999988079071,0.3350000083446503,0.3400000035762787,0.3400000035762787,608000
2020-02-17,0.35499998927116394,0.3449999988079071,0.3499999940395355,0.35499998927116394,476000
2020-02-18,0.3499999940395355,0.3400000035762787,0.3400000035762787,0.3449999988079071,424000
2020-02-19,0.3499999940395355,0.3400000035762787,0.3400000035762787,0.3499999940395355,1056000
2020-02-20,0.3499999940395355,0.3400000035762787,0.3400000035762787,0.3449999988079071,460000
2020-02-21,0.3449999988079071,0.3400000035762787,0.3400000035762787,0.3400000035762787,928000
2020-02-24,0.3350000083446503,0.32499998807907104,0.33000001311302185,0.3350000083446503,1938000
2020-02-25,0.3350000083446503,0.32499998807907104,0.33000001311302185,0.3350000083446503,656000
2020-02-26,0.3400000035762787,0.32499998807907104,0.33000001311302185,0.3400000035762787,1040000
2020-02-27,0.3350000083446503,0.33000001311302185,0.33000001311302185,0.33000001311302185,396000
2020-02-28,0.3350000083446503,0.3199999928474426,0.3350000083446503,0.33000001311302185,860000
2020-03-02,0.33000001311302185,0.3149999976158142,0.33000001311302185,0.33000001311302185,1408000
2020-03-03,0.33000001311302185,0.3199999928474426,0.3199999928474426,0.32499998807907104,388000
2020-03-04,0.33000001311302185,0.3199999928474426,0.32499998807907104,0.33000001311302185,492000
2020-03-05,0.3350000083446503,0.3199999928474426,0.33000001311302185,0.33000001311302185,1052000
2020-03-06,0.32499998807907104,0.3100000023841858,0.32499998807907104,0.3149999976158142,1304000
2020-03-09,0.3149999976158142,0.3149999976158142,0.3149999976158142,0.3149999976158142,0
2020-03-10,0.2899999916553497,0.2899999916553497,0.2899999916553497,0.2899999916553497,0
2020-03-11,0.2949999868869781,0.2949999868869781,0.2949999868869781,0.2949999868869781,0
2020-03-12,0.2849999964237213,0.2700000107288361,0.2849999964237213,0.2700000107288361,1944000
2020-03-13,0.2549999952316284,0.23000000417232516,0.239999994635582,0.2549999952316284,620000
2020-03-16,0.25,0.23000000417232516,0.2460000067949295,0.239999994635582,1836000
2020-03-17,0.2380000054836273,0.22100000083446505,0.22200000286102292,0.2380000054836273,1236000
2020-03-18,0.23499999940395355,0.2199999988079071,0.23000000417232516,0.22200000286102292,1000000
2020-03-19,0.2199999988079071,0.1899999976158142,0.20200000703334808,0.2199999988079071,1768000
2020-03-20,0.23000000417232516,0.2029999941587448,0.22200000286102292,0.2199999988079071,500000
2020-03-23,0.2199999988079071,0.19900000095367432,0.2199999988079071,0.19900000095367432,840000
2020-03-24,0.3100000023841858,0.20499999821186066,0.20499999821186066,0.22200000286102292,4268000
2020-03-25,0.23100000619888306,0.2199999988079071,0.23000000417232516,0.2280000001192093,960000
2020-03-26,0.22499999403953552,0.21199999749660486,0.21299999952316284,0.22499999403953552,284000
2020-03-27,0.23199999332427976,0.2160000056028366,0.22599999606609344,0.2199999988079071,316000
2020-03-30,0.21299999952316284,0.21299999952316284,0.21299999952316284,0.21299999952316284,60000
2020-03-31,0.2290000021457672,0.21299999952316284,0.2290000021457672,0.21299999952316284,124000
2020-04-01,0.2199999988079071,0.20200000703334808,0.20200000703334808,0.2179999947547913,104000
2020-04-02,0.21199999749660486,0.2029999941587448,0.2029999941587448,0.20499999821186066,404000
2020-04-03,0.2199999988079071,0.19900000095367432,0.19900000095367432,0.2199999988079071,36000
2020-04-06,0.22599999606609344,0.20100000500679016,0.22599999606609344,0.20600000023841855,212000
2020-04-07,0.22499999403953552,0.20999999344348907,0.2189999967813492,0.22300000488758087,764000
2020-04-08,0.2380000054836273,0.21299999952316284,0.21299999952316284,0.23499999940395355,1708000
2020-04-09,0.2949999868869781,0.2380000054836273,0.2380000054836273,0.26499998569488525,7820000
2020-04-14,0.2849999964237213,0.26499998569488525,0.2800000011920929,0.2700000107288361,1608000
2020-04-15,0.2750000059604645,0.25,0.2750000059604645,0.2549999952316284,1280000
2020-04-16,0.25,0.2360000014305115,0.2360000014305115,0.2460000067949295,404000
2020-04-17,0.25,0.2450000047683716,0.2460000067949295,0.25,404000
2020-04-20,0.24699999392032626,0.23399999737739566,0.24699999392032626,0.2360000014305115,616000
2020-04-21,0.2360000014305115,0.22599999606609344,0.2360000014305115,0.2280000001192093,324000
2020-04-22,0.22599999606609344,0.22100000083446505,0.22100000083446505,0.2240000069141388,460000
2020-04-23,0.22599999606609344,0.22599999606609344,0.22599999606609344,0.22599999606609344,0
2020-04-24,0.23000000417232516,0.22499999403953552,0.23000000417232516,0.22499999403953552,428000
2020-04-27,0.2290000021457672,0.22599999606609344,0.22599999606609344,0.2290000021457672,108000
2020-04-28,0.24799999594688416,0.2290000021457672,0.2290000021457672,0.239999994635582,836000
2020-04-29,0.2460000067949295,0.239999994635582,0.239999994635582,0.2419999986886978,772000
2020-05-04,0.2419999986886978,0.2329999953508377,0.23899999260902405,0.2380000054836273,936000
2020-05-05,0.25,0.23499999940395355,0.2360000014305115,0.25,904000
2020-05-06,0.2549999952316284,0.2329999953508377,0.25,0.239999994635582,668000
2020-05-07,0.239999994635582,0.2329999953508377,0.23899999260902405,0.23499999940395355,28000
2020-05-08,0.2489999979734421,0.2370000034570694,0.2489999979734421,0.2440000027418137,160000
2020-05-11,0.2440000027418137,0.23499999940395355,0.2380000054836273,0.23899999260902405,484000
2020-05-12,0.2430000007152557,0.2430000007152557,0.2430000007152557,0.2430000007152557,0
2020-05-13,0.2360000014305115,0.23399999737739566,0.23399999737739566,0.2360000014305115,76000
2020-05-14,0.2370000034570694,0.23399999737739566,0.2360000014305115,0.23399999737739566,172000
2020-05-15,0.239999994635582,0.23499999940395355,0.23499999940395355,0.239999994635582,196000
2020-05-18,0.23499999940395355,0.23000000417232516,0.23399999737739566,0.23000000417232516,708000
2020-05-19,0.23899999260902405,0.23100000619888306,0.23899999260902405,0.2380000054836273,180000
2020-05-20,0.2440000027418137,0.2280000001192093,0.23499999940395355,0.2440000027418137,660000
2020-05-21,0.24699999392032626,0.22499999403953552,0.2370000034570694,0.23100000619888306,716000
2020-05-22,0.23000000417232516,0.21699999272823334,0.21699999272823334,0.22499999403953552,668000
2020-05-25,0.2280000001192093,0.20600000023841855,0.20600000023841855,0.22699999809265134,156000
2020-05-26,0.2290000021457672,0.2179999947547913,0.22599999606609344,0.2290000021457672,560000
2020-05-27,0.2290000021457672,0.2160000056028366,0.2290000021457672,0.2179999947547913,420000
2020-05-28,0.2360000014305115,0.2150000035762787,0.2360000014305115,0.21699999272823334,144000
2020-05-29,0.2290000021457672,0.2290000021457672,0.2290000021457672,0.2290000021457672,0
2020-06-01,0.22300000488758087,0.20999999344348907,0.2179999947547913,0.22200000286102292,404000
2020-06-02,0.22200000286102292,0.22200000286102292,0.22200000286102292,0.22200000286102292,0
2020-06-03,0.2179999947547913,0.21299999952316284,0.21299999952316284,0.22200000286102292,332000
2020-06-04,0.22599999606609344,0.22599999606609344,0.22599999606609344,0.22599999606609344,28000
2020-06-05,0.23000000417232516,0.2140000015497208,0.2140000015497208,0.22599999606609344,256000
2020-06-08,0.22599999606609344,0.2150000035762787,0.22599999606609344,0.22300000488758087,48000
2020-06-09,0.2240000069141388,0.2150000035762787,0.2199999988079071,0.2240000069141388,528000
2020-06-10,0.22300000488758087,0.2189999967813492,0.2189999967813492,0.22300000488758087,176000
2020-06-11,0.22200000286102292,0.22200000286102292,0.22200000286102292,0.22200000286102292,0
2020-06-12,0.22200000286102292,0.22200000286102292,0.22200000286102292,0.22200000286102292,0
2020-06-15,0.210999995470047,0.2070000022649765,0.2070000022649765,0.22100000083446505,244000
2020-06-16,0.2080000042915344,0.20600000023841855,0.2070000022649765,0.20999999344348907,652000
2020-06-17,0.20999999344348907,0.20100000500679016,0.20499999821186066,0.2080000042915344,512000
2020-06-18,0.2199999988079071,0.21199999749660486,0.21199999749660486,0.2199999988079071,252000
2020-06-19,0.2189999967813492,0.2189999967813492,0.2189999967813492,0.2189999967813492,120000
2020-06-22,0.2240000069141388,0.20499999821186066,0.2070000022649765,0.2240000069141388,312000
2020-06-23,0.22300000488758087,0.20499999821186066,0.22300000488758087,0.2160000056028366,188000
2020-06-24,0.2160000056028366,0.20499999821186066,0.20499999821186066,0.21199999749660486,340000
2020-06-26,0.2160000056028366,0.21199999749660486,0.21199999749660486,0.2160000056028366,1132000
2020-06-29,0.2199999988079071,0.20999999344348907,0.20999999344348907,0.22100000083446505,180000
2020-06-30,0.22499999403953552,0.2179999947547913,0.22100000083446505,0.2240000069141388,432000
2020-07-02,0.2430000007152557,0.2199999988079071,0.2380000054836273,0.22699999809265134,1288000
2020-07-03,0.2290000021457672,0.2199999988079071,0.2199999988079071,0.2240000069141388,164000
2020-07-06,0.2240000069141388,0.210999995470047,0.210999995470047,0.22200000286102292,652000
2020-07-07,0.22300000488758087,0.2150000035762787,0.21699999272823334,0.2189999967813492,328000
2020-07-08,0.2199999988079071,0.2080000042915344,0.2189999967813492,0.2189999967813492,432000
2020-07-09,0.2189999967813492,0.20399999618530276,0.2189999967813492,0.2160000056028366,424000
2020-07-10,0.2199999988079071,0.20499999821186066,0.2070000022649765,0.2140000015497208,108000
2020-07-13,0.21699999272823334,0.20000000298023224,0.20000000298023224,0.2140000015497208,1400000
2020-07-14,0.2199999988079071,0.2140000015497208,0.2140000015497208,0.2189999967813492,784000
2020-07-15,0.2189999967813492,0.20900000631809235,0.2140000015497208,0.2189999967813492,1068000
2020-07-16,0.2240000069141388,0.20999999344348907,0.2150000035762787,0.21699999272823334,324000
2020-07-17,0.21299999952316284,0.20900000631809235,0.20900000631809235,0.21299999952316284,188000
2020-07-20,0.21299999952316284,0.21299999952316284,0.21299999952316284,0.21299999952316284,0
2020-07-21,0.21699999272823334,0.2029999941587448,0.2029999941587448,0.20900000631809235,136000
2020-07-22,0.2160000056028366,0.20000000298023224,0.2160000056028366,0.2080000042915344,208000
2020-07-23,0.20900000631809235,0.20000000298023224,0.20100000500679016,0.2080000042915344,144000
2020-07-24,0.2070000022649765,0.20100000500679016,0.2070000022649765,0.20499999821186066,160000
2020-07-27,0.20000000298023224,0.19499999284744265,0.20000000298023224,0.19599999487400052,676000
2020-07-28,0.19499999284744265,0.1899999976158142,0.19099999964237213,0.19099999964237213,824000
2020-07-29,0.19499999284744265,0.19099999964237213,0.19099999964237213,0.193000003695488,124000
2020-07-30,0.20200000703334808,0.19099999964237213,0.193000003695488,0.1979999989271164,236000
2020-07-31,0.1979999989271164,0.1979999989271164,0.1979999989271164,0.1979999989271164,4000
2020-08-03,0.19900000095367432,0.181999996304512,0.181999996304512,0.1979999989271164,228000
2020-08-04,0.20399999618530276,0.1860000044107437,0.1860000044107437,0.2029999941587448,368000
2020-08-05,0.2029999941587448,0.19499999284744265,0.2029999941587448,0.19599999487400052,132000
2020-08-06,0.19599999487400052,0.19099999964237213,0.19599999487400052,0.19200000166893005,132000
2020-08-07,0.19099999964237213,0.1899999976158142,0.19099999964237213,0.1899999976158142,72000
2020-08-10,0.19200000166893005,0.1899999976158142,0.1899999976158142,0.19200000166893005,312000
2020-08-11,0.19599999487400052,0.18400000035762787,0.1850000023841858,0.19599999487400052,144000
2020-08-12,0.19599999487400052,0.19599999487400052,0.19599999487400052,0.19599999487400052,0
2020-08-13,0.2080000042915344,0.193000003695488,0.2080000042915344,0.1940000057220459,232000
2020-08-14,0.19900000095367432,0.1850000023841858,0.1850000023841858,0.19699999690055847,120000
2020-08-17,0.20200000703334808,0.1860000044107437,0.1860000044107437,0.19900000095367432,168000
2020-08-18,0.20200000703334808,0.19699999690055847,0.19900000095367432,0.19900000095367432,168000
2020-08-19,0.20000000298023224,0.20000000298023224,0.20000000298023224,0.19900000095367432,36000
2020-08-20,0.193000003695488,0.19099999964237213,0.19200000166893005,0.19200000166893005,300000
2020-08-21,0.239999994635582,0.19599999487400052,0.1979999989271164,0.22100000083446505,9028000
2020-08-24,0.2329999953508377,0.21699999272823334,0.2290000021457672,0.2280000001192093,2300000
2020-08-25,0.22699999809265134,0.2160000056028366,0.2199999988079071,0.22699999809265134,1028000
