Date,High,Low,Open,Close,Volume
2017-04-19,0.3449999988079071,0.2800000011920929,0.3100000023841858,0.33000001311302185,49190000
2017-04-20,0.3199999928474426,0.3050000071525574,0.3199999928474426,0.3199999928474426,3430000
2017-04-21,0.33000001311302185,0.3050000071525574,0.3199999928474426,0.3050000071525574,2970000
2017-04-24,0.32499998807907104,0.3100000023841858,0.3149999976158142,0.3149999976158142,2370000
2017-04-25,0.33000001311302185,0.3149999976158142,0.3199999928474426,0.32499998807907104,2630000
2017-04-26,0.3650000095367432,0.3199999928474426,0.32499998807907104,0.3199999928474426,9430000
2017-04-27,0.32499998807907104,0.3149999976158142,0.3199999928474426,0.3199999928474426,650000
2017-04-28,0.32499998807907104,0.3149999976158142,0.3199999928474426,0.3149999976158142,1380000
2017-05-02,0.3199999928474426,0.3149999976158142,0.3199999928474426,0.3199999928474426,770000
2017-05-04,0.3199999928474426,0.30000001192092896,0.3199999928474426,0.3149999976158142,1670000
2017-05-05,0.3149999976158142,0.3050000071525574,0.3100000023841858,0.3100000023841858,720000
2017-05-08,0.3100000023841858,0.2949999868869781,0.3100000023841858,0.30000001192092896,1310000
2017-05-09,0.3050000071525574,0.2849999964237213,0.3050000071525574,0.30000001192092896,1200000
2017-05-10,0.3050000071525574,0.2899999916553497,0.2899999916553497,0.2949999868869781,1160000
2017-05-11,0.3199999928474426,0.2949999868869781,0.2949999868869781,0.3149999976158142,1530000
2017-05-12,0.3149999976158142,0.30000001192092896,0.3149999976158142,0.3050000071525574,390000
2017-05-15,0.3100000023841858,0.30000001192092896,0.3050000071525574,0.3100000023841858,560000
2017-05-16,0.35499998927116394,0.3100000023841858,0.3100000023841858,0.3499999940395355,3330000
2017-05-17,0.375,0.32499998807907104,0.3499999940395355,0.32499998807907104,3350000
2017-05-18,0.3350000083446503,0.3199999928474426,0.33000001311302185,0.3199999928474426,510000
2017-05-19,0.3400000035762787,0.3199999928474426,0.3199999928474426,0.32499998807907104,630000
2017-05-22,0.33000001311302185,0.3100000023841858,0.32499998807907104,0.3100000023841858,770000
2017-05-23,0.3350000083446503,0.3100000023841858,0.3100000023841858,0.3350000083446503,1440000
2017-05-24,0.4099999964237213,0.32499998807907104,0.32499998807907104,0.3950000107288361,8850000
2017-05-25,0.6200000047683716,0.4000000059604645,0.4000000059604645,0.5299999713897705,35700000
2017-05-26,0.5799999833106995,0.4449999928474426,0.5299999713897705,0.44999998807907104,9787439
2017-05-29,0.4850000143051148,0.3899999856948853,0.4449999928474426,0.3950000107288361,8650000
2017-05-31,0.4149999916553497,0.3849999904632568,0.3950000107288361,0.4099999964237213,2380000
2017-06-01,0.4399999976158142,0.3899999856948853,0.4000000059604645,0.4399999976158142,3170000
2017-06-02,0.4550000131130218,0.4149999916553497,0.4399999976158142,0.4399999976158142,1590000
2017-06-05,0.4399999976158142,0.4149999916553497,0.4149999916553497,0.4300000071525574,660000
2017-06-06,0.4300000071525574,0.375,0.42500001192092896,0.4099999964237213,950000
2017-06-07,0.4099999964237213,0.3849999904632568,0.4000000059604645,0.4099999964237213,940000
2017-06-08,0.41999998688697815,0.3950000107288361,0.3950000107288361,0.4099999964237213,700000
2017-06-09,0.41999998688697815,0.4000000059604645,0.41999998688697815,0.4099999964237213,257441
2017-06-12,0.4000000059604645,0.4000000059604645,0.4000000059604645,0.4000000059604645,70000
2017-06-13,0.3950000107288361,0.375,0.3950000107288361,0.3849999904632568,1410000
2017-06-14,0.3950000107288361,0.3799999952316284,0.3849999904632568,0.3799999952316284,790000
2017-06-15,0.4449999928474426,0.3899999856948853,0.3950000107288361,0.3950000107288361,3680000
2017-06-16,0.4050000011920929,0.3799999952316284,0.4050000011920929,0.3899999856948853,634000
2017-06-19,0.41999998688697815,0.3799999952316284,0.3799999952316284,0.4050000011920929,590000
2017-06-20,0.4850000143051148,0.3950000107288361,0.3950000107288361,0.4449999928474426,5680000
2017-06-21,0.4749999940395355,0.4350000023841858,0.4399999976158142,0.4350000023841858,3030000
2017-06-22,0.4699999988079071,0.4300000071525574,0.44999998807907104,0.44999998807907104,2530000
2017-06-23,0.44999998807907104,0.4300000071525574,0.44999998807907104,0.4300000071525574,640000
2017-06-26,0.4399999976158142,0.4300000071525574,0.4300000071525574,0.4399999976158142,180000
2017-06-27,0.4300000071525574,0.3400000035762787,0.4300000071525574,0.4050000011920929,2570000
2017-06-28,0.4050000011920929,0.3650000095367432,0.4050000011920929,0.3950000107288361,720000
2017-06-29,0.4000000059604645,0.3899999856948853,0.3899999856948853,0.3950000107288361,360000
2017-06-30,0.3899999856948853,0.375,0.375,0.3899999856948853,30000
2017-07-03,0.3799999952316284,0.3400000035762787,0.3799999952316284,0.3700000047683716,870000
2017-07-04,0.3700000047683716,0.36000001430511475,0.3700000047683716,0.3650000095367432,610000
2017-07-05,0.375,0.36000001430511475,0.36000001430511475,0.375,550000
2017-07-06,0.375,0.35499998927116394,0.375,0.3650000095367432,610000
2017-07-07,0.36000001430511475,0.36000001430511475,0.36000001430511475,0.36000001430511475,70000
2017-07-10,0.375,0.36000001430511475,0.36000001430511475,0.375,300000
2017-07-11,0.3700000047683716,0.3700000047683716,0.3700000047683716,0.3700000047683716,0
2017-07-12,0.3849999904632568,0.3499999940395355,0.36000001430511475,0.3799999952316284,490000
2017-07-13,0.375,0.3700000047683716,0.3700000047683716,0.3700000047683716,290000
2017-07-14,0.375,0.36000001430511475,0.3650000095367432,0.375,170000
2017-07-17,0.3700000047683716,0.3700000047683716,0.3700000047683716,0.3700000047683716,90000
2017-07-18,0.3849999904632568,0.3499999940395355,0.3499999940395355,0.3650000095367432,450000
2017-07-19,0.3899999856948853,0.3650000095367432,0.3650000095367432,0.3799999952316284,280000
2017-07-20,0.3799999952316284,0.3700000047683716,0.3799999952316284,0.3799999952316284,80000
2017-07-21,0.3799999952316284,0.3700000047683716,0.35499998927116394,0.3799999952316284,130000
2017-07-24,0.5899999737739563,0.3849999904632568,0.3899999856948853,0.41999998688697815,2790000
2017-07-25,0.4449999928474426,0.4000000059604645,0.4449999928474426,0.41999998688697815,790000
2017-07-26,0.4350000023841858,0.4000000059604645,0.4350000023841858,0.4050000011920929,460000
2017-07-27,0.41999998688697815,0.3849999904632568,0.41999998688697815,0.4000000059604645,310000
2017-07-28,0.4099999964237213,0.3799999952316284,0.3849999904632568,0.3950000107288361,420000
2017-07-31,0.41999998688697815,0.3799999952316284,0.41999998688697815,0.3899999856948853,230000
2017-08-01,0.3950000107288361,0.3799999952316284,0.3849999904632568,0.3799999952316284,230000
2017-08-02,0.3950000107288361,0.36000001430511475,0.375,0.3950000107288361,350000
2017-08-03,0.3950000107288361,0.3499999940395355,0.3950000107288361,0.35499998927116394,1850000
2017-08-04,0.3700000047683716,0.36000001430511475,0.36000001430511475,0.3700000047683716,590000
2017-08-07,0.3700000047683716,0.3499999940395355,0.3499999940395355,0.36000001430511475,260000
2017-08-08,0.36000001430511475,0.3449999988079071,0.3499999940395355,0.36000001430511475,710000
2017-08-09,0.3700000047683716,0.3400000035762787,0.3449999988079071,0.3499999940395355,640000
2017-08-10,0.3350000083446503,0.33000001311302185,0.3350000083446503,0.33000001311302185,360000
2017-08-11,0.32499998807907104,0.3199999928474426,0.3199999928474426,0.32499998807907104,220000
2017-08-14,0.3350000083446503,0.3100000023841858,0.32499998807907104,0.3149999976158142,260000
2017-08-15,0.33000001311302185,0.3100000023841858,0.3100000023841858,0.33000001311302185,70000
2017-08-16,0.3149999976158142,0.3149999976158142,0.3149999976158142,0.33000001311302185,100000
2017-08-17,0.33000001311302185,0.33000001311302185,0.3100000023841858,0.33000001311302185,70000
2017-08-18,0.33000001311302185,0.33000001311302185,0.33000001311302185,0.33000001311302185,0
2017-08-21,0.33000001311302185,0.33000001311302185,0.33000001311302185,0.33000001311302185,100000
2017-08-22,0.3400000035762787,0.33000001311302185,0.33000001311302185,0.3400000035762787,160000
2017-08-23,0.3400000035762787,0.3400000035762787,0.3400000035762787,0.3400000035762787,0
2017-08-24,0.3350000083446503,0.3350000083446503,0.3350000083446503,0.3350000083446503,0
2017-08-25,0.3350000083446503,0.3350000083446503,0.3350000083446503,0.3350000083446503,10000
2017-08-28,0.32499998807907104,0.3199999928474426,0.32499998807907104,0.3199999928474426,230000
2017-08-29,0.3199999928474426,0.3199999928474426,0.3199999928474426,0.3199999928474426,100000
2017-08-30,0.3199999928474426,0.3199999928474426,0.3199999928474426,0.3199999928474426,0
2017-08-31,0.3400000035762787,0.33000001311302185,0.3199999928474426,0.3400000035762787,470000
2017-09-01,0.3400000035762787,0.33000001311302185,0.3400000035762787,0.3400000035762787,200000
2017-09-04,0.3499999940395355,0.3199999928474426,0.3350000083446503,0.3449999988079071,590000
2017-09-05,0.3350000083446503,0.3199999928474426,0.3199999928474426,0.3350000083446503,280000
2017-09-06,0.3350000083446503,0.32499998807907104,0.3350000083446503,0.3350000083446503,170000
2017-09-07,0.3350000083446503,0.3100000023841858,0.32499998807907104,0.3149999976158142,440000
2017-09-08,0.3149999976158142,0.3149999976158142,0.3149999976158142,0.3149999976158142,10000
2017-09-11,0.3400000035762787,0.3400000035762787,0.3400000035762787,0.3350000083446503,61000
2017-09-12,0.3449999988079071,0.33000001311302185,0.3350000083446503,0.3400000035762787,520000
2017-09-13,0.3400000035762787,0.33000001311302185,0.3400000035762787,0.33000001311302185,330000
2017-09-14,0.33000001311302185,0.33000001311302185,0.33000001311302185,0.33000001311302185,190000
2017-09-15,0.33000001311302185,0.33000001311302185,0.33000001311302185,0.33000001311302185,30000
2017-09-18,0.33000001311302185,0.3199999928474426,0.33000001311302185,0.3199999928474426,270000
2017-09-19,0.3400000035762787,0.3149999976158142,0.3149999976158142,0.3400000035762787,110000
2017-09-20,0.3400000035762787,0.3400000035762787,0.3400000035762787,0.3350000083446503,240000
2017-09-21,0.3350000083446503,0.3350000083446503,0.3350000083446503,0.3350000083446503,0
2017-09-22,0.3350000083446503,0.3350000083446503,0.3350000083446503,0.3350000083446503,40000
2017-09-25,0.3350000083446503,0.3350000083446503,0.3350000083446503,0.33000001311302185,100000
2017-09-26,0.3350000083446503,0.33000001311302185,0.33000001311302185,0.3350000083446503,100000
2017-09-27,0.3350000083446503,0.3149999976158142,0.3350000083446503,0.33000001311302185,60000
2017-09-28,0.3400000035762787,0.33000001311302185,0.33000001311302185,0.33000001311302185,240000
2017-09-29,0.33000001311302185,0.3100000023841858,0.3199999928474426,0.3199999928474426,80000
2017-10-03,0.33000001311302185,0.33000001311302185,0.33000001311302185,0.33000001311302185,190000
2017-10-04,0.32499998807907104,0.3199999928474426,0.3199999928474426,0.32499998807907104,170000
2017-10-06,0.33000001311302185,0.32499998807907104,0.32499998807907104,0.33000001311302185,50000
2017-10-09,0.33000001311302185,0.33000001311302185,0.33000001311302185,0.33000001311302185,0
2017-10-10,0.3350000083446503,0.3199999928474426,0.3350000083446503,0.3350000083446503,490000
2017-10-11,0.3849999904632568,0.32499998807907104,0.3350000083446503,0.3700000047683716,1030000
2017-10-12,0.42500001192092896,0.375,0.3950000107288361,0.3799999952316284,2480000
2017-10-13,0.3650000095367432,0.3400000035762787,0.36000001430511475,0.3650000095367432,240000
2017-10-16,0.36000001430511475,0.3350000083446503,0.3400000035762787,0.3499999940395355,260000
2017-10-17,0.3400000035762787,0.3400000035762787,0.3400000035762787,0.3400000035762787,30000
2017-10-18,0.3350000083446503,0.32499998807907104,0.33000001311302185,0.32499998807907104,280000
2017-10-19,0.35499998927116394,0.3199999928474426,0.32499998807907104,0.35499998927116394,380000
2017-10-20,0.3449999988079071,0.3350000083446503,0.3449999988079071,0.3350000083446503,220000
2017-10-23,0.3650000095367432,0.3499999940395355,0.36000001430511475,0.3499999940395355,50000
2017-10-24,0.3449999988079071,0.33000001311302185,0.3449999988079071,0.33000001311302185,60000
2017-10-25,0.33000001311302185,0.33000001311302185,0.33000001311302185,0.33000001311302185,120000
2017-10-26,0.33000001311302185,0.33000001311302185,0.33000001311302185,0.33000001311302185,100000
2017-10-27,0.33000001311302185,0.33000001311302185,0.3499999940395355,0.33000001311302185,60000
2017-10-30,0.33000001311302185,0.33000001311302185,0.33000001311302185,0.33000001311302185,0
2017-10-31,0.3400000035762787,0.3400000035762787,0.3400000035762787,0.3400000035762787,160000
2017-11-01,0.3400000035762787,0.3400000035762787,0.3400000035762787,0.3400000035762787,40000
2017-11-02,0.3400000035762787,0.3400000035762787,0.3400000035762787,0.3400000035762787,0
2017-11-03,0.3899999856948853,0.3350000083446503,0.3400000035762787,0.3899999856948853,950000
2017-11-06,0.4350000023841858,0.3650000095367432,0.4350000023841858,0.3650000095367432,1520000
2017-11-07,0.3650000095367432,0.3499999940395355,0.3499999940395355,0.3650000095367432,200000
2017-11-08,0.3849999904632568,0.3499999940395355,0.3499999940395355,0.3799999952316284,400000
2017-11-09,0.3849999904632568,0.3650000095367432,0.3849999904632568,0.3700000047683716,960000
2017-11-10,0.5099999904632568,0.375,0.375,0.44999998807907104,11850000
2017-11-13,1.0,0.4550000131130218,0.4650000035762787,0.6200000047683716,33550000
2017-11-14,0.8500000238418579,0.5,0.6700000166893005,0.5400000214576721,19190000
2017-11-15,0.5799999833106995,0.44999998807907104,0.5799999833106995,0.4699999988079071,5650000
2017-11-16,0.5699999928474426,0.4399999976158142,0.4550000131130218,0.5099999904632568,3070000
2017-11-17,0.5099999904632568,0.4300000071525574,0.5099999904632568,0.4350000023841858,3080000
2017-11-20,0.4449999928474426,0.3849999904632568,0.4449999928474426,0.4000000059604645,2060000
2017-11-21,0.6499999761581421,0.4099999964237213,0.4099999964237213,0.5299999713897705,8800000
2017-11-22,0.5600000023841858,0.4399999976158142,0.5299999713897705,0.44999998807907104,2590000
2017-11-23,0.5199999809265137,0.42500001192092896,0.4449999928474426,0.4650000035762787,1620000
2017-11-24,0.4950000047683716,0.4449999928474426,0.4449999928474426,0.4749999940395355,480000
2017-11-27,0.5299999713897705,0.479999989271164,0.5299999713897705,0.479999989271164,650000
2017-11-28,0.5099999904632568,0.4550000131130218,0.4900000095367432,0.4600000083446503,1260000
2017-11-29,0.4699999988079071,0.4550000131130218,0.4699999988079071,0.4600000083446503,630000
2017-11-30,0.4699999988079071,0.44999998807907104,0.4600000083446503,0.4699999988079071,590000
2017-12-01,0.4950000047683716,0.4600000083446503,0.4600000083446503,0.4950000047683716,250000
2017-12-04,0.550000011920929,0.4749999940395355,0.550000011920929,0.4950000047683716,800880
2017-12-05,0.5299999713897705,0.4600000083446503,0.5299999713897705,0.4600000083446503,1260000
2017-12-06,0.4900000095367432,0.4550000131130218,0.4600000083446503,0.4900000095367432,940000
2017-12-07,0.5,0.4600000083446503,0.4699999988079071,0.4749999940395355,350000
2017-12-08,0.4950000047683716,0.4550000131130218,0.4749999940395355,0.4749999940395355,500000
2017-12-11,0.4850000143051148,0.4350000023841858,0.4350000023841858,0.4850000143051148,570000
2017-12-12,0.5,0.4600000083446503,0.4600000083446503,0.4600000083446503,1110000
2017-12-13,0.4900000095367432,0.4600000083446503,0.4600000083446503,0.479999989271164,260000
2017-12-14,0.4600000083446503,0.44999998807907104,0.4600000083446503,0.44999998807907104,260000
2017-12-15,0.44999998807907104,0.44999998807907104,0.44999998807907104,0.44999998807907104,150000
2017-12-18,0.479999989271164,0.4300000071525574,0.44999998807907104,0.479999989271164,740000
2017-12-19,0.4550000131130218,0.4350000023841858,0.4550000131130218,0.4350000023841858,400000
2017-12-20,0.4350000023841858,0.4350000023841858,0.4350000023841858,0.4350000023841858,110000
2017-12-21,0.44999998807907104,0.4149999916553497,0.4300000071525574,0.44999998807907104,510000
2017-12-22,0.4749999940395355,0.4399999976158142,0.4399999976158142,0.44999998807907104,150000
2017-12-27,0.44999998807907104,0.44999998807907104,0.44999998807907104,0.44999998807907104,440000
2017-12-28,0.44999998807907104,0.4350000023841858,0.44999998807907104,0.4350000023841858,130000
2017-12-29,0.41999998688697815,0.4149999916553497,0.41999998688697815,0.41999998688697815,90000
2018-01-02,0.4600000083446503,0.3849999904632568,0.3849999904632568,0.4300000071525574,640000
2018-01-03,0.44999998807907104,0.4300000071525574,0.4300000071525574,0.44999998807907104,90000
2018-01-04,0.44999998807907104,0.44999998807907104,0.44999998807907104,0.44999998807907104,0
2018-01-05,0.44999998807907104,0.44999998807907104,0.44999998807907104,0.44999998807907104,0
2018-01-08,0.4449999928474426,0.4449999928474426,0.4449999928474426,0.4449999928474426,0
2018-01-09,0.4350000023841858,0.4050000011920929,0.4300000071525574,0.4149999916553497,550000
2018-01-10,0.42500001192092896,0.4099999964237213,0.4149999916553497,0.4099999964237213,560000
2018-01-11,0.4099999964237213,0.4099999964237213,0.4099999964237213,0.4099999964237213,150000
2018-01-12,0.4699999988079071,0.4099999964237213,0.4099999964237213,0.4699999988079071,80000
2018-01-15,0.4699999988079071,0.4399999976158142,0.4699999988079071,0.4600000083446503,380000
2018-01-16,0.4399999976158142,0.41999998688697815,0.4399999976158142,0.42500001192092896,440000
2018-01-17,0.42500001192092896,0.42500001192092896,0.42500001192092896,0.42500001192092896,0
2018-01-18,0.42500001192092896,0.42500001192092896,0.42500001192092896,0.42500001192092896,40000
2018-01-19,0.42500001192092896,0.42500001192092896,0.42500001192092896,0.42500001192092896,10000
2018-01-22,0.41999998688697815,0.41999998688697815,0.41999998688697815,0.41999998688697815,40000
2018-01-23,0.41999998688697815,0.4099999964237213,0.4099999964237213,0.4099999964237213,560000
2018-01-24,0.4099999964237213,0.4099999964237213,0.4099999964237213,0.4099999964237213,130000
2018-01-25,0.4449999928474426,0.4099999964237213,0.4099999964237213,0.4449999928474426,220000
2018-01-26,0.4399999976158142,0.4300000071525574,0.4300000071525574,0.4399999976158142,320000
2018-01-29,0.4300000071525574,0.4099999964237213,0.4099999964237213,0.4300000071525574,110000
2018-01-30,0.4300000071525574,0.4300000071525574,0.4300000071525574,0.4300000071525574,0
2018-01-31,0.4300000071525574,0.4300000071525574,0.4300000071525574,0.4300000071525574,0
2018-02-01,0.4300000071525574,0.4300000071525574,0.4300000071525574,0.4300000071525574,0
2018-02-02,0.4149999916553497,0.3849999904632568,0.3849999904632568,0.4099999964237213,160000
2018-02-05,0.4099999964237213,0.4099999964237213,0.4099999964237213,0.4099999964237213,170000
2018-02-06,0.4099999964237213,0.4000000059604645,0.4000000059604645,0.4099999964237213,150000
2018-02-07,0.4099999964237213,0.4099999964237213,0.4099999964237213,0.4099999964237213,110000
2018-02-08,0.4099999964237213,0.4099999964237213,0.4099999964237213,0.4099999964237213,0
2018-02-09,0.4099999964237213,0.3899999856948853,0.3899999856948853,0.3899999856948853,150000
2018-02-12,0.3899999856948853,0.3499999940395355,0.3899999856948853,0.3899999856948853,480000
2018-02-13,0.3899999856948853,0.3899999856948853,0.3899999856948853,0.3899999856948853,0
2018-02-14,0.4000000059604645,0.4000000059604645,0.4000000059604645,0.4000000059604645,50000
2018-02-15,0.4099999964237213,0.4099999964237213,0.4099999964237213,0.4099999964237213,30000
2018-02-20,0.4099999964237213,0.4099999964237213,0.4099999964237213,0.4099999964237213,0
2018-02-21,0.4099999964237213,0.4099999964237213,0.4099999964237213,0.4099999964237213,0
2018-02-22,0.41999998688697815,0.3799999952316284,0.3799999952316284,0.4149999916553497,180000
2018-02-23,0.41999998688697815,0.4099999964237213,0.4149999916553497,0.4099999964237213,110000
2018-02-26,0.4099999964237213,0.3899999856948853,0.4099999964237213,0.4050000011920929,300000
2018-02-27,0.4050000011920929,0.4050000011920929,0.4050000011920929,0.4050000011920929,0
2018-02-28,0.4050000011920929,0.4050000011920929,0.4050000011920929,0.4050000011920929,40000
2018-03-01,0.4050000011920929,0.4050000011920929,0.4050000011920929,0.4050000011920929,0
2018-03-02,0.4050000011920929,0.4050000011920929,0.4050000011920929,0.4050000011920929,0
2018-03-05,0.4050000011920929,0.4050000011920929,0.4050000011920929,0.4050000011920929,0
2018-03-06,0.4050000011920929,0.4050000011920929,0.4050000011920929,0.4050000011920929,0
2018-03-07,0.4050000011920929,0.4050000011920929,0.4050000011920929,0.4050000011920929,0
2018-03-08,0.4050000011920929,0.4050000011920929,0.4050000011920929,0.4050000011920929,0
2018-03-09,0.4050000011920929,0.4050000011920929,0.4050000011920929,0.4050000011920929,0
2018-03-12,0.4149999916553497,0.4149999916553497,0.4149999916553497,0.4149999916553497,90000
2018-03-13,0.4300000071525574,0.41999998688697815,0.41999998688697815,0.4300000071525574,290000
2018-03-14,0.41999998688697815,0.41999998688697815,0.41999998688697815,0.41999998688697815,0
2018-03-15,0.41999998688697815,0.41999998688697815,0.41999998688697815,0.41999998688697815,0
2018-03-16,0.4099999964237213,0.4099999964237213,0.4099999964237213,0.4099999964237213,0
2018-03-19,0.4099999964237213,0.4099999964237213,0.4099999964237213,0.4099999964237213,70000
2018-03-20,0.42500001192092896,0.36000001430511475,0.3650000095367432,0.4300000071525574,250000
2018-03-21,0.41999998688697815,0.41999998688697815,0.41999998688697815,0.41999998688697815,0
2018-03-22,0.4300000071525574,0.3849999904632568,0.41999998688697815,0.3950000107288361,70000
2018-03-23,0.3950000107288361,0.3950000107288361,0.3950000107288361,0.3950000107288361,0
2018-03-26,0.4149999916553497,0.4149999916553497,0.4149999916553497,0.4149999916553497,0
2018-03-27,0.4050000011920929,0.4050000011920929,0.4050000011920929,0.4050000011920929,100000
2018-03-28,0.4399999976158142,0.4000000059604645,0.4000000059604645,0.4050000011920929,630000
2018-03-29,0.4050000011920929,0.4050000011920929,0.4050000011920929,0.4050000011920929,10000
2018-04-03,0.4050000011920929,0.4050000011920929,0.4050000011920929,0.4050000011920929,0
2018-04-04,0.4300000071525574,0.41999998688697815,0.42500001192092896,0.4300000071525574,100000
2018-04-06,0.4300000071525574,0.4300000071525574,0.4300000071525574,0.4300000071525574,200000
2018-04-09,0.4300000071525574,0.4300000071525574,0.4300000071525574,0.4300000071525574,0
2018-04-10,0.4050000011920929,0.375,0.375,0.4050000011920929,20000
2018-04-11,0.4050000011920929,0.4050000011920929,0.4050000011920929,0.4050000011920929,0
2018-04-12,0.4050000011920929,0.4050000011920929,0.4050000011920929,0.4050000011920929,0
2018-04-13,0.4050000011920929,0.4050000011920929,0.4050000011920929,0.4050000011920929,0
2018-04-16,0.4050000011920929,0.4050000011920929,0.4050000011920929,0.4050000011920929,0
2018-04-17,0.4050000011920929,0.4050000011920929,0.4050000011920929,0.4050000011920929,0
2018-04-18,0.4050000011920929,0.3799999952316284,0.3799999952316284,0.4050000011920929,40000
2018-04-19,0.4050000011920929,0.4050000011920929,0.4050000011920929,0.4050000011920929,0
2018-04-20,0.4000000059604645,0.3799999952316284,0.3799999952316284,0.4000000059604645,50000
2018-04-23,0.4000000059604645,0.4000000059604645,0.4000000059604645,0.4000000059604645,0
2018-04-24,0.3849999904632568,0.3849999904632568,0.3849999904632568,0.3849999904632568,20000
2018-04-25,0.3849999904632568,0.3849999904632568,0.3849999904632568,0.3849999904632568,0
2018-04-26,0.3849999904632568,0.3849999904632568,0.3849999904632568,0.3849999904632568,0
2018-04-27,0.3799999952316284,0.3799999952316284,0.3799999952316284,0.3799999952316284,20000
2018-04-30,0.3849999904632568,0.3849999904632568,0.3849999904632568,0.3849999904632568,0
2018-05-02,0.3849999904632568,0.3849999904632568,0.3849999904632568,0.3849999904632568,0
2018-05-03,0.3849999904632568,0.3849999904632568,0.3849999904632568,0.3849999904632568,50000
2018-05-04,0.3849999904632568,0.3849999904632568,0.3849999904632568,0.3849999904632568,0
2018-05-07,0.3849999904632568,0.3849999904632568,0.3849999904632568,0.3849999904632568,200000
2018-05-08,0.3799999952316284,0.3799999952316284,0.3799999952316284,0.3799999952316284,180000
2018-05-09,0.3799999952316284,0.3799999952316284,0.3799999952316284,0.3799999952316284,0
2018-05-10,0.3799999952316284,0.3799999952316284,0.3799999952316284,0.3799999952316284,70000
2018-05-11,0.3799999952316284,0.3799999952316284,0.3799999952316284,0.3799999952316284,0
2018-05-14,0.4099999964237213,0.4000000059604645,0.4099999964237213,0.4000000059604645,100000
2018-05-15,0.3899999856948853,0.3849999904632568,0.3899999856948853,0.3849999904632568,230000
2018-05-16,0.3849999904632568,0.3849999904632568,0.3849999904632568,0.3849999904632568,0
2018-05-17,0.3849999904632568,0.3849999904632568,0.3849999904632568,0.3849999904632568,0
2018-05-18,0.3849999904632568,0.3849999904632568,0.3849999904632568,0.3849999904632568,0
2018-05-21,0.3849999904632568,0.3849999904632568,0.3849999904632568,0.3849999904632568,0
2018-05-23,0.3849999904632568,0.3849999904632568,0.3849999904632568,0.3849999904632568,0
2018-05-24,0.3849999904632568,0.3849999904632568,0.3849999904632568,0.3849999904632568,0
2018-05-25,0.3849999904632568,0.3849999904632568,0.3849999904632568,0.3849999904632568,0
2018-05-28,0.4099999964237213,0.375,0.3799999952316284,0.4099999964237213,430000
2018-05-29,0.4099999964237213,0.4099999964237213,0.4099999964237213,0.4099999964237213,0
2018-05-30,0.4000000059604645,0.4000000059604645,0.4000000059604645,0.4000000059604645,0
2018-05-31,0.4000000059604645,0.4000000059604645,0.4000000059604645,0.4000000059604645,0
2018-06-01,0.4099999964237213,0.3899999856948853,0.4099999964237213,0.3899999856948853,430000
2018-06-04,0.3849999904632568,0.3799999952316284,0.3849999904632568,0.3899999856948853,360000
2018-06-05,0.3899999856948853,0.3899999856948853,0.3899999856948853,0.3899999856948853,0
2018-06-06,0.4050000011920929,0.3849999904632568,0.3899999856948853,0.3950000107288361,710000
2018-06-07,0.3950000107288361,0.3950000107288361,0.3950000107288361,0.3950000107288361,60000
2018-06-08,0.3950000107288361,0.3950000107288361,0.3950000107288361,0.3950000107288361,0
2018-06-11,0.4699999988079071,0.4099999964237213,0.44999998807907104,0.44999998807907104,960000
2018-06-12,0.44999998807907104,0.42500001192092896,0.44999998807907104,0.4399999976158142,280000
2018-06-13,0.44999998807907104,0.4300000071525574,0.4399999976158142,0.44999998807907104,270000
2018-06-14,0.44999998807907104,0.44999998807907104,0.44999998807907104,0.44999998807907104,0
2018-06-15,0.44999998807907104,0.44999998807907104,0.44999998807907104,0.44999998807907104,100000
2018-06-19,0.4399999976158142,0.4300000071525574,0.4399999976158142,0.4399999976158142,150000
2018-06-20,0.41999998688697815,0.4149999916553497,0.4149999916553497,0.41999998688697815,40000
2018-06-21,0.41999998688697815,0.41999998688697815,0.41999998688697815,0.41999998688697815,90000
2018-06-22,0.41999998688697815,0.41999998688697815,0.41999998688697815,0.41999998688697815,50000
2018-06-25,0.4149999916553497,0.4149999916553497,0.4149999916553497,0.4149999916553497,120000
2018-06-26,0.4350000023841858,0.3899999856948853,0.3950000107288361,0.4350000023841858,410000
2018-06-27,0.41999998688697815,0.3899999856948853,0.41999998688697815,0.4149999916553497,630000
2018-06-28,0.4099999964237213,0.4099999964237213,0.4099999964237213,0.4099999964237213,0
2018-06-29,0.4099999964237213,0.4050000011920929,0.4099999964237213,0.4099999964237213,270000
2018-07-03,0.42500001192092896,0.4149999916553497,0.4149999916553497,0.42500001192092896,160000
2018-07-04,0.42500001192092896,0.42500001192092896,0.42500001192092896,0.42500001192092896,0
2018-07-05,0.42500001192092896,0.42500001192092896,0.42500001192092896,0.42500001192092896,0
2018-07-06,0.42500001192092896,0.42500001192092896,0.42500001192092896,0.42500001192092896,0
2018-07-09,0.42500001192092896,0.42500001192092896,0.42500001192092896,0.42500001192092896,0
2018-07-10,0.42500001192092896,0.3849999904632568,0.42500001192092896,0.3849999904632568,190000
2018-07-11,0.4000000059604645,0.375,0.3899999856948853,0.3849999904632568,5410000
2018-07-12,0.4149999916553497,0.3899999856948853,0.3899999856948853,0.4000000059604645,1960000
2018-07-13,0.4550000131130218,0.4000000059604645,0.4099999964237213,0.4099999964237213,13050000
2018-07-16,0.4149999916553497,0.4000000059604645,0.4000000059604645,0.4099999964237213,27550000
2018-07-17,0.4699999988079071,0.4149999916553497,0.44999998807907104,0.4350000023841858,14960000
2018-07-18,0.4749999940395355,0.4399999976158142,0.44999998807907104,0.4650000035762787,8750000
2018-07-19,0.479999989271164,0.44999998807907104,0.44999998807907104,0.4749999940395355,1720000
2018-07-20,0.5099999904632568,0.4600000083446503,0.4600000083446503,0.5,2240000
2018-07-23,0.5099999904632568,0.4749999940395355,0.4950000047683716,0.5099999904632568,1140000
2018-07-24,0.5,0.4850000143051148,0.4850000143051148,0.5,530000
2018-07-25,0.5,0.4950000047683716,0.5,0.5,470000
2018-07-26,0.5099999904632568,0.5099999904632568,0.5099999904632568,0.5099999904632568,160000
2018-07-27,0.5899999737739563,0.5199999809265137,0.550000011920929,0.5799999833106995,780000
2018-07-30,0.6100000143051147,0.5600000023841858,0.5799999833106995,0.6000000238418579,570000
2018-07-31,0.6200000047683716,0.6000000238418579,0.6000000238418579,0.6000000238418579,660000
2018-08-01,0.6399999856948853,0.5099999904632568,0.6399999856948853,0.5400000214576721,920000
2018-08-02,0.5799999833106995,0.5299999713897705,0.5400000214576721,0.5699999928474426,380000
2018-08-03,0.5699999928474426,0.5199999809265137,0.5600000023841858,0.5600000023841858,180000
2018-08-06,0.5899999737739563,0.5199999809265137,0.5899999737739563,0.5400000214576721,210000
2018-08-07,0.550000011920929,0.5,0.550000011920929,0.5400000214576721,250000
2018-08-08,0.5400000214576721,0.5,0.5400000214576721,0.5299999713897705,430000
2018-08-09,0.5099999904632568,0.4749999940395355,0.4749999940395355,0.5099999904632568,320000
2018-08-10,0.5,0.4900000095367432,0.5,0.4950000047683716,120000
2018-08-13,0.5400000214576721,0.5,0.5,0.5299999713897705,310000
2018-08-14,0.5899999737739563,0.5400000214576721,0.5400000214576721,0.5600000023841858,220000
2018-08-15,0.5600000023841858,0.5400000214576721,0.5600000023841858,0.5600000023841858,110000
2018-08-16,0.550000011920929,0.5400000214576721,0.550000011920929,0.5400000214576721,60000
2018-08-17,0.5799999833106995,0.550000011920929,0.550000011920929,0.5600000023841858,460000
2018-08-20,0.550000011920929,0.5299999713897705,0.550000011920929,0.550000011920929,500000
2018-08-21,0.5600000023841858,0.5099999904632568,0.550000011920929,0.5099999904632568,640000
2018-08-22,0.5400000214576721,0.5099999904632568,0.5400000214576721,0.5299999713897705,350000
2018-08-23,0.5299999713897705,0.5299999713897705,0.5299999713897705,0.5299999713897705,80000
2018-08-24,0.5199999809265137,0.5,0.5,0.5,210000
2018-08-27,0.5299999713897705,0.5,0.5299999713897705,0.5,100000
2018-08-28,0.5,0.44999998807907104,0.5,0.4600000083446503,1010000
2018-08-29,0.4699999988079071,0.4600000083446503,0.4600000083446503,0.4699999988079071,50000
2018-08-30,0.4850000143051148,0.4749999940395355,0.4749999940395355,0.4850000143051148,50000
2018-08-31,0.4850000143051148,0.4600000083446503,0.4850000143051148,0.4600000083446503,120000
2018-09-03,0.4699999988079071,0.44999998807907104,0.44999998807907104,0.4699999988079071,50000
2018-09-04,0.4699999988079071,0.4600000083446503,0.4600000083446503,0.4600000083446503,80000
2018-09-05,0.4749999940395355,0.4600000083446503,0.4749999940395355,0.4600000083446503,60000
2018-09-06,0.4650000035762787,0.44999998807907104,0.44999998807907104,0.4600000083446503,60000
2018-09-07,0.4699999988079071,0.4650000035762787,0.4699999988079071,0.4650000035762787,40000
2018-09-10,0.4749999940395355,0.44999998807907104,0.4749999940395355,0.44999998807907104,210000
2018-09-11,0.4600000083446503,0.44999998807907104,0.4600000083446503,0.44999998807907104,140000
2018-09-12,0.4650000035762787,0.4399999976158142,0.4650000035762787,0.44999998807907104,150000
2018-09-13,0.4600000083446503,0.44999998807907104,0.44999998807907104,0.44999998807907104,50000
2018-09-14,0.479999989271164,0.4300000071525574,0.479999989271164,0.44999998807907104,300000
2018-09-17,0.4550000131130218,0.4449999928474426,0.4550000131130218,0.4449999928474426,50000
2018-09-18,0.4550000131130218,0.4300000071525574,0.4550000131130218,0.4300000071525574,60000
2018-09-19,0.4300000071525574,0.4000000059604645,0.4300000071525574,0.4099999964237213,250000
2018-09-20,0.4350000023841858,0.4350000023841858,0.4350000023841858,0.4350000023841858,30000
2018-09-21,0.4300000071525574,0.4050000011920929,0.4050000011920929,0.4099999964237213,200000
2018-09-24,0.4149999916553497,0.4050000011920929,0.4149999916553497,0.4050000011920929,60000
2018-09-26,0.4149999916553497,0.4050000011920929,0.4050000011920929,0.4149999916553497,80000
2018-09-27,0.42500001192092896,0.4000000059604645,0.42500001192092896,0.4000000059604645,60000
2018-09-28,0.4050000011920929,0.3799999952316284,0.4050000011920929,0.3849999904632568,420000
2018-10-02,0.3849999904632568,0.3700000047683716,0.3849999904632568,0.3700000047683716,320000
2018-10-03,0.4000000059604645,0.3899999856948853,0.3899999856948853,0.4000000059604645,50000
2018-10-04,0.4149999916553497,0.375,0.4149999916553497,0.375,190000
2018-10-05,0.4000000059604645,0.3849999904632568,0.4000000059604645,0.3849999904632568,100000
2018-10-08,0.44999998807907104,0.3899999856948853,0.44999998807907104,0.3899999856948853,230000
2018-10-09,0.4050000011920929,0.36000001430511475,0.3950000107288361,0.3799999952316284,590000
2018-10-10,0.3799999952316284,0.3650000095367432,0.3799999952316284,0.3650000095367432,140000
2018-10-11,0.36000001430511475,0.35499998927116394,0.35499998927116394,0.35499998927116394,30000
2018-10-12,0.3650000095367432,0.3400000035762787,0.3400000035762787,0.3650000095367432,40000
2018-10-15,0.3899999856948853,0.3799999952316284,0.3799999952316284,0.3849999904632568,30000
2018-10-16,0.3849999904632568,0.36000001430511475,0.3849999904632568,0.3650000095367432,140000
2018-10-18,0.3899999856948853,0.35499998927116394,0.3899999856948853,0.35499998927116394,150000
2018-10-19,0.35499998927116394,0.35499998927116394,0.35499998927116394,0.35499998927116394,140000
2018-10-22,0.3799999952316284,0.3650000095367432,0.375,0.3650000095367432,100000
2018-10-23,0.36000001430511475,0.3350000083446503,0.3400000035762787,0.36000001430511475,70000
2018-10-24,0.36000001430511475,0.36000001430511475,0.36000001430511475,0.36000001430511475,220000
2018-10-25,0.35499998927116394,0.3499999940395355,0.3499999940395355,0.35499998927116394,50000
2018-10-26,0.375,0.35499998927116394,0.375,0.35499998927116394,50000
2018-10-29,0.3499999940395355,0.33000001311302185,0.3499999940395355,0.3499999940395355,60000
2018-10-30,0.33000001311302185,0.3199999928474426,0.33000001311302185,0.33000001311302185,1060000
2018-10-31,0.3499999940395355,0.2949999868869781,0.3149999976158142,0.3050000071525574,1900000
2018-11-01,0.32499998807907104,0.2949999868869781,0.3100000023841858,0.3199999928474426,760000
2018-11-02,0.32499998807907104,0.3100000023841858,0.32499998807907104,0.3100000023841858,110000
2018-11-05,0.3199999928474426,0.3199999928474426,0.3199999928474426,0.3199999928474426,150000
2018-11-06,0.3400000035762787,0.3350000083446503,0.3400000035762787,0.3350000083446503,60000
2018-11-07,0.36000001430511475,0.33000001311302185,0.36000001430511475,0.33000001311302185,50000
2018-11-08,0.3400000035762787,0.3199999928474426,0.3400000035762787,0.3199999928474426,60000
2018-11-09,0.3050000071525574,0.30000001192092896,0.30000001192092896,0.3100000023841858,120000
2018-11-12,0.3050000071525574,0.2899999916553497,0.3050000071525574,0.30000001192092896,60000
2018-11-13,0.3199999928474426,0.3199999928474426,0.3199999928474426,0.3199999928474426,0
2018-11-14,0.3050000071525574,0.30000001192092896,0.30000001192092896,0.30000001192092896,60000
2018-11-15,0.3100000023841858,0.30000001192092896,0.30000001192092896,0.3050000071525574,200000
2018-11-16,0.33000001311302185,0.2949999868869781,0.33000001311302185,0.30000001192092896,160000
2018-11-19,0.3199999928474426,0.3149999976158142,0.3149999976158142,0.3199999928474426,50000
2018-11-20,0.33000001311302185,0.32499998807907104,0.32499998807907104,0.32499998807907104,60000
2018-11-21,0.3199999928474426,0.3149999976158142,0.3199999928474426,0.3199999928474426,90000
2018-11-22,0.3050000071525574,0.30000001192092896,0.30000001192092896,0.30000001192092896,120000
2018-11-23,0.3199999928474426,0.3050000071525574,0.3100000023841858,0.3050000071525574,130000
2018-11-26,0.3050000071525574,0.3050000071525574,0.3050000071525574,0.3100000023841858,40000
2018-11-27,0.3050000071525574,0.30000001192092896,0.3050000071525574,0.3050000071525574,80000
2018-11-28,0.3149999976158142,0.30000001192092896,0.3050000071525574,0.3149999976158142,60000
2018-11-29,0.3050000071525574,0.3050000071525574,0.3050000071525574,0.3050000071525574,90000
2018-11-30,0.3149999976158142,0.3149999976158142,0.3149999976158142,0.3149999976158142,10000
2018-12-03,0.33000001311302185,0.30000001192092896,0.33000001311302185,0.30000001192092896,100000
2018-12-04,0.3149999976158142,0.3149999976158142,0.3149999976158142,0.3149999976158142,50000
2018-12-05,0.3149999976158142,0.3100000023841858,0.3149999976158142,0.3100000023841858,70000
2018-12-06,0.3199999928474426,0.3149999976158142,0.3149999976158142,0.3149999976158142,40000
2018-12-07,0.3050000071525574,0.30000001192092896,0.3050000071525574,0.30000001192092896,60000
2018-12-10,0.30000001192092896,0.2899999916553497,0.2949999868869781,0.2949999868869781,110000
2018-12-11,0.3100000023841858,0.2949999868869781,0.3100000023841858,0.2949999868869781,80000
2018-12-12,0.3149999976158142,0.30000001192092896,0.30000001192092896,0.30000001192092896,100000
2018-12-13,0.30000001192092896,0.2949999868869781,0.2949999868869781,0.30000001192092896,70000
2018-12-14,0.2949999868869781,0.2849999964237213,0.2949999868869781,0.2899999916553497,50000
2018-12-17,0.30000001192092896,0.2949999868869781,0.2949999868869781,0.30000001192092896,50000
2018-12-18,0.32499998807907104,0.3100000023841858,0.3100000023841858,0.3199999928474426,30000
2018-12-19,0.3100000023841858,0.2899999916553497,0.3100000023841858,0.3050000071525574,190000
2018-12-20,0.3149999976158142,0.30000001192092896,0.3149999976158142,0.30000001192092896,70000
2018-12-21,0.30000001192092896,0.2949999868869781,0.30000001192092896,0.2949999868869781,50000
2018-12-24,0.30000001192092896,0.2899999916553497,0.2899999916553497,0.30000001192092896,120000
2018-12-27,0.3149999976158142,0.2949999868869781,0.2949999868869781,0.3100000023841858,70000
2018-12-28,0.3199999928474426,0.3100000023841858,0.3199999928474426,0.3100000023841858,60000
2018-12-31,0.3149999976158142,0.3149999976158142,0.3149999976158142,0.3149999976158142,50000
2019-01-02,0.30000001192092896,0.2899999916553497,0.30000001192092896,0.2899999916553497,250000
2019-01-03,0.3100000023841858,0.3050000071525574,0.3100000023841858,0.3050000071525574,60000
2019-01-04,0.3100000023841858,0.3050000071525574,0.3050000071525574,0.3100000023841858,50000
2019-01-07,0.3149999976158142,0.3100000023841858,0.3100000023841858,0.3100000023841858,60000
2019-01-08,0.3100000023841858,0.3100000023841858,0.3100000023841858,0.3100000023841858,60000
2019-01-09,0.3050000071525574,0.30000001192092896,0.3050000071525574,0.30000001192092896,50000
2019-01-10,0.2949999868869781,0.2849999964237213,0.2949999868869781,0.2899999916553497,310000
2019-01-11,0.2849999964237213,0.2849999964237213,0.2849999964237213,0.2899999916553497,120000
2019-01-14,0.2949999868869781,0.2800000011920929,0.2849999964237213,0.2849999964237213,270000
2019-01-15,0.2899999916553497,0.2750000059604645,0.2899999916553497,0.2750000059604645,90000
2019-01-16,0.2949999868869781,0.2849999964237213,0.2849999964237213,0.2949999868869781,50000
2019-01-17,0.3100000023841858,0.2949999868869781,0.2949999868869781,0.3100000023841858,240000
2019-01-18,0.3100000023841858,0.2800000011920929,0.3100000023841858,0.30000001192092896,890000
2019-01-21,0.3100000023841858,0.2849999964237213,0.30000001192092896,0.2849999964237213,350000
2019-01-22,0.2899999916553497,0.2800000011920929,0.2800000011920929,0.2899999916553497,80000
2019-01-23,0.30000001192092896,0.2800000011920929,0.2800000011920929,0.2899999916553497,280000
2019-01-24,0.2800000011920929,0.25999999046325684,0.2800000011920929,0.2750000059604645,660000
2019-01-25,0.2949999868869781,0.2949999868869781,0.2949999868869781,0.2949999868869781,190000
2019-01-28,0.3499999940395355,0.2949999868869781,0.2949999868869781,0.3499999940395355,3270000
2019-01-29,0.4099999964237213,0.33000001311302185,0.3350000083446503,0.4000000059604645,4030000
2019-01-30,0.4950000047683716,0.4000000059604645,0.4149999916553497,0.42500001192092896,1660000
2019-01-31,0.4699999988079071,0.4149999916553497,0.42500001192092896,0.4699999988079071,1270000
2019-02-01,0.479999989271164,0.3700000047683716,0.479999989271164,0.4600000083446503,1530000
2019-02-04,0.4550000131130218,0.42500001192092896,0.44999998807907104,0.4300000071525574,1070000
2019-02-08,0.4550000131130218,0.42500001192092896,0.42500001192092896,0.44999998807907104,1060000
2019-02-11,0.44999998807907104,0.4399999976158142,0.44999998807907104,0.44999998807907104,590000
2019-02-12,0.479999989271164,0.4350000023841858,0.4399999976158142,0.4749999940395355,2250000
2019-02-13,0.4749999940395355,0.4550000131130218,0.4749999940395355,0.4749999940395355,1250000
2019-02-14,0.5400000214576721,0.4149999916553497,0.5,0.5199999809265137,15500000
2019-02-15,0.5,0.44999998807907104,0.4699999988079071,0.4600000083446503,5460000
2019-02-18,0.479999989271164,0.4050000011920929,0.4699999988079071,0.41999998688697815,22390000
2019-02-19,0.4000000059604645,0.3650000095367432,0.4000000059604645,0.375,2830000
2019-02-20,0.3700000047683716,0.3100000023841858,0.3199999928474426,0.3449999988079071,3650000
2019-02-21,0.35499998927116394,0.3400000035762787,0.3449999988079071,0.3449999988079071,770000
2019-02-22,0.3449999988079071,0.33000001311302185,0.3449999988079071,0.33000001311302185,70000
2019-02-25,0.3499999940395355,0.33000001311302185,0.33000001311302185,0.3499999940395355,660000
2019-02-26,0.3499999940395355,0.3449999988079071,0.3499999940395355,0.3499999940395355,180000
2019-02-27,0.3449999988079071,0.30000001192092896,0.32499998807907104,0.3400000035762787,370000
2019-02-28,0.3499999940395355,0.33000001311302185,0.3499999940395355,0.3449999988079071,470000
2019-03-01,0.35499998927116394,0.33000001311302185,0.3499999940395355,0.3499999940395355,100000
2019-03-04,0.3499999940395355,0.3499999940395355,0.3499999940395355,0.3499999940395355,50000
2019-03-05,0.3449999988079071,0.33000001311302185,0.3400000035762787,0.3350000083446503,320000
2019-03-06,0.3799999952316284,0.3350000083446503,0.3350000083446503,0.3700000047683716,5740000
2019-03-07,0.375,0.375,0.375,0.375,0
2019-03-08,0.3700000047683716,0.36000001430511475,0.3700000047683716,0.3650000095367432,6100000
2019-03-11,0.3700000047683716,0.3449999988079071,0.3700000047683716,0.35499998927116394,5830000
2019-03-12,0.3650000095367432,0.3499999940395355,0.3499999940395355,0.3650000095367432,230000
2019-03-13,0.3650000095367432,0.3650000095367432,0.3650000095367432,0.3650000095367432,80000
2019-03-14,0.3849999904632568,0.35499998927116394,0.35499998927116394,0.3849999904632568,530000
2019-03-15,0.3950000107288361,0.3899999856948853,0.3950000107288361,0.3899999856948853,200000
2019-03-18,0.3899999856948853,0.3650000095367432,0.3799999952316284,0.3650000095367432,190000
2019-03-19,0.3950000107288361,0.3650000095367432,0.3650000095367432,0.3950000107288361,300000
2019-03-20,0.3899999856948853,0.3899999856948853,0.3899999856948853,0.3899999856948853,50000
2019-03-21,0.3799999952316284,0.3799999952316284,0.3799999952316284,0.3799999952316284,60000
2019-03-22,0.3700000047683716,0.3650000095367432,0.3650000095367432,0.3700000047683716,80000
2019-03-25,0.3700000047683716,0.3700000047683716,0.3700000047683716,0.3700000047683716,0
2019-03-26,0.3799999952316284,0.3799999952316284,0.3799999952316284,0.3799999952316284,0
2019-03-27,0.3799999952316284,0.3799999952316284,0.3799999952316284,0.3799999952316284,0
2019-03-28,0.3899999856948853,0.3700000047683716,0.3899999856948853,0.3700000047683716,170000
2019-03-29,0.4000000059604645,0.3849999904632568,0.3849999904632568,0.3950000107288361,290000
2019-04-01,0.4050000011920929,0.3799999952316284,0.3849999904632568,0.3899999856948853,390000
2019-04-02,0.3899999856948853,0.3899999856948853,0.3899999856948853,0.3899999856948853,110000
2019-04-03,0.3799999952316284,0.3799999952316284,0.3799999952316284,0.3799999952316284,10000
2019-04-04,0.3950000107288361,0.3849999904632568,0.3849999904632568,0.3899999856948853,260000
2019-04-08,0.3849999904632568,0.3849999904632568,0.3849999904632568,0.3849999904632568,100000
2019-04-09,0.3849999904632568,0.3849999904632568,0.3849999904632568,0.3849999904632568,0
2019-04-10,0.3849999904632568,0.36000001430511475,0.36000001430511475,0.3799999952316284,180000
2019-04-11,0.3700000047683716,0.3650000095367432,0.3650000095367432,0.3700000047683716,90000
2019-04-12,0.3700000047683716,0.3700000047683716,0.3700000047683716,0.3700000047683716,0
2019-04-15,0.3700000047683716,0.3700000047683716,0.3700000047683716,0.3700000047683716,0
2019-04-16,0.4050000011920929,0.3700000047683716,0.3700000047683716,0.3899999856948853,450000
2019-04-17,0.3950000107288361,0.3799999952316284,0.3799999952316284,0.3950000107288361,210000
2019-04-18,0.3799999952316284,0.3799999952316284,0.3799999952316284,0.3799999952316284,280000
2019-04-23,0.3799999952316284,0.3799999952316284,0.3799999952316284,0.3799999952316284,0
2019-04-24,0.3849999904632568,0.3849999904632568,0.3849999904632568,0.3849999904632568,0
2019-04-25,0.4050000011920929,0.3799999952316284,0.3899999856948853,0.3899999856948853,240000
2019-04-26,0.3899999856948853,0.3799999952316284,0.3899999856948853,0.3799999952316284,340000
2019-04-29,0.3700000047683716,0.3650000095367432,0.3700000047683716,0.3700000047683716,170000
2019-04-30,0.3650000095367432,0.3650000095367432,0.3650000095367432,0.3650000095367432,140000
2019-05-02,0.3650000095367432,0.3650000095367432,0.3650000095367432,0.3650000095367432,0
2019-05-03,0.3799999952316284,0.3799999952316284,0.35499998927116394,0.3799999952316284,160000
2019-05-06,0.3799999952316284,0.3799999952316284,0.3799999952316284,0.3799999952316284,0
2019-05-07,0.3799999952316284,0.3799999952316284,0.3799999952316284,0.3799999952316284,0
2019-05-08,0.3799999952316284,0.3700000047683716,0.3849999904632568,0.3700000047683716,40000
2019-05-09,0.3700000047683716,0.3700000047683716,0.3700000047683716,0.3700000047683716,0
2019-05-10,0.3700000047683716,0.3700000047683716,0.3700000047683716,0.3700000047683716,0
2019-05-14,0.3650000095367432,0.3650000095367432,0.3650000095367432,0.3650000095367432,0
2019-05-15,0.3650000095367432,0.3650000095367432,0.3650000095367432,0.3650000095367432,0
2019-05-16,0.3650000095367432,0.3650000095367432,0.3650000095367432,0.3650000095367432,0
2019-05-17,0.3650000095367432,0.3650000095367432,0.3650000095367432,0.3650000095367432,0
2019-05-20,0.3650000095367432,0.3650000095367432,0.3650000095367432,0.3650000095367432,0
2019-05-21,0.3449999988079071,0.3199999928474426,0.3199999928474426,0.3449999988079071,120000
2019-05-22,0.3449999988079071,0.3449999988079071,0.3449999988079071,0.3449999988079071,0
2019-05-23,0.36000001430511475,0.36000001430511475,0.36000001430511475,0.36000001430511475,0
2019-05-24,0.3899999856948853,0.3899999856948853,0.3899999856948853,0.3799999952316284,10000
2019-05-27,0.3799999952316284,0.3499999940395355,0.3499999940395355,0.36000001430511475,470000
2019-05-28,0.3899999856948853,0.36000001430511475,0.36000001430511475,0.36000001430511475,400000
2019-05-29,0.36000001430511475,0.3499999940395355,0.35499998927116394,0.35499998927116394,580000
2019-05-30,0.35499998927116394,0.35499998927116394,0.35499998927116394,0.35499998927116394,0
2019-05-31,0.36000001430511475,0.35499998927116394,0.35499998927116394,0.36000001430511475,130000
2019-06-03,0.3650000095367432,0.3499999940395355,0.3499999940395355,0.3650000095367432,20000
2019-06-04,0.3950000107288361,0.33000001311302185,0.33000001311302185,0.3950000107288361,340000
2019-06-05,0.36000001430511475,0.3400000035762787,0.36000001430511475,0.3400000035762787,560000
2019-06-06,0.3400000035762787,0.3400000035762787,0.3400000035762787,0.3400000035762787,0
2019-06-10,0.33000001311302185,0.33000001311302185,0.33000001311302185,0.33000001311302185,380000
2019-06-11,0.33000001311302185,0.3199999928474426,0.3199999928474426,0.33000001311302185,50000
2019-06-12,0.3400000035762787,0.3400000035762787,0.3400000035762787,0.3400000035762787,50000
2019-06-13,0.3400000035762787,0.3400000035762787,0.3400000035762787,0.3400000035762787,0
2019-06-14,0.3400000035762787,0.3400000035762787,0.3400000035762787,0.3400000035762787,0
2019-06-17,0.3400000035762787,0.3400000035762787,0.3400000035762787,0.3400000035762787,0
2019-06-18,0.33000001311302185,0.33000001311302185,0.33000001311302185,0.33000001311302185,10000
2019-06-19,0.3400000035762787,0.3199999928474426,0.3149999976158142,0.3199999928474426,400000
2019-06-20,0.32499998807907104,0.3199999928474426,0.3199999928474426,0.32499998807907104,60000
2019-06-21,0.3350000083446503,0.3350000083446503,0.3350000083446503,0.3350000083446503,0
2019-06-24,0.3350000083446503,0.3350000083446503,0.3350000083446503,0.3350000083446503,0
2019-06-25,0.3350000083446503,0.3350000083446503,0.3350000083446503,0.3350000083446503,0
2019-06-26,0.3149999976158142,0.3149999976158142,0.3149999976158142,0.3149999976158142,20000
2019-06-27,0.3149999976158142,0.3149999976158142,0.3149999976158142,0.3149999976158142,0
2019-06-28,0.3149999976158142,0.2800000011920929,0.3149999976158142,0.2800000011920929,150000
2019-07-02,0.2949999868869781,0.2949999868869781,0.2949999868869781,0.2949999868869781,0
2019-07-03,0.30000001192092896,0.2899999916553497,0.30000001192092896,0.30000001192092896,880000
2019-07-04,0.30000001192092896,0.2899999916553497,0.3100000023841858,0.2899999916553497,350000
2019-07-05,0.2899999916553497,0.2899999916553497,0.2899999916553497,0.2899999916553497,140000
2019-07-08,0.2899999916553497,0.2899999916553497,0.2899999916553497,0.2899999916553497,0
2019-07-09,0.2899999916553497,0.2899999916553497,0.2899999916553497,0.2899999916553497,0
2019-07-10,0.2899999916553497,0.2899999916553497,0.2899999916553497,0.2899999916553497,0
2019-07-11,0.3499999940395355,0.3050000071525574,0.3400000035762787,0.3350000083446503,900000
2019-07-12,0.3700000047683716,0.3700000047683716,0.3499999940395355,0.3700000047683716,40000
2019-07-15,0.3799999952316284,0.3700000047683716,0.3799999952316284,0.375,270000
2019-07-16,0.375,0.375,0.375,0.375,0
2019-07-17,0.4000000059604645,0.3499999940395355,0.3950000107288361,0.3849999904632568,600000
2019-07-18,0.3849999904632568,0.3700000047683716,0.4099999964237213,0.3849999904632568,250000
2019-07-19,0.3899999856948853,0.3899999856948853,0.3899999856948853,0.3899999856948853,30000
2019-07-22,0.3950000107288361,0.3650000095367432,0.3650000095367432,0.3799999952316284,450000
2019-07-23,0.3950000107288361,0.3950000107288361,0.3950000107288361,0.3899999856948853,230000
2019-07-24,0.3899999856948853,0.3700000047683716,0.3899999856948853,0.3700000047683716,70000
2019-07-25,0.3899999856948853,0.3899999856948853,0.3899999856948853,0.3899999856948853,50000
2019-07-26,0.3899999856948853,0.3899999856948853,0.3899999856948853,0.3899999856948853,0
2019-07-29,0.3849999904632568,0.3849999904632568,0.3849999904632568,0.3849999904632568,70000
2019-07-30,0.3799999952316284,0.3449999988079071,0.3449999988079071,0.3799999952316284,210000
2019-07-31,0.3799999952316284,0.3799999952316284,0.3799999952316284,0.3799999952316284,0
2019-08-01,0.3799999952316284,0.3799999952316284,0.3799999952316284,0.3799999952316284,0
2019-08-02,0.3799999952316284,0.3799999952316284,0.3799999952316284,0.3799999952316284,0
2019-08-05,0.3799999952316284,0.3700000047683716,0.3799999952316284,0.3700000047683716,310000
2019-08-06,0.3700000047683716,0.3700000047683716,0.3700000047683716,0.3700000047683716,0
2019-08-07,0.3700000047683716,0.3700000047683716,0.3700000047683716,0.3700000047683716,0
2019-08-08,0.3700000047683716,0.3700000047683716,0.3700000047683716,0.3700000047683716,0
2019-08-09,0.3700000047683716,0.3700000047683716,0.3700000047683716,0.3700000047683716,0
2019-08-12,0.3799999952316284,0.3700000047683716,0.3350000083446503,0.3700000047683716,80000
2019-08-13,0.3700000047683716,0.3700000047683716,0.3700000047683716,0.3700000047683716,0
2019-08-14,0.32499998807907104,0.32499998807907104,0.32499998807907104,0.32499998807907104,20000
2019-08-15,0.3700000047683716,0.3499999940395355,0.3499999940395355,0.35499998927116394,100000
2019-08-16,0.36000001430511475,0.33000001311302185,0.33000001311302185,0.36000001430511475,80000
2019-08-19,0.36000001430511475,0.36000001430511475,0.36000001430511475,0.36000001430511475,0
2019-08-20,0.36000001430511475,0.36000001430511475,0.36000001430511475,0.36000001430511475,0
2019-08-21,0.33000001311302185,0.33000001311302185,0.33000001311302185,0.33000001311302185,30000
2019-08-22,0.35499998927116394,0.3050000071525574,0.3050000071525574,0.3199999928474426,230000
2019-08-23,0.3199999928474426,0.3199999928474426,0.3199999928474426,0.3199999928474426,0
2019-08-26,0.33000001311302185,0.2899999916553497,0.33000001311302185,0.2899999916553497,180000
2019-08-27,0.2849999964237213,0.2700000107288361,0.2849999964237213,0.2750000059604645,220000
2019-08-28,0.2750000059604645,0.2750000059604645,0.2750000059604645,0.2750000059604645,0
2019-08-29,0.3050000071525574,0.2899999916553497,0.2899999916553497,0.30000001192092896,120000
2019-08-30,0.33000001311302185,0.30000001192092896,0.30000001192092896,0.3199999928474426,60000
2019-09-02,0.3199999928474426,0.3199999928474426,0.3199999928474426,0.3199999928474426,0
2019-09-03,0.3199999928474426,0.3199999928474426,0.3199999928474426,0.3199999928474426,0
2019-09-04,0.2800000011920929,0.2800000011920929,0.2800000011920929,0.30000001192092896,60000
2019-09-05,0.30000001192092896,0.30000001192092896,0.30000001192092896,0.30000001192092896,0
2019-09-06,0.2849999964237213,0.2849999964237213,0.2849999964237213,0.2849999964237213,10000
2019-09-09,0.2849999964237213,0.2849999964237213,0.2849999964237213,0.2849999964237213,0
2019-09-10,0.2849999964237213,0.2849999964237213,0.2849999964237213,0.2849999964237213,0
2019-09-11,0.2849999964237213,0.2849999964237213,0.2849999964237213,0.2849999964237213,0
2019-09-12,0.2849999964237213,0.2849999964237213,0.2849999964237213,0.2849999964237213,0
2019-09-13,0.2849999964237213,0.2849999964237213,0.2849999964237213,0.2849999964237213,0
2019-09-16,0.30000001192092896,0.30000001192092896,0.30000001192092896,0.30000001192092896,0
2019-09-17,0.30000001192092896,0.30000001192092896,0.30000001192092896,0.30000001192092896,0
2019-09-18,0.30000001192092896,0.30000001192092896,0.30000001192092896,0.30000001192092896,0
2019-09-19,0.30000001192092896,0.30000001192092896,0.30000001192092896,0.30000001192092896,80000
2019-09-20,0.32499998807907104,0.3100000023841858,0.3100000023841858,0.32499998807907104,60000
2019-09-23,0.33000001311302185,0.32499998807907104,0.32499998807907104,0.33000001311302185,60000
2019-09-24,0.33000001311302185,0.33000001311302185,0.33000001311302185,0.33000001311302185,0
2019-09-25,0.33000001311302185,0.33000001311302185,0.33000001311302185,0.33000001311302185,0
2019-09-26,0.3700000047683716,0.3149999976158142,0.33000001311302185,0.3149999976158142,910000
2019-09-27,0.3149999976158142,0.3149999976158142,0.3149999976158142,0.3149999976158142,0
2019-09-30,0.3449999988079071,0.2949999868869781,0.3100000023841858,0.3449999988079071,250000
2019-10-02,0.3449999988079071,0.3449999988079071,0.3449999988079071,0.3449999988079071,0
2019-10-03,0.3100000023841858,0.2800000011920929,0.30000001192092896,0.2899999916553497,540000
2019-10-04,0.2899999916553497,0.2800000011920929,0.2800000011920929,0.2800000011920929,260000
2019-10-08,0.2800000011920929,0.2800000011920929,0.2800000011920929,0.2800000011920929,20000
2019-10-09,0.2800000011920929,0.2800000011920929,0.2800000011920929,0.2800000011920929,0
2019-10-10,0.2800000011920929,0.26499998569488525,0.26499998569488525,0.2800000011920929,250000
2019-10-11,0.2800000011920929,0.2800000011920929,0.2800000011920929,0.2800000011920929,0
2019-10-14,0.2800000011920929,0.2800000011920929,0.2800000011920929,0.2800000011920929,0
2019-10-15,0.2800000011920929,0.2800000011920929,0.2800000011920929,0.2800000011920929,0
2019-10-16,0.2800000011920929,0.2800000011920929,0.2800000011920929,0.2800000011920929,0
2019-10-17,0.2800000011920929,0.2800000011920929,0.2800000011920929,0.2800000011920929,0
2019-10-18,0.2800000011920929,0.2800000011920929,0.2800000011920929,0.2800000011920929,0
2019-10-21,0.25999999046325684,0.25,0.25,0.2750000059604645,20000
2019-10-22,0.2750000059604645,0.2750000059604645,0.2750000059604645,0.2750000059604645,0
2019-10-23,0.2700000107288361,0.2700000107288361,0.2700000107288361,0.2700000107288361,90000
2019-10-24,0.2700000107288361,0.2700000107288361,0.2700000107288361,0.2700000107288361,0
2019-10-25,0.2700000107288361,0.2700000107288361,0.2700000107288361,0.2700000107288361,0
2019-10-28,0.2700000107288361,0.2700000107288361,0.2700000107288361,0.2700000107288361,0
2019-10-29,0.2700000107288361,0.26499998569488525,0.26499998569488525,0.2700000107288361,2160000
2019-10-30,0.2750000059604645,0.2750000059604645,0.2750000059604645,0.2750000059604645,2110000
2019-10-31,0.30000001192092896,0.2750000059604645,0.2750000059604645,0.30000001192092896,4140000
2019-11-01,0.2949999868869781,0.2899999916553497,0.2899999916553497,0.2949999868869781,7190000
2019-11-04,0.2949999868869781,0.2700000107288361,0.2800000011920929,0.2800000011920929,4440000
2019-11-05,0.2899999916553497,0.2700000107288361,0.2700000107288361,0.2899999916553497,5310000
2019-11-06,0.2949999868869781,0.2800000011920929,0.2949999868869781,0.2899999916553497,3900000
2019-11-07,0.2849999964237213,0.2800000011920929,0.2849999964237213,0.2899999916553497,4220000
2019-11-08,0.2849999964237213,0.2849999964237213,0.2849999964237213,0.2899999916553497,2000000
2019-11-11,0.2899999916553497,0.2899999916553497,0.2899999916553497,0.2899999916553497,0
2019-11-12,0.2899999916553497,0.2899999916553497,0.2899999916553497,0.2899999916553497,0
2019-11-13,0.2899999916553497,0.2899999916553497,0.2899999916553497,0.2899999916553497,0
2019-11-14,0.2899999916553497,0.2899999916553497,0.2899999916553497,0.2899999916553497,0
2019-11-15,0.2899999916553497,0.2899999916553497,0.2899999916553497,0.2899999916553497,0
2019-11-18,0.2899999916553497,0.2899999916553497,0.2899999916553497,0.2899999916553497,0
2019-11-19,0.2800000011920929,0.2800000011920929,0.2800000011920929,0.2899999916553497,2000000
2019-11-20,0.2899999916553497,0.2899999916553497,0.2899999916553497,0.2899999916553497,0
2019-11-21,0.2899999916553497,0.2899999916553497,0.2899999916553497,0.2899999916553497,150000
2019-11-22,0.2899999916553497,0.2899999916553497,0.2899999916553497,0.2899999916553497,90000
2019-11-25,0.2899999916553497,0.2899999916553497,0.2899999916553497,0.2899999916553497,0
2019-11-26,0.30000001192092896,0.30000001192092896,0.30000001192092896,0.30000001192092896,0
2019-11-27,0.30000001192092896,0.30000001192092896,0.30000001192092896,0.30000001192092896,0
2019-11-28,0.2899999916553497,0.2899999916553497,0.2899999916553497,0.2899999916553497,0
2019-11-29,0.2899999916553497,0.2849999964237213,0.2849999964237213,0.2899999916553497,70000
2019-12-02,0.3199999928474426,0.2949999868869781,0.3199999928474426,0.2949999868869781,110000
2019-12-03,0.2949999868869781,0.2949999868869781,0.2949999868869781,0.2949999868869781,0
2019-12-04,0.2949999868869781,0.2949999868869781,0.2949999868869781,0.2949999868869781,0
2019-12-05,0.3050000071525574,0.3050000071525574,0.3050000071525574,0.3050000071525574,0
2019-12-06,0.3100000023841858,0.3100000023841858,0.3100000023841858,0.3100000023841858,0
2019-12-09,0.3100000023841858,0.3100000023841858,0.3100000023841858,0.3100000023841858,0
2019-12-10,0.3050000071525574,0.3050000071525574,0.3050000071525574,0.3050000071525574,0
2019-12-11,0.3149999976158142,0.3149999976158142,0.3149999976158142,0.3149999976158142,0
2019-12-12,0.3149999976158142,0.3149999976158142,0.3149999976158142,0.3149999976158142,0
2019-12-13,0.32499998807907104,0.3149999976158142,0.3199999928474426,0.3100000023841858,110000
2019-12-16,0.3350000083446503,0.3350000083446503,0.3350000083446503,0.3350000083446503,10000
2019-12-17,0.33000001311302185,0.33000001311302185,0.33000001311302185,0.33000001311302185,0
2019-12-18,0.33000001311302185,0.33000001311302185,0.33000001311302185,0.33000001311302185,0
2019-12-19,0.32499998807907104,0.32499998807907104,0.32499998807907104,0.32499998807907104,0
2019-12-20,0.3100000023841858,0.2899999916553497,0.2899999916553497,0.3100000023841858,100000
2019-12-23,0.3050000071525574,0.2849999964237213,0.3050000071525574,0.30000001192092896,320000
2019-12-24,0.3050000071525574,0.25999999046325684,0.3050000071525574,0.2899999916553497,130000
2019-12-27,0.2949999868869781,0.2949999868869781,0.2949999868869781,0.2949999868869781,0
2019-12-30,0.33000001311302185,0.2800000011920929,0.2800000011920929,0.32499998807907104,130000
2019-12-31,0.32499998807907104,0.32499998807907104,0.32499998807907104,0.32499998807907104,0
2020-01-02,0.2949999868869781,0.2949999868869781,0.2949999868869781,0.2949999868869781,20000
2020-01-03,0.2899999916553497,0.2849999964237213,0.2899999916553497,0.2899999916553497,130000
2020-01-06,0.2899999916553497,0.2800000011920929,0.2899999916553497,0.2849999964237213,90000
2020-01-07,0.2899999916553497,0.2750000059604645,0.2899999916553497,0.2849999964237213,100000
2020-01-08,0.2899999916553497,0.2899999916553497,0.2899999916553497,0.2899999916553497,0
2020-01-09,0.2899999916553497,0.2899999916553497,0.2899999916553497,0.2899999916553497,0
2020-01-10,0.2849999964237213,0.2849999964237213,0.2849999964237213,0.2849999964237213,0
2020-01-13,0.3149999976158142,0.2800000011920929,0.2800000011920929,0.2949999868869781,190000
2020-01-14,0.2899999916553497,0.2899999916553497,0.2899999916553497,0.2899999916553497,0
2020-01-15,0.2800000011920929,0.2750000059604645,0.2800000011920929,0.2750000059604645,50000
2020-01-16,0.30000001192092896,0.30000001192092896,0.30000001192092896,0.30000001192092896,0
2020-01-17,0.2800000011920929,0.2700000107288361,0.2750000059604645,0.2800000011920929,50000
2020-01-20,0.2800000011920929,0.2800000011920929,0.2800000011920929,0.2800000011920929,0
2020-01-21,0.2800000011920929,0.2800000011920929,0.2800000011920929,0.2800000011920929,0
2020-01-22,0.2800000011920929,0.2800000011920929,0.2800000011920929,0.2800000011920929,0
2020-01-23,0.2800000011920929,0.2800000011920929,0.2800000011920929,0.2800000011920929,0
2020-01-24,0.2800000011920929,0.2800000011920929,0.2800000011920929,0.2800000011920929,0
2020-01-29,0.2800000011920929,0.2800000011920929,0.2800000011920929,0.2800000011920929,0
2020-01-30,0.2800000011920929,0.2800000011920929,0.2800000011920929,0.2800000011920929,0
2020-01-31,0.2800000011920929,0.2800000011920929,0.2800000011920929,0.2800000011920929,0
2020-02-03,0.2800000011920929,0.2800000011920929,0.2800000011920929,0.2800000011920929,0
2020-02-04,0.2800000011920929,0.2800000011920929,0.2800000011920929,0.2800000011920929,0
2020-02-05,0.2800000011920929,0.2800000011920929,0.2800000011920929,0.2800000011920929,0
2020-02-06,0.2800000011920929,0.2800000011920929,0.2800000011920929,0.2800000011920929,0
2020-02-07,0.2800000011920929,0.2800000011920929,0.2800000011920929,0.2800000011920929,0
2020-02-10,0.2800000011920929,0.2800000011920929,0.2800000011920929,0.2800000011920929,0
2020-02-11,0.2800000011920929,0.2800000011920929,0.2800000011920929,0.2800000011920929,0
2020-02-12,0.44999998807907104,0.3050000071525574,0.3100000023841858,0.3199999928474426,4830000
2020-02-13,0.3149999976158142,0.30000001192092896,0.3149999976158142,0.3050000071525574,960000
2020-02-14,0.3050000071525574,0.2899999916553497,0.30000001192092896,0.2949999868869781,380000
2020-02-17,0.3149999976158142,0.2949999868869781,0.2949999868869781,0.3149999976158142,210000
2020-02-18,0.3050000071525574,0.2899999916553497,0.30000001192092896,0.2899999916553497,500000
2020-02-19,0.3050000071525574,0.30000001192092896,0.30000001192092896,0.30000001192092896,70000
2020-02-20,0.3050000071525574,0.3050000071525574,0.3050000071525574,0.3050000071525574,0
2020-02-21,0.2949999868869781,0.2849999964237213,0.2899999916553497,0.2949999868869781,380000
2020-02-24,0.2949999868869781,0.2750000059604645,0.2949999868869781,0.2899999916553497,1020000
2020-02-25,0.2899999916553497,0.2899999916553497,0.2899999916553497,0.2899999916553497,0
2020-02-26,0.2899999916553497,0.2800000011920929,0.2899999916553497,0.2800000011920929,50000
2020-02-27,0.2800000011920929,0.2800000011920929,0.2800000011920929,0.2800000011920929,0
2020-02-28,0.2800000011920929,0.2800000011920929,0.2800000011920929,0.2800000011920929,50000
2020-03-02,0.2800000011920929,0.2800000011920929,0.2800000011920929,0.2800000011920929,0
2020-03-03,0.3050000071525574,0.2800000011920929,0.2800000011920929,0.30000001192092896,60000
2020-03-04,0.3149999976158142,0.2949999868869781,0.30000001192092896,0.3149999976158142,340000
2020-03-05,0.3100000023841858,0.3100000023841858,0.3100000023841858,0.3100000023841858,0
2020-03-06,0.3100000023841858,0.2750000059604645,0.3100000023841858,0.2899999916553497,1410000
2020-03-09,0.2899999916553497,0.2899999916553497,0.2899999916553497,0.2899999916553497,0
2020-03-10,0.2800000011920929,0.2800000011920929,0.2800000011920929,0.2800000011920929,0
2020-03-11,0.2849999964237213,0.2849999964237213,0.2849999964237213,0.2849999964237213,80000
2020-03-12,0.2800000011920929,0.2750000059604645,0.2800000011920929,0.2800000011920929,110000
2020-03-13,0.2800000011920929,0.2750000059604645,0.2750000059604645,0.2800000011920929,160000
2020-03-16,0.2800000011920929,0.2800000011920929,0.2800000011920929,0.2800000011920929,70000
2020-03-17,0.2800000011920929,0.2800000011920929,0.2800000011920929,0.2800000011920929,0
2020-03-18,0.2700000107288361,0.26499998569488525,0.2700000107288361,0.26499998569488525,940000
2020-03-19,0.26499998569488525,0.26499998569488525,0.26499998569488525,0.26499998569488525,370000
2020-03-20,0.2849999964237213,0.2700000107288361,0.2700000107288361,0.2849999964237213,320000
2020-03-23,0.2849999964237213,0.2849999964237213,0.2849999964237213,0.2849999964237213,0
2020-03-24,0.2849999964237213,0.2800000011920929,0.2800000011920929,0.2849999964237213,100000
2020-03-25,0.2849999964237213,0.2849999964237213,0.2849999964237213,0.2849999964237213,0
2020-03-26,0.2800000011920929,0.2800000011920929,0.2800000011920929,0.2800000011920929,0
2020-03-27,0.2800000011920929,0.2800000011920929,0.2800000011920929,0.2800000011920929,0
2020-03-30,0.2800000011920929,0.2800000011920929,0.2800000011920929,0.2800000011920929,0
2020-03-31,0.2849999964237213,0.2849999964237213,0.2849999964237213,0.2849999964237213,0
2020-04-01,0.2849999964237213,0.2849999964237213,0.2849999964237213,0.2849999964237213,0
2020-04-02,0.2849999964237213,0.2849999964237213,0.2849999964237213,0.2849999964237213,0
2020-04-03,0.2899999916553497,0.2899999916553497,0.2899999916553497,0.2899999916553497,0
2020-04-06,0.2899999916553497,0.2899999916553497,0.2899999916553497,0.2899999916553497,50000
2020-04-07,0.2750000059604645,0.2750000059604645,0.2750000059604645,0.2750000059604645,0
2020-04-08,0.2750000059604645,0.2750000059604645,0.2750000059604645,0.2750000059604645,0
2020-04-09,0.2750000059604645,0.2750000059604645,0.2750000059604645,0.2750000059604645,0
2020-04-14,0.2750000059604645,0.2750000059604645,0.2750000059604645,0.2750000059604645,0
2020-04-15,0.2750000059604645,0.2750000059604645,0.2750000059604645,0.2750000059604645,0
2020-04-16,0.2750000059604645,0.2750000059604645,0.2750000059604645,0.2750000059604645,0
2020-04-17,0.2750000059604645,0.2750000059604645,0.2750000059604645,0.2750000059604645,40000
2020-04-20,0.2750000059604645,0.2750000059604645,0.2750000059604645,0.2750000059604645,0
2020-04-21,0.2750000059604645,0.2750000059604645,0.2750000059604645,0.2750000059604645,0
2020-04-22,0.2750000059604645,0.2750000059604645,0.2750000059604645,0.2750000059604645,0
2020-04-23,0.2750000059604645,0.2750000059604645,0.2750000059604645,0.2750000059604645,0
2020-04-24,0.2750000059604645,0.2750000059604645,0.2750000059604645,0.2750000059604645,0
2020-04-27,0.2750000059604645,0.2750000059604645,0.2750000059604645,0.2750000059604645,0
2020-04-28,0.2750000059604645,0.2750000059604645,0.2750000059604645,0.2750000059604645,20000
2020-04-29,0.2750000059604645,0.2750000059604645,0.2750000059604645,0.2750000059604645,0
2020-05-04,0.2750000059604645,0.2750000059604645,0.2750000059604645,0.2750000059604645,0
2020-05-05,0.2750000059604645,0.2750000059604645,0.2750000059604645,0.2750000059604645,0
2020-05-06,0.2750000059604645,0.2750000059604645,0.2750000059604645,0.2750000059604645,0
2020-05-07,0.2549999952316284,0.2549999952316284,0.2549999952316284,0.2750000059604645,70000
2020-05-08,0.2750000059604645,0.2750000059604645,0.2750000059604645,0.2750000059604645,0
2020-05-11,0.25999999046325684,0.2549999952316284,0.2549999952316284,0.2750000059604645,50000
2020-05-12,0.2750000059604645,0.2750000059604645,0.2750000059604645,0.2750000059604645,0
2020-05-13,0.2750000059604645,0.2750000059604645,0.2750000059604645,0.2750000059604645,0
2020-05-14,0.2750000059604645,0.2750000059604645,0.2750000059604645,0.2750000059604645,0
2020-05-15,0.2800000011920929,0.2800000011920929,0.2800000011920929,0.2800000011920929,200000
2020-05-18,0.2800000011920929,0.2800000011920929,0.2800000011920929,0.2800000011920929,30000
2020-05-19,0.2800000011920929,0.2800000011920929,0.2800000011920929,0.2800000011920929,0
2020-05-20,0.2800000011920929,0.2800000011920929,0.2800000011920929,0.2800000011920929,0
2020-05-21,0.2800000011920929,0.2800000011920929,0.2800000011920929,0.2800000011920929,0
2020-05-22,0.2800000011920929,0.2800000011920929,0.2800000011920929,0.2800000011920929,0
2020-05-25,0.2750000059604645,0.2750000059604645,0.2750000059604645,0.2750000059604645,0
2020-05-26,0.2800000011920929,0.2700000107288361,0.2700000107288361,0.2700000107288361,1000000
2020-05-27,0.2700000107288361,0.2700000107288361,0.2700000107288361,0.2700000107288361,0
2020-05-28,0.2700000107288361,0.2700000107288361,0.2700000107288361,0.2700000107288361,0
2020-05-29,0.2700000107288361,0.2700000107288361,0.2700000107288361,0.2700000107288361,0
2020-06-01,0.2700000107288361,0.2700000107288361,0.2700000107288361,0.2700000107288361,0
2020-06-02,0.2700000107288361,0.2700000107288361,0.2700000107288361,0.2700000107288361,0
2020-06-03,0.2700000107288361,0.2700000107288361,0.2700000107288361,0.2700000107288361,0
2020-06-04,0.2700000107288361,0.2700000107288361,0.2700000107288361,0.2700000107288361,300000
2020-06-05,0.2700000107288361,0.2700000107288361,0.2700000107288361,0.2700000107288361,0
2020-06-08,0.26499998569488525,0.2409999966621399,0.2409999966621399,0.26499998569488525,30000
2020-06-09,0.26499998569488525,0.26499998569488525,0.26499998569488525,0.26499998569488525,0
2020-06-10,0.26499998569488525,0.26499998569488525,0.26499998569488525,0.26499998569488525,0
2020-06-11,0.26499998569488525,0.26499998569488525,0.26499998569488525,0.26499998569488525,0
2020-06-12,0.26499998569488525,0.26499998569488525,0.26499998569488525,0.26499998569488525,0
2020-06-15,0.26499998569488525,0.26499998569488525,0.26499998569488525,0.26499998569488525,0
2020-06-16,0.26499998569488525,0.26499998569488525,0.26499998569488525,0.26499998569488525,0
2020-06-17,0.26499998569488525,0.26499998569488525,0.26499998569488525,0.26499998569488525,0
2020-06-18,0.26499998569488525,0.26499998569488525,0.26499998569488525,0.26499998569488525,0
2020-06-19,0.26499998569488525,0.26499998569488525,0.26499998569488525,0.26499998569488525,0
2020-06-22,0.26499998569488525,0.26499998569488525,0.26499998569488525,0.26499998569488525,0
2020-06-23,0.26499998569488525,0.26499998569488525,0.26499998569488525,0.26499998569488525,200000
2020-06-24,0.26499998569488525,0.26499998569488525,0.26499998569488525,0.26499998569488525,180000
2020-06-26,0.25999999046325684,0.25999999046325684,0.25999999046325684,0.25999999046325684,200000
2020-06-29,0.2549999952316284,0.2549999952316284,0.2549999952316284,0.2549999952316284,200000
2020-06-30,0.2549999952316284,0.2549999952316284,0.2549999952316284,0.2549999952316284,40000
2020-07-02,0.25,0.25,0.25,0.25,0
2020-07-03,0.25,0.25,0.25,0.25,0
2020-07-06,0.25,0.25,0.25,0.25,0
2020-07-07,0.2450000047683716,0.2450000047683716,0.2450000047683716,0.24799999594688416,40000
2020-07-08,0.24799999594688416,0.24799999594688416,0.24799999594688416,0.24799999594688416,0
2020-07-09,0.24799999594688416,0.24799999594688416,0.24799999594688416,0.24799999594688416,0
2020-07-10,0.2750000059604645,0.24799999594688416,0.24799999594688416,0.24799999594688416,360000
2020-07-13,0.24799999594688416,0.24799999594688416,0.24799999594688416,0.24799999594688416,0
2020-07-14,0.2450000047683716,0.2450000047683716,0.2450000047683716,0.24699999392032626,100000
2020-07-15,0.24699999392032626,0.24699999392032626,0.24699999392032626,0.24699999392032626,0
2020-07-16,0.24699999392032626,0.24699999392032626,0.24699999392032626,0.24699999392032626,0
2020-07-17,0.2460000067949295,0.2460000067949295,0.2460000067949295,0.2460000067949295,100000
2020-07-20,0.25,0.25,0.25,0.25,0
2020-07-21,0.2460000067949295,0.2460000067949295,0.2549999952316284,0.25999999046325684,10000
2020-07-22,0.2549999952316284,0.25,0.25,0.25999999046325684,200000
2020-07-23,0.25,0.25,0.25,0.25,300000
2020-07-24,0.25,0.25,0.25,0.25,300000
2020-07-27,0.25,0.24799999594688416,0.25,0.24799999594688416,430000
2020-07-28,0.25999999046325684,0.24799999594688416,0.25999999046325684,0.24799999594688416,500000
2020-07-29,0.25999999046325684,0.24799999594688416,0.25999999046325684,0.24799999594688416,300000
2020-07-30,0.2450000047683716,0.2450000047683716,0.2450000047683716,0.2450000047683716,230000
2020-07-31,0.2450000047683716,0.2450000047683716,0.2450000047683716,0.2450000047683716,500000
2020-08-03,0.2450000047683716,0.2450000047683716,0.2450000047683716,0.2450000047683716,0
2020-08-04,0.2450000047683716,0.2450000047683716,0.2450000047683716,0.2450000047683716,0
2020-08-05,0.2450000047683716,0.2450000047683716,0.2450000047683716,0.2450000047683716,0
2020-08-06,0.2450000047683716,0.2450000047683716,0.2450000047683716,0.2450000047683716,0
2020-08-07,0.2460000067949295,0.2460000067949295,0.2460000067949295,0.2460000067949295,0
2020-08-10,0.2450000047683716,0.2450000047683716,0.2450000047683716,0.2450000047683716,20000
2020-08-11,0.2450000047683716,0.2450000047683716,0.2450000047683716,0.2450000047683716,0
2020-08-12,0.2460000067949295,0.2460000067949295,0.2460000067949295,0.2460000067949295,0
2020-08-13,0.2460000067949295,0.2460000067949295,0.2460000067949295,0.2460000067949295,0
2020-08-14,0.2460000067949295,0.2460000067949295,0.2460000067949295,0.2460000067949295,0
2020-08-17,0.2460000067949295,0.2460000067949295,0.2460000067949295,0.2460000067949295,0
2020-08-18,0.2460000067949295,0.2460000067949295,0.2460000067949295,0.24699999392032626,100000
2020-08-19,0.25,0.25,0.25,0.25,0
2020-08-20,0.2450000047683716,0.2450000047683716,0.2450000047683716,0.2450000047683716,0
2020-08-21,0.24799999594688416,0.24799999594688416,0.24799999594688416,0.24799999594688416,0
2020-08-24,0.24799999594688416,0.24799999594688416,0.24799999594688416,0.24799999594688416,0
2020-08-25,0.25,0.25,0.25,0.2549999952316284,1730000
