Date,High,Low,Open,Close,Volume
2019-11-08,1.6299999952316284,0.8600000143051147,1.100000023841858,1.4199999570846558,99387500
2019-11-11,1.7300000190734863,1.2899999618530271,1.399999976158142,1.3700000047683716,20989500
2019-11-12,1.5700000524520874,1.3400000333786009,1.3700000047683716,1.3899999856948853,9969000
2019-11-13,1.3899999856948853,1.3400000333786009,1.3600000143051147,1.3799999952316284,2947500
2019-11-14,1.5,1.3700000047683716,1.3700000047683716,1.4099999666213991,3520000
2019-11-15,1.6399999856948853,1.4099999666213991,1.4299999475479126,1.4900000095367432,14450000
2019-11-18,2.3499999046325684,1.5199999809265137,1.5199999809265137,2.049999952316284,17052500
2019-11-19,2.4200000762939453,1.8999999761581419,2.0999999046325684,2.220000028610229,7897500
2019-11-20,2.5699999332427983,2.200000047683716,2.200000047683716,2.4300000667572017,8112500
2019-11-21,2.4200000762939453,1.5099999904632568,2.400000095367432,2.190000057220459,4115000
2019-11-22,2.2300000190734863,1.8500000238418581,1.8500000238418581,2.200000047683716,517500
2019-11-25,2.240000009536743,1.9099999666213991,1.9099999666213991,2.1800000667572017,1690000
2019-11-26,3.0999999046325684,1.919999957084656,2.200000047683716,2.4800000190734863,2287500
2019-11-27,2.789999961853028,2.450000047683716,2.5999999046325684,2.4600000381469727,2002500
2019-11-28,2.700000047683716,2.220000028610229,2.5,2.4800000190734863,482500
2019-11-29,2.700000047683716,2.299999952316284,2.4800000190734863,2.549999952316284,4072500
2019-12-02,2.549999952316284,2.299999952316284,2.549999952316284,2.4600000381469727,597500
2019-12-03,2.4600000381469727,2.3199999332427983,2.4600000381469727,2.380000114440918,767500
2019-12-04,2.380000114440918,2.3499999046325684,2.380000114440918,2.369999885559082,295000
2019-12-05,2.5,2.380000114440918,2.380000114440918,2.5,97500
2019-12-06,2.440000057220459,2.400000095367432,2.400000095367432,2.4300000667572017,30000
2019-12-09,2.4300000667572017,2.3199999332427983,2.4300000667572017,2.359999895095825,350000
2019-12-10,2.5999999046325684,2.0199999809265137,2.309999942779541,2.2699999809265137,4315000
2019-12-11,2.25,2.1199998855590816,2.2100000381469727,2.1400001049041752,990000
2019-12-12,2.0999999046325684,2.049999952316284,2.0999999046325684,2.1099998950958248,177500
2019-12-13,2.1099998950958248,1.9600000381469729,2.0,2.0299999713897705,2337500
2019-12-16,2.0299999713897705,1.940000057220459,2.0299999713897705,1.940000057220459,7500
2019-12-17,2.380000114440918,2.0999999046325684,2.0999999046325684,2.380000114440918,4885000
2019-12-18,2.5999999046325684,2.369999885559082,2.369999885559082,2.5299999713897705,3407500
2019-12-19,2.630000114440918,2.490000009536743,2.5899999141693115,2.619999885559082,4565000
2019-12-20,2.900000095367432,2.5899999141693115,2.690000057220459,2.900000095367432,207500
2019-12-23,2.900000095367432,2.440000057220459,2.900000095367432,2.7100000381469727,2077500
2019-12-24,2.890000104904175,2.5199999809265137,2.869999885559082,2.650000095367432,2345000
2019-12-27,2.619999885559082,2.4100000858306885,2.549999952316284,2.5999999046325684,97500
2019-12-30,2.75,2.25,2.5,2.6700000762939453,77517500
2019-12-31,2.6600000858306885,0.5299999713897705,2.6600000858306885,0.7200000286102295,157102510
2020-01-02,0.8100000023841858,0.6800000071525574,0.6899999976158142,0.6899999976158142,52195000
2020-01-03,0.7200000286102295,0.6100000143051147,0.699999988079071,0.6100000143051147,15037400
2020-01-06,0.6000000238418579,0.5400000214576721,0.6000000238418579,0.5600000023841858,14062500
2020-01-07,0.6200000047683716,0.5299999713897705,0.550000011920929,0.6000000238418579,16145000
2020-01-08,0.5899999737739563,0.5400000214576721,0.5899999737739563,0.5400000214576721,7160000
2020-01-09,0.5699999928474426,0.5199999809265137,0.5600000023841858,0.5299999713897705,5694500
2020-01-10,0.5299999713897705,0.5,0.5299999713897705,0.5,8337500
2020-01-13,0.5299999713897705,0.4699999988079071,0.5,0.4699999988079071,6052500
2020-01-14,0.479999989271164,0.44999998807907104,0.4699999988079071,0.4550000131130218,5037500
2020-01-15,0.44999998807907104,0.42500001192092896,0.44999998807907104,0.4300000071525574,5605000
2020-01-16,0.4650000035762787,0.41999998688697815,0.41999998688697815,0.44999998807907104,5757500
2020-01-17,0.4600000083446503,0.4399999976158142,0.44999998807907104,0.44999998807907104,1422500
2020-01-20,0.4699999988079071,0.4399999976158142,0.44999998807907104,0.4650000035762787,2820000
2020-01-21,0.4650000035762787,0.4350000023841858,0.4650000035762787,0.4449999928474426,2222500
2020-01-22,0.44999998807907104,0.4350000023841858,0.4399999976158142,0.4399999976158142,1320000
2020-01-23,0.44999998807907104,0.4000000059604645,0.41999998688697815,0.4149999916553497,2705000
2020-01-24,0.42500001192092896,0.4099999964237213,0.42500001192092896,0.41999998688697815,540000
2020-01-29,0.4149999916553497,0.3499999940395355,0.4149999916553497,0.375,3657500
2020-01-30,0.3700000047683716,0.32499998807907104,0.3700000047683716,0.33000001311302185,6530000
2020-01-31,0.3499999940395355,0.3100000023841858,0.33000001311302185,0.33000001311302185,3572500
2020-02-03,0.3449999988079071,0.30000001192092896,0.3050000071525574,0.33000001311302185,897500
2020-02-04,0.4350000023841858,0.33000001311302185,0.33000001311302185,0.4050000011920929,13242500
2020-02-05,0.4099999964237213,0.36000001430511475,0.4050000011920929,0.3650000095367432,5650000
2020-02-06,0.375,0.35499998927116394,0.35499998927116394,0.375,687500
2020-02-07,0.375,0.35499998927116394,0.3700000047683716,0.3650000095367432,755000
2020-02-10,0.3799999952316284,0.36000001430511475,0.375,0.3799999952316284,655000
2020-02-11,0.3849999904632568,0.36000001430511475,0.3799999952316284,0.375,720000
2020-02-12,0.3700000047683716,0.36000001430511475,0.3700000047683716,0.3650000095367432,592500
2020-02-13,0.3650000095367432,0.3499999940395355,0.35499998927116394,0.36000001430511475,837500
2020-02-14,0.3700000047683716,0.3499999940395355,0.36000001430511475,0.36000001430511475,282500
2020-02-17,0.3700000047683716,0.3499999940395355,0.36000001430511475,0.35499998927116394,1287500
2020-02-18,0.36000001430511475,0.3400000035762787,0.36000001430511475,0.3499999940395355,522500
2020-02-19,0.36000001430511475,0.3449999988079071,0.3449999988079071,0.3499999940395355,952500
2020-02-20,0.3499999940395355,0.3400000035762787,0.3499999940395355,0.3499999940395355,680000
2020-02-21,0.3499999940395355,0.3350000083446503,0.3400000035762787,0.3449999988079071,1122500
2020-02-24,0.3449999988079071,0.33000001311302185,0.33000001311302185,0.3400000035762787,640000
2020-02-25,0.35499998927116394,0.33000001311302185,0.33000001311302185,0.3350000083446503,1570000
2020-02-26,0.3350000083446503,0.33000001311302185,0.3350000083446503,0.3350000083446503,235000
2020-02-27,0.3449999988079071,0.33000001311302185,0.33000001311302185,0.3350000083446503,655000
2020-02-28,0.5400000214576721,0.3350000083446503,0.3350000083446503,0.3950000107288361,102047500
2020-03-02,0.5099999904632568,0.36000001430511475,0.3899999856948853,0.44999998807907104,42437500
2020-03-03,0.6600000262260437,0.4399999976158142,0.4650000035762787,0.6600000262260437,56187000
2020-03-04,0.7699999809265137,0.5600000023841858,0.6499999761581421,0.5600000023841858,69380000
2020-03-05,0.6499999761581421,0.5600000023841858,0.5899999737739563,0.5899999737739563,15780000
2020-03-06,0.5899999737739563,0.5299999713897705,0.5400000214576721,0.5400000214576721,7565000
2020-03-09,0.5400000214576721,0.5400000214576721,0.5400000214576721,0.5400000214576721,0
2020-03-10,0.4699999988079071,0.4699999988079071,0.4699999988079071,0.4699999988079071,0
2020-03-11,0.5,0.479999989271164,0.5,0.479999989271164,1765000
2020-03-12,0.4699999988079071,0.4449999928474426,0.4699999988079071,0.4600000083446503,1600000
2020-03-13,0.5,0.3899999856948853,0.4300000071525574,0.4050000011920929,12522500
2020-03-16,0.4399999976158142,0.3799999952316284,0.4050000011920929,0.4050000011920929,1920000
2020-03-17,0.4000000059604645,0.3799999952316284,0.4000000059604645,0.3799999952316284,805000
2020-03-18,0.4300000071525574,0.35499998927116394,0.3650000095367432,0.35499998927116394,1807500
2020-03-19,0.35499998927116394,0.33000001311302185,0.35499998927116394,0.3400000035762787,1050000
2020-03-20,0.4099999964237213,0.3499999940395355,0.36000001430511475,0.3899999856948853,1602500
2020-03-23,0.3799999952316284,0.35499998927116394,0.3799999952316284,0.36000001430511475,797500
2020-03-24,0.3849999904632568,0.3499999940395355,0.3849999904632568,0.3650000095367432,340000
2020-03-25,0.4000000059604645,0.3700000047683716,0.375,0.3700000047683716,1110000
2020-03-26,0.3899999856948853,0.36000001430511475,0.3899999856948853,0.3799999952316284,790000
2020-03-27,0.375,0.3499999940395355,0.3650000095367432,0.36000001430511475,2667500
2020-03-30,0.3700000047683716,0.3499999940395355,0.3700000047683716,0.3499999940395355,1010000
2020-03-31,0.3700000047683716,0.3449999988079071,0.3650000095367432,0.35499998927116394,620000
2020-04-01,0.3650000095367432,0.3449999988079071,0.35499998927116394,0.36000001430511475,1122500
2020-04-02,0.3700000047683716,0.35499998927116394,0.36000001430511475,0.3650000095367432,867500
2020-04-03,0.36000001430511475,0.35499998927116394,0.36000001430511475,0.35499998927116394,215000
2020-04-06,0.36000001430511475,0.3499999940395355,0.35499998927116394,0.35499998927116394,895000
2020-04-07,0.375,0.35499998927116394,0.35499998927116394,0.3650000095367432,1312500
2020-04-08,0.3650000095367432,0.3499999940395355,0.3650000095367432,0.35499998927116394,672500
2020-04-09,0.3849999904632568,0.3650000095367432,0.3650000095367432,0.3799999952316284,1317500
2020-04-14,0.479999989271164,0.3799999952316284,0.3799999952316284,0.4399999976158142,12702500
2020-04-15,0.4749999940395355,0.4000000059604645,0.4399999976158142,0.4099999964237213,6540000
2020-04-16,0.4300000071525574,0.3950000107288361,0.4099999964237213,0.4000000059604645,1675000
2020-04-17,0.4399999976158142,0.4000000059604645,0.4099999964237213,0.4050000011920929,1487500
2020-04-20,0.41999998688697815,0.4000000059604645,0.4050000011920929,0.4050000011920929,945000
2020-04-21,0.4050000011920929,0.3899999856948853,0.4000000059604645,0.3950000107288361,820000
2020-04-22,0.3950000107288361,0.3799999952316284,0.3950000107288361,0.3799999952316284,755000
2020-04-23,0.3899999856948853,0.375,0.3799999952316284,0.3799999952316284,717500
2020-04-24,0.3899999856948853,0.3849999904632568,0.3849999904632568,0.3849999904632568,100000
2020-04-27,0.3799999952316284,0.3700000047683716,0.3700000047683716,0.3799999952316284,170000
2020-04-28,0.3799999952316284,0.3700000047683716,0.3799999952316284,0.375,77500
2020-04-29,0.375,0.36000001430511475,0.375,0.36000001430511475,207500
2020-05-04,0.36000001430511475,0.3499999940395355,0.36000001430511475,0.3499999940395355,677500
2020-05-05,0.3849999904632568,0.3149999976158142,0.3499999940395355,0.3499999940395355,1902500
2020-05-06,0.3650000095367432,0.3449999988079071,0.3499999940395355,0.35499998927116394,830000
2020-05-07,0.35499998927116394,0.3400000035762787,0.35499998927116394,0.3449999988079071,727500
2020-05-08,0.3499999940395355,0.3350000083446503,0.3449999988079071,0.3449999988079071,1207500
2020-05-11,0.3499999940395355,0.3400000035762787,0.3449999988079071,0.3449999988079071,297500
2020-05-12,0.3499999940395355,0.3400000035762787,0.3449999988079071,0.3499999940395355,427500
2020-05-13,0.3499999940395355,0.3400000035762787,0.3449999988079071,0.3449999988079071,365000
2020-05-14,0.3449999988079071,0.33000001311302185,0.3400000035762787,0.3449999988079071,367500
2020-05-15,0.3499999940395355,0.3350000083446503,0.3400000035762787,0.3449999988079071,450000
2020-05-18,0.3449999988079071,0.33000001311302185,0.3400000035762787,0.3400000035762787,700000
2020-05-19,0.3449999988079071,0.33000001311302185,0.3400000035762787,0.3400000035762787,282500
2020-05-20,0.3400000035762787,0.33000001311302185,0.3350000083446503,0.3400000035762787,487500
2020-05-21,0.3400000035762787,0.32499998807907104,0.33000001311302185,0.3400000035762787,107500
2020-05-22,0.3350000083446503,0.3199999928474426,0.33000001311302185,0.33000001311302185,1070000
2020-05-25,0.3350000083446503,0.30000001192092896,0.33000001311302185,0.3100000023841858,1382500
2020-05-26,0.32499998807907104,0.3100000023841858,0.3149999976158142,0.32499998807907104,305000
2020-05-27,0.3199999928474426,0.3100000023841858,0.3100000023841858,0.3100000023841858,757500
2020-05-28,0.3100000023841858,0.2849999964237213,0.3100000023841858,0.2949999868869781,1555000
2020-05-29,0.3350000083446503,0.2899999916553497,0.2949999868869781,0.3050000071525574,855000
2020-06-01,0.3100000023841858,0.30000001192092896,0.3100000023841858,0.3050000071525574,290000
2020-06-02,0.33000001311302185,0.30000001192092896,0.3050000071525574,0.3050000071525574,520000
2020-06-03,0.3100000023841858,0.30000001192092896,0.30000001192092896,0.3100000023841858,412500
2020-06-04,0.3100000023841858,0.2949999868869781,0.30000001192092896,0.3100000023841858,117500
2020-06-05,0.30000001192092896,0.2800000011920929,0.30000001192092896,0.30000001192092896,1875000
2020-06-08,0.30000001192092896,0.2899999916553497,0.30000001192092896,0.2949999868869781,560000
2020-06-09,0.2949999868869781,0.2800000011920929,0.2800000011920929,0.2899999916553497,380000
2020-06-10,0.2949999868869781,0.2750000059604645,0.2849999964237213,0.2949999868869781,850000
2020-06-11,0.2849999964237213,0.2800000011920929,0.2849999964237213,0.2849999964237213,242500
2020-06-12,0.2899999916553497,0.2700000107288361,0.2750000059604645,0.2899999916553497,365000
2020-06-15,0.2849999964237213,0.2750000059604645,0.2800000011920929,0.2849999964237213,50000
2020-06-16,0.2849999964237213,0.2800000011920929,0.2800000011920929,0.2849999964237213,350000
2020-06-17,0.2949999868869781,0.2849999964237213,0.2849999964237213,0.2899999916553497,105000
2020-06-18,0.2949999868869781,0.2899999916553497,0.2899999916553497,0.2949999868869781,582500
2020-06-19,0.3149999976158142,0.30000001192092896,0.30000001192092896,0.30000001192092896,542500
2020-06-22,0.3199999928474426,0.30000001192092896,0.30000001192092896,0.3149999976158142,1115000
2020-06-23,0.3149999976158142,0.3050000071525574,0.3149999976158142,0.3100000023841858,427500
2020-06-24,0.3149999976158142,0.30000001192092896,0.3050000071525574,0.3100000023841858,432500
2020-06-26,0.3350000083446503,0.3050000071525574,0.3100000023841858,0.32499998807907104,1535000
2020-06-29,0.33000001311302185,0.3149999976158142,0.3199999928474426,0.32499998807907104,1177500
2020-06-30,0.3400000035762787,0.3199999928474426,0.3199999928474426,0.3400000035762787,802500
2020-07-02,0.3350000083446503,0.32499998807907104,0.32499998807907104,0.32499998807907104,762500
2020-07-03,0.33000001311302185,0.3100000023841858,0.32499998807907104,0.32499998807907104,527500
2020-07-06,0.3499999940395355,0.3100000023841858,0.3199999928474426,0.3350000083446503,1472500
2020-07-07,0.33000001311302185,0.3149999976158142,0.33000001311302185,0.3199999928474426,815000
2020-07-08,0.33000001311302185,0.3199999928474426,0.33000001311302185,0.3199999928474426,285000
2020-07-09,0.32499998807907104,0.3149999976158142,0.3199999928474426,0.3149999976158142,752500
2020-07-10,0.3100000023841858,0.30000001192092896,0.3100000023841858,0.3050000071525574,1032500
2020-07-13,0.3199999928474426,0.3050000071525574,0.3050000071525574,0.3149999976158142,195000
2020-07-14,0.3100000023841858,0.2949999868869781,0.3100000023841858,0.3100000023841858,1397500
2020-07-15,0.3199999928474426,0.30000001192092896,0.3199999928474426,0.3100000023841858,827500
2020-07-16,0.3050000071525574,0.2949999868869781,0.30000001192092896,0.2949999868869781,482500
2020-07-17,0.30000001192092896,0.2949999868869781,0.30000001192092896,0.2949999868869781,17500
2020-07-20,0.2949999868869781,0.2849999964237213,0.2949999868869781,0.2949999868869781,142500
2020-07-21,0.2949999868869781,0.2800000011920929,0.2849999964237213,0.2949999868869781,385000
2020-07-22,0.2949999868869781,0.2849999964237213,0.2949999868869781,0.2849999964237213,417500
2020-07-23,0.2899999916553497,0.2849999964237213,0.2849999964237213,0.2849999964237213,122500
2020-07-24,0.2949999868869781,0.2800000011920929,0.2949999868869781,0.2849999964237213,320000
2020-07-27,0.2849999964237213,0.2750000059604645,0.2800000011920929,0.2800000011920929,297500
2020-07-28,0.2800000011920929,0.2750000059604645,0.2800000011920929,0.2750000059604645,192500
2020-07-29,0.2750000059604645,0.2700000107288361,0.2750000059604645,0.2700000107288361,220000
2020-07-30,0.2800000011920929,0.2750000059604645,0.2750000059604645,0.2800000011920929,137500
2020-07-31,0.2849999964237213,0.20999999344348907,0.2700000107288361,0.2750000059604645,7280000
2020-08-03,0.3050000071525574,0.2549999952316284,0.2549999952316284,0.2800000011920929,1065000
2020-08-04,0.2800000011920929,0.2750000059604645,0.2800000011920929,0.2800000011920929,415000
2020-08-05,0.30000001192092896,0.26499998569488525,0.26499998569488525,0.2700000107288361,640000
2020-08-06,0.30000001192092896,0.2700000107288361,0.2700000107288361,0.30000001192092896,477500
2020-08-07,0.30000001192092896,0.30000001192092896,0.30000001192092896,0.30000001192092896,0
2020-08-10,0.30000001192092896,0.2750000059604645,0.2800000011920929,0.2899999916553497,382500
2020-08-11,0.2899999916553497,0.2800000011920929,0.2800000011920929,0.2899999916553497,557500
2020-08-12,0.3050000071525574,0.2700000107288361,0.2800000011920929,0.2949999868869781,745000
2020-08-13,0.2949999868869781,0.2899999916553497,0.2949999868869781,0.2899999916553497,65000
2020-08-14,0.2949999868869781,0.2800000011920929,0.2899999916553497,0.2899999916553497,332500
2020-08-17,0.2949999868869781,0.2849999964237213,0.2899999916553497,0.2949999868869781,220000
2020-08-18,0.30000001192092896,0.2949999868869781,0.2949999868869781,0.2949999868869781,290000
2020-08-19,0.30000001192092896,0.2800000011920929,0.2949999868869781,0.2949999868869781,405000
2020-08-20,0.2949999868869781,0.2849999964237213,0.2899999916553497,0.2949999868869781,115000
2020-08-21,0.2899999916553497,0.2899999916553497,0.2899999916553497,0.2899999916553497,30000
2020-08-24,0.2899999916553497,0.2899999916553497,0.2899999916553497,0.2899999916553497,0
2020-08-25,0.2949999868869781,0.2750000059604645,0.2899999916553497,0.2949999868869781,90000
