Date,High,Low,Open,Close,Volume
2019-02-28,0.6700000166893005,0.4900000095367432,0.4900000095367432,0.6299999952316284,216830000
2019-03-01,1.6499999761581419,0.6399999856948853,0.6399999856948853,1.5700000524520874,124325000
2019-03-04,1.9900000095367432,1.2400000095367432,1.7000000476837158,1.440000057220459,49879400
2019-03-05,1.7300000190734863,1.3799999952316284,1.4900000095367432,1.440000057220459,18400000
2019-03-06,1.5099999904632568,1.3200000524520874,1.440000057220459,1.3300000429153442,5740000
2019-03-07,1.4299999475479126,1.2000000476837158,1.3300000429153442,1.3400000333786009,6575000
2019-03-08,1.5299999713897705,1.2699999809265137,1.2799999713897705,1.4299999475479126,6605000
2019-03-11,1.4600000381469729,1.3700000047683716,1.440000057220459,1.4199999570846558,1715000
2019-03-12,1.690000057220459,1.399999976158142,1.399999976158142,1.6100000143051147,16000000
2019-03-13,1.7599999904632568,1.5099999904632568,1.6299999952316284,1.6200000047683716,9005000
2019-03-14,1.6399999856948853,1.5,1.6399999856948853,1.5199999809265137,3245000
2019-03-15,1.559999942779541,1.4600000381469729,1.5499999523162842,1.4600000381469729,2500000
2019-03-18,1.4800000190734863,1.399999976158142,1.4600000381469729,1.4299999475479126,825000
2019-03-19,1.4700000286102295,1.3600000143051147,1.399999976158142,1.3799999952316284,1965000
2019-03-20,1.4500000476837158,1.3799999952316284,1.4099999666213991,1.4099999666213991,645000
2019-03-21,1.399999976158142,1.3600000143051147,1.399999976158142,1.3600000143051147,455000
2019-03-22,1.3799999952316284,1.350000023841858,1.3700000047683716,1.3799999952316284,440000
2019-03-25,1.399999976158142,1.3200000524520874,1.399999976158142,1.3700000047683716,360000
2019-03-26,1.3700000047683716,1.3400000333786009,1.350000023841858,1.3400000333786009,235000
2019-03-27,1.4900000095367432,1.3400000333786009,1.3400000333786009,1.3700000047683716,2045000
2019-03-28,1.3799999952316284,1.309999942779541,1.309999942779541,1.3700000047683716,290000
2019-03-29,1.440000057220459,1.3200000524520874,1.3200000524520874,1.399999976158142,580000
2019-04-01,1.4299999475479126,1.3700000047683716,1.4099999666213991,1.3799999952316284,410000
2019-04-02,1.4800000190734863,1.4199999570846558,1.440000057220459,1.4600000381469729,895000
2019-04-03,1.5800000429153442,1.4299999475479126,1.4299999475479126,1.5499999523162842,3840000
2019-04-04,1.6499999761581419,1.5700000524520874,1.5800000429153442,1.6399999856948853,1700000
2019-04-08,1.6799999475479126,1.5900000333786009,1.6499999761581419,1.6299999952316284,1125000
2019-04-09,1.9099999666213991,1.6499999761581419,1.6599999666213991,1.8600000143051147,3385000
2019-04-10,1.919999957084656,1.7699999809265137,1.7999999523162842,1.8200000524520876,2145000
2019-04-11,1.7999999523162842,1.5800000429153442,1.7999999523162842,1.7100000381469729,1450000
2019-04-12,1.7100000381469729,1.6399999856948853,1.7100000381469729,1.6499999761581419,140000
2019-04-15,1.809999942779541,1.6499999761581419,1.6499999761581419,1.809999942779541,1075000
2019-04-16,1.9099999666213991,1.7599999904632568,1.7999999523162842,1.8999999761581419,1850000
2019-04-17,1.9700000286102293,1.8200000524520876,1.8999999761581419,1.9600000381469729,1655000
2019-04-18,1.940000057220459,1.8500000238418581,1.8799999952316284,1.8999999761581419,320000
2019-04-23,1.8500000238418581,1.7999999523162842,1.8500000238418581,1.7999999523162842,175000
2019-04-24,1.8500000238418581,1.690000057220459,1.7999999523162842,1.8500000238418581,255000
2019-04-25,1.830000042915344,1.830000042915344,1.830000042915344,1.830000042915344,55000
2019-04-26,1.919999957084656,1.7200000286102295,1.8400000333786009,1.7300000190734863,200000
2019-04-29,1.7400000095367432,1.6200000047683716,1.7400000095367432,1.6200000047683716,265000
2019-04-30,1.6799999475479126,1.5499999523162842,1.5900000333786009,1.6100000143051147,420000
2019-05-02,1.7000000476837158,1.5700000524520874,1.5700000524520874,1.5900000333786009,1375000
2019-05-03,1.5900000333786009,1.5700000524520874,1.5700000524520874,1.5800000429153442,155000
2019-05-06,1.6000000238418581,1.2999999523162842,1.3200000524520874,1.5700000524520874,80000
2019-05-07,1.5499999523162842,1.5499999523162842,1.5499999523162842,1.5499999523162842,5000
2019-05-08,1.6200000047683716,1.5,1.5,1.6000000238418581,190000
2019-05-09,1.5499999523162842,1.5,1.5499999523162842,1.5,80000
2019-05-10,1.5499999523162842,1.5,1.5399999618530271,1.5,165000
2019-05-14,1.6499999761581419,1.4800000190734863,1.4900000095367432,1.6299999952316284,110000
2019-05-15,1.690000057220459,1.6299999952316284,1.6299999952316284,1.6399999856948853,2180000
2019-05-16,1.7100000381469729,1.4199999570846558,1.4199999570846558,1.7100000381469729,395000
2019-05-17,1.9099999666213991,1.6000000238418581,1.9099999666213991,1.7000000476837158,755000
2019-05-20,1.6299999952316284,1.6299999952316284,1.6000000238418581,1.6299999952316284,315000
2019-05-21,1.6599999666213991,1.6200000047683716,1.6299999952316284,1.6599999666213991,95000
2019-05-22,1.6799999475479126,1.6200000047683716,1.6799999475479126,1.6200000047683716,150000
2019-05-23,1.7300000190734863,1.5800000429153442,1.5800000429153442,1.7200000286102295,440000
2019-05-24,1.8600000143051147,1.7200000286102295,1.7200000286102295,1.8500000238418581,415000
2019-05-27,1.919999957084656,1.809999942779541,1.8400000333786009,1.809999942779541,1050000
2019-05-28,1.7999999523162842,1.7400000095367432,1.7999999523162842,1.7699999809265137,195000
2019-05-29,1.7799999713897705,1.7699999809265137,1.75,1.7799999713897705,250000
2019-05-30,1.75,1.7000000476837158,1.75,1.7000000476837158,260000
2019-05-31,1.7000000476837158,1.7000000476837158,1.7000000476837158,1.7000000476837158,0
2019-06-03,1.7000000476837158,1.7000000476837158,1.7000000476837158,1.7000000476837158,0
2019-06-04,1.7000000476837158,1.5,1.7000000476837158,1.6100000143051147,2875000
2019-06-05,1.7599999904632568,1.6599999666213991,1.6699999570846558,1.7599999904632568,3145000
2019-06-06,1.8200000524520876,1.6699999570846558,1.8899999856948853,1.7699999809265137,2505000
2019-06-10,1.7400000095367432,1.6299999952316284,1.7200000286102295,1.7000000476837158,60000
2019-06-11,1.75,1.4600000381469729,1.7300000190734863,1.4900000095367432,2815000
2019-06-12,1.6100000143051147,1.4500000476837158,1.4900000095367432,1.5700000524520874,16035000
2019-06-13,1.7599999904632568,1.559999942779541,1.7400000095367432,1.6299999952316284,1875000
2019-06-14,1.7000000476837158,1.5700000524520874,1.6699999570846558,1.7000000476837158,4195000
2019-06-17,1.7699999809265137,1.6499999761581419,1.7000000476837158,1.7699999809265137,1375000
2019-06-18,1.7899999618530271,1.75,1.7899999618530271,1.75,1905000
2019-06-19,1.7699999809265137,1.7300000190734863,1.7599999904632568,1.7300000190734863,290000
2019-06-20,1.7899999618530271,1.6699999570846558,1.7899999618530271,1.7000000476837158,4715000
2019-06-21,1.75,1.6699999570846558,1.75,1.690000057220459,16230000
2019-06-24,1.75,1.7000000476837158,1.7000000476837158,1.7300000190734863,12070000
2019-06-25,1.7300000190734863,1.690000057220459,1.7300000190734863,1.690000057220459,515000
2019-06-26,1.6799999475479126,1.6000000238418581,1.6799999475479126,1.6499999761581419,3070000
2019-06-27,1.6499999761581419,1.5900000333786009,1.5900000333786009,1.6000000238418581,4205000
2019-06-28,1.6000000238418581,1.4800000190734863,1.6000000238418581,1.6000000238418581,1765000
2019-07-02,1.5399999618530271,1.2000000476837158,1.5399999618530271,1.5,5020000
2019-07-03,1.7000000476837158,1.4500000476837158,1.5,1.7000000476837158,1550000
2019-07-04,1.6000000238418581,1.5199999809265137,1.6000000238418581,1.5700000524520874,2035000
2019-07-05,1.7000000476837158,1.5700000524520874,1.5800000429153442,1.6000000238418581,1905000
2019-07-08,1.7000000476837158,1.5199999809265137,1.6299999952316284,1.6699999570846558,605000
2019-07-09,1.6799999475479126,1.5900000333786009,1.6699999570846558,1.5900000333786009,990000
2019-07-10,1.7000000476837158,1.5800000429153442,1.5900000333786009,1.6499999761581419,2300000
2019-07-11,1.6599999666213991,1.5800000429153442,1.6599999666213991,1.6599999666213991,13630000
2019-07-12,1.6399999856948853,1.4800000190734863,1.6299999952316284,1.5,5965000
2019-07-15,1.6399999856948853,1.5,1.5299999713897705,1.6299999952316284,2405000
2019-07-16,1.6299999952316284,1.5,1.6299999952316284,1.5700000524520874,415000
2019-07-17,1.6200000047683716,1.5,1.5199999809265137,1.559999942779541,1665000
2019-07-18,1.5800000429153442,1.5,1.5800000429153442,1.5499999523162842,1720000
2019-07-19,1.75,1.5499999523162842,1.5700000524520874,1.7000000476837158,6090000
2019-07-22,1.7999999523162842,1.7000000476837158,1.7200000286102295,1.7200000286102295,4290000
2019-07-23,1.7799999713897705,1.7200000286102295,1.7200000286102295,1.7799999713897705,3230000
2019-07-24,2.470000028610229,1.7899999618530271,1.7999999523162842,2.380000114440918,6905000
2019-07-25,3.0699999332427983,2.4800000190734863,2.4800000190734863,2.9500000476837163,9430000
2019-07-26,3.0199999809265137,2.650000095367432,2.9500000476837163,2.970000028610229,2655000
2019-07-29,2.990000009536743,2.8399999141693115,2.970000028610229,2.869999885559082,985000
2019-07-30,2.900000095367432,2.700000047683716,2.8499999046325684,2.759999990463257,2310000
2019-07-31,2.799999952316284,2.559999942779541,2.7799999713897705,2.75,960000
2019-08-01,2.869999885559082,2.369999885559082,2.740000009536743,2.400000095367432,2690000
2019-08-02,2.299999952316284,1.9099999666213991,2.299999952316284,2.059999942779541,3535000
2019-08-05,2.400000095367432,2.0,2.0,2.1800000667572017,745000
2019-08-06,2.200000047683716,2.059999942779541,2.0699999332427983,2.200000047683716,1020000
2019-08-07,2.3499999046325684,2.0999999046325684,2.200000047683716,2.2100000381469727,800000
2019-08-08,2.2300000190734863,2.1099998950958248,2.1600000858306885,2.1199998855590816,580000
2019-08-09,2.2799999713897705,2.0,2.039999961853028,2.2699999809265137,445000
2019-08-12,2.900000095367432,2.359999895095825,2.359999895095825,2.890000104904175,3140000
2019-08-13,3.4600000381469727,2.7699999809265137,3.0,3.4100000858306885,9455000
2019-08-14,3.990000009536743,3.5499999523162837,3.640000104904175,3.940000057220459,7280030
2019-08-15,4.699999809265137,3.990000009536743,4.070000171661377,4.690000057220459,10335000
2019-08-16,5.0,0.9499999880790709,5.0,0.9900000095367432,64179800
2019-08-19,1.0599999427795408,0.30000001192092896,0.8999999761581421,0.3100000023841858,406622500
2019-08-20,0.4749999940395355,0.3199999928474426,0.3199999928474426,0.4350000023841858,281010000
2019-08-21,0.6100000143051147,0.4300000071525574,0.4350000023841858,0.6100000143051147,244935000
2019-08-22,0.8899999856948853,0.5899999737739563,0.6800000071525574,0.6800000071525574,328790000
2019-08-23,0.7900000214576721,0.5600000023841858,0.7200000286102295,0.6000000238418579,97270000
2019-08-26,0.7200000286102295,0.5199999809265137,0.550000011920929,0.7200000286102295,75615000
2019-08-27,0.8199999928474426,0.6800000071525574,0.7799999713897705,0.699999988079071,67950000
2019-08-28,0.7099999785423279,0.6200000047683716,0.7099999785423279,0.6700000166893005,37055000
2019-08-29,0.7200000286102295,0.6499999761581421,0.6700000166893005,0.6700000166893005,38952500
2019-08-30,0.6899999976158142,0.5400000214576721,0.6800000071525574,0.5600000023841858,56250000
2019-09-02,0.550000011920929,0.4399999976158142,0.550000011920929,0.44999998807907104,88030000
2019-09-03,0.5,0.4399999976158142,0.4449999928474426,0.4600000083446503,70065000
2019-09-04,0.4950000047683716,0.4350000023841858,0.479999989271164,0.44999998807907104,58865000
2019-09-05,0.479999989271164,0.4350000023841858,0.4550000131130218,0.4449999928474426,60590000
2019-09-06,0.4550000131130218,0.4350000023841858,0.4550000131130218,0.4399999976158142,16775000
2019-09-09,0.4600000083446503,0.4050000011920929,0.4449999928474426,0.4399999976158142,59835000
2019-09-10,0.5799999833106995,0.4300000071525574,0.4399999976158142,0.5299999713897705,374005000
2019-09-11,0.550000011920929,0.4850000143051148,0.5400000214576721,0.4900000095367432,115576300
2019-09-12,0.5600000023841858,0.4600000083446503,0.4950000047683716,0.5199999809265137,155700000
2019-09-13,0.5400000214576721,0.4900000095367432,0.5299999713897705,0.5099999904632568,79800000
2019-09-16,0.5099999904632568,0.479999989271164,0.4950000047683716,0.4900000095367432,28980000
2019-09-17,0.5299999713897705,0.4850000143051148,0.4900000095367432,0.4950000047683716,57308000
2019-09-18,0.5199999809265137,0.479999989271164,0.5,0.4900000095367432,25355000
2019-09-19,0.4900000095367432,0.4600000083446503,0.4900000095367432,0.4650000035762787,38045000
2019-09-20,0.4900000095367432,0.4600000083446503,0.4650000035762787,0.4650000035762787,36965000
2019-09-23,0.4699999988079071,0.4350000023841858,0.4699999988079071,0.4399999976158142,20575000
2019-09-24,0.4399999976158142,0.3849999904632568,0.4350000023841858,0.3950000107288361,41555000
2019-09-25,0.41999998688697815,0.3650000095367432,0.3950000107288361,0.3700000047683716,38885000
2019-09-26,0.3799999952316284,0.3350000083446503,0.3700000047683716,0.3449999988079071,27612000
2019-09-27,0.3950000107288361,0.32499998807907104,0.3449999988079071,0.3849999904632568,45120000
2019-09-30,0.3849999904632568,0.3350000083446503,0.3849999904632568,0.3650000095367432,27850000
2019-10-02,0.3650000095367432,0.3449999988079071,0.3650000095367432,0.3449999988079071,6105000
2019-10-03,0.3700000047683716,0.3449999988079071,0.3499999940395355,0.3499999940395355,8800000
2019-10-04,0.3499999940395355,0.33000001311302185,0.3499999940395355,0.3350000083446503,15725000
2019-10-08,0.3449999988079071,0.33000001311302185,0.3350000083446503,0.3400000035762787,6435000
2019-10-09,0.3400000035762787,0.3199999928474426,0.3400000035762787,0.32499998807907104,7430000
2019-10-10,0.3400000035762787,0.3149999976158142,0.3199999928474426,0.33000001311302185,9180000
2019-10-11,0.3700000047683716,0.32499998807907104,0.33000001311302185,0.3449999988079071,29550000
2019-10-14,0.36000001430511475,0.3400000035762787,0.3499999940395355,0.3449999988079071,12915000
2019-10-15,0.3400000035762787,0.3199999928474426,0.3400000035762787,0.33000001311302185,17105000
2019-10-16,0.33000001311302185,0.3149999976158142,0.33000001311302185,0.3199999928474426,10420000
2019-10-17,0.32499998807907104,0.3149999976158142,0.3199999928474426,0.3199999928474426,6900000
2019-10-18,0.3199999928474426,0.30000001192092896,0.3199999928474426,0.3050000071525574,9355000
2019-10-21,0.3050000071525574,0.2899999916553497,0.3050000071525574,0.2949999868869781,13610000
2019-10-22,0.32499998807907104,0.2949999868869781,0.2949999868869781,0.3050000071525574,10905000
2019-10-23,0.3100000023841858,0.2949999868869781,0.3050000071525574,0.30000001192092896,3945000
2019-10-24,0.30000001192092896,0.2899999916553497,0.2949999868869781,0.2949999868869781,6510000
2019-10-25,0.30000001192092896,0.2899999916553497,0.2949999868869781,0.2949999868869781,3495000
2019-10-28,0.3400000035762787,0.2899999916553497,0.2949999868869781,0.3149999976158142,19765000
2019-10-29,0.4399999976158142,0.33000001311302185,0.3449999988079071,0.4399999976158142,123930000
2019-10-30,0.4600000083446503,0.3499999940395355,0.4399999976158142,0.3700000047683716,116510000
2019-10-31,0.3799999952316284,0.3400000035762787,0.3700000047683716,0.3499999940395355,24330000
2019-11-01,0.3650000095367432,0.3400000035762787,0.3499999940395355,0.3499999940395355,10065000
2019-11-04,0.3950000107288361,0.3499999940395355,0.36000001430511475,0.3849999904632568,32465000
2019-11-05,0.3899999856948853,0.3499999940395355,0.3849999904632568,0.35499998927116394,16425000
2019-11-06,0.3650000095367432,0.3499999940395355,0.35499998927116394,0.36000001430511475,5405000
2019-11-07,0.375,0.3499999940395355,0.35499998927116394,0.36000001430511475,10790000
2019-11-08,0.4000000059604645,0.36000001430511475,0.36000001430511475,0.3650000095367432,12720000
2019-11-11,0.36000001430511475,0.3449999988079071,0.35499998927116394,0.3499999940395355,3730000
2019-11-12,0.36000001430511475,0.3449999988079071,0.35499998927116394,0.35499998927116394,1690000
2019-11-13,0.35499998927116394,0.33000001311302185,0.35499998927116394,0.33000001311302185,7040000
2019-11-14,0.3449999988079071,0.3199999928474426,0.33000001311302185,0.33000001311302185,5255000
2019-11-15,0.3400000035762787,0.3149999976158142,0.33000001311302185,0.3149999976158142,7200000
2019-11-18,0.32499998807907104,0.2750000059604645,0.3199999928474426,0.2849999964237213,31740000
2019-11-19,0.30000001192092896,0.2899999916553497,0.2899999916553497,0.30000001192092896,5190000
2019-11-20,0.3050000071525574,0.2949999868869781,0.30000001192092896,0.2949999868869781,2870000
2019-11-21,0.3050000071525574,0.2800000011920929,0.3050000071525574,0.2899999916553497,5545000
2019-11-22,0.2899999916553497,0.2700000107288361,0.2899999916553497,0.2750000059604645,15740000
2019-11-25,0.2849999964237213,0.2750000059604645,0.2750000059604645,0.2800000011920929,6810000
2019-11-26,0.3350000083446503,0.2849999964237213,0.2849999964237213,0.30000001192092896,37170000
2019-11-27,0.3100000023841858,0.2750000059604645,0.3050000071525574,0.2849999964237213,15577500
2019-11-28,0.2899999916553497,0.2750000059604645,0.2899999916553497,0.2750000059604645,8115000
2019-11-29,0.2800000011920929,0.2700000107288361,0.2800000011920929,0.2750000059604645,5975000
2019-12-02,0.2800000011920929,0.2750000059604645,0.2800000011920929,0.2750000059604645,4370000
2019-12-03,0.2899999916553497,0.2700000107288361,0.2750000059604645,0.2849999964237213,5145000
2019-12-04,0.2899999916553497,0.2750000059604645,0.2750000059604645,0.2750000059604645,3675000
2019-12-05,0.2800000011920929,0.2750000059604645,0.2800000011920929,0.2800000011920929,875000
2019-12-06,0.2800000011920929,0.2750000059604645,0.2800000011920929,0.2800000011920929,3045000
2019-12-09,0.3199999928474426,0.2849999964237213,0.2849999964237213,0.2899999916553497,19400000
2019-12-10,0.2949999868869781,0.2849999964237213,0.2899999916553497,0.2899999916553497,2495000
2019-12-11,0.2899999916553497,0.2800000011920929,0.2849999964237213,0.2849999964237213,1390000
2019-12-12,0.2899999916553497,0.2800000011920929,0.2849999964237213,0.2849999964237213,7525000
2019-12-13,0.2949999868869781,0.2800000011920929,0.2899999916553497,0.2849999964237213,3835000
2019-12-16,0.2899999916553497,0.2700000107288361,0.2899999916553497,0.2750000059604645,6460000
2019-12-17,0.2800000011920929,0.2700000107288361,0.2700000107288361,0.2750000059604645,3930000
2019-12-18,0.2849999964237213,0.2750000059604645,0.2800000011920929,0.2800000011920929,2125000
2019-12-19,0.2849999964237213,0.2750000059604645,0.2800000011920929,0.2800000011920929,1650000
2019-12-20,0.2800000011920929,0.2700000107288361,0.2750000059604645,0.2700000107288361,3955000
2019-12-23,0.2750000059604645,0.26499998569488525,0.2700000107288361,0.26499998569488525,2650000
2019-12-24,0.2700000107288361,0.26499998569488525,0.26499998569488525,0.2700000107288361,1085000
2019-12-27,0.2700000107288361,0.25999999046325684,0.26499998569488525,0.26499998569488525,2120000
2019-12-30,0.26499998569488525,0.2549999952316284,0.25999999046325684,0.25999999046325684,3745000
2019-12-31,0.25999999046325684,0.25,0.25999999046325684,0.25,1520000
2020-01-02,0.2549999952316284,0.23199999332427976,0.2549999952316284,0.239999994635582,9255000
2020-01-03,0.2450000047683716,0.23499999940395355,0.239999994635582,0.23899999260902405,2770000
2020-01-06,0.2450000047683716,0.2360000014305115,0.23899999260902405,0.239999994635582,1115000
2020-01-07,0.23899999260902405,0.23000000417232516,0.23100000619888306,0.23100000619888306,2820000
2020-01-08,0.23499999940395355,0.22300000488758087,0.23499999940395355,0.2240000069141388,3850000
2020-01-09,0.23100000619888306,0.2160000056028366,0.23100000619888306,0.22300000488758087,3385000
2020-01-10,0.22699999809265134,0.2160000056028366,0.2199999988079071,0.2199999988079071,2580000
2020-01-13,0.22200000286102292,0.21199999749660486,0.2160000056028366,0.21199999749660486,4290000
2020-01-14,0.21199999749660486,0.20200000703334808,0.21199999749660486,0.20399999618530276,5370000
2020-01-15,0.2489999979734421,0.20399999618530276,0.20399999618530276,0.2430000007152557,15410000
2020-01-16,0.2549999952316284,0.22200000286102292,0.2450000047683716,0.23000000417232516,12970000
2020-01-17,0.23399999737739566,0.2199999988079071,0.22100000083446505,0.22100000083446505,5800000
2020-01-20,0.24799999594688416,0.23000000417232516,0.23000000417232516,0.23199999332427976,11137500
2020-01-21,0.22599999606609344,0.2199999988079071,0.22499999403953552,0.22200000286102292,1755000
2020-01-22,0.22499999403953552,0.210999995470047,0.2179999947547913,0.2179999947547913,2650000
2020-01-23,0.2179999947547913,0.20399999618530276,0.21299999952316284,0.2150000035762787,3185000
2020-01-24,0.2240000069141388,0.2070000022649765,0.2070000022649765,0.2199999988079071,2040000
2020-01-29,0.2080000042915344,0.19900000095367432,0.20100000500679016,0.20100000500679016,3745000
2020-01-30,0.22300000488758087,0.2029999941587448,0.2029999941587448,0.2070000022649765,6835000
2020-01-31,0.2179999947547913,0.20399999618530276,0.20399999618530276,0.21299999952316284,5465000
2020-02-03,0.21699999272823334,0.20200000703334808,0.2070000022649765,0.20600000023841855,845000
2020-02-04,0.22100000083446505,0.20200000703334808,0.20200000703334808,0.2140000015497208,6530000
2020-02-05,0.2189999967813492,0.2070000022649765,0.20999999344348907,0.20900000631809235,1105000
2020-02-06,0.2160000056028366,0.20999999344348907,0.20999999344348907,0.20999999344348907,1040000
2020-02-07,0.2140000015497208,0.2070000022649765,0.20999999344348907,0.20999999344348907,785000
2020-02-10,0.2150000035762787,0.20499999821186066,0.20600000023841855,0.2080000042915344,1945000
2020-02-11,0.2140000015497208,0.20600000023841855,0.20900000631809235,0.2070000022649765,1580000
2020-02-12,0.23100000619888306,0.20499999821186066,0.20499999821186066,0.2150000035762787,10490000
2020-02-13,0.2199999988079071,0.2080000042915344,0.2080000042915344,0.21199999749660486,1175000
2020-02-14,0.21199999749660486,0.2080000042915344,0.20900000631809235,0.20999999344348907,695000
2020-02-17,0.20900000631809235,0.2080000042915344,0.20900000631809235,0.20900000631809235,535000
2020-02-18,0.20999999344348907,0.20499999821186066,0.20499999821186066,0.2080000042915344,1000000
2020-02-19,0.20999999344348907,0.20600000023841855,0.2070000022649765,0.20600000023841855,300000
2020-02-20,0.2080000042915344,0.2029999941587448,0.20499999821186066,0.2070000022649765,1155000
2020-02-21,0.2070000022649765,0.20000000298023224,0.2029999941587448,0.2029999941587448,1195000
2020-02-24,0.2070000022649765,0.20000000298023224,0.2070000022649765,0.20000000298023224,1605000
2020-02-25,0.20000000298023224,0.19699999690055847,0.20000000298023224,0.20000000298023224,1480000
2020-02-26,0.20399999618530276,0.19499999284744265,0.19699999690055847,0.1979999989271164,555000
2020-02-27,0.2380000054836273,0.19699999690055847,0.19699999690055847,0.20399999618530276,17635000
2020-02-28,0.2029999941587448,0.19599999487400052,0.20100000500679016,0.1979999989271164,1755000
2020-03-02,0.20000000298023224,0.19599999487400052,0.19699999690055847,0.20000000298023224,1050000
2020-03-03,0.2160000056028366,0.19599999487400052,0.1979999989271164,0.19900000095367432,5935000
2020-03-04,0.20000000298023224,0.19499999284744265,0.19599999487400052,0.1979999989271164,655000
2020-03-05,0.21199999749660486,0.19900000095367432,0.19900000095367432,0.20600000023841855,9055000
2020-03-06,0.21699999272823334,0.19900000095367432,0.21699999272823334,0.20000000298023224,3120000
2020-03-09,0.20000000298023224,0.20000000298023224,0.20000000298023224,0.20000000298023224,0
2020-03-10,0.1879999935626984,0.1879999935626984,0.1879999935626984,0.1879999935626984,0
2020-03-11,0.1889999955892563,0.18400000035762787,0.1850000023841858,0.1850000023841858,1625000
2020-03-12,0.18000000715255735,0.16599999368190765,0.18000000715255735,0.17000000178813934,4335000
2020-03-13,0.1599999964237213,0.1430000066757202,0.15700000524520874,0.1599999964237213,3265000
2020-03-16,0.1599999964237213,0.1469999998807907,0.1599999964237213,0.1469999998807907,2925000
2020-03-17,0.17800000309944153,0.1379999965429306,0.14100000262260434,0.16300000250339508,9051000
2020-03-18,0.17800000309944153,0.1469999998807907,0.16200000047683716,0.1469999998807907,4325000
2020-03-19,0.14100000262260434,0.1330000013113022,0.1330000013113022,0.1379999965429306,1760000
2020-03-20,0.1469999998807907,0.13500000536441806,0.13500000536441806,0.14499999582767487,1165000
2020-03-23,0.1459999978542328,0.13500000536441806,0.1459999978542328,0.1420000046491623,160000
2020-03-24,0.1459999978542328,0.13699999451637268,0.14000000059604645,0.1379999965429306,1105000
2020-03-25,0.14800000190734866,0.1379999965429306,0.1379999965429306,0.1469999998807907,2140000
2020-03-26,0.14499999582767487,0.13699999451637268,0.14100000262260434,0.13699999451637268,280000
2020-03-27,0.1420000046491623,0.1379999965429306,0.14000000059604645,0.1379999965429306,115000
2020-03-30,0.1430000066757202,0.1379999965429306,0.1379999965429306,0.1430000066757202,595000
2020-03-31,0.1599999964237213,0.13600000739097595,0.13699999451637268,0.15700000524520874,1700000
2020-04-01,0.1599999964237213,0.1509999930858612,0.1599999964237213,0.1509999930858612,1530000
2020-04-02,0.1509999930858612,0.1469999998807907,0.14800000190734866,0.1469999998807907,970000
2020-04-03,0.15000000596046448,0.14499999582767487,0.14499999582767487,0.1469999998807907,955000
2020-04-06,0.14100000262260434,0.14000000059604645,0.14000000059604645,0.14000000059604645,195000
2020-04-07,0.14499999582767487,0.1379999965429306,0.13899999856948853,0.14499999582767487,735000
2020-04-08,0.1430000066757202,0.14000000059604645,0.14000000059604645,0.1430000066757202,625000
2020-04-09,0.1420000046491623,0.13899999856948853,0.14000000059604645,0.14000000059604645,620000
2020-04-14,0.1420000046491623,0.13899999856948853,0.14000000059604645,0.14000000059604645,520000
2020-04-15,0.15399999916553495,0.14000000059604645,0.14000000059604645,0.1469999998807907,6360000
2020-04-16,0.1469999998807907,0.1430000066757202,0.1469999998807907,0.14499999582767487,350000
2020-04-17,0.14499999582767487,0.14100000262260434,0.14499999582767487,0.1420000046491623,390000
2020-04-20,0.14399999380111694,0.14399999380111694,0.14399999380111694,0.14399999380111694,0
2020-04-21,0.14499999582767487,0.13899999856948853,0.14499999582767487,0.14100000262260434,325000
2020-04-22,0.14100000262260434,0.14000000059604645,0.14100000262260434,0.14000000059604645,775000
2020-04-23,0.14000000059604645,0.13600000739097595,0.14000000059604645,0.13699999451637268,90000
2020-04-24,0.13600000739097595,0.12999999523162842,0.13500000536441806,0.13600000739097595,1185000
2020-04-27,0.1430000066757202,0.13699999451637268,0.13699999451637268,0.13699999451637268,500000
2020-04-28,0.13899999856948853,0.13699999451637268,0.13699999451637268,0.1379999965429306,330000
2020-04-29,0.14100000262260434,0.13699999451637268,0.13899999856948853,0.14000000059604645,800000
2020-05-04,0.14000000059604645,0.14000000059604645,0.14000000059604645,0.14000000059604645,80000
2020-05-05,0.1379999965429306,0.13099999725818634,0.13099999725818634,0.1379999965429306,530000
2020-05-06,0.13699999451637268,0.13099999725818634,0.1330000013113022,0.13699999451637268,955000
2020-05-07,0.1340000033378601,0.13099999725818634,0.13099999725818634,0.13199999928474426,545000
2020-05-08,0.12999999523162842,0.125,0.12600000202655792,0.12700000405311584,570000
2020-05-11,0.18000000715255735,0.12999999523162842,0.12999999523162842,0.16699999570846558,46345000
2020-05-12,0.1679999977350235,0.1459999978542328,0.16699999570846558,0.14800000190734866,10525000
2020-05-13,0.1459999978542328,0.14000000059604645,0.1459999978542328,0.14100000262260434,3890000
2020-05-14,0.15800000727176666,0.13899999856948853,0.14100000262260434,0.15000000596046448,5605000
2020-05-15,0.1509999930858612,0.1509999930858612,0.1509999930858612,0.1509999930858612,0
2020-05-18,0.15800000727176666,0.1459999978542328,0.1509999930858612,0.14800000190734866,1060000
2020-05-19,0.14800000190734866,0.1420000046491623,0.1469999998807907,0.14499999582767487,995000
2020-05-20,0.1459999978542328,0.1430000066757202,0.1459999978542328,0.1430000066757202,620000
2020-05-21,0.14000000059604645,0.1379999965429306,0.14000000059604645,0.1379999965429306,1190000
2020-05-22,0.14000000059604645,0.12999999523162842,0.1379999965429306,0.13099999725818634,1840000
2020-05-25,0.13500000536441806,0.12700000405311584,0.12800000607967374,0.13099999725818634,715000
2020-05-26,0.13699999451637268,0.12999999523162842,0.13600000739097595,0.1330000013113022,1225000
2020-05-27,0.13199999928474426,0.12999999523162842,0.12999999523162842,0.13199999928474426,415000
2020-05-28,0.13199999928474426,0.12700000405311584,0.1289999932050705,0.13199999928474426,270000
2020-05-29,0.13099999725818634,0.125,0.12800000607967374,0.12600000202655792,1280000
2020-06-01,0.12700000405311584,0.119999997317791,0.119999997317791,0.12200000137090684,680000
2020-06-02,0.12600000202655792,0.119999997317791,0.119999997317791,0.12600000202655792,495000
2020-06-03,0.12999999523162842,0.12200000137090684,0.125,0.12200000137090684,975000
2020-06-04,0.12399999797344208,0.12099999934434892,0.12200000137090684,0.12399999797344208,910000
2020-06-05,0.12300000339746475,0.12200000137090684,0.12200000137090684,0.12300000339746475,430000
2020-06-08,0.1430000066757202,0.12300000339746475,0.12300000339746475,0.1430000066757202,6285000
2020-06-09,0.14100000262260434,0.13699999451637268,0.14100000262260434,0.1379999965429306,330000
2020-06-10,0.13699999451637268,0.13500000536441806,0.13699999451637268,0.13500000536441806,190000
2020-06-11,0.13699999451637268,0.13099999725818634,0.13099999725818634,0.1340000033378601,890000
2020-06-12,0.1459999978542328,0.12800000607967374,0.12800000607967374,0.14000000059604645,2135000
2020-06-15,0.1340000033378601,0.1330000013113022,0.1330000013113022,0.1330000013113022,20000
2020-06-16,0.13899999856948853,0.12800000607967374,0.1330000013113022,0.1330000013113022,1295000
2020-06-17,0.1330000013113022,0.12700000405311584,0.12800000607967374,0.1330000013113022,995000
2020-06-18,0.1330000013113022,0.12800000607967374,0.1289999932050705,0.1330000013113022,955000
2020-06-19,0.13600000739097595,0.1289999932050705,0.12999999523162842,0.1330000013113022,725000
2020-06-22,0.13699999451637268,0.1340000033378601,0.1340000033378601,0.1340000033378601,955000
2020-06-23,0.13199999928474426,0.13199999928474426,0.13199999928474426,0.13199999928474426,0
2020-06-24,0.13199999928474426,0.12700000405311584,0.13099999725818634,0.12999999523162842,545000
2020-06-26,0.1379999965429306,0.12800000607967374,0.1289999932050705,0.1379999965429306,1280000
2020-06-29,0.14000000059604645,0.12800000607967374,0.13199999928474426,0.1379999965429306,855000
2020-06-30,0.1330000013113022,0.1330000013113022,0.1330000013113022,0.1330000013113022,0
2020-07-02,0.13099999725818634,0.12999999523162842,0.13099999725818634,0.12999999523162842,265000
2020-07-03,0.12999999523162842,0.1289999932050705,0.12999999523162842,0.13099999725818634,255000
2020-07-06,0.13500000536441806,0.12999999523162842,0.12999999523162842,0.1340000033378601,600000
2020-07-07,0.14100000262260434,0.1289999932050705,0.12999999523162842,0.1330000013113022,1805000
2020-07-08,0.1330000013113022,0.1289999932050705,0.1330000013113022,0.13199999928474426,925000
2020-07-09,0.14000000059604645,0.12600000202655792,0.13099999725818634,0.1340000033378601,2560000
2020-07-10,0.14100000262260434,0.1340000033378601,0.1340000033378601,0.13600000739097595,1615000
2020-07-13,0.13699999451637268,0.13600000739097595,0.13600000739097595,0.13699999451637268,355000
2020-07-14,0.13699999451637268,0.13699999451637268,0.13699999451637268,0.13699999451637268,100000
2020-07-15,0.14000000059604645,0.13500000536441806,0.13699999451637268,0.14000000059604645,1510000
2020-07-16,0.13600000739097595,0.12700000405311584,0.13199999928474426,0.12999999523162842,1705000
2020-07-17,0.13600000739097595,0.13099999725818634,0.1330000013113022,0.13099999725818634,2015000
2020-07-20,0.13500000536441806,0.13099999725818634,0.13099999725818634,0.13500000536441806,575000
2020-07-21,0.13199999928474426,0.12999999523162842,0.13099999725818634,0.12999999523162842,1885000
2020-07-22,0.1330000013113022,0.12800000607967374,0.1289999932050705,0.12800000607967374,565000
2020-07-23,0.1289999932050705,0.12800000607967374,0.12800000607967374,0.12800000607967374,315000
2020-07-24,0.12800000607967374,0.12399999797344208,0.12399999797344208,0.12700000405311584,245000
2020-07-27,0.12700000405311584,0.12200000137090684,0.12700000405311584,0.12300000339746475,280000
2020-07-28,0.12300000339746475,0.119999997317791,0.12300000339746475,0.12200000137090684,315000
2020-07-29,0.12300000339746475,0.119999997317791,0.12200000137090684,0.12300000339746475,335000
2020-07-30,0.12300000339746475,0.12300000339746475,0.12300000339746475,0.12300000339746475,10000
2020-07-31,0.12300000339746475,0.12300000339746475,0.12300000339746475,0.12300000339746475,0
2020-08-03,0.12099999934434892,0.119999997317791,0.119999997317791,0.119999997317791,300000
2020-08-04,0.12200000137090684,0.11599999666213988,0.12200000137090684,0.11800000071525575,615000
2020-08-05,0.12399999797344208,0.12099999934434892,0.12099999934434892,0.12300000339746475,615000
2020-08-06,0.12399999797344208,0.12099999934434892,0.12300000339746475,0.12300000339746475,585000
2020-08-07,0.13600000739097595,0.12399999797344208,0.1289999932050705,0.12700000405311584,665000
2020-08-10,0.12800000607967374,0.12399999797344208,0.12800000607967374,0.12399999797344208,95000
2020-08-11,0.14499999582767487,0.12399999797344208,0.12399999797344208,0.13600000739097595,3660000
2020-08-12,0.1379999965429306,0.12700000405311584,0.13099999725818634,0.1379999965429306,2065000
2020-08-13,0.1420000046491623,0.13199999928474426,0.1379999965429306,0.13500000536441806,1900000
2020-08-14,0.1340000033378601,0.1289999932050705,0.1289999932050705,0.1340000033378601,145000
2020-08-17,0.13099999725818634,0.12099999934434892,0.13099999725818634,0.12800000607967374,895000
2020-08-18,0.12600000202655792,0.12399999797344208,0.12399999797344208,0.125,325000
2020-08-19,0.13099999725818634,0.12399999797344208,0.125,0.12800000607967374,90000
2020-08-20,0.12399999797344208,0.12099999934434892,0.12399999797344208,0.125,105000
2020-08-21,0.12800000607967374,0.12200000137090684,0.125,0.12399999797344208,320000
2020-08-24,0.12399999797344208,0.12099999934434892,0.12200000137090684,0.12399999797344208,390000
2020-08-25,0.12999999523162842,0.12200000137090684,0.12999999523162842,0.125,320000
