Date,Open,High,Low,Close,Volume
2012-02-08,1.5,1.55,1.5,1.53,2486476
2012-02-09,1.54,1.61,1.52,1.61,3035540
2012-02-10,1.59,1.61,1.51,1.52,2506473
2012-02-13,1.53,1.55,1.51,1.52,2807591
2012-02-14,1.52,1.54,1.5,1.51,1318626
2012-02-15,1.51,1.55,1.5,1.54,2347714
2012-02-16,1.53,1.54,1.52,1.52,1263821
2012-02-17,1.53,1.57,1.53,1.57,1645637
2012-02-20,1.59,1.6,1.56,1.57,1987564
2012-02-21,1.57,1.57,1.54,1.57,1640016
2012-02-22,1.57,1.66,1.57,1.63,6046295
2012-02-23,1.59,1.69,1.57,1.6,10241226
2012-02-24,1.6,1.63,1.57,1.61,2424654
2012-02-27,1.61,1.64,1.59,1.6,2205425
2012-02-28,1.6,1.6,1.57,1.58,2091903
2012-02-29,1.57,1.61,1.57,1.61,1298346
2012-03-01,1.61,1.64,1.58,1.59,3081644
2012-03-02,1.61,1.68,1.6,1.66,3804666
2012-03-05,1.67,1.68,1.62,1.62,1571682
2012-03-06,1.61,1.61,1.57,1.59,1907291
2012-03-07,1.55,1.58,1.52,1.56,3858668
2012-03-08,1.57,1.6,1.56,1.58,934633
2012-03-09,1.59,1.59,1.56,1.58,995311
2012-03-12,1.57,1.59,1.56,1.57,443069
2012-03-13,1.59,1.61,1.57,1.61,1372742
2012-03-14,1.61,1.64,1.57,1.58,4528947
2012-03-15,1.58,1.59,1.57,1.57,1012886
2012-03-16,1.57,1.59,1.56,1.58,756634
2012-03-19,1.58,1.58,1.54,1.54,977617
2012-03-20,1.54,1.56,1.52,1.53,2020262
2012-03-21,1.55,1.55,1.46,1.5,4758858
2012-03-22,1.51,1.51,1.48,1.49,2635268
2012-03-23,1.49,1.49,1.44,1.47,2820136
2012-03-26,1.46,1.47,1.43,1.47,1580500
2012-03-27,1.45,1.48,1.45,1.45,1240759
2012-03-28,1.45,1.45,1.42,1.43,2854598
2012-03-29,1.43,1.43,1.42,1.42,1448240
2012-03-30,1.42,1.42,1.39,1.42,2902126
2012-04-02,1.4,1.42,1.39,1.41,1384315
2012-04-03,1.41,1.45,1.4,1.44,2062144
2012-04-05,1.42,1.46,1.41,1.46,876770
2012-04-10,1.45,1.48,1.42,1.45,1048160
2012-04-11,1.43,1.47,1.42,1.46,1649936
2012-04-12,1.46,1.48,1.44,1.47,766553
2012-04-13,1.47,1.48,1.45,1.47,474040
2012-04-16,1.45,1.49,1.44,1.46,1208079
2012-04-17,1.45,1.49,1.45,1.46,742908
2012-04-18,1.47,1.53,1.46,1.5,3728492
2012-04-19,1.49,1.5,1.48,1.49,273051
2012-04-20,1.5,1.5,1.46,1.46,1528731
2012-04-23,1.46,1.48,1.44,1.45,1236655
2012-04-24,1.45,1.5,1.43,1.43,6528162
2012-04-25,1.44,1.46,1.44,1.44,1025551
2012-04-26,1.44,1.46,1.44,1.45,1276417
2012-04-27,1.47,1.48,1.45,1.47,2381771
2012-04-30,1.48,1.48,1.47,1.47,1352352
2012-05-02,1.42,1.43,1.38,1.39,2914255
2012-05-03,1.4,1.4,1.37,1.38,836981
2012-05-04,1.37,1.38,1.35,1.35,1407813
2012-05-07,1.33,1.34,1.3,1.32,1091140
2012-05-08,1.35,1.35,1.32,1.32,1098084
2012-05-09,1.32,1.32,1.28,1.29,1097764
2012-05-10,1.28,1.29,1.27,1.28,644765
2012-05-11,1.27,1.28,1.23,1.27,1334718
2012-05-14,1.27,1.3,1.23,1.25,2074268
2012-05-15,1.24,1.26,1.23,1.25,1254260
2012-05-16,1.22,1.23,1.2,1.2,2512825
2012-05-17,1.21,1.22,1.15,1.15,6540231
2012-05-18,1.13,1.16,1.13,1.16,1088000
2012-05-21,1.17,1.18,1.15,1.17,769366
2012-05-22,1.18,1.19,1.16,1.18,1166089
2012-05-23,1.16,1.17,1.14,1.16,746166
2012-05-24,1.16,1.16,1.14,1.15,629343
2012-05-25,1.16,1.17,1.14,1.15,1318187
2012-05-28,1.15,1.22,1.15,1.19,1171598
2012-05-29,1.19,1.2,1.16,1.17,2863421
2012-05-30,1.16,1.19,1.16,1.16,1075710
2012-05-31,1.16,1.22,1.16,1.19,2515143
2012-06-01,1.18,1.24,1.18,1.22,3326544
2012-06-04,1.2,1.2,1.18,1.2,1053666
2012-06-05,1.2,1.22,1.2,1.21,492586
2012-06-06,1.21,1.24,1.21,1.23,700085
2012-06-07,1.24,1.31,1.23,1.29,7723953
2012-06-08,1.29,1.31,1.27,1.28,2129376
2012-06-11,1.32,1.32,1.28,1.29,784741
2012-06-12,1.28,1.28,1.25,1.26,368881
2012-06-13,1.26,1.28,1.26,1.27,153231
2012-06-14,1.24,1.28,1.23,1.23,643668
2012-06-15,1.23,1.29,1.23,1.27,1816369
2012-06-18,1.29,1.29,1.27,1.27,489569
2012-06-19,1.26,1.3,1.26,1.28,654684
2012-06-20,1.27,1.29,1.27,1.28,812613
2012-06-21,1.27,1.28,1.26,1.28,132259
2012-06-22,1.28,1.28,1.25,1.26,998572
2012-06-25,1.25,1.26,1.25,1.26,245782
2012-06-26,1.25,1.27,1.24,1.27,328444
2012-06-27,1.27,1.28,1.25,1.28,210513
2012-06-28,1.29,1.29,1.23,1.23,902670
2012-06-29,1.23,1.27,1.23,1.27,685841
2012-07-03,1.27,1.29,1.25,1.25,799122
2012-07-04,1.27,1.3,1.25,1.27,948961
2012-07-05,1.27,1.27,1.26,1.27,34622
2012-07-06,1.28,1.29,1.26,1.29,435619
2012-07-09,1.27,1.27,1.25,1.26,394638
2012-07-10,1.27,1.27,1.26,1.26,1209650
2012-07-11,1.26,1.27,1.26,1.26,216024
2012-07-12,1.26,1.27,1.26,1.26,1148452
2012-07-13,1.26,1.38,1.26,1.36,7854003
2012-07-16,1.38,1.42,1.37,1.38,3111402
2012-07-17,1.39,1.4,1.36,1.37,2555913
2012-07-18,1.37,1.39,1.36,1.37,2210936
2012-07-19,1.37,1.41,1.36,1.38,2158583
2012-07-20,1.38,1.39,1.37,1.38,2076472
2012-07-23,1.35,1.36,1.32,1.33,1908944
2012-07-24,1.32,1.36,1.32,1.34,836541
2012-07-25,1.34,1.35,1.32,1.34,1054769
2012-07-26,1.33,1.34,1.32,1.33,829928
2012-07-27,1.33,1.36,1.33,1.34,1152240
2012-07-30,1.35,1.36,1.33,1.34,1137431
2012-07-31,1.33,1.36,1.33,1.35,685269
2012-08-01,1.34,1.37,1.33,1.33,1089101
2012-08-02,1.35,1.35,1.32,1.32,1138497
2012-08-03,1.33,1.36,1.32,1.35,2638938
2012-08-06,1.38,1.38,1.34,1.34,1308486
2012-08-07,1.34,1.37,1.34,1.36,2349808
2012-08-08,1.36,1.36,1.33,1.34,3251749
2012-08-09,1.34,1.36,1.33,1.35,679759
2012-08-10,1.36,1.42,1.35,1.41,2054210
2012-08-13,1.42,1.42,1.4,1.4,545570
2012-08-14,1.4,1.41,1.4,1.4,641988
2012-08-15,1.41,1.43,1.38,1.42,1736331
2012-08-16,1.4,1.41,1.36,1.36,1049258
2012-08-17,1.37,1.41,1.37,1.38,565684
2012-08-20,1.38,1.38,1.35,1.36,756083
2012-08-21,1.35,1.37,1.34,1.36,4132004
2012-08-22,1.34,1.39,1.34,1.36,2430266
2012-08-23,1.36,1.41,1.36,1.4,1431708
2012-08-24,1.41,1.41,1.37,1.39,433149
2012-08-27,1.39,1.41,1.38,1.39,507545
2012-08-28,1.39,1.4,1.38,1.39,691331
2012-08-29,1.4,1.41,1.36,1.37,3111402
2012-08-30,1.35,1.35,1.33,1.34,1008478
2012-08-31,1.34,1.34,1.33,1.34,641267
2012-09-03,1.35,1.35,1.33,1.33,686647
2012-09-04,1.34,1.35,1.33,1.33,324054
2012-09-05,1.32,1.33,1.32,1.32,4018867
2012-09-06,1.32,1.33,1.32,1.33,1949838
2012-09-07,1.34,1.38,1.31,1.35,540059
2012-09-10,1.34,1.35,1.32,1.33,2623723
2012-09-11,1.32,1.34,1.31,1.33,506443
2012-09-12,1.33,1.36,1.32,1.36,6377587
2012-09-13,1.36,1.37,1.35,1.36,439471
2012-09-14,1.37,1.38,1.35,1.38,1012556
2012-09-17,1.38,1.41,1.37,1.39,1528808
2012-09-18,1.39,1.39,1.36,1.37,196873
2012-09-19,1.37,1.39,1.37,1.39,379739
2012-09-20,1.37,1.39,1.37,1.39,505892
2012-09-21,1.38,1.4,1.37,1.39,900111
2012-09-24,1.37,1.39,1.37,1.38,148957
2012-09-25,1.39,1.39,1.38,1.38,344701
2012-09-26,1.37,1.37,1.35,1.37,591985
2012-09-27,1.36,1.39,1.36,1.38,611810
2012-09-28,1.37,1.41,1.35,1.41,1912821
2012-10-03,1.43,1.44,1.39,1.42,1681347
2012-10-04,1.43,1.44,1.39,1.44,1455019
2012-10-05,1.45,1.46,1.42,1.44,1293045
2012-10-08,1.41,1.5,1.41,1.48,2173463
2012-10-09,1.48,1.52,1.48,1.5,2184484
2012-10-10,1.48,1.5,1.46,1.5,1115387
2012-10-11,1.48,1.52,1.48,1.5,1580500
2012-10-12,1.49,1.5,1.47,1.48,640521
2012-10-15,1.48,1.49,1.46,1.49,735142
2012-10-16,1.49,1.49,1.46,1.48,200387
2012-10-17,1.52,1.58,1.48,1.57,6185960
2012-10-18,1.59,1.69,1.57,1.65,13458442
2012-10-19,1.65,1.68,1.61,1.61,3582245
2012-10-22,1.6,1.61,1.58,1.61,2754770
2012-10-24,1.59,1.63,1.57,1.63,3945896
2012-10-25,1.62,1.62,1.55,1.58,1722072
2012-10-26,1.61,1.61,1.51,1.52,4122084
2012-10-29,1.52,1.57,1.52,1.56,3731919
2012-10-30,1.54,1.57,1.54,1.57,2277066
2012-10-31,1.58,1.65,1.57,1.62,6460926
2012-11-01,1.62,1.63,1.6,1.62,2226344
2012-11-02,1.63,1.63,1.61,1.61,1766379
2012-11-05,1.63,1.69,1.62,1.63,5224246
2012-11-06,1.63,1.63,1.57,1.6,4024320
2012-11-07,1.59,1.61,1.59,1.59,1982998
2012-11-08,1.58,1.59,1.52,1.56,2592284
2012-11-09,1.56,1.58,1.54,1.54,1944213
2012-11-12,1.54,1.58,1.52,1.54,1007541
2012-11-13,1.53,1.54,1.51,1.52,2122256
2012-11-14,1.52,1.53,1.52,1.52,1066782
2012-11-15,1.52,1.61,1.52,1.6,3648210
2012-11-16,1.59,1.61,1.57,1.57,3330732
2012-11-19,1.59,1.59,1.57,1.58,408902
2012-11-20,1.6,1.6,1.57,1.57,739443
2012-11-21,1.57,1.61,1.57,1.6,3762780
2012-11-22,1.59,1.6,1.59,1.6,481645
2012-11-23,1.58,1.59,1.58,1.58,265621
2012-11-26,1.58,1.59,1.56,1.56,200759
2012-11-27,1.56,1.56,1.54,1.55,328657
2012-11-28,1.55,1.56,1.53,1.54,1237727
2012-11-29,1.54,1.55,1.52,1.55,2702500
2012-11-30,1.54,1.57,1.53,1.57,1357064
2012-12-03,1.57,1.59,1.56,1.57,1631812
2012-12-04,1.56,1.59,1.56,1.59,1407460
2012-12-05,1.57,1.61,1.57,1.61,788932
2012-12-06,1.61,1.65,1.61,1.63,4574906
2012-12-07,1.63,1.63,1.61,1.61,1015686
2012-12-10,1.61,1.67,1.61,1.65,4249935
2012-12-11,1.64,1.67,1.63,1.65,2949291
2012-12-12,1.7,1.7,1.64,1.65,2732259
2012-12-13,1.65,1.66,1.64,1.64,2317996
2012-12-14,1.65,1.68,1.63,1.64,1021868
2012-12-17,1.61,1.66,1.61,1.63,1221503
2012-12-18,1.63,1.64,1.61,1.63,961140
2012-12-19,1.63,1.69,1.61,1.68,3429927
2012-12-20,1.67,1.77,1.67,1.75,6131105
2012-12-21,1.76,1.79,1.75,1.77,6296649
2012-12-24,1.77,1.86,1.77,1.86,7089103
2012-12-27,1.87,1.99,1.87,1.95,6258073
2012-12-28,1.94,1.94,1.89,1.89,2479864
2012-12-31,1.9,1.92,1.89,1.91,1450307
2013-01-02,1.91,1.93,1.89,1.9,3936094
2013-01-03,1.89,1.89,1.81,1.83,10471144
2013-01-04,1.82,1.85,1.81,1.84,6006229
2013-01-07,1.85,1.88,1.83,1.85,6824902
2013-01-08,1.85,1.94,1.85,1.9,4946949
2013-01-09,1.91,2.1,1.91,2.06,11321544
2013-01-10,2.09,2.1,1.97,2.02,6811918
2013-01-11,2.06,2.06,1.95,2.03,4970253
2013-01-14,2.16,2.48,2.16,2.3,70239560
2013-01-15,2.31,2.35,2.25,2.29,24425868
2013-01-16,2.34,2.57,2.3,2.56,55489880
2013-01-17,2.54,2.6,2.5,2.55,21304812
2013-01-18,2.55,2.55,2.45,2.51,10178859
2013-01-21,2.51,2.57,2.48,2.52,4133970
2013-01-22,2.5,2.5,2.43,2.45,7053834
2013-01-23,2.45,2.45,2.36,2.42,7458927
2013-01-24,2.4,2.5,2.4,2.44,5477467
2013-01-25,2.41,2.44,2.3,2.4,8107835
2013-01-28,2.37,2.4,2.31,2.38,7323588
2013-01-29,2.36,2.55,2.33,2.5,13768212
2013-01-30,2.5,2.52,2.46,2.5,8101484
2013-01-31,2.46,2.48,2.44,2.46,2950678
2013-02-01,2.44,2.51,2.42,2.5,5948510
2013-02-04,2.49,2.5,2.43,2.46,2889028
2013-02-05,2.41,2.44,2.4,2.43,4770706
2013-02-06,2.43,2.47,2.42,2.46,5209918
2013-02-07,2.48,2.48,2.36,2.37,11602014
2013-02-08,2.38,2.47,2.38,2.43,6856547
2013-02-14,2.43,2.46,2.4,2.42,1667054
2013-02-15,2.41,2.45,2.4,2.43,2678087
2013-02-18,2.45,2.61,2.45,2.59,26558844
2013-02-19,2.61,2.68,2.56,2.58,15057345
2013-02-20,2.59,2.67,2.57,2.58,7819719
2013-02-21,2.54,2.57,2.49,2.54,8544397
2013-02-22,2.51,2.54,2.5,2.53,3540248
2013-02-25,2.51,2.57,2.51,2.54,2886286
2013-02-26,2.5,2.52,2.41,2.43,7548705
2013-02-27,2.48,2.51,2.44,2.49,3295285
2013-02-28,2.5,2.63,2.49,2.61,20053514
2013-03-01,2.61,2.72,2.59,2.66,10679494
2013-03-04,2.66,2.74,2.65,2.68,16167099
2013-03-05,2.71,2.73,2.69,2.69,14264836
2013-03-06,2.72,2.74,2.69,2.72,6074459
2013-03-07,2.7,2.72,2.61,2.63,7198217
2013-03-08,2.61,2.68,2.61,2.66,3620601
2013-03-11,2.64,2.72,2.63,2.69,7296420
2013-03-12,2.69,2.71,2.61,2.66,6153383
2013-03-13,2.67,2.69,2.59,2.61,4946777
2013-03-14,2.57,2.61,2.56,2.6,4456700
2013-03-15,2.61,2.62,2.58,2.6,4503668
2013-03-18,2.55,2.59,2.52,2.58,3382454
2013-03-19,2.56,2.56,2.53,2.54,1935396
2013-03-20,2.54,2.54,2.51,2.53,2510881
2013-03-21,2.53,2.54,2.5,2.53,2588790
2013-03-22,2.54,2.54,2.48,2.49,2682661
2013-03-25,2.49,2.52,2.47,2.5,3199134
2013-03-26,2.5,2.59,2.5,2.59,5735457
2013-03-27,2.59,2.61,2.58,2.59,2861211
2013-03-28,2.62,2.64,2.56,2.62,5857438
2013-04-02,2.61,2.7,2.61,2.69,6370163
2013-04-03,2.71,2.76,2.69,2.72,10695625
2013-04-05,2.72,2.73,2.61,2.64,7168624
2013-04-08,2.64,2.71,2.62,2.64,2907006
2013-04-09,2.65,2.67,2.6,2.61,3813214
2013-04-10,2.61,2.66,2.59,2.63,4796607
2013-04-11,2.64,2.66,2.57,2.59,3806674
2013-04-12,2.59,2.61,2.55,2.61,5718014
2013-04-15,2.61,2.61,2.53,2.57,8286055
2013-04-16,2.47,2.5,2.43,2.49,5485458
2013-04-17,2.48,2.49,2.43,2.43,2428969
2013-04-18,2.43,2.48,2.43,2.46,1274099
2013-04-19,2.47,2.52,2.47,2.5,1764561
2013-04-22,2.48,2.69,2.44,2.51,15545504
2013-04-23,2.52,2.52,2.46,2.5,7370483
2013-04-24,2.5,2.56,2.5,2.55,7933555
2013-04-25,2.54,2.57,2.52,2.54,5822124
2013-04-26,2.54,2.59,2.54,2.55,10119140
2013-04-29,2.57,2.57,2.5,2.51,4441700
2013-04-30,2.52,2.56,2.52,2.56,3365666
2013-05-02,2.54,2.63,2.53,2.59,8812283
2013-05-03,2.61,2.68,2.59,2.68,13590537
2013-05-06,2.69,2.8,2.69,2.78,16678980
2013-05-07,2.79,2.81,2.73,2.78,11143723
2013-05-08,2.82,2.86,2.7,2.77,4852160
2013-05-09,2.77,2.8,2.72,2.73,2222125
2013-05-10,2.73,2.76,2.72,2.74,1231571
2013-05-13,2.77,2.78,2.72,2.75,2207080
2013-05-14,2.74,2.74,2.61,2.63,5770700
2013-05-15,2.67,2.71,2.66,2.7,3123103
2013-05-16,2.68,2.7,2.59,2.6,5295052
2013-05-20,2.6,2.64,2.51,2.55,8016273
2013-05-21,2.5,2.55,2.49,2.55,5512547
2013-05-22,2.53,2.59,2.5,2.53,5413200
2013-05-23,2.52,2.53,2.45,2.47,3611231
2013-05-24,2.48,2.51,2.45,2.48,7937975
2013-05-27,2.48,2.59,2.47,2.56,10623774
2013-05-28,2.57,2.59,2.52,2.57,4017450
2013-05-29,2.57,2.59,2.5,2.51,4319700
2013-05-30,2.52,2.52,2.34,2.37,12577625
2013-05-31,2.4,2.46,2.36,2.42,7345925
2013-06-03,2.41,2.42,2.21,2.22,18450000
2013-06-04,2.25,2.26,2.06,2.09,23361250
2013-06-05,2.1,2.2,2.09,2.19,10295050
2013-06-06,2.16,2.21,2.14,2.16,4302000
2013-06-07,2.16,2.19,2.14,2.15,3400403
2013-06-10,2.15,2.26,2.15,2.25,7484667
2013-06-11,2.26,2.26,2.15,2.19,15895997
2013-06-13,2.17,2.19,2.08,2.15,10208867
2013-06-14,2.14,2.23,2.14,2.21,9623041
2013-06-17,2.21,2.27,2.21,2.26,3556985
2013-06-18,2.27,2.31,2.27,2.31,8923351
2013-06-19,2.29,2.3,2.23,2.29,5133043
2013-06-20,2.25,2.26,2.16,2.17,6599120
2013-06-21,2.08,2.19,2.08,2.16,5332044
2013-06-24,2.15,2.22,2.1,2.15,11640112
2013-06-25,2.15,2.21,2.07,2.2,7520636
2013-06-26,2.23,2.27,2.2,2.25,4818281
2013-06-27,2.27,2.27,2.23,2.26,3834046
2013-06-28,2.27,2.34,2.27,2.33,3280570
2013-07-02,2.31,2.31,2.21,2.24,5399217
2013-07-03,2.23,2.24,2.15,2.17,4068774
2013-07-04,2.17,2.32,2.17,2.26,3402670
2013-07-05,2.3,2.31,2.28,2.29,6640606
2013-07-08,2.26,2.26,2.19,2.24,3023193
2013-07-09,2.24,2.26,2.22,2.23,622155
2013-07-10,2.24,2.25,2.17,2.2,2923375
2013-07-11,2.22,2.26,2.21,2.21,2674653
2013-07-12,2.24,2.33,2.24,2.31,3267033
2013-07-15,2.3,2.43,2.29,2.39,3967038
2013-07-16,2.37,2.42,2.37,2.39,1464718
2013-07-17,2.39,2.45,2.39,2.44,3654602
2013-07-18,2.42,2.42,2.33,2.37,2886799
2013-07-19,2.38,2.42,2.34,2.36,1451623
2013-07-22,2.4,2.4,2.3,2.34,805376
2013-07-23,2.35,2.4,2.35,2.37,431249
2013-07-24,2.37,2.41,2.36,2.4,1297653
2013-07-25,2.4,2.41,2.38,2.39,852750
2013-07-26,2.41,2.41,2.36,2.37,1083666
2013-07-29,2.35,2.35,2.29,2.3,1924755
2013-07-30,2.3,2.4,2.28,2.28,3660750
2013-07-31,2.3,2.4,2.3,2.39,3354375
2013-08-01,2.4,2.4,2.34,2.36,1430000
2013-08-02,2.38,2.39,2.33,2.35,783269
2013-08-05,2.34,2.35,2.32,2.34,1116000
2013-08-06,2.34,2.37,2.33,2.35,2253375
2013-08-07,2.37,2.39,2.34,2.37,1903251
2013-08-08,2.39,2.43,2.16,2.19,15439091
2013-08-09,2.21,2.25,2.17,2.22,6626308
2013-08-12,2.21,2.23,2.15,2.19,4908993
2013-08-13,2.19,2.2,2.12,2.13,5944490
2013-08-15,2.13,2.19,2.12,2.17,7394200
2013-08-16,2.15,2.17,2.14,2.15,3623250
2013-08-19,2.12,2.19,2.12,2.18,3164610
2013-08-20,2.15,2.17,2.14,2.15,5025162
2013-08-21,2.16,2.17,2.13,2.15,2397272
2013-08-22,2.11,2.14,2.1,2.13,684625
2013-08-23,2.12,2.13,2.11,2.12,1221877
2013-08-26,2.13,2.13,2.06,2.07,4367576
2013-08-27,2.08,2.09,2.04,2.07,2778375
2013-08-28,2.03,2.06,2.0,2.05,4586687
2013-08-29,2.05,2.1,2.05,2.07,1808000
2013-08-30,2.06,2.06,2.04,2.06,2721000
2013-09-02,2.08,2.08,2.05,2.06,2058416
2013-09-03,2.05,2.05,2.02,2.03,2148049
2013-09-04,2.02,2.06,2.01,2.06,3900058
2013-09-05,2.06,2.07,2.04,2.06,2077021
2013-09-06,2.05,2.07,2.04,2.07,1197412
2013-09-09,2.07,2.2,2.07,2.19,7553770
2013-09-10,2.19,2.23,2.14,2.16,4180488
2013-09-11,2.17,2.19,2.14,2.16,1265496
2013-09-12,2.15,2.17,2.15,2.16,1586064
2013-09-13,2.16,2.18,2.11,2.12,1467000
2013-09-16,2.13,2.15,2.11,2.14,691214
2013-09-17,2.15,2.25,2.13,2.2,7028382
2013-09-18,2.23,2.23,2.19,2.21,1923236
2013-09-19,2.22,2.26,2.22,2.24,2940250
2013-09-23,2.2,2.2,2.16,2.19,2275251
2013-09-24,2.19,2.22,2.19,2.2,2793442
2013-09-25,2.19,2.21,2.18,2.21,1188499
2013-09-26,2.2,2.22,2.18,2.21,1219788
2013-09-27,2.21,2.25,2.2,2.23,2466824
2013-09-30,2.22,2.23,2.18,2.22,3407783
2013-10-02,2.22,2.23,2.19,2.2,2741476
2013-10-03,2.2,2.24,2.2,2.22,1596775
2013-10-04,2.2,2.39,2.2,2.37,12014053
2013-10-07,2.37,2.53,2.35,2.51,11427478
2013-10-08,2.5,2.52,2.43,2.45,3157309
2013-10-09,2.46,2.46,2.37,2.37,2764727
2013-10-10,2.39,2.39,2.31,2.35,1987584
2013-10-11,2.38,2.46,2.37,2.41,3928482
2013-10-15,2.44,2.54,2.4,2.51,4147158
2013-10-16,2.5,2.54,2.47,2.51,3585221
2013-10-17,2.5,2.51,2.44,2.46,2972798
2013-10-18,2.48,2.5,2.43,2.48,1587032
2013-10-21,2.48,2.51,2.46,2.47,1559836
2013-10-22,2.47,2.49,2.45,2.48,1122974
2013-10-23,2.47,2.49,2.46,2.48,4201265
2013-10-24,2.49,2.54,2.47,2.52,4887510
2013-10-25,2.51,2.51,2.48,2.5,1500500
2013-10-28,2.48,2.49,2.4,2.42,2031500
2013-10-29,2.42,2.45,2.41,2.42,715800
2013-10-30,2.43,2.45,2.41,2.43,788200
2013-10-31,2.43,2.44,2.41,2.43,1463995
2013-11-01,2.43,2.44,2.41,2.42,682000
2013-11-04,2.41,2.41,2.35,2.36,1153879
2013-11-05,2.38,2.38,2.35,2.38,694875
2013-11-06,2.4,2.58,2.4,2.53,9746575
2013-11-07,2.51,2.54,2.5,2.53,5555483
2013-11-08,2.51,2.54,2.49,2.54,4354143
2013-11-11,2.51,2.52,2.5,2.5,2728375
2013-11-12,2.51,2.52,2.5,2.51,1288550
2013-11-13,2.5,2.52,2.48,2.51,2690062
2013-11-14,2.51,2.51,2.49,2.5,2337608
2013-11-15,2.51,2.52,2.5,2.51,1255401
2013-11-18,2.52,2.52,2.5,2.5,2039736
2013-11-19,2.5,2.51,2.48,2.5,2257103
2013-11-20,2.47,2.53,2.47,2.52,1814834
2013-11-21,2.5,2.52,2.49,2.5,1051650
2013-11-22,2.5,2.5,2.49,2.5,1248932
2013-11-25,2.49,2.5,2.48,2.5,764172
2013-11-26,2.49,2.5,2.48,2.48,1128025
2013-11-27,2.48,2.53,2.48,2.53,2592125
2013-11-28,2.53,2.53,2.5,2.51,1785130
2013-11-29,2.53,2.57,2.51,2.55,4817113
2013-12-02,2.56,2.64,2.52,2.63,6031155
2013-12-03,2.63,2.63,2.55,2.6,3708907
2013-12-04,2.57,2.61,2.49,2.55,3772497
2013-12-05,2.54,2.54,2.51,2.53,1040376
2013-12-06,2.52,2.53,2.48,2.5,1622509
2013-12-09,2.5,2.52,2.47,2.49,1977700
2013-12-10,2.5,2.5,2.46,2.48,641750
2013-12-11,2.46,2.46,2.4,2.42,2095750
2013-12-12,2.42,2.42,2.33,2.35,3771093
2013-12-13,2.32,2.38,2.32,2.34,2648860
2013-12-16,2.35,2.37,2.23,2.29,5636818
2013-12-17,2.3,2.35,2.29,2.32,2636281
2013-12-18,2.32,2.35,2.32,2.35,1496250
2013-12-19,2.36,2.37,2.33,2.33,3899720
2013-12-20,2.33,2.35,2.3,2.34,4433984
2013-12-23,2.35,2.37,2.32,2.37,2379125
2013-12-24,2.35,2.38,2.34,2.36,2255690
2013-12-27,2.35,2.45,2.35,2.43,2503000
2013-12-30,2.43,2.49,2.4,2.49,1491259
2013-12-31,2.49,2.52,2.48,2.49,1270000
2014-01-02,2.49,2.51,2.44,2.47,2702877
2014-01-03,2.48,2.48,2.43,2.47,1441280
2014-01-06,2.45,2.47,2.41,2.46,1637287
2014-01-07,2.45,2.46,2.42,2.44,643881
2014-01-08,2.42,2.46,2.42,2.46,1231762
2014-01-09,2.45,2.49,2.45,2.47,1630000
2014-01-10,2.45,2.5,2.45,2.49,1783011
2014-01-13,2.5,2.55,2.48,2.55,2518500
2014-01-14,2.54,2.55,2.51,2.55,878997
2014-01-15,2.55,2.55,2.51,2.53,1657359
2014-01-16,2.53,2.56,2.52,2.53,3729627
2014-01-17,2.54,2.56,2.53,2.54,1514142
2014-01-20,2.54,2.56,2.52,2.54,1526957
2014-01-21,2.55,2.56,2.52,2.55,4738524
2014-01-22,2.55,2.55,2.51,2.53,3009750
2014-01-23,2.53,2.53,2.45,2.48,4036687
2014-01-24,2.47,2.53,2.45,2.47,1955001
2014-01-27,2.4,2.41,2.36,2.39,4406000
2014-01-28,2.4,2.42,2.39,2.39,1641376
2014-01-29,2.42,2.44,2.38,2.39,4194955
2014-01-30,2.39,2.4,2.3,2.34,2495499
2014-02-04,2.3,2.33,2.28,2.3,893505
2014-02-05,2.27,2.34,2.22,2.24,4834000
2014-02-06,2.26,2.3,2.24,2.29,4235673
2014-02-07,2.3,2.35,2.3,2.34,1909000
2014-02-10,2.35,2.37,2.28,2.29,3022750
2014-02-11,2.29,2.3,2.26,2.29,2728300
2014-02-12,2.29,2.32,2.28,2.3,1554225
2014-02-13,2.31,2.37,2.3,2.36,2099000
2014-02-14,2.35,2.36,2.32,2.33,1317346
2014-02-17,2.35,2.38,2.33,2.37,1320237
2014-02-18,2.38,2.86,2.36,2.61,28250778
2014-02-19,2.6,2.76,2.56,2.65,20424066
2014-02-20,2.65,2.77,2.57,2.76,15588911
2014-02-21,2.77,2.98,2.75,2.87,46214332
2014-02-24,2.87,2.87,2.76,2.76,14841596
2014-02-25,2.77,2.81,2.67,2.72,12167510
2014-02-26,2.75,2.77,2.7,2.76,4627375
2014-02-27,2.76,2.84,2.76,2.81,5551490
2014-02-28,2.84,2.85,2.69,2.82,8654655
2014-03-03,2.8,2.88,2.73,2.84,8552394
2014-03-04,2.83,2.84,2.79,2.8,3609675
2014-03-05,2.79,2.83,2.74,2.8,3543918
2014-03-06,2.77,2.78,2.7,2.72,6637513
2014-03-07,2.74,2.75,2.67,2.75,5449077
2014-03-10,2.71,2.76,2.69,2.75,1806428
2014-03-11,2.76,2.82,2.72,2.79,3727772
2014-03-12,2.8,2.8,2.72,2.77,3772375
2014-03-13,2.72,2.77,2.72,2.76,2422471
2014-03-14,2.73,2.73,2.64,2.71,2913633
2014-03-17,2.74,2.74,2.68,2.71,1235150
2014-03-18,2.73,2.75,2.69,2.71,1530980
2014-03-19,2.7,2.79,2.66,2.7,3709875
2014-03-20,2.72,2.82,2.7,2.76,9838201
2014-03-21,2.78,2.78,2.7,2.74,2440500
2014-03-24,2.74,2.79,2.72,2.79,2951000
2014-03-25,2.79,2.79,2.74,2.77,1814441
2014-03-26,2.78,2.78,2.72,2.77,3821412
2014-03-27,2.78,2.95,2.75,2.91,28999388
2014-03-28,2.9,2.91,2.83,2.87,6014641
2014-03-31,2.89,2.91,2.82,2.9,8780033
2014-04-01,2.88,2.92,2.85,2.89,12028018
2014-04-02,2.9,2.91,2.87,2.91,3462229
2014-04-03,2.91,2.91,2.83,2.9,4689750
2014-04-04,2.9,2.9,2.84,2.88,7583500
2014-04-07,2.88,2.88,2.85,2.86,4446250
2014-04-08,2.87,2.87,2.82,2.86,4067625
2014-04-09,2.86,2.86,2.79,2.8,2270500
2014-04-10,2.79,2.8,2.73,2.78,6690267
2014-04-11,2.78,2.78,2.7,2.73,4465160
2014-04-14,2.71,2.79,2.7,2.78,2696294
2014-04-15,2.76,2.79,2.75,2.79,1423375
2014-04-16,2.77,2.81,2.77,2.8,2011401
2014-04-17,2.79,2.82,2.78,2.8,1324792
2014-04-22,2.8,2.81,2.75,2.77,913750
2014-04-23,2.76,2.82,2.76,2.78,886752
2014-04-24,2.78,2.81,2.76,2.78,993571
2014-04-25,2.79,2.79,2.74,2.75,1779827
2014-04-28,2.76,2.79,2.62,2.64,8883000
2014-04-29,2.58,2.58,2.53,2.58,2283001
2014-04-30,2.61,2.7,2.57,2.68,4195000
2014-05-02,2.67,2.67,2.61,2.64,2398000
2014-05-05,2.66,2.66,2.58,2.58,1867375
2014-05-07,2.57,2.6,2.49,2.52,2051184
2014-05-08,2.53,2.55,2.51,2.52,1356500
2014-05-09,2.5,2.52,2.46,2.5,1347516
2014-05-12,2.49,2.58,2.48,2.53,2472582
2014-05-13,2.55,2.65,2.55,2.62,5629177
2014-05-14,2.67,2.72,2.62,2.69,4765100
2014-05-15,2.73,2.73,2.66,2.69,588000
2014-05-16,2.66,2.71,2.66,2.7,713967
2014-05-19,2.7,2.7,2.66,2.66,274118
2014-05-20,2.67,2.7,2.65,2.67,723940
2014-05-21,2.67,2.7,2.66,2.69,1362002
2014-05-22,2.7,2.71,2.67,2.69,865875
2014-05-23,2.71,2.74,2.7,2.73,1699250
2014-05-26,2.73,2.75,2.7,2.7,896250
2014-05-27,2.71,2.72,2.68,2.69,792001
2014-05-28,2.73,2.73,2.67,2.72,1744276
2014-05-29,2.73,2.73,2.69,2.7,1754069
2014-05-30,2.72,2.72,2.68,2.7,1150000
2014-06-03,2.7,2.71,2.66,2.67,708624
2014-06-04,2.69,2.69,2.66,2.67,649000
2014-06-05,2.68,2.7,2.66,2.68,528971
2014-06-06,2.7,2.7,2.65,2.68,668238
2014-06-09,2.77,2.79,2.73,2.78,3804104
2014-06-10,2.8,2.8,2.74,2.75,988294
2014-06-11,2.79,2.79,2.76,2.78,473425
2014-06-12,2.79,2.87,2.76,2.84,2500379
2014-06-13,2.85,2.86,2.83,2.86,3090682
2014-06-16,2.94,2.95,2.87,2.88,3098438
2014-06-17,2.9,2.95,2.84,2.94,5125676
2014-06-18,2.92,3.03,2.92,2.98,6363911
2014-06-19,2.98,3.05,2.93,3.02,8004717
2014-06-20,3.01,3.01,2.97,3.01,3229963
2014-06-23,3.01,3.01,2.9,2.92,2435330
2014-06-24,2.94,2.94,2.87,2.93,2053600
2014-06-25,2.92,2.99,2.9,2.98,3877673
2014-06-26,2.95,3.0,2.94,2.99,2859765
2014-06-27,2.99,2.99,2.95,2.97,962560
2014-06-30,2.93,2.96,2.9,2.92,915418
2014-07-02,2.92,2.96,2.88,2.95,3402464
2014-07-03,2.95,2.95,2.92,2.95,1617832
2014-07-04,2.95,2.98,2.92,2.94,1243034
2014-07-07,2.95,2.95,2.9,2.91,789751
2014-07-08,2.95,2.95,2.89,2.9,969194
2014-07-09,2.91,2.93,2.88,2.89,1385064
2014-07-10,2.91,2.91,2.82,2.84,1732000
2014-07-11,2.82,2.91,2.81,2.86,2690375
2014-07-14,2.87,2.9,2.83,2.88,1218728
2014-07-15,2.89,2.89,2.85,2.88,418250
2014-07-16,2.88,2.9,2.84,2.89,1096795
2014-07-17,2.91,2.91,2.86,2.88,643550
2014-07-18,2.87,2.88,2.85,2.87,453500
2014-07-21,2.87,2.89,2.85,2.87,1203625
2014-07-22,2.86,2.89,2.86,2.87,679750
2014-07-23,2.86,2.95,2.86,2.92,2929505
2014-07-24,2.94,2.94,2.87,2.87,1449279
2014-07-25,2.88,2.88,2.81,2.82,2493642
2014-07-28,2.83,2.86,2.82,2.84,1459002
2014-07-29,2.84,2.84,2.81,2.83,1050805
2014-07-30,2.83,2.86,2.83,2.84,638886
2014-07-31,2.86,2.86,2.78,2.79,1422264
2014-08-01,2.8,2.87,2.8,2.82,1493790
2014-08-04,2.83,2.84,2.8,2.81,1031892
2014-08-05,2.8,2.84,2.8,2.82,700000
2014-08-06,2.8,2.85,2.8,2.81,613125
2014-08-07,2.81,2.83,2.65,2.69,3302500
2014-08-08,2.7,2.85,2.69,2.83,2927875
2014-08-11,2.87,2.87,2.8,2.85,2211276
2014-08-12,2.83,2.86,2.81,2.84,1123468
2014-08-13,2.87,2.93,2.84,2.93,3287372
2014-08-14,2.93,2.95,2.88,2.92,4528056
2014-08-15,2.94,3.06,2.91,3.02,5193598
2014-08-18,3.0,3.06,2.96,3.06,6207621
2014-08-19,3.07,3.12,3.04,3.07,4845611
2014-08-20,3.07,3.08,3.03,3.08,2088671
2014-08-21,3.09,3.11,3.04,3.1,4980015
2014-08-22,3.1,3.14,3.07,3.1,6349800
2014-08-25,3.07,3.13,3.03,3.08,3926874
2014-08-26,3.06,3.15,3.06,3.15,3273552
2014-08-27,3.14,3.2,3.13,3.2,3274034
2014-08-28,3.21,3.21,3.06,3.07,3128697
2014-08-29,3.06,3.12,3.02,3.11,5127928
2014-09-01,3.09,3.19,3.08,3.16,3369131
2014-09-02,3.14,3.18,3.13,3.14,4035507
2014-09-03,3.16,3.16,3.08,3.13,4222113
2014-09-04,3.14,3.14,3.1,3.12,1424387
2014-09-05,3.14,3.15,3.1,3.11,1882615
2014-09-08,3.13,3.14,3.09,3.1,415502
2014-09-10,3.09,3.1,3.08,3.08,842500
2014-09-11,3.09,3.1,3.02,3.03,2489925
2014-09-12,3.03,3.06,3.03,3.04,3416478
2014-09-15,3.03,3.09,3.01,3.09,2794184
2014-09-16,3.11,3.17,3.06,3.08,1561808
2014-09-17,3.08,3.1,3.03,3.09,1706636
2014-09-18,3.08,3.09,3.05,3.07,511284
2014-09-19,3.07,3.11,3.07,3.09,2409003
2014-09-22,3.09,3.14,3.04,3.11,4180368
2014-09-23,3.07,3.07,3.01,3.04,3893032
2014-09-24,3.05,3.07,3.0,3.06,2796876
2014-09-25,3.06,3.1,3.04,3.06,2474575
2014-09-26,3.06,3.09,3.03,3.07,1190000
2014-09-29,3.02,3.05,2.94,2.95,6228983
2014-09-30,2.94,2.95,2.88,2.91,1954375
2014-10-03,2.87,2.93,2.85,2.91,1669875
2014-10-06,2.95,2.99,2.94,2.98,2398554
2014-10-07,3.0,3.08,2.99,3.08,2345609
2014-10-08,3.05,3.05,3.01,3.03,1374100
2014-10-09,3.03,3.07,2.95,2.99,3315604
2014-10-10,2.95,2.98,2.94,2.96,2609894
2014-10-13,2.96,2.99,2.94,2.97,1872001
2014-10-14,2.97,2.98,2.95,2.96,2706750
2014-10-15,2.96,2.98,2.95,2.97,813800
2014-10-16,2.97,2.97,2.94,2.95,3294087
2014-10-17,2.95,2.96,2.92,2.93,3651568
2014-10-20,2.95,2.95,2.92,2.93,5554247
2014-10-21,2.94,2.94,2.89,2.9,5134000
2014-10-22,2.93,2.93,2.9,2.92,4033695
2014-10-23,2.92,2.92,2.84,2.85,2274653
2014-10-24,2.9,2.9,2.85,2.88,1822540
2014-10-27,2.88,2.89,2.85,2.87,4440744
2014-10-28,2.88,2.93,2.88,2.92,1505872
2014-10-29,2.94,2.96,2.92,2.93,1856000
2014-10-30,2.92,2.95,2.91,2.94,1407842
2014-10-31,2.94,3.1,2.93,3.09,7449987
2014-11-03,3.08,3.1,3.05,3.1,1141627
2014-11-04,3.07,3.08,3.03,3.05,6310622
2014-11-05,3.06,3.09,3.0,3.08,3629894
2014-11-06,3.09,3.1,3.07,3.07,767175
2014-11-07,3.07,3.08,3.05,3.07,1018525
2014-11-10,3.1,3.1,3.05,3.07,834071
2014-11-11,3.07,3.1,3.07,3.08,739059
2014-11-12,3.07,3.13,3.07,3.13,1554768
2014-11-13,3.13,3.13,3.08,3.12,2943071
2014-11-14,3.11,3.12,3.07,3.11,11143327
2014-11-17,3.11,3.12,3.09,3.1,3150403
2014-11-18,3.1,3.1,3.06,3.08,1217751
2014-11-19,3.06,3.14,3.06,3.13,4875049
2014-11-20,3.14,3.14,3.1,3.12,3019811
2014-11-21,3.11,3.21,3.09,3.2,7769296
2014-11-24,3.24,3.27,3.2,3.25,10078193
2014-11-25,3.23,3.25,3.2,3.25,2280066
2014-11-26,3.27,3.28,3.25,3.26,4306422
2014-11-27,3.25,3.26,3.22,3.25,1079252
2014-11-28,3.24,3.24,3.17,3.2,2755677
2014-12-01,3.2,3.2,3.15,3.18,1505250
2014-12-02,3.16,3.18,3.14,3.16,3435625
2014-12-03,3.17,3.17,3.12,3.14,4051332
2014-12-04,3.14,3.16,3.13,3.14,2861175
2014-12-05,3.15,3.15,3.09,3.14,2747743
2014-12-08,3.15,3.15,2.99,3.06,6135814
2014-12-09,3.07,3.1,3.01,3.06,5170999
2014-12-10,3.03,3.05,3.0,3.04,2330192
2014-12-11,3.04,3.09,2.97,3.07,5616466
2014-12-12,3.07,3.14,3.06,3.13,4394530
2014-12-15,3.1,3.1,3.03,3.05,7515864
2014-12-16,3.05,3.06,3.03,3.04,3675587
2014-12-17,3.04,3.07,2.93,3.0,5344250
2014-12-18,3.0,3.05,2.93,2.96,3942375
2014-12-19,2.99,2.99,2.9,2.92,2705000
2014-12-22,2.91,2.98,2.91,2.93,2529811
2014-12-23,2.92,2.94,2.91,2.94,2961375
2014-12-24,2.95,2.95,2.9,2.92,551000
2014-12-29,2.92,2.97,2.9,2.93,1198383
2014-12-30,2.92,2.94,2.89,2.89,947545
2014-12-31,2.89,2.92,2.88,2.91,1003500
2015-01-02,2.9,2.9,2.77,2.78,7414339
2015-01-05,2.78,2.79,2.64,2.67,7551180
2015-01-06,2.64,2.64,2.54,2.58,8060752
2015-01-07,2.58,2.6,2.45,2.58,6620500
2015-01-08,2.6,2.62,2.58,2.61,4850810
2015-01-09,2.62,2.67,2.62,2.66,4396698
2015-01-12,2.68,2.68,2.58,2.59,1640000
2015-01-13,2.6,2.63,2.58,2.6,2282840
2015-01-14,2.62,2.62,2.59,2.61,1622867
2015-01-15,2.61,2.61,2.59,2.6,4978750
2015-01-16,2.56,2.59,2.52,2.52,2881000
2015-01-17,3.09,3.09,3.09,3.09,0
2015-01-19,2.53,2.53,2.33,2.35,5991124
2015-01-20,2.36,2.37,2.32,2.34,8494875
2015-01-21,2.36,2.46,2.36,2.44,6485125
2015-01-22,2.45,2.47,2.38,2.4,2373275
2015-01-23,2.39,2.41,2.33,2.34,6102850
2015-01-26,2.35,2.35,2.28,2.28,5568000
2015-01-27,2.3,2.31,2.28,2.31,8074030
2015-01-28,2.31,2.41,2.31,2.4,21061406
2015-01-29,2.4,2.44,2.36,2.4,4800000
2015-01-30,2.42,2.42,2.37,2.41,5642663
2015-02-02,2.4,2.44,2.38,2.39,2273112
2015-02-03,2.41,2.42,2.36,2.37,2647075
2015-02-04,2.4,2.44,2.38,2.39,3123525
2015-02-05,2.42,2.55,2.41,2.53,9469500
2015-02-06,2.53,2.53,2.45,2.46,4234000
2015-02-09,2.47,2.47,2.39,2.43,4108875
2015-02-10,2.42,2.48,2.41,2.43,3265525
2015-02-11,2.42,2.47,2.42,2.46,2585596
2015-02-12,2.47,2.5,2.44,2.49,3277751
2015-02-13,2.48,2.62,2.48,2.6,17481876
2015-02-16,2.6,2.6,2.5,2.5,9650600
2015-02-17,2.52,2.56,2.52,2.54,6687000
2015-02-18,2.54,2.55,2.53,2.54,2107719
2015-02-23,2.54,2.57,2.53,2.54,2695375
2015-02-24,2.54,2.55,2.5,2.5,2861000
2015-02-25,2.53,2.62,2.52,2.62,39878344
2015-02-26,2.65,2.68,2.62,2.66,9115232
2015-02-27,2.68,2.72,2.64,2.7,7933000
2015-03-02,2.72,2.72,2.62,2.64,6337312
2015-03-03,2.63,2.63,2.56,2.61,4285009
2015-03-04,2.6,2.61,2.57,2.57,4247625
2015-03-05,2.57,2.66,2.57,2.64,12321267
2015-03-06,2.66,2.66,2.6,2.66,8956755
2015-03-09,2.65,2.67,2.61,2.64,7293546
2015-03-10,2.61,2.64,2.53,2.55,10946643
2015-03-11,2.53,2.57,2.49,2.5,9162000
2015-03-12,2.5,2.53,2.5,2.52,6667672
2015-03-13,2.54,2.59,2.53,2.58,5835931
2015-03-16,2.6,2.6,2.53,2.6,5795128
2015-03-17,2.6,2.64,2.58,2.63,4303196
2015-03-18,2.61,2.63,2.58,2.6,2022707
2015-03-19,2.6,2.62,2.59,2.62,4026571
2015-03-20,2.62,2.63,2.59,2.62,4866900
2015-03-23,2.63,2.63,2.59,2.59,2708250
2015-03-24,2.61,2.62,2.6,2.61,4162807
2015-03-25,2.62,2.8,2.6,2.7,8545889
2015-03-26,2.7,2.73,2.67,2.67,11584525
2015-03-27,2.69,2.72,2.68,2.71,5579996
2015-03-30,2.72,2.79,2.7,2.75,6775785
2015-03-31,2.78,2.83,2.74,2.79,5233750
2015-04-01,2.77,2.89,2.77,2.87,9290218
2015-04-02,2.87,2.9,2.84,2.9,4435844
2015-04-08,2.92,2.93,2.86,2.92,19861288
2015-04-09,2.94,3.01,2.9,2.97,13874982
2015-04-10,2.96,3.0,2.92,2.97,9794109
2015-04-13,2.98,3.0,2.94,2.98,7967913
2015-04-14,2.95,3.07,2.95,3.04,11605509
2015-04-15,3.07,3.13,2.77,3.11,18919400
2015-04-16,3.16,3.19,3.12,3.18,24296712
2015-04-17,3.19,3.23,3.06,3.09,25846152
2015-04-20,3.05,3.06,2.92,2.95,10564501
2015-04-21,2.99,3.04,2.95,3.0,8354250
2015-04-22,3.02,3.02,2.98,2.99,29769124
2015-04-23,3.0,3.0,2.92,2.96,5906928
2015-04-24,2.97,3.02,2.96,3.01,10990573
2015-04-27,3.02,3.25,3.02,3.2,24212736
2015-04-28,3.2,3.23,3.11,3.13,6412272
2015-04-29,3.15,3.18,3.11,3.16,7080067
2015-04-30,3.16,3.2,3.14,3.2,9048264
2015-05-04,3.2,3.25,3.14,3.25,8511144
2015-05-05,3.26,3.26,3.16,3.23,8933804
2015-05-06,3.25,3.25,3.14,3.18,5344997
2015-05-07,3.15,3.18,3.0,3.07,8494820
2015-05-08,3.09,3.11,3.03,3.1,3856817
2015-05-11,3.12,3.34,3.12,3.26,14957199
2015-05-12,3.27,3.28,3.15,3.17,7480200
2015-05-13,3.2,3.2,3.13,3.15,4877500
2015-05-14,3.18,3.31,3.13,3.31,6655949
2015-05-15,3.33,3.33,3.27,3.32,5298745
2015-05-18,3.32,3.51,3.29,3.5,16617706
2015-05-19,3.52,3.56,3.45,3.55,5941697
2015-05-20,3.55,3.6,3.49,3.6,6909994
2015-05-21,3.56,3.59,3.52,3.56,4636327
2015-05-22,3.56,3.74,3.55,3.72,9683470
2015-05-26,3.75,3.84,3.7,3.83,9329400
2015-05-27,3.79,3.96,3.75,3.9,8371881
2015-05-28,3.95,4.2,3.92,3.96,55152040
2015-05-29,3.96,4.06,3.95,4.02,18579920
2015-06-01,4.0,4.31,4.0,4.29,12860827
2015-06-02,4.29,4.42,4.2,4.35,23199560
2015-06-03,4.35,4.39,4.11,4.14,24937358
2015-06-04,4.15,4.24,4.0,4.07,16657849
2015-06-05,4.11,4.14,4.01,4.02,4088704
2015-06-08,4.0,4.07,3.78,3.87,14241083
2015-06-09,3.88,3.88,3.6,3.68,25687842
2015-06-10,3.65,4.02,3.61,3.94,13711158
2015-06-11,3.95,4.08,3.94,3.99,5541968
2015-06-12,4.05,4.29,3.99,4.27,12179601
2015-06-15,4.24,4.27,4.06,4.15,5954324
2015-06-16,4.11,4.16,3.83,3.9,9112915
2015-06-17,3.93,3.93,3.77,3.85,8355750
2015-06-18,3.88,3.91,3.83,3.88,12361000
2015-06-19,3.88,3.97,3.71,3.72,11611262
2015-06-22,3.71,3.86,3.66,3.86,5256955
2015-06-23,3.8,3.88,3.74,3.76,7908927
2015-06-24,3.74,3.78,3.68,3.75,9119923
2015-06-25,3.75,3.77,3.66,3.66,7625500
2015-06-26,3.69,3.69,3.51,3.56,9076621
2015-06-29,3.49,3.58,3.25,3.28,15132251
2015-06-30,3.3,3.67,3.3,3.6,7464312
2015-07-02,3.57,3.66,3.35,3.5,11201375
2015-07-03,3.55,3.55,3.36,3.37,3342376
2015-07-06,3.41,3.51,3.0,3.14,9228750
2015-07-07,3.19,3.26,2.99,3.06,14657307
2015-07-08,2.86,3.13,2.75,2.93,20162534
2015-07-09,2.85,3.42,2.85,3.41,6661181
2015-07-10,3.18,3.51,3.18,3.43,5825087
2015-07-13,3.43,3.57,3.42,3.53,4977000
2015-07-14,3.6,3.6,3.48,3.51,4480077
2015-07-15,3.51,3.55,3.48,3.5,3634750
2015-07-16,3.32,3.53,3.32,3.5,3249048
2015-07-17,3.54,3.55,3.48,3.55,651000
2015-07-20,3.55,3.62,3.55,3.59,1781576
2015-07-21,3.6,3.65,3.54,3.62,3587875
2015-07-22,3.55,3.66,3.54,3.58,2864209
2015-07-23,3.56,3.93,3.56,3.8,7593004
2015-07-24,3.71,3.92,3.71,3.84,3445501
2015-07-27,3.85,3.85,3.42,3.53,10551765
2015-07-28,3.43,3.68,3.43,3.5,2594250
2015-07-29,3.57,3.6,3.5,3.55,2613396
2015-07-30,3.55,3.63,3.54,3.55,1891000
2015-07-31,3.54,3.59,3.52,3.55,616875
2015-08-03,3.53,3.61,3.49,3.59,1929000
2015-08-04,3.52,3.88,3.52,3.78,2861814
2015-08-05,3.84,3.84,3.71,3.75,2635630
2015-08-06,3.9,3.9,3.63,3.66,1935234
2015-08-07,3.62,3.72,3.58,3.61,1916750
2015-08-10,3.63,3.63,3.52,3.58,2069287
2015-08-11,3.56,3.61,3.55,3.58,694953
2015-08-12,3.59,3.59,3.43,3.44,1532000
2015-08-13,3.42,3.44,3.27,3.29,2760808
2015-08-14,3.31,3.63,3.31,3.51,6186887
2015-08-17,3.54,3.54,3.42,3.47,761525
2015-08-18,3.44,3.58,3.34,3.5,3005876
2015-08-19,3.58,3.59,3.47,3.54,2434000
2015-08-20,3.47,3.53,3.21,3.32,3830251
2015-08-21,3.15,3.33,3.15,3.24,7783489
2015-08-24,3.15,3.16,2.89,2.91,6415900
2015-08-25,2.95,3.1,2.9,3.0,9126000
2015-08-26,3.03,3.05,2.51,2.55,23101000
2015-08-27,2.67,2.75,2.63,2.7,17843214
2015-08-28,2.75,2.8,2.5,2.52,18582328
2015-08-31,2.5,2.54,2.42,2.48,4799125
2015-09-01,2.43,2.53,2.43,2.47,4922375
2015-09-02,2.46,2.46,2.34,2.42,8182000
2015-09-04,2.42,2.52,2.39,2.44,4905000
2015-09-07,2.44,2.5,2.42,2.44,20580000
2015-09-08,2.48,2.56,2.44,2.55,6584000
2015-09-09,2.52,2.64,2.48,2.58,10264510
2015-09-10,2.55,2.55,2.43,2.44,10260266
2015-09-11,2.41,2.49,2.4,2.43,7513000
2015-09-14,2.43,2.46,2.36,2.42,2870000
2015-09-15,2.42,2.45,2.4,2.43,2461000
2015-09-16,2.45,2.62,2.42,2.57,7032000
2015-09-17,2.57,2.6,2.5,2.5,2082376
2015-09-18,2.53,2.58,2.52,2.52,2960656
2015-09-21,2.52,2.52,2.46,2.47,1324000
2015-09-22,2.47,2.52,2.46,2.5,4466750
2015-09-23,2.51,2.65,2.51,2.58,9971859
2015-09-24,2.62,2.69,2.54,2.55,7653000
2015-09-25,2.56,2.63,2.53,2.62,20261000
2015-09-29,2.56,2.58,2.52,2.56,3179376
2015-09-30,2.58,2.7,2.55,2.65,5226000
2015-10-02,2.63,2.76,2.63,2.74,4109751
2015-10-05,2.75,2.8,2.69,2.75,2369925
2015-10-06,2.75,2.8,2.7,2.72,1143000
2015-10-07,2.7,2.88,2.69,2.87,5170350
2015-10-08,2.9,2.93,2.84,2.88,4520625
2015-10-09,2.91,2.97,2.89,2.93,3527535
2015-10-12,2.95,3.0,2.89,2.97,2316050
2015-10-13,2.99,2.99,2.79,2.8,3349000
2015-10-14,2.8,2.88,2.78,2.84,2296100
2015-10-15,2.8,2.88,2.77,2.88,1641626
2015-10-16,2.95,3.05,2.88,3.02,9254820
2015-10-19,3.06,3.06,2.9,2.95,2338375
2015-10-20,2.99,2.99,2.93,2.97,1932650
2015-10-22,2.97,3.01,2.94,3.01,3348560
2015-10-23,2.99,3.14,2.99,3.14,3467000
2015-10-26,3.1,3.18,2.99,3.0,3103100
2015-10-27,3.02,3.13,3.0,3.13,2060375
2015-10-28,3.08,3.25,3.08,3.16,7043280
2015-10-29,3.16,3.33,3.16,3.33,5305213
2015-10-30,3.36,3.36,3.2,3.22,2656000
2015-11-02,3.35,3.35,3.22,3.31,3641886
2015-11-03,3.35,3.4,3.3,3.35,3186502
2015-11-04,3.35,3.47,3.31,3.43,6829957
2015-11-05,3.43,3.44,3.35,3.37,1404412
2015-11-06,3.39,3.44,3.33,3.44,1870864
2015-11-09,3.45,3.45,3.35,3.36,1994000
2015-11-10,3.35,3.35,3.18,3.19,4186250
2015-11-11,3.15,3.19,3.02,3.1,5892000
2015-11-12,3.15,3.17,3.02,3.12,8440776
2015-11-13,3.1,3.15,3.07,3.14,1350000
2015-11-16,3.0,3.12,3.0,3.11,1720294
2015-11-17,3.14,3.17,3.05,3.06,2124098
2015-11-18,3.11,3.15,3.05,3.15,1508000
2015-11-19,3.19,3.22,3.15,3.19,687025
2015-11-20,3.23,3.23,3.15,3.22,682000
2015-11-23,3.23,3.23,3.08,3.16,2193000
2015-11-24,3.21,3.24,3.17,3.21,1053450
2015-11-25,3.24,3.24,3.11,3.15,2981000
2015-11-26,3.17,3.17,3.06,3.1,2015080
2015-11-27,3.14,3.14,3.05,3.07,2666797
2015-11-30,3.1,3.1,2.9,2.99,9853000
2015-12-01,3.03,3.07,3.0,3.06,1235750
2015-12-02,3.04,3.08,3.04,3.06,824401
2015-12-03,3.02,3.07,3.02,3.07,1445307
2015-12-04,3.05,3.11,3.01,3.1,3592000
2015-12-07,3.07,3.07,3.0,3.01,1208500
2015-12-08,3.04,3.07,2.91,2.98,2049601
2015-12-09,3.02,3.02,2.94,2.96,1425750
2015-12-10,2.96,3.02,2.9,2.94,1482750
2015-12-11,2.95,2.95,2.84,2.87,2773000
2015-12-14,3.0,3.0,2.75,2.82,3928707
2015-12-15,2.8,2.83,2.78,2.78,1958628
2015-12-16,2.83,2.92,2.82,2.92,864389
2015-12-17,2.93,3.0,2.92,2.97,857376
2015-12-18,2.91,3.01,2.9,2.93,1552906
2015-12-21,2.94,2.99,2.94,2.96,405002
2015-12-22,2.94,2.99,2.93,2.94,874250
2015-12-23,2.97,2.97,2.9,2.92,1328000
2015-12-24,2.94,2.94,2.88,2.9,852000
2015-12-28,2.92,2.98,2.9,2.91,1370000
2015-12-29,2.95,3.02,2.92,2.94,435376
2015-12-30,2.98,2.99,2.94,2.95,2612957
2015-12-31,2.92,2.96,2.92,2.96,112000
2016-01-04,2.92,2.96,2.87,2.9,508000
2016-01-05,2.89,2.93,2.87,2.9,727047
2016-01-06,2.96,2.96,2.88,2.93,864000
2016-01-07,2.92,2.96,2.84,2.89,1454000
2016-01-08,2.9,2.92,2.87,2.92,524137
2016-01-11,2.86,2.93,2.74,2.78,3666375
2016-01-12,2.78,2.81,2.69,2.69,2855750
2016-01-13,2.74,2.75,2.62,2.69,2268000
2016-01-14,2.64,2.66,2.6,2.63,1122500
2016-01-15,2.64,2.68,2.64,2.68,1108500
2016-01-18,2.64,2.7,2.61,2.65,1794910
2016-01-19,2.67,2.67,2.56,2.67,4259000
2016-01-20,2.66,2.66,2.57,2.59,2691000
2016-01-21,2.66,2.66,2.47,2.47,2979000
2016-01-22,2.52,2.52,2.46,2.48,2140000
2016-01-25,2.5,2.58,2.5,2.55,1852001
2016-01-26,2.58,2.58,2.5,2.55,652000
2016-01-27,2.55,2.68,2.55,2.68,3983375
2016-01-28,2.67,2.67,2.54,2.56,723000
2016-01-29,2.62,2.68,2.57,2.68,5784000
2016-02-01,2.69,2.8,2.68,2.78,38121000
2016-02-02,2.78,2.8,2.73,2.75,1190000
2016-02-03,2.71,2.74,2.64,2.68,856017
2016-02-04,2.66,2.7,2.56,2.58,2773000
2016-02-05,2.6,2.7,2.6,2.69,1778000
2016-02-11,2.54,2.62,2.54,2.61,542000
2016-02-12,2.6,2.62,2.54,2.59,1567286
2016-02-15,2.61,2.69,2.57,2.67,2050000
2016-02-16,2.71,2.71,2.58,2.62,1230000
2016-02-17,2.64,2.64,2.54,2.57,1681000
2016-02-18,2.61,2.65,2.59,2.63,2374062
2016-02-19,2.64,2.64,2.59,2.61,1427400
2016-02-22,2.64,2.7,2.59,2.7,917375
2016-02-23,2.73,2.78,2.7,2.77,3416000
2016-02-24,2.74,2.86,2.74,2.81,2360000
2016-02-25,2.83,2.99,2.81,2.95,4474501
2016-02-26,2.92,3.0,2.92,2.99,2219276
2016-02-29,2.97,3.15,2.97,3.11,6877000
2016-03-01,3.1,3.2,3.1,3.15,5457000
2016-03-02,3.2,3.21,3.08,3.13,4798000
2016-03-03,3.14,3.18,3.11,3.17,5287000
2016-03-04,3.17,3.2,3.15,3.18,2104592
2016-03-07,3.19,3.24,3.17,3.18,5335000
2016-03-08,3.2,3.21,3.14,3.16,1958567
2016-03-09,3.11,3.2,3.11,3.16,2791899
2016-03-10,3.18,3.2,3.15,3.17,1224250
2016-03-11,3.14,3.23,3.14,3.2,3087375
2016-03-14,3.24,3.31,3.21,3.26,3334560
2016-03-15,3.24,3.3,3.24,3.29,751726
2016-03-16,3.29,3.3,3.23,3.27,822475
2016-03-17,3.28,3.29,3.23,3.26,939098
2016-03-18,3.25,3.38,3.25,3.33,1837935
2016-03-21,3.34,3.34,3.17,3.22,4351937
2016-03-22,3.25,3.25,3.03,3.09,5492845
2016-03-23,3.1,3.1,3.05,3.07,4753233
2016-03-24,3.04,3.07,3.01,3.02,1120067
2016-03-29,3.01,3.07,3.01,3.06,2841432
2016-03-30,3.1,3.1,3.01,3.04,4949000
2016-03-31,3.08,3.08,2.9,2.92,6295532
2016-04-01,2.93,2.93,2.78,2.89,5942000
2016-04-05,2.88,3.04,2.85,2.99,4047500
2016-04-06,2.98,3.03,2.98,3.03,2210375
2016-04-07,3.02,3.05,3.01,3.03,1138000
2016-04-08,2.96,3.08,2.96,3.08,2062255
2016-04-11,3.08,3.09,3.04,3.08,1541888
2016-04-12,3.05,3.1,3.02,3.1,1162000
2016-04-13,3.12,3.2,3.08,3.2,2543000
2016-04-14,3.22,3.22,3.13,3.19,1579375
2016-04-15,3.18,3.2,3.16,3.19,852877
2016-04-18,3.16,3.23,3.14,3.22,1367297
2016-04-19,3.25,3.25,3.13,3.14,1905532
2016-04-20,3.14,3.21,3.12,3.19,1056071
2016-04-21,3.2,3.2,3.15,3.17,2152122
2016-04-22,3.2,3.24,3.18,3.21,1994000
2016-04-25,3.22,3.27,3.18,3.24,4028756
2016-04-26,3.27,3.27,3.2,3.26,2815400
2016-04-27,3.28,3.29,3.2,3.23,492250
2016-04-28,3.23,3.28,3.17,3.23,1749788
2016-04-29,3.21,3.25,3.12,3.23,1018000
2016-05-03,3.23,3.24,3.13,3.23,1712000
2016-05-04,3.22,3.22,3.15,3.19,1074797
2016-05-05,3.15,3.18,3.08,3.13,3845238
2016-05-06,3.2,3.21,3.11,3.21,1325741
2016-05-09,3.22,3.26,3.14,3.23,1819234
2016-05-10,3.23,3.23,3.13,3.18,1564250
2016-05-11,3.23,3.24,3.14,3.23,1121945
2016-05-12,3.25,3.25,3.16,3.17,1153000
2016-05-13,3.2,3.2,3.08,3.12,1702000
2016-05-16,3.12,3.17,3.07,3.08,2282000
2016-05-17,3.08,3.12,3.04,3.12,2580000
2016-05-18,3.03,3.05,2.98,3.0,800750
2016-05-19,2.98,3.03,2.98,3.02,934380
2016-05-20,3.09,3.09,3.0,3.05,1046040
2016-05-23,3.04,3.11,3.02,3.09,975500
2016-05-24,3.02,3.05,3.01,3.04,1880050
2016-05-25,3.06,3.1,3.01,3.09,654000
2016-05-26,3.02,3.13,3.02,3.11,880000
2016-05-27,3.06,3.12,3.04,3.12,983000
2016-05-30,3.14,3.14,3.06,3.07,608000
2016-05-31,3.05,3.25,3.01,3.13,2543000
2016-06-01,3.12,3.18,3.12,3.14,1081297
2016-06-02,3.12,3.18,3.08,3.17,876000
2016-06-03,3.17,3.19,3.1,3.15,893388
2016-06-06,3.17,3.17,3.1,3.11,3089000
2016-06-07,3.14,3.14,3.11,3.14,1234428
2016-06-08,3.15,3.18,3.13,3.15,1449147
2016-06-10,3.16,3.2,3.13,3.17,1777995
2016-06-13,3.12,3.14,2.92,3.02,3695469
2016-06-14,3.01,3.02,2.96,2.98,2225183
2016-06-15,2.98,3.03,2.96,2.98,938050
2016-06-16,2.98,2.99,2.9,2.91,1366197
2016-06-17,2.94,3.0,2.92,2.95,2633121
2016-06-20,2.96,2.97,2.93,2.95,1598634
2016-06-21,2.95,2.95,2.92,2.93,463823
2016-06-22,2.93,2.95,2.88,2.94,1150837
2016-06-23,2.97,3.0,2.95,2.98,1627000
2016-06-24,2.94,2.95,2.87,2.91,2279000
2016-06-27,2.88,2.91,2.87,2.9,1246626
2016-06-28,2.86,2.88,2.84,2.86,537000
2016-06-29,2.87,2.87,2.83,2.85,1291825
2016-06-30,2.87,2.94,2.86,2.92,1934000
2016-07-04,2.91,2.99,2.9,2.98,899000
2016-07-05,2.98,2.99,2.95,2.95,434233
2016-07-06,2.93,2.94,2.89,2.91,1771250
2016-07-07,2.91,2.97,2.9,2.96,1213838
2016-07-08,2.93,2.97,2.93,2.96,307510
2016-07-11,3.0,3.0,2.91,2.96,2309000
2016-07-12,2.97,3.0,2.96,2.99,1884000
2016-07-13,3.0,3.01,2.95,2.97,2126375
2016-07-14,2.95,3.0,2.94,3.0,1930418
2016-07-15,3.0,3.03,2.99,3.01,1931000
2016-07-18,3.01,3.1,3.01,3.04,6405050
2016-07-19,3.05,3.08,3.02,3.03,1335000
2016-07-20,3.05,3.05,2.98,2.98,803000
2016-07-21,2.97,2.98,2.9,2.92,2799400
2016-07-22,2.9,2.93,2.88,2.9,2036375
2016-07-25,2.92,2.98,2.9,2.96,1212000
2016-07-26,2.97,2.98,2.94,2.97,1181000
2016-07-27,2.99,2.99,2.9,2.91,1049625
2016-07-28,2.93,2.98,2.91,2.94,1057767
2016-07-29,2.94,2.96,2.9,2.92,1024800
2016-08-01,2.93,2.95,2.89,2.92,1060075
2016-08-03,2.9,2.94,2.88,2.92,2394000
2016-08-04,2.92,2.92,2.88,2.9,2147375
2016-08-05,2.9,2.93,2.85,2.9,2774603
2016-08-08,2.91,2.91,2.88,2.89,1440670
2016-08-09,2.91,2.93,2.88,2.91,705000
2016-08-10,2.91,2.92,2.89,2.92,707101
2016-08-11,2.91,2.92,2.88,2.91,2692746
2016-08-12,2.93,2.97,2.88,2.95,2014438
2016-08-15,2.96,3.04,2.95,3.04,1631750
2016-08-16,3.01,3.05,2.99,2.99,1637455
2016-08-17,2.98,2.99,2.87,2.89,4433176
2016-08-18,2.91,2.91,2.89,2.89,1382557
2016-08-19,2.91,2.96,2.89,2.94,2260138
2016-08-22,2.94,2.95,2.9,2.9,1097461
2016-08-23,2.89,2.92,2.88,2.9,1824728
2016-08-24,2.92,2.93,2.91,2.91,820791
2016-08-25,2.91,2.92,2.9,2.9,880953
2016-08-26,2.91,2.94,2.9,2.92,958000
2016-08-29,2.91,2.92,2.89,2.9,309000
2016-08-30,2.9,2.97,2.9,2.96,619300
2016-08-31,2.96,2.98,2.91,2.93,1135375
2016-09-01,2.93,2.93,2.88,2.93,2467603
2016-09-02,2.91,2.97,2.88,2.97,1363750
2016-09-05,2.99,3.02,2.96,3.01,1718750
2016-09-06,3.01,3.01,2.98,3.0,716000
2016-09-07,3.02,3.03,3.0,3.0,761537
2016-09-08,3.0,3.02,3.0,3.02,714297
2016-09-09,3.0,3.02,2.97,2.97,1345820
2016-09-12,2.93,2.96,2.9,2.91,1016532
2016-09-13,2.92,2.95,2.9,2.93,2038753
2016-09-14,2.93,2.94,2.89,2.9,746875
2016-09-15,2.92,2.95,2.89,2.93,755266
2016-09-19,2.9,2.96,2.9,2.91,807000
2016-09-20,2.93,2.95,2.91,2.93,2234919
2016-09-21,2.95,2.95,2.91,2.91,2589375
2016-09-22,2.91,2.93,2.9,2.9,874505
2016-09-23,2.91,2.93,2.89,2.91,3153663
2016-09-26,2.9,2.93,2.88,2.88,656100
2016-09-27,2.88,2.91,2.88,2.91,625448
2016-09-28,2.92,2.92,2.88,2.89,3424044
2016-09-29,2.92,2.94,2.9,2.93,1328000
2016-09-30,2.94,2.94,2.86,2.89,1107125
2016-10-03,2.91,2.92,2.8,2.81,2180582
2016-10-04,2.83,2.83,2.76,2.81,1417351
2016-10-05,2.81,2.81,2.78,2.8,1449397
2016-10-06,2.82,2.84,2.78,2.79,1628000
2016-10-07,2.82,2.82,2.78,2.79,1563492
2016-10-11,2.82,2.82,2.78,2.79,2306500
2016-10-12,2.79,2.79,2.75,2.75,1007624
2016-10-13,2.75,2.76,2.71,2.72,2107705
2016-10-14,2.74,2.8,2.7,2.77,3828268
2016-10-17,2.76,2.77,2.74,2.75,2158502
2016-10-18,2.79,2.79,2.75,2.76,1128537
2016-10-19,2.77,2.78,2.73,2.74,1856375
2016-10-20,2.76,2.81,2.74,2.79,5137100
2016-10-24,2.83,2.85,2.75,2.76,3837000
2016-10-25,2.76,2.8,2.76,2.79,1051278
2016-10-26,2.77,2.79,2.75,2.76,571632
2016-10-27,2.75,2.76,2.71,2.72,744220
2016-10-28,2.73,2.74,2.72,2.72,846000
2016-10-31,2.71,2.72,2.65,2.66,1591022
2016-11-01,2.67,2.68,2.6,2.61,3235547
2016-11-02,2.6,2.63,2.58,2.61,2988000
2016-11-03,2.62,2.67,2.61,2.66,7587000
2016-11-04,2.67,2.68,2.63,2.64,430759
2016-11-07,2.66,2.78,2.66,2.75,2204000
2016-11-08,2.75,2.81,2.73,2.8,2245000
2016-11-09,2.78,2.8,2.68,2.76,4165000
2016-11-10,2.81,2.82,2.77,2.77,1106375
2016-11-11,2.76,2.78,2.73,2.74,813358
2016-11-14,2.73,2.73,2.67,2.69,870000
2016-11-15,2.68,2.69,2.63,2.64,1950126
2016-11-16,2.66,2.69,2.63,2.65,992746
2016-11-17,2.65,2.68,2.65,2.68,2080375
2016-11-18,2.68,2.68,2.52,2.52,7137000
2016-11-21,2.56,2.57,2.52,2.53,3359375
2016-11-22,2.56,2.57,2.49,2.51,3764167
2016-11-23,2.51,2.58,2.5,2.58,16591301
2016-11-24,2.6,2.61,2.53,2.54,1989000
2016-11-25,2.56,2.57,2.54,2.57,1773083
2016-11-28,2.55,2.64,2.54,2.61,7624063
2016-11-29,2.61,2.62,2.52,2.55,4679044
2016-11-30,2.53,2.57,2.53,2.55,1656000
2016-12-01,2.57,2.62,2.55,2.6,3005000
2016-12-02,2.57,2.6,2.55,2.57,2668445
2016-12-05,2.55,2.6,2.52,2.54,4085000
2016-12-06,2.56,2.56,2.52,2.52,2198200
2016-12-07,2.55,2.55,2.52,2.54,3129246
2016-12-08,2.55,2.56,2.51,2.54,5554375
2016-12-09,2.55,2.58,2.5,2.51,4706044
2016-12-12,2.51,2.51,2.43,2.47,2599000
2016-12-13,2.46,2.46,2.41,2.44,2520002
2016-12-14,2.42,2.45,2.4,2.42,3238750
2016-12-15,2.4,2.43,2.36,2.4,3778000
2016-12-16,2.38,2.44,2.38,2.41,1331963
2016-12-19,2.4,2.4,2.37,2.38,685709
2016-12-20,2.39,2.41,2.37,2.38,2761000
2016-12-21,2.37,2.38,2.35,2.35,3047050
2016-12-22,2.36,2.36,2.32,2.32,1901000
2016-12-23,2.32,2.33,2.26,2.27,3542000
2016-12-28,2.28,2.29,2.25,2.26,2481000
2016-12-29,2.26,2.31,2.26,2.29,1155001
2016-12-30,2.34,2.38,2.31,2.33,2532376
2017-01-03,2.36,2.39,2.33,2.34,1896313
2017-01-04,2.34,2.37,2.33,2.36,1033000
2017-01-05,2.37,2.4,2.34,2.4,1387060
2017-01-06,2.4,2.43,2.34,2.35,4376371
2017-01-09,2.35,2.39,2.33,2.33,2418000
2017-01-10,2.34,2.36,2.31,2.35,1968425
2017-01-11,2.35,2.38,2.29,2.32,6489375
2017-01-12,2.33,2.37,2.32,2.36,1580692
2017-01-13,2.37,2.47,2.35,2.46,2120000
2017-01-16,2.46,2.46,2.41,2.42,1875000
2017-01-17,2.41,2.51,2.41,2.46,2879125
2017-01-18,2.47,2.55,2.47,2.51,3963000
2017-01-19,2.51,2.52,2.47,2.47,3489500
2017-01-20,2.45,2.52,2.45,2.5,2264245
2017-01-23,2.52,2.53,2.49,2.53,2027274
2017-01-24,2.55,2.55,2.51,2.54,2336000
2017-01-25,2.54,2.58,2.5,2.56,6281500
2017-01-26,2.56,2.6,2.55,2.57,3261000
2017-01-27,2.57,2.58,2.54,2.54,1941512
2017-02-01,2.54,2.57,2.52,2.57,1411022
2017-02-02,2.54,2.57,2.54,2.57,2175226
2017-02-03,2.56,2.56,2.51,2.51,2946926
2017-02-06,2.53,2.57,2.5,2.54,2672380
2017-02-07,2.55,2.62,2.54,2.62,3886500
2017-02-08,2.6,2.62,2.59,2.59,1539000
2017-02-09,2.62,2.67,2.49,2.5,8442850
2017-02-10,2.53,2.57,2.51,2.54,3678375
2017-02-13,2.56,2.56,2.52,2.52,1501452
2017-02-14,2.52,2.55,2.46,2.46,4348952
2017-02-15,2.46,2.58,2.46,2.57,7161500
2017-02-16,2.57,2.62,2.56,2.59,3172546
2017-02-17,2.61,2.61,2.53,2.54,1549800
2017-02-20,2.53,2.56,2.52,2.54,948750
2017-02-21,2.52,2.55,2.49,2.52,5829783
2017-02-22,2.51,2.56,2.5,2.53,5494800
2017-02-23,2.55,2.55,2.48,2.51,2948000
2017-02-24,2.5,2.5,2.45,2.47,5045708
2017-02-27,2.47,2.48,2.44,2.45,2495975
2017-02-28,2.46,2.46,2.41,2.43,3635000
2017-03-01,2.42,2.45,2.4,2.42,1723250
2017-03-02,2.43,2.45,2.39,2.4,2357000
2017-03-03,2.41,2.41,2.37,2.38,2297702
2017-03-06,2.37,2.39,2.35,2.36,2034375
2017-03-07,2.35,2.4,2.35,2.38,6009000
2017-03-08,2.39,2.55,2.39,2.53,8569593
2017-03-09,2.51,2.53,2.45,2.47,2109000
2017-03-10,2.45,2.49,2.42,2.42,1676375
2017-03-13,2.42,2.5,2.41,2.49,3614875
2017-03-14,2.49,2.49,2.44,2.45,1099031
2017-03-15,2.44,2.46,2.42,2.45,1832691
2017-03-16,2.45,2.5,2.45,2.46,4039025
2017-03-17,2.45,2.5,2.44,2.49,2192657
2017-03-20,2.49,2.58,2.48,2.57,5323600
2017-03-21,2.59,2.63,2.41,2.41,22178000
2017-03-22,2.39,2.4,2.35,2.38,19827650
2017-03-23,2.38,2.43,2.38,2.39,51135000
2017-03-24,2.41,2.41,2.36,2.37,6887497
2017-03-27,2.37,2.39,2.34,2.35,8135000
2017-03-28,2.37,2.37,2.33,2.34,5421250
2017-03-29,2.35,2.35,2.33,2.34,6674000
2017-03-30,2.35,2.35,2.32,2.32,3090000
2017-03-31,2.34,2.37,2.33,2.36,3290342
2017-04-03,2.36,2.38,2.35,2.37,2899000
2017-04-05,2.37,2.4,2.35,2.38,3063000
2017-04-06,2.39,2.39,2.36,2.37,3801000
2017-04-07,2.39,2.4,2.35,2.38,5290701
2017-04-10,2.37,2.44,2.37,2.44,5414000
2017-04-11,2.43,2.46,2.4,2.45,5313376
2017-04-12,2.44,2.48,2.43,2.47,9904000
2017-04-13,2.47,2.51,2.44,2.51,58539640
2017-04-18,2.5,2.5,2.44,2.45,5543000
2017-04-19,2.45,2.48,2.39,2.43,4495971
2017-04-20,2.42,2.44,2.4,2.42,2262000
2017-04-21,2.43,2.44,2.39,2.4,2957546
2017-04-24,2.42,2.42,2.38,2.39,2712250
2017-04-25,2.41,2.41,2.36,2.4,2467750
2017-04-26,2.39,2.4,2.38,2.39,895000
2017-04-27,2.4,2.4,2.38,2.4,2420750
2017-04-28,2.4,2.41,2.39,2.4,1355654
2017-05-02,2.42,2.42,2.35,2.38,3648000
2017-05-04,2.39,2.4,2.37,2.38,1932044
2017-05-05,2.37,2.39,2.36,2.37,1567000
2017-05-08,2.37,2.39,2.37,2.38,1362100
2017-05-09,2.39,2.42,2.38,2.41,6099420
2017-05-10,2.4,2.42,2.39,2.41,2705375
2017-05-11,2.42,2.43,2.39,2.42,3068501
2017-05-12,2.43,2.43,2.39,2.4,1176693
2017-05-15,2.39,2.42,2.36,2.4,2827134
2017-05-16,2.4,2.4,2.38,2.39,1755000
2017-05-17,2.39,2.43,2.39,2.41,3499975
2017-05-18,2.41,2.43,2.4,2.42,1885000
2017-05-19,2.42,2.42,2.39,2.4,1498651
2017-05-22,2.4,2.41,2.39,2.39,3639000
2017-05-23,2.4,2.44,2.4,2.4,2302000
2017-05-24,2.41,2.42,2.39,2.41,1455150
2017-05-25,2.43,2.49,2.42,2.46,3309450
2017-05-26,2.45,2.48,2.44,2.47,2097628
2017-05-29,2.48,2.48,2.46,2.47,1175750
2017-05-31,2.48,2.5,2.46,2.48,8125269
2017-06-01,2.51,2.52,2.45,2.47,5366476
2017-06-02,2.5,2.5,2.47,2.47,2695999
2017-06-05,2.37,2.44,2.36,2.42,6353495
2017-06-06,2.42,2.46,2.4,2.43,3009000
2017-06-07,2.44,2.45,2.39,2.41,4924184
2017-06-08,2.42,2.44,2.41,2.43,2451098
2017-06-09,2.44,2.44,2.4,2.42,2561242
2017-06-12,2.42,2.44,2.4,2.44,1830250
2017-06-13,2.45,2.51,2.43,2.49,3995392
2017-06-14,2.49,2.5,2.45,2.47,1695500
2017-06-15,2.46,2.46,2.42,2.44,1521746
2017-06-16,2.44,2.46,2.39,2.42,5033834
2017-06-19,2.43,2.46,2.43,2.45,912518
2017-06-20,2.48,2.49,2.46,2.48,2359506
2017-06-21,2.47,2.51,2.47,2.5,3399466
2017-06-22,2.49,2.58,2.49,2.54,6520330
2017-06-23,2.54,2.56,2.5,2.52,2824139
2017-06-26,2.53,2.53,2.47,2.49,2260322
2017-06-27,2.52,2.54,2.5,2.52,2424239
2017-06-28,2.52,2.53,2.47,2.49,1798412
2017-06-29,2.48,2.5,2.42,2.45,7438500
2017-06-30,2.43,2.5,2.43,2.5,2365500
2017-07-03,2.5,2.5,2.46,2.49,857044
2017-07-04,2.49,2.49,2.43,2.44,1552125
2017-07-05,2.43,2.44,2.4,2.41,2945016
2017-07-06,2.41,2.47,2.39,2.43,7012479
2017-07-07,2.43,2.43,2.4,2.41,3281000
2017-07-10,2.41,2.44,2.4,2.43,3158127
2017-07-11,2.41,2.42,2.4,2.41,2614700
2017-07-12,2.41,2.42,2.34,2.34,8233596
2017-07-13,2.35,2.36,2.34,2.35,5417026
2017-07-14,2.35,2.36,2.32,2.32,6086150
2017-07-17,2.35,2.35,2.31,2.33,3745107
2017-07-18,2.32,2.34,2.29,2.29,8899375
2017-07-19,2.3,2.31,2.28,2.31,15863156
2017-07-20,2.32,2.36,2.31,2.34,7317000
2017-07-21,2.36,2.36,2.3,2.34,9604000
2017-07-24,2.34,2.35,2.32,2.35,1688646
2017-07-25,2.36,2.36,2.33,2.35,735000
2017-07-26,2.35,2.35,2.32,2.35,1464800
2017-07-27,2.37,2.44,2.36,2.42,7372137
2017-07-28,2.42,2.42,2.38,2.4,2193947
2017-07-31,2.4,2.4,2.36,2.38,2200300
2017-08-01,2.38,2.38,2.36,2.38,682876
2017-08-02,2.38,2.38,2.35,2.37,1582000
2017-08-03,2.36,2.37,2.34,2.35,1717375
2017-08-04,2.35,2.35,2.32,2.33,2253000
2017-08-07,2.33,2.4,2.33,2.38,2481312
2017-08-08,2.38,2.38,2.35,2.37,1421350
2017-08-09,2.37,2.38,2.34,2.36,1896641
2017-08-10,2.35,2.37,2.32,2.37,2540326
2017-08-11,2.35,2.39,2.33,2.35,13126394
2017-08-14,2.37,2.37,2.31,2.32,7038376
2017-08-15,2.34,2.34,2.32,2.33,1996000
2017-08-16,2.33,2.34,2.32,2.33,3306750
2017-08-17,2.33,2.35,2.32,2.33,2453400
2017-08-18,2.32,2.32,2.29,2.29,7149021
2017-08-21,2.3,2.33,2.3,2.3,2367000
2017-08-22,2.31,2.35,2.31,2.35,2564125
2017-08-24,2.35,2.35,2.3,2.32,2412750
2017-08-25,2.33,2.35,2.32,2.35,1949811
2017-08-28,2.35,2.36,2.32,2.34,1247286
2017-08-29,2.34,2.36,2.32,2.36,1589000
2017-08-30,2.33,2.33,2.29,2.33,1876180
2017-08-31,2.32,2.33,2.3,2.33,1245000
2017-09-01,2.32,2.32,2.3,2.31,1888750
2017-09-04,2.31,2.32,2.3,2.31,1046000
2017-09-05,2.3,2.32,2.29,2.3,1309531
2017-09-06,2.3,2.3,2.27,2.3,1696525
2017-09-07,2.3,2.31,2.27,2.3,3207687
2017-09-08,2.3,2.31,2.28,2.28,1359375
2017-09-11,2.3,2.31,2.29,2.31,1129254
2017-09-12,2.32,2.32,2.29,2.31,1363000
2017-09-13,2.3,2.31,2.3,2.3,759986
2017-09-14,2.3,2.31,2.27,2.28,2924000
2017-09-15,2.3,2.3,2.27,2.29,2156759
2017-09-18,2.3,2.32,2.29,2.3,2187212
2017-09-19,2.31,2.32,2.3,2.31,1526410
2017-09-20,2.3,2.32,2.29,2.29,2455875
2017-09-21,2.29,2.31,2.28,2.29,5182650
2017-09-22,2.28,2.29,2.27,2.28,5113557
2017-09-25,2.28,2.29,2.26,2.26,2625083
2017-09-26,2.27,2.28,2.26,2.28,1054000
2017-09-27,2.28,2.29,2.26,2.28,3087501
2017-09-28,2.29,2.29,2.25,2.27,1505375
2017-09-29,2.28,2.28,2.25,2.25,3577000
2017-10-03,2.26,2.27,2.25,2.26,1826240
2017-10-04,2.26,2.26,2.23,2.25,2856130
2017-10-06,2.25,2.26,2.22,2.24,6031879
2017-10-09,2.24,2.28,2.23,2.26,6968000
2017-10-10,2.27,2.29,2.24,2.24,5987425
2017-10-11,2.25,2.28,2.24,2.28,11412808
2017-10-12,2.28,2.3,2.27,2.3,2841632
2017-10-13,2.3,2.34,2.3,2.31,5227166
2017-10-16,2.33,2.35,2.3,2.33,4286644
2017-10-17,2.34,2.34,2.31,2.33,2505750
2017-10-18,2.33,2.33,2.31,2.31,832000
2017-10-19,2.31,2.31,2.25,2.25,3600436
2017-10-20,2.27,2.29,2.26,2.28,6219503
2017-10-23,2.28,2.28,2.26,2.28,1274000
2017-10-24,2.28,2.28,2.26,2.27,1414665
2017-10-25,2.27,2.27,2.26,2.26,3100125
2017-10-26,2.26,2.27,2.25,2.25,5953430
2017-10-27,2.27,2.27,2.24,2.25,2773007
2017-10-30,2.25,2.25,2.23,2.23,2123500
2017-10-31,2.23,2.25,2.23,2.23,3693000
2017-11-01,2.23,2.26,2.23,2.25,1044008
2017-11-02,2.24,2.26,2.23,2.26,1036750
2017-11-03,2.27,2.27,2.25,2.27,698000
2017-11-06,2.27,2.27,2.25,2.27,1496082
2017-11-07,2.27,2.27,2.25,2.27,2207802
2017-11-08,2.25,2.26,2.24,2.25,2759942
2017-11-09,2.25,2.27,2.25,2.27,3123292
2017-11-10,2.27,2.31,2.23,2.28,4256557
2017-11-13,2.28,2.31,2.28,2.29,1478251
2017-11-14,2.28,2.3,2.26,2.29,3098000
2017-11-15,2.26,2.29,2.26,2.27,2349000
2017-11-16,2.27,2.29,2.25,2.26,945823
2017-11-17,2.27,2.27,2.22,2.23,4399700
2017-11-20,2.22,2.24,2.2,2.21,3039776
2017-11-21,2.21,2.23,2.19,2.23,4484625
2017-11-22,2.23,2.25,2.23,2.24,2560194
2017-11-23,2.22,2.26,2.22,2.23,4265275
2017-11-24,2.25,2.25,2.21,2.22,1397987
2017-11-27,2.23,2.23,2.21,2.22,1012000
2017-11-28,2.22,2.23,2.16,2.18,5535080
2017-11-29,2.2,2.2,2.15,2.17,4541752
2017-11-30,2.18,2.18,2.11,2.12,7989717
2017-12-01,2.12,2.12,2.1,2.11,4959870
2017-12-04,2.12,2.15,2.11,2.14,1621000
2017-12-05,2.13,2.14,2.12,2.13,1724377
2017-12-06,2.13,2.13,2.1,2.12,1892426
2017-12-07,2.13,2.13,2.02,2.04,10991375
2017-12-08,2.06,2.06,2.02,2.03,5685615
2017-12-11,2.03,2.04,2.01,2.02,5658351
2017-12-12,2.03,2.05,2.01,2.04,2662000
2017-12-13,2.05,2.05,1.99,2.01,10912000
2017-12-14,2.03,2.03,1.99,1.99,7539722
2017-12-15,1.99,2.0,1.98,1.99,3965125
2017-12-18,1.99,2.0,1.96,1.96,4625400
2017-12-19,1.97,1.98,1.96,1.97,4040000
2017-12-20,1.98,2.02,1.97,2.0,2769100
2017-12-21,2.0,2.04,1.99,2.02,4199883
2017-12-22,2.03,2.04,2.02,2.03,2252000
2017-12-27,2.03,2.07,2.02,2.06,1953000
2017-12-28,2.07,2.08,2.05,2.08,2686559
2017-12-29,2.08,2.08,2.05,2.07,1334375
2018-01-02,2.07,2.09,2.06,2.07,2647750
2018-01-03,2.08,2.08,2.03,2.03,7535574
2018-01-04,2.05,2.08,2.05,2.07,3408646
2018-01-05,2.07,2.09,2.05,2.07,3694152
2018-01-08,2.07,2.08,2.04,2.05,2983750
2018-01-09,2.05,2.06,2.04,2.06,5517376
2018-01-10,2.07,2.08,2.06,2.07,2216698
2018-01-11,2.07,2.08,2.05,2.07,1244819
2018-01-12,2.07,2.08,2.06,2.07,1693750
2018-01-15,2.07,2.08,2.04,2.05,3702026
2018-01-16,2.05,2.07,2.04,2.07,1700863
2018-01-17,2.05,2.08,2.03,2.07,4758250
2018-01-18,2.12,2.24,2.12,2.17,17681186
2018-01-19,2.17,2.21,2.13,2.2,9289664
2018-01-22,2.21,2.3,2.2,2.29,11772345
2018-01-23,2.29,2.38,2.28,2.35,13382134
2018-01-24,2.38,2.4,2.35,2.39,13439321
2018-01-25,2.4,2.41,2.33,2.38,6606000
2018-01-26,2.34,2.43,2.34,2.39,13619572
2018-01-29,2.42,2.43,2.37,2.38,4989502
2018-01-30,2.4,2.4,2.33,2.34,3222048
2018-01-31,2.32,2.36,2.3,2.36,3035750
2018-02-01,2.36,2.37,2.26,2.33,8377687
2018-02-02,2.33,2.33,2.27,2.32,3739519
2018-02-05,2.25,2.28,2.23,2.27,3302475
2018-02-06,2.23,2.23,2.14,2.15,8928750
2018-02-07,2.19,2.22,2.14,2.16,3647125
2018-02-08,2.16,2.18,2.15,2.18,1356500
2018-02-09,2.1,2.13,2.06,2.12,8053375
2018-02-12,2.14,2.16,2.13,2.14,3048000
2018-02-13,2.17,2.18,2.16,2.18,1603000
2018-02-14,2.18,2.2,2.15,2.19,2099750
2018-02-15,2.2,2.22,2.2,2.2,1247000
2018-02-20,2.23,2.24,2.14,2.2,4722000
2018-02-21,2.2,2.26,2.2,2.26,2195000
2018-02-22,2.24,2.29,2.22,2.27,2282000
2018-02-23,2.25,2.29,2.25,2.29,2540262
2018-02-26,2.29,2.29,2.26,2.27,2185862
2018-02-27,2.27,2.3,2.23,2.27,5004016
2018-02-28,2.27,2.27,2.23,2.26,3792000
2018-03-01,2.25,2.34,2.24,2.3,7483000
2018-03-02,2.31,2.36,2.27,2.36,10641794
2018-03-05,2.37,2.4,2.35,2.37,6287000
2018-03-06,2.37,2.37,2.33,2.34,3467000
2018-03-07,2.35,2.36,2.33,2.34,3244375
2018-03-08,2.34,2.37,2.33,2.34,1785879
2018-03-09,2.34,2.38,2.34,2.38,3570463
2018-03-12,2.38,2.41,2.37,2.39,6800000
2018-03-13,2.41,2.41,2.34,2.36,5065375
2018-03-14,2.36,2.36,2.32,2.33,3217333
2018-03-15,2.33,2.35,2.3,2.35,2687562
2018-03-16,2.35,2.35,2.31,2.34,3229500
2018-03-19,2.34,2.36,2.31,2.32,3560250
2018-03-20,2.32,2.32,2.28,2.29,4012000
2018-03-21,2.29,2.32,2.29,2.3,4512437
2018-03-22,2.3,2.33,2.28,2.28,7154992
2018-03-23,2.27,2.28,2.25,2.25,4482000
2018-03-26,2.25,2.28,2.24,2.27,3744376
2018-03-27,2.27,2.29,2.26,2.28,2977658
2018-03-28,2.27,2.29,2.25,2.25,2168000
2018-03-29,2.26,2.28,2.25,2.27,2056750
2018-04-03,2.25,2.28,2.24,2.27,2128000
2018-04-04,2.26,2.3,2.26,2.29,3073000
2018-04-06,2.29,2.3,2.27,2.29,3695348
2018-04-09,2.27,2.31,2.27,2.31,5585162
2018-04-10,2.29,2.33,2.29,2.31,5741597
2018-04-11,2.32,2.33,2.28,2.28,8028221
2018-04-12,2.3,2.3,2.28,2.3,7524025
2018-04-13,2.3,2.34,2.3,2.34,5291887
2018-04-16,2.33,2.34,2.3,2.33,2701825
2018-04-17,2.33,2.33,2.3,2.31,1309100
2018-04-18,2.34,2.34,2.28,2.3,2437000
2018-04-19,2.3,2.32,2.3,2.3,1952376
2018-04-20,2.3,2.32,2.29,2.31,2339750
2018-04-23,2.31,2.32,2.3,2.31,687270
2018-04-24,2.3,2.32,2.3,2.32,1865035
2018-04-25,2.3,2.32,2.3,2.32,521512
2018-04-26,2.31,2.31,2.3,2.31,728326
2018-04-27,2.31,2.31,2.29,2.3,1162663
2018-04-30,2.3,2.32,2.3,2.32,1771378
2018-05-02,2.31,2.33,2.29,2.33,6369030
2018-05-03,2.33,2.33,2.3,2.33,4132000
2018-05-04,2.33,2.34,2.31,2.33,9243000
2018-05-07,2.33,2.33,2.31,2.31,2784000
2018-05-08,2.33,2.33,2.3,2.32,2601000
2018-05-09,2.32,2.33,2.3,2.31,926000
2018-05-10,2.31,2.33,2.31,2.31,1462376
2018-05-11,2.33,2.41,2.31,2.33,4377471
2018-05-14,2.33,2.38,2.33,2.37,6561575
2018-05-15,2.37,2.38,2.31,2.36,11364274
2018-05-16,2.23,2.25,2.19,2.19,8318177
2018-05-17,2.21,2.24,2.21,2.24,2068000
2018-05-18,2.24,2.25,2.22,2.23,2162375
2018-05-21,2.26,2.26,2.23,2.25,1373000
2018-05-23,2.24,2.26,2.23,2.26,4335630
2018-05-24,2.26,2.27,2.24,2.26,1364000
2018-05-25,2.26,2.26,2.25,2.26,943000
2018-05-28,2.26,2.27,2.22,2.24,2304000
2018-05-29,2.26,2.26,2.22,2.24,3483000
2018-05-30,2.24,2.25,2.21,2.22,3178344
2018-05-31,2.26,2.26,2.21,2.24,6574503
2018-06-01,2.25,2.25,2.22,2.25,695623
2018-06-04,2.25,2.26,2.22,2.24,3064118
2018-06-05,2.26,2.29,2.25,2.28,4705765
2018-06-06,2.28,2.3,2.27,2.3,2096563
2018-06-07,2.3,2.3,2.26,2.29,3095131
2018-06-08,2.29,2.29,2.27,2.28,1231500
2018-06-11,2.28,2.31,2.27,2.29,2164000
2018-06-12,2.3,2.3,2.27,2.29,844000
2018-06-13,2.29,2.3,2.26,2.28,2390761
2018-06-14,2.3,2.3,2.24,2.27,2862000
2018-06-15,2.28,2.28,2.25,2.25,1923000
2018-06-19,2.27,2.27,2.2,2.2,2948538
2018-06-20,2.22,2.23,2.19,2.19,1895000
2018-06-21,2.2,2.22,2.18,2.19,3664448
2018-06-22,2.2,2.2,2.15,2.18,10574506
2018-06-25,2.18,2.18,2.12,2.14,2886016
2018-06-26,2.13,2.15,2.11,2.12,2112000
2018-06-27,2.15,2.15,2.07,2.07,3798279
2018-06-28,2.06,2.08,2.05,2.06,3479880
2018-06-29,2.06,2.09,2.05,2.06,4036354
2018-07-03,2.05,2.05,2.0,2.02,4237000
2018-07-04,2.03,2.05,2.02,2.02,2136843
2018-07-05,2.04,2.05,2.0,2.0,6050000
2018-07-06,2.0,2.04,1.99,2.04,3745630
2018-07-09,2.05,2.1,2.04,2.09,5910576
2018-07-10,2.08,2.18,2.08,2.18,4753106
2018-07-11,2.15,2.19,2.11,2.19,4546000
2018-07-12,2.18,2.19,2.17,2.18,2590000
2018-07-13,2.2,2.24,2.18,2.22,5899378
2018-07-16,2.2,2.21,2.17,2.17,1648000
2018-07-17,2.19,2.21,2.18,2.19,2112000
2018-07-18,2.2,2.21,2.18,2.21,2461450
2018-07-19,2.21,2.23,2.2,2.22,3085000
2018-07-20,2.22,2.22,2.16,2.16,2981000
2018-07-23,2.18,2.19,2.17,2.19,714000
2018-07-24,2.19,2.23,2.19,2.23,3078008
2018-07-25,2.21,2.23,2.2,2.23,596266
2018-07-26,2.21,2.23,2.19,2.19,797000
2018-07-27,2.18,2.23,2.18,2.22,1563252
2018-07-30,2.21,2.24,2.21,2.23,843764
2018-07-31,2.23,2.23,2.21,2.22,3861752
2018-08-01,2.24,2.24,2.21,2.21,952000
2018-08-02,2.23,2.23,2.18,2.18,3395000
2018-08-03,2.2,2.2,2.18,2.18,320650
2018-08-06,2.2,2.2,2.15,2.17,1180000
2018-08-07,2.19,2.2,2.17,2.2,768000
2018-08-08,2.2,2.22,2.18,2.22,974375
2018-08-09,2.22,2.22,2.2,2.21,647516
2018-08-10,2.21,2.23,2.21,2.22,2411097
2018-08-13,2.21,2.21,2.19,2.2,607125
2018-08-14,2.21,2.22,2.19,2.22,2551375
2018-08-15,2.22,2.22,2.18,2.19,2276150
2018-08-16,2.2,2.26,2.17,2.2,5440112
2018-08-17,2.22,2.23,2.2,2.21,1544026
2018-08-20,2.23,2.28,2.22,2.26,3744922
2018-08-21,2.28,2.31,2.28,2.3,3534873
2018-08-22,2.3,2.32,2.29,2.32,3004000
2018-08-23,2.32,2.38,2.32,2.37,8422000
2018-08-24,2.38,2.38,2.34,2.38,2490000
2018-08-27,2.38,2.42,2.37,2.42,4678156
2018-08-28,2.42,2.44,2.4,2.43,4045625
2018-08-29,2.43,2.43,2.35,2.37,3868000
2018-08-30,2.37,2.44,2.37,2.41,4523627
2018-08-31,2.4,2.4,2.36,2.4,4081044
2018-09-03,2.39,2.4,2.34,2.39,2702000
2018-09-04,2.35,2.39,2.33,2.38,2299375
2018-09-05,2.37,2.44,2.34,2.38,6248487
2018-09-06,2.38,2.41,2.37,2.4,3990000
2018-09-07,2.4,2.43,2.39,2.43,4670262
2018-09-10,2.44,2.44,2.34,2.35,3563500
2018-09-11,2.37,2.4,2.35,2.38,2844750
2018-09-12,2.4,2.48,2.39,2.47,8484750
2018-09-13,2.49,2.53,2.49,2.52,5447182
2018-09-14,2.52,2.55,2.51,2.55,4820750
2018-09-17,2.55,2.55,2.5,2.51,4735312
2018-09-18,2.51,2.55,2.49,2.51,5824000
2018-09-19,2.53,2.54,2.48,2.53,5526023
2018-09-20,2.55,2.61,2.53,2.61,8355077
2018-09-21,2.62,2.66,2.61,2.66,6584651
2018-09-24,2.67,2.71,2.62,2.67,3886641
2018-09-26,2.68,2.68,2.51,2.52,8897975
2018-09-27,2.54,2.6,2.53,2.58,3020750
2018-09-28,2.6,2.67,2.6,2.67,6158767
2018-10-02,2.68,2.7,2.64,2.7,4183034
2018-10-03,2.7,2.75,2.68,2.75,5553486
2018-10-04,2.75,2.75,2.65,2.68,4151420
2018-10-05,2.69,2.69,2.53,2.59,7010000
2018-10-08,2.6,2.61,2.46,2.52,9063727
2018-10-09,2.55,2.55,2.48,2.5,4408818
2018-10-10,2.52,2.57,2.51,2.52,9776762
2018-10-11,2.47,2.52,2.41,2.43,7630000
2018-10-12,2.44,2.51,2.43,2.46,5201407
2018-10-15,2.48,2.49,2.42,2.43,3470000
2018-10-16,2.42,2.44,2.35,2.37,10726772
2018-10-18,2.38,2.46,2.37,2.44,7982000
2018-10-19,2.47,2.5,2.44,2.44,11668864
2018-10-22,2.48,2.59,2.46,2.57,7432377
2018-10-23,2.58,2.58,2.51,2.54,4726000
2018-10-24,2.55,2.57,2.5,2.52,3365376
2018-10-25,2.53,2.6,2.49,2.56,8868376
2018-10-26,2.56,2.56,2.45,2.51,4173000
2018-10-29,2.54,2.54,2.49,2.51,2755875
2018-10-30,2.48,2.5,2.45,2.48,1572500
2018-10-31,2.48,2.52,2.45,2.46,1394000
2018-11-01,2.45,2.5,2.45,2.48,942401
2018-11-02,2.48,2.5,2.46,2.49,1172001
2018-11-05,2.48,2.51,2.46,2.5,1072375
2018-11-06,2.49,2.53,2.49,2.52,1030000
2018-11-07,2.58,2.58,2.51,2.55,2829261
2018-11-08,2.54,2.59,2.53,2.59,3883380
2018-11-09,2.57,2.62,2.56,2.6,3701505
2018-11-12,2.62,2.64,2.57,2.62,4950431
2018-11-13,2.6,2.62,2.57,2.6,2572000
2018-11-14,2.64,2.66,2.58,2.66,4068000
2018-11-15,2.65,2.68,2.62,2.63,6020679
2018-11-16,2.65,2.65,2.58,2.62,2396785
2018-11-19,2.62,2.63,2.56,2.57,2598401
2018-11-20,2.57,2.68,2.53,2.57,4139095
2018-11-21,2.55,2.63,2.54,2.63,1761000
2018-11-22,2.63,2.63,2.56,2.58,1830532
2018-11-23,2.58,2.61,2.56,2.58,1890000
2018-11-26,2.57,2.59,2.56,2.57,1407000
2018-11-27,2.57,2.58,2.53,2.53,3008763
2018-11-28,2.52,2.65,2.52,2.61,9352325
2018-11-29,2.64,2.69,2.6,2.67,7496500
2018-11-30,2.67,2.7,2.65,2.65,8676002
2018-12-03,2.68,2.68,2.62,2.63,7426250
2018-12-04,2.66,2.68,2.6,2.66,6023750
2018-12-05,2.65,2.76,2.65,2.75,16351000
2018-12-06,2.74,2.86,2.69,2.86,15149355
2018-12-07,2.86,2.86,2.78,2.83,8649572
2018-12-10,2.81,2.84,2.73,2.82,6862485
2018-12-11,2.79,2.95,2.79,2.93,14159133
2018-12-12,2.93,2.96,2.9,2.91,6307442
2018-12-13,2.93,2.94,2.89,2.92,3936500
2018-12-14,2.92,3.0,2.87,2.94,15951000
2018-12-17,2.95,3.0,2.91,2.96,9471674
2018-12-18,2.98,3.05,2.93,3.02,13271657
2018-12-19,3.01,3.01,2.83,2.85,13761498
2018-12-20,2.85,2.88,2.71,2.74,17241240
2018-12-21,2.7,2.8,2.66,2.75,12088447
2018-12-24,2.72,2.76,2.68,2.73,1617285
2018-12-27,2.77,2.79,2.74,2.75,3205918
2018-12-28,2.71,2.79,2.71,2.74,3199228
2018-12-31,2.76,2.79,2.75,2.75,871000
2019-01-02,2.75,2.79,2.68,2.74,3281000
2019-01-03,2.71,2.76,2.68,2.74,3695000
2019-01-04,2.77,2.8,2.7,2.8,5823750
2019-01-07,2.81,2.88,2.78,2.85,10278098
2019-01-08,2.85,2.94,2.85,2.87,5495000
2019-01-09,2.86,2.89,2.85,2.86,4517125
2019-01-10,2.86,2.89,2.78,2.8,5946376
2019-01-11,2.84,2.94,2.8,2.93,8427000
2019-01-14,2.94,2.95,2.9,2.91,13813000
2019-01-15,2.93,2.93,2.87,2.89,3408000
2019-01-16,2.9,2.95,2.89,2.94,2571275
2019-01-17,2.91,2.92,2.85,2.88,3621000
2019-01-18,2.88,2.91,2.83,2.83,6197875
2019-01-21,2.85,2.87,2.81,2.83,2399798
2019-01-22,2.81,2.84,2.77,2.8,2671000
2019-01-23,2.8,2.87,2.77,2.86,3992936
2019-01-24,2.83,2.87,2.83,2.86,3020500
2019-01-25,2.88,2.88,2.82,2.83,3585000
2019-01-28,2.82,2.85,2.8,2.83,2584034
2019-01-29,2.81,2.84,2.8,2.82,3250000
2019-01-30,2.82,2.9,2.8,2.85,3471250
2019-01-31,2.88,2.88,2.83,2.85,2196378
2019-02-01,2.84,2.85,2.77,2.81,4986700
2019-02-04,2.79,2.84,2.79,2.83,784000
2019-02-08,2.82,2.85,2.8,2.82,6787376
2019-02-11,2.83,2.94,2.82,2.89,6524775
2019-02-12,2.87,2.95,2.87,2.94,6990503
2019-02-13,2.95,2.97,2.91,2.93,5073108
2019-02-14,2.94,2.94,2.89,2.93,2713750
2019-02-15,2.9,2.97,2.88,2.9,4210000
2019-02-18,2.88,2.95,2.88,2.89,3418512
2019-02-19,2.89,2.93,2.88,2.89,6216835
2019-02-20,2.89,2.91,2.88,2.89,4196543
2019-02-21,2.89,2.91,2.85,2.87,8299676
2019-02-22,2.86,2.91,2.86,2.88,5252520
2019-02-25,2.9,2.9,2.85,2.86,5709375
2019-02-26,2.86,2.87,2.81,2.82,4560755
2019-02-27,2.82,2.84,2.8,2.82,4539451
2019-02-28,2.82,2.94,2.79,2.92,12053100
2019-03-01,2.96,3.19,2.95,3.18,34934016
2019-03-04,3.16,3.2,3.09,3.11,17840570
2019-03-05,3.06,3.26,3.06,3.25,17436836
2019-03-06,3.24,3.24,3.17,3.21,10809613
2019-03-07,3.21,3.22,3.17,3.22,10579751
2019-03-08,3.2,3.2,3.16,3.18,7953000
2019-03-11,3.22,3.22,3.14,3.2,12423480
2019-03-12,3.2,3.23,3.15,3.19,5726125
2019-03-13,3.19,3.23,3.15,3.18,4941250
2019-03-14,3.19,3.19,3.11,3.15,2671292
2019-03-15,3.14,3.17,3.13,3.15,6361000
2019-03-18,3.17,3.18,3.11,3.13,7564127
2019-03-19,3.17,3.33,3.13,3.31,16362128
2019-03-20,3.3,3.3,3.22,3.27,10996096
2019-03-21,3.26,3.26,3.17,3.19,8236875
2019-03-22,3.2,3.27,3.18,3.25,11963104
2019-03-25,3.22,3.37,3.2,3.35,10766586
2019-03-26,3.35,3.35,3.28,3.33,10040121
2019-03-27,3.33,3.37,3.31,3.37,3524508
2019-03-28,3.35,3.61,3.32,3.55,25982664
2019-03-29,3.59,3.59,3.45,3.53,11265378
2019-04-01,3.52,3.52,3.3,3.38,27201756
2019-04-02,3.39,3.42,3.32,3.41,10502667
2019-04-03,3.44,3.49,3.37,3.49,13665000
2019-04-04,3.49,3.49,3.37,3.42,12261910
2019-04-08,3.42,3.44,3.3,3.32,10179350
2019-04-09,3.31,3.37,3.31,3.33,7379603
2019-04-10,3.33,3.35,3.3,3.32,10894000
2019-04-11,3.36,3.36,3.25,3.3,5398511
2019-04-12,3.3,3.34,3.28,3.34,5246510
2019-04-15,3.38,3.38,3.29,3.31,4356900
2019-04-16,3.31,3.31,3.26,3.28,3266500
2019-04-17,3.28,3.3,3.25,3.26,4492000
2019-04-18,3.26,3.29,3.26,3.29,4676888
2019-04-23,3.22,3.28,3.22,3.24,3703402
2019-04-24,3.24,3.26,3.23,3.24,12243100
2019-04-25,3.22,3.35,3.22,3.31,5707200
2019-04-26,3.3,3.31,3.25,3.27,3753489
2019-04-29,3.3,3.3,3.26,3.3,1247448
2019-04-30,3.3,3.3,3.22,3.25,3914050
2019-05-02,3.34,3.37,3.27,3.35,10792933
2019-05-03,3.38,3.45,3.31,3.45,8452826
2019-05-06,3.35,3.35,3.24,3.28,10647179
2019-05-07,3.28,3.32,3.25,3.3,5324750
2019-05-08,3.26,3.28,3.18,3.2,10900120
2019-05-09,3.2,3.22,3.05,3.06,15044039
2019-05-10,3.09,3.18,3.09,3.17,6673375
2019-05-14,3.1,3.13,3.03,3.12,5541004
2019-05-15,3.18,3.2,3.14,3.19,7729497
2019-05-16,3.2,3.25,3.16,3.22,5430815
2019-05-17,3.1,3.1,3.02,3.04,6474000
2019-05-20,3.02,3.02,2.94,2.98,10434000
2019-05-21,2.98,3.03,2.93,2.94,2680000
2019-05-22,2.94,2.98,2.92,2.95,3623000
2019-05-23,2.97,2.97,2.84,2.87,10500200
2019-05-24,2.87,2.87,2.76,2.79,17016568
2019-05-27,2.81,2.92,2.72,2.88,7426523
2019-05-28,2.93,2.94,2.85,2.94,6861286
2019-05-29,2.93,2.94,2.88,2.9,2459000
2019-05-30,2.95,2.95,2.87,2.89,2480000
2019-05-31,2.88,2.89,2.85,2.88,1448895
2019-06-03,2.86,2.93,2.86,2.9,2683000
2019-06-04,2.9,2.98,2.89,2.95,3212413
2019-06-05,2.96,3.04,2.93,2.99,5875315
2019-06-06,3.04,3.04,2.96,2.97,4418000
2019-06-10,2.98,3.06,2.95,3.03,3875553
2019-06-11,3.04,3.05,3.01,3.02,2118000
2019-06-12,3.0,3.01,2.92,2.96,3841086
2019-06-13,2.95,2.99,2.9,2.91,9780277
2019-06-14,2.91,2.93,2.88,2.9,3160966
2019-06-17,2.88,2.94,2.88,2.91,1859000
2019-06-18,2.9,2.93,2.89,2.9,3113000
2019-06-19,2.95,2.95,2.91,2.92,4357575
2019-06-20,2.95,2.96,2.92,2.95,3678396
2019-06-21,2.95,3.0,2.91,3.0,20779500
2019-06-24,3.01,3.06,3.0,3.02,5117625
2019-06-25,3.0,3.02,2.96,2.99,4251487
2019-06-26,2.99,3.08,2.99,3.05,5922000
2019-06-27,3.02,3.07,3.02,3.04,4884000
2019-06-28,3.04,3.1,3.04,3.1,7765017
2019-07-02,3.11,3.24,3.09,3.22,22516694
2019-07-03,3.22,3.32,3.21,3.28,6103725
2019-07-04,3.25,3.29,3.22,3.26,4848000
2019-07-05,3.23,3.28,3.22,3.25,4394000
2019-07-08,3.25,3.25,3.17,3.18,3598202
2019-07-09,3.15,3.18,3.11,3.14,23791636
2019-07-10,3.15,3.24,3.14,3.24,6677375
2019-07-11,3.22,3.27,3.22,3.24,6991160
2019-07-12,3.24,3.39,3.23,3.36,9562233
2019-07-15,3.35,3.4,3.32,3.37,7450375
2019-07-16,3.37,3.45,3.35,3.43,9142648
2019-07-17,3.42,3.47,3.38,3.46,7867355
2019-07-18,3.4,3.5,3.39,3.43,4812155
2019-07-19,3.43,3.43,3.37,3.41,2291000
2019-07-22,3.37,3.42,3.33,3.39,4728001
2019-07-23,3.4,3.43,3.38,3.41,4302000
2019-07-24,3.44,3.44,3.37,3.37,3596503
2019-07-25,3.38,3.4,3.32,3.34,5178374
2019-07-26,3.33,3.37,3.29,3.3,4252750
2019-07-29,3.26,3.33,3.21,3.27,3522000
2019-07-30,3.31,3.37,3.25,3.32,4310101
2019-07-31,3.3,3.3,3.21,3.24,3532000
2019-08-01,3.21,3.24,3.12,3.17,6927217
2019-08-02,3.1,3.16,3.02,3.03,9752123
2019-08-05,3.01,3.04,2.97,3.03,6824110
2019-08-06,2.94,3.06,2.93,3.04,7467000
2019-08-07,3.05,3.11,3.01,3.04,7795550
2019-08-08,3.06,3.11,3.01,3.1,3599831
2019-08-09,3.13,3.13,3.08,3.1,3740645
2019-08-12,3.08,3.16,3.05,3.1,3947692
2019-08-13,3.07,3.11,3.02,3.05,8426375
2019-08-14,3.07,3.17,3.04,3.1,7781631
2019-08-15,3.03,3.22,3.03,3.2,8783855
2019-08-16,3.21,3.25,3.17,3.21,11262548
2019-08-19,3.24,3.26,3.17,3.19,4221750
2019-08-20,3.2,3.2,3.14,3.17,2715809
2019-08-21,3.17,3.2,3.15,3.17,3130855
2019-08-22,3.16,3.16,3.09,3.11,4223000
2019-08-23,3.12,3.18,3.1,3.12,5130947
2019-08-26,3.05,3.1,3.02,3.08,4210157
2019-08-27,3.08,3.12,3.06,3.08,4150066
2019-08-28,3.08,3.08,3.04,3.06,4440752
2019-08-29,3.06,3.12,3.03,3.07,3979265
2019-08-30,3.08,3.09,3.03,3.06,4637000
2019-09-02,3.01,3.02,2.93,2.94,7160077
2019-09-03,2.95,3.02,2.94,2.98,3774000
2019-09-04,3.0,3.09,2.96,3.08,7831095
2019-09-05,3.08,3.08,2.99,3.02,4214000
2019-09-06,3.02,3.07,3.02,3.04,3850204
2019-09-09,3.02,3.07,3.01,3.01,2102000
2019-09-10,3.0,3.03,2.96,2.98,4930000
2019-09-11,2.98,3.01,2.95,2.99,5848820
2019-09-12,3.03,3.03,2.98,2.98,3490331
2019-09-13,3.0,3.0,2.96,2.98,5437000
2019-09-16,2.97,2.99,2.94,2.96,4259165
2019-09-17,2.97,2.97,2.92,2.94,3290855
2019-09-18,2.94,2.97,2.93,2.96,3295710
2019-09-19,2.97,2.98,2.94,2.94,2990000
2019-09-20,2.95,2.97,2.92,2.96,5220000
2019-09-23,2.96,2.96,2.89,2.89,6996000
2019-09-24,2.91,2.91,2.83,2.84,4899000
2019-09-25,2.87,2.88,2.83,2.86,4569898
2019-09-26,2.86,2.86,2.82,2.82,4744731
2019-09-27,2.84,2.85,2.8,2.83,5062000
2019-09-30,2.85,2.88,2.83,2.85,3944978
2019-10-02,2.87,2.87,2.81,2.84,4568000
2019-10-03,2.85,2.94,2.84,2.92,9020950
2019-10-04,2.95,2.95,2.86,2.88,5595855
2019-10-08,2.91,2.91,2.83,2.84,6218571
2019-10-09,2.84,2.84,2.79,2.79,5370631
2019-10-10,2.78,2.82,2.74,2.75,10335800
2019-10-11,2.78,2.81,2.76,2.77,6907958
2019-10-14,2.79,2.83,2.79,2.8,9740250
2019-10-15,2.8,2.82,2.78,2.8,4692071
2019-10-16,2.81,2.82,2.78,2.8,6674624
2019-10-17,2.81,2.87,2.8,2.85,7270000
2019-10-18,2.84,2.91,2.83,2.88,8211000
2019-10-21,2.85,2.89,2.84,2.85,5539000
2019-10-22,2.86,2.89,2.85,2.87,3347328
2019-10-23,2.89,2.9,2.86,2.89,3589791
2019-10-24,2.89,2.9,2.87,2.88,3749000
2019-10-25,2.88,2.94,2.88,2.92,2834965
2019-10-28,2.92,3.02,2.92,2.99,9841000
2019-10-29,2.99,3.0,2.93,2.95,3683590
2019-10-30,2.93,2.97,2.92,2.92,4118705
2019-10-31,2.94,3.01,2.94,2.98,2982210
2019-11-01,2.98,2.99,2.96,2.96,1836000
2019-11-04,2.99,3.0,2.95,2.98,3293513
2019-11-05,2.98,2.99,2.95,2.98,2061518
2019-11-06,2.98,2.98,2.93,2.96,5628000
2019-11-07,2.96,3.0,2.95,2.99,2513422
2019-11-08,3.0,3.0,2.97,2.98,2280993
2019-11-11,2.99,2.99,2.94,2.95,6430059
2019-11-12,2.95,3.0,2.95,2.97,2662594
2019-11-13,2.96,2.98,2.91,2.94,3538661
2019-11-14,2.96,2.96,2.85,2.85,3039570
2019-11-15,2.86,2.9,2.82,2.82,3515776
2019-11-18,2.88,2.88,2.82,2.86,2608794
2019-11-19,2.87,2.95,2.85,2.93,3493647
2019-11-20,2.96,2.97,2.86,2.87,3977403
2019-11-21,2.87,2.87,2.84,2.87,1735378
2019-11-22,2.86,2.87,2.84,2.85,1868819
2019-11-25,2.86,2.87,2.82,2.83,4612750
2019-11-26,2.86,2.86,2.83,2.83,3174640
2019-11-27,2.85,2.85,2.83,2.84,1843492
2019-11-28,2.84,2.85,2.83,2.84,1678038
2019-11-29,2.84,2.85,2.81,2.84,2563855
2019-12-02,2.85,2.86,2.82,2.83,2689498
2019-12-03,2.85,2.85,2.79,2.8,4564000
2019-12-04,2.8,2.82,2.79,2.81,6849626
2019-12-05,2.82,2.84,2.81,2.83,1840667
2019-12-06,2.82,2.88,2.82,2.85,4535369
2019-12-09,2.84,2.87,2.84,2.84,2304145
2019-12-10,2.83,2.85,2.8,2.8,6181230
2019-12-11,2.79,2.82,2.79,2.81,5696470
2019-12-12,2.81,2.81,2.74,2.76,15019615
2019-12-13,2.77,2.92,2.76,2.89,15580059
2019-12-16,2.88,3.01,2.87,2.98,15156170
2019-12-17,3.03,3.03,2.97,2.98,10099308
2019-12-18,2.98,2.98,2.89,2.93,7946281
2019-12-19,2.94,2.94,2.86,2.88,4221047
2019-12-20,2.87,2.87,2.79,2.79,19040776
2019-12-23,2.79,2.82,2.78,2.81,4675726
2019-12-24,2.82,2.84,2.8,2.8,3117715
2019-12-27,2.82,2.86,2.82,2.84,3630566
2019-12-30,2.84,2.87,2.84,2.86,2548753
2019-12-31,2.86,2.87,2.83,2.84,2152000
2020-01-02,2.86,2.86,2.81,2.83,5478375
2020-01-03,2.85,2.87,2.83,2.85,5385375
2020-01-06,2.83,2.85,2.81,2.83,2785635
2020-01-07,2.83,2.86,2.82,2.83,2446888
2020-01-08,2.83,2.84,2.8,2.81,2501847
2020-01-09,2.81,2.84,2.81,2.82,2659634
2020-01-10,2.83,2.83,2.8,2.81,5384281
2020-01-13,2.81,2.84,2.81,2.84,2837893
2020-01-14,2.84,2.87,2.84,2.87,3370529
2020-01-15,2.88,2.88,2.84,2.84,1569000
2020-01-16,2.84,2.86,2.81,2.84,3521000
2020-01-17,2.84,2.88,2.84,2.87,3023698
2020-01-20,2.9,2.92,2.89,2.89,5039698
2020-01-21,2.9,2.9,2.82,2.83,5184000
2020-01-22,2.89,2.89,2.82,2.86,3614405
2020-01-23,2.85,2.85,2.8,2.83,4479000
2020-01-24,2.84,2.84,2.8,2.84,1782000
2020-01-29,2.81,2.81,2.72,2.73,11627000
2020-01-30,2.75,2.75,2.68,2.69,6251000
2020-01-31,2.72,2.74,2.69,2.7,3134000
2020-02-03,2.7,2.7,2.64,2.66,6213734
2020-02-04,2.64,2.68,2.64,2.65,9533641
2020-02-05,2.68,2.73,2.67,2.71,4046753
2020-02-06,2.74,2.76,2.71,2.75,4989000
2020-02-07,2.76,2.78,2.75,2.75,3312214
2020-02-10,2.75,2.77,2.74,2.75,1356673
2020-02-11,2.75,2.79,2.75,2.76,1810675
2020-02-12,2.79,2.83,2.77,2.81,5616909
2020-02-13,2.82,2.82,2.79,2.79,1723452
2020-02-14,2.83,2.83,2.8,2.8,2206000
2020-02-17,2.8,2.83,2.79,2.8,2721000
2020-02-18,2.79,2.82,2.78,2.78,2917706
2020-02-19,2.78,2.81,2.76,2.76,3488000
2020-02-20,2.78,2.8,2.76,2.77,2070068
2020-02-21,2.79,2.79,2.74,2.74,3265297
2020-02-24,2.77,2.78,2.73,2.75,3316245
2020-02-25,2.73,2.78,2.73,2.76,2379000
2020-02-26,2.76,2.78,2.74,2.74,3205500
2020-02-27,2.74,2.78,2.72,2.77,2472270
2020-02-28,2.76,2.83,2.74,2.82,8598000
2020-03-02,2.8,2.83,2.77,2.79,5769037
2020-03-03,2.79,2.95,2.76,2.93,19266544
2020-03-04,2.93,2.95,2.82,2.86,13146752
2020-03-05,2.89,2.89,2.83,2.86,10229628
2020-03-06,2.85,2.86,2.8,2.84,7235143
2020-03-09,2.8,2.82,2.77,2.77,8601213
2020-03-10,2.77,2.81,2.74,2.78,6833450
2020-03-11,2.79,2.83,2.77,2.78,5974000
2020-03-12,2.76,2.78,2.7,2.72,6988050
2020-03-13,2.58,2.75,2.56,2.72,15897415
2020-03-16,2.7,2.71,2.6,2.6,11040000
2020-03-17,2.58,2.62,2.51,2.56,11429185
2020-03-18,2.57,2.6,2.43,2.43,13951159
2020-03-19,2.4,2.42,2.2,2.33,15517765
2020-03-20,2.37,2.49,2.35,2.48,11516554
2020-03-23,2.39,2.4,2.29,2.38,12833304
2020-03-24,2.43,2.47,2.39,2.47,7441836
2020-03-25,2.51,2.55,2.49,2.54,6742376
2020-03-26,2.54,2.58,2.51,2.53,4866872
2020-03-27,2.54,2.63,2.54,2.59,6226726
2020-03-30,2.57,2.59,2.53,2.58,3170312
2020-03-31,2.6,2.61,2.54,2.57,3954930
2020-04-01,2.59,2.59,2.49,2.55,6557000
2020-04-02,2.5,2.59,2.5,2.57,5792518
2020-04-03,2.6,2.72,2.58,2.71,9654601
2020-04-06,2.71,2.73,2.65,2.72,5040988
2020-04-07,2.73,2.79,2.71,2.77,8117524
2020-04-08,2.73,2.79,2.72,2.79,5002508
2020-04-09,2.75,2.78,2.74,2.77,7409206
2020-04-14,2.75,2.78,2.74,2.77,5135580
2020-04-15,2.75,2.83,2.75,2.77,7246325
2020-04-16,2.77,2.82,2.75,2.77,3631129
2020-04-17,2.79,2.85,2.78,2.82,7250000
2020-04-20,2.84,2.85,2.82,2.85,3258376
2020-04-21,2.81,2.84,2.78,2.79,4031100
2020-04-22,2.79,2.84,2.76,2.83,5197936
2020-04-23,2.84,2.85,2.81,2.85,4225792
2020-04-24,2.84,2.87,2.82,2.86,4338375
2020-04-27,2.88,2.9,2.85,2.86,7395458
2020-04-28,2.87,2.88,2.84,2.85,2466800
2020-04-29,2.85,2.89,2.85,2.87,3189625
2020-05-04,2.84,2.86,2.8,2.8,5004000
2020-05-05,2.83,2.84,2.81,2.82,2719000
2020-05-06,2.86,2.87,2.84,2.87,2040000
2020-05-07,2.85,2.91,2.85,2.89,5334596
2020-05-08,2.9,2.92,2.86,2.89,3376056
2020-05-11,2.9,2.94,2.9,2.91,3405375
2020-05-12,2.91,2.91,2.86,2.89,3975000
2020-05-13,2.89,2.9,2.86,2.89,3917393
2020-05-14,2.89,2.89,2.84,2.84,6998000
2020-05-15,2.68,2.73,2.68,2.7,4668334
2020-05-18,2.73,2.73,2.67,2.67,2486632
2020-05-19,2.68,2.7,2.62,2.69,7773752
2020-05-20,2.69,2.71,2.66,2.7,5142552
2020-05-21,2.71,2.71,2.64,2.64,4377000
2020-05-22,2.64,2.64,2.52,2.57,7342199
2020-05-25,2.5,2.57,2.47,2.57,5077000
2020-05-26,2.6,2.62,2.57,2.57,2189000
2020-05-27,2.61,2.61,2.51,2.53,5011586
2020-05-28,2.54,2.6,2.48,2.48,4710353
2020-05-29,2.48,2.52,2.46,2.46,6616318
2020-06-01,2.47,2.59,2.47,2.59,4682193
2020-06-02,2.59,2.6,2.55,2.59,4954755
2020-06-03,2.62,2.63,2.58,2.62,5709337
2020-06-04,2.64,2.65,2.62,2.64,6056707
2020-06-05,2.63,2.65,2.6,2.65,5912033
2020-06-08,2.66,2.72,2.66,2.71,3635976
2020-06-09,2.72,2.72,2.66,2.68,4336376
2020-06-10,2.68,2.7,2.67,2.68,2587000
2020-06-11,2.67,2.7,2.66,2.69,3208350
2020-06-12,2.62,2.69,2.6,2.63,6377251
2020-06-15,2.62,2.65,2.6,2.6,3055000
2020-06-16,2.63,2.64,2.56,2.59,5507000
2020-06-17,2.61,2.61,2.56,2.58,2528035
2020-06-18,2.6,2.6,2.54,2.55,3862320
2020-06-19,2.58,2.58,2.53,2.57,3127871
2020-06-22,2.55,2.55,2.52,2.55,2080977
2020-06-23,2.55,2.56,2.52,2.53,3260746
2020-06-24,2.55,2.55,2.51,2.51,3811222
2020-06-26,2.51,2.55,2.5,2.55,2951256
2020-06-29,2.52,2.55,2.5,2.51,4362000
2020-06-30,2.52,2.52,2.46,2.46,7938527
2020-07-02,2.46,2.53,2.46,2.49,9136283
2020-07-03,2.5,2.54,2.49,2.54,2602865
2020-07-06,2.54,2.6,2.52,2.59,6530694
2020-07-07,2.61,2.62,2.54,2.57,6100225
2020-07-08,2.56,2.57,2.52,2.54,3702862
2020-07-09,2.54,2.57,2.52,2.54,2903508
2020-07-10,2.54,2.55,2.48,2.49,6711813
2020-07-13,2.49,2.51,2.48,2.48,4174658
2020-07-14,2.5,2.52,2.45,2.46,8300506
2020-07-15,2.46,2.48,2.44,2.46,4202752
2020-07-16,2.46,2.47,2.43,2.45,3630000
2020-07-17,2.46,2.51,2.44,2.5,3697000
2020-07-20,2.5,2.52,2.49,2.49,2406050
2020-07-21,2.49,2.51,2.48,2.49,2484330
2020-07-22,2.5,2.53,2.49,2.5,3409527
2020-07-23,2.5,2.51,2.46,2.49,2417163
2020-07-24,2.49,2.49,2.44,2.45,3337250
2020-07-27,2.45,2.45,2.42,2.43,2279342
2020-07-28,2.42,2.46,2.42,2.44,1523000
2020-07-29,2.45,2.46,2.42,2.44,1336625
2020-07-30,2.44,2.47,2.43,2.47,2646000
2020-07-31,2.46,2.47,2.43,2.46,4675222
2020-08-03,2.46,2.52,2.46,2.49,2290000
2020-08-04,2.52,2.52,2.45,2.46,3435500
2020-08-05,2.47,2.49,2.47,2.48,2613022
2020-08-06,2.49,2.49,2.46,2.49,3436375
2020-08-07,2.47,2.49,2.41,2.44,9896294
2020-08-10,2.44,2.44,2.41,2.41,3153950
2020-08-11,2.41,2.47,2.41,2.46,3033078
2020-08-12,2.46,2.57,2.46,2.57,6742251
2020-08-13,2.6,2.6,2.55,2.57,5968000
2020-08-14,2.56,2.61,2.56,2.59,3783000
2020-08-17,2.61,2.62,2.58,2.6,2135376
2020-08-18,2.62,2.72,2.58,2.7,10079375
2020-08-19,2.71,2.72,2.68,2.68,3224250
2020-08-20,2.68,2.7,2.66,2.68,4529736
2020-08-21,2.7,2.7,2.67,2.68,2262310
2020-08-24,2.69,2.7,2.68,2.7,4030091
2020-08-25,2.72,2.72,2.68,2.71,2902800
