Date,Open,High,Low,Close,Volume
2019-01-25,2.48,2.56,2.48,2.51,34664000
2019-01-28,2.49,2.52,2.49,2.5,958000
2019-01-29,2.49,2.51,2.48,2.49,876000
2019-01-30,2.5,2.52,2.5,2.51,1006000
2019-01-31,2.51,2.65,2.51,2.58,5966000
2019-02-01,2.6,2.6,2.54,2.58,1342000
2019-02-04,2.57,2.78,2.57,2.75,3112000
2019-02-08,2.75,2.82,2.65,2.8,2546000
2019-02-11,2.8,2.98,2.76,2.78,1362000
2019-02-12,2.78,2.82,2.78,2.78,450000
2019-02-13,2.79,2.84,2.65,2.72,790000
2019-02-14,2.72,2.9,2.72,2.87,1186000
2019-02-15,2.87,2.97,2.85,2.89,3208000
2019-02-18,2.9,3.05,2.85,3.0,4296000
2019-02-19,3.0,3.15,2.91,3.1,2674000
2019-02-20,3.1,3.22,2.97,3.05,3264000
2019-02-21,3.05,3.12,3.05,3.1,1272000
2019-02-22,3.06,3.15,3.04,3.15,3700000
2019-02-25,3.15,3.3,3.15,3.2,1124000
2019-02-26,3.2,3.25,3.1,3.16,638000
2019-02-27,3.16,3.16,2.9,3.12,1266000
2019-02-28,3.08,3.11,3.0,3.08,1226000
2019-03-01,3.08,3.11,3.01,3.08,520000
2019-03-04,3.08,3.13,2.96,3.13,1742000
2019-03-05,3.13,3.26,3.07,3.19,4294000
2019-03-06,3.19,3.21,3.15,3.18,1044000
2019-03-07,3.15,3.15,3.08,3.1,522000
2019-03-08,3.07,3.08,3.02,3.04,414000
2019-03-11,3.04,3.2,3.04,3.19,1416000
2019-03-12,3.19,3.19,3.05,3.15,1164000
2019-03-13,3.15,3.17,3.05,3.1,506000
2019-03-14,3.05,3.07,3.0,3.07,1032000
2019-03-15,3.07,3.1,3.04,3.08,1042000
2019-03-18,3.04,3.08,3.04,3.08,362000
2019-03-19,3.1,3.1,3.0,3.07,1148000
2019-03-20,3.04,3.05,3.0,3.05,1018000
2019-03-21,3.07,3.09,2.99,3.02,1018000
2019-03-22,3.06,3.08,3.02,3.08,1452000
2019-03-25,3.08,3.1,3.01,3.04,1046000
2019-03-26,3.01,3.05,2.96,3.05,1018000
2019-03-27,3.05,3.09,3.03,3.06,442000
2019-03-28,3.05,3.08,3.02,3.08,1886000
2019-03-29,3.13,3.17,3.06,3.17,2560000
2019-04-01,3.29,3.5,3.21,3.37,8523000
2019-04-02,3.4,3.44,3.29,3.3,2160000
2019-04-03,3.33,3.43,3.32,3.4,2314300
2019-04-04,3.41,3.72,3.4,3.57,6816000
2019-04-08,3.63,3.63,3.48,3.52,1280000
2019-04-09,3.52,3.67,3.52,3.63,1564280
2019-04-10,3.67,3.68,3.55,3.63,1744000
2019-04-11,3.66,3.77,3.51,3.52,2696000
2019-04-12,3.62,3.65,3.54,3.63,2412000
2019-04-15,3.64,3.69,3.63,3.64,1686000
2019-04-16,3.63,3.75,3.62,3.75,2368000
2019-04-17,3.75,3.82,3.68,3.68,1786000
2019-04-18,3.65,3.74,3.61,3.65,1282000
2019-04-23,3.65,3.73,3.62,3.65,1590000
2019-04-24,3.66,3.72,3.62,3.68,2236000
2019-04-25,3.64,3.73,3.62,3.66,3412000
2019-04-26,3.63,3.71,3.62,3.7,2184000
2019-04-29,3.66,3.79,3.66,3.73,1652000
2019-04-30,3.73,3.74,3.68,3.73,1750000
2019-05-02,3.78,3.79,3.69,3.73,560000
2019-05-03,3.71,3.74,3.68,3.74,588000
2019-05-06,3.71,3.71,3.5,3.57,1764420
2019-05-07,3.65,3.66,3.53,3.6,1024000
2019-05-08,3.59,3.6,3.55,3.56,1106000
2019-05-09,3.58,3.58,3.41,3.49,1140000
2019-05-10,3.52,3.53,3.39,3.47,1278000
2019-05-14,3.42,3.45,3.27,3.42,4128000
2019-05-15,3.35,3.5,3.35,3.49,1334000
2019-05-16,3.48,3.49,3.4,3.48,218000
2019-05-17,3.5,3.5,3.38,3.48,1408000
2019-05-20,3.42,3.46,3.35,3.41,648000
2019-05-21,3.39,3.45,3.32,3.39,1420000
2019-05-22,3.34,3.42,3.2,3.33,1626000
2019-05-23,3.3,3.3,3.16,3.24,1708000
2019-05-24,3.23,3.36,3.22,3.33,734000
2019-05-27,3.4,3.4,3.28,3.36,114000
2019-05-28,3.39,3.41,3.27,3.29,1326000
2019-05-29,3.29,3.33,3.28,3.32,66000
2019-05-30,3.32,3.42,3.3,3.38,284000
2019-05-31,3.38,3.4,3.34,3.4,1050000
2019-06-03,3.36,3.41,3.33,3.39,1040000
2019-06-04,3.4,3.4,3.3,3.35,254000
2019-06-05,3.27,3.35,3.25,3.3,1034000
2019-06-06,3.35,3.36,3.25,3.36,1324000
2019-06-10,3.39,3.4,3.33,3.38,1060000
2019-06-11,3.39,3.5,3.36,3.42,1230000
2019-06-12,3.41,3.41,3.28,3.41,1192000
2019-06-13,3.32,3.39,3.32,3.38,66000
2019-06-14,3.32,3.37,3.32,3.35,150000
2019-06-17,3.35,3.36,3.3,3.33,194000
2019-06-18,3.3,3.33,3.25,3.33,1056000
2019-06-19,3.39,3.41,3.33,3.38,1166000
2019-06-20,3.37,3.44,3.33,3.43,1234000
2019-06-21,3.43,3.54,3.36,3.52,1352000
2019-06-24,3.56,3.59,3.4,3.45,1154000
2019-06-25,3.46,3.53,3.42,3.52,1344000
2019-06-26,3.52,3.7,3.52,3.68,2922000
2019-06-27,3.7,3.75,3.52,3.61,2194000
2019-06-28,3.69,3.7,3.56,3.63,1056000
2019-07-02,3.69,3.69,3.58,3.63,1218000
2019-07-03,3.64,3.64,3.53,3.57,274000
2019-07-04,3.52,3.59,3.47,3.54,1060000
2019-07-05,3.53,3.55,3.48,3.54,310000
2019-07-08,3.56,3.56,3.42,3.5,70000
2019-07-09,3.42,3.5,3.42,3.47,312000
2019-07-10,3.44,3.58,3.33,3.45,1494000
2019-07-11,3.47,3.54,3.43,3.48,2978000
2019-07-12,3.49,3.51,3.45,3.45,1904000
2019-07-15,3.48,3.56,3.48,3.53,2436000
2019-07-16,3.53,3.63,3.5,3.59,3440000
2019-07-17,3.6,3.65,3.55,3.61,1244000
2019-07-18,3.61,3.68,3.55,3.66,1984000
2019-07-19,3.68,3.72,3.61,3.7,1496000
2019-07-22,3.63,3.73,3.63,3.71,1500000
2019-07-23,3.71,3.9,3.7,3.74,2392000
2019-07-24,3.79,3.8,3.71,3.77,1658000
2019-07-25,3.79,3.79,3.71,3.76,1810000
2019-07-26,3.76,3.89,3.7,3.77,3362000
2019-07-29,3.79,3.82,3.7,3.75,1328000
2019-07-30,3.78,3.8,3.71,3.73,1938000
2019-07-31,3.72,3.78,3.7,3.78,1052000
2019-08-01,3.78,3.78,3.71,3.76,1376000
2019-08-02,3.71,3.74,3.64,3.66,678000
2019-08-05,3.6,3.65,3.55,3.58,1112000
2019-08-06,3.5,3.5,3.4,3.48,1196000
2019-08-07,3.47,3.53,3.42,3.48,1092000
2019-08-08,3.5,3.54,3.48,3.51,1274000
2019-08-09,3.63,3.63,3.46,3.5,1160000
2019-08-12,3.52,3.56,3.45,3.49,614000
2019-08-13,3.43,3.46,3.35,3.37,2378000
2019-08-14,3.45,3.48,3.35,3.4,1074000
2019-08-15,3.33,3.46,3.33,3.45,1066000
2019-08-16,3.4,3.45,3.37,3.44,576000
2019-08-19,3.57,3.6,3.49,3.55,1238000
2019-08-20,3.54,3.59,3.5,3.55,1608000
2019-08-21,3.58,3.59,3.53,3.58,778000
2019-08-22,3.59,3.63,3.55,3.62,1078000
2019-08-23,3.61,3.65,3.58,3.65,1040000
2019-08-26,3.57,3.68,3.55,3.68,1474000
2019-08-27,3.69,3.86,3.68,3.81,3440000
2019-08-28,3.83,3.88,3.68,3.8,1646000
2019-08-29,3.8,3.87,3.75,3.84,3394000
2019-08-30,3.83,3.98,3.83,3.97,6516000
2019-09-02,3.98,4.18,3.95,4.13,6152000
2019-09-03,4.13,4.18,3.9,3.95,6582000
2019-09-04,4.01,4.2,3.9,4.2,3720000
2019-09-05,4.2,4.3,4.08,4.17,3064000
2019-09-06,4.19,4.19,4.08,4.16,3030000
2019-09-09,4.16,4.29,4.13,4.14,4546000
2019-09-10,4.08,4.19,3.9,4.0,2082000
2019-09-11,3.95,4.09,3.8,3.83,2188000
2019-09-12,3.82,3.9,3.79,3.86,2246000
2019-09-13,3.81,3.92,3.8,3.9,1246000
2019-09-16,3.86,3.98,3.86,3.94,2606000
2019-09-17,3.91,4.0,3.89,3.89,1162000
2019-09-18,3.96,3.96,3.77,3.85,3422000
2019-09-19,3.85,4.05,3.85,3.91,3508000
2019-09-20,3.89,3.98,3.85,3.89,1508000
2019-09-23,3.85,4.05,3.85,3.92,2934000
2019-09-24,3.95,4.08,3.9,4.04,3672000
2019-09-25,4.1,4.1,3.95,3.97,1660000
2019-09-26,3.98,4.04,3.87,3.87,2234000
2019-09-27,3.87,3.98,3.87,3.94,1648000
2019-09-30,3.98,3.99,3.84,3.94,1728000
2019-10-02,3.89,4.0,3.87,3.95,1226000
2019-10-03,3.85,3.95,3.85,3.94,1136000
2019-10-04,3.95,4.03,3.86,3.92,1100000
2019-10-08,3.87,4.08,3.87,4.05,3462000
2019-10-09,4.02,4.1,3.97,4.0,1402000
2019-10-10,4.02,4.06,3.93,3.98,2700000
2019-10-11,4.0,4.01,3.94,3.99,1116000
2019-10-14,4.08,4.13,3.96,4.0,2606000
2019-10-15,4.0,4.03,3.94,4.01,1410000
2019-10-16,3.96,4.14,3.96,4.09,2990000
2019-10-17,4.08,4.28,4.05,4.21,5750000
2019-10-18,4.25,4.28,4.06,4.08,3016000
2019-10-21,4.15,4.15,4.02,4.05,1860000
2019-10-22,4.08,4.08,4.0,4.06,1462000
2019-10-23,4.06,4.07,3.97,4.02,1546000
2019-10-24,4.0,4.1,3.98,3.98,514000
2019-10-25,3.97,4.06,3.92,4.01,1736000
2019-10-28,4.05,4.05,3.89,3.96,2324000
2019-10-29,3.99,4.02,3.82,3.87,2994000
2019-10-30,3.92,3.97,3.74,3.8,2416000
2019-10-31,3.84,3.98,3.8,3.97,1678000
2019-11-01,3.94,3.99,3.9,3.97,682000
2019-11-04,4.0,4.04,3.96,4.03,1462000
2019-11-05,4.02,4.05,3.86,3.9,2770000
2019-11-06,3.97,3.97,3.87,3.9,254000
2019-11-07,3.89,3.95,3.84,3.92,1070000
2019-11-08,3.96,3.96,3.78,3.85,1958000
2019-11-11,3.85,3.85,3.62,3.77,830000
2019-11-12,3.83,3.83,3.65,3.73,1160000
2019-11-13,3.7,3.76,3.52,3.7,844000
2019-11-14,3.67,3.73,3.6,3.7,596000
2019-11-15,3.79,3.79,3.57,3.66,1282000
2019-11-18,3.64,3.78,3.59,3.77,1422000
2019-11-19,3.79,3.85,3.71,3.83,1022000
2019-11-20,3.79,3.89,3.79,3.89,1154000
2019-11-21,3.86,3.88,3.76,3.8,586000
2019-11-22,3.8,3.8,3.66,3.74,740000
2019-11-25,3.7,3.8,3.66,3.71,458000
2019-11-26,3.69,3.71,3.63,3.71,1128000
2019-11-27,3.7,3.73,3.65,3.72,1106000
2019-11-28,3.67,3.69,3.62,3.65,2220000
2019-11-29,3.65,3.67,3.64,3.67,740000
2019-12-02,3.63,3.73,3.62,3.7,1108000
2019-12-03,3.63,3.83,3.63,3.83,1954000
2019-12-04,3.85,3.87,3.72,3.76,1214000
2019-12-05,3.67,3.82,3.67,3.81,1242000
2019-12-06,3.82,3.84,3.71,3.75,1204000
2019-12-09,3.81,3.82,3.7,3.7,612000
2019-12-10,3.78,3.78,3.71,3.75,1072000
2019-12-11,3.77,3.8,3.64,3.74,1334000
2019-12-12,3.77,3.8,3.77,3.8,1056000
2019-12-13,3.8,3.91,3.8,3.88,2788000
2019-12-16,3.89,3.89,3.67,3.7,2610000
2019-12-17,3.71,3.75,3.44,3.55,5520000
2019-12-18,3.52,3.64,3.45,3.58,1712000
2019-12-19,3.59,3.6,3.52,3.52,1428000
2019-12-20,3.55,3.67,3.52,3.67,2094000
2019-12-23,3.69,3.7,3.59,3.67,276000
2019-12-24,3.69,3.73,3.65,3.73,518000
2019-12-27,3.72,3.74,3.65,3.73,852082
2019-12-30,3.76,3.76,3.7,3.73,488000
2019-12-31,3.72,3.77,3.71,3.76,584000
2020-01-02,3.79,3.8,3.7,3.77,1520000
2020-01-03,3.78,3.86,3.78,3.85,2180000
2020-01-06,3.81,3.86,3.78,3.83,1966000
2020-01-07,3.82,3.87,3.8,3.85,2324000
2020-01-08,3.85,3.9,3.82,3.9,4350000
2020-01-09,3.92,4.04,3.92,4.0,5948000
2020-01-10,3.96,4.09,3.95,3.99,7308000
2020-01-13,3.99,4.06,3.99,4.06,4118000
2020-01-14,4.2,4.48,4.2,4.3,17970000
2020-01-15,4.29,4.69,4.27,4.63,20181000
2020-01-16,4.63,4.86,4.48,4.76,11536000
2020-01-17,4.76,4.8,4.65,4.73,4738000
2020-01-20,4.7,4.73,4.54,4.6,6434000
2020-01-21,4.6,4.65,4.36,4.5,5538000
2020-01-22,4.51,4.6,4.42,4.5,7105000
2020-01-23,4.5,4.53,4.21,4.4,5214000
2020-01-24,4.4,4.45,4.33,4.45,3504000
2020-01-29,4.3,4.4,4.27,4.31,2692000
2020-01-30,4.24,4.32,4.09,4.17,4516000
2020-01-31,4.02,4.17,4.02,4.15,1696000
2020-02-03,4.03,4.36,4.03,4.25,7260104
2020-02-04,4.32,4.5,4.27,4.37,3468000
2020-02-05,4.37,4.56,4.29,4.5,9694000
2020-02-06,4.51,4.53,4.28,4.39,8839000
2020-02-07,4.38,4.55,4.26,4.51,8319000
2020-02-10,4.49,4.72,4.49,4.61,9628000
2020-02-11,4.61,4.7,4.57,4.66,2932000
2020-02-12,4.65,4.8,4.65,4.78,4713702
2020-02-13,4.79,4.83,4.53,4.8,8310000
2020-02-14,4.8,4.87,4.63,4.7,3830000
2020-02-17,4.71,4.81,4.69,4.7,2978000
2020-02-18,4.7,4.84,4.66,4.8,4518000
2020-02-19,4.8,4.87,4.66,4.7,2076000
2020-02-20,4.69,4.79,4.6,4.68,4450000
2020-02-21,4.67,4.74,4.5,4.74,4156000
2020-02-24,4.74,4.74,4.45,4.65,8284000
2020-02-25,4.65,4.66,4.51,4.57,2993000
2020-02-26,4.57,4.65,4.31,4.61,7735560
2020-02-27,4.6,4.65,4.42,4.63,6606000
2020-02-28,4.59,4.59,4.43,4.51,2350000
2020-03-02,4.51,4.55,4.38,4.54,1870000
2020-03-03,4.56,4.62,4.42,4.44,3350000
2020-03-04,4.43,4.49,4.28,4.45,3206008
2020-03-05,4.44,4.49,4.33,4.49,3228000
2020-03-06,4.47,4.47,4.3,4.43,3250000
2020-03-09,4.28,4.35,4.19,4.25,2782000
2020-03-10,4.24,4.32,4.1,4.29,4624000
2020-03-11,4.3,4.3,4.12,4.2,4582000
2020-03-12,4.13,4.13,3.98,4.06,3570000
2020-03-13,3.87,4.06,3.53,4.06,5332000
2020-03-16,3.81,3.94,3.7,3.7,5364000
2020-03-17,3.64,3.8,3.6,3.71,1442000
2020-03-18,3.75,3.88,3.44,3.6,5222000
2020-03-19,3.51,3.61,3.21,3.3,11404000
2020-03-20,3.36,3.5,3.31,3.49,5574000
2020-03-23,3.49,3.49,3.26,3.4,3080000
2020-03-24,3.42,3.52,3.38,3.51,3686000
2020-03-25,3.54,3.84,3.53,3.84,4218000
2020-03-26,3.87,3.98,3.85,3.9,7068146
2020-03-27,4.0,4.02,3.85,3.92,5148000
2020-03-30,3.92,4.13,3.92,4.09,5580000
2020-03-31,4.09,4.17,4.03,4.05,3764000
2020-04-01,4.11,4.14,3.93,4.1,5312000
2020-04-02,4.09,4.09,3.95,3.98,1458000
2020-04-03,3.94,3.97,3.79,3.89,1576000
2020-04-06,3.97,3.99,3.84,3.96,1912000
2020-04-07,4.0,4.18,3.91,4.14,5716000
2020-04-08,4.0,4.23,4.0,4.19,4056000
2020-04-09,4.2,4.4,4.16,4.34,5200000
2020-04-14,4.38,4.44,4.3,4.41,3223232
2020-04-15,4.41,4.49,4.39,4.46,5043408
2020-04-16,4.45,4.51,4.3,4.5,5682184
2020-04-17,4.56,4.65,4.43,4.46,4004000
2020-04-20,4.5,4.55,4.45,4.46,1574000
2020-04-21,4.41,4.47,4.35,4.42,3362335
2020-04-22,4.34,4.49,4.33,4.47,4060000
2020-04-23,4.48,4.67,4.45,4.64,6586000
2020-04-24,4.67,4.77,4.5,4.55,3354000
2020-04-27,4.65,4.75,4.5,4.75,4749825
2020-04-28,4.75,4.96,4.68,4.96,8484000
2020-04-29,4.97,4.97,4.8,4.94,4898000
2020-05-04,4.86,4.94,4.52,4.7,3990000
2020-05-05,4.8,4.83,4.69,4.78,1376000
2020-05-06,4.81,4.81,4.68,4.71,4696000
2020-05-07,4.7,4.72,4.59,4.7,4596000
2020-05-08,4.74,4.94,4.67,4.85,7548000
2020-05-11,4.99,5.14,4.88,5.06,10076000
2020-05-12,5.01,5.15,5.0,5.08,7825722
2020-05-13,5.13,5.27,5.13,5.2,8318000
2020-05-14,5.21,5.25,5.05,5.19,4078000
2020-05-15,5.18,5.36,5.15,5.33,7232000
2020-05-18,5.29,5.65,5.22,5.6,6952000
2020-05-19,5.7,5.78,5.56,5.75,5214000
2020-05-20,5.79,6.1,5.77,5.98,9470000
2020-05-21,5.98,6.07,5.7,5.78,4470000
2020-05-22,5.62,5.94,5.52,5.64,7168000
2020-05-25,5.64,5.88,5.61,5.88,3690381
2020-05-26,5.99,6.13,5.86,5.93,8132000
2020-05-27,5.93,6.06,5.69,5.82,2654000
2020-05-28,5.8,5.93,5.75,5.9,4832000
2020-05-29,5.83,6.28,5.79,6.28,20334000
2020-06-01,6.28,6.46,6.28,6.38,4672000
2020-06-02,6.37,6.66,6.35,6.56,6041931
2020-06-03,6.61,6.8,6.51,6.61,5664000
2020-06-04,6.65,6.73,6.37,6.54,2486000
2020-06-05,6.52,6.69,6.47,6.52,1980546
2020-06-08,6.55,6.6,6.06,6.27,5122000
2020-06-09,6.28,6.49,6.21,6.29,1956000
2020-06-10,6.22,6.43,6.21,6.36,2009708
2020-06-11,6.56,6.6,6.25,6.33,2892000
2020-06-12,6.16,6.37,6.07,6.34,3240000
2020-06-15,6.26,6.45,6.05,6.2,2218000
2020-06-16,6.24,6.38,6.14,6.32,1742000
2020-06-17,6.4,6.4,6.2,6.3,1618000
2020-06-18,6.24,6.32,6.17,6.28,5246000
2020-06-19,6.26,6.43,6.26,6.36,2546135
2020-06-22,6.46,6.46,6.26,6.32,6242000
2020-06-23,6.39,6.6,6.3,6.56,2106000
2020-06-24,6.5,6.86,6.42,6.55,2038000
2020-06-26,6.5,6.5,6.2,6.3,2504000
2020-06-29,6.24,6.36,6.01,6.19,3428000
2020-06-30,6.15,6.29,6.05,6.24,3752000
2020-07-02,6.3,6.55,6.08,6.44,2970000
2020-07-03,6.45,6.6,6.28,6.45,4056000
2020-07-06,6.48,6.48,5.8,6.05,15370000
2020-07-07,6.1,6.1,5.85,5.99,3782000
2020-07-08,6.0,6.15,5.87,6.04,2296000
2020-07-09,6.05,6.1,5.69,5.77,7790000
2020-07-10,5.72,5.95,5.72,5.87,2986000
2020-07-13,5.94,6.04,5.84,5.99,2886000
2020-07-14,5.95,6.06,5.8,5.89,3038000
2020-07-15,5.95,6.14,5.94,6.06,2846000
2020-07-16,6.11,6.14,5.76,5.91,4236000
2020-07-17,5.83,6.2,5.74,6.2,3861713
2020-07-20,6.22,6.52,6.22,6.46,5172000
2020-07-21,6.5,6.68,6.26,6.58,5680000
2020-07-22,6.5,6.6,6.2,6.36,3790000
2020-07-23,6.38,6.47,6.13,6.45,2670000
2020-07-24,6.45,6.54,5.96,6.08,3040000
2020-07-27,6.08,6.2,5.81,5.96,3380000
2020-07-28,6.02,6.13,5.86,6.0,1429700
2020-07-29,6.08,6.15,5.92,5.97,1538000
2020-07-30,6.01,6.15,5.86,5.9,2956000
2020-07-31,5.9,5.99,5.82,5.95,2286000
2020-08-03,6.06,6.17,5.86,5.98,1624000
2020-08-04,5.98,6.25,5.96,6.25,3132000
2020-08-05,6.31,6.41,6.04,6.05,1372000
2020-08-06,6.13,6.3,5.97,6.29,1962000
2020-08-07,6.29,6.43,6.1,6.24,2096000
2020-08-10,6.2,6.39,6.14,6.2,1228000
2020-08-11,6.18,6.31,6.03,6.17,1764000
2020-08-12,6.13,6.21,5.91,6.13,2112000
2020-08-13,6.11,6.29,6.0,6.05,1172000
2020-08-14,6.02,6.16,5.99,6.0,1742000
2020-08-17,6.0,6.14,5.95,6.01,1532000
2020-08-18,6.01,6.26,6.01,6.25,1636000
2020-08-19,6.2,6.36,6.16,6.28,1266000
2020-08-20,6.21,6.38,6.16,6.38,1234000
2020-08-21,6.35,6.49,6.16,6.21,2302000
2020-08-24,6.21,6.73,6.21,6.64,7278000
2020-08-25,6.62,6.64,6.24,6.4,3214000
