Date,High,Low,Open,Close,Volume
2019-05-28,2.7300000190734863,2.650000095367432,2.6800000667572017,2.7100000381469727,31313000
2019-05-29,2.7100000381469727,2.6700000762939453,2.7100000381469727,2.690000057220459,2599000
2019-05-30,2.7100000381469727,2.6600000858306885,2.6800000667572017,2.6800000667572017,1581000
2019-05-31,3.0,2.6700000762939453,2.6800000667572017,2.990000009536743,5555000
2019-06-03,3.0,2.75,3.0,2.799999952316284,2772000
2019-06-04,2.970000028610229,2.6800000667572017,2.7799999713897705,2.8499999046325684,8487000
2019-06-05,2.8499999046325684,2.7799999713897705,2.8499999046325684,2.8199999332427983,1333000
2019-06-06,2.8399999141693115,2.7799999713897705,2.809999942779541,2.8299999237060547,1875000
2019-06-10,2.9500000476837163,2.789999961853028,2.8299999237060547,2.890000104904175,1729000
2019-06-11,2.880000114440918,2.8299999237060547,2.880000114440918,2.8299999237060547,1717000
2019-06-12,2.880000114440918,2.7699999809265137,2.8399999141693115,2.8199999332427983,1692000
2019-06-13,2.8499999046325684,2.799999952316284,2.8399999141693115,2.8199999332427983,1778000
2019-06-14,2.8399999141693115,2.7699999809265137,2.799999952316284,2.7699999809265137,2411000
2019-06-17,2.809999942779541,2.7300000190734863,2.809999942779541,2.740000009536743,2346000
2019-06-18,2.859999895095825,2.7300000190734863,2.7300000190734863,2.8199999332427983,2333000
2019-06-19,2.859999895095825,2.6800000667572017,2.789999961853028,2.8299999237060547,12932000
2019-06-20,2.900000095367432,2.789999961853028,2.789999961853028,2.900000095367432,1932000
2019-06-21,3.25,2.8499999046325684,2.890000104904175,3.140000104904175,4960000
2019-06-24,3.3299999237060547,3.0999999046325684,3.130000114440918,3.0999999046325684,2057000
2019-06-25,3.289999961853028,3.059999942779541,3.119999885559082,3.0699999332427983,2394000
2019-06-26,3.119999885559082,3.059999942779541,3.0799999237060547,3.0899999141693115,1432000
2019-06-27,3.1800000667572017,3.0699999332427983,3.0799999237060547,3.1700000762939453,1286000
2019-06-28,3.4800000190734863,3.109999895095825,3.1800000667572017,3.470000028610229,2861000
2019-07-02,3.7200000286102295,3.400000095367432,3.4800000190734863,3.5499999523162837,1892000
2019-07-03,3.5499999523162837,3.470000028610229,3.5499999523162837,3.4800000190734863,1175000
2019-07-04,3.619999885559082,3.4300000667572017,3.4600000381469727,3.5799999237060547,1418000
2019-07-05,3.9500000476837163,3.539999961853028,3.539999961853028,3.650000095367432,2403000
2019-07-08,3.740000009536743,3.5499999523162837,3.740000009536743,3.630000114440918,1357000
2019-07-09,3.670000076293945,3.4300000667572017,3.640000104904175,3.640000104904175,1701000
2019-07-10,3.75,3.4300000667572017,3.75,3.470000028610229,2584000
2019-07-11,3.5899999141693115,3.3399999141693115,3.4300000667572017,3.490000009536743,1568000
2019-07-12,3.5299999713897705,3.4300000667572017,3.5199999809265137,3.5,1132000
2019-07-15,3.5799999237060547,3.4500000476837163,3.4500000476837163,3.490000009536743,1239000
2019-07-16,3.509999990463257,3.4500000476837163,3.4600000381469727,3.490000009536743,1265000
2019-07-17,3.5499999523162837,3.4500000476837163,3.4500000476837163,3.5499999523162837,1201000
2019-07-18,3.5999999046325684,3.5199999809265137,3.5499999523162837,3.559999942779541,1277000
2019-07-19,3.6800000667572017,3.4800000190734863,3.5299999713897705,3.609999895095825,1736000
2019-07-22,3.7100000381469727,3.5899999141693115,3.5899999141693115,3.650000095367432,1406000
2019-07-23,3.7999999523162837,3.5999999046325684,3.5999999046325684,3.740000009536743,1766000
2019-07-24,3.75,3.660000085830689,3.740000009536743,3.690000057220459,1358000
2019-07-25,3.7300000190734863,3.5799999237060547,3.690000057220459,3.5999999046325684,1437000
2019-07-26,3.630000114440918,3.470000028610229,3.619999885559082,3.4800000190734863,2412000
2019-07-29,3.5199999809265137,3.4200000762939453,3.470000028610229,3.4500000476837163,1547000
2019-07-30,3.5199999809265137,3.400000095367432,3.4500000476837163,3.470000028610229,1180000
2019-07-31,3.5299999713897705,3.380000114440918,3.5299999713897705,3.509999990463257,1144000
2019-08-01,3.539999961853028,3.4100000858306885,3.539999961853028,3.470000028610229,1176000
2019-08-02,3.4500000476837163,3.380000114440918,3.4300000667572017,3.400000095367432,1383000
2019-08-05,3.440000057220459,3.25,3.440000057220459,3.369999885559082,1375000
2019-08-06,3.4300000667572017,3.2000000476837163,3.359999895095825,3.400000095367432,2247000
2019-08-07,3.5,3.369999885559082,3.4300000667572017,3.5,1186000
2019-08-08,3.5299999713897705,3.400000095367432,3.509999990463257,3.5299999713897705,1396000
2019-08-09,3.5499999523162837,3.4200000762939453,3.4200000762939453,3.539999961853028,1076000
2019-08-12,3.559999942779541,3.4500000476837163,3.5,3.4600000381469727,1178000
2019-08-13,3.490000009536743,3.390000104904175,3.490000009536743,3.400000095367432,1158000
2019-08-14,3.470000028610229,3.289999961853028,3.470000028610229,3.400000095367432,1228000
2019-08-15,3.380000114440918,3.3199999332427983,3.380000114440918,3.3499999046325684,1003000
2019-08-16,3.5,3.3399999141693115,3.390000104904175,3.5,1208000
2019-08-19,3.490000009536743,3.380000114440918,3.490000009536743,3.4300000667572017,1143000
2019-08-20,3.440000057220459,3.390000104904175,3.4200000762939453,3.4100000858306885,1456000
2019-08-21,3.4500000476837163,3.380000114440918,3.440000057220459,3.400000095367432,1300000
2019-08-22,3.4800000190734863,3.390000104904175,3.440000057220459,3.4200000762939453,1486000
2019-08-23,3.440000057220459,3.2999999523162837,3.440000057220459,3.3299999237060547,1415000
2019-08-26,3.400000095367432,3.240000009536743,3.2999999523162837,3.390000104904175,1785000
2019-08-27,3.490000009536743,3.4100000858306885,3.4100000858306885,3.4500000476837163,1415000
2019-08-28,3.619999885559082,3.4600000381469727,3.5,3.5999999046325684,1510000
2019-08-29,3.7999999523162837,3.5499999523162837,3.5999999046325684,3.660000085830689,9128000
2019-08-30,3.75,3.4800000190734863,3.75,3.5999999046325684,1849000
2019-09-02,3.859999895095825,3.7000000476837163,3.7999999523162837,3.809999942779541,3545000
2019-09-03,3.8199999332427983,3.5999999046325684,3.8199999332427983,3.650000095367432,1419000
2019-09-04,4.0399999618530265,3.690000057220459,3.7000000476837163,3.9300000667572017,5845000
2019-09-05,4.329999923706056,3.9800000190734863,3.990000009536743,4.320000171661377,2286000
2019-09-06,4.480000019073486,4.230000019073486,4.2800002098083505,4.349999904632568,1616000
2019-09-09,4.3400001525878915,4.0900001525878915,4.300000190734863,4.170000076293944,2009000
2019-09-10,4.2100000381469735,4.019999980926514,4.150000095367432,4.099999904632568,1907000
2019-09-11,4.130000114440918,4.0,4.130000114440918,4.099999904632568,1834000
2019-09-12,4.139999866485597,3.9800000190734863,4.139999866485597,4.099999904632568,1392000
2019-09-13,4.1599998474121085,4.070000171661377,4.0900001525878915,4.139999866485597,1142000
2019-09-16,4.199999809265137,4.079999923706056,4.199999809265137,4.119999885559082,1168000
2019-09-17,4.139999866485597,4.079999923706056,4.079999923706056,4.130000114440918,1253000
2019-09-18,4.309999942779541,4.110000133514403,4.110000133514403,4.2800002098083505,1321000
2019-09-19,4.380000114440918,4.230000019073486,4.230000019073486,4.239999771118163,1141000
2019-09-20,4.2800002098083505,4.179999828338623,4.2800002098083505,4.2100000381469735,980000
2019-09-23,4.260000228881837,4.170000076293944,4.199999809265137,4.190000057220459,1079000
2019-09-24,4.199999809265137,4.130000114440918,4.179999828338623,4.199999809265137,1065000
2019-09-25,4.2199997901916495,4.150000095367432,4.190000057220459,4.1599998474121085,1160000
2019-09-26,4.2899999618530265,4.110000133514403,4.179999828338623,4.110000133514403,1263000
2019-09-27,4.179999828338623,4.0300002098083505,4.110000133514403,4.130000114440918,1291000
2019-09-30,4.2100000381469735,4.0900001525878915,4.099999904632568,4.150000095367432,1548000
2019-10-02,4.199999809265137,4.130000114440918,4.139999866485597,4.130000114440918,1184000
2019-10-03,4.199999809265137,4.0900001525878915,4.099999904632568,4.179999828338623,1204000
2019-10-04,4.269999980926514,4.099999904632568,4.269999980926514,4.110000133514403,1080000
2019-10-08,4.139999866485597,4.019999980926514,4.130000114440918,4.0900001525878915,1232000
2019-10-09,4.110000133514403,3.849999904632568,4.099999904632568,4.099999904632568,1353000
2019-10-10,4.119999885559082,3.9300000667572017,4.059999942779541,4.119999885559082,1401000
2019-10-11,4.1599998474121085,4.050000190734863,4.110000133514403,4.099999904632568,1143000
2019-10-14,4.170000076293944,4.070000171661377,4.170000076293944,4.110000133514403,1113000
2019-10-15,4.119999885559082,4.059999942779541,4.099999904632568,4.0900001525878915,1130000
2019-10-16,4.110000133514403,4.019999980926514,4.110000133514403,4.0900001525878915,1134000
2019-10-17,4.119999885559082,4.059999942779541,4.0900001525878915,4.099999904632568,1037000
2019-10-18,4.130000114440918,3.890000104904175,4.079999923706056,4.0900001525878915,1492000
2019-10-21,4.099999904632568,4.019999980926514,4.059999942779541,4.0900001525878915,1318000
2019-10-22,4.150000095367432,3.9600000381469727,4.070000171661377,4.0900001525878915,1262000
2019-10-23,4.0900001525878915,3.940000057220459,4.050000190734863,4.0900001525878915,1101000
2019-10-24,4.110000133514403,3.990000009536743,4.099999904632568,4.0900001525878915,1210000
2019-10-25,4.099999904632568,4.0399999618530265,4.099999904632568,4.0900001525878915,971000
2019-10-28,4.269999980926514,4.0900001525878915,4.0900001525878915,4.2100000381469735,1198000
2019-10-29,4.4099998474121085,4.2100000381469735,4.2100000381469735,4.269999980926514,1225000
2019-10-30,4.320000171661377,4.239999771118163,4.239999771118163,4.260000228881837,1011000
2019-10-31,4.329999923706056,4.190000057220459,4.260000228881837,4.190000057220459,1265000
2019-11-01,4.2899999618530265,4.150000095367432,4.2899999618530265,4.230000019073486,987000
2019-11-04,4.25,4.199999809265137,4.2199997901916495,4.2100000381469735,997000
2019-11-05,4.260000228881837,4.199999809265137,4.230000019073486,4.2100000381469735,1055000
2019-11-06,4.2199997901916495,4.150000095367432,4.199999809265137,4.179999828338623,1138000
2019-11-07,4.2100000381469735,4.150000095367432,4.1599998474121085,4.179999828338623,1063000
2019-11-08,4.190000057220459,4.050000190734863,4.190000057220459,4.1599998474121085,1195000
2019-11-11,4.199999809265137,4.010000228881837,4.199999809265137,4.099999904632568,1296000
2019-11-12,4.179999828338623,4.070000171661377,4.119999885559082,4.150000095367432,1339000
2019-11-13,4.170000076293944,4.110000133514403,4.150000095367432,4.150000095367432,1014000
2019-11-14,4.150000095367432,4.119999885559082,4.119999885559082,4.130000114440918,1147000
2019-11-15,4.139999866485597,4.099999904632568,4.139999866485597,4.139999866485597,1080000
2019-11-18,4.170000076293944,4.099999904632568,4.110000133514403,4.119999885559082,939000
2019-11-19,4.099999904632568,3.990000009536743,4.079999923706056,4.0900001525878915,1117000
2019-11-20,4.119999885559082,4.0,4.059999942779541,4.099999904632568,1145000
2019-11-21,4.119999885559082,4.0,4.119999885559082,4.0300002098083505,1005000
2019-11-22,4.0900001525878915,4.010000228881837,4.0900001525878915,4.0900001525878915,1129000
2019-11-25,4.099999904632568,4.0,4.099999904632568,4.010000228881837,1181000
2019-11-26,4.019999980926514,3.9700000286102295,4.010000228881837,4.0,1113000
2019-11-27,4.079999923706056,3.920000076293945,4.070000171661377,3.9600000381469727,1170000
2019-11-28,3.940000057220459,3.740000009536743,3.940000057220459,3.740000009536743,1356000
2019-11-29,3.7799999713897705,3.6800000667572017,3.7699999809265137,3.7100000381469727,1467000
2019-12-02,3.759999990463257,3.7100000381469727,3.7200000286102295,3.75,1087000
2019-12-03,3.849999904632568,3.7300000190734863,3.740000009536743,3.7999999523162837,1428000
2019-12-04,3.869999885559082,3.759999990463257,3.7999999523162837,3.829999923706055,1369000
2019-12-05,3.869999885559082,3.809999942779541,3.839999914169312,3.829999923706055,1270000
2019-12-06,3.900000095367432,3.75,3.849999904632568,3.900000095367432,1268000
2019-12-09,3.920000076293945,3.7200000286102295,3.920000076293945,3.7999999523162837,1207000
2019-12-10,3.880000114440918,3.740000009536743,3.829999923706055,3.880000114440918,1250000
2019-12-11,3.890000104904175,3.740000009536743,3.890000104904175,3.7999999523162837,1251000
2019-12-12,3.839999914169312,3.75,3.7899999618530273,3.8199999332427983,1123000
2019-12-13,3.880000114440918,3.7699999809265137,3.7999999523162837,3.880000114440918,1266000
2019-12-16,3.869999885559082,3.75,3.849999904632568,3.7999999523162837,1160000
2019-12-17,4.0,3.7999999523162837,3.809999942779541,3.9500000476837163,1233000
2019-12-18,4.110000133514403,3.890000104904175,3.9600000381469727,4.019999980926514,1076000
2019-12-19,4.050000190734863,3.910000085830689,4.050000190734863,4.010000228881837,1080000
2019-12-20,4.110000133514403,3.9800000190734863,4.099999904632568,4.050000190734863,1140000
2019-12-23,4.099999904632568,3.990000009536743,4.059999942779541,4.050000190734863,1134000
2019-12-24,4.079999923706056,4.010000228881837,4.079999923706056,4.0300002098083505,728000
2019-12-27,4.019999980926514,3.9500000476837163,4.0,4.0,913000
2019-12-30,4.0399999618530265,3.9300000667572017,4.0399999618530265,3.9800000190734863,997000
2019-12-31,4.0,3.849999904632568,3.9700000286102295,3.9600000381469727,864000
2020-01-02,4.010000228881837,3.920000076293945,3.920000076293945,4.0,1007000
2020-01-03,4.059999942779541,3.990000009536743,4.0300002098083505,4.0,1217000
2020-01-06,4.079999923706056,3.910000085830689,4.079999923706056,3.9800000190734863,1107000
2020-01-07,3.990000009536743,3.900000095367432,3.9800000190734863,3.9600000381469727,1133000
2020-01-08,3.9700000286102295,3.880000114440918,3.9700000286102295,3.940000057220459,1051000
2020-01-09,4.0399999618530265,3.9500000476837163,3.9500000476837163,3.990000009536743,1220000
2020-01-10,4.0,3.900000095367432,3.9600000381469727,3.910000085830689,1185000
2020-01-13,3.940000057220459,3.880000114440918,3.9300000667572017,3.880000114440918,1037000
2020-01-14,3.910000085830689,3.880000114440918,3.910000085830689,3.880000114440918,1026000
2020-01-15,3.9300000667572017,3.829999923706055,3.869999885559082,3.829999923706055,3997000
2020-01-16,3.9700000286102295,3.880000114440918,3.920000076293945,3.9500000476837163,1190000
2020-01-17,4.0900001525878915,3.9300000667572017,3.940000057220459,3.9800000190734863,2517000
2020-01-20,4.019999980926514,3.9700000286102295,4.0,4.019999980926514,1366000
2020-01-21,4.010000228881837,3.809999942779541,3.809999942779541,3.9500000476837163,1010000
2020-01-22,3.9600000381469727,3.839999914169312,3.9600000381469727,3.940000057220459,1148000
2020-01-23,3.920000076293945,3.829999923706055,3.900000095367432,3.859999895095825,993000
2020-01-24,3.880000114440918,3.7999999523162837,3.859999895095825,3.880000114440918,1697780
2020-01-29,3.900000095367432,3.660000085830689,3.900000095367432,3.660000085830689,1668000
2020-01-30,3.75,3.5799999237060547,3.650000095367432,3.75,1566000
2020-01-31,3.740000009536743,3.650000095367432,3.740000009536743,3.690000057220459,1152000
2020-02-03,3.7000000476837163,3.5,3.5999999046325684,3.7000000476837163,1759000
2020-02-04,3.7899999618530273,3.5,3.740000009536743,3.7000000476837163,1174000
2020-02-05,3.7000000476837163,3.5299999713897705,3.690000057220459,3.7000000476837163,1014000
2020-02-06,3.7200000286102295,3.5499999523162837,3.660000085830689,3.7000000476837163,1043000
2020-02-07,3.7999999523162837,3.6800000667572017,3.690000057220459,3.7799999713897705,947000
2020-02-10,3.839999914169312,3.7000000476837163,3.7799999713897705,3.829999923706055,1220000
2020-02-11,3.9300000667572017,3.759999990463257,3.7699999809265137,3.900000095367432,646000
2020-02-12,4.0,3.839999914169312,3.869999885559082,4.0,1348000
2020-02-13,4.0300002098083505,3.900000095367432,4.0300002098083505,3.9800000190734863,1223000
2020-02-14,4.019999980926514,3.910000085830689,3.910000085830689,3.9700000286102295,626000
2020-02-17,4.010000228881837,3.940000057220459,4.0,3.9800000190734863,1124000
2020-02-18,3.990000009536743,3.900000095367432,3.9800000190734863,3.940000057220459,1128000
2020-02-19,4.0399999618530265,3.880000114440918,3.880000114440918,3.9800000190734863,1233000
2020-02-20,3.9600000381469727,3.890000104904175,3.900000095367432,3.890000104904175,565000
2020-02-21,3.9300000667572017,3.859999895095825,3.910000085830689,3.910000085830689,711000
2020-02-24,3.940000057220459,3.859999895095825,3.880000114440918,3.890000104904175,756000
2020-02-25,4.050000190734863,3.809999942779541,4.050000190734863,3.849999904632568,745000
2020-02-26,3.890000104904175,3.75,3.8199999332427983,3.880000114440918,984000
2020-02-27,3.859999895095825,3.75,3.75,3.849999904632568,1174000
2020-02-28,3.849999904632568,3.690000057220459,3.809999942779541,3.849999904632568,1263000
2020-03-02,3.920000076293945,3.75,3.910000085830689,3.759999990463257,1439000
2020-03-03,3.849999904632568,3.7300000190734863,3.829999923706055,3.740000009536743,1174000
2020-03-04,3.8199999332427983,3.7000000476837163,3.759999990463257,3.7200000286102295,997000
2020-03-05,3.829999923706055,3.7200000286102295,3.740000009536743,3.7699999809265137,751600
2020-03-06,3.839999914169312,3.7100000381469727,3.839999914169312,3.759999990463257,660000
2020-03-09,3.759999990463257,3.759999990463257,3.759999990463257,3.759999990463257,0
2020-03-10,3.640000104904175,3.640000104904175,3.640000104904175,3.640000104904175,0
2020-03-11,3.630000114440918,3.539999961853028,3.630000114440918,3.619999885559082,712000
2020-03-12,3.6800000667572017,3.4600000381469727,3.6800000667572017,3.5999999046325684,1200000
2020-03-13,3.7100000381469727,3.5,3.559999942779541,3.7000000476837163,647000
2020-03-16,3.690000057220459,3.509999990463257,3.690000057220459,3.630000114440918,685000
2020-03-17,3.619999885559082,3.5,3.5899999141693115,3.609999895095825,1222000
2020-03-18,4.050000190734863,3.5499999523162837,3.5999999046325684,3.619999885559082,1246000
2020-03-19,3.619999885559082,3.4600000381469727,3.619999885559082,3.5999999046325684,662000
2020-03-20,4.0,3.539999961853028,3.7999999523162837,3.75,584000
2020-03-23,3.6800000667572017,3.559999942779541,3.6800000667572017,3.609999895095825,609000
2020-03-24,3.6800000667572017,3.5499999523162837,3.609999895095825,3.5899999141693115,631000
2020-03-25,3.650000095367432,3.5,3.630000114440918,3.609999895095825,523000
2020-03-26,3.690000057220459,3.470000028610229,3.690000057220459,3.609999895095825,542000
2020-03-27,3.559999942779541,3.470000028610229,3.559999942779541,3.5499999523162837,1125000
2020-03-30,3.5499999523162837,3.4600000381469727,3.539999961853028,3.490000009536743,708000
2020-03-31,3.539999961853028,3.4300000667572017,3.490000009536743,3.4300000667572017,739000
2020-04-01,3.5,3.400000095367432,3.4300000667572017,3.5,505000
2020-04-02,3.7100000381469727,3.470000028610229,3.619999885559082,3.5,1280000
2020-04-03,3.5999999046325684,3.380000114440918,3.5999999046325684,3.4500000476837163,801000
2020-04-06,3.5799999237060547,3.3299999237060547,3.5799999237060547,3.3299999237060547,893000
2020-04-07,3.369999885559082,3.1800000667572017,3.369999885559082,3.2999999523162837,667000
2020-04-08,3.4300000667572017,3.150000095367432,3.4300000667572017,3.2100000381469727,601000
2020-04-09,3.5,3.1800000667572017,3.2100000381469727,3.5,540000
2020-04-14,3.559999942779541,3.109999895095825,3.559999942779541,3.2000000476837163,2565000
2020-04-15,3.240000009536743,3.0999999046325684,3.1700000762939453,3.150000095367432,698000
2020-04-16,3.1800000667572017,3.140000104904175,3.1700000762939453,3.1800000667572017,354000
2020-04-17,3.259999990463257,3.2000000476837163,3.2100000381469727,3.2000000476837163,447000
2020-04-20,3.2699999809265137,3.150000095367432,3.2100000381469727,3.220000028610229,11498000
2020-04-21,3.220000028610229,3.140000104904175,3.2100000381469727,3.1700000762939453,321000
2020-04-22,3.220000028610229,3.109999895095825,3.1700000762939453,3.130000114440918,319000
2020-04-23,3.309999942779541,3.140000104904175,3.1800000667572017,3.25,2586000
2020-04-24,3.2999999523162837,3.140000104904175,3.2300000190734863,3.25,1244000
2020-04-27,3.5299999713897705,3.2300000190734863,3.2300000190734863,3.4600000381469727,780000
2020-04-28,3.5,3.3499999046325684,3.4600000381469727,3.369999885559082,600000
2020-04-29,3.359999895095825,3.059999942779541,3.059999942779541,3.3299999237060547,813000
2020-05-04,3.2999999523162837,3.140000104904175,3.25,3.2000000476837163,777000
2020-05-05,3.25,3.109999895095825,3.2000000476837163,3.190000057220459,790000
2020-05-06,3.190000057220459,3.0899999141693115,3.1700000762939453,3.150000095367432,828000
2020-05-07,3.2000000476837163,3.140000104904175,3.150000095367432,3.2000000476837163,707000
2020-05-08,3.2999999523162837,3.190000057220459,3.2000000476837163,3.2300000190734863,2099000
2020-05-11,3.3499999046325684,3.220000028610229,3.25,3.3299999237060547,2372000
2020-05-12,3.3399999141693115,3.259999990463257,3.25,3.259999990463257,872000
2020-05-13,3.2999999523162837,3.0999999046325684,3.2999999523162837,3.2000000476837163,912000
2020-05-14,3.1700000762939453,3.0799999237060547,3.140000104904175,3.1600000858306885,706000
2020-05-15,3.2699999809265137,3.130000114440918,3.190000057220459,3.25,579204
2020-05-18,3.3499999046325684,3.2300000190734863,3.2999999523162837,3.289999961853028,2059000
2020-05-19,3.2999999523162837,3.25,3.2699999809265137,3.289999961853028,1894000
2020-05-20,3.289999961853028,3.25,3.2699999809265137,3.25,715000
2020-05-21,3.3499999046325684,3.220000028610229,3.2999999523162837,3.2699999809265137,424000
2020-05-22,3.2000000476837163,3.130000114440918,3.1800000667572017,3.1700000762939453,641000
2020-05-25,3.2799999713897705,3.150000095367432,3.25,3.2000000476837163,726000
2020-05-26,3.2000000476837163,3.130000114440918,3.2000000476837163,3.2000000476837163,789000
2020-05-27,3.25,3.1700000762939453,3.2000000476837163,3.2000000476837163,1116000
2020-05-28,3.25,3.150000095367432,3.25,3.2100000381469727,7408000
2020-05-29,3.2000000476837163,3.150000095367432,3.2000000476837163,3.150000095367432,1223000
2020-06-01,3.240000009536743,3.0999999046325684,3.190000057220459,3.1600000858306885,1581000
2020-06-02,3.1800000667572017,3.0899999141693115,3.130000114440918,3.0899999141693115,1507000
2020-06-03,3.130000114440918,2.9800000190734863,3.119999885559082,2.9800000190734863,1731000
2020-06-04,3.0499999523162837,2.9200000762939453,3.0499999523162837,3.0499999523162837,3102000
2020-06-05,3.109999895095825,3.009999990463257,3.059999942779541,3.059999942779541,2250000
2020-06-08,3.1600000858306885,3.0499999523162837,3.0699999332427983,3.109999895095825,2282000
2020-06-09,3.1800000667572017,3.0899999141693115,3.109999895095825,3.150000095367432,2422000
2020-06-10,3.1700000762939453,3.0499999523162837,3.130000114440918,3.0999999046325684,2058000
2020-06-11,3.0999999046325684,3.0199999809265137,3.0999999046325684,3.039999961853028,2137000
2020-06-12,3.059999942779541,2.9500000476837163,3.0299999713897705,3.0499999523162837,2298000
2020-06-15,3.109999895095825,2.9800000190734863,3.0799999237060547,3.0,7095000
2020-06-16,3.0699999332427983,3.0,3.009999990463257,3.0699999332427983,4872000
2020-06-17,3.0899999141693115,3.0,3.0699999332427983,3.0299999713897705,3768000
2020-06-18,3.0499999523162837,3.0,3.0299999713897705,3.0299999713897705,3582000
2020-06-19,3.1600000858306885,3.009999990463257,3.0199999809265137,3.140000104904175,5597000
2020-06-22,3.240000009536743,3.0199999809265137,3.119999885559082,3.140000104904175,5379000
2020-06-23,3.150000095367432,3.0499999523162837,3.119999885559082,3.150000095367432,3003000
2020-06-24,3.2300000190734863,3.0999999046325684,3.150000095367432,3.2100000381469727,3448000
2020-06-26,3.2999999523162837,3.1600000858306885,3.2100000381469727,3.2999999523162837,2725000
2020-06-29,3.3399999141693115,3.190000057220459,3.3299999237060547,3.2000000476837163,2345000
2020-06-30,3.25,3.119999885559082,3.25,3.240000009536743,4338000
2020-07-02,3.240000009536743,3.1700000762939453,3.240000009536743,3.190000057220459,2117000
2020-07-03,3.2300000190734863,3.119999885559082,3.2000000476837163,3.1800000667572017,3305000
2020-07-06,3.2000000476837163,3.150000095367432,3.2000000476837163,3.150000095367432,2415000
2020-07-07,3.1800000667572017,3.130000114440918,3.1800000667572017,3.140000104904175,1982000
2020-07-08,3.1800000667572017,3.059999942779541,3.1600000858306885,3.0999999046325684,2220000
2020-07-09,3.119999885559082,2.9500000476837163,3.109999895095825,3.0799999237060547,3288000
2020-07-10,3.130000114440918,3.009999990463257,3.0499999523162837,3.0199999809265137,3476000
2020-07-13,3.059999942779541,2.990000009536743,3.009999990463257,3.0,2090000
2020-07-14,3.0299999713897705,2.9600000381469727,3.0299999713897705,3.0,2268000
2020-07-15,3.059999942779541,2.9600000381469727,3.059999942779541,3.0,2547000
2020-07-16,3.0299999713897705,2.9500000476837163,3.0199999809265137,3.0299999713897705,2771000
2020-07-17,3.0699999332427983,2.990000009536743,3.0699999332427983,3.009999990463257,2461000
2020-07-20,3.059999942779541,2.9800000190734863,3.059999942779541,3.009999990463257,2046000
2020-07-21,3.0899999141693115,2.9500000476837163,3.0199999809265137,2.9800000190734863,2306000
2020-07-22,3.039999961853028,2.9600000381469727,3.0,3.039999961853028,2652000
2020-07-23,3.0499999523162837,2.9600000381469727,3.039999961853028,3.039999961853028,2786000
2020-07-24,3.0199999809265137,2.890000104904175,3.0199999809265137,3.0,3520000
2020-07-27,3.0799999237060547,2.990000009536743,3.0499999523162837,3.0,7463000
2020-07-28,3.0899999141693115,2.9800000190734863,2.9800000190734863,3.059999942779541,2389000
2020-07-29,3.059999942779541,2.9600000381469727,3.059999942779541,3.0,2077000
2020-07-30,3.0199999809265137,2.9800000190734863,3.0,3.0,1823000
2020-07-31,3.0499999523162837,2.990000009536743,3.009999990463257,3.0499999523162837,2266000
2020-08-03,3.059999942779541,3.0,3.0199999809265137,3.0,1885000
2020-08-04,3.0299999713897705,2.9800000190734863,3.0299999713897705,3.009999990463257,1864000
2020-08-05,3.039999961853028,2.970000028610229,3.009999990463257,3.0,2169000
2020-08-06,3.0199999809265137,2.9500000476837163,3.0,2.9800000190734863,2763000
2020-08-07,3.0899999141693115,2.970000028610229,2.9800000190734863,3.0,2312000
2020-08-10,3.0299999713897705,3.0,3.0299999713897705,3.0199999809265137,1570000
2020-08-11,3.0899999141693115,3.009999990463257,3.009999990463257,3.059999942779541,2008000
2020-08-12,3.0799999237060547,3.0199999809265137,3.0799999237060547,3.039999961853028,1567000
2020-08-13,3.0899999141693115,3.039999961853028,3.0699999332427983,3.059999942779541,1725000
2020-08-14,3.0799999237060547,3.0299999713897705,3.059999942779541,3.0499999523162837,1579000
2020-08-17,3.0799999237060547,3.0199999809265137,3.0699999332427983,3.039999961853028,1684000
2020-08-18,3.0499999523162837,3.009999990463257,3.0499999523162837,3.0199999809265137,2142000
2020-08-19,3.0499999523162837,3.0199999809265137,3.0299999713897705,3.0499999523162837,1160000
2020-08-20,3.059999942779541,3.0199999809265137,3.059999942779541,3.0499999523162837,1908000
2020-08-21,3.039999961853028,3.0199999809265137,3.0199999809265137,3.0299999713897705,2782000
2020-08-24,3.0499999523162837,3.0,3.039999961853028,3.0,2380400
2020-08-25,3.0299999713897705,2.970000028610229,3.0199999809265137,2.9800000190734863,2124000
