Date,Open,High,Low,Close,Volume
2014-08-22,22.0,22.4,22.0,22.2,38300
2014-08-25,22.1,22.1,22.1,22.15,3000
2014-08-26,21.8,22.0,21.8,22.0,7900
2014-08-27,22.0,22.0,21.95,22.0,9100
2014-08-28,21.8,21.95,21.8,21.8,11000
2014-08-29,22.0,22.0,21.65,21.65,3900
2014-09-01,21.55,21.9,21.5,21.9,22300
2014-09-02,21.8,21.8,21.65,21.65,1800
2014-09-03,21.5,21.95,21.5,21.65,10300
2014-09-04,21.45,21.9,21.45,21.9,4600
2014-09-05,21.0,21.6,20.7,21.15,76500
2014-09-08,21.0,21.5,21.0,21.0,16400
2014-09-10,21.4,21.75,21.35,21.45,29900
2014-09-11,21.2,21.65,21.2,21.4,30000
2014-09-12,21.3,22.0,21.3,21.9,32100
2014-09-15,21.5,21.75,21.5,21.75,3700
2014-09-16,21.75,21.8,21.6,21.8,68200
2014-09-17,22.0,22.0,21.75,21.8,37400
2014-09-18,21.7,21.7,21.0,21.0,2200
2014-09-19,21.1,22.35,21.1,22.2,91900
2014-09-22,22.0,22.5,21.7,21.7,96800
2014-09-23,21.4,21.5,21.1,21.1,31100
2014-09-24,21.95,22.0,21.8,21.9,23200
2014-09-25,21.9,21.9,21.9,21.9,40000
2014-09-26,22.6,23.25,22.6,22.85,240800
2014-09-29,22.75,22.75,22.5,22.5,40600
2014-09-30,22.15,22.15,21.95,22.1,45500
2014-10-03,21.7,21.7,21.5,21.5,19600
2014-10-06,21.45,21.45,21.0,21.3,19500
2014-10-07,21.75,22.45,21.75,21.9,15000
2014-10-08,21.25,21.55,21.25,21.45,24800
2014-10-09,22.0,22.7,22.0,22.4,95300
2014-10-10,21.8,21.8,21.35,21.35,64400
2014-10-13,21.0,21.65,21.0,21.65,14900
2014-10-14,21.65,21.65,21.25,21.4,7200
2014-10-15,21.15,21.2,20.65,20.8,102700
2014-10-16,20.6,20.75,20.5,20.75,39600
2014-10-17,20.8,20.8,20.3,20.5,25200
2014-10-20,20.45,20.95,20.45,20.95,15600
2014-10-21,20.8,20.8,20.4,20.55,25800
2014-10-22,20.35,20.8,20.35,20.6,67800
2014-10-23,20.1,20.3,20.0,20.2,113900
2014-10-24,20.0,20.2,19.8,20.2,43200
2014-10-27,20.0,20.25,19.8,20.0,23900
2014-10-28,19.88,19.88,19.3,19.52,42000
2014-10-29,19.5,19.78,19.5,19.74,57500
2014-10-30,18.4,18.96,18.38,18.92,222800
2014-10-31,18.3,19.1,18.3,18.98,101400
2014-11-03,18.5,18.5,17.52,17.92,318100
2014-11-04,17.7,18.86,17.7,18.34,91700
2014-11-05,18.5,18.5,17.7,18.0,126200
2014-11-06,18.0,18.16,17.0,17.4,415300
2014-11-07,17.2,17.54,16.98,16.98,323000
2014-11-10,17.02,17.36,16.4,16.5,354100
2014-11-11,16.4,16.4,15.4,15.52,385900
2014-11-12,15.5,16.0,15.5,16.0,94500
2014-11-13,16.16,16.5,16.16,16.2,153300
2014-11-14,16.2,16.2,15.9,15.9,168000
2014-11-17,16.2,16.4,16.0,16.1,59600
2014-11-18,16.4,16.6,16.36,16.6,82700
2014-11-19,16.9,17.78,16.9,17.74,183400
2014-11-20,17.54,17.54,16.9,17.1,95300
2014-11-21,17.8,17.88,17.68,17.7,117400
2014-11-24,17.7,17.88,17.68,17.76,59400
2014-11-25,17.6,17.8,17.6,17.64,34100
2014-11-26,18.04,18.5,18.0,18.12,67200
2014-11-27,18.2,18.32,17.62,17.96,64200
2014-11-28,17.6,17.6,17.3,17.36,45500
2014-12-01,16.5,16.5,16.02,16.12,140800
2014-12-02,17.58,17.94,17.56,17.76,250500
2014-12-03,17.16,17.2,16.76,17.2,82500
2014-12-04,17.3,17.4,16.94,16.96,54400
2014-12-05,16.8,16.8,16.5,16.5,122900
2014-12-08,16.38,16.38,15.8,16.0,194100
2014-12-09,16.16,16.16,15.8,16.04,140800
2014-12-10,17.0,17.0,16.02,16.3,305400
2014-12-11,16.0,16.0,15.66,15.74,187500
2014-12-12,15.52,15.52,15.0,15.14,399400
2014-12-15,15.24,15.24,14.7,15.14,127400
2014-12-16,14.84,14.84,14.4,14.72,219700
2014-12-17,14.88,14.88,13.9,14.06,343200
2014-12-18,13.96,14.0,13.8,13.98,135100
2014-12-19,14.1,14.5,14.06,14.26,176400
2014-12-22,14.38,14.5,14.1,14.44,80400
2014-12-23,13.66,13.8,13.42,13.5,483200
2014-12-24,13.3,13.3,12.92,13.0,246100
2014-12-29,13.16,13.6,13.16,13.44,78700
2014-12-30,13.6,13.6,13.02,13.26,39100
2014-12-31,13.5,13.68,13.5,13.62,50700
2015-01-02,13.68,13.68,13.32,13.5,14700
2015-01-05,13.5,13.8,13.5,13.7,115900
2015-01-06,13.8,13.94,13.64,13.86,349000
2015-01-07,14.0,14.2,14.0,14.16,198800
2015-01-08,13.96,14.1,13.46,13.78,119300
2015-01-09,13.76,13.76,13.4,13.46,245500
2015-01-12,13.52,13.8,13.52,13.6,143500
2015-01-13,13.72,13.86,13.72,13.8,298900
2015-01-14,13.96,13.96,13.42,13.56,72600
2015-01-15,13.42,13.42,13.24,13.3,72500
2015-01-16,13.68,14.28,13.5,13.82,318800
2015-01-19,14.0,15.7,13.9,15.3,1357400
2015-01-20,15.36,15.36,14.3,14.68,312500
2015-01-21,15.28,15.5,15.1,15.26,266100
2015-01-22,15.24,15.24,14.5,14.72,217400
2015-01-23,15.0,15.34,14.84,15.0,209100
2015-01-26,15.2,15.2,14.48,14.66,303100
2015-01-27,14.88,14.88,14.14,14.38,225200
2015-01-28,14.56,14.56,14.1,14.2,106100
2015-01-29,14.18,14.18,13.68,13.86,294900
2015-01-30,13.74,13.74,13.3,13.48,343200
2015-02-02,13.6,13.62,13.32,13.34,204500
2015-02-03,13.34,13.46,13.06,13.4,249000
2015-02-04,13.3,13.3,12.88,13.08,328000
2015-02-05,13.0,13.16,12.86,13.08,171000
2015-02-06,12.9,13.0,12.86,12.98,402700
2015-02-09,13.0,13.06,12.8,12.88,138800
2015-02-10,12.88,13.02,12.84,12.94,147100
2015-02-11,12.9,12.9,12.5,12.6,214100
2015-02-12,12.6,12.6,12.12,12.24,233000
2015-02-13,12.26,12.46,12.26,12.44,60600
2015-02-16,12.44,12.7,12.44,12.6,63900
2015-02-17,12.6,12.6,12.4,12.6,60200
2015-02-18,12.3,12.58,12.3,12.48,60600
2015-02-23,12.3,12.3,11.9,12.16,132300
2015-02-24,12.24,12.28,12.12,12.14,66100
2015-02-25,12.28,12.3,12.12,12.3,101200
2015-02-26,12.12,12.3,12.1,12.18,169100
2015-02-27,12.3,12.3,11.92,12.0,208800
2015-03-02,12.0,12.38,12.0,12.26,242200
2015-03-03,12.0,12.0,11.44,11.78,519300
2015-03-04,11.46,11.48,11.22,11.32,574400
2015-03-05,11.0,11.16,10.96,10.98,550800
2015-03-06,10.98,11.06,10.68,10.9,250400
2015-03-09,10.7,10.78,10.4,10.42,715800
2015-03-10,10.5,10.52,9.88,9.9,897500
2015-03-11,9.8,9.8,9.54,9.6,597700
2015-03-12,9.78,10.1,9.5,9.93,432900
2015-03-13,9.79,9.9,9.59,9.67,496300
2015-03-16,9.78,9.85,9.52,9.67,154200
2015-03-17,9.26,9.35,9.0,9.05,742000
2015-03-18,8.7,8.7,8.3,8.6,1249400
2015-03-19,8.72,9.45,8.72,9.27,791800
2015-03-20,9.4,9.66,8.98,9.18,450500
2015-03-23,9.15,9.34,9.04,9.11,126800
2015-03-24,9.18,9.34,9.18,9.18,159100
2015-03-25,9.18,9.32,9.09,9.32,224200
2015-03-26,9.23,9.77,9.1,9.77,206600
2015-03-27,9.68,9.74,9.04,9.22,624600
2015-03-30,9.17,9.25,9.07,9.17,540600
2015-03-31,9.19,9.35,9.12,9.25,402500
2015-04-01,9.3,9.3,9.13,9.18,332000
2015-04-02,9.33,9.69,9.33,9.68,394600
2015-04-08,9.9,10.74,9.9,10.36,971300
2015-04-09,10.4,10.7,10.04,10.28,826700
2015-04-10,10.26,10.34,9.94,10.2,578700
2015-04-13,10.2,11.2,10.2,11.18,1009500
2015-04-14,10.9,11.1,10.5,10.96,1036000
2015-04-15,11.2,13.6,11.2,13.02,4561200
2015-04-16,13.5,14.8,13.5,14.32,4173100
2015-04-17,14.6,15.18,14.14,14.24,2350900
2015-04-20,14.02,14.02,13.1,13.38,1826700
2015-04-21,13.72,13.72,13.04,13.3,916800
2015-04-22,13.2,13.3,12.86,13.02,1152600
2015-04-23,12.88,13.02,12.52,12.82,1100200
2015-04-24,12.9,13.84,12.9,13.4,868100
2015-04-27,13.18,13.26,13.0,13.22,744800
2015-04-28,13.46,13.64,13.28,13.5,922263
2015-04-29,13.5,14.1,13.48,13.88,951400
2015-04-30,13.62,13.68,13.28,13.36,660100
2015-05-04,13.26,13.44,13.0,13.34,572900
2015-05-05,13.84,13.84,12.9,12.98,611300
2015-05-06,13.16,13.34,13.0,13.06,221400
2015-05-07,13.0,13.06,12.6,12.7,462100
2015-05-08,12.8,12.94,12.74,12.88,335400
2015-05-11,12.92,13.18,12.88,13.18,650200
2015-05-12,13.16,13.2,12.86,13.08,359500
2015-05-13,13.08,13.24,12.8,13.0,544400
2015-05-14,13.2,13.26,12.94,13.2,576500
2015-05-15,13.1,13.2,13.0,13.1,543400
2015-05-18,13.4,13.5,12.9,13.38,1002000
2015-05-19,13.5,13.58,13.24,13.34,1148000
2015-05-20,13.5,13.5,13.08,13.18,786500
2015-05-21,13.1,13.2,13.02,13.08,342500
2015-05-22,13.1,13.1,12.9,13.04,359100
2015-05-26,13.04,13.26,12.96,13.08,615300
2015-05-27,13.08,13.94,12.98,13.72,2549800
2015-05-28,13.88,13.96,13.3,13.6,1838700
2015-05-29,13.7,14.5,13.6,14.22,1439200
2015-06-01,14.34,14.96,14.2,14.74,1158799
2015-06-02,14.76,14.86,14.36,14.8,1292500
2015-06-03,14.82,15.52,14.8,15.2,958400
2015-06-04,15.3,15.46,14.28,14.76,1187400
2015-06-05,14.76,14.9,14.5,14.52,428700
2015-06-08,14.52,14.52,13.9,13.96,567200
2015-06-09,13.94,14.04,13.58,13.72,567600
2015-06-10,13.66,13.92,13.66,13.88,354200
2015-06-11,13.82,14.0,13.82,13.92,240800
2015-06-12,13.94,14.02,13.9,13.98,249900
2015-06-15,14.0,14.14,13.84,13.86,376900
2015-06-16,13.88,14.14,13.88,13.92,325600
2015-06-17,13.84,13.98,13.74,13.92,214700
2015-06-18,14.18,14.4,14.12,14.38,541000
2015-06-19,14.3,14.48,14.1,14.2,184400
2015-06-22,14.0,14.0,13.84,13.92,140300
2015-06-23,13.8,13.8,13.5,13.62,674500
2015-06-24,13.5,13.78,13.32,13.78,153300
2015-06-25,13.72,13.84,13.6,13.74,99000
2015-06-26,13.7,13.82,13.46,13.54,326307
2015-06-29,13.64,13.8,13.0,13.26,481300
2015-06-30,13.0,13.2,12.9,13.04,497000
2015-07-02,13.0,13.0,12.68,12.96,320100
2015-07-03,12.8,12.8,12.28,12.32,508000
2015-07-06,12.5,12.5,11.2,11.8,620000
2015-07-07,11.8,12.1,11.72,11.8,316500
2015-07-08,11.3,11.46,10.4,10.5,958900
2015-07-09,10.3,11.34,10.2,10.9,562000
2015-07-10,11.3,11.62,11.26,11.52,299300
2015-07-13,11.5,11.96,11.48,11.92,299400
2015-07-14,12.0,12.18,11.84,11.88,230000
2015-07-15,11.44,11.74,11.44,11.56,45100
2015-07-16,11.46,11.62,11.42,11.54,66000
2015-07-17,11.56,11.84,11.56,11.72,104400
2015-07-20,11.52,11.52,10.5,11.12,515400
2015-07-21,10.52,10.94,10.3,10.66,1078300
2015-07-22,10.88,10.94,10.64,10.74,153200
2015-07-23,10.68,11.16,10.68,11.04,180000
2015-07-24,11.2,11.2,10.68,10.7,229800
2015-07-27,10.88,11.04,10.5,10.7,533800
2015-07-28,10.6,10.68,10.3,10.66,78000
2015-07-29,10.66,10.7,10.4,10.54,146300
2015-07-30,10.7,10.9,10.68,10.7,33800
2015-07-31,10.7,10.88,10.34,10.34,138100
2015-08-03,10.8,10.8,10.42,10.64,30800
2015-08-04,10.46,10.68,10.28,10.66,37400
2015-08-05,10.68,10.74,10.44,10.56,70300
2015-08-06,10.52,10.8,10.52,10.6,49400
2015-08-07,10.78,10.8,10.62,10.72,100000
2015-08-10,10.72,10.76,10.62,10.74,50400
2015-08-11,10.74,11.16,10.74,10.84,380600
2015-08-12,10.92,11.3,10.9,11.24,219500
2015-08-13,11.6,12.1,11.6,11.8,302100
2015-08-14,11.8,11.9,11.38,11.5,87200
2015-08-17,11.8,12.3,11.8,12.02,167900
2015-08-18,12.04,12.2,11.78,11.86,305400
2015-08-19,11.86,11.92,11.7,11.88,79800
2015-08-20,12.0,12.2,11.92,11.94,247700
2015-08-21,12.0,12.78,12.0,12.5,615100
2015-08-24,12.68,12.68,11.5,11.6,286500
2015-08-25,11.44,11.5,10.44,10.56,259300
2015-08-26,10.46,10.6,10.2,10.28,153300
2015-08-27,10.22,10.3,9.72,10.06,359000
2015-08-28,10.0,10.6,10.0,10.34,230800
2015-08-31,10.34,10.78,10.34,10.64,108500
2015-09-01,10.68,11.0,10.68,10.86,144500
2015-09-02,10.84,10.84,10.46,10.56,127100
2015-09-04,10.5,10.5,10.0,10.04,108300
2015-09-07,9.99,10.28,9.99,10.1,22900
2015-09-08,10.24,10.28,10.0,10.28,40100
2015-09-09,10.48,10.7,10.34,10.54,31400
2015-09-10,10.26,10.3,10.14,10.2,74100
2015-09-11,10.14,10.3,10.14,10.14,71700
2015-09-14,10.1,10.3,10.1,10.18,58600
2015-09-15,10.32,10.42,10.24,10.4,78600
2015-09-16,10.2,10.46,10.16,10.36,59800
2015-09-17,11.38,11.38,10.7,10.86,182600
2015-09-18,11.4,11.76,11.22,11.34,267300
2015-09-21,11.28,11.36,11.2,11.3,58200
2015-09-22,11.0,11.3,11.0,11.2,191700
2015-09-23,11.12,11.4,11.0,11.2,103600
2015-09-24,11.08,11.44,11.08,11.2,46700
2015-09-25,11.5,11.88,11.24,11.42,188600
2015-09-29,11.1,11.1,10.84,10.9,58000
2015-09-30,10.9,11.0,10.9,10.96,20200
2015-10-02,11.1,11.1,11.0,11.0,9800
2015-10-05,11.06,11.12,10.98,11.06,180100
2015-10-06,11.02,11.02,10.9,11.0,44800
2015-10-07,10.9,11.26,10.88,11.22,325400
2015-10-08,11.12,11.12,10.9,10.92,83950
2015-10-09,10.88,11.0,10.8,10.96,120400
2015-10-12,11.02,11.3,11.02,11.3,207400
2015-10-13,11.14,11.14,11.0,11.08,95600
2015-10-14,11.04,11.2,10.9,10.94,144100
2015-10-15,11.2,12.44,11.2,11.82,381100
2015-10-16,11.82,11.94,11.6,11.72,101700
2015-10-19,11.64,11.64,11.38,11.38,57500
2015-10-20,11.08,11.28,11.06,11.28,168500
2015-10-22,11.08,11.1,11.08,11.08,31300
2015-10-23,11.08,11.14,11.0,11.14,176300
2015-10-26,11.3,11.3,11.0,11.06,49600
2015-10-27,10.82,11.0,10.82,10.94,186600
2015-10-28,11.18,11.18,10.94,11.08,39900
2015-10-29,10.96,11.0,10.9,10.9,56747
2015-10-30,10.78,10.88,10.6,10.8,91400
2015-11-02,10.64,10.92,10.6,10.76,95200
2015-11-03,10.72,10.82,10.6,10.76,136500
2015-11-04,10.72,10.86,10.66,10.76,98100
2015-11-05,10.84,11.0,10.78,10.78,99600
2015-11-06,11.02,11.1,10.9,11.04,109900
2015-11-09,10.86,10.92,10.78,10.78,83700
2015-11-10,11.1,11.36,10.9,11.1,175897
2015-11-11,11.0,11.06,11.0,11.06,19900
2015-11-12,11.3,11.5,11.3,11.44,163500
2015-11-13,11.32,11.4,11.28,11.38,52500
2015-11-16,11.1,12.18,11.1,11.74,276000
2015-11-17,11.6,11.6,11.16,11.32,73000
2015-11-18,11.0,11.0,10.7,10.94,94700
2015-11-19,11.06,11.4,11.06,11.18,60300
2015-11-20,11.16,11.28,11.14,11.22,26500
2015-11-23,11.0,11.0,10.5,10.78,254100
2015-11-24,11.0,11.0,10.76,10.84,18100
2015-11-25,11.28,11.5,11.12,11.26,145800
2015-11-26,11.18,11.18,11.0,11.0,127900
2015-11-27,11.0,11.06,11.0,11.0,16300
2015-11-30,10.9,10.9,10.7,10.7,61500
2015-12-01,10.8,10.9,10.72,10.86,88300
2015-12-02,11.0,11.02,10.9,10.96,42200
2015-12-03,10.96,10.96,10.7,10.8,77500
2015-12-04,10.88,11.08,10.88,10.9,56300
2015-12-07,11.32,11.5,11.02,11.36,186400
2015-12-08,11.36,11.36,11.08,11.2,44300
2015-12-09,11.2,11.26,11.08,11.16,25800
2015-12-10,11.04,11.16,11.02,11.12,102800
2015-12-11,11.06,11.06,11.0,11.02,42600
2015-12-14,11.04,11.08,10.86,10.96,56100
2015-12-15,10.94,10.98,10.66,10.82,139600
2015-12-16,10.98,11.18,10.98,11.12,64400
2015-12-17,11.12,11.28,11.12,11.16,26700
2015-12-18,11.44,11.52,11.18,11.4,125700
2015-12-21,11.5,11.54,11.5,11.5,46900
2015-12-22,11.6,11.66,11.6,11.62,41900
2015-12-23,11.58,11.78,11.5,11.7,48400
2015-12-24,11.8,11.92,11.78,11.9,58600
2015-12-28,11.66,11.88,11.62,11.88,21600
2015-12-29,11.8,11.8,11.7,11.7,6400
2015-12-30,11.78,11.84,11.5,11.72,109400
2015-12-31,11.7,11.7,11.68,11.72,58400
2016-01-04,11.72,11.72,11.58,11.64,42700
2016-01-05,11.48,11.54,11.48,11.52,3000
2016-01-06,11.5,11.6,11.48,11.6,24900
2016-01-07,11.78,12.1,11.76,11.76,295500
2016-01-08,11.9,11.92,11.76,11.82,151500
2016-01-11,11.86,11.9,11.5,11.5,142100
2016-01-12,11.68,11.68,11.48,11.52,161300
2016-01-13,11.58,11.58,11.2,11.2,73100
2016-01-14,11.2,11.44,11.1,11.28,39500
2016-01-15,11.26,11.36,11.2,11.28,119400
2016-01-18,11.08,11.32,11.04,11.1,45900
2016-01-19,11.02,11.02,10.78,10.86,28000
2016-01-20,10.92,11.2,10.86,10.88,419900
2016-01-21,10.96,11.0,10.58,10.66,397400
2016-01-22,10.76,11.0,10.6,10.9,74900
2016-01-25,10.8,10.88,10.76,10.8,25000
2016-01-26,10.74,10.76,10.62,10.76,32000
2016-01-27,10.92,11.08,10.74,10.86,149700
2016-01-28,10.7,10.82,10.6,10.62,86000
2016-01-29,10.54,10.54,10.5,10.5,39200
2016-02-01,10.54,10.7,10.54,10.7,11600
2016-02-02,10.5,10.66,10.5,10.54,28500
2016-02-03,10.36,10.5,10.36,10.38,8200
2016-02-04,10.66,10.82,10.6,10.74,253500
2016-02-05,10.76,11.32,10.76,11.06,487000
2016-02-11,11.4,11.76,11.02,11.66,291000
2016-02-12,11.88,12.2,11.82,12.0,265200
2016-02-15,11.98,12.38,11.98,12.0,255500
2016-02-16,12.12,12.32,11.88,12.18,315500
2016-02-17,12.2,12.4,12.16,12.38,352700
2016-02-18,12.5,12.5,12.28,12.38,135200
2016-02-19,12.98,13.1,12.5,12.74,305200
2016-02-22,12.66,12.84,12.48,12.64,33000
2016-02-23,12.7,13.1,12.7,12.9,287200
2016-02-24,13.08,13.08,12.88,12.9,102600
2016-02-25,12.9,13.12,12.84,13.12,73900
2016-02-26,13.14,13.16,12.92,12.96,207300
2016-02-29,12.66,12.9,12.54,12.6,272400
2016-03-01,12.9,13.3,12.84,13.14,462300
2016-03-02,13.14,13.14,12.64,12.84,122400
2016-03-03,12.96,13.08,12.82,13.0,121200
2016-03-04,13.3,13.5,13.28,13.32,448100
2016-03-07,13.4,13.4,13.1,13.2,356900
2016-03-08,13.4,13.4,12.9,13.06,609700
2016-03-09,13.1,13.1,12.0,12.22,506500
2016-03-10,12.28,12.48,11.98,12.12,346600
2016-03-11,12.28,13.3,12.28,12.86,250500
2016-03-14,12.92,12.92,12.6,12.66,71900
2016-03-15,12.8,13.2,12.78,13.0,1205500
2016-03-16,13.0,13.14,12.98,13.14,528200
2016-03-17,13.5,13.56,13.38,13.5,499700
2016-03-18,13.62,13.62,13.4,13.48,47000
2016-03-21,13.5,13.5,13.1,13.24,67100
2016-03-22,13.16,13.3,13.1,13.2,434200
2016-03-23,13.32,13.38,12.96,13.02,109300
2016-03-24,12.78,12.78,12.46,12.46,65100
2016-03-29,12.4,12.6,12.4,12.48,18000
2016-03-30,12.6,12.98,12.6,12.96,55900
2016-03-31,12.88,13.06,12.8,12.92,63500
2016-04-01,12.92,12.92,12.66,12.8,169200
2016-04-05,12.7,12.74,12.66,12.72,259600
2016-04-06,12.8,12.88,12.7,12.7,19700
2016-04-07,12.8,12.86,12.68,12.84,430200
2016-04-08,12.98,13.3,12.94,13.1,373900
2016-04-11,13.2,13.28,13.18,13.26,299600
2016-04-12,13.36,13.5,13.3,13.5,290100
2016-04-13,13.46,13.46,13.12,13.2,52500
2016-04-14,13.18,13.34,13.02,13.34,62700
2016-04-15,13.12,13.38,13.12,13.34,24400
2016-04-18,13.22,13.4,12.64,13.12,353400
2016-04-19,13.16,13.22,13.0,13.16,261600
2016-04-20,13.28,13.52,13.08,13.08,499700
2016-04-21,13.1,13.14,13.0,13.1,189800
2016-04-22,13.12,13.2,13.0,13.0,34700
2016-04-25,12.96,12.98,12.76,12.76,56100
2016-04-26,12.88,13.0,12.7,12.74,43500
2016-04-27,13.0,13.2,12.92,12.96,372500
2016-04-28,12.98,13.4,12.98,13.24,166200
2016-04-29,13.52,13.96,13.52,13.88,479100
2016-05-03,15.08,15.16,14.88,15.02,1375600
2016-05-04,14.82,15.02,14.38,14.5,181900
2016-05-05,14.3,14.5,13.88,14.14,117400
2016-05-06,14.12,14.26,14.0,14.06,155700
2016-05-09,14.52,14.96,14.5,14.52,271400
2016-05-10,14.5,14.5,14.02,14.12,99900
2016-05-11,14.3,14.42,14.3,14.32,5100
2016-05-12,14.6,14.94,14.6,14.72,70800
2016-05-13,14.54,14.62,14.32,14.42,194400
2016-05-16,14.3,14.48,14.16,14.48,42200
2016-05-17,14.52,14.86,14.52,14.66,139300
2016-05-18,14.94,15.0,14.68,14.72,128200
2016-05-19,14.4,14.42,13.94,14.0,152700
2016-05-20,14.1,14.16,13.8,13.86,333500
2016-05-23,14.0,14.18,14.0,14.12,48400
2016-05-24,13.98,13.98,13.76,13.8,130500
2016-05-25,13.32,13.34,13.1,13.16,249100
2016-05-26,13.12,13.52,13.12,13.4,42900
2016-05-27,13.38,13.48,13.2,13.3,83000
2016-05-30,13.02,13.02,12.6,12.7,318100
2016-05-31,12.82,13.0,12.72,12.84,104600
2016-06-01,12.8,13.1,12.8,12.92,54100
2016-06-02,12.94,12.96,12.76,12.82,21200
2016-06-03,12.82,12.86,12.74,12.8,66800
2016-06-06,13.2,13.7,13.1,13.52,338300
2016-06-07,13.7,13.8,13.38,13.6,226800
2016-06-08,13.5,13.72,13.48,13.68,158500
2016-06-10,14.8,14.8,14.44,14.78,303600
2016-06-13,14.56,14.62,14.32,14.52,76300
2016-06-14,14.36,14.36,13.46,13.7,121800
2016-06-15,13.7,13.72,13.56,13.6,32400
2016-06-16,13.92,14.36,13.92,14.26,243200
2016-06-17,14.1,14.1,13.6,13.66,92200
2016-06-20,13.8,13.8,13.26,13.42,77100
2016-06-21,13.44,13.7,13.44,13.5,38200
2016-06-22,13.5,13.64,13.26,13.52,103400
2016-06-23,13.32,13.68,13.32,13.48,74700
2016-06-24,13.68,15.48,13.68,14.24,955700
2016-06-27,14.26,14.9,14.26,14.48,160100
2016-06-28,14.48,14.48,13.96,13.96,266300
2016-06-29,13.94,14.32,13.94,14.2,98100
2016-06-30,14.12,14.18,14.02,14.12,103100
2016-07-04,14.5,15.0,14.5,14.62,531700
2016-07-05,14.64,14.8,14.56,14.74,209200
2016-07-06,15.0,15.38,14.96,15.18,432600
2016-07-07,15.5,15.7,15.18,15.18,397700
2016-07-08,15.48,15.48,14.8,14.86,107300
2016-07-11,15.38,15.7,15.16,15.18,234900
2016-07-12,15.1,15.3,15.0,15.3,162600
2016-07-13,15.16,15.28,14.88,15.18,108200
2016-07-14,15.26,15.32,15.08,15.08,132700
2016-07-15,15.2,15.3,15.08,15.26,229200
2016-07-18,15.12,15.24,15.04,15.12,102700
2016-07-19,15.14,15.26,15.0,15.18,57300
2016-07-20,15.0,15.06,14.82,14.9,41200
2016-07-21,14.76,14.76,14.12,14.26,285000
2016-07-22,14.58,14.6,14.32,14.32,103700
2016-07-25,14.18,14.32,14.06,14.1,58200
2016-07-26,13.98,13.98,13.7,13.96,189300
2016-07-27,13.82,13.82,13.62,13.78,107700
2016-07-28,14.1,14.38,14.1,14.26,126500
2016-07-29,14.26,14.34,14.02,14.18,172500
2016-08-01,14.32,14.56,13.88,14.38,178300
2016-08-03,14.38,14.66,14.38,14.44,55900
2016-08-04,14.4,14.48,14.1,14.24,85000
2016-08-05,14.52,14.72,14.2,14.56,98300
2016-08-08,14.46,14.46,14.02,14.04,106100
2016-08-09,13.96,14.14,13.96,14.02,73600
2016-08-10,14.34,14.68,14.34,14.52,186700
2016-08-11,14.6,14.6,14.28,14.46,133600
2016-08-12,14.44,14.48,14.34,14.4,46500
2016-08-15,14.28,14.5,14.22,14.42,30500
2016-08-16,14.54,14.76,14.54,14.72,400400
2016-08-17,14.7,14.74,14.38,14.44,48100
2016-08-18,14.56,15.0,14.56,14.62,153700
2016-08-19,15.0,15.0,14.62,14.76,151800
2016-08-22,15.0,15.06,14.76,14.8,105000
2016-08-23,14.94,15.16,14.82,15.06,282000
2016-08-24,15.02,15.04,14.86,15.0,110600
2016-08-25,15.1,15.22,15.0,15.1,193100
2016-08-26,15.2,15.38,15.14,15.32,346800
2016-08-29,15.32,15.34,14.98,15.2,288300
2016-08-30,15.26,15.26,14.9,14.92,29500
2016-08-31,14.82,14.82,14.5,14.52,76200
2016-09-01,14.52,14.62,14.5,14.52,51000
2016-09-02,14.9,16.08,14.9,15.62,490200
2016-09-05,15.82,16.2,15.82,16.1,411200
2016-09-06,16.12,16.44,16.12,16.4,255600
2016-09-07,16.9,17.72,16.9,17.64,547700
2016-09-08,17.5,17.5,17.12,17.3,108000
2016-09-09,17.3,17.52,17.3,17.4,90300
2016-09-12,17.4,17.6,17.2,17.46,121100
2016-09-13,17.04,17.14,16.96,17.0,76100
2016-09-14,16.82,16.82,16.38,16.44,46200
2016-09-15,16.6,16.66,16.46,16.54,57900
2016-09-19,17.3,18.02,17.3,18.0,272900
2016-09-20,17.86,17.9,17.58,17.78,44200
2016-09-21,18.0,18.42,18.0,18.36,206800
2016-09-22,18.8,19.04,18.8,18.94,116200
2016-09-23,18.98,19.18,18.98,19.08,137100
2016-09-26,18.8,18.8,18.44,18.44,39300
2016-09-27,18.2,18.32,18.18,18.18,23100
2016-09-28,17.96,17.96,17.42,17.42,55400
2016-09-29,17.64,18.6,17.64,18.06,107100
2016-09-30,18.0,18.2,18.0,18.18,72900
2016-10-03,18.58,18.84,18.58,18.76,44300
2016-10-04,18.78,18.98,18.64,18.76,59700
2016-10-05,17.9,18.3,17.9,18.0,148300
2016-10-06,18.04,18.38,17.92,17.96,180100
2016-10-07,17.78,17.8,17.42,17.6,442870
2016-10-11,18.0,18.14,17.86,17.9,131100
2016-10-12,17.76,17.8,17.7,17.7,96200
2016-10-13,17.7,18.14,17.7,17.96,189100
2016-10-14,18.3,18.32,17.9,17.9,196600
2016-10-17,17.72,17.76,17.34,17.42,55000
2016-10-18,18.0,18.1,17.9,18.02,115000
2016-10-19,18.12,18.3,18.02,18.04,54100
2016-10-20,19.18,19.32,19.14,19.2,186000
2016-10-24,19.68,19.88,19.36,19.52,320200
2016-10-25,18.9,19.2,18.9,19.18,15400
2016-10-26,19.36,19.5,19.34,19.48,27600
2016-10-27,19.18,19.64,19.18,19.5,70000
2016-10-28,19.36,19.54,19.16,19.18,41400
2016-10-31,19.62,19.8,19.5,19.5,57100
2016-11-01,19.5,19.86,19.42,19.56,254300
2016-11-02,19.9,20.85,19.9,20.7,380800
2016-11-03,20.3,20.55,20.05,20.2,99900
2016-11-04,20.2,20.25,19.98,20.1,59000
2016-11-07,20.1,20.1,19.84,19.88,165400
2016-11-08,19.52,19.84,19.52,19.74,30600
2016-11-09,19.5,21.0,19.0,20.85,1126400
2016-11-10,19.0,19.7,18.78,19.2,523700
2016-11-11,19.16,19.16,18.48,18.74,92500
2016-11-14,17.68,17.76,16.6,17.0,328600
2016-11-15,17.46,17.84,17.44,17.74,78900
2016-11-16,18.7,18.98,18.58,18.62,117400
2016-11-17,18.34,18.34,17.8,17.9,92500
2016-11-18,17.2,17.2,16.5,16.64,455400
2016-11-21,16.96,17.14,16.92,17.06,90100
2016-11-22,17.58,17.82,17.56,17.6,161400
2016-11-23,17.34,17.72,17.34,17.48,36700
2016-11-24,16.66,16.78,16.52,16.7,210300
2016-11-25,16.56,17.02,16.5,17.02,70900
2016-11-28,17.02,17.26,16.64,17.14,90400
2016-11-29,17.1,17.1,16.78,16.82,76500
2016-11-30,16.72,16.74,16.6,16.72,75100
2016-12-01,16.42,16.62,16.02,16.56,142500
2016-12-02,16.68,16.84,16.68,16.76,76900
2016-12-05,17.12,17.14,16.4,16.6,55400
2016-12-06,16.24,16.52,16.24,16.52,118000
2016-12-07,16.36,16.56,16.36,16.52,23900
2016-12-08,16.88,17.1,16.88,16.9,85500
2016-12-09,17.1,17.1,16.9,17.02,106900
2016-12-12,16.68,16.68,16.36,16.42,113500
2016-12-13,16.26,16.26,15.88,16.04,146900
2016-12-14,15.5,15.66,15.32,15.62,210100
2016-12-15,15.0,15.0,13.9,13.96,515900
2016-12-16,13.3,13.5,12.8,12.84,863000
2016-12-19,12.8,13.02,12.46,12.62,259000
2016-12-20,12.1,12.18,11.5,12.0,592100
2016-12-21,11.8,12.12,11.6,11.88,371400
2016-12-22,11.62,12.5,11.62,12.08,286800
2016-12-23,12.08,12.18,11.72,12.0,263700
2016-12-28,12.16,12.26,12.0,12.16,223500
2016-12-29,12.16,12.44,12.16,12.2,328100
2016-12-30,12.6,12.9,12.48,12.68,417800
2017-01-03,12.14,12.36,12.1,12.1,475700
2017-01-04,12.06,12.48,12.06,12.46,191900
2017-01-05,12.78,13.0,12.74,13.0,347900
2017-01-06,13.26,13.62,13.26,13.42,424200
2017-01-09,13.5,13.6,13.18,13.2,144300
2017-01-10,14.4,14.42,14.04,14.42,598800
2017-01-11,14.46,14.58,14.38,14.46,238400
2017-01-12,14.8,15.1,14.76,15.08,299500
2017-01-13,14.78,14.78,14.4,14.6,175800
2017-01-16,14.78,14.96,14.76,14.92,159500
2017-01-17,14.9,15.08,14.66,15.02,74300
2017-01-18,15.18,15.3,14.92,15.24,485000
2017-01-19,14.9,14.9,14.64,14.74,151600
2017-01-20,14.72,14.96,14.6,14.8,176300
2017-01-23,15.18,15.32,15.12,15.28,124100
2017-01-24,15.1,15.28,15.1,15.24,81100
2017-01-25,15.24,15.26,14.94,14.94,131800
2017-01-26,14.84,15.2,14.78,14.9,119200
2017-01-27,14.64,14.78,14.64,14.74,41300
2017-02-01,15.3,15.86,15.3,15.7,263800
2017-02-02,15.94,16.42,15.94,16.28,401000
2017-02-03,16.28,16.58,16.28,16.5,279200
2017-02-06,16.7,17.12,16.7,17.08,230900
2017-02-07,17.8,18.88,17.8,18.44,596500
2017-02-08,18.8,18.82,18.5,18.68,353000
2017-02-09,19.0,19.36,18.98,19.32,313800
2017-02-10,18.92,18.92,16.88,17.54,555300
2017-02-13,17.5,18.34,17.5,18.1,245500
2017-02-14,17.84,18.12,17.66,17.94,126000
2017-02-15,17.7,17.9,17.56,17.7,113300
2017-02-16,17.8,17.96,17.62,17.78,216600
2017-02-17,17.88,17.88,17.6,17.66,87100
2017-02-20,17.3,17.52,17.12,17.18,158300
2017-02-21,17.22,17.3,17.04,17.12,127600
2017-02-22,17.4,17.56,17.12,17.54,235418
2017-02-23,17.36,17.6,17.3,17.38,53000
2017-02-24,17.86,17.98,17.6,17.66,247800
2017-02-27,17.66,17.72,17.3,17.32,58000
2017-02-28,16.68,16.68,15.5,15.9,935600
2017-03-01,15.8,15.94,15.5,15.72,323800
2017-03-02,16.0,16.04,15.7,15.82,102800
2017-03-03,15.28,15.28,14.52,14.96,489900
2017-03-06,15.14,15.46,15.02,15.38,216400
2017-03-07,14.8,15.12,14.6,14.84,467000
2017-03-08,14.78,15.12,14.7,15.08,121900
2017-03-09,15.0,15.0,14.76,14.88,162700
2017-03-10,14.68,14.94,14.68,14.92,128000
2017-03-13,15.14,15.86,15.14,15.84,417100
2017-03-14,16.4,16.98,16.4,16.66,708600
2017-03-15,16.4,16.4,15.6,15.9,437000
2017-03-16,17.5,18.1,17.38,17.8,1097400
2017-03-17,17.84,17.98,17.48,17.64,298700
2017-03-20,16.3,16.94,16.3,16.64,690700
2017-03-21,16.58,16.6,16.3,16.32,382000
2017-03-22,16.7,16.92,16.7,16.84,270100
2017-03-23,16.22,16.6,16.22,16.46,319900
2017-03-24,15.9,16.3,15.9,16.14,459700
2017-03-27,16.14,16.5,16.14,16.4,248800
2017-03-28,16.42,16.44,16.02,16.24,87800
2017-03-29,15.7,16.2,15.7,15.96,364300
2017-03-30,15.78,15.92,15.78,15.88,70400
2017-03-31,15.86,15.86,15.36,15.5,140300
2017-04-03,15.32,15.7,14.92,15.58,83500
2017-04-05,15.88,16.0,15.82,15.9,77200
2017-04-06,16.0,16.0,15.48,15.54,83000
2017-04-07,15.76,16.6,15.76,16.14,571500
2017-04-10,16.12,16.12,15.62,15.74,177100
2017-04-11,15.54,16.14,15.52,15.98,218600
2017-04-12,16.18,16.4,16.0,16.1,256400
2017-04-13,16.0,16.22,15.88,15.98,193200
2017-04-18,15.2,15.38,13.8,15.08,713400
2017-04-19,15.0,15.0,14.08,14.18,1115100
2017-04-20,13.84,14.08,13.78,13.86,743300
2017-04-21,13.8,14.2,13.64,14.1,578100
2017-04-24,13.9,14.18,13.82,14.02,141100
2017-04-25,13.88,14.08,13.8,14.02,224300
2017-04-26,13.88,13.96,13.78,13.78,204800
2017-04-27,13.68,13.82,13.66,13.8,384500
2017-04-28,13.66,13.66,13.2,13.34,590800
2017-05-02,13.2,13.34,12.5,12.66,1019100
2017-05-04,12.7,12.7,12.3,12.5,632400
2017-05-05,12.46,12.46,12.0,12.16,692700
2017-05-08,12.2,12.4,12.16,12.18,478500
2017-05-09,12.3,12.36,12.16,12.34,329000
2017-05-10,12.3,12.3,12.02,12.14,377100
2017-05-11,12.02,12.32,11.84,12.2,609500
2017-05-12,12.28,12.4,12.26,12.32,409300
2017-05-15,12.4,12.8,12.4,12.62,280800
2017-05-16,12.58,12.78,12.44,12.52,237300
2017-05-17,12.6,12.76,12.54,12.7,345400
2017-05-18,13.0,13.0,12.42,12.5,842600
2017-05-19,12.4,12.42,12.22,12.3,278200
2017-05-22,12.1,12.16,11.9,12.08,440600
2017-05-23,12.2,12.2,12.04,12.1,129000
2017-05-24,12.0,12.0,11.88,11.9,375600
2017-05-25,11.9,12.1,11.88,12.0,221500
2017-05-26,11.8,12.04,11.76,11.92,216200
2017-05-29,11.84,12.36,11.84,12.3,280000
2017-05-31,11.92,12.16,11.7,11.86,759600
2017-06-01,11.74,12.08,11.74,12.08,459100
2017-06-02,11.8,12.0,11.76,11.8,495100
2017-06-05,11.96,12.0,11.74,11.94,303000
2017-06-06,11.8,12.1,11.74,12.0,760600
2017-06-07,12.24,12.3,12.04,12.16,620200
2017-06-08,12.12,12.16,11.88,11.9,654600
2017-06-09,11.74,11.84,11.7,11.8,757200
2017-06-12,11.8,11.9,11.64,11.68,253500
2017-06-13,11.74,11.86,11.74,11.82,145000
2017-06-14,12.08,12.16,11.9,12.04,395300
2017-06-15,11.46,11.78,11.46,11.54,1166200
2017-06-16,11.64,11.74,11.54,11.72,228900
2017-06-19,11.62,11.62,11.26,11.32,729800
2017-06-20,11.32,11.32,11.16,11.24,431900
2017-06-21,11.12,11.46,11.06,11.2,437500
2017-06-22,11.2,11.24,11.08,11.18,169400
2017-06-23,11.18,11.5,11.1,11.42,143600
2017-06-26,11.8,12.2,11.62,11.86,1654900
2017-06-27,11.9,11.9,11.64,11.78,420500
2017-06-28,11.82,11.98,11.76,11.78,269000
2017-06-29,11.84,11.98,11.78,11.92,228200
2017-06-30,11.8,11.92,11.8,11.92,185600
2017-07-03,11.78,11.8,11.66,11.74,77400
2017-07-04,11.7,11.78,11.48,11.56,322100
2017-07-05,11.56,11.7,11.5,11.62,242800
2017-07-06,11.72,11.74,11.58,11.72,157400
2017-07-07,11.52,11.68,11.48,11.62,290700
2017-07-10,11.34,11.72,11.34,11.66,384000
2017-07-11,11.72,11.92,11.7,11.9,435900
2017-07-12,11.84,11.98,11.78,11.84,223400
2017-07-13,11.8,11.88,11.74,11.76,197300
2017-07-14,11.6,11.64,11.44,11.46,605000
2017-07-17,11.58,11.62,11.38,11.4,244300
2017-07-18,11.44,12.34,11.44,12.0,1002500
2017-07-19,12.18,12.4,12.0,12.2,1445200
2017-07-20,12.2,12.2,12.0,12.06,336500
2017-07-21,12.2,12.3,12.16,12.28,785000
2017-07-24,12.4,12.4,12.16,12.22,195100
2017-07-25,12.12,12.22,12.1,12.16,311800
2017-07-26,12.0,12.28,12.0,12.14,195100
2017-07-27,12.16,12.32,12.1,12.24,377100
2017-07-28,12.0,12.18,12.0,12.08,354200
2017-07-31,12.02,12.18,12.02,12.16,355700
2017-08-01,12.06,12.12,11.88,12.0,490400
2017-08-02,11.88,11.88,11.7,11.72,445500
2017-08-03,11.74,11.9,11.72,11.8,383900
2017-08-04,11.76,12.16,11.72,11.9,439600
2017-08-07,11.9,11.96,11.72,11.82,125300
2017-08-08,11.8,11.98,11.68,11.98,381900
2017-08-09,11.94,12.2,11.92,12.2,556100
2017-08-10,12.3,12.32,12.02,12.12,475600
2017-08-11,12.0,12.04,11.76,11.8,565700
2017-08-14,12.0,12.12,11.76,11.82,621400
2017-08-15,11.8,13.2,11.8,13.14,4507900
2017-08-16,12.9,13.92,12.7,12.78,1981300
2017-08-17,12.82,13.42,12.82,13.06,1147600
2017-08-18,13.08,13.1,12.7,12.98,736500
2017-08-21,13.06,13.12,12.82,12.84,607000
2017-08-22,12.94,13.08,12.9,12.96,485900
2017-08-24,12.96,13.2,12.78,13.12,2006200
2017-08-25,13.12,13.86,13.12,13.78,2211900
2017-08-28,13.8,14.78,13.8,14.72,2545000
2017-08-29,14.88,15.08,14.7,14.86,2067900
2017-08-30,14.84,15.0,14.5,14.54,1683200
2017-08-31,14.54,14.58,14.14,14.18,1261900
2017-09-01,14.42,15.3,14.42,15.28,1973200
2017-09-04,15.96,16.66,15.84,16.54,3045700
2017-09-05,16.54,16.58,15.98,16.06,1610700
2017-09-06,16.3,16.48,15.98,16.04,1338301
2017-09-07,16.04,16.1,15.76,15.82,1415600
2017-09-08,15.98,16.5,15.9,15.96,1406500
2017-09-11,15.94,15.94,15.22,15.44,1261700
2017-09-12,14.8,15.0,14.54,14.8,2831700
2017-09-13,14.8,15.2,14.7,14.92,1023600
2017-09-14,14.7,14.7,14.1,14.22,1889800
2017-09-15,14.3,14.6,14.06,14.18,1554700
2017-09-18,14.18,14.2,13.96,14.06,903000
2017-09-19,13.8,13.94,13.7,13.76,1259300
2017-09-20,13.7,13.8,13.4,13.7,1170700
2017-09-21,13.6,13.6,12.98,13.0,2639600
2017-09-22,13.0,13.36,12.8,13.3,1384600
2017-09-25,13.3,13.3,12.76,12.76,1094200
2017-09-26,13.1,13.7,13.1,13.46,2025300
2017-09-27,13.12,13.24,12.9,13.12,1028500
2017-09-28,13.08,13.18,12.92,12.96,763700
2017-09-29,13.0,13.16,12.94,13.02,386400
2017-10-03,12.88,12.88,12.6,12.74,1477400
2017-10-04,12.74,13.08,12.74,12.94,1054700
2017-10-06,12.82,13.04,12.78,12.86,1577700
2017-10-09,13.1,13.44,13.1,13.38,1427400
2017-10-10,13.5,13.62,13.26,13.34,901100
2017-10-11,13.3,13.36,12.94,13.08,703600
2017-10-12,13.08,13.08,12.8,12.96,1121900
2017-10-13,12.96,13.16,12.96,13.1,838900
2017-10-16,13.22,13.82,13.22,13.74,2425400
2017-10-17,13.6,13.7,13.4,13.42,1629000
2017-10-18,13.4,13.72,13.4,13.58,1304200
2017-10-19,13.6,13.7,13.2,13.3,1073300
2017-10-20,13.16,13.4,13.14,13.24,1049600
2017-10-23,13.16,13.4,13.04,13.26,877500
2017-10-24,13.24,13.24,13.02,13.1,689700
2017-10-25,13.08,13.16,12.92,13.04,1099900
2017-10-26,13.02,13.16,12.88,12.9,833500
2017-10-27,12.82,12.88,12.68,12.74,1093000
2017-10-30,12.8,12.8,12.48,12.5,1030900
2017-10-31,12.6,12.68,12.32,12.6,835800
2017-11-01,12.46,12.6,12.38,12.5,1015700
2017-11-02,12.58,12.7,12.5,12.52,962300
2017-11-03,12.58,12.68,12.56,12.58,741200
2017-11-06,12.58,12.58,12.28,12.36,617000
2017-11-07,12.4,12.54,12.34,12.42,842500
2017-11-08,12.4,12.42,12.3,12.32,561000
2017-11-09,12.28,12.46,12.24,12.4,737000
2017-11-10,12.34,12.88,12.34,12.7,2883200
2017-11-13,12.74,13.22,12.6,13.18,1413500
2017-11-14,13.32,13.7,13.32,13.64,3642200
2017-11-15,13.62,13.62,13.14,13.5,2204400
2017-11-16,13.6,13.6,12.92,13.0,1514900
2017-11-17,13.1,13.1,12.74,12.78,1398000
2017-11-20,12.8,12.96,12.72,12.88,726500
2017-11-21,12.96,13.08,12.8,13.04,1121800
2017-11-22,13.1,13.18,12.8,13.04,841900
2017-11-23,13.1,13.46,13.06,13.34,1550900
2017-11-24,13.4,13.48,12.98,13.16,752200
2017-11-27,13.3,13.4,13.18,13.2,399700
2017-11-28,13.38,13.42,13.04,13.14,412200
2017-11-29,13.14,13.32,13.14,13.18,300300
2017-11-30,13.06,13.14,12.7,12.86,594900
2017-12-01,12.8,12.98,12.74,12.74,426700
2017-12-04,12.72,12.96,12.72,12.76,455300
2017-12-05,12.7,12.84,12.56,12.56,454100
2017-12-06,12.5,12.5,12.02,12.26,1434800
2017-12-07,12.26,12.38,12.1,12.16,489200
2017-12-08,12.06,12.16,11.88,12.02,883400
2017-12-11,12.0,12.2,11.9,12.14,520800
2017-12-12,12.1,12.2,11.98,12.1,337600
2017-12-13,12.1,12.38,12.0,12.18,327600
2017-12-14,12.4,12.88,12.4,12.52,991900
2017-12-15,12.68,12.72,12.5,12.56,257900
2017-12-18,12.58,12.64,12.38,12.56,243600
2017-12-19,12.5,12.72,12.08,12.72,465300
2017-12-20,12.7,12.74,12.58,12.7,205300
2017-12-21,12.76,13.2,12.72,12.98,940100
2017-12-22,13.14,13.14,12.8,13.04,322100
2017-12-27,13.2,13.48,13.2,13.3,1414400
2017-12-28,13.34,13.82,13.3,13.8,2070300
2017-12-29,13.8,14.2,13.66,13.96,1662800
2018-01-02,14.0,14.84,14.0,14.76,2348300
2018-01-03,14.8,15.6,14.76,15.08,2739600
2018-01-04,14.9,15.1,14.6,14.98,1582300
2018-01-05,15.16,15.56,15.1,15.16,1453200
2018-01-08,15.12,15.4,15.0,15.28,1491400
2018-01-09,15.3,15.36,14.6,14.78,1393700
2018-01-10,14.6,15.0,14.5,14.88,1074700
2018-01-11,15.0,15.2,14.82,14.96,381600
2018-01-12,15.32,15.46,15.0,15.24,1197900
2018-01-15,15.58,16.06,15.42,15.48,2303100
2018-01-16,15.5,15.74,15.3,15.44,1021600
2018-01-17,15.32,15.52,15.3,15.3,1136100
2018-01-18,15.3,15.46,14.8,14.94,876900
2018-01-19,14.94,14.94,14.5,14.88,1429900
2018-01-22,14.98,15.34,14.7,15.14,849800
2018-01-23,15.16,15.44,15.14,15.32,738500
2018-01-24,15.3,15.66,15.22,15.6,1173500
2018-01-25,15.88,16.28,15.8,16.12,2034000
2018-01-26,16.02,16.18,15.7,16.12,1334700
2018-01-29,16.02,16.6,16.0,16.16,1229900
2018-01-30,16.0,16.32,15.64,15.78,1440600
2018-01-31,15.94,16.08,15.44,16.04,949800
2018-02-01,15.3,15.3,13.36,13.94,9557900
2018-02-02,13.5,13.86,13.4,13.7,2788800
2018-02-05,13.26,13.7,13.04,13.44,2378800
2018-02-06,13.3,13.5,13.0,13.4,4784100
2018-02-07,13.74,13.74,13.2,13.48,3221700
2018-02-08,13.5,13.8,13.22,13.7,2238300
2018-02-09,13.38,13.98,13.08,13.84,4122300
2018-02-12,13.8,14.18,13.56,14.16,1696200
2018-02-13,14.48,14.84,14.1,14.7,2249700
2018-02-14,14.8,15.24,14.8,15.2,1450300
2018-02-15,15.24,15.8,15.22,15.7,986700
2018-02-20,16.0,16.9,16.0,16.56,3635100
2018-02-21,16.72,17.8,16.72,17.62,2635700
2018-02-22,17.56,18.38,17.1,17.4,2357000
2018-02-23,17.48,18.28,17.48,18.02,2084900
2018-02-26,18.1,18.76,18.1,18.54,1843600
2018-02-27,18.82,18.82,17.82,18.1,1290700
2018-02-28,17.66,17.76,16.94,17.32,1664000
2018-03-01,17.48,18.02,16.92,17.9,1218844
2018-03-02,18.0,18.0,17.64,17.9,801100
2018-03-05,18.1,19.44,17.98,17.98,4613500
2018-03-06,18.62,18.96,17.8,18.62,2289400
2018-03-07,18.66,19.18,18.44,18.68,1837600
2018-03-08,18.72,19.1,18.56,18.98,1481100
2018-03-09,19.08,19.14,18.68,18.9,1525000
2018-03-12,19.1,19.1,18.46,18.5,2212300
2018-03-13,18.5,18.5,17.62,17.62,1663800
2018-03-14,17.56,18.0,17.2,17.4,2531200
2018-03-15,17.2,17.86,17.06,17.38,1534400
2018-03-16,17.4,17.56,16.8,16.96,1380000
2018-03-19,16.7,17.1,16.7,16.88,1087800
2018-03-20,16.88,17.44,16.88,17.18,1353900
2018-03-21,17.16,17.72,16.76,16.88,1922500
2018-03-22,17.2,17.4,16.84,16.92,1768400
2018-03-23,16.5,16.92,16.2,16.64,3130500
2018-03-26,16.6,16.86,16.3,16.72,1340100
2018-03-27,17.04,17.12,16.78,16.9,1033300
2018-03-28,16.6,16.8,16.0,16.04,1052300
2018-03-29,16.12,17.22,16.12,17.02,2150800
2018-04-03,16.96,17.2,16.42,16.62,1093100
2018-04-04,16.72,16.76,16.1,16.2,972500
2018-04-06,16.22,16.48,16.06,16.18,454500
2018-04-09,16.1,16.9,16.08,16.46,1909400
2018-04-10,16.74,17.38,16.68,17.12,2409200
2018-04-11,17.5,17.5,17.1,17.2,1010700
2018-04-12,17.3,17.4,17.02,17.14,815200
2018-04-13,17.06,17.14,16.6,16.68,1336800
2018-04-16,16.7,17.1,16.2,16.32,1045027
2018-04-17,16.48,16.58,15.56,15.72,2115800
2018-04-18,15.8,16.0,15.3,15.78,2888371
2018-04-19,15.82,17.08,15.76,16.84,3707900
2018-04-20,16.92,17.18,16.66,16.8,1849600
2018-04-23,16.6,16.8,16.22,16.5,1627700
2018-04-24,16.5,16.66,16.36,16.52,942058
2018-04-25,16.54,16.54,16.1,16.54,909100
2018-04-26,16.56,16.56,15.58,15.72,1678400
2018-04-27,15.78,15.82,15.52,15.7,342400
2018-04-30,15.72,15.72,15.46,15.7,252000
2018-05-02,15.7,16.06,15.64,15.88,973400
2018-05-03,15.84,16.08,15.8,15.94,620071
2018-05-04,15.78,16.02,15.52,15.54,2339700
2018-05-07,15.76,15.9,15.3,15.6,1220700
2018-05-08,15.72,15.98,15.66,15.9,770300
2018-05-09,15.92,15.98,15.7,15.9,429300
2018-05-10,15.96,16.88,15.96,16.56,1825700
2018-05-11,16.92,16.92,16.36,16.4,1173000
2018-05-14,16.4,16.64,16.16,16.24,1041200
2018-05-15,16.42,16.42,16.08,16.1,957400
2018-05-16,15.4,15.4,14.72,15.16,4730100
2018-05-17,15.22,15.3,15.12,15.2,891280
2018-05-18,15.14,15.4,15.08,15.34,659500
2018-05-21,15.34,15.36,14.94,14.96,1274200
2018-05-23,15.22,15.32,14.92,15.02,792700
2018-05-24,15.12,15.3,15.02,15.24,757000
2018-05-25,15.4,15.7,15.28,15.48,1142500
2018-05-28,15.48,15.6,15.32,15.5,1142300
2018-05-29,15.28,15.56,15.2,15.3,586100
2018-05-30,15.42,15.48,15.26,15.38,763000
2018-05-31,15.42,15.42,15.02,15.26,971300
2018-06-01,15.28,15.3,15.02,15.08,452800
2018-06-04,15.1,15.26,15.06,15.18,702100
2018-06-05,15.06,15.2,14.78,14.96,2148000
2018-06-06,15.1,15.12,14.84,15.02,816200
2018-06-07,15.14,15.8,15.06,15.7,2422100
2018-06-08,15.82,15.98,15.48,15.68,825415
2018-06-11,15.5,15.9,15.5,15.74,565300
2018-06-12,15.74,15.86,15.5,15.5,512700
2018-06-13,15.46,15.58,15.2,15.24,1088700
2018-06-14,15.24,15.26,15.0,15.04,814000
2018-06-15,15.08,15.22,14.78,14.8,804900
2018-06-19,14.66,14.7,13.88,14.18,1205200
2018-06-20,14.22,14.4,14.0,14.28,419700
2018-06-21,14.28,14.44,13.94,14.02,684200
2018-06-22,14.08,14.08,13.8,13.92,367200
2018-06-25,13.92,14.0,13.48,13.6,533000
2018-06-26,13.54,13.54,12.98,13.24,665100
2018-06-27,13.2,13.54,12.78,12.9,926100
2018-06-28,12.66,13.08,12.66,12.98,534700
2018-06-29,13.02,13.52,12.96,13.38,667500
2018-07-03,13.28,13.32,12.7,13.2,721078
2018-07-04,13.22,13.56,13.12,13.16,378800
2018-07-05,12.88,13.12,12.62,12.72,762700
2018-07-06,12.74,12.88,12.46,12.68,387590
2018-07-09,12.78,13.18,12.54,13.12,757100
2018-07-10,12.92,13.24,12.92,13.08,190000
2018-07-11,12.8,12.96,12.48,12.66,504972
2018-07-12,12.52,13.04,11.6,13.04,763800
2018-07-13,13.2,13.2,12.78,12.86,169800
2018-07-16,12.86,13.1,12.68,12.88,193500
2018-07-17,12.66,12.76,12.52,12.56,448800
2018-07-18,12.5,12.82,12.5,12.54,69900
2018-07-19,12.64,12.7,12.54,12.68,343500
2018-07-20,12.88,13.1,12.5,12.86,719300
2018-07-23,12.84,13.3,12.84,13.14,380400
2018-07-24,13.14,13.6,13.08,13.54,778500
2018-07-25,13.6,13.66,13.48,13.66,285700
2018-07-26,13.72,13.74,13.4,13.42,449938
2018-07-27,13.3,13.64,13.14,13.48,181100
2018-07-30,13.46,13.64,13.3,13.42,192200
2018-07-31,13.38,13.52,13.2,13.46,136700
2018-08-01,13.5,13.66,13.3,13.32,191700
2018-08-02,13.32,13.32,13.02,13.3,345200
2018-08-03,13.26,13.32,12.92,12.92,369600
2018-08-06,12.92,13.26,12.8,12.84,262600
2018-08-07,13.04,13.26,12.88,13.02,149100
2018-08-08,13.06,13.12,12.92,12.94,160700
2018-08-09,12.88,13.26,12.88,13.22,153400
2018-08-10,13.2,13.2,12.98,13.0,90600
2018-08-13,12.94,13.5,12.8,13.18,539300
2018-08-14,13.2,13.46,13.18,13.24,390200
2018-08-15,12.76,12.8,11.74,11.8,2420000
2018-08-16,11.6,11.64,10.98,11.1,1963000
2018-08-17,11.42,11.42,10.96,10.98,546600
2018-08-20,11.0,11.0,10.48,10.82,1031100
2018-08-21,10.84,11.3,10.84,11.3,463000
2018-08-22,11.3,11.3,10.88,10.88,764800
2018-08-23,10.94,11.14,10.9,11.04,348000
2018-08-24,11.04,11.04,10.82,11.0,176000
2018-08-27,11.2,11.24,11.08,11.18,238100
2018-08-28,11.1,11.3,11.1,11.2,158900
2018-08-29,11.16,11.18,11.0,11.04,159100
2018-08-30,11.0,11.04,10.88,10.94,242500
2018-08-31,10.86,11.04,10.86,11.0,280300
2018-09-03,10.98,11.0,10.84,11.0,110500
2018-09-04,10.94,10.96,10.8,10.96,93500
2018-09-05,10.86,10.88,10.72,10.74,179400
2018-09-06,10.72,11.02,10.36,10.72,999100
2018-09-07,10.66,10.92,10.56,10.72,356000
2018-09-10,10.72,10.72,10.44,10.5,349300
2018-09-11,10.48,10.78,10.42,10.48,338600
2018-09-12,10.56,10.64,10.42,10.54,402100
2018-09-13,10.86,10.98,10.74,10.92,240200
2018-09-14,10.98,11.1,10.76,11.1,188600
2018-09-17,10.78,11.02,10.78,10.96,165900
2018-09-18,11.44,11.8,11.3,11.54,1059600
2018-09-19,11.54,11.78,11.5,11.66,256200
2018-09-20,11.78,11.84,11.68,11.82,106500
2018-09-21,11.94,12.48,11.94,12.4,722100
2018-09-24,12.4,12.4,11.64,11.9,125000
2018-09-26,12.0,12.02,11.84,11.86,257500
2018-09-27,11.8,11.86,11.46,11.64,264000
2018-09-28,11.42,11.48,11.2,11.3,421800
2018-10-02,11.3,11.5,11.3,11.42,149300
2018-10-03,11.6,11.64,11.48,11.52,316900
2018-10-04,11.48,11.48,11.26,11.44,108100
2018-10-05,11.34,11.4,11.24,11.28,112800
2018-10-08,11.32,11.32,10.84,11.16,516800
2018-10-09,11.2,11.32,11.0,11.1,103600
2018-10-10,11.32,11.4,11.2,11.32,113000
2018-10-11,11.26,11.5,10.6,10.8,1272000
2018-10-12,10.9,11.22,10.7,10.96,861200
2018-10-15,11.02,11.74,10.84,11.56,727400
2018-10-16,11.36,11.38,10.82,11.16,460100
2018-10-18,11.04,11.04,10.8,10.98,212500
2018-10-19,11.0,11.3,10.96,11.18,183800
2018-10-22,11.16,11.38,11.14,11.3,420800
2018-10-23,11.08,11.28,10.9,11.1,257400
2018-10-24,11.1,11.28,11.02,11.1,308700
2018-10-25,11.0,11.0,10.74,10.98,413500
2018-10-26,10.82,10.94,10.76,10.8,266700
2018-10-29,10.76,10.76,10.58,10.58,479400
2018-10-30,10.48,10.66,10.38,10.5,357200
2018-10-31,10.5,10.7,10.5,10.56,194000
2018-11-01,10.82,10.84,10.6,10.8,329900
2018-11-02,10.8,11.32,10.8,11.12,635900
2018-11-05,11.2,11.2,10.84,10.84,228600
2018-11-06,10.7,10.98,10.7,10.92,281100
2018-11-07,10.84,10.92,10.78,10.88,310400
2018-11-08,10.88,10.92,10.78,10.8,244800
2018-11-09,10.8,10.82,10.62,10.78,192900
2018-11-12,10.7,10.72,10.56,10.56,311900
2018-11-13,10.54,10.66,10.44,10.6,328300
2018-11-14,10.7,10.76,10.6,10.68,91700
2018-11-15,10.68,10.68,10.5,10.6,249300
2018-11-16,10.68,10.72,10.5,10.6,347300
2018-11-19,10.6,10.74,10.6,10.64,289700
2018-11-20,10.66,10.96,10.6,10.8,400300
2018-11-21,10.7,10.9,10.68,10.76,643300
2018-11-22,10.78,10.84,10.66,10.68,243700
2018-11-23,10.64,10.74,10.6,10.72,199400
2018-11-26,10.72,10.76,10.6,10.7,123100
2018-11-27,10.56,10.74,10.56,10.62,225400
2018-11-28,10.64,10.64,10.56,10.64,229300
2018-11-29,10.66,10.88,10.64,10.7,296200
2018-11-30,10.6,10.72,10.6,10.72,219800
2018-12-03,10.78,10.98,10.78,10.94,377400
2018-12-04,10.86,10.94,10.7,10.9,436900
2018-12-05,10.9,10.9,10.68,10.72,394100
2018-12-06,10.64,10.82,10.4,10.54,690100
2018-12-07,10.48,10.66,10.48,10.56,401200
2018-12-10,10.6,10.68,10.02,10.44,582000
2018-12-11,10.3,10.48,10.2,10.34,179700
2018-12-12,10.28,10.4,10.22,10.24,232000
2018-12-13,10.4,10.5,10.32,10.48,193100
2018-12-14,10.6,10.64,10.3,10.58,376926
2018-12-17,10.56,10.56,10.34,10.36,144400
2018-12-18,10.5,10.68,10.44,10.46,259300
2018-12-19,10.38,10.46,10.26,10.26,282900
2018-12-20,10.26,10.26,9.96,10.02,693300
2018-12-21,10.2,10.2,9.98,10.1,222200
2018-12-24,10.2,10.2,9.7,9.73,450300
2018-12-27,9.8,9.95,9.65,9.75,259400
2018-12-28,9.7,9.8,9.5,9.6,160800
2018-12-31,9.5,9.71,9.44,9.44,150100
2019-01-02,9.38,9.4,9.0,9.08,982000
2019-01-03,9.07,9.07,9.0,9.07,214642
2019-01-04,9.07,9.26,8.81,9.2,465500
2019-01-07,9.45,9.45,9.2,9.21,159600
2019-01-08,9.21,9.3,9.15,9.16,425100
2019-01-09,9.34,9.34,9.19,9.19,145900
2019-01-10,9.36,9.37,9.06,9.18,781300
2019-01-11,9.32,9.32,9.13,9.24,178500
2019-01-14,9.12,9.24,9.1,9.23,47100
2019-01-15,9.22,9.22,9.1,9.12,287300
2019-01-16,9.1,9.18,9.07,9.13,198800
2019-01-17,9.13,9.3,9.13,9.16,176700
2019-01-18,9.3,9.33,9.2,9.22,206500
2019-01-21,9.19,9.36,9.12,9.15,229200
2019-01-22,9.12,9.16,9.03,9.03,147800
2019-01-23,9.05,9.1,8.95,8.98,428600
2019-01-24,9.03,9.14,8.9,8.9,388154
2019-01-25,9.0,9.0,8.94,8.98,119300
2019-01-28,8.98,9.26,8.98,9.14,671500
2019-01-29,9.18,9.48,9.14,9.42,844200
2019-01-30,9.42,9.71,9.42,9.6,1329000
2019-01-31,9.9,9.9,9.69,9.86,544600
2019-02-01,9.98,10.22,9.89,10.1,409300
2019-02-04,10.1,10.48,10.1,10.46,271400
2019-02-08,10.7,10.8,9.94,10.2,777300
2019-02-11,10.42,10.42,9.96,10.0,652800
2019-02-12,10.08,10.12,9.94,10.1,340400
2019-02-13,10.1,10.22,10.02,10.14,503400
2019-02-14,10.18,10.3,10.1,10.1,227200
2019-02-15,10.18,10.26,10.02,10.1,325800
2019-02-18,10.2,10.6,10.2,10.6,1089800
2019-02-19,10.62,10.62,10.38,10.46,384900
2019-02-20,10.58,11.06,10.58,11.0,1122800
2019-02-21,11.1,11.2,10.58,10.7,1031600
2019-02-22,10.54,10.7,10.4,10.56,695700
2019-02-25,10.8,11.22,10.6,11.22,1341300
2019-02-26,11.22,11.3,10.9,11.06,497000
2019-02-27,11.1,11.44,11.1,11.34,797500
2019-02-28,11.3,11.3,10.9,10.96,369000
2019-03-01,10.96,11.3,10.9,11.26,403100
2019-03-04,11.08,11.18,10.82,10.98,1130300
2019-03-05,10.86,10.96,10.8,10.82,627900
2019-03-06,10.68,10.94,10.66,10.72,808100
2019-03-07,10.72,10.84,10.52,10.62,268300
2019-03-08,10.6,10.6,10.1,10.2,1107768
2019-03-11,10.34,10.62,10.32,10.52,989700
2019-03-12,10.7,10.72,10.4,10.72,309800
2019-03-13,10.58,10.8,10.56,10.6,223200
2019-03-14,10.76,10.88,10.6,10.6,391900
2019-03-15,10.82,10.82,10.48,10.7,201262
2019-03-18,10.9,10.9,10.4,10.72,496600
2019-03-19,10.76,10.82,10.54,10.7,401400
2019-03-20,10.74,10.84,10.64,10.7,175400
2019-03-21,10.9,10.92,10.76,10.82,466800
2019-03-22,10.76,10.82,10.5,10.6,869200
2019-03-25,10.42,10.42,10.18,10.26,700800
2019-03-26,10.32,10.62,10.3,10.42,260000
2019-03-27,9.94,10.02,9.8,9.89,1369000
2019-03-28,9.82,9.9,9.5,9.58,676300
2019-03-29,9.66,9.91,9.4,9.9,785700
2019-04-01,9.97,10.12,9.76,10.1,828600
2019-04-02,10.1,10.16,9.96,10.0,287300
2019-04-03,10.0,10.18,9.99,10.04,267400
2019-04-04,10.0,10.16,9.97,9.98,306700
2019-04-08,10.0,10.54,9.99,10.4,1211200
2019-04-09,10.4,10.7,10.32,10.56,582800
2019-04-10,10.7,10.8,10.5,10.68,394800
2019-04-11,10.68,10.68,10.42,10.46,438600
2019-04-12,10.32,10.36,10.1,10.34,341000
2019-04-15,10.42,10.84,10.42,10.8,1301000
2019-04-16,10.84,11.0,10.6,10.86,736700
2019-04-17,10.74,10.88,10.7,10.8,537800
2019-04-18,10.72,10.84,10.64,10.7,522300
2019-04-23,10.82,11.0,10.58,10.62,728100
2019-04-24,10.6,10.66,10.4,10.46,394000
2019-04-25,10.54,10.54,9.84,10.0,846200
2019-04-26,10.0,10.38,9.98,10.2,456000
2019-04-29,10.32,10.32,10.0,10.18,174800
2019-04-30,10.18,10.28,10.02,10.08,109100
2019-05-02,10.12,10.12,9.78,9.9,304700
2019-05-03,9.96,10.02,9.9,9.98,60600
2019-05-06,9.97,9.98,9.63,9.69,664300
2019-05-07,9.72,9.92,9.71,9.71,214100
2019-05-08,9.91,9.91,9.72,9.84,224400
2019-05-09,9.88,9.88,9.65,9.66,278700
2019-05-10,9.66,9.78,9.63,9.76,372400
2019-05-14,9.64,9.96,9.04,9.86,406500
2019-05-15,9.73,9.86,9.71,9.86,173500
2019-05-16,9.49,9.49,9.25,9.35,767300
2019-05-17,9.38,9.4,9.1,9.11,369900
2019-05-20,9.11,9.11,8.66,8.67,972900
2019-05-21,8.67,8.88,8.62,8.66,260500
2019-05-22,8.67,8.72,8.52,8.7,249800
2019-05-23,8.84,8.84,8.48,8.49,284500
2019-05-24,8.52,8.67,8.5,8.58,94500
2019-05-27,8.65,8.65,8.49,8.53,71400
2019-05-28,8.81,8.81,8.7,8.75,164900
2019-05-29,8.69,8.78,8.64,8.7,106300
2019-05-30,8.72,8.9,8.56,8.58,188500
2019-05-31,8.6,8.78,8.6,8.67,86000
2019-06-03,8.78,8.99,8.78,8.93,195100
2019-06-04,9.18,9.22,8.92,9.0,329900
2019-06-05,9.0,9.2,8.89,9.1,217000
2019-06-06,9.12,9.12,8.84,8.95,130400
2019-06-10,9.01,9.14,8.98,9.0,118300
2019-06-11,9.0,9.15,9.0,9.1,202700
2019-06-12,9.03,9.17,8.98,9.08,167300
2019-06-13,9.0,9.07,8.9,8.95,235600
2019-06-14,8.93,8.94,8.81,8.83,174500
2019-06-17,8.8,8.98,8.66,8.76,82400
2019-06-18,8.73,8.91,8.63,8.88,276100
2019-06-19,8.8,8.9,8.73,8.85,176800
2019-06-20,9.0,9.15,8.93,9.09,439400
2019-06-21,9.16,9.8,9.16,9.45,1292000
2019-06-24,9.48,9.86,9.48,9.58,741200
2019-06-25,9.84,10.24,9.79,10.16,1537500
2019-06-26,10.1,10.14,9.8,10.0,640100
2019-06-27,10.0,10.18,9.93,10.02,726900
2019-06-28,10.0,10.24,10.0,10.06,400800
2019-07-02,9.97,9.97,9.67,9.86,554200
2019-07-03,10.1,10.28,9.56,9.61,1339400
2019-07-04,9.69,9.7,9.52,9.54,390600
2019-07-05,9.58,9.71,9.55,9.67,452900
2019-07-08,9.5,9.55,9.16,9.25,622700
2019-07-09,9.25,9.27,9.12,9.13,227000
2019-07-10,9.32,9.42,9.13,9.2,317600
2019-07-11,9.22,9.4,9.1,9.19,699300
2019-07-12,9.19,9.19,9.09,9.1,88800
2019-07-15,9.16,9.18,9.02,9.16,147700
2019-07-16,9.16,9.23,9.1,9.16,134400
2019-07-17,9.05,9.13,8.99,8.99,389800
2019-07-18,9.14,9.25,8.98,9.06,376800
2019-07-19,9.25,9.57,9.15,9.53,792600
2019-07-22,9.68,9.69,9.21,9.53,625700
2019-07-23,9.6,9.75,9.46,9.55,205400
2019-07-24,9.5,9.54,9.41,9.43,106700
2019-07-25,9.46,9.52,9.35,9.45,112000
2019-07-26,9.31,9.31,9.23,9.3,173900
2019-07-29,9.37,9.48,9.25,9.3,248900
2019-07-30,9.17,9.47,9.17,9.29,375100
2019-07-31,9.29,9.29,9.13,9.14,145200
2019-08-01,9.12,9.12,8.97,9.05,287701
2019-08-02,9.05,9.25,8.96,8.98,499900
2019-08-05,8.98,9.37,8.87,9.19,565100
2019-08-06,9.4,9.4,8.8,8.91,543200
2019-08-07,8.94,9.11,8.9,9.03,347900
2019-08-08,9.07,9.17,9.02,9.05,432200
2019-08-09,9.04,9.1,8.9,9.05,235600
2019-08-12,9.05,9.16,8.84,8.9,205700
2019-08-13,8.91,10.42,8.91,10.0,2810300
2019-08-14,9.9,9.9,9.41,9.44,756000
2019-08-15,9.4,10.1,8.93,9.05,2082800
2019-08-16,9.36,9.36,8.92,9.04,703000
2019-08-19,8.99,9.09,8.95,9.0,741100
2019-08-20,8.91,8.96,8.83,8.91,565854
2019-08-21,9.0,9.0,8.5,8.65,1044200
2019-08-22,8.66,8.78,8.64,8.72,215900
2019-08-23,8.56,8.74,8.35,8.39,765600
2019-08-26,8.83,8.97,8.37,8.55,921000
2019-08-27,8.54,8.57,8.24,8.41,732800
2019-08-28,8.59,8.59,8.41,8.48,331800
2019-08-29,8.34,8.54,8.32,8.46,596800
2019-08-30,8.35,8.53,8.35,8.49,417600
2019-09-02,8.52,8.64,8.51,8.56,383300
2019-09-03,8.56,8.64,8.47,8.47,314400
2019-09-04,8.5,8.64,8.45,8.46,727100
2019-09-05,8.48,8.62,8.46,8.57,378500
2019-09-06,8.48,8.59,8.46,8.49,356100
2019-09-09,8.46,8.49,8.45,8.46,353500
2019-09-10,8.46,8.5,8.45,8.47,159400
2019-09-11,8.5,8.62,8.48,8.62,93267
2019-09-12,8.58,8.59,8.46,8.5,100400
2019-09-13,8.46,8.6,8.46,8.54,210300
2019-09-16,8.39,8.51,8.39,8.46,268800
2019-09-17,8.37,8.5,8.3,8.46,655800
2019-09-18,8.37,8.47,8.35,8.35,312000
2019-09-19,8.3,8.31,8.08,8.17,643700
2019-09-20,8.19,8.19,8.05,8.06,292600
2019-09-23,8.0,8.0,7.5,7.55,1206900
2019-09-24,7.5,7.51,7.21,7.41,783100
2019-09-25,7.31,7.4,7.29,7.35,282300
2019-09-26,7.35,7.39,7.26,7.26,282100
2019-09-27,7.24,7.24,7.05,7.09,342300
2019-09-30,7.09,7.17,7.03,7.04,112600
2019-10-02,6.98,7.01,6.81,6.81,403400
2019-10-03,6.88,6.94,6.81,6.92,201700
2019-10-04,6.9,6.97,6.83,6.9,149000
2019-10-08,6.83,6.95,6.77,6.79,216000
2019-10-09,6.79,6.79,6.47,6.49,441400
2019-10-10,6.66,6.67,6.49,6.63,180600
2019-10-11,6.55,6.6,6.4,6.52,343000
2019-10-14,6.43,6.69,6.42,6.5,430200
2019-10-15,6.5,6.69,6.48,6.56,156500
2019-10-16,6.57,6.57,6.35,6.4,265900
2019-10-17,6.4,6.46,6.36,6.38,168600
2019-10-18,6.42,6.45,6.36,6.38,89100
2019-10-21,6.35,6.36,6.26,6.28,256400
2019-10-22,6.36,6.36,6.22,6.3,167000
2019-10-23,6.28,6.37,6.23,6.3,358700
2019-10-24,6.37,6.38,6.24,6.25,202900
2019-10-25,6.32,6.6,6.26,6.48,367400
2019-10-28,6.48,6.78,6.37,6.72,313000
2019-10-29,6.72,6.8,6.61,6.65,397700
2019-10-30,6.69,6.69,6.5,6.67,123700
2019-10-31,6.58,6.58,6.36,6.45,446300
2019-11-01,6.45,6.51,6.45,6.47,193100
2019-11-04,6.53,6.66,6.48,6.6,569900
2019-11-05,6.6,6.66,6.45,6.5,264500
2019-11-06,6.52,6.52,6.19,6.2,718000
2019-11-07,6.28,6.31,6.19,6.26,352400
2019-11-08,6.28,6.35,6.15,6.2,576400
2019-11-11,6.27,6.27,5.98,6.0,1190600
2019-11-12,6.0,6.0,5.77,5.92,477400
2019-11-13,6.0,6.0,5.72,5.8,583000
2019-11-14,6.0,6.0,5.59,5.68,1093000
2019-11-15,5.6,5.8,5.6,5.71,408700
2019-11-18,5.83,5.83,5.46,5.49,569500
2019-11-19,5.51,5.77,5.51,5.75,282000
2019-11-20,5.72,5.8,5.69,5.72,104500
2019-11-21,5.72,5.76,5.61,5.66,295900
2019-11-22,5.66,5.71,5.62,5.64,207200
2019-11-25,5.73,6.01,5.73,5.88,461900
2019-11-26,5.91,5.91,5.65,5.8,235800
2019-11-27,5.82,5.97,5.7,5.85,148900
2019-11-28,5.87,5.91,5.72,5.87,128700
2019-11-29,5.97,5.98,5.8,5.84,142600
2019-12-02,6.05,6.05,5.81,5.85,133200
2019-12-03,5.98,6.24,5.98,6.21,559400
2019-12-04,6.21,6.45,6.21,6.38,431300
2019-12-05,6.38,6.5,6.17,6.37,464200
2019-12-06,6.48,6.6,6.26,6.33,404000
2019-12-09,6.33,6.64,6.25,6.53,501100
2019-12-10,6.6,6.87,6.54,6.76,476700
2019-12-11,6.8,7.01,6.78,6.85,465500
2019-12-12,6.99,6.99,6.7,6.78,227600
2019-12-13,6.72,6.8,6.6,6.62,192300
2019-12-16,6.72,6.92,6.64,6.82,221800
2019-12-17,6.81,6.85,6.65,6.7,218200
2019-12-18,6.79,6.79,6.66,6.74,32400
2019-12-19,6.6,6.73,6.6,6.64,80800
2019-12-20,6.64,6.93,6.64,6.69,523800
2019-12-23,6.6,6.6,6.16,6.26,819600
2019-12-24,6.27,6.41,6.13,6.34,209200
2019-12-27,6.49,6.89,6.49,6.83,730600
2019-12-30,6.69,7.27,6.64,7.12,997700
2019-12-31,7.19,7.3,7.13,7.17,277100
2020-01-02,7.16,7.29,7.08,7.21,160800
2020-01-03,7.3,7.36,7.16,7.35,412700
2020-01-06,7.34,7.72,7.31,7.4,930200
2020-01-07,7.4,7.47,6.97,7.15,625100
2020-01-08,7.31,7.41,7.18,7.26,628900
2020-01-09,7.1,7.1,6.96,6.97,340400
2020-01-10,7.0,7.0,6.78,6.81,240200
2020-01-13,6.82,6.92,6.8,6.91,200800
2020-01-14,6.81,7.01,6.8,6.93,163000
2020-01-15,6.92,6.92,6.86,6.9,78000
2020-01-16,6.9,6.93,6.82,6.82,149400
2020-01-17,6.82,6.86,6.75,6.76,400900
2020-01-20,6.76,6.76,6.44,6.67,448300
2020-01-21,6.75,6.75,6.5,6.52,194500
2020-01-22,6.64,6.86,6.51,6.63,229500
2020-01-23,6.63,6.83,6.5,6.51,67200
2020-01-24,6.55,6.57,6.55,6.58,5000
2020-01-29,6.15,6.58,6.15,6.31,308600
2020-01-30,6.32,6.45,6.13,6.17,222200
2020-01-31,6.15,6.45,5.8,6.22,1178100
2020-02-03,6.32,6.32,5.82,6.0,468000
2020-02-04,5.9,6.11,5.82,6.02,232900
2020-02-05,6.02,6.6,6.0,6.05,55500
2020-02-06,6.2,6.2,6.04,6.11,97700
2020-02-07,6.11,6.13,6.02,6.11,63300
2020-02-10,6.02,6.16,5.99,6.04,78100
2020-02-11,6.07,6.21,6.07,6.08,7800
2020-02-12,6.09,6.1,5.92,6.09,141400
2020-02-13,5.99,6.17,5.99,6.05,77700
2020-02-14,6.05,6.12,5.98,6.01,201700
2020-02-17,5.98,6.05,5.9,5.96,445700
2020-02-18,5.95,6.01,5.91,6.0,144000
2020-02-19,6.03,6.04,5.9,5.99,295100
2020-02-20,5.99,6.05,5.9,5.92,426500
2020-02-21,5.97,6.27,5.96,6.25,816400
2020-02-24,6.5,6.89,6.4,6.78,2461800
2020-02-25,6.84,6.9,6.35,6.57,1303500
2020-02-26,6.55,6.55,6.28,6.46,555400
2020-02-27,6.57,6.78,6.4,6.58,686100
2020-02-28,6.56,6.56,6.25,6.31,434000
2020-03-02,6.26,6.26,6.0,6.08,705700
2020-03-03,6.1,6.28,6.06,6.15,454300
2020-03-04,6.21,6.54,6.21,6.42,648400
2020-03-05,6.42,6.42,6.2,6.33,407100
2020-03-06,6.42,6.58,6.4,6.47,677900
2020-03-09,6.52,6.57,6.08,6.28,546900
2020-03-10,6.01,6.2,5.8,5.94,671300
2020-03-11,5.94,5.99,5.83,5.91,167100
2020-03-12,5.91,5.91,5.5,5.59,710000
2020-03-13,5.36,5.36,4.47,5.28,936900
2020-03-16,5.0,5.15,4.71,5.01,704900
2020-03-17,4.9,5.05,4.64,4.69,906800
2020-03-18,4.77,4.89,3.9,4.18,1148000
2020-03-19,4.09,4.09,3.8,3.88,712700
2020-03-20,3.88,4.1,3.84,4.0,533900
2020-03-23,3.75,3.83,3.62,3.66,714900
2020-03-24,3.8,4.14,3.8,4.05,784300
2020-03-25,4.17,4.4,4.08,4.12,707600
2020-03-26,4.1,4.19,4.0,4.13,471600
2020-03-27,4.14,4.24,4.07,4.12,507200
2020-03-30,4.05,4.08,3.97,4.08,327900
2020-03-31,4.06,4.24,3.95,4.03,1253200
2020-04-01,4.03,4.11,3.75,4.02,412300
2020-04-02,3.93,4.12,3.88,4.03,493300
2020-04-03,4.04,4.18,4.04,4.09,184400
2020-04-06,4.09,4.16,4.0,4.15,205700
2020-04-07,4.24,4.65,4.22,4.47,937100
2020-04-08,4.48,4.48,4.08,4.18,798100
2020-04-09,4.18,4.24,4.1,4.22,361800
2020-04-14,4.44,4.64,4.41,4.53,1149300
2020-04-15,4.61,4.65,4.34,4.44,833000
2020-04-16,4.38,4.41,4.3,4.41,260300
2020-04-17,4.4,4.48,4.35,4.39,300000
2020-04-20,4.22,4.39,4.22,4.29,233700
2020-04-21,4.2,4.27,4.1,4.13,462600
2020-04-22,4.1,4.11,3.98,4.11,227500
2020-04-23,4.18,4.3,4.18,4.25,197800
2020-04-24,4.27,4.27,4.1,4.17,151300
2020-04-27,4.15,4.19,3.98,3.98,773300
2020-04-28,4.02,4.02,3.79,3.93,603100
2020-04-29,3.99,4.07,3.96,4.04,236500
2020-05-04,4.04,4.04,3.9,3.92,206700
2020-05-05,3.92,4.03,3.9,4.0,182600
2020-05-06,3.99,4.05,3.97,4.02,121200
2020-05-07,4.02,4.03,3.93,4.0,109700
2020-05-08,4.05,4.19,4.03,4.12,388300
2020-05-11,4.1,4.13,4.01,4.02,221900
2020-05-12,4.01,4.01,3.93,3.94,239700
2020-05-13,3.97,3.97,3.92,3.96,123300
2020-05-14,3.96,3.96,3.84,3.86,300900
2020-05-15,3.88,3.94,3.84,3.91,317800
2020-05-18,3.9,4.15,3.9,4.06,720200
2020-05-19,3.98,4.1,3.94,3.96,467100
2020-05-20,4.04,4.04,3.87,3.88,965500
2020-05-21,3.88,3.88,3.81,3.86,442300
2020-05-22,3.8,3.8,3.52,3.65,745600
2020-05-25,3.65,3.65,3.57,3.6,116500
2020-05-26,3.63,3.74,3.63,3.69,260300
2020-05-27,3.69,3.72,3.61,3.67,158200
2020-05-28,3.67,3.7,3.53,3.59,225000
2020-05-29,3.57,3.57,3.28,3.35,1425500
2020-06-01,3.35,3.43,3.26,3.41,677200
2020-06-02,3.35,3.38,3.22,3.35,368000
2020-06-03,3.35,3.42,3.33,3.39,731600
2020-06-04,3.3,3.31,3.23,3.28,536100
2020-06-05,3.28,3.44,3.24,3.4,961400
2020-06-08,3.34,3.5,3.33,3.5,1135900
2020-06-09,3.52,4.36,3.52,4.15,2861800
2020-06-10,4.17,4.55,4.13,4.5,2100400
2020-06-11,4.45,4.84,4.24,4.25,2636700
2020-06-12,4.2,4.24,4.0,4.02,1587100
2020-06-15,3.98,4.15,3.74,3.79,1201500
2020-06-16,3.97,3.97,3.79,3.83,837900
2020-06-17,3.79,3.81,3.56,3.7,1940900
2020-06-18,3.68,3.89,3.6,3.82,999100
2020-06-19,3.8,3.8,3.63,3.68,2226500
2020-06-22,3.7,3.9,3.7,3.76,1031800
2020-06-23,4.01,4.24,3.81,4.24,1844500
2020-06-24,4.3,4.52,4.27,4.32,1890800
2020-06-26,4.35,4.48,4.29,4.29,733000
2020-06-29,4.39,4.39,4.01,4.14,1321000
2020-06-30,4.1,4.18,4.06,4.12,455700
2020-07-02,4.15,4.66,4.15,4.65,2478800
2020-07-03,4.68,4.76,4.6,4.7,1281400
2020-07-06,4.94,5.1,4.7,5.03,1443600
2020-07-07,5.25,5.47,4.83,4.86,1653600
2020-07-08,4.86,5.5,4.86,5.23,2588400
2020-07-09,5.43,5.87,5.33,5.83,4646900
2020-07-10,5.89,6.07,5.6,5.71,2714300
2020-07-13,5.77,6.72,5.7,6.56,3432400
2020-07-14,6.5,6.67,6.21,6.35,1858400
2020-07-15,6.5,6.63,6.1,6.2,1370400
2020-07-16,6.13,6.22,5.71,5.8,1239700
2020-07-17,5.81,6.0,5.75,5.84,1082300
2020-07-20,5.98,6.56,5.92,6.39,1090400
2020-07-21,6.38,6.81,6.38,6.71,2194400
2020-07-22,6.91,7.55,6.91,7.19,2884500
2020-07-23,7.21,7.72,7.19,7.6,3088100
2020-07-24,7.61,7.84,7.45,7.67,3661200
2020-07-27,7.79,8.31,7.79,8.29,3464800
2020-07-28,8.6,8.9,7.39,7.55,5210300
2020-07-29,7.8,8.2,7.65,8.16,2265700
2020-07-30,8.12,8.16,7.66,7.7,2256400
2020-07-31,7.7,8.09,7.7,7.88,2660200
2020-08-03,8.03,8.03,7.64,7.87,1079400
2020-08-04,8.0,8.01,7.67,7.72,1027500
2020-08-05,8.05,8.26,7.83,8.04,2019900
2020-08-06,8.2,8.35,8.04,8.05,2428700
2020-08-07,8.1,8.48,7.84,8.1,3277500
2020-08-10,8.01,8.1,7.74,7.92,1301900
2020-08-11,7.96,8.14,7.83,7.97,1827500
2020-08-12,7.26,7.64,7.12,7.4,1923800
2020-08-13,7.5,7.58,7.4,7.42,471700
2020-08-14,7.38,7.71,7.38,7.48,512300
2020-08-17,7.8,8.35,7.8,8.2,2806000
2020-08-18,8.33,8.68,8.27,8.68,2135000
2020-08-19,8.8,8.8,8.35,8.4,831400
2020-08-20,8.4,8.43,7.97,8.29,948599
2020-08-21,8.4,8.63,8.2,8.46,1473700
2020-08-24,8.46,8.88,8.27,8.87,1394400
2020-08-25,8.87,9.75,8.87,9.69,2814400
