Date,Open,High,Low,Close,Volume
2013-03-06,3.72,4.2,3.72,4.06,150106528
2013-03-07,4.1,4.27,4.0,4.18,28645620
2013-03-08,4.2,4.48,4.17,4.22,31833360
2013-03-11,4.28,4.32,3.9,3.9,20085224
2013-03-12,3.9,4.03,3.79,3.94,17798902
2013-03-13,3.9,4.2,3.83,4.04,12801155
2013-03-14,4.07,4.12,3.97,4.07,5535524
2013-03-15,4.13,4.17,4.03,4.05,7104810
2013-03-18,4.05,4.05,3.87,3.94,3624109
2013-03-19,4.0,4.09,3.9,3.9,2242276
2013-03-20,3.9,4.01,3.9,4.0,4442994
2013-03-21,4.01,4.39,4.0,4.36,11468491
2013-03-22,4.36,4.78,4.27,4.73,10655167
2013-03-25,4.69,4.88,4.47,4.51,7466402
2013-03-26,4.55,4.57,4.3,4.37,5141154
2013-03-27,4.41,4.51,4.35,4.42,2485045
2013-03-28,4.44,4.44,4.23,4.34,2971605
2013-04-02,4.3,4.39,4.19,4.21,4914775
2013-04-03,4.28,4.28,4.2,4.21,1555970
2013-04-05,4.17,4.2,4.0,4.0,5771122
2013-04-08,4.0,4.06,3.95,4.03,2365197
2013-04-09,4.05,4.23,4.05,4.1,3624109
2013-04-10,4.15,4.29,4.1,4.29,1161600
2013-04-11,4.26,4.44,4.25,4.4,3765468
2013-04-12,4.4,4.44,4.31,4.39,1377735
2013-04-15,4.34,4.4,4.3,4.39,1685036
2013-04-16,4.22,4.39,4.22,4.33,1219987
2013-04-17,4.33,4.4,4.3,4.32,613579
2013-04-18,4.3,4.34,4.17,4.18,630992
2013-04-19,4.18,4.29,4.11,4.18,1498607
2013-04-22,4.22,4.28,4.05,4.15,1347005
2013-04-23,4.19,4.48,4.16,4.44,6434893
2013-04-24,4.59,4.8,4.58,4.72,9047980
2013-04-25,4.75,4.98,4.63,4.64,9848347
2013-04-26,4.58,4.75,4.58,4.7,2221790
2013-04-29,4.74,4.74,4.55,4.64,23037368
2013-04-30,4.66,4.83,4.6,4.69,8344260
2013-05-02,4.68,4.77,4.67,4.7,11845448
2013-05-03,4.72,5.29,4.72,5.21,25689380
2013-05-06,5.21,5.38,5.13,5.19,4489675
2013-05-07,5.22,5.64,5.2,5.59,16962018
2013-05-08,5.61,5.7,5.5,5.56,9150414
2013-05-09,5.57,5.68,5.42,5.51,4060477
2013-05-10,5.51,5.85,5.48,5.77,9912987
2013-05-13,5.76,5.98,5.69,5.83,8412402
2013-05-14,5.94,6.05,5.88,5.98,7188719
2013-05-15,6.01,6.23,6.01,6.06,6724781
2013-05-16,6.12,6.15,5.78,5.92,7983684
2013-05-20,5.96,5.97,5.61,5.69,6407733
2013-05-21,5.69,6.01,5.67,5.89,8540933
2013-05-22,5.91,5.99,5.4,5.45,6851865
2013-05-23,5.47,5.64,5.13,5.44,9442168
2013-05-24,5.48,5.81,5.48,5.68,6801606
2013-05-27,5.78,6.06,5.73,6.06,9928348
2013-05-28,6.01,6.06,5.91,6.05,4955749
2013-05-29,6.05,6.21,5.81,5.93,6035581
2013-05-30,5.88,5.99,5.77,5.96,3110915
2013-05-31,5.96,6.13,5.8,6.06,5477137
2013-06-03,6.04,6.1,5.95,5.96,5161641
2013-06-04,5.93,5.99,5.85,5.94,1042776
2013-06-05,5.99,5.99,5.86,5.91,817422
2013-06-06,5.84,5.84,5.5,5.61,5846923
2013-06-07,5.62,5.68,5.46,5.54,3184668
2013-06-10,5.6,5.63,5.07,5.21,9133000
2013-06-11,5.2,5.2,4.89,5.03,8610588
2013-06-13,4.86,5.29,4.64,5.27,7102762
2013-06-14,5.3,5.45,5.25,5.42,6200320
2013-06-17,5.49,5.74,5.17,5.64,4026674
2013-06-18,5.66,5.67,5.52,5.58,1263009
2013-06-19,5.74,5.74,5.32,5.52,2003606
2013-06-20,5.36,5.36,5.19,5.24,2572705
2013-06-21,5.05,5.24,4.94,5.07,6052815
2013-06-24,5.08,5.17,4.74,4.88,4236663
2013-06-25,4.87,4.87,4.3,4.85,4409277
2013-06-26,4.88,5.08,4.88,5.05,2538310
2013-06-27,5.06,5.06,4.84,5.02,1993362
2013-06-28,5.08,5.16,4.93,4.98,1306031
2013-07-02,5.02,5.21,4.84,4.85,6921454
2013-07-03,4.84,4.84,4.47,4.51,6950135
2013-07-04,4.57,4.61,4.5,4.52,1810006
2013-07-05,4.59,4.67,4.51,4.51,1514996
2013-07-08,4.52,4.59,4.32,4.49,1556994
2013-07-09,4.49,4.54,4.44,4.49,778497
2013-07-10,4.45,4.55,4.26,4.28,4052282
2013-07-11,4.36,4.62,4.36,4.59,2463534
2013-07-12,4.66,4.72,4.59,4.69,2101011
2013-07-15,4.67,4.67,4.43,4.44,2548554
2013-07-16,4.45,4.47,4.15,4.3,2813857
2013-07-17,4.25,4.3,4.13,4.16,4395436
2013-07-18,4.16,4.28,3.93,3.96,5449480
2013-07-19,4.02,4.03,3.71,3.72,8836966
2013-07-22,3.84,3.84,3.35,3.51,16150742
2013-07-23,3.57,3.87,3.49,3.83,15997091
2013-07-24,3.89,4.03,3.74,3.95,8833334
2013-07-25,4.0,4.04,3.87,3.95,4461441
2013-07-26,3.96,3.99,3.78,3.9,3593379
2013-07-29,3.85,3.97,3.79,3.84,5427969
2013-07-30,3.89,3.9,3.79,3.79,947513
2013-07-31,3.8,3.88,3.74,3.76,1089896
2013-08-01,3.86,3.99,3.74,3.98,5474064
2013-08-02,4.05,4.15,3.98,4.04,4285934
2013-08-05,4.0,4.02,3.91,3.99,1634844
2013-08-06,3.9,4.05,3.86,4.05,3288126
2013-08-07,4.05,4.07,3.9,4.04,2953167
2013-08-08,3.99,4.01,3.92,4.0,1246620
2013-08-09,4.0,4.12,4.0,4.06,2944973
2013-08-12,3.97,4.15,3.86,4.15,3102721
2013-08-13,4.15,4.31,4.0,4.26,2283994
2013-08-15,4.3,4.3,4.11,4.18,1673769
2013-08-16,4.12,4.12,4.02,4.07,951610
2013-08-19,4.05,4.18,3.91,4.05,1075555
2013-08-20,3.99,4.04,3.85,3.89,2207449
2013-08-21,3.85,3.95,3.84,3.85,1072482
2013-08-22,3.82,3.89,3.76,3.84,1099115
2013-08-23,3.88,3.99,3.88,3.94,991559
2013-08-26,3.98,4.13,3.9,3.95,2738056
2013-08-27,3.81,4.0,3.81,3.96,2070188
2013-08-28,3.87,3.87,3.66,3.86,2888634
2013-08-29,3.81,4.0,3.81,3.97,2069163
2013-08-30,3.97,4.09,3.97,4.03,1584651
2013-09-02,3.96,4.01,3.82,3.88,2489142
2013-09-03,3.85,3.93,3.73,3.86,998730
2013-09-04,3.82,3.86,3.71,3.76,2407195
2013-09-05,3.75,3.75,3.67,3.71,1187208
2013-09-06,3.76,3.76,3.6,3.61,952635
2013-09-09,3.61,3.81,3.61,3.71,1951723
2013-09-10,3.73,3.73,3.51,3.57,1045849
2013-09-11,3.57,3.66,3.57,3.6,885028
2013-09-12,3.56,3.7,3.56,3.6,1463421
2013-09-13,3.56,3.59,3.52,3.53,1115504
2013-09-16,3.56,3.59,3.54,3.54,2121405
2013-09-17,3.51,3.59,3.51,3.55,839957
2013-09-18,3.52,3.62,3.52,3.61,4079939
2013-09-19,3.61,3.64,3.56,3.59,1990289
2013-09-23,3.6,3.6,3.53,3.57,912685
2013-09-24,3.59,3.74,3.59,3.69,5734246
2013-09-25,3.71,3.86,3.71,3.85,4613620
2013-09-26,3.81,3.84,3.71,3.78,1455585
2013-09-27,3.82,3.83,3.7,3.75,663771
2013-09-30,3.6,3.68,3.57,3.63,566459
2013-10-02,3.63,3.74,3.6,3.72,2069163
2013-10-03,3.76,3.86,3.76,3.86,3689666
2013-10-04,3.83,3.87,3.8,3.86,1941121
2013-10-07,3.86,3.86,3.78,3.78,833811
2013-10-08,3.79,3.86,3.78,3.84,1330615
2013-10-09,3.89,4.03,3.87,4.02,4438458
2013-10-10,4.02,4.02,3.86,3.94,1423830
2013-10-11,4.0,4.0,3.87,3.92,1729083
2013-10-15,3.9,4.0,3.81,3.85,1363394
2013-10-16,3.81,3.81,3.63,3.75,2116283
2013-10-17,3.76,3.76,3.63,3.72,1752643
2013-10-18,3.8,3.8,3.71,3.76,1357248
2013-10-21,3.81,3.92,3.81,3.91,2646890
2013-10-22,3.93,4.11,3.9,4.08,5726051
2013-10-23,4.1,4.2,3.9,3.91,3330124
2013-10-24,3.91,3.94,3.89,3.91,1405392
2013-10-25,3.92,3.98,3.91,3.95,1676842
2013-10-28,3.97,3.97,3.88,3.9,1111407
2013-10-29,3.86,3.88,3.71,3.75,1625625
2013-10-30,3.83,4.04,3.69,3.96,5580595
2013-10-31,4.01,4.01,3.86,3.95,4308367
2013-11-01,3.94,4.09,3.9,4.02,3850488
2013-11-04,4.1,4.14,4.0,4.1,833811
2013-11-05,4.14,4.15,4.06,4.13,4831804
2013-11-06,4.13,4.13,4.05,4.09,1899123
2013-11-07,4.08,4.14,4.05,4.06,2271982
2013-11-08,4.05,4.13,4.03,4.04,2344710
2013-11-11,4.1,4.11,4.02,4.05,2404122
2013-11-12,4.06,4.08,4.04,4.05,776448
2013-11-13,4.04,4.05,3.91,3.92,1549824
2013-11-14,3.94,3.99,3.86,3.86,2839875
2013-11-15,3.86,4.05,3.86,4.0,2079407
2013-11-18,4.02,4.22,4.01,4.16,6068180
2013-11-19,4.25,4.25,4.06,4.13,2603618
2013-11-20,4.12,4.16,4.05,4.13,1891953
2013-11-21,4.11,4.15,4.1,4.12,1627674
2013-11-22,4.11,4.17,4.11,4.15,2297591
2013-11-25,4.13,4.18,4.12,4.14,1789519
2013-11-26,4.1,4.15,3.92,3.96,4539867
2013-11-27,3.95,4.08,3.95,4.04,2143940
2013-11-28,4.02,4.08,4.0,4.04,1823322
2013-11-29,4.09,4.1,3.98,4.02,1337786
2013-12-02,4.0,4.12,3.91,3.93,1790543
2013-12-03,3.99,4.03,3.72,3.85,3701959
2013-12-04,3.85,3.87,3.76,3.81,2576211
2013-12-05,3.81,3.95,3.81,3.91,2176719
2013-12-06,3.94,4.05,3.87,4.0,2749324
2013-12-09,4.02,4.09,4.0,4.01,1509875
2013-12-10,3.93,4.07,3.93,3.95,490658
2013-12-11,4.03,4.03,3.92,3.95,710891
2013-12-12,3.91,3.92,3.87,3.89,2193108
2013-12-13,3.9,4.23,3.9,4.22,7649758
2013-12-16,4.24,4.25,4.06,4.18,5694296
2013-12-17,4.18,4.2,4.14,4.19,2992092
2013-12-18,4.19,4.49,4.19,4.37,7938622
2013-12-19,4.47,4.47,3.99,4.09,6396993
2013-12-20,4.12,4.13,3.95,4.01,2096820
2013-12-23,4.05,4.22,3.96,4.03,1682988
2013-12-24,4.01,4.08,4.01,4.03,453782
2013-12-27,4.09,4.12,4.01,4.05,1067360
2013-12-30,4.07,4.07,3.93,3.99,702696
2013-12-31,4.02,4.04,3.97,4.0,756986
2014-01-02,4.02,4.08,3.95,4.07,1879661
2014-01-03,4.03,4.07,4.0,4.05,1102188
2014-01-06,4.07,4.17,3.94,3.98,2209498
2014-01-07,3.98,4.04,3.92,4.0,1051995
2014-01-08,4.02,4.05,3.96,3.97,1088872
2014-01-09,4.0,4.15,3.98,4.0,4884045
2014-01-10,4.0,4.24,4.0,4.22,7363968
2014-01-13,4.23,4.72,4.23,4.57,13435221
2014-01-14,4.56,4.78,4.42,4.49,4036712
2014-01-15,4.5,4.59,4.38,4.47,1953413
2014-01-16,4.59,4.8,4.52,4.63,11238015
2014-01-17,4.6,5.08,4.54,4.82,12676186
2014-01-20,4.82,4.93,4.56,4.61,3148816
2014-01-21,4.59,4.72,4.12,4.22,12435467
2014-01-22,4.15,4.29,3.99,4.07,6799557
2014-01-23,4.15,4.15,4.0,4.06,1905269
2014-01-24,4.08,4.08,3.79,3.81,8562444
2014-01-27,3.7,3.9,3.61,3.77,2769811
2014-01-28,3.73,3.97,3.69,3.96,4397484
2014-01-29,4.0,4.03,3.91,4.01,2459436
2014-01-30,3.9,4.08,3.9,3.97,995657
2014-02-04,3.87,4.0,3.77,3.81,2333443
2014-02-05,3.81,3.9,3.68,3.69,2703229
2014-02-06,3.73,3.81,3.61,3.72,3840244
2014-02-07,3.72,3.76,3.68,3.7,1926780
2014-02-10,3.7,3.84,3.63,3.66,4096329
2014-02-11,3.64,3.79,3.64,3.66,3648533
2014-02-12,3.68,3.79,3.62,3.63,4350365
2014-02-13,3.64,3.69,3.53,3.56,3915021
2014-02-14,3.53,3.56,3.37,3.43,10247480
2014-02-17,3.47,3.55,3.4,3.43,5942658
2014-02-18,3.47,3.49,3.37,3.48,3778169
2014-02-19,3.47,3.57,3.42,3.54,2951119
2014-02-20,3.57,3.62,3.47,3.49,2760592
2014-02-21,3.54,3.54,3.36,3.42,2857904
2014-02-24,3.42,3.42,3.34,3.37,2076334
2014-02-25,3.36,3.49,3.34,3.35,2507580
2014-02-26,3.32,3.43,3.3,3.37,1852004
2014-02-27,3.42,3.49,3.34,3.47,2353929
2014-02-28,3.49,3.51,3.39,3.44,2631013
2014-03-03,3.41,3.52,3.4,3.4,2288372
2014-03-04,3.47,3.48,3.32,3.35,3569819
2014-03-05,3.41,3.43,3.36,3.42,2696058
2014-03-06,3.45,3.6,3.41,3.54,8089199
2014-03-07,3.54,3.62,3.51,3.59,4872777
2014-03-10,3.53,3.66,3.51,3.61,6452307
2014-03-11,3.61,3.62,3.42,3.56,2046628
2014-03-12,3.5,3.56,3.43,3.49,1814103
2014-03-13,3.44,3.56,3.44,3.49,2412419
2014-03-14,3.43,3.49,3.37,3.39,3752151
2014-03-17,3.31,3.46,3.2,3.28,5390068
2014-03-18,3.3,3.37,3.15,3.34,4585131
2014-03-19,3.34,3.37,3.22,3.28,3279931
2014-03-20,3.28,3.36,3.28,3.32,1243649
2014-03-21,3.35,3.48,3.35,3.47,5814144
2014-03-24,3.48,3.51,3.39,3.42,3228714
2014-03-25,3.43,3.43,3.35,3.39,1476071
2014-03-26,3.39,3.42,3.28,3.32,2558797
2014-03-27,3.34,3.34,3.12,3.19,2174670
2014-03-28,3.19,3.19,2.98,3.03,6389822
2014-03-31,3.03,3.08,2.91,2.93,3917070
2014-04-01,2.98,3.05,2.91,3.01,4026674
2014-04-02,3.05,3.08,3.0,3.05,1984143
2014-04-03,3.08,3.11,3.0,3.07,2286323
2014-04-04,3.08,3.08,2.91,2.94,3746005
2014-04-07,2.96,2.97,2.78,2.82,3910924
2014-04-08,2.85,2.88,2.67,2.79,4890191
2014-04-09,2.83,2.85,2.76,2.81,1668647
2014-04-10,2.83,2.85,2.73,2.8,1244571
2014-04-11,2.81,2.81,2.57,2.62,3832049
2014-04-14,2.63,2.68,2.39,2.4,6834385
2014-04-15,2.39,2.44,2.24,2.27,5103253
2014-04-16,2.3,2.33,2.15,2.26,4074818
2014-04-17,2.29,2.6,2.25,2.55,7463329
2014-04-22,2.59,2.68,2.53,2.57,9786528
2014-04-23,2.59,2.65,2.48,2.65,7018766
2014-04-24,2.65,2.67,2.59,2.64,1386954
2014-04-25,2.6,2.62,2.5,2.5,2975703
2014-04-28,2.52,2.54,2.33,2.37,3625850
2014-04-29,2.41,2.45,2.32,2.38,2026141
2014-04-30,2.36,2.54,2.36,2.45,2792346
2014-05-02,2.46,2.54,2.41,2.47,410760
2014-05-05,2.47,2.47,2.3,2.31,4713021
2014-05-07,2.33,2.39,2.31,2.33,1629722
2014-05-08,2.137,2.137,2.083,2.101,1619180
2014-05-09,2.065,2.173,2.065,2.155,1672640
2014-05-12,2.146,2.164,2.065,2.155,848570
2014-05-13,2.128,2.272,2.128,2.245,1771540
2014-05-14,2.254,2.344,2.245,2.3169999999999997,1579100
2014-05-15,2.299,2.3890000000000002,2.281,2.38,2267300
2014-05-16,2.335,2.3890000000000002,2.335,2.344,2610300
2014-05-19,2.326,2.3890000000000002,2.326,2.3890000000000002,595780
2014-05-20,2.38,2.7030000000000003,2.38,2.496,3974460
2014-05-21,2.5140000000000002,2.7119999999999997,2.47,2.7030000000000003,4145960
2014-05-22,2.685,2.7119999999999997,2.595,2.622,3880920
2014-05-23,2.622,2.739,2.595,2.6489999999999996,2864200
2014-05-26,2.685,2.784,2.658,2.685,3222780
2014-05-27,2.676,2.7119999999999997,2.676,2.694,2392030
2014-05-28,2.7119999999999997,2.7569999999999997,2.667,2.685,3114760
2014-05-29,2.694,2.739,2.496,2.496,3143710
2014-05-30,2.523,2.6489999999999996,2.523,2.613,3111420
2014-06-03,2.658,2.658,2.595,2.613,1042340
2014-06-04,2.64,2.64,2.577,2.5860000000000003,837430
2014-06-05,2.613,2.7030000000000003,2.5860000000000003,2.694,3314100
2014-06-06,2.721,2.784,2.721,2.73,5875390
2014-06-09,2.784,2.793,2.685,2.748,2184900
2014-06-10,2.721,2.766,2.694,2.7569999999999997,1139220
2014-06-11,2.739,2.865,2.73,2.847,2469980
2014-06-12,2.802,2.82,2.7119999999999997,2.739,4140390
2014-06-13,2.766,2.766,2.658,2.667,3057970
2014-06-16,2.667,2.667,2.568,2.613,4630380
2014-06-17,2.496,2.496,2.272,2.299,9143830
2014-06-18,2.263,2.3080000000000003,2.029,2.0380000000000003,18535990
2014-06-19,2.0380000000000003,2.128,2.0380000000000003,2.119,10056990
2014-06-20,2.128,2.164,2.101,2.164,4229480
2014-06-23,2.128,2.173,2.128,2.155,5383180
2014-06-24,2.191,2.191,2.11,2.146,1045680
2014-06-25,2.11,2.128,2.083,2.083,1024520
2014-06-26,2.065,2.119,2.065,2.065,974410
2014-06-27,2.0380000000000003,2.11,2.029,2.0469999999999997,1501140
2014-06-30,2.029,2.029,1.976,2.003,2404280
2014-07-02,2.011,2.056,1.985,2.0380000000000003,2762860
2014-07-03,2.0380000000000003,2.0469999999999997,1.976,2.0380000000000003,3512320
2014-07-04,2.065,2.065,2.029,2.0469999999999997,2836360
2014-07-07,2.065,2.065,2.003,2.011,2034560
2014-07-08,2.029,2.029,1.985,2.011,2277330
2014-07-09,2.02,2.02,1.94,1.949,3643830
2014-07-10,1.949,1.9580000000000002,1.859,1.913,6384310
2014-07-11,1.922,1.985,1.9040000000000001,1.976,5931070
2014-07-14,1.976,2.0469999999999997,1.976,2.0380000000000003,4123690
2014-07-15,2.029,2.0469999999999997,2.003,2.011,1628090
2014-07-16,2.003,2.029,1.985,2.003,2501160
2014-07-17,2.0380000000000003,2.0469999999999997,1.985,2.029,1948810
2014-07-18,2.02,2.164,2.011,2.146,6240660
2014-07-21,2.155,2.218,2.128,2.2,6553580
2014-07-22,2.227,2.254,2.173,2.245,5574080
2014-07-23,2.245,2.281,2.218,2.218,9273010
2014-07-24,2.209,2.272,2.173,2.218,798460
2014-07-25,2.218,2.218,2.119,2.146,952130
2014-07-28,2.191,2.191,2.065,2.083,1206040
2014-07-29,2.083,2.137,2.083,2.083,598010
2014-07-30,2.128,2.335,2.128,2.299,8652730
2014-07-31,2.326,2.362,2.272,2.353,6546900
2014-08-01,2.326,2.398,2.326,2.398,3181580
2014-08-04,2.371,2.451,2.362,2.451,2368640
2014-08-05,2.47,2.523,2.461,2.496,5620380
2014-08-06,2.505,2.5140000000000002,2.353,2.38,2067970
2014-08-07,2.3890000000000002,2.407,2.29,2.3169999999999997,1121400
2014-08-08,2.281,2.281,2.155,2.182,2128100
2014-08-11,2.191,2.299,2.164,2.245,1162610
2014-08-12,2.209,2.245,2.209,2.218,613600
2014-08-13,2.227,2.245,2.182,2.2359999999999998,407580
2014-08-14,2.227,2.227,2.101,2.137,1239440
2014-08-15,2.137,2.182,2.137,2.146,991110
2014-08-18,2.173,2.218,2.074,2.092,2536800
2014-08-19,2.092,2.155,2.065,2.074,11935640
2014-08-20,2.101,2.11,2.0469999999999997,2.083,2094700
2014-08-21,2.056,2.083,1.985,1.993,5132620
2014-08-22,2.02,2.0380000000000003,1.976,1.993,2627000
2014-08-25,1.993,2.011,1.895,1.993,4679380
2014-08-26,1.9669999999999999,2.0469999999999997,1.9669999999999999,1.985,7031320
2014-08-27,1.985,2.119,1.985,2.0469999999999997,5428840
2014-08-28,2.0469999999999997,2.083,2.02,2.029,2400940
2014-08-29,2.029,2.083,2.011,2.056,1867520
2014-09-01,2.056,2.128,2.056,2.083,1703820
2014-09-02,2.083,2.083,2.056,2.083,1174860
2014-09-03,2.065,2.083,2.065,2.065,1060150
2014-09-04,2.101,2.101,1.985,2.0380000000000003,966610
2014-09-05,2.0380000000000003,2.0380000000000003,2.029,2.029,787320
2014-09-08,2.02,2.02,1.985,2.011,482190
2014-09-10,1.976,2.056,1.9669999999999999,2.02,696000
2014-09-11,2.003,2.101,2.003,2.056,843000
2014-09-12,2.074,2.101,2.074,2.083,1011160
2014-09-15,2.065,2.092,2.029,2.065,1133650
2014-09-16,2.065,2.092,2.0469999999999997,2.0469999999999997,1073520
2014-09-17,2.0469999999999997,2.128,2.0380000000000003,2.128,1867520
2014-09-18,2.101,2.119,2.056,2.065,590210
2014-09-19,2.074,2.173,2.065,2.092,2551270
2014-09-22,2.173,2.299,2.155,2.209,7304150
2014-09-23,2.2,2.47,2.2,2.425,8401050
2014-09-24,2.38,2.425,2.272,2.344,3279570
2014-09-25,2.335,2.38,2.272,2.29,1896470
2014-09-26,2.272,2.299,2.191,2.191,2143690
2014-09-29,2.191,2.227,2.0469999999999997,2.146,2214960
2014-09-30,2.092,2.11,2.029,2.065,1513390
2014-10-03,2.0380000000000003,2.065,1.985,2.0469999999999997,2994490
2014-10-06,2.128,2.218,2.11,2.2,1909840
2014-10-07,2.2,2.227,2.164,2.182,1133650
2014-10-08,2.146,2.254,2.146,2.191,916500
2014-10-09,2.29,2.299,2.173,2.245,1876430
2014-10-10,2.2359999999999998,2.263,2.155,2.173,1417620
2014-10-13,2.155,2.245,2.128,2.2,406470
2014-10-14,2.2359999999999998,2.2359999999999998,2.11,2.173,897570
2014-10-15,2.182,2.2,2.092,2.119,1525640
2014-10-16,2.155,2.155,2.083,2.11,448780
2014-10-17,2.11,2.155,2.056,2.101,1320740
2014-10-20,2.155,2.155,2.119,2.128,243880
2014-10-21,2.128,2.128,2.11,2.119,301790
2014-10-22,2.119,2.146,2.11,2.128,449900
2014-10-23,2.146,2.182,2.119,2.173,748340
2014-10-24,2.182,2.227,2.173,2.209,884200
2014-10-27,2.2,2.254,2.2,2.2359999999999998,1856380
2014-10-28,2.227,2.227,2.119,2.137,956590
2014-10-29,2.128,2.182,2.083,2.119,974410
2014-10-30,2.074,2.092,2.003,2.092,1101360
2014-10-31,2.083,2.092,2.0469999999999997,2.083,2222760
2014-11-03,2.083,2.083,1.985,1.985,1781770
2014-11-04,1.985,2.092,1.985,2.065,1247240
2014-11-05,2.029,2.056,1.993,2.02,265040
2014-11-06,2.02,2.083,1.993,2.0380000000000003,435420
2014-11-07,2.003,2.0380000000000003,2.003,2.011,292880
2014-11-10,2.0380000000000003,2.074,1.993,2.056,875300
2014-11-11,2.128,2.128,2.011,2.0469999999999997,248330
2014-11-12,2.003,2.0469999999999997,2.003,2.0380000000000003,155910
2014-11-13,2.02,2.02,1.9580000000000002,1.993,817390
2014-11-14,2.003,2.003,1.859,1.913,2772880
2014-11-17,1.993,1.993,1.9040000000000001,1.913,673730
2014-11-18,1.976,1.976,1.895,1.913,151450
2014-11-19,1.886,1.895,1.661,1.778,4180480
2014-11-20,1.715,1.8319999999999999,1.706,1.76,1709390
2014-11-21,1.76,1.868,1.6880000000000002,1.805,5066910
2014-11-24,1.8230000000000002,1.859,1.742,1.796,5180500
2014-11-25,1.796,1.796,1.679,1.706,1775090
2014-11-26,1.706,1.706,1.544,1.544,6633760
2014-11-27,1.544,1.6340000000000001,1.544,1.6159999999999999,4252530
2014-11-28,1.598,1.598,1.473,1.482,2983580
2014-12-01,1.482,1.482,1.311,1.329,3883150
2014-12-02,1.347,1.41,1.338,1.3559999999999999,1835220
2014-12-03,1.338,1.383,1.239,1.266,1484440
2014-12-04,1.284,1.338,1.248,1.284,1926540
2014-12-05,1.284,1.3019999999999998,1.284,1.2930000000000001,639210
2014-12-08,1.2930000000000001,1.2930000000000001,1.167,1.185,2007830
2014-12-09,1.167,1.194,1.033,1.087,2708290
2014-12-10,1.078,1.149,1.042,1.105,1053470
2014-12-11,1.078,1.087,1.06,1.069,405350
2014-12-12,1.078,1.14,1.078,1.087,139200
2014-12-15,1.069,1.167,1.069,1.1320000000000001,411140
2014-12-16,1.14,1.14,1.06,1.095,1023180
2014-12-17,1.1320000000000001,1.212,1.1320000000000001,1.185,2660410
2014-12-18,1.194,1.329,1.194,1.239,1964400
2014-12-19,1.248,1.266,1.167,1.212,810710
2014-12-22,1.2570000000000001,1.2570000000000001,1.203,1.2209999999999999,507800
2014-12-23,1.158,1.2570000000000001,1.149,1.194,188200
2014-12-24,1.194,1.2209999999999999,1.176,1.194,136970
2014-12-29,1.078,1.087,1.006,1.051,2331320
2014-12-30,1.069,1.069,1.006,1.006,1052510
2014-12-31,1.006,1.015,0.97,0.97,1110270
2015-01-02,0.9520000000000001,0.988,0.934,0.988,1785340
2015-01-05,0.988,1.105,0.9520000000000001,1.087,5314140
2015-01-06,1.0490000000000002,1.058,1.003,1.03,2235280
2015-01-07,1.012,1.0490000000000002,0.92,1.0390000000000001,1133900
2015-01-08,1.0390000000000001,1.058,1.0390000000000001,1.0490000000000002,606610
2015-01-09,1.058,1.205,1.0390000000000001,1.187,5083610
2015-01-12,1.141,1.2329999999999999,1.141,1.177,2474350
2015-01-13,1.159,1.196,1.159,1.187,1881850
2015-01-14,1.187,1.187,1.131,1.141,489220
2015-01-15,1.141,1.177,1.095,1.131,575100
2015-01-16,1.104,1.131,1.0390000000000001,1.0390000000000001,2040580
2015-01-17,2.32,2.32,2.32,2.32,0
2015-01-19,1.03,1.067,0.9840000000000001,0.9840000000000001,2975520
2015-01-20,0.9840000000000001,1.058,0.9840000000000001,1.0390000000000001,1350390
2015-01-21,1.067,1.067,0.993,1.012,2438470
2015-01-22,1.003,1.03,0.993,1.021,2368900
2015-01-23,1.012,1.021,0.993,1.012,518570
2015-01-26,0.993,1.003,0.9840000000000001,0.993,454430
2015-01-27,0.9840000000000001,1.021,0.9840000000000001,0.9840000000000001,712080
2015-01-28,0.9840000000000001,1.03,0.9840000000000001,1.003,359070
2015-01-29,0.9840000000000001,1.003,0.975,0.9840000000000001,182640
2015-01-30,0.966,0.9840000000000001,0.9470000000000001,0.9470000000000001,850150
2015-02-02,0.993,0.993,0.966,0.9840000000000001,522920
2015-02-03,0.975,1.104,0.975,1.104,3972440
2015-02-04,1.131,1.177,1.104,1.159,6980580
2015-02-05,1.095,1.131,1.067,1.095,13193650
2015-02-06,1.095,1.095,1.0490000000000002,1.0759999999999998,1606540
2015-02-09,1.0759999999999998,1.0759999999999998,1.012,1.012,1377150
2015-02-10,1.067,1.104,1.012,1.0759999999999998,752000
2015-02-11,1.058,1.067,1.0390000000000001,1.0390000000000001,1092480
2015-02-12,1.0390000000000001,1.0490000000000002,1.03,1.0390000000000001,360930
2015-02-13,1.0759999999999998,1.15,1.067,1.095,4404980
2015-02-16,1.104,1.122,1.058,1.067,633810
2015-02-17,1.0490000000000002,1.085,1.0490000000000002,1.0759999999999998,396810
2015-02-18,1.058,1.113,1.058,1.104,269610
2015-02-23,1.104,1.104,1.0759999999999998,1.085,193510
2015-02-24,1.0759999999999998,1.0759999999999998,1.067,1.0759999999999998,128280
2015-02-25,1.0759999999999998,1.15,1.0759999999999998,1.104,1653590
2015-02-26,1.113,1.131,1.095,1.095,409920
2015-02-27,1.095,1.104,1.085,1.104,142990
2015-03-02,1.085,1.095,1.058,1.085,829490
2015-03-03,1.104,1.104,1.0759999999999998,1.085,385940
2015-03-04,1.067,1.131,1.0490000000000002,1.131,935020
2015-03-05,1.122,1.141,1.095,1.104,1473550
2015-03-06,1.095,1.104,1.095,1.104,285920
2015-03-09,1.122,1.122,1.085,1.085,182640
2015-03-10,1.0759999999999998,1.095,1.0759999999999998,1.0759999999999998,337020
2015-03-11,1.067,1.0759999999999998,1.058,1.0759999999999998,720470
2015-03-12,1.0490000000000002,1.067,1.0490000000000002,1.067,385940
2015-03-13,1.067,1.104,1.058,1.104,993650
2015-03-16,1.104,1.104,1.067,1.067,555690
2015-03-17,1.058,1.113,1.003,1.012,1709960
2015-03-18,1.0490000000000002,1.067,1.012,1.03,645660
2015-03-19,1.0390000000000001,1.0490000000000002,1.0390000000000001,1.0490000000000002,177830
2015-03-20,1.03,1.0390000000000001,1.012,1.012,611130
2015-03-23,1.012,1.0490000000000002,1.012,1.012,1471790
2015-03-24,1.03,1.03,0.993,1.012,652310
2015-03-25,1.058,1.0759999999999998,0.993,1.021,1326790
2015-03-26,1.0490000000000002,1.067,0.975,1.0390000000000001,1454620
2015-03-27,1.085,1.104,1.0390000000000001,1.0390000000000001,840760
2015-03-30,1.0390000000000001,1.058,1.012,1.03,662850
2015-03-31,1.03,1.03,1.003,1.012,1490170
2015-04-01,1.003,1.03,0.975,0.975,3511330
2015-04-02,0.966,1.03,0.966,0.9840000000000001,2152550
2015-04-08,1.003,1.168,1.003,1.141,10243570
2015-04-09,1.187,1.205,1.095,1.104,2615680
2015-04-10,1.122,1.141,1.085,1.122,3409140
2015-04-13,1.141,1.334,1.141,1.315,13070230
2015-04-14,1.334,1.3980000000000001,1.26,1.2690000000000001,9150430
2015-04-15,1.334,1.3519999999999999,1.242,1.242,3689630
2015-04-16,1.2790000000000001,1.334,1.2790000000000001,1.334,5693770
2015-04-17,1.334,1.4169999999999998,1.315,1.315,5728210
2015-04-20,1.315,1.315,1.15,1.177,7493710
2015-04-21,1.187,1.242,1.177,1.196,1877190
2015-04-22,1.196,1.2329999999999999,1.15,1.159,6546020
2015-04-23,1.205,1.205,1.131,1.159,7956680
2015-04-24,1.205,1.205,1.104,1.141,9778900
2015-04-27,1.141,1.187,1.113,1.168,4900860
2015-04-28,1.187,1.196,1.159,1.196,3402150
2015-04-29,1.159,1.26,1.159,1.242,3973010
2015-04-30,1.205,1.242,1.187,1.2229999999999999,3462090
2015-05-04,1.214,1.315,1.196,1.2790000000000001,4635600
2015-05-05,1.2790000000000001,1.315,1.214,1.2229999999999999,2700040
2015-05-06,1.2329999999999999,1.306,1.2329999999999999,1.2329999999999999,3964830
2015-05-07,1.2229999999999999,1.26,1.196,1.196,1694250
2015-05-08,1.242,1.242,1.196,1.2329999999999999,1522010
2015-05-11,1.288,1.306,1.2229999999999999,1.242,3035320
2015-05-12,1.242,1.26,1.214,1.214,1846440
2015-05-13,1.2690000000000001,1.297,1.2229999999999999,1.251,2435830
2015-05-14,1.26,1.2790000000000001,1.214,1.2329999999999999,2969000
2015-05-15,1.242,1.242,1.196,1.214,2279170
2015-05-18,1.26,1.26,1.168,1.214,1371980
2015-05-19,1.187,1.205,1.159,1.177,2038400
2015-05-20,1.196,1.214,1.159,1.177,1310480
2015-05-21,1.168,1.177,1.141,1.159,1008870
2015-05-22,1.159,1.168,1.15,1.159,1109060
2015-05-26,1.196,1.196,1.141,1.177,2256920
2015-05-27,1.187,1.288,1.15,1.26,9506590
2015-05-28,1.26,1.26,1.196,1.2229999999999999,3466910
2015-05-29,1.2229999999999999,1.242,1.177,1.177,4470820
2015-06-01,1.177,1.26,1.177,1.214,4592580
2015-06-02,1.26,1.26,1.187,1.205,4377790
2015-06-03,1.196,1.242,1.177,1.214,1470130
2015-06-04,1.196,1.242,1.187,1.196,1715520
2015-06-05,1.187,1.205,1.177,1.196,1468740
2015-06-08,1.177,1.196,1.168,1.177,815360
2015-06-09,1.168,1.177,1.113,1.122,2844910
2015-06-10,1.168,1.297,1.0390000000000001,1.214,10340780
2015-06-11,1.242,1.242,1.15,1.168,1282830
2015-06-12,1.168,1.168,1.104,1.159,3250390
2015-06-15,1.177,1.177,1.095,1.113,1279110
2015-06-16,1.095,1.104,1.085,1.104,962600
2015-06-17,1.085,1.104,1.0759999999999998,1.095,625920
2015-06-18,1.0759999999999998,1.104,1.0759999999999998,1.085,294620
2015-06-19,1.085,1.122,1.067,1.085,1111070
2015-06-22,1.104,1.104,1.067,1.067,1256740
2015-06-23,1.067,1.0759999999999998,1.0490000000000002,1.0759999999999998,379410
2015-06-24,1.0390000000000001,1.095,1.0390000000000001,1.067,1608870
2015-06-25,1.067,1.0759999999999998,1.058,1.0759999999999998,1540330
2015-06-26,1.058,1.067,1.0490000000000002,1.0490000000000002,622940
2015-06-29,1.058,1.058,0.938,0.966,2591760
2015-06-30,0.975,0.993,0.929,0.993,2284100
2015-07-02,0.966,0.966,0.9470000000000001,0.9570000000000001,606630
2015-07-03,0.9570000000000001,0.966,0.892,0.892,2326340
2015-07-06,0.892,0.9009999999999999,0.644,0.754,5809100
2015-07-07,0.754,0.809,0.69,0.727,2349640
2015-07-08,0.644,0.727,0.58,0.653,2873890
2015-07-09,0.6809999999999999,0.7909999999999999,0.653,0.7909999999999999,1837900
2015-07-10,0.855,0.8740000000000001,0.809,0.846,1096930
2015-07-13,0.846,0.8740000000000001,0.846,0.855,345710
2015-07-14,0.828,0.846,0.809,0.828,412030
2015-07-15,0.828,0.828,0.8,0.809,626200
2015-07-16,0.8,0.828,0.8,0.828,350060
2015-07-17,0.855,0.892,0.855,0.855,165250
2015-07-20,0.855,0.855,0.855,0.855,22830
2015-07-21,0.8740000000000001,0.9009999999999999,0.855,0.892,617500
2015-07-22,0.8740000000000001,0.8740000000000001,0.8740000000000001,0.8740000000000001,137000
2015-07-23,0.883,0.883,0.855,0.865,95820
2015-07-24,0.865,0.9470000000000001,0.865,0.883,825150
2015-07-27,0.883,0.883,0.754,0.763,609890
2015-07-28,0.727,0.8190000000000001,0.727,0.7909999999999999,353010
2015-07-29,0.782,0.865,0.782,0.855,470580
2015-07-30,0.8190000000000001,0.8190000000000001,0.8190000000000001,0.8190000000000001,14600
2015-07-31,0.828,0.828,0.8190000000000001,0.828,166330
2015-08-03,0.8190000000000001,0.828,0.8,0.809,123310
2015-08-04,0.7909999999999999,0.7909999999999999,0.7909999999999999,0.7909999999999999,54360
2015-08-05,0.7909999999999999,0.7909999999999999,0.7909999999999999,0.7909999999999999,54360
2015-08-06,0.86,0.87,0.86,0.87,0
2015-08-07,0.828,0.828,0.7909999999999999,0.7909999999999999,191340
2015-08-10,0.8190000000000001,0.8190000000000001,0.782,0.809,233740
2015-08-11,0.828,0.828,0.763,0.782,295700
2015-08-12,0.782,0.809,0.782,0.8,610980
2015-08-13,0.809,0.828,0.782,0.828,979990
2015-08-14,0.828,0.8370000000000001,0.809,0.8370000000000001,405510
2015-08-17,0.8190000000000001,0.8190000000000001,0.809,0.809,87280
2015-08-18,0.828,0.8740000000000001,0.8,0.828,717360
2015-08-19,0.809,0.828,0.8,0.828,350060
2015-08-20,0.828,0.828,0.7909999999999999,0.8190000000000001,794600
2015-08-21,0.782,0.8,0.763,0.763,762090
2015-08-24,0.763,0.763,0.644,0.69,2177560
2015-08-25,0.69,0.708,0.653,0.653,1692670
2015-08-26,0.672,0.69,0.598,0.653,1992740
2015-08-27,0.653,0.653,0.607,0.653,2684170
2015-08-28,0.7170000000000001,0.727,0.653,0.662,2069930
2015-08-31,0.7170000000000001,0.7170000000000001,0.644,0.6809999999999999,500090
2015-09-01,0.6809999999999999,0.69,0.644,0.644,398980
2015-09-02,0.644,0.644,0.616,0.644,144590
2015-09-04,0.626,0.626,0.616,0.616,421660
2015-09-07,0.626,0.626,0.616,0.616,156550
2015-09-08,0.653,0.672,0.653,0.653,77190
2015-09-09,0.69,0.69,0.644,0.662,142420
2015-09-10,0.69,0.69,0.635,0.644,85880
2015-09-11,0.644,0.644,0.644,0.644,71750
2015-09-14,0.662,0.662,0.635,0.635,173790
2015-09-15,0.653,0.653,0.635,0.644,203300
2015-09-16,0.662,0.662,0.635,0.635,104370
2015-09-17,0.644,0.644,0.635,0.644,26090
2015-09-18,0.644,0.662,0.644,0.662,192430
2015-09-21,0.644,0.672,0.644,0.662,108710
2015-09-22,0.6990000000000001,0.6990000000000001,0.6809999999999999,0.672,22830
2015-09-23,0.653,0.662,0.589,0.635,1336100
2015-09-24,0.635,0.635,0.626,0.635,11960
2015-09-25,0.662,0.6809999999999999,0.662,0.672,382680
2015-09-29,0.6809999999999999,0.6809999999999999,0.644,0.644,141330
2015-09-30,0.653,0.662,0.653,0.653,21740
2015-10-02,0.635,0.653,0.635,0.635,94440
2015-10-05,0.653,0.653,0.635,0.635,30440
2015-10-06,0.644,0.644,0.635,0.635,36960
2015-10-07,0.653,0.782,0.653,0.782,3027550
2015-10-08,0.782,0.782,0.736,0.754,1025030
2015-10-09,0.8,0.8,0.754,0.754,2417820
2015-10-12,0.763,0.865,0.763,0.809,1813150
2015-10-13,0.7909999999999999,0.7909999999999999,0.763,0.7909999999999999,262000
2015-10-14,0.763,0.782,0.763,0.763,330650
2015-10-15,0.763,0.763,0.763,0.763,47830
2015-10-16,0.754,0.773,0.745,0.763,397900
2015-10-19,0.736,0.745,0.727,0.736,248960
2015-10-20,0.7170000000000001,0.7170000000000001,0.708,0.708,379410
2015-10-22,0.6809999999999999,0.6990000000000001,0.6809999999999999,0.69,126730
2015-10-23,0.6990000000000001,0.727,0.6990000000000001,0.727,176120
2015-10-26,0.727,0.727,0.727,0.727,127200
2015-10-27,0.708,0.708,0.6809999999999999,0.69,231560
2015-10-28,0.653,0.672,0.653,0.672,70660
2015-10-29,0.672,0.7170000000000001,0.672,0.708,4350
2015-10-30,0.708,0.708,0.672,0.69,94580
2015-11-02,0.69,0.7170000000000001,0.69,0.7170000000000001,20660
2015-11-03,0.78,0.78,0.78,0.78,0
2015-11-04,0.69,0.754,0.69,0.727,164160
2015-11-05,0.736,0.736,0.6990000000000001,0.6990000000000001,54200
2015-11-06,0.6990000000000001,0.708,0.6990000000000001,0.6990000000000001,114150
2015-11-09,0.708,0.708,0.6809999999999999,0.6809999999999999,78270
2015-11-10,0.662,0.6809999999999999,0.598,0.672,1211560
2015-11-11,0.73,0.73,0.72,0.72,0
2015-11-12,0.653,0.653,0.653,0.653,4350
2015-11-13,0.644,0.653,0.644,0.653,463130
2015-11-16,0.653,0.672,0.635,0.644,219150
2015-11-17,0.644,0.672,0.635,0.635,859930
2015-11-18,0.635,0.635,0.616,0.626,316830
2015-11-19,0.635,0.653,0.607,0.607,1123490
2015-11-20,0.607,0.644,0.607,0.644,430510
2015-11-23,0.7,0.7,0.7,0.7,0
2015-11-24,0.644,0.644,0.616,0.635,15220
2015-11-25,0.635,0.644,0.635,0.635,65230
2015-11-26,0.635,0.635,0.635,0.635,5450
2015-11-27,0.635,0.635,0.607,0.607,23920
2015-11-30,0.626,0.626,0.607,0.607,193510
2015-12-01,0.616,0.616,0.616,0.616,84800
2015-12-02,0.616,0.653,0.616,0.653,315270
2015-12-03,0.71,0.71,0.7,0.7,0
2015-12-04,0.616,0.626,0.616,0.626,86970
2015-12-07,0.598,0.607,0.598,0.598,203300
2015-12-08,0.598,0.598,0.598,0.598,108710
2015-12-09,0.598,0.616,0.552,0.552,1289360
2015-12-10,0.552,0.57,0.552,0.57,278310
2015-12-11,0.62,0.62,0.62,0.62,0
2015-12-14,0.534,0.552,0.524,0.534,511200
2015-12-15,0.534,0.552,0.534,0.552,78900
2015-12-16,0.552,0.58,0.552,0.58,244610
2015-12-17,0.63,0.63,0.63,0.63,0
2015-12-18,0.58,0.598,0.552,0.58,251130
2015-12-21,0.552,0.57,0.552,0.57,163340
2015-12-22,0.57,0.57,0.552,0.57,73930
2015-12-23,0.57,0.589,0.57,0.58,214170
2015-12-24,0.589,0.607,0.589,0.589,56530
2015-12-28,0.607,0.607,0.607,0.598,154380
2015-12-29,0.589,0.598,0.58,0.598,56070
2015-12-30,0.598,0.626,0.589,0.626,77190
2015-12-31,0.68,0.68,0.68,0.68,0
2016-01-04,0.616,0.616,0.589,0.589,140240
2016-01-05,0.598,0.598,0.58,0.58,66320
2016-01-06,0.63,0.63,0.63,0.63,0
2016-01-07,0.561,0.561,0.534,0.552,266970
2016-01-08,0.561,0.561,0.561,0.561,33700
2016-01-11,0.5429999999999999,0.5429999999999999,0.524,0.524,7610
2016-01-12,0.552,0.552,0.49700000000000005,0.515,257650
2016-01-13,0.5429999999999999,0.5429999999999999,0.49700000000000005,0.506,92410
2016-01-14,0.49700000000000005,0.506,0.478,0.506,139150
2016-01-15,0.515,0.5429999999999999,0.49700000000000005,0.488,356580
2016-01-18,0.53,0.56,0.53,0.56,0
2016-01-19,0.524,0.524,0.46,0.49700000000000005,131540
2016-01-20,0.446,0.455,0.442,0.455,496830
2016-01-21,0.455,0.46,0.442,0.455,365280
2016-01-22,0.43200000000000005,0.46,0.414,0.46,160900
2016-01-25,0.478,0.478,0.469,0.478,37580
2016-01-26,0.52,0.52,0.52,0.52,0
2016-01-27,0.478,0.478,0.478,0.478,54360
2016-01-28,0.469,0.469,0.46,0.469,425540
2016-01-29,0.49700000000000005,0.49700000000000005,0.488,0.488,34790
2016-02-01,0.488,0.488,0.488,0.488,11960
2016-02-02,0.478,0.478,0.451,0.469,7610
2016-02-03,0.46,0.469,0.46,0.46,587060
2016-02-04,0.46,0.49700000000000005,0.46,0.478,458780
2016-02-05,0.469,0.469,0.469,0.488,11960
2016-02-11,0.469,0.469,0.46,0.46,79360
2016-02-12,0.442,0.455,0.423,0.455,210910
2016-02-15,0.46,0.46,0.455,0.455,674030
2016-02-16,0.46,0.488,0.46,0.488,268680
2016-02-17,0.488,0.488,0.469,0.488,446970
2016-02-18,0.515,0.515,0.49700000000000005,0.506,171770
2016-02-19,0.506,0.524,0.506,0.515,281570
2016-02-22,0.524,0.534,0.524,0.524,178290
2016-02-23,0.58,0.58,0.57,0.57,20000
2016-02-24,0.49700000000000005,0.534,0.49700000000000005,0.534,121140
2016-02-26,0.506,0.506,0.506,0.506,13050
2016-02-29,0.488,0.49700000000000005,0.488,0.488,15220
2016-03-01,0.506,0.515,0.506,0.506,112750
2016-03-02,0.589,0.616,0.57,0.561,110890
2016-03-03,0.57,0.57,0.561,0.552,120670
2016-03-04,0.534,0.534,0.524,0.534,86350
2016-03-07,0.534,0.561,0.534,0.5429999999999999,320880
2016-03-08,0.561,0.57,0.5429999999999999,0.5429999999999999,178450
2016-03-09,0.534,0.5429999999999999,0.534,0.534,235910
2016-03-10,0.524,0.524,0.515,0.515,29820
2016-03-11,0.534,0.5429999999999999,0.478,0.524,221780
2016-03-14,0.5429999999999999,0.5429999999999999,0.5429999999999999,0.5429999999999999,32610
2016-03-15,0.534,0.534,0.534,0.534,44570
2016-03-16,0.506,0.561,0.506,0.534,131540
2016-03-17,0.524,0.524,0.515,0.524,68490
2016-03-18,0.58,0.58,0.57,0.57,0
2016-03-21,0.488,0.506,0.469,0.49700000000000005,830580
2016-03-22,0.49700000000000005,0.506,0.49700000000000005,0.506,226130
2016-03-24,0.478,0.515,0.478,0.488,177210
2016-03-29,0.506,0.5429999999999999,0.506,0.524,132630
2016-03-30,0.56,0.57,0.56,0.57,0
2016-03-31,0.488,0.506,0.488,0.506,251130
2016-04-01,0.506,0.515,0.488,0.515,584890
2016-04-05,0.506,0.552,0.506,0.506,122850
2016-04-06,0.478,0.488,0.46,0.478,3011870
2016-04-07,0.478,0.478,0.414,0.451,3021800
2016-04-08,0.469,0.469,0.446,0.451,379410
2016-04-11,0.455,0.455,0.451,0.451,434860
2016-04-12,0.46,0.46,0.455,0.455,163690
2016-04-13,0.469,0.515,0.469,0.506,895810
2016-04-14,0.506,0.515,0.488,0.488,69580
2016-04-15,0.488,0.488,0.46,0.488,691430
2016-04-18,0.469,0.478,0.469,0.478,217430
2016-04-19,0.488,0.49700000000000005,0.478,0.49700000000000005,169600
2016-04-20,0.49700000000000005,0.49700000000000005,0.469,0.488,141330
2016-04-21,0.49700000000000005,0.506,0.478,0.49700000000000005,415290
2016-04-22,0.49700000000000005,0.49700000000000005,0.49700000000000005,0.49700000000000005,4350
2016-04-25,0.488,0.515,0.488,0.49700000000000005,564230
2016-04-26,0.49700000000000005,0.515,0.49700000000000005,0.515,666730
2016-04-27,0.515,0.515,0.49700000000000005,0.49700000000000005,188080
2016-04-28,0.49700000000000005,0.515,0.49700000000000005,0.515,513130
2016-04-29,0.524,0.524,0.524,0.524,150030
2016-05-04,0.49700000000000005,0.506,0.49700000000000005,0.49700000000000005,231560
2016-05-05,0.55,0.55,0.54,0.54,0
2016-05-06,0.49700000000000005,0.49700000000000005,0.488,0.49700000000000005,260920
2016-05-09,0.478,0.49700000000000005,0.469,0.469,391370
2016-05-10,0.469,0.478,0.446,0.446,76100
2016-05-11,0.46,0.469,0.46,0.488,130460
2016-05-12,0.49700000000000005,0.49700000000000005,0.469,0.469,66780
2016-05-13,0.506,0.524,0.455,0.46,315270
2016-05-16,0.469,0.478,0.469,0.469,79350
2016-05-17,0.46,0.478,0.455,0.478,384850
2016-05-18,0.478,0.5429999999999999,0.478,0.506,41310
2016-05-19,0.478,0.49700000000000005,0.469,0.488,3461480
2016-05-20,0.478,0.488,0.455,0.478,2498270
2016-05-23,0.515,0.57,0.469,0.469,761000
2016-05-24,0.469,0.515,0.469,0.488,319620
2016-05-25,0.478,0.515,0.469,0.49700000000000005,2017750
2016-05-26,0.506,0.552,0.478,0.478,982780
2016-05-27,0.469,0.469,0.43200000000000005,0.455,2432070
2016-05-30,0.451,0.469,0.446,0.46,577970
2016-05-31,0.46,0.46,0.446,0.46,232650
2016-06-01,0.46,0.469,0.43700000000000006,0.442,3089770
2016-06-02,0.43200000000000005,0.451,0.423,0.43700000000000006,3157090
2016-06-03,0.45,0.45,0.395,0.405,2985000
2016-06-06,0.395,0.395,0.375,0.385,2345430
2016-06-07,0.38,0.395,0.365,0.38,3097000
2016-06-08,0.38,0.38,0.365,0.37,1987000
2016-06-10,0.37,0.37,0.345,0.355,2376000
2016-06-13,0.35,0.35,0.345,0.345,2648000
2016-06-14,0.345,0.38,0.34,0.345,5990430
2016-06-15,0.34,0.35,0.34,0.345,5178090
2016-06-16,0.34,0.345,0.33,0.33,992000
2016-06-17,0.34,0.36,0.335,0.345,4051500
2016-06-20,0.365,0.4,0.345,0.38,11548440
2016-06-21,0.375,0.385,0.365,0.37,2531000
2016-06-22,0.37,0.385,0.365,0.38,3481000
2016-06-23,0.385,0.39,0.37,0.375,2257720
2016-06-24,0.37,0.375,0.35,0.36,3816940
2016-06-27,0.35,0.375,0.34,0.37,921710
2016-06-28,0.36,0.37,0.355,0.365,479710
2016-06-29,0.365,0.365,0.355,0.36,252000
2016-06-30,0.37,0.375,0.355,0.355,1179000
2016-07-04,0.36,0.38,0.36,0.37,2389000
2016-07-05,0.375,0.41,0.375,0.385,3303000
2016-07-06,0.39,0.39,0.375,0.38,649000
2016-07-07,0.385,0.41,0.375,0.375,685000
2016-07-08,0.37,0.37,0.34,0.345,9079000
2016-07-11,0.335,0.34,0.325,0.335,6263930
2016-07-12,0.33,0.335,0.33,0.33,2346240
2016-07-13,0.335,0.34,0.33,0.34,4051210
2016-07-14,0.33,0.335,0.33,0.335,1362240
2016-07-15,0.335,0.34,0.335,0.34,1356000
2016-07-18,0.33,0.34,0.33,0.335,1839000
2016-07-19,0.335,0.335,0.33,0.33,2399230
2016-07-20,0.33,0.335,0.33,0.335,1110000
2016-07-21,0.33,0.335,0.325,0.325,4280000
2016-07-22,0.315,0.32,0.295,0.305,11927200
2016-07-25,0.305,0.31,0.3,0.31,1612160
2016-07-26,0.31,0.315,0.31,0.31,616690
2016-07-27,0.31,0.31,0.3,0.305,935290
2016-07-28,0.31,0.32,0.31,0.315,1785640
2016-07-29,0.31,0.31,0.305,0.31,1640000
2016-08-01,0.31,0.315,0.31,0.31,60000
2016-08-03,0.305,0.31,0.3,0.3,960000
2016-08-04,0.3,0.31,0.3,0.305,202480
2016-08-05,0.305,0.31,0.3,0.31,51460
2016-08-08,0.3,0.31,0.3,0.31,555000
2016-08-09,0.31,0.31,0.3,0.305,1057000
2016-08-10,0.3,0.3,0.29,0.3,614030
2016-08-11,0.3,0.3,0.29,0.3,671420
2016-08-12,0.3,0.3,0.3,0.3,120000
2016-08-15,0.29,0.3,0.29,0.3,134000
2016-08-16,0.29,0.3,0.29,0.3,405370
2016-08-17,0.29,0.295,0.28,0.285,830000
2016-08-18,0.285,0.295,0.285,0.29,201510
2016-08-19,0.285,0.305,0.285,0.3,1132290
2016-08-22,0.295,0.295,0.29,0.295,480000
2016-08-23,0.295,0.295,0.29,0.29,201430
2016-08-24,0.29,0.295,0.29,0.295,221000
2016-08-25,0.3,0.305,0.295,0.295,398790
2016-08-26,0.285,0.3,0.285,0.3,2717000
2016-08-29,0.29,0.295,0.285,0.295,68000
2016-08-30,0.295,0.305,0.295,0.305,469000
2016-08-31,0.305,0.31,0.305,0.31,252000
2016-09-01,0.305,0.315,0.305,0.315,1041000
2016-09-02,0.315,0.32,0.315,0.315,412000
2016-09-05,0.315,0.315,0.305,0.305,461000
2016-09-06,0.32,0.32,0.315,0.315,322000
2016-09-07,0.32,0.32,0.315,0.315,588970
2016-09-08,0.325,0.345,0.32,0.34,2432548
2016-09-09,0.35,0.38,0.35,0.365,7118102
2016-09-12,0.365,0.365,0.34,0.34,2230000
2016-09-13,0.365,0.365,0.34,0.34,528000
2016-09-14,0.34,0.345,0.34,0.345,185000
2016-09-15,0.345,0.345,0.345,0.35,9000
2016-09-19,0.35,0.355,0.35,0.355,802118
2016-09-20,0.36,0.36,0.36,0.36,1000
2016-09-21,0.36,0.36,0.35,0.355,426000
2016-09-22,0.36,0.38,0.36,0.37,1523000
2016-09-23,0.38,0.42,0.375,0.405,11157657
2016-09-26,0.41,0.42,0.39,0.39,450428
2016-09-27,0.395,0.395,0.385,0.385,779834
2016-09-28,0.39,0.39,0.385,0.385,995237
2016-09-29,0.4,0.42,0.395,0.4,1727368
2016-09-30,0.39,0.4,0.38,0.385,1072000
2016-10-03,0.39,0.39,0.38,0.38,994000
2016-10-04,0.39,0.485,0.39,0.48,24782028
2016-10-05,0.48,0.54,0.46,0.49,18414658
2016-10-06,0.51,0.53,0.485,0.52,11846368
2016-10-07,0.53,0.58,0.5,0.52,19376710
2016-10-11,0.53,0.56,0.51,0.53,12302070
2016-10-12,0.52,0.52,0.495,0.5,6810000
2016-10-13,0.5,0.5,0.455,0.465,10071000
2016-10-14,0.465,0.48,0.45,0.475,6380000
2016-10-17,0.475,0.5,0.45,0.465,12577000
2016-10-18,0.455,0.495,0.455,0.485,10712000
2016-10-19,0.49,0.51,0.48,0.5,10701428
2016-10-20,0.52,0.57,0.52,0.56,36535636
2016-10-24,0.56,0.58,0.53,0.55,11411000
2016-10-25,0.54,0.56,0.53,0.55,10378000
2016-10-26,0.54,0.54,0.51,0.52,8398000
2016-10-27,0.52,0.56,0.51,0.56,13145745
2016-10-28,0.56,0.62,0.54,0.56,21636504
2016-10-31,0.56,0.56,0.53,0.54,3369000
2016-11-01,0.53,0.56,0.52,0.55,6123571
2016-11-02,0.53,0.54,0.52,0.53,4285000
2016-11-03,0.53,0.54,0.51,0.51,5552779
2016-11-04,0.52,0.53,0.51,0.52,3708710
2016-11-07,0.52,0.52,0.51,0.51,625000
2016-11-08,0.52,0.53,0.5,0.5,7615000
2016-11-09,0.51,0.51,0.47,0.48,8884142
2016-11-10,0.495,0.52,0.49,0.51,4793000
2016-11-11,0.5,0.5,0.49,0.495,1713000
2016-11-14,0.485,0.5,0.475,0.495,492000
2016-11-15,0.495,0.52,0.485,0.5,10771714
2016-11-16,0.51,0.54,0.51,0.51,3591000
2016-11-17,0.5,0.5,0.49,0.495,1257000
2016-11-18,0.485,0.485,0.48,0.48,3109000
2016-11-21,0.48,0.49,0.47,0.485,3151800
2016-11-22,0.5,0.51,0.5,0.5,4328011
2016-11-23,0.5,0.52,0.49,0.49,3734390
2016-11-24,0.49,0.49,0.49,0.49,129000
2016-11-25,0.48,0.5,0.48,0.495,1830000
2016-11-28,0.49,0.495,0.485,0.49,2489000
2016-11-29,0.49,0.49,0.485,0.485,1883645
2016-11-30,0.48,0.48,0.47,0.48,1302000
2016-12-01,0.53,0.57,0.51,0.53,13826276
2016-12-02,0.53,0.53,0.51,0.52,1774300
2016-12-05,0.51,0.51,0.495,0.5,1115000
2016-12-06,0.51,0.51,0.495,0.5,740000
2016-12-07,0.5,0.5,0.495,0.5,1160000
2016-12-08,0.5,0.5,0.485,0.485,2007571
2016-12-09,0.49,0.49,0.485,0.49,689000
2016-12-12,0.51,0.53,0.49,0.49,2879000
2016-12-13,0.49,0.51,0.485,0.495,1131000
2016-12-14,0.5,0.5,0.49,0.49,406000
2016-12-15,0.48,0.48,0.47,0.47,1275000
2016-12-16,0.49,0.49,0.475,0.485,188000
2016-12-19,0.48,0.51,0.48,0.5,385000
2016-12-20,0.495,0.495,0.475,0.49,704836
2016-12-21,0.49,0.49,0.48,0.49,387000
2016-12-22,0.475,0.49,0.46,0.475,289000
2016-12-23,0.475,0.475,0.46,0.46,523000
2016-12-28,0.465,0.47,0.455,0.46,1034000
2016-12-30,0.455,0.455,0.45,0.455,446000
2017-01-03,0.465,0.465,0.455,0.455,170000
2017-01-04,0.455,0.455,0.455,0.455,153000
2017-01-05,0.465,0.47,0.46,0.47,858000
2017-01-06,0.475,0.51,0.475,0.49,3702000
2017-01-09,0.49,0.56,0.48,0.54,18875714
2017-01-10,0.53,0.55,0.51,0.51,8338000
2017-01-11,0.51,0.53,0.51,0.52,1891000
2017-01-12,0.52,0.55,0.52,0.52,1905854
2017-01-13,0.53,0.57,0.52,0.55,12771202
2017-01-16,0.53,0.55,0.53,0.53,1995000
2017-01-17,0.53,0.55,0.52,0.52,542000
2017-01-18,0.53,0.57,0.53,0.56,5848714
2017-01-19,0.56,0.62,0.55,0.6,12937991
2017-01-20,0.6,0.68,0.6,0.62,20659826
2017-01-23,0.63,0.66,0.58,0.6,9895440
2017-01-24,0.61,0.62,0.58,0.61,2416536
2017-01-25,0.61,0.61,0.59,0.6,4295000
2017-01-26,0.6,0.64,0.6,0.63,3486000
2017-01-27,0.63,0.65,0.63,0.63,544000
2017-02-01,0.63,0.63,0.61,0.62,1266203
2017-02-02,0.63,0.63,0.6,0.61,2848000
2017-02-03,0.61,0.62,0.58,0.6,3869966
2017-02-06,0.59,0.6,0.58,0.58,3989000
2017-02-07,0.58,0.58,0.58,0.58,384714
2017-02-08,0.58,0.58,0.56,0.57,1120000
2017-02-09,0.58,0.62,0.58,0.59,1596000
2017-02-10,0.6,0.6,0.57,0.57,2051000
2017-02-13,0.58,0.59,0.57,0.57,3727000
2017-02-14,0.57,0.58,0.56,0.56,927000
2017-02-15,0.56,0.57,0.54,0.55,4100000
2017-02-16,0.55,0.57,0.55,0.56,798000
2017-02-17,0.56,0.56,0.54,0.55,796000
2017-02-20,0.54,0.54,0.54,0.54,944000
2017-02-21,0.54,0.55,0.53,0.54,1481000
2017-02-22,0.55,0.56,0.53,0.54,4998000
2017-02-23,0.54,0.55,0.52,0.54,2920000
2017-02-24,0.54,0.54,0.53,0.53,397000
2017-02-27,0.52,0.53,0.52,0.52,2645714
2017-02-28,0.52,0.52,0.485,0.495,4871428
2017-03-01,0.5,0.5,0.49,0.49,2837000
2017-03-02,0.5,0.5,0.495,0.5,1610000
2017-03-03,0.5,0.5,0.485,0.495,621000
2017-03-06,0.49,0.51,0.49,0.5,935000
2017-03-07,0.5,0.51,0.5,0.51,1012000
2017-03-08,0.52,0.53,0.51,0.53,2162000
2017-03-09,0.53,0.53,0.49,0.5,1488143
2017-03-10,0.5,0.5,0.485,0.495,1431000
2017-03-13,0.49,0.5,0.485,0.5,2157000
2017-03-14,0.5,0.52,0.495,0.51,1084831
2017-03-15,0.5,0.51,0.485,0.49,2762000
2017-03-16,0.5,0.52,0.49,0.52,4100000
2017-03-17,0.52,0.52,0.5,0.51,2000000
2017-03-20,0.5,0.53,0.49,0.52,1636000
2017-03-21,0.52,0.52,0.51,0.52,2038000
2017-03-22,0.5,0.51,0.5,0.51,314000
2017-03-23,0.5,0.5,0.495,0.495,745000
2017-03-24,0.48,0.485,0.455,0.465,4128000
2017-03-27,0.47,0.48,0.46,0.465,3577000
2017-03-28,0.475,0.475,0.46,0.46,1124000
2017-03-29,0.465,0.465,0.46,0.46,917000
2017-03-30,0.465,0.465,0.46,0.465,903000
2017-03-31,0.46,0.46,0.45,0.45,1733000
2017-04-03,0.45,0.45,0.43,0.44,1077000
2017-04-05,0.44,0.44,0.42,0.435,2909000
2017-04-06,0.425,0.425,0.41,0.42,1219204
2017-04-07,0.425,0.46,0.42,0.445,7495896
2017-04-10,0.425,0.435,0.41,0.425,1201000
2017-04-11,0.425,0.43,0.415,0.415,1074000
2017-04-12,0.435,0.435,0.41,0.425,1138000
2017-04-13,0.415,0.42,0.415,0.415,365000
2017-04-18,0.415,0.42,0.41,0.41,312455
2017-04-19,0.405,0.405,0.385,0.39,2500000
2017-04-20,0.39,0.4,0.385,0.385,715000
2017-04-21,0.39,0.39,0.365,0.38,2557000
2017-04-24,0.38,0.38,0.365,0.365,454000
2017-04-25,0.38,0.39,0.375,0.39,1043657
2017-04-26,0.39,0.39,0.375,0.38,275200
2017-04-27,0.365,0.375,0.365,0.37,1189429
2017-04-28,0.36,0.37,0.36,0.36,602000
2017-05-02,0.365,0.365,0.36,0.36,20000
2017-05-04,0.365,0.365,0.355,0.36,508000
2017-05-05,0.355,0.405,0.35,0.37,3541000
2017-05-08,0.375,0.375,0.375,0.375,381000
2017-05-09,0.37,0.375,0.36,0.36,711000
2017-05-10,0.365,0.37,0.365,0.37,932000
2017-05-11,0.37,0.37,0.36,0.36,2632000
2017-05-12,0.36,0.37,0.36,0.365,565000
2017-05-15,0.365,0.375,0.365,0.375,1696000
2017-05-16,0.38,0.405,0.38,0.39,3937000
2017-05-17,0.38,0.39,0.38,0.385,737000
2017-05-18,0.38,0.385,0.37,0.385,2680000
2017-05-19,0.385,0.395,0.385,0.385,2686000
2017-05-22,0.395,0.43,0.395,0.405,5103286
2017-05-23,0.395,0.415,0.38,0.385,1866143
2017-05-24,0.38,0.38,0.375,0.38,286000
2017-05-25,0.38,0.39,0.37,0.375,548000
2017-05-26,0.37,0.395,0.37,0.385,1218000
2017-05-29,0.38,0.38,0.37,0.37,449000
2017-05-31,0.37,0.37,0.365,0.37,483000
2017-06-01,0.365,0.365,0.35,0.36,300000
2017-06-02,0.36,0.37,0.36,0.37,121000
2017-06-05,0.36,0.38,0.36,0.38,352000
2017-06-06,0.365,0.365,0.365,0.365,2971000
2017-06-07,0.36,0.375,0.36,0.37,500000
2017-06-08,0.365,0.365,0.36,0.365,489000
2017-06-09,0.375,0.375,0.36,0.36,71142
2017-06-12,0.36,0.37,0.36,0.37,2833000
2017-06-13,0.37,0.37,0.365,0.365,225000
2017-06-14,0.36,0.36,0.36,0.36,270000
2017-06-15,0.35,0.355,0.35,0.355,127000
2017-06-16,0.345,0.375,0.345,0.375,284000
2017-06-19,0.36,0.36,0.355,0.36,396000
2017-06-20,0.365,0.365,0.365,0.365,52000
2017-06-21,0.36,0.365,0.36,0.365,0
2017-06-22,0.365,0.365,0.345,0.35,573000
2017-06-23,0.355,0.355,0.345,0.35,936000
2017-06-26,0.335,0.35,0.335,0.345,293429
2017-06-27,0.35,0.35,0.345,0.345,348436
2017-06-28,0.335,0.34,0.335,0.335,397000
2017-06-29,0.34,0.34,0.32,0.34,311924
2017-06-30,0.34,0.35,0.33,0.34,422000
2017-07-03,0.33,0.33,0.33,0.33,3000
2017-07-04,0.365,0.365,0.335,0.35,280000
2017-07-06,0.335,0.335,0.335,0.335,3000
2017-07-07,0.33,0.33,0.33,0.33,11000
2017-07-10,0.32,0.32,0.32,0.32,233000
2017-07-11,0.32,0.32,0.32,0.32,407000
2017-07-12,0.32,0.355,0.32,0.35,253000
2017-07-13,0.35,0.35,0.35,0.345,40000
2017-07-14,0.325,0.325,0.325,0.325,266700
2017-07-17,0.32,0.32,0.305,0.31,694696
2017-07-18,0.31,0.31,0.31,0.31,75264
2017-07-19,0.305,0.31,0.3,0.305,255560
2017-07-20,0.315,0.335,0.31,0.325,1061248
2017-07-21,0.32,0.32,0.31,0.315,254272
2017-07-24,0.31,0.32,0.31,0.32,557360
2017-07-25,0.315,0.32,0.3,0.32,689000
2017-07-26,0.31,0.32,0.31,0.32,588000
2017-07-27,0.31,0.31,0.31,0.315,110000
2017-07-28,0.315,0.315,0.315,0.315,70000
2017-07-31,0.31,0.315,0.305,0.315,33432
2017-08-01,0.32,0.34,0.315,0.325,1617404
2017-08-02,0.32,0.32,0.32,0.32,340720
2017-08-03,0.32,0.32,0.315,0.315,523144
2017-08-04,0.31,0.32,0.305,0.32,430160
2017-08-07,0.32,0.34,0.315,0.335,730016
2017-08-08,0.335,0.335,0.315,0.335,270100
2017-08-09,0.315,0.33,0.31,0.33,1690000
2017-08-10,0.33,0.33,0.31,0.31,146000
2017-08-11,0.31,0.31,0.31,0.31,19000
2017-08-15,0.31,0.325,0.31,0.32,1126000
2017-08-16,0.315,0.32,0.315,0.32,120000
2017-08-17,0.305,0.305,0.305,0.31,45569
2017-08-18,0.295,0.295,0.295,0.3,1216
2017-08-21,0.305,0.305,0.305,0.305,100000
2017-08-22,0.31,0.31,0.305,0.305,5000
2017-08-24,0.31,0.31,0.305,0.305,428400
2017-08-25,0.3,0.325,0.3,0.32,153000
2017-08-28,0.315,0.32,0.31,0.315,206880
2017-08-29,0.305,0.315,0.305,0.305,321000
2017-08-30,0.3,0.3,0.295,0.3,1122922
2017-08-31,0.3,0.305,0.295,0.3,1480000
2017-09-01,0.3,0.315,0.3,0.315,469000
2017-09-04,0.31,0.33,0.31,0.325,1045360
2017-09-05,0.325,0.325,0.31,0.32,2188142
2017-09-06,0.33,0.33,0.32,0.32,280000
2017-09-07,0.33,0.33,0.315,0.32,2291000
2017-09-08,0.32,0.325,0.32,0.325,430000
2017-09-11,0.325,0.325,0.325,0.325,400328
2017-09-12,0.315,0.315,0.315,0.315,63928
2017-09-13,0.315,0.315,0.31,0.315,492705
2017-09-14,0.315,0.315,0.315,0.315,140040
2017-09-15,0.315,0.315,0.315,0.315,214000
2017-09-18,0.33,0.33,0.315,0.315,32000
2017-09-19,0.315,0.32,0.315,0.32,262000
2017-09-20,0.315,0.335,0.3,0.325,3527400
2017-09-21,0.325,0.335,0.315,0.325,1971000
2017-09-22,0.325,0.33,0.31,0.33,2255000
2017-09-25,0.33,0.33,0.32,0.325,147000
2017-09-26,0.325,0.35,0.325,0.35,4307924
2017-09-27,0.35,0.37,0.34,0.365,1773000
2017-09-28,0.365,0.43,0.365,0.42,11574680
2017-09-29,0.42,0.485,0.42,0.475,13560707
2017-10-03,0.485,0.49,0.425,0.475,5581360
2017-10-04,0.475,0.475,0.44,0.47,4181000
2017-10-06,0.47,0.485,0.46,0.485,1867000
2017-10-09,0.465,0.475,0.455,0.465,652000
2017-10-10,0.455,0.455,0.425,0.44,2268000
2017-10-11,0.44,0.44,0.415,0.415,1458000
2017-10-12,0.42,0.46,0.42,0.44,1364000
2017-10-13,0.425,0.44,0.425,0.43,753400
2017-10-16,0.43,0.435,0.425,0.43,2325000
2017-10-17,0.445,0.47,0.42,0.45,1534000
2017-10-18,0.435,0.47,0.425,0.45,654000
2017-10-19,0.44,0.46,0.43,0.43,321707
2017-10-20,0.43,0.465,0.43,0.45,1036000
2017-10-23,0.45,0.455,0.435,0.435,526040
2017-10-24,0.435,0.465,0.435,0.44,330000
2017-10-25,0.465,0.47,0.445,0.445,561608
2017-10-26,0.445,0.45,0.425,0.435,1178000
2017-10-27,0.47,0.47,0.44,0.44,208262
2017-10-30,0.445,0.49,0.445,0.475,6027000
2017-10-31,0.49,0.495,0.475,0.485,1658492
2017-11-01,0.495,0.51,0.495,0.5,3593752
2017-11-02,0.51,0.51,0.48,0.48,1185000
2017-11-03,0.485,0.49,0.48,0.485,1244000
2017-11-06,0.48,0.49,0.475,0.49,563000
2017-11-07,0.48,0.495,0.475,0.485,730000
2017-11-08,0.49,0.49,0.48,0.485,1652000
2017-11-09,0.475,0.475,0.47,0.47,2176143
2017-11-10,0.47,0.47,0.46,0.465,514000
2017-11-13,0.47,0.485,0.47,0.475,997752
2017-11-14,0.51,0.51,0.455,0.475,1015000
2017-11-15,0.46,0.46,0.45,0.45,822000
2017-11-16,0.45,0.46,0.45,0.46,613000
2017-11-17,0.435,0.45,0.43,0.45,421016
2017-11-20,0.445,0.46,0.44,0.45,664868
2017-11-21,0.455,0.455,0.45,0.455,461288
2017-11-22,0.455,0.47,0.45,0.45,359000
2017-11-23,0.455,0.455,0.445,0.445,910000
2017-11-24,0.5,0.5,0.445,0.445,1181000
2017-11-27,0.445,0.445,0.44,0.44,366000
2017-11-28,0.44,0.44,0.435,0.44,221300
2017-11-29,0.44,0.455,0.44,0.455,1205000
2017-11-30,0.445,0.445,0.445,0.445,120000
2017-12-01,0.445,0.445,0.435,0.445,1167000
2017-12-04,0.445,0.45,0.435,0.45,844000
2017-12-05,0.45,0.46,0.445,0.46,1396000
2017-12-06,0.45,0.45,0.45,0.45,838500
2017-12-07,0.445,0.46,0.445,0.45,2507763
2017-12-08,0.445,0.445,0.445,0.445,597956
2017-12-11,0.455,0.46,0.435,0.44,35056
2017-12-12,0.435,0.435,0.435,0.435,26000
2017-12-13,0.435,0.44,0.43,0.435,647285
2017-12-14,0.44,0.46,0.44,0.445,676000
2017-12-15,0.445,0.445,0.44,0.44,1273000
2017-12-18,0.415,0.42,0.385,0.39,1388000
2017-12-19,0.39,0.39,0.375,0.38,231536
2017-12-20,0.375,0.4,0.375,0.385,1385000
2017-12-21,0.39,0.4,0.39,0.4,1058536
2017-12-22,0.395,0.4,0.39,0.39,3662860
2017-12-27,0.4,0.405,0.4,0.4,124200
2017-12-28,0.395,0.395,0.39,0.39,164000
2017-12-29,0.395,0.395,0.385,0.385,410000
2018-01-02,0.38,0.4,0.38,0.39,195727
2018-01-03,0.39,0.395,0.39,0.39,164572
2018-01-04,0.4,0.435,0.4,0.43,2088930
2018-01-05,0.42,0.43,0.42,0.42,320000
2018-01-08,0.405,0.405,0.405,0.415,10000
2018-01-09,0.41,0.45,0.41,0.45,965856
2018-01-10,0.45,0.48,0.45,0.46,3252285
2018-01-11,0.46,0.46,0.45,0.45,941000
2018-01-12,0.45,0.51,0.45,0.485,15095000
2018-01-15,0.49,0.53,0.485,0.495,9731834
2018-01-16,0.495,0.51,0.495,0.51,3589352
2018-01-17,0.51,0.51,0.465,0.495,4282000
2018-01-18,0.485,0.51,0.485,0.49,3590800
2018-01-19,0.49,0.5,0.485,0.5,1696000
2018-01-22,0.5,0.5,0.485,0.49,2240000
2018-01-23,0.5,0.56,0.49,0.52,11089364
2018-01-24,0.53,0.66,0.52,0.64,34952832
2018-01-25,0.65,0.68,0.56,0.59,30594040
2018-01-26,0.58,0.59,0.52,0.56,8746360
2018-01-29,0.58,0.58,0.55,0.56,3435020
2018-01-30,0.54,0.55,0.51,0.52,5306714
2018-01-31,0.5,0.54,0.5,0.54,3542857
2018-02-01,0.53,0.53,0.5,0.51,2297000
2018-02-02,0.51,0.57,0.51,0.54,7968542
2018-02-05,0.5,0.53,0.485,0.52,3980000
2018-02-06,0.495,0.5,0.45,0.46,5445000
2018-02-07,0.47,0.51,0.47,0.485,2062600
2018-02-08,0.48,0.49,0.46,0.49,1165000
2018-02-09,0.47,0.47,0.455,0.46,4320004
2018-02-12,0.46,0.48,0.46,0.48,295900
2018-02-13,0.5,0.52,0.485,0.485,1953000
2018-02-14,0.485,0.5,0.47,0.495,3059000
2018-02-15,0.52,0.52,0.5,0.51,512000
2018-02-20,0.51,0.52,0.5,0.5,498000
2018-02-21,0.5,0.5,0.5,0.5,383000
2018-02-22,0.495,0.52,0.495,0.51,1001160
2018-02-23,0.52,0.52,0.5,0.5,2047256
2018-02-26,0.51,0.51,0.5,0.5,1452720
2018-02-27,0.51,0.52,0.5,0.5,777000
2018-02-28,0.5,0.5,0.5,0.5,1928360
2018-03-01,0.51,0.53,0.51,0.51,2393000
2018-03-02,0.51,0.53,0.51,0.52,1628000
2018-03-05,0.51,0.51,0.495,0.495,4241000
2018-03-06,0.495,0.5,0.49,0.49,1602285
2018-03-07,0.495,0.495,0.485,0.49,506000
2018-03-08,0.485,0.485,0.485,0.485,500000
2018-03-09,0.485,0.51,0.485,0.5,979142
2018-03-12,0.5,0.51,0.485,0.49,1981000
2018-03-13,0.49,0.49,0.48,0.48,1024000
2018-03-14,0.475,0.48,0.475,0.475,577000
2018-03-15,0.475,0.485,0.475,0.48,2272000
2018-03-16,0.48,0.485,0.48,0.48,1200256
2018-03-19,0.485,0.485,0.47,0.47,624000
2018-03-20,0.47,0.49,0.47,0.49,730000
2018-03-21,0.495,0.51,0.485,0.49,2487571
2018-03-22,0.5,0.51,0.495,0.495,623000
2018-03-23,0.465,0.48,0.435,0.47,1730400
2018-03-26,0.485,0.485,0.485,0.485,2000000
2018-03-27,0.49,0.5,0.485,0.485,1704626
2018-03-28,0.485,0.485,0.46,0.47,1519000
2018-05-11,0.485,0.485,0.44,0.46,2300444
2018-05-14,0.455,0.5,0.455,0.465,485000
2018-05-15,0.46,0.48,0.44,0.445,2341857
2018-05-16,0.445,0.455,0.445,0.445,356440
2018-05-17,0.45,0.45,0.445,0.445,10000
2018-05-18,0.445,0.5,0.445,0.48,7182516
2018-05-21,0.49,0.495,0.47,0.47,2447000
2018-05-23,0.46,0.465,0.45,0.455,1099484
2018-05-24,0.45,0.47,0.44,0.45,1024000
2018-05-25,0.44,0.44,0.44,0.44,427000
2018-05-28,0.425,0.43,0.415,0.42,2025000
2018-05-29,0.43,0.465,0.43,0.43,2992000
2018-05-30,0.42,0.42,0.415,0.415,95000
2018-05-31,0.45,0.45,0.42,0.435,57000
2018-06-01,0.42,0.425,0.41,0.41,348000
2018-06-04,0.41,0.415,0.4,0.415,204000
2018-06-05,0.4,0.4,0.395,0.395,180000
2018-06-06,0.395,0.4,0.39,0.395,483000
2018-06-07,0.395,0.395,0.395,0.395,8000
2018-06-08,0.385,0.39,0.385,0.385,142285
2018-06-11,0.38,0.38,0.365,0.37,684000
2018-06-12,0.37,0.37,0.37,0.375,6000
2018-06-13,0.375,0.375,0.375,0.375,74000
2018-06-14,0.41,0.42,0.4,0.4,1650000
2018-06-15,0.375,0.375,0.375,0.375,20000
2018-06-19,0.375,0.375,0.35,0.36,294000
2018-06-20,0.39,0.42,0.39,0.4,325000
2018-06-21,0.365,0.41,0.36,0.41,131000
2018-06-22,0.385,0.395,0.37,0.39,286000
2018-06-25,0.38,0.38,0.38,0.38,50000
2018-06-26,0.375,0.38,0.375,0.375,236648
2018-06-27,0.38,0.38,0.35,0.35,483000
2018-06-28,0.35,0.36,0.35,0.35,393252
2018-06-29,0.37,0.38,0.37,0.38,140000
2018-07-03,0.37,0.37,0.365,0.365,200000
2018-07-04,0.37,0.37,0.37,0.37,142000
2018-07-05,0.37,0.37,0.36,0.36,277000
2018-07-06,0.365,0.365,0.35,0.36,306000
2018-07-09,0.36,0.36,0.36,0.36,100000
2018-07-10,0.365,0.365,0.365,0.365,1000
2018-07-11,0.37,0.37,0.37,0.37,25000
2018-07-12,0.385,0.385,0.375,0.375,90000
2018-07-13,0.375,0.375,0.375,0.37,61000
2018-07-17,0.35,0.35,0.345,0.35,712343
2018-07-18,0.35,0.35,0.35,0.35,160000
2018-07-19,0.36,0.36,0.36,0.36,300000
2018-07-20,0.35,0.35,0.35,0.36,100000
2018-07-23,0.36,0.37,0.36,0.37,187000
2018-07-24,0.385,0.385,0.34,0.35,230000
2018-07-25,0.35,0.37,0.35,0.36,187000
2018-07-27,0.36,0.36,0.36,0.36,0
2018-07-30,0.35,0.35,0.34,0.34,93000
2018-07-31,0.38,0.38,0.34,0.34,68000
2018-08-01,0.305,0.335,0.305,0.335,118000
2018-08-02,0.32,0.32,0.32,0.32,60000
2018-08-03,0.325,0.35,0.32,0.32,418714
2018-08-06,0.34,0.34,0.305,0.305,310270
2018-08-07,0.305,0.305,0.305,0.315,30000
2018-08-08,0.35,0.35,0.325,0.35,104000
2018-08-09,0.33,0.33,0.33,0.33,52000
2018-08-14,0.325,0.325,0.32,0.32,189000
2018-08-15,0.325,0.325,0.32,0.32,139000
2018-08-16,0.32,0.32,0.32,0.32,105000
2018-08-17,0.33,0.33,0.33,0.335,10000
2018-08-20,0.34,0.34,0.315,0.315,967000
2018-08-23,0.31,0.31,0.31,0.31,43286
2018-08-27,0.31,0.31,0.31,0.31,175714
2018-08-28,0.31,0.31,0.305,0.31,95000
2018-08-29,0.31,0.31,0.3,0.305,52000
2018-08-31,0.29,0.29,0.29,0.3,400000
2018-09-03,0.295,0.295,0.295,0.295,278000
2018-09-04,0.275,0.3,0.27,0.3,942000
2018-09-06,0.29,0.29,0.27,0.29,46000
2018-09-07,0.29,0.29,0.29,0.29,134000
2018-09-10,0.255,0.285,0.25,0.28,222000
2018-09-11,0.28,0.3,0.28,0.3,78142
2018-09-12,0.29,0.29,0.27,0.29,7000
2018-09-13,0.285,0.315,0.285,0.29,342000
2018-09-18,0.295,0.295,0.295,0.295,27000
2018-09-19,0.3,0.3,0.295,0.295,0
2018-09-20,0.3,0.315,0.3,0.31,572000
2018-09-21,0.315,0.315,0.315,0.315,6000
2018-09-24,0.33,0.345,0.33,0.34,770000
2018-09-26,0.355,0.405,0.355,0.39,2672000
2018-09-27,0.39,0.39,0.385,0.385,120000
2018-09-28,0.37,0.38,0.37,0.38,149000
2018-10-02,0.37,0.38,0.365,0.38,1333690
2018-10-03,0.37,0.37,0.37,0.37,50000
2018-10-05,0.365,0.365,0.34,0.34,12000
2018-10-08,0.34,0.34,0.32,0.33,12000
2018-10-09,0.335,0.335,0.335,0.335,120000
2018-10-10,0.335,0.335,0.335,0.335,22000
2018-10-11,0.275,0.275,0.275,0.31,11000
2018-10-12,0.315,0.315,0.315,0.315,27000
2018-10-15,0.31,0.31,0.31,0.31,65000
2018-10-16,0.32,0.325,0.32,0.32,132908
2018-10-18,0.295,0.295,0.295,0.295,9000
2018-10-19,0.305,0.31,0.3,0.3,95000
2018-10-22,0.305,0.305,0.295,0.3,210000
2018-10-23,0.31,0.31,0.3,0.3,82000
2018-10-24,0.4,0.4,0.3,0.305,76000
2018-10-26,0.305,0.305,0.305,0.305,163000
2018-10-29,0.305,0.305,0.305,0.305,197000
2018-10-30,0.295,0.3,0.295,0.3,124000
2018-10-31,0.3,0.3,0.3,0.3,43000
2018-11-01,0.295,0.3,0.295,0.3,112000
2018-11-06,0.305,0.305,0.305,0.305,144000
2018-11-07,0.3,0.31,0.3,0.31,230000
2018-11-08,0.31,0.31,0.305,0.305,87000
2018-11-09,0.305,0.305,0.27,0.295,698000
2018-11-15,0.26,0.275,0.255,0.275,257457
2018-11-16,0.29,0.295,0.29,0.295,127000
2018-11-19,0.295,0.295,0.295,0.295,70000
2018-11-20,0.295,0.295,0.29,0.29,88000
2018-11-21,0.29,0.29,0.28,0.28,740800
2018-11-22,0.29,0.29,0.29,0.29,8000
2018-11-27,0.29,0.29,0.29,0.29,0
2018-11-28,0.275,0.275,0.275,0.275,127000
2018-11-29,0.265,0.27,0.26,0.27,575400
2018-11-30,0.26,0.26,0.26,0.27,2000
2018-12-03,0.28,0.28,0.275,0.275,80000
2018-12-04,0.26,0.27,0.26,0.27,139142
2018-12-05,0.265,0.265,0.26,0.26,820000
2018-12-07,0.26,0.26,0.255,0.265,22000
2018-12-10,0.26,0.26,0.26,0.26,98000
2018-12-11,0.265,0.265,0.265,0.265,878000
2018-12-12,0.25,0.255,0.25,0.25,290000
2018-12-18,0.26,0.26,0.25,0.25,88055
2018-12-19,0.25,0.25,0.25,0.25,413000
2018-12-27,0.25,0.25,0.25,0.25,52000
2018-12-31,0.24,0.24,0.24,0.24,152571
2019-01-02,0.24,0.243,0.24,0.24,154000
2019-01-03,0.24,0.24,0.24,0.24,79184
2019-01-04,0.24,0.24,0.226,0.23800000000000002,994000
2019-01-09,0.237,0.237,0.22,0.237,143857
2019-01-16,0.23600000000000002,0.237,0.23600000000000002,0.237,100000
2019-01-17,0.23,0.23,0.22,0.221,114000
2019-01-22,0.222,0.222,0.222,0.222,0
2019-01-23,0.192,0.213,0.192,0.204,2232570
2019-01-24,0.205,0.205,0.205,0.205,2300
2019-01-25,0.205,0.205,0.205,0.205,0
2019-01-28,0.204,0.214,0.204,0.213,144880
2019-01-29,0.237,0.237,0.23600000000000002,0.23600000000000002,250000
2019-01-30,0.237,0.23800000000000002,0.23600000000000002,0.23600000000000002,488000
2019-01-31,0.23600000000000002,0.237,0.23600000000000002,0.237,46800
2019-02-01,0.237,0.237,0.23,0.23,215440
2019-02-04,0.218,0.218,0.218,0.218,1536
2019-02-11,0.21600000000000003,0.228,0.21600000000000003,0.21899999999999997,177000
2019-02-12,0.23,0.233,0.23,0.233,71000
2019-02-14,0.233,0.23800000000000002,0.233,0.23800000000000002,5216
2019-02-18,0.23800000000000002,0.23800000000000002,0.23800000000000002,0.23800000000000002,106000
2019-02-19,0.23800000000000002,0.23800000000000002,0.23800000000000002,0.23800000000000002,131000
2019-02-22,0.217,0.23800000000000002,0.209,0.23800000000000002,2690300
2019-02-25,0.23800000000000002,0.25,0.23800000000000002,0.23800000000000002,3756000
2019-02-26,0.23600000000000002,0.23600000000000002,0.23,0.23,103000
2019-02-28,0.23,0.243,0.23,0.23600000000000002,129000
2019-03-01,0.21600000000000003,0.24,0.215,0.24,1742000
2019-03-04,0.24,0.24600000000000002,0.23,0.23,1677000
2019-03-05,0.22,0.24,0.22,0.231,1268000
2019-03-06,0.245,0.245,0.226,0.23199999999999998,1382000
2019-03-07,0.226,0.244,0.226,0.239,2494400
2019-03-11,0.23,0.245,0.23,0.24,107000
2019-03-12,0.23,0.245,0.23,0.245,41000
2019-03-13,0.223,0.24,0.223,0.24,23000
2019-03-14,0.23,0.245,0.23,0.24,134360
2019-03-15,0.231,0.237,0.226,0.237,153000
2019-03-18,0.23,0.26,0.23,0.25,145000
2019-03-19,0.235,0.26,0.235,0.24600000000000002,284000
2019-03-21,0.243,0.247,0.235,0.25,1647000
2019-03-22,0.265,0.265,0.25,0.25,1263000
2019-03-26,0.27,0.27,0.25,0.25,111000
2019-03-27,0.255,0.255,0.24600000000000002,0.24600000000000002,119000
2019-03-28,0.245,0.245,0.245,0.245,90000
2019-03-29,0.24,0.25,0.24,0.24,254000
2019-04-01,0.24100000000000002,0.255,0.22,0.22,5333428
2019-04-02,0.221,0.22899999999999998,0.22,0.22899999999999998,890000
2019-04-03,0.23800000000000002,0.23800000000000002,0.22,0.22,156000
2019-04-04,0.22,0.221,0.22,0.221,50000
2019-04-08,0.21,0.217,0.21,0.218,278000
2019-04-09,0.21100000000000002,0.22,0.20199999999999999,0.22,745000
2019-04-10,0.223,0.223,0.22,0.22,74144
2019-04-11,0.213,0.213,0.21,0.21,131000
2019-04-12,0.207,0.21899999999999997,0.207,0.21899999999999997,122800
2019-04-15,0.21899999999999997,0.23,0.214,0.22,1218128
2019-04-16,0.221,0.221,0.21,0.21,652000
2019-04-18,0.22,0.22,0.215,0.217,805000
2019-04-23,0.218,0.218,0.218,0.218,404000
2019-04-25,0.218,0.218,0.21,0.21,2451000
2019-04-26,0.201,0.20199999999999999,0.2,0.201,29857
2019-04-29,0.20199999999999999,0.20199999999999999,0.2,0.20199999999999999,931000
2019-04-30,0.20199999999999999,0.20199999999999999,0.198,0.198,28000
2019-05-02,0.198,0.21600000000000003,0.198,0.215,3850611
2019-05-06,0.191,0.2,0.191,0.195,83000
2019-05-08,0.195,0.195,0.195,0.195,10000
2019-05-09,0.196,0.198,0.196,0.198,110000
2019-05-10,0.18100000000000002,0.2,0.18100000000000002,0.2,15000
2019-05-17,0.19399999999999998,0.19399999999999998,0.19399999999999998,0.188,94000
2019-05-20,0.187,0.188,0.187,0.188,147000
2019-05-21,0.19,0.19,0.19,0.192,20360
2019-05-24,0.185,0.185,0.185,0.185,8000
2019-05-27,0.18600000000000003,0.19399999999999998,0.18600000000000003,0.19399999999999998,130080
2019-05-31,0.19399999999999998,0.195,0.174,0.183,166360
2019-06-03,0.179,0.188,0.179,0.184,92072
2019-06-05,0.18,0.18,0.166,0.16699999999999998,223000
2019-06-06,0.16699999999999998,0.16699999999999998,0.16699999999999998,0.16699999999999998,105000
2019-06-10,0.161,0.17,0.161,0.17,3871
2019-06-11,0.153,0.153,0.152,0.155,255000
2019-06-12,0.16399999999999998,0.16399999999999998,0.139,0.142,610000
2019-06-13,0.14400000000000002,0.146,0.142,0.142,720000
2019-06-14,0.142,0.142,0.142,0.142,172000
2019-06-17,0.166,0.17300000000000001,0.16,0.17300000000000001,431406
2019-06-18,0.16,0.16,0.16,0.16,70000
2019-06-19,0.2,0.2,0.2,0.2,32000
2019-06-20,0.2,0.2,0.2,0.2,90000
2019-06-21,0.218,0.218,0.2,0.2,251000
2019-06-24,0.175,0.175,0.16,0.174,12000
2019-06-26,0.2,0.2,0.2,0.19899999999999998,1000
2019-06-27,0.19899999999999998,0.19899999999999998,0.17600000000000002,0.198,101000
2019-06-28,0.18,0.18,0.18,0.18,26000
2019-07-03,0.16899999999999998,0.16899999999999998,0.16899999999999998,0.16899999999999998,16000
2019-07-04,0.171,0.171,0.171,0.171,14000
2019-07-08,0.171,0.171,0.171,0.171,10000
2019-07-09,0.2,0.2,0.18899999999999997,0.19,389000
2019-07-10,0.19,0.19,0.18,0.18,486000
2019-07-11,0.171,0.175,0.17,0.18,117857
2019-07-15,0.19,0.19,0.19,0.19,6000
2019-07-16,0.17,0.195,0.17,0.195,4400000
2019-07-17,0.2,0.2,0.196,0.196,445000
2019-07-18,0.196,0.196,0.196,0.196,90000
2019-07-19,0.18600000000000003,0.18600000000000003,0.18600000000000003,0.18600000000000003,171965
2019-07-22,0.18600000000000003,0.18600000000000003,0.18600000000000003,0.18600000000000003,2050000
2019-07-23,0.18600000000000003,0.18600000000000003,0.18,0.17800000000000002,2225000
2019-07-26,0.17800000000000002,0.17800000000000002,0.17800000000000002,0.17800000000000002,0
2019-08-02,0.17,0.17,0.17,0.17,2000
2019-08-06,0.146,0.153,0.146,0.153,52000
2019-08-07,0.14400000000000002,0.14400000000000002,0.14400000000000002,0.14400000000000002,2000
2019-08-08,0.14400000000000002,0.156,0.141,0.155,3110680
2019-08-09,0.136,0.145,0.136,0.145,103500
2019-08-12,0.15,0.155,0.145,0.146,848000
2019-08-13,0.141,0.145,0.14,0.14,187857
2019-08-14,0.141,0.141,0.14,0.14,403857
2019-08-16,0.146,0.146,0.146,0.147,6000
2019-08-19,0.136,0.136,0.136,0.136,51000
2019-08-20,0.136,0.136,0.136,0.136,334847
2019-08-22,0.138,0.138,0.138,0.138,0
2019-08-23,0.15,0.15,0.15,0.15,86000
2019-08-27,0.15,0.17800000000000002,0.15,0.17800000000000002,70000
2019-09-03,0.15,0.15,0.15,0.153,14300
2019-09-06,0.155,0.157,0.155,0.157,455000
2019-09-09,0.155,0.155,0.14800000000000002,0.14800000000000002,285
2019-09-10,0.14,0.151,0.14,0.151,9000
2019-09-11,0.151,0.16,0.151,0.16,90000
2019-09-12,0.14,0.15,0.139,0.142,305000
2019-09-13,0.13699999999999998,0.13699999999999998,0.13699999999999998,0.14,88000
2019-09-16,0.15,0.15,0.149,0.15,374000
2019-09-17,0.151,0.151,0.15,0.153,159000
2019-09-18,0.153,0.153,0.152,0.152,198000
2019-09-19,0.151,0.156,0.151,0.156,514428
2019-09-26,0.15,0.15,0.15,0.15,100000
2019-09-27,0.145,0.145,0.145,0.145,100000
2019-09-30,0.14800000000000002,0.149,0.138,0.138,352000
2019-10-04,0.149,0.15,0.149,0.15,274111
2019-10-08,0.131,0.146,0.131,0.146,14429
2019-10-09,0.146,0.146,0.145,0.145,429
2019-10-11,0.14,0.145,0.14,0.145,29000
2019-10-14,0.136,0.14,0.135,0.135,160000
2019-10-17,0.135,0.135,0.135,0.135,11000
2019-10-18,0.135,0.135,0.135,0.135,1000
2019-10-21,0.141,0.141,0.121,0.122,396000
2019-10-23,0.122,0.125,0.122,0.125,298600
2019-10-24,0.121,0.121,0.121,0.121,1000
2019-10-25,0.121,0.121,0.121,0.12300000000000001,1000
2019-10-28,0.124,0.124,0.124,0.124,10000
2019-10-29,0.12,0.12,0.11900000000000001,0.12,57000
2019-11-01,0.12,0.12,0.12,0.122,134000
2019-11-04,0.12300000000000001,0.12300000000000001,0.12300000000000001,0.12300000000000001,40000
2019-11-05,0.22899999999999998,0.22899999999999998,0.131,0.131,2316000
2019-11-06,0.133,0.133,0.133,0.133,30000
2019-11-07,0.133,0.133,0.13,0.13,50000
2019-11-11,0.13,0.13,0.128,0.128,135857
2019-11-13,0.128,0.128,0.128,0.128,60000
2019-11-14,0.12,0.121,0.12,0.121,200000
2019-11-15,0.125,0.125,0.125,0.125,330312
2019-11-18,0.125,0.125,0.125,0.125,21536
2019-11-19,0.125,0.125,0.125,0.125,25000
2019-11-20,0.125,0.125,0.125,0.125,20000
2019-11-22,0.11699999999999999,0.125,0.11699999999999999,0.125,18304
2019-11-25,0.115,0.115,0.115,0.115,5000
2019-11-28,0.125,0.125,0.125,0.125,12000
2019-12-03,0.125,0.125,0.125,0.125,20000
2019-12-04,0.127,0.127,0.127,0.128,13400
2019-12-06,0.13,0.17,0.13,0.17,144148
2019-12-17,0.12300000000000001,0.14800000000000002,0.12300000000000001,0.138,71000
2019-12-18,0.138,0.138,0.126,0.127,112000
2019-12-20,0.125,0.139,0.125,0.135,895000
2019-12-24,0.125,0.125,0.125,0.126,305000
2019-12-30,0.126,0.15,0.126,0.15,48000
2020-01-03,0.135,0.138,0.135,0.147,179000
2020-01-06,0.14800000000000002,0.14800000000000002,0.135,0.14,137000
2020-01-07,0.145,0.145,0.145,0.14,18000
2020-01-08,0.14,0.14,0.14,0.14,168000
2020-01-09,0.139,0.14,0.139,0.139,139000
2020-01-13,0.126,0.129,0.11800000000000001,0.12,2907000
2020-01-14,0.12,0.14,0.11800000000000001,0.138,321000
2020-01-15,0.138,0.138,0.13,0.13,554000
2020-01-16,0.13699999999999998,0.139,0.125,0.126,137571
2020-01-17,0.128,0.138,0.128,0.138,11000
2020-01-22,0.138,0.138,0.138,0.138,3000
2020-01-29,0.122,0.122,0.12,0.12,58040
2020-01-31,0.121,0.121,0.12,0.121,1036000
2020-02-04,0.11599999999999999,0.136,0.11199999999999999,0.12,137000
2020-02-06,0.122,0.12300000000000001,0.12,0.12,218000
2020-02-07,0.12300000000000001,0.12300000000000001,0.12300000000000001,0.12300000000000001,10000
2020-02-11,0.113,0.11800000000000001,0.113,0.11599999999999999,1440000
2020-02-12,0.11900000000000001,0.12,0.115,0.115,109000
2020-02-13,0.11199999999999999,0.11199999999999999,0.105,0.106,2791000
2020-02-14,0.107,0.107,0.107,0.10800000000000001,41000
2020-02-17,0.10800000000000001,0.10800000000000001,0.10800000000000001,0.10800000000000001,50000
2020-02-19,0.11800000000000001,0.12,0.11800000000000001,0.12,123000
2020-02-21,0.11199999999999999,0.12,0.111,0.12,328000
2020-02-25,0.11800000000000001,0.12,0.11800000000000001,0.12,197000
2020-02-26,0.12,0.125,0.12,0.125,261000
2020-02-27,0.113,0.113,0.113,0.113,338000
2020-02-28,0.10800000000000001,0.12,0.102,0.11800000000000001,595000
2020-03-02,0.12,0.125,0.12,0.125,333000
2020-03-03,0.113,0.135,0.113,0.125,1024714
2020-03-05,0.12,0.12,0.12,0.11800000000000001,102000
2020-03-06,0.10400000000000001,0.106,0.10400000000000001,0.106,35000
2020-03-09,0.106,0.115,0.10099999999999999,0.106,439000
2020-03-10,0.10099999999999999,0.109,0.096,0.09699999999999999,585000
2020-03-11,0.1,0.10800000000000001,0.096,0.096,303000
2020-03-12,0.095,0.095,0.09300000000000001,0.09300000000000001,787000
2020-03-13,0.092,0.092,0.092,0.092,650000
2020-03-17,0.09,0.195,0.087,0.179,78000
2020-03-18,0.135,0.135,0.09699999999999999,0.10400000000000001,517000
2020-03-19,0.08800000000000001,0.08800000000000001,0.076,0.08800000000000001,4102000
2020-03-20,0.092,0.092,0.09,0.092,601172
2020-03-23,0.092,0.092,0.092,0.092,10000
2020-03-24,0.095,0.095,0.095,0.095,322000
2020-03-25,0.095,0.095,0.09300000000000001,0.094,30100
2020-03-26,0.094,0.094,0.094,0.095,40000
2020-03-27,0.095,0.095,0.085,0.085,18432
2020-03-30,0.09,0.09,0.08900000000000001,0.09,57800
2020-03-31,0.105,0.105,0.086,0.105,1417000
2020-04-01,0.105,0.105,0.105,0.105,0
2020-04-02,0.099,0.099,0.099,0.099,0
2020-04-03,0.081,0.08199999999999999,0.081,0.085,2902
2020-04-06,0.086,0.086,0.085,0.085,200000
2020-04-07,0.085,0.085,0.085,0.085,30000
2020-04-08,0.085,0.085,0.085,0.085,0
2020-04-09,0.08800000000000001,0.094,0.08800000000000001,0.094,20000
2020-04-14,0.081,0.10099999999999999,0.08,0.095,1236000
2020-04-15,0.10300000000000001,0.10400000000000001,0.10300000000000001,0.10400000000000001,29080
2020-04-16,0.1,0.102,0.1,0.102,285000
2020-04-17,0.1,0.1,0.099,0.099,261000
2020-04-20,0.099,0.099,0.099,0.099,0
2020-04-21,0.099,0.099,0.099,0.099,0
2020-04-22,0.099,0.099,0.099,0.099,0
2020-04-23,0.099,0.099,0.099,0.099,0
2020-04-24,0.099,0.099,0.099,0.099,0
2020-04-27,0.099,0.099,0.099,0.099,0
2020-04-28,0.099,0.099,0.099,0.099,0
2020-04-29,0.099,0.099,0.099,0.099,0
2020-05-04,0.099,0.099,0.099,0.099,0
2020-05-05,0.099,0.099,0.099,0.099,0
2020-05-06,0.099,0.099,0.099,0.099,0
2020-05-07,0.099,0.099,0.099,0.099,0
2020-05-08,0.083,0.083,0.083,0.086,27000
2020-05-11,0.083,0.083,0.083,0.084,14856
2020-05-12,0.084,0.084,0.084,0.084,0
2020-05-13,0.084,0.084,0.084,0.084,0
2020-05-14,0.084,0.084,0.084,0.084,0
2020-05-15,0.1,0.1,0.1,0.1,453397
2020-05-18,0.095,0.095,0.085,0.086,160000
2020-05-19,0.086,0.086,0.076,0.081,158000
2020-05-20,0.09699999999999999,0.105,0.09699999999999999,0.10400000000000001,579432
2020-05-21,0.09300000000000001,0.09300000000000001,0.09300000000000001,0.09300000000000001,1000
2020-05-22,0.085,0.086,0.085,0.085,501000
2020-05-25,0.08199999999999999,0.08199999999999999,0.08199999999999999,0.08199999999999999,3680
2020-05-26,0.095,0.114,0.095,0.107,474000
2020-05-27,0.107,0.107,0.09,0.1,409000
2020-05-29,0.087,0.087,0.087,0.08800000000000001,40072
2020-06-02,0.091,0.091,0.091,0.091,45285
2020-06-03,0.086,0.1,0.085,0.1,70714
2020-06-04,0.10099999999999999,0.10099999999999999,0.1,0.1,202300
2020-06-05,0.1,0.1,0.1,0.1,0
2020-06-08,0.1,0.1,0.1,0.1,218000
2020-06-09,0.1,0.1,0.1,0.1,375000
2020-06-10,0.095,0.10400000000000001,0.095,0.10400000000000001,12000
2020-06-11,0.10400000000000001,0.10400000000000001,0.10400000000000001,0.10400000000000001,0
2020-06-12,0.10400000000000001,0.10400000000000001,0.10400000000000001,0.10400000000000001,0
2020-06-15,0.10400000000000001,0.10400000000000001,0.10400000000000001,0.10400000000000001,0
2020-06-16,0.10400000000000001,0.10400000000000001,0.10400000000000001,0.10400000000000001,0
2020-06-17,0.10300000000000001,0.10300000000000001,0.10300000000000001,0.10300000000000001,0
2020-06-18,0.10300000000000001,0.10300000000000001,0.10300000000000001,0.10300000000000001,0
2020-06-19,0.10300000000000001,0.10300000000000001,0.10300000000000001,0.10300000000000001,0
2020-06-22,0.12,0.12,0.115,0.115,23000
2020-06-23,0.1,0.1,0.1,0.1,24908
2020-06-24,0.1,0.1,0.1,0.1,0
2020-06-26,0.087,0.08800000000000001,0.087,0.08900000000000001,68040
2020-06-29,0.091,0.091,0.091,0.091,12000
2020-06-30,0.08199999999999999,0.08199999999999999,0.08199999999999999,0.083,3216
2020-07-02,0.09,0.09,0.09,0.09,170000
2020-07-03,0.085,0.11800000000000001,0.085,0.1,469000
2020-07-06,0.1,0.1,0.1,0.1,394000
2020-07-07,0.095,0.095,0.095,0.095,3000
2020-07-08,0.095,0.095,0.095,0.095,50000
2020-07-09,0.1,0.109,0.1,0.109,486714
2020-07-10,0.10800000000000001,0.10800000000000001,0.10800000000000001,0.10800000000000001,0
2020-07-13,0.092,0.092,0.092,0.092,10000
2020-07-14,0.09300000000000001,0.09300000000000001,0.09300000000000001,0.09300000000000001,2000
2020-07-16,0.09300000000000001,0.09300000000000001,0.09300000000000001,0.09300000000000001,104715
2020-07-17,0.09300000000000001,0.1,0.09300000000000001,0.1,180000
2020-07-20,0.1,0.1,0.1,0.1,0
2020-07-21,0.1,0.1,0.1,0.1,0
2020-07-22,0.1,0.1,0.1,0.1,0
2020-07-23,0.1,0.1,0.1,0.1,0
2020-07-24,0.1,0.1,0.1,0.1,0
2020-07-27,0.1,0.1,0.1,0.1,0
2020-07-28,0.1,0.1,0.1,0.1,0
2020-07-29,0.1,0.1,0.1,0.1,0
2020-07-30,0.1,0.1,0.1,0.1,260000
2020-07-31,0.1,0.1,0.1,0.1,0
2020-08-03,0.1,0.1,0.1,0.1,0
2020-08-04,0.099,0.1,0.099,0.1,100268
2020-08-05,0.09,0.09,0.09,0.09,90000
2020-08-07,0.091,0.091,0.091,0.091,210000
2020-08-10,0.09,0.09,0.09,0.09,330000
2020-08-11,0.086,0.1,0.086,0.1,750000
2020-08-12,0.115,0.12,0.094,0.094,233000
2020-08-13,0.095,0.095,0.095,0.095,85000
2020-08-14,0.098,0.1,0.098,0.1,220000
2020-08-17,0.091,0.11800000000000001,0.091,0.109,90680
2020-08-18,0.1,0.1,0.1,0.1,20000
2020-08-19,0.096,0.096,0.096,0.096,9003
2020-08-21,0.11800000000000001,0.11800000000000001,0.11,0.11,729000
2020-08-24,0.11,0.115,0.1,0.10099999999999999,860000
