Date,Open,High,Low,Close,Volume
2011-03-22,8.6,9.23,8.6,9.08,38721900
2011-03-23,9.0,9.06,8.88,8.94,15817600
2011-03-24,8.94,9.25,8.94,9.23,25636300
2011-03-25,9.32,9.34,8.72,8.8,45330100
2011-03-28,8.75,8.8,8.49,8.55,27793500
2011-03-29,8.57,8.57,8.4,8.49,18782500
2011-03-30,8.5,8.76,8.5,8.7,14984000
2011-03-31,8.75,9.0,8.7,8.94,25670100
2011-04-01,9.04,9.04,8.79,8.93,18137400
2011-04-04,8.92,9.23,8.88,9.12,18891500
2011-04-06,9.2,9.3,9.13,9.14,17062800
2011-04-07,9.28,9.28,9.06,9.24,13310500
2011-04-08,9.13,9.38,9.11,9.34,18865100
2011-04-11,9.25,9.57,9.25,9.4,35312800
2011-04-12,9.37,9.37,9.11,9.33,15249300
2011-04-13,9.42,9.53,9.33,9.48,19718800
2011-04-14,9.5,9.67,9.41,9.59,11206200
2011-04-15,9.67,10.11,9.63,10.07,46166700
2011-04-18,10.01,10.34,9.86,10.11,35651300
2011-04-19,10.11,10.11,9.74,10.09,18299100
2011-04-20,10.11,10.22,10.01,10.2,15245000
2011-04-21,10.3,10.3,10.09,10.22,11726000
2011-04-26,10.03,10.18,9.8,9.9,18814400
2011-04-27,9.92,10.11,9.65,9.69,13250000
2011-04-28,9.86,9.9,9.55,9.61,11762900
2011-04-29,9.63,9.69,9.5,9.52,18316700
2011-05-03,9.44,9.71,9.37,9.44,11482800
2011-05-04,9.39,9.49,9.27,9.28,33946100
2011-05-05,9.27,9.31,9.15,9.22,11327300
2011-05-06,9.11,9.38,9.07,9.31,6900300
2011-05-09,9.2,9.32,9.2,9.31,7246700
2011-05-11,9.44,9.76,9.39,9.71,25066000
2011-05-12,9.47,9.99,9.46,9.9,31594200
2011-05-13,9.99,10.62,9.99,10.56,100601504
2011-05-16,10.43,10.83,10.35,10.81,40690800
2011-05-17,10.68,10.96,10.51,10.68,26314600
2011-05-18,10.68,10.87,10.6,10.87,13192600
2011-05-19,10.95,10.96,10.72,10.89,11086200
2011-05-20,10.85,11.12,10.81,11.06,23631600
2011-05-23,10.96,10.96,10.56,10.64,22577500
2011-05-24,10.64,10.64,10.24,10.39,26218800
2011-05-25,10.28,10.75,10.14,10.64,14695900
2011-05-26,10.77,10.83,10.6,10.62,6047800
2011-05-27,10.64,10.77,10.53,10.7,11759900
2011-05-30,10.64,10.75,10.58,10.64,6862700
2011-05-31,10.85,10.87,10.64,10.7,14786000
2011-06-01,10.7,10.91,10.64,10.87,13358900
2011-06-02,10.74,10.85,10.58,10.77,15790700
2011-06-03,10.74,11.02,10.7,10.93,16686000
2011-06-07,11.02,11.15,10.83,11.1,15628000
2011-06-08,11.0,11.17,10.91,10.95,12496200
2011-06-09,10.91,11.0,10.51,10.79,18285000
2011-06-10,10.79,11.15,10.72,11.08,22004700
2011-06-13,11.1,11.52,10.95,11.42,36000800
2011-06-14,11.38,11.63,11.02,11.19,35668900
2011-06-15,11.25,11.54,11.15,11.4,35013800
2011-06-16,11.25,11.48,11.17,11.42,25398500
2011-06-17,11.42,11.44,10.98,11.06,33884000
2011-06-20,11.17,11.21,10.68,10.81,22582800
2011-06-21,11.02,11.25,10.87,11.15,14485000
2011-06-22,11.38,11.46,11.25,11.46,27958000
2011-06-23,11.5,11.75,11.35,11.69,38422500
2011-06-24,11.77,11.84,11.5,11.67,23171800
2011-06-27,11.56,12.05,11.5,12.01,23517100
2011-06-28,12.11,12.15,11.78,11.99,16580300
2011-06-29,12.15,12.39,12.05,12.36,29439300
2011-06-30,12.39,12.78,12.39,12.62,34914100
2011-07-04,12.78,12.97,12.72,12.85,28418300
2011-07-05,12.85,12.87,12.72,12.76,19064000
2011-07-06,12.76,12.78,12.45,12.53,14438100
2011-07-07,12.78,13.35,12.55,13.1,35399500
2011-07-08,13.29,13.5,13.14,13.29,26756100
2011-07-11,13.16,13.25,13.0,13.16,13542100
2011-07-12,12.95,13.21,12.76,12.89,17611100
2011-07-13,12.87,13.42,12.87,13.4,14098100
2011-07-14,13.44,13.88,13.35,13.73,32876900
2011-07-15,13.73,13.86,13.63,13.84,22605100
2011-07-18,13.73,14.11,13.73,14.07,19154900
2011-07-19,14.02,14.07,13.29,13.56,42369500
2011-07-20,13.63,13.73,12.99,13.18,39409700
2011-07-21,13.16,13.48,12.95,13.31,24092200
2011-07-22,13.46,13.69,13.37,13.65,21967900
2011-07-25,13.48,13.6,13.23,13.48,11400600
2011-07-26,13.4,13.82,13.4,13.73,15577900
2011-07-27,13.65,13.73,13.42,13.48,10938900
2011-07-28,13.33,13.4,13.21,13.27,17284500
2011-07-29,13.27,13.29,12.76,12.85,18839300
2011-08-01,13.08,13.73,13.08,13.65,38482400
2011-08-02,13.54,14.07,13.48,13.9,26514600
2011-08-03,13.61,13.63,13.37,13.39,16542800
2011-08-04,13.39,13.44,11.82,11.88,80106704
2011-08-05,10.87,11.36,10.81,11.21,77018200
2011-08-08,10.96,11.23,10.37,10.93,58923700
2011-08-09,10.03,11.48,9.84,11.08,57447100
2011-08-10,11.42,12.01,11.25,11.86,48700800
2011-08-11,11.44,11.8,11.44,11.52,27224900
2011-08-12,11.61,12.01,11.52,11.57,26481500
2011-08-15,12.3,12.81,12.28,12.78,51962000
2011-08-16,12.87,13.39,12.36,12.6,50263300
2011-08-17,12.7,13.14,12.68,12.93,25429100
2011-08-18,12.78,13.04,12.47,12.49,21563500
2011-08-19,12.2,12.7,12.15,12.28,22127800
2011-08-22,12.39,12.72,11.67,12.17,26729700
2011-08-23,12.07,12.18,11.82,12.15,29794000
2011-08-24,12.2,12.28,11.65,11.67,30195200
2011-08-25,11.82,12.03,11.5,11.57,25406200
2011-08-26,11.54,11.73,11.25,11.44,20675100
2011-08-29,11.63,11.94,11.48,11.94,19604600
2011-08-30,12.18,12.66,12.18,12.57,29030800
2011-08-31,12.39,13.1,12.3,13.04,37620800
2011-09-01,13.12,13.21,12.41,12.45,24426300
2011-09-02,12.34,12.51,12.07,12.09,19985500
2011-09-05,11.86,11.9,11.63,11.8,14186600
2011-09-06,11.75,12.26,11.59,11.82,36202600
2011-09-07,11.9,12.38,11.9,12.15,29684800
2011-09-08,12.3,12.32,12.01,12.15,12027500
2011-09-09,12.2,12.49,12.05,12.24,17984400
2011-09-12,11.67,11.88,11.56,11.65,16817700
2011-09-14,11.86,11.96,10.83,11.23,33439700
2011-09-15,11.42,11.8,11.35,11.61,30044300
2011-09-16,11.9,11.94,11.15,11.17,25557500
2011-09-19,10.89,11.1,10.62,10.75,21997400
2011-09-20,10.85,10.85,10.14,10.34,35142100
2011-09-21,10.14,10.24,9.74,9.84,67484704
2011-09-22,9.53,9.53,9.08,9.11,56489400
2011-09-23,8.85,9.39,8.63,9.2,70544200
2011-09-26,9.06,9.23,8.1,8.61,48214000
2011-09-27,8.87,9.06,8.4,8.92,34497500
2011-09-28,8.77,9.06,8.57,8.7,38673000
2011-09-30,8.53,8.62,7.99,8.09,39087700
2011-10-03,7.74,7.96,7.04,7.67,61294000
2011-10-04,7.62,7.86,7.34,7.46,27424800
2011-10-06,7.77,8.54,7.77,8.31,45570600
2011-10-07,8.58,9.05,8.56,9.03,31435100
2011-10-10,8.98,9.03,8.42,8.62,21429300
2011-10-11,9.06,9.71,9.06,9.55,43892700
2011-10-12,9.5,10.34,9.3,10.32,37111500
2011-10-13,10.68,10.93,10.45,10.68,35379300
2011-10-14,10.56,10.74,10.13,10.26,18220800
2011-10-17,10.54,10.83,9.93,10.53,24430900
2011-10-18,10.11,10.26,9.97,10.07,15691000
2011-10-19,10.3,10.47,10.03,10.28,11724100
2011-10-20,10.18,10.18,9.11,9.23,50207600
2011-10-21,9.34,9.42,9.11,9.32,14848200
2011-10-24,9.74,10.34,9.63,10.24,20566000
2011-10-25,10.39,10.45,10.18,10.24,9223800
2011-10-26,9.99,10.37,9.9,10.3,17076800
2011-10-27,10.37,11.14,10.26,11.08,29447300
2011-10-28,11.44,11.75,10.53,10.6,26526100
2011-10-31,10.47,10.74,10.14,10.49,15768800
2011-11-01,10.01,10.47,10.01,10.18,9754300
2011-11-02,9.72,10.49,9.65,10.41,25732900
2011-11-03,10.11,10.93,9.95,10.35,29599100
2011-11-04,10.87,10.96,10.6,10.75,22777500
2011-11-07,10.83,11.19,10.58,10.96,23532900
2011-11-08,11.15,11.19,10.7,10.81,11460700
2011-11-09,11.15,11.61,11.04,11.06,31425300
2011-11-10,10.49,10.79,10.37,10.53,14803000
2011-11-11,10.77,10.77,10.47,10.72,8884600
2011-11-14,11.12,11.27,10.89,11.12,15848200
2011-11-15,11.04,11.25,10.89,11.02,10792900
2011-11-16,10.98,11.12,10.56,10.81,19075000
2011-11-17,10.49,10.89,10.49,10.72,7901100
2011-11-18,10.45,10.64,10.3,10.51,21823800
2011-11-21,10.22,10.37,9.88,10.13,21807900
2011-11-22,10.2,10.2,9.65,9.92,23983500
2011-11-23,9.63,9.76,9.53,9.57,21234600
2011-11-24,9.44,9.93,9.31,9.8,14577600
2011-11-25,9.52,9.76,9.48,9.55,16348600
2011-11-28,9.82,10.01,9.55,9.92,18087600
2011-11-29,9.71,9.76,9.25,9.67,56051600
2011-11-30,9.55,9.63,9.37,9.52,26849200
2011-12-01,10.43,10.43,10.13,10.37,45350000
2011-12-02,10.37,10.85,10.26,10.75,41660500
2011-12-05,10.8,11.02,10.44,10.92,22419900
2011-12-06,10.76,11.02,10.76,10.9,21971300
2011-12-07,11.0,11.18,10.82,11.06,43976000
2011-12-08,11.18,11.18,10.8,11.04,13677400
2011-12-09,10.76,10.88,10.58,10.78,21585300
2011-12-12,10.96,11.08,10.62,10.72,23931000
2011-12-13,10.6,10.6,10.1,10.46,27250200
2011-12-14,10.26,10.7,10.26,10.46,22197000
2011-12-15,10.22,10.36,10.06,10.32,36775400
2011-12-16,10.34,11.04,10.34,10.98,148190000
2011-12-19,10.74,10.76,10.22,10.32,38856000
2011-12-20,10.26,10.44,9.97,10.04,25904800
2011-12-21,10.34,10.48,10.28,10.48,16282200
2011-12-22,10.34,10.56,10.24,10.52,8828100
2011-12-23,10.68,11.04,10.66,11.0,18179200
2011-12-28,11.0,11.0,10.62,10.78,11666400
2011-12-29,10.46,10.7,10.4,10.42,14977600
2011-12-30,10.44,10.6,10.38,10.5,7912500
2012-01-03,10.6,10.68,10.34,10.64,10628700
2012-01-04,10.62,10.7,10.12,10.14,18394600
2012-01-05,10.02,10.28,10.0,10.1,19122500
2012-01-06,9.98,10.04,9.7,9.88,23473400
2012-01-09,9.82,10.18,9.56,10.16,17452800
2012-01-10,10.14,10.42,10.04,10.36,27431400
2012-01-11,10.36,10.38,10.2,10.28,18001600
2012-01-12,10.14,10.18,9.62,9.68,72169904
2012-01-13,9.68,9.84,9.6,9.66,35473400
2012-01-16,9.6,9.75,9.51,9.66,15304200
2012-01-17,9.67,9.99,9.67,9.98,42903700
2012-01-18,9.98,10.16,9.9,10.04,36586700
2012-01-19,10.16,10.24,10.02,10.16,40620300
2012-01-20,10.28,10.28,10.02,10.1,20308500
2012-01-26,10.28,10.5,10.16,10.42,33595900
2012-01-27,10.4,10.5,10.24,10.32,18958300
2012-01-30,10.32,10.32,9.98,10.02,19225000
2012-01-31,10.12,10.28,9.91,10.22,19735600
2012-02-01,10.3,10.3,10.04,10.12,17810100
2012-02-02,10.32,10.68,10.18,10.64,46530100
2012-02-03,10.64,11.26,10.56,11.12,74587000
2012-02-06,11.36,11.46,10.8,10.94,45490800
2012-02-07,10.96,11.1,10.62,10.92,18487600
2012-02-08,11.06,11.36,10.86,11.36,23968500
2012-02-09,11.4,11.5,11.18,11.48,31947800
2012-02-10,11.48,11.48,11.0,11.06,21660100
2012-02-13,10.96,11.4,10.96,11.32,16962500
2012-02-14,11.26,11.36,11.02,11.14,12555500
2012-02-15,11.18,11.42,11.06,11.22,17684600
2012-02-16,11.1,11.14,10.74,10.92,42783300
2012-02-17,11.06,11.2,10.86,11.0,21402600
2012-02-20,11.26,11.3,10.94,11.1,25590400
2012-02-21,11.04,11.1,10.9,11.04,10385400
2012-02-22,10.9,11.16,10.88,11.14,13848100
2012-02-23,11.0,11.02,10.92,10.94,7847500
2012-02-24,11.0,11.02,10.84,10.92,7838600
2012-02-27,10.84,11.0,10.52,10.56,18355500
2012-02-28,10.66,10.74,10.58,10.68,15500400
2012-02-29,10.7,10.96,10.68,10.94,18861100
2012-03-01,10.8,11.08,10.8,11.0,17393000
2012-03-02,11.06,11.4,11.06,11.38,34261500
2012-03-05,11.3,11.38,10.9,10.98,15894100
2012-03-06,10.8,10.88,10.34,10.38,32120900
2012-03-07,10.26,10.3,10.08,10.16,27577900
2012-03-08,10.28,10.6,10.24,10.56,17183400
2012-03-09,10.46,10.66,10.4,10.5,23762800
2012-03-12,10.58,10.62,10.16,10.22,29610500
2012-03-13,10.32,10.5,10.32,10.44,13885700
2012-03-14,10.68,10.68,10.28,10.4,15845100
2012-03-15,10.6,10.6,10.24,10.46,21592300
2012-03-16,10.34,10.48,10.28,10.3,17855200
2012-03-19,10.4,10.4,10.18,10.18,10777400
2012-03-20,10.16,10.4,10.1,10.2,12700400
2012-03-21,10.18,10.28,10.12,10.18,6757400
2012-03-22,10.14,10.24,10.08,10.14,7263800
2012-03-23,10.06,10.08,9.86,9.9,19478900
2012-03-26,10.02,10.02,9.82,9.84,10213100
2012-03-27,9.95,10.1,9.86,9.88,15756600
2012-03-28,9.94,9.95,9.81,9.86,12018500
2012-03-29,9.61,9.7,9.42,9.48,37109300
2012-03-30,9.48,9.48,9.1,9.24,33497700
2012-04-02,9.36,9.62,9.25,9.53,17340300
2012-04-03,9.6,9.68,9.38,9.6,14999100
2012-04-05,9.35,9.52,9.31,9.43,9781800
2012-04-10,9.35,9.35,9.03,9.07,32447800
2012-04-11,8.86,8.96,8.84,8.91,18057000
2012-04-12,8.92,8.97,8.74,8.92,40528600
2012-04-13,9.06,9.29,9.06,9.24,27649700
2012-04-16,9.15,9.22,8.97,9.1,13915400
2012-04-17,9.2,9.58,9.06,9.51,37454600
2012-04-18,9.65,9.73,9.6,9.7,29342100
2012-04-19,9.6,9.94,9.6,9.87,21609300
2012-04-20,9.87,9.87,9.73,9.8,16472500
2012-04-23,9.75,9.77,9.49,9.52,13541500
2012-04-24,9.45,9.67,9.45,9.57,9242000
2012-04-25,9.57,9.64,9.51,9.58,4919200
2012-04-26,9.62,9.68,9.52,9.63,8437200
2012-04-27,9.64,9.71,9.59,9.62,11682400
2012-04-30,9.63,9.76,9.63,9.73,10349200
2012-05-02,9.78,10.0,9.71,9.94,25531400
2012-05-03,9.82,10.28,9.72,10.24,41360300
2012-05-04,10.02,10.26,10.02,10.12,18612900
2012-05-07,9.82,9.92,9.62,9.76,21352300
2012-05-08,9.78,9.89,9.63,9.67,17828900
2012-05-09,9.49,9.53,9.33,9.4,19916500
2012-05-10,9.3,9.42,9.17,9.3,15789400
2012-05-11,9.21,9.49,9.12,9.42,20301500
2012-05-14,9.53,9.67,9.46,9.48,20042000
2012-05-15,9.31,9.67,9.31,9.66,27501200
2012-05-16,9.5,9.5,9.12,9.22,25894100
2012-05-17,9.1,9.22,8.91,8.97,27538300
2012-05-18,8.75,8.79,8.1,8.56,51506900
2012-05-21,8.54,8.54,8.22,8.34,29318400
2012-05-22,8.44,8.53,8.3,8.39,21929200
2012-05-23,8.19,8.25,8.11,8.14,25456400
2012-05-24,8.14,8.23,8.1,8.13,10942700
2012-05-25,8.15,8.16,7.81,8.01,36233800
2012-05-28,7.96,8.32,7.92,8.18,14181000
2012-05-29,8.17,8.74,8.17,8.67,27710300
2012-05-30,8.58,8.65,8.34,8.54,23698000
2012-05-31,8.4,8.72,8.37,8.63,22957100
2012-06-01,8.57,8.79,8.5,8.51,18682600
2012-06-04,8.3,8.35,7.86,7.9,39196700
2012-06-05,8.06,8.09,7.97,8.01,22118600
2012-06-06,8.09,8.21,8.04,8.13,16403100
2012-06-07,8.3,8.54,8.29,8.29,24522100
2012-06-08,8.4,8.63,8.3,8.4,27106100
2012-06-11,8.65,8.78,8.65,8.73,20040800
2012-06-12,8.64,9.0,8.5,8.92,36034500
2012-06-13,8.83,9.4,8.83,9.2,27935600
2012-06-14,9.23,9.31,8.93,8.96,17278500
2012-06-15,9.1,9.25,9.08,9.22,16153600
2012-06-18,9.32,9.35,9.02,9.1,16861300
2012-06-19,9.08,9.1,8.91,9.03,16364400
2012-06-20,9.18,9.21,9.06,9.11,12270600
2012-06-21,9.11,9.15,8.91,8.93,7810200
2012-06-22,8.75,9.05,8.7,8.89,8031000
2012-06-25,8.9,8.98,8.65,8.66,11345000
2012-06-26,8.66,8.92,8.63,8.87,8655200
2012-06-27,8.84,8.97,8.77,8.8,9638800
2012-06-28,8.85,8.96,8.51,8.58,14141600
2012-06-29,8.52,8.78,8.45,8.67,21972600
2012-07-03,8.79,9.17,8.71,9.07,31205800
2012-07-04,9.11,9.16,8.96,9.04,11367300
2012-07-05,9.0,9.1,8.85,9.02,10841500
2012-07-06,9.09,9.23,8.99,9.14,22406900
2012-07-09,9.08,9.12,8.81,8.88,13698600
2012-07-10,8.82,8.92,8.66,8.7,15385000
2012-07-11,8.68,8.96,8.58,8.95,12998600
2012-07-12,8.93,8.93,8.58,8.6,23351200
2012-07-13,8.55,8.8,8.5,8.55,23500000
2012-07-16,8.65,8.7,8.44,8.46,9765800
2012-07-17,8.49,8.76,8.47,8.59,15056300
2012-07-18,8.5,8.62,8.43,8.55,10377800
2012-07-19,8.65,8.99,8.63,8.98,25505200
2012-07-20,8.98,8.98,8.8,8.89,11572100
2012-07-23,8.7,8.7,8.46,8.51,20337300
2012-07-24,8.48,8.54,8.3,8.36,12736300
2012-07-25,8.28,8.39,8.26,8.31,13981800
2012-07-26,8.32,8.49,8.27,8.48,17448000
2012-07-27,8.59,8.8,8.59,8.64,22846700
2012-07-30,8.71,8.79,8.52,8.57,8831300
2012-07-31,8.55,8.78,8.54,8.69,12579300
2012-08-01,8.7,8.78,8.64,8.71,11956200
2012-08-02,8.71,8.74,8.56,8.7,19609400
2012-08-03,8.6,8.7,8.56,8.68,9726900
2012-08-06,8.81,8.89,8.62,8.67,14800000
2012-08-07,8.65,8.73,8.6,8.62,12955800
2012-08-08,8.63,8.7,8.56,8.62,11064800
2012-08-09,8.64,8.92,8.64,8.83,16909200
2012-08-10,8.75,8.9,8.7,8.83,8356300
2012-08-13,8.9,8.9,8.73,8.74,10644900
2012-08-14,8.8,8.81,8.65,8.76,7483500
2012-08-15,8.71,8.74,8.52,8.64,6366400
2012-08-16,8.66,8.77,8.63,8.66,5956000
2012-08-17,8.68,8.74,8.67,8.7,6980600
2012-08-20,8.72,8.91,8.66,8.8,9791000
2012-08-21,9.4,9.49,9.22,9.44,78159504
2012-08-22,9.4,9.54,9.3,9.38,28940800
2012-08-23,9.47,9.51,9.37,9.4,18231000
2012-08-24,9.31,9.37,9.21,9.23,17490100
2012-08-27,9.25,9.3,9.14,9.18,10768400
2012-08-28,9.18,9.39,9.11,9.35,11663500
2012-08-29,9.33,9.35,9.16,9.2,14150700
2012-08-30,9.13,9.3,9.11,9.24,21871200
2012-08-31,9.18,9.35,9.16,9.33,15675200
2012-09-03,9.14,9.25,9.07,9.14,14746600
2012-09-04,9.1,9.12,8.74,8.75,24767600
2012-09-05,8.75,8.79,8.61,8.71,18197100
2012-09-06,8.65,8.89,8.65,8.83,9033300
2012-09-07,8.96,9.09,8.91,9.06,25240400
2012-09-10,9.08,9.25,9.06,9.14,18053500
2012-09-11,9.11,9.14,8.95,9.09,8508700
2012-09-12,9.12,9.2,9.09,9.19,11637100
2012-09-13,9.13,9.23,9.13,9.19,14571200
2012-09-14,9.39,9.6,9.32,9.52,28202000
2012-09-17,9.57,9.76,9.51,9.53,24952000
2012-09-18,9.4,9.63,9.31,9.54,14275300
2012-09-19,9.51,9.65,9.46,9.62,11242200
2012-09-20,9.6,9.62,9.3,9.34,17915800
2012-09-21,9.34,9.59,9.34,9.56,27071400
2012-09-24,9.38,9.58,9.33,9.48,12008100
2012-09-25,9.44,9.55,9.36,9.41,13171600
2012-09-26,9.31,9.31,9.17,9.26,17074000
2012-09-27,9.29,9.45,9.22,9.3,15935000
2012-09-28,9.32,9.58,9.26,9.52,20874100
2012-10-03,9.6,9.75,9.51,9.56,9531900
2012-10-04,9.51,9.72,9.45,9.69,16087700
2012-10-05,9.74,9.8,9.65,9.75,8950300
2012-10-08,9.75,9.75,9.57,9.69,7505600
2012-10-09,9.75,9.9,9.75,9.88,12363600
2012-10-10,9.82,9.99,9.77,9.94,17539300
2012-10-11,9.85,10.02,9.82,9.96,8944000
2012-10-12,10.0,10.12,9.95,10.02,13595300
2012-10-15,10.2,10.26,10.08,10.2,14500400
2012-10-16,10.3,10.38,10.18,10.26,12451900
2012-10-17,10.4,10.42,10.28,10.32,10057400
2012-10-18,10.32,10.4,10.06,10.24,15603400
2012-10-19,10.26,10.32,10.08,10.3,11075000
2012-10-22,10.3,10.58,10.26,10.46,22779100
2012-10-24,10.44,10.64,10.42,10.46,12400600
2012-10-25,10.36,10.6,10.36,10.5,8875900
2012-10-26,10.46,10.5,10.02,10.14,15422400
2012-10-29,10.08,10.44,10.06,10.3,13557600
2012-10-30,10.28,10.4,10.18,10.22,5990300
2012-10-31,10.36,10.36,10.12,10.32,12135800
2012-11-01,10.2,10.4,10.2,10.26,17012800
2012-11-02,10.44,10.52,10.36,10.4,18437300
2012-11-05,10.3,10.6,10.3,10.52,10107500
2012-11-06,10.5,10.56,10.32,10.54,7898200
2012-11-07,10.54,10.54,10.22,10.28,30870800
2012-11-08,10.06,10.16,10.0,10.06,21470100
2012-11-09,9.94,10.14,9.94,10.1,12096800
2012-11-12,10.12,10.14,9.96,10.02,11588100
2012-11-13,10.0,10.0,9.79,9.86,17224000
2012-11-14,9.88,10.0,9.71,9.97,8441400
2012-11-15,9.71,9.84,9.71,9.73,15450300
2012-11-16,9.84,9.87,9.73,9.79,8231800
2012-11-19,9.77,9.96,9.77,9.83,8899800
2012-11-20,9.94,9.96,9.73,9.75,7783600
2012-11-21,9.84,9.93,9.75,9.87,10877000
2012-11-22,9.94,10.04,9.85,9.93,14878500
2012-11-23,9.97,10.1,9.96,10.1,13947900
2012-11-26,10.2,10.28,10.12,10.16,19309000
2012-11-27,10.2,10.3,9.98,9.99,11636100
2012-11-28,9.88,9.98,9.74,9.79,24820700
2012-11-29,9.82,9.89,9.77,9.84,13148400
2012-11-30,9.84,10.06,9.82,9.97,15814200
2012-12-03,9.98,10.12,9.84,9.89,13528400
2012-12-04,9.91,9.91,9.76,9.89,13670200
2012-12-05,9.8,10.26,9.8,10.2,24368800
2012-12-06,10.2,10.28,10.12,10.18,13071500
2012-12-07,10.1,10.26,10.04,10.12,31904700
2012-12-10,10.12,10.2,9.95,10.02,21548400
2012-12-11,9.95,10.02,9.86,9.93,19852200
2012-12-12,9.96,10.04,9.94,10.04,22058900
2012-12-13,10.1,10.1,9.91,10.0,14995400
2012-12-14,9.95,10.32,9.94,10.22,28053500
2012-12-17,10.22,10.48,10.2,10.32,26017100
2012-12-18,10.36,10.44,10.24,10.32,9507600
2012-12-19,10.38,10.44,10.34,10.42,14374800
2012-12-20,10.42,10.42,10.18,10.38,16083200
2012-12-21,10.42,10.42,10.22,10.22,13930700
2012-12-24,10.28,10.36,10.18,10.32,4645000
2012-12-27,10.38,10.62,10.32,10.56,25742800
2012-12-28,10.68,10.7,10.5,10.6,14349400
2012-12-31,10.54,10.9,10.52,10.86,16367700
2013-01-02,11.1,11.54,11.1,11.52,44371600
2013-01-03,11.6,11.72,11.36,11.72,30640000
2013-01-04,11.74,11.74,11.38,11.58,20984900
2013-01-07,11.6,11.72,11.48,11.64,16888300
2013-01-08,11.54,11.62,11.06,11.14,24444100
2013-01-09,11.12,11.54,11.12,11.38,18838100
2013-01-10,11.62,12.2,11.52,11.84,71562304
2013-01-11,12.18,12.18,11.82,11.96,28007800
2013-01-14,11.8,12.2,11.8,12.12,17295600
2013-01-15,11.07,11.29,10.94,11.13,16603500
2013-01-16,11.0,11.05,10.79,10.94,18380200
2013-01-17,11.02,11.02,10.72,10.81,13089200
2013-01-18,10.98,11.07,10.85,11.02,15422500
2013-01-21,10.85,11.09,10.85,10.98,6891100
2013-01-22,10.98,11.14,10.83,11.14,10927400
2013-01-23,11.02,11.22,10.83,10.91,15177600
2013-01-24,10.85,11.02,10.83,10.87,8894200
2013-01-25,10.94,10.96,10.45,10.57,17936300
2013-01-28,10.52,10.74,10.52,10.72,11018200
2013-01-29,10.72,10.87,10.5,10.74,10645200
2013-01-30,10.67,10.89,10.67,10.87,14809300
2013-01-31,10.65,10.87,10.56,10.85,18802800
2013-02-01,10.79,11.0,10.67,10.96,16716300
2013-02-04,10.96,11.09,10.81,10.91,12976200
2013-02-05,10.67,10.81,10.59,10.65,13635900
2013-02-06,10.79,10.92,10.65,10.85,12908900
2013-02-07,10.85,10.85,10.63,10.7,8406500
2013-02-08,10.67,10.76,10.57,10.59,10896300
2013-02-14,10.83,10.83,10.57,10.61,12491400
2013-02-15,10.45,10.67,10.45,10.67,14756000
2013-02-18,10.7,10.7,10.46,10.5,14498500
2013-02-19,10.45,10.52,9.99,10.1,36089800
2013-02-20,10.08,10.21,9.97,10.17,31539200
2013-02-21,10.02,10.17,10.0,10.08,20127200
2013-02-22,10.08,10.11,9.95,9.99,16090200
2013-02-25,10.06,10.17,10.04,10.08,11366700
2013-02-26,10.02,10.19,9.78,9.91,21320400
2013-02-27,9.89,10.04,9.82,9.84,19495300
2013-02-28,10.1,10.35,10.02,10.24,31616400
2013-03-01,10.39,10.39,10.3,10.35,18465800
2013-03-04,10.28,10.34,10.04,10.17,20063800
2013-03-05,10.17,10.26,10.02,10.15,22165300
2013-03-06,10.15,10.37,10.15,10.24,10462100
2013-03-07,10.24,10.26,10.02,10.19,19442800
2013-03-08,10.32,10.45,10.22,10.26,12599700
2013-03-11,10.21,10.3,10.13,10.13,9598400
2013-03-12,10.11,10.34,10.06,10.1,14518200
2013-03-13,10.06,10.15,9.89,9.95,16677600
2013-03-14,9.89,9.99,9.75,9.89,16173200
2013-03-15,9.95,10.3,9.86,10.15,59263100
2013-03-18,9.95,10.15,9.89,9.91,31191700
2013-03-19,10.04,10.06,9.78,9.95,11501700
2013-03-20,9.8,10.06,9.78,9.99,10051900
2013-03-21,9.95,10.02,9.8,9.89,14266800
2013-03-22,9.78,10.0,9.75,9.84,11591100
2013-03-25,9.84,9.99,9.75,9.95,13769900
2013-03-26,9.86,9.86,9.2,9.4,67958704
2013-03-27,9.45,9.56,9.2,9.32,36492500
2013-03-28,9.21,9.29,9.1,9.17,30616900
2013-04-02,9.17,9.34,8.97,9.01,24450600
2013-04-03,9.02,9.03,8.76,8.81,28550500
2013-04-05,8.63,8.81,8.29,8.47,44131900
2013-04-08,8.45,8.52,8.35,8.4,15882900
2013-04-09,8.46,8.91,8.46,8.74,29325700
2013-04-10,8.84,8.95,8.73,8.9,25840700
2013-04-11,8.97,9.08,8.85,8.92,32825500
2013-04-12,8.97,9.03,8.74,8.77,14175700
2013-04-15,8.64,8.74,8.53,8.59,14257500
2013-04-16,8.42,8.81,8.4,8.66,12407100
2013-04-17,8.66,8.78,8.63,8.69,11678600
2013-04-18,8.56,8.82,8.56,8.65,12941900
2013-04-19,8.69,8.99,8.68,8.95,15821600
2013-04-22,8.82,8.83,8.6,8.74,24900300
2013-04-23,8.83,8.83,8.58,8.62,11241100
2013-04-24,8.72,8.83,8.72,8.75,16237200
2013-04-25,8.97,8.97,8.85,8.86,18627400
2013-04-26,8.96,9.05,8.93,8.94,11645800
2013-04-29,8.93,9.01,8.85,8.95,7997600
2013-04-30,9.04,9.2,8.98,9.16,18681000
2013-05-02,9.03,9.14,8.96,9.08,12603800
2013-05-03,9.09,9.29,9.06,9.11,13111200
2013-05-06,9.23,9.38,9.19,9.2,13366700
2013-05-07,9.2,9.53,9.19,9.45,18091400
2013-05-08,9.62,9.62,9.51,9.58,13517500
2013-05-09,9.64,9.69,9.31,9.45,11254900
2013-05-10,9.49,9.53,9.32,9.47,7749700
2013-05-13,9.36,9.47,9.23,9.32,7879600
2013-05-14,9.23,9.34,9.09,9.2,9518900
2013-05-15,9.25,9.42,9.21,9.32,8011400
2013-05-16,9.25,9.34,9.19,9.27,5652000
2013-05-20,9.27,9.47,9.27,9.38,10343500
2013-05-21,9.08,9.18,8.92,9.14,42241200
2013-05-22,9.01,9.38,9.01,9.27,14443300
2013-05-23,9.18,9.25,8.94,9.07,17840300
2013-05-24,9.08,9.13,8.76,8.85,27234800
2013-05-27,8.83,8.98,8.76,8.95,13644200
2013-05-28,9.04,9.1,8.77,8.95,21031700
2013-05-29,8.91,8.93,8.77,8.86,13115600
2013-05-30,8.86,8.89,8.7,8.79,24768500
2013-05-31,8.79,8.87,8.54,8.82,30631400
2013-06-03,8.75,8.83,8.57,8.6,14623100
2013-06-04,8.56,8.76,8.56,8.7,15432700
2013-06-05,8.72,8.83,8.49,8.8,23644300
2013-06-06,8.76,8.79,8.63,8.7,13205100
2013-06-07,8.66,8.69,8.47,8.52,20953800
2013-06-10,8.57,8.59,8.33,8.53,21982600
2013-06-11,8.6,8.6,8.28,8.37,35834300
2013-06-13,8.5,8.5,7.93,8.35,24732300
2013-06-14,8.35,8.5,8.27,8.44,26904300
2013-06-17,8.42,8.65,8.4,8.42,9725200
2013-06-18,8.37,8.47,8.26,8.42,9807400
2013-06-19,8.31,8.53,8.29,8.41,15029800
2013-06-20,8.3,8.4,8.21,8.32,15901900
2013-06-21,8.18,8.35,8.0,8.32,32724000
2013-06-24,8.13,8.23,7.85,8.05,22394400
2013-06-25,8.05,8.18,7.9,8.15,31419500
2013-06-26,8.23,8.27,8.08,8.24,13501400
2013-06-27,8.15,8.4,8.15,8.25,13358800
2013-06-28,8.27,8.47,8.27,8.42,16746600
2013-07-02,8.25,8.46,8.09,8.23,23213700
2013-07-03,8.08,8.16,7.91,8.09,23526300
2013-07-04,8.18,8.19,8.05,8.06,8229000
2013-07-05,8.17,8.26,8.14,8.2,13418600
2013-07-08,8.02,8.31,7.99,8.21,12788600
2013-07-09,8.2,8.26,8.09,8.16,8971600
2013-07-10,8.17,8.34,8.1,8.28,11246100
2013-07-11,8.42,8.88,8.41,8.65,26565900
2013-07-12,8.66,8.68,8.48,8.52,16054200
2013-07-15,8.43,8.66,8.38,8.51,11450300
2013-07-16,8.51,8.64,8.42,8.51,9228400
2013-07-17,8.44,8.55,8.4,8.41,8419800
2013-07-18,8.41,8.54,8.39,8.44,12725400
2013-07-19,8.42,8.5,8.31,8.4,8450000
2013-07-22,8.4,8.45,8.36,8.41,6001200
2013-07-23,8.51,8.8,8.42,8.72,34989500
2013-07-24,8.63,8.76,8.6,8.7,21204400
2013-07-25,8.6,8.73,8.57,8.66,7899000
2013-07-26,8.65,8.69,8.6,8.66,5073200
2013-07-29,8.54,8.57,8.33,8.48,13847900
2013-07-30,8.47,8.59,8.37,8.42,12035700
2013-07-31,8.37,8.47,8.31,8.31,16670800
2013-08-01,8.4,8.5,8.3,8.41,15165000
2013-08-02,8.52,8.54,8.4,8.47,8762400
2013-08-05,8.51,8.54,8.47,8.48,6081600
2013-08-06,8.44,8.44,8.29,8.43,11078700
2013-08-07,8.34,8.42,8.23,8.3,12082900
2013-08-08,8.3,8.42,8.3,8.33,5751900
2013-08-09,8.37,8.51,8.32,8.45,13646900
2013-08-12,8.45,8.8,8.42,8.72,42097400
2013-08-13,8.83,9.04,8.8,9.01,47509900
2013-08-15,8.95,9.2,8.95,9.06,28543000
2013-08-16,9.05,9.51,8.93,9.25,23103200
2013-08-19,9.22,9.42,9.17,9.27,12205700
2013-08-20,9.27,9.37,8.96,9.02,14726900
2013-08-21,9.04,9.27,8.96,9.2,13770200
2013-08-22,9.05,9.38,9.03,9.24,16247500
2013-08-23,9.37,9.43,9.18,9.23,9041400
2013-08-26,9.24,9.51,9.16,9.42,18217200
2013-08-27,9.74,10.16,9.72,10.06,87944096
2013-08-28,10.01,10.24,9.87,10.14,48106900
2013-08-29,10.39,10.39,10.12,10.31,34956200
2013-08-30,10.18,10.49,10.18,10.39,22705700
2013-09-02,10.49,10.58,10.37,10.47,17033300
2013-09-03,10.56,10.68,10.47,10.6,26015200
2013-09-04,10.49,10.7,10.45,10.68,27189600
2013-09-05,10.78,10.99,10.78,10.87,27646600
2013-09-06,10.78,10.99,10.68,10.97,31132700
2013-09-09,10.87,11.01,10.56,10.8,22958500
2013-09-10,10.97,10.99,10.81,10.93,31397800
2013-09-11,10.8,10.91,10.6,10.76,21256700
2013-09-12,10.81,10.93,10.68,10.7,18293800
2013-09-13,10.68,10.76,10.53,10.66,20462200
2013-09-16,10.78,10.95,10.78,10.85,14892900
2013-09-17,10.89,10.91,10.7,10.78,10401200
2013-09-18,10.87,10.89,10.72,10.83,13247800
2013-09-19,10.97,11.06,10.8,10.91,17029100
2013-09-23,10.89,10.95,10.68,10.93,7730700
2013-09-24,11.03,11.03,10.72,10.87,12654800
2013-09-25,10.87,10.91,10.6,10.72,16586700
2013-09-26,10.68,10.76,10.58,10.66,7276600
2013-09-27,10.66,10.74,10.35,10.39,27690600
2013-09-30,10.33,10.45,10.1,10.12,31793000
2013-10-02,10.1,10.35,10.1,10.18,17506200
2013-10-03,10.33,10.35,10.14,10.24,20161200
2013-10-04,10.14,10.51,10.14,10.35,15932300
2013-10-07,10.47,10.49,10.2,10.31,14414200
2013-10-08,10.29,10.51,10.29,10.43,19055400
2013-10-09,10.49,10.7,10.43,10.54,26745200
2013-10-10,10.54,10.58,10.22,10.56,15903500
2013-10-11,10.7,10.81,10.6,10.72,20868100
2013-10-15,10.87,10.99,10.76,10.97,29034100
2013-10-16,11.05,11.05,10.87,10.99,24296100
2013-10-17,11.05,11.2,10.91,11.08,24524200
2013-10-18,11.2,11.35,11.16,11.31,27701100
2013-10-21,11.31,11.47,11.31,11.35,19548500
2013-10-22,11.41,11.53,11.31,11.49,18417500
2013-10-23,11.55,11.55,10.99,11.08,27414500
2013-10-24,10.99,11.06,10.8,10.91,14662000
2013-10-25,10.83,11.05,10.76,10.83,12900000
2013-10-28,10.89,10.95,10.78,10.89,5935800
2013-10-29,10.8,11.14,10.76,11.01,10107900
2013-10-30,10.87,11.33,10.87,11.31,16410100
2013-10-31,11.31,11.47,11.24,11.43,23530700
2013-11-01,11.47,11.47,11.3,11.43,13739300
2013-11-04,11.45,11.53,11.37,11.41,7849600
2013-11-05,11.39,11.39,11.1,11.35,7799500
2013-11-06,11.28,11.3,11.18,11.18,7397200
2013-11-07,11.14,11.24,11.03,11.14,7513000
2013-11-08,10.93,11.12,10.93,11.03,5260900
2013-11-11,11.01,11.31,10.93,11.28,8930400
2013-11-12,11.26,11.35,11.01,11.16,8022600
2013-11-13,10.97,11.06,10.83,10.85,10536200
2013-11-14,10.97,11.3,10.85,11.14,15420600
2013-11-15,11.14,11.55,11.14,11.55,22263400
2013-11-18,12.03,12.49,11.85,12.45,56134500
2013-11-19,12.6,12.7,12.14,12.39,29212600
2013-11-20,12.89,12.93,12.33,12.55,22929800
2013-11-21,12.53,12.53,12.1,12.26,17958900
2013-11-22,12.49,12.51,12.32,12.47,24420900
2013-11-24,12.96,12.96,12.96,12.96,0
2013-11-25,12.49,12.49,12.05,12.05,22698500
2013-11-26,11.99,12.22,11.97,12.07,15703200
2013-11-27,12.03,12.39,11.99,12.35,18541700
2013-11-28,12.57,12.58,12.2,12.33,16481400
2013-11-29,12.24,12.39,12.22,12.37,8836700
2013-12-02,12.7,12.8,12.43,12.7,21241400
2013-12-03,12.8,12.83,12.55,12.82,20745900
2013-12-04,12.62,12.74,12.32,12.62,25893500
2013-12-05,12.6,12.8,12.47,12.78,21073500
2013-12-06,12.55,12.66,12.3,12.37,28639600
2013-12-09,12.39,12.51,12.39,12.45,12646000
2013-12-10,12.3,12.43,12.3,12.37,8751500
2013-12-11,12.37,12.37,11.81,11.89,33750300
2013-12-12,11.95,12.18,11.7,11.99,16245700
2013-12-13,11.83,11.95,11.76,11.78,24460500
2013-12-16,11.68,11.78,11.45,11.45,27991700
2013-12-17,11.47,11.68,11.33,11.43,15355200
2013-12-18,11.26,11.41,11.12,11.16,31791100
2013-12-19,11.28,11.37,10.99,11.14,22690000
2013-12-20,11.12,11.12,10.6,10.74,42977400
2013-12-23,10.83,11.06,10.78,10.89,19463800
2013-12-24,10.83,11.12,10.83,11.03,10644500
2013-12-27,10.91,11.12,10.91,11.03,10407900
2013-12-30,11.06,11.08,10.91,11.03,11134400
2013-12-31,10.99,11.1,10.91,11.06,7143900
2014-01-02,11.16,11.16,10.66,10.7,19271200
2014-01-03,10.58,10.64,10.24,10.31,35735600
2014-01-06,10.31,10.37,10.1,10.2,19780300
2014-01-07,10.28,10.47,10.1,10.28,13828600
2014-01-08,10.29,10.76,10.29,10.66,22189500
2014-01-09,10.39,10.64,10.18,10.2,25874400
2014-01-10,10.1,10.29,10.06,10.16,14495800
2014-01-13,10.12,10.24,9.95,10.03,20516100
2014-01-14,9.91,10.28,9.85,10.06,20297700
2014-01-15,10.18,10.24,10.1,10.18,16108800
2014-01-16,10.12,10.26,9.93,10.2,21544000
2014-01-17,9.99,10.1,9.89,10.01,25361400
2014-01-20,9.81,9.95,9.78,9.91,14589300
2014-01-21,10.01,10.16,9.91,10.14,23040400
2014-01-22,10.12,10.39,10.06,10.33,28277600
2014-01-23,10.39,10.39,10.08,10.08,22098700
2014-01-24,10.06,10.18,9.93,10.01,17587400
2014-01-27,9.79,9.91,9.64,9.76,19223200
2014-01-28,9.89,9.89,9.7,9.81,16501000
2014-01-29,9.99,10.28,9.95,10.08,21620400
2014-01-30,9.87,10.16,9.83,10.1,6661800
2014-02-04,9.62,9.76,9.55,9.6,24381000
2014-02-05,9.78,9.83,9.64,9.76,15201800
2014-02-06,9.79,9.91,9.66,9.81,10890700
2014-02-07,9.97,10.06,9.81,9.97,11944600
2014-02-10,9.93,10.26,9.93,10.08,12747700
2014-02-11,10.18,10.56,10.18,10.54,29669200
2014-02-12,10.68,10.7,10.49,10.54,16971600
2014-02-13,10.43,10.58,10.29,10.39,8928300
2014-02-14,10.56,10.56,10.35,10.47,4437900
2014-02-17,10.68,10.87,10.56,10.58,14376900
2014-02-18,10.58,10.7,10.45,10.6,7034800
2014-02-19,10.47,10.76,10.43,10.45,6501000
2014-02-20,10.24,10.51,10.1,10.31,16602400
2014-02-21,10.47,10.66,10.43,10.51,13339000
2014-02-24,10.49,10.49,10.22,10.35,8283800
2014-02-25,10.39,10.49,10.14,10.22,7827500
2014-02-26,10.18,10.33,10.1,10.22,15934300
2014-02-27,10.14,10.39,10.04,10.37,10418100
2014-02-28,10.31,10.45,10.03,10.2,10270400
2014-03-03,9.95,10.22,9.91,10.01,10430600
2014-03-04,10.03,10.18,9.93,10.06,8598700
2014-03-05,10.24,10.24,9.97,9.97,10701500
2014-03-06,9.91,10.16,9.91,9.97,12606100
2014-03-07,10.01,10.2,9.95,10.04,9515700
2014-03-10,9.81,9.95,9.81,9.95,10320700
2014-03-11,9.87,9.91,9.66,9.74,9991500
2014-03-12,9.62,9.87,9.62,9.72,13917400
2014-03-13,9.74,9.87,9.62,9.68,7817000
2014-03-14,9.62,9.72,9.6,9.66,11633400
2014-03-17,9.56,9.79,9.55,9.72,6859100
2014-03-18,9.72,9.72,9.5,9.54,15037200
2014-03-19,9.54,9.74,9.54,9.66,7601000
2014-03-20,9.64,9.72,9.38,9.44,8282200
2014-03-21,9.41,9.78,9.41,9.6,19957100
2014-03-24,9.64,9.99,9.62,9.95,16286100
2014-03-25,10.01,10.29,9.89,10.26,26186900
2014-03-26,10.39,10.49,10.28,10.31,20979800
2014-03-27,10.12,10.31,10.03,10.22,16196600
2014-03-28,10.49,10.58,10.2,10.56,21860700
2014-03-31,10.47,10.51,10.03,10.22,26976600
2014-04-01,10.22,10.37,10.06,10.14,23683800
2014-04-02,10.22,10.28,9.97,10.04,21877100
2014-04-03,10.37,10.58,10.14,10.26,20411800
2014-04-04,10.43,10.47,10.12,10.18,17281100
2014-04-07,10.2,10.39,10.12,10.29,11942000
2014-04-08,10.35,10.58,10.35,10.51,17425800
2014-04-09,10.51,10.58,10.29,10.41,12836700
2014-04-10,10.37,10.78,10.2,10.72,30285700
2014-04-11,10.47,10.64,10.29,10.43,10386600
2014-04-14,10.47,10.54,10.18,10.26,10572100
2014-04-15,10.22,10.31,10.03,10.06,11490300
2014-04-16,10.06,10.24,10.01,10.18,9243300
2014-04-17,10.18,10.29,10.12,10.26,7439000
2014-04-22,10.2,10.33,10.08,10.2,5110400
2014-04-23,10.24,10.24,9.93,10.01,10716800
2014-04-24,10.04,10.35,9.93,10.18,11150500
2014-04-25,10.08,10.28,9.89,9.93,16568500
2014-04-28,10.08,10.1,9.93,9.99,5991600
2014-04-29,10.06,10.06,9.83,9.95,8006000
2014-04-30,10.12,10.24,9.83,9.83,14452700
2014-05-02,9.78,10.14,9.78,9.97,12298700
2014-05-05,10.06,10.06,9.72,9.93,5231600
2014-05-07,10.03,10.18,9.91,10.12,15667400
2014-05-08,10.2,10.2,9.95,9.99,12473300
2014-05-09,9.99,10.26,9.99,10.16,10153700
2014-05-12,10.26,10.35,10.1,10.29,13772100
2014-05-13,10.37,10.47,10.33,10.43,7049200
2014-05-14,10.45,10.66,10.39,10.6,14397800
2014-05-15,10.68,10.68,10.39,10.58,9891200
2014-05-16,10.47,10.53,10.43,10.49,4984400
2014-05-19,10.53,10.58,10.39,10.58,6748400
2014-05-20,10.64,10.7,10.47,10.56,6362800
2014-05-21,10.8,10.8,10.47,10.68,9326600
2014-05-22,10.83,10.97,10.7,10.85,14919300
2014-05-23,10.83,10.97,10.76,10.8,12130900
2014-05-26,10.83,10.87,10.62,10.8,9899900
2014-05-27,10.78,10.78,10.6,10.7,4836000
2014-05-28,10.72,10.95,10.62,10.85,7021400
2014-05-29,10.87,11.06,10.7,10.85,17174200
2014-05-30,10.87,11.12,10.85,10.99,11270300
2014-06-03,11.26,11.26,10.99,11.03,9858000
2014-06-04,11.06,11.06,10.81,10.93,7325500
2014-06-05,11.05,11.12,10.93,11.05,8501500
2014-06-06,11.14,11.24,11.08,11.2,12576500
2014-06-09,11.22,11.33,11.16,11.31,9012400
2014-06-10,11.33,11.47,11.24,11.43,10689600
2014-06-11,11.26,11.41,11.26,11.39,7289100
2014-06-12,11.45,11.47,11.31,11.37,4159100
2014-06-13,11.35,11.43,11.2,11.39,6079700
2014-06-16,11.22,11.43,11.22,11.31,5913200
2014-06-17,11.31,11.31,11.2,11.24,6179100
2014-06-18,11.18,11.31,11.01,11.08,9831700
2014-06-19,11.14,11.28,11.03,11.06,5516500
2014-06-20,11.06,11.39,11.03,11.37,12900100
2014-06-23,11.37,11.37,11.03,11.08,9145600
2014-06-24,11.18,11.22,11.06,11.2,3229500
2014-06-25,11.26,11.26,11.05,11.05,4917900
2014-06-26,11.03,11.2,11.03,11.2,7542200
2014-06-27,11.31,11.31,11.1,11.2,6479400
2014-06-30,11.24,11.35,11.18,11.3,8755500
2014-07-02,11.16,11.3,11.14,11.18,11474300
2014-07-03,11.26,11.31,11.08,11.12,7917600
2014-07-04,11.22,11.26,11.08,11.14,6841400
2014-07-07,11.2,11.24,11.12,11.22,3360100
2014-07-08,11.31,11.31,11.16,11.3,5320200
2014-07-09,11.31,11.31,11.03,11.05,8000500
2014-07-10,11.14,11.26,11.1,11.2,7119800
2014-07-11,11.16,11.26,11.14,11.2,5410600
2014-07-14,11.22,11.35,11.18,11.24,9373100
2014-07-15,11.35,11.39,11.26,11.31,8451400
2014-07-16,11.35,11.39,11.22,11.28,7671600
2014-07-17,11.3,11.43,11.28,11.37,8783000
2014-07-18,11.35,11.43,11.3,11.41,4821100
2014-07-21,11.41,11.45,11.24,11.28,5079100
2014-07-22,11.24,11.53,11.24,11.51,11027700
2014-07-23,11.55,11.97,11.53,11.91,19152700
2014-07-24,11.91,12.1,11.74,12.05,17993900
2014-07-25,12.07,12.2,11.99,12.18,17557800
2014-07-28,12.28,12.33,12.2,12.26,8866500
2014-07-29,12.24,12.37,12.22,12.33,8523300
2014-07-30,12.37,12.45,12.16,12.28,12639700
2014-07-31,12.28,12.37,11.95,12.12,15590500
2014-08-01,11.95,12.2,11.91,12.1,11120600
2014-08-04,12.05,12.32,12.05,12.16,6481400
2014-08-05,12.16,12.26,12.08,12.14,8771500
2014-08-06,12.24,12.24,12.03,12.1,7187700
2014-08-07,11.99,12.07,11.68,11.74,17355900
2014-08-08,11.72,11.74,11.45,11.58,13980900
2014-08-11,11.7,11.97,11.68,11.87,7517500
2014-08-12,11.91,11.95,11.72,11.91,8220900
2014-08-13,12.01,12.26,11.89,12.24,14372400
2014-08-14,12.2,12.47,12.16,12.32,15103200
2014-08-15,12.41,12.43,12.18,12.33,10188900
2014-08-18,12.16,12.3,12.07,12.14,7083800
2014-08-19,12.05,12.12,11.85,11.91,21434300
2014-08-20,12.14,12.24,12.07,12.12,18060900
2014-08-21,12.24,12.26,11.8,11.93,22166200
2014-08-22,11.91,12.35,11.91,12.33,17429200
2014-08-25,12.33,12.66,12.2,12.45,24174800
2014-08-26,12.58,12.7,12.49,12.57,20018700
2014-08-27,12.66,12.89,12.58,12.72,23361700
2014-08-28,12.62,12.83,12.32,12.37,19479200
2014-08-29,12.39,12.55,12.24,12.37,11932500
2014-09-01,12.37,12.7,12.3,12.57,15671500
2014-09-02,12.68,12.99,12.58,12.95,27433200
2014-09-03,12.99,13.6,12.95,13.6,43966500
2014-09-04,13.68,14.09,13.64,14.05,29418500
2014-09-05,14.1,14.34,14.05,14.3,36645900
2014-09-08,14.2,14.32,14.05,14.1,16097500
2014-09-10,14.03,14.03,13.47,13.47,25816900
2014-09-11,13.47,13.74,13.41,13.55,18618800
2014-09-12,13.43,13.76,13.43,13.6,13764900
2014-09-15,13.62,13.62,13.28,13.34,10172500
2014-09-16,13.34,13.47,13.16,13.18,8171200
2014-09-17,13.45,13.62,13.39,13.45,9291600
2014-09-18,13.3,13.55,13.24,13.51,12153200
2014-09-19,13.64,13.76,13.45,13.59,32046300
2014-09-22,13.57,13.62,13.3,13.41,18690600
2014-09-23,13.41,13.89,13.3,13.59,20212100
2014-09-24,13.68,13.68,13.32,13.47,17557400
2014-09-25,13.55,13.66,13.35,13.43,17218000
2014-09-26,13.39,13.6,13.26,13.59,11603400
2014-09-29,13.41,14.05,13.41,13.93,31283800
2014-09-30,13.85,13.85,13.01,13.24,25139600
2014-10-03,13.41,13.87,13.28,13.8,21082000
2014-10-06,13.74,14.05,13.6,13.95,11359800
2014-10-07,13.95,14.05,13.68,13.76,9217100
2014-10-08,13.68,14.16,13.62,14.1,11517800
2014-10-09,14.14,14.39,14.07,14.18,12721200
2014-10-10,13.95,14.09,13.74,13.97,14073300
2014-10-13,13.87,13.91,13.47,13.64,10346600
2014-10-14,13.34,13.72,13.34,13.51,9605000
2014-10-15,13.57,13.95,13.51,13.53,14378100
2014-10-16,13.41,13.64,13.26,13.28,14656100
2014-10-17,13.28,13.47,13.05,13.24,34841800
2014-10-20,13.43,13.51,13.07,13.1,15309300
2014-10-21,13.03,13.24,12.89,13.03,12973500
2014-10-22,13.16,13.24,12.93,13.03,15203900
2014-10-23,12.97,13.26,12.87,12.97,8572900
2014-10-24,12.85,13.16,12.85,12.97,7205800
2014-10-27,13.07,13.07,12.82,12.93,10928900
2014-10-28,13.05,13.39,12.93,13.34,17938700
2014-10-29,13.55,13.76,13.55,13.6,18845900
2014-10-30,13.49,13.57,13.32,13.39,11793900
2014-10-31,13.59,13.8,13.07,13.68,12947400
2014-11-03,13.66,14.01,13.53,13.6,7366200
2014-11-04,13.72,13.76,13.53,13.64,8758500
2014-11-05,13.3,13.32,13.03,13.3,30156300
2014-11-06,13.39,13.39,13.07,13.1,17032600
2014-11-07,13.26,13.72,13.07,13.26,25151100
2014-11-10,13.94,13.98,13.5,13.56,16405300
2014-11-11,13.72,13.9,13.62,13.7,11611400
2014-11-12,13.58,13.94,13.58,13.84,15763000
2014-11-13,13.62,14.06,13.6,13.92,16562700
2014-11-14,13.88,14.18,13.82,13.9,13208300
2014-11-17,14.2,14.3,13.62,13.68,10891600
2014-11-18,13.82,13.92,13.42,13.56,15269500
2014-11-19,13.56,13.74,13.46,13.5,15253100
2014-11-20,13.42,13.62,13.14,13.62,21055000
2014-11-21,13.62,13.72,13.44,13.58,31584500
2014-11-24,14.0,14.3,13.84,14.28,38534100
2014-11-25,14.36,14.56,14.16,14.5,34611500
2014-11-26,14.6,15.2,14.2,15.12,41240800
2014-11-27,15.28,15.56,15.0,15.18,30064700
2014-11-28,15.18,15.74,15.1,15.62,24204300
2014-12-01,15.4,15.6,15.18,15.34,21556400
2014-12-02,15.16,15.78,15.0,15.44,23449800
2014-12-03,15.78,16.24,15.3,15.38,36123400
2014-12-04,15.72,15.92,15.24,15.86,25450300
2014-12-05,15.82,15.86,15.24,15.62,33856900
2014-12-08,15.64,16.12,15.3,15.84,22540500
2014-12-09,15.8,16.0,15.12,15.16,22283300
2014-12-10,14.92,15.18,14.9,15.0,22721000
2014-12-11,14.7,15.16,14.7,14.94,15436600
2014-12-12,15.02,15.04,14.72,14.82,16212400
2014-12-15,14.6,15.04,14.58,15.02,12196300
2014-12-16,14.9,15.16,14.9,14.98,16846400
2014-12-17,14.88,15.1,14.52,14.6,17495800
2014-12-18,14.98,15.1,14.78,14.98,14271100
2014-12-19,15.0,15.36,14.94,15.04,12314400
2014-12-22,15.1,16.14,15.1,15.76,19774500
2014-12-23,15.62,16.0,15.5,15.54,11235000
2014-12-24,15.7,15.74,15.28,15.36,3833800
2014-12-29,16.0,16.0,15.6,15.84,12584300
2014-12-30,15.98,15.98,15.12,15.22,18573100
2014-12-31,15.0,15.26,15.0,15.08,12036700
2015-01-02,15.1,15.4,14.9,15.28,20654900
2015-01-05,15.1,15.4,15.02,15.04,18353700
2015-01-06,14.74,15.04,14.6,14.68,26836400
2015-01-07,14.66,14.94,14.52,14.68,15474200
2015-01-08,14.88,14.98,14.7,14.88,14271100
2015-01-09,15.08,15.48,14.9,15.04,14129900
2015-01-12,15.06,15.14,14.9,15.08,9512000
2015-01-13,15.1,15.32,15.02,15.28,7838000
2015-01-14,15.3,15.34,15.04,15.08,8977000
2015-01-15,15.3,15.48,14.94,15.38,10579500
2015-01-16,15.3,15.3,14.82,15.0,16752100
2015-01-17,14.22,14.22,14.22,14.22,0
2015-01-19,14.66,14.84,14.26,14.36,29132800
2015-01-20,14.64,15.2,14.6,15.0,13979400
2015-01-21,15.0,15.26,14.82,15.16,13755800
2015-01-22,15.28,15.36,14.92,14.94,17932300
2015-01-23,15.32,15.78,15.22,15.76,31223200
2015-01-26,15.62,15.7,15.4,15.62,10692400
2015-01-27,15.72,15.96,15.52,15.58,16753400
2015-01-28,15.58,15.58,15.06,15.1,17728400
2015-01-29,14.96,15.18,14.92,15.06,19129900
2015-01-30,15.08,15.24,15.08,15.2,10658700
2015-02-02,15.18,15.34,14.84,14.96,8842900
2015-02-03,15.0,15.26,14.9,15.22,13722900
2015-02-04,15.6,15.6,15.02,15.1,14946600
2015-02-05,15.46,15.6,15.26,15.44,20073800
2015-02-06,15.4,15.54,15.2,15.42,12462700
2015-02-09,15.3,15.34,15.0,15.0,10319300
2015-02-10,14.9,15.08,14.86,14.86,10759200
2015-02-11,14.96,15.22,14.94,15.14,8654600
2015-02-12,14.94,15.3,14.9,15.22,15235500
2015-02-13,15.38,16.0,15.26,15.96,23689000
2015-02-16,15.32,15.96,15.32,15.82,10120200
2015-02-17,15.8,15.96,15.58,15.7,8821400
2015-02-18,15.82,15.94,15.74,15.9,3163600
2015-02-23,15.96,15.96,15.74,15.78,6308500
2015-02-24,15.78,15.96,15.7,15.92,7951500
2015-02-25,15.98,16.42,15.9,16.4,20551000
2015-02-26,16.5,16.8,16.18,16.8,20156600
2015-02-27,16.96,16.96,16.5,16.62,15241800
2015-03-02,16.9,17.06,16.62,16.94,20076300
2015-03-03,17.0,17.0,16.22,16.42,12879100
2015-03-04,16.3,16.4,15.74,15.82,13236300
2015-03-05,15.72,16.12,15.42,15.52,18326300
2015-03-06,15.5,15.86,15.5,15.84,11027000
2015-03-09,16.04,16.12,15.62,15.88,8644000
2015-03-10,15.74,15.92,15.08,15.12,24394300
2015-03-11,15.12,15.4,15.0,15.1,21965100
2015-03-12,15.28,15.38,15.14,15.22,13707900
2015-03-13,15.38,15.58,15.3,15.48,14039700
2015-03-16,15.3,15.5,15.2,15.36,14238600
2015-03-17,15.46,15.72,15.46,15.66,14727500
2015-03-18,15.8,16.2,15.72,16.08,23052600
2015-03-19,16.26,16.4,16.04,16.28,16247500
2015-03-20,16.42,16.44,16.06,16.32,12521600
2015-03-23,16.76,16.76,15.82,15.9,16774100
2015-03-24,15.9,15.96,15.62,15.66,15544500
2015-03-25,15.86,15.98,15.58,15.92,17823200
2015-03-26,15.92,15.92,15.62,15.66,8138700
2015-03-27,15.9,15.9,15.38,15.74,12522300
2015-03-30,16.32,16.34,15.4,15.8,38759000
2015-03-31,15.26,15.48,15.26,15.32,374809600
2015-04-01,15.4,15.78,15.34,15.7,44975100
2015-04-02,15.8,15.84,15.46,15.56,41079800
2015-04-08,15.88,16.7,15.8,16.68,60897200
2015-04-09,17.48,18.16,16.52,16.88,58837100
2015-04-10,17.5,17.6,17.04,17.58,70147904
2015-04-13,17.5,18.48,17.46,18.0,58930900
2015-04-14,17.6,18.32,17.6,18.0,43524900
2015-04-15,17.74,17.98,17.3,17.48,30904800
2015-04-16,17.4,18.08,17.22,18.04,26612700
2015-04-17,18.34,18.7,17.8,17.92,29361800
2015-04-20,17.7,17.88,16.68,16.86,46484500
2015-04-21,16.86,17.62,16.86,17.5,25165500
2015-04-22,17.7,17.88,17.4,17.78,18859100
2015-04-23,17.98,17.98,17.36,17.56,20650800
2015-04-24,17.62,17.84,17.22,17.62,23787800
2015-04-27,17.82,17.92,17.42,17.9,21749100
2015-04-28,17.94,18.0,17.42,17.66,23665600
2015-04-29,17.7,17.78,17.22,17.38,23687600
2015-04-30,17.5,17.56,16.96,17.24,21418600
2015-05-04,17.48,17.58,17.3,17.46,21713000
2015-05-05,17.78,17.78,17.1,17.22,19984200
2015-05-06,16.88,17.68,16.88,17.2,24408300
2015-05-07,17.34,17.34,16.88,16.96,15200000
2015-05-08,17.22,17.8,17.2,17.74,24759400
2015-05-11,17.88,18.0,17.6,17.82,13761800
2015-05-12,17.9,17.94,17.34,17.36,12954800
2015-05-13,17.3,17.64,17.16,17.3,12777600
2015-05-14,17.22,17.46,17.14,17.26,9914900
2015-05-15,17.38,17.9,17.28,17.84,17533700
2015-05-18,17.7,17.96,17.64,17.94,20352500
2015-05-19,17.98,18.5,17.94,18.44,20568900
2015-05-20,18.5,19.06,18.42,18.84,26157300
2015-05-21,18.6,18.92,18.5,18.6,12486900
2015-05-22,18.78,19.08,18.68,18.98,14536200
2015-05-26,20.0,20.15,19.54,19.76,19544700
2015-05-27,19.62,19.96,19.26,19.4,22043800
2015-05-28,19.66,19.66,17.98,18.26,41254600
2015-05-29,18.38,18.38,17.74,17.78,36593900
2015-06-01,17.9,18.38,17.64,18.24,19383900
2015-06-02,18.42,18.54,17.96,18.32,15797900
2015-06-03,18.54,18.56,17.88,18.02,15844500
2015-06-04,17.74,18.48,17.74,18.02,19646900
2015-06-05,17.88,18.24,17.42,17.56,37782300
2015-06-08,17.46,17.98,17.46,17.72,14621900
2015-06-09,17.92,17.92,17.28,17.38,14037400
2015-06-10,17.26,17.96,17.12,17.34,21072800
2015-06-11,17.82,18.42,17.82,18.22,27108300
2015-06-12,18.3,18.56,18.14,18.48,22324300
2015-06-15,18.14,18.36,17.72,17.82,11297100
2015-06-16,17.58,17.98,17.24,17.32,16820300
2015-06-17,17.32,17.6,17.14,17.4,15637900
2015-06-18,17.4,17.58,17.14,17.18,11106400
2015-06-19,17.42,17.88,17.2,17.38,21129000
2015-06-22,17.54,18.24,17.46,18.0,13873700
2015-06-23,18.2,18.56,18.2,18.24,21933800
2015-06-24,18.4,18.5,18.12,18.44,22438300
2015-06-25,18.64,18.84,18.28,18.34,28835800
2015-06-26,17.9,18.34,17.6,17.7,23081600
2015-06-29,17.8,17.92,16.82,17.22,26499100
2015-06-30,17.36,17.8,17.3,17.66,22609500
2015-07-02,18.18,18.18,17.4,17.66,32329000
2015-07-03,17.52,17.64,16.9,17.26,25930100
2015-07-06,17.26,17.52,16.32,17.16,39826700
2015-07-07,17.16,17.18,15.26,15.36,57050100
2015-07-08,14.52,15.46,14.42,14.72,76947400
2015-07-09,14.5,16.38,14.5,15.34,50550900
2015-07-10,15.64,16.7,15.5,16.5,46375200
2015-07-13,16.5,17.1,16.32,16.72,23252400
2015-07-14,16.4,16.56,15.72,16.1,36123300
2015-07-15,16.22,16.22,15.54,15.64,27582900
2015-07-16,15.42,15.98,15.22,15.96,27890300
2015-07-17,15.88,16.36,15.82,16.0,19066600
2015-07-20,16.0,16.2,15.56,15.72,14689300
2015-07-21,15.86,16.02,15.6,15.84,14402700
2015-07-22,15.52,15.92,15.52,15.72,17600200
2015-07-23,15.8,16.24,15.58,16.18,19013900
2015-07-24,16.04,16.2,15.82,16.04,16497800
2015-07-27,15.96,15.96,15.58,15.76,29847500
2015-07-28,15.96,16.3,15.54,15.72,23408400
2015-07-29,15.9,16.28,15.7,16.2,18082400
2015-07-30,16.28,16.4,16.06,16.16,19867600
2015-07-31,16.28,16.38,16.04,16.14,16845500
2015-08-03,16.0,16.24,15.52,15.72,18078200
2015-08-04,15.72,15.96,15.6,15.8,16821800
2015-08-05,15.86,15.96,15.68,15.7,9544300
2015-08-06,15.92,15.92,15.6,15.66,16414700
2015-08-07,15.62,15.96,15.62,15.72,15919400
2015-08-10,15.96,16.88,15.8,16.68,27688000
2015-08-11,17.24,17.46,17.0,17.2,30169000
2015-08-12,16.68,16.92,16.42,16.7,25128100
2015-08-13,16.94,17.1,16.4,16.44,28499000
2015-08-14,16.44,16.74,16.38,16.48,14123200
2015-08-17,16.3,16.5,15.92,16.16,28388200
2015-08-18,16.2,16.7,15.92,16.02,20644100
2015-08-19,15.9,16.38,15.9,16.16,25210000
2015-08-20,16.16,16.16,15.62,15.84,22428900
2015-08-21,15.34,15.66,15.14,15.3,31492900
2015-08-24,15.46,15.46,14.04,14.58,38272400
2015-08-25,14.28,15.34,13.98,14.82,34968600
2015-08-26,14.62,15.54,14.4,14.58,26348900
2015-08-27,15.3,15.8,14.9,15.64,30442400
2015-08-28,16.02,16.1,15.32,15.34,17998100
2015-08-31,15.34,15.5,14.34,14.72,41709000
2015-09-01,14.64,14.64,14.08,14.26,32532200
2015-09-02,14.0,14.94,13.92,14.32,26459900
2015-09-04,14.6,14.7,14.0,14.26,18265500
2015-09-07,14.36,14.82,14.26,14.32,12050700
2015-09-08,14.48,15.2,14.16,15.16,23009700
2015-09-09,15.5,15.92,15.44,15.68,34110300
2015-09-10,15.22,15.76,15.04,15.64,21889800
2015-09-11,15.8,15.88,15.36,15.46,16920100
2015-09-14,15.6,15.7,15.1,15.2,17177600
2015-09-15,15.2,15.26,14.68,14.84,28188200
2015-09-16,14.98,15.38,14.72,15.04,27794200
2015-09-17,15.1,15.8,15.1,15.5,23557900
2015-09-18,15.34,15.82,15.34,15.72,12536900
2015-09-21,15.18,15.72,15.18,15.6,11142400
2015-09-22,15.58,15.9,15.44,15.52,9949400
2015-09-23,15.24,15.36,14.8,15.08,21604700
2015-09-24,15.08,15.42,15.06,15.26,10392400
2015-09-25,15.32,15.5,15.0,15.36,13434800
2015-09-29,14.8,15.1,14.54,14.8,24016000
2015-09-30,15.06,15.18,14.86,15.06,27812600
2015-10-02,15.3,15.9,15.02,15.74,29018000
2015-10-05,15.82,16.58,15.82,16.56,20155300
2015-10-06,16.98,17.0,16.46,16.66,14800200
2015-10-07,16.78,17.0,16.56,16.96,21236300
2015-10-08,17.0,17.18,16.68,16.92,12162400
2015-10-09,17.2,17.66,17.2,17.48,26684300
2015-10-12,17.6,17.88,17.42,17.5,14691000
2015-10-13,17.98,17.98,16.8,17.02,16247500
2015-10-14,17.06,17.46,16.8,17.2,14546300
2015-10-15,17.56,17.82,17.32,17.7,14117100
2015-10-16,17.96,17.96,17.32,17.62,18502000
2015-10-19,17.58,17.9,17.42,17.88,7684700
2015-10-20,17.76,17.98,17.62,17.8,10388200
2015-10-22,17.6,17.8,17.4,17.52,14355400
2015-10-23,17.9,17.9,17.68,17.82,15271300
2015-10-26,17.96,18.04,17.72,17.94,16440500
2015-10-27,17.88,17.94,17.42,17.68,14029600
2015-10-28,17.7,17.8,17.34,17.58,19319400
2015-10-29,17.78,17.8,17.12,17.48,21497300
2015-10-30,17.74,17.86,17.5,17.7,11866600
2015-11-02,17.54,17.98,17.46,17.72,15923600
2015-11-03,17.92,17.96,17.6,17.76,13215900
2015-11-04,17.62,18.08,17.56,17.62,24255900
2015-11-05,17.64,18.16,17.6,18.0,24263800
2015-11-06,18.0,18.0,17.82,17.96,8079300
2015-11-09,17.96,18.06,17.64,17.74,14147800
2015-11-10,17.5,17.84,17.42,17.56,9649000
2015-11-11,17.58,17.7,17.14,17.24,12797100
2015-11-12,17.38,17.86,17.38,17.68,10291200
2015-11-13,17.22,17.44,17.22,17.38,11010400
2015-11-16,17.08,17.48,16.84,17.2,10644800
2015-11-17,17.52,17.72,17.3,17.32,9526100
2015-11-18,17.44,17.58,17.1,17.38,9190300
2015-11-19,17.46,17.66,17.34,17.42,12486400
2015-11-20,17.5,17.6,17.26,17.42,11575400
2015-11-23,17.52,17.66,17.32,17.34,9696200
2015-11-24,17.46,17.46,17.16,17.2,9889400
2015-11-25,17.28,17.44,17.08,17.3,11278100
2015-11-26,17.4,17.52,17.16,17.28,8432200
2015-11-27,17.46,17.46,16.86,16.9,17184300
2015-11-30,17.1,17.1,16.72,16.82,29793000
2015-12-01,17.38,17.44,17.04,17.34,16000500
2015-12-02,17.08,17.48,17.02,17.3,13690900
2015-12-03,17.3,17.58,17.26,17.4,13182700
2015-12-04,17.24,17.3,16.98,17.02,16560700
2015-12-07,17.4,17.4,17.1,17.12,11248500
2015-12-08,16.0,16.14,15.82,16.12,432610112
2015-12-09,15.92,16.12,15.92,16.0,23088800
2015-12-10,15.92,16.14,15.92,16.02,21242100
2015-12-11,16.04,16.12,15.3,15.38,21937100
2015-12-14,14.7,15.52,14.7,15.48,26895100
2015-12-15,15.56,15.9,15.44,15.78,19190500
2015-12-16,16.08,16.18,15.9,16.0,40154900
2015-12-17,16.32,16.44,16.14,16.34,19677600
2015-12-18,16.32,16.34,16.08,16.2,16748900
2015-12-21,16.2,16.48,16.14,16.36,13605800
2015-12-22,16.48,16.48,16.24,16.38,7103000
2015-12-23,16.46,16.76,16.4,16.6,14330800
2015-12-24,16.76,16.76,16.5,16.72,4217900
2015-12-28,16.74,16.74,16.18,16.22,5607000
2015-12-29,16.0,16.2,15.76,15.94,15539900
2015-12-30,15.92,15.94,15.4,15.6,28357300
2015-12-31,15.44,15.56,15.36,15.42,11243000
2016-01-04,15.26,15.3,14.8,14.92,16443400
2016-01-05,15.12,15.14,14.7,14.86,16547000
2016-01-06,14.88,15.04,14.74,14.84,24210500
2016-01-07,14.6,14.7,14.24,14.48,26228500
2016-01-08,14.6,14.78,14.44,14.6,19015000
2016-01-11,14.02,14.18,13.52,13.62,32677400
2016-01-12,13.68,13.8,13.52,13.66,18245000
2016-01-13,13.86,13.96,13.4,13.52,29652500
2016-01-14,13.1,13.4,13.02,13.34,24388900
2016-01-15,13.24,13.6,13.08,13.24,14124900
2016-01-18,13.18,13.34,12.92,13.14,16961400
2016-01-19,13.22,13.8,13.12,13.68,24668600
2016-01-20,13.3,13.3,12.66,12.84,21563000
2016-01-21,13.02,13.16,12.54,12.6,15386000
2016-01-22,13.22,13.32,12.78,13.22,22027300
2016-01-25,13.68,13.68,13.28,13.42,22761900
2016-01-26,13.28,13.28,12.74,12.88,20898800
2016-01-27,13.26,13.32,12.92,13.08,20386100
2016-01-28,13.2,13.32,12.92,13.14,16531100
2016-01-29,13.12,13.16,12.74,13.14,24594200
2016-02-01,13.24,13.24,12.76,12.88,16195600
2016-02-02,12.9,12.96,12.68,12.74,12038200
2016-02-03,12.3,12.56,12.2,12.38,24781400
2016-02-04,12.56,12.58,12.28,12.44,14784700
2016-02-05,12.38,12.56,12.12,12.16,20202900
2016-02-11,11.24,11.9,11.2,11.88,24989000
2016-02-12,11.74,11.78,11.28,11.32,16861500
2016-02-15,11.6,12.26,11.5,12.22,14632300
2016-02-16,12.24,12.6,12.24,12.34,15854200
2016-02-17,12.4,12.7,12.14,12.2,22733900
2016-02-18,12.52,12.68,12.38,12.46,15857500
2016-02-19,12.26,12.54,12.14,12.5,12470700
2016-02-22,12.8,12.88,12.52,12.68,20633600
2016-02-23,12.64,12.64,11.86,11.96,39527200
2016-02-24,11.88,11.98,11.52,11.62,31193000
2016-02-25,11.66,11.94,11.5,11.56,16120100
2016-02-26,11.9,12.14,11.8,12.02,22550600
2016-02-29,12.0,12.1,11.54,11.74,18025200
2016-03-01,12.16,12.24,11.82,12.18,25693400
2016-03-02,12.66,12.86,12.54,12.74,31741500
2016-03-03,12.98,12.98,12.62,12.8,15988500
2016-03-04,12.94,13.06,12.72,13.02,18161400
2016-03-07,13.0,13.14,12.8,12.92,14345400
2016-03-08,12.76,12.9,12.52,12.64,21955000
2016-03-09,12.64,12.82,12.52,12.78,16174300
2016-03-10,12.98,13.18,12.88,13.0,25758000
2016-03-11,13.18,13.68,12.96,13.44,67877504
2016-03-14,13.9,13.9,13.38,13.42,20471800
2016-03-15,13.48,13.7,13.36,13.4,15363400
2016-03-16,13.36,13.52,13.2,13.3,11871900
2016-03-17,13.66,13.72,13.44,13.62,15948100
2016-03-18,13.5,13.76,13.4,13.68,39929100
2016-03-21,13.64,13.78,13.5,13.56,22297100
2016-03-22,13.52,13.66,13.44,13.58,12021600
2016-03-23,13.62,13.66,13.32,13.44,12619500
2016-03-24,13.32,13.4,13.02,13.06,15229900
2016-03-29,13.34,13.78,13.16,13.76,20798800
2016-03-30,13.82,14.34,13.82,14.3,31163000
2016-03-31,14.24,14.4,14.08,14.22,21429200
2016-04-01,14.18,14.22,13.82,14.0,17577400
2016-04-05,14.0,14.0,13.46,13.7,20614000
2016-04-06,13.5,13.68,13.48,13.58,11564100
2016-04-07,13.76,13.84,13.4,13.54,14993300
2016-04-08,13.6,13.8,13.32,13.54,19770000
2016-04-11,13.26,13.74,13.22,13.72,18098900
2016-04-12,13.76,13.94,13.62,13.8,16523100
2016-04-13,14.2,14.36,13.88,14.3,38338700
2016-04-14,14.68,14.68,14.3,14.4,50251200
2016-04-15,14.6,14.6,14.38,14.52,26972500
2016-04-18,14.64,14.64,14.0,14.12,21065100
2016-04-19,14.34,14.62,14.34,14.5,22743100
2016-04-20,14.64,14.76,14.44,14.62,32084400
2016-04-21,14.7,14.8,14.56,14.72,12612100
2016-04-22,14.44,14.68,14.34,14.46,12170600
2016-04-25,14.44,14.46,14.24,14.36,9702100
2016-04-26,14.3,14.44,14.1,14.42,15328700
2016-04-27,14.44,14.64,14.34,14.54,17612200
2016-04-28,14.6,14.68,14.34,14.54,23347200
2016-04-29,14.34,14.44,14.14,14.2,14791600
2016-05-03,13.38,13.48,13.26,13.36,878774272
2016-05-04,13.46,13.48,13.32,13.42,57791800
2016-05-05,13.5,13.56,13.34,13.5,45197300
2016-05-06,13.52,13.62,13.42,13.46,47624000
2016-05-09,13.58,13.6,13.38,13.44,36465100
2016-05-10,13.4,13.58,13.14,13.3,85732304
2016-05-11,13.42,13.42,13.2,13.36,76173904
2016-05-12,13.38,13.48,13.24,13.26,24110000
2016-05-13,13.2,13.32,12.88,13.0,31365400
2016-05-16,13.14,13.42,12.78,13.18,35061900
2016-05-17,13.42,13.44,13.22,13.4,18705400
2016-05-18,13.4,13.42,13.08,13.24,17328600
2016-05-19,13.1,13.48,13.1,13.44,24242300
2016-05-20,13.52,13.54,13.42,13.5,18028600
2016-05-23,13.5,13.62,13.32,13.4,12286200
2016-05-24,13.32,13.52,13.32,13.48,19879000
2016-05-25,13.66,13.98,13.6,13.76,31049400
2016-05-26,13.7,13.8,13.56,13.78,14303300
2016-05-27,13.84,14.02,13.78,13.92,24479800
2016-05-30,13.9,14.02,13.74,13.92,17232500
2016-05-31,9.27,9.52,9.25,9.45,48563600
2016-06-01,9.45,9.57,9.4,9.48,27310300
2016-06-02,9.45,9.52,9.29,9.35,30640000
2016-06-03,9.43,9.51,9.36,9.41,23054400
2016-06-06,9.37,9.52,9.33,9.51,15257100
2016-06-07,9.59,9.67,9.52,9.61,39648300
2016-06-08,9.79,9.79,9.55,9.59,26740700
2016-06-10,9.57,9.6,9.33,9.35,26394200
2016-06-13,9.09,9.17,9.03,9.15,28602800
2016-06-14,9.07,9.24,9.03,9.15,18695200
2016-06-15,9.0,9.31,9.0,9.21,17532900
2016-06-16,9.08,9.12,8.84,8.92,28456200
2016-06-17,9.0,9.04,8.83,8.95,21882300
2016-06-20,9.05,9.11,8.91,9.11,21859300
2016-06-21,9.05,9.25,9.05,9.24,18635900
2016-06-22,9.15,9.32,9.15,9.27,15902900
2016-06-23,9.27,9.32,9.13,9.27,14661000
2016-06-24,8.8,9.07,8.41,8.57,107869200
2016-06-27,8.43,8.47,8.25,8.4,62457600
2016-06-28,8.19,8.27,8.01,8.24,69931696
2016-06-29,8.07,8.19,8.03,8.15,35126500
2016-06-30,8.25,8.27,8.01,8.08,61885100
2016-07-04,8.08,8.13,7.96,8.01,47470800
2016-07-05,7.99,8.09,7.88,7.95,41836600
2016-07-06,7.79,7.81,7.55,7.57,89671904
2016-07-07,7.63,7.91,7.63,7.89,50374800
2016-07-08,7.76,7.81,7.6,7.8,36389700
2016-07-11,7.96,8.01,7.84,7.88,46088400
2016-07-12,7.89,8.13,7.88,8.09,52587200
2016-07-13,8.15,8.23,8.05,8.13,40435900
2016-07-14,8.04,8.08,7.92,8.04,47841500
2016-07-15,8.05,8.29,8.01,8.29,100457400
2016-07-18,8.29,8.36,8.2,8.28,39845200
2016-07-19,8.35,8.35,8.2,8.27,51076100
2016-07-20,8.23,8.32,8.23,8.27,19697700
2016-07-21,8.27,8.32,8.2,8.23,18159600
2016-07-22,8.2,8.23,8.13,8.16,21100200
2016-07-25,8.27,8.27,8.05,8.13,23892400
2016-07-26,8.08,8.16,7.96,8.05,40175200
2016-07-27,8.07,8.19,8.03,8.07,31175000
2016-07-28,8.01,8.13,8.0,8.13,17522900
2016-07-29,8.04,8.11,8.0,8.01,23874700
2016-08-01,8.07,8.25,8.05,8.2,41298000
2016-08-03,8.07,8.13,8.07,8.11,23636700
2016-08-04,8.15,8.15,8.03,8.08,15362100
2016-08-05,8.07,8.21,8.07,8.15,35169200
2016-08-08,8.19,8.41,8.16,8.4,43571900
2016-08-09,8.35,8.43,8.28,8.32,30130000
2016-08-10,8.33,8.39,8.24,8.27,25290000
2016-08-11,8.39,8.47,8.24,8.37,51422500
2016-08-12,8.44,8.64,8.4,8.6,66310300
2016-08-15,8.6,8.91,8.55,8.84,74136800
2016-08-16,9.03,9.11,8.8,8.89,63683600
2016-08-17,8.92,9.07,8.85,8.87,54498700
2016-08-18,8.93,9.07,8.87,8.92,51565500
2016-08-19,8.89,8.89,8.56,8.68,51874700
2016-08-22,8.64,8.73,8.37,8.47,48197800
2016-08-23,8.48,8.57,8.43,8.55,21821800
2016-08-24,8.52,8.55,8.27,8.33,36172400
2016-08-25,8.36,8.48,8.29,8.41,29846300
2016-08-26,8.35,8.57,8.35,8.52,25308800
2016-08-29,8.52,8.56,8.32,8.45,36774700
2016-08-30,8.49,8.77,8.47,8.72,55101400
2016-08-31,8.76,8.76,8.52,8.55,36086100
2016-09-01,8.49,8.72,8.47,8.69,35488300
2016-09-02,8.73,9.04,8.72,8.97,114706800
2016-09-05,9.17,9.28,9.12,9.23,262118400
2016-09-06,9.29,9.44,9.17,9.44,57607000
2016-09-07,9.37,9.64,9.37,9.48,55794400
2016-09-08,9.48,9.51,9.29,9.4,44457500
2016-09-09,9.32,9.68,9.32,9.41,67151104
2016-09-12,9.15,9.15,8.87,8.93,80187296
2016-09-13,9.07,9.19,8.83,8.87,39972800
2016-09-14,8.79,8.92,8.76,8.81,34040000
2016-09-15,8.77,8.92,8.75,8.85,31801000
2016-09-19,8.93,9.01,8.87,8.91,38596500
2016-09-20,8.87,8.99,8.83,8.95,28717600
2016-09-21,8.95,9.08,8.88,8.99,23930900
2016-09-22,9.13,9.32,9.01,9.08,46660000
2016-09-23,9.13,9.19,8.95,9.0,29303500
2016-09-26,8.93,9.04,8.8,8.85,27603300
2016-09-27,8.79,8.95,8.76,8.92,25735100
2016-09-28,8.92,8.95,8.76,8.83,21879900
2016-09-29,8.96,8.96,8.77,8.83,21463000
2016-09-30,8.73,8.75,8.56,8.56,36463400
2016-10-03,8.68,8.69,8.49,8.55,39358800
2016-10-04,8.63,8.67,8.56,8.65,22332700
2016-10-05,8.65,8.72,8.55,8.69,21164300
2016-10-06,8.73,8.77,8.67,8.75,35746500
2016-10-07,8.75,8.79,8.69,8.75,20159800
2016-10-11,8.81,8.83,8.47,8.57,36942800
2016-10-12,8.52,8.52,8.36,8.45,27467900
2016-10-13,8.41,8.57,8.4,8.49,33801600
2016-10-14,8.52,8.59,8.44,8.55,24278600
2016-10-17,8.61,8.61,8.43,8.49,12264200
2016-10-18,8.49,8.6,8.45,8.59,34444700
2016-10-19,8.55,8.63,8.49,8.55,14485300
2016-10-20,8.57,8.63,8.53,8.59,19974700
2016-10-24,8.49,8.79,8.49,8.73,36337000
2016-10-25,8.69,8.79,8.65,8.77,26924500
2016-10-26,8.68,8.69,8.6,8.61,18281200
2016-10-27,8.59,8.67,8.4,8.49,36062800
2016-10-28,8.47,8.49,8.31,8.37,29771500
2016-10-31,8.28,8.47,8.19,8.37,20444400
2016-11-01,8.48,8.53,8.35,8.45,26487000
2016-11-02,8.37,8.37,8.25,8.32,19203800
2016-11-03,8.25,8.4,8.2,8.21,23316900
2016-11-04,8.13,8.21,8.13,8.19,22293100
2016-11-07,8.19,8.29,8.17,8.23,29010600
2016-11-08,8.29,8.31,8.2,8.27,27047000
2016-11-09,8.35,8.35,7.75,8.0,77435000
2016-11-10,8.13,8.29,8.12,8.12,28775900
2016-11-11,8.03,8.04,7.87,7.93,48474300
2016-11-14,7.83,7.97,7.81,7.89,37729100
2016-11-15,7.93,8.17,7.88,8.09,41357200
2016-11-16,8.13,8.24,8.12,8.12,32480100
2016-11-17,8.0,8.12,7.88,7.92,65771300
2016-11-18,7.92,8.01,7.89,7.99,16737000
2016-11-21,7.97,8.15,7.84,8.05,53372700
2016-11-22,8.13,8.36,8.13,8.32,67447600
2016-11-23,8.4,8.45,8.21,8.25,68931296
2016-11-24,8.24,8.43,8.2,8.37,36977200
2016-11-25,8.41,8.83,8.41,8.77,98138600
2016-11-28,8.89,9.0,8.79,8.81,63839100
2016-11-29,8.72,8.77,8.63,8.67,51366300
2016-11-30,8.67,8.84,8.63,8.67,50659200
2016-12-01,8.75,8.76,8.61,8.67,38768400
2016-12-02,8.53,8.65,8.49,8.55,43793100
2016-12-05,8.53,8.64,8.41,8.51,28522100
2016-12-06,8.52,8.65,8.52,8.61,21122100
2016-12-07,8.61,8.68,8.55,8.64,29393100
2016-12-08,8.77,8.79,8.67,8.72,39775500
2016-12-09,8.68,8.73,8.63,8.71,31350700
2016-12-12,8.71,8.75,8.48,8.55,30919100
2016-12-13,8.52,8.63,8.48,8.57,30680100
2016-12-14,8.57,8.61,8.51,8.55,20049400
2016-12-15,8.37,8.48,8.2,8.33,48456800
2016-12-16,8.17,8.32,8.15,8.21,48816900
2016-12-19,8.19,8.2,8.08,8.12,27529300
2016-12-20,8.08,8.13,8.0,8.04,31492400
2016-12-21,8.0,8.2,8.0,8.12,25121100
2016-12-22,8.01,8.09,7.96,7.99,29564100
2016-12-23,7.99,8.0,7.87,7.93,18357600
2016-12-28,7.93,8.03,7.93,7.99,20080600
2016-12-29,7.93,7.96,7.87,7.95,19807200
2016-12-30,7.97,8.13,7.96,8.05,17402700
2017-01-03,8.04,8.15,7.95,8.15,26964900
2017-01-04,8.12,8.15,7.97,8.04,28382500
2017-01-05,8.05,8.21,8.04,8.15,25468600
2017-01-06,8.21,8.25,8.07,8.13,21818000
2017-01-09,8.08,8.19,8.0,8.08,22447800
2017-01-10,8.08,8.19,8.07,8.13,32358400
2017-01-11,8.12,8.2,8.09,8.15,47267400
2017-01-12,8.09,8.12,7.99,8.07,61693500
2017-01-13,8.04,8.08,7.99,8.01,27087400
2017-01-16,7.97,8.0,7.81,7.85,44054000
2017-01-17,7.88,7.89,7.8,7.87,33774700
2017-01-18,7.87,7.99,7.81,7.89,53520000
2017-01-19,7.89,7.93,7.77,7.8,50496300
2017-01-20,7.8,7.84,7.75,7.77,34385900
2017-01-23,7.83,7.84,7.75,7.76,49973900
2017-01-24,7.75,7.84,7.67,7.76,236067296
2017-01-25,7.8,7.93,7.79,7.84,120561800
2017-01-26,7.91,7.97,7.88,7.91,73640096
2017-01-27,7.88,7.92,7.84,7.88,11847000
2017-02-01,7.84,7.89,7.75,7.84,35324300
2017-02-02,7.84,7.85,7.76,7.79,27251300
2017-02-03,7.8,7.83,7.75,7.79,21946600
2017-02-06,7.81,8.05,7.8,8.0,114760096
2017-02-07,7.99,8.09,7.95,8.01,74093000
2017-02-08,8.0,8.16,7.89,8.13,73603296
2017-02-09,8.11,8.2,8.09,8.19,71013200
2017-02-10,8.24,8.35,8.17,8.23,82639400
2017-02-13,8.23,8.33,8.2,8.28,33093400
2017-02-14,8.29,8.33,8.13,8.25,37953900
2017-02-15,8.25,8.33,8.16,8.23,64228300
2017-02-16,8.29,8.29,8.17,8.23,64413100
2017-02-17,8.24,8.29,8.13,8.19,28635000
2017-02-20,8.23,8.23,8.08,8.12,35742600
2017-02-21,8.11,8.21,8.01,8.04,47105900
2017-02-22,8.05,8.11,7.93,8.07,61471000
2017-02-23,8.03,8.08,8.0,8.05,33163200
2017-02-24,8.01,8.07,7.96,8.0,31884400
2017-02-27,7.95,8.0,7.92,7.96,35231700
2017-02-28,7.92,7.96,7.88,7.91,30794200
2017-03-01,7.95,7.95,7.87,7.93,22522200
2017-03-02,8.0,8.03,7.88,7.91,45061200
2017-03-03,7.87,7.97,7.84,7.93,26835000
2017-03-06,7.95,8.03,7.93,7.97,38660500
2017-03-07,7.97,8.05,7.96,8.01,38844200
2017-03-08,8.0,8.11,8.0,8.05,64187000
2017-03-09,8.0,8.08,7.95,8.03,80552800
2017-03-10,8.0,8.09,8.0,8.09,47719000
2017-03-13,8.08,8.24,8.0,8.16,47396100
2017-03-14,8.23,8.28,8.15,8.24,52483000
2017-03-15,8.17,8.27,8.17,8.21,38319700
2017-03-16,8.33,8.33,8.23,8.29,51353300
2017-03-17,8.33,8.49,8.33,8.49,94468000
2017-03-20,8.51,8.53,8.43,8.51,30937400
2017-03-21,8.51,8.6,8.44,8.49,38264600
2017-03-22,8.4,8.45,8.31,8.4,51681200
2017-03-23,8.51,8.51,8.32,8.36,32132600
2017-03-24,8.37,8.45,8.28,8.31,33024200
2017-03-27,8.17,8.36,8.12,8.23,51654800
2017-03-28,8.25,8.29,8.15,8.19,54299800
2017-03-29,8.27,8.27,8.12,8.16,48620400
2017-03-30,8.12,8.12,7.91,8.05,59928700
2017-03-31,7.99,8.01,7.95,7.99,35870900
2017-04-03,8.03,8.04,7.93,7.96,27763500
2017-04-05,7.96,8.05,7.95,8.03,82954000
2017-04-06,7.99,8.04,7.96,8.01,93889600
2017-04-07,7.96,7.99,7.88,7.96,77323296
2017-04-10,8.0,8.0,7.89,7.95,30847700
2017-04-11,7.93,7.99,7.87,7.92,45628800
2017-04-12,7.92,7.96,7.87,7.93,32547000
2017-04-13,7.88,7.97,7.87,7.92,34539300
2017-04-18,7.91,7.91,7.75,7.79,45571800
2017-04-19,7.83,7.83,7.69,7.73,34747400
2017-04-20,7.77,7.85,7.72,7.81,40889400
2017-04-21,7.87,7.88,7.75,7.77,41753500
2017-04-24,7.83,7.95,7.76,7.89,70691904
2017-04-25,7.95,8.19,7.93,8.11,88124704
2017-04-26,8.17,8.47,8.17,8.35,159217904
2017-04-27,8.37,8.49,8.35,8.37,85589600
2017-04-28,8.44,8.44,8.24,8.35,48504000
2017-05-02,8.33,8.44,8.24,8.31,44217200
2017-05-04,8.17,8.35,8.17,8.27,44620800
2017-05-05,8.27,8.29,8.13,8.2,48277800
2017-05-08,8.24,8.4,8.13,8.28,46605300
2017-05-09,8.35,8.45,8.29,8.36,32692100
2017-05-10,8.37,8.52,8.36,8.43,54266400
2017-05-11,8.55,8.64,8.48,8.57,55977000
2017-05-12,8.57,8.61,8.51,8.57,62755100
2017-05-15,8.64,8.73,8.56,8.67,34094600
2017-05-16,8.73,8.75,8.6,8.65,30719500
2017-05-17,8.57,8.69,8.57,8.64,45121500
2017-05-18,8.53,8.67,8.49,8.6,45990600
2017-05-19,8.61,8.68,8.56,8.63,38381200
2017-05-22,8.63,8.73,8.63,8.67,29191600
2017-05-23,8.67,8.8,8.64,8.67,23433600
2017-05-24,8.63,8.63,8.39,8.55,45554400
2017-05-25,8.55,8.64,8.51,8.6,47571600
2017-05-26,8.6,8.71,8.57,8.68,42526800
2017-05-29,8.73,8.73,8.67,8.71,12556100
2017-05-31,8.71,8.75,8.64,8.67,29842000
2017-06-01,8.67,8.71,8.59,8.61,28949200
2017-06-02,8.63,8.69,8.61,8.67,26737300
2017-06-05,8.63,8.68,8.49,8.56,36288600
2017-06-06,8.53,8.61,8.48,8.6,21052800
2017-06-07,8.63,8.65,8.48,8.55,28744500
2017-06-08,8.59,8.6,8.47,8.56,25705200
2017-06-09,8.57,8.67,8.49,8.52,26048900
2017-06-12,8.51,8.56,8.31,8.41,40602400
2017-06-13,8.47,8.51,8.37,8.44,14822400
2017-06-14,8.44,8.47,8.35,8.45,30869000
2017-06-15,8.44,8.44,8.32,8.37,37407700
2017-06-16,8.41,8.56,8.37,8.49,43184800
2017-06-19,8.56,8.72,8.55,8.67,38800800
2017-06-20,8.75,8.79,8.67,8.75,37227600
2017-06-21,8.72,8.76,8.6,8.68,30615300
2017-06-22,8.73,8.89,8.68,8.8,38782500
2017-06-23,8.81,8.89,8.75,8.85,21383000
2017-06-26,8.85,8.91,8.79,8.91,27238500
2017-06-27,8.89,8.97,8.88,8.96,38235600
2017-06-28,8.71,8.75,8.63,8.67,44805600
2017-06-29,8.69,8.72,8.63,8.69,28701800
2017-06-30,8.65,8.71,8.52,8.69,32007500
2017-07-03,8.67,8.91,8.67,8.83,37732800
2017-07-04,8.83,8.92,8.76,8.83,46475600
2017-07-05,8.81,9.09,8.8,9.07,55426700
2017-07-06,9.17,9.71,9.16,9.67,114610896
2017-07-07,9.56,9.71,9.48,9.51,40389600
2017-07-10,9.6,9.92,9.59,9.88,83850800
2017-07-11,9.71,10.16,9.71,10.16,79790200
2017-07-12,10.25,10.25,9.93,10.0,86509400
2017-07-13,10.11,10.12,9.88,10.0,91970896
2017-07-14,10.0,10.11,9.92,10.09,39732500
2017-07-17,10.13,10.19,9.95,10.0,65412100
2017-07-18,10.0,10.01,9.81,9.88,61273300
2017-07-19,9.87,10.04,9.87,9.95,41113200
2017-07-20,9.83,10.0,9.76,9.95,35419800
2017-07-21,10.0,10.0,9.81,9.88,27008800
2017-07-24,9.88,10.01,9.75,9.97,24520400
2017-07-25,9.93,10.0,9.85,9.96,16346000
2017-07-26,10.0,10.07,9.89,9.99,20157300
2017-07-27,9.97,10.08,9.8,10.0,27240400
2017-07-28,10.05,10.05,9.56,9.64,60823800
2017-07-31,9.69,9.81,9.61,9.71,31424600
2017-08-01,9.77,10.0,9.73,9.91,32589300
2017-08-02,9.99,10.12,9.96,10.0,47451900
2017-08-03,9.91,9.93,9.71,9.73,27096200
2017-08-04,9.79,9.92,9.73,9.92,36799000
2017-08-07,9.99,10.03,9.75,9.76,25064500
2017-08-08,9.8,9.92,9.71,9.91,31391500
2017-08-09,9.89,9.91,9.67,9.77,33784700
2017-08-10,9.72,9.73,9.45,9.52,48586700
2017-08-11,9.47,9.65,9.39,9.59,63151300
2017-08-14,9.73,9.73,9.55,9.64,39480300
2017-08-15,9.76,10.0,9.75,9.81,38568000
2017-08-16,9.81,9.89,9.67,9.89,22238300
2017-08-17,9.87,9.92,9.71,9.91,34829400
2017-08-18,9.73,9.95,9.68,9.8,36274100
2017-08-21,9.8,9.92,9.75,9.84,27097900
2017-08-22,10.0,10.39,9.93,10.27,82706704
2017-08-24,10.33,10.51,10.33,10.39,46114000
2017-08-25,10.23,10.41,10.13,10.41,29109000
2017-08-28,10.47,10.49,9.96,10.0,56513600
2017-08-29,10.13,10.13,9.92,9.99,30060500
2017-08-30,9.97,10.03,9.79,9.88,27692100
2017-08-31,9.93,9.93,9.71,9.8,33983800
2017-09-01,9.73,9.88,9.73,9.84,26242200
2017-09-04,9.83,9.91,9.76,9.83,24920100
2017-09-05,9.8,9.89,9.61,9.71,24555000
2017-09-06,9.79,9.79,9.44,9.49,39097000
2017-09-07,9.63,9.63,9.37,9.44,33010900
2017-09-08,9.43,9.51,9.33,9.4,36750500
2017-09-11,9.47,9.59,9.37,9.44,22517500
2017-09-12,9.48,9.49,9.35,9.41,30818200
2017-09-13,9.41,9.43,9.29,9.37,38916700
2017-09-14,9.33,9.41,9.19,9.21,64496800
2017-09-15,9.16,9.33,8.96,9.19,65676500
2017-09-18,9.32,9.37,9.24,9.24,35394800
2017-09-19,9.27,9.32,9.12,9.19,25747800
2017-09-20,9.16,9.2,9.01,9.12,46175500
2017-09-21,9.12,9.25,9.07,9.17,33774100
2017-09-22,9.15,9.32,9.09,9.29,40953200
2017-09-25,9.39,9.39,9.08,9.15,51606900
2017-09-26,9.0,9.27,9.0,9.23,24935100
2017-09-27,9.23,9.48,9.21,9.44,45696300
2017-09-28,9.43,9.44,9.15,9.2,26877600
2017-09-29,9.27,9.27,9.11,9.19,22556000
2017-10-03,9.25,9.41,9.15,9.37,35561600
2017-10-04,9.4,9.49,9.27,9.31,18945400
2017-10-06,9.47,9.49,9.29,9.33,24902000
2017-10-09,9.21,9.33,9.2,9.28,23451600
2017-10-10,9.28,9.29,9.17,9.29,18095800
2017-10-11,9.4,9.64,9.37,9.59,90081296
2017-10-12,9.67,10.11,9.67,10.05,110511400
2017-10-13,10.08,10.09,9.89,10.07,57396800
2017-10-16,10.08,10.2,9.97,10.05,42413300
2017-10-17,10.05,10.11,9.93,10.01,29749500
2017-10-18,10.08,10.27,9.93,10.2,42651700
2017-10-19,10.2,10.25,9.84,9.85,34329900
2017-10-20,9.95,9.99,9.84,9.95,18371500
2017-10-23,10.03,10.15,9.92,10.11,32388800
2017-10-24,10.13,10.19,9.93,9.99,32329000
2017-10-25,10.01,10.2,10.0,10.13,29138600
2017-10-26,10.03,10.24,9.99,10.15,24078400
2017-10-27,10.07,10.31,10.07,10.2,32211500
2017-10-30,10.31,10.47,10.08,10.16,33958100
2017-10-31,10.16,10.36,10.09,10.31,60405600
2017-11-01,10.63,11.23,10.45,11.17,123679200
2017-11-02,11.13,11.2,10.85,10.85,52634200
2017-11-03,10.87,11.16,10.87,11.07,51347200
2017-11-06,11.13,11.13,10.79,11.03,48009500
2017-11-07,11.07,11.24,10.93,11.17,37258700
2017-11-08,11.13,11.25,10.95,11.01,28825200
2017-11-09,10.92,11.29,10.92,11.21,53235000
2017-11-10,11.23,11.33,11.05,11.09,30207200
2017-11-13,11.0,11.17,10.81,10.85,39749300
2017-11-14,10.96,10.97,10.43,10.45,61335500
2017-11-15,10.35,10.59,10.15,10.24,62978800
2017-11-16,10.33,10.71,10.28,10.61,58728600
2017-11-17,10.79,10.85,10.41,10.45,32310900
2017-11-20,10.4,10.44,10.09,10.13,43010600
2017-11-21,10.24,10.59,10.2,10.59,47419000
2017-11-22,10.8,10.85,10.36,10.41,43378500
2017-11-23,10.55,10.55,10.08,10.15,43944200
2017-11-24,10.16,10.43,10.16,10.27,21708600
2017-11-27,10.25,10.35,10.2,10.28,25457800
2017-11-28,10.12,10.28,10.01,10.2,20729900
2017-11-29,10.35,10.36,10.05,10.08,21212900
2017-11-30,10.0,10.05,9.81,9.87,69739104
2017-12-01,9.87,9.95,9.68,9.87,36217200
2017-12-04,9.89,10.24,9.89,10.07,31660300
2017-12-05,10.0,10.29,10.0,10.12,25436200
2017-12-06,10.16,10.29,9.73,9.77,64117500
2017-12-07,9.77,9.88,9.55,9.64,37671200
2017-12-08,9.93,10.05,9.83,9.96,39058400
2017-12-11,9.87,10.27,9.87,10.2,27158800
2017-12-12,10.2,10.25,10.01,10.13,34513700
2017-12-13,10.15,10.27,9.95,10.19,21381600
2017-12-14,10.16,10.24,9.93,10.0,37312400
2017-12-15,9.96,9.97,9.71,9.83,34418300
2017-12-18,9.79,9.93,9.61,9.91,22034400
2017-12-19,10.01,10.19,9.96,10.11,36653000
2017-12-20,10.0,10.16,10.0,10.08,12570000
2017-12-21,9.96,10.13,9.88,10.05,22193200
2017-12-22,10.12,10.21,10.04,10.15,19874800
2017-12-27,10.09,10.15,9.92,10.0,18050600
2017-12-28,10.0,10.07,9.91,9.99,29832000
2017-12-29,10.0,10.11,9.95,10.01,13508100
2018-01-02,10.15,10.36,10.04,10.31,34216700
2018-01-03,10.31,10.43,10.23,10.29,32744200
2018-01-04,10.4,10.57,10.23,10.51,37748100
2018-01-05,10.67,10.72,10.52,10.56,41282200
2018-01-08,10.55,10.57,10.29,10.53,52859700
2018-01-09,10.67,10.67,10.4,10.51,25981300
2018-01-10,10.45,10.51,10.35,10.39,53257500
2018-01-11,10.4,10.47,10.28,10.37,17352500
2018-01-12,10.33,10.57,10.33,10.49,20206600
2018-01-15,10.63,10.79,10.49,10.59,44689100
2018-01-16,10.6,10.92,10.6,10.81,35499300
2018-01-17,10.83,10.99,10.76,10.92,36708300
2018-01-18,11.25,11.32,11.03,11.31,73338096
2018-01-19,11.33,11.43,11.07,11.43,37687500
2018-01-22,11.47,11.56,11.24,11.45,35882800
2018-01-23,11.6,11.6,11.4,11.41,46160200
2018-01-24,11.4,11.52,11.31,11.48,49982800
2018-01-25,11.52,11.57,10.97,11.13,37220200
2018-01-26,11.32,11.37,11.2,11.33,33808500
2018-01-29,11.41,11.43,10.96,11.0,33802000
2018-01-30,11.0,11.11,10.67,10.72,40655100
2018-01-31,10.72,10.95,10.65,10.83,48456900
2018-02-01,10.8,10.97,10.76,10.85,28548400
2018-02-02,10.75,11.15,10.64,11.05,27223300
2018-02-05,10.93,10.99,10.65,10.85,29041200
2018-02-06,10.4,10.56,10.29,10.41,50894100
2018-02-07,10.53,10.79,10.2,10.28,48668100
2018-02-08,10.4,10.51,10.17,10.28,28281100
2018-02-09,10.07,10.09,9.75,9.92,58709200
2018-02-12,10.01,10.17,9.85,9.91,39264500
2018-02-13,9.85,10.15,9.81,9.83,27465000
2018-02-14,9.87,10.09,9.87,9.92,48417900
2018-02-15,10.04,10.2,9.88,10.09,21217000
2018-02-20,10.03,10.17,9.91,10.04,22922400
2018-02-21,10.04,10.32,10.0,10.27,20635900
2018-02-22,10.08,10.36,10.07,10.24,46554200
2018-02-23,10.31,10.47,10.27,10.41,21801600
2018-02-26,10.45,10.69,10.45,10.57,30937100
2018-02-27,10.79,10.79,10.35,10.51,33611600
2018-02-28,10.44,10.52,10.29,10.35,34258300
2018-03-01,10.25,10.65,10.19,10.6,31037600
2018-03-02,10.45,10.52,10.28,10.43,44520600
2018-03-05,10.44,10.53,10.16,10.25,24664200
2018-03-06,10.4,10.52,10.25,10.41,28334600
2018-03-07,10.36,10.41,10.11,10.17,26705000
2018-03-08,10.29,10.44,10.24,10.33,17949200
2018-03-09,10.43,10.75,10.33,10.73,26493400
2018-03-12,11.0,11.0,10.8,10.88,37409600
2018-03-13,10.88,10.88,10.69,10.8,22651200
2018-03-14,10.75,10.87,10.6,10.87,17842900
2018-03-15,10.79,11.09,10.68,11.01,27459700
2018-03-16,11.15,11.15,10.83,10.97,48912900
2018-03-19,10.97,11.04,10.76,10.81,25303000
2018-03-20,10.81,10.84,10.69,10.76,22704500
2018-03-21,10.84,10.97,10.51,10.52,34386600
2018-03-22,10.67,10.73,10.47,10.55,27145800
2018-03-23,10.23,10.55,10.23,10.43,78017104
2018-03-26,10.17,10.23,9.89,10.08,81977600
2018-03-27,10.15,10.17,9.84,9.85,70922304
2018-03-28,9.73,9.73,9.21,9.27,111266400
2018-03-29,9.28,9.36,9.13,9.16,71388704
2018-04-03,9.05,9.36,9.05,9.35,46441300
2018-04-04,9.4,9.44,9.08,9.09,38310500
2018-04-06,9.13,9.2,8.92,8.97,38325900
2018-04-09,9.07,9.31,9.01,9.16,39225100
2018-04-10,9.19,9.51,9.16,9.44,50265600
2018-04-11,9.47,9.51,9.29,9.33,39387600
2018-04-12,9.39,9.39,9.2,9.27,29311600
2018-04-13,9.32,9.35,9.21,9.28,17097500
2018-04-16,9.32,9.33,9.0,9.05,31014800
2018-04-17,9.05,9.12,8.87,8.92,27182700
2018-04-18,9.08,9.17,8.89,8.99,24089200
2018-04-19,9.11,9.4,9.05,9.33,95960800
2018-04-20,9.33,9.41,9.13,9.2,38716300
2018-04-23,9.07,9.25,8.95,8.99,33262700
2018-04-24,8.93,9.11,8.93,9.01,53552400
2018-04-25,8.96,9.04,8.87,8.88,35090700
2018-04-26,9.0,9.0,8.52,8.65,68704896
2018-04-27,8.8,8.92,8.71,8.91,48517100
2018-04-30,9.12,9.53,8.96,9.45,52222400
2018-05-02,9.33,9.37,9.21,9.25,40457500
2018-05-03,9.15,9.23,9.03,9.19,52297700
2018-05-04,9.17,9.36,9.15,9.21,44231400
2018-05-07,9.32,9.53,9.23,9.33,39255500
2018-05-08,9.33,9.79,9.28,9.63,51707700
2018-05-09,9.59,9.73,9.47,9.61,31081500
2018-05-10,9.6,9.65,9.48,9.6,21496500
2018-05-11,9.65,9.72,9.56,9.68,32210000
2018-05-14,9.79,9.85,9.75,9.85,27474500
2018-05-15,9.79,9.8,9.57,9.61,25756700
2018-05-16,9.59,9.59,9.36,9.52,37388500
2018-05-17,9.59,9.59,9.36,9.39,16987200
2018-05-18,9.43,9.51,9.37,9.43,12776600
2018-05-21,9.6,9.71,9.45,9.48,39933200
2018-05-23,9.6,9.6,9.23,9.24,40423400
2018-05-24,9.2,9.35,9.16,9.29,13052300
2018-05-25,9.28,9.33,9.15,9.2,24089300
2018-05-28,9.29,9.45,9.13,9.39,24828000
2018-05-29,9.29,9.35,9.16,9.28,35401900
2018-05-30,9.21,9.23,9.0,9.08,36079200
2018-05-31,9.05,9.27,9.0,9.21,49071300
2018-06-01,9.25,9.27,9.08,9.21,59033500
2018-06-04,9.33,9.67,9.27,9.55,57937400
2018-06-05,9.49,9.59,9.44,9.57,40409800
2018-06-06,9.63,9.67,9.49,9.63,32768100
2018-06-07,9.65,9.79,9.55,9.76,32165900
2018-06-08,9.75,9.75,9.48,9.56,30011000
2018-06-11,9.49,9.57,9.37,9.47,42974000
2018-06-12,9.44,9.51,9.36,9.44,45658000
2018-06-13,9.37,9.43,9.28,9.35,30316900
2018-06-14,9.43,9.56,9.25,9.33,47753300
2018-06-15,9.39,9.39,9.23,9.29,36879800
2018-06-19,9.2,9.2,8.85,8.99,50884100
2018-06-20,9.03,9.12,8.89,9.03,26972000
2018-06-21,9.13,9.13,8.8,8.83,34299300
2018-06-22,8.79,8.95,8.68,8.91,29773500
2018-06-25,8.79,9.0,8.79,8.85,37487300
2018-06-26,9.0,9.0,8.69,8.79,49950500
2018-06-27,8.69,8.69,8.21,8.32,40326800
2018-06-28,8.57,8.57,8.19,8.26,39576400
2018-06-29,8.36,8.57,8.28,8.47,43211600
2018-07-03,8.02,8.4,8.02,8.37,41850200
2018-07-04,8.31,8.55,8.07,8.18,41554200
2018-07-05,8.14,8.38,8.13,8.36,52972900
2018-07-06,8.41,8.53,8.22,8.36,38551500
2018-07-09,8.46,8.73,8.39,8.51,33389400
2018-07-10,8.58,8.84,8.53,8.66,51861300
2018-07-11,8.46,8.73,8.46,8.71,67686496
2018-07-12,8.72,9.18,8.62,9.0,67968400
2018-07-13,9.11,9.11,8.92,8.99,34712500
2018-07-16,8.96,9.03,8.78,8.98,27986800
2018-07-17,8.91,8.98,8.73,8.89,28042600
2018-07-18,8.99,8.99,8.56,8.69,39359200
2018-07-19,8.63,8.83,8.63,8.64,14488800
2018-07-20,8.54,8.78,8.51,8.67,29555000
2018-07-23,8.68,8.71,8.52,8.64,23809500
2018-07-24,8.36,8.72,8.36,8.64,55995200
2018-07-25,8.66,8.86,8.62,8.74,56578600
2018-07-26,8.67,8.72,8.51,8.6,43091000
2018-07-27,8.5,8.66,8.5,8.61,34904100
2018-07-30,8.6,8.73,8.53,8.68,41535300
2018-07-31,8.67,8.99,8.63,8.85,79104200
2018-08-01,8.83,9.11,8.83,8.98,53656700
2018-08-02,8.93,9.07,8.88,9.02,89778304
2018-08-03,8.98,9.49,8.98,9.38,84548496
2018-08-06,9.34,9.79,9.29,9.61,88823904
2018-08-07,9.7,9.72,9.46,9.69,57934700
2018-08-08,9.81,10.04,9.68,9.95,73966704
2018-08-09,9.76,10.1,9.75,9.98,64497800
2018-08-10,10.02,10.08,9.94,9.97,45341600
2018-08-13,9.7,9.78,9.51,9.64,53501400
2018-08-14,9.59,9.76,9.57,9.66,39833800
2018-08-15,9.72,9.73,9.25,9.37,41548900
2018-08-16,9.09,9.55,9.06,9.53,36135300
2018-08-17,9.31,9.74,9.31,9.67,43457100
2018-08-20,9.66,9.72,9.38,9.56,35005500
2018-08-21,9.33,9.67,9.33,9.64,30622600
2018-08-22,9.48,9.67,9.4,9.56,24400200
2018-08-23,9.41,9.5,9.18,9.35,45646500
2018-08-24,9.32,9.34,9.14,9.16,30006900
2018-08-27,9.23,9.42,9.16,9.19,39477400
2018-08-28,9.26,9.38,9.2,9.23,34779500
2018-08-29,9.2,9.29,8.95,8.97,45854900
2018-08-30,8.98,9.04,8.84,8.94,19182300
2018-08-31,8.72,8.93,8.72,8.84,32383600
2018-09-03,8.86,8.89,8.76,8.83,12876800
2018-09-04,8.8,8.95,8.75,8.84,21256800
2018-09-05,8.88,8.99,8.68,8.72,21268400
2018-09-06,8.85,8.85,8.5,8.6,29655300
2018-09-07,8.43,8.69,8.43,8.57,37069500
2018-09-10,8.4,8.55,8.31,8.45,22303300
2018-09-11,8.38,8.59,8.38,8.51,21818900
2018-09-12,8.54,8.57,8.39,8.54,23576000
2018-09-13,8.53,8.67,8.53,8.64,31043500
2018-09-14,8.64,8.65,8.5,8.52,34927200
2018-09-17,8.49,8.49,8.36,8.4,20646300
2018-09-18,8.4,8.56,8.32,8.54,31053200
2018-09-19,8.51,8.8,8.51,8.75,23125200
2018-09-20,8.76,8.9,8.76,8.89,19236500
2018-09-21,8.86,9.14,8.86,9.07,29045900
2018-09-24,8.94,9.03,8.71,8.79,15384900
2018-09-26,8.87,9.2,8.8,9.06,31102500
2018-09-27,9.04,9.19,9.04,9.09,10970400
2018-09-28,9.13,9.29,9.11,9.24,26662300
2018-10-02,8.87,9.41,8.87,9.09,20063100
2018-10-03,9.12,9.31,9.01,9.2,12176200
2018-10-04,9.16,9.16,8.9,8.95,19451400
2018-10-05,8.87,8.89,8.78,8.82,16282100
2018-10-08,8.91,8.96,8.74,8.77,21552100
2018-10-09,8.85,8.94,8.71,8.75,19088000
2018-10-10,8.8,8.93,8.77,8.77,19832500
2018-10-11,8.6,8.64,8.43,8.59,24334400
2018-10-12,8.8,9.05,8.71,8.99,27348300
2018-10-15,8.87,9.05,8.73,8.75,27667100
2018-10-16,8.8,8.94,8.64,8.71,19772900
2018-10-18,8.59,8.99,8.59,8.92,38115200
2018-10-19,8.9,9.16,8.79,9.12,33024900
2018-10-22,9.12,9.29,9.12,9.17,38027000
2018-10-23,9.12,9.2,8.97,9.1,25762200
2018-10-24,9.11,9.15,8.57,8.63,62920100
2018-10-25,8.37,8.8,8.33,8.8,27872100
2018-10-26,8.75,8.79,8.52,8.56,16194000
2018-10-29,8.52,8.73,8.52,8.69,26193000
2018-10-30,8.73,8.78,8.6,8.65,30021100
2018-10-31,8.3,8.3,7.52,7.6,151605200
2018-11-01,7.54,7.63,7.31,7.54,88397800
2018-11-02,7.7,7.98,7.66,7.89,54505100
2018-11-05,7.8,7.91,7.75,7.87,34408500
2018-11-06,7.85,7.98,7.82,7.91,26511000
2018-11-07,7.85,8.08,7.85,7.93,31542600
2018-11-08,8.05,8.12,7.97,8.04,28903400
2018-11-09,7.99,8.15,7.95,8.03,39053500
2018-11-12,7.95,8.33,7.95,8.2,30287200
2018-11-13,8.01,8.35,7.92,8.33,36550600
2018-11-14,8.49,8.49,8.17,8.25,23651700
2018-11-15,8.32,8.35,8.08,8.34,21877300
2018-11-16,8.2,8.25,8.03,8.17,46894700
2018-11-19,8.22,8.31,8.17,8.2,17833600
2018-11-20,8.15,8.18,8.01,8.04,21241200
2018-11-21,7.96,8.15,7.95,8.11,21328800
2018-11-22,8.15,8.15,7.93,7.96,14360200
2018-11-23,7.9,7.96,7.78,7.88,17905400
2018-11-26,7.96,7.97,7.84,7.9,20065700
2018-11-27,7.82,7.88,7.76,7.82,25092800
2018-11-28,7.85,7.99,7.76,7.9,25643400
2018-11-29,7.95,8.06,7.88,8.04,31910700
2018-11-30,8.02,8.11,8.0,8.03,21795200
2018-12-03,8.3,8.43,8.22,8.31,35062600
2018-12-04,8.3,8.39,8.21,8.32,25666100
2018-12-05,8.11,8.3,8.11,8.18,21727600
2018-12-06,7.98,8.04,7.84,7.95,21631400
2018-12-07,7.94,8.07,7.86,7.86,57800900
2018-12-10,7.78,7.82,7.61,7.76,21735100
2018-12-11,7.66,7.82,7.66,7.72,14235300
2018-12-12,7.88,8.01,7.74,7.94,30966400
2018-12-13,7.92,8.07,7.84,8.03,24035800
2018-12-14,7.83,8.04,7.83,7.93,26970000
2018-12-17,8.09,8.09,7.89,7.93,13289800
2018-12-18,7.97,8.06,7.87,7.94,15242600
2018-12-19,7.94,8.05,7.86,7.89,18178700
2018-12-20,7.84,7.96,7.84,7.93,17695900
2018-12-21,7.78,7.85,7.63,7.71,47342200
2018-12-24,7.51,7.69,7.47,7.69,7986800
2018-12-27,7.8,7.95,7.71,7.84,25128100
2018-12-28,7.95,7.96,7.82,7.88,13638100
2018-12-31,7.98,8.04,7.78,8.01,16043100
2019-01-02,7.93,8.01,7.72,7.78,18566900
2019-01-03,7.78,7.78,7.57,7.68,19163800
2019-01-04,7.61,7.88,7.57,7.83,21723300
2019-01-07,7.95,8.02,7.89,7.99,22326500
2019-01-08,8.02,8.14,7.99,8.06,24403900
2019-01-09,8.18,8.28,8.08,8.16,28751600
2019-01-10,8.04,8.18,7.97,8.14,29260900
2019-01-11,8.18,8.18,7.99,8.06,28841100
2019-01-14,7.98,8.12,7.95,8.05,23874000
2019-01-15,8.18,8.18,7.96,8.12,28869300
2019-01-16,8.0,8.37,8.0,8.36,25657900
2019-01-17,8.29,8.47,8.28,8.3,25577800
2019-01-18,8.47,8.47,8.15,8.3,46939200
2019-01-21,8.22,8.27,7.97,8.06,58669100
2019-01-22,8.06,8.06,7.86,7.88,34821400
2019-01-23,7.8,7.91,7.8,7.88,34428400
2019-01-24,7.96,7.98,7.85,7.89,28309200
2019-01-25,7.88,8.03,7.88,7.97,33022100
2019-01-28,8.02,8.13,7.84,7.92,44139400
2019-01-29,7.9,8.08,7.86,8.06,35218200
2019-01-30,8.06,8.11,7.97,8.01,22193600
2019-01-31,8.09,8.12,8.02,8.09,27904500
2019-02-01,8.16,8.24,8.1,8.2,25342800
2019-02-04,8.29,8.33,8.19,8.29,16219000
2019-02-08,8.06,8.16,8.02,8.11,21816600
2019-02-11,8.09,8.3,8.07,8.27,28212300
2019-02-12,8.3,8.45,8.27,8.42,36208000
2019-02-13,8.5,8.82,8.44,8.78,50943500
2019-02-14,8.85,8.94,8.62,8.68,46885300
2019-02-15,8.63,8.67,8.24,8.31,44526600
2019-02-18,8.37,8.56,8.33,8.54,30110500
2019-02-19,8.55,8.78,8.49,8.57,24927000
2019-02-20,8.57,8.76,8.57,8.72,27753900
2019-02-21,8.91,9.2,8.85,9.01,61151800
2019-02-22,8.93,9.44,8.92,9.43,54726900
2019-02-25,9.5,10.08,9.5,9.89,96564096
2019-02-26,9.91,9.96,9.6,9.65,58400900
2019-02-27,9.68,9.75,9.45,9.46,40371500
2019-02-28,9.42,9.48,9.25,9.4,35754900
2019-03-01,9.48,9.86,9.44,9.73,43403500
2019-03-04,9.74,9.86,9.5,9.52,77857296
2019-03-05,9.53,9.58,9.25,9.41,58941300
2019-03-06,9.42,9.48,9.26,9.4,36629200
2019-03-07,9.39,9.4,9.08,9.16,33384600
2019-03-08,9.01,9.07,8.78,8.79,61048100
2019-03-11,8.78,9.07,8.78,8.96,23729900
2019-03-12,9.15,9.23,9.0,9.08,38908700
2019-03-13,9.05,9.28,9.05,9.24,40166800
2019-03-14,9.16,9.26,9.0,9.09,22158000
2019-03-15,9.09,9.15,8.96,8.98,30796200
2019-03-18,9.05,9.05,8.8,9.05,40641900
2019-03-19,9.07,9.15,8.97,9.14,21623000
2019-03-20,9.14,9.2,9.01,9.01,18948800
2019-03-21,9.02,9.24,9.01,9.1,23399600
2019-03-22,9.2,9.23,8.84,8.96,22928000
2019-03-25,8.68,8.98,8.57,8.83,43525200
2019-03-26,8.82,8.88,8.69,8.81,26317600
2019-03-27,8.88,8.88,8.61,8.68,46018200
2019-03-28,8.73,8.88,8.65,8.78,31261200
2019-03-29,8.76,8.96,8.69,8.92,24166500
2019-04-01,8.88,9.03,8.72,8.8,52964900
2019-04-02,8.8,8.9,8.73,8.82,29027600
2019-04-03,8.92,9.07,8.85,9.07,34047900
2019-04-04,9.02,9.24,9.02,9.08,28238800
2019-04-08,9.11,9.2,9.03,9.08,33425700
2019-04-09,9.09,9.09,8.88,8.97,36139600
2019-04-10,8.98,9.02,8.92,8.98,32388600
2019-04-11,8.98,9.03,8.81,8.87,36433500
2019-04-12,8.82,8.87,8.72,8.84,33017800
2019-04-15,8.91,9.09,8.86,8.93,28762200
2019-04-16,8.96,9.17,8.95,9.13,41400400
2019-04-17,9.1,9.35,9.07,9.34,37408900
2019-04-18,9.5,9.5,9.27,9.36,37364000
2019-04-23,9.22,9.25,9.08,9.22,29245500
2019-04-24,9.22,9.32,9.03,9.16,20921800
2019-04-25,9.11,9.17,9.06,9.1,35832700
2019-04-26,9.06,9.15,8.92,9.03,24464000
2019-04-29,9.06,9.08,8.91,8.97,32416100
2019-04-30,8.9,8.94,8.67,8.81,44125600
2019-05-02,8.68,8.82,8.68,8.8,33622000
2019-05-03,8.8,8.91,8.73,8.89,18544800
2019-05-06,8.63,8.75,8.5,8.62,50062700
2019-05-07,8.66,8.73,8.6,8.68,32308600
2019-05-08,8.5,8.58,8.31,8.35,60559900
2019-05-09,8.2,8.3,7.96,8.08,53620100
2019-05-10,8.13,8.24,7.96,8.05,55184900
2019-05-14,7.78,8.0,7.78,7.91,46017000
2019-05-15,7.92,8.12,7.92,7.98,33188900
2019-05-16,7.95,8.07,7.92,7.92,32602900
2019-05-17,8.02,8.02,7.81,7.86,26856400
2019-05-20,7.96,7.96,7.74,7.82,23571800
2019-05-21,7.9,7.95,7.77,7.84,30932300
2019-05-22,7.82,7.97,7.82,7.88,32399100
2019-05-23,7.86,7.95,7.77,7.88,35891400
2019-05-24,7.97,8.15,7.91,8.1,40945200
2019-05-27,8.1,8.1,7.83,7.99,44742100
2019-05-28,7.92,8.14,7.92,8.05,43770000
2019-05-29,7.98,8.61,7.96,8.45,86395104
2019-05-30,8.52,8.72,8.43,8.45,72082896
2019-05-31,8.46,8.64,8.33,8.47,62683600
2019-06-03,8.51,8.56,8.39,8.45,39779800
2019-06-04,8.44,8.62,8.32,8.37,45967700
2019-06-05,8.5,8.51,8.24,8.29,22159200
2019-06-06,8.24,8.27,8.1,8.18,35160000
2019-06-10,8.18,8.53,8.1,8.35,46230300
2019-06-11,8.42,8.61,8.36,8.51,45213000
2019-06-12,8.5,8.55,8.38,8.46,22532700
2019-06-13,8.48,8.48,8.27,8.35,23213100
2019-06-14,8.25,8.38,8.25,8.27,28889100
2019-06-17,8.28,8.48,8.28,8.36,27815500
2019-06-18,8.45,8.47,8.26,8.3,38476200
2019-06-19,8.55,8.66,8.42,8.46,31930000
2019-06-20,8.46,8.64,8.38,8.61,40451200
2019-06-21,8.65,8.67,8.54,8.55,33846800
2019-06-24,8.51,8.64,8.51,8.55,20046500
2019-06-25,8.6,8.61,8.42,8.45,24868500
2019-06-26,8.2,8.25,8.12,8.16,23852600
2019-06-27,8.22,8.42,8.16,8.33,22595700
2019-06-28,8.41,8.49,8.31,8.43,24830400
2019-07-02,8.59,8.69,8.54,8.61,35417000
2019-07-03,8.54,8.63,8.41,8.59,15734300
2019-07-04,8.53,8.63,8.47,8.54,12933000
2019-07-05,8.48,8.56,8.45,8.54,7012200
2019-07-08,8.45,8.65,8.45,8.63,29336700
2019-07-09,8.66,9.0,8.57,8.89,52234100
2019-07-10,8.96,9.03,8.89,8.94,35481600
2019-07-11,8.98,9.08,8.88,8.93,34832900
2019-07-12,8.85,9.0,8.85,8.89,21081900
2019-07-15,8.86,8.99,8.74,8.95,19799200
2019-07-16,8.83,9.26,8.83,9.13,44325200
2019-07-17,9.0,9.21,9.0,9.14,20750400
2019-07-18,9.06,9.4,9.06,9.34,49134700
2019-07-19,9.38,9.41,9.26,9.36,23287200
2019-07-22,9.3,9.31,9.1,9.15,42551300
2019-07-23,9.25,9.53,9.19,9.5,43974400
2019-07-24,9.5,9.65,9.35,9.4,35327200
2019-07-25,9.34,9.53,9.3,9.39,23528700
2019-07-26,9.31,9.45,9.28,9.4,12898200
2019-07-29,9.3,9.47,9.22,9.45,22872600
2019-07-30,9.37,9.68,9.37,9.64,44955200
2019-07-31,9.63,9.64,9.3,9.37,36306900
2019-08-01,9.19,9.38,9.16,9.31,35567600
2019-08-02,9.1,9.1,8.93,8.99,41509000
2019-08-05,8.81,8.89,8.64,8.76,48103800
2019-08-06,8.6,8.76,8.57,8.69,52777000
2019-08-07,8.7,8.8,8.62,8.71,24211600
2019-08-08,8.81,8.9,8.66,8.85,37332300
2019-08-09,9.05,9.05,8.65,8.68,16144100
2019-08-12,8.67,8.81,8.63,8.72,23047300
2019-08-13,8.72,8.75,8.55,8.58,21086600
2019-08-14,8.7,8.72,8.52,8.54,17818000
2019-08-15,8.54,8.55,8.35,8.45,36515400
2019-08-16,8.41,8.7,8.38,8.61,35383600
2019-08-19,8.7,8.99,8.7,8.9,44008000
2019-08-20,8.7,8.97,8.7,8.8,21985800
2019-08-21,8.78,8.93,8.75,8.88,25804400
2019-08-22,8.75,8.92,8.75,8.84,16249500
2019-08-23,8.92,8.92,8.71,8.88,14430900
2019-08-26,8.4,8.9,8.4,8.85,45123200
2019-08-27,8.88,8.9,8.58,8.64,40131600
2019-08-28,8.7,8.8,8.65,8.71,23482400
2019-08-29,8.76,8.83,8.62,8.8,23130000
2019-08-30,8.99,9.08,8.89,8.99,41363700
2019-09-02,8.95,9.06,8.84,8.87,20377300
2019-09-03,8.88,8.88,8.69,8.76,23598000
2019-09-04,8.99,9.24,8.91,9.18,44152100
2019-09-05,9.28,9.35,9.14,9.2,23898000
2019-09-06,9.3,9.38,9.22,9.33,28577200
2019-09-09,9.33,9.38,9.22,9.28,10887900
2019-09-10,9.39,9.39,9.19,9.25,15042800
2019-09-11,9.31,9.39,9.19,9.36,27969200
2019-09-12,9.45,9.54,9.41,9.49,27102400
2019-09-13,9.49,9.63,9.43,9.59,18028600
2019-09-16,9.45,9.58,9.31,9.4,34581100
2019-09-17,9.36,9.36,9.19,9.29,16499100
2019-09-18,9.35,9.37,9.23,9.29,14642000
2019-09-19,9.26,9.32,9.2,9.27,20878300
2019-09-20,9.24,9.46,9.24,9.39,47572700
2019-09-23,9.33,9.37,9.17,9.25,18390100
2019-09-24,9.33,9.42,9.22,9.31,30961800
2019-09-25,9.28,9.31,9.17,9.22,21474200
2019-09-26,9.21,9.25,9.08,9.12,17071700
2019-09-27,9.13,9.19,9.09,9.15,13504700
2019-09-30,9.33,9.33,9.13,9.15,21789400
2019-10-02,9.05,9.14,8.95,9.08,17977900
2019-10-03,9.08,9.17,8.95,9.14,11529100
2019-10-04,9.19,9.22,9.04,9.15,12066000
2019-10-08,9.25,9.37,9.12,9.17,28303600
2019-10-09,9.1,9.12,8.97,9.02,14707700
2019-10-10,9.05,9.22,9.02,9.15,17735800
2019-10-11,9.32,9.72,9.15,9.71,61396400
2019-10-14,9.7,9.76,9.45,9.45,27258500
2019-10-15,9.44,9.83,9.44,9.71,38730200
2019-10-16,9.65,9.83,9.62,9.66,11380600
2019-10-17,9.69,9.69,9.56,9.63,17606600
2019-10-18,9.6,9.68,9.52,9.55,14781700
2019-10-21,9.54,9.76,9.47,9.7,16846500
2019-10-22,9.81,9.85,9.71,9.75,18545500
2019-10-23,9.75,9.85,9.7,9.74,17032700
2019-10-24,9.85,9.85,9.7,9.72,13261800
2019-10-25,9.66,9.75,9.6,9.68,12695800
2019-10-28,9.85,9.99,9.79,9.89,23116400
2019-10-29,9.99,10.08,9.72,9.79,20798800
2019-10-30,10.0,10.18,9.77,9.79,27710000
2019-10-31,9.81,10.06,9.8,9.95,31636400
2019-11-01,9.88,10.04,9.85,9.95,24074200
2019-11-04,10.08,10.12,9.98,10.12,34158800
2019-11-05,10.18,10.22,9.96,10.16,27743000
2019-11-06,10.22,10.22,10.04,10.12,15849500
2019-11-07,10.1,10.16,9.98,10.16,16643800
2019-11-08,10.26,10.26,10.06,10.14,16123600
2019-11-11,9.98,10.16,9.79,9.8,32163400
2019-11-12,9.83,9.95,9.77,9.92,25652200
2019-11-13,9.72,9.87,9.64,9.7,19707700
2019-11-14,9.59,9.74,9.52,9.58,19714000
2019-11-15,9.56,9.64,9.48,9.48,11707600
2019-11-18,9.58,9.65,9.43,9.56,21075400
2019-11-19,9.6,9.73,9.48,9.68,15913600
2019-11-20,9.67,9.67,9.4,9.45,15756100
2019-11-21,9.28,9.29,9.13,9.26,20574000
2019-11-22,9.29,9.39,9.25,9.36,22200000
2019-11-25,9.42,9.48,9.32,9.4,20400200
2019-11-26,9.44,9.51,9.36,9.44,47792800
2019-11-27,9.41,9.55,9.36,9.5,12782500
2019-11-28,9.39,9.42,9.33,9.4,10776500
2019-11-29,9.3,9.33,9.04,9.06,28888400
2019-12-02,9.06,9.28,9.06,9.18,31985900
2019-12-03,9.16,9.23,9.0,9.17,13697500
2019-12-04,8.93,9.12,8.92,8.97,25619000
2019-12-05,9.0,9.23,9.0,9.18,24045400
2019-12-06,9.3,9.34,9.04,9.16,17230700
2019-12-09,9.2,9.27,9.14,9.18,12536400
2019-12-10,9.18,9.4,9.15,9.34,19482500
2019-12-11,9.27,9.37,9.22,9.29,27815300
2019-12-12,9.35,9.49,9.35,9.4,14395100
2019-12-13,9.64,9.66,9.51,9.63,16906900
2019-12-16,9.65,9.68,9.57,9.57,12815700
2019-12-17,9.57,9.78,9.51,9.73,19803500
2019-12-18,9.76,9.8,9.67,9.79,29090100
2019-12-19,9.73,9.79,9.62,9.69,11963800
2019-12-20,9.51,9.72,9.51,9.66,21328200
2019-12-23,9.6,9.66,9.49,9.54,11247100
2019-12-24,9.53,9.63,9.51,9.55,5213300
2019-12-27,9.6,9.66,9.47,9.55,21475000
2019-12-30,9.58,9.64,9.49,9.59,19910000
2019-12-31,9.59,9.59,9.34,9.39,16002300
2020-01-02,9.47,9.58,9.45,9.58,12749800
2020-01-03,9.8,9.8,9.48,9.52,23979100
2020-01-06,9.5,9.66,9.44,9.57,21570700
2020-01-07,9.55,9.64,9.43,9.46,18765900
2020-01-08,9.29,9.4,9.2,9.3,21081600
2020-01-09,9.42,9.55,9.4,9.55,13233900
2020-01-10,9.55,9.57,9.34,9.39,16544100
2020-01-13,9.47,9.5,9.4,9.47,17262400
2020-01-14,9.49,9.58,9.47,9.53,24960500
2020-01-15,9.55,9.74,9.55,9.64,16440100
2020-01-16,9.69,9.71,9.51,9.6,13086700
2020-01-17,9.67,9.69,9.6,9.68,16793300
2020-01-20,9.62,9.66,9.36,9.38,31655300
2020-01-21,9.34,9.34,9.01,9.04,18865600
2020-01-22,9.05,9.32,9.02,9.22,23524800
2020-01-23,9.29,9.29,9.03,9.12,22391300
2020-01-24,9.11,9.19,9.02,9.12,7205300
2020-01-29,8.64,8.88,8.64,8.69,27322700
2020-01-30,8.63,8.69,8.4,8.43,28107200
2020-01-31,8.56,8.58,8.35,8.39,32372800
2020-02-03,8.38,8.44,8.27,8.37,27501700
2020-02-04,8.22,8.59,8.2,8.53,36525100
2020-02-05,8.51,8.59,8.47,8.58,21590800
2020-02-06,8.64,8.87,8.54,8.76,27132900
2020-02-07,8.63,8.7,8.55,8.7,21110200
2020-02-10,8.65,8.67,8.55,8.6,21763600
2020-02-11,8.63,8.76,8.58,8.61,27689400
2020-02-12,8.64,8.78,8.6,8.72,35852000
2020-02-13,8.7,8.7,8.55,8.59,18116900
2020-02-14,8.54,8.67,8.53,8.6,20695400
2020-02-17,8.62,8.68,8.59,8.67,17932900
2020-02-18,8.56,8.6,8.54,8.55,11895100
2020-02-19,8.58,8.61,8.52,8.6,15921800
2020-02-20,8.67,8.82,8.58,8.76,36800100
2020-02-21,8.67,8.77,8.63,8.64,16181200
2020-02-24,8.55,8.62,8.43,8.48,27438000
2020-02-25,8.38,8.65,8.33,8.36,34309500
2020-02-26,8.18,8.32,8.12,8.3,26989500
2020-02-27,8.22,8.45,8.16,8.38,29865200
2020-02-28,8.18,8.18,8.02,8.07,30458400
2020-03-02,8.16,8.32,8.03,8.29,23327100
2020-03-03,8.26,8.35,8.15,8.2,20113900
2020-03-04,8.16,8.27,8.08,8.23,37958800
2020-03-05,8.33,8.51,8.28,8.42,39295500
2020-03-06,8.27,8.29,8.15,8.23,32498300
2020-03-09,7.99,8.05,7.84,7.92,46487800
2020-03-10,8.2,8.2,7.89,8.09,55455000
2020-03-11,8.18,8.18,8.02,8.03,23977400
2020-03-12,7.84,7.88,7.63,7.75,29165100
2020-03-13,7.12,7.57,7.12,7.43,51726200
2020-03-16,7.17,7.34,7.06,7.17,41380600
2020-03-17,6.95,7.12,6.84,7.03,44624400
2020-03-18,6.89,7.1,6.5,6.55,43256200
2020-03-19,6.51,6.55,5.93,6.13,61979900
2020-03-20,6.17,6.59,6.17,6.55,49767100
2020-03-23,6.26,6.35,6.11,6.31,28980300
2020-03-24,7.15,7.15,6.61,6.79,49849500
2020-03-25,6.94,7.3,6.89,7.26,30328500
2020-03-26,7.2,7.39,7.11,7.21,26029600
2020-03-27,7.44,7.5,7.2,7.28,26024500
2020-03-30,7.05,7.45,6.98,7.26,30014900
2020-03-31,7.54,7.6,7.31,7.5,40067500
2020-04-01,7.4,7.75,7.19,7.26,43086600
2020-04-02,7.06,7.32,7.04,7.27,26030300
2020-04-03,7.12,7.24,7.08,7.15,17675800
2020-04-06,7.3,7.3,7.09,7.24,21479200
2020-04-07,7.31,7.44,7.18,7.39,45863200
2020-04-08,7.38,7.42,7.12,7.13,32785100
2020-04-09,7.2,7.32,7.15,7.3,23904500
2020-04-14,7.29,7.55,7.28,7.43,44539200
2020-04-15,7.45,7.5,7.2,7.21,26947000
2020-04-16,7.13,7.16,7.05,7.06,42493600
2020-04-17,7.19,7.47,7.15,7.43,52766700
2020-04-20,7.55,7.55,7.37,7.4,18815600
2020-04-21,7.33,7.42,7.26,7.31,25170200
2020-04-22,7.2,7.34,7.2,7.32,25919300
2020-04-23,7.27,7.36,7.18,7.22,21152400
2020-04-24,7.2,7.2,7.12,7.16,13466700
2020-04-27,7.26,7.52,7.24,7.48,58920000
2020-04-28,7.59,7.62,7.48,7.57,27181600
2020-04-29,7.68,7.73,7.38,7.43,25702300
2020-05-04,7.25,7.31,7.06,7.1,38853900
2020-05-05,7.1,7.17,6.98,7.02,44785400
2020-05-06,7.07,7.3,7.07,7.24,35520700
2020-05-07,7.18,7.23,7.11,7.17,14736000
2020-05-08,7.26,7.27,7.18,7.24,24833700
2020-05-11,7.31,7.39,7.2,7.21,31596600
2020-05-12,7.17,7.26,7.09,7.13,25572500
2020-05-13,7.11,7.15,7.03,7.12,21924400
2020-05-14,7.05,7.1,6.9,6.95,42755500
2020-05-15,7.0,7.0,6.85,6.95,24300300
2020-05-18,6.91,7.01,6.88,7.01,18771400
2020-05-19,7.16,7.22,7.09,7.2,30815100
2020-05-20,7.22,7.22,7.11,7.14,14069100
2020-05-21,7.19,7.19,7.02,7.07,23190500
2020-05-22,6.9,6.97,6.53,6.55,64006700
2020-05-25,6.57,6.57,6.39,6.46,29504000
2020-05-26,6.53,6.68,6.53,6.65,27969900
2020-05-27,6.7,6.84,6.67,6.79,32508600
2020-05-28,6.83,6.96,6.74,6.8,40206200
2020-05-29,6.61,6.79,6.61,6.71,49895200
2020-06-01,6.85,6.93,6.85,6.87,25190100
2020-06-02,6.9,6.93,6.83,6.84,16914300
2020-06-03,7.0,7.11,6.95,7.07,31959500
2020-06-04,7.12,7.18,6.95,7.0,64573200
2020-06-05,7.0,7.25,6.99,7.23,46015500
2020-06-08,7.38,7.42,7.25,7.36,46187600
2020-06-09,7.46,7.5,7.39,7.44,30794800
2020-06-10,7.48,7.48,7.28,7.4,30585100
2020-06-11,7.34,7.44,7.13,7.13,24832100
2020-06-12,6.98,7.1,6.95,7.09,25782100
2020-06-15,6.97,7.08,6.9,6.93,38794600
2020-06-16,7.03,7.34,7.03,7.16,37333800
2020-06-17,7.15,7.32,7.13,7.27,30136000
2020-06-18,7.27,7.38,7.17,7.33,33693900
2020-06-19,7.27,7.42,7.23,7.37,37038300
2020-06-22,7.31,7.45,7.31,7.35,29800800
2020-06-23,7.36,7.4,7.23,7.36,21694600
2020-06-24,7.39,7.54,7.38,7.43,33236400
2020-06-26,7.32,7.4,7.32,7.34,27691400
2020-06-29,6.84,6.84,6.45,6.46,62226400
2020-06-30,6.52,6.54,6.35,6.39,44593300
2020-07-02,6.46,6.92,6.46,6.92,62601200
2020-07-03,6.95,7.18,6.95,7.06,27158200
2020-07-06,7.1,7.71,7.1,7.67,108402496
2020-07-07,7.8,7.89,7.43,7.46,62483900
2020-07-08,7.46,7.67,7.44,7.63,51014000
2020-07-09,7.68,7.73,7.36,7.5,72904496
2020-07-10,7.42,7.42,6.85,6.95,121018800
2020-07-13,7.0,7.0,6.65,6.81,87045200
2020-07-14,6.77,6.78,6.6,6.65,44866000
2020-07-15,6.73,6.77,6.52,6.56,37626400
2020-07-16,6.66,6.66,6.44,6.46,39106900
2020-07-17,6.51,6.53,6.33,6.35,57117100
2020-07-20,6.37,6.49,6.27,6.41,53874200
2020-07-21,6.51,6.52,6.35,6.42,41430200
2020-07-22,6.44,6.5,6.31,6.33,41299400
2020-07-23,6.33,6.42,6.27,6.32,42177200
2020-07-24,6.3,6.3,6.07,6.13,51769300
2020-07-27,6.19,6.28,6.14,6.21,37363000
2020-07-28,6.29,6.38,6.2,6.24,31233300
2020-07-29,6.23,6.32,6.17,6.28,25740700
2020-07-30,6.3,6.31,6.15,6.16,27558500
2020-07-31,6.15,6.21,6.07,6.12,39195100
2020-08-03,6.09,6.15,6.03,6.08,43018600
2020-08-04,6.14,6.35,6.1,6.25,54371100
2020-08-05,6.29,6.36,6.21,6.28,38322600
2020-08-06,6.31,6.33,6.18,6.25,25933900
2020-08-07,6.22,6.27,6.14,6.22,27739800
2020-08-10,6.23,6.29,6.12,6.21,20624100
2020-08-11,6.27,6.36,6.19,6.22,27748800
2020-08-12,6.18,6.33,6.18,6.32,26207800
2020-08-13,6.35,6.38,6.27,6.31,19339800
2020-08-14,6.3,6.46,6.26,6.4,29419400
2020-08-17,6.43,6.63,6.43,6.5,59823500
2020-08-18,6.5,6.51,6.4,6.5,28523100
2020-08-19,6.47,6.47,6.33,6.36,17777200
2020-08-20,6.31,6.34,6.2,6.28,33027700
2020-08-21,6.37,6.37,6.25,6.28,26626000
2020-08-24,6.32,6.52,6.16,6.2,68166600
2020-08-25,6.2,6.21,6.06,6.13,57674000
