Date,Open,High,Low,Close,Volume
2012-02-13,4.13,4.18,4.05,4.12,9628000
2012-02-14,4.12,4.25,4.12,4.22,13002200
2012-02-15,4.19,4.23,4.13,4.2,6387300
2012-02-16,4.2,4.31,4.16,4.28,8080000
2012-02-17,4.32,4.35,4.19,4.2,6684000
2012-02-20,4.24,4.24,4.1,4.17,7960000
2012-02-21,4.14,4.14,3.94,4.08,9670377
2012-02-22,4.08,4.19,4.04,4.12,5018000
2012-02-23,4.17,4.17,4.05,4.06,4576000
2012-02-27,4.02,4.04,3.8,3.82,51244000
2012-02-28,3.91,4.0,3.88,3.98,30612000
2012-02-29,4.0,4.16,3.95,3.99,21360000
2012-03-01,3.96,4.03,3.93,3.95,10022000
2012-03-02,3.98,4.0,3.9,3.99,11656000
2012-03-05,3.99,4.12,3.93,3.96,17061972
2012-03-06,3.94,3.96,3.82,3.84,17276000
2012-03-07,3.75,3.89,3.75,3.84,19470000
2012-03-08,3.88,3.91,3.84,3.87,8011800
2012-03-09,3.9,3.94,3.88,3.94,9548600
2012-03-12,3.97,4.05,3.95,3.99,12530200
2012-03-13,4.0,4.01,3.97,4.01,6738400
2012-03-14,4.03,4.04,3.88,3.92,13564300
2012-03-15,3.94,3.95,3.87,3.89,8072800
2012-03-16,3.9,3.93,3.83,3.92,7348000
2012-03-19,3.94,3.95,3.83,3.86,9182000
2012-03-20,3.86,3.87,3.68,3.71,10993000
2012-03-21,3.71,3.74,3.64,3.65,9517600
2012-03-22,3.68,3.77,3.68,3.68,7188000
2012-03-23,3.66,3.76,3.66,3.73,2522000
2012-03-26,3.77,3.77,3.69,3.74,6272000
2012-03-27,3.77,3.8,3.48,3.56,19912000
2012-03-28,3.5,3.58,3.49,3.56,12634200
2012-03-29,3.53,3.6,3.51,3.59,7784000
2012-03-30,3.6,3.6,3.54,3.56,5828000
2012-04-02,3.59,3.59,3.53,3.56,5619000
2012-04-03,3.58,3.6,3.51,3.56,5926600
2012-04-05,3.51,3.63,3.51,3.6,4920000
2012-04-10,3.58,3.59,3.51,3.53,7840300
2012-04-11,3.5,3.56,3.44,3.45,7559600
2012-04-12,3.45,3.53,3.42,3.53,5664000
2012-04-13,3.57,3.61,3.51,3.57,6703799
2012-04-16,3.51,3.55,3.49,3.52,4157624
2012-04-17,3.5,3.52,3.45,3.46,3336000
2012-04-18,3.52,3.66,3.48,3.62,14354000
2012-04-19,3.6,3.64,3.55,3.58,9063117
2012-04-20,3.58,3.63,3.56,3.62,6322992
2012-04-23,3.6,3.62,3.52,3.54,7708000
2012-04-24,3.52,3.54,3.48,3.49,5068000
2012-04-25,3.5,3.52,3.44,3.46,6218000
2012-04-26,3.48,3.56,3.47,3.55,3088000
2012-04-27,3.55,3.57,3.51,3.53,2880000
2012-04-30,3.55,3.58,3.47,3.58,3806493
2012-05-02,3.59,3.59,3.49,3.51,6056000
2012-05-04,3.49,3.5,3.46,3.49,3870238
2012-05-07,3.46,3.46,3.35,3.38,4492000
2012-05-08,3.39,3.4,3.31,3.33,3272000
2012-05-09,3.3,3.32,3.23,3.24,5176000
2012-05-10,3.25,3.27,3.12,3.17,6549000
2012-05-11,3.15,3.16,3.0,3.11,12324000
2012-05-14,3.15,3.18,3.01,3.04,6744000
2012-05-15,3.04,3.17,2.98,3.14,3992000
2012-05-16,3.05,3.1,2.96,2.98,8572000
2012-05-17,3.0,3.09,2.99,3.0,5272000
2012-05-18,2.95,3.02,2.91,3.0,3040000
2012-05-21,2.99,3.05,2.99,3.02,2368000
2012-05-22,3.1,3.14,3.08,3.11,3881200
2012-05-23,3.1,3.15,3.03,3.06,2472000
2012-05-24,3.06,3.11,3.02,3.05,2080000
2012-05-25,3.05,3.11,3.02,3.09,2172000
2012-05-28,3.08,3.1,3.0,3.05,3616000
2012-05-29,3.08,3.1,3.01,3.07,6128000
2012-05-30,3.07,3.07,2.98,3.05,4850000
2012-05-31,2.98,3.06,2.95,3.02,2438200
2012-06-01,3.02,3.08,2.98,3.05,2795332
2012-06-04,2.99,2.99,2.8,2.83,9132000
2012-06-05,2.83,2.86,2.6,2.78,6852000
2012-06-06,2.79,2.87,2.79,2.81,5797613
2012-06-07,2.88,2.91,2.79,2.8,7550000
2012-06-08,2.82,2.83,2.74,2.77,4027685
2012-06-11,2.84,2.89,2.74,2.81,8976681
2012-06-12,2.76,2.8,2.75,2.78,2776067
2012-06-13,2.8,2.85,2.72,2.82,5826778
2012-06-14,2.8,2.85,2.77,2.8,3303075
2012-06-15,2.82,2.9,2.82,2.88,6674000
2012-06-18,2.93,2.99,2.87,2.88,9272800
2012-06-19,2.88,2.89,2.83,2.85,3207000
2012-06-20,2.87,2.87,2.82,2.84,4424000
2012-06-21,2.85,2.85,2.72,2.78,5640000
2012-06-22,2.72,2.74,2.68,2.72,5096000
2012-06-25,2.72,2.72,2.65,2.68,5466334
2012-06-26,2.68,2.68,2.6,2.64,2944000
2012-06-27,2.65,2.71,2.64,2.65,1776000
2012-06-28,2.68,2.7,2.55,2.57,3053008
2012-06-29,2.55,2.58,2.51,2.55,6480000
2012-07-03,2.55,2.58,2.46,2.58,9313339
2012-07-04,2.62,2.62,2.56,2.58,4100000
2012-07-05,2.6,2.61,2.58,2.6,2264000
2012-07-06,2.6,2.68,2.58,2.65,8161365
2012-07-09,2.64,2.64,2.57,2.59,3228000
2012-07-10,2.61,2.61,2.51,2.55,3192000
2012-07-11,2.52,2.54,2.47,2.48,5660000
2012-07-12,2.48,2.5,2.41,2.46,4076000
2012-07-13,2.49,2.74,2.46,2.71,14200000
2012-07-16,2.72,2.8,2.62,2.65,8408000
2012-07-17,2.62,2.68,2.59,2.6,4000976
2012-07-18,2.6,2.61,2.51,2.57,7288000
2012-07-19,2.57,2.61,2.53,2.55,4580000
2012-07-20,2.55,2.65,2.55,2.63,5185999
2012-07-23,2.57,2.6,2.52,2.53,4365648
2012-07-24,2.53,2.6,2.45,2.47,4672292
2012-07-25,2.47,2.47,2.33,2.34,9057192
2012-07-26,2.31,2.37,2.25,2.27,8135025
2012-07-27,2.33,2.34,2.27,2.34,3704000
2012-07-30,2.34,2.39,2.28,2.3,3329000
2012-07-31,2.28,2.34,2.28,2.34,3812000
2012-08-01,2.32,2.4,2.3,2.39,3164000
2012-08-02,2.39,2.46,2.36,2.37,5464000
2012-08-03,2.36,2.36,2.28,2.34,6148734
2012-08-06,2.39,2.42,2.34,2.38,4964000
2012-08-07,2.43,2.56,2.43,2.54,19496000
2012-08-08,2.58,2.64,2.56,2.59,10452000
2012-08-09,2.6,2.6,2.5,2.56,7064000
2012-08-10,2.55,2.63,2.54,2.58,8248000
2012-08-13,2.59,2.61,2.56,2.56,2264000
2012-08-14,2.56,2.58,2.45,2.52,6172000
2012-08-15,2.52,2.54,2.45,2.51,3664000
2012-08-16,2.52,2.58,2.52,2.57,7952000
2012-08-17,2.58,2.62,2.52,2.62,3888000
2012-08-20,2.64,2.7,2.61,2.66,8168000
2012-08-21,2.66,2.69,2.6,2.63,3596000
2012-08-22,2.61,2.78,2.59,2.72,8822585
2012-08-23,2.72,2.82,2.71,2.78,5968000
2012-08-24,2.73,2.86,2.69,2.79,6050000
2012-08-27,2.8,2.8,2.69,2.72,4848000
2012-08-28,2.68,2.75,2.68,2.73,2968000
2012-08-29,2.74,2.81,2.69,2.77,7731600
2012-08-30,2.79,2.82,2.75,2.82,9388000
2012-08-31,2.8,2.82,2.75,2.8,3892000
2012-09-03,2.81,2.86,2.76,2.83,4620000
2012-09-04,2.81,2.82,2.77,2.78,3161982
2012-09-05,2.75,2.78,2.69,2.74,6417856
2012-09-06,2.76,2.79,2.73,2.78,4029176
2012-09-07,2.81,2.88,2.79,2.86,7947533
2012-09-10,2.89,2.89,2.83,2.86,2850000
2012-09-11,2.85,2.9,2.82,2.83,4972000
2012-09-12,2.84,2.98,2.82,2.97,11805361
2012-09-13,2.97,3.06,2.93,3.04,15632000
2012-09-14,3.1,3.13,3.04,3.09,12968000
2012-09-17,3.1,3.1,2.97,3.1,7591904
2012-09-18,3.05,3.06,3.0,3.02,5366248
2012-09-19,3.04,3.05,2.99,3.03,2765272
2012-09-20,3.06,3.06,2.97,3.0,2872000
2012-09-21,3.0,3.1,3.0,3.07,7652000
2012-09-24,3.04,3.06,2.97,3.0,3716000
2012-09-25,3.01,3.02,2.98,2.99,2113024
2012-09-26,2.99,2.99,2.84,2.92,7242000
2012-09-27,2.9,2.99,2.87,2.98,2667512
2012-09-28,2.98,2.98,2.93,2.95,4409000
2012-10-03,2.94,3.03,2.94,3.0,2991000
2012-10-04,3.03,3.03,2.99,3.03,2136000
2012-10-05,3.04,3.07,3.0,3.04,3202543
2012-10-08,3.03,3.05,2.95,2.98,1644000
2012-10-09,3.0,3.02,2.92,2.92,3428000
2012-10-10,2.9,2.93,2.85,2.89,3784000
2012-10-11,2.89,2.99,2.87,2.94,5640000
2012-10-12,2.94,3.03,2.92,2.98,4646437
2012-10-15,2.98,2.98,2.94,2.95,4003300
2012-10-16,2.96,2.99,2.95,2.97,1777034
2012-10-17,2.99,3.09,2.98,3.08,9671700
2012-10-18,3.1,3.13,3.06,3.08,12941549
2012-10-19,3.07,3.07,2.99,3.0,7016000
2012-10-22,3.0,3.04,2.97,2.99,5065300
2012-10-24,2.95,3.08,2.95,3.04,10590045
2012-10-25,3.07,3.11,3.02,3.05,8200000
2012-10-26,3.06,3.06,2.95,2.97,4801700
2012-10-29,2.98,3.07,2.95,3.07,5982816
2012-10-30,3.05,3.07,2.98,3.0,3980000
2012-10-31,3.02,3.19,3.02,3.18,26668296
2012-11-01,3.19,3.23,3.17,3.22,16751438
2012-11-02,3.27,3.28,3.18,3.21,12776000
2012-11-05,3.24,3.24,3.19,3.22,7462000
2012-11-06,3.22,3.23,3.13,3.2,9146000
2012-11-07,3.2,3.24,3.15,3.22,11356000
2012-11-08,3.15,3.18,3.06,3.08,11514000
2012-11-09,3.08,3.16,3.05,3.14,6740000
2012-11-12,3.16,3.19,3.09,3.11,3636000
2012-11-13,3.19,3.35,3.18,3.28,57224000
2012-11-14,3.35,3.38,3.29,3.32,21331070
2012-11-15,3.28,3.32,3.22,3.24,12454000
2012-11-16,3.24,3.43,3.22,3.42,20902000
2012-11-19,3.45,3.51,3.38,3.43,23702000
2012-11-20,3.48,3.48,3.39,3.43,8748000
2012-11-21,3.48,3.48,3.31,3.39,11021000
2012-11-22,3.39,3.39,3.31,3.37,8220000
2012-11-23,3.34,3.4,3.34,3.38,5796000
2012-11-26,3.42,3.5,3.41,3.43,8324000
2012-11-27,3.43,3.49,3.37,3.42,9031617
2012-11-28,3.43,3.45,3.31,3.35,8768000
2012-11-29,3.38,3.41,3.33,3.36,5964716
2012-11-30,3.35,3.4,3.3,3.35,9640000
2012-12-03,3.37,3.37,3.18,3.21,12231687
2012-12-04,3.21,3.27,3.14,3.26,9093000
2012-12-05,3.26,3.31,3.17,3.29,7788374
2012-12-06,3.32,3.32,3.24,3.25,5720000
2012-12-07,3.25,3.3,3.24,3.27,4673327
2012-12-10,3.36,3.49,3.33,3.48,24692000
2012-12-11,3.5,3.52,3.4,3.42,10535139
2012-12-12,3.46,3.46,3.37,3.43,7642000
2012-12-13,3.43,3.43,3.37,3.41,4452000
2012-12-14,3.38,3.46,3.38,3.45,9131300
2012-12-17,3.43,3.47,3.3,3.31,11230720
2012-12-18,3.33,3.41,3.33,3.36,13415280
2012-12-19,3.38,3.42,3.36,3.37,8978000
2012-12-20,3.38,3.42,3.34,3.4,7305446
2012-12-21,3.42,3.42,3.35,3.36,4938474
2012-12-24,3.36,3.39,3.32,3.32,2456000
2012-12-27,3.28,3.36,3.27,3.33,9456000
2012-12-28,3.32,3.39,3.3,3.38,12166305
2012-12-31,3.32,3.45,3.32,3.42,7985000
2013-01-02,3.42,3.49,3.41,3.46,11664677
2013-01-03,3.48,3.65,3.42,3.65,23752000
2013-01-04,3.64,3.65,3.53,3.57,17412000
2013-01-07,3.57,3.66,3.5,3.64,18771082
2013-01-08,3.63,3.63,3.47,3.5,21391700
2013-01-09,3.51,3.55,3.46,3.53,11049292
2013-01-10,3.54,3.62,3.5,3.59,15326000
2013-01-11,3.59,3.61,3.47,3.49,21347700
2013-01-14,3.48,3.73,3.44,3.72,42062500
2013-01-15,3.72,3.82,3.72,3.74,25631700
2013-01-16,3.72,3.87,3.69,3.85,22253700
2013-01-17,3.9,3.92,3.75,3.77,16325000
2013-01-18,3.81,3.83,3.75,3.81,8163700
2013-01-21,3.82,3.91,3.81,3.87,12872857
2013-01-22,3.88,3.9,3.78,3.83,7796787
2013-01-23,3.83,3.85,3.78,3.83,8589900
2013-01-24,3.81,3.93,3.78,3.79,10528000
2013-01-25,3.8,3.81,3.63,3.65,13192000
2013-01-28,3.65,3.82,3.63,3.76,10628200
2013-01-29,3.76,3.91,3.7,3.88,14856000
2013-01-30,3.87,3.92,3.8,3.81,9609700
2013-01-31,3.83,3.83,3.74,3.76,7498374
2013-02-01,3.72,4.02,3.72,3.96,22622408
2013-02-04,4.0,4.01,3.89,3.92,10151400
2013-02-05,3.88,3.88,3.8,3.82,12366045
2013-02-06,3.88,3.93,3.84,3.89,16340000
2013-02-07,3.86,3.91,3.82,3.87,5596000
2013-02-08,3.88,3.91,3.87,3.88,7029906
2013-02-14,3.91,3.91,3.83,3.87,3570137
2013-02-15,3.87,3.95,3.84,3.91,6653113
2013-02-18,3.92,3.92,3.82,3.83,7939100
2013-02-19,3.8,3.84,3.71,3.74,11444000
2013-02-20,3.76,3.76,3.69,3.71,11332000
2013-02-21,3.67,3.69,3.55,3.57,17648000
2013-02-22,3.55,3.66,3.55,3.55,11328000
2013-02-25,3.57,3.62,3.46,3.48,8735000
2013-02-26,3.43,3.47,3.39,3.43,14378531
2013-02-27,3.45,3.47,3.42,3.44,7942000
2013-02-28,3.47,3.66,3.47,3.56,15814693
2013-03-01,3.58,3.59,3.49,3.51,20384000
2013-03-04,3.54,3.54,3.42,3.48,9838000
2013-03-05,3.48,3.78,3.48,3.75,22008000
2013-03-06,3.78,3.88,3.71,3.83,20116700
2013-03-07,3.77,3.83,3.74,3.79,6852000
2013-03-08,3.82,3.84,3.71,3.76,5776600
2013-03-11,3.8,3.81,3.68,3.69,5627300
2013-03-12,3.69,3.79,3.53,3.58,10808000
2013-03-13,3.6,3.65,3.55,3.6,11184000
2013-03-14,3.58,3.61,3.52,3.59,9316000
2013-03-15,3.61,3.69,3.54,3.58,10204000
2013-03-18,3.54,3.54,3.42,3.45,9254000
2013-03-19,3.5,3.51,3.45,3.47,2827000
2013-03-20,3.45,3.56,3.45,3.51,8284000
2013-03-21,3.52,3.65,3.48,3.62,14444000
2013-03-22,3.6,3.68,3.57,3.64,14245169
2013-03-25,3.66,3.83,3.58,3.78,15622000
2013-03-26,3.74,3.77,3.63,3.69,12908000
2013-03-27,3.74,3.91,3.69,3.87,28012000
2013-03-28,3.85,3.85,3.73,3.81,9816000
2013-04-02,3.82,3.93,3.8,3.9,16572000
2013-04-03,3.89,3.93,3.77,3.8,10019000
2013-04-05,3.78,3.78,3.6,3.69,11479066
2013-04-08,3.7,3.82,3.55,3.77,9400000
2013-04-09,3.76,3.85,3.76,3.79,6522000
2013-04-10,3.8,3.84,3.67,3.73,12712000
2013-04-11,3.75,3.83,3.75,3.78,9611200
2013-04-12,3.78,3.86,3.75,3.81,6843000
2013-04-15,3.76,3.76,3.71,3.74,2398000
2013-04-16,3.66,3.8,3.65,3.79,8724000
2013-04-17,3.83,3.83,3.63,3.66,9883134
2013-04-18,3.66,3.73,3.62,3.66,5828000
2013-04-19,3.64,3.77,3.64,3.76,5962000
2013-04-22,3.75,3.8,3.72,3.75,5436000
2013-04-23,3.72,3.78,3.7,3.71,3912000
2013-04-24,3.74,3.79,3.66,3.76,4812000
2013-04-25,3.76,3.8,3.65,3.78,5685000
2013-04-26,3.8,3.84,3.75,3.75,6084000
2013-04-29,3.74,3.78,3.67,3.69,4356000
2013-04-30,3.72,3.76,3.7,3.75,3260989
2013-05-02,3.73,3.89,3.72,3.88,16508000
2013-05-03,3.92,3.94,3.78,3.79,12616000
2013-05-06,3.85,3.86,3.79,3.8,6023200
2013-05-07,3.82,3.92,3.8,3.83,14788000
2013-05-08,3.85,3.93,3.85,3.92,11756800
2013-05-09,3.93,3.98,3.85,3.97,13734000
2013-05-10,4.0,4.21,4.0,4.14,53077912
2013-05-13,4.15,4.22,4.09,4.1,19638000
2013-05-14,4.1,4.15,4.06,4.08,7616000
2013-05-15,4.09,4.32,4.09,4.26,29230488
2013-05-16,4.26,4.3,4.2,4.28,13634000
2013-05-20,4.3,4.33,4.22,4.25,12176003
2013-05-21,4.25,4.25,4.13,4.15,14012000
2013-05-22,4.15,4.18,4.07,4.17,7112000
2013-05-23,4.13,4.2,4.06,4.08,21960000
2013-05-24,4.09,4.13,4.01,4.05,9469000
2013-05-27,4.07,4.13,3.99,4.11,12096000
2013-05-28,4.09,4.24,4.09,4.23,15632000
2013-05-29,4.19,4.25,4.12,4.16,13501986
2013-05-30,4.14,4.17,4.06,4.16,8344599
2013-05-31,4.19,4.2,4.1,4.17,11907504
2013-06-03,4.15,4.15,4.05,4.07,8622781
2013-06-04,4.11,4.11,3.93,3.94,11860252
2013-06-05,3.91,4.03,3.9,3.95,11203734
2013-06-06,3.91,3.97,3.81,3.83,11068000
2013-06-07,3.84,3.9,3.82,3.83,9529287
2013-06-10,3.91,3.93,3.84,3.88,3952000
2013-06-11,3.88,3.91,3.73,3.74,10872000
2013-06-13,3.7,3.73,3.56,3.67,13082860
2013-06-14,3.7,3.77,3.65,3.65,9332800
2013-06-17,3.65,3.83,3.65,3.75,7780000
2013-06-18,3.75,4.15,3.65,4.13,28148296
2013-06-19,4.1,4.1,3.94,4.05,12257812
2013-06-20,4.02,4.07,3.88,3.92,10724000
2013-06-21,3.82,4.04,3.7,4.0,13711800
2013-06-24,3.94,3.97,3.77,3.81,11480700
2013-06-25,3.82,3.85,3.52,3.73,18667234
2013-06-26,3.78,3.88,3.71,3.85,8749800
2013-06-27,3.9,3.99,3.85,3.93,8820713
2013-06-28,3.94,4.03,3.9,4.01,9324000
2013-07-02,3.99,4.05,3.94,4.01,7670000
2013-07-03,4.03,4.03,3.87,3.89,3645103
2013-07-04,3.88,3.96,3.88,3.88,3120647
2013-07-05,3.93,3.99,3.92,3.97,3445207
2013-07-08,3.99,3.99,3.87,3.88,3435608
2013-07-09,3.89,3.95,3.88,3.92,4604000
2013-07-10,3.97,3.97,3.79,3.88,4298200
2013-07-11,3.9,4.02,3.9,3.99,6936410
2013-07-12,4.0,4.11,3.99,4.07,14010054
2013-07-15,4.07,4.16,4.06,4.14,6100000
2013-07-16,4.11,4.16,4.0,4.15,6054900
2013-07-17,4.17,4.21,4.12,4.19,8844000
2013-07-18,4.18,4.18,4.07,4.08,6404400
2013-07-19,4.11,4.24,4.07,4.19,8352000
2013-07-22,4.2,4.22,4.15,4.2,5910315
2013-07-23,4.17,4.34,4.15,4.29,16888004
2013-07-24,4.28,4.4,4.27,4.39,12454553
2013-07-25,4.38,4.38,4.23,4.3,9300700
2013-07-26,4.26,4.32,4.2,4.29,8682000
2013-07-29,4.26,4.28,4.14,4.19,5964000
2013-07-30,4.2,4.24,4.13,4.14,5128000
2013-07-31,4.18,4.2,4.1,4.15,5486000
2013-08-01,4.28,4.28,4.15,4.23,6020000
2013-08-02,4.22,4.27,4.17,4.21,4364000
2013-08-05,4.21,4.24,4.16,4.17,2998400
2013-08-06,4.19,4.22,4.12,4.22,3956000
2013-08-07,4.13,4.23,4.11,4.15,3972000
2013-08-08,4.17,4.18,4.08,4.12,2772000
2013-08-09,4.14,4.24,4.14,4.2,5864000
2013-08-12,4.23,4.23,4.16,4.17,6752000
2013-08-13,4.18,4.27,4.18,4.25,9784000
2013-08-15,4.24,4.26,4.13,4.15,6869600
2013-08-16,4.13,4.28,4.12,4.25,9076000
2013-08-19,4.27,4.27,4.18,4.24,3212000
2013-08-20,4.19,4.25,4.12,4.15,6962600
2013-08-21,4.15,4.19,3.99,4.06,12944000
2013-08-22,4.0,4.11,3.96,4.11,8181894
2013-08-23,4.09,4.15,4.01,4.07,7884000
2013-08-26,4.01,4.11,4.0,4.07,10664000
2013-08-27,4.09,4.09,4.0,4.03,9146000
2013-08-28,3.98,4.01,3.93,4.01,8360000
2013-08-29,4.0,4.01,3.83,3.96,17651000
2013-08-30,3.93,4.0,3.92,3.95,5644078
2013-09-02,4.0,4.02,3.94,3.94,3857260
2013-09-03,3.94,4.02,3.94,3.99,3716000
2013-09-04,4.0,4.02,3.89,3.98,6764526
2013-09-05,3.99,4.14,3.97,4.12,10160557
2013-09-06,4.17,4.17,4.05,4.06,4094400
2013-09-09,4.11,4.19,4.0,4.15,13000000
2013-09-10,4.18,4.2,4.09,4.13,5788000
2013-09-11,4.13,4.23,4.07,4.22,17367008
2013-09-12,4.22,4.23,4.17,4.18,3968048
2013-09-13,4.16,4.22,4.11,4.15,6308000
2013-09-16,4.16,4.19,4.12,4.18,3092000
2013-09-17,4.15,4.21,4.14,4.18,3400000
2013-09-18,4.17,4.17,4.06,4.09,3640935
2013-09-19,4.14,4.15,4.04,4.06,4301235
2013-09-23,3.86,4.11,3.86,4.1,3183349
2013-09-24,4.11,4.13,4.01,4.04,3492000
2013-09-25,4.04,4.07,4.01,4.04,3940000
2013-09-26,4.03,4.05,3.97,3.98,4912000
2013-09-27,4.03,4.06,3.99,3.99,3996000
2013-09-30,3.96,4.0,3.9,3.96,6162000
2013-10-02,3.95,4.02,3.94,3.96,5908500
2013-10-03,3.96,4.0,3.93,3.95,1934800
2013-10-04,3.94,4.09,3.94,4.04,3744000
2013-10-07,4.05,4.05,3.93,3.98,5046000
2013-10-08,4.01,4.02,3.95,3.96,4246999
2013-10-09,3.94,4.02,3.93,3.99,4726000
2013-10-10,4.0,4.02,3.95,4.01,3656000
2013-10-11,4.04,4.08,3.88,3.89,10552000
2013-10-15,3.89,3.97,3.89,3.94,6432691
2013-10-16,3.93,3.94,3.76,3.77,13892006
2013-10-17,3.8,3.84,3.71,3.78,8562000
2013-10-18,3.78,3.82,3.7,3.75,12064000
2013-10-21,3.78,3.78,3.59,3.64,21711000
2013-10-22,3.63,3.69,3.59,3.67,10816000
2013-10-23,3.68,3.79,3.67,3.71,12248000
2013-10-24,3.71,3.73,3.63,3.67,4898700
2013-10-25,3.69,3.69,3.62,3.67,3976000
2013-10-28,3.69,3.78,3.68,3.77,5507600
2013-10-29,3.75,3.77,3.6,3.67,10642400
2013-10-30,3.64,3.67,3.61,3.66,5419100
2013-10-31,3.66,3.68,3.61,3.68,8634900
2013-11-01,3.68,3.68,3.61,3.63,5653274
2013-11-04,3.66,3.66,3.57,3.6,6036000
2013-11-05,3.64,3.64,3.52,3.55,10937221
2013-11-06,3.57,3.69,3.55,3.67,8436000
2013-11-07,3.7,3.7,3.64,3.65,4692000
2013-11-08,3.61,3.66,3.53,3.53,7164136
2013-11-11,3.55,3.62,3.55,3.62,5952000
2013-11-12,3.59,3.63,3.55,3.56,6292000
2013-11-13,3.6,3.82,3.58,3.68,28306500
2013-11-14,3.71,3.97,3.71,3.93,33094000
2013-11-15,3.95,3.96,3.84,3.86,12317001
2013-11-18,3.9,4.29,3.9,4.28,49471776
2013-11-19,4.23,4.32,4.11,4.15,20367230
2013-11-20,4.2,4.52,4.19,4.45,55674636
2013-11-21,4.45,4.48,4.35,4.44,20800542
2013-11-22,4.42,4.56,4.32,4.35,24688772
2013-11-25,4.35,4.61,4.34,4.44,27109922
2013-11-26,4.4,4.46,4.36,4.4,15760343
2013-11-27,4.45,4.51,4.41,4.46,16108411
2013-11-28,4.46,4.53,4.44,4.5,19021928
2013-11-29,4.5,4.7,4.48,4.69,34440104
2013-12-02,4.69,4.69,4.46,4.66,27824104
2013-12-03,4.6,4.61,4.51,4.56,15747935
2013-12-04,4.5,4.62,4.48,4.54,16170132
2013-12-05,4.55,4.79,4.51,4.76,25557552
2013-12-06,4.72,4.74,4.6,4.64,18068000
2013-12-09,4.68,4.72,4.63,4.69,19628000
2013-12-10,4.69,4.72,4.55,4.56,10432986
2013-12-11,4.52,4.56,4.35,4.46,15052000
2013-12-12,4.4,4.51,4.4,4.43,7440000
2013-12-13,4.43,4.51,4.43,4.48,6674271
2013-12-16,4.48,4.53,4.4,4.43,8324000
2013-12-17,4.43,4.46,4.32,4.41,10135314
2013-12-18,4.32,4.39,4.3,4.36,8316000
2013-12-19,4.42,4.42,4.22,4.27,8752000
2013-12-20,4.25,4.3,4.16,4.27,7148000
2013-12-24,4.37,4.53,4.35,4.47,12340315
2013-12-27,4.48,4.48,4.34,4.37,8098000
2013-12-30,4.41,4.49,4.35,4.47,11552959
2013-12-31,4.48,4.53,4.46,4.51,5740220
2014-01-02,4.53,4.7,4.45,4.68,16574000
2014-01-03,4.64,4.89,4.61,4.81,36444268
2014-01-06,4.82,4.82,4.66,4.81,16488929
2014-01-07,4.82,4.82,4.54,4.65,16016000
2014-01-08,4.61,4.74,4.61,4.73,15416000
2014-01-09,4.79,4.94,4.7,4.75,20223892
2014-01-10,4.78,4.79,4.55,4.65,15328935
2014-01-13,4.67,4.68,4.53,4.56,8580000
2014-01-14,4.52,4.56,4.47,4.5,8104000
2014-01-15,4.49,4.78,4.47,4.72,18124104
2014-01-16,4.75,4.82,4.7,4.73,9154000
2014-01-17,4.72,4.75,4.58,4.64,6740000
2014-01-20,4.64,4.72,4.56,4.6,8386020
2014-01-21,4.64,4.64,4.44,4.57,11618000
2014-01-22,4.59,4.59,4.51,4.51,8574386
2014-01-23,4.53,4.66,4.48,4.62,7107123
2014-01-24,4.6,4.67,4.47,4.52,8454000
2014-01-27,4.4,4.45,4.27,4.44,12764000
2014-01-28,4.46,4.49,4.37,4.41,3671994
2014-01-29,4.46,4.56,4.43,4.54,7508000
2014-01-30,4.45,4.55,4.42,4.54,5224000
2014-02-04,4.4,4.55,4.35,4.47,8997315
2014-02-05,4.47,4.48,4.25,4.35,12749200
2014-02-06,4.36,4.4,4.27,4.34,12040000
2014-02-07,4.37,4.62,4.37,4.53,12599000
2014-02-10,4.53,4.62,4.48,4.55,4496000
2014-02-11,4.61,4.62,4.54,4.59,6482831
2014-02-12,4.62,4.64,4.57,4.59,7893514
2014-02-13,4.6,4.83,4.49,4.67,18087000
2014-02-14,4.71,4.86,4.71,4.81,12872462
2014-02-17,4.87,4.95,4.81,4.82,12000212
2014-02-18,4.83,4.93,4.65,4.73,10075454
2014-02-19,4.73,4.85,4.67,4.82,6072000
2014-02-20,4.76,4.86,4.67,4.7,7728278
2014-02-21,4.7,4.82,4.69,4.81,12752220
2014-02-24,4.81,4.81,4.68,4.81,8208000
2014-02-25,4.81,4.81,4.63,4.73,12206000
2014-02-26,4.66,4.72,4.58,4.6,10764000
2014-02-27,4.58,4.68,4.47,4.66,20509100
2014-02-28,4.66,4.74,4.61,4.73,8190160
2014-03-03,4.72,4.85,4.69,4.75,11534000
2014-03-04,4.72,4.78,4.59,4.74,13893650
2014-03-05,4.89,4.89,4.59,4.61,18908618
2014-03-06,4.69,5.02,4.67,5.01,65176912
2014-03-07,5.02,5.12,4.95,5.09,27634444
2014-03-10,5.01,5.07,4.9,4.93,17158000
2014-03-11,4.95,5.12,4.9,5.06,19160000
2014-03-12,5.05,5.07,4.87,5.03,15291000
2014-03-13,4.99,5.06,4.93,5.0,9637171
2014-03-14,4.89,4.96,4.76,4.96,20285000
2014-03-17,4.9,4.91,4.81,4.85,8466750
2014-03-18,4.91,4.92,4.83,4.9,7292780
2014-03-19,4.9,5.04,4.79,4.82,27343376
2014-03-20,4.74,4.84,4.69,4.74,17404452
2014-03-21,4.7,4.77,4.49,4.55,56202400
2014-03-24,4.55,4.73,4.51,4.7,18533264
2014-03-25,4.73,4.73,4.5,4.56,18168000
2014-03-26,4.57,4.66,4.57,4.6,11444000
2014-03-27,4.58,4.64,4.42,4.46,23747280
2014-03-28,4.55,4.55,4.27,4.32,26252000
2014-03-31,4.38,4.41,4.25,4.32,16221007
2014-04-01,4.37,4.39,4.2,4.34,21898612
2014-04-02,4.37,4.39,4.27,4.35,16260000
2014-04-03,4.35,4.44,4.35,4.38,11798890
2014-04-04,4.4,4.4,4.23,4.29,8450000
2014-04-07,4.23,4.28,4.1,4.15,14064000
2014-04-08,4.15,4.27,4.1,4.25,10872000
2014-04-09,4.27,4.29,4.21,4.28,6052000
2014-04-10,4.3,4.5,4.24,4.48,17832000
2014-04-11,4.48,4.48,4.3,4.31,8816753
2014-04-14,4.3,4.33,4.22,4.26,8080424
2014-04-15,4.3,4.35,4.18,4.24,7672201
2014-04-16,4.22,4.26,4.13,4.21,11516000
2014-04-17,4.18,4.22,4.07,4.17,8604000
2014-04-22,4.18,4.3,4.12,4.28,13589360
2014-04-23,4.29,4.47,4.29,4.46,17760000
2014-04-24,4.45,4.67,4.4,4.62,26591000
2014-04-25,4.59,4.61,4.42,4.49,10818000
2014-04-28,4.49,4.49,4.25,4.31,9004000
2014-04-29,4.33,4.41,4.2,4.26,9852200
2014-04-30,4.26,4.27,4.14,4.14,8242051
2014-05-02,4.18,4.28,4.16,4.22,5403068
2014-05-05,4.23,4.25,4.14,4.17,6592000
2014-05-07,4.18,4.26,4.16,4.17,7320916
2014-05-08,4.23,4.25,4.17,4.19,5856708
2014-05-09,4.17,4.21,3.99,4.08,18153900
2014-05-12,4.11,4.2,4.07,4.2,6488543
2014-05-13,4.2,4.25,4.12,4.2,5448000
2014-05-14,4.22,4.27,4.2,4.22,4884000
2014-05-15,4.2,4.38,4.19,4.38,10776505
2014-05-16,4.32,4.5,4.32,4.44,17352000
2014-05-19,4.55,4.59,4.32,4.41,19715376
2014-05-20,4.44,4.46,4.32,4.33,4092000
2014-05-21,4.36,4.39,4.33,4.37,3380000
2014-05-22,4.38,4.41,4.27,4.3,9286000
2014-05-23,4.34,4.34,4.19,4.2,14252000
2014-05-26,4.26,4.32,4.26,4.3,6356000
2014-05-27,4.3,4.35,4.28,4.3,2064000
2014-05-28,4.3,4.33,4.2,4.23,6724000
2014-05-29,4.24,4.27,4.2,4.23,5272000
2014-05-30,4.26,4.27,4.15,4.19,10068197
2014-06-03,4.21,4.31,4.21,4.28,9885939
2014-06-04,4.31,4.31,4.25,4.28,4604000
2014-06-05,4.25,4.29,4.2,4.24,6764000
2014-06-06,4.25,4.34,4.24,4.31,12226000
2014-06-09,4.31,4.31,4.26,4.3,1489695
2014-06-10,4.29,4.36,4.27,4.36,4501300
2014-06-11,4.35,4.36,4.29,4.36,8656000
2014-06-12,4.35,4.36,4.33,4.35,2508000
2014-06-13,4.31,4.36,4.3,4.31,5038000
2014-06-16,4.32,4.38,4.31,4.36,3238000
2014-06-17,4.36,4.37,4.31,4.36,4038000
2014-06-18,4.35,4.38,4.23,4.23,7720678
2014-06-19,4.22,4.27,4.2,4.23,3225000
2014-06-20,4.23,4.25,4.19,4.24,3340682
2014-06-23,4.26,4.27,4.2,4.21,5432000
2014-06-24,4.22,4.25,4.18,4.22,5242000
2014-06-25,4.22,4.22,4.16,4.19,8040691
2014-06-26,4.21,4.21,4.16,4.19,4604000
2014-06-27,4.16,4.26,4.16,4.25,3140097
2014-06-30,4.26,4.48,4.25,4.38,24973974
2014-07-02,4.41,4.6,4.41,4.5,25610514
2014-07-03,4.51,4.58,4.4,4.43,20899168
2014-07-04,4.43,4.47,4.35,4.39,16079094
2014-07-07,4.39,4.52,4.36,4.49,15078000
2014-07-08,4.52,4.52,4.4,4.43,9336000
2014-07-09,4.4,4.5,4.33,4.41,12604000
2014-07-10,4.45,4.45,4.32,4.4,8955608
2014-07-11,4.39,4.43,4.34,4.38,7736000
2014-07-14,4.4,4.58,4.4,4.53,15132000
2014-07-15,4.56,4.57,4.48,4.53,6964000
2014-07-16,4.54,4.6,4.47,4.5,9832806
2014-07-17,4.5,4.51,4.37,4.42,10836000
2014-07-18,4.4,4.47,4.36,4.42,8094299
2014-07-21,4.4,4.42,4.37,4.4,4408000
2014-07-22,4.39,4.47,4.39,4.43,4764000
2014-07-23,4.47,4.5,4.39,4.4,7208000
2014-07-24,4.43,4.47,4.4,4.42,6612000
2014-07-25,4.43,4.47,4.35,4.38,10740000
2014-07-28,4.39,4.43,4.35,4.37,10632000
2014-07-29,4.39,4.42,4.36,4.38,7068000
2014-07-30,4.39,4.63,4.38,4.58,35418068
2014-07-31,4.58,4.59,4.49,4.51,10492302
2014-08-01,4.45,4.56,4.45,4.52,8833000
2014-08-04,4.54,4.57,4.42,4.46,10740000
2014-08-05,4.47,4.7,4.46,4.61,22432000
2014-08-06,4.61,4.68,4.6,4.67,10161735
2014-08-07,4.67,4.68,4.58,4.59,6537128
2014-08-08,4.62,4.85,4.58,4.75,26731624
2014-08-11,4.76,4.83,4.76,4.8,10212000
2014-08-12,4.83,4.84,4.76,4.8,6981128
2014-08-13,4.8,4.82,4.74,4.81,8432000
2014-08-14,4.83,4.98,4.78,4.91,27153780
2014-08-15,4.9,4.95,4.8,4.82,8883533
2014-08-18,4.85,4.96,4.83,4.85,10220000
2014-08-19,4.85,4.92,4.83,4.89,8250000
2014-08-20,4.92,4.92,4.78,4.85,7308405
2014-08-21,4.85,4.85,4.69,4.78,9098000
2014-08-22,4.79,4.82,4.69,4.76,12112000
2014-08-25,4.75,4.81,4.72,4.8,4598000
2014-08-26,4.8,4.88,4.65,4.71,10288000
2014-08-27,4.75,4.75,4.62,4.63,15998000
2014-08-28,4.67,4.68,4.48,4.52,25387880
2014-08-29,4.53,4.69,4.52,4.62,22267852
2014-09-01,4.64,4.83,4.64,4.73,23488000
2014-09-02,4.72,4.97,4.72,4.91,38582000
2014-09-03,4.94,5.15,4.92,5.07,57400108
2014-09-04,5.04,5.28,4.99,5.24,48198100
2014-09-05,5.26,5.26,5.12,5.21,19603056
2014-09-08,5.21,5.23,5.11,5.15,9809600
2014-09-10,5.13,5.4,5.1,5.29,31248086
2014-09-11,5.32,5.49,5.28,5.39,31627980
2014-09-12,5.35,5.39,5.21,5.31,24311360
2014-09-15,5.29,5.35,5.18,5.25,14439432
2014-09-16,5.19,5.32,5.02,5.04,20096964
2014-09-17,5.12,5.21,5.06,5.17,17736944
2014-09-18,5.19,5.27,5.15,5.2,12038564
2014-09-19,5.2,5.5,5.19,5.42,31460000
2014-09-22,5.44,5.46,5.25,5.29,15132164
2014-09-23,5.25,5.33,5.22,5.29,13859000
2014-09-24,5.25,5.66,5.25,5.58,42178280
2014-09-25,5.65,5.68,5.49,5.53,20324722
2014-09-26,5.47,5.85,5.39,5.77,33751000
2014-09-29,5.63,5.85,5.46,5.73,47062000
2014-09-30,5.7,5.71,5.49,5.55,21734000
2014-10-03,5.48,5.78,5.39,5.73,29190000
2014-10-06,5.73,6.06,5.7,5.97,33872308
2014-10-07,5.97,6.2,5.92,6.0,22677762
2014-10-08,5.92,6.05,5.92,6.0,16196000
2014-10-09,6.0,6.1,5.95,6.08,13436910
2014-10-10,6.03,6.33,5.9,5.99,36924000
2014-10-13,5.92,6.04,5.58,5.84,33502520
2014-10-14,5.79,6.16,5.79,5.95,21186000
2014-10-15,6.0,6.04,5.69,5.72,21096000
2014-10-16,5.7,5.85,5.54,5.58,25161884
2014-10-17,5.62,5.75,5.44,5.59,35858000
2014-10-20,5.65,5.68,5.5,5.54,11420341
2014-10-21,5.6,5.82,5.6,5.8,19698200
2014-10-22,5.82,5.98,5.78,5.8,13044000
2014-10-23,5.88,5.89,5.64,5.69,8565000
2014-10-24,5.73,5.76,5.64,5.67,5768000
2014-10-27,5.69,5.69,5.5,5.53,14039143
2014-10-28,5.55,5.76,5.55,5.75,10740000
2014-10-29,5.75,5.95,5.73,5.88,20084000
2014-10-30,5.91,5.91,5.81,5.87,5125667
2014-10-31,5.91,5.92,5.83,5.9,9494200
2014-11-03,5.93,6.09,5.84,5.92,16199233
2014-11-04,5.85,6.14,5.85,6.09,19658524
2014-11-05,6.11,6.17,6.04,6.16,13322450
2014-11-06,6.22,6.28,6.14,6.17,11147798
2014-11-07,6.17,6.2,5.96,5.98,9544000
2014-11-10,6.06,6.24,5.92,6.18,20520000
2014-11-11,6.21,6.32,6.0,6.08,19068000
2014-11-12,6.12,6.2,6.07,6.14,15492041
2014-11-13,6.14,6.18,5.85,5.89,24866040
2014-11-14,5.94,6.06,5.83,6.03,15560000
2014-11-17,6.06,6.08,5.75,5.78,13155501
2014-11-18,5.86,5.9,5.74,5.76,11946378
2014-11-19,5.77,5.82,5.63,5.65,8860736
2014-11-20,5.68,5.79,5.65,5.72,8839333
2014-11-21,5.76,5.77,5.53,5.62,11002000
2014-11-24,5.71,5.71,5.49,5.57,15271670
2014-11-25,5.55,5.74,5.55,5.72,11911212
2014-11-26,5.75,5.83,5.58,5.82,19816028
2014-11-27,5.84,5.85,5.6,5.68,15745000
2014-11-28,5.66,5.66,5.38,5.47,21084000
2014-12-01,5.5,5.52,5.15,5.19,24589340
2014-12-02,5.22,5.36,5.19,5.22,15206564
2014-12-03,5.26,5.26,5.0,5.18,23021422
2014-12-04,5.19,5.47,5.06,5.42,30572088
2014-12-05,5.45,5.74,5.3,5.66,31969956
2014-12-08,5.7,5.88,5.5,5.52,20932588
2014-12-09,5.52,5.6,5.1,5.24,28482000
2014-12-10,5.24,5.48,5.22,5.47,11262928
2014-12-11,5.4,5.4,5.22,5.23,11718800
2014-12-12,5.43,5.44,5.32,5.36,7578249
2014-12-15,4.95,5.12,4.85,5.09,42719820
2014-12-16,5.05,5.18,4.97,5.13,19801278
2014-12-17,5.17,5.17,4.85,4.93,18073960
2014-12-18,4.97,4.99,4.77,4.83,13943765
2014-12-19,4.88,4.93,4.83,4.85,7659176
2014-12-22,4.85,4.9,4.78,4.85,7805245
2014-12-23,4.93,4.96,4.8,4.84,10366554
2014-12-24,4.84,4.87,4.82,4.85,2640931
2014-12-29,4.89,4.9,4.73,4.8,8151358
2014-12-30,4.8,4.85,4.7,4.82,10178406
2014-12-31,4.8,4.88,4.78,4.79,5538400
2015-01-02,4.8,5.38,4.8,5.38,23548914
2015-01-05,5.37,5.45,5.22,5.25,13757861
2015-01-06,5.21,5.35,5.19,5.34,13718918
2015-01-07,5.36,5.38,5.29,5.32,7130280
2015-01-08,5.35,5.35,5.23,5.3,5597893
2015-01-09,5.34,5.34,5.15,5.16,9561143
2015-01-12,5.25,5.25,4.97,5.1,8348000
2015-01-13,5.1,5.16,5.05,5.11,4666340
2015-01-14,5.14,5.15,4.98,5.06,5476000
2015-01-15,5.05,5.06,4.95,5.04,7290737
2015-01-16,5.04,5.13,4.95,5.07,8146303
2015-01-17,5.9,5.9,5.9,5.9,0
2015-01-19,5.04,5.09,4.85,4.9,9136000
2015-01-20,4.99,4.99,4.84,4.95,10521952
2015-01-21,4.98,5.13,4.98,5.1,11474400
2015-01-22,5.13,5.24,5.05,5.19,14744694
2015-01-23,5.25,5.25,5.05,5.1,10040818
2015-01-26,5.09,5.19,5.09,5.12,6985000
2015-01-27,5.13,5.13,4.98,4.99,10775625
2015-01-28,4.98,5.15,4.96,5.08,12200405
2015-01-29,5.09,5.11,4.95,4.98,10091592
2015-01-30,5.06,5.06,4.96,5.03,6492000
2015-02-02,5.06,5.06,4.93,4.96,8103593
2015-02-03,4.93,4.99,4.81,4.93,13384000
2015-02-04,4.97,5.05,4.91,4.95,9492000
2015-02-05,5.0,5.02,4.85,4.87,11432000
2015-02-06,4.94,4.95,4.69,4.79,12744000
2015-02-09,4.78,4.78,4.6,4.61,18655200
2015-02-10,4.61,4.68,4.53,4.6,18372000
2015-02-11,4.63,4.69,4.53,4.55,11718932
2015-02-12,4.55,4.62,4.54,4.57,10199800
2015-02-13,4.62,4.7,4.6,4.62,6500000
2015-02-16,4.66,4.7,4.65,4.67,5301530
2015-02-17,4.68,4.82,4.65,4.79,13334575
2015-02-18,4.75,4.87,4.75,4.82,3980000
2015-02-23,4.79,4.8,4.72,4.74,6865559
2015-02-24,4.75,4.87,4.74,4.85,6203315
2015-02-25,4.85,5.01,4.82,4.95,16957148
2015-02-26,4.94,4.97,4.87,4.91,6094000
2015-02-27,4.99,5.2,4.98,5.05,29770908
2015-03-02,5.08,5.08,4.96,5.02,10367143
2015-03-03,5.04,5.16,5.01,5.08,16207309
2015-03-04,5.05,5.13,5.05,5.13,11294854
2015-03-05,5.13,5.2,5.1,5.17,11678694
2015-03-06,5.2,5.2,5.1,5.18,12589148
2015-03-09,5.17,5.17,5.05,5.14,6178916
2015-03-10,5.11,5.19,5.05,5.06,7975406
2015-03-11,5.03,5.09,5.0,5.02,5633047
2015-03-12,5.02,5.05,4.92,4.95,7231407
2015-03-13,4.88,4.94,4.84,4.87,11876188
2015-03-16,4.84,4.88,4.83,4.84,14318000
2015-03-17,4.88,4.95,4.84,4.93,7636674
2015-03-18,4.93,4.93,4.83,4.89,8526397
2015-03-19,4.9,4.95,4.88,4.91,5428000
2015-03-20,4.89,4.92,4.8,4.81,11860000
2015-03-23,4.85,4.85,4.75,4.84,12845436
2015-03-24,4.84,4.91,4.8,4.82,11141611
2015-03-25,4.85,5.01,4.84,4.94,20465000
2015-03-26,4.95,5.05,4.92,5.0,11859074
2015-03-27,4.98,5.0,4.92,4.97,9194000
2015-03-30,5.1,5.59,5.03,5.35,55006500
2015-03-31,5.49,5.65,5.4,5.57,40856040
2015-04-01,5.55,5.95,5.55,5.83,40962160
2015-04-02,5.87,6.28,5.87,6.22,53276960
2015-04-08,6.58,7.39,6.58,6.98,89222144
2015-04-09,7.35,7.77,7.18,7.22,86020576
2015-04-10,7.28,7.5,7.0,7.25,58031148
2015-04-13,7.3,7.86,7.25,7.69,41750768
2015-04-14,7.75,7.85,7.11,7.14,47031844
2015-04-15,7.24,7.53,7.04,7.24,35614164
2015-04-16,7.25,7.71,7.2,7.67,32310936
2015-04-17,7.74,7.76,7.2,7.3,28299100
2015-04-20,7.38,7.65,6.96,7.1,50749592
2015-04-21,7.2,7.78,7.18,7.75,56489428
2015-04-22,7.81,8.96,7.81,8.87,86163360
2015-04-23,9.0,9.42,8.45,8.74,57109412
2015-04-24,9.0,9.3,8.46,8.86,50195576
2015-04-27,8.98,9.56,8.98,9.2,45804292
2015-04-28,9.2,9.2,8.82,8.96,27403676
2015-04-29,8.96,9.09,8.7,8.94,33566856
2015-04-30,8.71,9.02,8.71,8.82,29126648
2015-05-04,9.05,9.33,8.84,9.05,31748148
2015-05-05,9.28,9.31,8.75,8.89,23804222
2015-05-06,9.0,9.12,8.2,8.32,32165740
2015-05-07,8.18,8.2,7.8,7.85,42932184
2015-05-08,8.03,8.34,7.98,8.24,28397554
2015-05-11,8.57,8.6,8.28,8.53,14389926
2015-05-12,8.58,8.68,8.41,8.51,17528066
2015-05-13,8.61,8.67,8.21,8.31,12672000
2015-05-14,8.4,8.55,8.22,8.24,14727199
2015-05-15,8.36,8.48,8.01,8.43,17991320
2015-05-18,8.35,8.51,8.31,8.5,12274200
2015-05-19,8.58,8.58,8.37,8.56,8893313
2015-05-20,8.6,9.48,8.56,9.46,53328536
2015-05-21,9.49,9.83,9.3,9.61,34059984
2015-05-22,9.61,9.67,9.13,9.49,24458328
2015-05-26,10.18,10.4,9.93,10.32,43797972
2015-05-27,10.3,10.3,9.88,10.16,29061668
2015-05-28,10.14,10.5,9.39,9.75,31438770
2015-05-29,9.7,10.16,9.51,9.85,19931154
2015-06-01,9.85,10.1,9.7,9.97,15207749
2015-06-02,10.1,10.12,9.63,9.79,12388787
2015-06-03,9.91,9.91,9.33,9.43,12748561
2015-06-04,9.41,9.77,9.21,9.4,18206922
2015-06-05,9.4,9.5,9.2,9.32,10082490
2015-06-08,9.25,9.38,9.07,9.1,19791896
2015-06-09,9.04,9.06,8.5,8.51,31256016
2015-06-10,8.59,9.14,8.4,8.49,24145786
2015-06-11,8.7,8.81,8.43,8.51,14103300
2015-06-12,8.69,9.18,8.62,9.07,21512054
2015-06-15,9.08,9.1,8.72,8.82,8083790
2015-06-16,8.8,8.91,8.4,8.4,10438843
2015-06-17,8.33,8.64,8.2,8.55,13112928
2015-06-18,8.63,8.85,8.48,8.52,11272574
2015-06-19,8.49,8.67,8.19,8.22,10465764
2015-06-22,8.15,8.45,8.01,8.26,10762700
2015-06-23,8.41,8.8,8.25,8.7,16403400
2015-06-24,8.8,8.89,8.61,8.76,8144915
2015-06-25,8.81,8.96,8.64,8.69,8941926
2015-06-26,8.5,8.69,8.1,8.29,18987328
2015-06-29,8.31,8.32,7.35,7.69,27066428
2015-06-30,7.56,7.78,7.02,7.58,52387852
2015-07-02,7.48,7.62,7.15,7.31,21408586
2015-07-03,7.3,7.3,6.23,6.29,60728336
2015-07-06,6.5,6.9,4.82,5.63,90291648
2015-07-07,5.7,5.74,4.78,5.0,73806816
2015-07-08,4.57,4.75,3.9,4.51,112986912
2015-07-09,4.72,6.06,4.64,6.0,106872200
2015-07-10,6.28,7.0,6.22,6.97,94946080
2015-07-13,7.0,7.27,6.65,7.1,58014500
2015-07-14,7.12,7.25,6.7,6.85,35187000
2015-07-15,6.85,6.85,6.27,6.31,38132752
2015-07-16,6.34,6.78,6.12,6.65,22505200
2015-07-17,6.77,7.14,6.67,6.96,34841328
2015-07-20,6.97,7.42,6.97,7.13,30037926
2015-07-21,7.27,7.27,6.97,7.08,17531744
2015-07-22,6.98,7.15,6.78,6.98,17495788
2015-07-23,6.89,7.2,6.85,7.17,23687500
2015-07-24,7.11,7.35,6.95,6.99,25304000
2015-07-27,6.85,6.89,6.1,6.16,46930476
2015-07-28,6.0,6.6,5.9,6.22,32327468
2015-07-29,6.36,6.66,6.31,6.59,26563756
2015-07-30,6.66,6.92,6.59,6.72,30469000
2015-07-31,6.8,6.8,6.37,6.5,18977000
2015-08-03,6.46,6.5,6.05,6.15,26814994
2015-08-04,6.1,6.42,6.08,6.33,23686370
2015-08-05,6.36,6.48,6.26,6.36,9411462
2015-08-06,6.41,6.45,6.29,6.31,9806413
2015-08-07,6.31,6.55,6.31,6.49,12658920
2015-08-10,6.56,7.07,6.51,7.01,32907890
2015-08-11,7.2,7.3,6.66,6.69,30935920
2015-08-12,7.04,7.26,6.81,6.9,74314000
2015-08-13,7.1,7.11,6.8,7.05,24475500
2015-08-14,7.09,7.2,6.95,7.18,18074724
2015-08-17,7.16,7.16,6.94,7.07,15087928
2015-08-18,7.12,7.12,6.54,6.6,23980864
2015-08-19,6.74,6.8,6.28,6.5,35964704
2015-08-20,6.4,6.46,6.02,6.06,33861208
2015-08-21,5.85,5.85,5.34,5.58,49941000
2015-08-24,5.25,5.26,4.76,4.89,56066604
2015-08-25,4.98,5.42,4.84,5.11,62193680
2015-08-26,5.18,5.4,4.94,5.02,45946792
2015-08-27,5.3,5.59,5.17,5.56,41444884
2015-08-28,5.8,5.95,5.59,5.73,55361408
2015-08-31,5.62,5.7,5.25,5.39,33991828
2015-09-01,5.28,5.37,5.07,5.08,20672824
2015-09-02,4.98,5.29,4.82,4.97,42909288
2015-09-04,5.04,5.05,4.84,4.97,11792923
2015-09-07,4.94,5.22,4.9,4.94,18967250
2015-09-08,4.99,5.35,4.97,5.34,29764000
2015-09-09,5.39,5.52,5.31,5.49,39171000
2015-09-10,5.36,5.53,5.29,5.41,18293200
2015-09-11,5.45,5.53,5.33,5.34,13933794
2015-09-14,5.5,5.55,5.25,5.34,17779192
2015-09-15,5.28,5.37,5.03,5.07,18703222
2015-09-16,5.14,5.47,5.09,5.36,22971260
2015-09-17,5.44,5.68,5.37,5.56,31801800
2015-09-18,5.58,5.85,5.55,5.82,23235000
2015-09-21,5.72,6.05,5.69,5.83,19103872
2015-09-22,5.88,5.9,5.62,5.63,12393000
2015-09-23,5.62,5.71,5.42,5.5,14118998
2015-09-24,5.5,5.65,5.46,5.58,9122000
2015-09-25,5.78,5.78,5.53,5.7,13960000
2015-09-29,5.51,5.6,5.36,5.39,13868875
2015-09-30,5.44,5.78,5.38,5.71,29114928
2015-10-02,5.97,6.45,5.89,6.44,64940440
2015-10-05,6.56,6.66,6.27,6.39,27804286
2015-10-06,6.5,6.5,6.19,6.29,18684060
2015-10-07,6.31,6.56,6.24,6.56,20891928
2015-10-08,6.58,6.66,6.38,6.45,19647890
2015-10-09,6.41,6.72,6.41,6.63,24695260
2015-10-12,6.72,6.84,6.65,6.72,22267394
2015-10-13,6.75,6.84,6.57,6.61,11858000
2015-10-14,6.64,6.73,6.49,6.52,13207089
2015-10-15,6.62,6.88,6.5,6.82,17999234
2015-10-16,6.9,6.9,6.73,6.75,10871748
2015-10-19,6.75,6.8,6.53,6.59,12871222
2015-10-20,6.55,6.69,6.48,6.59,9444148
2015-10-22,6.45,6.57,6.33,6.46,18254138
2015-10-23,6.6,6.68,6.53,6.58,12603148
2015-10-26,6.63,6.69,6.45,6.52,8517545
2015-10-27,6.52,6.88,6.4,6.86,25123000
2015-10-28,6.8,6.8,6.6,6.62,21182140
2015-10-29,6.62,6.69,6.43,6.45,12906136
2015-10-30,6.45,6.5,6.32,6.35,14032659
2015-11-02,6.25,6.34,6.1,6.11,14906000
2015-11-03,6.24,6.24,6.14,6.18,6690255
2015-11-04,6.18,6.49,6.16,6.39,22367780
2015-11-05,6.31,6.49,6.26,6.37,11338140
2015-11-06,6.35,6.49,6.31,6.41,6407600
2015-11-09,6.45,6.67,6.37,6.59,16229640
2015-11-10,6.53,6.61,6.35,6.4,15513000
2015-11-11,6.4,6.53,6.32,6.48,10946789
2015-11-12,6.5,6.57,6.45,6.51,7643000
2015-11-13,6.4,6.47,6.34,6.36,10304222
2015-11-16,6.25,6.31,6.18,6.22,8975081
2015-11-17,6.27,6.45,6.27,6.38,12985613
2015-11-18,6.4,6.45,6.25,6.28,6966259
2015-11-19,6.33,6.49,6.28,6.47,8935000
2015-11-20,6.47,6.8,6.43,6.77,26987492
2015-11-23,6.78,6.97,6.72,6.86,17645384
2015-11-24,6.86,6.92,6.68,6.79,8374948
2015-11-25,6.93,6.97,6.68,6.75,10582977
2015-11-26,6.85,6.95,6.77,6.89,21504928
2015-11-27,7.08,7.19,6.63,6.67,40053980
2015-11-30,6.63,6.75,6.5,6.58,20463904
2015-12-01,6.67,6.74,6.62,6.72,11392723
2015-12-02,6.74,6.75,6.58,6.73,9808680
2015-12-03,6.69,6.73,6.64,6.68,6957549
2015-12-04,6.49,6.59,6.49,6.53,7432500
2015-12-07,6.57,6.73,6.57,6.64,7438000
2015-12-08,6.61,6.61,6.41,6.48,6431800
2015-12-09,6.5,6.5,6.24,6.26,12525000
2015-12-10,6.24,6.35,6.12,6.18,11622222
2015-12-11,6.17,6.2,5.86,5.87,18305044
2015-12-14,5.75,6.09,5.61,6.06,11343388
2015-12-15,6.06,6.18,5.98,6.0,9668771
2015-12-16,6.15,6.26,6.1,6.16,8259236
2015-12-17,6.2,6.39,6.2,6.36,9636000
2015-12-18,6.27,6.32,6.21,6.26,5490162
2015-12-21,6.15,6.36,6.14,6.34,6034491
2015-12-22,6.33,6.42,6.26,6.29,5893907
2015-12-23,6.33,6.34,6.25,6.28,3911360
2015-12-24,6.34,6.34,6.18,6.18,2952000
2015-12-28,6.18,6.25,5.95,6.01,9181000
2015-12-29,6.06,6.21,6.04,6.2,7490420
2015-12-30,6.24,6.25,6.04,6.07,8459900
2015-12-31,6.09,6.1,6.05,6.1,3710000
2016-01-04,6.13,6.24,5.82,5.95,20727160
2016-01-05,5.95,6.02,5.86,6.0,13139487
2016-01-06,6.0,6.04,5.92,5.96,8361370
2016-01-07,5.82,5.9,5.5,5.61,26249220
2016-01-08,5.63,5.76,5.56,5.58,8905161
2016-01-11,5.4,5.45,5.25,5.3,15364522
2016-01-12,5.4,5.45,5.24,5.25,8515000
2016-01-13,5.38,5.53,5.31,5.38,15288494
2016-01-14,5.23,5.38,5.18,5.34,15096861
2016-01-15,5.4,5.5,5.2,5.21,15019500
2016-01-18,5.19,5.22,5.06,5.11,11828000
2016-01-19,5.13,5.57,5.13,5.55,15781000
2016-01-20,5.43,5.55,5.2,5.23,14991000
2016-01-21,5.25,5.45,4.98,5.05,25182000
2016-01-22,5.24,5.41,5.11,5.34,16298000
2016-01-25,5.42,5.51,5.36,5.49,10858000
2016-01-26,5.39,5.39,5.1,5.14,12010000
2016-01-27,5.26,5.29,5.01,5.08,19060000
2016-01-28,5.08,5.16,4.94,5.07,12789000
2016-01-29,5.07,5.38,5.01,5.38,18203700
2016-02-01,5.4,5.47,5.28,5.39,14839000
2016-02-02,5.37,5.48,5.32,5.35,6568000
2016-02-03,5.2,5.2,5.06,5.11,12492851
2016-02-04,5.19,5.25,5.15,5.21,5268000
2016-02-05,5.24,5.26,5.16,5.2,4230590
2016-02-11,5.0,5.06,4.95,4.98,9022281
2016-02-12,4.91,4.98,4.76,4.81,10297612
2016-02-15,4.89,5.21,4.88,5.2,14404000
2016-02-16,5.3,5.55,5.23,5.52,17184300
2016-02-17,5.46,5.62,5.35,5.48,14470262
2016-02-18,5.61,5.67,5.52,5.6,12412400
2016-02-19,5.6,5.65,5.53,5.58,7870574
2016-02-22,5.55,5.67,5.55,5.66,4867910
2016-02-23,5.68,5.72,5.51,5.54,8291000
2016-02-24,5.55,5.69,5.5,5.69,9263000
2016-02-25,5.7,5.7,5.36,5.4,8013846
2016-02-26,5.53,5.57,5.42,5.54,4807914
2016-02-29,5.54,5.57,5.28,5.31,8621185
2016-03-01,5.37,5.62,5.36,5.61,8002000
2016-03-02,5.69,5.79,5.65,5.78,13179179
2016-03-03,5.82,5.85,5.68,5.79,10169591
2016-03-04,5.8,5.95,5.7,5.77,15787116
2016-03-07,5.77,5.9,5.68,5.74,13612510
2016-03-08,5.74,5.79,5.51,5.6,9345107
2016-03-09,5.57,5.57,5.44,5.46,7607000
2016-03-10,5.5,5.56,5.34,5.39,9088025
2016-03-11,5.42,5.5,5.37,5.49,6710822
2016-03-14,5.6,5.69,5.52,5.56,7211066
2016-03-15,5.57,5.57,5.43,5.45,4777000
2016-03-16,5.44,5.51,5.22,5.25,13460998
2016-03-17,5.34,5.49,5.32,5.46,10608316
2016-03-18,5.47,5.56,5.46,5.56,9902476
2016-03-21,5.6,5.68,5.56,5.65,7871000
2016-03-22,5.66,5.85,5.6,5.84,14262000
2016-03-23,5.82,5.82,5.64,5.68,6899400
2016-03-24,5.63,5.69,5.55,5.6,7117000
2016-03-29,5.56,5.7,5.56,5.59,5485000
2016-03-30,5.61,5.75,5.61,5.7,9910000
2016-03-31,5.71,5.84,5.69,5.82,10568000
2016-04-01,5.83,5.86,5.73,5.8,7540000
2016-04-05,5.82,5.82,5.55,5.7,5820471
2016-04-06,5.68,5.74,5.65,5.74,3946616
2016-04-07,5.74,5.81,5.7,5.76,3782000
2016-04-08,5.63,5.84,5.63,5.83,6076000
2016-04-11,5.82,5.93,5.76,5.9,7287820
2016-04-12,5.83,5.9,5.78,5.81,4241472
2016-04-13,5.88,5.99,5.84,5.92,12800000
2016-04-14,5.99,6.08,5.91,5.93,9470880
2016-04-15,6.0,6.1,5.99,6.04,11410000
2016-04-18,6.0,6.01,5.82,5.97,6093000
2016-04-19,6.04,6.04,5.88,5.98,7220184
2016-04-20,5.96,6.0,5.87,5.97,9480650
2016-04-21,6.0,6.04,5.88,5.92,7749275
2016-04-22,5.85,5.91,5.78,5.87,7272428
2016-04-25,5.89,5.89,5.53,5.57,14920000
2016-04-26,5.6,5.63,5.36,5.56,14018564
2016-04-27,5.52,5.54,5.43,5.46,5341300
2016-04-28,5.52,5.57,5.42,5.45,6903000
2016-04-29,5.5,5.5,5.37,5.44,4326500
2016-05-03,5.47,5.48,5.26,5.28,10313000
2016-05-04,5.28,5.3,5.18,5.26,10138202
2016-05-05,5.31,5.48,5.31,5.42,13485000
2016-05-06,5.43,5.47,5.23,5.26,8325000
2016-05-09,5.3,5.31,5.16,5.18,5318000
2016-05-10,5.11,5.28,5.11,5.23,7081000
2016-05-11,5.27,5.29,5.2,5.22,4715847
2016-05-12,5.15,5.22,5.14,5.19,3057000
2016-05-13,5.24,5.24,5.06,5.09,7301000
2016-05-16,5.06,5.2,5.05,5.15,7155570
2016-05-17,5.16,5.21,5.12,5.18,7424475
2016-05-18,5.13,5.24,5.11,5.19,8253838
2016-05-19,5.23,5.35,5.21,5.26,10414500
2016-05-20,5.26,5.35,5.22,5.26,5966679
2016-05-23,5.3,5.34,5.22,5.25,5105000
2016-05-24,5.31,5.39,5.26,5.38,9579000
2016-05-25,5.44,5.48,5.35,5.43,9205339
2016-05-26,5.44,5.44,5.36,5.37,3509565
2016-05-27,5.39,5.42,5.33,5.42,3248000
2016-05-30,5.4,5.41,5.31,5.41,6593480
2016-05-31,5.4,5.49,5.37,5.46,11687418
2016-06-01,5.5,5.5,5.44,5.47,8508000
2016-06-02,5.51,5.51,5.44,5.49,5133000
2016-06-03,5.51,5.51,5.41,5.46,4973801
2016-06-06,5.43,5.49,5.35,5.4,4819000
2016-06-07,5.44,5.5,5.41,5.48,7444000
2016-06-08,5.5,5.5,5.4,5.43,3353000
2016-06-10,5.4,5.4,5.29,5.31,5469000
2016-06-13,5.29,5.29,5.19,5.22,6054000
2016-06-14,5.21,5.22,5.12,5.13,7247100
2016-06-15,5.1,5.24,5.09,5.2,8177757
2016-06-16,5.15,5.26,5.14,5.22,8375309
2016-06-17,5.3,5.34,5.16,5.19,6318940
2016-06-20,5.24,5.24,5.19,5.2,5236000
2016-06-21,5.25,5.32,5.23,5.26,4822000
2016-06-22,5.26,5.31,5.2,5.29,2969000
2016-06-23,5.28,5.33,5.25,5.29,2973002
2016-06-24,5.23,5.28,5.04,5.14,12078000
2016-06-27,5.05,5.18,5.05,5.11,8851459
2016-06-28,5.06,5.23,5.06,5.21,9611643
2016-06-29,5.24,5.35,5.14,5.27,6427000
2016-06-30,5.27,5.38,5.27,5.37,6128178
2016-07-04,5.4,5.55,5.39,5.51,12055000
2016-07-05,5.51,5.59,5.43,5.46,8087000
2016-07-06,5.44,5.52,5.34,5.51,6580000
2016-07-07,5.54,5.55,5.43,5.5,6580700
2016-07-08,5.43,5.57,5.43,5.56,5511836
2016-07-11,5.6,5.73,5.55,5.72,10954920
2016-07-12,5.75,5.85,5.64,5.85,13465524
2016-07-13,5.88,5.97,5.78,5.87,17687000
2016-07-14,5.85,5.86,5.78,5.85,6251283
2016-07-15,5.89,5.89,5.77,5.81,10358736
2016-07-18,5.78,5.79,5.63,5.64,9630909
2016-07-19,5.65,5.66,5.53,5.57,7150753
2016-07-20,5.55,5.65,5.51,5.62,5578000
2016-07-21,5.59,5.65,5.59,5.62,9064013
2016-07-22,5.61,5.65,5.55,5.62,4983800
2016-07-25,5.66,5.66,5.59,5.66,4984757
2016-07-26,5.67,5.84,5.66,5.78,11683075
2016-07-27,5.83,5.83,5.65,5.71,7942011
2016-07-28,5.77,5.8,5.68,5.8,6319000
2016-07-29,5.84,5.84,5.66,5.68,6215400
2016-08-01,5.74,5.78,5.68,5.74,3161000
2016-08-03,5.7,5.7,5.61,5.61,4251000
2016-08-04,5.63,5.69,5.57,5.67,6069650
2016-08-05,5.68,5.72,5.6,5.66,4613700
2016-08-08,5.69,5.83,5.62,5.83,8447000
2016-08-09,5.84,5.85,5.79,5.83,7620000
2016-08-10,5.89,5.98,5.84,5.98,21414000
2016-08-11,5.99,6.01,5.91,5.94,11280000
2016-08-12,5.99,6.0,5.9,6.0,14092714
2016-08-15,6.0,6.05,5.9,5.91,7635000
2016-08-16,5.97,6.0,5.84,5.9,6113000
2016-08-17,5.9,5.92,5.75,5.8,7995000
2016-08-18,5.81,5.9,5.75,5.9,9711000
2016-08-19,5.86,5.88,5.78,5.85,4358001
2016-08-22,5.85,5.89,5.77,5.89,8507932
2016-08-23,5.87,5.95,5.83,5.85,5806000
2016-08-24,5.9,5.9,5.79,5.89,5436300
2016-08-25,5.86,5.88,5.6,5.61,16207000
2016-08-26,5.6,5.65,5.51,5.56,8188000
2016-08-29,5.69,5.74,5.59,5.64,11309988
2016-08-30,5.66,5.71,5.62,5.68,7177310
2016-08-31,5.68,5.7,5.57,5.7,13854713
2016-09-01,5.69,5.69,5.61,5.61,4203159
2016-09-02,5.67,5.67,5.58,5.59,4644195
2016-09-05,5.65,5.67,5.59,5.61,6389281
2016-09-06,5.65,5.88,5.63,5.84,21971504
2016-09-07,5.92,5.98,5.8,5.83,14485290
2016-09-08,5.89,5.89,5.76,5.78,8705100
2016-09-09,5.79,5.96,5.79,5.83,21233000
2016-09-12,5.76,5.76,5.57,5.59,15038441
2016-09-13,5.63,5.67,5.57,5.59,5756000
2016-09-14,5.59,5.59,5.52,5.56,5505000
2016-09-15,5.54,5.63,5.52,5.57,5083000
2016-09-19,5.57,5.65,5.53,5.6,9023000
2016-09-20,5.57,5.61,5.43,5.43,11444428
2016-09-21,5.43,5.46,5.35,5.43,14804600
2016-09-22,5.47,5.56,5.45,5.49,7004335
2016-09-23,5.49,5.52,5.4,5.41,3242000
2016-09-26,5.38,5.45,5.26,5.29,8847000
2016-09-27,5.32,5.35,5.27,5.33,5520441
2016-09-28,5.33,5.36,5.26,5.3,4779334
2016-09-29,5.35,5.35,5.28,5.33,3363000
2016-09-30,5.28,5.32,5.21,5.22,6422668
2016-10-03,5.29,5.32,5.24,5.26,3741000
2016-10-04,5.24,5.31,5.24,5.3,3747000
2016-10-05,5.31,5.42,5.26,5.4,4587603
2016-10-06,5.43,5.52,5.38,5.52,6108090
2016-10-07,5.54,5.54,5.44,5.49,3019000
2016-10-11,5.45,5.54,5.44,5.49,4939000
2016-10-12,5.49,5.49,5.33,5.41,6643000
2016-10-13,5.37,5.37,5.29,5.34,5261000
2016-10-14,5.36,5.36,5.26,5.26,7356000
2016-10-17,5.32,5.32,5.24,5.24,6713000
2016-10-18,5.27,5.35,5.25,5.34,6393802
2016-10-19,5.35,5.36,5.3,5.31,4477000
2016-10-20,5.35,5.38,5.31,5.35,2696325
2016-10-24,5.38,5.38,5.26,5.33,5862000
2016-10-25,5.35,5.35,5.27,5.32,4490000
2016-10-26,5.33,5.34,5.27,5.32,5238000
2016-10-27,5.31,5.32,5.26,5.27,3688823
2016-10-28,5.28,5.34,5.26,5.29,3632086
2016-10-31,5.28,5.31,5.25,5.27,5216400
2016-11-01,5.29,5.29,5.22,5.24,5499000
2016-11-02,5.24,5.24,5.06,5.09,8476537
2016-11-03,5.1,5.18,5.1,5.12,5194655
2016-11-04,5.13,5.19,5.13,5.17,4726840
2016-11-07,5.18,5.29,5.15,5.26,5148000
2016-11-08,5.29,5.31,5.21,5.3,4417000
2016-11-09,5.3,5.3,5.13,5.28,6347113
2016-11-10,5.36,5.48,5.35,5.42,12461000
2016-11-11,5.47,5.47,5.31,5.38,6607793
2016-11-14,5.35,5.41,5.28,5.32,4760000
2016-11-15,5.3,5.36,5.24,5.25,5876000
2016-11-16,5.27,5.3,5.22,5.26,6041000
2016-11-17,5.26,5.31,5.24,5.31,3279300
2016-11-18,5.34,5.37,5.25,5.35,4884110
2016-11-21,5.37,5.37,5.27,5.35,3482296
2016-11-22,5.32,5.48,5.32,5.45,8375000
2016-11-23,5.43,5.47,5.4,5.45,3125413
2016-11-24,5.45,5.47,5.36,5.43,4388000
2016-11-25,5.46,5.46,5.4,5.45,3686000
2016-11-28,5.47,5.52,5.4,5.5,8659700
2016-11-29,5.43,5.59,5.43,5.49,10569955
2016-11-30,5.49,5.52,5.32,5.37,9731717
2016-12-01,5.43,5.47,5.38,5.41,4530854
2016-12-02,5.4,5.45,5.34,5.36,5099000
2016-12-05,5.38,5.47,5.32,5.36,7027847
2016-12-06,5.39,5.43,5.31,5.4,3079000
2016-12-07,5.42,5.45,5.38,5.41,3902000
2016-12-08,5.44,5.46,5.4,5.44,7438980
2016-12-09,5.42,5.43,5.27,5.31,7113184
2016-12-12,5.36,5.38,5.15,5.19,7426000
2016-12-13,5.23,5.32,5.18,5.29,3688531
2016-12-14,5.3,5.32,5.18,5.19,5162320
2016-12-15,5.17,5.27,5.13,5.16,5527000
2016-12-16,5.17,5.26,5.11,5.2,4200067
2016-12-19,5.2,5.27,5.15,5.18,5225001
2016-12-20,5.19,5.26,5.18,5.22,5282180
2016-12-21,5.22,5.26,5.22,5.25,2809000
2016-12-22,5.26,5.26,5.15,5.22,3424696
2016-12-23,5.2,5.24,5.15,5.2,4205100
2016-12-28,5.19,5.31,5.18,5.25,4052870
2016-12-29,5.23,5.3,5.23,5.29,2306438
2016-12-30,5.27,5.34,5.27,5.34,2472000
2017-01-03,5.34,5.39,5.27,5.34,5359000
2017-01-04,5.38,5.38,5.3,5.33,4900854
2017-01-05,5.33,5.34,5.18,5.29,8647162
2017-01-06,5.31,5.36,5.27,5.31,2410619
2017-01-09,5.32,5.43,5.29,5.35,6407000
2017-01-10,5.36,5.44,5.35,5.41,12504127
2017-01-11,5.43,5.6,5.41,5.55,20925284
2017-01-12,5.6,5.88,5.59,5.74,42043200
2017-01-13,5.78,5.78,5.63,5.68,12123760
2017-01-16,5.67,5.68,5.51,5.56,8463000
2017-01-17,5.57,5.86,5.53,5.86,17790536
2017-01-18,5.84,5.91,5.79,5.81,10554000
2017-01-19,5.8,5.85,5.71,5.76,8716362
2017-01-20,5.71,5.86,5.71,5.76,7361437
2017-01-23,5.82,5.96,5.76,5.79,15753000
2017-01-24,5.79,5.84,5.74,5.8,6131531
2017-01-25,5.84,5.84,5.71,5.74,7551085
2017-01-26,5.74,5.85,5.73,5.78,4197000
2017-01-27,5.78,5.78,5.72,5.72,1870000
2017-02-01,5.69,5.71,5.64,5.7,5157000
2017-02-02,5.68,5.69,5.59,5.61,5171653
2017-02-03,5.68,5.77,5.63,5.72,7757300
2017-02-06,5.69,5.8,5.65,5.78,7539000
2017-02-07,5.78,5.81,5.69,5.77,8493000
2017-02-08,5.74,5.93,5.7,5.92,11995728
2017-02-09,5.94,6.0,5.82,5.87,13823494
2017-02-10,5.85,5.91,5.76,5.79,7488000
2017-02-13,5.79,5.97,5.79,5.96,15249085
2017-02-14,5.98,6.0,5.84,5.85,12448086
2017-02-15,5.87,5.9,5.76,5.82,10327362
2017-02-16,5.82,5.86,5.7,5.74,12199000
2017-02-17,5.75,5.79,5.67,5.67,6609950
2017-02-20,5.67,5.75,5.67,5.72,4495345
2017-02-21,5.72,5.75,5.6,5.65,10476756
2017-02-22,5.67,5.76,5.63,5.72,12424132
2017-02-23,5.74,5.77,5.67,5.67,4504760
2017-02-24,5.7,5.71,5.61,5.63,6228949
2017-02-27,5.62,5.71,5.61,5.65,4781000
2017-02-28,5.71,5.78,5.62,5.65,12486460
2017-03-01,5.69,5.75,5.67,5.69,7059421
2017-03-02,5.72,5.75,5.63,5.67,8284800
2017-03-03,5.64,5.75,5.63,5.7,8970871
2017-03-06,5.73,5.74,5.64,5.67,8004481
2017-03-07,5.67,5.71,5.62,5.65,7366685
2017-03-08,5.68,5.74,5.63,5.64,10653000
2017-03-09,5.64,5.66,5.54,5.59,7215000
2017-03-10,5.62,5.62,5.5,5.56,7707520
2017-03-13,5.6,5.6,5.48,5.51,17676132
2017-03-14,5.53,5.61,5.53,5.55,8728600
2017-03-15,5.52,5.55,5.44,5.47,16998000
2017-03-16,5.49,5.55,5.47,5.55,11800000
2017-03-17,5.57,5.57,5.41,5.45,17972242
2017-03-20,5.49,5.5,5.38,5.41,20641000
2017-03-21,5.46,5.47,5.36,5.37,19413088
2017-03-22,5.34,5.35,5.23,5.27,25342128
2017-03-23,5.27,5.46,5.27,5.36,27202670
2017-03-24,5.4,5.4,5.29,5.34,18897620
2017-03-27,5.34,5.4,5.26,5.29,14610963
2017-03-28,5.28,5.42,5.28,5.42,11145000
2017-03-29,5.45,5.45,5.35,5.4,13797281
2017-03-30,5.4,5.41,5.31,5.37,6910980
2017-03-31,5.4,5.41,5.32,5.39,7579087
2017-04-03,5.43,5.43,5.3,5.33,13075190
2017-04-05,5.34,5.48,5.3,5.47,16692000
2017-04-06,5.47,5.48,5.42,5.45,7847807
2017-04-07,5.45,5.52,5.45,5.49,15558441
2017-04-10,5.52,5.55,5.45,5.52,11602060
2017-04-11,5.5,5.7,5.44,5.66,32148522
2017-04-12,5.66,5.73,5.61,5.66,19299600
2017-04-13,5.66,5.67,5.51,5.55,11258800
2017-04-18,5.55,5.58,5.33,5.35,13385000
2017-04-19,5.34,5.34,5.24,5.3,14169000
2017-04-20,5.31,5.35,5.25,5.32,8999300
2017-04-21,5.35,5.37,5.25,5.29,8861137
2017-04-24,5.28,5.31,5.21,5.25,9363000
2017-04-25,5.26,5.33,5.25,5.33,10776507
2017-04-26,5.34,5.34,5.24,5.27,9829001
2017-04-27,5.27,5.28,5.16,5.22,13781306
2017-04-28,5.24,5.24,5.17,5.19,8672794
2017-05-02,5.22,5.23,5.11,5.14,17718000
2017-05-04,5.2,5.21,5.12,5.2,19841410
2017-05-05,5.21,5.23,5.14,5.17,14602132
2017-05-08,5.19,5.19,5.1,5.16,9788710
2017-05-09,5.17,5.17,5.07,5.14,10780696
2017-05-10,5.2,5.26,5.15,5.16,12730586
2017-05-11,5.21,5.21,5.05,5.13,10511000
2017-05-12,5.14,5.14,5.06,5.08,8581760
2017-05-15,5.12,5.18,5.1,5.16,6911947
2017-05-16,5.16,5.17,5.11,5.13,8409000
2017-05-17,5.15,5.15,5.05,5.14,10370953
2017-05-18,5.09,5.11,5.08,5.09,6635422
2017-05-19,5.11,5.11,5.05,5.07,11110000
2017-05-22,5.1,5.14,5.06,5.13,8218000
2017-05-23,5.13,5.13,4.86,4.89,26619948
2017-05-24,4.9,4.92,4.77,4.87,24129700
2017-05-25,4.85,4.9,4.83,4.9,7002110
2017-05-26,4.9,4.95,4.88,4.92,5192000
2017-05-29,4.92,4.92,4.85,4.88,3475218
2017-05-31,4.9,4.93,4.74,4.79,16268941
2017-06-01,4.8,4.81,4.74,4.79,8785000
2017-06-02,4.82,4.82,4.78,4.82,6762350
2017-06-05,4.81,4.88,4.76,4.81,6461550
2017-06-06,4.82,4.84,4.77,4.78,4876000
2017-06-07,4.79,4.84,4.78,4.81,12966000
2017-06-08,4.83,4.83,4.75,4.77,10494500
2017-06-09,4.78,4.8,4.68,4.71,14529000
2017-06-12,4.72,4.73,4.6,4.66,9144000
2017-06-13,4.68,4.68,4.6,4.62,6541649
2017-06-14,4.64,4.65,4.58,4.6,9524630
2017-06-15,4.6,4.63,4.58,4.63,7741000
2017-06-16,4.64,4.65,4.58,4.62,7544000
2017-06-19,4.63,4.71,4.62,4.71,7452290
2017-06-20,4.73,4.74,4.69,4.73,6019000
2017-06-21,4.72,4.75,4.66,4.69,8111735
2017-06-22,4.71,4.71,4.65,4.67,5238800
2017-06-23,4.66,4.69,4.64,4.65,2986354
2017-06-26,4.66,4.73,4.66,4.71,4724610
2017-06-27,4.74,4.74,4.65,4.67,3603000
2017-06-28,4.66,4.72,4.6,4.63,5361063
2017-06-29,4.64,4.68,4.62,4.65,5091000
2017-06-30,4.65,4.65,4.57,4.58,6454000
2017-07-03,4.58,4.59,4.52,4.55,9893000
2017-07-04,4.56,4.6,4.51,4.52,6920000
2017-07-05,4.52,4.57,4.51,4.56,4234071
2017-07-06,4.57,4.62,4.52,4.58,5343376
2017-07-07,4.57,4.57,4.51,4.52,3595000
2017-07-10,4.52,4.87,4.52,4.78,28430088
2017-07-11,4.82,4.83,4.7,4.73,8352176
2017-07-12,4.75,4.78,4.71,4.76,5960950
2017-07-13,4.78,4.81,4.71,4.73,8267000
2017-07-14,4.7,4.79,4.65,4.68,11856000
2017-07-17,4.7,4.72,4.6,4.64,9121300
2017-07-18,4.68,4.7,4.62,4.65,5905306
2017-07-19,4.65,4.81,4.62,4.81,10021333
2017-07-20,4.81,4.85,4.72,4.72,9426131
2017-07-21,4.79,4.83,4.74,4.77,6686468
2017-07-24,4.8,4.82,4.72,4.75,10531800
2017-07-25,4.73,4.86,4.73,4.81,12504159
2017-07-26,4.86,4.92,4.83,4.91,17155250
2017-07-27,4.91,4.93,4.84,4.88,9733187
2017-07-28,4.88,4.88,4.79,4.82,6839250
2017-07-31,4.85,4.87,4.73,4.79,8498449
2017-08-01,4.79,4.82,4.76,4.77,7934000
2017-08-02,4.73,4.8,4.71,4.76,8352878
2017-08-03,4.76,4.76,4.65,4.67,12551000
2017-08-04,4.67,5.02,4.64,5.0,52343020
2017-08-07,5.0,5.02,4.91,4.96,14942000
2017-08-08,4.96,4.99,4.87,4.92,16935000
2017-08-09,4.97,4.97,4.88,4.92,9257202
2017-08-10,4.93,5.08,4.9,4.91,20606640
2017-08-11,4.8,4.92,4.74,4.74,17942000
2017-08-14,4.8,4.82,4.69,4.72,8994681
2017-08-15,4.74,4.76,4.64,4.64,10953000
2017-08-16,4.68,4.69,4.6,4.6,11409946
2017-08-17,4.64,4.72,4.6,4.62,12040000
2017-08-18,4.63,4.67,4.58,4.58,10926250
2017-08-21,4.59,4.63,4.56,4.56,8972000
2017-08-22,4.59,4.65,4.55,4.56,7492000
2017-08-24,4.6,4.63,4.56,4.58,9735954
2017-08-25,4.58,4.63,4.56,4.62,7518000
2017-08-28,4.62,4.72,4.59,4.6,10606966
2017-08-29,4.6,4.67,4.57,4.63,5445966
2017-08-30,4.65,4.67,4.58,4.6,5818400
2017-08-31,4.6,4.65,4.59,4.63,5487727
2017-09-01,4.63,4.67,4.61,4.64,5754000
2017-09-04,4.66,4.71,4.59,4.59,5226511
2017-09-05,4.63,4.63,4.54,4.55,10270736
2017-09-06,4.6,4.61,4.5,4.52,7711844
2017-09-07,4.56,4.56,4.52,4.52,5720000
2017-09-08,4.52,4.63,4.52,4.6,9254096
2017-09-11,4.6,4.63,4.58,4.58,3631000
2017-09-12,4.59,4.59,4.51,4.55,7278799
2017-09-13,4.53,4.55,4.51,4.53,5927104
2017-09-14,4.53,4.6,4.52,4.53,6579000
2017-09-15,4.53,4.57,4.52,4.52,10460856
2017-09-18,4.54,4.56,4.52,4.54,7815774
2017-09-19,4.52,4.54,4.5,4.52,5763922
2017-09-20,4.51,4.77,4.51,4.73,37646016
2017-09-21,4.73,4.75,4.64,4.66,13167000
2017-09-22,4.64,4.74,4.61,4.69,14053469
2017-09-25,4.75,4.84,4.7,4.7,33482000
2017-09-26,4.73,4.73,4.64,4.72,8886093
2017-09-27,4.75,4.89,4.73,4.89,13144000
2017-09-28,4.89,4.89,4.73,4.74,7654534
2017-09-29,4.75,4.78,4.71,4.72,3478153
2017-10-03,4.75,4.78,4.72,4.73,4115000
2017-10-04,4.76,4.78,4.68,4.74,4541000
2017-10-06,4.74,4.78,4.71,4.75,4513601
2017-10-09,4.76,4.85,4.75,4.82,10798221
2017-10-10,4.83,5.04,4.78,4.96,32674000
2017-10-11,5.0,5.0,4.79,4.81,16565746
2017-10-12,4.8,4.91,4.8,4.83,9314000
2017-10-13,4.83,4.89,4.79,4.84,6731352
2017-10-16,4.85,4.89,4.81,4.83,8175000
2017-10-17,4.83,4.84,4.73,4.8,10115840
2017-10-18,4.79,4.81,4.71,4.75,7562000
2017-10-19,4.76,4.77,4.51,4.54,29623000
2017-10-20,4.56,4.65,4.55,4.65,8338466
2017-10-23,4.65,4.66,4.59,4.61,8445000
2017-10-24,4.68,4.69,4.55,4.57,11453403
2017-10-25,4.62,4.63,4.53,4.55,20101000
2017-10-26,4.57,4.57,4.51,4.56,13420597
2017-10-27,4.58,4.62,4.55,4.57,6631924
2017-10-30,4.57,4.61,4.5,4.54,6905000
2017-10-31,4.54,4.54,4.51,4.53,6507190
2017-11-01,4.52,4.56,4.48,4.5,10427000
2017-11-02,4.53,4.53,4.45,4.48,7748000
2017-11-03,4.45,4.51,4.43,4.45,7348174
2017-11-06,4.49,4.49,4.4,4.4,11805582
2017-11-07,4.39,4.44,4.39,4.43,8264617
2017-11-08,4.43,4.49,4.39,4.39,7554234
2017-11-09,4.39,4.47,4.39,4.44,8982000
2017-11-10,4.44,4.44,4.4,4.4,4851554
2017-11-13,4.4,4.45,4.4,4.41,6174174
2017-11-14,4.4,4.44,4.39,4.4,6301234
2017-11-15,4.48,4.48,4.34,4.36,9471008
2017-11-16,4.34,4.38,4.26,4.27,13004000
2017-11-17,4.29,4.31,4.13,4.16,20082534
2017-11-20,4.18,4.18,4.01,4.1,12246000
2017-11-21,4.1,4.13,4.04,4.1,8763425
2017-11-22,4.15,4.34,4.08,4.31,19655150
2017-11-23,4.34,4.36,4.16,4.17,8390335
2017-11-24,4.15,4.21,4.15,4.17,9081164
2017-11-27,4.2,4.2,4.1,4.11,4999500
2017-11-28,4.11,4.16,4.06,4.09,5076000
2017-11-29,4.1,4.18,4.09,4.14,5757170
2017-11-30,4.17,4.17,4.04,4.09,12067796
2017-12-01,4.07,4.12,4.05,4.1,5038842
2017-12-04,4.13,4.14,4.05,4.05,4631986
2017-12-05,4.1,4.19,4.06,4.06,9312000
2017-12-06,4.08,4.19,4.05,4.06,12713136
2017-12-07,4.15,4.15,3.95,3.97,11808210
2017-12-08,3.99,4.01,3.94,3.98,5986300
2017-12-11,3.99,4.04,3.96,3.96,6441000
2017-12-12,3.98,3.98,3.87,3.92,8123100
2017-12-13,3.92,3.93,3.87,3.9,6306300
2017-12-14,3.9,3.98,3.87,3.87,8555042
2017-12-15,3.87,3.89,3.81,3.86,12629000
2017-12-18,3.85,3.86,3.78,3.81,10708840
2017-12-19,3.84,3.97,3.83,3.93,12696490
2017-12-20,3.96,3.98,3.88,3.92,8625468
2017-12-21,3.92,3.98,3.91,3.94,7353040
2017-12-22,3.96,3.98,3.92,3.97,9707218
2017-12-27,3.94,4.02,3.94,3.96,8870220
2017-12-28,3.97,4.27,3.97,4.24,29180090
2017-12-29,4.24,4.25,4.12,4.16,8736465
2018-01-02,4.19,4.32,4.17,4.26,20821624
2018-01-03,4.28,4.37,4.24,4.31,11179363
2018-01-04,4.35,4.35,4.3,4.32,6122634
2018-01-05,4.34,4.37,4.25,4.27,9078937
2018-01-08,4.31,4.38,4.23,4.36,8714543
2018-01-09,4.39,4.39,4.22,4.24,9454000
2018-01-10,4.28,4.31,4.21,4.22,8938805
2018-01-11,4.27,4.32,4.21,4.3,9083000
2018-01-12,4.34,4.35,4.29,4.34,5804445
2018-01-15,4.32,4.32,4.17,4.18,7961306
2018-01-16,4.24,4.37,4.22,4.33,11333000
2018-01-17,4.34,4.45,4.27,4.45,20339748
2018-01-18,4.48,4.48,4.36,4.39,12076615
2018-01-19,4.4,4.51,4.38,4.45,17526740
2018-01-22,4.46,4.51,4.4,4.48,12054000
2018-01-23,4.46,4.47,4.3,4.36,14305500
2018-01-24,4.37,4.37,4.24,4.31,10963725
2018-01-25,4.33,4.44,4.25,4.41,15430616
2018-01-26,4.39,4.44,4.32,4.38,7809297
2018-01-29,4.43,4.43,4.29,4.33,6028674
2018-01-30,4.31,4.34,4.22,4.23,9675995
2018-01-31,4.25,4.25,4.15,4.19,10406022
2018-02-01,4.21,4.25,4.1,4.1,8235148
2018-02-02,4.14,4.18,4.09,4.14,7781328
2018-02-05,4.08,4.14,4.01,4.06,11931913
2018-02-06,3.99,4.0,3.8,3.81,25030000
2018-02-07,3.95,3.95,3.8,3.85,14033606
2018-02-08,3.89,3.91,3.84,3.87,5736060
2018-02-09,3.8,3.8,3.6,3.61,14386593
2018-02-12,3.72,3.73,3.64,3.66,12188000
2018-02-13,3.72,3.85,3.72,3.79,16674000
2018-02-14,3.88,3.88,3.79,3.86,9094356
2018-02-15,3.88,4.05,3.88,4.04,7254000
2018-02-20,4.05,4.14,3.98,4.1,6252521
2018-02-21,4.12,4.12,4.01,4.1,3475674
2018-02-22,4.06,4.09,4.0,4.06,7441323
2018-02-23,4.1,4.22,4.03,4.2,14139455
2018-02-26,4.17,4.33,4.16,4.27,12182000
2018-02-27,4.27,4.36,4.2,4.3,20810526
2018-02-28,4.31,4.47,4.27,4.36,27989158
2018-03-01,4.36,4.44,4.23,4.39,16848770
2018-03-02,4.3,4.41,4.28,4.4,16019000
2018-03-05,4.46,4.56,4.38,4.46,22438000
2018-03-06,4.5,5.13,4.5,5.06,131792984
2018-03-07,5.04,5.09,4.86,5.02,43934528
2018-03-08,5.02,5.27,4.98,5.08,29289804
2018-03-09,5.13,5.13,4.88,4.98,18059600
2018-03-12,5.01,5.13,4.99,5.1,18676000
2018-03-13,5.1,5.1,5.0,5.05,12048596
2018-03-14,4.97,5.22,4.95,5.15,21594088
2018-03-15,5.1,5.17,5.03,5.08,10531544
2018-03-16,5.11,5.11,4.92,5.04,17714000
2018-03-19,5.02,5.24,4.98,5.12,18770904
2018-03-20,5.05,5.2,5.05,5.17,14406324
2018-03-21,5.2,5.5,5.17,5.25,50365000
2018-03-22,5.35,5.53,5.21,5.42,30191648
2018-03-23,5.26,5.28,5.0,5.25,42083000
2018-03-26,5.2,5.44,5.06,5.35,21482800
2018-03-27,5.42,5.63,5.35,5.56,41093684
2018-03-28,5.5,5.76,5.5,5.54,46983248
2018-03-29,5.57,5.62,5.39,5.53,29134056
2018-04-03,5.39,5.69,5.39,5.63,17584898
2018-04-04,5.63,5.75,5.55,5.55,13737886
2018-04-06,5.64,5.65,5.48,5.59,15399964
2018-04-09,5.58,5.84,5.54,5.75,31147792
2018-04-10,5.78,5.78,5.41,5.42,30859048
2018-04-11,5.4,5.52,5.35,5.47,24034172
2018-04-12,5.47,5.65,5.39,5.44,14844777
2018-04-13,5.5,5.5,5.19,5.23,25222628
2018-04-16,5.26,5.31,5.0,5.1,19351000
2018-04-17,5.1,5.23,5.0,5.11,20854780
2018-04-18,5.2,5.2,4.98,5.11,18216840
2018-04-19,5.14,5.49,5.07,5.45,25306000
2018-04-20,5.45,5.46,5.27,5.34,13113816
2018-04-23,5.28,5.34,5.11,5.16,12664174
2018-04-24,5.13,5.22,5.1,5.14,7891438
2018-04-25,5.12,5.12,4.97,4.98,17305382
2018-04-26,4.98,5.09,4.98,5.06,4405000
2018-04-27,5.06,5.13,5.04,5.06,9366876
2018-04-30,5.07,5.07,4.97,4.99,4874800
2018-05-02,4.99,5.0,4.91,4.98,8815767
2018-05-03,4.98,4.98,4.85,4.87,8657220
2018-05-04,4.86,4.97,4.76,4.87,11851317
2018-05-07,4.86,4.87,4.69,4.79,23878868
2018-05-08,4.89,5.01,4.83,4.94,41034000
2018-05-09,4.96,4.98,4.84,4.87,9127330
2018-05-10,5.06,5.2,4.92,5.07,33947780
2018-05-11,5.15,5.31,5.09,5.12,21823560
2018-05-14,5.12,5.19,5.1,5.15,13935000
2018-05-15,5.15,5.27,5.15,5.22,7890000
2018-05-16,5.26,5.36,5.17,5.3,11930356
2018-05-17,5.31,5.34,5.2,5.26,16252658
2018-05-18,5.24,5.26,5.17,5.2,5142822
2018-05-21,5.25,5.25,5.11,5.11,12537390
2018-05-23,5.13,5.25,5.12,5.14,10845049
2018-05-24,5.12,5.17,5.1,5.12,7845906
2018-05-25,5.11,5.44,5.11,5.32,27462164
2018-05-28,5.37,5.39,5.25,5.29,15611000
2018-05-29,5.28,5.3,5.15,5.17,9500636
2018-05-30,5.12,5.13,4.98,5.01,16434580
2018-05-31,5.06,5.24,5.06,5.24,25670258
2018-06-01,5.22,5.22,5.07,5.16,8091072
2018-06-04,5.18,5.19,5.12,5.14,7294000
2018-06-05,5.14,5.18,5.1,5.14,5807000
2018-06-06,5.3,5.3,5.08,5.09,10994223
2018-06-07,5.11,5.22,5.07,5.2,7514977
2018-06-08,5.16,5.23,5.02,5.08,9415909
2018-06-11,5.08,5.12,5.04,5.07,4092228
2018-06-12,5.15,5.15,5.04,5.1,4013318
2018-06-13,5.1,5.14,5.02,5.03,6285499
2018-06-14,5.06,5.06,4.78,4.78,23294000
2018-06-15,4.82,4.85,4.4,4.43,34750824
2018-06-19,4.42,4.69,4.41,4.52,27121920
2018-06-20,4.57,4.65,4.44,4.55,15347638
2018-06-21,4.65,4.72,4.52,4.53,11504000
2018-06-22,4.59,4.65,4.5,4.6,7158492
2018-06-25,4.61,4.63,4.45,4.45,12194261
2018-06-26,4.48,4.63,4.33,4.6,16246569
2018-06-27,4.58,4.65,4.43,4.44,9582699
2018-06-28,4.44,4.54,4.36,4.47,10087019
2018-06-29,4.51,4.69,4.45,4.67,9067000
2018-07-03,4.7,4.7,4.49,4.58,9838953
2018-07-04,4.59,4.72,4.53,4.6,8302359
2018-07-05,4.68,4.68,4.47,4.48,5134498
2018-07-06,4.51,4.65,4.46,4.57,9421503
2018-07-09,4.65,4.74,4.58,4.73,7237000
2018-07-10,4.76,4.8,4.61,4.63,7150442
2018-07-11,4.55,4.6,4.52,4.55,6959340
2018-07-12,4.58,4.69,4.56,4.64,4531563
2018-07-13,4.7,4.7,4.63,4.67,2701225
2018-07-16,4.72,4.72,4.64,4.7,7377000
2018-07-17,4.74,4.75,4.63,4.73,4844602
2018-07-18,4.75,4.76,4.68,4.72,4340842
2018-07-19,4.75,4.75,4.55,4.59,7533580
2018-07-20,4.56,4.6,4.47,4.6,7091485
2018-07-23,4.64,4.74,4.59,4.72,7258602
2018-07-24,4.76,4.97,4.71,4.95,15904942
2018-07-25,4.98,5.02,4.88,4.95,5887345
2018-07-26,4.99,4.99,4.84,4.9,7262576
2018-07-27,4.93,4.93,4.84,4.85,3276000
2018-07-30,4.87,4.92,4.82,4.88,3109281
2018-07-31,4.87,4.89,4.76,4.82,4850514
2018-08-01,4.85,4.96,4.55,4.6,19933784
2018-08-02,4.65,4.65,4.38,4.56,17922000
2018-08-03,4.6,4.6,4.51,4.6,7209000
2018-08-06,4.65,4.65,4.46,4.48,5076690
2018-08-07,4.55,4.67,4.48,4.61,6044270
2018-08-08,4.68,4.68,4.53,4.57,9451477
2018-08-09,4.63,4.76,4.55,4.73,10143557
2018-08-10,4.77,4.82,4.69,4.82,8698017
2018-08-13,4.76,4.84,4.7,4.78,4073000
2018-08-14,4.78,4.78,4.58,4.6,11240294
2018-08-15,4.62,4.65,4.5,4.52,8290000
2018-08-16,4.5,4.57,4.41,4.54,5044000
2018-08-17,4.58,4.67,4.51,4.58,5955925
2018-08-20,4.57,4.63,4.56,4.63,2787374
2018-08-21,4.63,4.7,4.6,4.63,5050890
2018-08-22,4.64,4.7,4.57,4.67,4252000
2018-08-23,4.66,4.68,4.63,4.67,3652966
2018-08-24,4.67,4.69,4.57,4.65,6277000
2018-08-27,4.65,4.78,4.63,4.66,12015000
2018-08-28,4.67,4.7,4.56,4.59,6896809
2018-08-29,4.58,4.58,4.45,4.56,9053000
2018-08-30,4.6,4.6,4.48,4.51,5662946
2018-08-31,4.49,4.57,4.47,4.55,6501000
2018-09-03,4.56,4.57,4.49,4.52,1901350
2018-09-04,4.53,4.7,4.47,4.64,9271800
2018-09-05,4.66,4.89,4.63,4.79,20362000
2018-09-06,4.79,4.92,4.75,4.85,12668329
2018-09-07,4.85,4.93,4.71,4.71,10411000
2018-09-10,4.73,4.74,4.61,4.63,4872543
2018-09-11,4.6,4.65,4.54,4.55,7344000
2018-09-12,4.62,4.75,4.6,4.65,12150000
2018-09-13,4.7,4.75,4.58,4.75,9769654
2018-09-14,4.77,4.78,4.68,4.73,4428696
2018-09-17,4.7,4.77,4.65,4.76,2418000
2018-09-18,4.79,4.9,4.75,4.86,10328000
2018-09-19,4.9,4.96,4.84,4.91,7055000
2018-09-20,4.91,4.95,4.83,4.92,3802089
2018-09-21,4.94,4.95,4.88,4.93,6509262
2018-09-24,4.86,4.93,4.8,4.89,2973000
2018-09-26,4.83,5.18,4.83,5.16,23823000
2018-09-27,5.16,5.27,5.07,5.15,12528942
2018-09-28,5.24,5.24,5.1,5.16,5663000
2018-10-02,5.16,5.19,5.08,5.14,3974000
2018-10-03,5.1,5.18,5.1,5.16,2264526
2018-10-04,5.19,5.19,5.02,5.08,3862871
2018-10-05,5.11,5.15,5.03,5.12,2909011
2018-10-08,5.13,5.16,4.85,4.86,8263000
2018-10-09,4.93,4.93,4.7,4.81,9187262
2018-10-10,4.88,4.88,4.68,4.74,5442271
2018-10-11,4.59,4.61,4.44,4.57,14174400
2018-10-12,4.59,4.64,4.46,4.6,6212118
2018-10-15,4.8,5.18,4.8,4.95,57180288
2018-10-16,5.04,5.12,4.88,5.0,15069350
2018-10-18,5.0,5.1,4.89,5.0,15052000
2018-10-19,4.96,5.12,4.9,5.08,8570000
2018-10-22,5.08,5.35,5.08,5.26,17259032
2018-10-23,5.26,5.3,5.14,5.28,14847041
2018-10-24,5.3,5.34,5.14,5.25,14908942
2018-10-25,5.15,5.41,5.1,5.4,20128602
2018-10-26,5.45,5.45,5.3,5.34,14844081
2018-10-29,5.3,5.38,5.2,5.25,9568623
2018-10-30,5.24,5.29,5.03,5.19,7520476
2018-10-31,5.21,5.36,5.14,5.22,19580964
2018-11-01,5.23,5.35,5.2,5.3,16771170
2018-11-02,5.4,5.54,5.32,5.48,25899800
2018-11-05,5.46,5.52,5.38,5.46,9887032
2018-11-06,5.48,5.51,5.29,5.43,9065374
2018-11-07,5.41,5.58,5.4,5.5,13084014
2018-11-08,5.58,5.59,5.5,5.54,11763016
2018-11-09,5.51,5.54,5.34,5.43,9353029
2018-11-12,5.48,5.55,5.45,5.48,6908020
2018-11-13,5.36,5.53,5.36,5.5,8182097
2018-11-14,5.5,5.6,5.46,5.58,6701422
2018-11-15,5.83,5.84,5.71,5.82,20329112
2018-11-16,5.85,5.85,5.71,5.84,10624077
2018-11-19,5.9,5.97,5.76,5.94,15203567
2018-11-20,5.89,5.92,5.71,5.75,10535009
2018-11-21,5.67,5.7,5.0,5.41,22053324
2018-11-22,5.43,5.54,5.37,5.41,8997109
2018-11-23,5.45,5.46,5.24,5.35,5038015
2018-11-26,5.32,5.48,5.31,5.33,6541010
2018-11-27,5.37,5.44,5.27,5.29,8564043
2018-11-28,5.33,5.39,5.26,5.39,7140736
2018-11-29,5.43,5.43,5.33,5.38,5809959
2018-11-30,5.44,5.52,5.4,5.49,10120006
2018-12-03,5.54,5.61,5.43,5.45,15547469
2018-12-04,5.44,5.49,5.41,5.49,11519135
2018-12-05,5.42,5.45,5.34,5.37,3676200
2018-12-06,5.33,5.38,5.26,5.29,8053698
2018-12-07,5.32,5.37,5.19,5.24,6741044
2018-12-10,5.25,5.29,5.1,5.18,7931008
2018-12-11,5.2,5.33,5.14,5.26,5553394
2018-12-12,5.26,5.41,5.16,5.36,8689481
2018-12-13,5.38,5.38,5.25,5.34,7880000
2018-12-14,5.18,5.19,4.83,5.05,85717664
2018-12-17,5.03,5.1,4.95,5.0,23435768
2018-12-18,4.98,5.0,4.76,4.8,23106804
2018-12-19,4.83,4.95,4.79,4.87,15382155
2018-12-20,4.85,4.9,4.63,4.71,20073000
2018-12-21,4.72,4.8,4.67,4.75,39938012
2018-12-24,4.75,4.78,4.69,4.72,3178321
2018-12-27,4.75,4.85,4.54,4.58,11117442
2018-12-28,4.6,4.8,4.5,4.76,10473878
2018-12-31,4.76,4.95,4.76,4.92,11090075
2019-01-02,4.93,4.93,4.68,4.74,9241054
2019-01-03,4.72,4.93,4.72,4.82,18041124
2019-01-04,4.72,4.92,4.72,4.9,11267132
2019-01-07,4.93,4.97,4.83,4.9,21832112
2019-01-08,4.91,4.95,4.85,4.88,5439920
2019-01-09,4.91,5.01,4.85,4.85,9977835
2019-01-10,4.9,4.91,4.66,4.75,17842396
2019-01-11,4.77,4.88,4.76,4.81,12222946
2019-01-14,4.8,4.81,4.73,4.77,4917000
2019-01-15,4.79,4.85,4.75,4.81,5844000
2019-01-16,4.8,4.92,4.78,4.92,8979000
2019-01-17,4.95,4.95,4.77,4.8,6492944
2019-01-18,4.82,4.91,4.78,4.86,8637000
2019-01-21,4.9,4.9,4.84,4.88,2907966
2019-01-22,4.82,4.89,4.79,4.89,6274000
2019-01-23,4.83,5.17,4.83,5.14,34722000
2019-01-24,5.12,5.21,5.1,5.2,12696141
2019-01-25,5.2,5.22,5.12,5.2,10807000
2019-01-28,5.24,5.28,5.09,5.15,5926574
2019-01-29,5.12,5.22,5.06,5.21,8230865
2019-01-30,5.22,5.24,5.03,5.05,10310000
2019-01-31,5.19,5.22,5.13,5.21,7967193
2019-02-01,5.22,5.25,5.21,5.22,4171257
2019-02-04,5.21,5.23,5.13,5.17,1700184
2019-02-08,5.2,5.36,5.18,5.33,8388045
2019-02-11,5.3,5.36,5.28,5.31,12506422
2019-02-12,5.35,5.35,5.25,5.31,9569423
2019-02-13,5.32,5.4,5.27,5.37,8683000
2019-02-14,5.35,5.44,5.31,5.31,5764000
2019-02-15,5.3,5.3,5.12,5.13,8034000
2019-02-18,5.13,5.28,5.13,5.26,8563582
2019-02-19,5.25,5.31,5.17,5.19,7181000
2019-02-20,5.2,5.42,5.2,5.39,12276287
2019-02-21,5.4,5.57,5.39,5.54,19409000
2019-02-22,5.5,5.53,5.4,5.51,14935366
2019-02-25,5.55,5.55,5.4,5.5,11803881
2019-02-26,5.5,5.64,5.49,5.52,15053023
2019-02-27,5.53,5.59,5.44,5.45,8206000
2019-02-28,5.46,5.59,5.45,5.57,15185931
2019-03-01,5.59,5.59,5.49,5.51,9028224
2019-03-04,5.58,5.6,5.43,5.45,11994000
2019-03-05,5.43,5.51,5.39,5.47,7289000
2019-03-06,5.51,5.51,5.41,5.46,7097576
2019-03-07,5.43,5.46,5.24,5.3,19903230
2019-03-08,5.24,5.31,5.19,5.21,5212472
2019-03-11,5.22,5.38,5.22,5.33,10111430
2019-03-12,5.33,5.48,5.33,5.44,9635102
2019-03-13,5.46,5.46,5.21,5.28,10231397
2019-03-14,5.32,5.32,5.17,5.21,7881000
2019-03-15,5.21,5.29,5.15,5.18,15075735
2019-03-18,5.2,5.2,5.06,5.12,19306000
2019-03-19,5.12,5.2,5.06,5.17,11885934
2019-03-20,5.17,5.24,5.13,5.18,8410000
2019-03-21,5.23,5.23,5.06,5.15,9026864
2019-03-22,5.15,5.18,4.95,5.0,18206346
2019-03-25,4.9,4.95,4.85,4.89,24923680
2019-03-26,4.93,5.03,4.87,5.0,34902696
2019-03-27,4.98,5.04,4.86,4.99,7388326
2019-03-28,4.98,4.99,4.87,4.93,9183968
2019-03-29,4.99,5.05,4.95,5.01,16746368
2019-04-01,5.06,5.08,4.97,5.01,12335749
2019-04-02,5.06,5.23,5.03,5.18,21218186
2019-04-03,5.19,5.31,5.17,5.28,26236652
2019-04-04,5.3,5.32,5.19,5.22,14852409
2019-04-08,5.27,5.28,5.17,5.22,10877653
2019-04-09,5.2,5.2,5.0,5.04,31184008
2019-04-10,5.05,5.06,4.78,4.8,45521328
2019-04-11,4.85,4.88,4.79,4.79,15326760
2019-04-12,4.79,4.84,4.73,4.78,12625000
2019-04-15,4.77,4.83,4.65,4.66,23001000
2019-04-16,4.7,4.71,4.63,4.64,14293978
2019-04-17,4.67,4.81,4.62,4.74,18977000
2019-04-18,4.75,4.76,4.65,4.67,13640000
2019-04-23,4.66,4.72,4.65,4.65,14893794
2019-04-24,4.7,4.82,4.66,4.81,17056000
2019-04-25,4.8,4.8,4.63,4.63,11937136
2019-04-26,4.65,4.68,4.57,4.65,20258256
2019-04-29,4.63,4.69,4.6,4.66,5365680
2019-04-30,4.7,4.7,4.6,4.61,7575693
2019-05-02,4.63,4.63,4.53,4.57,7379086
2019-05-03,4.54,4.65,4.53,4.64,7176299
2019-05-06,4.59,4.59,4.44,4.56,18983488
2019-05-07,4.59,4.61,4.44,4.5,18635000
2019-05-08,4.45,4.48,4.38,4.4,19373284
2019-05-09,4.37,4.43,4.2,4.26,25283070
2019-05-10,4.28,4.45,4.28,4.4,17529000
2019-05-14,4.28,4.52,4.2,4.5,29500160
2019-05-15,4.43,4.56,4.42,4.54,12396156
2019-05-16,4.58,4.61,4.51,4.57,8251752
2019-05-17,4.64,4.64,4.43,4.46,15669554
2019-05-20,4.45,4.55,4.45,4.46,7622157
2019-05-21,4.51,4.64,4.45,4.61,9297000
2019-05-22,4.6,4.61,4.5,4.53,4507000
2019-05-23,4.49,4.62,4.46,4.56,10559173
2019-05-24,4.6,4.61,4.51,4.57,6411904
2019-05-27,4.55,4.59,4.48,4.55,3727000
2019-05-28,4.55,4.56,4.47,4.52,26406818
2019-05-29,4.53,4.59,4.46,4.48,12436250
2019-05-30,4.49,4.52,4.44,4.49,4277805
2019-05-31,4.5,4.51,4.44,4.45,5876018
2019-06-03,4.48,4.54,4.42,4.53,9584100
2019-06-04,4.56,4.56,4.39,4.42,5091861
2019-06-05,4.46,4.47,4.4,4.43,3881001
2019-06-06,4.46,4.55,4.45,4.53,6605000
2019-06-10,4.57,4.63,4.54,4.58,4048000
2019-06-11,4.61,4.66,4.57,4.66,6096062
2019-06-12,4.65,4.65,4.54,4.59,3728015
2019-06-13,4.55,4.55,4.38,4.41,11441000
2019-06-14,4.41,4.41,4.34,4.38,7868962
2019-06-17,4.34,4.36,4.32,4.33,5824000
2019-06-18,4.37,4.37,4.28,4.33,5262112
2019-06-19,4.37,4.37,4.22,4.25,19888004
2019-06-20,4.2,4.28,4.07,4.24,24191000
2019-06-21,4.24,4.31,4.24,4.29,12094367
2019-06-24,4.29,4.31,4.24,4.3,6824000
2019-06-25,4.28,4.3,4.25,4.27,5111041
2019-06-26,4.27,4.31,4.23,4.29,5485000
2019-06-27,4.34,4.34,4.25,4.27,7138647
2019-06-28,4.27,4.29,4.24,4.27,3684342
2019-07-02,4.31,4.35,4.27,4.3,9097187
2019-07-03,4.3,4.33,4.23,4.3,7165211
2019-07-04,4.33,4.61,4.32,4.6,28266876
2019-07-05,4.59,4.62,4.53,4.59,6194753
2019-07-08,4.59,4.59,4.38,4.48,6664000
2019-07-09,4.5,4.5,4.32,4.36,6915000
2019-07-10,4.37,4.44,4.33,4.4,7393789
2019-07-11,4.42,4.46,4.36,4.41,3792000
2019-07-12,4.4,4.46,4.35,4.37,4669429
2019-07-15,4.37,4.4,4.29,4.3,9741100
2019-07-16,4.31,4.41,4.31,4.38,5644000
2019-07-17,4.39,4.39,4.25,4.26,8927000
2019-07-18,4.27,4.27,4.2,4.2,7564000
2019-07-19,4.21,4.26,4.2,4.24,4072000
2019-07-22,4.23,4.23,4.18,4.21,4017000
2019-07-23,4.23,4.23,4.14,4.22,4919000
2019-07-24,4.21,4.33,4.21,4.28,7730000
2019-07-25,4.29,4.3,4.2,4.25,7761948
2019-07-26,4.25,4.27,4.2,4.23,2265100
2019-07-29,4.22,4.23,4.14,4.19,5318924
2019-07-30,4.18,4.22,4.16,4.18,1778000
2019-07-31,4.2,4.28,4.14,4.23,4379000
2019-08-01,4.19,4.39,4.19,4.26,6438010
2019-08-02,4.18,4.2,4.14,4.2,7418000
2019-08-05,4.17,4.17,4.06,4.08,8760000
2019-08-06,4.04,4.04,3.9,3.95,8496000
2019-08-07,3.95,4.01,3.89,3.99,7066944
2019-08-08,4.0,4.07,3.95,4.01,9428717
2019-08-09,4.04,4.05,3.93,3.97,4752000
2019-08-12,4.0,4.07,3.94,4.06,4549500
2019-08-13,4.05,4.05,3.95,3.96,4827000
2019-08-14,4.03,4.03,3.88,3.9,7932551
2019-08-15,3.85,3.95,3.79,3.92,5853000
2019-08-16,3.95,3.95,3.88,3.9,4283492
2019-08-19,3.95,4.02,3.95,3.97,4449476
2019-08-20,3.97,4.05,3.96,4.0,4621970
2019-08-21,4.0,4.03,3.98,3.98,5540844
2019-08-22,4.02,4.03,3.89,3.95,7598000
2019-08-23,3.97,4.0,3.9,3.94,6966300
2019-08-26,3.8,3.91,3.8,3.88,8949300
2019-08-27,3.95,4.1,3.91,4.09,11824766
2019-08-28,4.1,4.17,4.05,4.11,8758705
2019-08-29,4.14,4.15,4.07,4.14,6394000
2019-08-30,4.13,4.24,4.07,4.1,9255884
2019-09-02,4.1,4.21,4.08,4.17,8427498
2019-09-03,4.17,4.18,4.06,4.09,9653000
2019-09-04,4.12,4.13,4.04,4.1,7016532
2019-09-05,4.15,4.22,4.12,4.18,8838000
2019-09-06,4.24,4.34,4.2,4.26,16046000
2019-09-09,4.33,4.36,4.26,4.29,6221000
2019-09-10,4.29,4.3,4.23,4.27,4770000
2019-09-11,4.29,4.39,4.28,4.32,5119000
2019-09-12,4.34,4.34,4.21,4.27,4113000
2019-09-13,4.24,4.3,4.23,4.26,1764000
2019-09-16,4.26,4.29,4.17,4.26,6986206
2019-09-17,4.21,4.22,4.08,4.13,8076874
2019-09-18,4.13,4.17,4.06,4.09,6804272
2019-09-19,4.11,4.11,4.04,4.07,4648764
2019-09-20,4.06,4.09,4.03,4.04,10522000
2019-09-23,4.04,4.07,3.95,4.0,7195910
2019-09-24,3.97,3.99,3.93,3.95,5629737
2019-09-25,3.92,3.95,3.9,3.91,7350750
2019-09-26,3.92,3.94,3.87,3.87,5415000
2019-09-27,3.86,3.86,3.81,3.84,3643654
2019-09-30,3.81,3.87,3.79,3.85,6399000
2019-10-02,3.8,3.91,3.8,3.86,5104000
2019-10-03,3.8,3.85,3.76,3.84,6474005
2019-10-04,3.81,3.87,3.79,3.8,3394000
2019-10-08,3.77,3.86,3.76,3.81,5519000
2019-10-09,3.77,3.83,3.74,3.75,8519030
2019-10-10,3.75,3.82,3.74,3.79,4692228
2019-10-11,3.8,3.9,3.8,3.85,6860000
2019-10-14,3.95,3.99,3.84,3.86,6130000
2019-10-15,3.84,3.88,3.8,3.84,4151000
2019-10-16,3.81,3.86,3.8,3.82,5785000
2019-10-17,3.8,3.85,3.8,3.82,4129000
2019-10-18,3.82,3.86,3.7,3.72,7908253
2019-10-21,3.74,3.74,3.65,3.72,8271000
2019-10-22,3.72,3.74,3.66,3.71,8619025
2019-10-23,3.73,3.74,3.62,3.65,11949000
2019-10-24,3.66,3.66,3.6,3.63,8555062
2019-10-25,3.65,3.74,3.65,3.7,6017000
2019-10-28,3.73,3.76,3.7,3.7,2905000
2019-10-29,3.72,3.74,3.71,3.72,3227704
2019-10-30,3.71,3.73,3.66,3.71,4383001
2019-10-31,3.72,3.76,3.68,3.71,4351001
2019-11-01,3.73,3.73,3.69,3.7,4714000
2019-11-04,3.71,3.74,3.66,3.68,13712176
2019-11-05,3.68,3.74,3.68,3.72,14296000
2019-11-06,3.73,3.83,3.73,3.78,14333612
2019-11-07,3.79,3.8,3.73,3.77,13080210
2019-11-08,3.75,3.78,3.75,3.77,8186177
2019-11-11,3.78,3.78,3.63,3.68,9024923
2019-11-12,3.68,3.68,3.61,3.64,9908354
2019-11-13,3.62,3.64,3.54,3.58,11693000
2019-11-14,3.58,3.58,3.49,3.52,10612000
2019-11-15,3.52,3.53,3.49,3.5,6376376
2019-11-18,3.5,3.54,3.45,3.49,7781043
2019-11-19,3.51,3.55,3.47,3.53,7782180
2019-11-20,3.52,3.56,3.5,3.55,3840000
2019-11-21,3.52,3.52,3.46,3.48,6730000
2019-11-22,3.48,3.56,3.46,3.52,9219000
2019-11-25,3.52,3.57,3.5,3.53,4267000
2019-11-26,3.54,3.6,3.51,3.56,13715385
2019-11-27,3.56,3.56,3.5,3.52,3409000
2019-11-28,3.51,3.52,3.47,3.5,6249000
2019-11-29,3.56,3.6,3.5,3.57,14978000
2019-12-02,3.6,3.61,3.53,3.56,4858296
2019-12-03,3.53,3.53,3.5,3.52,5464210
2019-12-04,3.5,3.56,3.47,3.47,5824000
2019-12-05,3.5,3.58,3.5,3.54,7368000
2019-12-06,3.55,3.65,3.55,3.6,10898100
2019-12-09,3.62,3.65,3.59,3.6,6656488
2019-12-10,3.57,3.6,3.5,3.5,6580000
2019-12-11,3.48,3.54,3.48,3.53,3757000
2019-12-12,3.53,3.57,3.5,3.51,5155739
2019-12-13,3.52,3.57,3.51,3.52,8546480
2019-12-16,3.53,3.53,3.48,3.51,14053000
2019-12-17,3.53,3.64,3.52,3.6,22166000
2019-12-18,3.63,3.73,3.6,3.68,41664000
2019-12-19,3.68,3.68,3.58,3.61,17239062
2019-12-20,3.63,3.63,3.5,3.51,19661000
2019-12-23,3.53,3.53,3.42,3.45,13819870
2019-12-24,3.47,3.47,3.44,3.46,2742000
2019-12-27,3.48,3.53,3.46,3.51,7578432
2019-12-30,3.5,3.56,3.5,3.52,11536000
2019-12-31,3.5,3.52,3.48,3.51,2370000
2020-01-02,3.51,3.58,3.5,3.56,9180000
2020-01-03,3.56,3.79,3.56,3.75,26109000
2020-01-06,3.82,3.88,3.71,3.81,24699532
2020-01-07,3.8,3.83,3.7,3.72,8101000
2020-01-08,3.76,3.84,3.72,3.74,19665550
2020-01-09,3.74,3.74,3.66,3.68,11490000
2020-01-10,3.68,3.76,3.65,3.71,34758000
2020-01-13,3.71,3.74,3.66,3.7,11197899
2020-01-14,3.73,3.75,3.66,3.71,10121000
2020-01-15,3.72,3.72,3.61,3.62,13012446
2020-01-16,3.62,3.67,3.59,3.59,11631987
2020-01-17,3.61,3.62,3.55,3.59,14462580
2020-01-20,3.59,3.62,3.56,3.59,9794526
2020-01-21,3.6,3.6,3.34,3.37,30469000
2020-01-22,3.42,3.5,3.34,3.49,9193000
2020-01-23,3.46,3.46,3.28,3.32,10085000
2020-01-24,3.35,3.46,3.3,3.45,5138148
2020-01-29,3.3,3.37,3.29,3.33,12823000
2020-01-30,3.33,3.38,3.25,3.3,11231000
2020-01-31,3.36,3.37,3.24,3.26,9326009
2020-02-03,3.22,3.22,3.13,3.18,17966044
2020-02-04,3.19,3.27,3.15,3.18,17030748
2020-02-05,3.2,3.31,3.2,3.24,9081048
2020-02-06,3.24,3.37,3.24,3.3,23612500
2020-02-07,3.3,3.32,3.24,3.29,8446250
2020-02-10,3.26,3.32,3.25,3.29,8124000
2020-02-11,3.3,3.31,3.24,3.25,5853000
2020-02-12,3.25,3.32,3.23,3.3,7117639
2020-02-13,3.31,3.4,3.3,3.33,8903000
2020-02-14,3.35,3.37,3.3,3.32,3853000
2020-02-17,3.31,3.51,3.31,3.49,21279000
2020-02-18,3.5,3.54,3.43,3.5,14193000
2020-02-19,3.53,3.64,3.48,3.56,15508750
2020-02-20,3.54,3.63,3.52,3.58,16733000
2020-02-21,3.51,3.58,3.5,3.5,8919000
2020-02-24,3.5,3.5,3.36,3.43,14938000
2020-02-25,3.4,3.44,3.33,3.38,22043000
2020-02-26,3.34,3.59,3.33,3.45,20736472
2020-02-27,3.47,3.53,3.44,3.5,14442232
2020-02-28,3.43,3.47,3.34,3.39,22550000
2020-03-02,3.39,3.56,3.39,3.49,14096910
2020-03-03,3.52,3.56,3.44,3.45,11219719
2020-03-04,3.49,3.49,3.26,3.3,33112844
2020-03-05,3.33,3.35,3.28,3.3,17799000
2020-03-06,3.28,3.29,3.22,3.22,12976147
2020-03-09,3.16,3.18,3.08,3.08,21354000
2020-03-10,3.08,3.13,3.02,3.1,13416008
2020-03-11,3.1,3.26,3.09,3.12,24365008
2020-03-12,3.08,3.1,3.0,3.01,17751884
2020-03-13,2.88,3.08,2.83,3.07,23489684
2020-03-16,2.99,3.05,2.91,2.96,26928000
2020-03-17,2.91,3.04,2.87,3.01,23233394
2020-03-18,2.97,3.06,2.9,2.91,17661832
2020-03-19,2.89,2.95,2.75,2.84,30012228
2020-03-20,2.89,2.95,2.75,2.83,41846552
2020-03-23,2.77,2.77,2.63,2.71,19967044
2020-03-24,2.75,2.81,2.71,2.8,15800115
2020-03-25,2.9,2.95,2.78,2.83,24546476
2020-03-26,2.84,2.96,2.82,2.92,22587000
2020-03-27,2.93,2.98,2.86,2.9,12525000
2020-03-30,2.87,2.96,2.8,2.96,13052800
2020-03-31,3.0,3.03,2.93,2.99,12936000
2020-04-01,2.92,3.0,2.88,2.89,12432666
2020-04-02,2.88,2.93,2.84,2.93,9194000
2020-04-03,2.86,2.91,2.83,2.83,2363190
2020-04-06,2.85,2.87,2.77,2.83,4100000
2020-04-07,2.88,2.97,2.88,2.92,13789000
2020-04-08,2.93,2.99,2.88,2.96,11529000
2020-04-09,3.0,3.0,2.94,2.96,6859000
2020-04-14,2.93,3.06,2.93,3.01,15933000
2020-04-15,3.02,3.1,2.98,3.01,9683000
2020-04-16,2.99,3.01,2.9,2.94,18176000
2020-04-17,2.97,3.02,2.93,2.96,11367766
2020-04-20,2.98,3.03,2.94,2.97,7872000
2020-04-21,2.97,3.0,2.88,2.91,8816480
2020-04-22,2.9,2.94,2.84,2.92,6850136
2020-04-23,2.96,3.09,2.95,3.04,19085620
2020-04-24,3.04,3.1,3.0,3.03,14183450
2020-04-27,3.05,3.1,2.99,3.02,6513160
2020-04-28,3.08,3.08,2.98,3.03,3929000
2020-04-29,3.04,3.1,3.03,3.06,4532116
2020-05-04,3.0,3.01,2.92,2.94,7607116
2020-05-05,2.95,2.97,2.89,2.92,3958000
2020-05-06,2.97,3.05,2.97,3.0,11782142
2020-05-07,3.0,3.05,2.99,3.01,7205355
2020-05-08,3.06,3.12,3.02,3.05,11956000
2020-05-11,3.07,3.18,3.06,3.13,9828000
2020-05-12,3.13,3.14,3.08,3.1,5389656
2020-05-13,3.06,3.13,3.06,3.07,5744000
2020-05-14,3.07,3.09,3.03,3.06,6004000
2020-05-15,3.08,3.08,3.0,3.03,7603000
2020-05-18,3.07,3.18,3.03,3.15,16120000
2020-05-19,3.19,3.41,3.18,3.39,28159000
2020-05-20,3.41,3.41,3.26,3.34,15177000
2020-05-21,3.37,3.37,3.25,3.27,11215564
2020-05-22,3.3,3.31,3.14,3.2,16540000
2020-05-25,3.28,3.34,3.23,3.29,17303400
2020-05-26,3.31,3.5,3.27,3.4,30935000
2020-05-27,3.42,3.66,3.4,3.57,40300824
2020-05-28,3.63,3.64,3.42,3.52,27594076
2020-05-29,3.5,3.63,3.48,3.53,20012480
2020-06-01,3.58,3.7,3.55,3.63,18041232
2020-06-02,3.68,3.74,3.65,3.7,18226000
2020-06-03,3.74,3.83,3.72,3.8,19716000
2020-06-04,3.86,4.01,3.8,4.01,30565732
2020-06-05,4.02,4.05,3.91,4.01,21617218
2020-06-08,4.04,4.06,3.9,3.99,25781000
2020-06-09,4.0,4.03,3.95,3.99,13472331
2020-06-10,3.99,3.99,3.89,3.96,22571908
2020-06-11,3.96,4.01,3.93,4.0,15063311
2020-06-12,3.9,4.01,3.88,4.01,14100826
2020-06-15,3.95,4.19,3.95,4.0,43116872
2020-06-16,4.07,4.08,3.94,3.96,24468000
2020-06-17,4.02,4.06,3.82,3.88,39603676
2020-06-18,3.88,3.88,3.75,3.81,27038300
2020-06-19,3.81,3.84,3.71,3.73,19713660
2020-06-22,3.71,3.78,3.62,3.72,17872900
2020-06-23,3.72,3.75,3.65,3.69,9103250
2020-06-24,3.69,3.7,3.61,3.62,10725612
2020-06-26,3.56,3.66,3.55,3.57,12945000
2020-06-29,3.57,3.73,3.52,3.61,29674300
2020-06-30,3.64,3.65,3.51,3.51,15928428
2020-07-02,3.54,3.63,3.52,3.58,21681000
2020-07-03,3.63,3.67,3.56,3.6,14631580
2020-07-06,3.64,4.07,3.64,4.06,48150000
2020-07-07,4.3,4.3,3.9,3.91,44663800
2020-07-08,3.96,4.92,3.93,4.76,103192496
2020-07-09,4.95,5.13,4.63,4.7,104648400
2020-07-10,4.71,4.97,4.43,4.5,57857000
2020-07-13,4.5,4.87,4.48,4.58,42608000
2020-07-14,4.6,4.74,4.43,4.52,31287000
2020-07-15,4.67,4.7,4.44,4.49,19815000
2020-07-16,4.51,4.54,4.05,4.05,45223000
2020-07-17,4.12,4.36,4.12,4.2,29413000
2020-07-20,4.29,4.68,4.19,4.65,49354000
2020-07-21,4.68,4.7,4.4,4.54,34109000
2020-07-22,4.53,4.7,4.45,4.61,27168648
2020-07-23,4.65,4.75,4.42,4.54,51855728
2020-07-24,4.52,5.0,4.38,4.45,163012640
2020-07-27,4.49,4.76,4.34,4.67,60226780
2020-07-28,4.7,4.8,4.56,4.77,28697000
2020-07-29,4.7,4.84,4.68,4.81,22554736
2020-07-30,4.78,4.99,4.75,4.79,37218632
2020-07-31,4.8,4.8,4.57,4.61,29514816
2020-08-03,4.66,5.21,4.61,5.18,101143864
2020-08-04,5.12,5.18,4.92,4.96,36565000
2020-08-05,4.91,5.16,4.9,5.02,34672012
2020-08-06,5.02,5.2,4.97,5.11,41394644
2020-08-07,5.12,5.34,5.01,5.17,74257000
2020-08-10,5.22,5.45,5.12,5.24,57315000
2020-08-11,5.24,5.75,5.17,5.44,83219736
2020-08-12,5.45,5.46,5.02,5.06,59494000
2020-08-13,5.12,5.3,5.08,5.14,30899424
2020-08-14,5.15,5.33,5.15,5.23,30991714
2020-08-17,5.25,5.4,5.25,5.3,18214568
2020-08-18,5.38,5.38,5.14,5.32,23901152
2020-08-19,5.21,5.28,5.05,5.11,24337250
2020-08-20,5.06,5.18,4.91,4.99,37050016
2020-08-21,5.05,5.13,4.93,4.96,20131118
2020-08-24,5.0,5.18,4.99,5.14,23514000
2020-08-25,5.14,5.29,5.11,5.14,25922672
