Date,Open,High,Low,Close,Volume
2013-10-11,0.40299999999999997,0.41700000000000004,0.38,0.395,140040000
2013-10-15,0.405,0.46299999999999997,0.405,0.445,65300000
2013-10-16,0.44,0.44799999999999995,0.43799999999999994,0.44299999999999995,20860000
2013-10-17,0.445,0.45,0.41700000000000004,0.42700000000000005,27950000
2013-10-18,0.43200000000000005,0.435,0.42,0.435,20380000
2013-10-21,0.43799999999999994,0.445,0.435,0.44,18860000
2013-10-22,0.43799999999999994,0.44299999999999995,0.43,0.43,18170000
2013-10-23,0.435,0.435,0.425,0.42700000000000005,15700000
2013-10-24,0.425,0.42700000000000005,0.42,0.42700000000000005,12500000
2013-10-25,0.42700000000000005,0.43200000000000005,0.42200000000000004,0.43,9850000
2013-10-28,0.43,0.435,0.425,0.435,9080000
2013-10-29,0.435,0.44,0.43,0.435,9710000
2013-10-30,0.43799999999999994,0.43799999999999994,0.42700000000000005,0.43200000000000005,6560000
2013-10-31,0.43200000000000005,0.43799999999999994,0.42,0.43799999999999994,12860000
2013-11-01,0.43799999999999994,0.445,0.43799999999999994,0.43799999999999994,13230000
2013-11-04,0.435,0.44,0.43200000000000005,0.44,10370000
2013-11-05,0.43799999999999994,0.445,0.43799999999999994,0.44299999999999995,8300000
2013-11-06,0.44299999999999995,0.48,0.44299999999999995,0.48,15970000
2013-11-07,0.48,0.49200000000000005,0.46799999999999997,0.47700000000000004,12380000
2013-11-08,0.47200000000000003,0.48700000000000004,0.47,0.48200000000000004,7820000
2013-11-11,0.485,0.502,0.475,0.5,12750000
2013-11-12,0.49700000000000005,0.49700000000000005,0.48,0.48200000000000004,4650000
2013-11-13,0.475,0.47700000000000004,0.47,0.47200000000000003,4190000
2013-11-14,0.475,0.48700000000000004,0.47200000000000003,0.485,6850000
2013-11-15,0.49,0.49700000000000005,0.48200000000000004,0.49,7210000
2013-11-18,0.49,0.51,0.49,0.495,5410000
2013-11-19,0.49700000000000005,0.51,0.49200000000000005,0.49700000000000005,8080000
2013-11-20,0.495,0.502,0.49,0.49200000000000005,6320000
2013-11-21,0.495,0.49700000000000005,0.49,0.49700000000000005,5710000
2013-11-22,0.5,0.5,0.49200000000000005,0.5,5680000
2013-11-25,0.5,0.505,0.49200000000000005,0.495,3110000
2013-11-26,0.5,0.52,0.5,0.507,4780000
2013-11-27,0.505,0.507,0.49700000000000005,0.5,4400000
2013-11-28,0.5,0.507,0.49700000000000005,0.5,4610000
2013-11-29,0.505,0.512,0.5,0.502,2470000
2013-12-02,0.505,0.507,0.495,0.505,4070000
2013-12-03,0.5,0.502,0.495,0.495,4540000
2013-12-04,0.5,0.505,0.495,0.5,3690000
2013-12-05,0.495,0.517,0.49,0.512,40210000
2013-12-06,0.512,0.53,0.51,0.512,2830000
2013-12-09,0.522,0.527,0.515,0.527,1950000
2013-12-10,0.527,0.527,0.512,0.522,2230000
2013-12-11,0.522,0.522,0.512,0.512,2060000
2013-12-12,0.512,0.517,0.51,0.517,2840000
2013-12-13,0.517,0.52,0.51,0.517,2480000
2013-12-16,0.517,0.522,0.51,0.522,2880000
2013-12-17,0.522,0.53,0.515,0.527,2920000
2013-12-18,0.525,0.537,0.517,0.532,4020000
2013-12-19,0.535,0.535,0.525,0.53,1110000
2013-12-20,0.53,0.537,0.52,0.53,2650000
2013-12-23,0.532,0.542,0.525,0.535,1230000
2013-12-24,0.537,0.547,0.532,0.545,1850000
2013-12-27,0.547,0.565,0.547,0.552,1700000
2013-12-30,0.547,0.56,0.54,0.552,2280000
2013-12-31,0.555,0.562,0.555,0.555,700000
2014-01-02,0.573,0.575,0.552,0.557,1950000
2014-01-03,0.55,0.557,0.545,0.547,1360000
2014-01-06,0.545,0.545,0.532,0.537,4380000
2014-01-07,0.54,0.545,0.532,0.545,2700000
2014-01-08,0.545,0.56,0.545,0.552,2740000
2014-01-09,0.552,0.56,0.537,0.56,3010000
2014-01-10,0.56,0.575,0.552,0.575,2780000
2014-01-13,0.568,0.58,0.568,0.58,880000
2014-01-14,0.605,0.605,0.588,0.598,2840000
2014-01-15,0.6,0.608,0.598,0.603,4070000
2014-01-16,0.608,0.613,0.605,0.61,2420000
2014-01-17,0.615,0.623,0.61,0.615,2480000
2014-01-20,0.618,0.618,0.6,0.61,3120000
2014-01-21,0.613,0.615,0.603,0.613,4100000
2014-01-22,0.613,0.625,0.6,0.615,5460000
2014-01-23,0.615,0.63,0.605,0.61,5000000
2014-01-24,0.605,0.63,0.6,0.63,7292000
2014-01-27,0.63,0.632,0.615,0.63,4790000
2014-01-28,0.63,0.657,0.63,0.642,5890000
2014-01-29,0.635,0.645,0.623,0.63,35538000
2014-01-30,0.632,0.635,0.615,0.635,2560000
2014-02-04,0.635,0.635,0.623,0.63,3110000
2014-02-05,0.627,0.63,0.615,0.62,2690000
2014-02-06,0.623,0.632,0.62,0.63,2030000
2014-02-07,0.63,0.662,0.63,0.662,3360000
2014-02-10,0.662,0.677,0.655,0.67,4510000
2014-02-11,0.672,0.675,0.665,0.667,2350000
2014-02-12,0.67,0.688,0.667,0.685,5140000
2014-02-13,0.688,0.7,0.68,0.698,4300000
2014-02-14,0.7,0.715,0.685,0.715,6170000
2014-02-17,0.72,0.733,0.718,0.733,4280000
2014-02-18,0.738,0.745,0.725,0.725,4750000
2014-02-19,0.725,0.73,0.715,0.73,3070000
2014-02-20,0.735,0.738,0.723,0.728,3480000
2014-02-21,0.728,0.738,0.72,0.725,2630000
2014-02-24,0.723,0.728,0.713,0.728,2590000
2014-02-25,0.733,0.738,0.723,0.735,2250000
2014-02-26,0.743,0.743,0.73,0.73,1680000
2014-02-27,0.733,0.752,0.73,0.752,3040000
2014-02-28,0.752,0.762,0.745,0.757,3520000
2014-03-03,0.762,0.767,0.745,0.755,3120000
2014-03-04,0.757,0.762,0.748,0.752,2450000
2014-03-05,0.755,0.762,0.745,0.755,2950000
2014-03-06,0.757,0.767,0.745,0.752,2120000
2014-03-07,0.752,0.795,0.745,0.792,6340000
2014-03-10,0.787,0.797,0.775,0.792,8880000
2014-03-11,0.838,0.892,0.815,0.88,36920000
2014-03-12,0.88,0.9,0.87,0.895,18900000
2014-03-13,0.885,0.9,0.875,0.9,11940000
2014-03-14,0.892,0.912,0.892,0.897,11350000
2014-03-17,0.897,0.92,0.89,0.9,15828000
2014-03-18,0.907,0.922,0.897,0.92,8010000
2014-03-19,0.925,0.932,0.915,0.922,8380000
2014-03-20,0.925,0.932,0.915,0.93,8880000
2014-03-21,0.932,0.943,0.927,0.94,8090000
2014-03-24,0.938,0.945,0.925,0.935,8310000
2014-03-25,0.932,0.935,0.92,0.927,9170000
2014-03-26,0.93,0.932,0.92,0.932,6020000
2014-03-27,0.935,0.94,0.92,0.938,6330000
2014-03-28,0.935,0.94,0.93,0.935,4870000
2014-03-31,0.938,0.95,0.925,0.943,6190000
2014-04-01,0.943,0.953,0.938,0.945,7070000
2014-04-02,0.95,0.958,0.948,0.953,5370000
2014-04-03,0.955,0.96,0.95,0.953,7470000
2014-04-04,0.95,0.958,0.948,0.958,5730000
2014-04-07,0.958,0.963,0.948,0.953,5060000
2014-04-08,0.948,0.955,0.948,0.95,5110000
2014-04-09,0.95,0.96,0.95,0.955,4780000
2014-04-10,0.955,0.965,0.953,0.963,6436000
2014-04-11,0.963,0.963,0.953,0.96,4100000
2014-04-14,0.96,0.963,0.95,0.953,4650000
2014-04-15,0.953,0.955,0.945,0.945,5500000
2014-04-16,0.945,0.955,0.943,0.953,4370000
2014-04-17,0.953,0.96,0.95,0.958,4850000
2014-04-22,0.958,0.958,0.94,0.943,6950000
2014-04-23,0.943,0.948,0.927,0.935,5880000
2014-04-24,0.935,0.948,0.932,0.938,5540000
2014-04-25,0.938,0.94,0.925,0.925,5590000
2014-04-28,0.915,0.932,0.915,0.93,5950000
2014-04-29,0.93,0.935,0.927,0.935,6480000
2014-04-30,0.935,0.938,0.922,0.927,5550000
2014-05-02,0.927,0.938,0.915,0.917,6920000
2014-05-05,0.92,0.922,0.905,0.912,5230000
2014-05-07,0.912,0.915,0.9,0.902,7980000
2014-05-08,0.902,0.907,0.887,0.892,9330000
2014-05-09,0.895,0.905,0.892,0.905,7010000
2014-05-12,0.9,0.907,0.892,0.892,7260680
2014-05-13,0.897,0.907,0.892,0.902,7045080
2014-05-14,0.9,0.907,0.892,0.9,5700000
2014-05-15,0.9,0.915,0.897,0.912,8270000
2014-05-16,0.915,0.948,0.915,0.945,17720000
2014-05-19,0.948,0.978,0.943,0.973,18570000
2014-05-20,0.983,0.993,0.97,0.975,15320000
2014-05-21,0.955,0.963,0.945,0.96,13560000
2014-05-22,0.963,0.975,0.955,0.973,12300000
2014-05-23,0.975,0.99,0.97,0.99,12270000
2014-05-26,0.995,1.005,0.985,1.005,12410000
2014-05-27,1.0,1.008,0.985,1.008,13490000
2014-05-28,1.008,1.012,0.995,1.012,11730000
2014-05-29,1.01,1.022,0.99,0.993,10960000
2014-05-30,0.993,1.0,0.983,0.998,8120000
2014-06-03,0.995,0.998,0.978,0.978,9026000
2014-06-04,0.975,0.98,0.968,0.968,7560000
2014-06-05,0.97,0.978,0.968,0.973,7520000
2014-06-06,0.975,0.985,0.968,0.985,8710000
2014-06-09,0.988,0.995,0.985,0.993,7930000
2014-06-10,0.995,1.0,0.988,0.998,7870000
2014-06-11,1.002,1.002,0.99,0.993,7935200
2014-06-12,0.995,1.0,0.99,1.0,7810000
2014-06-13,0.998,1.008,0.988,0.988,18840000
2014-06-16,0.993,0.998,0.985,0.998,7840000
2014-06-17,0.998,1.008,0.99,1.005,8990000
2014-06-18,1.005,1.012,0.998,1.012,8130000
2014-06-19,1.012,1.015,1.002,1.008,7940000
2014-06-20,1.008,1.02,1.002,1.018,8660000
2014-06-23,1.015,1.022,1.005,1.015,8120000
2014-06-24,1.015,1.025,1.01,1.022,7910000
2014-06-25,1.02,1.03,1.018,1.028,8210000
2014-06-26,1.032,1.038,1.028,1.038,10590000
2014-06-27,1.035,1.04,1.028,1.032,8380000
2014-06-30,1.032,1.045,1.028,1.045,9530000
2014-07-02,1.04,1.065,1.04,1.065,9310000
2014-07-03,1.067,1.075,1.058,1.06,11110000
2014-07-04,1.062,1.09,1.062,1.09,8660000
2014-07-07,1.093,1.163,1.09,1.147,10760000
2014-07-08,1.153,1.17,1.15,1.165,9790000
2014-07-09,1.167,1.232,1.167,1.222,8670000
2014-07-10,1.232,1.28,1.23,1.272,9920000
2014-07-11,1.275,1.35,1.272,1.3019999999999998,13904000
2014-07-14,1.298,1.365,1.298,1.35,8130000
2014-07-15,1.355,1.375,1.28,1.3019999999999998,13240000
2014-07-16,1.3019999999999998,1.44,1.202,1.3869999999999998,9580000
2014-07-17,1.375,1.413,1.3330000000000002,1.367,7030000
2014-07-18,1.367,1.375,1.317,1.35,6100000
2014-07-21,1.35,1.673,1.3430000000000002,1.475,5680000
2014-07-22,1.472,1.5419999999999998,1.423,1.43,6070000
2014-07-23,1.43,1.43,1.375,1.3969999999999998,7260000
2014-07-24,1.4,1.4880000000000002,1.4,1.4580000000000002,7248000
2014-07-25,1.455,1.455,1.39,1.425,7180000
2014-07-28,1.4269999999999998,1.558,1.4269999999999998,1.5019999999999998,7220000
2014-07-29,1.5,1.548,1.47,1.528,7320000
2014-07-30,1.525,1.555,1.4680000000000002,1.548,7190000
2014-07-31,1.548,1.548,1.4880000000000002,1.508,7160000
2014-08-01,1.5119999999999998,1.5119999999999998,1.472,1.48,7430000
2014-08-04,1.485,1.52,1.475,1.505,7770000
2014-08-05,1.508,1.525,1.4880000000000002,1.518,8500000
2014-08-06,1.518,1.577,1.518,1.575,10430000
2014-08-07,1.577,1.607,1.57,1.607,10460000
2014-08-08,1.61,1.625,1.6030000000000002,1.6230000000000002,10670000
2014-08-11,1.6269999999999998,1.7,1.6130000000000002,1.67,10000000
2014-08-12,1.673,1.7,1.67,1.6980000000000002,10170000
2014-08-13,1.692,1.702,1.6880000000000002,1.6880000000000002,9950000
2014-08-14,1.685,1.712,1.615,1.712,10720000
2014-08-15,1.7080000000000002,1.775,1.7,1.775,20200000
2014-08-18,1.778,1.85,1.778,1.85,16140000
2014-08-19,1.855,1.86,1.77,1.8119999999999998,12170000
2014-08-20,1.82,1.8230000000000002,1.7919999999999998,1.805,32310000
2014-08-21,1.8119999999999998,1.8230000000000002,1.758,1.805,12420000
2014-08-22,1.808,1.88,1.8019999999999998,1.8530000000000002,12390000
2014-08-25,1.8530000000000002,1.875,1.837,1.8730000000000002,11900000
2014-08-26,1.875,1.905,1.87,1.89,11872000
2014-08-27,1.893,1.905,1.875,1.885,11950000
2014-08-28,1.8869999999999998,1.903,1.88,1.895,11290000
2014-08-29,1.8969999999999998,1.9,1.8330000000000002,1.875,11470000
2014-09-01,1.88,1.8869999999999998,1.865,1.885,11790000
2014-09-02,1.8869999999999998,1.9,1.8769999999999998,1.893,11780000
2014-09-03,1.895,1.925,1.89,1.925,11710000
2014-09-04,1.9269999999999998,1.935,1.9,1.9169999999999998,12120000
2014-09-05,1.933,1.945,1.913,1.945,13060000
2014-09-08,1.945,1.965,1.94,1.955,11820000
2014-09-10,1.9580000000000002,1.975,1.9580000000000002,1.965,11980000
2014-09-11,1.965,2.053,1.96,2.05,19040000
2014-09-12,2.06,2.25,2.055,2.245,19710000
2014-09-15,2.252,2.2680000000000002,2.175,2.237,11990000
2014-09-16,2.235,2.28,2.225,2.275,7640000
2014-09-17,2.2880000000000003,2.4619999999999997,2.283,2.46,12510000
2014-09-18,2.465,2.47,2.27,2.41,13380000
2014-09-19,2.415,2.447,2.305,2.428,12990000
2014-09-22,2.43,2.458,2.405,2.4419999999999997,11810000
2014-09-23,2.447,2.4530000000000003,2.42,2.445,11820000
2014-09-24,2.45,2.455,2.428,2.438,11390000
2014-09-25,2.435,2.44,2.325,2.38,12900000
2014-09-26,2.3819999999999997,2.4019999999999997,2.3369999999999997,2.3680000000000003,12560000
2014-09-29,2.37,2.37,2.225,2.295,12710000
2014-09-30,2.3,2.322,2.283,2.312,11920000
2014-10-03,2.315,2.397,2.303,2.388,12460000
2014-10-06,2.39,2.408,2.34,2.353,11980000
2014-10-07,2.3569999999999998,2.377,2.345,2.37,11920000
2014-10-08,2.373,2.385,2.34,2.3680000000000003,12210000
2014-10-09,2.37,2.425,2.362,2.42,11810000
2014-10-10,2.42,2.4219999999999997,2.375,2.41,11940000
2014-10-13,2.4130000000000003,2.425,2.38,2.42,12280000
2014-10-14,2.425,2.4330000000000003,2.333,2.355,12020000
2014-10-15,2.3569999999999998,2.3930000000000002,2.34,2.36,11860000
2014-10-16,2.362,2.362,2.325,2.35,11520000
2014-10-17,2.353,2.362,2.315,2.345,11640000
2014-10-20,2.3480000000000003,2.355,2.312,2.322,10700000
2014-10-21,2.325,2.34,2.315,2.335,10080000
2014-10-22,2.335,2.3680000000000003,2.325,2.34,10300000
2014-10-23,2.342,2.3680000000000003,2.3280000000000003,2.3480000000000003,10510000
2014-10-24,2.35,2.375,2.35,2.3680000000000003,11710000
2014-10-27,2.3680000000000003,2.37,2.3169999999999997,2.3369999999999997,10740000
2014-10-28,2.34,2.37,2.34,2.355,8400000
2014-10-29,2.355,2.37,2.3280000000000003,2.353,9990000
2014-10-30,2.355,2.3680000000000003,2.345,2.362,11620000
2014-10-31,2.362,2.375,2.335,2.345,10070000
2014-11-03,2.3480000000000003,2.3569999999999998,2.32,2.333,8510000
2014-11-04,2.335,2.3680000000000003,2.3169999999999997,2.3680000000000003,12900000
2014-11-05,2.373,2.377,2.34,2.342,11267200
2014-11-06,2.345,2.353,2.312,2.3280000000000003,8280000
2014-11-07,2.33,2.3480000000000003,2.32,2.342,9404000
2014-11-10,2.3480000000000003,2.4019999999999997,2.345,2.4,15078000
2014-11-11,2.4019999999999997,2.425,2.4,2.4219999999999997,13380000
2014-11-12,2.425,2.4419999999999997,2.417,2.43,12080000
2014-11-13,2.4330000000000003,2.4419999999999997,2.408,2.42,11080000
2014-11-14,2.4219999999999997,2.55,2.42,2.54,14450000
2014-11-17,2.545,2.62,2.53,2.585,13100120
2014-11-18,2.59,2.605,2.455,2.5,13597200
2014-11-19,2.51,2.51,2.312,2.505,11000000
2014-11-20,2.505,2.515,2.425,2.475,10090000
2014-11-21,2.47,2.49,2.435,2.475,10180000
2014-11-24,2.478,2.485,2.335,2.385,10740000
2014-11-25,2.385,2.397,2.188,2.225,14270000
2014-11-26,2.2319999999999998,2.275,2.188,2.237,9801400
2014-11-27,2.24,2.255,2.2,2.225,8210000
2014-11-28,2.228,2.2430000000000003,2.1919999999999997,2.215,8430000
2014-12-01,2.215,2.225,2.17,2.2,10020000
2014-12-02,2.2030000000000003,2.21,2.175,2.1830000000000003,8478000
2014-12-03,2.1830000000000003,2.2,2.025,2.125,7190000
2014-12-04,2.125,2.225,2.075,2.112,6640000
2014-12-05,2.112,2.188,2.092,2.1180000000000003,7110000
2014-12-08,2.1180000000000003,2.14,2.0869999999999997,2.127,6530000
2014-12-09,2.15,2.15,2.072,2.095,6700000
2014-12-10,2.0980000000000003,2.0980000000000003,2.062,2.0980000000000003,6450000
2014-12-11,2.0980000000000003,2.112,2.05,2.075,6360000
2014-12-12,2.1,2.1,2.01,2.0380000000000003,5230000
2014-12-15,2.075,2.08,2.0380000000000003,2.0780000000000003,6210000
2014-12-16,2.08,2.3,2.03,2.12,6860000
2014-12-17,2.15,2.19,1.84,2.02,6910000
2014-12-18,2.03,2.04,1.91,2.0,4250000
2014-12-19,1.99,2.0,1.91,1.98,4160000
2014-12-22,2.0,2.0,1.82,1.89,5737500
2014-12-23,1.95,1.95,1.81,1.88,3590000
2014-12-24,1.88,1.89,1.8,1.84,2210000
2014-12-29,1.9,1.95,1.77,1.83,7000000
2014-12-30,1.84,1.86,1.8,1.86,4680000
2014-12-31,1.85,1.85,1.81,1.85,2522500
2015-01-02,1.87,1.89,1.82,1.86,4825000
2015-01-05,1.86,1.97,1.83,1.96,4605000
2015-01-06,1.97,2.09,1.96,1.99,4985000
2015-01-07,2.01,2.03,1.89,1.9,4545000
2015-01-08,1.9,1.95,1.83,1.85,4165000
2015-01-09,1.86,1.86,1.73,1.81,4215300
2015-01-12,1.83,1.84,1.74,1.77,4520000
2015-01-13,1.8,1.85,1.73,1.76,5907500
2015-01-14,1.79,1.81,1.75,1.8,3585000
2015-01-15,1.81,2.04,1.77,2.01,12222500
2015-01-16,2.0,2.03,1.88,1.97,4465000
2015-01-19,1.98,1.99,1.91,1.96,2737500
2015-01-20,1.98,1.98,1.93,1.98,3975000
2015-01-21,1.99,1.99,1.94,1.96,3967500
2015-01-22,1.97,1.98,1.92,1.95,4075000
2015-01-23,1.96,2.0,1.91,2.0,4362500
2015-01-26,2.02,2.1,1.95,2.1,5270000
2015-01-27,2.12,2.17,2.07,2.16,5294400
2015-01-28,2.17,2.35,2.14,2.34,6182500
2015-01-29,2.35,2.45,2.3,2.35,6317500
2015-01-30,2.36,2.36,2.24,2.28,3782500
2015-02-02,2.29,2.31,2.26,2.3,4847500
2015-02-03,2.31,2.32,2.24,2.27,4295000
2015-02-04,2.28,2.39,2.26,2.34,4717500
2015-02-05,2.35,2.46,2.35,2.41,4307500
2015-02-06,2.41,2.5,2.4,2.46,4090000
2015-02-09,2.45,2.46,2.35,2.41,3725000
2015-02-10,2.42,2.47,2.39,2.43,3992500
2015-02-11,2.43,2.46,2.36,2.39,4077500
2015-02-12,2.4,2.43,2.19,2.27,3737500
2015-02-13,2.24,2.24,1.92,2.04,6630000
2015-02-16,2.05,2.1,2.0,2.06,3052500
2015-02-17,2.06,2.13,2.05,2.11,2975000
2015-02-18,2.11,2.14,2.06,2.1,1575000
2015-02-23,2.11,2.16,2.05,2.06,3097500
2015-02-24,2.06,2.16,2.04,2.11,3175000
2015-02-25,2.11,2.16,2.11,2.12,3655000
2015-02-26,2.12,2.16,2.1,2.15,3402500
2015-02-27,2.15,2.19,2.12,2.17,3235000
2015-03-02,2.18,2.27,2.18,2.25,3357500
2015-03-03,2.26,2.29,2.23,2.23,3022500
2015-03-04,2.24,2.25,2.17,2.2,3852500
2015-03-05,2.21,2.23,2.18,2.21,2640000
2015-03-06,2.22,2.25,2.19,2.24,2427500
2015-03-09,2.24,2.28,2.24,2.26,3010000
2015-03-10,2.26,2.29,2.24,2.29,3375000
2015-03-11,2.28,2.35,2.26,2.32,4012500
2015-03-12,2.32,2.36,2.18,2.3,3957500
2015-03-13,2.29,2.35,2.29,2.32,3147500
2015-03-16,2.33,2.44,2.29,2.43,6300000
2015-03-17,2.44,2.45,2.36,2.44,4070000
2015-03-18,2.42,2.45,2.39,2.45,5179300
2015-03-19,2.45,2.47,2.41,2.43,5150500
2015-03-20,2.44,2.47,2.38,2.41,4967500
2015-03-23,2.42,2.43,2.37,2.42,4285000
2015-03-24,2.42,2.43,2.4,2.43,3542500
2015-03-25,2.43,2.55,2.43,2.53,9267500
2015-03-26,2.54,2.59,2.5,2.56,10805000
2015-03-27,2.56,2.56,2.49,2.55,6812500
2015-03-30,2.54,2.87,2.53,2.86,16862500
2015-03-31,2.87,2.97,2.83,2.96,11855000
2015-04-01,2.96,3.18,2.92,3.15,16135000
2015-04-02,3.18,4.1,3.18,3.98,16740500
2015-04-10,3.98,4.61,3.31,3.8,23724500
2015-04-13,3.8,3.8,3.5,3.68,7562000
2015-04-14,3.7,3.82,3.64,3.7,5050000
2015-04-15,3.71,3.75,3.63,3.7,3580000
2015-04-16,3.68,3.71,3.6,3.68,5452500
2015-04-17,3.68,3.8,3.67,3.7,4247500
2015-04-20,3.7,3.7,3.51,3.6,4762500
2015-04-21,3.61,3.68,3.5,3.54,5143400
2015-04-22,3.55,3.65,3.55,3.65,4795000
2015-04-23,3.66,3.69,3.54,3.6,4037500
2015-04-24,3.6,3.69,3.55,3.58,4197500
2015-04-27,3.58,3.66,3.57,3.58,4057500
2015-04-28,3.58,3.62,3.54,3.58,4697500
2015-04-29,3.59,3.64,3.51,3.55,3785000
2015-04-30,3.56,3.63,3.5,3.58,5955000
2015-05-04,3.58,4.0,3.56,3.88,6630000
2015-05-05,3.88,3.9,3.68,3.75,5047500
2015-05-06,3.76,3.92,3.61,3.66,5620000
2015-05-07,3.66,3.82,3.6,3.64,5745000
2015-05-08,3.65,3.85,3.65,3.85,6405000
2015-05-11,3.86,3.9,3.75,3.79,5027500
2015-05-12,3.79,4.1,3.78,4.0,11381052
2015-05-13,4.02,4.09,3.7,3.86,6262870
2015-05-14,3.86,3.86,3.71,3.78,5825000
2015-05-15,3.78,3.94,3.78,3.87,4600002
2015-05-18,3.87,3.94,3.82,3.88,5352500
2015-05-19,3.88,3.93,3.74,3.82,4600000
2015-05-20,3.79,3.9,3.75,3.79,5127500
2015-05-21,3.8,3.89,3.78,3.82,4382500
2015-05-22,3.81,3.85,3.71,3.75,5231500
2015-05-26,3.75,3.93,3.75,3.88,5532500
2015-05-27,3.89,3.93,3.82,3.89,4985000
2015-05-28,3.89,3.94,3.84,3.84,4670000
2015-05-29,3.84,3.96,3.82,3.89,4760000
2015-06-01,3.89,4.05,3.84,3.89,6350000
2015-06-02,3.9,3.93,3.78,3.83,5160000
2015-06-03,3.85,3.99,3.8,3.85,4695000
2015-06-04,3.86,3.86,3.72,3.79,4605000
2015-06-05,3.78,3.85,3.75,3.77,4792500
2015-06-08,3.77,3.86,3.7,3.86,5382500
2015-06-09,3.85,3.86,3.75,3.8,4937500
2015-06-10,3.8,3.88,3.77,3.79,4500000
2015-06-11,3.79,3.87,3.77,3.77,4452500
2015-06-12,3.77,3.82,3.72,3.76,4157500
2015-06-15,3.76,3.78,3.68,3.71,4125000
2015-06-16,3.71,3.75,3.67,3.69,3970000
2015-06-17,3.7,3.76,3.68,3.71,4165000
2015-06-18,3.72,3.76,3.67,3.69,4050000
2015-06-19,3.74,3.93,3.73,3.73,5325000
2015-06-22,3.72,3.81,3.69,3.69,5057500
2015-06-23,3.7,3.74,3.66,3.69,5067500
2015-06-24,3.68,3.71,3.62,3.68,4650000
2015-06-25,3.67,3.69,3.63,3.68,4242500
2015-06-26,3.66,3.69,3.65,3.65,4112500
2015-06-29,3.65,3.65,3.38,3.42,6525000
2015-06-30,3.44,3.58,3.34,3.48,6267500
2015-07-02,3.49,3.49,3.25,3.3,9852500
2015-07-03,3.31,3.4,3.12,3.2,13230000
2015-07-06,3.2,3.2,2.1,2.2,27237500
2015-07-07,2.21,2.38,2.18,2.3,23518684
2015-07-08,2.3,2.3,2.0,2.16,9887992
2015-07-09,2.17,2.49,2.05,2.35,13270000
2015-07-10,2.35,2.68,2.35,2.52,20882500
2015-07-13,2.51,2.81,2.5,2.7,6407500
2015-07-14,2.7,2.92,2.6,2.6,12277500
2015-07-15,2.58,2.72,2.38,2.5,9167500
2015-07-16,2.51,2.58,2.46,2.54,8150000
2015-07-17,2.52,2.65,2.47,2.59,10750000
2015-07-20,2.59,2.69,2.59,2.65,14387500
2015-07-21,2.65,2.77,2.64,2.7,6990000
2015-07-22,2.7,2.77,2.59,2.7,5227500
2015-07-23,2.7,2.96,2.63,2.91,7115000
2015-07-24,2.9,3.05,2.81,2.99,8445000
2015-07-27,2.99,3.17,2.84,3.06,11052500
2015-07-28,3.07,3.07,2.89,2.96,9800000
2015-07-29,2.97,2.98,2.88,2.97,6107500
2015-07-30,2.97,3.26,2.96,3.16,7575000
2015-07-31,3.15,3.2,2.98,3.07,6800000
2015-08-03,3.08,3.14,2.96,2.99,7290000
2015-08-04,3.0,3.07,2.93,3.0,6525000
2015-08-05,3.0,3.06,2.96,2.99,5902500
2015-08-06,3.0,3.04,2.96,3.01,7750000
2015-08-07,3.02,3.32,2.99,3.13,7035492
2015-08-10,3.13,3.17,3.1,3.13,6860000
2015-08-11,3.12,3.18,3.12,3.17,7250000
2015-08-12,3.17,3.18,3.02,3.11,7642500
2015-08-13,3.12,3.21,3.07,3.2,8012500
2015-08-14,3.21,3.38,3.2,3.33,14305000
2015-08-17,3.33,3.33,3.27,3.3,4697500
2015-08-18,3.29,3.33,3.24,3.24,4987500
2015-08-19,3.25,3.26,3.17,3.2,4402500
2015-08-20,3.2,3.23,3.12,3.14,5797500
2015-08-21,3.15,3.15,3.01,3.02,5707500
2015-08-24,3.0,3.0,2.35,2.57,6797500
2015-08-25,2.58,2.66,2.4,2.53,4114868
2015-08-26,2.53,2.84,2.52,2.83,2932500
2015-08-27,2.84,2.99,2.78,2.94,2957500
2015-08-28,2.94,3.15,2.94,3.11,3617500
2015-08-31,3.12,3.17,2.88,3.1,4090000
2015-09-01,3.11,3.11,2.87,2.96,4180000
2015-09-02,2.95,2.95,2.73,2.78,4332500
2015-09-04,2.78,3.02,2.76,3.01,4520000
2015-09-07,3.01,3.01,2.76,2.9,2735000
2015-09-08,2.9,2.94,2.8,2.93,2890000
2015-09-09,2.93,3.09,2.81,3.07,4197500
2015-09-10,3.06,3.1,2.94,3.08,2957500
2015-09-11,3.08,3.08,2.96,3.01,2400000
2015-09-14,3.01,3.08,2.97,3.04,3027500
2015-09-15,3.04,3.05,2.87,2.93,2160000
2015-09-16,2.95,3.07,2.93,3.05,2590000
2015-09-17,3.05,3.05,3.0,3.05,2552500
2015-09-18,3.04,3.25,3.02,3.2,9190000
2015-09-21,3.2,3.22,3.17,3.17,2630000
2015-09-22,3.17,3.19,3.15,3.15,2522500
2015-09-23,3.15,3.18,3.12,3.18,2905000
2015-09-24,3.18,3.19,3.12,3.13,2445000
2015-09-25,3.13,3.14,3.09,3.11,2435000
2015-09-29,3.1,3.13,3.03,3.03,2110000
2015-09-30,3.04,3.09,2.98,3.08,2442500
2015-10-02,3.1,3.1,2.97,3.01,2395000
2015-10-05,3.02,3.04,2.99,3.0,2280000
2015-10-06,3.0,3.01,2.87,2.92,2957500
2015-10-07,2.92,2.92,2.78,2.87,3297500
2015-10-08,2.87,2.89,2.79,2.89,2755000
2015-10-09,2.89,2.89,2.75,2.8,3105000
2015-10-12,2.81,2.92,2.72,2.91,7157368
2015-10-13,2.91,2.97,2.88,2.91,3770000
2015-10-14,2.92,3.02,2.87,3.02,3620000
2015-10-15,3.03,3.11,3.0,3.1,3192500
2015-10-16,3.11,3.11,3.07,3.1,2340000
2015-10-19,3.1,3.1,3.04,3.06,1827500
2015-10-20,3.07,3.08,3.03,3.08,2576600
2015-10-22,3.08,3.2,3.06,3.12,3124200
2015-10-23,3.12,3.13,2.93,3.1,2260000
2015-10-26,3.1,3.13,3.09,3.1,2027500
2015-10-27,3.11,3.14,3.09,3.13,1935000
2015-10-28,3.13,3.14,3.12,3.14,2327500
2015-10-29,3.14,3.18,3.09,3.14,2975000
2015-10-30,3.14,3.14,3.07,3.1,2182500
2015-11-02,3.11,3.11,2.99,3.03,3392500
2015-11-03,3.04,3.07,2.91,3.06,4530000
2015-11-04,3.06,3.13,3.06,3.12,3787500
2015-11-05,3.12,3.12,3.06,3.09,2820000
2015-11-06,3.1,3.1,3.06,3.07,2009500
2015-11-09,3.07,3.1,3.05,3.09,1990000
2015-11-10,3.09,3.09,3.03,3.06,2042500
2015-11-11,3.07,3.07,3.04,3.05,2000000
2015-11-12,3.06,3.15,3.06,3.14,3590000
2015-11-13,3.13,3.14,3.09,3.1,3120000
2015-11-16,3.11,3.11,2.95,2.98,2732500
2015-11-17,2.99,3.01,2.97,2.99,2510000
2015-11-18,3.0,3.03,2.99,3.01,2760000
2015-11-19,3.02,3.18,3.02,3.14,4290000
2015-11-20,3.15,3.16,3.06,3.14,2932500
2015-11-23,3.15,3.29,3.14,3.28,5017500
2015-11-24,3.28,3.38,3.19,3.38,3420000
2015-11-25,3.38,3.43,3.35,3.41,2860000
2015-11-26,3.41,3.43,3.38,3.42,3177500
2015-11-27,3.42,3.52,3.4,3.48,2802500
2015-11-30,3.48,3.49,3.32,3.33,3567500
2015-12-01,3.34,3.42,3.34,3.41,2927500
2015-12-02,3.41,3.45,3.41,3.42,2395000
2015-12-03,3.42,3.44,3.35,3.43,2785000
2015-12-04,3.42,3.43,3.4,3.42,1890000
2015-12-07,3.42,3.43,3.4,3.42,2157500
2015-12-08,3.43,3.43,3.39,3.42,2712500
2015-12-09,3.42,3.45,3.4,3.41,2250000
2015-12-10,3.41,3.43,3.4,3.4,1972500
2015-12-11,3.41,3.41,3.35,3.37,3452500
2015-12-14,3.38,3.38,3.21,3.24,2320000
2015-12-15,3.28,3.4,3.28,3.35,4062500
2015-12-16,3.35,3.38,3.31,3.33,2172500
2015-12-17,3.34,3.34,3.27,3.28,3000000
2015-12-18,3.28,3.43,3.25,3.35,8172500
2015-12-21,3.35,3.36,3.31,3.35,2487500
2015-12-22,3.36,3.38,3.34,3.37,2295000
2015-12-23,3.38,3.39,3.29,3.32,2282500
2015-12-24,3.32,3.33,3.25,3.28,1442500
2015-12-28,3.29,3.31,3.26,3.31,1655000
2015-12-29,3.31,3.4,3.28,3.37,5365000
2015-12-30,3.37,3.39,3.35,3.38,1777500
2015-12-31,3.38,3.4,3.37,3.4,1922500
2016-01-04,3.39,3.4,3.23,3.29,2295000
2016-01-05,3.28,3.28,3.18,3.21,2412500
2016-01-06,3.22,3.23,3.1,3.19,2165000
2016-01-07,3.18,3.18,2.89,3.05,2947500
2016-01-08,3.05,3.14,3.02,3.08,2150000
2016-01-11,3.02,3.03,2.92,2.96,2000000
2016-01-12,2.97,3.05,2.95,3.0,2472500
2016-01-13,3.0,3.05,2.96,3.05,4052500
2016-01-14,3.03,3.05,2.93,3.02,2205000
2016-01-15,3.0,3.01,2.77,2.87,3702500
2016-01-18,2.88,2.96,2.87,2.96,1997500
2016-01-19,2.97,3.01,2.96,3.01,2067500
2016-01-20,3.02,3.02,2.86,2.95,3022500
2016-01-21,2.95,2.98,2.85,2.92,1992500
2016-01-22,2.92,2.95,2.86,2.94,2045000
2016-01-25,2.94,2.97,2.93,2.96,1807500
2016-01-26,2.96,2.96,2.86,2.9,2407500
2016-01-27,2.91,2.93,2.86,2.89,2187500
2016-01-28,2.9,2.91,2.84,2.88,3002746
2016-01-29,2.89,3.0,2.89,2.98,2075000
2016-02-01,2.98,3.1,2.98,3.07,1922500
2016-02-02,3.07,3.13,3.06,3.13,2087500
2016-02-03,3.13,3.13,3.1,3.13,1975000
2016-02-04,3.14,3.19,3.11,3.19,1820000
2016-02-05,3.19,3.22,3.16,3.22,1715000
2016-02-11,3.21,3.21,3.12,3.16,1902500
2016-02-12,3.17,3.19,3.13,3.17,2545000
2016-02-15,3.18,3.19,3.1,3.12,2265000
2016-02-16,3.13,3.15,3.08,3.11,1925000
2016-02-17,3.12,3.15,3.1,3.14,2155000
2016-02-18,3.14,3.18,3.13,3.18,1972500
2016-02-19,3.18,3.29,3.15,3.26,2520000
2016-02-22,3.26,3.27,3.12,3.18,2784500
2016-02-23,3.18,3.18,2.95,3.04,2870000
2016-02-24,3.05,3.09,2.98,3.09,2392500
2016-02-25,3.09,3.11,2.99,3.05,2407500
2016-02-26,3.06,3.13,3.06,3.11,1960000
2016-02-29,3.11,3.11,2.92,2.97,7528700
2016-03-01,2.99,3.06,2.98,3.06,1992500
2016-03-02,3.06,3.1,3.0,3.07,2642500
2016-03-03,3.07,3.09,3.04,3.07,1947500
2016-03-04,3.08,3.1,2.97,3.02,2660000
2016-03-07,3.03,3.09,3.02,3.06,2117500
2016-03-08,3.06,3.06,2.97,3.03,2325000
2016-03-09,3.04,3.04,2.96,3.02,2087500
2016-03-10,3.02,3.02,2.97,3.02,1845000
2016-03-11,3.03,3.05,3.01,3.05,2157500
2016-03-14,3.06,3.06,3.02,3.04,1985200
2016-03-15,3.08,3.21,3.08,3.19,3620200
2016-03-16,3.19,3.19,3.06,3.07,2845000
2016-03-17,3.08,3.08,2.96,3.03,2580000
2016-03-18,3.04,3.04,2.93,2.94,3656848
2016-03-21,2.95,3.2,2.95,3.15,2595000
2016-03-22,3.16,3.26,3.16,3.25,3295000
2016-03-23,3.26,3.3,3.24,3.3,2605000
2016-03-24,3.31,3.31,3.28,3.29,2670000
2016-03-29,3.31,3.41,3.28,3.31,4525000
2016-03-30,3.33,3.34,3.3,3.34,3257500
2016-03-31,3.34,3.34,3.21,3.27,2732500
2016-04-01,3.28,3.39,3.28,3.29,2579538
2016-04-05,3.3,3.33,3.28,3.33,2732500
2016-04-06,3.34,3.43,3.32,3.41,7130000
2016-04-07,3.42,3.5,3.4,3.48,7722500
2016-04-08,3.49,3.51,3.37,3.41,3335000
2016-04-11,3.42,3.42,3.35,3.39,2552500
2016-04-12,3.4,3.41,3.36,3.41,2767500
2016-04-13,3.42,3.48,3.37,3.44,3292500
2016-04-14,3.45,3.47,3.42,3.44,2740000
2016-04-15,3.45,3.47,3.41,3.43,4072500
2016-04-18,3.43,3.43,3.16,3.24,5305000
2016-04-19,3.26,3.27,3.13,3.2,3552500
2016-04-20,3.22,3.22,3.01,3.15,4602500
2016-04-21,3.16,3.18,3.07,3.17,3645000
2016-04-22,3.15,3.17,3.02,3.05,5025000
2016-04-25,3.06,3.14,3.06,3.1,3228000
2016-04-26,3.11,3.15,3.04,3.11,3056700
2016-04-27,3.12,3.12,3.07,3.11,2537500
2016-04-28,3.11,3.12,3.08,3.1,2470000
2016-04-29,3.1,3.12,3.08,3.11,2445000
2016-05-03,3.12,3.12,3.04,3.06,2592500
2016-05-04,3.07,3.07,3.02,3.05,2422500
2016-05-05,3.06,3.06,3.01,3.04,2602500
2016-05-06,3.03,3.06,3.0,3.04,2432500
2016-05-09,3.05,3.09,3.02,3.08,2480000
2016-05-10,3.09,3.18,3.07,3.17,3112500
2016-05-11,3.18,3.29,3.18,3.26,3427500
2016-05-12,3.27,3.27,3.24,3.25,2632500
2016-05-13,3.26,3.34,3.25,3.29,3075000
2016-05-16,3.3,3.42,3.29,3.41,2875000
2016-05-17,3.42,3.42,3.35,3.37,2625000
2016-05-18,3.38,3.38,3.3,3.34,2485000
2016-05-19,3.34,3.44,3.32,3.43,3027500
2016-05-20,3.44,3.45,3.39,3.42,2527500
2016-05-23,3.42,3.43,3.33,3.37,2610000
2016-05-24,3.38,3.39,3.34,3.39,2700000
2016-05-25,3.39,3.46,3.38,3.45,3017500
2016-05-26,3.45,3.47,3.43,3.45,5022500
2016-05-27,3.46,3.47,3.4,3.41,2895000
2016-05-30,3.42,3.43,3.26,3.3,3405000
2016-05-31,3.3,3.35,3.29,3.32,2710000
2016-06-01,3.32,3.35,3.32,3.33,2962500
2016-06-02,3.35,3.45,3.35,3.44,2650000
2016-06-03,3.41,3.48,3.41,3.46,3030000
2016-06-06,3.47,3.48,3.43,3.46,3285000
2016-06-07,3.46,3.48,3.45,3.48,3150000
2016-06-08,3.48,3.48,3.46,3.47,2505000
2016-06-10,3.49,3.52,3.43,3.45,2570000
2016-06-13,3.46,3.46,3.3,3.38,3090000
2016-06-14,3.38,3.5,3.38,3.44,2937500
2016-06-15,3.44,3.45,3.37,3.38,2362500
2016-06-16,3.39,3.4,3.38,3.4,2227500
2016-06-17,3.4,3.42,3.34,3.35,2315000
2016-06-20,3.35,3.36,3.27,3.31,2582500
2016-06-21,3.31,3.32,3.25,3.3,3837500
2016-06-22,3.3,3.41,3.28,3.41,4147500
2016-06-23,3.42,3.55,3.42,3.5,4122500
2016-06-24,3.51,3.6,3.27,3.41,3570000
2016-06-27,3.42,3.44,3.37,3.4,2265000
2016-06-28,3.39,3.4,3.3,3.34,2797500
2016-06-29,3.34,3.35,3.32,3.35,2697500
2016-06-30,3.36,3.51,3.36,3.51,3097500
2016-07-04,3.52,3.52,3.47,3.5,2817500
2016-07-05,3.5,3.52,3.46,3.47,2672500
2016-07-06,3.47,3.47,3.36,3.42,2615000
2016-07-07,3.42,3.51,3.4,3.5,4170000
2016-07-08,3.51,3.55,3.46,3.5,3310000
2016-07-11,3.5,3.51,3.4,3.44,2730000
2016-07-12,3.44,3.5,3.43,3.5,3195000
2016-07-13,3.5,3.51,3.44,3.47,2767500
2016-07-14,3.47,3.48,3.4,3.44,2430000
2016-07-15,3.45,3.52,3.44,3.5,3917500
2016-07-18,3.5,3.5,3.38,3.44,2777500
2016-07-19,3.43,3.46,3.38,3.46,2375000
2016-07-20,3.46,3.46,3.38,3.44,2620000
2016-07-21,3.44,3.45,3.4,3.42,2672500
2016-07-22,3.42,3.43,3.4,3.41,2087500
2016-07-25,3.42,3.43,3.38,3.42,2815000
2016-07-26,3.42,3.44,3.39,3.42,3742500
2016-07-27,3.43,3.52,3.42,3.5,3635000
2016-07-28,3.51,3.51,3.42,3.45,2735000
2016-07-29,3.45,3.46,3.32,3.39,2876400
2016-08-01,3.4,3.52,3.39,3.48,4912500
2016-08-03,3.49,3.49,3.41,3.46,2820000
2016-08-04,3.46,3.46,3.38,3.41,2822500
2016-08-05,3.42,3.44,3.4,3.43,2677500
2016-08-08,3.43,3.48,3.42,3.46,2560000
2016-08-09,3.46,3.5,3.43,3.5,2667500
2016-08-10,3.5,3.5,3.43,3.46,2590000
2016-08-11,3.47,3.5,3.44,3.5,1952500
2016-08-12,3.5,3.5,3.45,3.5,2602500
2016-08-15,3.5,3.61,3.48,3.53,3650000
2016-08-16,3.54,3.6,3.5,3.54,3525000
2016-08-17,3.55,3.61,3.5,3.55,5128200
2016-08-18,3.56,3.78,3.51,3.73,5700000
2016-08-19,3.73,3.8,3.72,3.79,3605000
2016-08-22,3.79,3.97,3.79,3.92,3625000
2016-08-23,3.92,3.98,3.85,3.91,4417500
2016-08-24,3.92,4.03,3.92,3.99,3145000
2016-08-25,3.99,4.0,3.84,3.91,3508600
2016-08-26,3.91,3.95,3.81,3.95,3400000
2016-08-29,3.96,3.96,3.83,3.9,3075000
2016-08-30,3.9,3.9,3.84,3.89,2750000
2016-08-31,3.9,3.91,3.85,3.89,2992500
2016-09-01,3.89,3.9,3.78,3.87,3447500
2016-09-02,3.88,3.92,3.8,3.85,4258062
2016-09-05,3.86,3.88,3.83,3.86,2667500
2016-09-06,3.85,3.92,3.85,3.87,2795100
2016-09-07,3.87,3.88,3.82,3.85,2662400
2016-09-08,3.85,3.89,3.84,3.85,2700000
2016-09-09,3.85,3.91,3.84,3.9,4540000
2016-09-12,3.9,3.9,3.7,3.75,3247500
2016-09-13,3.76,3.81,3.75,3.8,2737500
2016-09-14,3.8,3.81,3.7,3.78,2952500
2016-09-15,3.78,3.79,3.71,3.75,2845000
2016-09-19,3.76,3.76,3.72,3.76,2434800
2016-09-20,3.76,3.84,3.73,3.75,2570000
2016-09-21,3.75,3.75,3.68,3.73,2255000
2016-09-22,3.73,3.74,3.7,3.73,2442500
2016-09-23,3.73,3.74,3.68,3.71,2395000
2016-09-26,3.71,3.72,3.7,3.71,2827500
2016-09-27,3.71,3.73,3.58,3.66,3465000
2016-09-28,3.67,3.74,3.66,3.72,2772500
2016-09-29,3.73,3.79,3.7,3.77,2535000
2016-09-30,3.77,3.8,3.74,3.78,2310000
2016-10-03,3.78,3.96,3.78,3.95,2947500
2016-10-04,3.95,3.98,3.92,3.98,2692500
2016-10-05,3.98,4.16,3.98,4.15,2917500
2016-10-06,4.16,4.33,4.16,4.32,3960000
2016-10-07,4.33,4.4,4.15,4.33,4312500
2016-10-11,4.34,4.39,4.26,4.3,2945000
2016-10-12,4.31,4.32,4.23,4.28,2641180
2016-10-13,4.28,4.56,4.28,4.49,4980000
2016-10-14,4.5,4.51,4.39,4.45,5158678
2016-10-17,4.46,4.47,4.42,4.45,2980526
2016-10-18,4.45,4.46,4.36,4.4,3620000
2016-10-19,4.41,4.42,4.32,4.36,3430000
2016-10-20,4.36,4.6,4.34,4.41,3692500
2016-10-24,4.41,4.42,4.35,4.37,3295000
2016-10-25,4.37,4.37,4.27,4.31,3145000
2016-10-26,4.32,4.35,4.15,4.26,3977500
2016-10-27,4.26,4.27,4.17,4.2,3617500
2016-10-28,4.2,4.21,4.01,4.13,5305000
2016-10-31,4.14,4.15,4.07,4.12,3015000
2016-11-01,4.12,4.26,4.07,4.11,3427500
2016-11-02,4.12,4.12,4.0,4.02,3022500
2016-11-03,4.03,4.05,3.96,4.0,3002500
2016-11-04,4.01,4.01,3.93,3.99,4437148
2016-11-07,4.0,4.03,3.97,4.0,3057500
2016-11-08,4.01,4.03,3.94,3.97,3147500
2016-11-09,3.98,3.98,3.9,3.94,2930000
2016-11-10,3.94,3.97,3.91,3.95,3191258
2016-11-11,3.96,4.03,3.92,4.01,2604686
2016-11-14,4.01,4.04,3.92,3.96,3198460
2016-11-15,3.96,3.96,3.88,3.92,3046994
2016-11-16,3.93,3.93,3.87,3.89,3062500
2016-11-17,3.9,3.93,3.88,3.91,2712500
2016-11-18,3.92,4.15,3.9,4.03,2932500
2016-11-21,4.05,4.14,3.95,4.02,4035000
2016-11-22,4.03,4.08,3.91,3.99,2955000
2016-11-23,4.0,4.02,3.98,4.01,2487500
2016-11-24,4.02,4.02,3.97,4.01,2557500
2016-11-25,4.02,4.02,3.96,4.0,2652500
2016-11-28,4.01,4.1,3.99,4.09,2885000
2016-11-29,4.1,4.12,4.03,4.07,2288400
2016-11-30,4.08,4.11,4.06,4.11,2285000
2016-12-01,4.11,4.2,4.1,4.15,2830000
2016-12-02,4.15,4.15,4.07,4.09,2445000
2016-12-05,4.1,4.19,4.09,4.17,2282500
2016-12-06,4.18,4.18,4.12,4.16,1920000
2016-12-07,4.16,4.24,4.15,4.22,2567500
2016-12-08,4.22,4.38,4.21,4.31,2965000
2016-12-09,4.32,4.32,4.1,4.26,2512500
2016-12-12,4.27,4.27,4.09,4.15,2308037
2016-12-13,4.15,4.17,4.11,4.15,2732500
2016-12-14,4.16,4.18,4.12,4.14,3120000
2016-12-15,4.14,4.15,3.9,4.0,2192500
2016-12-16,4.0,4.01,3.9,4.0,2771914
2016-12-19,4.01,4.01,3.83,3.88,21772288
2016-12-20,3.88,3.9,3.68,3.71,3427500
2016-12-21,3.72,3.8,3.69,3.77,2230000
2016-12-22,3.78,3.82,3.74,3.79,2720000
2016-12-23,3.8,3.8,3.67,3.73,2415000
2016-12-28,3.74,3.74,3.6,3.7,2037500
2016-12-29,3.7,3.82,3.69,3.76,8738621
2016-12-30,3.76,3.77,3.65,3.76,2177500
2017-01-03,3.75,3.77,3.68,3.73,2052500
2017-01-04,3.73,3.75,3.69,3.75,2084286
2017-01-05,3.75,3.75,3.67,3.72,2110440
2017-01-06,3.72,3.72,3.69,3.7,3760233
2017-01-09,3.71,3.86,3.7,3.8,2137500
2017-01-10,3.8,3.82,3.78,3.79,5002500
2017-01-11,3.79,3.86,3.78,3.81,2462500
2017-01-12,3.82,3.82,3.72,3.8,2427500
2017-01-13,3.81,3.89,3.74,3.83,3182836
2017-01-16,3.83,3.83,3.68,3.76,2670335
2017-01-17,3.76,3.8,3.74,3.8,2030921
2017-01-18,3.8,3.83,3.75,3.8,2357500
2017-01-19,3.8,3.82,3.76,3.81,1850000
2017-01-20,3.81,3.81,3.75,3.78,2108417
2017-01-23,3.78,3.79,3.75,3.76,2171087
2017-01-24,3.77,3.85,3.74,3.82,2605000
2017-01-25,3.82,3.89,3.81,3.86,2152000
2017-01-26,3.86,3.86,3.79,3.86,2127500
2017-01-27,3.86,3.9,3.83,3.88,1272500
2017-02-01,3.88,3.9,3.82,3.84,1805000
2017-02-02,3.84,3.89,3.84,3.88,1885000
2017-02-03,3.88,3.94,3.84,3.92,2497832
2017-02-06,3.92,3.95,3.9,3.94,2025000
2017-02-07,3.94,3.96,3.93,3.96,1886265
2017-02-08,3.95,4.04,3.9,3.99,3771992
2017-02-09,3.99,4.02,3.97,4.02,2505131
2017-02-10,4.02,4.02,3.95,3.98,20276248
2017-02-13,3.98,4.0,3.9,3.99,2095000
2017-02-14,3.99,3.99,3.85,3.91,2110173
2017-02-15,3.91,3.91,3.82,3.91,2653260
2017-02-16,3.91,3.91,3.82,3.84,1947500
2017-02-17,3.83,3.83,3.74,3.79,1435000
2017-02-20,3.8,3.82,3.76,3.82,3220000
2017-02-21,3.82,3.82,3.76,3.79,3287500
2017-02-22,3.8,3.8,3.77,3.8,2634884
2017-02-23,3.81,3.85,3.78,3.85,1775000
2017-02-24,3.85,3.85,3.78,3.82,1695946
2017-02-27,3.82,3.82,3.74,3.78,1842500
2017-02-28,3.79,3.85,3.77,3.83,2477500
2017-03-01,3.83,3.87,3.82,3.86,2367500
2017-03-02,3.86,3.87,3.8,3.87,2345000
2017-03-03,3.87,3.88,3.8,3.88,11952500
2017-03-06,3.88,3.89,3.8,3.89,2482500
2017-03-07,3.89,3.91,3.81,3.9,3048415
2017-03-08,3.9,3.92,3.84,3.9,2270000
2017-03-09,3.9,3.92,3.84,3.9,2565000
2017-03-10,3.9,3.91,3.8,3.86,4387500
2017-03-13,3.87,3.88,3.82,3.84,2492500
2017-03-14,3.85,3.92,3.85,3.9,3850000
2017-03-15,3.9,4.02,3.83,4.01,3375000
2017-03-16,4.0,4.15,3.99,4.04,4577500
2017-03-17,4.04,4.05,3.85,4.05,3085000
2017-03-20,4.05,4.15,4.04,4.12,6972500
2017-03-21,4.12,4.15,4.07,4.13,2637500
2017-03-22,4.13,4.16,4.05,4.09,2070000
2017-03-23,4.09,4.16,4.09,4.11,2332500
2017-03-24,4.1,4.11,3.97,4.01,1922500
2017-03-27,4.0,4.01,3.95,4.01,6265000
2017-03-28,4.01,4.04,3.97,4.02,2927500
2017-03-29,4.02,4.02,3.98,3.99,2585000
2017-03-30,4.0,4.04,3.99,4.02,2487700
2017-03-31,4.02,4.04,3.88,4.03,2292500
2017-04-03,4.02,4.04,3.94,4.04,1937500
2017-04-05,4.03,4.15,4.03,4.1,2060000
2017-04-06,4.2,4.2,3.99,4.0,3335000
2017-04-07,4.01,4.09,3.98,4.01,3465000
2017-04-10,4.16,4.16,3.99,4.01,5102500
2017-04-11,4.02,4.02,3.97,4.0,6075000
2017-04-12,4.01,4.01,3.92,4.0,1522500
2017-04-13,4.0,4.03,3.94,3.98,1752500
2017-04-18,3.99,4.05,3.91,3.94,2617500
2017-04-19,3.95,3.99,3.86,3.94,2067500
2017-04-20,3.95,3.95,3.82,3.92,2005000
2017-04-21,3.92,3.92,3.74,3.82,2215000
2017-04-24,3.83,3.85,3.73,3.84,1472500
2017-04-25,3.84,3.93,3.79,3.87,1960000
2017-04-26,3.87,3.92,3.83,3.87,2945000
2017-04-27,3.88,3.91,3.85,3.87,2682500
2017-04-28,3.87,3.9,3.84,3.89,1950000
2017-05-02,3.9,3.9,3.79,3.83,10377500
2017-05-04,3.84,3.86,3.81,3.84,3485000
2017-05-05,3.85,3.91,3.82,3.87,2512500
2017-05-08,4.0,4.0,3.7,3.86,8440000
2017-05-09,3.87,3.9,3.76,3.8,1837500
2017-05-10,3.81,3.88,3.68,3.81,4370000
2017-05-11,3.82,3.86,3.75,3.83,3582500
2017-05-12,3.84,3.88,3.79,3.84,1742500
2017-05-15,3.85,3.85,3.78,3.82,2500000
2017-05-16,3.83,3.87,3.8,3.83,2335000
2017-05-17,3.84,3.84,3.79,3.84,4662500
2017-05-18,3.84,3.84,3.78,3.8,2425000
2017-05-19,3.81,3.83,3.76,3.8,1512500
2017-05-22,3.81,3.81,3.7,3.76,1765000
2017-05-23,3.77,3.84,3.73,3.77,1552500
2017-05-24,3.78,3.83,3.73,3.8,2000000
2017-05-25,3.8,3.83,3.73,3.82,2032500
2017-05-26,3.82,3.82,3.75,3.76,2305000
2017-05-29,3.77,3.86,3.76,3.83,6637500
2017-05-31,3.83,3.85,3.77,3.81,1965000
2017-06-01,3.82,3.83,3.78,3.8,1545000
2017-06-02,3.81,3.83,3.77,3.81,1972500
2017-06-05,3.82,3.83,3.75,3.77,2337500
2017-06-06,3.74,3.77,3.63,3.67,1995000
2017-06-07,3.68,3.72,3.62,3.71,2840000
2017-06-08,3.72,3.87,3.69,3.77,3105000
2017-06-09,3.78,3.9,3.78,3.81,2655000
2017-06-12,3.82,3.85,3.75,3.79,1627500
2017-06-13,3.8,3.85,3.61,3.7,1250000
2017-06-14,3.71,3.74,3.54,3.64,1400000
2017-06-15,3.65,3.69,3.53,3.57,2152500
2017-06-16,3.59,3.64,3.53,3.6,1330000
2017-06-19,3.6,3.63,3.53,3.6,1452500
2017-06-20,3.61,3.7,3.55,3.6,1292500
2017-06-21,3.59,3.65,3.55,3.57,1320000
2017-06-22,3.58,3.7,3.57,3.65,1190000
2017-06-23,3.65,3.78,3.59,3.69,1417500
2017-06-26,3.69,3.77,3.69,3.75,1405000
2017-06-27,3.75,3.88,3.75,3.83,1882500
2017-06-28,3.83,3.86,3.69,3.82,1587500
2017-06-29,3.82,3.9,3.82,3.88,1575000
2017-06-30,3.88,3.99,3.87,3.98,1966056
2017-07-03,3.98,4.03,3.98,4.0,2006905
2017-07-04,4.0,4.05,3.95,3.97,1355000
2017-07-05,3.97,4.02,3.93,3.97,1150000
2017-07-06,3.97,4.02,3.94,3.96,965000
2017-07-07,3.97,3.98,3.93,3.97,1027500
2017-07-10,3.98,4.02,3.98,4.01,912500
2017-07-11,4.01,4.04,4.0,4.01,1032500
2017-07-12,4.01,4.05,4.0,4.03,1310849
2017-07-13,4.03,4.05,4.02,4.03,1065000
2017-07-14,4.03,4.1,4.03,4.05,1177500
2017-07-17,4.05,4.1,4.01,4.04,1192500
2017-07-18,4.04,4.08,4.0,4.03,1215000
2017-07-19,4.04,4.09,4.01,4.04,1307500
2017-07-20,4.04,4.07,4.02,4.04,1235000
2017-07-21,4.03,4.06,4.0,4.02,1925700
2017-07-24,4.02,4.06,3.94,3.94,10187500
2017-07-25,3.95,3.99,3.8,3.83,13195000
2017-07-26,3.84,3.95,3.84,3.94,12827500
2017-07-27,3.95,3.96,3.93,3.95,12375000
2017-07-28,3.95,3.99,3.95,3.98,12567500
2017-07-31,3.98,3.99,3.96,3.98,7285000
2017-08-01,3.98,4.02,3.95,3.98,935288
2017-08-02,4.02,4.05,3.91,3.94,1362500
2017-08-03,3.95,3.98,3.92,3.95,1025000
2017-08-04,3.96,3.99,3.87,3.88,1150000
2017-08-07,3.89,3.9,3.75,3.8,1402500
2017-08-08,3.81,3.85,3.79,3.82,1064300
2017-08-09,3.82,3.83,3.8,3.81,927500
2017-08-10,3.81,3.81,3.78,3.81,1235000
2017-08-11,3.79,3.8,3.79,3.8,932500
2017-08-14,3.8,3.88,3.78,3.82,927500
2017-08-15,3.81,3.82,3.76,3.77,1240000
2017-08-16,3.77,3.77,3.58,3.64,2165000
2017-08-17,3.65,3.65,3.54,3.6,1675000
2017-08-18,3.61,3.66,3.5,3.53,1490000
2017-08-21,3.54,3.54,3.41,3.44,2842500
2017-08-22,3.45,3.6,3.42,3.48,1445000
2017-08-24,3.48,3.55,3.45,3.49,820000
2017-08-25,3.48,3.54,3.47,3.5,935217
2017-08-28,3.5,3.55,3.49,3.5,630000
2017-08-29,3.5,3.53,3.49,3.5,487500
2017-08-30,3.49,3.52,3.48,3.5,662400
2017-08-31,3.5,3.54,3.46,3.48,715000
2017-09-01,3.49,3.5,3.44,3.48,710000
2017-09-04,3.48,3.51,3.39,3.47,1797500
2017-09-05,3.47,3.55,3.46,3.51,870000
2017-09-06,3.48,3.5,3.35,3.4,1997500
2017-09-07,3.41,3.54,3.41,3.46,645000
2017-09-08,3.46,3.51,3.43,3.46,1053200
2017-09-11,3.44,3.53,3.43,3.44,875000
2017-09-12,3.44,3.5,3.39,3.45,4407500
2017-09-13,3.45,3.53,3.44,3.45,667500
2017-09-14,3.45,3.49,3.45,3.46,445000
2017-09-15,3.46,3.52,3.45,3.51,1025000
2017-09-18,3.57,3.63,3.55,3.58,550000
2017-09-19,3.58,3.6,3.54,3.56,766000
2017-09-20,3.56,3.64,3.52,3.53,620000
2017-09-21,3.54,3.61,3.48,3.49,490000
2017-09-22,3.5,3.5,3.46,3.5,425000
2017-09-25,3.5,3.57,3.47,3.49,367260
2017-09-26,3.5,3.58,3.41,3.43,585000
2017-09-27,3.45,3.45,3.4,3.41,525000
2017-09-28,3.42,3.49,3.4,3.43,365000
2017-09-29,3.43,3.5,3.43,3.45,925000
2017-10-03,3.45,3.53,3.43,3.45,487500
2017-10-04,3.45,3.45,3.41,3.42,242500
2017-10-06,3.43,3.44,3.4,3.42,277500
2017-10-09,3.44,3.44,3.31,3.41,542500
2017-10-10,3.41,3.43,3.36,3.4,1077500
2017-10-11,3.4,3.46,3.4,3.45,705000
2017-10-12,3.45,3.47,3.43,3.47,840000
2017-10-13,3.47,3.49,3.46,3.47,857500
2017-10-16,3.47,3.47,3.43,3.43,520000
2017-10-17,3.44,3.45,3.41,3.42,432500
2017-10-18,3.43,3.44,3.38,3.39,332500
2017-10-19,3.39,3.39,3.32,3.34,442500
2017-10-20,3.35,3.35,3.1,3.2,3310000
2017-10-23,3.21,3.3,3.19,3.23,1325000
2017-10-24,3.23,3.26,3.2,3.23,1492500
2017-10-25,3.23,3.23,3.17,3.2,385000
2017-10-26,3.2,3.26,3.18,3.2,677500
2017-10-27,3.2,3.26,3.19,3.2,405000
2017-10-30,3.2,3.24,3.18,3.19,495000
2017-10-31,3.2,3.2,3.18,3.2,812500
2017-11-01,3.2,3.25,3.18,3.2,1055000
2017-11-02,3.2,3.2,3.18,3.2,680000
2017-11-03,3.2,3.28,3.2,3.27,1032500
2017-11-06,3.21,3.24,3.18,3.2,3250000
2017-11-07,3.2,3.2,3.18,3.2,1667500
2017-11-08,3.2,3.24,3.18,3.22,915000
2017-11-09,3.22,3.3,3.22,3.25,672500
2017-11-10,3.25,3.32,3.24,3.26,877500
2017-11-13,3.27,3.28,3.23,3.25,1352500
2017-11-14,3.25,3.31,3.25,3.3,170000
2017-11-15,3.3,3.37,3.27,3.32,832500
2017-11-16,3.32,3.38,3.3,3.34,508800
2017-11-17,3.34,3.37,3.32,3.36,610000
2017-11-20,3.36,3.53,3.35,3.38,527500
2017-11-21,3.39,3.46,3.38,3.42,290000
2017-11-22,3.42,3.48,3.37,3.4,957500
2017-11-23,3.41,3.49,3.41,3.41,405000
2017-11-24,3.41,3.45,3.37,3.4,177500
2017-11-27,3.4,3.46,3.39,3.39,190000
2017-11-28,3.4,3.43,3.32,3.37,430000
2017-11-29,3.38,3.43,3.34,3.38,347500
2017-11-30,3.38,3.42,3.37,3.39,650000
2017-12-01,3.39,3.44,3.38,3.39,340000
2017-12-04,3.39,3.44,3.38,3.38,242500
2017-12-05,3.38,3.44,3.38,3.4,192500
2017-12-06,3.4,3.43,3.36,3.38,762500
2017-12-07,3.38,3.43,3.36,3.38,137500
2017-12-08,3.38,3.44,3.35,3.36,137500
2017-12-11,3.37,3.43,3.35,3.35,102500
2017-12-12,3.37,3.4,3.34,3.37,175000
2017-12-13,3.37,3.4,3.22,3.3,737500
2017-12-14,3.31,3.4,3.31,3.37,142500
2017-12-15,3.37,3.4,3.25,3.28,897500
2017-12-18,3.29,3.37,3.29,3.36,47500
2017-12-19,3.37,3.37,3.31,3.31,242500
2017-12-20,3.32,3.36,3.32,3.35,50000
2017-12-21,3.35,3.37,3.34,3.36,85000
2017-12-22,3.25,3.35,3.25,3.3,197500
2017-12-27,3.31,3.36,3.27,3.32,155000
2017-12-28,3.32,3.35,3.32,3.33,70000
2017-12-29,3.33,3.36,3.31,3.32,90000
2018-01-02,3.33,3.33,3.29,3.31,102500
2018-01-03,3.32,3.33,3.29,3.3,145000
2018-01-04,3.32,3.33,3.28,3.29,157500
2018-01-05,3.32,3.33,3.29,3.3,120000
2018-01-08,3.32,3.32,3.25,3.28,770000
2018-01-09,3.29,3.29,3.22,3.23,240000
2018-01-10,3.24,3.3,3.22,3.24,735000
2018-01-11,3.25,3.28,3.2,3.21,167500
2018-01-12,3.22,3.26,3.19,3.22,125000
2018-01-15,3.22,3.24,3.2,3.23,157500
2018-01-16,3.23,3.29,3.2,3.23,395000
2018-01-17,3.22,3.23,3.1,3.2,427500
2018-01-18,3.21,3.21,3.17,3.18,77500
2018-01-19,3.19,3.2,3.16,3.19,137500
2018-01-22,3.2,3.22,3.18,3.2,637500
2018-01-23,3.21,3.22,3.16,3.18,150000
2018-01-24,3.19,3.22,3.14,3.16,240000
2018-01-25,3.17,3.21,3.17,3.19,55000
2018-01-26,3.19,3.2,3.16,3.16,175000
2018-01-29,3.17,3.19,2.79,2.81,3002500
2018-01-30,2.85,3.0,2.81,2.95,1165000
2018-01-31,2.96,2.98,2.9,2.97,1151548
2018-02-01,2.98,3.07,2.89,2.98,1922500
2018-02-02,2.98,3.02,2.95,3.0,775000
2018-02-05,2.98,2.98,2.96,2.98,182500
2018-02-06,2.97,2.98,2.93,2.97,200000
2018-02-07,2.98,3.03,2.94,2.98,167500
2018-02-08,2.98,2.98,2.96,2.98,60000
2018-02-09,2.97,2.98,2.92,2.94,230000
2018-02-12,2.95,2.98,2.94,2.95,97500
2018-02-13,2.96,2.98,2.96,2.98,132500
2018-02-14,2.97,2.98,2.96,2.98,242500
2018-02-15,2.97,2.99,2.97,2.98,365000
2018-02-20,2.97,3.03,2.96,2.98,370000
2018-02-21,2.97,2.99,2.97,2.98,185000
2018-02-22,2.98,2.98,2.96,2.97,83500
2018-02-23,2.97,2.98,2.96,2.97,137500
2018-02-26,2.97,2.98,2.95,2.98,357500
2018-02-27,2.97,3.0,2.95,2.97,117500
2018-02-28,2.97,3.0,2.95,2.97,262500
2018-03-01,2.97,3.0,2.96,2.98,112500
2018-03-02,2.98,3.01,2.98,2.98,160000
2018-03-05,2.98,3.0,2.95,2.99,242500
2018-03-06,2.99,2.99,2.95,2.99,220000
2018-03-07,2.98,3.0,2.98,2.99,117500
2018-03-08,2.99,3.0,2.99,3.0,72500
2018-03-09,3.0,3.04,2.99,3.02,303500
2018-03-12,3.02,3.05,3.02,3.04,180000
2018-03-13,3.0,3.0,2.99,3.0,347500
2018-03-14,3.0,3.02,2.98,3.0,167500
2018-03-15,2.99,3.05,2.83,3.04,287500
2018-03-16,3.03,3.05,2.97,3.04,322500
2018-03-19,3.0,3.0,2.97,2.99,132500
2018-03-20,3.02,3.02,2.98,2.98,280000
2018-03-21,2.99,3.02,2.98,2.98,687960
2018-03-22,2.98,2.98,2.87,2.88,487500
2018-03-23,2.87,2.92,2.76,2.81,262500
2018-03-26,2.81,2.87,2.79,2.81,122500
2018-03-27,2.82,2.85,2.75,2.77,117500
2018-03-28,2.78,2.78,2.68,2.7,226000
2018-03-29,2.7,2.82,2.7,2.73,3330000
2018-04-03,2.73,2.82,2.6,2.65,7647500
2018-04-04,2.66,2.8,2.57,2.67,5762500
2018-04-06,2.63,2.63,2.58,2.63,305000
2018-04-09,2.63,2.69,2.58,2.6,560000
2018-04-10,2.62,2.89,2.62,2.81,395000
2018-04-11,2.81,2.84,2.72,2.78,451500
2018-04-12,2.79,2.9,2.77,2.81,577500
2018-04-13,2.82,2.87,2.78,2.79,182500
2018-04-16,2.78,2.8,2.71,2.73,257500
2018-04-17,2.73,2.88,2.73,2.79,202500
2018-04-18,2.75,2.75,2.72,2.75,187500
2018-04-19,2.75,2.75,2.69,2.7,505000
2018-04-20,2.65,2.65,2.63,2.65,272500
2018-04-23,2.67,2.73,2.67,2.73,172500
2018-04-24,2.74,2.74,2.67,2.69,1015000
2018-04-25,2.67,2.67,2.63,2.65,147500
2018-04-26,2.66,2.7,2.64,2.66,190000
2018-04-27,2.67,2.78,2.67,2.72,167500
2018-04-30,2.73,2.77,2.71,2.72,197500
2018-05-02,2.74,2.78,2.67,2.67,220000
2018-05-03,2.68,2.75,2.68,2.7,122500
2018-05-04,2.71,2.71,2.68,2.7,132500
2018-05-07,2.71,2.73,2.68,2.7,162500
2018-05-08,2.7,2.7,2.66,2.68,97500
2018-05-09,2.68,2.72,2.68,2.68,90000
2018-05-10,2.69,2.7,2.66,2.68,147500
2018-05-11,2.68,2.75,2.68,2.72,130000
2018-05-14,2.72,2.75,2.63,2.65,170000
2018-05-15,2.66,2.67,2.61,2.62,120000
2018-05-16,2.63,2.67,2.62,2.63,1526981
2018-05-17,2.64,2.7,2.64,2.68,372500
2018-05-18,2.68,2.75,2.67,2.72,230000
2018-05-21,2.72,2.76,2.71,2.71,135000
2018-05-23,2.71,2.71,2.67,2.7,105000
2018-05-24,2.7,2.74,2.69,2.73,80000
2018-05-25,2.73,2.74,2.7,2.73,77500
2018-05-28,2.72,2.75,2.68,2.74,135000
2018-05-29,2.73,2.74,2.7,2.74,75000
2018-05-30,2.72,2.73,2.71,2.73,75000
2018-05-31,2.72,2.75,2.72,2.73,75000
2018-06-01,2.72,2.73,2.71,2.71,72500
2018-06-04,2.72,2.74,2.65,2.74,120000
2018-06-05,2.69,2.72,2.69,2.72,75000
2018-06-06,2.71,2.73,2.71,2.72,107500
2018-06-07,2.72,2.74,2.67,2.73,250000
2018-06-08,2.72,2.74,2.69,2.7,75000
2018-06-11,2.71,2.73,2.7,2.72,60000
2018-06-12,2.72,2.73,2.69,2.71,122500
2018-06-13,2.71,2.71,2.66,2.71,187500
2018-06-14,2.71,2.71,2.65,2.71,90000
2018-06-15,2.7,2.71,2.67,2.7,70000
2018-06-19,2.69,2.71,2.68,2.7,260000
2018-06-20,2.7,2.71,2.68,2.68,60000
2018-06-21,2.69,2.7,2.67,2.7,75000
2018-06-22,2.69,2.7,2.68,2.69,77500
2018-06-25,2.69,2.7,2.66,2.67,87500
2018-06-26,2.7,2.7,2.64,2.68,90000
2018-06-27,2.68,2.69,2.66,2.68,70000
2018-06-28,2.68,2.68,2.66,2.67,75000
2018-06-29,2.67,2.68,2.65,2.66,77500
2018-07-03,2.65,2.65,2.63,2.65,72500
2018-07-04,2.65,2.65,2.62,2.63,95000
2018-07-05,2.64,2.65,2.63,2.65,85000
2018-07-06,2.65,2.65,2.63,2.65,65000
2018-07-09,2.64,2.65,2.62,2.64,115000
2018-07-10,2.64,2.65,2.63,2.65,60000
2018-07-11,2.65,2.66,2.63,2.64,80000
2018-07-12,2.64,2.64,2.62,2.63,65000
2018-07-13,2.64,2.64,2.63,2.64,62500
2018-07-16,2.64,2.65,2.61,2.62,72500
2018-07-17,2.62,2.65,2.62,2.63,65000
2018-07-18,2.63,2.64,2.58,2.6,80000
2018-07-19,2.62,2.63,2.61,2.62,60000
2018-07-20,2.63,2.65,2.57,2.58,87500
2018-07-23,2.6,2.64,2.6,2.61,62500
2018-07-24,2.61,2.64,2.59,2.62,87500
2018-07-25,2.62,2.64,2.61,2.61,52500
2018-07-26,2.64,2.64,2.59,2.62,112500
2018-07-27,2.62,2.62,2.56,2.58,110000
2018-07-30,2.6,2.6,2.46,2.51,237500
2018-07-31,2.52,2.55,2.45,2.5,107500
2018-08-01,2.51,2.52,2.48,2.5,137500
2018-08-02,2.51,2.51,2.45,2.48,150000
2018-08-03,2.47,2.47,2.39,2.43,82500
2018-08-06,2.43,2.49,2.43,2.45,47500
2018-08-07,2.45,2.49,2.44,2.47,70000
2018-08-08,2.47,2.49,2.44,2.47,52500
2018-08-09,2.47,2.49,2.45,2.47,45000
2018-08-10,2.46,2.47,2.35,2.42,85000
2018-08-13,2.43,2.48,2.41,2.47,65000
2018-08-14,2.47,2.51,2.44,2.48,57500
2018-08-15,2.48,2.51,2.43,2.44,62500
2018-08-16,2.44,2.44,2.42,2.43,50000
2018-08-17,2.44,2.47,2.43,2.43,50000
2018-08-20,2.45,2.47,2.42,2.42,40000
2018-08-21,2.44,2.45,2.4,2.4,40000
2018-08-22,2.4,2.44,2.39,2.44,45000
2018-08-23,2.44,2.44,2.3,2.42,97500
2018-08-24,2.42,2.42,2.3,2.41,102500
2018-08-27,2.41,2.41,2.39,2.4,50000
2018-08-28,2.43,2.45,2.42,2.43,45000
2018-08-29,2.44,2.44,2.43,2.43,42500
2018-08-30,2.43,2.47,2.43,2.46,70000
2018-08-31,2.46,2.46,2.44,2.46,52500
2018-09-03,2.46,2.48,2.45,2.46,65000
2018-09-04,2.45,2.45,2.44,2.45,70000
2018-09-05,2.45,2.45,2.31,2.39,130000
2018-09-06,2.41,2.44,2.27,2.4,105000
2018-09-07,2.42,2.45,2.33,2.43,80000
2018-09-10,2.44,2.45,2.42,2.44,77500
2018-09-11,2.45,2.45,2.34,2.43,87500
2018-09-12,2.43,2.45,2.35,2.43,92500
2018-09-13,2.43,2.45,2.42,2.44,137500
2018-09-14,2.44,2.45,2.44,2.44,72500
2018-09-17,2.44,2.45,2.44,2.44,40000
2018-09-18,2.45,2.45,2.32,2.33,182500
2018-09-19,2.33,2.35,2.25,2.35,105000
2018-09-20,2.37,2.45,2.37,2.39,112500
2018-09-21,2.4,2.45,2.0,2.09,990500
2018-09-24,2.11,2.4,2.09,2.18,270000
2018-09-26,2.19,2.2,2.1,2.1,65000
2018-09-27,2.13,2.14,2.01,2.09,175000
2018-09-28,2.12,2.29,2.12,2.17,70000
2018-10-02,2.16,2.2,2.08,2.12,115000
2018-10-03,2.09,2.09,2.02,2.08,90000
2018-10-04,2.1,2.22,2.0,2.08,135000
2018-10-05,2.08,2.18,2.04,2.09,62500
2018-10-08,2.1,2.2,2.05,2.09,62500
2018-10-09,2.09,2.18,2.05,2.1,188878
2018-10-10,2.11,2.18,2.07,2.12,65008
2018-10-11,2.13,2.17,2.08,2.08,77500
2018-10-12,2.1,2.18,2.06,2.17,100000
2018-10-15,2.18,2.25,2.11,2.17,72500
2018-10-16,2.19,2.19,2.05,2.09,110000
2018-10-18,2.12,2.18,1.61,2.05,547500
2018-10-19,2.06,2.1,1.93,2.06,212500
2018-10-22,2.07,2.16,1.99,2.04,165000
2018-10-23,2.06,2.1,2.01,2.07,62500
2018-10-24,2.08,2.14,2.02,2.08,67500
2018-10-25,2.09,2.13,2.02,2.06,70000
2018-10-26,2.08,2.1,1.96,2.03,150000
2018-10-29,2.05,2.14,2.02,2.04,125000
2018-10-30,2.06,2.08,2.02,2.06,95000
2018-10-31,2.07,2.13,2.02,2.04,130000
2018-11-01,2.06,2.06,1.98,2.03,215000
2018-11-02,2.05,2.05,1.91,2.05,195000
2018-11-05,2.03,2.05,1.97,2.03,160000
2018-11-06,2.03,2.05,1.97,2.04,170000
2018-11-07,2.05,2.11,1.91,1.98,587500
2018-11-08,2.05,2.05,1.93,1.98,352500
2018-11-09,2.0,2.0,1.93,1.99,190000
2018-11-12,2.01,2.04,1.93,2.01,185000
2018-11-13,2.02,2.03,1.96,2.0,142500
2018-11-14,2.01,2.02,1.97,2.0,85000
2018-11-15,2.0,2.0,1.94,1.99,1452500
2018-11-16,2.0,2.0,1.95,1.95,50000
2018-11-19,1.98,2.05,1.95,2.02,190000
2018-11-20,2.03,2.05,1.97,2.02,112500
2018-11-21,2.02,2.04,1.96,1.98,445000
2018-11-22,2.01,2.02,1.98,1.99,297500
2018-11-23,1.99,2.0,1.98,1.99,160000
2018-11-26,2.0,2.15,1.91,1.95,565000
2018-11-27,1.98,2.01,1.86,1.94,592500
2018-11-28,2.0,2.0,1.83,1.85,465000
2018-11-29,1.95,2.01,1.86,2.01,672200
2018-11-30,2.01,2.01,1.91,1.93,397500
2018-12-03,1.97,1.97,1.81,1.9,365000
2018-12-04,1.91,1.91,1.83,1.9,137500
2018-12-05,1.89,1.9,1.86,1.9,87500
2018-12-06,1.9,1.9,1.84,1.9,77500
2018-12-07,1.9,1.9,1.89,1.9,57500
2018-12-10,1.94,1.96,1.9,1.9,47500
2018-12-11,1.93,1.95,1.89,1.9,55000
2018-12-12,1.93,1.94,1.9,1.9,92500
2018-12-13,1.93,1.93,1.89,1.9,97500
2018-12-14,1.94,1.94,1.89,1.9,55000
2018-12-17,1.94,1.94,1.89,1.9,70000
2018-12-18,1.92,1.92,1.89,1.91,52500
2018-12-19,1.91,1.91,1.86,1.9,102500
2018-12-20,1.9,1.9,1.85,1.86,150000
2018-12-21,1.89,1.89,1.8,1.82,480307
2018-12-24,1.83,1.83,1.8,1.8,32500
2018-12-27,1.82,1.85,1.8,1.82,112500
2018-12-28,1.83,1.83,1.8,1.81,32500
2018-12-31,1.8,1.83,1.8,1.83,25492
2019-01-02,1.83,1.85,1.8,1.82,45000
2019-01-03,1.82,1.82,1.76,1.78,97500
2019-01-04,1.8,1.8,1.75,1.78,60000
2019-01-07,1.78,1.8,1.74,1.77,192500
2019-01-08,1.79,1.81,1.75,1.77,217500
2019-01-09,1.8,1.83,1.77,1.8,125000
2019-01-10,1.81,1.84,1.78,1.82,107500
2019-01-11,1.83,1.87,1.83,1.84,130000
2019-01-14,1.84,1.87,1.84,1.87,90000
2019-01-15,1.87,1.89,1.85,1.89,227300
2019-01-16,1.86,1.93,1.86,1.9,137500
2019-01-17,1.9,1.92,1.83,1.86,150000
2019-01-18,1.89,1.92,1.88,1.91,90000
2019-01-21,1.91,1.95,1.91,1.95,90000
2019-01-22,1.94,1.94,1.93,1.93,52500
2019-01-23,1.93,1.95,1.91,1.93,62500
2019-01-24,1.93,1.98,1.93,1.97,52500
2019-01-25,1.97,2.0,1.97,1.98,60000
2019-01-28,1.98,2.0,1.97,1.99,55000
2019-01-29,1.99,2.0,1.99,2.0,52500
2019-01-30,2.0,2.0,1.97,2.0,135000
2019-01-31,2.0,2.0,1.9,1.92,140000
2019-02-01,1.95,2.0,1.95,1.98,2047500
2019-02-04,1.97,1.97,1.9,1.9,57500
2019-02-08,1.95,2.0,1.93,2.0,60000
2019-02-11,1.96,2.01,1.89,1.88,200000
2019-02-12,1.92,1.97,1.86,1.86,107500
2019-02-13,1.91,1.92,1.86,1.87,110000
2019-02-14,1.88,1.93,1.86,1.9,57500
2019-02-15,1.91,1.94,1.86,1.87,75000
2019-02-18,1.89,1.91,1.82,1.85,217500
2019-02-19,1.89,1.89,1.85,1.85,352500
2019-02-20,1.86,1.88,1.85,1.85,45000
2019-02-21,1.88,1.88,1.83,1.83,67500
2019-02-22,1.89,1.89,1.84,1.84,47500
2019-02-25,1.88,1.88,1.7,1.81,112500
2019-02-26,1.82,1.85,1.8,1.8,97500
2019-02-27,1.81,1.81,1.75,1.75,112500
2019-02-28,1.74,1.88,1.72,1.74,87500
2019-03-01,1.72,1.8,1.72,1.74,55000
2019-03-04,1.8,1.8,1.68,1.73,200000
2019-03-05,1.72,1.74,1.72,1.74,110000
2019-03-06,1.74,1.74,1.7,1.73,100000
2019-03-07,1.73,1.73,1.7,1.72,157500
2019-03-08,1.73,1.74,1.73,1.73,115000
2019-03-11,1.73,1.73,1.71,1.72,237500
2019-03-12,1.71,1.8,1.71,1.75,180000
2019-03-13,1.8,1.81,1.77,1.81,217500
2019-03-14,1.83,1.87,1.81,1.84,205000
2019-03-15,1.85,1.88,1.85,1.85,327500
2019-03-18,1.86,1.87,1.86,1.87,152500
2019-03-19,1.87,1.87,1.87,1.87,67500
2019-03-20,1.87,1.87,1.73,1.86,125000
2019-03-21,1.86,1.86,1.82,1.84,82500
2019-03-22,1.86,1.86,1.76,1.8,1540000
2019-03-25,1.88,1.88,1.75,1.8,105000
2019-03-26,1.8,1.84,1.73,1.81,365000
2019-03-27,1.86,1.86,1.82,1.82,40000
2019-03-28,1.88,1.88,1.84,1.85,42500
2019-03-29,1.88,1.88,1.84,1.84,57500
2019-04-01,1.88,1.88,1.79,1.83,125000
2019-04-02,1.88,1.88,1.84,1.84,45000
2019-04-03,1.88,1.88,1.84,1.84,37500
2019-04-04,1.85,1.85,1.83,1.83,37500
2019-04-08,1.85,1.85,1.83,1.82,40000
2019-04-09,1.85,1.85,1.75,1.8,105000
2019-04-10,1.85,1.88,1.79,1.84,95000
2019-04-11,1.85,1.85,1.82,1.83,107500
2019-04-12,1.84,1.85,1.83,1.83,167500
2019-04-15,1.84,1.84,1.81,1.83,107500
2019-04-16,1.85,1.85,1.76,1.83,197500
2019-04-17,1.84,1.85,1.8,1.8,372500
2019-04-18,1.85,1.85,1.8,1.8,142500
2019-04-23,1.85,1.85,1.8,1.83,122500
2019-04-24,1.84,1.84,1.8,1.83,87500
2019-04-25,1.83,1.84,1.8,1.82,125000
2019-04-26,1.83,1.83,1.82,1.82,67500
2019-04-29,1.82,1.82,1.8,1.82,130000
2019-04-30,1.69,1.82,1.69,1.81,205000
2019-05-02,1.8,1.85,1.8,1.8,77500
2019-05-03,1.84,1.84,1.73,1.79,315000
2019-05-06,1.84,1.84,1.73,1.78,270000
2019-05-07,1.8,1.8,1.68,1.72,715000
2019-05-08,1.74,1.8,1.73,1.77,172500
2019-05-09,1.8,1.8,1.7,1.74,1697500
2019-05-10,1.74,1.76,1.7,1.74,680000
2019-05-14,1.76,1.76,1.7,1.74,622500
2019-05-15,1.75,1.75,1.7,1.73,520000
2019-05-16,1.74,1.74,1.71,1.74,235000
2019-05-17,1.74,1.74,1.7,1.73,377500
2019-05-20,1.73,1.73,1.65,1.71,1017500
2019-05-21,1.7,1.72,1.69,1.7,337500
2019-05-22,1.7,1.72,1.67,1.7,667500
2019-05-23,1.7,1.72,1.7,1.7,185000
2019-05-24,1.7,1.7,1.69,1.69,435000
2019-05-27,1.7,1.7,1.69,1.7,152500
2019-05-28,1.72,1.72,1.69,1.7,132500
2019-05-29,1.7,1.7,1.69,1.69,202500
2019-05-30,1.7,1.76,1.7,1.71,207500
2019-05-31,1.7,1.7,1.67,1.69,307500
2019-06-03,1.69,1.69,1.65,1.69,557500
2019-06-04,1.68,1.68,1.65,1.67,562500
2019-06-05,1.69,1.77,1.65,1.68,540000
2019-06-06,1.67,1.67,1.64,1.67,695000
2019-06-10,1.66,1.67,1.63,1.63,302500
2019-06-11,1.6,1.65,1.54,1.6,1535000
2019-06-12,1.58,1.6,1.52,1.6,1057500
2019-06-13,1.57,1.59,1.47,1.5,4747500
2019-06-14,1.52,1.54,1.47,1.49,570000
2019-06-17,1.46,1.49,1.46,1.48,257500
2019-06-18,1.48,1.5,1.46,1.49,510000
2019-06-19,1.5,1.5,1.47,1.49,382500
2019-06-20,1.5,1.5,1.5,1.5,205000
2019-06-21,1.5,1.51,1.46,1.49,307500
2019-06-24,1.5,1.5,1.49,1.5,152500
2019-06-25,1.5,1.5,1.46,1.5,432500
2019-06-26,1.5,1.5,1.4,1.47,762500
2019-06-27,1.48,1.49,1.45,1.46,510000
2019-06-28,1.46,1.49,1.38,1.4,1340000
2019-07-02,1.4,1.45,1.4,1.45,282500
2019-07-03,1.44,1.44,1.35,1.4,435000
2019-07-04,1.4,1.4,1.2,1.21,2672500
2019-07-05,1.12,1.14,1.0,1.02,3000000
2019-07-08,1.0,1.09,1.0,1.03,6790000
2019-07-09,1.06,1.06,1.01,1.03,967500
2019-07-10,1.04,1.07,1.04,1.07,152500
2019-07-11,1.07,1.07,1.03,1.06,287500
2019-07-12,1.06,1.07,1.05,1.07,220000
2019-07-15,1.08,1.15,1.07,1.13,11590000
2019-07-16,1.15,1.18,1.07,1.13,310000
2019-07-17,1.13,1.14,1.12,1.12,105000
2019-07-18,1.12,1.14,1.07,1.09,592500
2019-07-19,1.08,1.15,1.05,1.15,17765000
2019-07-22,1.18,1.22,1.17,1.2,282500
2019-07-23,1.24,1.29,1.19,1.29,2505000
2019-07-24,1.35,1.46,1.34,1.44,815000
2019-07-25,1.47,1.48,1.43,1.46,402500
2019-07-26,1.5,1.58,1.47,1.58,265000
2019-07-29,1.57,1.59,1.55,1.56,55000
2019-07-30,1.57,1.57,1.49,1.5,37500
2019-07-31,1.53,1.53,1.21,1.47,617500
2019-08-01,1.47,1.47,1.43,1.44,32500
2019-08-02,1.49,1.49,1.43,1.43,27500
2019-08-05,1.5,1.5,1.4,1.45,55000
2019-08-06,1.44,1.45,1.41,1.42,27500
2019-08-07,1.46,1.46,1.42,1.42,22500
2019-08-08,1.46,1.46,1.44,1.44,25000
2019-08-09,1.47,1.47,1.42,1.43,47500
2019-08-12,1.43,1.43,1.27,1.41,412500
2019-08-13,1.42,1.42,1.39,1.38,27500
2019-08-14,1.4,1.42,1.4,1.42,52500
2019-08-15,1.41,1.41,1.32,1.4,227500
2019-08-16,1.41,1.41,1.36,1.41,297500
2019-08-19,1.57,1.57,1.46,1.55,72500
2019-08-20,1.55,1.55,1.5,1.51,47500
2019-08-21,1.53,1.53,1.41,1.47,35000
2019-08-22,1.48,1.48,1.4,1.46,80000
2019-08-23,1.48,1.48,1.4,1.44,62500
2019-08-26,1.48,1.48,1.36,1.4,77500
2019-08-27,1.47,1.47,1.07,1.43,402500
2019-08-28,1.41,1.41,1.27,1.36,210000
2019-08-29,1.55,1.55,1.29,1.36,825000
2019-08-30,1.5,1.5,1.29,1.34,82500
2019-09-02,1.36,1.36,1.29,1.33,147566
2019-09-03,1.33,1.33,1.25,1.33,165000
2019-09-04,1.33,1.34,1.29,1.33,87500
2019-09-05,1.4,1.4,1.38,1.38,37500
2019-09-06,1.4,1.4,1.36,1.37,65000
2019-09-09,1.37,1.37,1.37,1.37,40000
2019-09-10,1.37,1.37,1.37,1.37,40000
2019-09-11,1.4,1.41,1.31,1.38,95000
2019-09-12,1.39,1.39,1.33,1.39,175000
2019-09-13,1.42,1.42,1.39,1.4,97500
2019-09-16,1.43,1.43,1.41,1.42,45000
2019-09-17,1.43,1.43,1.41,1.43,190000
2019-09-18,1.43,1.5,1.43,1.5,147500
2019-09-19,1.5,1.5,1.49,1.5,122500
2019-09-20,1.5,1.5,1.45,1.48,57500
2019-09-23,1.48,1.49,1.48,1.49,57500
2019-09-24,1.49,1.5,1.49,1.5,62500
2019-09-25,1.49,1.49,1.48,1.49,57500
2019-09-26,1.49,1.49,1.49,1.49,52500
2019-09-27,1.5,1.5,1.46,1.49,102500
2019-09-30,1.5,1.5,1.49,1.49,40000
2019-10-02,1.5,1.5,1.44,1.46,85000
2019-10-03,1.5,1.5,1.46,1.46,45000
2019-10-04,1.5,1.5,1.42,1.46,307500
2019-10-08,1.49,1.49,1.38,1.44,187500
2019-10-09,1.5,1.5,1.4,1.43,135000
2019-10-10,1.5,1.5,1.36,1.49,275000
2019-10-11,1.45,1.46,1.38,1.44,200000
2019-10-14,1.44,1.44,1.38,1.41,107500
2019-10-15,1.41,1.41,1.38,1.41,102500
2019-10-16,1.41,1.41,1.38,1.4,75000
2019-10-17,1.4,1.4,1.37,1.4,4017500
2019-10-18,1.4,1.4,1.35,1.39,227500
2019-10-21,1.4,1.42,1.37,1.4,177500
2019-10-22,1.4,1.49,1.4,1.4,172500
2019-10-23,1.4,1.4,1.37,1.4,182500
2019-10-24,1.39,1.4,1.36,1.4,182500
2019-10-25,1.4,1.4,1.34,1.4,677500
2019-10-28,1.4,1.4,1.36,1.36,230000
2019-10-29,1.36,1.4,1.35,1.37,177500
2019-10-30,1.4,1.4,1.34,1.38,187500
2019-10-31,1.39,1.39,1.35,1.39,232500
2019-11-01,1.4,1.4,1.36,1.39,217500
2019-11-04,1.4,1.4,1.35,1.39,240000
2019-11-05,1.38,1.39,1.35,1.37,425000
2019-11-06,1.38,1.39,1.35,1.39,165000
2019-11-07,1.4,1.4,1.36,1.39,162500
2019-11-08,1.4,1.4,1.37,1.39,102500
2019-11-11,1.4,1.4,1.37,1.39,142500
2019-11-12,1.4,1.4,1.38,1.39,122500
2019-11-13,1.4,1.4,1.37,1.4,147500
2019-11-14,1.4,1.4,1.38,1.4,275000
2019-11-15,1.4,1.4,1.36,1.37,67500
2019-11-18,1.38,1.39,1.36,1.37,142500
2019-11-19,1.38,1.38,1.36,1.37,295000
2019-11-20,1.37,1.37,1.36,1.37,47500
2019-11-21,1.36,1.37,1.34,1.36,510000
2019-11-22,1.36,1.38,1.33,1.37,407500
2019-11-25,1.37,1.37,1.33,1.35,402500
2019-11-26,1.36,1.36,1.34,1.36,282500
2019-11-27,1.36,1.39,1.35,1.37,215000
2019-11-28,1.39,1.4,1.36,1.37,270000
2019-11-29,1.4,1.4,1.36,1.36,427500
2019-12-02,1.4,1.4,1.32,1.36,440000
2019-12-03,1.38,1.38,1.34,1.36,190000
2019-12-04,1.36,1.36,1.34,1.36,487500
2019-12-05,1.36,1.37,1.35,1.37,60000
2019-12-06,1.37,1.37,1.34,1.35,617500
2019-12-09,1.36,1.36,1.33,1.36,140000
2019-12-10,1.36,1.36,1.34,1.35,562500
2019-12-11,1.36,1.36,1.34,1.36,355000
2019-12-12,1.36,1.37,1.36,1.37,25000
2019-12-13,1.37,1.37,1.35,1.37,80000
2019-12-16,1.37,1.37,1.28,1.32,1532500
2019-12-17,1.34,1.35,1.29,1.34,325000
2019-12-18,1.35,1.36,1.32,1.36,560000
2019-12-19,1.38,1.38,1.34,1.35,340000
2019-12-20,1.37,1.37,1.37,1.37,22500
2019-12-23,1.38,1.38,1.37,1.37,22500
2019-12-24,1.38,1.38,1.37,1.37,12500
2019-12-27,1.37,1.42,1.36,1.42,6142500
2019-12-30,1.46,1.46,1.38,1.45,130000
2019-12-31,1.5,1.5,1.48,1.49,25000
2020-01-02,1.5,1.5,1.35,1.47,118900
2020-01-03,1.5,1.5,1.47,1.49,77500
2020-01-06,1.5,1.51,1.5,1.5,232500
2020-01-07,1.58,1.58,1.47,1.49,235000
2020-01-08,1.5,1.5,1.47,1.49,47500
2020-01-09,1.49,1.5,1.47,1.5,570000
2020-01-10,1.5,1.5,1.47,1.5,412500
2020-01-13,1.5,1.5,1.49,1.49,40001
2020-01-14,1.49,1.49,1.46,1.47,555000
2020-01-15,1.47,1.48,1.46,1.47,172500
2020-01-16,1.46,1.47,1.45,1.46,27500
2020-01-17,1.4,1.45,1.4,1.44,90000
2020-01-20,1.44,1.46,1.44,1.46,35000
2020-01-21,1.46,1.46,1.42,1.42,72500
2020-01-22,1.44,1.45,1.43,1.45,45000
2020-01-23,1.45,1.45,1.44,1.45,32500
2020-01-24,1.45,1.45,1.45,1.45,12500
2020-01-29,1.45,1.7,1.45,1.51,695000
2020-01-30,1.51,1.51,1.47,1.49,85000
2020-01-31,1.49,2.0,1.49,1.6,17035000
2020-02-03,1.6,1.65,1.22,1.46,3760000
2020-02-04,1.44,1.47,1.28,1.47,1577500
2020-02-05,1.47,1.47,1.35,1.45,980000
2020-02-06,1.48,1.48,1.39,1.39,1707500
2020-02-07,1.47,1.47,1.37,1.42,660000
2020-02-10,1.44,1.44,1.38,1.42,292500
2020-02-11,1.79,1.8,1.53,1.57,9040000
2020-02-12,1.6,1.6,1.43,1.47,1620000
2020-02-13,1.47,1.47,1.39,1.41,1197500
2020-02-14,1.41,1.41,1.33,1.39,1147500
2020-02-17,1.4,1.42,1.35,1.42,282500
2020-02-18,1.43,1.43,1.36,1.39,417500
2020-02-19,1.42,1.42,1.35,1.37,470000
2020-02-20,1.4,1.4,1.36,1.38,215000
2020-02-21,1.41,1.41,1.34,1.38,520000
2020-02-24,1.39,1.39,1.33,1.37,470000
2020-02-25,1.37,1.37,1.3,1.3,557500
2020-02-26,1.25,1.38,1.25,1.34,1462500
2020-02-27,1.34,1.34,1.3,1.32,227500
2020-02-28,1.31,1.31,1.24,1.3,840000
2020-03-02,1.32,1.38,1.32,1.36,382500
2020-03-03,1.38,1.38,1.32,1.34,420000
2020-03-04,1.35,1.38,1.33,1.34,87500
2020-03-05,1.34,1.38,1.34,1.36,222500
2020-03-06,1.35,1.38,1.33,1.37,82500
2020-03-09,1.35,1.36,1.23,1.28,2785000
2020-03-10,1.3,1.37,1.2,1.28,1517500
2020-03-11,1.3,1.3,1.24,1.29,250000
2020-03-12,1.29,1.29,1.24,1.25,310000
2020-03-13,1.23,1.25,1.19,1.22,245000
2020-03-16,1.24,1.25,1.11,1.15,837500
2020-03-17,1.18,1.18,1.08,1.17,635000
2020-03-18,1.15,1.19,1.12,1.16,255000
2020-03-19,1.19,1.19,1.08,1.15,5222500
2020-03-20,1.2,1.2,1.08,1.1,1177500
2020-03-23,1.1,1.15,1.08,1.11,430000
2020-03-24,1.15,1.15,1.13,1.15,57500
2020-03-25,1.2,1.2,1.12,1.18,195000
2020-03-26,1.4,1.4,1.16,1.24,472500
2020-03-27,1.25,1.35,1.25,1.28,170000
2020-03-30,1.28,1.28,1.18,1.24,980000
2020-03-31,1.28,1.33,1.21,1.3,417500
2020-04-01,1.3,1.3,1.24,1.27,140000
2020-04-02,1.3,1.3,1.2,1.27,362500
2020-04-03,1.3,1.3,1.25,1.28,187500
2020-04-06,1.3,1.3,1.27,1.3,140000
2020-04-07,1.3,1.3,1.28,1.29,135000
2020-04-08,1.3,1.3,1.26,1.29,57500
2020-04-09,1.3,1.3,1.27,1.3,77500
2020-04-14,1.3,1.3,1.25,1.28,175000
2020-04-15,1.3,1.3,1.25,1.27,132500
2020-04-16,1.29,1.29,1.25,1.29,207500
2020-04-17,1.3,1.3,1.24,1.25,727500
2020-04-20,1.28,1.28,1.23,1.28,277500
2020-04-21,1.28,1.3,1.24,1.3,550000
2020-04-22,1.3,1.3,1.26,1.28,420000
2020-04-23,1.29,1.29,1.25,1.28,62500
2020-04-24,1.28,1.28,1.25,1.25,730000
2020-04-27,1.27,1.27,1.23,1.25,262500
2020-04-28,1.25,1.25,1.22,1.24,337500
2020-04-29,1.24,1.25,1.23,1.23,330000
2020-05-04,1.25,1.25,1.2,1.22,360000
2020-05-05,1.28,1.28,1.2,1.22,595000
2020-05-06,1.24,1.27,1.2,1.23,365000
2020-05-07,1.23,1.26,1.2,1.26,235000
2020-05-08,1.26,1.27,1.24,1.24,387500
2020-05-11,1.28,1.28,1.24,1.25,227500
2020-05-12,1.26,1.26,1.23,1.26,50000
2020-05-13,1.26,1.26,1.22,1.23,517500
2020-05-14,1.25,1.25,1.22,1.24,3025000
2020-05-15,1.24,1.24,1.21,1.23,585000
2020-05-18,1.24,1.25,1.2,1.21,535000
2020-05-19,1.23,1.23,1.1,1.21,965000
2020-05-20,1.22,1.24,1.19,1.24,472500
2020-05-21,1.24,1.24,1.2,1.23,282500
2020-05-22,1.25,1.25,1.17,1.21,465000
2020-05-25,1.22,1.23,1.17,1.21,667500
2020-05-26,1.23,1.23,1.15,1.15,550000
2020-05-27,1.18,1.2,1.13,1.15,610000
2020-05-28,1.17,1.18,1.15,1.15,225000
2020-05-29,1.15,1.15,1.13,1.15,132500
2020-06-01,1.15,1.18,1.14,1.18,262500
2020-06-02,1.18,1.18,1.13,1.18,605000
2020-06-03,1.19,1.19,1.1,1.1,1447500
2020-06-04,1.14,1.18,1.13,1.18,405000
2020-06-05,1.18,1.19,1.15,1.15,385000
2020-06-08,1.18,1.21,1.15,1.2,745000
2020-06-09,1.25,1.27,1.18,1.21,257500
2020-06-10,1.22,1.23,1.19,1.23,272500
2020-06-11,1.27,1.27,1.19,1.22,302500
2020-06-12,1.25,1.25,1.18,1.23,100000
2020-06-15,1.25,1.25,1.19,1.2,565000
2020-06-16,1.22,1.22,1.2,1.22,55000
2020-06-17,1.22,1.26,1.19,1.2,592500
2020-06-18,1.21,1.21,1.18,1.2,632500
2020-06-19,1.2,1.2,1.17,1.19,1032500
2020-06-22,1.2,1.2,1.19,1.19,72500
2020-06-23,1.22,1.22,1.18,1.21,207500
2020-06-24,1.21,1.22,1.19,1.19,767500
2020-06-26,1.2,1.2,1.17,1.19,647500
2020-06-29,1.18,1.19,1.17,1.19,462500
2020-06-30,1.19,1.27,1.18,1.19,712500
2020-07-02,1.27,1.27,1.18,1.19,170000
2020-07-03,1.3,1.3,1.18,1.2,327500
2020-07-06,1.22,1.27,1.19,1.25,3632500
2020-07-07,1.27,1.27,1.21,1.23,1310000
2020-07-08,1.24,1.24,1.19,1.2,1280000
2020-07-09,1.2,1.2,1.13,1.17,1605000
2020-07-10,1.18,1.18,1.12,1.15,965000
2020-07-13,1.18,1.18,1.14,1.16,737500
2020-07-14,1.16,1.16,1.14,1.15,800000
2020-07-15,1.16,1.16,1.12,1.15,610000
2020-07-16,1.16,1.16,1.12,1.12,972500
2020-07-17,1.14,1.14,1.11,1.14,235000
2020-07-20,1.17,1.17,1.12,1.14,609500
2020-07-21,1.16,1.16,1.12,1.16,542500
2020-07-22,1.17,1.17,1.12,1.12,867500
2020-07-23,1.14,1.14,1.11,1.13,162500
2020-07-24,1.13,1.13,1.1,1.13,464500
2020-07-27,1.11,1.14,1.11,1.13,342500
2020-07-28,1.14,1.14,1.11,1.13,191000
2020-07-29,1.14,1.14,1.12,1.14,151000
2020-07-30,1.14,1.17,1.12,1.17,408000
2020-07-31,1.17,1.25,1.15,1.25,467500
2020-08-03,1.25,1.3,1.24,1.3,1347500
2020-08-04,1.3,1.32,1.27,1.29,1417500
2020-08-05,1.33,1.33,1.25,1.28,1187500
2020-08-06,1.29,1.36,1.25,1.36,3037500
2020-08-07,1.33,1.33,1.27,1.3,3157500
2020-08-10,1.3,1.33,1.27,1.28,2450000
2020-08-11,1.3,1.3,1.22,1.23,492500
2020-08-12,1.26,1.26,1.2,1.24,262500
2020-08-13,1.28,1.28,1.22,1.24,272500
2020-08-14,1.18,1.25,1.18,1.24,1040000
2020-08-17,1.25,1.26,1.22,1.25,562500
2020-08-18,1.27,1.27,1.2,1.2,552500
2020-08-19,1.24,1.24,1.2,1.22,762500
2020-08-20,1.22,1.23,1.18,1.2,1160000
2020-08-21,1.2,1.25,1.2,1.21,610000
2020-08-24,1.23,1.25,1.22,1.25,357500
2020-08-25,1.25,1.27,1.21,1.21,325000
