Date,Open,High,Low,Close,Volume
2011-03-22,31.5,31.5,31.0,31.45,4829850
2011-03-23,31.3,31.5,31.1,31.45,3308087
2011-03-24,31.6,31.75,31.25,31.45,4696523
2011-03-25,31.5,31.85,31.1,31.3,6383493
2011-03-28,31.4,32.6,31.4,31.85,15853660
2011-03-29,31.55,32.55,31.55,32.45,8754199
2011-03-30,32.6,33.0,32.25,32.9,10063214
2011-03-31,32.9,33.0,32.3,32.7,11670460
2011-04-01,32.9,33.3,32.6,33.3,10630810
2011-04-04,33.45,33.9,33.05,33.8,7816036
2011-04-06,34.0,34.65,33.95,34.6,14780444
2011-04-07,34.95,34.95,34.0,34.15,8580132
2011-04-08,33.95,34.5,33.8,33.9,7959162
2011-04-11,33.9,34.4,33.75,34.2,7400131
2011-04-12,33.7,33.95,33.4,33.85,6265900
2011-04-13,33.9,34.4,33.6,34.35,7962616
2011-04-14,34.0,34.4,33.65,33.95,7162396
2011-04-15,34.0,34.35,33.9,34.25,6347740
2011-04-18,34.1,34.75,33.8,33.85,7183577
2011-04-19,33.75,33.8,33.55,33.65,5509830
2011-04-20,34.15,34.9,33.75,34.85,8597795
2011-04-21,35.0,35.45,34.65,35.35,9420286
2011-04-26,35.0,35.35,34.1,34.35,6973899
2011-04-27,34.65,34.9,33.9,34.05,5562049
2011-04-28,34.65,34.75,33.7,33.75,3816763
2011-04-29,33.75,34.1,33.4,33.55,5982815
2011-05-03,33.4,34.05,32.85,33.0,7021169
2011-05-04,33.0,33.2,32.4,32.75,6031649
2011-05-05,32.95,32.95,32.2,32.35,4828022
2011-05-06,32.25,33.0,32.2,32.65,7392717
2011-05-09,32.75,32.85,32.35,32.8,4493538
2011-05-11,33.05,33.4,32.55,33.05,4262959
2011-05-12,32.7,32.75,32.1,32.25,6507368
2011-05-13,32.35,33.15,32.25,32.95,5276452
2011-05-16,33.1,33.1,31.85,32.15,7667894
2011-05-17,32.15,32.6,32.0,32.45,2856921
2011-05-18,32.6,32.6,32.3,32.5,3203060
2011-05-19,32.55,33.0,32.45,32.65,3242842
2011-05-20,32.8,32.8,32.45,32.6,1816390
2011-05-23,32.2,32.3,31.6,31.85,5560217
2011-05-24,31.75,32.2,31.7,32.05,2112135
2011-05-25,32.0,32.0,31.3,31.9,3552500
2011-05-26,32.2,32.25,31.8,31.95,2104746
2011-05-27,32.05,32.6,31.95,32.25,4919363
2011-05-30,32.55,32.55,31.6,31.8,4295000
2011-05-31,32.2,32.65,31.85,32.6,7295510
2011-06-01,32.35,32.6,32.1,32.2,6899623
2011-06-02,31.95,32.35,31.75,32.0,6513844
2011-06-03,31.95,32.75,31.95,32.45,14166419
2011-06-07,31.9,32.9,31.9,32.8,7154655
2011-06-08,32.9,32.9,31.85,32.3,4886613
2011-06-09,32.4,32.4,31.3,31.9,5598557
2011-06-10,32.1,32.1,31.2,31.5,5878476
2011-06-13,31.2,31.6,30.85,31.45,5449162
2011-06-14,30.85,32.1,30.65,31.55,4613574
2011-06-15,31.55,31.65,30.65,31.0,5929760
2011-06-16,30.7,30.7,30.2,30.3,8663310
2011-06-17,30.3,30.9,30.2,30.35,7140501
2011-06-20,30.2,30.8,30.2,30.35,2488890
2011-06-21,30.9,31.15,30.4,30.65,5360067
2011-06-22,31.1,31.45,30.65,30.75,6025774
2011-06-23,30.9,30.9,30.25,30.65,5407974
2011-06-24,30.9,31.95,30.6,31.95,7236503
2011-06-27,31.6,31.85,31.35,31.75,3592374
2011-06-28,31.9,32.0,31.75,31.9,3707967
2011-06-29,32.0,32.0,31.3,31.6,6006634
2011-06-30,31.95,32.45,31.8,32.25,9562540
2011-07-04,32.4,33.0,32.2,32.95,12829766
2011-07-05,33.0,33.0,32.6,32.75,6640386
2011-07-06,32.8,32.9,31.2,31.7,19472812
2011-07-07,31.6,32.15,31.35,31.85,17188112
2011-07-08,32.05,32.3,31.35,31.55,9380227
2011-07-11,31.35,31.5,30.65,30.75,7771428
2011-07-12,30.55,30.7,30.0,30.05,8456024
2011-07-13,30.45,30.75,30.05,30.7,4562272
2011-07-14,30.7,30.7,30.15,30.6,4808863
2011-07-15,30.55,30.95,30.3,30.7,2404340
2011-07-18,30.6,31.45,30.6,31.1,4374650
2011-07-19,31.4,31.4,30.5,30.95,4804544
2011-07-20,31.2,31.3,30.85,31.15,3102292
2011-07-21,31.25,31.6,31.0,31.55,4399450
2011-07-22,31.7,32.0,31.65,31.9,5430493
2011-07-25,31.9,32.0,31.2,31.75,3610966
2011-07-26,31.75,31.95,31.5,31.95,4038357
2011-07-27,30.5,30.7,30.2,30.5,312272480
2011-07-28,30.4,30.5,30.1,30.35,18346000
2011-07-29,30.4,30.4,29.4,29.55,29863800
2011-08-01,29.9,30.55,29.85,30.25,17001930
2011-08-02,30.15,30.25,29.9,30.15,9771629
2011-08-03,29.8,29.9,29.4,29.7,17604472
2011-08-04,29.7,29.95,29.35,29.45,8634612
2011-08-05,28.05,28.9,28.0,28.8,21234384
2011-08-08,28.6,28.7,27.1,28.45,12361097
2011-08-09,26.6,28.6,25.6,27.5,17044314
2011-08-10,28.8,28.8,27.5,27.55,11133761
2011-08-11,26.7,28.05,26.6,27.85,10121833
2011-08-12,28.2,28.2,27.6,27.75,8407545
2011-08-15,28.55,29.6,28.5,29.35,14978550
2011-08-16,29.1,29.7,28.8,29.35,8186400
2011-08-17,29.6,29.8,28.95,29.35,6337048
2011-08-18,28.95,29.3,28.55,28.85,4241345
2011-08-19,28.0,28.65,27.6,27.85,7233973
2011-08-22,28.2,29.6,27.65,28.0,11942260
2011-08-23,27.8,29.3,27.8,29.0,6967467
2011-08-24,29.15,29.15,28.2,28.45,8881600
2011-08-25,28.95,28.95,28.2,28.7,7496003
2011-08-26,28.7,28.8,27.85,28.15,10290306
2011-08-29,28.8,29.35,28.65,29.15,17629590
2011-08-30,29.5,30.0,29.1,29.45,9755133
2011-08-31,29.75,30.65,29.75,30.45,21725748
2011-09-01,30.95,31.0,29.9,30.25,11821766
2011-09-02,30.5,30.5,29.4,29.6,5381322
2011-09-05,29.05,29.6,28.65,28.9,5684239
2011-09-06,28.5,29.35,28.4,29.2,6380400
2011-09-07,29.65,29.65,28.7,29.3,8163177
2011-09-08,29.3,29.5,28.9,29.2,6785400
2011-09-09,29.1,29.8,28.9,29.25,4459379
2011-09-12,28.7,28.7,27.5,28.05,8087007
2011-09-14,28.6,28.75,27.55,28.1,8624512
2011-09-15,28.15,28.35,27.55,27.95,6623473
2011-09-16,28.3,28.7,28.2,28.45,7934682
2011-09-19,28.05,28.35,27.35,27.45,3657962
2011-09-20,27.85,27.9,27.05,27.5,4996220
2011-09-21,27.05,27.4,26.7,26.85,11947886
2011-09-22,26.0,26.0,24.6,24.9,17334586
2011-09-23,24.6,24.8,23.0,24.15,11413935
2011-09-26,24.0,24.25,20.25,22.1,16459647
2011-09-27,23.35,24.05,22.9,23.8,12507901
2011-09-28,23.3,24.5,22.8,23.8,9885800
2011-09-30,24.9,24.9,22.5,22.75,14819080
2011-10-03,22.5,22.6,20.3,21.15,12191570
2011-10-04,21.1,21.45,19.78,20.15,12007260
2011-10-06,21.1,22.1,20.3,20.9,16333528
2011-10-07,21.55,24.0,21.2,23.35,12503171
2011-10-10,23.5,24.0,22.9,23.75,7041200
2011-10-11,25.0,25.9,24.2,24.7,10883799
2011-10-12,24.0,25.25,23.4,24.65,13619001
2011-10-13,25.0,26.2,24.9,26.0,8830278
2011-10-14,26.2,26.2,25.0,25.25,5202000
2011-10-17,25.7,25.8,25.05,25.2,9891315
2011-10-18,24.6,24.75,23.25,23.75,8525543
2011-10-19,23.6,23.8,21.85,22.7,16146400
2011-10-20,22.0,22.3,21.05,21.55,8992700
2011-10-21,21.55,22.0,20.5,21.05,11269904
2011-10-24,21.5,22.75,21.5,22.5,9351409
2011-10-25,22.2,23.05,22.15,22.6,8637707
2011-10-26,22.15,22.8,21.45,22.45,8737497
2011-10-27,22.15,24.35,22.15,23.85,16476400
2011-10-28,24.5,24.95,23.45,24.5,21236652
2011-10-31,24.95,25.0,23.5,24.2,8237864
2011-11-01,23.5,24.5,23.0,23.4,8007171
2011-11-02,22.8,23.8,22.8,23.7,8471200
2011-11-03,23.2,25.55,23.2,24.7,18786604
2011-11-04,26.25,26.5,25.65,26.15,17397452
2011-11-07,26.0,26.6,25.15,26.25,13398950
2011-11-08,26.35,26.95,25.95,26.8,11680174
2011-11-09,27.2,27.75,26.8,26.85,6829470
2011-11-10,26.5,26.5,25.25,25.55,10793292
2011-11-11,25.7,26.1,25.3,25.65,7760681
2011-11-14,26.4,27.0,26.4,26.45,7239150
2011-11-15,26.25,26.65,25.9,26.25,4661947
2011-11-16,25.8,26.2,24.1,24.45,11470075
2011-11-17,23.5,24.3,23.45,24.25,5580200
2011-11-18,23.5,23.95,23.2,23.4,5230186
2011-11-21,23.0,23.25,22.4,22.9,5910200
2011-11-22,23.5,23.6,22.45,23.5,7178014
2011-11-23,23.3,23.3,22.5,22.6,4247790
2011-11-24,22.45,22.9,21.9,22.5,6873200
2011-11-25,21.8,22.15,21.7,21.8,5098800
2011-11-28,22.2,22.5,22.05,22.3,4511000
2011-11-29,22.5,22.85,21.55,22.3,9970400
2011-11-30,22.2,22.25,21.2,21.5,12936917
2011-12-01,23.0,23.75,22.9,23.0,26891924
2011-12-02,23.0,23.95,22.65,23.8,9904703
2011-12-05,23.75,24.0,23.25,23.8,7479141
2011-12-06,23.25,23.45,23.0,23.3,4917414
2011-12-07,23.7,23.75,22.9,23.45,11607600
2011-12-08,23.0,23.2,22.6,22.85,8412200
2011-12-09,21.95,22.5,21.5,21.85,11559269
2011-12-12,22.15,22.3,21.55,21.8,4977000
2011-12-13,21.65,21.8,21.05,21.3,7073862
2011-12-14,20.95,21.35,20.6,21.0,9600624
2011-12-15,20.55,20.75,20.2,20.55,10867662
2011-12-16,20.35,21.65,20.35,21.45,18674520
2011-12-19,20.7,21.15,20.3,20.9,11251186
2011-12-20,20.8,21.5,20.8,21.0,8969623
2011-12-21,21.65,21.75,20.95,21.35,8618645
2011-12-22,21.2,22.2,21.2,22.0,7883685
2011-12-23,22.35,22.8,22.15,22.35,9854190
2011-12-28,21.85,22.0,21.6,21.95,5063146
2011-12-29,21.55,22.25,21.55,21.9,5156304
2011-12-30,21.85,22.4,21.85,22.1,4259718
2012-01-03,22.75,22.95,22.45,22.7,6345529
2012-01-04,22.7,22.75,21.9,22.15,6109945
2012-01-05,22.3,22.45,21.85,22.4,8614018
2012-01-06,22.2,22.4,21.45,21.5,10740782
2012-01-09,21.6,22.05,20.8,22.0,7804813
2012-01-10,22.1,22.85,21.5,22.65,11729062
2012-01-11,22.85,23.1,22.4,22.95,8721320
2012-01-12,22.6,23.2,22.5,22.75,5927762
2012-01-13,23.0,23.1,22.55,23.05,9917011
2012-01-16,22.9,22.9,21.7,21.85,12325964
2012-01-17,22.05,23.0,22.05,22.95,23123572
2012-01-18,22.9,23.45,22.7,23.0,20961890
2012-01-19,23.2,24.45,22.9,24.35,26580120
2012-01-20,24.9,25.4,24.35,25.2,29404488
2012-01-26,25.6,25.9,25.2,25.65,18540814
2012-01-27,25.5,26.15,25.3,26.0,16315823
2012-01-30,25.65,25.65,24.9,25.35,17090496
2012-01-31,25.2,25.95,25.2,25.8,20677328
2012-02-01,26.15,26.35,25.5,25.6,10351099
2012-02-02,25.8,26.85,25.7,26.75,12319112
2012-02-03,26.9,26.9,26.2,26.7,12159570
2012-02-06,26.9,27.0,26.15,26.8,8390740
2012-02-07,27.0,27.2,26.4,26.5,16425108
2012-02-08,27.0,27.1,26.2,27.05,19632372
2012-02-09,26.9,27.7,26.1,27.4,15041920
2012-02-10,27.25,27.6,26.15,26.5,13406131
2012-02-13,26.75,27.1,26.4,26.75,12436891
2012-02-14,26.35,26.9,25.85,26.15,9998500
2012-02-15,26.15,27.0,26.15,26.75,9067867
2012-02-16,26.65,26.75,26.3,26.6,4283151
2012-02-17,27.0,27.4,26.65,26.95,11530490
2012-02-20,27.7,27.75,27.25,27.45,12216466
2012-02-21,27.45,27.75,27.1,27.6,4909400
2012-02-22,27.1,27.95,27.1,27.75,6834800
2012-02-23,27.5,28.2,27.5,27.95,7345431
2012-02-24,28.3,28.5,27.9,28.25,6945192
2012-02-27,28.3,28.6,27.55,27.9,5095628
2012-02-28,28.1,28.6,27.65,28.5,4118197
2012-02-29,28.2,28.6,27.75,27.95,10328507
2012-03-01,27.6,28.0,26.7,26.8,12194284
2012-03-02,27.0,27.4,26.9,27.3,16180552
2012-03-05,27.0,27.4,26.05,26.35,7891200
2012-03-06,26.45,26.55,25.5,25.5,7687987
2012-03-07,24.95,25.55,24.5,24.7,21738190
2012-03-08,24.95,25.65,24.85,25.35,10161297
2012-03-09,25.85,26.4,25.6,26.1,10900375
2012-03-12,26.35,26.6,25.75,26.1,6484200
2012-03-13,26.5,26.8,26.2,26.25,6069678
2012-03-14,26.95,26.95,26.0,26.15,8044021
2012-03-15,26.5,26.5,25.9,26.45,7195219
2012-03-16,26.05,26.9,26.05,26.45,5032032
2012-03-19,26.55,26.65,25.65,25.8,4745628
2012-03-20,25.95,25.95,24.8,25.15,5146100
2012-03-21,25.1,25.5,24.75,25.15,3721300
2012-03-22,25.5,25.5,24.8,25.2,4084600
2012-03-23,24.65,25.0,24.6,25.0,3829200
2012-03-26,24.95,25.4,24.55,24.75,3213714
2012-03-27,25.0,25.5,24.95,25.2,9139371
2012-03-28,25.3,25.3,24.8,25.15,4394560
2012-03-29,24.65,24.85,24.3,24.65,6340973
2012-03-30,24.6,24.6,23.65,24.05,15332400
2012-04-02,23.95,24.3,23.65,24.15,9303270
2012-04-03,24.2,24.95,24.15,24.9,7370400
2012-04-05,24.15,25.25,24.0,24.8,7039746
2012-04-10,24.3,24.6,23.8,24.25,6905400
2012-04-11,23.7,24.15,23.5,23.55,9263774
2012-04-12,23.55,24.4,23.15,24.15,11513972
2012-04-13,24.5,25.35,24.5,25.0,11345104
2012-04-16,24.9,24.95,24.55,24.85,3692800
2012-04-17,24.6,25.2,24.2,24.75,5805577
2012-04-18,25.1,25.55,24.85,25.15,6948244
2012-04-19,25.0,26.25,25.0,26.1,13174860
2012-04-20,25.8,26.65,25.65,26.15,13104898
2012-04-23,26.05,26.25,25.3,25.45,9552434
2012-04-24,25.15,25.95,25.15,25.65,6752276
2012-04-25,25.9,25.9,25.4,25.65,3639400
2012-04-26,25.7,25.95,25.4,25.85,5474874
2012-04-27,26.0,26.1,25.2,25.45,9286400
2012-04-30,24.55,25.4,24.25,25.35,18003552
2012-05-02,25.2,26.3,25.2,25.85,10716688
2012-05-03,25.5,26.4,25.4,26.0,10460249
2012-05-04,25.65,26.25,25.65,25.9,10413149
2012-05-07,25.1,25.35,24.9,25.05,11250000
2012-05-08,25.15,25.25,24.35,24.6,8660656
2012-05-09,24.55,24.55,23.55,24.0,10323800
2012-05-10,23.8,24.35,23.7,23.9,5258242
2012-05-11,23.7,23.85,23.35,23.65,7004797
2012-05-14,23.85,23.95,22.95,23.2,8870444
2012-05-15,22.8,23.35,22.45,23.15,8734678
2012-05-16,22.45,23.3,22.25,22.7,16181400
2012-05-17,23.25,23.25,22.5,22.75,7217542
2012-05-18,22.05,22.65,21.65,22.3,13169270
2012-05-21,22.45,22.55,22.0,22.35,8219026
2012-05-22,22.7,22.75,22.15,22.65,8654600
2012-05-23,22.05,22.5,22.05,22.4,3890751
2012-05-24,22.2,22.5,21.95,22.15,3748540
2012-05-25,22.1,22.2,21.65,22.15,5082610
2012-05-28,22.2,22.65,22.1,22.45,4604800
2012-05-29,22.25,23.6,22.25,23.45,10995336
2012-05-30,22.9,23.4,22.7,22.95,9433200
2012-05-31,22.7,23.25,22.7,23.1,6766648
2012-06-01,22.75,23.05,22.25,22.75,7969178
2012-06-04,22.15,22.3,21.25,21.75,9932474
2012-06-05,22.1,22.1,21.4,21.65,5239344
2012-06-06,21.95,22.3,21.7,21.95,5965442
2012-06-07,22.35,22.5,21.7,22.0,6959839
2012-06-08,22.3,23.0,22.15,22.6,10245900
2012-06-11,23.4,23.9,23.3,23.7,8723303
2012-06-12,23.6,24.15,23.3,23.8,8332189
2012-06-13,23.9,25.1,23.2,24.95,19189362
2012-06-14,25.1,25.4,24.3,24.55,15133611
2012-06-15,25.0,25.1,24.25,24.8,9303408
2012-06-18,25.4,25.55,24.9,25.1,6268641
2012-06-19,24.9,25.5,24.75,24.9,6162760
2012-06-20,25.2,25.25,24.5,25.0,7300750
2012-06-21,25.0,25.2,24.1,24.2,6314709
2012-06-22,23.55,24.15,23.55,23.8,4762200
2012-06-25,23.6,24.2,23.45,23.9,4341004
2012-06-26,23.65,24.3,23.65,23.85,6423000
2012-06-27,23.95,24.4,23.75,24.3,5879000
2012-06-28,24.55,24.6,23.85,23.95,6024808
2012-06-29,24.3,25.05,24.0,24.9,9861984
2012-07-03,25.0,25.7,24.85,25.65,6039687
2012-07-04,25.55,25.7,25.1,25.45,5540286
2012-07-05,25.65,25.65,25.0,25.45,5101272
2012-07-06,25.65,26.6,25.65,26.55,18009800
2012-07-09,26.2,26.3,25.15,25.45,11403142
2012-07-10,25.45,25.65,24.45,24.8,8743600
2012-07-11,24.6,25.7,24.45,25.65,9401443
2012-07-12,25.3,25.35,24.8,24.9,8872630
2012-07-13,24.2,25.95,24.15,25.65,13953859
2012-07-16,25.6,26.0,25.55,25.7,6021544
2012-07-17,25.7,26.8,25.7,26.6,8599026
2012-07-18,26.55,26.9,26.15,26.3,5706414
2012-07-19,26.8,27.4,26.65,27.15,14187905
2012-07-20,27.0,27.35,26.65,26.9,6223391
2012-07-23,25.0,25.15,23.75,24.2,282796544
2012-07-24,24.2,24.65,23.9,24.35,11235978
2012-07-25,24.1,25.1,24.1,24.9,17225488
2012-07-26,24.9,25.25,24.7,24.95,13109042
2012-07-27,25.25,25.3,24.7,24.9,12142876
2012-07-30,24.95,25.5,24.7,24.9,12044260
2012-07-31,24.8,25.15,24.6,24.65,9430992
2012-08-01,24.65,25.4,24.55,25.2,18203300
2012-08-02,25.4,25.5,24.95,25.1,34720800
2012-08-03,25.2,25.2,24.7,25.0,10447903
2012-08-06,25.35,25.55,25.0,25.35,10001700
2012-08-07,25.4,25.45,25.2,25.25,6729730
2012-08-08,25.35,25.6,25.2,25.5,7115592
2012-08-09,25.55,26.0,25.4,25.9,10092215
2012-08-10,25.7,25.95,25.2,25.55,14371000
2012-08-13,25.65,25.8,25.0,25.2,5469208
2012-08-14,25.3,25.35,24.6,24.9,7495800
2012-08-15,24.75,25.1,24.55,24.65,4069672
2012-08-16,24.95,25.4,24.8,24.9,5568400
2012-08-17,25.25,25.3,24.85,25.2,6841053
2012-08-20,25.05,25.4,24.5,24.9,5652950
2012-08-21,25.1,25.1,24.4,24.6,7791269
2012-08-22,24.2,24.55,24.2,24.35,4180800
2012-08-23,24.6,24.95,24.5,24.75,4936300
2012-08-24,24.4,24.55,24.15,24.25,3923577
2012-08-27,24.5,24.5,23.05,23.45,14081600
2012-08-28,23.15,23.35,22.85,23.3,9651120
2012-08-29,23.4,23.7,23.15,23.2,9293115
2012-08-30,23.25,23.25,22.65,22.9,11467820
2012-08-31,22.75,23.6,22.75,23.0,22979152
2012-09-03,23.05,23.45,22.8,23.3,10378600
2012-09-04,23.2,23.65,23.1,23.15,6077549
2012-09-05,22.95,23.35,22.6,22.85,7373448
2012-09-06,22.8,23.25,22.8,23.1,3985538
2012-09-07,23.25,23.35,22.55,23.0,156738304
2012-09-10,23.4,23.4,22.3,22.7,28045088
2012-09-11,22.5,22.8,22.4,22.65,7884900
2012-09-12,22.85,23.15,22.8,22.95,11516467
2012-09-13,22.95,23.0,22.7,22.85,7248149
2012-09-14,23.6,23.8,23.3,23.75,16364056
2012-09-17,23.8,23.9,23.25,23.4,9818432
2012-09-18,23.35,23.4,22.65,22.95,10810684
2012-09-19,23.1,23.3,22.9,23.0,10509722
2012-09-20,22.9,23.05,22.4,22.6,10008982
2012-09-21,22.7,23.2,22.55,22.85,19525400
2012-09-24,22.6,23.0,22.5,22.7,7801806
2012-09-25,22.85,23.0,22.7,22.85,7150904
2012-09-26,22.65,22.8,22.5,22.55,10593132
2012-09-27,22.6,23.25,22.45,23.1,18458800
2012-09-28,23.05,23.7,23.0,23.45,14888723
2012-10-03,23.25,23.6,22.8,23.15,6236400
2012-10-04,23.25,23.5,22.9,23.45,7376290
2012-10-05,23.55,23.6,23.15,23.5,12382410
2012-10-08,23.55,23.55,22.95,23.1,7343100
2012-10-09,23.25,23.85,23.25,23.5,10900014
2012-10-10,23.4,23.8,23.35,23.65,6731400
2012-10-11,23.6,24.1,23.5,24.0,9294211
2012-10-12,24.15,24.6,24.0,24.55,14711179
2012-10-15,24.7,24.9,24.15,24.65,5380262
2012-10-16,25.0,25.1,24.7,25.0,10110600
2012-10-17,25.2,25.25,24.05,24.35,17904420
2012-10-18,24.3,24.75,24.25,24.65,12235400
2012-10-19,24.75,25.0,24.65,24.85,10720618
2012-10-22,24.8,25.1,24.65,25.05,5862923
2012-10-24,24.6,25.45,24.45,25.0,8360680
2012-10-25,24.95,24.95,24.25,24.5,6774600
2012-10-26,24.25,24.75,24.0,24.3,6771800
2012-10-29,23.85,24.3,23.65,24.2,6986791
2012-10-30,24.15,24.4,23.95,24.05,3461608
2012-10-31,24.2,24.4,24.05,24.3,6972328
2012-11-01,24.15,24.9,24.05,24.85,7442082
2012-11-02,25.3,25.35,25.0,25.25,14562800
2012-11-05,25.15,25.75,25.05,25.15,8310685
2012-11-06,25.15,25.3,24.65,25.05,5583700
2012-11-07,24.95,25.25,24.6,25.2,8351198
2012-11-08,24.7,25.1,24.45,24.5,6168805
2012-11-09,24.25,24.6,23.95,24.0,11075264
2012-11-12,24.15,24.35,23.95,24.3,6305200
2012-11-13,24.3,24.3,23.8,24.0,7697035
2012-11-14,24.2,24.25,23.85,24.25,6177800
2012-11-15,24.05,24.05,23.25,23.35,8633764
2012-11-16,23.6,24.1,23.5,23.85,13433600
2012-11-19,24.2,24.4,23.7,24.3,30857304
2012-11-20,24.75,24.75,23.95,24.05,8536524
2012-11-21,24.2,24.6,23.9,24.55,12599800
2012-11-22,24.55,24.9,24.45,24.75,24934318
2012-11-23,24.85,25.25,24.7,25.25,11236709
2012-11-26,25.45,25.45,24.8,25.3,10669748
2012-11-27,25.45,25.5,24.9,25.05,6590200
2012-11-28,25.05,25.2,24.2,24.3,10195627
2012-11-29,24.75,25.05,24.55,24.85,15215864
2012-11-30,24.65,25.45,24.4,25.4,18175540
2012-12-03,25.3,25.6,24.7,24.75,9058683
2012-12-04,24.75,25.1,24.55,24.95,5742900
2012-12-05,24.8,25.85,24.8,25.8,16934440
2012-12-06,26.0,26.0,25.5,25.6,9533513
2012-12-07,26.0,26.05,25.8,25.95,20421380
2012-12-10,26.5,27.5,26.2,26.3,14568180
2012-12-11,26.3,26.8,26.05,26.4,9880775
2012-12-12,26.35,26.7,26.25,26.45,10490649
2012-12-13,26.3,26.9,26.3,26.5,7008000
2012-12-14,26.5,27.8,26.3,27.45,15538340
2012-12-17,27.7,27.95,27.05,27.8,14451437
2012-12-18,28.0,28.1,27.15,27.45,11177214
2012-12-19,27.65,27.7,27.05,27.2,8126306
2012-12-20,27.1,27.4,26.8,27.35,9514002
2012-12-21,27.05,27.5,26.9,27.0,9492454
2012-12-24,26.85,27.9,26.85,27.55,5504400
2012-12-27,27.9,28.15,27.6,27.8,6058268
2012-12-28,28.25,28.25,27.7,27.85,5869200
2012-12-31,28.2,29.0,27.95,28.65,11221590
2013-01-02,29.4,30.9,29.0,30.7,25842914
2013-01-03,31.0,31.75,30.5,31.35,18905162
2013-01-04,31.2,31.3,30.65,30.9,16734196
2013-01-07,30.9,31.5,30.65,31.0,10772868
2013-01-08,30.2,30.5,29.85,30.2,235964960
2013-01-09,30.3,31.15,30.1,31.05,21252872
2013-01-10,31.35,31.55,30.65,31.4,18520200
2013-01-11,31.75,31.75,30.75,31.1,15277348
2013-01-14,30.85,31.7,30.85,31.45,11344410
2013-01-15,31.6,31.95,31.15,31.35,11289040
2013-01-16,31.1,31.5,30.85,31.3,10329777
2013-01-17,30.85,31.35,30.8,31.2,9311220
2013-01-18,31.8,32.5,31.55,32.3,16756918
2013-01-21,32.3,32.3,31.7,31.9,7975224
2013-01-22,31.75,32.2,31.35,31.8,7813993
2013-01-23,31.55,32.0,31.15,31.45,9591518
2013-01-24,31.1,31.9,31.05,31.15,7066400
2013-01-25,31.2,31.4,30.1,30.7,13439900
2013-01-28,31.15,31.15,30.5,30.65,9094300
2013-01-29,30.8,30.85,30.4,30.55,11790166
2013-01-30,30.8,31.2,30.55,31.05,11366211
2013-01-31,30.55,30.9,30.15,30.3,15256200
2013-02-01,30.3,30.6,30.0,30.4,15005735
2013-02-04,30.8,31.2,30.2,30.3,15164676
2013-02-05,30.0,30.05,29.15,29.4,13514241
2013-02-06,29.9,30.25,29.55,29.8,9713385
2013-02-07,29.8,30.1,29.1,29.6,10600965
2013-02-08,29.6,30.0,29.15,29.3,10241496
2013-02-14,29.7,30.1,29.45,29.9,8467173
2013-02-15,29.55,30.3,29.5,30.15,5579246
2013-02-18,30.75,30.75,29.45,29.8,7961174
2013-02-19,29.65,30.0,28.8,29.1,9469880
2013-02-20,29.6,29.65,29.15,29.5,7821506
2013-02-21,28.95,29.3,27.8,28.8,16460842
2013-02-22,28.7,28.75,28.05,28.25,11124800
2013-02-25,28.4,28.95,28.2,28.45,6218000
2013-02-26,28.5,28.5,27.25,27.5,11037700
2013-02-27,27.9,27.9,27.25,27.35,9100300
2013-02-28,27.7,28.7,27.65,28.6,29420946
2013-03-01,28.15,28.3,27.45,28.1,14508752
2013-03-04,28.05,28.1,26.95,27.7,15396202
2013-03-05,28.1,28.1,27.0,27.75,17165144
2013-03-06,27.7,28.8,27.7,28.25,12840171
2013-03-07,28.1,28.6,27.7,28.3,8848667
2013-03-08,28.8,28.8,28.2,28.2,9248970
2013-03-11,28.25,28.3,27.3,27.6,12851506
2013-03-12,27.55,28.2,27.05,27.1,16202852
2013-03-13,27.0,27.0,25.6,25.95,19979684
2013-03-14,25.65,26.5,25.65,26.05,18526508
2013-03-15,26.3,26.95,26.1,26.7,36039496
2013-03-18,25.9,26.1,25.3,25.65,15757130
2013-03-19,25.4,25.9,25.05,25.45,9075429
2013-03-20,25.2,26.05,25.15,25.9,5727297
2013-03-21,25.95,26.7,25.75,26.0,11122400
2013-03-22,26.0,26.55,25.7,25.9,4791260
2013-03-25,26.05,26.5,25.65,25.9,6047771
2013-03-26,26.0,26.0,25.55,25.85,6672800
2013-03-27,25.75,26.55,25.75,26.0,7159152
2013-03-28,25.7,25.95,25.15,25.55,11734160
2013-04-02,25.55,26.1,25.1,25.4,9762548
2013-04-03,25.7,25.95,25.45,25.65,8776704
2013-04-05,25.6,25.85,24.55,25.15,13268600
2013-04-08,25.3,25.6,24.85,24.95,8053148
2013-04-09,25.15,26.8,25.15,26.0,18058676
2013-04-10,26.55,27.9,26.45,27.55,21893558
2013-04-11,28.3,28.5,26.95,27.3,13965863
2013-04-12,27.65,27.8,27.05,27.1,9261710
2013-04-15,26.9,27.2,25.9,26.15,17466724
2013-04-16,25.8,27.25,25.65,27.05,12914744
2013-04-17,27.55,27.55,26.55,26.75,9778420
2013-04-18,26.4,27.1,26.4,26.55,9262156
2013-04-19,26.45,28.0,26.45,27.8,14483800
2013-04-22,27.5,27.9,26.85,27.15,6197490
2013-04-23,27.35,27.35,26.4,26.6,7834802
2013-04-24,26.9,27.8,26.75,27.25,11702000
2013-04-25,28.2,28.3,27.25,27.6,13147000
2013-04-26,28.15,28.4,27.7,27.9,10835250
2013-04-29,27.65,28.15,27.35,27.75,4451110
2013-04-30,28.15,28.35,27.75,27.9,6463344
2013-05-02,28.25,28.25,27.05,27.3,8615783
2013-05-03,27.65,27.85,27.2,27.3,5263750
2013-05-06,27.75,28.1,27.55,27.75,5765425
2013-05-07,27.95,28.0,27.35,27.95,7085400
2013-05-08,28.35,29.2,28.0,29.0,15478505
2013-05-09,29.2,29.2,28.4,28.8,7553120
2013-05-10,28.8,29.0,28.45,28.95,9415732
2013-05-13,28.85,28.85,27.75,28.1,11549029
2013-05-14,28.1,28.45,27.5,27.9,4991007
2013-05-15,27.95,28.25,27.75,28.05,5062301
2013-05-16,28.05,28.1,27.6,27.75,4237447
2013-05-20,28.15,28.6,28.1,28.35,6588160
2013-05-21,28.15,28.7,27.95,28.6,5592373
2013-05-22,28.4,29.2,28.0,28.4,5695800
2013-05-23,28.1,28.65,26.95,27.4,8086756
2013-05-24,27.5,27.55,26.7,26.8,6466704
2013-05-27,26.65,27.2,26.65,27.0,4585923
2013-05-28,27.2,27.8,26.75,27.6,6010420
2013-05-29,27.5,27.5,26.55,26.9,8861380
2013-05-30,27.1,27.1,26.05,26.5,14584043
2013-05-31,26.4,26.6,26.0,26.25,10587130
2013-06-03,26.2,26.85,26.1,26.25,8971704
2013-06-04,26.1,26.4,25.4,25.85,5980915
2013-06-05,25.55,26.1,25.35,26.05,6704734
2013-06-06,26.0,26.35,25.7,25.85,6247430
2013-06-07,25.9,26.0,25.2,25.45,6425069
2013-06-10,25.4,25.85,25.15,25.3,6325000
2013-06-11,25.05,25.25,24.65,25.0,11294826
2013-06-13,24.5,24.9,24.1,24.8,27339876
2013-06-14,25.05,25.7,24.85,25.6,21640960
2013-06-17,25.55,26.2,25.45,25.55,15723479
2013-06-18,25.2,25.65,24.75,25.35,6803958
2013-06-19,25.15,25.6,24.95,25.45,9083290
2013-06-20,25.2,25.45,24.5,24.55,12711204
2013-06-21,24.45,25.6,24.15,24.95,20098408
2013-06-24,24.6,24.6,23.55,24.15,18202220
2013-06-25,23.55,23.95,22.45,23.3,26279036
2013-06-26,23.8,24.1,23.05,23.75,27261830
2013-06-27,23.95,24.4,23.8,24.2,25850908
2013-06-28,24.2,24.85,24.0,24.75,19465368
2013-07-02,25.0,25.0,24.15,24.75,27572004
2013-07-03,24.3,25.1,23.95,24.05,32486632
2013-07-04,24.45,24.55,23.9,24.2,17978474
2013-07-05,24.3,24.75,24.15,24.3,10698295
2013-07-08,23.8,24.1,23.5,23.8,9589619
2013-07-09,24.0,24.4,23.6,24.1,11889800
2013-07-10,24.5,24.8,24.1,24.8,10264457
2013-07-11,25.3,26.4,25.1,25.9,18275264
2013-07-12,26.1,26.15,25.05,25.35,11054474
2013-07-15,25.05,26.25,25.0,25.1,8738272
2013-07-16,25.1,25.95,25.05,25.6,9923400
2013-07-17,26.25,26.25,25.55,25.75,12072400
2013-07-18,25.6,25.9,25.55,25.75,7255300
2013-07-19,25.55,25.85,25.05,25.4,10199268
2013-07-22,25.45,25.8,25.35,25.7,3220570
2013-07-23,25.95,26.75,25.95,26.65,17778822
2013-07-24,26.65,26.7,25.8,26.15,4834876
2013-07-25,26.0,26.4,25.95,26.0,4039560
2013-07-26,26.0,26.2,25.75,26.0,11046459
2013-07-29,25.8,25.85,25.2,25.4,8434899
2013-07-30,25.6,26.4,25.6,26.05,8431000
2013-07-31,25.7,26.35,25.7,25.95,10030029
2013-08-01,26.35,26.7,25.9,26.35,5553233
2013-08-02,26.4,26.5,25.6,25.8,15408290
2013-08-05,26.0,26.05,25.75,25.9,9378923
2013-08-06,25.5,25.75,25.1,25.35,8874558
2013-08-07,25.2,25.35,24.15,24.25,10987102
2013-08-08,24.4,24.75,24.1,24.2,8769612
2013-08-09,24.5,25.05,24.45,24.55,4542680
2013-08-12,24.75,25.7,24.45,25.5,11507600
2013-08-13,25.5,27.0,25.3,26.75,14735222
2013-08-15,27.05,27.2,26.7,26.95,13266200
2013-08-16,26.95,27.75,26.6,27.3,9057459
2013-08-19,27.35,27.7,26.95,27.5,7399660
2013-08-20,27.1,27.3,26.1,26.55,7789242
2013-08-21,26.35,26.9,25.95,26.45,3403529
2013-08-22,26.1,26.95,26.0,26.75,6209720
2013-08-23,27.0,27.25,26.3,26.85,4877312
2013-08-26,27.3,27.5,26.65,27.25,5499020
2013-08-27,26.9,27.3,26.45,26.75,4295780
2013-08-28,26.4,26.7,25.85,25.9,10348057
2013-08-29,26.15,26.65,25.85,26.25,8659229
2013-08-30,26.15,26.6,25.8,25.9,10217412
2013-09-02,26.3,27.15,26.3,26.95,7313973
2013-09-03,27.4,27.9,27.15,27.75,10723158
2013-09-04,27.3,28.0,27.25,27.65,6429099
2013-09-05,27.95,28.25,27.8,27.9,7444751
2013-09-06,27.95,28.15,27.55,28.0,4037782
2013-09-09,28.4,29.25,28.0,29.15,11235938
2013-09-10,29.7,29.7,28.9,29.35,11716673
2013-09-11,29.4,29.9,29.25,29.55,12122771
2013-09-12,29.4,30.35,29.35,29.6,9559029
2013-09-13,29.3,30.3,28.8,29.45,12721240
2013-09-16,29.9,30.05,29.45,29.65,7924080
2013-09-17,29.45,29.9,28.7,29.05,8626512
2013-09-18,29.0,29.2,28.3,28.75,8797031
2013-09-19,29.7,29.8,29.45,29.65,11786188
2013-09-23,29.85,30.05,29.1,29.7,6510600
2013-09-24,29.9,29.9,28.65,29.1,9664971
2013-09-25,28.8,29.25,28.55,28.85,7486800
2013-09-26,28.85,28.85,28.1,28.5,7409800
2013-09-27,28.7,28.8,28.0,28.35,5652328
2013-09-30,28.15,28.25,27.6,27.8,8728000
2013-10-02,28.35,28.45,27.95,28.05,6537665
2013-10-03,28.3,28.75,27.85,28.65,3688327
2013-10-04,28.2,29.25,28.15,28.75,4331628
2013-10-07,28.45,28.65,27.85,28.3,5859115
2013-10-08,28.35,29.05,28.1,28.75,6589079
2013-10-09,28.5,28.6,28.1,28.15,5969500
2013-10-10,28.3,28.3,27.5,27.8,8789810
2013-10-11,28.15,28.4,28.05,28.3,6374532
2013-10-15,28.65,28.9,28.3,28.5,7195410
2013-10-16,28.5,28.5,27.85,28.3,6889696
2013-10-17,28.45,28.45,28.0,28.05,5984200
2013-10-18,28.25,28.35,27.95,28.05,6229100
2013-10-21,28.05,28.35,27.9,28.05,4288428
2013-10-22,28.1,28.2,27.7,27.9,3856400
2013-10-23,28.2,28.55,27.3,27.4,6694640
2013-10-24,27.4,27.4,26.7,27.0,7073204
2013-10-25,26.6,26.95,26.55,26.7,5259408
2013-10-28,26.7,27.3,26.6,27.05,6597360
2013-10-29,27.0,27.4,26.85,26.95,7872100
2013-10-30,26.95,27.95,26.95,27.65,8867002
2013-10-31,27.55,28.3,27.55,28.0,11833193
2013-11-01,28.25,28.4,27.85,28.2,5996081
2013-11-04,28.2,28.4,27.9,28.0,3531600
2013-11-05,27.8,27.85,27.1,27.6,7961767
2013-11-06,27.3,27.6,27.1,27.3,5435093
2013-11-07,27.15,27.5,26.8,27.15,4599016
2013-11-08,26.75,27.25,26.75,26.85,5016688
2013-11-11,26.85,27.65,26.6,27.4,5379176
2013-11-12,27.6,27.8,27.1,27.55,6201300
2013-11-13,27.1,27.4,26.4,26.45,11588903
2013-11-14,26.6,27.25,26.6,27.05,9087280
2013-11-15,27.35,28.55,27.05,28.05,17658400
2013-11-18,29.0,31.95,29.0,31.75,38971432
2013-11-19,32.5,32.5,30.85,31.15,30546548
2013-11-20,31.8,32.0,31.2,31.35,16375907
2013-11-21,31.1,31.15,30.5,30.6,15736459
2013-11-22,31.1,32.6,30.8,31.5,20211944
2013-11-24,31.5,31.5,31.5,31.5,0
2013-11-25,31.85,32.45,31.65,32.05,10028991
2013-11-26,31.9,32.0,31.35,31.65,8374988
2013-11-27,31.65,32.15,31.1,32.1,9411255
2013-11-28,32.65,33.0,31.95,32.25,9918362
2013-11-29,32.5,32.8,31.8,32.8,6072182
2013-12-02,32.85,33.5,32.2,33.0,9668161
2013-12-03,32.25,32.9,32.15,32.2,14661786
2013-12-04,32.05,32.9,31.4,32.05,11763007
2013-12-05,31.8,32.75,31.8,32.6,7282991
2013-12-06,32.75,32.9,31.7,31.75,13176650
2013-12-09,32.4,32.9,32.0,32.75,9332792
2013-12-10,32.4,32.75,32.35,32.6,6655557
2013-12-11,32.6,32.65,30.95,31.45,12017281
2013-12-12,31.1,31.45,30.8,31.1,8140940
2013-12-13,30.7,31.45,30.7,31.3,8314053
2013-12-16,31.05,31.15,30.5,30.75,5400050
2013-12-17,30.9,31.2,30.6,30.85,6182259
2013-12-18,31.2,31.2,30.55,30.9,5118314
2013-12-19,31.45,31.55,29.55,30.05,12357686
2013-12-20,29.85,30.1,28.9,29.35,15445396
2013-12-23,29.65,30.3,29.35,29.75,9417284
2013-12-24,29.95,30.65,29.9,30.35,5092786
2013-12-27,29.9,31.0,29.9,30.4,5102075
2013-12-30,30.8,31.05,29.8,30.3,8738973
2013-12-31,30.65,31.05,30.3,30.4,5189548
2014-01-02,30.5,30.8,29.5,29.95,6970715
2014-01-03,29.25,29.4,28.4,29.0,11786486
2014-01-06,29.3,29.3,27.55,28.15,11294825
2014-01-07,28.45,28.45,27.6,27.95,7917012
2014-01-08,28.3,28.75,28.05,28.25,9560400
2014-01-09,28.5,28.95,27.75,28.1,8245208
2014-01-10,27.9,28.4,27.85,28.2,4799660
2014-01-13,28.35,28.7,27.85,28.1,3877331
2014-01-14,27.75,28.4,27.5,28.15,6389748
2014-01-15,28.95,28.95,28.35,28.65,8294666
2014-01-16,28.75,28.95,28.05,28.45,8060440
2014-01-17,28.15,28.8,27.8,28.2,5259416
2014-01-20,27.85,28.35,27.65,27.8,5567662
2014-01-21,28.4,28.6,28.1,28.25,5969014
2014-01-22,28.2,29.1,28.1,28.9,7547154
2014-01-23,28.85,29.2,28.05,28.2,9513744
2014-01-24,27.6,28.55,27.6,28.05,10433620
2014-01-27,27.5,28.1,26.9,27.35,15531230
2014-01-28,27.65,28.1,27.3,27.55,16304611
2014-01-29,28.0,28.8,27.95,28.45,11641900
2014-01-30,27.75,28.4,27.6,28.3,6222800
2014-02-04,26.9,27.1,26.5,26.8,15639580
2014-02-05,27.0,27.15,26.15,26.45,9836725
2014-02-06,26.9,26.9,26.45,26.6,7014928
2014-02-07,26.55,27.0,26.5,26.8,8745200
2014-02-10,27.05,27.1,26.7,26.8,5382435
2014-02-11,26.65,27.85,26.65,27.55,14510561
2014-02-12,27.75,28.1,27.6,27.7,7915425
2014-02-13,27.6,27.75,27.2,27.55,4513294
2014-02-14,27.85,27.85,27.4,27.5,5535542
2014-02-17,27.8,28.65,27.65,28.2,11560377
2014-02-18,28.35,28.35,27.7,28.05,7941664
2014-02-19,27.85,28.4,27.75,28.1,6269274
2014-02-20,27.7,28.2,26.75,27.3,11954222
2014-02-21,27.7,27.75,27.2,27.3,5454191
2014-02-24,27.55,27.55,26.45,27.1,6759688
2014-02-25,27.3,27.3,26.3,26.7,6932614
2014-02-26,26.4,26.95,26.4,26.9,8558100
2014-02-27,26.5,26.95,26.35,26.9,9613717
2014-02-28,26.95,27.15,26.25,26.65,9243693
2014-03-03,25.8,26.95,25.7,26.2,11122400
2014-03-04,26.25,26.4,25.8,25.95,8534800
2014-03-05,26.1,26.35,25.75,25.85,9190762
2014-03-06,25.8,26.85,25.75,26.5,14790000
2014-03-07,26.35,26.7,26.1,26.2,8694435
2014-03-10,25.7,25.9,25.45,25.75,7123387
2014-03-11,25.8,25.85,25.35,25.55,6788945
2014-03-12,25.55,25.65,25.15,25.5,10512635
2014-03-13,25.6,26.0,25.15,25.55,6295379
2014-03-14,25.2,25.5,24.9,25.2,8411898
2014-03-17,25.25,25.4,24.95,25.15,4669830
2014-03-18,25.2,25.7,25.1,25.5,10354640
2014-03-19,25.3,25.5,24.75,25.1,17503350
2014-03-20,24.95,25.8,24.65,24.9,9172359
2014-03-21,24.75,25.8,24.75,25.5,11922099
2014-03-24,25.5,26.55,25.5,26.25,12188668
2014-03-25,26.1,26.75,25.8,26.35,7031027
2014-03-26,26.55,27.45,26.55,27.1,11784623
2014-03-27,27.15,27.4,26.5,27.25,7401868
2014-03-28,27.5,27.6,27.15,27.35,7080532
2014-03-31,27.7,27.9,27.4,27.7,11334356
2014-04-01,27.9,27.95,27.1,27.5,10344070
2014-04-02,27.35,27.65,26.75,26.8,11409606
2014-04-03,27.25,27.4,26.7,26.8,7792724
2014-04-04,26.8,26.95,26.55,26.85,7119349
2014-04-07,26.95,27.1,26.5,26.65,5293886
2014-04-08,26.7,27.4,26.65,27.05,8934800
2014-04-09,26.85,27.25,26.85,26.95,8706148
2014-04-10,27.0,28.0,26.7,27.05,26234814
2014-04-11,26.3,26.55,25.05,25.75,29480800
2014-04-14,25.6,25.9,25.5,25.75,7726193
2014-04-15,26.05,26.2,25.2,25.5,10006700
2014-04-16,25.3,25.85,25.2,25.45,9863460
2014-04-17,25.45,25.75,25.35,25.6,7937194
2014-04-22,25.3,26.1,25.0,25.2,6395550
2014-04-23,25.5,25.55,24.95,25.15,8873000
2014-04-24,25.1,25.3,24.7,25.0,7564048
2014-04-25,24.8,25.2,24.45,24.7,9643109
2014-04-28,24.55,25.05,24.5,24.8,6251000
2014-04-29,24.8,25.1,24.2,24.6,13268201
2014-04-30,24.55,24.55,24.05,24.3,10402879
2014-05-02,24.4,24.45,24.05,24.25,6593790
2014-05-05,24.3,24.3,23.7,24.0,6714430
2014-05-07,23.55,23.95,23.55,23.8,9390400
2014-05-08,24.2,24.25,23.9,23.95,6743661
2014-05-09,24.35,24.35,23.75,23.9,4080934
2014-05-12,24.45,24.55,23.55,24.2,10291096
2014-05-13,24.2,24.4,23.9,24.05,7930540
2014-05-14,24.25,24.75,23.8,24.55,13058418
2014-05-15,24.55,24.65,24.05,24.2,6816764
2014-05-16,24.1,24.35,23.95,24.15,7901032
2014-05-19,23.8,24.15,23.65,24.05,5017276
2014-05-20,24.05,24.3,23.75,23.85,5906420
2014-05-21,23.95,24.15,23.7,24.0,7057807
2014-05-22,24.0,24.8,23.95,24.7,18394794
2014-05-23,24.55,25.1,24.55,24.9,9659429
2014-05-26,25.1,25.15,24.6,24.75,4094850
2014-05-27,24.65,24.85,24.5,24.6,3160371
2014-05-28,24.7,25.3,24.45,25.2,11507420
2014-05-29,25.45,26.25,25.15,25.65,20735138
2014-05-30,25.7,25.95,25.3,25.9,12142146
2014-06-03,25.5,26.2,25.4,25.95,16568541
2014-06-04,25.85,26.0,25.6,26.0,9092437
2014-06-05,25.9,26.55,25.9,26.45,10093181
2014-06-06,26.8,26.8,26.2,26.65,10647733
2014-06-09,26.8,27.15,26.65,26.85,9553165
2014-06-10,27.05,27.45,26.75,27.15,12621521
2014-06-11,27.15,27.65,26.95,27.1,10684859
2014-06-12,27.15,27.15,26.75,26.95,9244784
2014-06-13,26.9,27.5,26.85,27.5,10755073
2014-06-16,27.3,28.4,27.25,28.3,19103416
2014-06-17,28.6,28.6,27.9,28.0,12580841
2014-06-18,27.7,28.2,27.7,28.0,13415822
2014-06-19,28.1,28.4,27.6,27.6,14709200
2014-06-20,27.5,27.85,27.5,27.6,17418382
2014-06-23,27.7,28.25,27.35,27.4,11791709
2014-06-24,27.55,27.7,27.25,27.45,10764290
2014-06-25,27.6,27.6,27.05,27.2,6728911
2014-06-26,27.35,27.5,27.15,27.45,6534300
2014-06-27,27.5,27.5,26.85,27.05,9777223
2014-06-30,27.15,27.45,27.0,27.35,5648603
2014-07-02,27.7,28.05,27.55,27.85,11241500
2014-07-03,27.85,28.55,27.85,28.2,11526992
2014-07-04,28.45,28.7,28.3,28.4,7040361
2014-07-07,28.65,29.1,28.6,28.85,11410189
2014-07-08,28.85,29.05,28.35,28.55,7818528
2014-07-09,28.4,28.65,27.8,28.05,9377281
2014-07-10,28.05,28.2,27.65,28.0,10259800
2014-07-11,27.9,27.9,27.6,27.75,5557347
2014-07-14,27.85,28.4,27.6,28.0,4034168
2014-07-15,28.45,28.45,27.95,28.15,5936400
2014-07-16,28.25,28.25,26.95,27.35,13729248
2014-07-17,27.3,27.65,27.2,27.55,5850248
2014-07-18,27.4,27.7,27.25,27.5,3635400
2014-07-21,27.3,27.6,27.25,27.45,5725020
2014-07-22,27.55,29.0,27.25,28.7,14998955
2014-07-23,28.65,29.95,28.65,29.85,16852340
2014-07-24,29.85,30.65,29.75,30.45,14278336
2014-07-25,30.05,30.45,29.8,30.4,12436917
2014-07-28,30.25,30.9,30.25,30.85,13716115
2014-07-29,30.9,30.95,30.3,30.95,9310240
2014-07-30,30.9,31.3,30.3,30.65,13561862
2014-07-31,30.75,31.1,30.0,30.75,11630562
2014-08-01,30.4,30.7,29.8,30.0,9619130
2014-08-04,30.0,30.7,29.95,30.4,6390600
2014-08-05,30.1,30.45,29.55,29.85,6859709
2014-08-06,29.3,29.85,29.05,29.75,4625372
2014-08-07,29.7,29.85,29.2,29.35,5087249
2014-08-08,29.35,29.6,28.85,29.15,5405561
2014-08-11,29.6,30.2,29.5,30.0,6922312
2014-08-12,29.7,30.1,29.3,29.65,6012140
2014-08-13,29.85,30.3,29.3,30.25,7492418
2014-08-14,30.5,30.55,29.7,30.1,8952800
2014-08-15,30.1,30.6,29.9,30.5,6230305
2014-08-18,30.35,30.7,29.55,30.45,8501495
2014-08-19,30.7,30.9,29.9,30.45,6259608
2014-08-20,30.45,30.6,30.25,30.4,4589395
2014-08-21,30.25,30.25,29.4,29.6,9609715
2014-08-22,30.0,30.6,29.65,30.45,8163900
2014-08-25,30.45,30.5,29.6,30.0,5608791
2014-08-26,29.8,30.55,29.8,30.15,11555800
2014-08-27,30.6,30.6,29.45,29.8,11698080
2014-08-28,29.8,30.0,28.95,29.15,12857460
2014-08-29,29.05,29.35,28.6,29.1,8797192
2014-09-01,29.05,29.1,28.45,28.95,6687416
2014-09-02,28.65,28.9,28.15,28.8,10838258
2014-09-03,29.2,30.2,29.1,30.0,17428700
2014-09-04,30.15,30.4,29.85,30.25,10573860
2014-09-05,30.35,30.5,29.85,29.95,10496535
2014-09-08,30.0,30.3,29.9,30.2,8498300
2014-09-10,30.4,30.4,29.35,29.55,12547321
2014-09-11,29.4,29.7,29.05,29.45,7360635
2014-09-12,29.15,29.7,29.15,29.45,8563488
2014-09-15,29.2,29.7,28.6,28.85,10024365
2014-09-16,28.6,29.5,27.85,28.2,7907449
2014-09-17,28.65,29.0,28.4,28.55,7095113
2014-09-18,28.2,28.4,27.95,28.15,8464600
2014-09-19,28.35,28.75,27.95,28.2,17265700
2014-09-22,28.05,28.2,27.6,27.7,8517400
2014-09-23,27.95,27.95,27.25,27.5,7834298
2014-09-24,27.45,28.15,27.35,27.75,7002198
2014-09-25,27.7,28.3,27.4,27.75,7575148
2014-09-26,27.7,27.7,27.1,27.3,6895641
2014-09-29,27.05,27.65,26.55,27.6,10545620
2014-09-30,27.6,27.7,27.05,27.3,8706641
2014-10-03,27.0,27.7,26.65,27.5,9734494
2014-10-06,27.15,27.8,26.9,27.65,10223491
2014-10-07,27.6,27.95,27.55,27.6,6112604
2014-10-08,27.2,28.2,27.2,27.75,6243714
2014-10-09,28.35,28.5,27.8,27.9,7866664
2014-10-10,27.3,27.85,27.3,27.45,6403483
2014-10-13,27.05,27.7,26.75,27.55,7698687
2014-10-14,27.45,27.75,27.0,27.3,8063449
2014-10-15,27.6,27.6,27.15,27.4,7090156
2014-10-16,27.0,27.6,26.95,27.0,8629321
2014-10-17,27.25,27.45,26.8,27.1,18147762
2014-10-20,27.6,27.8,27.25,27.45,4757350
2014-10-21,27.2,27.75,27.2,27.25,3654087
2014-10-22,27.55,28.0,27.05,27.4,8655835
2014-10-23,27.15,27.95,27.15,27.45,6261835
2014-10-24,27.55,27.7,27.25,27.65,4373591
2014-10-27,27.85,27.85,27.1,27.6,13720088
2014-10-28,27.95,28.9,27.95,28.7,16465751
2014-10-29,29.1,29.8,29.05,29.25,22955956
2014-10-30,29.3,29.5,28.4,28.65,16260442
2014-10-31,29.05,29.65,28.85,29.0,23301344
2014-11-03,29.4,29.4,28.55,28.75,8067932
2014-11-04,28.7,29.15,28.5,28.85,9292101
2014-11-05,29.2,29.2,28.15,28.7,8015606
2014-11-06,28.6,28.9,28.45,28.65,4425463
2014-11-07,28.6,28.95,28.05,28.45,11700029
2014-11-10,28.9,28.9,28.05,28.1,23010072
2014-11-11,28.6,28.75,28.25,28.45,12763183
2014-11-12,28.25,29.0,28.25,28.85,15857002
2014-11-13,28.6,30.0,28.6,29.75,20146178
2014-11-14,30.0,30.0,29.0,29.45,9441290
2014-11-17,30.0,30.0,28.4,28.75,11347262
2014-11-18,28.55,29.0,27.95,28.15,15654604
2014-11-19,28.35,28.75,28.0,28.3,13149272
2014-11-20,28.3,28.6,27.95,28.35,7890343
2014-11-21,28.25,28.9,28.15,28.5,20182288
2014-11-24,30.0,30.95,29.85,30.85,22532600
2014-11-25,30.3,30.95,30.25,30.45,11806329
2014-11-26,30.85,32.9,30.15,32.35,27098556
2014-11-27,33.3,33.6,32.25,32.5,25804774
2014-11-28,32.9,33.15,32.3,32.5,17641054
2014-12-01,32.5,33.0,31.3,31.5,20050134
2014-12-02,31.5,33.8,31.3,33.15,15148934
2014-12-03,33.5,34.3,32.45,32.95,19555328
2014-12-04,33.4,35.55,32.7,35.45,23876900
2014-12-05,35.05,36.4,34.4,35.4,19139122
2014-12-08,34.85,37.25,34.6,36.05,35718656
2014-12-09,36.05,36.5,33.85,33.95,22318096
2014-12-10,34.6,34.65,32.75,33.55,20339056
2014-12-11,33.3,33.4,32.55,32.65,11203201
2014-12-12,32.6,33.5,32.4,32.5,10947177
2014-12-15,31.75,33.3,31.75,33.2,7266219
2014-12-16,32.65,34.45,32.6,34.2,17887580
2014-12-17,34.3,34.75,33.85,34.45,11571340
2014-12-18,35.5,35.85,34.7,35.0,12645838
2014-12-19,35.95,36.0,33.85,34.6,26484800
2014-12-22,35.0,36.75,34.55,35.5,20783900
2014-12-23,35.5,36.6,35.0,35.6,20633400
2014-12-24,35.3,35.7,34.7,34.85,3918200
2014-12-29,37.2,40.9,36.65,39.1,49278900
2014-12-30,39.1,40.25,38.3,39.3,21399800
2014-12-31,39.65,40.0,38.6,39.4,14924700
2015-01-02,39.4,40.45,39.25,39.85,14375400
2015-01-05,39.1,40.85,38.8,39.15,26355500
2015-01-06,38.55,39.2,37.6,37.85,19478700
2015-01-07,36.95,37.95,36.8,37.3,20738200
2015-01-08,38.0,39.55,37.95,38.1,16642400
2015-01-09,39.35,39.9,37.7,38.0,14312800
2015-01-12,38.2,38.9,37.05,38.3,11910222
2015-01-13,37.8,38.5,37.65,37.7,10444532
2015-01-14,37.9,38.2,37.2,37.4,7795361
2015-01-15,37.0,38.8,36.85,38.65,18811216
2015-01-16,38.1,39.3,38.05,38.75,14609493
2015-01-17,29.0,29.0,29.0,29.0,0
2015-01-19,37.0,37.3,34.55,35.45,20184764
2015-01-20,36.3,37.5,35.7,36.75,11210457
2015-01-21,37.3,39.3,37.0,38.9,15806120
2015-01-22,39.2,40.0,38.1,38.35,13580460
2015-01-23,39.5,40.95,39.05,40.4,16126754
2015-01-26,39.6,41.6,39.6,41.55,11221382
2015-01-27,41.8,41.95,39.1,39.45,18031824
2015-01-28,39.35,39.6,38.55,38.7,10099216
2015-01-29,37.75,38.2,37.4,37.8,12709195
2015-01-30,38.3,38.5,37.4,37.5,9057033
2015-02-02,36.6,37.55,36.5,37.3,8311672
2015-02-03,37.0,38.65,36.7,38.65,10206700
2015-02-04,39.2,39.2,37.4,37.6,12481560
2015-02-05,38.9,39.2,37.3,37.4,12608676
2015-02-06,37.6,38.5,37.2,37.45,8935549
2015-02-09,37.5,38.2,36.9,37.6,7122584
2015-02-10,37.6,38.25,37.3,37.7,5837600
2015-02-11,38.0,38.3,37.6,38.1,5804337
2015-02-12,38.0,38.7,37.3,38.15,10390557
2015-02-13,38.25,38.7,37.95,38.2,8145635
2015-02-16,38.35,38.65,38.05,38.2,3791587
2015-02-17,38.2,39.4,38.1,38.8,6423200
2015-02-18,39.15,39.2,38.6,38.9,2420246
2015-02-23,39.05,39.1,38.05,38.85,3940731
2015-02-24,38.65,39.5,38.55,39.5,3476595
2015-02-25,39.6,39.9,39.15,39.7,6449390
2015-02-26,39.8,41.2,39.15,40.75,12304403
2015-02-27,40.45,41.1,39.8,40.5,8296574
2015-03-02,41.2,41.45,40.0,40.25,8974483
2015-03-03,40.0,40.65,39.05,39.35,8027608
2015-03-04,39.1,39.85,37.6,37.9,12453085
2015-03-05,37.65,38.5,37.2,37.4,9015651
2015-03-06,38.0,38.2,37.3,37.35,5127080
2015-03-09,36.8,38.0,36.6,37.7,6410169
2015-03-10,37.35,37.7,36.3,36.35,7833302
2015-03-11,36.0,37.1,35.8,36.1,9107789
2015-03-12,36.1,37.4,36.1,36.7,8704089
2015-03-13,37.05,37.95,36.9,37.55,8186277
2015-03-16,37.2,38.45,36.9,38.0,13531329
2015-03-17,38.7,38.7,37.7,38.2,9225830
2015-03-18,38.6,38.95,38.25,38.4,7139534
2015-03-19,38.75,38.75,37.2,37.3,22561440
2015-03-20,38.0,38.0,36.95,37.45,18731376
2015-03-23,37.8,38.0,37.2,37.6,11317059
2015-03-24,37.6,37.75,36.15,36.4,15985591
2015-03-25,36.7,36.75,35.85,36.3,10425241
2015-03-26,36.1,36.3,35.35,35.6,11810453
2015-03-27,36.0,36.0,35.0,35.55,12188010
2015-03-30,36.5,36.7,35.3,36.15,26189600
2015-03-31,37.2,37.35,36.7,36.9,20023432
2015-04-01,37.2,37.65,36.7,37.45,12472386
2015-04-02,37.9,38.0,37.1,37.35,15246262
2015-04-08,38.4,40.75,38.15,40.5,27118696
2015-04-09,41.95,44.5,40.45,40.55,22467232
2015-04-10,41.95,42.0,40.35,41.3,22862932
2015-04-13,41.95,42.85,40.95,41.9,24475912
2015-04-14,40.35,42.0,40.35,40.9,18738000
2015-04-15,41.7,41.7,40.6,40.8,11362256
2015-04-16,41.2,43.45,40.6,43.05,16196359
2015-04-17,43.5,43.8,42.1,42.4,10971756
2015-04-20,41.6,41.8,40.2,40.65,19433592
2015-04-21,41.2,41.75,40.7,41.35,14337031
2015-04-22,42.2,42.6,41.15,42.5,16186844
2015-04-23,42.4,43.4,41.5,41.9,14369302
2015-04-24,41.4,42.0,40.7,41.75,17108732
2015-04-27,42.3,43.4,41.55,43.25,18921826
2015-04-28,43.25,43.25,41.6,42.7,11047872
2015-04-29,42.7,42.7,40.9,41.7,13736927
2015-04-30,41.7,42.45,40.8,42.3,16039741
2015-05-04,42.3,42.75,41.5,42.55,10473655
2015-05-05,42.95,42.95,39.8,40.05,14650964
2015-05-06,39.8,42.3,39.8,40.1,20098338
2015-05-07,39.7,40.7,39.15,39.3,9731224
2015-05-08,40.3,40.8,39.85,40.4,10864856
2015-05-11,41.0,41.95,40.55,41.55,11543673
2015-05-12,41.35,41.55,40.55,40.85,6959129
2015-05-13,41.25,41.25,40.25,40.35,13568599
2015-05-14,40.0,40.55,39.65,40.25,6726365
2015-05-15,40.15,41.5,39.8,41.15,6202995
2015-05-18,40.85,41.2,40.05,40.7,7709600
2015-05-19,40.9,41.85,40.25,41.65,6805252
2015-05-20,42.1,42.1,41.1,41.8,6409253
2015-05-21,41.5,41.95,41.2,41.3,4563930
2015-05-22,41.6,43.35,41.45,43.25,11592535
2015-05-26,46.85,47.1,44.05,44.1,16106600
2015-05-27,44.1,44.3,42.7,42.8,14773274
2015-05-28,42.8,42.8,39.85,40.95,20151484
2015-05-29,40.5,40.95,39.8,39.95,17488352
2015-06-01,40.0,42.0,39.6,41.3,13191448
2015-06-02,41.45,41.45,40.6,40.85,7848909
2015-06-03,40.8,41.0,40.25,40.5,6320503
2015-06-04,40.3,41.35,39.3,40.0,17048400
2015-06-05,40.6,41.35,39.35,41.2,22454424
2015-06-08,40.95,41.9,40.35,41.7,12834438
2015-06-09,41.75,41.75,39.55,40.2,11001988
2015-06-10,40.2,41.1,39.8,39.85,9228202
2015-06-11,40.5,41.3,40.5,40.85,9209363
2015-06-12,41.3,42.2,40.95,42.15,11423837
2015-06-15,42.0,42.15,40.25,40.35,10363745
2015-06-16,40.0,40.35,38.25,38.3,11704253
2015-06-17,38.3,39.15,37.65,38.95,12160784
2015-06-18,38.5,39.15,37.95,38.15,5503008
2015-06-19,38.95,38.95,37.05,37.5,14568217
2015-06-22,38.0,38.85,38.0,38.55,7043685
2015-06-23,38.85,39.45,37.9,38.95,17399400
2015-06-24,39.3,39.65,38.7,39.25,6087077
2015-06-25,39.0,39.35,38.1,38.3,8385758
2015-06-26,37.5,38.5,35.85,36.95,19860668
2015-06-29,37.05,37.1,34.45,35.85,14542333
2015-06-30,36.55,37.75,36.0,37.2,16759158
2015-07-02,37.0,37.35,35.65,36.7,19277712
2015-07-03,36.4,36.7,34.45,35.2,17429600
2015-07-06,35.5,36.0,33.15,34.4,22214202
2015-07-07,34.3,34.5,32.05,32.35,23263568
2015-07-08,33.0,33.0,29.4,30.85,30613606
2015-07-09,31.55,34.35,30.45,32.55,34802400
2015-07-10,32.15,34.4,32.15,33.75,20965656
2015-07-13,33.7,34.95,33.1,34.25,14097903
2015-07-14,33.5,34.55,33.15,34.15,11617006
2015-07-15,34.2,34.3,33.05,34.05,13466154
2015-07-16,33.25,34.7,33.1,34.2,9608600
2015-07-17,34.5,35.15,34.3,34.6,8688600
2015-07-20,35.2,35.2,33.85,34.25,9274273
2015-07-21,34.6,36.1,34.2,35.55,12317603
2015-07-22,34.95,35.4,34.7,35.35,10927730
2015-07-23,35.05,35.9,34.85,35.5,6355700
2015-07-24,35.25,35.45,34.55,35.0,7039606
2015-07-27,34.65,34.9,32.15,33.35,17124080
2015-07-28,33.05,33.6,32.05,33.4,22772324
2015-07-29,33.9,33.9,32.5,33.35,12141208
2015-07-30,33.7,33.7,32.4,32.5,10901012
2015-07-31,32.55,32.9,32.1,32.5,13205197
2015-08-03,32.65,32.65,31.5,32.25,14713802
2015-08-04,32.75,32.9,32.0,32.45,5544378
2015-08-05,32.3,33.05,32.2,32.7,5435345
2015-08-06,32.3,32.7,31.45,32.35,8485212
2015-08-07,33.3,33.3,32.05,32.3,13841315
2015-08-10,32.1,32.95,31.8,32.3,7530870
2015-08-11,32.35,33.55,32.35,32.7,10817251
2015-08-12,32.5,32.7,31.55,32.15,8173146
2015-08-13,32.5,32.8,31.9,32.6,9357776
2015-08-14,32.9,32.9,32.0,32.2,5319080
2015-08-17,31.8,32.0,31.05,31.75,4298296
2015-08-18,32.1,32.25,29.85,30.6,9018200
2015-08-19,30.5,31.0,29.6,29.7,13064312
2015-08-20,30.0,30.2,28.95,29.5,12911614
2015-08-21,28.7,29.45,28.55,28.7,13679500
2015-08-24,28.7,28.7,25.3,26.15,31113552
2015-08-25,28.35,28.45,24.8,26.2,32320288
2015-08-26,26.2,26.7,25.0,25.55,16738580
2015-08-27,26.45,27.85,25.7,27.55,31450470
2015-08-28,27.55,28.8,27.55,28.05,26413420
2015-08-31,29.0,29.0,27.05,28.2,21149828
2015-09-01,27.7,28.55,27.05,27.8,20995932
2015-09-02,27.2,28.6,26.85,27.75,18759740
2015-09-04,27.3,27.9,26.25,27.1,11916340
2015-09-07,27.9,28.45,27.35,27.55,14028763
2015-09-08,27.55,28.85,27.15,28.4,16249472
2015-09-09,29.0,30.0,28.6,29.4,24990186
2015-09-10,28.7,29.6,28.4,29.15,12408607
2015-09-11,29.65,29.95,28.7,28.8,15825887
2015-09-14,28.9,29.2,28.4,28.7,12673168
2015-09-15,28.3,29.0,28.2,28.85,8676368
2015-09-16,29.45,30.0,28.65,29.4,13354872
2015-09-17,29.95,31.3,29.7,30.35,14981973
2015-09-18,30.15,31.1,30.15,30.85,10975658
2015-09-21,30.15,30.45,29.65,29.95,6086622
2015-09-22,30.0,30.75,29.5,29.75,6850540
2015-09-23,29.5,29.55,27.85,29.1,17511938
2015-09-24,29.05,29.4,28.4,28.7,8008200
2015-09-25,28.8,29.25,28.1,28.8,8523431
2015-09-29,27.4,28.4,27.05,28.3,8837760
2015-09-30,28.85,29.2,27.9,28.65,12343399
2015-10-02,29.1,30.1,28.45,29.75,12383752
2015-10-05,30.5,31.3,30.5,30.8,10514816
2015-10-06,31.05,31.3,30.5,30.8,7041064
2015-10-07,30.5,31.95,30.3,31.55,19566000
2015-10-08,31.45,31.55,30.2,30.95,16884950
2015-10-09,31.15,32.05,31.0,31.5,15319732
2015-10-12,32.05,32.3,31.35,31.5,11000498
2015-10-13,30.9,31.75,30.45,30.8,13676489
2015-10-14,30.2,30.9,30.05,30.25,14277024
2015-10-15,30.8,31.2,30.35,30.95,11391220
2015-10-16,31.55,31.85,31.0,31.7,9121784
2015-10-19,31.95,32.3,31.3,31.7,9504157
2015-10-20,31.4,31.95,31.3,31.9,5602742
2015-10-22,31.2,31.95,31.0,31.25,11870800
2015-10-23,31.5,32.45,31.5,32.1,9578209
2015-10-26,32.45,32.8,32.05,32.35,6972827
2015-10-27,32.35,32.35,31.1,31.55,14002154
2015-10-28,31.3,31.9,31.2,31.25,7506635
2015-10-29,31.7,31.7,30.75,30.85,9638894
2015-10-30,31.5,31.5,30.65,31.0,10659428
2015-11-02,30.7,31.8,30.65,31.0,14987078
2015-11-03,31.75,31.85,31.15,31.2,12454207
2015-11-04,31.3,33.45,31.3,32.55,19946160
2015-11-05,32.6,34.25,32.4,32.8,18800308
2015-11-06,32.65,33.6,32.2,33.15,10183600
2015-11-09,32.65,33.65,32.4,33.0,12064346
2015-11-10,32.25,33.0,32.25,32.45,9022224
2015-11-11,32.25,32.65,31.95,32.55,8831095
2015-11-12,32.5,33.0,32.3,32.6,8421400
2015-11-13,32.05,32.2,31.85,32.0,9252296
2015-11-16,32.0,32.15,31.3,31.4,9050234
2015-11-17,32.0,32.35,31.5,31.65,8359000
2015-11-18,31.85,31.95,31.4,31.8,5371281
2015-11-19,32.15,32.65,31.85,32.2,5770728
2015-11-20,32.35,32.8,31.7,32.55,4750600
2015-11-23,32.55,32.55,31.9,32.2,5539958
2015-11-24,32.1,32.25,31.5,32.15,5526154
2015-11-25,32.2,32.35,31.7,32.25,6672881
2015-11-26,32.4,33.1,32.4,32.75,5995790
2015-11-27,32.7,32.7,31.7,31.9,14019124
2015-11-30,31.7,32.65,31.3,31.9,22514772
2015-12-01,33.2,33.2,32.1,32.15,12961866
2015-12-02,32.4,33.8,32.25,33.4,13034454
2015-12-03,33.3,33.6,32.6,33.45,10316108
2015-12-04,32.7,33.05,32.45,32.75,9206543
2015-12-07,33.05,33.4,32.65,32.9,10793438
2015-12-08,32.5,32.55,31.55,32.0,11784662
2015-12-09,31.7,31.7,30.45,30.6,14279800
2015-12-10,30.6,31.2,30.2,30.4,7447237
2015-12-11,30.5,30.5,29.55,29.85,7513681
2015-12-14,28.7,30.4,28.65,29.9,10213253
2015-12-15,29.65,30.6,29.65,30.35,10571193
2015-12-16,31.0,31.35,30.85,31.05,10927540
2015-12-17,31.8,32.15,31.35,31.65,7387400
2015-12-18,31.2,31.75,31.2,31.45,7026967
2015-12-21,32.95,32.95,31.4,31.8,5923237
2015-12-22,31.7,32.15,31.55,31.95,4584417
2015-12-23,31.95,33.0,31.8,32.5,8325531
2015-12-24,32.75,33.4,32.75,33.2,3600376
2015-12-28,33.2,33.2,32.25,32.35,4906300
2015-12-29,32.45,32.55,32.0,32.15,3719600
2015-12-30,32.5,32.5,31.1,31.3,10368636
2015-12-31,31.55,32.0,31.5,31.9,3102600
2016-01-04,31.65,31.65,29.65,30.05,11876974
2016-01-05,29.65,30.4,29.25,29.75,7466886
2016-01-06,30.0,30.2,29.3,29.85,7213745
2016-01-07,29.5,29.5,27.55,28.15,13684525
2016-01-08,28.75,29.05,28.0,28.6,11055105
2016-01-11,27.2,27.65,26.55,27.1,13406377
2016-01-12,27.4,27.6,26.8,27.25,7924059
2016-01-13,27.8,28.3,27.3,27.55,9323741
2016-01-14,26.9,27.75,26.8,27.6,7904595
2016-01-15,27.3,27.55,26.2,26.25,15342771
2016-01-18,26.1,26.45,25.75,25.85,12617778
2016-01-19,26.0,27.8,25.7,27.55,16714276
2016-01-20,26.75,26.9,25.25,25.65,15960447
2016-01-21,25.65,26.55,25.25,25.45,13623355
2016-01-22,26.5,26.7,25.9,26.45,13323027
2016-01-25,26.7,27.15,25.9,26.15,8217820
2016-01-26,25.8,25.85,24.8,25.2,12547443
2016-01-27,25.85,26.1,25.35,25.8,9070591
2016-01-28,26.1,26.7,25.8,26.55,12190450
2016-01-29,26.5,27.4,26.25,27.3,14183313
2016-02-01,26.95,27.35,26.15,26.5,8644135
2016-02-02,26.15,26.2,25.75,26.05,15216200
2016-02-03,25.5,25.5,24.9,25.0,12311336
2016-02-04,26.0,26.1,25.15,25.3,7699085
2016-02-05,25.9,26.7,25.9,26.35,10336035
2016-02-11,25.0,25.0,24.3,24.5,8338795
2016-02-12,23.8,24.9,23.7,24.15,11313015
2016-02-15,25.0,25.8,24.8,25.65,18451058
2016-02-16,26.05,26.35,25.4,25.85,9614868
2016-02-17,26.05,26.4,25.55,25.7,8351220
2016-02-18,26.5,27.2,26.2,27.0,13811320
2016-02-19,26.8,27.05,26.3,26.85,8432430
2016-02-22,26.85,27.35,26.65,26.75,7690724
2016-02-23,26.75,26.85,26.05,26.1,11921400
2016-02-24,25.8,26.15,25.3,25.75,8137220
2016-02-25,25.95,26.15,24.6,24.95,10212677
2016-02-26,25.8,26.0,25.15,25.35,8883268
2016-02-29,25.2,25.55,24.8,25.15,4557382
2016-03-01,25.2,25.3,24.5,25.1,7058130
2016-03-02,25.8,26.7,25.75,26.4,9974099
2016-03-03,26.4,26.65,25.8,26.4,6412976
2016-03-04,26.6,26.75,26.1,26.55,10555498
2016-03-07,27.0,27.0,26.35,26.45,7751895
2016-03-08,26.05,26.1,25.4,25.6,10316680
2016-03-09,25.3,25.45,25.1,25.4,8319109
2016-03-10,25.45,25.9,25.3,25.6,6389104
2016-03-11,25.55,26.3,25.35,26.2,9479282
2016-03-14,26.95,27.2,26.5,26.75,8737191
2016-03-15,26.4,26.7,26.1,26.5,8077143
2016-03-16,26.35,26.9,26.2,26.45,6390352
2016-03-17,27.0,27.6,26.9,27.3,8453392
2016-03-18,27.15,27.95,27.0,27.35,10888698
2016-03-21,27.45,28.9,27.4,28.45,14879250
2016-03-22,28.4,28.5,27.9,28.05,8651474
2016-03-23,27.75,28.4,27.7,28.0,7803603
2016-03-24,27.5,28.1,27.4,27.8,6600355
2016-03-29,28.3,28.3,27.6,28.1,10951289
2016-03-30,28.5,29.4,28.35,29.25,12317667
2016-03-31,29.5,29.5,28.85,29.0,10357804
2016-04-01,29.45,29.45,27.7,28.1,14292167
2016-04-05,27.5,28.15,27.35,27.9,8666415
2016-04-06,27.5,27.85,27.4,27.6,6292756
2016-04-07,27.85,28.0,27.1,27.55,12422870
2016-04-08,27.1,27.7,27.0,27.6,11591260
2016-04-11,27.1,27.9,27.1,27.65,5537760
2016-04-12,27.35,27.7,27.2,27.6,5379921
2016-04-13,27.8,29.2,27.75,28.95,11688936
2016-04-14,29.3,29.7,29.2,29.4,15146092
2016-04-15,29.6,29.65,29.1,29.5,7492694
2016-04-18,29.1,29.3,28.5,29.05,7055012
2016-04-19,29.4,29.45,28.75,29.3,7025484
2016-04-20,28.9,29.1,28.2,28.85,13673301
2016-04-21,29.1,29.55,28.9,29.55,9924731
2016-04-22,29.05,29.15,28.5,29.0,9484759
2016-04-25,28.7,28.95,28.05,28.15,12081082
2016-04-26,28.55,28.55,27.7,28.45,7514025
2016-04-27,28.15,28.55,27.9,28.25,5110287
2016-04-28,28.3,28.7,27.8,28.3,6677192
2016-04-29,27.6,28.0,27.25,27.4,14797382
2016-05-03,27.4,27.4,26.1,26.6,18805924
2016-05-04,26.35,26.85,26.3,26.4,12196433
2016-05-05,26.1,26.3,25.6,26.0,17543560
2016-05-06,25.95,25.95,25.2,25.3,15639808
2016-05-09,25.5,25.5,25.05,25.2,10835970
2016-05-10,24.85,25.5,24.85,25.45,11435882
2016-05-11,25.6,25.8,25.2,25.7,13733636
2016-05-12,25.5,25.55,25.1,25.4,8647808
2016-05-13,25.1,25.5,25.0,25.35,8462694
2016-05-16,25.15,25.95,24.9,25.5,7586363
2016-05-17,25.7,25.9,25.4,25.8,7109200
2016-05-18,25.3,25.6,25.2,25.55,4858431
2016-05-19,25.4,25.85,25.3,25.4,7391600
2016-05-20,25.2,26.15,25.2,25.7,7696430
2016-05-23,25.45,26.0,25.45,25.6,6585388
2016-05-24,25.45,25.5,25.05,25.3,12588240
2016-05-25,25.9,26.3,25.8,26.1,9453653
2016-05-26,26.15,26.25,25.75,25.9,6023451
2016-05-27,26.0,26.15,25.55,25.95,9504295
2016-05-30,25.95,26.4,25.55,26.2,11608640
2016-05-31,26.05,27.0,26.05,26.55,14600540
2016-06-01,26.35,26.8,26.25,26.4,6452793
2016-06-02,26.55,26.9,26.35,26.75,5804882
2016-06-03,26.7,27.05,26.6,26.7,5231200
2016-06-06,26.95,27.1,26.5,26.9,5179400
2016-06-07,27.1,27.7,26.95,27.5,11659087
2016-06-08,27.2,27.6,27.05,27.5,8078526
2016-06-10,27.25,27.3,26.5,26.55,8521400
2016-06-13,25.9,26.15,25.65,25.85,12258218
2016-06-14,25.7,25.95,25.55,25.65,5328769
2016-06-15,25.3,26.25,25.25,25.9,7564954
2016-06-16,25.4,25.65,25.3,25.4,13042259
2016-06-17,25.75,26.05,25.65,25.95,7474565
2016-06-20,26.35,26.6,25.9,26.6,8905596
2016-06-21,25.1,25.6,25.1,25.6,7000887
2016-06-22,25.55,25.95,25.4,25.9,7769664
2016-06-23,25.9,26.05,25.45,25.9,6754704
2016-06-24,24.6,26.05,24.4,25.15,17945852
2016-06-27,24.4,25.05,24.4,24.95,9954400
2016-06-28,24.3,25.15,24.25,24.95,8127515
2016-06-29,25.0,25.3,24.8,25.2,5788996
2016-06-30,25.6,26.15,25.3,26.1,14802566
2016-07-04,26.25,26.65,26.05,26.5,7281967
2016-07-05,26.25,26.45,25.85,25.9,3968800
2016-07-06,25.45,25.8,25.2,25.45,6040643
2016-07-07,25.6,25.75,25.45,25.65,2737494
2016-07-08,25.6,25.6,25.15,25.3,6553913
2016-07-11,25.65,26.05,25.55,25.85,7602243
2016-07-12,26.1,26.65,26.05,26.55,11054242
2016-07-13,26.7,27.2,26.55,27.15,13354941
2016-07-14,27.15,27.45,26.9,27.4,11368130
2016-07-15,27.5,28.8,27.35,28.55,25848686
2016-07-18,28.5,28.7,28.2,28.55,8511034
2016-07-19,28.25,28.35,27.85,27.95,8634168
2016-07-20,27.75,28.25,27.75,27.85,6171356
2016-07-21,27.85,28.25,27.85,28.0,5942699
2016-07-22,27.55,27.85,27.35,27.55,7165202
2016-07-25,27.65,27.8,27.05,27.55,5227396
2016-07-26,27.3,28.3,27.25,27.85,11526208
2016-07-27,27.8,28.35,27.7,27.9,11717660
2016-07-28,27.75,28.1,27.65,27.95,6027752
2016-07-29,27.55,27.8,27.3,27.4,7730788
2016-08-01,27.6,28.0,27.5,27.6,7760352
2016-08-03,27.3,27.55,27.1,27.2,7811057
2016-08-04,27.5,27.65,27.15,27.4,5233315
2016-08-05,27.65,27.9,27.5,27.8,4524480
2016-08-08,28.0,28.4,27.85,28.2,4514721
2016-08-09,27.95,28.25,27.75,28.25,3709196
2016-08-10,28.3,28.6,28.1,28.35,5264900
2016-08-11,28.3,28.75,27.9,28.55,11825903
2016-08-12,28.9,29.25,28.7,28.9,7961310
2016-08-15,28.75,29.55,28.75,29.3,17122956
2016-08-16,29.4,29.65,28.7,28.95,12742056
2016-08-17,28.9,29.0,28.5,28.65,10974850
2016-08-18,28.85,28.85,28.3,28.4,10562200
2016-08-19,28.6,28.6,27.8,28.1,9386917
2016-08-22,28.3,28.3,27.5,27.95,10984091
2016-08-23,27.85,27.95,27.45,27.8,9071900
2016-08-24,27.7,28.1,27.4,27.75,12145200
2016-08-25,27.75,27.85,27.5,27.75,9824200
2016-08-26,27.65,28.05,27.65,27.95,7892095
2016-08-29,27.6,27.7,27.45,27.65,7855243
2016-08-30,27.85,27.9,27.3,27.65,10781123
2016-08-31,27.55,27.6,27.0,27.3,15069870
2016-09-01,27.3,27.75,27.1,27.65,9375389
2016-09-02,27.5,28.25,27.3,27.9,16240599
2016-09-05,28.3,29.2,28.3,28.65,9813536
2016-09-06,29.0,29.05,28.55,28.85,7068128
2016-09-07,29.0,30.4,28.65,29.7,17215600
2016-09-08,29.95,30.15,29.45,29.85,8416998
2016-09-09,29.85,31.0,29.85,30.25,12884571
2016-09-12,29.4,29.75,29.15,29.4,14519748
2016-09-13,29.55,29.75,28.85,28.95,6931311
2016-09-14,28.95,29.3,28.55,28.9,7818876
2016-09-15,28.75,29.05,28.5,28.75,7956675
2016-09-19,29.0,29.4,28.9,29.05,5748302
2016-09-20,28.75,29.05,28.65,28.95,5681429
2016-09-21,29.1,29.8,28.85,29.45,8048700
2016-09-22,29.9,30.5,29.5,29.8,10031610
2016-09-23,29.8,29.9,29.4,29.8,7900800
2016-09-26,29.6,29.7,28.95,29.25,6828635
2016-09-27,29.1,29.65,29.0,29.45,9703617
2016-09-28,29.35,29.4,28.8,29.05,5617409
2016-09-29,29.25,29.4,28.85,29.05,5257785
2016-09-30,28.65,29.1,28.5,28.65,12475932
2016-10-03,29.0,29.55,28.95,29.45,7178359
2016-10-04,29.6,29.7,29.15,29.6,4984552
2016-10-05,29.6,29.9,29.2,29.85,3747870
2016-10-06,29.8,30.15,29.65,29.9,4608744
2016-10-07,29.9,30.0,29.6,29.75,3961400
2016-10-11,30.0,30.1,29.15,29.65,8513100
2016-10-12,29.35,29.5,29.05,29.5,8547755
2016-10-13,29.0,29.2,28.45,28.6,11599916
2016-10-14,28.5,29.15,28.4,28.8,10652460
2016-10-17,28.4,28.95,28.0,28.95,11589040
2016-10-18,28.95,29.6,28.8,29.35,6619020
2016-10-19,29.35,29.4,28.9,29.3,2754228
2016-10-20,29.45,29.45,28.95,29.25,5041395
2016-10-24,28.75,29.45,28.55,29.4,8138350
2016-10-25,29.0,29.5,28.95,29.35,2907580
2016-10-26,29.15,29.15,28.55,28.7,6982315
2016-10-27,28.55,28.85,28.05,28.4,10472200
2016-10-28,28.25,28.45,27.9,28.0,7412238
2016-10-31,27.7,28.4,27.6,28.05,8218775
2016-11-01,28.45,28.7,28.35,28.4,5991441
2016-11-02,28.05,28.05,27.65,27.9,9297547
2016-11-03,27.85,28.1,27.7,27.8,5947484
2016-11-04,27.7,28.05,27.7,27.75,3118624
2016-11-07,27.7,28.25,27.65,28.05,5417741
2016-11-08,28.25,28.4,27.95,28.25,6317346
2016-11-09,28.55,28.55,26.45,27.5,23426226
2016-11-10,28.0,28.15,27.7,27.85,7976897
2016-11-11,27.45,27.55,27.1,27.45,11234865
2016-11-14,26.95,27.45,26.6,27.3,11163779
2016-11-15,27.2,28.05,27.15,27.9,12002199
2016-11-16,28.0,28.3,27.8,27.85,9783108
2016-11-17,27.4,27.9,27.4,27.75,8271110
2016-11-18,27.95,28.25,27.75,28.2,5834697
2016-11-21,28.1,29.35,28.05,29.1,17363278
2016-11-22,29.3,29.95,29.2,29.8,19048632
2016-11-23,29.65,30.2,29.55,30.05,18064528
2016-11-24,29.8,30.25,29.5,29.95,9670800
2016-11-25,29.95,30.5,29.85,30.25,8037052
2016-11-28,30.25,30.85,30.25,30.55,13136441
2016-11-29,30.05,30.4,29.8,30.1,14950077
2016-11-30,30.2,30.45,29.85,30.15,13884873
2016-12-01,30.4,30.6,29.9,30.0,6289524
2016-12-02,29.65,30.05,29.6,29.65,10550760
2016-12-05,29.7,29.85,29.05,29.4,8488844
2016-12-06,29.6,30.1,29.6,29.7,4876800
2016-12-07,30.0,30.0,29.6,29.85,5077684
2016-12-08,30.4,30.4,29.95,30.0,8498084
2016-12-09,30.15,30.4,29.9,30.15,6048512
2016-12-12,30.25,30.25,29.25,29.4,9511968
2016-12-13,29.2,29.5,28.8,29.25,8120209
2016-12-14,29.45,29.45,28.85,29.0,7032020
2016-12-15,28.8,28.8,28.1,28.4,10671200
2016-12-16,28.45,28.8,28.15,28.5,7866717
2016-12-19,28.5,28.5,27.75,28.15,7019425
2016-12-20,28.0,28.2,27.55,27.8,4953255
2016-12-21,27.8,28.1,27.7,27.8,6618751
2016-12-22,27.7,27.85,26.8,26.95,11970390
2016-12-23,26.75,26.95,26.35,26.6,9161136
2016-12-28,26.95,27.35,26.75,26.75,7486458
2016-12-29,26.5,27.0,26.5,26.8,3692858
2016-12-30,27.2,27.5,26.95,27.05,6706752
2017-01-03,27.0,27.35,26.55,27.3,5651085
2017-01-04,27.45,27.5,26.95,27.2,3978793
2017-01-05,27.25,27.85,27.25,27.6,5774895
2017-01-06,27.8,27.9,27.45,27.65,4342727
2017-01-09,27.65,27.7,27.25,27.5,4290216
2017-01-10,27.45,27.95,27.35,27.7,5417400
2017-01-11,27.7,28.05,27.3,27.7,5237987
2017-01-12,28.2,28.25,27.75,28.05,7922178
2017-01-13,28.05,28.15,27.5,28.05,5067036
2017-01-16,27.95,27.95,27.35,27.6,5768900
2017-01-17,27.7,27.75,27.5,27.55,2739580
2017-01-18,27.65,28.1,27.55,27.9,6881803
2017-01-19,27.8,27.9,27.55,27.85,4780864
2017-01-20,27.8,27.8,27.1,27.45,9531353
2017-01-23,27.6,27.7,27.4,27.45,6964430
2017-01-24,27.65,27.7,27.35,27.65,13546317
2017-01-25,27.6,27.8,27.4,27.7,5630570
2017-01-26,27.9,28.25,27.6,27.95,5224769
2017-01-27,27.75,28.15,27.6,27.8,3092992
2017-02-01,27.6,27.75,27.25,27.45,8370441
2017-02-02,27.5,27.5,26.9,27.05,6902936
2017-02-03,27.2,27.35,27.0,27.25,9396940
2017-02-06,27.4,28.95,27.3,28.8,21761928
2017-02-07,28.5,29.15,28.3,28.9,17442788
2017-02-08,28.75,29.0,28.3,28.9,13532989
2017-02-09,28.75,29.15,28.55,29.1,12319020
2017-02-10,29.25,29.6,28.85,29.4,16569425
2017-02-13,29.5,29.75,28.95,29.5,14179859
2017-02-14,29.6,29.65,29.0,29.55,10823302
2017-02-15,29.55,29.8,29.0,29.55,20252106
2017-02-16,29.6,30.0,29.05,29.45,17472468
2017-02-17,29.3,29.7,28.9,29.2,9803205
2017-02-20,29.45,29.5,29.15,29.3,5337600
2017-02-21,29.55,29.7,29.15,29.25,7047296
2017-02-22,29.8,29.8,29.4,29.5,10924625
2017-02-23,29.5,29.5,29.15,29.4,12427296
2017-02-24,29.35,29.4,29.15,29.25,6860053
2017-02-27,29.1,29.3,28.9,29.1,12526360
2017-02-28,29.2,29.2,28.4,28.45,16484149
2017-03-01,28.9,28.9,28.3,28.6,9453730
2017-03-02,28.85,29.05,28.4,28.55,9033105
2017-03-03,28.4,28.55,28.05,28.35,14324251
2017-03-06,28.7,28.7,28.4,28.45,4584016
2017-03-07,28.5,28.75,28.35,28.45,5735550
2017-03-08,28.45,28.85,28.2,28.7,5451597
2017-03-09,28.65,28.7,28.3,28.4,7646600
2017-03-10,28.6,28.6,28.35,28.4,5677675
2017-03-13,28.65,29.25,28.4,28.85,7497322
2017-03-14,28.75,29.05,28.65,28.95,7745962
2017-03-15,28.95,29.1,28.6,28.85,5547697
2017-03-16,30.0,30.0,29.2,29.35,11019925
2017-03-17,29.45,29.85,29.4,29.5,19307676
2017-03-20,29.75,29.75,29.3,29.75,9701700
2017-03-21,29.75,29.9,29.5,29.7,9439061
2017-03-22,29.15,29.7,28.65,28.95,11443107
2017-03-23,28.95,29.0,28.4,28.55,12337380
2017-03-24,28.95,28.95,28.4,28.5,5747302
2017-03-27,28.2,28.7,28.0,28.2,8534630
2017-03-28,28.2,28.5,28.05,28.1,4974813
2017-03-29,28.8,28.8,28.1,28.3,8497515
2017-03-30,28.3,28.5,28.0,28.15,7331152
2017-03-31,28.25,28.3,27.9,28.05,9536094
2017-04-03,28.2,28.6,28.2,28.4,10249643
2017-04-05,28.6,28.95,28.4,28.9,16089937
2017-04-06,28.8,29.0,28.65,28.75,7112000
2017-04-07,28.95,28.95,28.15,28.7,7539341
2017-04-10,28.9,28.95,28.55,28.8,9176466
2017-04-11,28.85,28.85,28.2,28.7,8144780
2017-04-12,28.8,28.8,28.3,28.45,16660350
2017-04-13,28.4,28.7,28.35,28.4,3681018
2017-04-18,28.55,28.6,27.9,28.05,7329471
2017-04-19,28.15,28.3,27.65,27.9,6358386
2017-04-20,28.35,28.35,27.9,28.2,5548407
2017-04-21,28.35,28.35,27.9,28.0,4467052
2017-04-24,28.3,28.45,27.95,28.15,7311200
2017-04-25,28.3,28.8,28.2,28.55,11140690
2017-04-26,28.6,29.35,28.6,29.15,16220402
2017-04-27,29.15,29.35,28.85,29.1,11445850
2017-04-28,29.2,29.5,28.75,28.75,9610250
2017-05-02,29.0,29.2,28.6,28.65,7453689
2017-05-04,28.2,28.6,28.15,28.2,8414949
2017-05-05,28.1,28.3,27.6,27.8,6567400
2017-05-08,28.05,28.3,27.75,28.05,7406800
2017-05-09,28.2,28.45,28.05,28.2,6630188
2017-05-10,28.25,29.2,28.05,28.55,14366900
2017-05-11,28.4,29.1,28.4,28.6,9437122
2017-05-12,28.45,29.25,28.3,29.1,16679728
2017-05-15,29.5,29.85,29.35,29.55,13635098
2017-05-16,29.85,29.85,29.1,29.35,8853400
2017-05-17,29.1,29.25,28.8,29.0,6531952
2017-05-18,28.6,28.8,28.45,28.55,7472888
2017-05-19,28.7,28.95,28.3,28.55,4655749
2017-05-22,28.6,29.35,28.55,28.95,8003276
2017-05-23,28.8,29.65,28.75,28.95,16095252
2017-05-24,29.4,29.4,28.65,28.85,7853138
2017-05-25,29.2,30.1,29.15,29.9,19637592
2017-05-26,30.05,30.3,29.75,29.85,11069078
2017-05-29,29.9,30.1,29.7,29.95,4531620
2017-05-31,30.25,31.6,30.0,31.2,25256752
2017-06-01,31.2,31.3,30.55,31.1,14782477
2017-06-02,30.95,31.3,30.95,31.1,12205557
2017-06-05,31.1,31.2,30.45,30.65,14683378
2017-06-06,30.85,30.9,30.3,30.8,9122729
2017-06-07,30.7,31.6,30.7,31.4,14213054
2017-06-08,31.4,31.8,30.85,31.45,10642377
2017-06-09,31.75,32.1,30.9,31.1,23712168
2017-06-12,31.05,31.75,30.65,30.8,17014800
2017-06-13,30.6,30.8,30.15,30.5,13592562
2017-06-14,30.9,30.9,29.9,30.0,13900116
2017-06-15,29.5,29.85,29.3,29.45,13043279
2017-06-16,29.7,29.9,29.4,29.75,10642462
2017-06-19,29.9,30.35,29.8,30.2,9562600
2017-06-20,30.6,30.6,29.65,29.85,8688349
2017-06-21,29.75,29.85,29.15,29.3,11682276
2017-06-22,29.45,30.6,29.3,29.85,15554243
2017-06-23,30.15,30.15,29.7,29.9,8257981
2017-06-26,30.25,31.05,30.15,30.85,17146200
2017-06-27,31.05,32.35,31.0,32.25,36257000
2017-06-28,32.0,32.1,31.35,31.9,17925636
2017-06-29,32.25,32.25,31.5,32.0,13075186
2017-06-30,31.45,32.0,31.4,31.9,11252985
2017-07-03,31.9,32.4,31.75,32.15,14383811
2017-07-04,32.0,32.5,31.35,31.65,18758000
2017-07-05,31.5,32.65,31.1,32.5,21547564
2017-07-06,32.35,32.7,32.15,32.3,24880444
2017-07-07,32.0,32.4,31.85,31.95,22190512
2017-07-10,32.1,32.8,31.7,31.7,24586244
2017-07-11,31.7,32.85,31.7,32.55,29708000
2017-07-12,32.5,32.8,32.0,32.4,17450120
2017-07-13,32.65,33.35,32.6,33.2,17895480
2017-07-14,33.2,33.4,32.95,33.3,7921251
2017-07-17,33.5,34.35,33.3,33.95,25387724
2017-07-18,33.85,34.5,33.75,34.0,24832374
2017-07-19,34.1,34.85,34.1,34.45,19183060
2017-07-20,34.0,34.6,34.0,34.35,8479120
2017-07-21,34.6,34.6,33.75,33.9,7632120
2017-07-24,33.9,34.6,33.75,34.2,7951854
2017-07-25,34.2,34.5,33.7,34.35,8272210
2017-07-26,34.3,34.4,33.65,34.1,10479093
2017-07-27,33.95,34.5,33.9,34.25,11991095
2017-07-28,33.95,34.45,33.75,34.25,9944938
2017-07-31,34.2,34.65,34.15,34.5,5345645
2017-08-01,35.0,36.6,34.75,36.25,20995240
2017-08-02,36.8,38.35,36.45,37.0,31501348
2017-08-03,36.8,37.0,36.25,36.4,13305009
2017-08-04,36.25,36.6,36.05,36.2,5031002
2017-08-07,36.6,37.0,36.35,36.6,5537071
2017-08-08,36.55,36.75,36.2,36.35,8324235
2017-08-09,36.0,36.15,35.45,35.55,10945601
2017-08-10,35.4,35.75,34.15,34.7,18614004
2017-08-11,34.1,34.65,33.7,34.0,19850792
2017-08-14,34.05,34.9,34.05,34.6,9219572
2017-08-15,34.55,35.6,34.55,34.75,15045423
2017-08-16,34.5,35.1,34.4,34.7,9148052
2017-08-17,34.75,35.0,34.3,34.7,10756200
2017-08-18,34.15,34.85,34.15,34.4,11982676
2017-08-21,34.5,35.2,34.2,34.7,10044023
2017-08-22,35.15,36.95,35.1,36.65,20928000
2017-08-24,37.2,37.3,36.4,36.8,15024635
2017-08-25,36.65,37.7,36.4,37.5,20464472
2017-08-28,37.9,39.1,37.85,38.1,33952536
2017-08-29,38.3,38.3,36.75,36.75,26644090
2017-08-30,37.4,38.15,37.0,37.0,24066564
2017-08-31,37.45,37.45,36.7,36.85,9747855
2017-09-01,36.95,37.65,36.65,37.05,19709056
2017-09-04,37.15,37.4,36.25,36.5,13203419
2017-09-05,36.6,37.15,36.4,36.55,15006369
2017-09-06,36.6,36.75,36.05,36.45,9926379
2017-09-07,36.85,37.0,35.45,35.6,14125440
2017-09-08,35.95,36.45,35.8,36.3,11264941
2017-09-11,36.45,36.8,35.9,36.0,8832597
2017-09-12,35.65,36.25,35.4,36.0,13582985
2017-09-13,36.45,36.45,35.0,35.5,12586230
2017-09-14,35.45,35.45,34.35,34.4,25823358
2017-09-15,34.35,34.35,33.25,33.85,35768316
2017-09-18,34.25,34.85,34.1,34.6,15352194
2017-09-19,34.5,35.0,34.1,34.25,10779998
2017-09-20,34.0,34.6,34.0,34.45,11674850
2017-09-21,34.1,34.85,33.9,34.55,10786544
2017-09-22,34.35,34.35,33.9,34.05,9622996
2017-09-25,34.0,34.0,33.4,33.6,15765263
2017-09-26,33.45,34.1,33.35,33.65,9167532
2017-09-27,33.65,34.55,33.6,34.3,17396698
2017-09-28,34.15,34.5,33.45,33.45,9944366
2017-09-29,33.35,33.85,33.3,33.65,6039087
2017-10-03,34.0,34.7,33.6,34.45,10963620
2017-10-04,34.65,35.3,34.6,34.95,8697449
2017-10-06,35.4,35.9,35.0,35.1,11776424
2017-10-09,34.85,35.5,34.65,34.7,14887133
2017-10-10,34.8,35.2,34.6,34.9,9963200
2017-10-11,34.75,35.5,34.7,34.75,14412833
2017-10-12,35.0,36.15,34.7,35.95,21436252
2017-10-13,35.95,36.55,35.6,35.75,15431772
2017-10-16,36.05,36.45,35.7,36.15,15436034
2017-10-17,36.45,36.45,35.8,35.85,7253058
2017-10-18,35.95,37.35,35.95,37.05,18716948
2017-10-19,37.2,38.2,36.1,36.1,22398358
2017-10-20,36.6,37.25,36.35,36.85,11180219
2017-10-23,37.35,37.9,36.7,37.5,18584916
2017-10-24,37.2,37.9,36.9,36.95,13591667
2017-10-25,36.9,37.5,36.9,37.2,10404048
2017-10-26,37.05,37.9,36.6,37.65,10896868
2017-10-27,37.5,38.8,37.4,38.45,15927919
2017-10-30,38.45,39.05,37.65,37.65,18906526
2017-10-31,37.2,39.3,37.2,38.45,18836608
2017-11-01,38.5,39.8,38.5,38.85,15133368
2017-11-02,39.2,39.2,38.2,38.3,10989975
2017-11-03,38.4,38.85,38.3,38.55,7821260
2017-11-06,38.25,38.25,36.95,37.75,18030672
2017-11-07,38.0,39.1,37.95,38.4,12277838
2017-11-08,38.15,38.9,37.9,38.05,9264308
2017-11-09,38.4,39.65,38.1,39.3,16492643
2017-11-10,38.75,40.4,38.75,40.1,18195012
2017-11-13,40.05,40.65,39.15,39.55,14796878
2017-11-14,39.7,39.95,38.75,38.75,16247601
2017-11-15,38.0,38.7,37.45,37.65,18817600
2017-11-16,37.9,39.5,37.7,39.05,15712200
2017-11-17,39.45,40.2,38.95,38.95,19423428
2017-11-20,38.85,39.4,38.2,38.5,19379460
2017-11-21,38.45,41.8,38.45,41.4,43036208
2017-11-22,41.95,42.3,40.55,41.2,24933084
2017-11-23,41.4,41.85,38.95,39.25,23854920
2017-11-24,39.8,40.7,39.15,40.55,21632368
2017-11-27,40.1,40.35,39.2,39.5,19534644
2017-11-28,39.1,39.75,38.7,39.45,17885864
2017-11-29,39.85,40.1,38.8,39.0,13973285
2017-11-30,38.25,38.5,37.0,37.25,25398732
2017-12-01,37.65,38.0,36.6,36.95,22728076
2017-12-04,37.0,38.75,36.4,38.05,20551492
2017-12-05,37.6,38.7,37.55,38.2,12605569
2017-12-06,38.15,38.45,36.5,37.0,19522466
2017-12-07,37.15,38.0,36.55,37.35,15380190
2017-12-08,37.7,38.75,37.45,38.2,11706084
2017-12-11,38.05,39.75,38.0,39.35,14602725
2017-12-12,39.15,39.6,38.1,38.4,14552837
2017-12-13,38.3,38.5,37.05,37.55,30479196
2017-12-14,37.45,37.7,37.1,37.65,15857079
2017-12-15,37.8,37.8,37.0,37.25,17164536
2017-12-18,37.45,37.8,37.0,37.1,13309890
2017-12-19,37.45,38.55,37.4,37.95,20220572
2017-12-20,37.85,38.3,37.6,37.85,11357944
2017-12-21,37.35,38.25,37.15,37.9,13689700
2017-12-22,38.3,38.4,37.7,37.95,9739750
2017-12-27,38.25,38.3,37.1,37.35,13402190
2017-12-28,37.55,38.0,37.25,37.9,10706110
2017-12-29,37.95,38.1,37.45,37.55,8462337
2018-01-02,37.7,38.75,37.7,38.4,17817296
2018-01-03,38.75,39.45,38.6,38.8,23679840
2018-01-04,39.6,39.7,38.75,39.0,25394328
2018-01-05,39.15,39.45,37.55,38.0,21413218
2018-01-08,37.8,38.4,37.0,37.35,22861712
2018-01-09,37.8,37.95,37.3,37.45,20224060
2018-01-10,37.45,37.6,36.8,36.95,24670860
2018-01-11,36.9,37.2,36.55,36.85,22083504
2018-01-12,36.8,37.9,36.7,37.5,27610336
2018-01-15,37.85,39.25,37.7,38.6,37611864
2018-01-16,39.15,39.95,38.65,39.7,27370556
2018-01-17,39.4,39.95,38.9,39.65,21264800
2018-01-18,39.65,40.5,39.65,40.15,30161300
2018-01-19,40.55,40.6,39.6,40.35,16498100
2018-01-22,40.6,41.4,40.05,40.95,24366290
2018-01-23,41.95,42.2,41.2,41.85,26718756
2018-01-24,42.3,42.4,41.15,41.45,30044942
2018-01-25,41.9,41.9,39.65,40.65,27213556
2018-01-26,40.9,41.35,40.2,40.9,19352400
2018-01-29,41.0,41.3,39.45,39.8,23779314
2018-01-30,40.0,40.2,38.85,39.0,25246752
2018-01-31,39.0,40.05,38.6,39.7,19407176
2018-02-01,39.5,40.25,39.4,39.6,14425790
2018-02-02,39.3,40.9,39.3,40.3,16735307
2018-02-05,39.1,41.8,39.1,40.85,30434826
2018-02-06,39.0,40.15,38.5,39.2,35724144
2018-02-07,41.2,41.3,37.85,38.25,41873884
2018-02-08,38.65,38.65,37.15,37.7,31474496
2018-02-09,36.4,36.5,34.8,36.3,38620672
2018-02-12,36.6,36.9,35.7,36.1,25864734
2018-02-13,36.75,37.45,36.2,36.3,17270564
2018-02-14,36.5,37.1,36.25,36.8,9468105
2018-02-15,37.4,38.05,37.3,37.8,11454828
2018-02-20,37.85,38.0,37.0,37.25,10597710
2018-02-21,37.4,38.2,37.05,37.8,10672850
2018-02-22,37.2,38.9,37.2,38.1,19339854
2018-02-23,38.45,39.5,38.45,39.05,15775600
2018-02-26,39.95,40.1,39.05,39.75,13776482
2018-02-27,39.95,40.05,38.7,39.15,13580067
2018-02-28,39.2,39.2,38.15,38.5,12266438
2018-03-01,38.0,39.1,37.8,38.8,14131600
2018-03-02,38.0,38.4,37.65,38.2,14867305
2018-03-05,37.8,38.4,36.95,37.35,11488590
2018-03-06,38.0,38.6,37.45,38.15,18796488
2018-03-07,37.9,38.55,37.1,37.7,13887495
2018-03-08,38.0,39.25,37.95,38.35,14434100
2018-03-09,39.0,39.35,38.65,38.8,10579829
2018-03-12,39.5,39.5,38.65,39.0,18322990
2018-03-13,39.0,40.0,38.5,39.0,12821701
2018-03-14,38.95,39.1,38.25,38.9,9128606
2018-03-15,38.6,40.4,38.45,40.1,22542632
2018-03-16,39.8,41.65,39.7,40.45,25618476
2018-03-19,40.1,41.4,39.7,40.85,18626120
2018-03-20,40.0,41.0,39.7,39.7,20525072
2018-03-21,40.9,41.1,38.4,38.75,32345170
2018-03-22,38.5,39.3,37.65,37.85,22976200
2018-03-23,37.0,37.1,35.85,37.1,25882808
2018-03-26,37.65,37.65,36.1,37.1,17327360
2018-03-27,37.5,37.8,36.35,36.8,20701780
2018-03-28,36.2,36.45,35.05,35.35,22574686
2018-03-29,35.6,35.95,34.65,35.15,20740964
2018-04-03,34.15,34.9,33.7,34.75,26805392
2018-04-04,34.8,35.25,34.1,34.15,11452450
2018-04-06,33.9,35.35,33.9,34.45,14575688
2018-04-09,34.8,35.25,34.3,34.7,22644036
2018-04-10,34.5,35.9,34.4,35.4,27149556
2018-04-11,35.6,35.9,35.2,35.55,13119608
2018-04-12,35.8,35.8,34.5,34.85,20335736
2018-04-13,35.0,35.25,34.4,34.75,12261146
2018-04-16,34.85,35.1,34.0,34.55,18681544
2018-04-17,34.35,34.8,33.15,33.55,29880712
2018-04-18,34.3,34.3,33.35,33.85,16673661
2018-04-19,34.3,34.65,33.95,34.3,18303632
2018-04-20,33.9,34.6,33.6,34.05,19099976
2018-04-23,33.5,34.2,33.5,33.8,15270228
2018-04-24,34.1,35.2,33.9,34.7,17587012
2018-04-25,34.4,34.95,34.3,34.6,12612300
2018-04-26,35.05,35.2,33.85,34.15,13164346
2018-04-27,34.8,35.1,34.1,34.55,17515252
2018-04-30,35.05,35.35,34.7,34.95,13911551
2018-05-02,34.25,34.6,34.1,34.35,20361656
2018-05-03,34.45,34.45,33.5,34.2,18535550
2018-05-04,34.1,34.6,33.5,33.8,11779656
2018-05-07,34.4,34.95,33.8,34.55,19061004
2018-05-08,35.0,36.8,34.8,36.55,31543182
2018-05-09,36.8,37.25,36.1,36.65,15433641
2018-05-10,36.85,37.1,36.15,36.45,19212004
2018-05-11,36.65,36.85,35.8,36.55,12692792
2018-05-14,36.9,37.45,36.55,37.0,15901344
2018-05-15,37.25,37.25,36.15,36.4,14725997
2018-05-16,36.3,36.4,35.9,36.35,16123632
2018-05-17,36.5,36.5,35.3,35.65,12195990
2018-05-18,35.4,35.7,35.05,35.6,12213847
2018-05-21,36.1,36.3,35.65,35.8,17263684
2018-05-23,35.4,35.5,34.5,34.6,15118049
2018-05-24,34.5,34.75,34.2,34.6,11014270
2018-05-25,34.5,34.5,34.15,34.35,10102300
2018-05-28,34.55,34.6,33.85,34.35,11697200
2018-05-29,33.85,34.35,33.75,34.05,12902782
2018-05-30,33.8,33.9,33.15,33.7,17515200
2018-05-31,34.2,34.3,33.4,33.9,28572022
2018-06-01,33.8,34.6,33.65,34.0,19816196
2018-06-04,34.6,35.15,34.15,34.7,21074660
2018-06-05,34.4,35.3,34.4,34.95,19380154
2018-06-06,35.2,35.6,34.95,35.4,16965884
2018-06-07,35.55,36.3,35.5,36.2,21474460
2018-06-08,36.0,36.15,34.9,35.3,27189088
2018-06-11,35.05,35.45,34.65,35.25,20411634
2018-06-12,35.6,35.65,34.85,35.3,12864397
2018-06-13,35.45,35.45,34.8,35.05,14148013
2018-06-14,35.05,36.0,34.9,35.25,17179256
2018-06-15,34.9,35.35,34.75,34.8,19437530
2018-06-19,34.2,34.25,33.4,33.65,39534920
2018-06-20,32.05,33.3,32.05,32.6,19467020
2018-06-21,32.75,32.75,31.45,31.9,23028272
2018-06-22,32.05,32.25,31.45,32.0,11354927
2018-06-25,31.75,32.2,30.9,31.4,22624750
2018-06-26,31.7,31.7,30.5,31.15,20359468
2018-06-27,31.25,31.25,30.1,30.15,23039212
2018-06-28,30.0,30.4,29.45,29.85,26002620
2018-06-29,30.0,30.5,29.55,30.35,25186820
2018-07-03,29.45,29.7,28.7,29.45,29859400
2018-07-04,29.65,30.05,28.65,29.0,25191240
2018-07-05,29.0,29.2,28.05,28.65,41798908
2018-07-06,28.55,29.15,28.15,28.65,24850814
2018-07-09,29.25,30.2,29.15,29.5,22657972
2018-07-10,30.0,30.5,29.85,29.9,20888862
2018-07-11,29.0,29.65,29.0,29.2,18251720
2018-07-12,29.1,30.35,29.1,29.8,16339594
2018-07-13,30.3,30.35,29.8,29.85,9438638
2018-07-16,30.2,30.2,29.15,29.5,13640000
2018-07-17,29.55,29.75,29.1,29.4,10892028
2018-07-18,29.75,29.95,29.35,29.4,10032115
2018-07-19,29.95,30.2,29.25,29.25,16488343
2018-07-20,29.25,30.15,28.8,29.5,22809508
2018-07-23,29.7,30.2,29.5,29.85,24743490
2018-07-24,29.65,31.1,29.65,30.55,35652656
2018-07-25,30.0,31.4,30.0,31.15,20714266
2018-07-26,31.6,31.6,30.4,30.9,19383088
2018-07-27,30.95,30.95,30.35,30.7,12978986
2018-07-30,30.45,31.25,30.35,30.75,15858705
2018-07-31,30.7,31.15,30.5,30.6,16806820
2018-08-01,30.9,31.15,30.1,30.4,17756294
2018-08-02,30.25,30.4,29.2,29.5,21772926
2018-08-03,29.65,29.85,29.3,29.6,23067288
2018-08-06,29.75,30.0,29.05,29.15,28484056
2018-08-07,29.5,30.35,29.15,30.0,28634036
2018-08-08,30.3,30.7,29.8,30.5,17714264
2018-08-09,30.5,31.65,30.25,31.4,21238268
2018-08-10,31.5,31.9,31.3,31.45,12546082
2018-08-13,30.75,31.15,30.25,31.05,15953565
2018-08-14,30.85,31.15,30.4,30.75,9065596
2018-08-15,30.75,30.85,29.6,29.95,19298552
2018-08-16,29.6,30.1,29.0,29.55,25964176
2018-08-17,29.65,30.1,29.4,29.6,12297486
2018-08-20,29.65,29.9,29.3,29.9,17893800
2018-08-21,29.0,30.8,29.0,30.55,16025432
2018-08-22,30.8,31.4,30.45,31.15,22606040
2018-08-23,31.1,31.4,30.15,30.45,19481912
2018-08-24,30.2,30.45,29.95,30.15,8458745
2018-08-27,30.7,31.05,30.5,30.65,14601560
2018-08-28,30.7,31.05,30.5,30.65,11344490
2018-08-29,30.85,30.85,30.15,30.35,9767265
2018-08-30,30.35,30.45,29.5,29.75,14736707
2018-08-31,29.15,29.5,29.1,29.25,12378781
2018-09-03,28.9,29.3,28.75,29.05,7733953
2018-09-04,29.0,29.35,28.8,29.25,13400200
2018-09-05,29.15,29.25,28.35,28.55,12524701
2018-09-06,28.5,28.7,27.85,28.15,11136112
2018-09-07,28.2,28.65,28.0,28.2,17403052
2018-09-10,28.15,28.4,27.55,27.8,8603493
2018-09-11,27.65,28.05,27.15,27.4,9464900
2018-09-12,27.2,27.25,26.6,26.85,11938259
2018-09-13,27.85,27.85,27.3,27.55,16568964
2018-09-14,27.9,28.0,27.45,27.8,11574568
2018-09-17,27.3,27.6,27.3,27.45,6884908
2018-09-18,27.45,27.9,27.15,27.7,15298522
2018-09-19,28.0,28.95,27.9,28.6,24940804
2018-09-20,28.95,29.2,28.65,28.85,8923908
2018-09-21,29.0,29.85,29.0,29.65,18093692
2018-09-24,29.3,29.5,28.65,28.9,7775641
2018-09-26,29.15,30.45,28.85,29.85,32269556
2018-09-27,29.9,30.4,29.7,30.0,11175088
2018-09-28,30.45,30.6,30.05,30.2,7572444
2018-10-02,30.05,30.45,29.0,29.3,11882685
2018-10-03,29.2,29.7,29.15,29.35,7010980
2018-10-04,29.0,29.0,28.45,28.6,8931885
2018-10-05,28.6,28.8,28.25,28.55,8048525
2018-10-08,29.1,29.3,27.95,28.15,16116230
2018-10-09,28.2,28.6,27.95,28.1,9803712
2018-10-10,28.3,28.65,28.05,28.1,8029279
2018-10-11,27.65,27.65,27.0,27.5,15154074
2018-10-12,28.05,28.45,27.6,28.35,12543898
2018-10-15,28.05,28.65,27.8,28.1,10029188
2018-10-16,28.15,28.95,28.05,28.45,13600773
2018-10-18,28.45,28.55,27.65,28.0,13860219
2018-10-19,28.0,29.3,27.65,28.7,24416308
2018-10-22,28.8,30.6,28.8,30.1,30387432
2018-10-23,29.75,30.55,29.45,29.9,24462256
2018-10-24,30.2,30.45,29.35,30.1,19437438
2018-10-25,28.8,30.25,28.8,30.2,15873272
2018-10-26,29.55,29.9,29.0,29.7,19405342
2018-10-29,30.2,30.2,28.25,28.9,23269042
2018-10-30,28.9,29.35,28.3,28.5,19908686
2018-10-31,28.6,29.3,28.5,29.2,13006504
2018-11-01,29.2,30.2,29.0,29.7,10633755
2018-11-02,30.15,31.7,30.15,31.4,33784560
2018-11-05,30.65,31.4,30.55,31.3,16485220
2018-11-06,31.45,31.45,30.7,31.3,9792000
2018-11-07,31.6,31.95,31.05,31.6,13651290
2018-11-08,31.9,31.95,31.15,31.3,12389290
2018-11-09,31.1,31.25,30.0,30.5,14264870
2018-11-12,30.5,30.6,29.95,30.2,9443465
2018-11-13,29.45,30.65,29.45,30.5,10276401
2018-11-14,30.75,30.75,30.0,30.3,7427789
2018-11-15,30.5,30.6,29.9,30.45,10099848
2018-11-16,30.25,30.65,30.0,30.65,5490546
2018-11-19,30.7,30.9,29.95,30.2,11754783
2018-11-20,29.8,29.95,29.1,29.3,12313469
2018-11-21,28.8,29.35,28.8,29.1,9852963
2018-11-22,29.25,29.25,28.0,28.2,19860290
2018-11-23,28.3,28.5,27.6,28.1,11940719
2018-11-26,28.45,28.45,28.0,28.15,10872399
2018-11-27,28.0,28.1,27.5,27.65,21709402
2018-11-28,27.3,27.9,27.3,27.75,15650005
2018-11-29,28.05,28.35,27.5,27.8,16135063
2018-11-30,27.9,28.1,27.6,27.7,12654482
2018-12-03,28.8,29.0,28.3,28.85,17691964
2018-12-04,28.5,29.0,28.5,28.9,9734246
2018-12-05,28.5,28.5,28.25,28.25,8506664
2018-12-06,27.1,27.6,27.1,27.4,14898704
2018-12-07,27.7,27.7,26.8,26.8,19828292
2018-12-10,26.6,26.8,26.2,26.45,11081800
2018-12-11,26.2,26.55,26.15,26.4,7696084
2018-12-12,26.75,26.9,26.5,26.6,5412494
2018-12-13,26.95,27.25,26.7,26.95,8088500
2018-12-14,26.65,26.85,26.35,26.4,9143435
2018-12-17,26.55,26.75,26.25,26.4,10909136
2018-12-18,26.4,26.8,26.15,26.4,12221476
2018-12-19,26.8,26.8,26.0,26.25,9803665
2018-12-20,26.2,26.25,25.55,25.85,8553195
2018-12-21,25.15,25.7,25.15,25.55,18412204
2018-12-24,25.05,25.4,25.05,25.4,4364050
2018-12-27,26.1,26.1,24.95,25.05,5459088
2018-12-28,25.4,25.4,24.9,25.15,6210400
2018-12-31,25.65,25.65,25.15,25.35,3187806
2019-01-02,25.05,25.3,24.5,24.75,8023376
2019-01-03,24.95,24.95,24.4,24.6,9162605
2019-01-04,24.45,25.1,24.2,24.8,9948834
2019-01-07,25.25,25.55,24.6,24.95,15237467
2019-01-08,25.3,25.3,24.35,24.65,9971541
2019-01-09,24.9,25.7,24.65,25.1,13374770
2019-01-10,24.85,25.45,24.85,25.15,11922652
2019-01-11,25.3,25.5,25.1,25.5,10284287
2019-01-14,25.2,25.4,24.75,24.9,12727857
2019-01-15,25.25,25.9,24.9,25.8,15067325
2019-01-16,25.6,26.95,25.6,26.8,22697392
2019-01-17,27.0,27.2,26.5,26.85,19636760
2019-01-18,27.2,27.35,26.9,27.2,9298079
2019-01-21,27.6,27.6,26.9,27.05,17467780
2019-01-22,27.0,27.15,26.55,26.75,9579750
2019-01-23,26.35,26.95,26.2,26.35,13960941
2019-01-24,26.6,26.9,26.35,26.75,12074789
2019-01-25,26.65,27.7,26.65,27.4,13205845
2019-01-28,27.5,27.8,27.3,27.55,13590481
2019-01-29,27.25,27.4,26.9,27.05,10369291
2019-01-30,26.9,27.25,26.3,26.6,17409996
2019-01-31,26.85,27.6,26.7,27.45,20060040
2019-02-01,27.75,27.9,27.45,27.8,19562456
2019-02-04,27.8,27.85,27.5,27.6,3283973
2019-02-08,27.15,27.3,26.4,27.1,10691474
2019-02-11,27.0,27.55,26.9,27.4,11450870
2019-02-12,27.45,28.1,27.3,27.9,15000446
2019-02-13,27.85,29.0,27.85,28.75,19108592
2019-02-14,28.3,28.95,28.3,28.7,14269840
2019-02-15,28.45,28.6,27.95,28.1,11871111
2019-02-18,28.45,29.1,28.4,28.9,15917354
2019-02-19,29.15,29.65,28.6,28.75,15389084
2019-02-20,28.8,29.65,28.8,29.55,28718986
2019-02-21,29.6,30.0,29.15,29.35,16255499
2019-02-22,29.25,30.15,29.05,30.1,21323784
2019-02-25,30.5,31.55,30.45,31.05,45902712
2019-02-26,31.2,31.35,30.35,30.5,23778494
2019-02-27,30.5,30.9,29.9,30.05,15888110
2019-02-28,30.0,30.25,29.4,29.55,16145599
2019-03-01,30.2,30.55,29.65,30.35,20716244
2019-03-04,30.5,31.85,30.5,30.65,23130774
2019-03-05,30.6,30.6,30.15,30.4,10372078
2019-03-06,30.75,30.95,30.45,30.7,14338560
2019-03-07,30.7,30.7,29.3,29.45,21555698
2019-03-08,28.85,29.35,28.5,28.65,25955256
2019-03-11,28.95,28.95,28.45,28.75,14000781
2019-03-12,29.0,29.5,28.8,29.15,15826573
2019-03-13,29.45,29.45,28.8,29.15,17677048
2019-03-14,29.45,29.5,29.05,29.4,12153607
2019-03-15,29.55,30.2,29.3,29.55,19300774
2019-03-18,29.75,29.95,29.4,29.85,12751033
2019-03-19,29.6,29.95,29.5,29.7,11640954
2019-03-20,29.7,29.9,29.35,29.7,11442797
2019-03-21,29.75,30.75,29.6,30.55,30096116
2019-03-22,30.95,30.95,29.95,30.4,16730959
2019-03-25,30.8,31.1,30.25,30.3,31036192
2019-03-26,31.0,31.15,30.4,31.15,24715384
2019-03-27,31.6,31.65,31.05,31.15,18720284
2019-03-28,30.9,31.0,30.2,30.35,21401220
2019-03-29,30.1,30.95,30.1,30.8,25306428
2019-04-01,31.4,32.15,31.35,32.15,21344878
2019-04-02,32.5,32.5,32.0,32.15,12414196
2019-04-03,31.7,32.4,31.7,32.35,23911404
2019-04-04,32.05,32.85,32.05,32.3,22501332
2019-04-08,32.75,33.3,32.65,32.85,19678696
2019-04-09,32.95,33.3,32.7,33.2,17632952
2019-04-10,33.15,33.2,32.35,32.6,18378736
2019-04-11,32.15,32.65,31.45,31.55,29956528
2019-04-12,31.4,31.75,31.2,31.55,21936812
2019-04-15,31.75,32.8,31.75,31.95,34093860
2019-04-16,31.7,33.0,31.7,32.85,23106654
2019-04-17,32.9,33.95,32.8,33.9,23366904
2019-04-18,33.95,34.15,33.45,33.85,18533152
2019-04-23,33.05,33.95,33.05,33.3,17516376
2019-04-24,33.4,33.65,32.8,33.1,12422537
2019-04-25,32.95,33.3,32.4,32.55,18894332
2019-04-26,33.0,33.1,32.5,33.0,10705546
2019-04-29,33.35,33.35,32.7,32.8,14325836
2019-04-30,33.0,33.0,31.85,32.15,15001005
2019-05-02,31.95,32.65,31.95,32.35,11122685
2019-05-03,32.35,32.6,31.85,32.55,5543184
2019-05-06,31.5,31.5,30.35,30.7,31151600
2019-05-07,30.85,31.1,30.55,30.65,17191728
2019-05-08,30.3,30.4,29.75,30.05,21407092
2019-05-09,29.65,29.8,28.8,29.0,23771612
2019-05-10,29.45,30.05,29.0,29.7,15408000
2019-05-14,28.95,29.2,28.7,29.0,13487315
2019-05-15,29.4,29.95,29.25,29.5,13112471
2019-05-16,29.5,29.95,29.3,29.5,12564302
2019-05-17,29.85,29.85,28.7,28.85,11693901
2019-05-20,29.3,29.3,28.35,28.6,15877983
2019-05-21,28.6,29.35,28.5,28.75,14474017
2019-05-22,29.05,29.35,28.7,28.9,6930508
2019-05-23,28.8,28.8,28.2,28.4,12050008
2019-05-24,28.9,28.9,27.95,28.1,21287992
2019-05-27,28.1,28.45,27.6,28.05,14385880
2019-05-28,27.9,28.45,27.9,28.1,23166526
2019-05-29,27.95,29.9,27.85,29.0,39231208
2019-05-30,29.4,29.5,28.9,29.0,10267143
2019-05-31,28.95,29.45,28.85,29.0,13340047
2019-06-03,29.15,29.35,28.8,29.15,11113410
2019-06-04,29.35,29.35,28.7,28.8,11408861
2019-06-05,29.15,29.3,28.8,28.95,8882228
2019-06-06,28.95,29.1,28.65,28.95,5409800
2019-06-10,29.1,29.65,29.0,29.35,12050036
2019-06-11,29.35,30.15,29.3,29.8,16255993
2019-06-12,29.6,29.9,29.4,29.65,9835161
2019-06-13,28.5,28.8,28.0,28.75,14401456
2019-06-14,28.55,28.95,28.4,28.65,13285321
2019-06-17,28.85,29.25,28.75,28.9,13355141
2019-06-18,28.9,29.6,28.85,29.35,13806872
2019-06-19,30.1,30.5,29.9,30.25,16881616
2019-06-20,30.15,31.6,30.15,31.45,20748808
2019-06-21,31.65,31.65,30.85,31.0,16244125
2019-06-24,31.0,31.5,30.9,31.3,9569691
2019-06-25,31.45,31.45,30.55,30.9,11538739
2019-06-26,30.5,30.95,30.35,30.65,8230114
2019-06-27,30.95,31.15,30.5,30.75,9297390
2019-06-28,30.75,30.9,30.45,30.55,8950074
2019-07-02,31.3,31.7,31.05,31.35,14230794
2019-07-03,31.25,31.45,30.8,30.9,14073979
2019-07-04,31.15,31.35,30.7,30.85,14646765
2019-07-05,30.5,31.15,30.5,30.9,6192800
2019-07-08,30.75,30.75,29.8,30.0,14933975
2019-07-09,30.05,30.15,29.6,29.8,9152325
2019-07-10,30.1,30.35,29.8,29.9,17355744
2019-07-11,30.4,30.85,30.0,30.45,17887336
2019-07-12,30.3,31.8,30.3,31.55,30173320
2019-07-15,31.5,31.9,30.8,31.65,22320804
2019-07-16,31.65,32.05,31.55,31.85,12826157
2019-07-17,31.6,32.3,31.5,32.1,10703699
2019-07-18,31.9,33.0,31.7,32.65,15054220
2019-07-19,33.0,33.3,32.75,33.05,10925929
2019-07-22,33.0,33.4,32.75,32.95,12845234
2019-07-23,33.0,33.1,32.3,32.4,13772898
2019-07-24,32.4,33.3,32.4,32.8,14805155
2019-07-25,32.8,33.6,32.7,33.5,20036094
2019-07-26,33.25,33.95,33.15,33.7,13078109
2019-07-29,33.25,33.7,33.0,33.35,13335150
2019-07-30,33.35,34.6,33.35,34.25,22427096
2019-07-31,34.2,34.65,33.45,33.7,17870530
2019-08-01,33.85,33.85,32.95,33.35,23450730
2019-08-02,31.8,32.6,31.8,32.6,18460800
2019-08-05,32.0,32.3,31.5,31.65,21794908
2019-08-06,30.7,31.35,30.65,31.25,25810774
2019-08-07,31.25,31.7,31.1,31.6,16091371
2019-08-08,32.2,32.2,31.65,31.9,17416960
2019-08-09,31.6,32.2,31.6,31.7,12026594
2019-08-12,31.75,32.05,31.6,31.8,9791106
2019-08-13,31.55,32.05,31.25,31.45,13641260
2019-08-14,32.0,32.2,31.05,31.3,16004341
2019-08-15,31.1,31.85,30.85,31.65,23227824
2019-08-16,31.8,32.6,31.6,32.2,18104296
2019-08-19,32.6,33.25,32.2,33.1,14216416
2019-08-20,32.55,33.2,32.55,33.1,15318238
2019-08-21,32.75,34.15,32.65,34.0,19424724
2019-08-22,34.0,34.4,33.6,33.85,17171572
2019-08-23,33.8,34.75,33.65,34.3,16424943
2019-08-26,33.05,33.45,32.55,33.0,23829724
2019-08-27,33.15,33.25,31.45,31.65,31123216
2019-08-28,31.95,32.1,31.3,31.5,20591272
2019-08-29,31.8,31.8,30.8,31.2,19615500
2019-08-30,31.6,31.7,30.95,31.4,16576916
2019-09-02,30.95,31.8,30.95,31.65,11182115
2019-09-03,31.45,31.9,31.25,31.6,11090324
2019-09-04,32.0,32.45,31.6,32.2,17273564
2019-09-05,32.4,33.2,32.15,32.7,9457952
2019-09-06,32.65,33.1,32.5,32.95,10251030
2019-09-09,32.9,33.25,32.3,32.5,6561383
2019-09-10,32.45,32.7,31.95,32.15,9675174
2019-09-11,32.15,32.85,32.15,32.6,6421622
2019-09-12,32.75,32.85,32.35,32.75,6492370
2019-09-13,32.85,33.2,32.45,33.0,3838670
2019-09-16,32.4,33.15,31.75,32.05,19045904
2019-09-17,31.7,31.85,31.1,31.25,17779968
2019-09-18,31.5,31.65,31.2,31.45,9027578
2019-09-19,31.65,31.75,31.0,31.35,10675696
2019-09-20,31.6,31.6,30.65,30.8,19519212
2019-09-23,30.9,30.9,29.75,30.2,14144195
2019-09-24,29.8,30.1,28.7,28.9,37481900
2019-09-25,29.1,29.1,28.6,29.0,18287460
2019-09-26,28.95,29.35,28.65,28.9,21914712
2019-09-27,29.0,29.05,28.6,28.95,13169817
2019-09-30,28.5,28.95,28.5,28.8,10235224
2019-10-02,28.5,28.8,28.25,28.75,17748700
2019-10-03,28.3,28.8,28.0,28.65,9566106
2019-10-04,29.0,29.0,28.05,28.4,10917709
2019-10-08,28.85,29.45,28.55,28.8,13945622
2019-10-09,28.9,29.3,28.55,28.75,9395684
2019-10-10,28.8,29.05,28.45,28.9,11733130
2019-10-11,29.1,29.65,28.95,29.3,14899545
2019-10-14,29.35,30.25,29.35,29.55,13635009
2019-10-15,29.9,29.9,29.4,29.65,6935921
2019-10-16,29.65,30.2,29.5,29.6,9050200
2019-10-17,29.4,29.95,29.4,29.75,6798726
2019-10-18,29.95,30.2,29.2,29.45,8320857
2019-10-21,29.6,30.25,29.5,29.8,7802253
2019-10-22,29.85,30.0,29.45,29.6,8650266
2019-10-23,29.75,29.9,29.25,29.4,7853714
2019-10-24,29.25,29.7,29.25,29.4,8392854
2019-10-25,29.1,29.4,28.8,29.35,8173736
2019-10-28,29.4,29.75,29.3,29.45,7199692
2019-10-29,29.7,29.85,29.1,29.3,8996424
2019-10-30,29.4,29.4,28.45,28.55,16773558
2019-10-31,28.6,28.8,28.35,28.5,19763232
2019-11-01,28.15,29.35,28.15,29.15,30904508
2019-11-04,29.5,30.3,29.35,30.15,21907352
2019-11-05,30.0,30.75,29.95,30.15,12332589
2019-11-06,30.75,30.75,29.8,30.1,13272223
2019-11-07,30.15,30.7,29.95,30.55,15159710
2019-11-08,30.2,30.9,30.2,30.5,8196031
2019-11-11,30.05,30.3,29.45,29.65,9816094
2019-11-12,29.8,30.45,29.65,30.3,6791343
2019-11-13,29.55,30.0,29.2,29.45,8520837
2019-11-14,29.3,29.65,28.8,28.95,8166851
2019-11-15,29.1,29.35,28.85,28.95,7374341
2019-11-18,29.25,29.4,28.85,29.2,8447689
2019-11-19,29.2,29.7,28.85,29.5,14360442
2019-11-20,29.1,29.35,28.8,28.95,11011541
2019-11-21,28.5,28.7,28.3,28.6,9658989
2019-11-22,28.7,28.95,28.5,28.65,6931858
2019-11-25,28.5,29.0,28.5,28.65,7184954
2019-11-26,29.0,29.05,28.55,28.7,10664709
2019-11-27,28.7,28.85,28.5,28.85,3264494
2019-11-28,28.5,28.85,28.5,28.55,4524711
2019-11-29,28.35,28.45,27.5,27.7,15152108
2019-12-02,27.8,28.25,27.8,27.95,6995859
2019-12-03,27.6,28.15,27.6,27.85,6845510
2019-12-04,27.6,28.0,27.4,27.55,7059713
2019-12-05,27.75,27.95,27.55,27.75,7175261
2019-12-06,27.9,28.2,27.8,27.9,9792479
2019-12-09,28.05,28.3,27.85,28.05,7016625
2019-12-10,27.85,28.65,27.8,28.5,12732785
2019-12-11,28.5,29.35,28.3,29.15,17613044
2019-12-12,29.05,29.7,29.05,29.6,13278700
2019-12-13,30.1,30.8,29.95,30.55,18842336
2019-12-16,30.15,30.9,30.15,30.35,16547120
2019-12-17,30.4,31.15,30.35,30.8,11408293
2019-12-18,31.2,31.4,30.8,30.95,11276784
2019-12-19,30.9,31.15,30.45,30.7,8470804
2019-12-20,30.6,31.05,30.55,30.8,9287800
2019-12-23,30.65,31.0,30.25,30.45,7527814
2019-12-24,30.35,30.6,30.35,30.4,2170867
2019-12-27,30.55,31.05,30.5,30.85,7340693
2019-12-30,30.9,31.4,30.7,31.3,10960513
2019-12-31,31.3,31.35,30.6,30.7,6628782
2020-01-02,31.0,32.2,30.8,31.7,14684255
2020-01-03,32.0,32.5,31.4,31.5,11608542
2020-01-06,31.4,31.75,31.05,31.25,10514876
2020-01-07,31.25,32.0,31.15,31.65,13281899
2020-01-08,31.15,31.45,30.7,30.95,16293638
2020-01-09,31.2,31.8,31.15,31.7,8624929
2020-01-10,31.55,31.75,31.35,31.45,8118258
2020-01-13,31.75,31.75,31.35,31.45,7711048
2020-01-14,31.75,31.8,30.9,31.05,12887229
2020-01-15,30.95,31.25,30.6,30.75,14724334
2020-01-16,30.75,30.8,30.45,30.6,11530243
2020-01-17,30.9,31.15,30.55,30.95,6504518
2020-01-20,31.15,31.25,30.0,30.2,14241030
2020-01-21,30.0,30.0,28.95,29.0,17271944
2020-01-22,29.4,29.65,28.85,29.4,9184107
2020-01-23,29.1,29.25,28.5,28.6,12142774
2020-01-24,28.8,28.8,28.4,28.6,9863628
2020-01-29,27.3,27.65,27.05,27.45,20058140
2020-01-30,27.2,27.35,26.45,26.65,14113291
2020-01-31,26.9,27.05,26.15,26.15,10764080
2020-02-03,26.1,26.75,25.7,26.4,29873032
2020-02-04,26.0,27.3,26.0,27.05,22393212
2020-02-05,26.8,27.6,26.75,27.05,21152662
2020-02-06,27.5,28.05,27.0,27.8,16850092
2020-02-07,27.7,27.95,27.35,27.7,15354244
2020-02-10,27.5,27.55,27.1,27.45,15453930
2020-02-11,27.7,28.0,27.6,27.85,11621742
2020-02-12,27.75,28.1,27.6,27.8,15192439
2020-02-13,27.7,27.9,27.25,27.3,16127289
2020-02-14,27.05,28.1,27.05,27.7,13651759
2020-02-17,27.85,28.65,27.75,28.5,15388262
2020-02-18,28.2,28.5,28.0,28.05,10560600
2020-02-19,27.9,28.4,27.6,28.25,13583100
2020-02-20,28.05,28.55,27.8,28.35,13786210
2020-02-21,28.05,28.35,27.7,27.8,16380752
2020-02-24,27.65,27.65,27.05,27.15,15208080
2020-02-25,27.0,27.1,26.35,26.5,22709928
2020-02-26,25.85,26.65,25.85,26.25,15620368
2020-02-27,26.15,26.8,25.9,26.55,26600692
2020-02-28,26.0,26.15,25.4,25.65,22051760
2020-03-02,25.95,26.25,25.7,26.05,8958545
2020-03-03,26.3,26.4,25.25,25.25,24667776
2020-03-04,25.2,25.4,24.85,25.0,23448044
2020-03-05,25.05,26.25,25.05,26.0,24936336
2020-03-06,25.55,25.7,25.15,25.3,13522508
2020-03-09,24.5,24.6,23.75,24.05,27153280
2020-03-10,24.5,24.75,23.95,24.3,18891464
2020-03-11,24.6,24.6,23.95,24.1,7999922
2020-03-12,23.5,23.7,22.75,23.1,24405688
2020-03-13,21.75,22.7,21.05,22.4,42548148
2020-03-16,21.9,22.0,20.6,21.1,24368860
2020-03-17,20.85,21.3,20.25,20.85,27703962
2020-03-18,20.5,21.1,19.24,19.4,22702456
2020-03-19,19.16,19.38,17.9,18.16,44682172
2020-03-20,18.42,19.56,18.42,19.46,36981952
2020-03-23,18.46,19.74,18.3,19.44,36352552
2020-03-24,19.76,21.05,19.76,20.75,34367416
2020-03-25,21.35,22.85,21.35,22.75,36412800
2020-03-26,22.5,22.9,22.1,22.6,32236484
2020-03-27,23.0,23.35,22.6,22.75,20226506
2020-03-30,22.0,22.9,21.85,22.6,30791868
2020-03-31,22.75,24.05,22.75,23.45,31664550
2020-04-01,23.4,24.25,23.25,23.35,32965380
2020-04-02,22.5,23.4,22.5,23.4,8173041
2020-04-03,22.8,23.4,22.7,23.0,7701904
2020-04-06,23.55,23.75,23.05,23.45,6355119
2020-04-07,23.85,24.05,23.3,23.95,22151096
2020-04-08,23.55,23.9,23.3,23.8,22071576
2020-04-09,24.0,24.05,23.65,23.9,34338500
2020-04-14,24.15,24.3,23.65,24.2,11346301
2020-04-15,24.15,24.35,23.4,23.6,22200260
2020-04-16,23.15,23.95,23.05,23.65,21217640
2020-04-17,24.05,24.85,23.95,24.45,15374307
2020-04-20,24.4,25.0,24.3,24.7,14152109
2020-04-21,24.4,24.55,23.75,23.95,17471856
2020-04-22,23.35,24.1,23.35,23.95,15864506
2020-04-23,23.9,24.3,23.85,24.0,10306104
2020-04-24,23.6,24.2,23.6,24.0,8639780
2020-04-27,24.3,25.25,24.25,25.05,23660808
2020-04-28,25.0,25.6,24.85,25.5,11950966
2020-04-29,25.9,25.9,25.4,25.7,7863638
2020-05-04,24.65,24.75,24.0,24.2,18916212
2020-05-05,24.2,24.5,24.1,24.3,11411479
2020-05-06,24.1,24.85,24.1,24.8,13223766
2020-05-07,24.6,24.7,24.35,24.55,10884897
2020-05-08,24.8,24.8,24.35,24.5,19057060
2020-05-11,24.7,25.4,24.65,24.8,13125600
2020-05-12,24.5,24.65,23.9,24.15,15814492
2020-05-13,24.0,24.2,23.8,24.0,11153442
2020-05-14,22.65,22.7,21.85,22.0,13851885
2020-05-15,22.0,22.05,21.5,21.9,11699940
2020-05-18,21.9,21.9,21.1,21.75,15358852
2020-05-19,22.2,22.8,22.15,22.5,13958763
2020-05-20,22.7,22.8,22.15,22.3,8425300
2020-05-21,22.5,22.55,21.85,22.0,13036022
2020-05-22,21.5,21.6,20.55,20.75,15972957
2020-05-25,20.6,20.9,20.2,20.65,10638972
2020-05-26,20.8,21.1,20.1,20.6,11384400
2020-05-27,20.7,21.2,20.65,20.85,13133773
2020-05-28,21.15,21.4,20.6,21.1,18646620
2020-05-29,20.5,21.3,20.5,21.3,21056768
2020-06-01,21.85,21.95,21.5,21.55,12048644
2020-06-02,21.75,21.9,21.55,21.75,6790327
2020-06-03,22.4,22.8,22.2,22.2,16824832
2020-06-04,22.75,22.75,22.0,22.3,13587802
2020-06-05,22.4,22.8,22.1,22.7,10054863
2020-06-08,22.9,23.6,22.9,23.6,15809004
2020-06-09,23.8,23.95,23.3,23.7,28193966
2020-06-10,23.55,23.75,23.0,23.2,18487988
2020-06-11,23.0,23.0,21.9,22.05,30144470
2020-06-12,21.65,21.85,21.5,21.7,11369513
2020-06-15,21.7,21.7,20.65,21.1,20368100
2020-06-16,21.55,22.05,21.25,21.3,21684508
2020-06-17,21.3,21.55,21.05,21.3,24930766
2020-06-18,21.3,21.55,21.0,21.45,15828875
2020-06-19,21.15,21.6,21.1,21.5,11984739
2020-06-22,21.4,21.65,21.1,21.35,17868764
2020-06-23,21.35,21.5,20.75,21.5,6173396
2020-06-24,21.5,21.8,21.0,21.1,6239927
2020-06-26,21.0,21.15,20.8,20.9,6222020
2020-06-29,21.0,21.0,20.2,20.5,13362356
2020-06-30,20.7,20.8,20.5,20.7,14860896
2020-07-02,20.95,22.25,20.9,22.25,28793328
2020-07-03,22.55,23.0,22.25,22.65,22685794
2020-07-06,23.0,25.6,23.0,25.3,50017128
2020-07-07,26.3,27.15,25.0,25.15,52045000
2020-07-08,25.25,26.5,25.15,26.25,29794196
2020-07-09,26.25,26.9,25.9,26.05,24811556
2020-07-10,25.5,25.65,24.45,24.8,29007036
2020-07-13,24.7,25.9,24.65,25.25,20535036
2020-07-14,25.15,25.3,24.45,24.7,18708786
2020-07-15,25.2,25.25,23.75,23.85,21488068
2020-07-16,24.15,24.45,23.1,23.3,15287555
2020-07-17,23.4,23.6,22.8,23.05,10526996
2020-07-20,23.25,24.25,23.0,23.95,17182588
2020-07-21,24.85,25.0,23.65,23.9,16261600
2020-07-22,23.95,24.1,23.0,23.05,22069018
2020-07-23,23.0,23.35,22.6,23.15,14535834
2020-07-24,23.2,23.25,22.3,22.65,14001000
2020-07-27,22.75,23.05,22.5,22.8,10552563
2020-07-28,23.1,23.3,22.45,22.75,11253410
2020-07-29,22.75,23.2,22.5,23.05,9116800
2020-07-30,23.05,23.25,22.35,22.45,13068705
2020-07-31,22.45,22.9,22.3,22.45,6080640
2020-08-03,22.4,22.9,22.3,22.5,11201568
2020-08-04,22.75,23.45,22.55,23.1,13425776
2020-08-05,23.25,23.25,22.85,23.05,8416122
2020-08-06,23.15,23.25,22.55,23.1,12561938
2020-08-07,23.3,23.45,22.65,23.0,13129066
2020-08-10,22.85,23.95,22.75,23.35,15031600
2020-08-11,23.9,25.2,23.85,24.15,28984584
2020-08-12,23.8,24.9,23.8,24.7,17594906
2020-08-13,24.85,25.1,24.15,24.35,9162977
2020-08-14,24.3,25.05,24.15,24.65,8307255
2020-08-17,25.0,26.15,24.9,25.4,31868478
2020-08-18,25.4,25.6,24.8,25.1,14286400
2020-08-19,24.8,24.85,24.35,24.5,13543550
2020-08-20,24.05,24.2,23.6,24.0,12037424
2020-08-21,24.25,24.25,23.65,23.7,16303608
2020-08-24,23.9,24.1,23.65,23.9,20764224
2020-08-25,23.8,24.05,23.35,23.4,21624000
