Date,Open,High,Low,Close,Volume
2017-04-11,15.84,15.94,15.78,15.84,115089800
2017-04-12,15.84,15.88,15.84,15.84,6994400
2017-04-13,15.84,15.86,15.84,15.84,3986400
2017-04-18,15.84,15.84,15.7,15.82,4268800
2017-04-19,15.82,15.82,15.6,15.8,1876200
2017-04-20,15.78,15.86,15.64,15.84,7446800
2017-04-21,15.86,15.86,15.74,15.84,1747800
2017-04-24,15.84,15.86,15.78,15.84,3453380
2017-04-25,15.8,15.86,15.78,15.84,2492200
2017-04-26,15.86,15.86,15.8,15.84,2062200
2017-04-27,15.84,15.84,15.8,15.84,8740400
2017-04-28,15.84,15.9,15.82,15.84,4936800
2017-05-02,15.86,15.86,15.64,15.68,513800
2017-05-04,15.68,15.8,15.6,15.66,630200
2017-05-05,15.66,15.7,15.5,15.5,1301000
2017-05-08,15.5,15.58,15.12,15.2,1890400
2017-05-09,15.2,15.2,14.96,15.04,2077428
2017-05-10,15.06,15.32,15.06,15.3,397200
2017-05-11,15.32,15.44,15.24,15.4,425800
2017-05-12,15.42,15.44,15.26,15.34,249400
2017-05-15,15.4,15.44,15.32,15.4,1491000
2017-05-16,15.4,15.46,15.36,15.4,990020
2017-05-17,15.34,15.48,15.34,15.38,1255000
2017-05-18,15.3,15.44,15.3,15.38,74800
2017-05-19,15.34,15.38,15.32,15.36,632600
2017-05-22,15.34,15.4,15.34,15.36,974800
2017-05-23,15.36,15.42,15.34,15.38,200800
2017-05-24,15.4,15.4,15.0,15.3,178400
2017-05-25,15.4,15.48,15.26,15.42,2803800
2017-05-26,15.42,15.56,15.42,15.54,1152400
2017-05-29,15.54,15.66,15.54,15.62,484600
2017-05-31,15.66,15.78,15.4,15.7,1258800
2017-06-01,15.76,15.76,15.64,15.64,502625
2017-06-02,15.66,15.8,15.56,15.7,1873000
2017-06-05,15.72,15.82,15.7,15.78,653000
2017-06-06,15.78,15.8,15.68,15.8,305200
2017-06-07,15.82,15.86,15.66,15.84,900400
2017-06-08,15.84,15.86,15.74,15.86,524600
2017-06-09,15.88,15.92,15.68,15.82,666400
2017-06-12,15.7,15.8,15.66,15.7,277800
2017-06-13,15.68,15.8,15.68,15.7,213000
2017-06-14,15.62,15.8,15.6,15.7,135800
2017-06-15,15.66,15.8,15.56,15.74,503200
2017-06-16,15.78,15.78,15.62,15.78,266880
2017-06-19,15.74,15.82,15.6,15.76,461800
2017-06-20,15.8,16.0,15.72,15.8,1650400
2017-06-21,15.98,16.08,15.88,16.0,1608600
2017-06-22,16.02,16.18,16.02,16.12,1897000
2017-06-23,16.12,16.16,16.1,16.12,1425000
2017-06-26,16.1,16.32,16.08,16.24,3634000
2017-06-27,16.28,16.46,16.26,16.46,3843200
2017-06-28,16.44,16.58,16.34,16.4,3430800
2017-06-29,16.42,16.58,16.4,16.54,1097200
2017-06-30,16.5,16.5,16.26,16.32,1284000
2017-07-03,16.34,16.4,15.8,16.2,1139640
2017-07-04,16.2,16.4,16.2,16.3,1546880
2017-07-05,16.24,16.28,16.02,16.28,1099000
2017-07-06,16.2,16.24,16.12,16.22,886000
2017-07-07,16.14,16.34,16.1,16.3,1063800
2017-07-10,16.24,16.6,16.22,16.5,3427581
2017-07-11,16.5,16.7,16.48,16.62,4094200
2017-07-12,16.64,16.82,16.6,16.7,3545800
2017-07-13,16.76,16.78,16.6,16.74,3454542
2017-07-14,16.74,16.74,16.58,16.62,738800
2017-07-17,16.62,16.72,16.5,16.64,538600
2017-07-18,16.6,16.64,16.46,16.64,1209400
2017-07-19,16.6,16.88,16.6,16.86,3566400
2017-07-20,16.9,17.3,16.86,17.26,3345000
2017-07-21,17.26,17.38,17.0,17.34,760600
2017-07-24,17.22,17.34,17.02,17.26,1213400
2017-07-25,17.16,17.34,17.02,17.34,1299200
2017-07-26,17.34,17.4,17.08,17.3,626600
2017-07-27,17.2,17.22,17.14,17.14,1397200
2017-07-28,17.1,17.22,17.08,17.12,2321400
2017-07-31,17.04,17.14,16.5,17.14,1237600
2017-08-01,17.16,17.18,17.04,17.18,755800
2017-08-02,17.1,17.36,17.02,17.08,4329400
2017-08-03,17.08,17.18,16.92,16.94,6752600
2017-08-04,17.0,17.14,16.96,17.04,2739400
2017-08-07,17.2,17.2,16.94,16.96,2660200
2017-08-08,16.92,17.28,16.92,17.1,4183600
2017-08-09,17.0,17.2,16.84,17.1,4483800
2017-08-10,17.04,17.16,16.9,17.0,2072172
2017-08-11,16.98,16.98,16.52,16.64,2132400
2017-08-14,16.64,17.0,16.62,16.78,1344000
2017-08-15,16.78,17.04,16.78,17.0,4090800
2017-08-16,16.8,16.82,16.66,16.7,483000
2017-08-17,16.72,16.9,16.72,16.8,286200
2017-08-18,16.66,16.76,16.64,16.66,600600
2017-08-21,16.64,16.78,16.58,16.64,366000
2017-08-22,16.6,16.68,16.52,16.56,480400
2017-08-24,16.58,16.76,16.58,16.6,720600
2017-08-25,16.62,16.8,16.54,16.78,1625400
2017-08-28,16.78,17.5,16.76,17.14,3988400
2017-08-29,17.1,17.2,17.02,17.1,2416000
2017-08-30,17.2,17.22,16.96,17.02,1232800
2017-08-31,17.02,17.14,16.94,17.1,2725200
2017-09-01,17.02,17.28,17.02,17.08,3413200
2017-09-04,17.04,17.22,17.0,17.22,1108600
2017-09-05,17.24,17.28,17.16,17.22,1334400
2017-09-06,17.06,17.24,17.06,17.14,677600
2017-09-07,17.1,17.2,16.98,17.06,814600
2017-09-08,17.1,17.18,17.06,17.1,652400
2017-09-11,17.06,17.22,17.04,17.04,943400
2017-09-12,17.18,17.18,17.06,17.1,893400
2017-09-13,17.16,17.16,16.96,17.04,675000
2017-09-14,17.2,17.24,16.92,17.1,1343400
2017-09-15,17.14,17.44,16.88,17.44,2644200
2017-09-18,17.28,17.74,17.24,17.5,3657400
2017-09-19,17.7,17.7,17.16,17.22,668600
2017-09-20,17.36,17.66,17.24,17.46,1328600
2017-09-21,17.58,17.82,17.44,17.6,2885600
2017-09-22,17.78,17.78,17.4,17.62,1964145
2017-09-25,17.64,17.64,17.0,17.1,1650600
2017-09-26,17.0,17.08,16.96,17.02,593200
2017-09-27,17.06,17.14,16.96,16.98,435200
2017-09-28,16.9,16.9,16.72,16.74,244400
2017-09-29,16.74,16.98,16.74,16.84,98000
2017-10-03,16.84,17.26,16.74,17.26,291800
2017-10-04,17.24,17.42,17.2,17.42,903600
2017-10-06,17.42,17.54,17.24,17.52,481000
2017-10-09,17.3,17.62,17.04,17.5,1207800
2017-10-10,17.42,17.62,17.36,17.58,999600
2017-10-11,17.56,17.68,17.52,17.54,1182200
2017-10-12,17.48,17.76,17.48,17.68,730200
2017-10-13,17.68,17.8,17.64,17.78,989800
2017-10-16,17.82,18.06,17.8,18.0,3143600
2017-10-17,18.02,18.1,17.94,18.02,3253200
2017-10-18,18.02,18.14,17.98,18.06,1441000
2017-10-19,18.14,18.14,17.98,18.0,2582400
2017-10-20,17.8,18.3,17.8,18.28,656600
2017-10-23,18.4,18.5,18.14,18.28,3014600
2017-10-24,18.14,18.52,18.14,18.38,1452000
2017-10-25,18.48,18.5,18.3,18.4,459400
2017-10-26,18.2,18.58,18.2,18.44,1294600
2017-10-27,18.52,18.56,18.44,18.52,332200
2017-10-30,18.5,18.5,18.12,18.2,845600
2017-10-31,18.1,18.26,17.64,18.26,150400
2017-11-01,18.22,18.36,18.16,18.28,274000
2017-11-02,18.28,18.38,18.1,18.16,153800
2017-11-03,18.1,18.1,17.92,17.98,1319600
2017-11-06,17.94,17.94,17.72,17.8,700000
2017-11-07,17.78,18.36,17.78,18.1,1399400
2017-11-08,17.98,18.38,17.98,18.38,963400
2017-11-09,18.38,18.38,18.18,18.2,1287200
2017-11-10,18.12,18.38,18.0,18.1,1131200
2017-11-13,18.1,18.18,17.8,17.82,612600
2017-11-14,17.82,17.82,17.4,17.48,568200
2017-11-15,17.34,17.44,17.22,17.3,571400
2017-11-16,17.28,17.52,17.2,17.42,1847000
2017-11-17,17.5,17.6,17.2,17.34,2106200
2017-11-20,17.24,17.3,16.9,17.24,1500400
2017-11-21,17.2,17.76,17.2,17.32,5256200
2017-11-22,17.6,18.08,17.32,17.8,3011200
2017-11-23,17.9,18.08,17.7,17.76,1611000
2017-11-24,17.7,17.7,17.34,17.6,935168
2017-11-27,17.6,17.68,17.44,17.52,471226
2017-11-28,17.38,17.62,17.38,17.62,770400
2017-11-29,17.74,17.8,17.5,17.54,779600
2017-11-30,17.42,17.56,16.96,17.26,4132086
2017-12-01,17.26,17.48,16.84,17.0,4035794
2017-12-04,17.0,17.36,16.64,17.0,1894076
2017-12-05,16.82,17.3,16.82,17.2,2180722
2017-12-06,17.06,17.32,16.9,17.1,1764000
2017-12-07,17.04,17.4,16.96,17.16,1665200
2017-12-08,17.08,17.44,16.94,17.08,1682447
2017-12-11,17.12,17.76,16.9,17.56,2478955
2017-12-12,17.56,17.72,16.78,17.56,3882938
2017-12-13,17.48,17.5,17.06,17.26,2125005
2017-12-14,17.22,17.58,17.2,17.46,2648423
2017-12-15,17.3,17.7,17.2,17.66,29426228
2017-12-18,17.5,17.5,17.24,17.24,1038928
2017-12-19,17.28,17.28,17.08,17.2,1456500
2017-12-20,17.2,17.3,17.1,17.3,828200
2017-12-21,17.38,17.46,17.26,17.4,456126
2017-12-22,17.34,17.66,17.34,17.6,1474400
2017-12-27,17.58,17.68,17.32,17.4,484374
2017-12-28,17.4,17.66,17.4,17.52,100600
2017-12-29,17.36,17.66,17.24,17.4,116800
2018-01-02,17.32,17.74,17.26,17.74,595800
2018-01-03,17.68,18.0,17.68,17.9,1242000
2018-01-04,17.8,18.16,17.8,18.0,762800
2018-01-05,18.0,18.1,17.9,18.1,1262400
2018-01-08,18.18,18.4,18.12,18.3,914200
2018-01-09,18.4,18.4,18.18,18.3,865600
2018-01-10,18.3,18.62,18.26,18.5,1714800
2018-01-11,18.6,18.6,18.16,18.48,1046000
2018-01-12,18.68,18.88,18.56,18.8,1113399
2018-01-15,18.8,18.88,17.9,18.04,584000
2018-01-16,18.12,18.26,17.94,18.2,531400
2018-01-17,18.02,18.88,18.02,18.54,790600
2018-01-18,18.66,18.88,18.6,18.88,890200
2018-01-19,18.94,20.45,18.82,20.45,3011700
2018-01-22,20.45,21.0,19.94,20.95,844470
2018-01-23,20.95,21.25,20.5,20.9,589600
2018-01-24,20.9,21.35,19.64,20.75,4526410
2018-01-25,20.75,20.8,19.8,20.55,1347600
2018-01-26,20.4,20.75,20.2,20.75,1916200
2018-01-29,20.75,21.1,19.88,20.3,1496000
2018-01-30,20.05,20.65,19.64,19.7,747800
2018-01-31,19.6,19.88,19.32,19.8,1924200
2018-02-01,19.84,19.98,19.68,19.76,1705669
2018-02-02,19.74,20.2,19.7,19.76,4251058
2018-02-05,18.8,20.15,18.8,19.78,342328
2018-02-06,19.7,19.7,18.48,19.0,1417200
2018-02-07,19.22,19.36,18.22,18.48,800200
2018-02-08,18.24,18.98,18.24,18.5,338800
2018-02-09,18.9,18.9,16.86,17.3,2837800
2018-02-12,17.32,17.78,17.0,17.3,1681000
2018-02-13,17.5,18.8,17.24,17.32,996400
2018-02-14,17.56,17.56,17.22,17.44,706400
2018-02-15,17.46,17.98,17.46,17.76,185000
2018-02-20,17.84,18.16,17.34,17.76,492600
2018-02-21,17.76,18.06,17.48,17.9,925412
2018-02-22,17.68,18.12,17.68,18.12,760200
2018-02-23,18.2,18.56,17.92,18.52,721800
2018-02-26,18.52,18.86,18.08,18.44,1129600
2018-02-27,18.44,18.78,18.18,18.28,856951
2018-02-28,18.12,18.48,18.12,18.16,358000
2018-03-01,18.2,18.34,18.0,18.16,518400
2018-03-02,18.1,18.12,17.34,17.72,1771400
2018-03-05,17.36,17.9,17.3,17.6,958200
2018-03-06,17.6,17.94,17.52,17.82,725000
2018-03-07,17.7,17.78,17.42,17.58,1827600
2018-03-08,17.9,17.9,17.62,17.72,560000
2018-03-09,17.56,18.12,17.56,17.7,497000
2018-03-12,18.14,18.28,17.94,18.02,684400
2018-03-13,18.02,18.08,17.9,17.94,718800
2018-03-14,17.94,17.94,17.68,17.72,587600
2018-03-15,17.74,18.08,17.38,17.6,705000
2018-03-16,17.62,17.7,17.36,17.36,3932257
2018-03-19,17.36,17.48,17.2,17.22,771107
2018-03-20,17.22,17.22,16.92,17.04,723400
2018-03-21,17.04,17.38,16.98,17.16,671800
2018-03-22,17.14,17.3,17.0,17.04,555400
2018-03-23,16.78,17.04,16.68,17.0,1134400
2018-03-26,16.9,17.34,16.8,17.06,735600
2018-03-27,17.04,17.22,16.92,17.18,787200
2018-03-28,17.0,17.04,16.8,17.0,1534760
2018-03-29,17.1,17.1,15.52,17.04,1144000
2018-04-03,17.08,17.68,16.9,17.68,528000
2018-04-04,17.8,18.64,17.1,17.94,1687809
2018-04-06,18.48,18.48,18.12,18.34,1072200
2018-04-09,18.2,18.2,17.2,17.98,1637200
2018-04-10,17.9,18.32,17.9,17.98,2077800
2018-04-11,18.0,18.0,17.72,18.0,651115
2018-04-12,18.0,18.0,17.68,17.98,192200
2018-04-13,18.28,18.28,17.74,18.0,697800
2018-04-16,18.26,18.26,17.66,17.94,1459000
2018-04-17,18.0,18.0,17.76,17.94,1506455
2018-04-18,18.0,18.0,17.86,17.9,1427100
2018-04-19,18.2,18.2,17.7,17.9,948600
2018-04-20,18.0,18.0,17.66,17.88,1372400
2018-04-23,18.0,18.0,17.0,17.02,1269600
2018-04-24,17.42,17.7,17.04,17.54,1857300
2018-04-25,17.5,17.76,17.5,17.64,1184400
2018-04-26,17.7,17.82,17.44,17.7,2343800
2018-04-27,17.7,18.04,17.46,17.64,584800
2018-04-30,18.22,18.88,18.22,18.5,1164800
2018-05-02,19.04,19.04,18.46,18.52,1893600
2018-05-03,18.88,18.88,18.28,18.5,3783260
2018-05-04,18.8,18.8,18.3,18.5,882600
2018-05-07,18.96,18.96,18.24,18.68,699800
2018-05-08,18.96,19.5,18.7,19.08,2539600
2018-05-09,19.46,19.46,18.78,19.14,894000
2018-05-10,19.48,19.48,18.96,18.98,1920878
2018-05-11,19.52,19.52,18.8,19.0,1273400
2018-05-14,19.4,19.44,18.96,19.34,1963400
2018-05-15,20.3,20.3,18.8,19.14,2816600
2018-05-16,19.18,19.3,18.8,18.98,2004633
2018-05-17,19.16,19.16,18.66,19.0,1295200
2018-05-18,19.4,19.4,18.84,19.08,2241400
2018-05-21,19.48,19.48,18.72,19.08,753000
2018-05-23,19.26,19.26,18.72,18.92,1900675
2018-05-24,18.94,19.0,18.56,19.0,1848000
2018-05-25,19.04,19.04,18.64,18.86,2872200
2018-05-28,20.0,20.0,18.8,19.12,3042500
2018-05-29,19.12,19.12,18.6,18.62,1876900
2018-05-30,18.32,18.86,18.12,18.2,3039353
2018-05-31,18.48,18.48,18.0,18.24,40841200
2018-06-01,17.54,18.0,17.12,17.3,2207780
2018-06-04,17.66,18.0,17.42,17.98,3071826
2018-06-05,18.58,18.58,18.0,18.02,1465000
2018-06-06,17.72,18.02,17.54,18.0,1804826
2018-06-07,18.36,18.36,17.88,18.16,648400
2018-06-08,18.16,18.46,18.06,18.16,1650400
2018-06-11,18.5,18.5,17.78,18.1,1511200
2018-06-12,17.84,18.48,17.5,18.2,635800
2018-06-13,18.34,18.34,17.64,18.14,1162660
2018-06-14,19.78,19.78,18.26,18.28,1772026
2018-06-15,18.02,18.38,18.0,18.12,3478825
2018-06-19,17.86,17.98,16.8,16.88,2112235
2018-06-20,16.88,17.3,16.74,16.98,1786296
2018-06-21,17.0,17.3,16.34,16.54,743000
2018-06-22,17.94,17.94,16.72,16.92,2610600
2018-06-25,17.06,17.06,16.62,16.66,1188400
2018-06-26,16.42,16.46,15.0,16.14,543800
2018-06-27,15.88,16.48,15.54,15.54,161940
2018-06-28,15.56,16.12,15.48,15.6,484289
2018-06-29,15.74,17.36,15.68,16.68,1268600
2018-07-03,16.26,16.62,15.82,16.52,1558400
2018-07-04,16.52,16.52,15.72,15.84,424048
2018-07-05,15.7,15.9,15.62,15.78,1116200
2018-07-06,15.8,16.08,15.5,15.6,1766909
2018-07-09,15.68,16.76,15.0,15.74,688000
2018-07-10,15.86,16.14,15.44,15.7,343200
2018-07-11,16.0,16.0,15.4,15.4,442800
2018-07-12,15.38,15.78,15.38,15.5,195942
2018-07-13,15.98,15.98,15.58,15.66,232348
2018-07-16,15.84,15.84,15.62,15.62,68400
2018-07-17,15.62,16.12,15.34,16.12,372810
2018-07-18,16.12,16.18,15.74,16.18,610623
2018-07-19,16.0,16.2,15.78,15.98,439200
2018-07-20,15.88,15.94,15.38,15.86,5787820
2018-07-23,15.84,15.9,15.8,15.86,209020
2018-07-24,15.96,16.58,15.96,16.48,435400
2018-07-25,16.26,16.72,15.92,16.08,673000
2018-07-26,16.2,16.66,15.88,15.88,434800
2018-07-27,15.74,15.96,15.74,15.96,152600
2018-07-30,15.86,16.18,15.68,16.08,251200
2018-07-31,16.2,16.46,15.98,16.28,424600
2018-08-01,16.28,16.4,15.7,16.4,471000
2018-08-02,16.14,16.14,15.48,15.68,181800
2018-08-03,15.68,16.2,15.42,15.64,379200
2018-08-06,15.66,16.58,15.48,15.76,294800
2018-08-07,15.9,15.98,15.5,15.98,411000
2018-08-08,16.46,16.46,16.0,16.06,421800
2018-08-09,16.5,16.5,16.24,16.38,84583
2018-08-10,16.7,16.7,16.22,16.32,361623
2018-08-13,16.28,16.66,15.66,16.04,231200
2018-08-14,16.04,16.6,16.04,16.34,255400
2018-08-15,16.52,16.52,15.92,16.14,404600
2018-08-16,16.52,16.52,15.58,15.82,235800
2018-08-17,15.9,16.52,15.9,16.12,398000
2018-08-20,16.28,17.28,16.1,16.7,513600
2018-08-21,17.02,17.5,16.76,17.38,523200
2018-08-22,17.38,17.38,16.92,17.04,565800
2018-08-23,17.18,17.2,16.62,17.0,678180
2018-08-24,16.3,16.98,16.3,16.6,384200
2018-08-27,16.52,17.3,16.48,17.3,431400
2018-08-28,17.0,17.3,16.3,16.68,714600
2018-08-29,16.28,17.0,16.28,16.64,507400
2018-08-30,17.28,17.28,15.82,15.92,311148
2018-08-31,15.9,16.6,15.82,16.2,1451000
2018-09-03,16.6,16.6,16.02,16.24,310520
2018-09-04,16.06,16.94,16.06,16.6,270000
2018-09-05,16.9,16.9,14.86,14.98,1374268
2018-09-06,15.04,15.64,15.04,15.42,403760
2018-09-07,15.62,15.86,15.56,15.72,344400
2018-09-10,15.64,15.8,15.18,15.24,673600
2018-09-11,14.88,15.22,14.66,14.92,554200
2018-09-12,14.52,16.46,14.52,15.3,288600
2018-09-13,15.4,16.26,15.4,16.02,836200
2018-09-14,16.38,16.38,15.88,16.38,613636
2018-09-17,16.48,16.48,15.28,15.4,467200
2018-09-18,15.4,16.18,15.32,15.98,371922
2018-09-19,16.26,16.4,15.84,16.36,403600
2018-09-20,16.5,16.5,15.88,16.32,634800
2018-09-21,16.5,16.68,16.18,16.56,1459319
2018-09-24,16.26,16.3,15.8,15.96,184000
2018-09-26,16.08,16.46,15.98,16.2,532413
2018-09-27,16.44,16.5,16.0,16.38,545800
2018-09-28,16.34,16.34,15.76,16.1,244600
2018-10-02,16.42,16.66,16.04,16.34,448400
2018-10-03,16.4,16.74,16.1,16.4,422849
2018-10-04,16.42,16.42,15.78,15.84,283800
2018-10-05,15.88,16.08,15.84,15.96,295400
2018-10-08,15.94,16.2,15.74,15.74,336600
2018-10-09,15.98,16.04,15.7,15.9,1186480
2018-10-10,15.98,16.12,15.7,15.7,158806
2018-10-11,15.7,15.9,14.88,15.5,1078669
2018-10-12,15.34,16.08,15.34,15.7,805600
2018-10-15,15.72,16.06,15.58,15.8,899890
2018-10-16,16.0,16.18,15.5,16.1,628042
2018-10-18,15.76,16.1,15.7,16.02,205210
2018-10-19,15.98,16.4,15.98,16.3,338800
2018-10-22,16.36,17.26,16.32,16.98,1280000
2018-10-23,17.02,17.42,16.16,16.16,458600
2018-10-24,16.98,16.98,16.16,16.54,592080
2018-10-25,16.36,17.16,16.28,16.58,664000
2018-10-26,16.52,16.9,16.28,16.44,504200
2018-10-29,16.66,16.66,15.96,16.32,241704
2018-10-30,16.32,16.84,15.84,16.32,1084000
2018-10-31,16.54,16.68,16.38,16.52,698800
2018-11-01,16.74,17.08,16.02,16.5,1382760
2018-11-02,16.84,17.02,16.68,16.78,1503532
2018-11-05,16.92,16.92,16.34,16.56,802072
2018-11-06,16.98,16.98,16.54,16.72,475800
2018-11-07,16.8,16.98,16.6,16.8,227000
2018-11-08,17.0,17.0,16.3,16.42,545850
2018-11-09,16.74,16.74,15.4,15.5,371400
2018-11-12,15.94,16.64,15.76,16.0,708100
2018-11-13,16.02,16.54,15.98,16.28,1083751
2018-11-14,16.88,16.88,16.08,16.1,718572
2018-11-15,16.06,16.46,16.06,16.44,1126600
2018-11-16,16.38,16.86,16.36,16.7,1423258
2018-11-19,16.7,17.18,16.7,16.94,1655283
2018-11-20,16.92,17.0,16.04,16.2,923984
2018-11-21,16.3,16.46,16.04,16.16,924200
2018-11-22,16.2,16.28,16.04,16.14,215190
2018-11-23,16.36,16.36,15.62,15.8,403400
2018-11-26,15.86,16.06,15.64,16.06,535440
2018-11-27,16.18,16.24,15.98,16.08,374910
2018-11-28,16.32,16.32,15.98,16.12,659590
2018-11-29,16.34,16.44,15.96,16.08,344690
2018-11-30,16.22,16.4,15.9,16.26,1464800
2018-12-03,16.58,16.86,16.48,16.68,880500
2018-12-04,16.94,16.94,16.62,16.88,1195484
2018-12-05,16.62,16.86,16.56,16.7,457380
2018-12-06,17.14,17.14,15.8,15.96,353672
2018-12-07,16.84,16.98,15.6,15.66,534800
2018-12-10,15.8,15.8,15.58,15.66,287600
2018-12-11,15.66,15.98,15.46,15.52,225600
2018-12-12,15.64,16.12,15.62,15.88,120400
2018-12-13,16.28,16.28,15.82,16.02,320000
2018-12-14,16.02,16.4,15.82,16.18,296400
2018-12-17,16.66,16.66,15.44,15.44,386200
2018-12-18,15.74,15.96,15.46,15.78,264400
2018-12-19,15.9,15.96,15.6,15.66,108299
2018-12-20,15.88,16.24,15.42,15.84,1511800
2018-12-21,15.72,15.76,15.38,15.58,352103
2018-12-24,15.36,15.98,15.36,15.88,222353
2018-12-27,15.66,15.66,15.32,15.48,154120
2018-12-28,15.88,16.18,15.5,15.84,1350200
2018-12-31,16.26,16.26,15.84,15.84,1708520
2019-01-02,16.2,16.2,15.68,15.8,127008
2019-01-03,15.9,15.9,15.54,15.74,341200
2019-01-04,15.84,16.22,15.74,15.8,1049160
2019-01-07,15.82,16.38,15.66,15.84,796400
2019-01-08,15.92,15.92,15.26,15.32,422740
2019-01-09,15.64,15.92,15.46,15.86,744160
2019-01-10,16.4,16.4,15.62,15.82,600160
2019-01-11,16.34,16.34,15.78,15.96,720540
2019-01-14,16.1,16.3,15.8,15.84,632600
2019-01-15,15.92,16.3,15.92,16.28,1008400
2019-01-16,16.2,16.4,16.1,16.38,947000
2019-01-17,17.0,17.0,16.16,16.28,962800
2019-01-18,16.3,16.38,15.8,16.32,1128200
2019-01-21,16.62,16.62,16.32,16.44,1431600
2019-01-22,16.42,16.68,16.2,16.34,856800
2019-01-23,16.08,16.58,16.08,16.56,969400
2019-01-24,16.86,16.86,16.5,16.86,1125000
2019-01-25,17.02,17.16,16.98,17.1,1840200
2019-01-28,17.28,17.3,16.54,16.92,1431400
2019-01-29,17.26,17.26,16.16,16.42,574800
2019-01-30,16.18,16.4,16.06,16.2,482800
2019-01-31,16.48,16.88,16.48,16.72,3950800
2019-02-01,18.0,18.0,16.64,17.06,721200
2019-02-04,16.9,17.86,16.9,17.6,328549
2019-02-08,17.68,17.68,17.02,17.26,745364
2019-02-11,17.1,17.5,17.0,17.38,849514
2019-02-12,17.32,17.4,17.06,17.32,1127088
2019-02-13,17.2,17.6,17.1,17.4,960800
2019-02-14,17.5,17.5,17.08,17.32,1387400
2019-02-15,17.1,17.36,17.1,17.3,1043600
2019-02-18,17.3,17.96,17.28,17.7,1949700
2019-02-19,17.98,18.04,17.94,17.94,759926
2019-02-20,17.8,18.48,17.8,18.26,2521657
2019-02-21,18.4,18.4,18.1,18.3,886200
2019-02-22,17.9,18.84,17.9,18.5,3017790
2019-02-25,18.8,19.2,18.6,18.8,13549200
2019-02-26,19.08,19.22,18.4,18.56,4947200
2019-02-27,18.8,18.96,17.6,17.68,2882400
2019-02-28,17.66,17.84,17.34,17.48,4614160
2019-03-01,17.48,17.6,17.28,17.44,3853800
2019-03-04,17.58,17.88,17.48,17.66,4497600
2019-03-05,17.5,17.66,17.3,17.48,2737840
2019-03-06,17.52,17.82,17.52,17.78,1547748
2019-03-07,17.78,18.08,17.38,17.58,4344845
2019-03-08,17.3,17.44,16.96,17.02,2493064
2019-03-11,17.04,17.18,16.88,17.16,630182
2019-03-12,17.44,17.58,17.1,17.38,1545200
2019-03-13,17.5,17.58,17.2,17.38,1492731
2019-03-14,17.36,17.56,17.12,17.28,628000
2019-03-15,17.3,17.46,17.18,17.32,3697944
2019-03-18,17.38,17.96,17.1,17.26,1201376
2019-03-19,17.36,17.5,17.3,17.42,839400
2019-03-20,17.32,17.6,17.18,17.2,748000
2019-03-21,17.0,17.5,17.0,17.36,1220691
2019-03-22,17.5,17.58,17.38,17.5,1350310
2019-03-25,17.08,17.64,17.02,17.16,1175700
2019-03-26,17.46,17.46,16.94,17.12,950675
2019-03-27,17.22,17.4,17.06,17.14,548070
2019-03-28,17.1,17.28,16.96,17.08,872386
2019-03-29,17.24,17.66,16.98,17.5,2086015
2019-04-01,17.66,17.94,17.66,17.7,1943400
2019-04-02,18.0,18.16,17.72,18.0,2079800
2019-04-03,17.86,18.2,17.86,17.92,2458059
2019-04-04,18.14,18.36,17.84,17.96,1131600
2019-04-08,18.3,18.3,17.68,17.8,1091600
2019-04-09,18.22,18.22,17.54,17.64,1759200
2019-04-10,17.04,17.04,16.3,16.46,14306977
2019-04-11,16.56,16.64,16.24,16.3,3529000
2019-04-12,16.38,16.48,16.28,16.42,2702000
2019-04-15,16.38,16.68,16.28,16.3,2538200
2019-04-16,16.32,16.5,16.22,16.44,1918243
2019-04-17,16.44,16.54,16.36,16.4,1744000
2019-04-18,16.38,16.6,16.34,16.44,4268600
2019-04-23,16.42,16.96,16.42,16.7,16990616
2019-04-24,16.88,16.96,16.56,16.7,26659802
2019-04-25,16.86,16.86,16.52,16.66,2380311
2019-04-26,16.52,16.74,16.44,16.64,2600900
2019-04-29,16.6,16.74,16.58,16.68,2159300
2019-04-30,16.58,16.78,16.56,16.76,4251100
2019-05-02,16.92,16.92,16.56,16.64,2785500
2019-05-03,16.52,16.8,16.52,16.68,4063200
2019-05-06,16.5,16.5,15.52,15.68,4111978
2019-05-07,15.78,15.84,15.32,15.46,2539400
2019-05-08,15.4,15.56,15.04,15.36,2553000
2019-05-09,15.44,15.44,14.9,14.98,2219104
2019-05-10,15.2,15.4,14.94,15.16,1812600
2019-05-14,14.98,15.0,14.54,14.68,1793280
2019-05-15,14.38,14.7,14.38,14.52,1728158
2019-05-16,14.68,14.72,14.52,14.6,1320508
2019-05-17,15.62,15.62,14.52,14.52,2163600
2019-05-20,14.44,14.5,14.3,14.3,887610
2019-05-21,14.32,14.58,14.3,14.4,786400
2019-05-22,14.58,14.58,14.18,14.22,1104800
2019-05-23,14.2,14.2,13.66,13.76,1656700
2019-05-24,13.76,14.12,13.68,13.7,902600
2019-05-27,14.1,14.1,13.7,13.9,627300
2019-05-28,13.9,14.38,13.76,14.38,4157837
2019-05-29,14.14,14.14,13.44,13.54,2211600
2019-05-30,13.48,13.66,13.28,13.3,1873600
2019-05-31,13.3,13.7,13.16,13.38,1542983
2019-06-03,13.34,13.58,13.18,13.26,914000
2019-06-04,13.26,13.28,13.12,13.24,1255956
2019-06-05,13.18,13.34,13.0,13.02,880796
2019-06-06,13.2,13.2,13.0,13.12,1044800
2019-06-10,13.06,13.38,13.04,13.36,1817000
2019-06-11,13.36,13.96,13.36,13.9,1764990
2019-06-12,13.8,13.82,13.34,13.4,1062400
2019-06-13,13.32,13.44,13.24,13.34,699600
2019-06-14,13.26,13.4,13.08,13.1,879164
2019-06-17,13.1,13.3,13.06,13.14,690632
2019-06-18,13.28,13.28,13.02,13.06,753558
2019-06-19,13.38,13.76,13.34,13.42,1333800
2019-06-20,13.58,14.02,13.48,13.8,2785000
2019-06-21,13.82,14.3,13.82,13.88,14316797
2019-06-24,14.06,14.38,14.0,14.04,1451410
2019-06-25,14.16,14.16,13.68,13.76,1202600
2019-06-26,13.7,14.0,13.42,13.84,935400
2019-06-27,13.98,14.14,13.88,14.0,801940
2019-06-28,14.0,14.0,13.82,13.92,529147
2019-07-02,14.38,14.38,14.02,14.18,1227755
2019-07-03,14.32,14.32,13.92,13.98,560981
2019-07-04,13.94,14.3,13.84,14.18,381577
2019-07-05,14.08,14.08,13.76,13.86,1068200
2019-07-08,13.66,13.72,13.24,13.3,450942
2019-07-09,13.38,13.38,13.02,13.12,1275800
2019-07-10,13.2,13.42,13.06,13.1,1211408
2019-07-11,13.16,13.76,13.16,13.4,1137800
2019-07-12,13.38,13.38,13.12,13.18,1098400
2019-07-15,13.26,13.3,13.06,13.18,749800
2019-07-16,13.3,13.34,13.1,13.26,562000
2019-07-17,13.28,13.28,13.1,13.12,489800
2019-07-18,13.12,13.24,12.92,12.98,487400
2019-07-19,13.02,13.64,13.02,13.16,677000
2019-07-22,13.24,13.24,12.9,12.9,677300
2019-07-23,12.9,12.92,12.78,12.8,479900
2019-07-24,12.96,13.04,12.8,12.84,715700
2019-07-25,12.94,12.94,12.78,12.8,1415659
2019-07-26,12.8,12.8,12.66,12.66,637360
2019-07-29,12.74,12.82,12.58,12.74,1105462
2019-07-30,12.68,12.94,12.62,12.62,748200
2019-07-31,12.7,12.94,12.6,12.74,984735
2019-08-01,12.86,13.0,12.66,12.68,1220400
2019-08-02,12.68,12.8,12.08,12.08,1468464
2019-08-05,11.98,12.0,11.3,11.34,1525400
2019-08-06,11.0,11.14,10.9,11.0,2018027
2019-08-07,10.98,11.08,10.72,10.86,1630713
2019-08-08,11.12,11.12,10.86,10.94,1216556
2019-08-09,11.12,11.24,10.96,11.06,844200
2019-08-12,11.18,11.28,11.1,11.12,712600
2019-08-13,11.08,11.08,10.62,10.62,1934000
2019-08-14,10.88,10.88,10.62,10.64,1121000
2019-08-15,10.58,10.82,10.42,10.66,1122700
2019-08-16,10.64,11.16,10.62,11.02,1828600
2019-08-19,10.98,11.56,10.98,11.4,1319200
2019-08-20,11.3,11.4,11.0,11.24,1498114
2019-08-21,11.28,11.28,11.1,11.2,1078086
2019-08-22,11.16,11.3,11.06,11.1,996400
2019-08-23,11.02,11.16,10.88,11.04,1686448
2019-08-26,10.8,10.96,10.7,10.88,1548400
2019-08-27,10.9,11.24,10.9,11.08,2953846
2019-08-28,11.26,11.26,11.08,11.14,735600
2019-08-29,11.3,11.3,11.04,11.08,616200
2019-08-30,11.04,11.36,11.04,11.18,1436600
2019-09-02,11.24,11.56,11.24,11.32,454200
2019-09-03,11.42,11.5,11.24,11.28,610600
2019-09-04,11.3,11.88,11.3,11.74,2461535
2019-09-05,11.88,12.9,11.88,12.5,5011400
2019-09-06,12.6,12.94,12.6,12.68,1888777
2019-09-09,12.88,13.06,12.24,12.42,4273800
2019-09-10,12.38,12.74,12.34,12.64,1358254
2019-09-11,12.64,13.3,12.64,13.0,1769000
2019-09-12,13.06,13.16,12.88,13.04,476000
2019-09-13,12.94,13.34,12.88,13.26,245100
2019-09-16,13.2,13.36,13.04,13.2,1861600
2019-09-17,13.02,13.08,12.72,12.8,1319539
2019-09-18,12.86,12.86,12.54,12.8,1239000
2019-09-19,12.62,12.76,12.1,12.6,4611800
2019-09-20,12.66,12.84,12.56,12.78,2082440
2019-09-23,12.82,12.82,12.36,12.48,1120600
2019-09-24,12.48,12.98,12.38,12.4,1073646
2019-09-25,12.22,12.32,12.04,12.2,2052645
2019-09-26,12.18,12.24,11.94,12.1,1055200
2019-09-27,12.12,12.18,11.92,12.02,325025
2019-09-30,12.16,12.2,12.0,12.2,1763618
2019-10-02,12.2,12.22,12.02,12.12,862600
2019-10-03,11.94,12.04,11.82,11.98,567666
2019-10-04,11.96,12.18,11.96,12.1,224800
2019-10-08,12.02,12.28,11.98,12.04,923800
2019-10-09,11.84,12.22,11.84,12.04,503968
2019-10-10,11.86,12.42,11.86,12.22,1761212
2019-10-11,12.36,12.7,12.28,12.62,1247679
2019-10-14,12.64,12.92,12.64,12.8,623000
2019-10-15,12.8,12.8,12.46,12.68,604400
2019-10-16,12.62,12.94,12.5,12.68,635600
2019-10-17,12.6,12.8,12.5,12.68,518400
2019-10-18,12.66,12.7,12.22,12.26,315617
2019-10-21,12.26,12.62,12.24,12.56,466000
2019-10-22,12.48,12.78,12.4,12.72,651709
2019-10-23,12.64,12.64,12.3,12.4,596800
2019-10-24,12.38,12.54,12.04,12.1,1195246
2019-10-25,12.14,12.24,12.02,12.08,850200
2019-10-28,12.24,12.38,12.14,12.3,405400
2019-10-29,12.36,12.36,12.1,12.24,702832
2019-10-30,12.34,12.54,12.12,12.18,771800
2019-10-31,12.38,12.4,11.88,12.0,1729200
2019-11-01,11.8,12.1,11.8,12.0,361400
2019-11-04,12.22,12.54,12.14,12.52,478600
2019-11-05,12.52,12.98,12.46,12.84,1539400
2019-11-06,12.78,12.86,12.44,12.52,546973
2019-11-07,12.56,12.66,12.34,12.66,264130
2019-11-08,12.7,12.84,12.48,12.6,647000
2019-11-11,12.38,12.4,12.16,12.3,711400
2019-11-12,12.3,12.62,12.24,12.6,521600
2019-11-13,12.5,12.7,11.78,11.98,4085539
2019-11-14,11.94,12.16,11.8,12.14,3652459
2019-11-15,12.14,12.16,11.9,11.98,381800
2019-11-18,11.94,12.08,11.9,12.08,463600
2019-11-19,11.92,12.24,11.92,12.2,528400
2019-11-20,12.18,12.26,12.02,12.2,633000
2019-11-21,12.06,12.06,11.76,12.0,537375
2019-11-22,12.12,12.12,11.9,11.96,467600
2019-11-25,11.96,12.06,11.92,12.04,318600
2019-11-26,12.06,12.2,11.96,12.2,1905400
2019-11-27,11.98,12.12,11.96,12.02,422600
2019-11-28,12.02,12.12,11.96,12.1,330600
2019-11-29,11.94,12.94,11.82,11.9,426000
2019-12-02,12.2,12.2,11.98,12.14,537200
2019-12-03,11.98,12.22,11.98,12.08,399330
2019-12-04,12.24,12.24,11.82,11.92,784000
2019-12-05,12.04,12.1,11.94,12.06,1066000
2019-12-06,12.08,12.54,12.08,12.54,1254200
2019-12-09,12.58,12.64,12.44,12.5,399600
2019-12-10,12.48,12.5,12.18,12.26,419600
2019-12-11,12.28,12.52,12.18,12.44,535400
2019-12-12,12.56,12.6,12.4,12.46,1113900
2019-12-13,12.7,13.0,12.6,13.0,2531400
2019-12-16,13.0,13.22,12.7,13.12,1433600
2019-12-17,13.14,13.76,12.94,13.58,2555400
2019-12-18,13.54,13.72,13.4,13.64,994218
2019-12-19,13.48,13.54,13.36,13.44,614086
2019-12-20,13.54,13.78,13.06,13.78,1658000
2019-12-23,13.52,13.58,13.12,13.26,818724
2019-12-24,13.2,13.38,13.1,13.24,227200
2019-12-27,13.3,13.42,13.0,13.34,1952972
2019-12-30,13.36,13.74,13.06,13.7,3065400
2019-12-31,13.8,13.8,13.44,13.8,1095800
2020-01-02,13.8,14.16,13.8,14.0,1495600
2020-01-03,14.1,14.24,14.0,14.16,1288200
2020-01-06,13.96,14.12,13.8,13.84,823400
2020-01-07,14.0,14.28,13.76,13.92,421400
2020-01-08,14.08,14.08,13.56,13.8,1039761
2020-01-09,14.0,14.2,13.9,14.02,1270480
2020-01-10,14.56,14.6,14.06,14.2,1396200
2020-01-13,14.58,14.58,14.06,14.3,1403600
2020-01-14,14.56,14.56,14.32,14.44,987000
2020-01-15,14.38,14.38,14.1,14.34,428049
2020-01-16,14.54,14.54,14.22,14.34,327731
2020-01-17,14.6,14.6,14.28,14.44,810933
2020-01-20,14.28,14.52,14.2,14.46,306558
2020-01-21,14.48,14.48,13.74,13.82,975600
2020-01-22,13.84,14.28,13.68,14.28,440200
2020-01-23,13.82,14.06,13.18,13.5,327930
2020-01-24,13.24,14.86,13.2,13.9,296800
2020-01-29,13.36,13.42,13.1,13.16,771800
2020-01-30,13.18,13.3,12.44,12.6,785800
2020-01-31,12.54,12.74,12.34,12.48,642800
2020-02-03,12.52,12.84,11.96,12.3,2020395
2020-02-04,12.32,13.14,12.32,13.06,2480878
2020-02-05,13.06,13.4,13.06,13.2,554200
2020-02-06,13.22,13.7,13.08,13.7,1340250
2020-02-07,13.78,13.84,13.32,13.68,590999
2020-02-10,13.3,13.72,13.18,13.64,676200
2020-02-11,13.82,13.82,13.42,13.58,605588
2020-02-12,13.74,13.98,13.48,13.8,1109200
2020-02-13,13.96,13.96,13.5,13.82,592000
2020-02-14,13.82,13.9,13.74,13.84,436600
2020-02-17,14.0,14.44,14.0,14.28,1294000
2020-02-18,14.32,14.38,14.12,14.12,258400
2020-02-19,14.22,14.3,13.98,14.04,1305400
2020-02-20,13.92,14.48,13.88,14.36,1920800
2020-02-21,14.42,15.22,14.38,14.7,2188000
2020-02-24,14.72,14.72,13.96,13.96,2111800
2020-02-25,14.0,14.0,13.62,13.8,999600
2020-02-26,13.62,13.82,13.36,13.42,1295578
2020-02-27,13.72,13.8,13.58,13.7,885200
2020-02-28,13.36,13.4,13.02,13.02,1759000
2020-03-02,13.4,13.72,12.98,13.46,1859000
2020-03-03,13.5,13.96,13.34,13.46,1921400
2020-03-04,13.26,13.9,13.26,13.74,1130400
2020-03-05,13.98,14.36,13.8,14.26,1999400
2020-03-06,14.34,14.34,13.74,13.76,1297000
2020-03-09,13.26,13.38,12.32,12.72,1986000
2020-03-10,12.88,13.1,12.54,12.76,2471200
2020-03-11,12.84,13.04,12.58,12.58,1097000
2020-03-12,12.26,12.36,12.04,12.08,1294382
2020-03-13,12.08,12.08,10.82,11.68,2898355
2020-03-16,11.48,11.76,11.28,11.38,1911800
2020-03-17,11.7,11.76,10.96,11.46,2681029
2020-03-18,11.8,12.0,11.26,11.38,1979300
2020-03-19,11.26,11.76,10.26,10.42,7694900
2020-03-20,10.78,10.9,10.46,10.72,4987867
2020-03-23,10.16,10.68,10.12,10.3,3162600
2020-03-24,10.3,10.8,10.3,10.62,1787695
2020-03-25,11.08,11.6,11.08,11.36,3037000
2020-03-26,11.16,11.78,11.16,11.68,3732800
2020-03-27,11.92,11.92,11.44,11.62,2085000
2020-03-30,11.32,11.62,11.2,11.26,841200
2020-03-31,12.26,12.32,11.2,11.54,1212200
2020-04-01,11.24,11.78,11.24,11.48,2024901
2020-04-02,11.76,11.76,11.24,11.62,629400
2020-04-03,11.6,11.64,11.22,11.38,157200
2020-04-06,11.44,11.62,11.08,11.54,580600
2020-04-07,11.8,11.88,11.6,11.8,2131000
2020-04-08,11.78,11.8,11.6,11.76,789400
2020-04-09,12.04,12.12,11.68,11.72,1153600
2020-04-14,11.78,11.92,11.48,11.74,1885200
2020-04-15,11.88,11.88,11.42,11.42,1506935
2020-04-16,11.48,11.64,11.26,11.26,1617300
2020-04-17,11.36,11.6,11.2,11.38,2660395
2020-04-20,11.56,11.56,11.16,11.24,1994400
2020-04-21,11.06,11.24,10.68,10.72,2771691
2020-04-22,10.7,10.96,10.66,10.88,903712
2020-04-23,10.96,10.96,10.78,10.84,340827
2020-04-24,10.9,10.9,10.68,10.72,796405
2020-04-27,10.82,10.94,10.54,10.8,3645600
2020-04-28,10.94,11.06,10.74,11.06,1192800
2020-04-29,11.14,11.18,11.02,11.16,503132
2020-05-04,10.8,10.8,9.95,9.99,2620432
2020-05-05,10.08,10.12,9.8,9.86,1324400
2020-05-06,10.06,10.46,10.02,10.4,2578600
2020-05-07,10.42,10.44,10.26,10.34,1592400
2020-05-08,10.42,10.76,10.34,10.52,2512376
2020-05-11,10.66,10.94,10.62,10.82,1512200
2020-05-12,10.8,10.8,10.5,10.56,2132629
2020-05-13,10.5,10.5,10.26,10.38,2692514
2020-05-14,10.34,10.34,10.2,10.24,1784800
2020-05-15,10.2,10.24,10.06,10.08,2895600
2020-05-18,10.0,10.16,10.0,10.08,1094045
2020-05-19,10.18,10.3,10.12,10.24,2382000
2020-05-20,10.18,10.24,10.06,10.08,4677400
2020-05-21,10.34,10.34,10.04,10.2,1863800
2020-05-22,10.04,10.06,9.63,9.73,3674006
2020-05-25,9.73,9.8,9.63,9.68,1956000
2020-05-26,9.63,10.06,9.63,9.96,2331000
2020-05-27,10.0,10.14,9.78,9.86,3565000
2020-05-28,9.97,10.3,9.88,10.04,3099356
2020-05-29,9.9,10.18,9.9,10.18,12232736
2020-06-01,10.2,10.86,10.2,10.7,3229685
2020-06-02,10.7,10.74,10.6,10.64,1322200
2020-06-03,10.66,10.86,10.62,10.66,1178800
2020-06-04,10.72,10.88,10.54,10.76,1654657
2020-06-05,10.7,11.26,10.68,11.1,3330707
2020-06-08,11.62,11.64,11.12,11.14,2080000
2020-06-09,11.0,11.52,11.0,11.32,1956754
2020-06-10,11.22,11.56,11.22,11.46,2154396
2020-06-11,11.24,11.5,11.12,11.16,1013400
2020-06-12,10.92,11.18,10.82,11.02,1713689
2020-06-15,10.84,11.3,10.84,10.88,1558800
2020-06-16,11.02,11.28,11.02,11.14,892400
2020-06-17,11.3,11.32,11.06,11.16,1087950
2020-06-18,11.06,11.5,11.02,11.32,2010800
2020-06-19,11.26,11.74,11.22,11.62,3245414
2020-06-22,11.42,12.24,11.4,11.64,3422391
2020-06-23,11.56,11.66,11.34,11.42,1756755
2020-06-24,11.48,11.62,11.14,11.14,1389512
2020-06-26,11.14,11.18,10.96,10.98,617800
2020-06-29,10.76,10.76,10.4,10.56,2773700
2020-06-30,10.42,10.84,10.42,10.72,4569200
2020-07-02,10.48,11.76,10.48,11.72,3435986
2020-07-03,11.9,12.24,11.5,12.08,6862000
2020-07-06,12.68,13.72,12.68,13.7,9777461
2020-07-07,14.7,14.7,13.28,13.38,6085796
2020-07-08,13.68,14.46,13.54,14.28,7100000
2020-07-09,15.04,15.04,14.1,14.24,3140600
2020-07-10,14.62,14.62,13.72,14.0,3148100
2020-07-13,14.06,14.82,13.9,14.56,4295200
2020-07-14,14.5,14.5,14.1,14.22,7398400
2020-07-15,14.62,14.62,13.86,14.16,3767200
2020-07-16,14.3,14.3,13.26,13.44,4183200
2020-07-17,13.56,13.84,13.36,13.64,4319800
2020-07-20,14.0,14.36,13.64,14.16,5023600
2020-07-21,14.2,14.32,13.9,14.1,2074600
2020-07-22,14.36,14.36,13.88,14.04,2932416
2020-07-23,14.04,14.24,13.82,14.16,2814200
2020-07-24,14.02,14.02,13.02,13.16,2885400
2020-07-27,13.12,13.5,12.88,12.88,1470379
2020-07-28,12.9,13.16,12.86,12.96,685187
2020-07-29,12.92,13.36,12.76,13.1,1202600
2020-07-30,13.04,13.24,12.88,13.0,658800
2020-07-31,12.98,13.28,12.78,12.82,689850
2020-08-03,13.08,13.2,12.68,12.94,847709
2020-08-04,12.94,13.24,12.84,13.04,664000
2020-08-05,13.0,13.08,12.76,13.02,635468
2020-08-06,13.14,13.32,12.78,13.32,1397990
2020-08-07,13.32,13.32,12.68,12.9,956433
2020-08-10,12.76,13.0,12.66,12.84,637400
2020-08-11,12.72,13.04,12.6,12.68,732200
2020-08-12,12.58,12.76,12.32,12.64,1012000
2020-08-13,12.74,12.94,12.66,12.84,1969494
2020-08-14,12.92,13.04,12.76,12.98,1927000
2020-08-17,13.0,13.72,12.94,13.4,2189727
2020-08-18,13.58,13.58,13.04,13.22,1278650
2020-08-19,13.04,13.38,13.04,13.26,634637
2020-08-20,13.1,13.2,12.9,13.04,771902
2020-08-21,13.12,13.34,13.06,13.26,1007214
2020-08-24,13.26,13.36,13.02,13.12,412200
2020-08-25,13.12,13.26,12.88,13.02,793400
