Date,Open,High,Low,Close,Volume
2011-03-22,10.7,10.88,10.62,10.78,23223540
2011-03-23,10.78,10.78,10.54,10.54,7589206
2011-03-24,10.66,10.92,10.56,10.68,18638012
2011-03-25,10.84,11.2,10.8,11.18,37824528
2011-03-28,11.32,11.5,11.2,11.38,19984088
2011-03-29,11.4,11.42,11.12,11.12,12197000
2011-03-30,11.3,11.6,11.28,11.56,18989632
2011-03-31,11.78,11.8,11.52,11.58,19950488
2011-04-01,11.78,11.78,11.42,11.66,16528904
2011-04-04,11.78,12.0,11.7,11.82,13752000
2011-04-06,11.6,12.0,11.46,11.98,24283200
2011-04-07,11.98,12.0,11.62,11.72,21109982
2011-04-08,11.8,11.92,11.52,11.64,17210760
2011-04-11,11.6,11.7,11.26,11.32,13494446
2011-04-12,11.16,11.38,11.08,11.22,17335200
2011-04-13,11.18,11.46,11.1,11.4,8755023
2011-04-14,11.36,11.84,11.36,11.46,21481232
2011-04-15,11.44,11.74,11.26,11.3,15489050
2011-04-18,11.3,11.54,11.26,11.44,10074400
2011-04-19,11.42,11.46,11.32,11.38,8133244
2011-04-20,11.18,11.3,10.92,11.08,7187668
2011-04-21,11.18,11.46,11.1,11.38,12269644
2011-04-26,11.36,11.36,10.98,11.24,8751751
2011-04-27,11.28,11.36,10.96,10.96,7148741
2011-04-28,11.2,11.2,10.52,10.68,16512590
2011-04-29,10.68,10.68,10.5,10.58,7269698
2011-05-03,10.58,10.58,10.26,10.42,8106148
2011-05-04,10.42,10.42,10.02,10.12,14867928
2011-05-05,10.04,10.3,10.0,10.18,10059700
2011-05-06,9.96,10.22,9.96,10.14,7428287
2011-05-09,10.1,10.44,10.02,10.42,7574198
2011-05-11,10.52,10.56,10.18,10.24,14882236
2011-05-12,10.22,10.22,9.99,10.08,11031980
2011-05-13,10.16,10.2,10.06,10.14,6730000
2011-05-16,10.06,10.1,10.0,10.0,6820673
2011-05-17,10.0,10.28,9.96,10.2,12270100
2011-05-18,10.28,10.52,10.22,10.46,11352600
2011-05-19,10.46,10.68,10.32,10.44,8672400
2011-05-20,10.42,10.42,10.14,10.32,9511703
2011-05-23,10.22,10.34,10.16,10.22,7961200
2011-05-24,10.16,10.28,10.04,10.28,8485095
2011-05-25,10.3,10.42,10.04,10.34,9941000
2011-05-26,10.34,10.44,10.22,10.3,4955000
2011-05-27,10.46,10.56,10.34,10.54,7139119
2011-05-30,10.58,10.6,10.3,10.54,4724800
2011-05-31,10.66,10.9,10.52,10.82,12616920
2011-06-01,10.92,10.92,10.44,10.48,22586632
2011-06-02,10.18,10.4,10.18,10.22,6234972
2011-06-03,10.26,10.3,10.0,10.02,14627080
2011-06-07,10.06,10.22,10.02,10.1,6514428
2011-06-08,10.04,10.16,9.98,10.0,11308800
2011-06-09,10.02,10.12,9.8,9.94,8066568
2011-06-10,10.04,10.2,9.8,9.84,7152087
2011-06-13,9.73,9.78,9.62,9.63,6764702
2011-06-14,9.58,10.22,9.58,10.06,17665236
2011-06-15,10.06,10.2,9.98,10.04,5194630
2011-06-16,9.95,9.95,9.57,9.65,14481710
2011-06-17,9.65,9.89,9.55,9.58,7517150
2011-06-20,9.69,9.89,9.53,9.6,7130000
2011-06-21,9.7,9.9,9.62,9.89,7224928
2011-06-22,10.08,10.2,9.97,10.02,6626400
2011-06-23,10.04,10.24,9.88,10.08,6244800
2011-06-24,10.38,10.58,10.08,10.56,16133193
2011-06-27,10.4,10.62,10.2,10.56,9062466
2011-06-28,10.7,10.7,10.18,10.36,9063000
2011-06-29,10.48,10.5,10.14,10.26,4729542
2011-06-30,10.36,10.72,10.34,10.6,12942875
2011-07-04,11.0,11.0,10.8,10.92,20725202
2011-07-05,10.94,11.32,10.92,11.26,26660328
2011-07-06,11.06,11.24,10.88,11.06,16114344
2011-07-07,11.16,11.2,10.78,10.8,11655200
2011-07-08,11.12,11.2,10.98,11.16,15657330
2011-07-11,10.98,11.2,10.74,10.76,10460100
2011-07-12,10.66,10.66,10.14,10.16,22038600
2011-07-13,10.42,10.56,10.24,10.44,9775512
2011-07-14,10.34,10.62,10.32,10.34,6259800
2011-07-15,10.22,10.28,10.0,10.08,10716400
2011-07-18,10.0,10.12,9.9,9.95,10797901
2011-07-19,9.9,10.0,9.89,9.96,7507994
2011-07-20,9.96,10.24,9.96,10.2,7139300
2011-07-21,10.3,10.3,10.02,10.08,3322120
2011-07-22,10.28,10.36,10.14,10.32,5618068
2011-07-25,10.3,10.3,10.04,10.1,3948706
2011-07-26,10.1,10.26,10.04,10.16,6806220
2011-07-27,10.08,10.28,10.08,10.14,3959800
2011-07-28,10.0,10.18,9.94,10.08,5191200
2011-07-29,10.08,10.14,10.0,10.06,3412600
2011-08-01,10.36,10.36,10.2,10.3,7048600
2011-08-02,10.18,10.3,10.04,10.12,3859800
2011-08-03,9.98,10.1,9.9,9.96,9259600
2011-08-04,9.93,10.04,9.83,9.93,7367800
2011-08-05,9.55,9.63,9.4,9.6,16360200
2011-08-08,9.12,9.38,9.0,9.28,13637440
2011-08-09,8.79,9.21,7.5,9.05,16699188
2011-08-10,9.45,9.58,8.92,9.01,12859371
2011-08-11,8.73,8.98,8.66,8.9,8393772
2011-08-12,8.92,9.13,8.76,8.82,5241766
2011-08-15,9.0,9.5,9.0,9.41,13675000
2011-08-16,9.55,9.95,9.55,9.81,19341816
2011-08-17,9.81,9.83,9.38,9.42,5633855
2011-08-18,9.25,9.39,9.02,9.06,10900920
2011-08-19,8.79,8.95,8.69,8.71,9342000
2011-08-22,8.71,8.99,8.33,8.71,7190160
2011-08-23,8.7,9.14,8.2,9.09,21502764
2011-08-24,9.01,9.02,8.62,8.74,8168232
2011-08-25,8.85,9.0,8.8,8.86,5375608
2011-08-26,8.87,8.95,8.67,8.92,6203400
2011-08-29,8.95,9.06,8.9,8.96,4558920
2011-08-30,8.94,9.23,8.91,9.17,11330861
2011-08-31,9.13,9.42,9.12,9.39,6736656
2011-09-01,9.46,9.74,9.29,9.3,15070332
2011-09-02,9.15,9.2,8.81,8.83,26027420
2011-09-05,8.7,8.75,8.4,8.41,18879972
2011-09-06,8.3,8.4,8.25,8.38,7627200
2011-09-07,8.41,8.43,8.1,8.16,15849146
2011-09-08,8.26,8.32,8.05,8.08,9334731
2011-09-09,8.19,8.27,8.03,8.05,11040000
2011-09-12,7.61,7.65,7.38,7.39,19768800
2011-09-14,7.4,7.47,7.06,7.21,12587301
2011-09-15,7.37,7.37,7.0,7.08,13652401
2011-09-16,7.2,7.35,7.18,7.29,9979768
2011-09-19,7.25,7.25,7.09,7.16,8511176
2011-09-20,7.14,7.32,6.97,7.0,10739924
2011-09-21,6.98,6.98,6.5,6.58,12187359
2011-09-22,6.4,6.4,5.78,6.01,27943560
2011-09-23,5.92,6.19,5.76,5.98,17690770
2011-09-26,5.8,6.17,5.48,5.57,10117100
2011-09-27,5.71,5.97,5.61,5.62,12860930
2011-09-28,5.65,5.89,5.59,5.86,16258840
2011-09-30,5.75,6.01,5.62,5.82,24606900
2011-10-03,5.68,5.8,5.52,5.71,10915077
2011-10-04,5.76,5.79,5.48,5.67,14358427
2011-10-06,6.06,6.25,5.95,6.09,15969069
2011-10-07,6.34,6.45,6.24,6.42,17366600
2011-10-10,6.21,6.36,6.11,6.29,4857712
2011-10-11,6.45,6.6,6.26,6.41,10066000
2011-10-12,6.35,6.92,6.33,6.82,12165252
2011-10-13,6.93,7.29,6.7,7.1,16649793
2011-10-14,6.97,7.0,6.72,6.84,7888000
2011-10-17,7.0,7.2,6.87,7.0,7284800
2011-10-18,6.66,6.68,6.3,6.48,9752298
2011-10-19,6.7,6.7,6.33,6.42,4811600
2011-10-20,6.5,6.5,6.18,6.41,3226696
2011-10-21,6.54,6.55,6.3,6.36,1832378
2011-10-24,6.38,6.72,6.38,6.62,2601388
2011-10-25,6.71,6.79,6.55,6.7,2943000
2011-10-26,6.6,6.99,6.56,6.96,6921483
2011-10-27,6.98,7.4,6.85,7.28,16800064
2011-10-28,7.63,7.88,7.6,7.86,22611752
2011-10-31,7.56,7.86,7.47,7.69,8012421
2011-11-01,7.8,7.8,7.17,7.18,7723216
2011-11-02,7.0,7.22,6.7,7.2,14529216
2011-11-03,7.05,7.35,6.96,7.13,7754360
2011-11-04,7.46,7.48,7.34,7.36,3738401
2011-11-07,7.36,7.59,7.3,7.49,3983300
2011-11-08,7.49,7.64,7.28,7.3,3269600
2011-11-09,7.48,7.55,7.34,7.42,5492700
2011-11-10,7.2,7.2,6.87,6.95,5858300
2011-11-11,7.11,7.15,6.79,6.82,3674430
2011-11-14,6.98,7.2,6.93,7.12,5205200
2011-11-15,7.1,7.1,6.81,6.9,3268000
2011-11-16,6.88,6.9,6.26,6.54,11043069
2011-11-17,6.43,6.5,6.13,6.33,8132428
2011-11-18,6.2,6.34,6.13,6.16,5413200
2011-11-21,6.08,6.2,6.0,6.16,2689600
2011-11-22,6.06,6.17,5.9,6.16,4044581
2011-11-23,6.09,6.09,5.92,5.95,11171600
2011-11-24,6.0,6.11,5.72,5.9,9113212
2011-11-25,5.84,5.98,5.72,5.85,8028800
2011-11-28,5.95,6.11,5.95,6.05,7713460
2011-11-29,6.15,6.2,6.0,6.13,5782000
2011-11-30,6.02,6.28,5.96,6.1,10614944
2011-12-01,6.66,6.93,6.63,6.88,25125588
2011-12-02,6.83,7.1,6.8,7.02,9971600
2011-12-05,7.0,7.05,6.76,6.93,5825976
2011-12-06,6.93,6.93,6.64,6.66,2401085
2011-12-07,6.62,6.79,6.46,6.6,9894400
2011-12-08,6.51,6.69,6.51,6.67,2495200
2011-12-09,6.37,6.52,6.28,6.3,7780400
2011-12-12,6.36,6.45,6.26,6.29,3125000
2011-12-13,6.2,6.38,6.2,6.28,2435865
2011-12-14,6.17,6.33,6.17,6.24,3724436
2011-12-15,6.08,6.19,6.05,6.1,6218860
2011-12-16,6.15,6.6,6.1,6.46,4127660
2011-12-19,6.23,6.3,6.12,6.22,3459800
2011-12-20,6.23,6.36,6.13,6.16,3926496
2011-12-21,6.33,6.4,6.25,6.3,3235315
2011-12-22,6.21,6.5,6.16,6.38,5882785
2011-12-23,6.49,6.62,6.32,6.54,4981200
2011-12-28,6.48,6.54,6.32,6.39,3264671
2011-12-29,6.22,6.29,6.07,6.16,5855374
2011-12-30,6.17,6.22,6.1,6.14,3198021
2012-01-03,6.29,6.35,6.22,6.24,2338670
2012-01-04,6.24,6.3,6.2,6.21,2930317
2012-01-05,6.16,6.23,5.97,6.03,4083554
2012-01-06,5.86,5.99,5.86,5.89,2801759
2012-01-09,5.89,6.22,5.8,6.19,3382271
2012-01-10,6.24,6.42,6.19,6.41,4892000
2012-01-11,6.55,6.55,6.33,6.49,4077840
2012-01-12,6.49,6.64,6.38,6.58,4063600
2012-01-13,6.68,6.91,6.55,6.89,9286605
2012-01-16,6.8,6.82,6.6,6.7,2823700
2012-01-17,6.72,7.12,6.71,7.09,14954800
2012-01-18,7.12,7.13,7.0,7.07,12347197
2012-01-19,7.2,7.37,7.05,7.15,15863600
2012-01-20,7.3,7.46,7.1,7.44,13847600
2012-01-26,7.54,8.05,7.45,8.01,13875191
2012-01-27,8.0,8.0,7.77,7.8,8612304
2012-01-30,7.7,7.7,7.25,7.34,10377800
2012-01-31,7.46,7.65,7.26,7.6,9274556
2012-02-01,7.7,7.77,7.55,7.64,6037536
2012-02-02,7.71,8.08,7.7,7.93,15855696
2012-02-03,7.8,8.27,7.8,8.18,18801524
2012-02-06,8.28,8.29,7.92,8.16,5382388
2012-02-07,8.14,8.35,7.87,7.93,7589162
2012-02-08,8.1,8.5,7.97,8.5,10647016
2012-02-09,8.5,9.04,8.35,8.99,27689406
2012-02-10,9.01,9.13,8.48,8.82,13675800
2012-02-13,8.63,8.63,8.2,8.32,10162068
2012-02-14,8.36,8.68,8.32,8.65,5459612
2012-02-15,8.65,9.0,8.48,8.98,8016070
2012-02-16,8.8,9.01,8.73,8.95,6089920
2012-02-17,8.95,9.25,8.83,9.23,17332376
2012-02-20,9.39,9.7,9.35,9.45,8364491
2012-02-21,9.45,9.62,9.19,9.5,5457904
2012-02-22,9.27,10.08,9.27,10.02,25128608
2012-02-23,10.02,10.18,9.85,10.08,12044082
2012-02-24,10.2,10.2,9.92,10.2,8718038
2012-02-27,10.2,10.46,10.06,10.28,15446087
2012-02-28,10.28,10.32,9.9,10.28,8227868
2012-02-29,10.18,10.26,10.0,10.24,15468056
2012-03-01,10.04,10.1,9.38,9.42,15466762
2012-03-02,9.7,9.76,9.38,9.63,19026080
2012-03-05,9.75,9.92,9.56,9.69,8960800
2012-03-06,9.98,9.98,9.43,9.53,13269272
2012-03-07,9.4,9.75,9.39,9.69,7161753
2012-03-08,9.79,9.9,9.64,9.9,9639200
2012-03-09,9.88,10.18,9.81,10.1,9778000
2012-03-12,10.2,10.2,9.96,10.04,4488939
2012-03-13,10.1,10.16,9.89,10.08,9388910
2012-03-14,10.2,10.2,9.8,9.94,9094444
2012-03-15,10.0,10.06,9.82,9.99,7000000
2012-03-16,10.2,10.2,9.6,9.63,4528400
2012-03-19,9.65,9.83,9.28,9.34,5814056
2012-03-20,9.4,9.42,9.12,9.3,2956080
2012-03-21,9.3,9.6,8.74,9.01,8758420
2012-03-22,9.24,9.28,9.07,9.13,3607144
2012-03-23,8.92,9.1,8.8,9.06,6110200
2012-03-26,9.1,9.28,9.04,9.08,3593200
2012-03-27,9.23,9.41,9.2,9.39,7850635
2012-03-28,9.43,9.43,8.99,9.11,7256600
2012-03-29,8.92,9.18,8.9,9.0,6216400
2012-03-30,9.0,9.46,8.97,9.25,4650432
2012-04-02,9.4,9.46,9.2,9.36,4652789
2012-04-03,9.46,10.2,9.36,9.99,13642282
2012-04-05,10.04,10.22,9.65,10.2,8442600
2012-04-10,10.2,10.26,10.04,10.1,8013559
2012-04-11,10.0,10.04,9.7,9.96,4516480
2012-04-12,9.88,10.28,9.88,10.16,6179840
2012-04-13,10.26,10.32,10.12,10.3,5657316
2012-04-16,10.22,10.28,9.95,9.99,5313200
2012-04-17,10.08,10.26,9.98,10.1,9035011
2012-04-18,10.18,10.2,9.51,9.85,16798344
2012-04-19,9.7,9.92,9.63,9.86,9233200
2012-04-20,9.71,9.9,9.66,9.8,4291296
2012-04-23,9.8,9.89,9.65,9.68,3530401
2012-04-24,9.67,9.93,9.62,9.68,4764400
2012-04-25,9.8,10.1,9.71,10.06,9170218
2012-04-26,10.18,10.2,9.96,10.18,6034400
2012-04-27,10.26,10.3,10.08,10.24,6482600
2012-04-30,10.3,10.38,10.26,10.36,9084543
2012-05-02,10.38,10.64,10.36,10.46,9196930
2012-05-03,10.46,10.8,10.46,10.66,7421919
2012-05-04,10.48,10.72,10.2,10.7,5539913
2012-05-07,10.5,10.58,10.3,10.5,10052977
2012-05-08,10.82,10.84,10.5,10.64,10706500
2012-05-09,10.5,10.5,10.08,10.28,7349132
2012-05-10,10.18,10.6,10.08,10.34,4233143
2012-05-11,10.34,10.36,9.72,10.1,7661725
2012-05-14,10.24,10.34,10.04,10.12,4695597
2012-05-15,9.88,10.48,9.88,10.32,4627200
2012-05-16,10.3,10.3,9.61,9.64,9285200
2012-05-17,9.4,9.89,9.4,9.7,9389332
2012-05-18,9.5,9.54,9.0,9.13,10329430
2012-05-21,9.3,9.32,9.11,9.13,4130000
2012-05-22,9.21,9.8,9.21,9.68,6373036
2012-05-23,9.55,9.84,9.38,9.72,5345300
2012-05-24,9.8,9.98,9.6,9.88,7308132
2012-05-25,9.8,9.88,9.6,9.78,2555200
2012-05-28,9.74,10.0,9.7,9.92,2636400
2012-05-29,9.92,10.7,9.92,10.68,7187200
2012-05-30,10.42,10.9,10.36,10.86,11082600
2012-05-31,10.1,10.38,10.08,10.22,11272979
2012-06-01,10.16,10.3,10.0,10.02,7334486
2012-06-04,9.7,9.9,9.4,9.53,4604470
2012-06-05,9.53,9.8,9.41,9.6,6641166
2012-06-06,9.64,10.16,9.55,10.1,6893000
2012-06-07,10.22,10.4,9.81,9.94,4771899
2012-06-08,10.28,10.44,10.02,10.38,16468089
2012-06-11,10.6,10.78,10.5,10.78,10988705
2012-06-12,10.6,10.94,10.56,10.9,15903561
2012-06-13,10.86,10.96,10.58,10.94,7630330
2012-06-14,10.72,10.88,10.5,10.54,5148119
2012-06-15,10.54,10.96,10.54,10.84,9066800
2012-06-18,10.96,11.0,10.68,10.8,9805800
2012-06-19,10.84,10.9,10.7,10.8,8286989
2012-06-20,10.9,10.9,10.44,10.58,9682454
2012-06-21,10.5,10.68,9.84,9.96,16192458
2012-06-22,9.88,10.42,9.81,9.99,13291800
2012-06-25,10.04,10.06,9.62,9.75,8172266
2012-06-26,9.74,10.18,9.7,10.1,4804400
2012-06-27,10.08,10.32,10.06,10.26,5917100
2012-06-28,10.3,10.4,9.82,9.88,7463844
2012-06-29,9.97,10.24,9.88,10.18,4857976
2012-07-03,10.5,10.56,10.32,10.46,10402650
2012-07-04,10.8,10.8,10.54,10.76,12672187
2012-07-05,10.72,10.78,10.6,10.7,5915400
2012-07-06,10.86,11.02,10.78,10.98,19230296
2012-07-09,10.9,10.9,10.5,10.6,4516800
2012-07-10,10.54,10.78,10.42,10.64,4193600
2012-07-11,10.6,10.6,10.22,10.32,8439344
2012-07-12,10.3,10.56,10.08,10.12,20417200
2012-07-13,10.12,10.26,10.06,10.18,3952136
2012-07-16,10.22,10.7,10.22,10.58,15107724
2012-07-17,10.66,10.86,10.46,10.8,6193888
2012-07-18,10.82,10.88,10.28,10.4,8924744
2012-07-19,10.6,10.6,10.3,10.32,7158843
2012-07-20,10.4,10.4,10.12,10.2,8571387
2012-07-23,10.1,10.1,9.95,9.99,6190682
2012-07-24,9.8,10.14,9.76,9.8,7211352
2012-07-25,9.79,9.8,9.28,9.34,11423645
2012-07-26,9.38,9.7,9.25,9.6,7159647
2012-07-27,9.8,10.26,9.8,10.18,7078296
2012-07-30,10.0,10.0,9.45,9.76,9258000
2012-07-31,9.71,9.95,9.63,9.89,7883200
2012-08-01,10.0,10.06,9.8,9.97,7765600
2012-08-02,9.97,10.12,9.52,9.54,8638722
2012-08-03,9.52,9.67,9.44,9.45,8492520
2012-08-06,9.65,9.8,9.55,9.66,6567200
2012-08-07,9.6,9.86,9.53,9.58,3475140
2012-08-08,9.67,9.8,9.52,9.59,4589061
2012-08-09,9.64,10.04,9.63,10.02,5448320
2012-08-10,10.0,10.04,9.72,9.86,3866000
2012-08-13,9.8,9.87,9.71,9.73,1264612
2012-08-14,9.9,9.9,9.59,9.64,3788000
2012-08-15,9.6,9.61,9.46,9.51,3872000
2012-08-16,9.5,10.18,9.15,9.19,9761200
2012-08-17,9.2,9.4,9.2,9.35,6395400
2012-08-20,9.35,9.35,9.1,9.15,8985600
2012-08-21,9.05,9.2,9.05,9.1,8639600
2012-08-22,9.1,9.15,8.99,9.0,6154000
2012-08-23,8.98,9.09,8.95,9.08,6020000
2012-08-24,8.9,9.02,8.9,8.94,3353400
2012-08-27,8.82,8.94,8.8,8.86,3785530
2012-08-28,8.83,8.98,8.83,8.95,3167100
2012-08-29,9.0,9.0,8.8,8.83,4170046
2012-08-30,8.76,8.96,8.76,8.96,3323671
2012-08-31,9.0,9.0,8.77,8.96,2972702
2012-09-03,9.0,9.2,8.85,9.12,5046524
2012-09-04,9.13,9.22,8.94,8.95,3124386
2012-09-05,8.95,9.05,8.78,8.82,4059651
2012-09-06,8.74,8.85,8.61,8.66,2420737
2012-09-07,8.83,9.18,8.83,9.15,7793030
2012-09-10,9.15,9.3,9.14,9.16,2755800
2012-09-11,9.16,9.4,8.9,8.96,4594010
2012-09-12,8.97,9.19,8.97,9.12,4388425
2012-09-13,9.17,9.5,9.11,9.39,10202677
2012-09-14,9.6,9.8,9.6,9.72,13490908
2012-09-17,9.7,9.85,9.22,9.27,9684212
2012-09-18,9.25,9.47,9.2,9.3,6723218
2012-09-19,9.27,9.35,9.05,9.07,10495617
2012-09-20,9.1,9.21,8.82,8.88,8242702
2012-09-21,8.95,9.04,8.84,8.89,4678668
2012-09-24,8.81,8.88,8.7,8.79,7282400
2012-09-25,8.7,8.86,8.7,8.85,2555151
2012-09-26,8.63,8.89,8.63,8.8,2758180
2012-09-27,8.8,8.92,8.74,8.77,3033428
2012-09-28,8.82,8.99,8.77,8.93,5276354
2012-10-03,9.0,9.05,8.85,8.86,4916440
2012-10-04,8.94,8.94,8.8,8.84,1296400
2012-10-05,8.82,8.99,8.82,8.89,3310009
2012-10-08,8.9,8.9,8.76,8.77,2445200
2012-10-09,8.77,8.87,8.65,8.68,6151140
2012-10-10,8.62,8.72,8.58,8.64,3004800
2012-10-11,8.59,8.79,8.57,8.68,6709630
2012-10-12,8.68,8.84,8.68,8.73,6629400
2012-10-15,8.7,8.79,8.62,8.71,8049800
2012-10-16,8.71,9.2,8.71,9.17,13290331
2012-10-17,9.28,9.28,9.03,9.09,7900782
2012-10-18,9.03,9.46,9.0,9.44,15191790
2012-10-19,9.4,9.44,9.26,9.37,9548635
2012-10-22,9.28,9.46,9.25,9.4,4375956
2012-10-24,9.28,9.58,9.21,9.52,5659225
2012-10-25,9.53,9.55,9.4,9.55,3428434
2012-10-26,9.54,9.54,9.21,9.29,6157487
2012-10-29,9.29,9.37,9.16,9.3,3659600
2012-10-30,9.31,9.47,9.21,9.46,3653800
2012-10-31,9.48,9.56,9.42,9.53,3892331
2012-11-01,9.52,9.86,9.46,9.8,7343229
2012-11-02,9.9,10.2,9.9,10.16,11964797
2012-11-05,10.16,10.38,10.04,10.2,6454600
2012-11-06,10.16,10.2,9.92,10.14,2988600
2012-11-07,10.14,10.3,10.0,10.2,2814158
2012-11-08,9.99,10.16,9.9,9.96,6134800
2012-11-09,9.96,10.32,9.92,10.12,5590600
2012-11-12,10.12,10.36,10.12,10.28,4873600
2012-11-13,10.26,10.48,10.2,10.3,9667349
2012-11-14,10.28,10.7,10.2,10.68,10291262
2012-11-15,10.46,10.76,10.46,10.6,6448370
2012-11-16,10.58,10.6,10.44,10.6,12449600
2012-11-19,10.46,10.58,10.34,10.54,2292200
2012-11-20,10.64,10.7,10.2,10.22,2914844
2012-11-21,10.3,10.68,10.26,10.66,7781200
2012-11-22,10.52,10.9,10.52,10.88,6111502
2012-11-23,10.88,11.28,10.88,11.0,11058900
2012-11-26,11.0,11.08,10.74,10.8,4271571
2012-11-27,10.84,11.02,10.8,10.98,6221200
2012-11-28,11.12,11.66,11.02,11.64,20888326
2012-11-29,11.86,12.56,11.76,12.3,20708672
2012-11-30,12.3,13.4,12.3,13.22,42131596
2012-12-03,13.02,13.2,12.38,12.6,23686290
2012-12-04,12.38,12.66,12.2,12.44,12033980
2012-12-05,12.5,12.8,12.3,12.78,7130664
2012-12-06,12.62,13.18,12.56,12.82,8000300
2012-12-07,12.8,13.18,12.8,13.0,5667336
2012-12-10,13.18,13.28,12.76,12.8,6606000
2012-12-11,13.0,13.0,12.58,12.74,4096400
2012-12-12,12.62,13.06,12.62,12.78,8697251
2012-12-13,12.7,12.88,12.6,12.68,8826800
2012-12-14,12.68,12.86,12.66,12.8,4771000
2012-12-17,12.88,12.94,12.84,12.9,4141525
2012-12-18,12.84,12.86,12.36,12.4,5537417
2012-12-19,12.5,12.64,12.42,12.46,9237300
2012-12-20,12.44,12.98,12.34,12.98,6027400
2012-12-21,12.9,13.22,12.68,12.78,9540200
2012-12-24,12.78,12.98,12.78,12.88,994800
2012-12-27,12.96,13.2,12.9,12.98,2869946
2012-12-28,13.0,13.0,12.5,12.88,5283990
2012-12-31,12.84,12.96,12.76,12.9,2114400
2013-01-02,12.94,13.88,12.94,13.78,11023724
2013-01-03,14.0,14.76,14.0,14.72,14397606
2013-01-04,15.16,15.18,14.38,15.14,14749836
2013-01-07,15.16,16.28,14.86,15.42,15496954
2013-01-08,15.4,15.4,14.48,14.9,9372938
2013-01-09,14.78,15.0,14.74,14.86,5449200
2013-01-10,15.0,15.2,14.48,14.54,8719440
2013-01-11,14.7,14.74,13.98,14.1,9451958
2013-01-14,14.18,14.58,13.86,14.4,10641471
2013-01-15,14.48,14.78,14.4,14.76,7402174
2013-01-16,14.74,14.78,14.32,14.78,4862888
2013-01-17,14.46,14.66,14.1,14.3,7339600
2013-01-18,14.6,14.6,14.08,14.34,9739572
2013-01-21,14.4,14.86,14.26,14.82,5019686
2013-01-22,14.98,14.98,14.72,14.94,4172388
2013-01-23,14.98,15.0,14.4,14.42,5951073
2013-01-24,14.28,14.44,14.24,14.36,2932800
2013-01-25,14.36,14.36,13.84,13.88,6919000
2013-01-28,14.0,14.08,13.68,13.78,6448200
2013-01-29,14.02,14.34,13.82,14.08,4289408
2013-01-30,14.0,14.46,14.0,14.44,7280138
2013-01-31,14.5,14.68,14.06,14.08,6591216
2013-02-01,14.1,14.1,13.6,13.94,9394676
2013-02-04,13.98,14.26,13.94,13.94,3399600
2013-02-05,14.0,14.0,13.52,13.6,6278000
2013-02-06,13.62,13.86,13.5,13.7,5583302
2013-02-07,13.7,13.8,12.88,13.08,10509525
2013-02-08,12.9,13.1,12.76,13.0,8376016
2013-02-14,13.34,13.44,13.1,13.26,5344478
2013-02-15,13.18,13.46,13.16,13.34,4651326
2013-02-18,13.54,13.54,12.82,12.86,6261922
2013-02-19,12.9,12.98,12.54,12.54,7091600
2013-02-20,12.9,12.9,12.4,12.68,5927600
2013-02-21,12.4,12.52,12.22,12.48,9314149
2013-02-22,12.5,12.8,12.32,12.72,10147003
2013-02-25,12.5,12.68,12.0,12.22,8996800
2013-02-26,12.14,12.38,12.0,12.16,7557659
2013-02-27,12.2,12.58,12.16,12.48,8013600
2013-02-28,12.86,13.26,12.6,13.16,10603491
2013-03-01,13.3,13.34,12.94,13.0,4785008
2013-03-04,12.88,13.0,11.5,11.58,20693584
2013-03-05,11.46,11.72,11.2,11.52,15093928
2013-03-06,11.8,11.92,11.66,11.78,8206200
2013-03-07,11.78,12.1,11.78,12.0,5546723
2013-03-08,12.16,12.18,11.94,12.12,3917007
2013-03-11,12.1,12.22,11.86,11.92,4681800
2013-03-12,11.94,12.06,11.74,11.9,3768001
2013-03-13,12.0,12.04,11.3,11.54,6864252
2013-03-14,11.36,11.62,11.06,11.5,5064416
2013-03-15,11.68,11.7,11.24,11.6,6220960
2013-03-18,11.04,11.38,11.0,11.32,5825800
2013-03-19,11.28,11.46,11.14,11.34,5111688
2013-03-20,11.32,12.36,11.32,12.2,11932845
2013-03-21,12.58,13.1,12.5,12.82,16290748
2013-03-22,12.9,13.34,12.66,13.08,11904796
2013-03-25,13.08,13.36,12.74,12.78,7136800
2013-03-26,12.84,12.98,12.38,12.68,8984445
2013-03-27,12.4,13.04,12.4,12.9,9363600
2013-03-28,12.8,13.14,12.6,13.02,6517892
2013-04-02,13.48,13.62,13.2,13.28,9652400
2013-04-03,13.7,13.88,13.4,13.7,7987073
2013-04-05,13.3,13.4,12.72,12.88,10465616
2013-04-08,12.86,13.42,12.58,13.34,7756600
2013-04-09,13.42,13.72,13.3,13.62,4826851
2013-04-10,13.8,13.98,13.54,13.74,6882300
2013-04-11,13.92,13.92,13.44,13.46,4054413
2013-04-12,13.52,13.88,13.42,13.56,5738225
2013-04-15,13.5,13.58,13.04,13.06,4725195
2013-04-16,12.96,13.84,12.84,13.78,9589800
2013-04-17,14.1,14.14,13.52,13.68,9909475
2013-04-18,13.68,13.94,13.58,13.78,6648555
2013-04-19,13.74,14.28,13.5,14.22,13304552
2013-04-22,14.6,14.6,14.3,14.44,6634085
2013-04-23,14.32,14.58,13.82,13.94,6148189
2013-04-24,14.28,14.46,14.02,14.28,8810445
2013-04-25,14.2,14.4,14.02,14.12,3894400
2013-04-26,13.98,14.4,13.72,13.9,5514400
2013-04-29,14.0,14.16,13.76,13.84,5459600
2013-04-30,14.0,14.28,13.94,14.04,6920000
2013-05-02,14.0,14.3,13.82,14.16,9217705
2013-05-03,14.58,14.58,14.22,14.3,4191600
2013-05-06,14.48,14.6,14.3,14.58,5099950
2013-05-07,14.58,14.6,14.34,14.48,4087940
2013-05-08,14.54,14.82,14.48,14.8,6836697
2013-05-09,14.78,14.88,14.6,14.62,3409959
2013-05-10,14.62,14.78,14.38,14.66,3169600
2013-05-13,14.5,14.68,14.36,14.5,3159584
2013-05-14,14.76,14.76,14.3,14.54,2079428
2013-05-15,14.46,14.6,14.0,14.12,5232851
2013-05-16,14.08,14.18,13.86,13.98,4209200
2013-05-20,14.02,15.0,14.02,14.54,6525814
2013-05-21,14.62,14.78,14.32,14.42,3707482
2013-05-22,14.44,14.6,14.16,14.24,3365400
2013-05-23,14.24,14.4,14.02,14.06,4869261
2013-05-24,14.06,14.22,13.82,13.96,4244746
2013-05-27,13.9,14.04,13.7,13.84,4794134
2013-05-28,13.9,14.36,13.84,14.2,8548866
2013-05-29,14.2,14.4,14.2,14.3,4363476
2013-05-30,14.6,14.6,13.88,13.98,6402160
2013-05-31,13.98,14.52,13.74,14.46,7291303
2013-06-03,14.12,14.3,14.0,14.16,3723419
2013-06-04,14.1,14.26,13.88,14.06,3989406
2013-06-05,13.42,13.6,13.06,13.08,4383604
2013-06-06,12.8,12.94,12.58,12.72,7194115
2013-06-07,12.7,12.98,12.66,12.84,4032610
2013-06-10,12.9,12.92,12.5,12.74,5860000
2013-06-11,12.56,12.8,12.1,12.16,9398345
2013-06-13,12.1,12.28,11.84,12.04,8470555
2013-06-14,12.26,12.72,12.2,12.62,4682005
2013-06-17,12.52,12.76,12.38,12.58,3311200
2013-06-18,12.58,12.94,12.4,12.9,5196167
2013-06-19,12.76,12.78,12.5,12.54,6978429
2013-06-20,12.12,12.24,11.82,11.84,10088300
2013-06-21,11.48,11.7,11.24,11.56,14285234
2013-06-24,11.5,11.5,10.48,10.5,16465790
2013-06-25,10.42,10.98,10.02,10.34,21734004
2013-06-26,10.68,10.8,10.46,10.6,13397466
2013-06-27,10.6,11.16,10.58,10.8,7077344
2013-06-28,10.92,11.32,10.86,11.22,11240020
2013-07-02,11.28,11.4,10.64,10.74,10019416
2013-07-03,10.8,10.88,10.18,10.3,8535292
2013-07-04,10.22,10.5,10.22,10.42,9143600
2013-07-05,10.42,10.78,10.4,10.48,5142334
2013-07-08,10.5,10.52,10.02,10.24,7723421
2013-07-09,10.18,10.36,9.89,9.99,11340839
2013-07-10,9.89,10.26,9.89,10.16,7114900
2013-07-11,10.38,11.2,10.3,11.14,15838517
2013-07-12,11.2,11.62,11.02,11.14,12216776
2013-07-15,11.0,11.46,11.0,11.24,4635688
2013-07-16,11.02,11.4,10.8,10.88,6610760
2013-07-17,10.88,11.2,10.82,10.94,6127550
2013-07-18,10.98,11.44,10.94,11.38,5504084
2013-07-19,11.7,11.7,11.02,11.28,11369600
2013-07-22,11.3,11.38,10.9,10.96,4250092
2013-07-23,11.28,11.52,11.1,11.5,5579868
2013-07-24,11.36,11.56,11.3,11.4,3425650
2013-07-25,11.32,11.68,11.32,11.48,3515435
2013-07-26,11.48,11.58,11.26,11.32,1814000
2013-07-29,11.32,11.36,11.0,11.14,4162917
2013-07-30,11.14,11.34,11.0,11.3,2595690
2013-07-31,11.34,12.18,11.34,12.06,15893050
2013-08-01,12.04,12.38,11.96,12.18,6216000
2013-08-02,12.6,13.0,12.38,12.52,12252400
2013-08-05,12.7,12.86,12.4,12.64,4998410
2013-08-06,12.36,12.62,12.22,12.4,2802392
2013-08-07,12.58,12.98,12.4,12.56,7901300
2013-08-08,12.58,12.84,12.36,12.58,4650000
2013-08-09,12.62,12.84,12.62,12.84,4826000
2013-08-12,12.82,13.16,12.7,13.1,6398400
2013-08-13,13.18,13.88,12.96,13.38,11500996
2013-08-15,13.5,13.88,12.9,13.0,11229000
2013-08-16,12.72,13.26,12.62,13.0,7029572
2013-08-19,12.8,13.2,12.74,12.94,3623825
2013-08-20,12.98,13.08,12.4,12.6,7386900
2013-08-21,12.74,12.8,12.5,12.52,2997281
2013-08-22,12.32,12.4,11.86,12.1,20671036
2013-08-23,12.04,12.48,12.04,12.2,7056200
2013-08-26,12.14,12.4,12.14,12.24,3799007
2013-08-27,12.2,12.5,12.16,12.28,3389600
2013-08-28,12.18,12.18,11.76,11.78,5667400
2013-08-29,11.72,12.14,11.72,12.02,2426470
2013-08-30,12.1,12.68,12.08,12.66,8376784
2013-09-02,12.68,12.86,12.38,12.4,3599538
2013-09-03,12.5,12.72,12.5,12.56,3230642
2013-09-04,12.56,12.68,12.34,12.66,2006319
2013-09-05,12.72,12.76,12.4,12.44,4003978
2013-09-06,12.4,12.52,12.12,12.26,8140320
2013-09-09,12.38,12.62,12.34,12.34,6258641
2013-09-10,12.54,13.1,12.54,12.92,11366400
2013-09-11,12.92,13.06,12.78,12.86,6556757
2013-09-12,12.88,13.04,12.62,12.7,3836612
2013-09-13,12.56,12.7,12.38,12.56,3275433
2013-09-16,12.62,12.86,12.52,12.62,3297415
2013-09-17,12.52,12.82,12.42,12.8,2652936
2013-09-18,12.8,12.8,12.42,12.62,2220734
2013-09-19,12.9,12.9,12.6,12.7,3126902
2013-09-23,12.7,12.86,12.3,12.8,2238100
2013-09-24,12.78,12.8,12.48,12.58,3574672
2013-09-25,12.44,12.56,12.3,12.38,3847400
2013-09-26,12.26,12.3,11.96,12.04,7921200
2013-09-27,12.04,12.4,12.02,12.16,5430295
2013-09-30,12.1,12.28,12.02,12.12,4186863
2013-10-02,11.94,12.3,11.94,12.2,4019420
2013-10-03,12.2,12.44,12.2,12.32,3393342
2013-10-04,12.38,12.54,12.12,12.52,3591634
2013-10-07,12.38,12.52,12.38,12.46,2375480
2013-10-08,12.48,13.64,12.22,13.6,16513101
2013-10-09,13.22,13.56,13.0,13.38,8686805
2013-10-10,13.36,13.44,13.1,13.36,2521600
2013-10-11,13.5,13.56,13.38,13.4,4930875
2013-10-15,13.28,13.64,13.28,13.6,4671553
2013-10-16,13.5,13.7,13.38,13.68,5898652
2013-10-17,13.74,13.86,13.62,13.7,5965879
2013-10-18,13.62,13.7,13.34,13.46,3771956
2013-10-21,13.52,13.66,13.38,13.52,2669200
2013-10-22,13.3,13.54,13.2,13.28,3354000
2013-10-23,13.34,13.4,12.62,12.7,6629249
2013-10-24,12.6,12.86,12.4,12.44,5553145
2013-10-25,12.44,12.6,12.0,12.52,6624879
2013-10-28,12.48,12.88,12.48,12.86,5696400
2013-10-29,12.7,13.02,12.7,12.9,3116959
2013-10-30,12.98,13.1,12.76,13.1,3623053
2013-10-31,12.92,13.64,12.8,13.6,8138400
2013-11-01,13.5,13.68,13.2,13.36,5252600
2013-11-04,13.36,13.42,12.98,12.98,2781600
2013-11-05,13.04,13.18,13.02,13.06,1766857
2013-11-06,12.94,13.2,12.82,12.92,2716843
2013-11-07,12.88,13.16,12.84,12.96,1727050
2013-11-08,12.9,13.02,12.68,12.76,3565000
2013-11-11,12.8,12.84,12.6,12.74,3191949
2013-11-12,12.8,12.9,12.62,12.74,1844800
2013-11-13,12.66,12.7,12.5,12.56,2368175
2013-11-14,12.6,12.78,12.56,12.6,2240334
2013-11-15,12.7,13.08,12.7,13.02,2705500
2013-11-18,13.3,13.42,13.08,13.24,4021508
2013-11-19,13.34,13.34,12.9,12.94,4273600
2013-11-20,13.0,13.1,12.88,13.02,2359430
2013-11-21,13.0,13.0,12.64,12.8,1902800
2013-11-22,12.8,12.92,12.62,12.66,2562684
2013-11-24,12.66,12.66,12.66,12.66,0
2013-11-25,12.6,12.68,12.38,12.48,4975045
2013-11-26,12.38,12.66,12.32,12.34,4534009
2013-11-27,12.36,12.54,12.18,12.22,6387348
2013-11-28,12.24,12.48,12.24,12.3,5346505
2013-11-29,12.3,12.5,12.26,12.46,4079400
2013-12-02,12.42,12.6,12.04,12.24,9145600
2013-12-03,12.0,12.24,12.0,12.1,8331411
2013-12-04,12.04,12.14,11.82,11.84,7275997
2013-12-05,11.8,12.02,11.7,11.92,4512300
2013-12-06,11.9,12.1,11.9,12.02,4456103
2013-12-09,11.98,12.02,11.58,11.72,9578702
2013-12-10,11.78,11.78,11.54,11.6,5667616
2013-12-11,11.52,11.76,11.52,11.74,3539140
2013-12-12,11.62,11.72,11.4,11.54,4027848
2013-12-13,11.54,11.7,11.5,11.56,3010200
2013-12-16,11.52,11.68,11.32,11.42,3979000
2013-12-17,11.5,11.6,11.42,11.56,2259132
2013-12-18,11.54,11.64,11.5,11.58,6413116
2013-12-19,11.7,11.76,11.28,11.4,3915400
2013-12-20,11.2,11.5,11.12,11.44,4218700
2013-12-23,11.46,11.74,11.32,11.36,3051688
2013-12-24,11.24,11.34,11.2,11.22,5497871
2013-12-27,11.18,11.56,11.18,11.38,5288200
2013-12-30,11.48,11.48,11.2,11.3,2335805
2013-12-31,11.4,11.46,11.28,11.34,1916702
2014-01-02,11.46,11.48,11.22,11.24,4587400
2014-01-03,11.24,11.24,11.08,11.18,4041270
2014-01-06,11.18,11.2,10.84,10.86,7526956
2014-01-07,10.8,10.86,10.42,10.48,12384644
2014-01-08,10.5,11.08,10.5,10.98,7588361
2014-01-09,11.1,11.86,10.96,11.26,11718425
2014-01-10,11.22,11.38,11.0,11.16,7654200
2014-01-13,11.3,11.3,11.02,11.12,3363089
2014-01-14,11.02,11.12,10.8,11.1,2981044
2014-01-15,11.14,11.2,10.96,11.04,3143475
2014-01-16,10.96,11.06,10.54,10.78,6815330
2014-01-17,10.62,10.82,10.52,10.54,8106184
2014-01-20,10.54,10.54,10.2,10.3,13022852
2014-01-21,10.4,10.72,10.4,10.64,4702560
2014-01-22,10.7,11.04,10.54,10.92,10151280
2014-01-23,10.8,10.92,10.54,10.6,7320518
2014-01-24,10.52,10.54,10.28,10.36,10044200
2014-01-27,10.1,10.3,10.0,10.26,9268490
2014-01-28,10.1,10.38,10.0,10.2,7013685
2014-01-29,10.32,10.5,10.2,10.24,7917869
2014-01-30,10.2,10.46,10.2,10.3,3870800
2014-02-04,10.1,10.16,9.98,10.04,6819826
2014-02-05,10.12,10.22,9.91,9.92,6436784
2014-02-06,9.95,10.3,9.93,10.14,4078268
2014-02-07,10.3,10.38,10.14,10.24,1871834
2014-02-10,10.18,10.42,10.18,10.36,4331975
2014-02-11,10.46,10.88,10.38,10.8,6956000
2014-02-12,11.08,11.28,11.0,11.12,10386083
2014-02-13,10.94,11.18,10.64,10.7,6918200
2014-02-14,10.86,11.08,10.86,10.98,6566080
2014-02-17,11.04,11.16,10.96,11.08,4857300
2014-02-18,11.06,11.06,10.86,10.88,1949443
2014-02-19,10.8,11.2,10.8,11.08,5802200
2014-02-20,11.28,11.28,10.84,10.92,3535600
2014-02-21,11.06,11.14,10.86,10.88,3318964
2014-02-24,11.0,11.0,10.2,10.42,18812200
2014-02-25,10.4,10.46,10.18,10.24,9699992
2014-02-26,10.22,10.68,10.0,10.62,7225200
2014-02-27,10.42,10.6,10.34,10.42,4237277
2014-02-28,10.38,10.58,10.36,10.52,4691825
2014-03-03,10.32,10.56,10.22,10.24,4308400
2014-03-04,10.12,10.46,10.12,10.24,5362476
2014-03-05,10.28,10.28,10.08,10.1,4112800
2014-03-06,10.2,10.54,9.93,10.46,16982242
2014-03-07,10.48,10.72,10.2,10.24,5148374
2014-03-10,10.02,10.18,9.97,10.1,5716126
2014-03-11,9.98,10.24,9.98,10.0,4388280
2014-03-12,10.0,10.18,9.96,10.0,4995152
2014-03-13,10.1,10.1,9.74,9.76,6137618
2014-03-14,9.72,9.78,9.48,9.57,9679392
2014-03-17,9.5,9.73,9.5,9.52,4155000
2014-03-18,9.59,9.84,9.58,9.68,7274054
2014-03-19,9.74,9.75,9.62,9.71,3804400
2014-03-20,9.6,10.32,9.6,9.74,9446000
2014-03-21,9.98,10.22,9.76,10.18,14316000
2014-03-24,10.14,10.6,10.14,10.4,8887587
2014-03-25,10.4,10.48,10.2,10.22,5779800
2014-03-26,10.36,10.5,10.26,10.32,5714800
2014-03-27,10.2,10.4,10.16,10.28,5089800
2014-03-28,10.2,10.58,10.2,10.42,5889200
2014-03-31,10.58,11.2,10.42,11.18,14862400
2014-04-01,11.18,11.2,10.86,11.0,11167413
2014-04-02,11.18,11.6,11.0,11.54,13386954
2014-04-03,11.62,11.72,11.38,11.48,10976200
2014-04-04,11.34,11.4,11.08,11.12,6465724
2014-04-07,11.2,11.58,11.04,11.32,4893547
2014-04-08,11.42,11.66,11.22,11.6,5576800
2014-04-09,11.6,11.92,11.36,11.66,6969582
2014-04-10,11.56,11.62,11.42,11.5,5757290
2014-04-11,11.5,11.5,11.12,11.24,3751981
2014-04-14,11.1,11.5,11.1,11.16,2320300
2014-04-15,11.3,11.38,10.8,10.9,5216800
2014-04-16,10.82,11.04,10.82,10.92,2743600
2014-04-17,10.88,11.1,10.82,10.96,2161193
2014-04-22,10.88,10.96,10.82,10.96,1530527
2014-04-23,10.94,10.94,10.58,10.64,5194400
2014-04-24,10.74,11.08,10.66,10.8,5481298
2014-04-25,10.84,10.84,10.48,10.66,4557200
2014-04-28,10.64,10.64,9.96,9.99,17405720
2014-04-29,10.02,10.22,9.98,10.14,7873574
2014-04-30,10.12,10.38,10.04,10.12,10193448
2014-05-02,10.24,10.24,10.02,10.24,3685469
2014-05-05,10.26,10.26,9.97,10.0,5818400
2014-05-07,9.7,9.88,9.55,9.62,8787100
2014-05-08,9.63,9.98,9.62,9.7,9839684
2014-05-09,9.71,9.81,9.51,9.6,5583330
2014-05-12,9.6,9.8,9.48,9.68,7250922
2014-05-13,9.63,10.1,9.63,10.02,10344612
2014-05-14,10.08,10.42,9.99,10.36,12800400
2014-05-15,10.32,10.32,10.06,10.26,6182012
2014-05-16,10.3,10.3,10.02,10.14,6193600
2014-05-19,10.14,10.14,9.94,9.98,4033249
2014-05-20,10.0,10.1,9.76,9.82,8128130
2014-05-21,9.8,9.92,9.73,9.85,5513295
2014-05-22,9.88,10.08,9.83,10.06,2871200
2014-05-23,10.18,10.62,10.12,10.36,10205600
2014-05-26,10.4,10.56,10.3,10.52,5016800
2014-05-27,10.42,10.5,10.36,10.5,2384800
2014-05-28,10.56,10.58,10.48,10.52,7244556
2014-05-29,10.6,10.66,10.44,10.48,3993048
2014-05-30,10.46,10.68,10.46,10.66,5653962
2014-06-03,10.8,11.22,10.7,10.92,9761002
2014-06-04,11.08,11.08,10.72,10.92,10952595
2014-06-05,10.18,10.36,10.08,10.2,4391529
2014-06-06,10.2,10.3,10.0,10.04,4298455
2014-06-09,9.96,10.2,9.96,9.99,5482816
2014-06-10,10.14,10.14,9.92,9.97,6299600
2014-06-11,9.97,10.0,9.92,9.95,3626865
2014-06-12,9.88,9.98,9.87,9.92,4318000
2014-06-13,9.95,10.0,9.81,9.95,5400956
2014-06-16,9.95,9.97,9.8,9.81,5016000
2014-06-17,9.84,9.87,9.73,9.81,4904400
2014-06-18,9.91,9.91,9.63,9.7,6776381
2014-06-19,9.7,9.75,9.46,9.49,8342500
2014-06-20,9.55,9.69,9.33,9.34,6931277
2014-06-23,9.33,9.6,9.22,9.38,10935891
2014-06-24,9.45,9.65,9.35,9.41,3623163
2014-06-25,9.48,9.54,9.37,9.4,2799705
2014-06-26,9.4,9.52,9.4,9.46,4283027
2014-06-27,9.47,9.54,9.38,9.44,2137355
2014-06-30,9.43,9.71,9.42,9.57,4301800
2014-07-02,9.66,9.86,9.57,9.83,5369994
2014-07-03,9.94,10.38,9.94,10.22,11056096
2014-07-04,10.22,10.56,10.2,10.5,11772855
2014-07-07,10.52,10.72,10.5,10.66,9067656
2014-07-08,10.68,10.68,10.38,10.42,7905896
2014-07-09,10.22,10.4,10.08,10.2,4926960
2014-07-10,10.22,10.4,10.18,10.26,5003028
2014-07-11,10.16,10.4,10.12,10.16,3203715
2014-07-14,10.4,10.48,10.3,10.44,7309200
2014-07-15,10.5,10.6,10.36,10.56,6818400
2014-07-16,10.68,10.68,10.54,10.56,4616237
2014-07-17,10.7,10.7,10.48,10.52,7696200
2014-07-18,10.48,10.68,10.3,10.46,12382718
2014-07-21,10.42,10.64,10.42,10.54,2148200
2014-07-22,10.68,10.8,10.6,10.8,8850896
2014-07-23,10.82,11.18,10.8,11.08,11086950
2014-07-24,11.18,11.22,11.04,11.16,14918670
2014-07-25,11.24,11.4,11.02,11.08,10763296
2014-07-28,11.2,11.46,11.2,11.34,9746000
2014-07-29,11.34,11.46,11.12,11.14,8247400
2014-07-30,11.2,11.28,10.88,11.06,5912500
2014-07-31,11.18,11.52,11.04,11.44,11014764
2014-08-01,11.26,11.46,11.18,11.36,8811030
2014-08-04,11.28,11.46,11.16,11.22,7035000
2014-08-05,11.12,11.22,10.8,10.92,12484002
2014-08-06,11.06,11.06,10.7,10.9,7577715
2014-08-07,10.9,11.0,10.68,10.72,4873837
2014-08-08,10.56,10.7,10.54,10.66,5082860
2014-08-11,10.78,11.1,10.66,10.98,6239032
2014-08-12,10.86,10.94,10.74,10.88,5120387
2014-08-13,10.92,10.98,10.76,10.98,3894464
2014-08-14,10.98,11.04,10.62,10.66,9465700
2014-08-15,10.78,10.78,10.58,10.64,5553491
2014-08-18,10.8,10.92,10.72,10.76,6364100
2014-08-19,10.74,10.84,10.66,10.82,4658400
2014-08-20,10.9,10.9,10.74,10.86,4275157
2014-08-21,10.86,10.98,10.68,10.76,5656135
2014-08-22,10.92,10.92,10.74,10.82,5254400
2014-08-25,10.7,10.88,10.7,10.82,2709000
2014-08-26,10.92,10.92,9.99,10.04,22562600
2014-08-27,9.9,9.9,9.58,9.68,40256756
2014-08-28,9.7,9.7,9.46,9.47,18402420
2014-08-29,9.4,9.51,9.31,9.34,25956000
2014-09-01,9.4,9.45,9.28,9.28,10780400
2014-09-02,9.29,9.45,9.27,9.38,6669008
2014-09-03,9.34,9.59,9.34,9.57,17231654
2014-09-04,9.82,9.89,9.7,9.72,24873920
2014-09-05,9.7,9.71,9.51,9.58,10659060
2014-09-08,9.62,9.62,9.31,9.48,8640058
2014-09-10,9.36,9.4,9.08,9.22,19133800
2014-09-11,9.3,9.35,9.25,9.31,8789653
2014-09-12,9.29,9.31,9.12,9.19,11511642
2014-09-15,9.2,9.2,9.03,9.06,10645298
2014-09-16,9.07,9.1,8.91,8.97,12332594
2014-09-17,8.99,9.09,8.8,8.88,16526584
2014-09-18,8.8,8.88,8.54,8.64,18243200
2014-09-19,8.72,8.73,8.46,8.55,11665000
2014-09-22,8.45,8.5,8.11,8.17,22900800
2014-09-23,8.14,8.44,8.08,8.38,18163086
2014-09-24,8.33,8.38,8.21,8.21,12303723
2014-09-25,8.3,8.32,8.07,8.12,7484978
2014-09-26,8.03,8.17,8.03,8.1,6508460
2014-09-29,8.03,8.09,7.79,7.9,17326400
2014-09-30,7.85,7.9,7.72,7.85,13045427
2014-10-03,7.86,8.54,7.86,8.48,31819092
2014-10-06,8.6,8.81,8.52,8.54,19720792
2014-10-07,8.62,8.62,8.23,8.38,14474160
2014-10-08,8.38,8.38,8.2,8.21,13845400
2014-10-09,8.26,8.33,8.1,8.22,10094230
2014-10-10,8.11,8.21,8.05,8.16,11676800
2014-10-13,7.93,7.98,7.65,7.8,34238264
2014-10-14,7.78,8.1,7.75,7.96,7960000
2014-10-15,7.96,8.07,7.88,8.02,4327271
2014-10-16,7.93,8.16,7.93,8.02,7168400
2014-10-17,8.0,8.16,7.92,7.93,5429200
2014-10-20,8.0,8.12,8.0,8.08,5013900
2014-10-21,8.07,8.18,8.03,8.05,2459491
2014-10-22,8.16,8.16,8.03,8.07,3660792
2014-10-23,8.1,8.32,8.1,8.13,4787980
2014-10-24,8.17,8.17,7.93,8.08,3959192
2014-10-27,8.11,8.11,7.97,8.0,6108621
2014-10-28,8.13,8.22,8.03,8.21,5732600
2014-10-29,8.2,8.4,8.2,8.3,8425400
2014-10-30,8.27,8.33,8.21,8.31,7034000
2014-10-31,8.35,8.51,8.2,8.45,8166400
2014-11-03,8.54,8.96,8.5,8.8,29566000
2014-11-04,8.8,9.06,8.72,8.95,23733154
2014-11-05,8.94,8.94,8.62,8.64,11552900
2014-11-06,8.74,8.74,8.47,8.54,5626420
2014-11-07,8.46,8.6,8.44,8.51,5605800
2014-11-10,8.59,8.68,8.51,8.55,4472400
2014-11-11,8.55,8.6,8.46,8.48,4962464
2014-11-12,8.6,8.67,8.48,8.51,4924587
2014-11-13,8.52,8.6,8.32,8.42,6945649
2014-11-14,8.46,8.57,8.44,8.53,3224000
2014-11-17,8.6,8.65,8.43,8.51,3528300
2014-11-18,8.57,8.58,8.47,8.51,7154237
2014-11-19,8.5,8.51,8.33,8.36,5215172
2014-11-20,8.45,8.45,8.06,8.08,11035712
2014-11-21,8.08,8.32,8.08,8.21,8767510
2014-11-24,9.1,9.24,8.85,9.17,54982348
2014-11-25,9.24,9.27,8.98,9.03,17118046
2014-11-26,9.13,9.36,9.11,9.3,12942485
2014-11-27,9.32,9.62,9.17,9.27,16360462
2014-11-28,9.36,9.65,9.2,9.58,18269586
2014-12-01,9.6,9.72,9.43,9.46,20587200
2014-12-02,9.58,9.73,9.58,9.67,14357852
2014-12-03,9.75,10.0,9.63,9.65,24776116
2014-12-04,9.93,9.97,9.59,9.61,11658710
2014-12-05,9.8,9.84,9.35,9.56,12436137
2014-12-08,9.53,9.83,9.52,9.68,8553609
2014-12-09,9.63,9.96,9.53,9.65,14448200
2014-12-10,9.51,9.57,9.39,9.43,11015800
2014-12-11,9.4,9.4,9.12,9.21,10401762
2014-12-12,9.3,9.47,9.24,9.25,3922740
2014-12-15,9.05,9.24,9.05,9.22,3049979
2014-12-16,9.22,9.39,9.1,9.16,5402087
2014-12-17,9.12,9.24,9.04,9.13,4276136
2014-12-18,9.13,9.35,9.13,9.25,4658101
2014-12-19,9.39,9.39,9.15,9.2,5082346
2014-12-22,9.15,9.38,9.15,9.17,3847355
2014-12-23,9.28,9.28,9.01,9.03,3737767
2014-12-24,9.13,9.22,9.06,9.1,2058549
2014-12-29,9.24,9.39,9.08,9.39,5740011
2014-12-30,9.35,9.62,9.2,9.48,9696200
2014-12-31,9.52,9.55,9.38,9.49,2225777
2015-01-02,9.56,10.08,9.46,10.06,39725520
2015-01-05,10.1,10.56,10.06,10.28,27113796
2015-01-06,10.02,10.38,9.98,10.2,18092072
2015-01-07,10.5,10.5,9.69,9.71,20323212
2015-01-08,9.82,9.96,9.5,9.54,15227750
2015-01-09,9.66,9.88,9.55,9.66,10504174
2015-01-12,9.66,9.83,9.53,9.58,7877190
2015-01-13,9.62,9.8,9.6,9.69,7677606
2015-01-14,9.67,9.85,9.59,9.66,7050342
2015-01-15,9.66,9.66,9.36,9.47,13355373
2015-01-16,9.47,9.48,9.01,9.18,19155212
2015-01-17,8.45,8.45,8.45,8.45,0
2015-01-19,9.15,9.16,8.82,8.9,12557557
2015-01-20,8.86,9.07,8.86,9.01,4046398
2015-01-21,9.05,9.23,9.05,9.15,5912291
2015-01-22,9.22,9.32,9.07,9.1,9735470
2015-01-23,9.23,9.33,9.11,9.22,6388993
2015-01-26,9.24,9.27,9.0,9.08,9819453
2015-01-27,9.15,9.19,9.01,9.02,5510999
2015-01-28,9.02,9.09,8.94,8.98,6017171
2015-01-29,8.99,9.06,8.73,8.87,6562082
2015-01-30,8.87,8.96,8.79,8.81,9662542
2015-02-02,8.75,8.81,8.56,8.72,8482590
2015-02-03,8.7,8.84,8.66,8.8,5478600
2015-02-04,8.8,8.83,8.71,8.76,4673985
2015-02-05,9.1,9.25,8.87,8.92,13968000
2015-02-06,8.94,8.96,8.7,8.76,5761270
2015-02-09,8.72,8.82,8.6,8.62,4589400
2015-02-10,8.61,8.82,8.61,8.79,5979600
2015-02-11,8.62,8.81,8.62,8.78,3661450
2015-02-12,8.72,8.78,8.63,8.7,4242800
2015-02-13,8.7,8.92,8.68,8.84,5659200
2015-02-16,8.76,8.89,8.71,8.83,3244200
2015-02-17,8.83,8.91,8.8,8.84,1840800
2015-02-18,8.91,8.96,8.75,8.79,3517844
2015-02-23,8.86,8.86,8.7,8.81,2960832
2015-02-24,8.77,8.85,8.71,8.8,8466639
2015-02-25,8.87,9.02,8.78,8.88,7683952
2015-02-26,8.97,9.15,8.91,9.11,7916800
2015-02-27,9.0,9.14,8.97,9.02,8546179
2015-03-02,9.3,9.45,9.06,9.08,8892395
2015-03-03,9.1,9.17,8.89,8.95,5365552
2015-03-04,8.96,9.01,8.83,8.86,5174864
2015-03-05,8.86,8.88,8.71,8.74,5525904
2015-03-06,8.8,8.83,8.71,8.72,2411710
2015-03-09,8.7,8.75,8.58,8.72,3581138
2015-03-10,8.64,8.7,8.6,8.61,6792326
2015-03-11,8.52,8.7,8.52,8.63,3768111
2015-03-12,8.69,8.78,8.56,8.62,2622324
2015-03-13,8.65,8.88,8.65,8.83,5367650
2015-03-16,8.85,8.86,8.65,8.72,2636748
2015-03-17,8.73,8.9,7.86,8.06,30285124
2015-03-18,8.0,8.0,7.6,7.61,37948672
2015-03-19,7.55,7.7,7.45,7.61,28897972
2015-03-20,7.6,7.74,7.57,7.73,17777684
2015-03-23,7.69,7.79,7.61,7.76,11106733
2015-03-24,7.8,7.8,7.66,7.69,7084000
2015-03-25,7.72,7.72,7.51,7.59,13689592
2015-03-26,7.6,7.63,7.45,7.51,8144288
2015-03-27,7.46,7.86,7.46,7.82,16848938
2015-03-30,7.89,8.17,7.75,8.01,27324190
2015-03-31,8.6,8.68,7.84,7.95,43445336
2015-04-01,7.95,8.13,7.82,8.06,10973544
2015-04-02,8.06,8.25,8.06,8.13,10755825
2015-04-08,8.25,8.37,8.19,8.34,23714068
2015-04-09,8.52,9.07,8.37,8.64,29357776
2015-04-10,8.75,8.88,8.64,8.78,21193400
2015-04-13,8.82,9.9,8.75,9.76,58070768
2015-04-14,9.65,9.95,9.34,9.42,33250344
2015-04-15,9.4,9.63,9.21,9.27,17995124
2015-04-16,9.3,9.44,9.3,9.37,16985280
2015-04-17,9.4,9.58,9.2,9.24,19522726
2015-04-20,9.37,9.45,8.69,8.72,28910626
2015-04-21,8.72,9.0,8.72,8.84,22239140
2015-04-22,8.93,9.29,8.88,9.17,28585772
2015-04-23,9.29,9.4,9.05,9.08,14940529
2015-04-24,9.18,9.26,8.88,9.08,11028226
2015-04-27,9.08,9.43,9.08,9.42,12468830
2015-04-28,9.3,9.5,9.27,9.33,9927448
2015-04-29,9.3,9.35,9.19,9.3,5849567
2015-04-30,9.3,9.94,9.23,9.92,40814060
2015-05-04,10.2,10.9,10.2,10.44,55245888
2015-05-05,10.7,10.7,9.63,9.87,33512778
2015-05-06,9.86,9.86,9.56,9.66,24521628
2015-05-07,9.53,9.63,9.34,9.45,25898000
2015-05-08,9.47,9.88,9.47,9.85,17556400
2015-05-11,10.2,10.24,9.94,9.95,18039002
2015-05-12,9.95,9.98,9.57,9.67,14350000
2015-05-13,9.56,9.78,9.54,9.73,15791477
2015-05-14,9.78,9.81,9.6,9.75,10509534
2015-05-15,9.86,9.87,9.6,9.75,7796000
2015-05-18,9.72,9.8,9.6,9.64,8654000
2015-05-19,9.5,9.75,9.5,9.63,9017240
2015-05-20,9.7,9.72,9.55,9.59,6375095
2015-05-21,9.6,9.64,9.38,9.47,8532518
2015-05-22,9.5,9.59,9.4,9.55,4574638
2015-05-26,9.7,10.08,9.66,9.94,16631200
2015-05-27,9.96,9.96,9.6,9.75,9629428
2015-05-28,9.85,9.85,9.34,9.48,16447881
2015-05-29,9.5,9.5,9.03,9.08,18554232
2015-06-01,9.04,9.39,9.01,9.35,9150923
2015-06-02,9.7,10.18,9.7,9.85,31670390
2015-06-03,9.92,9.99,9.74,9.75,8586619
2015-06-04,9.75,9.84,9.42,9.66,6217102
2015-06-05,9.5,9.7,9.36,9.43,8356670
2015-06-08,9.37,9.68,9.37,9.57,6511800
2015-06-09,9.7,9.7,9.26,9.31,7283600
2015-06-10,9.47,9.47,9.11,9.12,7310700
2015-06-11,9.34,9.34,9.0,9.12,6522903
2015-06-12,9.2,9.53,9.11,9.46,9409022
2015-06-15,9.44,9.44,9.25,9.32,5337400
2015-06-16,9.2,9.31,9.15,9.19,8131200
2015-06-17,9.25,9.63,9.23,9.59,11258409
2015-06-18,9.4,9.74,9.4,9.7,11194200
2015-06-19,9.78,9.83,9.42,9.57,21767378
2015-06-22,9.5,9.69,9.46,9.67,3674481
2015-06-23,9.73,9.8,9.57,9.72,8942646
2015-06-24,9.85,9.86,9.6,9.7,7507100
2015-06-25,9.65,9.75,9.5,9.6,5481842
2015-06-26,9.52,9.64,9.29,9.38,10168000
2015-06-29,9.51,9.7,8.5,9.4,22868238
2015-06-30,9.25,9.6,9.22,9.51,13517121
2015-07-02,9.44,9.63,9.34,9.5,7672356
2015-07-03,9.4,9.52,8.98,9.13,8448000
2015-07-06,9.01,9.26,8.27,8.95,31250700
2015-07-07,9.08,9.08,8.35,8.4,16940636
2015-07-08,8.2,8.29,7.3,7.61,37347416
2015-07-09,7.39,8.34,7.3,8.27,13379261
2015-07-10,8.11,8.7,8.11,8.39,11974000
2015-07-13,8.4,8.81,8.22,8.8,10181567
2015-07-14,8.85,9.0,8.72,8.83,8334804
2015-07-15,8.83,8.84,8.43,8.48,4086816
2015-07-16,8.49,8.8,8.34,8.7,6978400
2015-07-17,8.77,8.77,8.56,8.67,7488800
2015-07-20,8.64,8.77,8.57,8.61,3839104
2015-07-21,8.53,8.68,8.53,8.58,3609574
2015-07-22,8.58,8.58,8.29,8.46,4325796
2015-07-23,8.49,8.49,8.22,8.24,11669532
2015-07-24,8.2,8.37,8.2,8.27,6943731
2015-07-27,8.15,8.24,7.9,7.96,9464104
2015-07-28,7.81,8.0,7.68,7.7,9967442
2015-07-29,7.71,7.89,7.6,7.85,7081370
2015-07-30,7.79,7.91,7.75,7.76,3834800
2015-07-31,7.75,7.84,7.62,7.75,15376928
2015-08-03,7.71,7.73,7.57,7.68,4762454
2015-08-04,7.6,7.72,7.55,7.6,6158672
2015-08-05,7.55,7.82,7.55,7.81,6590066
2015-08-06,7.65,7.78,7.52,7.55,9176156
2015-08-07,7.59,7.74,7.57,7.69,3778204
2015-08-10,7.64,7.86,7.62,7.8,4349600
2015-08-11,7.81,8.13,7.81,7.91,9899404
2015-08-12,7.88,7.88,7.63,7.65,19429244
2015-08-13,7.6,7.72,7.57,7.59,5352249
2015-08-14,7.59,7.71,7.57,7.6,2500040
2015-08-17,7.58,7.69,7.5,7.53,2093640
2015-08-18,7.43,7.63,7.43,7.45,3047152
2015-08-19,7.4,7.48,7.2,7.3,5029307
2015-08-20,7.3,7.5,7.21,7.24,11614000
2015-08-21,7.03,7.12,6.75,6.93,22251760
2015-08-24,6.6,6.72,6.35,6.51,15402170
2015-08-25,6.51,6.76,6.4,6.4,15445216
2015-08-26,6.5,6.95,6.45,6.67,24457466
2015-08-27,7.05,7.15,6.89,7.13,16915380
2015-08-28,7.28,7.35,7.11,7.19,7294800
2015-08-31,7.18,7.2,6.86,7.08,7832352
2015-09-01,7.07,7.22,7.0,7.04,5889728
2015-09-02,7.1,7.1,6.79,6.87,9858213
2015-09-04,6.99,6.99,6.62,6.75,5843867
2015-09-07,6.55,6.99,6.55,6.87,3802800
2015-09-08,6.94,7.3,6.87,7.28,7118400
2015-09-09,7.18,7.53,7.18,7.49,7543200
2015-09-10,7.3,7.48,7.16,7.43,6130800
2015-09-11,7.58,7.59,7.35,7.47,4140621
2015-09-14,7.6,7.78,7.43,7.54,6428018
2015-09-15,7.54,7.54,7.29,7.32,6356128
2015-09-16,7.08,7.26,7.02,7.22,6162218
2015-09-17,7.22,7.34,7.14,7.21,6006812
2015-09-18,7.32,7.45,7.27,7.41,4580414
2015-09-21,7.32,7.45,7.3,7.36,3297975
2015-09-22,7.57,7.58,7.36,7.42,3627200
2015-09-23,7.44,7.44,7.13,7.21,2851944
2015-09-24,7.2,7.35,7.12,7.16,2398800
2015-09-25,7.16,7.22,7.07,7.11,3222564
2015-09-29,6.92,7.0,6.75,6.79,5935040
2015-09-30,6.9,7.18,6.82,7.02,7087000
2015-10-02,7.28,7.54,7.21,7.36,10803401
2015-10-05,7.49,7.53,7.31,7.4,3566000
2015-10-06,7.52,7.54,7.36,7.42,3285911
2015-10-07,7.5,7.65,7.43,7.65,8439961
2015-10-08,7.58,7.65,7.44,7.51,3203000
2015-10-09,7.7,7.75,7.6,7.64,4858220
2015-10-12,7.7,7.85,7.68,7.82,7372240
2015-10-13,7.88,7.88,7.73,7.8,4870774
2015-10-14,7.8,7.83,7.74,7.78,3091297
2015-10-15,7.84,7.92,7.73,7.78,9440706
2015-10-16,7.82,7.9,7.7,7.8,5291028
2015-10-19,7.9,7.95,7.76,7.83,2676928
2015-10-20,7.9,7.94,7.75,7.81,4373152
2015-10-22,7.7,7.9,7.7,7.8,4188400
2015-10-23,7.93,7.93,7.81,7.87,5914060
2015-10-26,7.95,8.07,7.94,7.97,4398800
2015-10-27,7.97,8.0,7.83,7.99,2524800
2015-10-28,7.9,8.04,7.77,7.79,2607347
2015-10-29,7.79,7.85,7.69,7.74,1714062
2015-10-30,7.75,7.83,7.68,7.72,2623053
2015-11-02,7.7,7.85,7.68,7.7,3736800
2015-11-03,7.89,8.38,7.77,8.19,13853081
2015-11-04,8.3,8.3,7.96,8.02,11680887
2015-11-05,8.18,8.18,8.03,8.15,7517783
2015-11-06,8.22,8.22,8.08,8.16,6077200
2015-11-09,8.15,8.36,8.12,8.21,8158826
2015-11-10,8.28,8.28,8.05,8.1,7744000
2015-11-11,8.11,8.19,8.06,8.15,4781088
2015-11-12,8.19,8.19,8.05,8.12,2812222
2015-11-13,8.04,8.12,7.89,8.02,3414528
2015-11-16,7.89,8.1,7.88,8.05,3048300
2015-11-17,8.21,8.38,8.21,8.32,9262880
2015-11-18,8.39,8.6,8.29,8.5,8148216
2015-11-19,8.8,8.8,8.59,8.71,12221600
2015-11-20,8.76,8.78,8.6,8.73,6433600
2015-11-23,8.8,9.04,8.79,8.9,9995617
2015-11-24,8.97,8.99,8.82,8.92,5620380
2015-11-25,9.05,9.05,8.76,8.94,5197080
2015-11-26,9.0,9.09,8.92,9.0,5608239
2015-11-27,9.04,9.04,8.59,8.63,3575600
2015-11-30,8.68,8.8,8.49,8.73,9681655
2015-12-01,8.61,9.21,8.61,9.2,16096241
2015-12-02,9.2,9.49,9.13,9.36,14971901
2015-12-03,9.34,9.47,9.22,9.31,7485854
2015-12-04,9.35,9.4,9.21,9.4,6393640
2015-12-07,9.4,9.5,9.0,9.36,7614600
2015-12-08,9.36,9.66,9.28,9.64,21179680
2015-12-09,9.62,9.66,9.43,9.6,11728000
2015-12-10,9.6,9.64,9.17,9.21,6939728
2015-12-11,9.25,9.28,8.94,8.95,10072258
2015-12-14,8.7,8.96,8.52,8.76,7442779
2015-12-15,8.95,9.2,8.85,9.15,6250447
2015-12-16,9.29,9.29,9.08,9.27,7930134
2015-12-17,9.25,9.68,9.25,9.61,14029300
2015-12-18,9.55,9.64,9.47,9.52,8641620
2015-12-21,9.38,9.63,9.36,9.6,6314272
2015-12-22,9.6,9.61,9.57,9.6,3338030
2015-12-23,9.6,9.63,9.57,9.61,2677056
2015-12-24,9.6,9.66,9.49,9.61,4196800
2015-12-28,9.58,9.61,9.51,9.52,2039200
2015-12-29,9.65,9.65,9.4,9.46,3394100
2015-12-30,9.48,9.6,9.44,9.54,3585569
2015-12-31,9.5,9.57,9.48,9.55,1367000
2016-01-04,9.33,9.44,8.97,9.06,4881368
2016-01-05,9.34,9.46,9.05,9.18,8992110
2016-01-06,9.32,9.32,9.06,9.25,5602296
2016-01-07,9.04,9.24,8.61,8.77,10813799
2016-01-08,8.77,8.87,8.54,8.81,6459393
2016-01-11,8.57,8.7,8.23,8.35,9888490
2016-01-12,8.36,8.75,8.34,8.37,8004150
2016-01-13,8.43,8.74,8.28,8.29,4806717
2016-01-14,8.04,8.49,8.04,8.37,4076535
2016-01-15,8.48,8.48,8.12,8.15,7435510
2016-01-18,8.07,8.07,7.74,7.81,8730800
2016-01-19,7.8,8.26,7.69,8.24,5877600
2016-01-20,8.24,8.24,7.92,7.99,5422000
2016-01-21,8.24,8.24,7.58,7.61,12457600
2016-01-22,8.08,8.18,7.89,8.16,7262000
2016-01-25,8.24,8.26,7.93,8.05,2470700
2016-01-26,7.97,8.13,7.7,7.76,4597600
2016-01-27,7.95,8.12,7.89,8.02,5172400
2016-01-28,7.91,8.02,7.78,7.97,4554800
2016-01-29,8.05,8.33,8.05,8.32,4467200
2016-02-01,8.37,8.44,8.26,8.38,4279259
2016-02-02,8.48,8.51,8.32,8.44,4060373
2016-02-03,8.29,8.32,8.02,8.09,3551941
2016-02-04,8.19,8.46,8.15,8.41,3596267
2016-02-05,8.44,8.66,8.43,8.58,3022200
2016-02-11,8.49,8.49,8.24,8.38,3156400
2016-02-12,8.35,8.55,8.24,8.24,4376080
2016-02-15,8.4,8.88,8.4,8.81,7239766
2016-02-16,8.92,9.09,8.81,8.94,4655480
2016-02-17,9.05,9.16,8.89,9.0,7576180
2016-02-18,9.2,9.27,9.09,9.25,5940000
2016-02-19,9.25,9.35,9.02,9.31,5654242
2016-02-22,9.3,9.46,9.25,9.32,8251200
2016-02-23,9.32,9.32,9.08,9.09,4688500
2016-02-24,9.09,9.14,8.98,9.12,5439200
2016-02-25,9.2,9.2,8.81,8.83,2984091
2016-02-26,8.92,9.2,8.9,9.16,7371107
2016-02-29,9.26,9.38,9.02,9.18,4278110
2016-03-01,9.27,9.3,9.15,9.24,3395800
2016-03-02,9.42,9.65,9.29,9.56,6685585
2016-03-03,9.68,9.9,9.65,9.76,12961908
2016-03-04,9.84,9.87,9.64,9.75,5305200
2016-03-07,9.75,9.9,9.67,9.79,7064258
2016-03-08,9.7,9.85,9.46,9.84,5155172
2016-03-09,9.7,9.92,9.63,9.9,8818286
2016-03-10,9.98,10.04,9.83,9.89,9961918
2016-03-11,9.98,10.48,9.97,10.4,24368202
2016-03-14,10.54,11.1,10.4,11.1,34130848
2016-03-15,11.1,11.18,10.72,10.74,10863790
2016-03-16,10.8,10.98,10.46,10.68,7896645
2016-03-17,10.98,11.1,10.8,10.9,10257380
2016-03-18,11.0,11.42,10.86,11.34,23025686
2016-03-21,11.5,11.5,11.3,11.42,8425844
2016-03-22,11.38,11.4,11.04,11.18,10067996
2016-03-23,11.1,11.22,10.88,11.0,7553400
2016-03-24,10.98,11.02,10.66,10.82,7009870
2016-03-29,10.82,10.94,10.46,10.7,11322600
2016-03-30,10.72,11.12,10.72,11.12,7818370
2016-03-31,11.18,11.42,11.0,11.12,6087256
2016-04-01,11.4,11.4,10.78,10.92,6118729
2016-04-05,11.4,11.4,10.62,10.8,8045885
2016-04-06,11.0,11.18,10.78,11.16,6317906
2016-04-07,11.16,11.3,10.64,10.78,9029968
2016-04-08,10.74,11.06,10.6,10.98,5583200
2016-04-11,10.98,11.46,10.92,11.36,7447528
2016-04-12,11.3,11.36,11.02,11.12,9555118
2016-04-13,11.3,11.34,11.14,11.28,4122854
2016-04-14,11.3,11.4,11.18,11.18,4831584
2016-04-15,11.12,11.14,11.0,11.02,2869383
2016-04-18,10.96,11.1,10.84,11.02,5286483
2016-04-19,11.06,11.26,11.06,11.14,5735115
2016-04-20,11.26,11.3,10.94,11.1,7970840
2016-04-21,11.1,11.3,11.02,11.04,3623072
2016-04-22,10.92,11.1,10.86,10.98,5273324
2016-04-25,10.96,11.18,10.94,11.02,2119600
2016-04-26,10.92,11.1,10.68,10.82,7401271
2016-04-27,10.82,10.98,10.7,10.92,1883546
2016-04-28,10.82,11.1,10.82,11.02,4443200
2016-04-29,10.94,10.96,10.72,10.86,4149200
2016-05-03,10.84,10.94,10.74,10.78,4518310
2016-05-04,10.58,10.94,10.58,10.8,7723223
2016-05-05,10.8,10.82,10.56,10.58,5065800
2016-05-06,10.76,10.76,10.1,10.2,8210153
2016-05-09,10.2,10.24,10.0,10.1,5195584
2016-05-10,10.0,10.16,10.0,10.02,5237600
2016-05-11,10.06,10.08,9.92,9.98,5165742
2016-05-12,10.1,10.1,9.68,9.78,9547184
2016-05-13,9.7,9.75,9.55,9.73,10731207
2016-05-16,9.69,9.8,9.58,9.72,3977236
2016-05-17,9.72,9.94,9.71,9.9,2140000
2016-05-18,9.9,9.99,9.74,9.96,4916148
2016-05-19,9.87,9.96,9.8,9.81,3376000
2016-05-20,9.9,10.06,9.82,9.9,2606024
2016-05-23,9.94,9.96,9.86,9.92,1362118
2016-05-24,9.9,10.0,9.86,9.91,2678808
2016-05-25,10.08,10.08,9.89,9.92,2972000
2016-05-26,9.99,10.08,9.96,10.04,2534188
2016-05-27,10.02,10.28,10.02,10.24,5639280
2016-05-30,10.1,10.42,10.04,10.28,4883019
2016-05-31,10.34,10.44,10.2,10.32,9454165
2016-06-01,10.32,10.44,10.26,10.4,3586737
2016-06-02,10.5,10.5,10.26,10.32,2212951
2016-06-03,10.48,10.48,10.28,10.36,2652000
2016-06-06,10.48,10.6,10.42,10.52,4302000
2016-06-07,10.68,10.74,10.42,10.64,2865902
2016-06-08,10.94,10.94,10.54,10.54,5552000
2016-06-10,10.5,10.62,10.12,10.16,6915394
2016-06-13,10.02,10.3,10.02,10.12,3785392
2016-06-14,10.1,10.26,10.04,10.24,6222728
2016-06-15,10.22,10.3,10.14,10.28,2951273
2016-06-16,10.24,10.24,10.02,10.04,4420949
2016-06-17,10.1,10.38,10.1,10.16,6066039
2016-06-20,10.28,10.46,10.26,10.4,3345328
2016-06-21,10.5,10.64,10.38,10.6,5970041
2016-06-22,10.76,10.76,10.52,10.62,5656758
2016-06-23,10.68,10.84,10.54,10.78,11424364
2016-06-24,10.72,10.78,10.26,10.6,11531676
2016-06-27,10.6,10.8,10.54,10.76,8249800
2016-06-28,10.88,10.88,10.58,10.78,9622500
2016-06-29,9.7,9.93,9.56,9.59,8436481
2016-06-30,9.68,9.82,9.62,9.77,7937902
2016-07-04,9.96,9.96,9.69,9.89,12165899
2016-07-05,9.92,9.93,9.75,9.89,14899602
2016-07-06,9.98,10.08,9.8,10.02,9779991
2016-07-07,10.02,10.26,9.93,10.12,9818884
2016-07-08,10.26,10.5,10.18,10.5,11254069
2016-07-11,10.56,10.74,10.52,10.68,7703779
2016-07-12,10.7,11.08,10.68,11.08,40186900
2016-07-13,11.28,11.58,11.08,11.48,21363722
2016-07-14,11.48,11.6,11.24,11.56,8485014
2016-07-15,11.6,11.76,11.44,11.68,9371305
2016-07-18,11.76,11.76,11.46,11.54,5497966
2016-07-19,11.54,11.64,11.22,11.62,5724500
2016-07-20,11.76,11.88,11.68,11.82,12724230
2016-07-21,11.96,12.12,11.9,12.0,10467825
2016-07-22,12.18,12.2,11.94,12.0,6197472
2016-07-25,12.18,12.28,11.92,12.0,5043325
2016-07-26,11.98,12.18,11.9,11.94,3954180
2016-07-27,12.06,12.06,11.68,11.9,4273675
2016-07-28,12.08,12.08,11.88,11.88,4296626
2016-07-29,11.94,12.0,11.74,11.74,4748312
2016-08-01,11.58,11.68,11.3,11.62,9454183
2016-08-03,11.58,11.58,11.36,11.42,5950266
2016-08-04,11.5,11.82,11.42,11.78,5537643
2016-08-05,11.88,12.08,11.76,11.98,5058100
2016-08-08,12.04,12.38,12.02,12.34,6464062
2016-08-09,12.34,12.78,12.28,12.78,9348766
2016-08-10,12.8,12.86,12.52,12.58,9049600
2016-08-11,12.7,12.76,12.28,12.36,6160427
2016-08-12,12.4,12.48,12.22,12.24,5115571
2016-08-15,12.3,12.66,12.3,12.6,7553377
2016-08-16,12.6,12.76,12.4,12.46,3840800
2016-08-17,12.4,12.4,12.04,12.18,3780748
2016-08-18,12.34,12.7,12.26,12.68,9306021
2016-08-19,12.7,12.78,12.48,12.72,5086801
2016-08-22,12.74,12.74,12.3,12.7,3077960
2016-08-23,12.68,12.68,12.24,12.56,4833960
2016-08-24,12.62,13.5,12.42,13.5,19343760
2016-08-25,13.52,13.56,12.54,12.8,23150560
2016-08-26,12.54,12.78,12.36,12.46,13002632
2016-08-29,12.54,12.84,12.4,12.82,6672200
2016-08-30,12.86,13.18,12.8,13.1,8565560
2016-08-31,13.0,13.1,12.82,13.1,8268839
2016-09-01,12.92,13.3,12.92,13.22,6991444
2016-09-02,13.3,13.5,13.0,13.5,8957397
2016-09-05,13.5,13.82,13.4,13.58,6827400
2016-09-06,13.5,13.9,13.42,13.9,10176669
2016-09-07,13.9,13.98,13.58,13.72,14408054
2016-09-08,13.0,13.22,12.82,13.04,9567726
2016-09-09,13.0,13.68,13.0,13.38,13810662
2016-09-12,13.02,13.16,12.62,12.66,6115212
2016-09-13,12.92,13.02,12.58,12.64,5817271
2016-09-14,12.66,12.7,12.36,12.52,5026852
2016-09-15,12.6,12.64,12.46,12.5,3357272
2016-09-19,12.54,13.0,12.52,12.94,6797441
2016-09-20,12.88,12.94,12.68,12.84,5235134
2016-09-21,12.76,13.32,12.7,13.28,9049792
2016-09-22,13.3,13.4,13.08,13.36,6932535
2016-09-23,13.46,13.46,13.12,13.28,5322169
2016-09-26,13.12,13.42,13.04,13.22,6500501
2016-09-27,13.18,13.18,12.68,13.02,7238886
2016-09-28,12.84,12.94,12.48,12.54,9299377
2016-09-29,12.6,12.78,12.38,12.38,6101286
2016-09-30,12.28,12.38,12.08,12.2,7546283
2016-10-03,12.28,12.46,11.64,11.86,9931600
2016-10-04,11.9,12.06,11.78,11.98,8470920
2016-10-05,11.94,11.94,11.42,11.52,9387219
2016-10-06,11.54,11.56,11.1,11.16,18279600
2016-10-07,11.06,11.36,11.06,11.28,8892390
2016-10-11,11.26,11.26,10.7,10.78,17003468
2016-10-12,10.84,10.98,10.7,10.98,9908958
2016-10-13,10.9,10.94,10.74,10.86,11167540
2016-10-14,11.0,11.22,10.96,11.0,7914000
2016-10-17,11.06,11.06,10.7,10.78,9185956
2016-10-18,10.94,11.14,10.86,11.08,7548330
2016-10-19,11.1,11.26,10.94,11.0,7241900
2016-10-20,11.02,11.12,10.84,11.08,8130176
2016-10-24,11.18,11.18,10.72,11.06,8407200
2016-10-25,11.06,11.08,10.92,10.98,4103600
2016-10-26,11.0,11.02,10.86,10.92,4300000
2016-10-27,10.9,11.14,10.9,10.98,3911600
2016-10-28,11.16,11.16,10.96,10.96,4254034
2016-10-31,11.0,11.08,10.92,10.96,3427306
2016-11-01,10.92,11.12,10.92,11.0,4821479
2016-11-02,10.92,10.94,10.72,10.86,4288867
2016-11-03,11.16,11.16,10.84,10.84,1894041
2016-11-04,10.76,10.92,10.76,10.82,2255504
2016-11-07,10.82,10.92,10.78,10.86,2621557
2016-11-08,10.86,11.0,10.8,10.92,1998000
2016-11-09,10.94,10.94,10.58,10.88,3707924
2016-11-10,10.88,10.98,10.66,10.72,5562400
2016-11-11,10.64,10.72,10.26,10.3,8319852
2016-11-14,10.2,10.42,10.1,10.12,4708000
2016-11-15,10.2,10.36,10.14,10.3,2827200
2016-11-16,10.38,10.38,10.12,10.16,2244922
2016-11-17,10.18,10.28,10.16,10.2,1627370
2016-11-18,10.26,10.28,10.1,10.22,5356147
2016-11-21,10.2,10.24,10.0,10.04,6090712
2016-11-22,10.04,10.2,10.02,10.14,3155600
2016-11-23,10.2,10.22,10.08,10.2,3491391
2016-11-24,10.2,10.2,9.85,10.02,1368800
2016-11-25,9.86,10.0,9.86,9.98,4571254
2016-11-28,9.98,10.06,9.9,9.91,4759200
2016-11-29,9.93,9.98,9.85,9.91,7375200
2016-11-30,9.91,10.14,9.86,9.86,8579360
2016-12-01,9.9,10.12,9.9,10.02,3014800
2016-12-02,10.02,10.06,9.9,9.94,5531015
2016-12-05,9.91,10.0,9.91,9.99,4896610
2016-12-06,9.99,10.02,9.8,9.81,6433800
2016-12-07,9.91,9.91,9.76,9.78,3260716
2016-12-08,9.79,9.93,9.79,9.93,5567788
2016-12-09,9.93,10.22,9.87,10.08,5611684
2016-12-12,10.2,10.2,9.81,9.93,6727336
2016-12-13,9.89,9.93,9.62,9.75,6919851
2016-12-14,9.77,9.77,9.64,9.68,4078270
2016-12-15,9.77,9.77,9.44,9.51,5347609
2016-12-16,9.5,9.71,9.43,9.62,5010282
2016-12-19,9.62,9.62,9.33,9.36,4649343
2016-12-20,9.15,9.34,9.15,9.19,4498400
2016-12-21,9.2,9.33,9.15,9.24,3036444
2016-12-22,9.33,9.33,9.1,9.1,2229320
2016-12-23,9.1,9.15,9.0,9.09,2821034
2016-12-28,9.05,9.14,9.05,9.07,2425906
2016-12-29,9.13,9.17,9.02,9.11,1912460
2016-12-30,9.14,9.41,9.12,9.38,3144857
2017-01-03,9.37,9.55,9.31,9.42,3027600
2017-01-04,9.49,9.56,9.26,9.34,4272100
2017-01-05,9.33,9.44,9.2,9.36,5674293
2017-01-06,9.54,9.59,9.42,9.55,5682996
2017-01-09,9.63,9.7,9.56,9.65,4284983
2017-01-10,9.63,9.86,9.63,9.79,4554453
2017-01-11,9.95,10.22,9.92,10.04,8748436
2017-01-12,10.1,10.2,10.04,10.08,6792270
2017-01-13,10.06,10.2,9.92,10.0,5493456
2017-01-16,10.02,10.02,9.78,9.84,3030560
2017-01-17,9.7,10.02,9.7,9.98,3347715
2017-01-18,10.04,10.08,9.92,10.0,2374200
2017-01-19,9.92,9.95,9.73,9.75,4521870
2017-01-20,9.68,9.83,9.66,9.8,2198003
2017-01-23,9.76,9.86,9.7,9.77,3338876
2017-01-24,9.68,9.81,9.68,9.79,3402076
2017-01-25,9.85,9.9,9.72,9.85,2382000
2017-01-26,9.8,10.16,9.8,10.04,2881088
2017-01-27,10.0,10.06,9.92,9.98,1227290
2017-02-01,9.8,10.04,9.8,10.02,3015984
2017-02-02,10.02,10.06,9.9,9.91,2420472
2017-02-03,9.9,10.06,9.85,10.06,3765582
2017-02-06,10.14,10.26,9.98,10.2,4706439
2017-02-07,10.08,10.22,10.02,10.02,3865211
2017-02-08,10.06,11.06,10.06,11.02,20446994
2017-02-09,11.1,11.28,10.76,10.9,12767400
2017-02-10,10.98,10.98,10.62,10.68,12353080
2017-02-13,10.68,10.82,10.62,10.8,5532849
2017-02-14,10.88,10.88,10.62,10.68,3707249
2017-02-15,10.84,10.92,10.7,10.84,4331070
2017-02-16,10.84,10.98,10.74,10.88,7195800
2017-02-17,10.94,10.96,10.44,10.5,8308720
2017-02-20,10.48,10.6,10.48,10.56,2643600
2017-02-21,10.6,10.64,10.34,10.46,4518794
2017-02-22,10.54,10.92,10.52,10.82,8654151
2017-02-23,10.86,11.04,10.76,10.88,4283577
2017-02-24,10.94,11.02,10.78,10.78,5623712
2017-02-27,10.78,10.9,10.62,10.68,6077020
2017-02-28,10.68,10.8,10.56,10.72,7158400
2017-03-01,10.78,10.9,10.68,10.78,4063416
2017-03-02,10.98,11.0,10.78,10.78,7804788
2017-03-03,10.88,10.88,10.7,10.76,3595545
2017-03-06,10.9,11.06,10.76,11.06,7728851
2017-03-07,11.32,11.76,11.18,11.56,22610008
2017-03-08,11.46,12.18,11.42,12.14,21217416
2017-03-09,12.04,12.26,11.82,11.9,15325425
2017-03-10,11.88,12.24,11.86,12.12,18150878
2017-03-13,12.2,13.36,12.12,13.2,30454928
2017-03-14,13.2,13.34,12.9,13.04,22231004
2017-03-15,12.96,13.48,12.96,13.3,19418640
2017-03-16,13.46,13.68,13.2,13.32,11406758
2017-03-17,13.3,13.38,12.82,12.98,20346060
2017-03-20,12.76,12.84,12.52,12.68,15086284
2017-03-21,12.66,13.14,12.66,13.06,14666474
2017-03-22,12.88,13.04,12.76,12.98,8702000
2017-03-23,12.9,13.46,12.9,13.26,8416243
2017-03-24,13.26,13.26,12.92,13.02,5946520
2017-03-27,13.0,13.02,12.14,12.22,15621155
2017-03-28,12.48,12.64,12.32,12.44,6855202
2017-03-29,12.62,12.62,12.22,12.32,8908800
2017-03-30,12.24,12.34,12.16,12.22,5084698
2017-03-31,12.34,12.34,12.02,12.14,4183824
2017-04-03,12.2,12.38,12.2,12.36,3694985
2017-04-05,12.5,12.58,12.32,12.44,10123675
2017-04-06,12.48,13.0,12.46,12.88,12315777
2017-04-07,13.0,13.0,12.62,13.0,9627114
2017-04-10,13.0,13.04,12.72,12.78,9655248
2017-04-11,12.9,12.96,12.54,12.82,8250676
2017-04-12,12.7,12.96,12.7,12.82,7389632
2017-04-13,12.98,13.88,12.84,13.76,29626300
2017-04-18,13.76,13.84,13.3,13.5,7917000
2017-04-19,13.4,13.68,13.34,13.54,7783645
2017-04-20,13.54,13.6,13.26,13.3,7396280
2017-04-21,13.28,13.42,13.24,13.36,4963320
2017-04-24,13.32,13.34,13.02,13.12,2995600
2017-04-25,13.14,13.6,13.12,13.6,6402383
2017-04-26,13.6,13.74,13.34,13.58,9527435
2017-04-27,13.4,13.42,13.12,13.18,8956400
2017-04-28,13.12,13.26,13.08,13.1,6549400
2017-05-02,13.22,13.32,12.84,12.86,5424546
2017-05-04,12.62,12.62,11.8,12.34,27234832
2017-05-05,12.22,12.22,11.9,12.14,13087653
2017-05-08,12.0,12.1,11.82,11.92,9158800
2017-05-09,11.84,12.14,11.6,12.1,11605684
2017-05-10,12.1,12.14,11.92,11.92,7320600
2017-05-11,12.06,12.12,11.9,12.04,3023606
2017-05-12,12.0,12.42,12.0,12.24,8496256
2017-05-15,12.22,12.34,11.96,12.2,6441977
2017-05-16,12.2,12.38,12.14,12.28,6484838
2017-05-17,12.38,12.38,12.22,12.26,4393303
2017-05-18,12.28,12.3,12.16,12.3,7954242
2017-05-19,12.4,12.98,12.36,12.6,11619353
2017-05-22,12.7,12.72,12.48,12.68,8187667
2017-05-23,11.8,11.8,11.52,11.62,13354060
2017-05-24,11.62,12.06,11.5,12.04,8735389
2017-05-25,12.1,12.48,12.1,12.22,10988633
2017-05-26,12.2,12.38,11.88,12.16,3470435
2017-05-29,12.1,12.84,12.1,12.46,14084445
2017-05-31,12.54,12.82,12.5,12.6,12949006
2017-06-01,12.8,12.8,12.4,12.66,5944336
2017-06-02,12.72,12.8,12.56,12.56,5437169
2017-06-05,12.64,12.72,12.34,12.62,5449788
2017-06-06,12.52,13.32,12.52,13.1,21401326
2017-06-07,13.04,13.32,12.78,12.8,6206352
2017-06-08,12.98,12.98,12.76,12.86,3548800
2017-06-09,12.96,12.96,12.4,12.6,8748801
2017-06-12,12.5,12.6,12.3,12.32,4661600
2017-06-13,12.34,12.68,12.34,12.56,4027326
2017-06-14,12.72,12.72,12.28,12.4,6695560
2017-06-15,12.32,12.36,11.94,12.24,9900600
2017-06-16,12.16,12.36,12.0,12.06,6503505
2017-06-19,12.02,12.26,12.02,12.12,3291312
2017-06-20,12.12,12.24,12.1,12.18,2787836
2017-06-21,12.18,12.36,12.02,12.18,3215680
2017-06-22,12.26,12.36,12.06,12.14,4834581
2017-06-23,12.1,12.2,12.02,12.06,4805961
2017-06-26,12.0,12.32,12.0,12.22,7006600
2017-06-27,12.12,12.28,12.06,12.14,4527572
2017-06-28,12.08,12.1,11.92,12.0,4749188
2017-06-29,12.0,12.16,12.0,12.14,3004223
2017-06-30,12.12,12.3,12.04,12.14,5139800
2017-07-03,12.3,12.8,12.28,12.62,7753310
2017-07-04,12.62,12.84,12.24,12.42,4668593
2017-07-05,12.4,12.52,12.26,12.4,3331631
2017-07-06,12.32,12.42,12.24,12.36,2576757
2017-07-07,12.32,12.34,12.14,12.22,2976000
2017-07-10,12.32,12.34,12.16,12.32,2673260
2017-07-11,12.32,12.56,12.32,12.52,4328248
2017-07-12,12.52,12.66,12.48,12.52,5298471
2017-07-13,12.6,12.68,12.5,12.68,3332300
2017-07-14,12.6,13.04,12.52,12.94,10674582
2017-07-17,13.0,13.14,12.74,13.04,6477761
2017-07-18,13.0,13.08,12.66,12.74,9516343
2017-07-19,12.74,12.92,12.66,12.92,10883600
2017-07-20,14.1,14.6,13.7,13.8,64591304
2017-07-21,14.04,14.14,13.6,13.64,12180481
2017-07-24,13.72,13.88,13.14,13.44,28352400
2017-07-25,13.44,13.52,13.14,13.5,11636851
2017-07-26,13.68,13.72,13.36,13.72,11043746
2017-07-27,13.78,14.36,13.72,14.14,20034244
2017-07-28,14.12,14.14,13.76,13.96,6968033
2017-07-31,13.96,14.12,13.82,13.96,5718825
2017-08-01,14.04,14.12,13.76,13.86,15167200
2017-08-02,14.04,14.08,13.76,13.82,6823534
2017-08-03,13.84,13.84,13.54,13.6,5502400
2017-08-04,13.7,14.26,13.7,14.16,9929075
2017-08-07,14.3,14.54,14.0,14.14,7299257
2017-08-08,14.16,15.08,14.02,15.04,17424400
2017-08-09,15.06,16.0,14.8,15.88,23745372
2017-08-10,15.88,16.08,15.24,15.68,24334924
2017-08-11,14.9,15.44,14.82,15.24,14195569
2017-08-14,15.24,15.58,15.24,15.52,6228482
2017-08-15,15.48,15.7,15.1,15.1,7090995
2017-08-16,15.1,15.3,15.1,15.26,4501559
2017-08-17,15.16,15.26,14.72,14.88,8735200
2017-08-18,14.74,14.8,14.6,14.6,6590176
2017-08-21,14.7,15.02,14.64,14.84,11717600
2017-08-22,15.0,16.38,14.92,16.28,25760796
2017-08-24,17.0,17.98,17.0,17.46,36255176
2017-08-25,17.5,17.92,17.4,17.92,18108492
2017-08-28,17.84,18.04,17.64,17.94,11252144
2017-08-29,17.88,17.92,17.34,17.58,9217100
2017-08-30,17.7,17.96,17.5,17.68,10310500
2017-08-31,17.76,18.68,17.7,18.28,16215023
2017-09-01,18.38,18.38,17.7,17.76,9137481
2017-09-04,17.5,18.2,17.4,18.0,5171528
2017-09-05,18.0,18.76,17.9,18.76,9487849
2017-09-06,18.68,18.7,17.88,18.3,12264696
2017-09-07,18.02,18.72,18.0,18.62,12972530
2017-09-08,18.4,18.54,17.42,17.76,17464618
2017-09-11,17.96,18.2,17.7,18.04,11557628
2017-09-12,18.04,18.04,17.58,17.88,6733341
2017-09-13,17.88,18.14,17.62,17.98,8963055
2017-09-14,17.96,18.68,17.96,18.64,15209200
2017-09-15,18.5,18.78,18.18,18.72,17048400
2017-09-18,18.84,21.2,18.76,20.65,33745180
2017-09-19,20.8,21.35,19.8,20.45,17509670
2017-09-20,20.6,21.65,20.05,21.25,14482261
2017-09-21,20.9,21.5,20.35,21.1,18181158
2017-09-22,20.5,20.6,19.8,20.15,17231372
2017-09-25,19.84,19.84,18.22,18.32,23414418
2017-09-26,17.98,18.78,17.4,17.72,20622444
2017-09-27,17.8,18.64,17.8,18.44,10680746
2017-09-28,18.54,18.54,17.78,17.92,7518976
2017-09-29,18.0,18.16,17.66,18.1,8569600
2017-10-03,18.44,18.86,18.16,18.62,8007600
2017-10-04,18.86,19.44,18.86,19.34,8874800
2017-10-06,19.68,20.1,19.22,19.9,13761617
2017-10-09,19.64,19.64,18.8,19.2,10791787
2017-10-10,19.3,19.36,18.8,19.2,6086000
2017-10-11,18.9,19.1,18.4,18.56,10973691
2017-10-12,18.56,18.76,18.0,18.42,11984400
2017-10-13,18.6,18.9,18.3,18.68,5732302
2017-10-16,18.88,18.98,18.4,18.58,7996865
2017-10-17,18.74,18.74,18.44,18.5,4737343
2017-10-18,18.4,18.72,18.06,18.5,8755730
2017-10-19,18.6,19.1,18.1,18.22,9097200
2017-10-20,18.38,18.5,17.9,18.34,9560708
2017-10-23,18.32,18.5,17.92,18.22,7081200
2017-10-24,18.32,18.9,18.06,18.3,8771600
2017-10-25,18.44,18.68,18.14,18.22,6147267
2017-10-26,18.02,18.28,17.8,17.8,8010900
2017-10-27,17.86,18.18,17.34,17.44,11282488
2017-10-30,17.6,17.74,16.9,17.16,5724279
2017-10-31,17.0,17.12,16.62,16.62,9584424
2017-11-01,16.9,17.66,16.8,17.6,13767575
2017-11-02,17.66,17.88,17.14,17.26,5242528
2017-11-03,17.5,17.58,16.86,16.98,5578487
2017-11-06,17.16,17.16,16.28,16.7,5116404
2017-11-07,16.74,17.02,16.62,16.88,7536563
2017-11-08,16.72,16.86,16.6,16.72,5744600
2017-11-09,16.84,17.08,16.66,17.0,5139576
2017-11-10,17.2,17.3,16.96,17.3,5797452
2017-11-13,17.72,18.04,17.66,17.82,8516185
2017-11-14,18.1,18.1,17.44,17.48,4477516
2017-11-15,17.06,17.5,17.06,17.28,6187204
2017-11-16,17.28,17.48,17.12,17.36,2005405
2017-11-17,17.46,17.5,17.12,17.24,5708710
2017-11-20,17.22,17.48,16.9,17.14,4500210
2017-11-21,17.14,17.34,16.84,17.34,4603897
2017-11-22,17.5,18.08,17.36,17.84,7834663
2017-11-23,17.86,18.0,17.3,17.42,4905974
2017-11-24,17.7,17.7,17.06,17.42,2517027
2017-11-27,17.4,17.42,16.7,16.92,9545332
2017-11-28,16.92,16.92,16.44,16.76,6720374
2017-11-29,16.8,17.16,16.62,17.04,3655608
2017-11-30,17.02,17.02,16.62,16.7,7205361
2017-12-01,16.7,17.36,16.64,17.3,5979207
2017-12-04,17.3,17.58,16.92,17.1,5394343
2017-12-05,17.0,17.22,16.92,17.0,2978805
2017-12-06,17.06,17.06,16.24,16.42,8337071
2017-12-07,16.7,16.7,15.58,16.08,6554092
2017-12-08,16.2,16.72,15.88,16.58,5023448
2017-12-11,16.54,16.6,16.04,16.34,3134076
2017-12-12,16.38,16.68,16.2,16.22,4825918
2017-12-13,16.26,16.9,16.26,16.64,5827945
2017-12-14,16.82,17.3,16.74,17.3,7404852
2017-12-15,17.2,17.4,16.84,17.14,8175687
2017-12-18,17.24,17.24,16.74,16.88,3111785
2017-12-19,17.0,17.0,16.42,16.54,5648076
2017-12-20,16.46,16.68,16.4,16.4,7040270
2017-12-21,16.46,16.9,16.4,16.88,3881190
2017-12-22,16.8,17.16,16.8,16.94,2923703
2017-12-27,17.0,17.78,17.0,17.32,6739804
2017-12-28,17.4,17.96,17.12,17.82,5339781
2017-12-29,17.94,17.94,17.34,17.62,2826800
2018-01-02,17.76,19.66,17.76,19.34,16815136
2018-01-03,19.68,19.8,19.04,19.4,10002142
2018-01-04,19.68,19.68,18.86,19.32,5067304
2018-01-05,19.32,20.3,19.32,19.74,9329591
2018-01-08,20.2,21.2,20.15,21.0,14860295
2018-01-09,20.95,21.3,20.5,21.05,11050826
2018-01-10,20.95,22.0,20.7,21.9,13872241
2018-01-11,21.65,21.85,20.45,20.9,13063546
2018-01-12,21.2,21.35,20.55,20.6,6883957
2018-01-15,21.15,21.3,20.0,20.35,10130540
2018-01-16,20.1,21.2,19.92,20.35,11967600
2018-01-17,20.0,20.4,19.52,20.2,14561012
2018-01-18,20.4,20.7,20.1,20.2,7092924
2018-01-19,20.2,21.45,19.96,21.1,11245400
2018-01-22,21.3,23.25,21.0,23.25,26857538
2018-01-23,23.35,23.6,22.65,23.2,20210110
2018-01-24,22.8,23.2,22.6,22.7,8188258
2018-01-25,22.5,22.7,21.6,22.5,7172724
2018-01-26,22.5,23.8,22.35,23.8,12454328
2018-01-29,23.7,23.85,22.75,22.95,6957675
2018-01-30,22.65,23.4,22.05,22.4,5200925
2018-01-31,21.75,22.45,21.3,22.0,9413891
2018-02-01,22.1,23.0,21.8,22.15,5811376
2018-02-02,22.25,22.4,21.8,22.2,10460858
2018-02-05,21.0,21.8,20.85,21.65,10518560
2018-02-06,20.9,21.05,19.8,21.0,19648828
2018-02-07,21.8,22.25,19.76,20.1,21684748
2018-02-08,20.2,20.3,18.7,19.2,31453586
2018-02-09,18.46,18.68,17.72,18.6,14597721
2018-02-12,18.86,18.9,17.76,18.0,10660000
2018-02-13,18.62,19.1,18.26,18.9,10367987
2018-02-14,18.98,19.4,18.74,19.26,4356698
2018-02-15,19.32,20.15,19.3,20.0,5207050
2018-02-20,20.0,20.1,19.06,19.36,7013490
2018-02-21,19.6,20.25,19.22,20.05,5166674
2018-02-22,20.35,20.35,19.48,19.48,6983409
2018-02-23,19.64,20.0,19.52,19.8,6382880
2018-02-26,20.05,20.2,19.26,19.46,6299000
2018-02-27,19.6,19.7,18.64,18.94,10154446
2018-02-28,18.9,18.9,18.18,18.42,13058442
2018-03-01,18.28,18.88,18.14,18.44,8456800
2018-03-02,18.18,18.52,17.8,18.52,10912842
2018-03-05,18.5,19.1,18.36,18.42,9004951
2018-03-06,18.6,18.94,18.22,18.86,5263556
2018-03-07,18.52,18.96,18.38,18.54,4236309
2018-03-08,18.74,19.08,18.42,19.0,3770375
2018-03-09,19.1,19.26,18.82,18.88,4935684
2018-03-12,19.24,19.66,19.02,19.4,8304468
2018-03-13,19.6,19.6,18.76,18.88,7935310
2018-03-14,18.64,18.92,18.58,18.76,7700662
2018-03-15,18.78,19.4,18.52,19.36,6144351
2018-03-16,19.2,20.25,19.2,19.96,22773344
2018-03-19,20.15,20.9,19.72,20.2,14954061
2018-03-20,20.3,21.15,20.05,20.9,15419839
2018-03-21,21.3,21.8,20.5,20.6,13100006
2018-03-22,21.1,21.3,20.15,20.7,8938122
2018-03-23,19.5,20.0,19.28,19.48,15731607
2018-03-26,19.48,19.5,18.72,19.22,10206678
2018-03-27,19.48,19.94,19.48,19.7,5776576
2018-03-28,19.48,19.96,19.24,19.28,4483971
2018-03-29,19.36,19.64,19.06,19.58,8472805
2018-04-03,19.3,19.34,18.82,19.12,6438092
2018-04-04,19.2,19.28,18.8,18.82,4310000
2018-04-06,19.0,19.18,18.74,19.02,8064479
2018-04-09,19.0,19.2,18.78,19.0,6069160
2018-04-10,19.14,19.88,19.08,19.86,9635639
2018-04-11,19.98,20.05,19.54,19.64,7209883
2018-04-12,19.68,19.86,19.54,19.74,4321962
2018-04-13,19.9,19.94,19.52,19.64,3643016
2018-04-16,19.78,19.8,18.8,19.12,7715600
2018-04-17,19.14,19.14,18.52,18.56,6258456
2018-04-18,18.76,18.96,18.2,18.62,4923810
2018-04-19,18.84,18.94,18.5,18.8,3333800
2018-04-20,18.6,18.74,18.46,18.5,5487032
2018-04-23,18.5,18.52,17.82,18.38,4061331
2018-04-24,18.3,19.0,18.3,19.0,5326941
2018-04-25,18.76,18.86,18.32,18.82,5169600
2018-04-26,18.78,18.94,18.46,18.7,5302000
2018-04-27,18.7,18.88,18.44,18.62,1739059
2018-04-30,18.7,19.1,18.6,18.88,4145540
2018-05-02,19.02,19.18,18.76,18.94,2465326
2018-05-03,18.82,19.02,18.5,18.6,3420091
2018-05-04,18.7,18.72,18.2,18.2,4624000
2018-05-07,18.32,18.54,18.16,18.36,1959736
2018-05-08,18.46,18.56,18.2,18.36,3503800
2018-05-09,18.56,18.72,18.3,18.7,3216843
2018-05-10,18.6,19.06,18.6,19.06,4750757
2018-05-11,19.06,19.22,18.9,18.94,3018736
2018-05-14,18.94,19.4,18.94,19.24,4631600
2018-05-15,19.34,19.42,19.16,19.3,5022800
2018-05-16,19.2,19.74,19.2,19.54,4611702
2018-05-17,19.6,19.72,19.1,19.12,5783504
2018-05-18,19.28,19.76,19.14,19.62,6354561
2018-05-21,19.88,19.9,19.54,19.56,2782577
2018-05-23,19.7,19.7,19.08,19.1,4456354
2018-05-24,19.18,19.28,19.06,19.1,4319200
2018-05-25,19.1,19.26,19.0,19.0,3427200
2018-05-28,19.16,19.16,18.9,19.08,2244000
2018-05-29,19.08,19.18,18.76,18.76,6305479
2018-05-30,18.74,18.74,17.94,18.14,16320700
2018-05-31,18.4,18.56,18.2,18.4,11733918
2018-06-01,17.5,18.08,17.3,17.88,10260660
2018-06-04,18.08,18.92,17.94,18.86,10732220
2018-06-05,18.9,19.34,18.8,19.26,8521251
2018-06-06,19.26,19.4,18.98,19.04,9538130
2018-06-07,19.26,19.3,18.94,18.98,3674894
2018-06-08,19.18,19.18,18.5,18.68,6319887
2018-06-11,18.8,18.92,18.56,18.78,2525603
2018-06-12,18.68,18.98,18.5,18.88,4102669
2018-06-13,18.84,19.04,18.66,18.66,2038286
2018-06-14,18.64,18.68,18.12,18.38,5183600
2018-06-15,18.26,18.4,18.1,18.1,5987144
2018-06-19,18.1,18.1,17.12,17.48,8616336
2018-06-20,17.74,17.74,17.14,17.28,5896030
2018-06-21,17.3,17.84,17.1,17.1,5611200
2018-06-22,17.02,17.16,16.64,16.88,8681145
2018-06-25,16.98,17.08,16.18,16.4,11285968
2018-06-26,16.04,16.14,15.38,15.84,17793728
2018-06-27,15.78,15.86,14.74,15.06,14235750
2018-06-28,15.14,15.26,14.64,14.88,15727370
2018-06-29,15.02,16.02,14.92,15.84,18704376
2018-07-03,15.24,15.3,14.66,15.06,16576121
2018-07-04,15.0,15.2,14.58,14.72,11139259
2018-07-05,14.88,15.28,14.68,15.04,10346962
2018-07-06,15.14,15.26,14.56,14.92,11383609
2018-07-09,15.2,15.62,15.02,15.18,4950000
2018-07-10,15.38,15.38,14.98,15.24,6175438
2018-07-11,15.0,15.08,14.6,14.64,7805973
2018-07-12,14.78,14.94,14.6,14.86,7218589
2018-07-13,15.0,15.1,14.8,14.82,4844860
2018-07-16,14.98,15.08,14.52,14.66,7868400
2018-07-17,14.62,14.62,14.18,14.32,5294886
2018-07-18,14.48,14.64,14.2,14.26,5380745
2018-07-19,14.14,14.38,13.72,13.8,6873871
2018-07-20,13.74,13.82,13.1,13.82,9517561
2018-07-23,13.68,14.4,13.64,14.26,8018320
2018-07-24,14.34,15.06,14.34,14.78,8678810
2018-07-25,15.04,15.06,14.82,14.96,7333432
2018-07-26,15.0,15.34,14.98,15.02,9239596
2018-07-27,14.98,15.04,14.6,14.78,4800326
2018-07-30,14.78,14.98,14.38,14.46,3725021
2018-07-31,14.38,14.42,13.9,14.1,8310000
2018-08-01,14.38,14.38,13.7,13.88,13377662
2018-08-02,13.88,13.96,13.56,13.6,8231600
2018-08-03,13.5,13.72,13.34,13.5,6389551
2018-08-06,13.5,13.9,13.38,13.52,6965410
2018-08-07,13.66,14.3,13.66,14.28,8387588
2018-08-08,14.38,14.4,13.76,13.88,8376400
2018-08-09,13.8,14.38,13.76,14.22,3351054
2018-08-10,14.66,15.92,14.66,15.02,17085338
2018-08-13,14.98,15.0,14.34,14.5,5072026
2018-08-14,14.52,14.66,13.96,14.4,5571076
2018-08-15,14.42,14.42,13.74,13.8,5966806
2018-08-16,13.5,14.16,13.5,13.86,3847227
2018-08-17,14.2,14.36,13.9,14.06,5185600
2018-08-20,14.16,14.5,13.84,14.38,3810800
2018-08-21,14.5,15.22,14.46,15.12,6154992
2018-08-22,15.24,15.24,14.8,15.04,3288650
2018-08-23,14.9,15.14,14.74,15.06,3564590
2018-08-24,14.96,15.42,14.54,15.06,9515000
2018-08-27,15.5,17.16,15.44,17.0,28829864
2018-08-28,16.9,17.06,16.36,16.42,12995201
2018-08-29,16.6,16.76,16.26,16.42,5065200
2018-08-30,16.52,16.58,15.98,16.04,5036771
2018-08-31,15.8,16.06,15.68,15.84,8223927
2018-09-03,15.84,16.04,15.28,15.56,5924825
2018-09-04,15.68,15.7,15.36,15.58,3935461
2018-09-05,15.6,15.64,14.82,14.9,6918923
2018-09-06,15.02,15.08,14.5,14.74,7326731
2018-09-07,14.7,14.84,14.34,14.58,7695380
2018-09-10,14.58,14.64,14.2,14.32,5156589
2018-09-11,14.3,14.34,14.1,14.22,6441075
2018-09-12,14.36,14.44,14.02,14.3,6604045
2018-09-13,14.1,14.36,13.84,14.36,8022076
2018-09-14,14.48,14.58,14.18,14.56,4806911
2018-09-17,14.38,14.52,14.26,14.44,3554967
2018-09-18,14.38,14.56,14.22,14.42,3417791
2018-09-19,14.5,15.0,14.42,14.88,4765081
2018-09-20,14.9,15.0,14.56,14.9,3105813
2018-09-21,15.0,15.44,14.82,15.44,6668177
2018-09-24,15.02,15.04,14.6,14.9,5394800
2018-09-26,14.88,14.88,14.46,14.56,4639062
2018-09-27,14.5,14.72,14.4,14.56,3190000
2018-09-28,14.7,14.7,14.14,14.38,6539200
2018-10-02,14.48,14.48,13.92,14.02,3638977
2018-10-03,14.0,14.4,13.98,14.14,2341312
2018-10-04,14.14,14.18,13.84,13.94,3273670
2018-10-05,13.86,13.96,13.58,13.92,4356271
2018-10-08,13.92,13.98,13.2,13.24,5805200
2018-10-09,13.32,13.82,12.98,13.62,5539055
2018-10-10,13.6,13.96,13.44,13.5,6012400
2018-10-11,12.96,13.0,12.02,12.08,17095244
2018-10-12,12.16,12.42,11.72,12.26,10512100
2018-10-15,12.22,12.36,11.88,11.94,4721671
2018-10-16,12.04,12.1,11.62,11.84,5395182
2018-10-18,12.24,12.24,11.82,11.86,4348483
2018-10-19,11.86,12.3,11.7,12.12,8619997
2018-10-22,12.3,12.58,12.2,12.54,5374940
2018-10-23,12.48,12.58,12.04,12.12,4476795
2018-10-24,12.28,12.58,12.04,12.1,5423055
2018-10-25,11.8,12.38,11.8,12.32,4548508
2018-10-26,12.26,12.74,12.06,12.22,4108800
2018-10-29,12.3,12.5,11.8,12.04,4013492
2018-10-30,11.96,12.14,11.68,12.06,2633800
2018-10-31,11.92,12.44,11.92,12.3,4995466
2018-11-01,12.48,13.1,12.48,12.78,6442796
2018-11-02,13.16,13.36,12.96,13.3,7747255
2018-11-05,12.5,12.9,11.86,12.14,20270244
2018-11-06,12.2,12.2,11.72,11.8,13456759
2018-11-07,11.98,11.98,11.64,11.72,13348794
2018-11-08,11.86,11.98,11.76,11.86,7483300
2018-11-09,11.64,11.88,11.58,11.64,7108792
2018-11-12,11.6,11.7,11.42,11.58,6235200
2018-11-13,11.38,11.58,11.3,11.54,6733513
2018-11-14,11.58,11.84,11.58,11.66,5907300
2018-11-15,11.78,11.82,11.54,11.7,4930800
2018-11-16,11.8,11.82,11.62,11.7,5668365
2018-11-19,11.82,11.98,11.68,11.98,11370462
2018-11-20,11.8,11.9,11.68,11.74,4603896
2018-11-21,11.64,11.98,11.5,11.9,6874107
2018-11-22,12.0,12.0,11.56,11.58,6421828
2018-11-23,11.68,11.68,11.28,11.38,5658800
2018-11-26,11.28,11.56,11.22,11.32,4973561
2018-11-27,11.26,11.52,11.24,11.46,6156048
2018-11-28,11.54,11.94,11.48,11.92,9922772
2018-11-29,12.04,12.2,11.86,11.9,7006622
2018-11-30,12.0,12.16,11.92,12.12,8359910
2018-12-03,12.5,12.56,12.3,12.32,6543292
2018-12-04,12.28,12.4,12.1,12.28,5120573
2018-12-05,12.1,12.16,11.9,12.16,4492407
2018-12-06,12.14,12.14,11.82,11.9,3961368
2018-12-07,11.92,12.18,11.76,11.86,4214600
2018-12-10,11.72,11.82,11.4,11.6,4653211
2018-12-11,11.46,11.6,11.4,11.5,4782645
2018-12-12,11.66,12.3,11.5,12.1,9883687
2018-12-13,12.3,12.8,12.12,12.54,14868899
2018-12-14,12.4,12.44,12.14,12.24,4749624
2018-12-17,12.18,12.3,11.9,12.02,2836773
2018-12-18,11.9,12.1,11.54,11.64,6767000
2018-12-19,11.64,11.88,11.6,11.66,4045400
2018-12-20,11.62,11.68,11.46,11.58,4400000
2018-12-21,11.4,11.62,11.22,11.6,5144001
2018-12-24,11.4,11.52,11.26,11.42,3230179
2018-12-27,11.44,11.62,11.3,11.38,4445296
2018-12-28,11.4,11.54,11.32,11.5,4158800
2018-12-31,11.54,11.9,11.5,11.84,5152319
2019-01-02,11.84,11.84,11.16,11.22,9830452
2019-01-03,11.12,11.3,10.94,11.16,6815200
2019-01-04,11.12,11.7,11.1,11.64,5883453
2019-01-07,11.92,12.22,11.88,12.22,11539066
2019-01-08,12.24,12.32,11.98,12.2,4817348
2019-01-09,12.32,12.56,12.24,12.32,7203030
2019-01-10,12.42,12.8,12.34,12.8,11745182
2019-01-11,12.94,13.38,12.88,13.38,14114584
2019-01-14,13.4,13.5,13.08,13.22,10091227
2019-01-15,13.4,13.48,13.16,13.48,6414615
2019-01-16,13.56,14.34,13.48,14.28,17128160
2019-01-17,14.2,14.26,13.7,13.78,12791862
2019-01-18,13.92,14.24,13.9,14.14,10617300
2019-01-21,14.3,14.38,14.06,14.16,7602036
2019-01-22,14.2,14.3,13.68,13.86,10669118
2019-01-23,13.74,14.06,13.74,13.86,7145065
2019-01-24,14.0,14.46,13.98,14.44,14646151
2019-01-25,14.46,14.66,14.22,14.3,9826000
2019-01-28,14.46,14.5,14.16,14.44,5649200
2019-01-29,14.3,14.48,14.1,14.48,7882894
2019-01-30,14.48,15.36,14.34,15.24,15193200
2019-01-31,15.38,15.6,15.2,15.58,12187992
2019-02-01,15.72,15.8,15.44,15.58,8146942
2019-02-04,15.36,15.82,15.3,15.78,3320546
2019-02-08,15.66,16.0,15.52,15.9,5338893
2019-02-11,15.86,16.02,15.6,15.92,4665109
2019-02-12,15.76,15.96,15.68,15.88,5187207
2019-02-13,16.0,16.0,15.6,15.88,6749910
2019-02-14,15.94,16.04,15.46,15.5,8412059
2019-02-15,15.38,15.4,14.82,15.06,10287854
2019-02-18,14.96,15.26,14.72,15.04,8712774
2019-02-19,15.2,15.34,14.82,14.98,4758476
2019-02-20,14.98,15.86,14.96,15.82,14588003
2019-02-21,15.88,15.96,15.54,15.66,4487617
2019-02-22,15.52,15.52,15.24,15.5,4986988
2019-02-25,15.7,15.74,15.3,15.36,6593287
2019-02-26,15.5,15.5,14.86,15.06,8358848
2019-02-27,14.96,15.08,14.7,14.72,10835576
2019-02-28,14.7,15.04,14.5,14.68,5884324
2019-03-01,14.84,15.28,14.58,15.14,6008277
2019-03-04,15.3,15.6,15.0,15.44,7879563
2019-03-05,15.4,15.82,15.2,15.52,9460494
2019-03-06,15.72,15.98,15.5,15.66,5766661
2019-03-07,15.58,15.62,15.2,15.34,5216520
2019-03-08,15.2,15.34,14.8,14.82,9196075
2019-03-11,14.96,15.24,14.78,15.1,6583434
2019-03-12,15.22,15.72,15.14,15.64,8684638
2019-03-13,15.9,16.04,15.58,16.0,11780372
2019-03-14,16.16,16.28,15.8,16.12,9823587
2019-03-15,16.0,16.6,15.94,16.56,14222337
2019-03-18,16.56,17.34,16.28,17.32,12801400
2019-03-19,17.24,17.26,16.74,16.92,12179395
2019-03-20,16.9,17.06,16.3,16.92,15709971
2019-03-21,16.8,17.48,16.8,17.1,12370864
2019-03-22,17.2,17.4,17.0,17.14,4815309
2019-03-25,16.64,16.94,16.54,16.82,7487193
2019-03-26,16.9,17.16,16.64,16.84,3841957
2019-03-27,16.74,17.26,16.74,17.16,13558904
2019-03-28,16.98,17.38,16.66,16.72,9357434
2019-03-29,16.88,17.16,16.42,16.98,18020562
2019-04-01,17.16,17.64,17.1,17.52,13384501
2019-04-02,17.5,17.7,17.22,17.46,5583109
2019-04-03,17.52,17.66,17.4,17.54,6151348
2019-04-04,17.64,17.64,17.18,17.24,8599200
2019-04-08,17.54,17.66,17.34,17.38,7300772
2019-04-09,17.4,17.76,17.32,17.6,10593800
2019-04-10,17.6,17.6,17.08,17.08,10308905
2019-04-11,17.06,17.38,16.92,17.08,4036989
2019-04-12,16.84,17.24,16.84,17.1,2964229
2019-04-15,17.1,17.56,17.08,17.16,5697882
2019-04-16,17.06,17.26,16.74,17.02,5775810
2019-04-17,17.12,17.12,16.64,16.78,4877443
2019-04-18,16.62,16.78,16.42,16.54,6582752
2019-04-23,16.32,16.32,15.66,15.92,14727827
2019-04-24,15.96,16.26,15.94,16.08,6606160
2019-04-25,16.1,16.22,15.72,15.82,5327593
2019-04-26,15.88,15.94,15.72,15.78,3175521
2019-04-29,15.9,15.96,15.68,15.82,5575590
2019-04-30,15.78,15.82,15.5,15.58,6348505
2019-05-02,15.48,15.86,15.28,15.5,3597376
2019-05-03,15.5,15.5,15.26,15.42,3880520
2019-05-06,15.22,15.22,14.5,15.0,12452292
2019-05-07,14.92,15.28,14.82,15.18,8752501
2019-05-08,14.8,15.02,14.66,14.8,7189133
2019-05-09,14.84,14.84,14.36,14.44,7742299
2019-05-10,14.56,14.98,14.42,14.88,7573450
2019-05-14,14.7,14.7,14.3,14.44,8938436
2019-05-15,14.44,14.66,14.3,14.44,4897770
2019-05-16,14.66,14.86,14.4,14.74,5857706
2019-05-17,14.78,14.84,14.24,14.36,7519600
2019-05-20,14.38,14.38,13.92,14.0,10260811
2019-05-21,13.98,14.14,13.82,14.08,6615860
2019-05-22,14.1,14.44,14.0,14.26,8345476
2019-05-23,14.14,14.4,14.02,14.06,7916365
2019-05-24,14.16,14.28,13.96,14.2,4242782
2019-05-27,14.2,14.22,13.92,14.12,3766481
2019-05-28,14.22,14.58,14.2,14.44,9617559
2019-05-29,14.4,14.66,14.36,14.52,6468294
2019-05-30,14.5,14.76,14.4,14.74,4696297
2019-05-31,14.7,15.14,14.66,14.84,14568561
2019-06-03,13.82,13.98,13.58,13.9,9430632
2019-06-04,13.82,13.9,13.6,13.72,5683035
2019-06-05,13.9,14.06,13.82,13.94,4025901
2019-06-06,13.94,14.06,13.74,13.96,2760801
2019-06-10,14.02,14.58,14.02,14.3,7001666
2019-06-11,14.3,14.4,14.22,14.36,3469777
2019-06-12,14.16,14.26,13.96,14.0,2580043
2019-06-13,14.12,14.22,13.78,14.2,5251292
2019-06-14,13.98,14.36,13.98,14.28,4987632
2019-06-17,14.16,14.3,13.98,13.98,3216096
2019-06-18,14.2,14.2,13.8,14.04,2917344
2019-06-19,14.3,14.5,14.1,14.12,4678717
2019-06-20,14.18,14.74,14.16,14.6,8298471
2019-06-21,14.62,14.68,14.48,14.58,4726905
2019-06-24,14.52,14.96,14.46,14.72,4644983
2019-06-25,14.72,14.92,14.5,14.74,2827777
2019-06-26,14.62,14.88,14.6,14.88,2399547
2019-06-27,14.86,15.08,14.86,14.98,3442445
2019-06-28,15.02,15.08,14.88,15.02,4180184
2019-07-02,15.3,15.52,15.06,15.42,7356758
2019-07-03,15.42,15.98,15.4,15.82,9739987
2019-07-04,15.82,16.48,15.82,16.32,11211400
2019-07-05,16.48,16.48,16.04,16.12,4575536
2019-07-08,15.96,16.1,15.6,15.66,8819767
2019-07-09,15.66,15.8,15.3,15.4,5865368
2019-07-10,15.44,15.5,15.24,15.32,4401325
2019-07-11,15.38,15.58,14.78,14.92,18640676
2019-07-12,14.96,15.14,14.38,14.6,15822800
2019-07-15,14.56,14.76,14.44,14.62,5386133
2019-07-16,14.64,14.82,14.52,14.68,6929932
2019-07-17,14.78,15.0,14.64,14.98,5510227
2019-07-18,14.98,15.06,14.7,14.82,6503878
2019-07-19,14.94,15.0,14.72,14.76,5015764
2019-07-22,14.74,14.9,14.5,14.66,3083383
2019-07-23,14.72,14.72,14.2,14.52,7813388
2019-07-24,14.54,14.76,14.4,14.56,7203400
2019-07-25,14.62,14.62,14.48,14.58,5152262
2019-07-26,14.48,14.66,14.36,14.44,4308216
2019-07-29,14.48,14.48,14.22,14.36,4146495
2019-07-30,14.4,14.5,14.28,14.3,2458824
2019-07-31,14.26,14.32,14.02,14.3,3208434
2019-08-01,14.28,14.3,13.5,13.64,16784914
2019-08-02,13.56,13.56,13.12,13.38,13229052
2019-08-05,13.22,13.22,12.58,12.7,10990198
2019-08-06,12.4,12.64,12.0,12.6,10451578
2019-08-07,12.6,12.94,12.4,12.54,6913736
2019-08-08,12.58,13.02,12.44,12.86,8736400
2019-08-09,12.94,13.02,12.66,12.7,2888997
2019-08-12,12.72,13.04,12.66,12.7,4154800
2019-08-13,12.48,12.7,12.36,12.46,6771339
2019-08-14,12.7,12.78,12.5,12.52,4290819
2019-08-15,12.36,12.82,12.36,12.72,4566521
2019-08-16,12.88,12.88,12.5,12.7,3592260
2019-08-19,12.92,13.46,12.9,13.22,9158566
2019-08-20,13.46,13.46,13.02,13.1,4387505
2019-08-21,13.12,13.36,13.06,13.3,4529414
2019-08-22,13.38,13.46,12.62,13.12,7592188
2019-08-23,13.1,13.1,12.74,12.94,5068356
2019-08-26,12.32,12.78,12.2,12.58,9545015
2019-08-27,12.66,13.1,12.5,12.76,8874459
2019-08-28,12.78,13.06,12.74,12.82,4805600
2019-08-29,12.98,12.98,12.42,12.64,7655200
2019-08-30,12.72,12.86,12.54,12.62,4486614
2019-09-02,12.64,12.64,12.42,12.58,4852247
2019-09-03,12.58,12.76,12.44,12.46,2799640
2019-09-04,12.5,12.96,12.44,12.92,7079476
2019-09-05,12.82,13.18,12.62,12.9,6016342
2019-09-06,13.02,13.1,12.86,12.92,5502169
2019-09-09,13.08,13.12,12.7,12.76,7034493
2019-09-10,12.8,12.88,12.7,12.84,4809433
2019-09-11,12.84,13.2,12.76,13.14,10805558
2019-09-12,12.8,13.18,12.8,12.84,8897074
2019-09-13,12.84,13.1,12.7,13.06,4648334
2019-09-16,13.0,13.08,12.86,13.0,4386573
2019-09-17,12.98,12.98,12.56,12.66,5120391
2019-09-18,12.76,12.76,12.62,12.62,3395720
2019-09-19,12.6,12.64,12.28,12.38,4687371
2019-09-20,12.38,12.44,12.22,12.28,6499212
2019-09-23,12.3,12.32,12.0,12.12,5323403
2019-09-24,12.12,12.12,11.74,11.84,4804880
2019-09-25,11.78,11.82,11.6,11.7,5228400
2019-09-26,11.76,11.92,11.66,11.82,3280762
2019-09-27,11.9,11.9,11.62,11.82,3997858
2019-09-30,11.86,12.06,11.6,11.86,2669315
2019-10-02,11.8,11.98,11.72,11.84,3585081
2019-10-03,11.9,12.02,11.74,11.96,3442190
2019-10-04,12.06,12.3,11.98,12.16,5425857
2019-10-08,12.2,12.28,12.02,12.12,2830766
2019-10-09,12.0,12.22,11.94,12.02,4806848
2019-10-10,12.04,12.12,11.94,12.02,3191901
2019-10-11,12.1,12.42,12.08,12.3,6362858
2019-10-14,12.4,12.46,12.24,12.42,6612400
2019-10-15,12.48,12.48,12.22,12.32,2811896
2019-10-16,12.38,12.6,12.32,12.52,7723661
2019-10-17,12.6,12.7,12.44,12.52,4660042
2019-10-18,12.48,12.7,12.42,12.5,4575794
2019-10-21,12.62,12.62,12.34,12.5,3874400
2019-10-22,12.54,12.54,12.04,12.26,5246311
2019-10-23,12.16,12.26,12.04,12.08,3569770
2019-10-24,12.2,12.26,12.1,12.22,3932986
2019-10-25,12.16,12.26,12.12,12.12,3369942
2019-10-28,12.16,12.26,12.06,12.12,3718116
2019-10-29,12.12,12.28,12.06,12.26,6315832
2019-10-30,12.28,12.28,12.1,12.18,2911278
2019-10-31,12.24,12.26,11.96,12.18,5736300
2019-11-01,12.18,12.66,12.04,12.66,10422414
2019-11-04,12.7,13.06,12.7,12.74,6583856
2019-11-05,12.8,13.46,12.74,13.36,14429347
2019-11-06,13.18,13.48,13.18,13.44,8760790
2019-11-07,13.34,13.42,13.16,13.26,7916682
2019-11-08,13.42,13.48,13.26,13.36,5140844
2019-11-11,13.32,13.32,12.7,12.84,7919082
2019-11-12,13.0,13.0,12.7,12.86,2874142
2019-11-13,12.74,12.78,12.42,12.54,4933683
2019-11-14,12.54,12.54,12.3,12.32,2776143
2019-11-15,12.46,12.48,12.2,12.22,2332268
2019-11-18,12.4,12.76,12.3,12.7,8573370
2019-11-19,12.8,13.04,12.7,13.02,7919113
2019-11-20,13.02,13.02,12.78,12.94,6216760
2019-11-21,12.9,12.9,12.52,12.84,4252291
2019-11-22,12.94,12.98,12.64,12.8,2639516
2019-11-25,12.98,13.96,12.98,13.82,19499800
2019-11-26,13.82,14.06,13.62,13.74,10842128
2019-11-27,13.74,13.84,13.48,13.48,4160134
2019-11-28,13.4,13.58,13.4,13.44,5745000
2019-11-29,13.44,13.5,13.08,13.16,6948884
2019-12-02,13.26,13.5,13.18,13.48,7315571
2019-12-03,13.32,13.4,13.12,13.24,4692288
2019-12-04,13.16,13.18,12.84,12.84,7219198
2019-12-05,13.04,13.12,12.52,12.56,14975873
2019-12-06,12.68,12.86,12.54,12.58,13592207
2019-12-09,12.92,14.02,12.86,13.34,37035316
2019-12-10,13.3,13.58,13.3,13.52,16420854
2019-12-11,13.7,14.1,13.54,14.04,24754148
2019-12-12,14.16,14.22,13.84,14.06,12296866
2019-12-13,14.22,14.34,14.06,14.2,7958153
2019-12-16,14.26,14.56,14.08,14.5,9782073
2019-12-17,14.56,14.66,14.2,14.62,11454835
2019-12-18,14.62,14.78,14.36,14.74,7657097
2019-12-20,14.8,14.8,14.12,14.6,70048560
2019-12-23,14.6,14.6,14.22,14.34,17417716
2019-12-24,14.34,14.36,14.14,14.16,6311377
2019-12-27,14.28,14.64,14.28,14.44,16233537
2019-12-30,14.38,14.68,14.2,14.28,18791266
2019-12-31,14.3,14.52,14.22,14.38,10501001
2020-01-02,14.52,15.34,14.38,15.18,31175038
2020-01-03,15.34,15.54,14.9,14.9,37331616
2020-01-06,14.88,14.9,14.42,14.54,19295304
2020-01-07,14.6,14.7,14.5,14.54,13530874
2020-01-08,14.32,14.42,14.22,14.38,11171041
2020-01-09,14.48,14.66,14.2,14.32,17878142
2020-01-10,14.32,14.36,14.02,14.14,12245127
2020-01-13,14.14,14.18,14.02,14.04,12551604
2020-01-14,14.1,14.2,14.02,14.08,8810866
2020-01-15,14.08,14.14,13.82,13.9,11090015
2020-01-16,13.98,14.28,13.8,14.22,17830944
2020-01-17,14.3,14.4,13.92,14.02,9554791
2020-01-20,14.12,14.12,13.62,13.68,15514049
2020-01-21,13.6,13.64,13.0,13.14,19717572
2020-01-22,13.26,13.36,12.86,13.24,12856599
2020-01-23,13.0,13.18,12.64,12.86,16770629
2020-01-24,12.76,12.9,12.62,12.86,5417500
2020-01-29,12.42,12.54,12.2,12.36,15325774
2020-01-30,12.4,12.44,11.74,11.92,20940042
2020-01-31,11.94,12.1,11.66,11.84,13627071
2020-02-03,11.6,11.92,11.44,11.84,8644402
2020-02-04,12.0,12.1,11.92,12.1,10931484
2020-02-05,12.38,12.38,11.92,11.98,10036292
2020-02-06,12.08,12.3,11.82,12.18,15282229
2020-02-07,12.1,12.16,11.94,12.06,13071948
2020-02-10,11.98,12.16,11.82,12.08,7453082
2020-02-11,12.18,12.52,12.12,12.48,9972285
2020-02-12,12.4,12.58,12.32,12.44,7657725
2020-02-13,12.5,12.84,12.5,12.76,13279245
2020-02-14,12.82,13.36,12.6,13.22,21039812
2020-02-17,13.22,13.36,13.08,13.14,8519130
2020-02-18,13.12,13.12,12.68,12.88,8311220
2020-02-19,12.92,13.06,12.8,12.96,6036697
2020-02-20,13.08,13.08,12.72,12.78,5265873
2020-02-21,12.7,12.78,12.5,12.6,4706609
2020-02-24,12.42,12.58,12.3,12.36,4527758
2020-02-25,12.32,12.48,12.24,12.36,4301862
2020-02-26,12.22,12.86,12.2,12.5,8484681
2020-02-27,12.48,12.66,12.32,12.46,4667854
2020-02-28,12.26,12.32,11.9,12.08,15569944
2020-03-02,11.9,12.5,11.9,12.36,12351857
2020-03-03,12.56,12.68,12.24,12.3,9814410
2020-03-04,12.3,12.6,12.1,12.38,12131937
2020-03-05,12.5,12.56,12.24,12.36,6602488
2020-03-06,12.28,12.3,12.1,12.2,6292073
2020-03-09,11.88,12.0,11.16,11.18,31891060
2020-03-10,11.1,11.38,10.88,11.16,14764985
2020-03-11,11.22,11.9,11.22,11.66,17335264
2020-03-12,11.6,11.6,11.16,11.4,14595424
2020-03-13,10.8,11.4,10.48,11.2,22449008
2020-03-16,11.0,11.3,10.72,10.78,16794088
2020-03-17,10.6,10.94,10.06,10.32,26300370
2020-03-18,10.4,10.62,9.36,9.51,24069680
2020-03-19,9.12,9.49,8.23,8.53,49183776
2020-03-20,8.7,9.22,8.7,9.07,33400474
2020-03-23,8.5,8.75,8.45,8.54,15132484
2020-03-24,8.78,9.15,8.67,9.07,18426908
2020-03-25,9.57,9.7,9.19,9.6,21630380
2020-03-26,9.6,10.34,9.44,10.1,33564356
2020-03-27,10.5,10.5,9.92,10.0,24981586
2020-03-30,9.7,10.02,9.63,9.84,15019813
2020-03-31,10.1,10.12,9.92,10.12,11054476
2020-04-01,9.97,10.44,9.97,10.08,10271687
2020-04-02,10.18,10.36,9.95,10.3,6415414
2020-04-03,10.2,10.24,10.1,10.22,4880886
2020-04-06,10.36,10.46,10.02,10.34,7596953
2020-04-07,10.5,10.58,10.28,10.5,9208237
2020-04-08,10.38,10.54,10.28,10.34,7293478
2020-04-09,10.46,10.6,10.34,10.56,8679464
2020-04-14,10.34,10.4,10.14,10.14,30495716
2020-04-15,10.2,10.26,9.95,9.96,23791096
2020-04-16,9.96,10.04,9.91,9.97,11112400
2020-04-17,10.12,10.2,9.98,10.08,12644582
2020-04-20,10.1,10.1,9.86,9.88,14173650
2020-04-21,9.8,9.88,9.43,9.61,12558300
2020-04-22,9.43,9.47,9.14,9.35,18170260
2020-04-23,9.36,9.47,9.25,9.34,11311101
2020-04-24,9.23,9.39,9.23,9.3,9734484
2020-04-27,9.39,9.64,9.39,9.47,14953700
2020-04-28,9.54,9.56,9.34,9.5,12547698
2020-04-29,9.54,9.8,9.53,9.78,18724216
2020-05-04,9.4,9.5,9.16,9.17,22966804
2020-05-05,9.23,9.4,9.23,9.34,5730830
2020-05-06,9.34,9.52,9.29,9.38,14169530
2020-05-07,9.4,9.49,9.34,9.45,5772474
2020-05-08,9.46,9.68,9.46,9.6,10324515
2020-05-11,9.63,9.9,9.63,9.75,10657299
2020-05-12,9.71,9.74,9.48,9.53,11886409
2020-05-13,9.52,9.55,9.4,9.5,6040668
2020-05-14,9.49,9.49,9.28,9.33,9568452
2020-05-15,9.44,9.44,9.28,9.34,6577969
2020-05-18,9.31,9.61,9.31,9.54,9017953
2020-05-19,9.68,9.84,9.68,9.68,7917532
2020-05-20,9.63,9.71,9.58,9.64,5451000
2020-05-21,9.69,9.75,9.56,9.61,8088353
2020-05-22,9.52,9.54,9.2,9.27,13359454
2020-05-25,9.27,9.38,8.93,9.37,8991525
2020-05-26,9.45,9.66,9.28,9.46,8901285
2020-05-27,9.46,9.59,9.34,9.45,5842395
2020-05-28,9.47,9.63,9.25,9.38,7706372
2020-05-29,9.38,9.59,9.32,9.57,12003641
2020-06-01,9.68,10.1,9.68,10.04,22499562
2020-06-02,9.18,9.26,8.8,9.01,19073826
2020-06-03,9.07,9.22,8.94,8.96,9161173
2020-06-04,9.1,9.1,8.78,8.89,15808738
2020-06-05,8.89,9.0,8.8,8.99,11181045
2020-06-08,9.07,9.15,8.9,8.95,10754400
2020-06-09,9.0,9.27,8.95,9.25,23197000
2020-06-10,9.25,9.28,9.03,9.14,8757041
2020-06-11,9.14,9.14,8.83,8.92,12251550
2020-06-12,8.68,9.04,8.6,8.95,16716290
2020-06-15,8.9,9.04,8.8,8.8,12249874
2020-06-16,8.95,9.14,8.95,9.0,7970046
2020-06-17,9.01,9.09,9.0,9.05,5387718
2020-06-18,8.98,9.19,8.98,9.15,11068986
2020-06-19,9.06,9.35,9.03,9.31,18006328
2020-06-22,9.22,9.29,9.09,9.26,9790217
2020-06-23,9.2,9.21,9.02,9.18,8883195
2020-06-24,9.2,9.28,9.1,9.18,8742383
2020-06-26,9.17,9.23,9.04,9.16,6676926
2020-06-29,9.12,9.12,9.02,9.07,8817720
2020-06-30,9.09,9.1,9.01,9.02,9997945
2020-07-02,9.12,9.45,9.12,9.43,21946096
2020-07-03,9.5,9.75,9.5,9.59,17482440
2020-07-06,9.63,10.18,9.63,10.06,28658690
2020-07-07,10.34,10.34,9.66,9.71,22255128
2020-07-08,9.72,9.76,9.52,9.67,12933362
2020-07-09,9.75,9.77,9.5,9.53,12888798
2020-07-10,9.55,9.55,9.16,9.29,16367715
2020-07-13,9.31,9.49,9.29,9.34,8359904
2020-07-14,9.35,9.44,9.18,9.21,7879140
2020-07-15,9.27,9.36,9.16,9.24,5658524
2020-07-16,9.31,9.36,9.01,9.04,11046143
2020-07-17,9.06,9.19,9.01,9.07,3852424
2020-07-20,9.14,9.44,9.07,9.27,8421244
2020-07-21,9.37,9.4,9.08,9.22,10093600
2020-07-22,9.25,9.32,9.13,9.17,8042275
2020-07-23,9.24,9.26,9.11,9.21,6393815
2020-07-24,9.17,9.33,8.95,9.1,10456493
2020-07-27,9.15,9.15,8.83,8.95,8339358
2020-07-28,8.99,9.03,8.86,8.86,5229600
2020-07-29,8.9,9.1,8.82,9.01,6173130
2020-07-30,9.1,9.1,8.9,8.96,5318038
2020-07-31,9.03,9.22,8.9,8.93,9744367
2020-08-03,9.0,9.13,8.98,9.11,7730951
2020-08-04,9.13,9.29,9.11,9.21,6260593
2020-08-05,9.18,9.3,9.12,9.29,6568652
2020-08-06,9.3,9.3,9.17,9.26,8137211
2020-08-07,9.3,9.38,9.2,9.32,8001575
2020-08-10,9.32,9.38,9.25,9.3,4767226
2020-08-11,9.3,9.54,9.3,9.47,8416213
2020-08-12,9.47,9.62,9.39,9.62,9610130
2020-08-13,9.68,9.84,9.65,9.84,17357824
2020-08-14,9.87,9.87,9.63,9.73,17798968
2020-08-17,9.77,9.84,9.6,9.61,10133894
2020-08-18,9.67,9.67,9.38,9.43,7742600
2020-08-19,9.43,9.56,9.39,9.46,3294150
2020-08-20,9.55,9.55,9.37,9.49,7386351
2020-08-21,9.49,9.65,9.38,9.55,8045790
2020-08-24,9.63,9.87,9.63,9.75,10091229
2020-08-25,9.89,10.18,9.77,10.04,19791076
