Date,High,Low,Open,Close,Volume
2020-08-07,57.15999984741211,55.52000045776367,55.91999816894531,56.65999984741211,481200
2020-08-25,56.18000030517578,55.70000076293945,55.72000122070313,55.97999954223633,46100
