Date,High,Low,Open,Close,Volume
2016-06-22,10.4399995803833,10.4399995803833,10.4399995803833,10.4399995803833,0.0
2016-06-23,10.567999839782717,10.567999839782717,10.567999839782717,10.567999839782717,0.0
2016-06-24,10.138999938964844,10.138999938964844,10.138999938964844,10.138999938964844,0.0
2016-06-27,9.939000129699707,9.939000129699707,9.939000129699707,9.939000129699707,0.0
2016-06-28,10.149999618530273,10.149999618530273,10.149999618530273,10.149999618530273,0.0
2016-06-29,10.324999809265137,10.324999809265137,10.324999809265137,10.324999809265137,0.0
2016-06-30,10.449999809265137,10.449999809265137,10.449999809265137,10.449999809265137,0.0
2016-07-04,10.498000144958496,10.498000144958496,10.498000144958496,10.498000144958496,0.0
2016-07-05,10.435999870300293,10.435999870300293,10.435999870300293,10.435999870300293,0.0
2016-07-06,10.515999794006348,10.515999794006348,10.515999794006348,10.515999794006348,0.0
2016-07-07,8.199999809265138,8.180000305175781,8.199999809265138,8.170000076293945,30200.0
2016-07-08,8.170000076293945,8.170000076293945,8.170000076293945,8.170000076293945,0.0
2016-07-11,8.340000152587889,8.340000152587889,8.340000152587889,8.340000152587889,3000.0
2016-07-12,8.380000114440918,8.359999656677246,8.380000114440918,8.380000114440918,353000.0
2016-07-13,8.409999847412111,8.380000114440918,8.399999618530272,8.390000343322754,10000.0
2016-07-14,8.449999809265138,8.380000114440918,8.380000114440918,8.470000267028809,105000.0
2016-07-15,8.399999618530272,8.369999885559082,8.390000343322754,8.399999618530272,8600.0
2016-07-18,8.460000038146973,8.460000038146973,8.460000038146973,8.460000038146973,0.0
2016-07-19,8.470000267028809,8.470000267028809,8.470000267028809,8.470000267028809,14500.0
2016-07-20,8.470000267028809,8.449999809265138,8.470000267028809,8.479999542236326,2000.0
2016-07-21,8.539999961853027,8.539999961853027,8.539999961853027,8.539999961853027,200.0
2016-07-22,8.539999961853027,8.520000457763674,8.539999961853027,8.529999732971191,1700.0
2016-07-25,8.529999732971191,8.529999732971191,8.529999732971191,8.529999732971191,0.0
2016-07-26,8.590000152587889,8.569999694824219,8.590000152587889,8.560000419616701,2700.0
2016-07-27,8.609999656677246,8.609999656677246,8.609999656677246,8.609999656677246,100.0
2016-07-28,8.640000343322754,8.579999923706055,8.600000381469728,8.609999656677246,34000.0
2016-07-29,8.659999847412111,8.649999618530272,8.659999847412111,8.659999847412111,20000.0
2016-08-01,8.699999809265138,8.699999809265138,8.699999809265138,8.699999809265138,3700.0
2016-08-02,8.699999809265138,8.699999809265138,8.699999809265138,8.699999809265138,0.0
2016-08-03,8.659999847412111,8.659999847412111,8.659999847412111,8.659999847412111,12400.0
2016-08-04,8.689999580383299,8.680000305175781,8.689999580383299,8.680000305175781,7000.0
2016-08-05,8.729999542236326,8.729999542236326,8.729999542236326,8.729999542236326,0.0
2016-08-08,8.8100004196167,8.800000190734863,8.800000190734863,8.8100004196167,2000.0
2016-08-09,8.789999961853027,8.789999961853027,8.789999961853027,8.789999961853027,0.0
2016-08-10,8.789999961853027,8.789999961853027,8.789999961853027,8.800000190734863,1000.0
2016-08-11,8.800000190734863,8.800000190734863,8.800000190734863,8.800000190734863,0.0
2016-08-12,8.850000381469727,8.819999694824219,8.829999923706055,8.819999694824219,43200.0
2016-08-15,8.850000381469727,8.829999923706055,8.850000381469727,8.84000015258789,1400.0
2016-08-16,8.859999656677246,8.859999656677246,8.859999656677246,8.859999656677246,100.0
2016-08-17,8.819999694824219,8.819999694824219,8.819999694824219,8.819999694824219,100.0
2016-08-18,8.859999656677246,8.829999923706055,8.859999656677246,8.829999923706055,8100.0
2016-08-19,8.850000381469727,8.819999694824219,8.84000015258789,8.819999694824219,34900.0
2016-08-22,8.819999694824219,8.819999694824219,8.819999694824219,8.819999694824219,0.0
2016-08-23,8.850000381469727,8.850000381469727,8.850000381469727,8.850000381469727,800.0
2016-08-24,8.850000381469727,8.850000381469727,8.850000381469727,8.850000381469727,0.0
2016-08-25,8.789999961853027,8.789999961853027,8.789999961853027,8.789999961853027,1000.0
2016-08-26,8.789999961853027,8.789999961853027,8.789999961853027,8.789999961853027,0.0
2016-08-29,8.789999961853027,8.789999961853027,8.789999961853027,8.789999961853027,0.0
2016-08-30,8.800000190734863,8.800000190734863,8.800000190734863,8.800000190734863,0.0
2016-08-31,8.789999961853027,8.789999961853027,8.789999961853027,8.789999961853027,0.0
2016-09-01,8.789999961853027,8.789999961853027,8.819999694824219,8.789999961853027,2200.0
2016-09-02,8.789999961853027,8.789999961853027,8.789999961853027,8.789999961853027,0.0
2016-09-05,8.829999923706055,8.829999923706055,8.829999923706055,8.829999923706055,2400.0
2016-09-06,8.819999694824219,8.800000190734863,8.8100004196167,8.800000190734863,2200.0
2016-09-07,8.869999885559082,8.869999885559082,8.869999885559082,8.869999885559082,0.0
2016-09-08,8.899999618530273,8.859999656677246,8.899999618530273,8.880000114440918,4000.0
2016-09-09,8.880000114440918,8.819999694824219,8.880000114440918,8.8100004196167,18200.0
2016-09-12,8.539999961853027,8.529999732971191,8.539999961853027,8.529999732971191,36700.0
2016-09-13,8.75,8.689999580383299,8.75,8.699999809265138,16800.0
2016-09-14,8.699999809265138,8.699999809265138,8.699999809265138,8.699999809265138,0.0
2016-09-15,8.699999809265138,8.699999809265138,8.699999809265138,8.699999809265138,0.0
2016-09-19,8.880000114440918,8.880000114440918,8.880000114440918,8.880000114440918,0.0
2016-09-20,8.84000015258789,8.84000015258789,8.84000015258789,8.84000015258789,0.0
2016-09-21,8.819999694824219,8.8100004196167,8.8100004196167,8.850000381469727,5100.0
2016-09-22,8.850000381469727,8.850000381469727,8.850000381469727,8.90999984741211,200.0
2016-09-23,8.960000038146973,8.960000038146973,8.960000038146973,8.960000038146973,0.0
2016-09-26,8.90999984741211,8.90999984741211,8.90999984741211,8.880000114440918,400.0
2016-09-27,8.90999984741211,8.890000343322754,8.90999984741211,8.890000343322754,900.0
2016-09-28,8.920000076293945,8.920000076293945,8.920000076293945,8.930000305175781,40000.0
2016-09-29,8.949999809265137,8.949999809265137,8.949999809265137,8.949999809265137,0.0
2016-09-30,8.880000114440918,8.880000114440918,8.880000114440918,8.880000114440918,1000.0
2016-10-03,8.930000305175781,8.899999618530273,8.899999618530273,8.920000076293945,33000.0
2016-10-04,9.010000228881836,8.970000267028809,8.970000267028809,8.970000267028809,38000.0
2016-10-05,8.9399995803833,8.930000305175781,8.9399995803833,8.930000305175781,13500.0
2016-10-06,8.960000038146973,8.960000038146973,8.960000038146973,8.960000038146973,0.0
2016-10-07,8.9399995803833,8.9399995803833,8.9399995803833,8.9399995803833,324200.0
2016-10-11,8.9399995803833,8.9399995803833,8.9399995803833,8.9399995803833,0.0
2016-10-12,8.880000114440918,8.859999656677246,8.869999885559082,8.859999656677246,14000.0
2016-10-13,8.800000190734863,8.800000190734863,8.800000190734863,8.800000190734863,0.0
2016-10-14,8.829999923706055,8.829999923706055,8.829999923706055,8.829999923706055,1200.0
2016-10-17,8.819999694824219,8.819999694824219,8.829999923706055,8.819999694824219,8600.0
2016-10-18,8.880000114440918,8.880000114440918,8.880000114440918,8.880000114440918,0.0
2016-10-19,8.880000114440918,8.880000114440918,8.880000114440918,8.869999885559082,200.0
2016-10-20,8.890000343322754,8.890000343322754,8.890000343322754,8.890000343322754,0.0
2016-10-21,8.890000343322754,8.890000343322754,8.890000343322754,8.890000343322754,0.0
2016-10-24,8.920000076293945,8.920000076293945,8.920000076293945,8.920000076293945,0.0
2016-10-25,9.039999961853027,8.899999618530273,8.979999542236328,9.029999732971193,51900.0
2016-10-26,8.949999809265137,8.949999809265137,8.949999809265137,8.949999809265137,0.0
2016-10-27,8.920000076293945,8.920000076293945,8.920000076293945,8.920000076293945,1700.0
2016-10-28,8.819999694824219,8.819999694824219,8.819999694824219,8.819999694824219,0.0
2016-10-31,8.869999885559082,8.819999694824219,8.819999694824219,8.869999885559082,3000.0
2016-11-01,8.859999656677246,8.859999656677246,8.859999656677246,8.850000381469727,3500.0
2016-11-02,8.729999542236326,8.729999542236326,8.729999542236326,8.729999542236326,0.0
2016-11-03,8.659999847412111,8.659999847412111,8.659999847412111,8.630000114440918,500.0
2016-11-04,8.659999847412111,8.659999847412111,8.600000381469728,8.619999885559082,12000.0
2016-11-07,8.689999580383299,8.689999580383299,8.689999580383299,8.689999580383299,0.0
2016-11-08,8.760000228881836,8.760000228881836,8.760000228881836,8.760000228881836,0.0
2016-11-09,8.739999771118164,8.369999885559082,8.739999771118164,8.560000419616701,60200.0
2016-11-10,8.899999618530273,8.850000381469727,8.859999656677246,8.899999618530273,22400.0
2016-11-11,8.779999732971191,8.640000343322754,8.779999732971191,8.689999580383299,203000.0
2016-11-14,8.770000457763674,8.770000457763674,8.770000457763674,8.770000457763674,55700.0
2016-11-15,8.720000267028809,8.619999885559082,8.720000267028809,8.649999618530272,49200.0
2016-11-16,8.800000190734863,8.770000457763674,8.770000457763674,8.779999732971191,149000.0
2016-11-17,8.819999694824219,8.800000190734863,8.800000190734863,8.8100004196167,12700.0
2016-11-18,8.869999885559082,8.869999885559082,8.869999885559082,8.869999885559082,0.0
2016-11-21,8.850000381469727,8.850000381469727,8.869999885559082,8.850000381469727,2600.0
2016-11-22,8.979999542236328,8.979999542236328,8.979999542236328,8.979999542236328,6500.0
2016-11-23,9.0,8.979999542236328,9.0,8.979999542236328,15000.0
2016-11-24,8.920000076293945,8.920000076293945,8.920000076293945,8.920000076293945,100.0
2016-11-25,8.9399995803833,8.930000305175781,8.930000305175781,8.9399995803833,3000.0
2016-11-28,8.9399995803833,8.9399995803833,8.9399995803833,8.9399995803833,0.0
2016-11-29,8.920000076293945,8.920000076293945,8.920000076293945,8.920000076293945,500.0
2016-11-30,8.949999809265137,8.949999809265137,8.949999809265137,8.949999809265137,0.0
2016-12-01,8.859999656677246,8.859999656677246,8.859999656677246,8.859999656677246,0.0
2016-12-02,8.699999809265138,8.699999809265138,8.699999809265138,8.699999809265138,0.0
2016-12-05,8.699999809265138,8.699999809265138,8.699999809265138,8.699999809265138,1100.0
2016-12-06,8.770000457763674,8.770000457763674,8.770000457763674,8.770000457763674,0.0
2016-12-07,8.800000190734863,8.800000190734863,8.800000190734863,8.800000190734863,0.0
2016-12-08,8.90999984741211,8.899999618530273,8.90999984741211,8.899999618530273,10000.0
2016-12-09,8.930000305175781,8.930000305175781,8.930000305175781,8.930000305175781,0.0
2016-12-12,8.960000038146973,8.960000038146973,8.960000038146973,8.960000038146973,700.0
2016-12-13,8.949999809265137,8.949999809265137,8.949999809265137,8.949999809265137,142200.0
2016-12-14,9.06999969482422,9.06999969482422,9.06999969482422,9.06999969482422,14000.0
2016-12-15,9.06999969482422,9.050000190734863,9.06999969482422,9.050000190734863,4900.0
2016-12-16,9.0600004196167,9.0600004196167,9.0600004196167,9.0600004196167,0.0
2016-12-19,9.0600004196167,9.0600004196167,9.0600004196167,9.0600004196167,0.0
2016-12-20,9.09000015258789,9.079999923706056,9.09000015258789,9.079999923706056,53900.0
2016-12-21,9.109999656677246,9.109999656677246,9.109999656677246,9.109999656677246,0.0
2016-12-22,9.149999618530273,9.119999885559082,9.109999656677246,9.109999656677246,24000.0
2016-12-23,9.100000381469727,9.100000381469727,9.100000381469727,9.100000381469727,1000.0
2016-12-28,9.100000381469727,9.100000381469727,9.100000381469727,9.100000381469727,0.0
2016-12-29,9.100000381469727,9.100000381469727,9.079999923706056,9.0600004196167,600.0
2016-12-30,9.079999923706056,9.0600004196167,9.079999923706056,9.0600004196167,3000.0
2017-01-03,9.0,9.0,9.0,9.0,100.0
2017-01-04,9.050000190734863,9.050000190734863,9.050000190734863,9.050000190734863,100.0
2017-01-05,9.109999656677246,9.06999969482422,9.06999969482422,9.06999969482422,19600.0
2017-01-06,9.149999618530273,9.130000114440918,9.130000114440918,9.149999618530273,3000.0
2017-01-09,9.300000190734863,9.25,9.260000228881836,9.25,111600.0
2017-01-10,9.239999771118164,9.239999771118164,9.359999656677246,9.239999771118164,2100.0
2017-01-11,9.270000457763672,9.270000457763672,9.270000457763672,9.270000457763672,2500.0
2017-01-12,9.270000457763672,9.270000457763672,9.270000457763672,9.270000457763672,0.0
2017-01-13,9.270000457763672,9.270000457763672,9.270000457763672,9.270000457763672,0.0
2017-01-16,9.279999732971193,9.279999732971193,9.279999732971193,9.279999732971193,0.0
2017-01-17,9.31999969482422,9.3100004196167,9.3100004196167,9.3100004196167,5000.0
2017-01-18,9.3100004196167,9.3100004196167,9.3100004196167,9.3100004196167,0.0
2017-01-19,9.3100004196167,9.3100004196167,9.3100004196167,9.3100004196167,0.0
2017-01-20,9.34000015258789,9.34000015258789,9.34000015258789,9.34000015258789,5000.0
2017-01-23,9.300000190734863,9.300000190734863,9.300000190734863,9.300000190734863,300.0
2017-01-24,9.3100004196167,9.3100004196167,9.3100004196167,9.3100004196167,0.0
2017-01-25,9.420000076293944,9.420000076293944,9.420000076293944,9.420000076293944,800.0
2017-01-26,9.539999961853027,9.520000457763672,9.520000457763672,9.529999732971193,4800.0
2017-01-27,9.5,9.5,9.5,9.5,0.0
2017-02-01,9.529999732971193,9.5,9.5,9.520000457763672,19000.0
2017-02-02,9.5,9.420000076293944,9.5,9.4399995803833,31700.0
2017-02-03,9.4399995803833,9.4399995803833,9.4399995803833,9.4399995803833,0.0
2017-02-06,9.510000228881836,9.489999771118164,9.489999771118164,9.510000228881836,22300.0
2017-02-07,9.520000457763672,9.489999771118164,9.520000457763672,9.489999771118164,246000.0
2017-02-08,9.529999732971193,9.529999732971193,9.529999732971193,9.539999961853027,700.0
2017-02-09,9.550000190734863,9.550000190734863,9.550000190734863,9.550000190734863,0.0
2017-02-10,9.640000343322754,9.640000343322754,9.640000343322754,9.640000343322754,9700.0
2017-02-13,9.640000343322754,9.640000343322754,9.640000343322754,9.640000343322754,1900.0
2017-02-14,10.0,9.670000076293944,10.0,9.670000076293944,6000.0
2017-02-15,9.739999771118164,9.699999809265137,9.729999542236328,9.739999771118164,12800.0
2017-02-16,9.789999961853027,9.789999961853027,9.789999961853027,9.789999961853027,1700.0
2017-02-17,9.800000190734863,9.770000457763672,9.800000190734863,9.770000457763672,1100.0
2017-02-20,9.81999969482422,9.81999969482422,9.81999969482422,9.81999969482422,0.0
2017-02-21,9.8100004196167,9.8100004196167,9.8100004196167,9.8100004196167,3200.0
2017-02-22,9.84000015258789,9.84000015258789,9.84000015258789,9.84000015258789,300.0
2017-02-23,9.84000015258789,9.84000015258789,9.84000015258789,9.84000015258789,0.0
2017-02-24,9.8100004196167,9.789999961853027,9.84000015258789,9.800000190734863,12800.0
2017-02-27,9.829999923706056,9.829999923706056,9.829999923706056,9.829999923706056,0.0
2017-02-28,9.859999656677246,9.859999656677246,9.859999656677246,9.859999656677246,20000.0
2017-03-01,9.850000381469727,9.81999969482422,9.850000381469727,9.850000381469727,7500.0
2017-03-02,9.920000076293944,9.920000076293944,9.920000076293944,9.920000076293944,300.0
2017-03-03,9.869999885559082,9.869999885559082,9.869999885559082,9.869999885559082,100.0
2017-03-06,9.890000343322754,9.890000343322754,9.890000343322754,9.880000114440918,100.0
2017-03-07,9.880000114440918,9.880000114440918,9.880000114440918,9.880000114440918,0.0
2017-03-08,9.859999656677246,9.859999656677246,9.859999656677246,9.859999656677246,0.0
2017-03-09,9.869999885559082,9.869999885559082,9.869999885559082,9.869999885559082,0.0
2017-03-10,9.920000076293944,9.920000076293944,9.920000076293944,9.920000076293944,4100.0
2017-03-13,9.90999984741211,9.90999984741211,9.90999984741211,9.90999984741211,3000.0
2017-03-14,9.960000038146973,9.93000030517578,9.93000030517578,9.960000038146973,20000.0
2017-03-15,9.949999809265137,9.949999809265137,9.949999809265137,9.949999809265137,6000.0
2017-03-16,10.020000457763672,9.609999656677246,9.609999656677246,10.020000457763672,9200.0
2017-03-17,9.979999542236328,9.979999542236328,9.979999542236328,9.979999542236328,0.0
2017-03-20,9.960000038146973,9.9399995803833,9.949999809265137,9.960000038146973,6800.0
2017-03-21,10.039999961853027,9.979999542236328,9.979999542236328,10.039999961853027,16400.0
2017-03-22,9.850000381469727,9.81999969482422,9.850000381469727,9.81999969482422,12600.0
2017-03-23,9.899999618530273,9.899999618530273,9.899999618530273,9.899999618530273,3000.0
2017-03-24,9.899999618530273,9.899999618530273,9.899999618530273,9.899999618530273,0.0
2017-03-27,9.869999885559082,9.859999656677246,9.869999885559082,9.850000381469727,600.0
2017-03-28,9.949999809265137,9.9399995803833,9.9399995803833,9.949999809265137,1500.0
2017-03-29,9.970000267028807,9.970000267028807,9.970000267028807,9.970000267028807,0.0
2017-03-30,10.020000457763672,10.020000457763672,10.020000457763672,10.020000457763672,0.0
2017-03-31,10.039999961853027,10.039999961853027,10.039999961853027,10.039999961853027,100.0
2017-04-03,10.0600004196167,10.039999961853027,10.039999961853027,10.0600004196167,2900.0
2017-04-05,10.100000381469727,10.0600004196167,10.0600004196167,10.0600004196167,12600.0
2017-04-06,10.0600004196167,9.970000267028807,10.0600004196167,9.970000267028807,18100.0
2017-04-07,9.970000267028807,9.970000267028807,9.970000267028807,9.979999542236328,5500.0
2017-04-10,10.0,10.0,10.0,10.0,0.0
2017-04-11,10.039999961853027,10.0,10.0,10.020000457763672,16000.0
2017-04-12,10.0,9.960000038146973,10.0,9.970000267028807,6300.0
2017-04-13,9.93000030517578,9.93000030517578,9.93000030517578,9.93000030517578,0.0
2017-04-18,9.949999809265137,9.899999618530273,9.899999618530273,9.9399995803833,15000.0
2017-04-19,9.949999809265137,9.949999809265137,9.949999809265137,9.949999809265137,0.0
2017-04-20,9.979999542236328,9.979999542236328,9.979999542236328,9.979999542236328,2100.0
2017-04-21,10.119999885559082,10.0600004196167,10.119999885559082,10.0600004196167,12000.0
2017-04-24,10.100000381469727,10.079999923706056,10.079999923706056,10.119999885559082,9000.0
2017-04-25,10.239999771118164,10.15999984741211,10.239999771118164,10.220000267028807,13600.0
2017-04-26,10.31999969482422,10.300000190734863,10.300000190734863,10.31999969482422,23300.0
2017-04-27,10.239999771118164,10.220000267028807,10.220000267028807,10.239999771118164,6700.0
2017-04-28,10.380000114440918,10.34000015258789,10.380000114440918,10.34000015258789,8300.0
2017-05-02,10.4399995803833,10.399999618530273,10.399999618530273,10.4399995803833,6000.0
2017-05-04,10.460000038146973,10.359999656677246,10.460000038146973,10.4399995803833,34400.0
2017-05-05,10.460000038146973,10.420000076293944,10.4399995803833,10.420000076293944,9900.0
2017-05-08,10.5,10.5,10.5,10.5,3000.0
2017-05-09,10.479999542236328,10.460000038146973,10.479999542236328,10.460000038146973,6000.0
2017-05-10,10.5600004196167,10.520000457763672,10.539999961853027,10.520000457763672,34500.0
2017-05-11,10.539999961853027,10.520000457763672,10.539999961853027,10.520000457763672,40600.0
2017-05-12,10.5,10.5,10.5,10.5,12000.0
2017-05-15,10.579999923706056,10.520000457763672,10.520000457763672,10.579999923706056,36200.0
2017-05-16,10.600000381469727,10.579999923706056,10.600000381469727,10.579999923706056,11800.0
2017-05-17,10.600000381469727,10.579999923706056,10.579999923706056,10.579999923706056,15600.0
2017-05-18,10.5,10.119999885559082,10.5,10.380000114440918,179000.0
2017-05-19,10.640000343322754,10.420000076293944,10.640000343322754,10.4399995803833,39400.0
2017-05-22,10.520000457763672,10.5,10.5,10.5,17800.0
2017-05-23,10.579999923706056,10.5600004196167,10.5600004196167,10.5600004196167,13900.0
2017-05-24,10.600000381469727,10.600000381469727,10.600000381469727,10.600000381469727,5100.0
2017-05-25,10.699999809265137,10.65999984741211,10.68000030517578,10.65999984741211,30200.0
2017-05-26,10.779999732971193,10.739999771118164,10.760000228881836,10.760000228881836,35600.0
2017-05-29,10.779999732971193,10.739999771118164,10.779999732971193,10.779999732971193,11100.0
2017-05-31,10.779999732971193,10.739999771118164,10.760000228881836,10.779999732971193,13200.0
2017-06-01,10.760000228881836,8.880000114440918,10.600000381469727,10.779999732971193,12000.0
2017-06-02,10.859999656677246,10.81999969482422,10.859999656677246,10.859999656677246,27400.0
2017-06-05,10.979999542236328,10.899999618530273,10.979999542236328,10.920000076293944,39100.0
2017-06-06,10.9399995803833,10.899999618530273,10.899999618530273,10.9399995803833,1300.0
2017-06-07,10.920000076293944,10.899999618530273,10.979999542236328,10.920000076293944,7400.0
2017-06-08,10.960000038146973,10.9399995803833,10.9399995803833,10.960000038146973,27100.0
2017-06-09,9.520000457763672,9.520000457763672,9.520000457763672,9.520000457763672,0.0
2017-06-12,9.0600004196167,9.050000190734863,9.050000190734863,9.229999542236328,6000.0
2017-06-13,9.239999771118164,9.239999771118164,9.239999771118164,9.239999771118164,0.0
2017-06-14,9.329999923706056,9.3100004196167,9.329999923706056,9.31999969482422,12000.0
2017-06-15,9.260000228881836,9.15999984741211,9.18000030517578,9.15999984741211,36000.0
2017-06-16,9.220000267028807,9.220000267028807,9.220000267028807,9.260000228881836,6000.0
2017-06-19,9.260000228881836,9.260000228881836,9.260000228881836,9.260000228881836,5000.0
2017-06-20,9.539999961853027,9.43000030517578,9.539999961853027,9.40999984741211,30000.0
2017-06-21,9.260000228881836,9.229999542236328,9.260000228881836,9.270000457763672,24000.0
2017-06-22,9.380000114440918,9.380000114440918,9.380000114440918,9.380000114440918,5000.0
2017-06-23,9.40999984741211,9.40999984741211,9.40999984741211,9.40999984741211,0.0
2017-06-26,9.470000267028807,9.470000267028807,9.470000267028807,9.470000267028807,5000.0
2017-06-27,9.369999885559082,9.369999885559082,9.369999885559082,9.369999885559082,0.0
2017-06-28,9.149999618530273,9.149999618530273,9.149999618530273,9.149999618530273,6000.0
2017-06-29,9.270000457763672,9.270000457763672,9.270000457763672,9.270000457763672,0.0
2017-06-30,9.09000015258789,9.09000015258789,9.09000015258789,9.09000015258789,6000.0
2017-07-03,9.140000343322754,9.140000343322754,9.140000343322754,9.140000343322754,0.0
2017-07-04,9.0600004196167,9.0600004196167,9.0600004196167,9.0600004196167,0.0
2017-07-05,9.039999961853027,9.039999961853027,9.039999961853027,9.039999961853027,0.0
2017-07-06,9.109999656677246,9.109999656677246,9.109999656677246,9.109999656677246,0.0
2017-07-07,9.06999969482422,9.06999969482422,9.06999969482422,9.06999969482422,0.0
2017-07-10,9.18000030517578,9.18000030517578,9.18000030517578,9.18000030517578,0.0
2017-07-11,9.199999809265137,9.199999809265137,9.199999809265137,9.199999809265137,0.0
2017-07-12,9.229999542236328,9.229999542236328,9.229999542236328,9.229999542236328,0.0
2017-07-13,9.34000015258789,9.34000015258789,9.34000015258789,9.34000015258789,0.0
2017-07-14,9.34000015258789,9.34000015258789,9.34000015258789,9.34000015258789,0.0
2017-07-17,9.40999984741211,9.40999984741211,9.40999984741211,9.40999984741211,0.0
2017-07-18,9.40999984741211,9.40999984741211,9.40999984741211,9.40999984741211,0.0
2017-07-19,9.460000038146973,9.460000038146973,9.460000038146973,9.460000038146973,0.0
2017-07-20,9.510000228881836,9.510000228881836,9.510000228881836,9.510000228881836,0.0
2017-07-21,9.510000228881836,9.510000228881836,9.510000228881836,9.510000228881836,0.0
2017-07-24,9.489999771118164,9.489999771118164,9.489999771118164,9.489999771118164,0.0
2017-07-25,9.5,9.5,9.5,9.5,0.0
2017-07-26,9.510000228881836,9.510000228881836,9.510000228881836,9.510000228881836,0.0
2017-07-27,9.5600004196167,9.5600004196167,9.5600004196167,9.5600004196167,0.0
2017-07-28,9.420000076293944,9.420000076293944,9.420000076293944,9.420000076293944,0.0
2017-07-31,9.449999809265137,9.449999809265137,9.449999809265137,9.449999809265137,0.0
2017-08-01,9.449999809265137,9.449999809265137,9.449999809265137,9.449999809265137,0.0
2017-08-02,9.489999771118164,9.489999771118164,9.489999771118164,9.489999771118164,0.0
2017-08-03,9.460000038146973,9.460000038146973,9.460000038146973,9.460000038146973,0.0
2017-08-04,9.4399995803833,9.4399995803833,9.4399995803833,9.4399995803833,0.0
2017-08-07,9.449999809265137,9.449999809265137,9.449999809265137,9.449999809265137,0.0
2017-08-08,9.460000038146973,9.460000038146973,9.460000038146973,9.460000038146973,0.0
2017-08-09,9.399999618530273,9.399999618530273,9.399999618530273,9.399999618530273,0.0
2017-08-10,9.390000343322754,9.390000343322754,9.390000343322754,9.390000343322754,0.0
2017-08-11,9.1899995803833,9.1899995803833,9.1899995803833,9.1899995803833,0.0
2017-08-14,9.369999885559082,9.350000381469727,9.369999885559082,9.350000381469727,12000.0
2017-08-15,9.40999984741211,9.40999984741211,9.40999984741211,9.40999984741211,0.0
2017-08-16,9.43000030517578,9.43000030517578,9.43000030517578,9.43000030517578,0.0
2017-08-17,9.420000076293944,9.420000076293944,9.420000076293944,9.420000076293944,0.0
2017-08-18,9.25,9.25,9.25,9.25,0.0
2017-08-21,9.199999809265137,9.199999809265137,9.199999809265137,9.199999809265137,0.0
2017-08-22,9.199999809265137,9.199999809265137,9.199999809265137,9.199999809265137,0.0
2017-08-23,9.199999809265137,9.199999809265137,9.199999809265137,9.199999809265137,0.0
2017-08-24,9.270000457763672,9.270000457763672,9.270000457763672,9.270000457763672,18000.0
2017-08-25,9.270000457763672,9.270000457763672,9.270000457763672,9.270000457763672,0.0
2017-08-28,9.18000030517578,9.18000030517578,9.18000030517578,9.18000030517578,0.0
2017-08-29,9.109999656677246,9.109999656677246,9.109999656677246,9.109999656677246,0.0
2017-08-30,9.199999809265137,9.199999809265137,9.199999809265137,9.199999809265137,0.0
2017-08-31,9.300000190734863,9.300000190734863,9.300000190734863,9.300000190734863,0.0
2017-09-01,9.369999885559082,9.369999885559082,9.369999885559082,9.369999885559082,0.0
2017-09-04,9.279999732971193,9.279999732971193,9.279999732971193,9.279999732971193,0.0
2017-09-05,9.3100004196167,9.3100004196167,9.3100004196167,9.3100004196167,0.0
2017-09-06,9.270000457763672,9.270000457763672,9.270000457763672,9.270000457763672,100.0
2017-09-07,9.220000267028807,9.220000267028807,9.220000267028807,9.220000267028807,0.0
2017-09-08,9.18000030517578,9.18000030517578,9.18000030517578,9.18000030517578,0.0
2017-09-11,9.229999542236328,9.229999542236328,9.229999542236328,9.229999542236328,0.0
2017-09-12,9.300000190734863,9.300000190734863,9.300000190734863,9.300000190734863,0.0
2017-09-13,9.300000190734863,9.300000190734863,9.300000190734863,9.300000190734863,0.0
2017-09-14,9.34000015258789,9.34000015258789,9.34000015258789,9.34000015258789,0.0
2017-09-15,9.300000190734863,9.300000190734863,9.300000190734863,9.300000190734863,0.0
2017-09-18,9.350000381469727,9.350000381469727,9.350000381469727,9.350000381469727,0.0
2017-09-19,9.350000381469727,9.350000381469727,9.350000381469727,9.350000381469727,0.0
2017-09-20,9.350000381469727,9.350000381469727,9.350000381469727,9.350000381469727,0.0
2017-09-21,9.350000381469727,9.350000381469727,9.350000381469727,9.350000381469727,0.0
2017-09-22,9.289999961853027,9.289999961853027,9.289999961853027,9.289999961853027,0.0
2017-09-25,9.289999961853027,9.289999961853027,9.289999961853027,9.289999961853027,0.0
2017-09-26,9.270000457763672,9.270000457763672,9.270000457763672,9.270000457763672,0.0
2017-09-27,9.31999969482422,9.31999969482422,9.31999969482422,9.31999969482422,5000.0
2017-09-28,9.43000030517578,9.399999618530273,9.399999618530273,9.420000076293944,15000.0
2017-09-29,9.40999984741211,9.40999984741211,9.40999984741211,9.40999984741211,0.0
2017-10-03,9.479999542236328,9.479999542236328,9.479999542236328,9.479999542236328,0.0
2017-10-04,9.5,9.489999771118164,9.489999771118164,9.5,9000.0
2017-10-06,9.59000015258789,9.59000015258789,9.59000015258789,9.59000015258789,6000.0
2017-10-09,9.68000030517578,9.609999656677246,9.619999885559082,9.59000015258789,6800.0
2017-10-10,9.529999732971193,9.529999732971193,9.529999732971193,9.529999732971193,0.0
2017-10-11,9.5,9.5,9.5,9.5,0.0
2017-10-12,9.510000228881836,9.510000228881836,9.510000228881836,9.510000228881836,0.0
2017-10-13,9.510000228881836,9.510000228881836,9.510000228881836,9.510000228881836,0.0
2017-10-16,9.550000190734863,9.550000190734863,9.550000190734863,9.550000190734863,0.0
2017-10-17,9.609999656677246,9.609999656677246,9.609999656677246,9.609999656677246,0.0
2017-10-18,9.640000343322754,9.640000343322754,9.640000343322754,9.640000343322754,0.0
2017-10-19,9.5600004196167,9.5600004196167,9.5600004196167,9.5600004196167,3000.0
2017-10-20,9.609999656677246,9.609999656677246,9.609999656677246,9.609999656677246,0.0
2017-10-23,9.640000343322754,9.640000343322754,9.640000343322754,9.640000343322754,0.0
2017-10-24,9.609999656677246,9.609999656677246,9.609999656677246,9.609999656677246,0.0
2017-10-25,9.609999656677246,9.609999656677246,9.609999656677246,9.609999656677246,0.0
2017-10-26,9.59000015258789,9.59000015258789,9.59000015258789,9.59000015258789,0.0
2017-10-27,9.670000076293944,9.670000076293944,9.670000076293944,9.670000076293944,0.0
2017-10-30,9.829999923706056,9.829999923706056,9.829999923706056,9.829999923706056,0.0
2017-10-31,9.829999923706056,9.829999923706056,9.829999923706056,9.829999923706056,0.0
2017-11-01,9.869999885559082,9.869999885559082,9.869999885559082,9.869999885559082,0.0
2017-11-02,9.800000190734863,9.800000190734863,9.800000190734863,9.800000190734863,0.0
2017-11-03,9.850000381469727,9.850000381469727,9.850000381469727,9.850000381469727,0.0
2017-11-06,9.93000030517578,9.90999984741211,9.90999984741211,9.93000030517578,93000.0
2017-11-07,9.970000267028807,9.970000267028807,9.970000267028807,9.970000267028807,0.0
2017-11-08,10.300000190734863,10.300000190734863,10.300000190734863,9.989999771118164,100.0
2017-11-09,9.989999771118164,9.989999771118164,9.989999771118164,9.989999771118164,0.0
2017-11-10,9.989999771118164,9.989999771118164,9.989999771118164,9.989999771118164,0.0
2017-11-13,9.989999771118164,9.989999771118164,9.989999771118164,9.989999771118164,0.0
2017-11-14,9.989999771118164,9.989999771118164,9.989999771118164,9.989999771118164,0.0
2017-11-15,9.920000076293944,9.920000076293944,9.920000076293944,9.920000076293944,0.0
2017-11-16,9.920000076293944,9.920000076293944,9.920000076293944,9.920000076293944,100.0
2017-11-17,10.0,10.0,10.0,10.0,0.0
2017-11-20,9.989999771118164,9.989999771118164,9.989999771118164,9.989999771118164,0.0
2017-11-21,9.989999771118164,9.989999771118164,9.989999771118164,9.989999771118164,0.0
2017-11-22,10.020000457763672,10.020000457763672,10.020000457763672,10.020000457763672,0.0
2017-11-23,10.020000457763672,10.020000457763672,10.020000457763672,10.020000457763672,0.0
2017-11-24,10.020000457763672,10.020000457763672,10.020000457763672,10.020000457763672,0.0
2017-11-27,10.039999961853027,10.039999961853027,10.039999961853027,10.039999961853027,0.0
2017-11-28,10.039999961853027,10.039999961853027,10.039999961853027,10.039999961853027,0.0
2017-11-29,10.0600004196167,10.0600004196167,10.0600004196167,10.0600004196167,0.0
2017-11-30,10.0600004196167,10.0600004196167,10.0600004196167,10.0600004196167,0.0
2017-12-01,10.0600004196167,10.0600004196167,10.0600004196167,10.0600004196167,0.0
2017-12-04,10.079999923706056,10.079999923706056,10.079999923706056,10.079999923706056,400.0
2017-12-05,9.90999984741211,9.899999618530273,9.899999618530273,9.880000114440918,4500.0
2017-12-06,9.869999885559082,9.84000015258789,9.859999656677246,9.84000015258789,12000.0
2017-12-07,9.9399995803833,9.9399995803833,9.9399995803833,9.9399995803833,0.0
2017-12-08,9.9399995803833,9.9399995803833,9.9399995803833,9.9399995803833,0.0
2017-12-11,9.9399995803833,9.9399995803833,9.9399995803833,9.9399995803833,0.0
2017-12-12,9.9399995803833,9.9399995803833,9.9399995803833,9.9399995803833,0.0
2017-12-13,9.9399995803833,9.9399995803833,9.9399995803833,9.9399995803833,0.0
2017-12-14,9.9399995803833,9.9399995803833,9.9399995803833,9.9399995803833,0.0
2017-12-15,9.9399995803833,9.9399995803833,9.9399995803833,9.9399995803833,0.0
2017-12-18,9.9399995803833,9.9399995803833,9.9399995803833,9.9399995803833,0.0
2017-12-19,9.9399995803833,9.9399995803833,9.9399995803833,9.9399995803833,0.0
2017-12-20,10.199999809265137,10.199999809265137,10.199999809265137,10.199999809265137,0.0
2017-12-21,10.199999809265137,10.199999809265137,10.199999809265137,10.199999809265137,0.0
2017-12-22,10.199999809265137,10.199999809265137,10.199999809265137,10.199999809265137,0.0
2017-12-27,10.199999809265137,10.199999809265137,10.199999809265137,10.199999809265137,0.0
2017-12-28,10.199999809265137,10.199999809265137,10.199999809265137,10.199999809265137,0.0
2017-12-29,10.199999809265137,10.199999809265137,10.199999809265137,10.199999809265137,0.0
2018-01-02,10.199999809265137,10.199999809265137,10.199999809265137,10.199999809265137,0.0
2018-01-03,10.199999809265137,10.199999809265137,10.199999809265137,10.199999809265137,0.0
2018-01-04,10.199999809265137,10.199999809265137,10.199999809265137,10.199999809265137,0.0
2018-01-05,10.199999809265137,10.199999809265137,10.199999809265137,10.199999809265137,0.0
2018-01-08,10.199999809265137,10.199999809265137,10.199999809265137,10.199999809265137,0.0
2018-01-09,10.199999809265137,10.199999809265137,10.199999809265137,10.199999809265137,0.0
2018-01-10,10.199999809265137,10.199999809265137,10.199999809265137,10.199999809265137,0.0
2018-01-11,10.199999809265137,10.199999809265137,10.199999809265137,10.199999809265137,0.0
2018-01-12,10.199999809265137,10.199999809265137,10.199999809265137,10.199999809265137,0.0
2018-01-15,10.380000114440918,10.380000114440918,10.380000114440918,10.380000114440918,5000.0
2018-01-16,10.380000114440918,10.380000114440918,10.380000114440918,10.380000114440918,0.0
2018-01-17,10.380000114440918,10.380000114440918,10.380000114440918,10.380000114440918,0.0
2018-01-18,10.380000114440918,10.380000114440918,10.380000114440918,10.380000114440918,0.0
2018-01-19,10.380000114440918,10.380000114440918,10.380000114440918,10.380000114440918,0.0
2018-01-22,10.380000114440918,10.380000114440918,10.380000114440918,10.380000114440918,0.0
2018-01-23,10.380000114440918,10.380000114440918,10.380000114440918,10.380000114440918,0.0
2018-01-24,10.380000114440918,10.380000114440918,10.380000114440918,10.380000114440918,0.0
2018-01-25,10.380000114440918,10.380000114440918,10.380000114440918,10.380000114440918,0.0
2018-01-26,10.380000114440918,10.380000114440918,10.380000114440918,10.380000114440918,0.0
2018-01-29,10.380000114440918,10.380000114440918,10.380000114440918,10.380000114440918,0.0
2018-01-30,10.380000114440918,10.380000114440918,10.380000114440918,10.380000114440918,0.0
2018-01-31,10.380000114440918,10.380000114440918,10.380000114440918,10.380000114440918,0.0
2018-02-01,10.380000114440918,10.380000114440918,10.380000114440918,10.380000114440918,0.0
2018-02-02,10.380000114440918,10.380000114440918,10.380000114440918,10.380000114440918,0.0
2018-02-05,10.380000114440918,10.380000114440918,10.380000114440918,10.380000114440918,0.0
2018-02-06,9.630000114440918,9.630000114440918,9.630000114440918,9.630000114440918,0.0
2018-02-07,9.890000343322754,9.890000343322754,9.890000343322754,9.890000343322754,0.0
2018-02-08,9.90999984741211,9.90999984741211,9.90999984741211,9.90999984741211,0.0
2018-02-09,9.90999984741211,9.90999984741211,9.90999984741211,9.90999984741211,0.0
2018-02-12,9.90999984741211,9.90999984741211,9.90999984741211,9.90999984741211,0.0
2018-02-13,9.84000015258789,9.84000015258789,9.84000015258789,9.84000015258789,0.0
2018-02-14,9.84000015258789,9.84000015258789,9.84000015258789,9.84000015258789,0.0
2018-02-15,9.84000015258789,9.84000015258789,9.84000015258789,9.84000015258789,0.0
2018-02-20,9.84000015258789,9.84000015258789,9.84000015258789,9.84000015258789,0.0
2018-02-21,9.84000015258789,9.84000015258789,9.84000015258789,9.84000015258789,0.0
2018-02-22,9.84000015258789,9.84000015258789,9.84000015258789,9.84000015258789,0.0
2018-02-23,9.84000015258789,9.84000015258789,9.84000015258789,9.84000015258789,0.0
2018-02-26,9.84000015258789,9.84000015258789,9.84000015258789,9.84000015258789,0.0
2018-02-27,9.84000015258789,9.84000015258789,9.84000015258789,9.84000015258789,0.0
2018-02-28,9.84000015258789,9.84000015258789,9.84000015258789,9.84000015258789,0.0
2018-03-01,10.359999656677246,10.359999656677246,10.359999656677246,10.359999656677246,0.0
2018-03-02,10.239999771118164,10.239999771118164,10.239999771118164,10.239999771118164,4000.0
2018-03-05,10.239999771118164,10.239999771118164,10.239999771118164,10.239999771118164,0.0
2018-03-06,10.239999771118164,10.239999771118164,10.239999771118164,10.239999771118164,0.0
2018-03-07,10.239999771118164,10.239999771118164,10.239999771118164,10.239999771118164,0.0
2018-03-08,10.239999771118164,10.239999771118164,10.239999771118164,10.239999771118164,0.0
2018-03-09,10.239999771118164,10.239999771118164,10.239999771118164,10.239999771118164,0.0
2018-03-12,10.239999771118164,10.239999771118164,10.239999771118164,10.239999771118164,0.0
2018-03-13,10.239999771118164,10.239999771118164,10.239999771118164,10.239999771118164,0.0
2018-03-14,10.239999771118164,10.239999771118164,10.239999771118164,10.239999771118164,0.0
2018-03-15,10.239999771118164,10.239999771118164,10.239999771118164,10.239999771118164,0.0
2018-03-16,10.239999771118164,10.239999771118164,10.239999771118164,10.239999771118164,0.0
2018-03-19,10.239999771118164,10.239999771118164,10.239999771118164,10.239999771118164,0.0
2018-03-20,10.239999771118164,10.239999771118164,10.239999771118164,10.239999771118164,0.0
2018-03-21,10.239999771118164,10.239999771118164,10.239999771118164,10.239999771118164,0.0
2018-03-22,10.279999732971193,10.279999732971193,10.279999732971193,10.279999732971193,0.0
2018-03-23,10.020000457763672,10.020000457763672,10.020000457763672,10.020000457763672,0.0
2018-03-26,9.920000076293944,9.920000076293944,9.920000076293944,9.920000076293944,0.0
2018-03-27,9.920000076293944,9.920000076293944,9.920000076293944,9.920000076293944,0.0
2018-03-28,9.8100004196167,9.760000228881836,9.8100004196167,9.760000228881836,24000.0
2018-03-29,9.760000228881836,9.760000228881836,9.760000228881836,9.760000228881836,0.0
2018-04-03,9.760000228881836,9.760000228881836,9.760000228881836,9.760000228881836,0.0
2018-04-04,9.760000228881836,9.760000228881836,9.760000228881836,9.760000228881836,0.0
2018-04-06,9.8100004196167,9.8100004196167,9.8100004196167,9.8100004196167,0.0
2018-04-09,9.8100004196167,9.8100004196167,9.8100004196167,9.8100004196167,0.0
2018-04-10,9.8100004196167,9.8100004196167,9.8100004196167,9.8100004196167,0.0
2018-04-11,9.8100004196167,9.8100004196167,9.8100004196167,9.8100004196167,0.0
2018-04-12,9.8100004196167,9.8100004196167,9.8100004196167,9.8100004196167,0.0
2018-04-13,9.8100004196167,9.8100004196167,9.8100004196167,9.8100004196167,0.0
2018-04-16,9.8100004196167,9.8100004196167,9.8100004196167,9.8100004196167,0.0
2018-04-17,9.8100004196167,9.8100004196167,9.8100004196167,9.8100004196167,0.0
2018-04-18,9.8100004196167,9.8100004196167,9.8100004196167,9.8100004196167,0.0
2018-04-19,9.8100004196167,9.8100004196167,9.8100004196167,9.8100004196167,0.0
2018-04-20,9.8100004196167,9.8100004196167,9.8100004196167,9.8100004196167,0.0
2018-04-23,9.8100004196167,9.8100004196167,9.8100004196167,9.8100004196167,0.0
2018-04-24,9.8100004196167,9.8100004196167,9.8100004196167,9.8100004196167,0.0
2018-04-25,9.8100004196167,9.8100004196167,9.8100004196167,9.8100004196167,0.0
2018-04-26,9.8100004196167,9.8100004196167,9.8100004196167,9.8100004196167,0.0
2018-04-27,9.8100004196167,9.8100004196167,9.8100004196167,9.8100004196167,0.0
2018-04-30,9.8100004196167,9.8100004196167,9.8100004196167,9.8100004196167,0.0
2018-05-02,10.119999885559082,10.119999885559082,10.119999885559082,10.119999885559082,0.0
2018-05-03,10.119999885559082,10.119999885559082,10.119999885559082,10.119999885559082,0.0
2018-05-04,10.119999885559082,10.119999885559082,10.119999885559082,10.119999885559082,0.0
2018-05-07,10.119999885559082,10.119999885559082,10.119999885559082,10.119999885559082,0.0
2018-05-08,10.119999885559082,10.119999885559082,10.119999885559082,10.119999885559082,0.0
2018-05-09,10.119999885559082,10.119999885559082,10.119999885559082,10.119999885559082,0.0
2018-05-10,10.119999885559082,10.119999885559082,10.119999885559082,10.119999885559082,0.0
2018-05-11,10.119999885559082,10.119999885559082,10.119999885559082,10.119999885559082,0.0
2018-05-14,10.119999885559082,10.119999885559082,10.119999885559082,10.119999885559082,0.0
2018-05-15,10.119999885559082,10.119999885559082,10.119999885559082,10.119999885559082,0.0
2018-05-16,10.119999885559082,10.119999885559082,10.119999885559082,10.119999885559082,0.0
2018-05-17,10.119999885559082,10.119999885559082,10.119999885559082,10.119999885559082,0.0
2018-05-18,10.119999885559082,10.119999885559082,10.119999885559082,10.119999885559082,0.0
2018-05-21,10.119999885559082,10.119999885559082,10.119999885559082,10.119999885559082,0.0
2018-05-23,10.119999885559082,10.119999885559082,10.119999885559082,10.119999885559082,0.0
2018-05-24,10.600000381469727,10.539999961853027,10.539999961853027,10.600000381469727,9000.0
2018-05-25,10.600000381469727,10.600000381469727,10.600000381469727,10.600000381469727,0.0
2018-05-28,10.600000381469727,10.600000381469727,10.600000381469727,10.600000381469727,0.0
2018-05-29,10.600000381469727,10.600000381469727,10.600000381469727,10.600000381469727,0.0
2018-05-30,10.600000381469727,10.600000381469727,10.600000381469727,10.600000381469727,0.0
2018-05-31,10.600000381469727,10.600000381469727,10.600000381469727,10.600000381469727,0.0
2018-06-01,10.600000381469727,10.600000381469727,10.600000381469727,10.600000381469727,0.0
2018-06-04,10.600000381469727,10.600000381469727,10.600000381469727,10.600000381469727,0.0
2018-06-05,10.600000381469727,10.600000381469727,10.600000381469727,10.600000381469727,0.0
2018-06-06,10.600000381469727,10.600000381469727,10.600000381469727,10.600000381469727,0.0
2018-06-07,10.600000381469727,10.600000381469727,10.600000381469727,10.600000381469727,0.0
2018-06-08,10.979999542236328,10.960000038146973,10.960000038146973,10.960000038146973,16200.0
2018-06-11,10.960000038146973,10.960000038146973,10.960000038146973,10.960000038146973,0.0
2018-06-12,10.960000038146973,10.960000038146973,10.960000038146973,10.960000038146973,0.0
2018-06-13,10.960000038146973,10.960000038146973,10.960000038146973,10.960000038146973,0.0
2018-06-14,10.960000038146973,10.960000038146973,10.960000038146973,10.960000038146973,0.0
2018-06-15,10.960000038146973,10.960000038146973,10.960000038146973,10.960000038146973,0.0
2018-06-19,10.960000038146973,10.960000038146973,10.960000038146973,10.960000038146973,0.0
2018-06-20,10.960000038146973,10.960000038146973,10.960000038146973,10.960000038146973,0.0
2018-06-21,10.960000038146973,10.960000038146973,10.960000038146973,10.960000038146973,0.0
2018-06-22,10.960000038146973,10.960000038146973,10.960000038146973,10.960000038146973,0.0
2018-06-25,10.960000038146973,10.960000038146973,10.960000038146973,10.960000038146973,0.0
2018-06-26,10.960000038146973,10.960000038146973,10.960000038146973,10.960000038146973,0.0
2018-06-27,10.960000038146973,10.960000038146973,10.960000038146973,10.960000038146973,0.0
2018-06-28,10.960000038146973,10.960000038146973,10.960000038146973,10.960000038146973,0.0
2018-06-29,10.960000038146973,10.960000038146973,10.960000038146973,10.960000038146973,0.0
2018-07-03,11.399999618530273,11.359999656677244,11.359999656677244,11.34000015258789,21000.0
2018-07-04,11.15999984741211,11.15999984741211,11.15999984741211,11.15999984741211,0.0
2018-07-05,11.15999984741211,11.15999984741211,11.15999984741211,11.15999984741211,0.0
2018-07-06,11.15999984741211,11.15999984741211,11.15999984741211,11.15999984741211,0.0
2018-07-09,11.15999984741211,11.15999984741211,11.15999984741211,11.15999984741211,0.0
2018-07-10,11.15999984741211,11.15999984741211,11.15999984741211,11.15999984741211,0.0
2018-07-11,11.15999984741211,11.15999984741211,11.15999984741211,11.15999984741211,0.0
2018-07-12,11.15999984741211,11.15999984741211,11.15999984741211,11.15999984741211,0.0
2018-07-13,11.15999984741211,11.15999984741211,11.15999984741211,11.15999984741211,0.0
2018-07-16,11.15999984741211,11.15999984741211,11.15999984741211,11.15999984741211,0.0
2018-07-17,11.15999984741211,11.15999984741211,11.15999984741211,11.15999984741211,0.0
2018-07-18,11.15999984741211,11.15999984741211,11.15999984741211,11.15999984741211,0.0
2018-07-19,11.15999984741211,11.15999984741211,11.15999984741211,11.15999984741211,0.0
2018-07-20,11.15999984741211,11.15999984741211,11.15999984741211,11.15999984741211,0.0
2018-07-23,11.15999984741211,11.15999984741211,11.15999984741211,11.15999984741211,0.0
2018-07-24,11.15999984741211,11.15999984741211,11.15999984741211,11.15999984741211,0.0
2018-07-25,11.15999984741211,11.15999984741211,11.15999984741211,11.15999984741211,0.0
2018-07-26,11.15999984741211,11.15999984741211,11.15999984741211,11.15999984741211,0.0
2018-07-27,11.15999984741211,11.15999984741211,11.15999984741211,11.15999984741211,0.0
2018-07-30,11.15999984741211,11.15999984741211,11.15999984741211,11.15999984741211,0.0
2018-07-31,11.15999984741211,11.15999984741211,11.15999984741211,11.15999984741211,0.0
2018-08-01,11.81999969482422,11.81999969482422,11.81999969482422,11.81999969482422,0.0
2018-08-02,11.81999969482422,11.81999969482422,11.81999969482422,11.81999969482422,0.0
2018-08-03,11.81999969482422,11.81999969482422,11.81999969482422,11.81999969482422,0.0
2018-08-06,11.81999969482422,11.81999969482422,11.81999969482422,11.81999969482422,0.0
2018-08-07,11.81999969482422,11.81999969482422,11.81999969482422,11.81999969482422,0.0
2018-08-08,12.199999809265135,12.199999809265135,12.199999809265135,12.199999809265135,200.0
2018-08-09,12.199999809265135,12.199999809265135,12.199999809265135,12.199999809265135,0.0
2018-08-10,12.199999809265135,12.199999809265135,12.199999809265135,12.199999809265135,0.0
2018-08-13,12.199999809265135,12.199999809265135,12.199999809265135,12.199999809265135,0.0
2018-08-14,12.199999809265135,12.199999809265135,12.199999809265135,12.199999809265135,0.0
2018-08-15,12.199999809265135,12.199999809265135,12.199999809265135,12.199999809265135,0.0
2018-08-16,12.18000030517578,12.18000030517578,12.18000030517578,12.18000030517578,5000.0
2018-08-17,12.15999984741211,12.15999984741211,12.15999984741211,12.15999984741211,0.0
2018-08-20,12.15999984741211,12.15999984741211,12.15999984741211,12.15999984741211,0.0
2018-08-21,12.15999984741211,12.15999984741211,12.15999984741211,12.15999984741211,0.0
2018-08-22,12.15999984741211,12.15999984741211,12.15999984741211,12.15999984741211,0.0
2018-08-23,12.15999984741211,12.15999984741211,12.15999984741211,12.15999984741211,0.0
2018-08-24,12.15999984741211,12.15999984741211,12.15999984741211,12.15999984741211,0.0
2018-08-27,12.199999809265135,12.199999809265135,12.199999809265135,12.199999809265135,0.0
2018-08-28,12.199999809265135,12.199999809265135,12.199999809265135,12.199999809265135,0.0
2018-08-29,12.199999809265135,12.199999809265135,12.199999809265135,12.199999809265135,0.0
2018-08-30,12.199999809265135,12.199999809265135,12.199999809265135,12.199999809265135,0.0
2018-08-31,12.199999809265135,12.199999809265135,12.199999809265135,12.199999809265135,0.0
2018-09-03,12.199999809265135,12.199999809265135,12.199999809265135,12.199999809265135,0.0
2018-09-04,12.199999809265135,12.199999809265135,12.199999809265135,12.199999809265135,0.0
2018-09-05,12.199999809265135,12.199999809265135,12.199999809265135,12.199999809265135,0.0
2018-09-06,12.199999809265135,12.199999809265135,12.199999809265135,12.199999809265135,0.0
2018-09-07,12.199999809265135,12.199999809265135,12.199999809265135,12.199999809265135,0.0
2018-09-10,12.199999809265135,12.199999809265135,12.199999809265135,12.199999809265135,0.0
2018-09-11,12.199999809265135,12.199999809265135,12.199999809265135,12.199999809265135,0.0
2018-09-12,12.199999809265135,12.199999809265135,12.199999809265135,12.199999809265135,0.0
2018-09-13,12.199999809265135,12.199999809265135,12.199999809265135,12.199999809265135,0.0
2018-09-14,12.199999809265135,12.199999809265135,12.199999809265135,12.199999809265135,0.0
2018-09-17,12.34000015258789,12.34000015258789,12.34000015258789,12.34000015258789,0.0
2018-09-18,12.34000015258789,12.34000015258789,12.34000015258789,12.34000015258789,0.0
2018-09-19,12.34000015258789,12.34000015258789,12.34000015258789,12.34000015258789,0.0
2018-09-20,12.34000015258789,12.34000015258789,12.34000015258789,12.34000015258789,0.0
2018-09-21,12.34000015258789,12.34000015258789,12.34000015258789,12.34000015258789,0.0
2018-09-24,12.260000228881836,12.260000228881836,12.260000228881836,12.260000228881836,400.0
2018-09-26,12.420000076293945,12.420000076293945,12.420000076293945,12.420000076293945,0.0
2018-09-27,12.420000076293945,12.420000076293945,12.420000076293945,12.420000076293945,0.0
2018-09-28,12.520000457763672,12.520000457763672,12.520000457763672,12.520000457763672,0.0
2018-10-02,12.520000457763672,12.520000457763672,12.520000457763672,12.520000457763672,0.0
2018-10-03,12.579999923706055,12.579999923706055,12.579999923706055,12.579999923706055,0.0
2018-10-04,12.579999923706055,12.579999923706055,12.579999923706055,12.579999923706055,0.0
2018-10-05,12.380000114440918,12.380000114440918,12.380000114440918,12.380000114440918,0.0
2018-10-08,12.260000228881836,12.260000228881836,12.260000228881836,12.260000228881836,0.0
2018-10-09,12.15999984741211,12.15999984741211,12.15999984741211,12.15999984741211,0.0
2018-10-10,12.15999984741211,12.15999984741211,12.15999984741211,12.15999984741211,0.0
2018-10-11,11.579999923706055,11.579999923706055,11.579999923706055,11.579999923706055,0.0
2018-10-12,11.739999771118164,11.739999771118164,11.739999771118164,11.739999771118164,0.0
2018-10-15,11.739999771118164,11.739999771118164,11.739999771118164,11.739999771118164,0.0
2018-10-16,11.739999771118164,11.739999771118164,11.739999771118164,11.739999771118164,100.0
2018-10-18,12.0600004196167,12.0600004196167,12.0600004196167,12.0600004196167,300.0
2018-10-19,11.899999618530273,11.899999618530273,11.899999618530273,11.899999618530273,0.0
2018-10-22,11.880000114440918,11.880000114440918,11.880000114440918,11.880000114440918,0.0
2018-10-23,11.720000267028807,11.720000267028807,11.720000267028807,11.720000267028807,5000.0
2018-10-24,11.720000267028807,11.720000267028807,11.720000267028807,11.720000267028807,0.0
2018-10-25,11.5,11.5,11.5,11.5,0.0
2018-10-26,11.420000076293945,11.420000076293945,11.420000076293945,11.420000076293945,0.0
2018-10-29,11.4399995803833,11.4399995803833,11.4399995803833,11.4399995803833,0.0
2018-10-30,11.34000015258789,11.34000015258789,11.34000015258789,11.34000015258789,0.0
2018-10-31,11.420000076293945,11.420000076293945,11.420000076293945,11.420000076293945,0.0
2018-11-01,11.520000457763672,11.520000457763672,11.520000457763672,11.520000457763672,0.0
2018-11-02,11.739999771118164,11.739999771118164,11.739999771118164,11.739999771118164,1000.0
2018-11-05,11.579999923706055,11.579999923706055,11.579999923706055,11.579999923706055,0.0
2018-11-06,11.539999961853027,11.539999961853027,11.539999961853027,11.539999961853027,0.0
2018-11-07,11.600000381469727,11.600000381469727,11.600000381469727,11.600000381469727,0.0
2018-11-08,11.899999618530273,11.899999618530273,11.899999618530273,11.899999618530273,0.0
2018-11-09,11.84000015258789,11.84000015258789,11.84000015258789,11.84000015258789,0.0
2018-11-12,11.779999732971193,11.779999732971193,11.779999732971193,11.779999732971193,0.0
2018-11-13,11.460000038146973,11.460000038146973,11.460000038146973,11.460000038146973,0.0
2018-11-14,11.34000015258789,11.31999969482422,11.34000015258789,11.31999969482422,1500.0
2018-11-15,11.31999969482422,11.31999969482422,11.31999969482422,11.31999969482422,0.0
2018-11-16,11.31999969482422,11.31999969482422,11.31999969482422,11.31999969482422,0.0
2018-11-19,11.4399995803833,11.4399995803833,11.4399995803833,11.4399995803833,0.0
2018-11-20,11.0,11.0,11.0,11.0,0.0
2018-11-21,10.920000076293944,10.920000076293944,10.920000076293944,10.920000076293944,0.0
2018-11-22,10.920000076293944,10.920000076293944,10.920000076293944,10.920000076293944,0.0
2018-11-23,10.880000114440918,10.880000114440918,10.880000114440918,10.880000114440918,0.0
2018-11-26,10.899999618530273,10.899999618530273,10.899999618530273,10.899999618530273,0.0
2018-11-27,11.020000457763672,11.020000457763672,11.020000457763672,11.020000457763672,0.0
2018-11-28,11.140000343322754,11.140000343322754,11.140000343322754,11.140000343322754,0.0
2018-11-29,11.380000114440918,11.380000114440918,11.380000114440918,11.380000114440918,0.0
2018-11-30,11.420000076293945,11.420000076293945,11.420000076293945,11.420000076293945,0.0
2018-12-03,11.68000030517578,11.68000030517578,11.68000030517578,11.68000030517578,0.0
2018-12-04,11.520000457763672,11.520000457763672,11.520000457763672,11.520000457763672,0.0
2018-12-05,11.279999732971193,11.279999732971193,11.279999732971193,11.279999732971193,0.0
2018-12-06,11.119999885559082,11.119999885559082,11.119999885559082,11.119999885559082,0.0
2018-12-07,11.300000190734865,11.239999771118164,11.239999771118164,11.18000030517578,16000.0
2018-12-10,10.920000076293944,10.920000076293944,10.920000076293944,10.920000076293944,0.0
2018-12-11,11.0,11.0,11.0,11.0,0.0
2018-12-12,11.0600004196167,11.0600004196167,11.0600004196167,11.0600004196167,0.0
2018-12-13,11.140000343322754,11.140000343322754,11.140000343322754,11.140000343322754,0.0
2018-12-14,11.0600004196167,11.0600004196167,11.0600004196167,11.0600004196167,0.0
2018-12-17,10.920000076293944,10.920000076293944,10.920000076293944,10.920000076293944,0.0
2018-12-18,10.720000267028807,10.720000267028807,10.720000267028807,10.720000267028807,0.0
2018-12-19,10.699999809265137,10.699999809265137,10.699999809265137,10.699999809265137,0.0
2018-12-20,10.460000038146973,10.460000038146973,10.460000038146973,10.460000038146973,0.0
2018-12-21,10.460000038146973,10.460000038146973,10.460000038146973,10.460000038146973,0.0
2018-12-24,10.460000038146973,10.460000038146973,10.460000038146973,10.460000038146973,0.0
2018-12-27,10.220000267028807,10.220000267028807,10.220000267028807,10.220000267028807,0.0
2018-12-28,10.34000015258789,10.34000015258789,10.34000015258789,10.34000015258789,4500.0
2018-12-31,10.420000076293944,10.420000076293944,10.420000076293944,10.420000076293944,5000.0
2019-01-02,10.31999969482422,10.31999969482422,10.31999969482422,10.31999969482422,0.0
2019-01-03,10.279999732971193,10.279999732971193,10.279999732971193,10.279999732971193,0.0
2019-01-04,10.239999771118164,10.239999771118164,10.239999771118164,10.239999771118164,0.0
2019-01-07,10.539999961853027,10.539999961853027,10.539999961853027,10.539999961853027,0.0
2019-01-08,10.65999984741211,10.65999984741211,10.65999984741211,10.65999984741211,0.0
2019-01-09,10.699999809265137,10.699999809265137,10.699999809265137,10.699999809265137,0.0
2019-01-10,10.699999809265137,10.699999809265137,10.699999809265137,10.699999809265137,0.0
2019-01-11,10.699999809265137,10.699999809265137,10.699999809265137,10.699999809265137,0.0
2019-01-14,10.619999885559082,10.619999885559082,10.619999885559082,10.619999885559082,0.0
2019-01-15,10.619999885559082,10.619999885559082,10.619999885559082,10.619999885559082,0.0
2019-01-16,10.779999732971193,10.779999732971193,10.779999732971193,10.779999732971193,0.0
2019-01-17,10.779999732971193,10.779999732971193,10.779999732971193,10.779999732971193,0.0
2019-01-18,109.0,109.0,109.0,109.0,0.0
2019-01-21,110.4000015258789,110.4000015258789,110.4000015258789,110.4000015258789,0.0
2019-01-22,110.0999984741211,110.0999984741211,110.0999984741211,110.0999984741211,0.0
2019-01-23,108.5,108.5,108.5,108.5,0.0
2019-01-24,108.5999984741211,108.5999984741211,108.5999984741211,108.5999984741211,0.0
2019-01-25,109.0,109.0,109.0,109.0,0.0
2019-01-28,109.0,109.0,109.0,109.0,0.0
2019-01-29,108.1999969482422,108.1999969482422,108.1999969482422,108.1999969482422,0.0
2019-01-30,108.0999984741211,108.0999984741211,108.0999984741211,108.0999984741211,0.0
2019-01-31,110.0999984741211,110.0999984741211,110.0999984741211,110.0999984741211,0.0
2019-02-01,111.0999984741211,111.0999984741211,111.0999984741211,111.0999984741211,0.0
2019-02-04,111.3000030517578,111.3000030517578,111.3000030517578,111.5,500.0
2019-02-08,111.9000015258789,111.9000015258789,111.9000015258789,111.9000015258789,0.0
2019-02-11,112.0999984741211,112.0999984741211,112.0999984741211,112.0999984741211,0.0
2019-02-12,113.0,113.0,113.0,113.0,0.0
2019-02-13,114.0999984741211,114.0999984741211,114.0999984741211,114.0999984741211,0.0
2019-02-14,114.1999969482422,114.1999969482422,114.1999969482422,114.1999969482422,0.0
2019-02-15,113.9000015258789,113.9000015258789,113.9000015258789,113.9000015258789,0.0
2019-02-18,114.1999969482422,114.1999969482422,114.1999969482422,114.1999969482422,0.0
2019-02-19,114.5999984741211,114.5999984741211,114.5999984741211,114.5999984741211,0.0
2019-02-20,114.1999969482422,114.1999969482422,114.1999969482422,114.1999969482422,0.0
2019-02-21,114.1999969482422,114.1999969482422,114.1999969482422,114.1999969482422,0.0
2019-02-22,113.6999969482422,113.6999969482422,113.6999969482422,113.6999969482422,0.0
2019-02-25,114.0,114.0,114.0,114.0,0.0
2019-02-26,114.0,114.0,114.0,114.0,0.0
2019-02-27,114.0999984741211,114.0999984741211,114.0999984741211,114.0999984741211,0.0
2019-02-28,113.6999969482422,113.6999969482422,113.6999969482422,113.6999969482422,0.0
2019-03-01,114.4000015258789,114.4000015258789,114.4000015258789,114.4000015258789,0.0
2019-03-04,115.0,115.0,115.0,115.0,0.0
2019-03-05,115.0,115.0,115.0,115.0,0.0
2019-03-06,115.0,115.0,115.0,115.0,0.0
2019-03-07,114.1999969482422,114.1999969482422,114.1999969482422,114.1999969482422,0.0
2019-03-08,112.9000015258789,112.9000015258789,112.9000015258789,112.9000015258789,0.0
2019-03-11,113.3000030517578,113.3000030517578,113.3000030517578,113.3000030517578,0.0
2019-03-12,115.5999984741211,115.5999984741211,115.5999984741211,115.5999984741211,0.0
2019-03-13,115.5999984741211,115.5999984741211,115.5999984741211,115.5999984741211,0.0
2019-03-14,116.8000030517578,116.8000030517578,116.8000030517578,116.8000030517578,0.0
2019-03-15,116.8000030517578,116.8000030517578,116.8000030517578,116.8000030517578,0.0
2019-03-18,117.6999969482422,117.6999969482422,117.6999969482422,117.6999969482422,0.0
2019-03-19,118.0,118.0,118.0,118.0,0.0
2019-03-20,118.0,118.0,118.0,118.0,0.0
2019-03-21,118.0999984741211,118.0999984741211,118.0999984741211,118.0999984741211,0.0
2019-03-22,120.9000015258789,120.9000015258789,120.9000015258789,120.9000015258789,0.0
2019-03-25,117.5999984741211,117.5999984741211,117.5999984741211,117.5999984741211,0.0
2019-03-26,118.0999984741211,118.0999984741211,118.0999984741211,118.0999984741211,0.0
2019-03-27,118.9000015258789,118.9000015258789,118.9000015258789,118.9000015258789,0.0
2019-03-28,117.6999969482422,117.6999969482422,117.6999969482422,117.6999969482422,0.0
2019-03-29,118.5,118.5,118.5,118.5,0.0
2019-04-01,120.0,120.0,120.0,120.0,0.0
2019-04-02,120.3000030517578,120.3000030517578,120.3000030517578,120.3000030517578,0.0
2019-04-03,121.3000030517578,121.3000030517578,121.3000030517578,121.3000030517578,0.0
2019-04-04,121.5,121.5,121.5,121.5,0.0
2019-04-08,121.8000030517578,121.8000030517578,121.8000030517578,121.8000030517578,0.0
2019-04-09,122.6999969482422,122.6999969482422,122.6999969482422,122.6999969482422,0.0
2019-04-10,122.5999984741211,122.5999984741211,122.5999984741211,122.5999984741211,0.0
2019-04-11,122.5999984741211,122.5999984741211,122.5999984741211,122.5999984741211,0.0
2019-04-12,122.5999984741211,122.5999984741211,122.5999984741211,122.5999984741211,0.0
2019-04-15,122.5999984741211,122.5999984741211,122.5999984741211,122.5999984741211,0.0
2019-04-16,123.0,123.0,123.0,123.0,0.0
2019-04-17,123.9000015258789,123.9000015258789,123.9000015258789,123.6999969482422,2000.0
2019-04-18,123.5,123.5,123.5,123.5,0.0
2019-04-23,124.3000030517578,124.3000030517578,124.3000030517578,124.3000030517578,0.0
2019-04-24,126.0,126.0,126.0,126.0,0.0
2019-04-25,126.9000015258789,126.9000015258789,126.9000015258789,126.9000015258789,0.0
2019-04-26,126.6999969482422,126.6999969482422,126.6999969482422,126.6999969482422,0.0
2019-04-29,126.6999969482422,126.6999969482422,126.6999969482422,126.6999969482422,0.0
2019-04-30,126.6999969482422,126.6999969482422,126.6999969482422,126.6999969482422,0.0
2019-05-02,125.6999969482422,125.6999969482422,125.6999969482422,125.6999969482422,0.0
2019-05-03,125.6999969482422,125.6999969482422,125.6999969482422,125.6999969482422,0.0
2019-05-06,125.6999969482422,125.6999969482422,125.6999969482422,125.6999969482422,0.0
2019-05-07,126.0,126.0,126.0,126.0,0.0
2019-05-08,125.1999969482422,125.1999969482422,125.1999969482422,125.1999969482422,0.0
2019-05-09,124.4000015258789,124.4000015258789,124.4000015258789,124.4000015258789,0.0
2019-05-10,124.3000030517578,124.3000030517578,124.3000030517578,124.3000030517578,0.0
2019-05-14,122.3000030517578,122.3000030517578,122.3000030517578,122.3000030517578,0.0
2019-05-15,122.3000030517578,122.3000030517578,122.3000030517578,122.3000030517578,0.0
2019-05-16,123.8000030517578,123.8000030517578,123.8000030517578,123.8000030517578,0.0
2019-05-17,125.5999984741211,125.5999984741211,125.5999984741211,125.5999984741211,0.0
2019-05-20,125.3000030517578,125.3000030517578,125.3000030517578,125.3000030517578,0.0
2019-05-21,123.5,123.5,123.5,123.5,0.0
2019-05-22,123.5,123.5,123.5,123.5,0.0
2019-05-23,122.6999969482422,122.6999969482422,122.6999969482422,122.6999969482422,0.0
2019-05-24,122.0,122.0,122.0,122.0,0.0
2019-05-27,121.5999984741211,121.5999984741211,121.5999984741211,121.5999984741211,0.0
2019-05-28,121.5999984741211,121.5999984741211,121.5999984741211,121.5999984741211,0.0
2019-05-29,120.4000015258789,120.4000015258789,120.4000015258789,120.4000015258789,0.0
2019-05-30,120.4000015258789,120.4000015258789,120.4000015258789,120.4000015258789,0.0
2019-05-31,119.0999984741211,119.0999984741211,119.0999984741211,119.0999984741211,0.0
2019-06-03,117.8000030517578,117.8000030517578,117.8000030517578,117.8000030517578,0.0
2019-06-04,116.9000015258789,116.9000015258789,116.9000015258789,116.9000015258789,0.0
2019-06-05,119.4000015258789,119.4000015258789,119.4000015258789,119.4000015258789,0.0
2019-06-06,120.3000030517578,120.3000030517578,120.3000030517578,120.3000030517578,0.0
2019-06-10,123.9000015258789,123.9000015258789,123.9000015258789,123.9000015258789,0.0
2019-06-11,125.0999984741211,125.0999984741211,125.0999984741211,125.0999984741211,0.0
2019-06-12,124.5999984741211,124.5999984741211,124.5999984741211,124.5999984741211,0.0
2019-06-13,124.5999984741211,124.5999984741211,124.5999984741211,124.5999984741211,0.0
2019-06-14,125.5,125.0,125.0,125.5,26400.0
2019-06-17,125.5,125.0,125.0,125.5,12400.0
2019-06-18,125.6999969482422,125.6999969482422,125.6999969482422,125.6999969482422,0.0
2019-06-19,126.6999969482422,126.6999969482422,126.6999969482422,126.6999969482422,0.0
2019-06-20,127.4000015258789,127.4000015258789,127.4000015258789,127.4000015258789,0.0
2019-06-21,127.3000030517578,127.3000030517578,127.3000030517578,127.3000030517578,0.0
2019-06-24,127.5999984741211,127.5999984741211,127.5999984741211,127.5999984741211,0.0
2019-06-25,127.4000015258789,127.4000015258789,127.4000015258789,127.4000015258789,0.0
2019-06-26,125.9000015258789,125.9000015258789,125.9000015258789,125.9000015258789,0.0
2019-06-27,126.0999984741211,126.0999984741211,126.0999984741211,126.0999984741211,0.0
2019-06-28,126.0999984741211,126.0999984741211,126.0999984741211,126.0999984741211,0.0
2019-07-02,127.5999984741211,127.5999984741211,127.5999984741211,127.5999984741211,0.0
2019-07-03,129.10000610351562,129.10000610351562,129.10000610351562,129.10000610351562,0.0
2019-07-04,129.30000305175778,129.30000305175778,129.30000305175778,129.30000305175778,0.0
2019-07-05,129.5,129.5,129.5,129.5,0.0
2019-07-08,129.39999389648438,129.39999389648438,129.39999389648438,129.39999389648438,0.0
2019-07-09,128.0,128.0,128.0,128.0,0.0
2019-07-10,128.80000305175778,128.80000305175778,128.80000305175778,128.80000305175778,0.0
2019-07-11,130.30000305175778,130.30000305175778,130.30000305175778,130.30000305175778,0.0
2019-07-12,130.30000305175778,130.30000305175778,130.30000305175778,130.30000305175778,0.0
2019-07-15,130.89999389648438,130.89999389648438,130.89999389648438,130.89999389648438,0.0
2019-07-16,131.19999694824222,131.19999694824222,131.19999694824222,131.19999694824222,0.0
2019-07-17,131.19999694824222,131.19999694824222,131.19999694824222,131.19999694824222,0.0
2019-07-18,129.69999694824222,129.69999694824222,129.69999694824222,129.69999694824222,0.0
2019-07-19,130.89999389648438,130.60000610351562,130.89999389648438,130.69999694824222,39600.0
2019-07-22,129.5,129.5,129.5,129.5,0.0
2019-07-23,130.30000305175778,130.30000305175778,130.30000305175778,130.30000305175778,0.0
2019-07-24,130.60000610351562,130.60000610351562,130.60000610351562,130.60000610351562,0.0
2019-07-25,131.60000610351562,131.60000610351562,131.60000610351562,131.60000610351562,0.0
2019-07-26,132.0,132.0,132.0,132.0,0.0
2019-07-29,132.10000610351562,132.10000610351562,132.10000610351562,132.10000610351562,0.0
2019-07-30,132.0,132.0,132.0,132.0,0.0
2019-07-31,132.0,132.0,132.0,132.0,0.0
2019-08-01,130.5,130.5,130.5,130.5,0.0
2019-08-02,129.60000610351562,129.60000610351562,129.60000610351562,129.60000610351562,0.0
2019-08-05,129.0,129.0,129.0,129.0,0.0
2019-08-06,125.4000015258789,125.4000015258789,125.4000015258789,125.4000015258789,0.0
2019-08-07,127.4000015258789,127.4000015258789,127.4000015258789,127.4000015258789,0.0
2019-08-08,128.10000610351562,128.10000610351562,128.10000610351562,128.10000610351562,0.0
2019-08-09,130.10000610351562,130.10000610351562,130.10000610351562,130.10000610351562,0.0
2019-08-12,130.60000610351562,130.60000610351562,130.60000610351562,130.60000610351562,0.0
2019-08-13,128.69999694824222,128.69999694824222,128.69999694824222,128.69999694824222,0.0
2019-08-14,129.80000305175778,129.80000305175778,129.80000305175778,129.80000305175778,0.0
2019-08-15,127.3000030517578,127.3000030517578,127.3000030517578,127.3000030517578,0.0
2019-08-16,127.5,127.5,127.5,127.5,0.0
2019-08-19,129.60000610351562,129.60000610351562,129.60000610351562,129.60000610351562,0.0
2019-08-20,131.30000305175778,131.30000305175778,131.30000305175778,131.30000305175778,400.0
2019-08-21,130.80000305175778,130.80000305175778,130.80000305175778,130.80000305175778,0.0
2019-08-22,131.30000305175778,131.30000305175778,131.30000305175778,131.30000305175778,0.0
2019-08-23,131.39999389648438,131.39999389648438,131.39999389648438,131.39999389648438,0.0
2019-08-26,130.0,130.0,130.0,130.0,0.0
2019-08-27,130.0,130.0,130.0,130.0,0.0
2019-08-28,130.0,130.0,130.0,130.0,0.0
2019-08-29,131.30000305175778,131.30000305175778,131.30000305175778,131.30000305175778,0.0
2019-08-30,132.19999694824222,132.19999694824222,132.19999694824222,132.19999694824222,0.0
2019-09-02,132.19999694824222,132.19999694824222,132.19999694824222,132.19999694824222,0.0
2019-09-03,131.39999389648438,131.39999389648438,131.39999389648438,131.39999389648438,0.0
2019-09-04,132.30000305175778,132.30000305175778,132.30000305175778,132.30000305175778,0.0
2019-09-05,133.19999694824222,133.19999694824222,133.19999694824222,133.19999694824222,0.0
2019-09-06,134.19999694824222,134.19999694824222,134.19999694824222,134.19999694824222,0.0
2019-09-09,134.30000305175778,134.30000305175778,134.30000305175778,134.30000305175778,0.0
2019-09-10,133.10000610351562,133.10000610351562,133.10000610351562,133.10000610351562,0.0
2019-09-11,133.30000305175778,133.30000305175778,133.30000305175778,133.30000305175778,0.0
2019-09-12,134.19999694824222,134.19999694824222,134.19999694824222,134.19999694824222,0.0
2019-09-13,134.19999694824222,134.19999694824222,134.19999694824222,134.19999694824222,0.0
2019-09-16,133.0,133.0,133.0,133.0,0.0
2019-09-17,133.19999694824222,133.19999694824222,133.19999694824222,133.19999694824222,0.0
2019-09-18,133.60000610351562,133.60000610351562,133.60000610351562,133.60000610351562,0.0
2019-09-19,133.69999694824222,133.69999694824222,133.69999694824222,133.69999694824222,0.0
2019-09-20,134.30000305175778,134.30000305175778,134.30000305175778,134.30000305175778,0.0
2019-09-23,133.80000305175778,133.80000305175778,133.80000305175778,133.80000305175778,0.0
2019-09-24,133.80000305175778,133.80000305175778,133.80000305175778,133.80000305175778,0.0
2019-09-25,132.0,132.0,132.0,132.0,0.0
2019-09-26,133.10000610351562,133.10000610351562,133.10000610351562,133.10000610351562,0.0
2019-09-27,133.10000610351562,133.10000610351562,133.10000610351562,133.10000610351562,0.0
2019-09-30,132.5,132.5,132.5,132.5,0.0
2019-10-02,131.69999694824222,131.69999694824222,131.69999694824222,131.69999694824222,0.0
2019-10-03,129.89999389648438,129.89999389648438,129.89999389648438,129.89999389648438,0.0
2019-10-04,130.39999389648438,130.39999389648438,130.39999389648438,130.39999389648438,0.0
2019-10-08,131.80000305175778,131.80000305175778,131.80000305175778,131.80000305175778,0.0
2019-10-09,131.30000305175778,131.30000305175778,131.30000305175778,131.30000305175778,0.0
2019-10-10,131.30000305175778,131.30000305175778,131.30000305175778,131.30000305175778,0.0
2019-10-11,132.5,132.5,132.5,132.5,0.0
2019-10-14,132.60000610351562,132.60000610351562,132.60000610351562,132.60000610351562,0.0
2019-10-15,133.69999694824222,133.69999694824222,133.69999694824222,133.69999694824222,0.0
2019-10-16,135.0,135.0,135.0,135.0,0.0
2019-10-17,135.0,135.0,135.0,135.0,0.0
2019-10-18,134.89999389648438,134.89999389648438,134.89999389648438,134.89999389648438,0.0
2019-10-21,134.0,134.0,134.0,134.0,0.0
2019-10-22,134.5,134.5,134.5,134.5,0.0
2019-10-23,133.30000305175778,133.30000305175778,133.30000305175778,133.30000305175778,0.0
2019-10-24,133.89999389648438,133.89999389648438,133.89999389648438,133.89999389648438,0.0
2019-10-25,134.60000610351562,134.60000610351562,134.60000610351562,134.60000610351562,0.0
2019-10-28,136.10000610351562,136.10000610351562,136.10000610351562,136.10000610351562,0.0
2019-10-29,136.89999389648438,136.89999389648438,136.89999389648438,136.89999389648438,0.0
2019-10-30,136.39999389648438,136.39999389648438,136.39999389648438,136.39999389648438,0.0
2019-10-31,136.89999389648438,136.89999389648438,136.89999389648438,136.89999389648438,0.0
2019-11-01,137.10000610351562,137.10000610351562,137.10000610351562,137.10000610351562,100.0
2019-11-04,137.69999694824222,137.69999694824222,137.69999694824222,137.69999694824222,0.0
2019-11-05,138.10000610351562,138.10000610351562,138.10000610351562,138.10000610351562,0.0
2019-11-06,138.10000610351562,138.10000610351562,138.10000610351562,138.10000610351562,0.0
2019-11-07,138.10000610351562,138.10000610351562,138.10000610351562,138.10000610351562,0.0
2019-11-08,137.80000305175778,137.80000305175778,137.80000305175778,137.80000305175778,0.0
2019-11-11,138.0,138.0,138.0,138.0,0.0
2019-11-12,138.39999389648438,138.39999389648438,138.39999389648438,138.39999389648438,0.0
2019-11-13,138.69999694824222,138.69999694824222,138.69999694824222,138.69999694824222,0.0
2019-11-14,139.0,139.0,139.0,139.0,0.0
2019-11-15,139.19999694824222,139.19999694824222,139.19999694824222,139.19999694824222,0.0
2019-11-18,140.10000610351562,140.10000610351562,140.10000610351562,140.10000610351562,0.0
2019-11-19,140.39999389648438,140.39999389648438,140.39999389648438,140.39999389648438,0.0
2019-11-20,140.39999389648438,140.39999389648438,140.39999389648438,140.39999389648438,0.0
2019-11-21,139.80000305175778,139.80000305175778,139.80000305175778,139.80000305175778,0.0
2019-11-22,139.80000305175778,139.80000305175778,139.80000305175778,139.80000305175778,0.0
2019-11-25,139.80000305175778,139.80000305175778,139.80000305175778,139.80000305175778,0.0
2019-11-26,141.1999969482422,141.1999969482422,141.1999969482422,141.1999969482422,0.0
2019-11-27,141.39999389648438,141.39999389648438,141.39999389648438,141.39999389648438,0.0
2019-11-28,141.89999389648438,141.89999389648438,141.89999389648438,141.89999389648438,0.0
2019-11-29,142.60000610351562,142.1999969482422,142.39999389648438,142.5,24000.0
2019-12-02,142.5,142.5,142.5,142.5,0.0
2019-12-03,141.0,141.0,141.0,141.0,0.0
2019-12-04,140.10000610351562,140.10000610351562,140.10000610351562,140.10000610351562,0.0
2019-12-05,140.39999389648438,140.39999389648438,140.39999389648438,140.39999389648438,0.0
2019-12-06,140.39999389648438,140.39999389648438,140.39999389648438,140.39999389648438,0.0
2019-12-09,141.5,141.5,141.5,141.5,0.0
2019-12-10,141.5,141.5,141.5,141.5,0.0
2019-12-11,141.39999389648438,141.39999389648438,141.39999389648438,141.39999389648438,0.0
2019-12-12,141.8000030517578,141.8000030517578,141.8000030517578,141.8000030517578,0.0
2019-12-13,142.1999969482422,142.1999969482422,142.1999969482422,142.1999969482422,0.0
2019-12-16,143.0,143.0,143.0,143.0,0.0
2019-12-17,144.10000610351562,144.10000610351562,144.10000610351562,144.10000610351562,0.0
2019-12-18,144.10000610351562,144.10000610351562,144.10000610351562,144.10000610351562,0.0
2019-12-19,144.1999969482422,144.1999969482422,144.1999969482422,144.1999969482422,0.0
2019-12-20,145.10000610351562,145.10000610351562,145.10000610351562,145.10000610351562,0.0
2019-12-23,145.89999389648438,145.89999389648438,145.89999389648438,145.89999389648438,0.0
2019-12-24,146.8000030517578,146.8000030517578,146.8000030517578,146.5,800.0
2019-12-27,147.60000610351562,147.60000610351562,147.60000610351562,147.60000610351562,0.0
2019-12-30,147.39999389648438,147.39999389648438,147.39999389648438,147.39999389648438,0.0
2019-12-31,147.39999389648438,147.39999389648438,147.39999389648438,147.39999389648438,0.0
2020-01-02,146.5,146.5,146.5,146.5,1000.0
2020-01-03,147.39999389648438,147.0,147.39999389648438,147.0,24000.0
2020-01-06,146.8000030517578,146.8000030517578,146.8000030517578,146.8000030517578,0.0
2020-01-07,147.5,147.5,147.5,147.5,200.0
2020-01-08,147.10000610351562,147.10000610351562,147.10000610351562,147.10000610351562,0.0
2020-01-09,148.89999389648438,148.89999389648438,148.89999389648438,148.89999389648438,0.0
2020-01-10,149.8000030517578,149.8000030517578,149.8000030517578,149.8000030517578,0.0
2020-01-13,149.10000610351562,149.10000610351562,149.10000610351562,149.10000610351562,0.0
2020-01-14,149.60000610351562,149.60000610351562,149.60000610351562,149.60000610351562,0.0
2020-01-15,149.60000610351562,149.60000610351562,149.60000610351562,149.60000610351562,0.0
2020-01-16,149.8000030517578,149.8000030517578,149.8000030517578,149.8000030517578,0.0
2020-01-17,150.3000030517578,150.3000030517578,150.3000030517578,150.3000030517578,0.0
2020-01-20,150.5,150.5,150.5,150.5,0.0
2020-01-21,151.10000610351562,151.10000610351562,151.10000610351562,151.10000610351562,0.0
2020-01-22,152.5,152.5,152.5,152.5,0.0
2020-01-23,152.5,152.5,152.5,152.5,0.0
2020-01-24,152.5,152.5,152.5,152.5,0.0
2020-01-29,152.6999969482422,152.6999969482422,152.6999969482422,152.6999969482422,0.0
2020-01-30,151.6999969482422,151.6999969482422,151.6999969482422,151.6999969482422,0.0
2020-01-31,153.6999969482422,153.6999969482422,153.6999969482422,153.6999969482422,0.0
2020-02-03,152.8000030517578,152.8000030517578,152.8000030517578,152.8000030517578,0.0
2020-02-04,153.8000030517578,153.8000030517578,153.8000030517578,153.8000030517578,0.0
2020-02-05,156.60000610351562,156.60000610351562,156.60000610351562,156.60000610351562,0.0
2020-02-06,157.8000030517578,157.8000030517578,157.8000030517578,157.8000030517578,0.0
2020-02-07,158.10000610351562,158.10000610351562,158.10000610351562,158.10000610351562,0.0
2020-02-10,158.0,158.0,158.0,158.0,0.0
2020-02-11,160.0,160.0,160.0,160.0,0.0
2020-02-12,160.0,160.0,160.0,160.0,0.0
2020-02-13,160.60000610351562,160.60000610351562,160.60000610351562,160.60000610351562,0.0
2020-02-14,161.8000030517578,161.8000030517578,161.8000030517578,161.8000030517578,0.0
2020-02-17,162.89999389648438,162.89999389648438,162.89999389648438,162.89999389648438,800.0
2020-02-18,161.1999969482422,161.1999969482422,161.1999969482422,161.1999969482422,0.0
2020-02-19,162.60000610351562,162.60000610351562,162.60000610351562,162.60000610351562,0.0
2020-02-20,164.3000030517578,164.3000030517578,164.3000030517578,164.3000030517578,0.0
2020-02-21,161.89999389648438,161.8000030517578,161.89999389648438,161.8000030517578,1400.0
2020-02-25,155.5,154.8000030517578,154.89999389648438,155.5,2700.0
2020-02-26,150.39999389648438,150.39999389648438,150.39999389648438,150.39999389648438,0.0
2020-02-27,148.89999389648438,148.89999389648438,148.89999389648438,148.89999389648438,0.0
2020-02-28,140.30000305175778,139.10000610351562,140.30000305175778,139.10000610351562,1700.0
2020-03-03,148.0,148.0,148.0,148.0,0.0
2020-03-04,145.10000610351562,145.10000610351562,145.10000610351562,145.10000610351562,0.0
2020-03-05,147.39999389648438,147.39999389648438,147.39999389648438,147.39999389648438,0.0
2020-03-06,143.6999969482422,143.6999969482422,143.6999969482422,143.6999969482422,0.0
2020-03-09,160.39999389648438,151.39999389648438,160.39999389648438,151.6999969482422,45330.0
2020-03-10,135.5,135.5,135.5,135.5,0.0
2020-03-11,137.30000305175778,137.30000305175778,137.30000305175778,137.30000305175778,0.0
2020-03-12,136.69999694824222,136.69999694824222,136.69999694824222,136.69999694824222,0.0
2020-03-13,129.0,129.0,129.0,129.0,0.0
2020-03-16,145.0,135.0,144.0,137.0,41000.0
2020-03-17,124.1999969482422,124.1999969482422,124.1999969482422,124.1999969482422,0.0
2020-03-18,124.8000030517578,124.8000030517578,124.8000030517578,124.8000030517578,0.0
2020-03-19,123.6999969482422,118.3000030517578,123.5999984741211,121.5,118300.0
2020-03-20,125.0,124.0,124.6999969482422,128.5,45300.0
2020-03-23,135.0,124.8000030517578,135.0,126.1999969482422,37200.0
2020-03-24,124.4000015258789,122.1999969482422,122.8000030517578,124.0999984741211,82500.0
2020-03-25,130.0,126.8000030517578,127.6999969482422,130.10000610351562,192800.0
2020-03-26,128.10000610351562,126.0999984741211,128.0,126.0999984741211,146800.0
2020-03-27,133.10000610351562,132.0,132.80000305175778,132.39999389648438,54000.0
2020-03-30,144.89999389648438,139.89999389648438,144.89999389648438,141.10000610351562,66900.0
2020-03-31,135.5,133.5,134.69999694824222,135.5,49500.0
2020-04-01,131.69999694824222,130.30000305175778,131.60000610351562,130.30000305175778,106400.0
2020-04-02,129.60000610351562,129.0,129.60000610351562,129.19999694824222,13400.0
2020-04-03,129.30000305175778,129.30000305175778,129.30000305175778,129.30000305175778,500.0
2020-04-06,146.6999969482422,142.0,142.0,146.10000610351562,94700.0
2020-04-07,139.10000610351562,136.30000305175778,136.69999694824222,139.10000610351562,68300.0
2020-04-08,138.0,136.19999694824222,136.80000305175778,136.69999694824222,73000.0
2020-04-09,140.19999694824222,138.69999694824222,139.60000610351562,140.10000610351562,64400.0
2020-04-14,143.5,143.5,143.5,143.5,0.0
2020-04-15,145.8000030517578,145.8000030517578,145.8000030517578,145.8000030517578,0.0
2020-04-16,147.5,147.5,147.5,147.5,0.0
2020-04-17,151.1999969482422,151.1999969482422,151.1999969482422,151.1999969482422,0.0
2020-04-20,149.5,149.5,149.5,149.5,1200.0
2020-04-21,148.3000030517578,148.3000030517578,148.3000030517578,148.3000030517578,0.0
2020-04-22,145.5,145.5,145.5,145.5,0.0
2020-04-23,146.5,146.5,146.5,146.5,0.0
2020-04-24,145.39999389648438,145.39999389648438,145.39999389648438,145.8000030517578,500.0
2020-04-27,151.0,151.0,151.0,151.0,0.0
2020-04-28,151.0,151.0,151.0,151.0,0.0
2020-04-29,150.6999969482422,150.6999969482422,150.6999969482422,150.6999969482422,0.0
2020-05-04,149.10000610351562,149.10000610351562,149.10000610351562,149.10000610351562,0.0
2020-05-05,152.10000610351562,152.10000610351562,152.10000610351562,152.3000030517578,100.0
2020-05-06,152.89999389648438,152.0,152.0,153.1999969482422,5300.0
2020-05-07,154.8000030517578,154.39999389648438,154.39999389648438,154.8000030517578,1700.0
2020-05-08,156.60000610351562,156.60000610351562,156.60000610351562,156.60000610351562,0.0
2020-05-11,157.8000030517578,157.8000030517578,157.8000030517578,157.8000030517578,0.0
2020-05-12,158.60000610351562,158.5,158.5,158.5,2700.0
2020-05-13,155.89999389648438,155.89999389648438,155.89999389648438,155.89999389648438,0.0
2020-05-14,154.3000030517578,154.3000030517578,154.3000030517578,154.3000030517578,0.0
2020-05-15,156.0,156.0,156.0,156.0,0.0
2020-05-18,158.0,158.0,158.0,158.0,0.0
2020-05-19,159.8000030517578,159.8000030517578,159.8000030517578,159.8000030517578,0.0
2020-05-20,160.39999389648438,160.0,160.0,160.39999389648438,32000.0
2020-05-21,161.0,161.0,161.0,161.0,0.0
2020-05-22,159.6999969482422,159.6999969482422,159.6999969482422,159.6999969482422,0.0
2020-05-25,162.5,162.5,162.5,162.5,0.0
2020-05-26,164.8000030517578,164.8000030517578,164.8000030517578,164.8000030517578,1000.0
2020-05-27,164.10000610351562,164.10000610351562,164.10000610351562,164.10000610351562,0.0
2020-05-28,163.8000030517578,162.60000610351562,163.8000030517578,162.60000610351562,3500.0
2020-05-29,162.3000030517578,162.3000030517578,162.3000030517578,162.3000030517578,0.0
2020-06-01,163.6999969482422,163.6999969482422,163.6999969482422,163.6999969482422,0.0
2020-06-02,164.5500030517578,164.5500030517578,164.5500030517578,164.5500030517578,0.0
2020-06-03,165.39999389648438,165.39999389648438,165.39999389648438,165.39999389648438,0.0
2020-06-04,165.6999969482422,165.6999969482422,165.6999969482422,165.6999969482422,0.0
2020-06-05,165.64999389648438,165.64999389648438,165.64999389648438,165.64999389648438,0.0
2020-06-08,166.39999389648438,166.39999389648438,166.39999389648438,166.39999389648438,0.0
2020-06-09,167.5500030517578,167.5500030517578,167.5500030517578,167.5500030517578,0.0
2020-06-10,169.8000030517578,169.8000030517578,169.8000030517578,169.8000030517578,0.0
2020-06-11,170.89999389648438,169.64999389648438,170.8000030517578,169.35000610351562,2700.0
2020-06-12,165.5,165.5,165.5,165.5,100.0
2020-06-15,163.1999969482422,161.85000610351562,163.1999969482422,161.5,900.0
2020-06-16,167.8000030517578,167.8000030517578,167.8000030517578,167.8000030517578,0.0
2020-06-17,170.4499969482422,170.4499969482422,170.4499969482422,170.4499969482422,0.0
2020-06-18,170.10000610351562,170.10000610351562,170.10000610351562,170.10000610351562,0.0
2020-06-19,171.14999389648438,171.14999389648438,171.14999389648438,171.14999389648438,0.0
2020-06-22,170.5,170.5,170.5,170.5,0.0
2020-06-23,172.9499969482422,172.9499969482422,172.9499969482422,172.9499969482422,0.0
2020-06-24,172.9499969482422,172.9499969482422,172.9499969482422,172.9499969482422,0.0
2020-06-26,171.64999389648438,171.64999389648438,171.64999389648438,171.64999389648438,100.0
2020-06-29,23.78000068664551,23.65999984741211,23.78000068664551,23.71999931335449,2700.0
2020-06-30,23.959999084472656,23.959999084472656,23.959999084472656,23.959999084472656,0.0
2020-07-02,24.79999923706055,24.79999923706055,24.79999923706055,24.79999923706055,0.0
2020-07-06,25.29999923706055,25.29999923706055,25.29999923706055,25.29999923706055,100.0
2020-07-07,25.36000061035156,25.36000061035156,25.36000061035156,25.36000061035156,0.0
2020-07-08,25.440000534057614,25.440000534057614,25.440000534057614,25.440000534057614,1000.0
2020-07-09,179.3000030517578,179.3000030517578,179.3000030517578,179.3000030517578,0.0
2020-07-10,180.10000610351562,180.10000610351562,180.10000610351562,180.10000610351562,0.0
2020-07-13,183.25,183.25,183.25,183.25,0.0
2020-07-14,179.5,179.5,179.5,179.5,0.0
2020-07-15,180.10000610351562,180.10000610351562,180.10000610351562,180.10000610351562,0.0
2020-07-16,179.14999389648438,178.9499969482422,179.14999389648438,178.64999389648438,600.0
2020-07-17,178.35000610351562,178.35000610351562,178.35000610351562,178.35000610351562,0.0
2020-07-20,178.14999389648438,178.14999389648438,178.14999389648438,178.14999389648438,0.0
2020-07-21,185.6000061035156,184.75,184.75,185.6000061035156,1000.0
2020-07-22,183.1999969482422,182.75,182.8000030517578,182.5500030517578,1200.0
2020-07-23,183.8000030517578,183.8000030517578,183.8000030517578,183.8000030517578,400.0
2020-07-24,177.75,177.14999389648438,177.75,176.6999969482422,1700.0
2020-07-27,25.420000076293945,25.399999618530273,25.399999618530273,25.3799991607666,3200.0
2020-07-28,25.86000061035156,25.78000068664551,25.86000061035156,25.76000022888184,1000.0
2020-07-29,25.5,25.5,25.5,25.5,500.0
2020-07-30,25.479999542236328,25.479999542236328,25.479999542236328,25.479999542236328,500.0
2020-07-31,26.28000068664551,26.20000076293945,26.20000076293945,26.21999931335449,1500.0
2020-08-03,26.36000061035156,26.29999923706055,26.36000061035156,26.29999923706055,3500.0
2020-08-04,26.5,26.5,26.5,26.5,0.0
2020-08-05,26.78000068664551,26.78000068664551,26.78000068664551,26.78000068664551,0.0
2020-08-06,26.78000068664551,26.78000068664551,26.78000068664551,26.78000068664551,0.0
2020-08-07,27.020000457763672,27.020000457763672,27.020000457763672,27.020000457763672,0.0
2020-08-25,218.3999938964844,217.6000061035156,217.6000061035156,217.8000030517578,2050.0
