Date,Open,High,Low,Close,Volume
2012-10-16,1.62,1.67,1.62,1.66,1358000
2012-10-17,1.66,1.7,1.65,1.67,3344000
2012-10-18,1.67,1.77,1.67,1.75,7628000
2012-10-19,1.75,1.75,1.68,1.7,3126000
2012-10-22,1.7,1.73,1.68,1.72,2109712
2012-10-24,1.72,1.76,1.71,1.75,4796000
2012-10-25,1.76,1.77,1.7,1.71,2670000
2012-10-26,1.71,1.71,1.66,1.66,2150000
2012-10-29,1.67,1.69,1.66,1.67,1006000
2012-10-30,1.66,1.69,1.65,1.65,850000
2012-10-31,1.65,1.71,1.65,1.71,1038000
2012-11-01,1.7,1.73,1.67,1.71,2532438
2012-11-02,1.72,1.74,1.71,1.72,6194000
2012-11-05,1.71,1.73,1.7,1.71,3764000
2012-11-06,1.7,1.7,1.67,1.68,2576000
2012-11-07,1.69,1.7,1.67,1.68,2752000
2012-11-08,1.68,1.68,1.64,1.65,2626000
2012-11-09,1.64,1.68,1.63,1.64,1562000
2012-11-12,1.63,1.69,1.63,1.68,3898000
2012-11-13,1.67,1.67,1.63,1.64,2830000
2012-11-14,1.6,1.64,1.6,1.62,2912000
2012-11-15,1.62,1.63,1.6,1.61,1176000
2012-11-16,1.62,1.62,1.6,1.6,406000
2012-11-19,1.62,1.71,1.61,1.69,4824000
2012-11-20,1.7,1.7,1.64,1.66,1410000
2012-11-21,1.67,1.7,1.64,1.65,1074000
2012-11-22,1.66,1.68,1.66,1.68,4736000
2012-11-23,1.7,1.75,1.68,1.75,8010000
2012-11-26,1.77,1.79,1.76,1.76,2752000
2012-11-27,1.77,1.77,1.7,1.71,2022000
2012-11-28,1.71,1.71,1.7,1.7,482000
2012-11-29,1.71,1.74,1.69,1.7,618000
2012-11-30,1.71,1.74,1.71,1.71,874000
2012-12-03,1.71,1.78,1.71,1.75,2515000
2012-12-04,1.73,1.78,1.7,1.76,1460000
2012-12-05,1.76,1.79,1.75,1.76,2432000
2012-12-06,1.83,1.83,1.74,1.74,1480000
2012-12-07,1.74,1.77,1.74,1.77,490000
2012-12-10,1.77,1.85,1.77,1.84,4349000
2012-12-11,1.86,1.86,1.82,1.85,4582000
2012-12-12,1.85,1.89,1.84,1.87,3176000
2012-12-13,1.86,1.87,1.81,1.82,812000
2012-12-14,1.83,1.83,1.78,1.82,3436000
2012-12-17,1.82,1.86,1.82,1.85,2122000
2012-12-18,1.85,1.86,1.82,1.83,1700000
2012-12-19,1.83,1.86,1.82,1.85,2855300
2012-12-20,1.84,1.84,1.81,1.83,862000
2012-12-21,1.84,1.85,1.81,1.81,2180000
2012-12-24,1.81,1.83,1.8,1.81,570000
2012-12-27,1.81,1.85,1.81,1.84,2032000
2012-12-28,1.82,1.83,1.81,1.83,2608800
2012-12-31,1.84,1.85,1.81,1.84,944000
2013-01-02,1.85,1.9,1.83,1.9,4084000
2013-01-03,1.9,1.92,1.87,1.89,6145000
2013-01-04,1.89,1.9,1.87,1.89,1654000
2013-01-07,1.89,1.92,1.88,1.91,5588000
2013-01-08,1.9,1.93,1.89,1.9,2239000
2013-01-09,1.91,1.93,1.9,1.91,2552000
2013-01-10,1.91,2.0,1.91,1.99,10254000
2013-01-11,2.01,2.01,1.94,1.95,3230000
2013-01-14,1.95,1.95,1.92,1.95,3844000
2013-01-15,1.95,1.98,1.94,1.95,3393590
2013-01-16,1.98,1.98,1.9,1.94,5096000
2013-01-17,1.93,1.94,1.86,1.87,5692000
2013-01-18,1.89,1.92,1.89,1.91,4260410
2013-01-21,1.92,1.93,1.91,1.93,1484000
2013-01-22,1.92,1.94,1.92,1.94,2374000
2013-01-23,1.95,1.95,1.9,1.91,2914000
2013-01-24,1.91,1.92,1.87,1.88,2798000
2013-01-25,1.88,1.88,1.82,1.82,3436000
2013-01-28,1.81,1.87,1.81,1.86,1672000
2013-01-29,1.85,1.92,1.83,1.9,2174000
2013-01-30,1.9,1.94,1.9,1.94,2894000
2013-01-31,1.93,1.95,1.9,1.95,2319000
2013-02-01,1.94,1.98,1.91,1.97,2852000
2013-02-04,1.96,1.98,1.92,1.94,2089000
2013-02-05,1.91,1.94,1.9,1.91,1468000
2013-02-06,1.91,1.95,1.91,1.94,610000
2013-02-07,1.94,1.95,1.84,1.86,2520000
2013-02-08,1.86,1.94,1.86,1.93,1586000
2013-02-14,1.93,1.93,1.89,1.93,968000
2013-02-15,1.92,1.93,1.9,1.93,450000
2013-02-18,1.9,1.92,1.89,1.9,764000
2013-02-19,1.92,1.93,1.88,1.89,1336000
2013-02-20,1.89,1.92,1.89,1.91,1024000
2013-02-21,1.91,1.91,1.88,1.88,1546000
2013-02-22,1.86,1.88,1.82,1.86,2758000
2013-02-25,1.85,1.86,1.84,1.85,924000
2013-02-26,1.82,1.85,1.81,1.82,1364000
2013-02-27,1.8,1.84,1.79,1.79,1656000
2013-02-28,1.81,1.87,1.81,1.87,2152000
2013-03-01,1.86,1.87,1.84,1.84,322000
2013-03-04,1.83,1.89,1.79,1.82,2004000
2013-03-05,1.81,1.88,1.81,1.85,1612500
2013-03-06,1.84,1.89,1.84,1.87,3542000
2013-03-07,1.87,1.91,1.86,1.89,6060000
2013-03-08,1.88,1.89,1.84,1.87,4324320
2013-03-11,1.85,1.88,1.85,1.85,1440000
2013-03-12,1.84,1.88,1.84,1.86,2848000
2013-03-13,1.85,1.86,1.75,1.77,2988000
2013-03-14,1.78,1.79,1.75,1.79,1448000
2013-03-15,1.82,1.83,1.78,1.78,2434000
2013-03-18,1.8,1.82,1.75,1.78,2774000
2013-03-19,1.77,1.8,1.75,1.79,4154000
2013-03-20,1.79,1.85,1.79,1.85,2639000
2013-03-21,1.85,1.86,1.83,1.85,534000
2013-03-22,1.82,1.85,1.81,1.81,537350
2013-03-25,1.84,1.85,1.82,1.82,478000
2013-03-26,1.82,1.84,1.81,1.81,1396000
2013-03-27,1.81,1.83,1.77,1.77,2782000
2013-03-28,1.77,1.8,1.75,1.8,1038000
2013-04-02,1.8,1.8,1.75,1.77,834000
2013-04-03,1.77,1.79,1.76,1.78,2052000
2013-04-05,1.76,1.78,1.67,1.68,4208000
2013-04-08,1.68,1.7,1.62,1.67,2838000
2013-04-09,1.67,1.71,1.67,1.7,498000
2013-04-10,1.7,1.72,1.68,1.68,1572000
2013-04-11,1.68,1.71,1.68,1.69,1770000
2013-04-12,1.7,1.71,1.69,1.7,518000
2013-04-15,1.7,1.71,1.69,1.69,1436000
2013-04-16,1.68,1.7,1.67,1.7,204000
2013-04-17,1.71,1.71,1.66,1.69,1062000
2013-04-18,1.66,1.69,1.66,1.67,540000
2013-04-19,1.69,1.69,1.68,1.69,126000
2013-04-22,1.68,1.7,1.67,1.68,278000
2013-04-23,1.68,1.7,1.68,1.7,596000
2013-04-24,1.7,1.71,1.66,1.68,2898100
2013-04-25,1.66,1.7,1.66,1.7,1686000
2013-04-26,1.7,1.71,1.68,1.7,884000
2013-04-29,1.69,1.71,1.68,1.7,428000
2013-04-30,1.71,1.71,1.69,1.7,1074775
2013-05-02,1.69,1.71,1.68,1.7,1792000
2013-05-03,1.7,1.7,1.68,1.69,2170000
2013-05-06,1.72,1.72,1.68,1.72,2844000
2013-05-07,1.75,1.76,1.7,1.75,1978000
2013-05-08,1.75,1.76,1.72,1.75,4704000
2013-05-09,1.77,1.82,1.71,1.82,7160000
2013-05-10,1.83,1.84,1.81,1.82,286000
2013-05-13,1.86,1.86,1.8,1.81,906000
2013-05-14,1.81,1.81,1.75,1.8,166000
2013-05-15,1.8,1.81,1.77,1.78,416000
2013-05-16,1.78,1.8,1.77,1.79,2340000
2013-05-20,1.79,1.83,1.79,1.8,1164000
2013-05-21,1.79,1.83,1.78,1.83,1674000
2013-05-22,1.8,1.83,1.8,1.82,2080000
2013-05-23,1.8,1.8,1.77,1.78,676000
2013-05-24,1.78,1.78,1.73,1.77,770000
2013-05-27,1.76,1.78,1.75,1.75,2144000
2013-05-28,1.74,1.75,1.72,1.75,1868000
2013-05-29,1.76,1.77,1.75,1.77,508650
2013-05-30,1.77,1.77,1.73,1.74,178007
2013-05-31,1.75,1.76,1.74,1.76,374002
2013-06-03,1.72,1.77,1.72,1.75,456002
2013-06-04,1.72,1.75,1.72,1.72,753800
2013-06-05,1.75,1.75,1.72,1.74,800000
2013-06-06,1.72,1.73,1.68,1.69,1780000
2013-06-07,1.69,1.69,1.65,1.68,2604000
2013-06-10,1.67,1.72,1.67,1.7,1281000
2013-06-11,1.72,1.72,1.66,1.67,474000
2013-06-13,1.65,1.65,1.61,1.62,1835155
2013-06-14,1.6,1.66,1.6,1.64,712000
2013-06-17,1.64,1.67,1.64,1.67,290000
2013-06-18,1.67,1.67,1.62,1.63,1354000
2013-06-19,1.66,1.66,1.56,1.58,3318000
2013-06-20,1.56,1.6,1.56,1.59,2930000
2013-06-21,1.55,1.72,1.55,1.71,3960000
2013-06-24,1.63,1.63,1.55,1.56,4962000
2013-06-25,1.56,1.57,1.46,1.48,7712017
2013-06-26,1.53,1.54,1.49,1.52,5028188
2013-06-27,1.53,1.56,1.5,1.5,5665000
2013-06-28,1.5,1.53,1.5,1.5,2086000
2013-07-02,1.51,1.55,1.5,1.53,452000
2013-07-03,1.53,1.54,1.46,1.47,2862000
2013-07-04,1.4,1.44,1.4,1.42,2808000
2013-07-05,1.41,1.45,1.41,1.42,1836000
2013-07-08,1.42,1.45,1.39,1.42,1921104
2013-07-09,1.41,1.44,1.4,1.42,1150000
2013-07-10,1.41,1.44,1.4,1.43,1498000
2013-07-11,1.43,1.48,1.42,1.47,1104000
2013-07-12,1.46,1.51,1.46,1.5,2728000
2013-07-15,1.49,1.52,1.48,1.51,542000
2013-07-16,1.5,1.52,1.49,1.51,478000
2013-07-17,1.5,1.53,1.5,1.5,664000
2013-07-18,1.53,1.53,1.5,1.5,478000
2013-07-19,1.5,1.53,1.49,1.51,632000
2013-07-22,1.51,1.55,1.51,1.51,126000
2013-07-23,1.52,1.55,1.52,1.55,472000
2013-07-24,1.54,1.57,1.51,1.53,686000
2013-07-25,1.52,1.54,1.52,1.54,450005
2013-07-26,1.55,1.6,1.55,1.57,1226000
2013-07-29,1.57,1.58,1.54,1.55,1584000
2013-07-30,1.54,1.55,1.53,1.55,536000
2013-07-31,1.53,1.58,1.53,1.55,812000
2013-08-01,1.55,1.58,1.52,1.55,700000
2013-08-02,1.55,1.58,1.5,1.56,1077731
2013-08-05,1.56,1.58,1.55,1.57,575000
2013-08-06,1.58,1.58,1.53,1.55,948000
2013-08-07,1.54,1.55,1.5,1.51,1506000
2013-08-08,1.52,1.54,1.5,1.53,950000
2013-08-09,1.52,1.55,1.49,1.54,612000
2013-08-12,1.53,1.6,1.53,1.6,938000
2013-08-13,1.6,1.62,1.58,1.6,1256000
2013-08-15,1.59,1.65,1.56,1.6,1710000
2013-08-16,1.58,1.61,1.58,1.6,518996
2013-08-19,1.6,1.65,1.57,1.65,2576000
2013-08-20,1.69,1.69,1.6,1.6,932000
2013-08-21,1.6,1.61,1.56,1.58,1114000
2013-08-22,1.56,1.61,1.56,1.6,910000
2013-08-23,1.6,1.6,1.59,1.6,1234000
2013-08-26,1.58,1.64,1.58,1.63,2494000
2013-08-27,1.61,1.63,1.6,1.62,2504000
2013-08-28,1.59,1.62,1.59,1.62,3184000
2013-08-29,1.68,1.74,1.62,1.74,5790000
2013-08-30,1.72,1.83,1.7,1.79,15000000
2013-09-02,1.82,1.84,1.74,1.76,3478000
2013-09-03,1.76,1.76,1.73,1.75,2292000
2013-09-04,1.74,1.75,1.72,1.74,3788000
2013-09-05,1.75,1.76,1.72,1.75,2896000
2013-09-06,1.75,1.76,1.7,1.74,4036000
2013-09-09,1.74,1.8,1.74,1.77,8051000
2013-09-10,1.79,1.87,1.78,1.87,10364039
2013-09-11,1.9,1.9,1.83,1.85,17052004
2013-09-12,1.84,1.85,1.81,1.83,6290000
2013-09-13,1.82,1.82,1.77,1.79,2390000
2013-09-16,1.8,1.82,1.76,1.78,3390000
2013-09-17,1.78,1.85,1.76,1.84,5816000
2013-09-18,1.87,1.87,1.84,1.85,3956000
2013-09-19,1.87,1.87,1.79,1.8,6988000
2013-09-23,1.79,1.8,1.79,1.8,270000
2013-09-24,1.8,1.82,1.79,1.8,534000
2013-09-25,1.82,1.82,1.78,1.8,1694000
2013-09-26,1.8,1.8,1.78,1.79,2370000
2013-09-27,1.8,1.8,1.76,1.78,1590000
2013-09-30,1.77,1.8,1.74,1.75,3904000
2013-10-02,1.74,1.78,1.74,1.76,1011000
2013-10-03,1.77,1.8,1.76,1.79,1776000
2013-10-04,1.79,1.79,1.76,1.77,1408000
2013-10-07,1.77,1.82,1.76,1.77,3266000
2013-10-08,1.79,1.79,1.76,1.77,3778000
2013-10-09,1.78,1.89,1.78,1.81,12218000
2013-10-10,1.8,1.8,1.76,1.78,3660000
2013-10-11,1.8,1.8,1.77,1.8,1116000
2013-10-15,1.8,1.8,1.79,1.8,1146000
2013-10-16,1.8,1.8,1.76,1.77,1900000
2013-10-17,1.79,1.79,1.72,1.76,3584000
2013-10-18,1.76,1.8,1.76,1.79,2828000
2013-10-21,1.79,1.79,1.78,1.78,2076000
2013-10-22,1.78,1.85,1.78,1.84,13991500
2013-10-23,1.86,1.86,1.8,1.81,5514000
2013-10-24,1.79,1.81,1.78,1.79,1826000
2013-10-25,1.81,1.81,1.77,1.78,1470000
2013-10-28,1.77,1.78,1.76,1.76,728000
2013-10-29,1.78,1.78,1.73,1.77,1350000
2013-10-30,1.82,1.82,1.79,1.8,3060000
2013-10-31,1.8,1.82,1.79,1.8,1156000
2013-11-01,1.79,1.8,1.78,1.8,346000
2013-11-04,1.8,1.81,1.79,1.8,1022000
2013-11-05,1.8,1.81,1.79,1.8,2028000
2013-11-06,1.8,1.81,1.79,1.81,1718000
2013-11-07,1.8,1.84,1.79,1.81,2412000
2013-11-08,1.79,1.82,1.79,1.8,2112000
2013-11-11,1.78,1.8,1.77,1.8,732000
2013-11-12,1.8,1.8,1.79,1.8,978000
2013-11-13,1.79,1.82,1.78,1.81,2448000
2013-11-14,1.82,1.82,1.79,1.8,952000
2013-11-15,1.8,1.82,1.8,1.81,2942000
2013-11-18,1.81,1.84,1.81,1.83,4526000
2013-11-19,1.82,1.86,1.82,1.85,1748000
2013-11-20,1.86,1.94,1.85,1.93,7030000
2013-11-21,1.95,1.95,1.89,1.93,12032000
2013-11-22,1.94,1.95,1.92,1.93,7244000
2013-11-25,1.93,1.98,1.92,1.92,7385000
2013-11-26,1.91,1.96,1.9,1.92,5624000
2013-11-27,1.92,1.93,1.91,1.93,1762000
2013-11-28,1.93,1.95,1.92,1.92,1320000
2013-11-29,1.92,1.93,1.91,1.92,1364000
2013-12-02,1.92,1.94,1.9,1.92,1566000
2013-12-03,1.87,1.92,1.87,1.89,2172000
2013-12-04,1.88,1.98,1.88,1.94,5910000
2013-12-05,1.95,2.04,1.95,2.02,9892000
2013-12-06,2.02,2.02,1.96,1.97,2388000
2013-12-09,2.0,2.02,1.96,1.97,2836000
2013-12-10,1.97,1.97,1.93,1.94,5456000
2013-12-11,1.94,1.97,1.86,1.86,5148000
2013-12-12,1.85,1.91,1.85,1.87,2876000
2013-12-13,1.85,1.9,1.85,1.9,1400000
2013-12-16,1.91,1.92,1.88,1.9,1118000
2013-12-17,1.9,1.93,1.89,1.91,2164000
2013-12-18,1.9,1.94,1.86,1.87,2446000
2013-12-19,1.89,1.91,1.88,1.89,1942000
2013-12-20,1.89,1.91,1.78,1.85,4094000
2013-12-23,1.87,1.9,1.87,1.89,1652000
2013-12-24,1.88,1.92,1.85,1.9,520053
2013-12-27,1.91,1.94,1.89,1.94,2522000
2013-12-30,1.92,1.94,1.91,1.93,2150990
2013-12-31,1.95,1.98,1.92,1.98,2302000
2014-01-02,1.97,1.98,1.95,1.96,998000
2014-01-03,1.96,1.96,1.91,1.94,2202000
2014-01-06,1.92,1.93,1.87,1.9,2436000
2014-01-07,1.9,1.92,1.89,1.91,1857000
2014-01-08,1.91,1.92,1.9,1.92,1006000
2014-01-09,1.91,1.95,1.89,1.9,2066647
2014-01-10,1.9,1.92,1.9,1.9,1454000
2014-01-13,1.91,1.93,1.9,1.92,1459000
2014-01-14,1.9,1.92,1.89,1.9,1482000
2014-01-15,1.89,1.9,1.87,1.87,862000
2014-01-16,1.88,1.88,1.82,1.83,1756000
2014-01-17,1.82,1.86,1.81,1.81,1086000
2014-01-20,1.81,1.82,1.79,1.8,786000
2014-01-21,1.81,1.83,1.81,1.81,244000
2014-01-22,1.81,1.84,1.8,1.82,830000
2014-01-23,1.81,1.81,1.78,1.79,2284000
2014-01-24,1.78,1.8,1.77,1.77,1514000
2014-01-27,1.74,1.75,1.71,1.72,2402000
2014-01-28,1.71,1.72,1.67,1.68,3430000
2014-01-29,1.7,1.73,1.69,1.69,2434000
2014-01-30,1.66,1.7,1.65,1.7,1526500
2014-02-04,1.68,1.77,1.67,1.74,4196000
2014-02-05,1.75,1.75,1.7,1.71,1960000
2014-02-06,1.71,1.73,1.69,1.7,724000
2014-02-07,1.7,1.76,1.7,1.74,2314750
2014-02-10,1.72,1.77,1.72,1.75,1070000
2014-02-11,1.75,1.8,1.74,1.78,1136000
2014-02-12,1.81,1.84,1.79,1.81,1424000
2014-02-13,1.79,1.82,1.79,1.81,624000
2014-02-14,1.83,1.84,1.82,1.83,758000
2014-02-17,1.85,1.9,1.84,1.9,4144000
2014-02-18,1.9,1.9,1.82,1.83,1299000
2014-02-19,1.83,1.83,1.79,1.79,1429000
2014-02-20,1.82,1.84,1.76,1.78,1558000
2014-02-21,1.81,1.81,1.78,1.8,406000
2014-02-24,1.8,1.8,1.75,1.78,578000
2014-02-25,1.78,1.8,1.77,1.77,1936000
2014-02-26,1.79,1.79,1.76,1.77,2272000
2014-02-27,1.77,1.78,1.75,1.77,3832000
2014-02-28,1.76,1.78,1.74,1.75,686000
2014-03-03,1.75,1.75,1.72,1.72,824000
2014-03-04,1.72,1.73,1.69,1.69,3354000
2014-03-05,1.7,1.71,1.68,1.7,1450000
2014-03-06,1.68,1.72,1.68,1.72,1092000
2014-03-07,1.72,1.74,1.72,1.73,668000
2014-03-10,1.71,1.73,1.7,1.72,1068000
2014-03-11,1.72,1.72,1.7,1.7,212000
2014-03-12,1.72,1.72,1.68,1.68,1794000
2014-03-13,1.68,1.71,1.66,1.67,1868000
2014-03-14,1.66,1.69,1.65,1.69,944000
2014-03-17,1.65,1.68,1.65,1.66,1470000
2014-03-18,1.67,1.7,1.66,1.67,2406000
2014-03-19,1.68,1.72,1.68,1.68,3434000
2014-03-20,1.68,1.7,1.66,1.66,1202000
2014-03-21,1.67,1.71,1.66,1.69,2102000
2014-03-24,1.7,1.75,1.68,1.75,3018000
2014-03-25,1.73,1.75,1.7,1.71,522000
2014-03-26,1.72,1.76,1.7,1.73,3380000
2014-03-27,1.78,1.78,1.73,1.74,1126000
2014-03-28,1.73,1.76,1.71,1.71,4448000
2014-03-31,1.73,1.74,1.71,1.74,1029000
2014-04-01,1.73,1.78,1.72,1.77,2678000
2014-04-02,1.78,1.82,1.73,1.79,3108000
2014-04-03,1.79,1.82,1.78,1.79,4042000
2014-04-04,1.79,1.8,1.78,1.78,640000
2014-04-07,1.8,1.8,1.77,1.78,904000
2014-04-08,1.77,1.82,1.77,1.82,2072000
2014-04-09,1.82,1.82,1.79,1.82,1586000
2014-04-10,1.84,2.06,1.8,2.01,42380000
2014-04-11,2.01,2.05,1.95,1.97,14298000
2014-04-14,1.97,2.02,1.91,1.93,6110000
2014-04-15,1.93,1.94,1.84,1.86,6920000
2014-04-16,1.85,1.89,1.85,1.86,2450000
2014-04-17,1.85,1.87,1.84,1.86,3768000
2014-04-22,1.85,1.95,1.85,1.94,7130000
2014-04-23,1.95,1.95,1.89,1.9,2404000
2014-04-24,1.9,1.94,1.9,1.91,1234000
2014-04-25,1.9,1.94,1.9,1.9,2454000
2014-04-28,1.9,1.9,1.85,1.87,2136000
2014-04-29,1.87,1.88,1.83,1.87,3720000
2014-04-30,1.83,1.9,1.81,1.83,4470000
2014-05-02,1.85,1.85,1.81,1.81,3676100
2014-05-05,1.83,1.85,1.81,1.82,4600000
2014-05-07,1.82,1.84,1.78,1.78,2716000
2014-05-08,1.79,1.81,1.77,1.77,3254000
2014-05-09,1.77,1.77,1.74,1.74,1602000
2014-05-12,1.76,1.78,1.75,1.75,2654000
2014-05-13,1.77,1.77,1.76,1.76,1666000
2014-05-14,1.77,1.78,1.75,1.77,2440000
2014-05-15,1.77,1.81,1.76,1.78,988000
2014-05-16,1.78,1.83,1.76,1.83,2340000
2014-05-19,1.83,1.83,1.8,1.81,1179000
2014-05-20,1.81,1.82,1.79,1.82,1330000
2014-05-21,1.82,1.83,1.79,1.79,766000
2014-05-22,1.81,1.81,1.77,1.77,4540000
2014-05-23,1.77,1.78,1.76,1.76,5252000
2014-05-26,1.8,1.8,1.76,1.77,3090000
2014-05-27,1.76,1.77,1.74,1.74,3532000
2014-05-28,1.76,1.76,1.74,1.76,3788000
2014-05-29,1.75,1.75,1.73,1.73,1940000
2014-05-30,1.73,1.75,1.72,1.74,5636000
2014-06-03,1.74,1.75,1.73,1.74,3470000
2014-06-04,1.74,1.74,1.71,1.72,3216000
2014-06-05,1.72,1.74,1.72,1.73,2964000
2014-06-06,1.73,1.74,1.72,1.72,1368000
2014-06-09,1.73,1.76,1.72,1.74,3838000
2014-06-10,1.74,1.75,1.73,1.75,6130000
2014-06-11,1.74,1.82,1.74,1.8,14248000
2014-06-12,1.8,1.81,1.78,1.8,15094000
2014-06-13,1.8,1.84,1.8,1.84,8532000
2014-06-16,1.85,1.91,1.83,1.86,14256000
2014-06-17,1.87,1.87,1.81,1.83,7896000
2014-06-18,1.83,1.85,1.83,1.83,8642000
2014-06-19,1.85,1.85,1.8,1.81,4460000
2014-06-20,1.81,1.84,1.8,1.8,6324000
2014-06-23,1.82,1.83,1.79,1.8,7274000
2014-06-24,1.8,1.83,1.79,1.82,14394000
2014-06-25,1.82,1.83,1.8,1.81,4206000
2014-06-26,1.81,1.83,1.81,1.82,4394000
2014-06-27,1.83,1.85,1.82,1.84,11082000
2014-06-30,1.84,1.87,1.84,1.85,6570000
2014-07-02,1.9,1.99,1.9,1.95,30693896
2014-07-03,0.857,1.0090000000000001,0.857,0.996,207391296
2014-07-04,1.0090000000000001,1.0090000000000001,0.9,0.904,97404896
2014-07-07,0.9,0.935,0.9,0.917,41206800
2014-07-08,0.917,0.917,0.883,0.887,49917000
2014-07-09,0.887,0.9259999999999999,0.878,0.887,53778600
2014-07-10,0.9,0.9440000000000001,0.883,0.9390000000000001,50167600
2014-07-11,0.922,0.9570000000000001,0.922,0.9390000000000001,42827500
2014-07-14,0.9390000000000001,1.013,0.93,0.9740000000000001,117852800
2014-07-15,0.983,0.996,0.9570000000000001,0.983,41117200
2014-07-16,0.987,0.987,0.965,0.97,38178600
2014-07-17,0.97,0.97,0.9520000000000001,0.965,21988700
2014-07-18,0.948,0.978,0.9390000000000001,0.9740000000000001,15649300
2014-07-21,0.9740000000000001,0.978,0.9390000000000001,0.948,24222700
2014-07-22,0.9520000000000001,0.97,0.935,0.961,32459200
2014-07-23,0.965,1.0,0.965,0.987,49989800
2014-07-24,0.983,1.0,0.9740000000000001,0.991,37018500
2014-07-25,0.991,0.996,0.978,0.991,21643000
2014-07-28,0.991,1.052,0.987,1.048,51382000
2014-07-29,1.052,1.07,1.026,1.0390000000000001,28418800
2014-07-30,1.0390000000000001,1.0390000000000001,1.0090000000000001,1.013,24752600
2014-07-31,0.978,0.996,0.965,0.983,18823200
2014-08-01,0.978,0.978,0.9520000000000001,0.9570000000000001,17040600
2014-08-04,0.965,0.987,0.9570000000000001,0.9740000000000001,11253800
2014-08-05,0.983,1.0090000000000001,0.978,0.991,15704400
2014-08-06,0.991,0.991,0.9740000000000001,0.987,14062200
2014-08-07,0.983,0.987,0.965,0.9740000000000001,12507400
2014-08-08,0.9740000000000001,0.9740000000000001,0.948,0.9570000000000001,17384500
2014-08-11,0.961,0.97,0.9520000000000001,0.965,17020500
2014-08-12,0.9570000000000001,1.0,0.9570000000000001,0.991,27671200
2014-08-13,0.987,1.0090000000000001,0.983,1.0,28989200
2014-08-14,1.0,1.0170000000000001,0.987,0.996,14076100
2014-08-15,0.996,1.0090000000000001,0.991,1.0,10972700
2014-08-18,1.0,1.022,0.996,1.004,18717400
2014-08-19,1.0090000000000001,1.013,0.991,1.0,14589100
2014-08-20,1.0,1.052,0.996,1.03,29637800
2014-08-21,1.03,1.03,1.004,1.022,24352400
2014-08-22,1.013,1.074,1.004,1.065,42977800
2014-08-25,1.065,1.113,1.044,1.1,42844400
2014-08-26,1.091,1.122,1.074,1.083,27218200
2014-08-27,1.074,1.083,1.03,1.0390000000000001,17811200
2014-08-28,1.0390000000000001,1.044,0.996,1.0170000000000001,27245800
2014-08-29,1.0,1.0390000000000001,0.991,1.0390000000000001,14549800
2014-09-01,1.0390000000000001,1.074,1.022,1.065,26969800
2014-09-02,1.061,1.139,1.061,1.126,62785300
2014-09-03,1.126,1.139,1.104,1.135,23764700
2014-09-04,1.143,1.178,1.122,1.1740000000000002,24291400
2014-09-05,1.1909999999999998,1.209,1.139,1.196,39509400
2014-09-08,1.2,1.204,1.161,1.1909999999999998,18998000
2014-09-10,1.1909999999999998,1.1909999999999998,1.143,1.165,31105200
2014-09-11,1.1740000000000002,1.226,1.165,1.17,51147400
2014-09-12,1.183,1.213,1.165,1.209,38858800
2014-09-15,1.209,1.213,1.165,1.178,27209600
2014-09-16,1.178,1.178,1.109,1.113,25944000
2014-09-17,1.13,1.196,1.117,1.1740000000000002,44960400
2014-09-18,1.1909999999999998,1.23,1.178,1.178,38865400
2014-09-19,1.187,1.196,1.135,1.1740000000000002,17995200
2014-09-22,1.148,1.187,1.148,1.161,14356600
2014-09-23,1.148,1.183,1.148,1.161,18284300
2014-09-24,1.17,1.183,1.157,1.183,14664100
2014-09-25,1.178,1.204,1.161,1.1740000000000002,33920400
2014-09-26,1.17,1.17,1.135,1.139,25212600
2014-09-29,1.117,1.148,1.083,1.143,29021400
2014-09-30,1.135,1.135,1.087,1.113,24907000
2014-10-03,1.078,1.126,1.078,1.122,12088800
2014-10-06,1.122,1.17,1.122,1.157,18620800
2014-10-07,1.157,1.165,1.135,1.143,15666500
2014-10-08,1.126,1.165,1.126,1.139,17622600
2014-10-09,1.148,1.183,1.143,1.178,36845200
2014-10-10,1.1520000000000001,1.157,1.135,1.143,14177200
2014-10-13,1.135,1.143,1.091,1.122,32287400
2014-10-14,1.117,1.13,1.0959999999999999,1.1,17793800
2014-10-15,1.113,1.13,1.0959999999999999,1.126,9782100
2014-10-16,1.122,1.122,1.1,1.113,9770900
2014-10-17,1.0959999999999999,1.122,1.074,1.091,25662100
2014-10-20,1.0959999999999999,1.13,1.083,1.13,12958200
2014-10-21,1.13,1.143,1.091,1.0959999999999999,11353300
2014-10-22,1.117,1.126,1.104,1.117,8519200
2014-10-23,1.113,1.117,1.091,1.104,9568000
2014-10-24,1.1,1.13,1.1,1.117,12935200
2014-10-27,1.104,1.104,1.044,1.065,36358400
2014-10-28,1.07,1.078,1.061,1.074,13491800
2014-10-29,1.083,1.143,1.07,1.109,34960000
2014-10-30,1.113,1.183,1.1,1.17,37628000
2014-10-31,1.165,1.183,1.139,1.178,22829800
2014-11-03,1.196,1.2,1.165,1.1909999999999998,31882600
2014-11-04,1.178,1.226,1.178,1.2,35682200
2014-11-05,1.196,1.213,1.17,1.196,13061700
2014-11-06,1.187,1.2,1.161,1.1909999999999998,9554200
2014-11-07,1.178,1.244,1.178,1.217,25134400
2014-11-10,1.287,1.587,1.27,1.5090000000000001,181184608
2014-11-11,1.556,1.643,1.444,1.504,163015600
2014-11-12,1.5219999999999998,1.574,1.4480000000000002,1.5130000000000001,94410304
2014-11-13,1.5219999999999998,1.544,1.483,1.5090000000000001,86370000
2014-11-14,1.5,1.517,1.413,1.4909999999999999,88676400
2014-11-17,1.526,1.544,1.304,1.3090000000000002,119772400
2014-11-18,1.3130000000000002,1.339,1.23,1.239,146745104
2014-11-19,1.239,1.3,1.239,1.27,90169104
2014-11-20,1.265,1.2830000000000001,1.248,1.256,34863400
2014-11-21,1.256,1.3130000000000002,1.248,1.296,41535700
2014-11-24,1.3219999999999998,1.33,1.3,1.317,56984700
2014-11-25,1.304,1.317,1.265,1.304,36666600
2014-11-26,1.2830000000000001,1.304,1.274,1.287,26100400
2014-11-27,1.304,1.3259999999999998,1.261,1.261,15548000
2014-11-28,1.265,1.287,1.248,1.252,20920800
2014-12-01,1.244,1.265,1.161,1.165,39136800
2014-12-02,1.165,1.204,1.165,1.183,32733600
2014-12-03,1.196,1.204,1.157,1.165,23519800
2014-12-04,1.1740000000000002,1.239,1.139,1.213,33904300
2014-12-05,1.213,1.23,1.165,1.204,36211200
2014-12-08,1.1909999999999998,1.2830000000000001,1.1909999999999998,1.252,68332896
2014-12-09,1.256,1.3,1.183,1.1909999999999998,80108896
2014-12-10,1.2,1.261,1.1909999999999998,1.256,38660700
2014-12-11,1.239,1.296,1.222,1.248,41648600
2014-12-12,1.261,1.278,1.226,1.248,20736800
2014-12-15,1.248,1.248,1.204,1.209,20345800
2014-12-16,1.209,1.213,1.187,1.196,14476200
2014-12-17,1.196,1.209,1.148,1.165,20580400
2014-12-18,1.187,1.1909999999999998,1.157,1.165,15063100
2014-12-19,1.1740000000000002,1.2,1.157,1.161,18887600
2014-12-22,1.148,1.1740000000000002,1.139,1.143,11840400
2014-12-23,1.157,1.1740000000000002,1.139,1.157,9002200
2014-12-24,1.165,1.1740000000000002,1.1520000000000001,1.161,4379200
2014-12-29,1.1740000000000002,1.178,1.135,1.139,9632400
2014-12-30,1.157,1.157,1.087,1.091,18076900
2014-12-31,1.109,1.113,1.083,1.109,9108000
2015-01-02,1.122,1.139,1.109,1.139,8403600
2015-01-05,1.139,1.2,1.135,1.187,24941200
2015-01-06,1.178,1.222,1.17,1.217,22935600
2015-01-07,1.196,1.217,1.1909999999999998,1.196,12098000
2015-01-08,1.2,1.304,1.187,1.2830000000000001,100763400
2015-01-09,1.287,1.348,1.27,1.3130000000000002,94436800
2015-01-12,1.3259999999999998,1.3259999999999998,1.248,1.261,29624000
2015-01-13,1.261,1.287,1.248,1.248,15372000
2015-01-14,1.244,1.252,1.196,1.209,24656000
2015-01-15,1.204,1.235,1.2,1.213,17163500
2015-01-16,1.217,1.217,1.165,1.1740000000000002,32172400
2015-01-17,2.71,2.71,2.71,2.71,0
2015-01-19,1.1740000000000002,1.183,1.1,1.109,33308600
2015-01-20,1.113,1.183,1.113,1.178,20995500
2015-01-21,1.17,1.213,1.17,1.204,18565600
2015-01-22,1.204,1.226,1.178,1.1909999999999998,17010200
2015-01-23,1.209,1.226,1.196,1.204,20097400
2015-01-26,1.204,1.23,1.1909999999999998,1.23,13142200
2015-01-27,1.239,1.239,1.183,1.196,17940000
2015-01-28,1.183,1.204,1.178,1.183,14278400
2015-01-29,1.178,1.183,1.1520000000000001,1.157,12433800
2015-01-30,1.157,1.1740000000000002,1.1520000000000001,1.157,10009600
2015-02-02,1.1520000000000001,1.1520000000000001,1.126,1.135,10659200
2015-02-03,1.135,1.161,1.126,1.157,9917600
2015-02-04,1.165,1.17,1.135,1.143,5828200
2015-02-05,1.161,1.161,1.117,1.117,7939600
2015-02-06,1.135,1.135,1.087,1.087,11987600
2015-02-09,1.087,1.113,1.087,1.0959999999999999,11743800
2015-02-10,1.0959999999999999,1.109,1.091,1.1,4112400
2015-02-11,1.0959999999999999,1.126,1.087,1.122,5188800
2015-02-12,1.126,1.13,1.113,1.126,4342400
2015-02-13,1.117,1.13,1.113,1.122,6352600
2015-02-16,1.148,1.148,1.122,1.135,5030100
2015-02-17,1.122,1.13,1.104,1.126,5257800
2015-02-18,1.13,1.13,1.113,1.13,1140800
2015-02-23,1.122,1.139,1.113,1.117,1583800
2015-02-24,1.13,1.13,1.109,1.113,3289000
2015-02-25,1.122,1.1909999999999998,1.122,1.183,22967800
2015-02-26,1.183,1.252,1.17,1.235,35101000
2015-02-27,1.235,1.244,1.204,1.226,20815000
2015-03-02,1.239,1.261,1.217,1.217,14568200
2015-03-03,1.204,1.261,1.196,1.222,29076600
2015-03-04,1.235,1.244,1.204,1.23,11477000
2015-03-05,1.217,1.235,1.183,1.2,10649000
2015-03-06,1.1909999999999998,1.239,1.187,1.23,13418200
2015-03-09,1.222,1.239,1.213,1.23,5814400
2015-03-10,1.23,1.244,1.213,1.222,9170100
2015-03-11,1.217,1.226,1.2,1.209,7810800
2015-03-12,1.217,1.217,1.196,1.196,6513600
2015-03-13,1.196,1.213,1.187,1.209,8500800
2015-03-16,1.209,1.222,1.165,1.209,8188000
2015-03-17,1.226,1.235,1.204,1.217,16169000
2015-03-18,1.226,1.2830000000000001,1.209,1.27,42011800
2015-03-19,1.2830000000000001,1.291,1.239,1.256,28832800
2015-03-20,1.244,1.261,1.244,1.256,8335200
2015-03-23,1.261,1.2830000000000001,1.256,1.256,20994400
2015-03-24,1.261,1.2830000000000001,1.244,1.27,18308700
2015-03-25,1.265,1.2830000000000001,1.252,1.256,17861800
2015-03-26,1.252,1.261,1.217,1.222,9411600
2015-03-27,1.23,1.235,1.209,1.226,9844000
2015-03-30,1.274,1.4480000000000002,1.274,1.439,148961696
2015-03-31,1.496,1.517,1.383,1.4169999999999998,88262400
2015-04-01,1.396,1.456,1.391,1.426,34106700
2015-04-02,1.435,1.574,1.43,1.5390000000000001,119411296
2015-04-08,1.609,1.804,1.609,1.796,214164304
2015-04-09,1.874,2.209,1.839,1.87,189458896
2015-04-10,1.926,1.9869999999999999,1.787,1.952,146530592
2015-04-13,2.043,2.122,1.9480000000000002,2.083,113021904
2015-04-14,2.039,2.226,1.965,1.9780000000000002,155914592
2015-04-15,1.97,2.03,1.8259999999999998,1.857,104006400
2015-04-16,1.865,1.9480000000000002,1.83,1.9040000000000001,60673900
2015-04-17,1.926,2.035,1.926,2.009,130340896
2015-04-20,1.9869999999999999,2.039,1.8130000000000002,1.8259999999999998,108855904
2015-04-21,1.891,1.939,1.835,1.87,74433504
2015-04-22,1.9040000000000001,1.956,1.8869999999999998,1.944,43577600
2015-04-23,1.944,2.009,1.93,1.952,71727696
2015-04-24,1.93,1.9609999999999999,1.8519999999999999,1.9,47757200
2015-04-27,1.909,2.009,1.909,1.944,57497600
2015-04-28,1.956,1.9780000000000002,1.896,1.93,37761400
2015-04-29,1.909,1.93,1.865,1.9,37398000
2015-04-30,1.9,1.909,1.839,1.8430000000000002,35907600
2015-05-04,1.8259999999999998,1.9169999999999998,1.8259999999999998,1.891,53615300
2015-05-05,1.909,1.9869999999999999,1.774,1.7830000000000001,49543800
2015-05-06,1.848,1.861,1.643,1.6909999999999998,60483300
2015-05-07,1.6909999999999998,1.6909999999999998,1.548,1.57,56724800
2015-05-08,1.587,1.683,1.587,1.67,42775400
2015-05-11,1.7,1.739,1.6569999999999998,1.722,33101600
2015-05-12,1.722,1.735,1.661,1.683,17190200
2015-05-13,1.6780000000000002,1.713,1.617,1.665,43546000
2015-05-14,1.652,1.6869999999999998,1.635,1.6569999999999998,18952000
2015-05-15,1.665,1.6780000000000002,1.604,1.643,27984500
2015-05-18,1.652,1.6740000000000002,1.626,1.67,23121400
2015-05-19,1.6780000000000002,1.7,1.6569999999999998,1.6869999999999998,22158200
2015-05-20,1.6869999999999998,1.713,1.665,1.696,22540000
2015-05-21,1.683,1.739,1.683,1.722,28239400
2015-05-22,1.739,1.7480000000000002,1.6780000000000002,1.683,24058000
2015-05-26,1.778,1.8869999999999998,1.774,1.848,68374304
2015-05-27,1.861,1.9040000000000001,1.835,1.861,54960800
2015-05-28,1.8869999999999998,1.8869999999999998,1.6869999999999998,1.739,32949800
2015-05-29,1.739,1.77,1.683,1.739,32779600
2015-06-01,1.739,1.87,1.739,1.8519999999999999,43419400
2015-06-02,1.909,1.93,1.817,1.835,48626600
2015-06-03,1.835,1.861,1.765,1.778,22112200
2015-06-04,1.796,1.796,1.7,1.761,17733000
2015-06-05,1.761,1.778,1.713,1.726,21477400
2015-06-08,1.722,1.726,1.6740000000000002,1.709,17834200
2015-06-09,1.709,1.709,1.604,1.6219999999999999,34426400
2015-06-10,1.626,1.6780000000000002,1.587,1.5959999999999999,20253800
2015-06-11,1.609,1.6480000000000001,1.609,1.635,13386000
2015-06-12,1.6480000000000001,1.709,1.643,1.704,20976000
2015-06-15,1.696,1.696,1.6480000000000001,1.661,14214000
2015-06-16,1.643,1.67,1.561,1.578,29405500
2015-06-17,1.6,1.639,1.57,1.63,11780600
2015-06-18,1.63,1.665,1.6130000000000002,1.63,10984800
2015-06-19,1.635,1.6480000000000001,1.57,1.587,11787100
2015-06-22,1.587,1.63,1.565,1.626,4876000
2015-06-23,1.635,1.6869999999999998,1.609,1.6740000000000002,21618800
2015-06-24,1.661,1.6869999999999998,1.652,1.67,14908800
2015-06-25,1.665,1.6909999999999998,1.652,1.6740000000000002,20781600
2015-06-26,1.652,1.665,1.561,1.6,19930700
2015-06-29,1.609,1.626,1.426,1.4869999999999999,26063600
2015-06-30,1.4869999999999999,1.5519999999999998,1.413,1.5219999999999998,24692300
2015-07-02,1.5219999999999998,1.5219999999999998,1.435,1.444,16739400
2015-07-03,1.439,1.439,1.3219999999999998,1.339,38847000
2015-07-06,1.3869999999999998,1.4169999999999998,1.126,1.217,38860800
2015-07-07,1.256,1.256,1.03,1.03,47996400
2015-07-08,0.93,0.996,0.8170000000000001,0.9259999999999999,61971100
2015-07-09,0.917,1.139,0.8909999999999999,1.135,59171000
2015-07-10,1.161,1.248,1.1520000000000001,1.239,49686900
2015-07-13,1.261,1.287,1.196,1.2830000000000001,24145900
2015-07-14,1.2830000000000001,1.296,1.244,1.252,26008400
2015-07-15,1.244,1.261,1.161,1.165,21523400
2015-07-16,1.1740000000000002,1.213,1.135,1.196,14186400
2015-07-17,1.209,1.3,1.165,1.248,29228900
2015-07-20,1.27,1.278,1.226,1.252,12426900
2015-07-21,1.226,1.261,1.226,1.256,9393200
2015-07-22,1.217,1.256,1.217,1.239,10419000
2015-07-23,1.248,1.256,1.226,1.248,12208400
2015-07-24,1.235,1.265,1.23,1.23,8684800
2015-07-27,1.217,1.217,1.1,1.104,15152400
2015-07-28,1.074,1.1740000000000002,1.061,1.122,12834000
2015-07-29,1.165,1.1740000000000002,1.126,1.1740000000000002,5510800
2015-07-30,1.178,1.1909999999999998,1.148,1.1520000000000001,15295000
2015-07-31,1.148,1.1740000000000002,1.139,1.161,10488000
2015-08-03,1.139,1.17,1.122,1.126,6274400
2015-08-04,1.0959999999999999,1.148,1.0959999999999999,1.122,6505000
2015-08-05,1.113,1.148,1.113,1.126,5998400
2015-08-06,1.122,1.135,1.104,1.117,17788200
2015-08-07,1.117,1.209,1.117,1.1909999999999998,30840700
2015-08-10,1.196,1.304,1.196,1.3,56232600
2015-08-11,1.3090000000000002,1.3259999999999998,1.256,1.274,18331000
2015-08-12,1.252,1.261,1.204,1.217,18579400
2015-08-13,1.244,1.256,1.222,1.244,11638000
2015-08-14,1.244,1.287,1.244,1.265,20618700
2015-08-17,1.2830000000000001,1.37,1.265,1.339,38382400
2015-08-18,1.348,1.365,1.235,1.244,34713700
2015-08-19,1.244,1.2830000000000001,1.196,1.235,16465200
2015-08-20,1.226,1.244,1.2,1.213,19808300
2015-08-21,1.148,1.217,1.148,1.1520000000000001,22132600
2015-08-24,1.0959999999999999,1.122,0.97,0.987,28676800
2015-08-25,0.935,1.048,0.917,0.996,39298700
2015-08-26,1.022,1.048,0.9570000000000001,1.0170000000000001,17788200
2015-08-27,1.061,1.104,1.052,1.0959999999999999,22678000
2015-08-28,1.13,1.1520000000000001,1.087,1.104,20608000
2015-08-31,1.0959999999999999,1.126,1.065,1.083,9236800
2015-09-01,1.083,1.087,1.03,1.0390000000000001,4650600
2015-09-02,1.013,1.07,0.9740000000000001,1.0090000000000001,9986600
2015-09-04,1.03,1.061,1.004,1.048,13421700
2015-09-07,1.087,1.0959999999999999,1.035,1.052,11260800
2015-09-08,1.052,1.0959999999999999,1.03,1.083,19421200
2015-09-09,1.1,1.126,1.087,1.122,20888600
2015-09-10,1.0959999999999999,1.109,1.074,1.0959999999999999,13257200
2015-09-11,1.0959999999999999,1.113,1.083,1.091,12064700
2015-09-14,1.104,1.104,1.0390000000000001,1.056,10248800
2015-09-15,1.061,1.074,1.035,1.044,6302000
2015-09-16,1.048,1.078,1.048,1.074,12993900
2015-09-17,1.091,1.122,1.065,1.078,22602100
2015-09-18,1.074,1.117,1.065,1.0959999999999999,55543900
2015-09-21,1.083,1.113,1.074,1.109,14766000
2015-09-22,1.117,1.139,1.1,1.104,18265300
2015-09-23,1.109,1.109,1.056,1.056,12539600
2015-09-24,1.07,1.117,1.065,1.07,18625400
2015-09-25,1.07,1.087,1.056,1.087,7470400
2015-09-29,1.078,1.078,1.013,1.022,11251600
2015-09-30,1.035,1.056,1.022,1.052,3904200
2015-10-02,1.078,1.0959999999999999,1.061,1.0959999999999999,4347000
2015-10-05,1.109,1.126,1.087,1.0959999999999999,3178600
2015-10-06,1.109,1.113,1.087,1.087,1692800
2015-10-07,1.078,1.148,1.078,1.143,9508200
2015-10-08,1.13,1.157,1.104,1.117,16481800
2015-10-09,1.13,1.148,1.117,1.122,10869800
2015-10-12,1.135,1.1740000000000002,1.122,1.157,13643600
2015-10-13,1.161,1.1740000000000002,1.148,1.1520000000000001,12613200
2015-10-14,1.1520000000000001,1.157,1.135,1.1520000000000001,5225700
2015-10-15,1.157,1.2,1.1520000000000001,1.183,14436800
2015-10-16,1.187,1.196,1.1520000000000001,1.1740000000000002,23942300
2015-10-19,1.187,1.239,1.1740000000000002,1.204,25534600
2015-10-20,1.183,1.217,1.183,1.204,10883600
2015-10-22,1.187,1.204,1.1740000000000002,1.2,24996400
2015-10-23,1.217,1.244,1.209,1.222,17485700
2015-10-26,1.244,1.252,1.217,1.239,36123800
2015-10-27,1.235,1.235,1.1909999999999998,1.226,11472400
2015-10-28,1.222,1.239,1.217,1.226,9025200
2015-10-29,1.226,1.235,1.209,1.222,6118000
2015-10-30,1.213,1.222,1.204,1.222,6049000
2015-11-02,1.2,1.217,1.161,1.161,14508400
2015-11-03,1.183,1.183,1.139,1.139,9802600
2015-11-04,1.161,1.213,1.157,1.2,14195600
2015-11-05,1.1909999999999998,1.213,1.1909999999999998,1.204,7355400
2015-11-06,1.2,1.217,1.1909999999999998,1.204,5363600
2015-11-09,1.196,1.3219999999999998,1.178,1.3,59604400
2015-11-10,1.2830000000000001,1.339,1.27,1.33,42824300
2015-11-11,1.339,1.3869999999999998,1.339,1.374,31450200
2015-11-12,1.374,1.413,1.365,1.383,23312800
2015-11-13,1.339,1.391,1.339,1.383,14223200
2015-11-16,1.339,1.374,1.339,1.374,8339800
2015-11-17,1.383,1.439,1.348,1.43,37480800
2015-11-18,1.43,1.444,1.391,1.396,14936200
2015-11-19,1.43,1.4780000000000002,1.4,1.47,29752800
2015-11-20,1.4609999999999999,1.4780000000000002,1.4480000000000002,1.452,10399200
2015-11-23,1.456,1.5219999999999998,1.452,1.47,42828300
2015-11-24,1.4780000000000002,1.5090000000000001,1.435,1.4909999999999999,13767800
2015-11-25,1.4780000000000002,1.5390000000000001,1.456,1.4909999999999999,31745700
2015-11-26,1.5,1.561,1.496,1.517,28570600
2015-11-27,1.517,1.526,1.4609999999999999,1.4869999999999999,21518800
2015-11-30,1.4780000000000002,1.526,1.4609999999999999,1.504,18455200
2015-12-01,1.504,1.526,1.47,1.4869999999999999,15005200
2015-12-02,1.4909999999999999,1.5830000000000002,1.4609999999999999,1.565,42980100
2015-12-03,1.565,1.63,1.565,1.609,31234000
2015-12-04,1.574,1.626,1.574,1.6,4738000
2015-12-07,1.587,1.587,1.5,1.504,11932400
2015-12-08,1.5090000000000001,1.5090000000000001,1.3869999999999998,1.422,25097600
2015-12-09,1.4169999999999998,1.435,1.383,1.422,9857800
2015-12-10,1.426,1.435,1.396,1.396,6766600
2015-12-11,1.396,1.396,1.3259999999999998,1.339,7231200
2015-12-14,1.33,1.383,1.3090000000000002,1.361,5966200
2015-12-15,1.383,1.4169999999999998,1.3259999999999998,1.339,13966700
2015-12-16,1.374,1.544,1.374,1.535,46510600
2015-12-17,1.526,1.556,1.5090000000000001,1.526,23024500
2015-12-18,1.4780000000000002,1.504,1.452,1.496,18245700
2015-12-21,1.4909999999999999,1.587,1.4780000000000002,1.565,27221600
2015-12-22,1.544,1.591,1.526,1.57,20796600
2015-12-23,1.578,1.6130000000000002,1.57,1.6,21061100
2015-12-24,1.587,1.6740000000000002,1.587,1.67,27425200
2015-12-28,1.652,1.709,1.63,1.696,58133400
2015-12-29,1.683,1.739,1.639,1.739,49491400
2015-12-30,1.761,1.77,1.6869999999999998,1.7480000000000002,44914400
2015-12-31,1.739,1.7480000000000002,1.726,1.739,20368800
2016-01-04,1.735,1.735,1.556,1.713,62780700
2016-01-05,1.665,1.713,1.63,1.7,38450200
2016-01-06,1.67,1.696,1.6219999999999999,1.67,32949800
2016-01-07,1.6740000000000002,1.683,1.556,1.6780000000000002,44403800
2016-01-08,1.683,1.6909999999999998,1.626,1.683,38654400
2016-01-11,1.6569999999999998,1.713,1.6219999999999999,1.713,51120400
2016-01-12,1.709,1.709,1.643,1.643,14007900
2016-01-13,1.661,1.6780000000000002,1.561,1.6480000000000001,80803600
2016-01-14,1.587,1.604,1.548,1.556,17327700
2016-01-15,1.574,1.574,1.43,1.444,9710600
2016-01-18,1.383,1.4780000000000002,1.3780000000000001,1.435,10392800
2016-01-19,1.43,1.496,1.426,1.496,4646000
2016-01-20,1.474,1.5,1.4169999999999998,1.452,3302800
2016-01-21,1.452,1.452,1.3,1.3,6403200
2016-01-22,1.361,1.391,1.3219999999999998,1.374,4025000
2016-01-25,1.391,1.4040000000000001,1.361,1.361,938400
2016-01-26,1.361,1.361,1.3219999999999998,1.3259999999999998,3574200
2016-01-27,1.357,1.357,1.274,1.3219999999999998,3446900
2016-01-28,1.304,1.3219999999999998,1.2830000000000001,1.291,3569600
2016-01-29,1.3219999999999998,1.365,1.3,1.3519999999999999,4273400
2016-02-01,1.357,1.365,1.317,1.3259999999999998,2534600
2016-02-02,1.304,1.3430000000000002,1.296,1.3259999999999998,2511600
2016-02-03,1.3130000000000002,1.3130000000000002,1.244,1.256,5685600
2016-02-04,1.3090000000000002,1.3090000000000002,1.27,1.287,1200600
2016-02-05,1.296,1.335,1.27,1.287,2930200
2016-02-11,1.2830000000000001,1.2830000000000001,1.248,1.252,1127000
2016-02-12,1.209,1.23,1.2,1.217,2819800
2016-02-15,1.222,1.265,1.222,1.261,1605400
2016-02-16,1.278,1.3259999999999998,1.261,1.304,3882400
2016-02-17,1.304,1.33,1.2830000000000001,1.287,2746200
2016-02-18,1.3219999999999998,1.3219999999999998,1.2830000000000001,1.3130000000000002,2709400
2016-02-19,1.3090000000000002,1.3130000000000002,1.2830000000000001,1.287,2175800
2016-02-22,1.3,1.3090000000000002,1.296,1.3,920000
2016-02-23,1.3219999999999998,1.3219999999999998,1.291,1.304,2139000
2016-02-24,1.296,1.3130000000000002,1.287,1.291,2302300
2016-02-25,1.296,1.296,1.239,1.244,3367200
2016-02-26,1.27,1.27,1.239,1.252,1495000
2016-02-29,1.274,1.274,1.239,1.244,1922800
2016-03-01,1.248,1.252,1.235,1.252,1168400
2016-03-02,1.27,1.296,1.256,1.261,8537600
2016-03-03,1.296,1.296,1.252,1.261,2610500
2016-03-04,1.274,1.278,1.248,1.27,3413200
2016-03-07,1.278,1.304,1.27,1.287,2407200
2016-03-08,1.296,1.296,1.252,1.274,2231500
2016-03-09,1.261,1.278,1.252,1.256,1485800
2016-03-10,1.265,1.27,1.252,1.261,1168400
2016-03-11,1.27,1.27,1.252,1.265,724000
2016-03-14,1.278,1.3259999999999998,1.261,1.3130000000000002,4752300
2016-03-15,1.3,1.304,1.274,1.291,1495000
2016-03-16,1.2830000000000001,1.291,1.261,1.261,2479400
2016-03-17,1.265,1.2830000000000001,1.235,1.252,8358200
2016-03-18,1.27,1.296,1.27,1.287,8583600
2016-03-21,1.296,1.33,1.296,1.3219999999999998,5428000
2016-03-22,1.3259999999999998,1.3259999999999998,1.287,1.3,3274000
2016-03-23,1.317,1.317,1.291,1.3090000000000002,1447800
2016-03-24,1.287,1.3,1.287,1.296,1283400
2016-03-29,1.5,1.5959999999999999,1.456,1.556,55259800
2016-03-30,1.565,1.63,1.4869999999999999,1.5959999999999999,35284300
2016-03-31,1.6569999999999998,1.761,1.561,1.587,190081504
2016-04-01,1.609,1.609,1.5,1.5130000000000001,27369300
2016-04-05,1.5130000000000001,1.548,1.504,1.53,9411600
2016-04-06,1.4909999999999999,1.5519999999999998,1.4909999999999999,1.5090000000000001,7217400
2016-04-07,1.517,1.53,1.4780000000000002,1.5,5372800
2016-04-08,1.4869999999999999,1.4869999999999999,1.4480000000000002,1.452,5869600
2016-04-11,1.452,1.4869999999999999,1.4480000000000002,1.4609999999999999,4710400
2016-04-12,1.47,1.4869999999999999,1.452,1.483,3854800
2016-04-13,1.483,1.535,1.4780000000000002,1.5130000000000001,10002700
2016-04-14,1.548,1.5519999999999998,1.4909999999999999,1.504,8804400
2016-04-15,1.504,1.5219999999999998,1.496,1.504,9186200
2016-04-18,1.5130000000000001,1.526,1.4909999999999999,1.526,5045400
2016-04-19,1.5390000000000001,1.5390000000000001,1.496,1.5219999999999998,3243000
2016-04-20,1.53,1.53,1.465,1.4869999999999999,5027800
2016-04-21,1.4869999999999999,1.5090000000000001,1.4780000000000002,1.496,3031400
2016-04-22,1.4780000000000002,1.535,1.4780000000000002,1.496,3818000
2016-04-25,1.4909999999999999,1.496,1.47,1.483,1798600
2016-04-26,1.4869999999999999,1.504,1.47,1.4869999999999999,3367200
2016-04-27,1.4780000000000002,1.5,1.4780000000000002,1.496,1278800
2016-04-28,1.4869999999999999,1.5,1.47,1.4780000000000002,4117000
2016-04-29,1.4780000000000002,1.483,1.4609999999999999,1.47,2631200
2016-05-03,1.456,1.474,1.4480000000000002,1.456,1761800
2016-05-04,1.439,1.565,1.439,1.535,7074800
2016-05-05,1.53,1.565,1.4909999999999999,1.496,40641000
2016-05-06,1.5219999999999998,1.609,1.261,1.291,114452496
2016-05-09,1.3,1.357,1.291,1.3519999999999999,13717300
2016-05-10,1.348,1.365,1.335,1.3430000000000002,2162000
2016-05-11,1.365,1.365,1.3430000000000002,1.3430000000000002,3178600
2016-05-12,1.339,1.365,1.33,1.357,3169400
2016-05-13,1.365,1.383,1.335,1.3430000000000002,2484000
2016-05-16,1.339,1.361,1.33,1.3430000000000002,2511600
2016-05-17,1.357,1.357,1.3430000000000002,1.3519999999999999,3210800
2016-05-18,1.339,1.361,1.33,1.3519999999999999,3538600
2016-05-19,1.348,1.4,1.3430000000000002,1.391,4167600
2016-05-20,1.37,1.4169999999999998,1.3130000000000002,1.365,15391600
2016-05-23,1.365,1.4040000000000001,1.365,1.37,4411400
2016-05-24,1.374,1.3869999999999998,1.365,1.374,1357000
2016-05-25,1.391,1.409,1.374,1.3780000000000001,2336800
2016-05-26,1.4040000000000001,1.4040000000000001,1.3780000000000001,1.391,887800
2016-05-27,1.391,1.391,1.3780000000000001,1.3869999999999998,662400
2016-05-30,1.3780000000000001,1.396,1.3780000000000001,1.396,1058000
2016-05-31,1.3780000000000001,1.413,1.3780000000000001,1.413,2125200
2016-06-01,1.426,1.465,1.396,1.4040000000000001,5223300
2016-06-02,1.4,1.4169999999999998,1.3869999999999998,1.4040000000000001,1499600
2016-06-03,1.4,1.4,1.383,1.391,1416900
2016-06-06,1.383,1.3869999999999998,1.361,1.3780000000000001,3749000
2016-06-07,1.413,1.43,1.391,1.413,1660600
2016-06-08,1.413,1.435,1.4,1.435,2438000
2016-06-10,1.435,1.444,1.4040000000000001,1.43,1393800
2016-06-13,1.3869999999999998,1.422,1.3519999999999999,1.37,1932000
2016-06-14,1.3519999999999999,1.391,1.3519999999999999,1.3780000000000001,2139000
2016-06-15,1.3519999999999999,1.396,1.348,1.365,4126200
2016-06-16,1.365,1.3780000000000001,1.357,1.37,2318400
2016-06-17,1.383,1.383,1.365,1.3780000000000001,1651400
2016-06-20,1.391,1.409,1.3780000000000001,1.396,2369000
2016-06-21,1.383,1.413,1.383,1.409,1909000
2016-06-22,1.4040000000000001,1.422,1.4040000000000001,1.4169999999999998,979800
2016-06-23,1.4169999999999998,1.439,1.413,1.422,1858400
2016-06-24,1.413,1.435,1.391,1.4,4094000
2016-06-27,1.391,1.426,1.391,1.4169999999999998,1058000
2016-06-28,1.43,1.4780000000000002,1.409,1.4609999999999999,7194400
2016-06-29,1.4909999999999999,1.5130000000000001,1.4869999999999999,1.5090000000000001,5860400
2016-06-30,1.5130000000000001,1.5219999999999998,1.5090000000000001,1.517,6055900
2016-07-04,1.517,1.517,1.4780000000000002,1.4909999999999999,3003800
2016-07-05,1.5,1.5130000000000001,1.4869999999999999,1.5090000000000001,1876800
2016-07-06,1.496,1.496,1.47,1.4780000000000002,1495000
2016-07-07,1.4909999999999999,1.4909999999999999,1.4780000000000002,1.483,1453600
2016-07-08,1.47,1.4909999999999999,1.4609999999999999,1.4780000000000002,2240200
2016-07-11,1.504,1.504,1.47,1.474,3362600
2016-07-12,1.4909999999999999,1.5130000000000001,1.4780000000000002,1.5,2442600
2016-07-13,1.5130000000000001,1.5219999999999998,1.496,1.5,2286500
2016-07-14,1.4909999999999999,1.5090000000000001,1.4909999999999999,1.5090000000000001,2295400
2016-07-15,1.5130000000000001,1.5130000000000001,1.4780000000000002,1.4909999999999999,3693800
2016-07-18,1.5,1.5,1.483,1.4909999999999999,5083000
2016-07-19,1.496,1.504,1.483,1.504,2171200
2016-07-20,1.5130000000000001,1.526,1.5130000000000001,1.517,4321700
2016-07-21,1.5219999999999998,1.574,1.5219999999999998,1.57,5510800
2016-07-22,1.578,1.587,1.556,1.561,6743600
2016-07-25,1.57,1.69,1.54,1.61,12350800
2016-07-26,1.61,1.63,1.6,1.62,2630600
2016-07-27,1.63,1.64,1.6,1.64,1896000
2016-07-28,1.63,1.63,1.59,1.6,812000
2016-07-29,1.57,1.66,1.56,1.63,2345400
2016-08-01,1.64,1.64,1.59,1.61,1352400
2016-08-03,1.61,1.61,1.57,1.59,1328000
2016-08-04,1.59,1.61,1.59,1.59,812000
2016-08-05,1.58,1.59,1.55,1.58,2170000
2016-08-08,1.58,1.61,1.57,1.58,1168000
2016-08-09,1.58,1.61,1.58,1.6,1224000
2016-08-10,1.64,1.64,1.59,1.59,1508000
2016-08-11,1.62,1.66,1.59,1.64,2527000
2016-08-12,1.64,1.65,1.6,1.6,6724000
2016-08-15,1.6,1.62,1.58,1.61,2631900
2016-08-16,1.59,1.62,1.57,1.59,6462100
2016-08-17,1.59,1.61,1.58,1.59,3449200
2016-08-18,1.59,1.6,1.56,1.58,3579000
2016-08-19,1.59,1.6,1.56,1.56,3031000
2016-08-22,1.57,1.58,1.52,1.53,1732400
2016-08-23,1.53,1.54,1.51,1.51,1265200
2016-08-24,1.51,1.55,1.5,1.53,2617000
2016-08-25,1.53,1.56,1.52,1.54,2313400
2016-08-26,1.53,1.53,1.51,1.51,966800
2016-08-29,1.51,1.52,1.49,1.51,1713600
2016-08-30,1.51,1.51,1.42,1.49,2735400
2016-08-31,1.49,1.49,1.46,1.48,2352000
2016-09-01,1.47,1.49,1.46,1.49,2914400
2016-09-02,1.49,1.5,1.47,1.49,2923800
2016-09-05,1.49,1.49,1.45,1.47,3115600
2016-09-06,1.48,1.5,1.47,1.49,6618400
2016-09-07,1.49,1.49,1.47,1.47,7291000
2016-09-08,1.47,1.5,1.47,1.5,4397400
2016-09-09,1.5,1.56,1.49,1.51,24539000
2016-09-12,1.48,1.5,1.42,1.44,7155451
2016-09-13,1.45,1.45,1.41,1.42,2002620
2016-09-14,1.41,1.41,1.39,1.41,1510600
2016-09-15,1.41,1.43,1.41,1.43,1048440
2016-09-19,1.42,1.44,1.41,1.43,1243800
2016-09-20,1.43,1.45,1.41,1.45,2217000
2016-09-21,1.45,1.45,1.42,1.43,1448200
2016-09-22,1.44,1.45,1.41,1.42,2450800
2016-09-23,1.42,1.43,1.41,1.41,1765000
2016-09-26,1.41,1.42,1.38,1.39,1642200
2016-09-27,1.37,1.41,1.37,1.39,1125600
2016-09-28,1.39,1.39,1.36,1.37,2383200
2016-09-29,1.37,1.4,1.37,1.38,537400
2016-09-30,1.36,1.38,1.34,1.34,2277600
2016-10-03,1.35,1.37,1.34,1.35,5144395
2016-10-04,1.36,1.38,1.34,1.37,972400
2016-10-05,1.35,1.46,1.35,1.4,5176800
2016-10-06,1.4,1.42,1.38,1.39,3523721
2016-10-07,1.39,1.41,1.39,1.4,1716100
2016-10-11,1.43,1.45,1.42,1.42,7554800
2016-10-12,1.41,1.44,1.37,1.42,7636800
2016-10-13,1.43,1.43,1.39,1.4,4125800
2016-10-14,1.4,1.43,1.4,1.42,2532600
2016-10-17,1.42,1.42,1.4,1.42,1533200
2016-10-18,1.42,1.42,1.4,1.42,2106000
2016-10-19,1.41,1.43,1.4,1.42,2576069
2016-10-20,1.42,1.45,1.39,1.45,9174200
2016-10-24,1.45,1.45,1.39,1.41,6450600
2016-10-25,1.4,1.43,1.4,1.4,2592000
2016-10-26,1.41,1.42,1.4,1.4,1858200
2016-10-27,1.4,1.42,1.39,1.39,2469800
2016-10-28,1.4,1.42,1.4,1.41,2105800
2016-10-31,1.4,1.4,1.39,1.39,651000
2016-11-01,1.39,1.41,1.39,1.39,1050000
2016-11-02,1.39,1.4,1.38,1.38,1819600
2016-11-03,1.38,1.39,1.38,1.38,1194400
2016-11-04,1.38,1.39,1.37,1.37,756800
2016-11-07,1.37,1.38,1.35,1.38,1710200
2016-11-08,1.38,1.39,1.35,1.36,3006300
2016-11-09,1.37,1.37,1.32,1.34,4559600
2016-11-10,1.36,1.36,1.33,1.34,3422400
2016-11-11,1.34,1.37,1.33,1.34,2624000
2016-11-14,1.34,1.43,1.34,1.42,9849400
2016-11-15,1.45,1.5,1.45,1.48,21820200
2016-11-16,1.5,1.53,1.45,1.49,24798400
2016-11-17,1.5,1.54,1.44,1.46,18072000
2016-11-18,1.45,1.5,1.45,1.47,9924200
2016-11-21,1.47,1.5,1.45,1.47,2720000
2016-11-22,1.46,1.47,1.44,1.47,6261200
2016-11-23,1.47,1.47,1.43,1.45,4086001
2016-11-24,1.45,1.46,1.44,1.46,1429800
2016-11-25,1.46,1.46,1.42,1.44,4859600
2016-11-28,1.47,1.47,1.43,1.44,11698200
2016-11-29,1.44,1.45,1.41,1.43,5806800
2016-11-30,1.44,1.44,1.39,1.42,6180400
2016-12-01,1.43,1.43,1.41,1.43,1556600
2016-12-02,1.42,1.42,1.4,1.41,1224000
2016-12-05,1.4,1.42,1.37,1.37,3561400
2016-12-06,1.38,1.4,1.36,1.36,6223000
2016-12-07,1.37,1.41,1.36,1.39,3749600
2016-12-08,1.41,1.42,1.38,1.39,2215800
2016-12-09,1.39,1.4,1.38,1.38,1734000
2016-12-12,1.4,1.4,1.35,1.36,4339600
2016-12-13,1.36,1.38,1.35,1.37,1953800
2016-12-14,1.37,1.38,1.35,1.36,1109400
2016-12-15,1.35,1.38,1.34,1.37,3115456
2016-12-16,1.37,1.42,1.35,1.39,6519510
2016-12-19,1.39,1.4,1.36,1.4,1777800
2016-12-20,1.39,1.43,1.38,1.4,3733601
2016-12-21,1.4,1.41,1.38,1.39,2054200
2016-12-22,1.4,1.4,1.37,1.38,1178400
2016-12-23,1.36,1.37,1.35,1.36,2773800
2016-12-28,1.37,1.37,1.34,1.35,1444000
2016-12-29,1.34,1.36,1.34,1.35,1311045
2016-12-30,1.36,1.37,1.35,1.37,1519400
2017-01-03,1.35,1.38,1.35,1.36,873200
2017-01-04,1.36,1.38,1.36,1.37,844600
2017-01-05,1.36,1.39,1.36,1.37,1398800
2017-01-06,1.37,1.39,1.36,1.37,1991732
2017-01-09,1.37,1.39,1.36,1.37,1210400
2017-01-10,1.36,1.37,1.36,1.36,933600
2017-01-11,1.36,1.37,1.35,1.35,3118000
2017-01-12,1.35,1.38,1.35,1.36,1189000
2017-01-13,1.36,1.37,1.36,1.37,543000
2017-01-16,1.37,1.37,1.35,1.35,2378200
2017-01-17,1.35,1.36,1.35,1.35,635150
2017-01-18,1.36,1.38,1.35,1.36,3494000
2017-01-19,1.37,1.37,1.34,1.35,1731400
2017-01-20,1.35,1.37,1.35,1.35,2076200
2017-01-23,1.37,1.38,1.36,1.38,1571400
2017-01-24,1.38,1.38,1.36,1.38,1180200
2017-01-25,1.38,1.38,1.35,1.36,1556400
2017-01-26,1.37,1.37,1.35,1.36,1376104
2017-01-27,1.36,1.36,1.35,1.35,191800
2017-02-01,1.35,1.36,1.34,1.35,643400
2017-02-02,1.35,1.37,1.34,1.36,536800
2017-02-03,1.36,1.37,1.34,1.35,1353043
2017-02-06,1.36,1.37,1.35,1.36,1165200
2017-02-07,1.36,1.36,1.35,1.35,2205000
2017-02-08,1.35,1.38,1.35,1.38,2015400
2017-02-09,1.38,1.42,1.38,1.4,5728400
2017-02-10,1.41,1.46,1.4,1.45,15931800
2017-02-13,1.45,1.46,1.43,1.44,6028800
2017-02-14,1.45,1.46,1.44,1.46,9171200
2017-02-15,1.46,1.48,1.44,1.46,6203000
2017-02-16,1.46,1.47,1.44,1.45,4550600
2017-02-17,1.46,1.48,1.45,1.47,7843200
2017-02-20,1.47,1.48,1.46,1.47,3937400
2017-02-21,1.47,1.48,1.43,1.45,4912600
2017-02-22,1.46,1.47,1.45,1.46,4553600
2017-02-23,1.46,1.52,1.45,1.5,24886000
2017-02-24,1.5,1.5,1.46,1.48,6528804
2017-02-27,1.48,1.49,1.46,1.49,3404200
2017-02-28,1.49,1.49,1.45,1.47,2371200
2017-03-01,1.48,1.48,1.45,1.46,4656400
2017-03-02,1.46,1.48,1.45,1.46,2086200
2017-03-03,1.46,1.47,1.43,1.45,3130800
2017-03-06,1.47,1.47,1.43,1.45,6009000
2017-03-07,1.44,1.46,1.44,1.44,1668800
2017-03-08,1.44,1.46,1.43,1.44,3281000
2017-03-09,1.44,1.45,1.4,1.4,3602000
2017-03-10,1.4,1.42,1.39,1.4,4399800
2017-03-13,1.4,1.43,1.39,1.43,1744000
2017-03-14,1.43,1.43,1.4,1.41,5493000
2017-03-15,1.4,1.42,1.4,1.41,1804200
2017-03-16,1.42,1.44,1.4,1.44,7796342
2017-03-17,1.43,1.44,1.4,1.42,7693400
2017-03-20,1.42,1.45,1.41,1.44,3218400
2017-03-21,1.44,1.47,1.42,1.46,6684700
2017-03-22,1.45,1.45,1.42,1.43,3391400
2017-03-23,1.43,1.45,1.42,1.43,1869800
2017-03-24,1.45,1.46,1.43,1.44,3386600
2017-03-27,1.45,1.48,1.44,1.44,5823200
2017-03-28,1.45,1.45,1.42,1.43,1937400
2017-03-29,1.44,1.52,1.43,1.49,41205800
2017-03-30,1.49,1.53,1.46,1.47,11169369
2017-03-31,1.48,1.48,1.44,1.45,1790600
2017-04-03,1.45,1.5,1.45,1.46,3146400
2017-04-05,1.46,1.49,1.45,1.46,4983000
2017-04-06,1.45,1.5,1.44,1.46,9004400
2017-04-07,1.46,1.48,1.45,1.46,3467377
2017-04-10,1.46,1.48,1.45,1.45,4124400
2017-04-11,1.45,1.48,1.45,1.47,6179600
2017-04-12,1.47,1.47,1.44,1.47,6049000
2017-04-13,1.47,1.47,1.45,1.45,3309400
2017-04-18,1.45,1.45,1.38,1.4,7012000
2017-04-19,1.4,1.42,1.37,1.37,5090400
2017-04-20,1.38,1.41,1.37,1.41,3418600
2017-04-21,1.4,1.41,1.39,1.4,2482000
2017-04-24,1.41,1.42,1.38,1.38,2277847
2017-04-25,1.39,1.4,1.38,1.39,1402400
2017-04-26,1.39,1.4,1.38,1.4,1398200
2017-04-27,1.39,1.39,1.38,1.39,3912999
2017-04-28,1.39,1.4,1.38,1.38,2055800
2017-05-02,1.39,1.41,1.38,1.38,3852400
2017-05-04,1.38,1.39,1.37,1.38,2950600
2017-05-05,1.38,1.39,1.35,1.36,5166200
2017-05-08,1.36,1.37,1.35,1.36,2546600
2017-05-09,1.36,1.38,1.36,1.36,1754200
2017-05-10,1.37,1.38,1.36,1.38,2072600
2017-05-11,1.38,1.38,1.35,1.35,4353800
2017-05-12,1.36,1.37,1.35,1.37,3621200
2017-05-15,1.37,1.38,1.36,1.36,828600
2017-05-16,1.36,1.37,1.35,1.36,2376600
2017-05-17,1.36,1.37,1.36,1.36,918400
2017-05-18,1.35,1.37,1.34,1.34,3310000
2017-05-19,1.35,1.36,1.33,1.34,5843000
2017-05-22,1.34,1.35,1.34,1.34,2329800
2017-05-23,1.35,1.37,1.34,1.35,5186200
2017-05-24,1.35,1.35,1.33,1.33,1894000
2017-05-25,1.36,1.38,1.33,1.37,2102145
2017-05-26,1.35,1.38,1.35,1.36,793600
2017-05-29,1.36,1.36,1.33,1.35,1437600
2017-05-31,1.35,1.36,1.34,1.36,1609000
2017-06-01,1.35,1.36,1.33,1.35,2941059
2017-06-02,1.34,1.36,1.34,1.35,2524000
2017-06-05,1.35,1.35,1.33,1.35,656200
2017-06-06,1.35,1.36,1.34,1.35,933200
2017-06-07,1.36,1.37,1.34,1.37,3613600
2017-06-08,1.37,1.37,1.36,1.36,1602000
2017-06-09,1.36,1.37,1.35,1.36,2074000
2017-06-12,1.35,1.36,1.34,1.35,1332600
2017-06-14,1.49,1.63,1.45,1.57,98050000
2017-06-15,1.56,1.57,1.43,1.45,26018600
2017-06-16,1.45,1.49,1.4,1.49,14238000
2017-06-19,1.49,1.52,1.46,1.49,9096800
2017-06-20,1.48,1.48,1.45,1.45,3175200
2017-06-21,1.48,1.48,1.45,1.46,2850012
2017-06-22,1.46,1.46,1.39,1.43,9316200
2017-06-23,1.45,1.45,1.42,1.44,3090400
2017-06-26,1.42,1.5,1.42,1.48,9422400
2017-06-27,1.48,1.5,1.47,1.49,6597400
2017-06-28,1.47,1.5,1.46,1.47,6276400
2017-06-29,1.47,1.49,1.46,1.47,2355800
2017-06-30,1.46,1.47,1.45,1.45,2611800
2017-07-03,1.45,1.47,1.44,1.45,1657800
2017-07-04,1.44,1.46,1.42,1.42,4363000
2017-07-05,1.42,1.44,1.42,1.43,895000
2017-07-06,1.43,1.47,1.43,1.45,2795800
2017-07-07,1.45,1.46,1.42,1.44,1443200
2017-07-10,1.44,1.45,1.43,1.43,1027200
2017-07-11,1.43,1.45,1.42,1.44,2536800
2017-07-12,1.42,1.44,1.42,1.44,2663600
2017-07-13,1.44,1.46,1.4,1.42,7566800
2017-07-14,1.42,1.44,1.42,1.42,3950600
2017-07-17,1.42,1.44,1.4,1.42,3410600
2017-07-18,1.42,1.44,1.41,1.43,2418800
2017-07-19,1.43,1.43,1.41,1.43,2892995
2017-07-20,1.42,1.44,1.42,1.42,2204095
2017-07-21,1.42,1.46,1.42,1.43,3734200
2017-07-24,1.43,1.44,1.42,1.43,1817400
2017-07-25,1.43,1.45,1.43,1.44,1712112
2017-07-26,1.43,1.44,1.41,1.41,3166000
2017-07-27,1.42,1.44,1.42,1.42,2585600
2017-07-28,1.42,1.43,1.42,1.42,995200
2017-07-31,1.42,1.43,1.42,1.43,1237200
2017-08-01,1.43,1.43,1.42,1.43,1428800
2017-08-02,1.42,1.46,1.42,1.43,3287400
2017-08-03,1.44,1.45,1.43,1.43,1181200
2017-08-04,1.44,1.46,1.43,1.45,3875000
2017-08-07,1.45,1.5,1.45,1.48,6419000
2017-08-08,1.48,1.48,1.45,1.47,4853800
2017-08-09,1.46,1.47,1.45,1.47,2359600
2017-08-10,1.46,1.46,1.42,1.43,2789000
2017-08-11,1.42,1.42,1.39,1.4,3898000
2017-08-14,1.4,1.42,1.4,1.4,1400000
2017-08-15,1.39,1.41,1.39,1.41,1138800
2017-08-16,1.4,1.42,1.4,1.41,2208800
2017-08-17,1.4,1.43,1.4,1.41,3005800
2017-08-18,1.4,1.42,1.4,1.4,1222400
2017-08-21,1.39,1.41,1.39,1.4,504100
2017-08-22,1.4,1.42,1.39,1.42,1751400
2017-08-24,1.42,1.42,1.4,1.41,1936600
2017-08-25,1.41,1.42,1.4,1.41,2630200
2017-08-28,1.41,1.42,1.4,1.41,2003600
2017-08-29,1.41,1.42,1.41,1.41,3010977
2017-08-30,1.41,1.42,1.39,1.42,5380600
2017-08-31,1.41,1.42,1.4,1.4,1500800
2017-09-01,1.4,1.41,1.39,1.41,4150400
2017-09-04,1.4,1.41,1.39,1.39,2975200
2017-09-05,1.4,1.41,1.39,1.4,3385000
2017-09-06,1.4,1.41,1.38,1.39,2572800
2017-09-07,1.39,1.4,1.38,1.38,2356400
2017-09-08,1.38,1.4,1.38,1.4,2204000
2017-09-11,1.38,1.4,1.38,1.4,2268000
2017-09-12,1.4,1.41,1.38,1.39,1619800
2017-09-13,1.39,1.4,1.38,1.39,1115200
2017-09-14,1.39,1.39,1.38,1.38,2646400
2017-09-15,1.38,1.39,1.36,1.37,2655800
2017-09-18,1.38,1.39,1.38,1.38,1011900
2017-09-19,1.38,1.39,1.37,1.39,3812190
2017-09-20,1.37,1.38,1.37,1.38,1340400
2017-09-21,1.38,1.39,1.36,1.38,3081300
2017-09-22,1.38,1.38,1.36,1.37,1670252
2017-09-25,1.36,1.37,1.35,1.36,1458600
2017-09-26,1.36,1.38,1.35,1.36,1867600
2017-09-27,1.37,1.38,1.36,1.38,477200
2017-09-28,1.36,1.38,1.35,1.36,795600
2017-09-29,1.38,1.38,1.35,1.35,2314200
2017-10-03,1.36,1.37,1.35,1.36,2134000
2017-10-04,1.35,1.36,1.35,1.35,989000
2017-10-06,1.35,1.37,1.35,1.36,1323200
2017-10-09,1.36,1.38,1.36,1.38,2742400
2017-10-10,1.38,1.38,1.36,1.38,1389200
2017-10-11,1.37,1.39,1.37,1.37,2356600
2017-10-12,1.38,1.39,1.36,1.36,2886400
2017-10-13,1.36,1.4,1.36,1.39,3827100
2017-10-16,1.4,1.4,1.37,1.39,1975200
2017-10-17,1.38,1.39,1.36,1.36,2413200
2017-10-18,1.36,1.4,1.36,1.37,4779000
2017-10-19,1.37,1.39,1.36,1.36,3237000
2017-10-20,1.36,1.4,1.36,1.37,11834400
2017-10-23,1.39,1.39,1.37,1.37,3748600
2017-10-24,1.37,1.38,1.36,1.38,1235060
2017-10-25,1.38,1.38,1.36,1.37,1714400
2017-10-26,1.36,1.37,1.36,1.37,909200
2017-10-27,1.37,1.38,1.37,1.37,1833400
2017-10-30,1.37,1.38,1.36,1.37,2719200
2017-10-31,1.36,1.38,1.36,1.36,2518800
2017-11-01,1.36,1.37,1.36,1.36,1088200
2017-11-02,1.36,1.38,1.35,1.37,1343400
2017-11-03,1.37,1.37,1.36,1.36,2231200
2017-11-06,1.35,1.38,1.35,1.37,3406200
2017-11-07,1.37,1.43,1.37,1.41,17072400
2017-11-08,1.45,1.46,1.42,1.45,18750000
2017-11-09,1.44,1.49,1.43,1.48,14180500
2017-11-10,1.47,1.5,1.46,1.49,13226400
2017-11-13,1.49,1.53,1.46,1.49,14451000
2017-11-14,1.5,1.55,1.48,1.53,12956000
2017-11-15,1.53,1.54,1.47,1.5,7039200
2017-11-16,1.5,1.53,1.47,1.5,8212800
2017-11-17,1.48,1.5,1.46,1.49,9232800
2017-11-20,1.47,1.53,1.46,1.52,13153000
2017-11-21,1.52,1.57,1.5,1.57,15218200
2017-11-22,1.57,1.59,1.53,1.57,21517700
2017-11-23,1.57,1.6,1.55,1.59,14763200
2017-11-24,1.6,1.6,1.56,1.58,7451200
2017-11-27,1.57,1.58,1.54,1.55,9884000
2017-11-28,1.55,1.57,1.54,1.57,5642800
2017-11-29,1.57,1.58,1.55,1.56,5242400
2017-11-30,1.56,1.57,1.51,1.51,3389000
2017-12-01,1.5,1.53,1.5,1.51,1499600
2017-12-04,1.5,1.52,1.48,1.48,2225200
2017-12-05,1.47,1.49,1.45,1.45,3649000
2017-12-06,1.45,1.47,1.42,1.42,3260000
2017-12-07,1.42,1.43,1.41,1.41,1317800
2017-12-08,1.41,1.42,1.41,1.41,739200
2017-12-11,1.41,1.42,1.39,1.41,3450000
2017-12-12,1.4,1.4,1.39,1.39,2050400
2017-12-13,1.38,1.43,1.38,1.42,1353200
2017-12-14,1.42,1.44,1.4,1.42,1057400
2017-12-15,1.42,1.45,1.4,1.45,1644000
2017-12-18,1.42,1.44,1.42,1.42,526600
2017-12-19,1.43,1.44,1.42,1.43,466800
2017-12-20,1.43,1.45,1.42,1.43,1123600
2017-12-21,1.43,1.45,1.41,1.43,1489200
2017-12-22,1.43,1.44,1.41,1.42,1464200
2017-12-27,1.42,1.43,1.4,1.42,1314400
2017-12-28,1.4,1.42,1.39,1.41,1801028
2017-12-29,1.4,1.42,1.4,1.41,393600
2018-01-02,1.41,1.43,1.4,1.43,2325400
2018-01-03,1.43,1.44,1.41,1.42,3853800
2018-01-04,1.42,1.43,1.41,1.42,503000
2018-01-05,1.42,1.44,1.41,1.43,1658000
2018-01-08,1.42,1.43,1.41,1.42,3060800
2018-01-09,1.42,1.43,1.41,1.42,1404200
2018-01-10,1.42,1.48,1.42,1.46,8830600
2018-01-11,1.46,1.47,1.44,1.46,2111200
2018-01-12,1.46,1.47,1.44,1.45,4238200
2018-01-15,1.46,1.46,1.43,1.45,1300000
2018-01-16,1.44,1.45,1.43,1.45,1861600
2018-01-17,1.44,1.46,1.44,1.46,2228200
2018-01-18,1.45,1.45,1.44,1.45,3694400
2018-01-19,1.45,1.46,1.44,1.46,968800
2018-01-22,1.46,1.47,1.45,1.45,1845400
2018-01-23,1.45,1.46,1.44,1.45,2121200
2018-01-24,1.45,1.46,1.45,1.46,1442600
2018-01-25,1.45,1.49,1.45,1.47,6689400
2018-01-26,1.47,1.5,1.46,1.48,5363400
2018-01-29,1.48,1.49,1.46,1.47,2485000
2018-01-30,1.46,1.46,1.45,1.46,1163800
2018-01-31,1.44,1.46,1.44,1.45,1216200
2018-02-01,1.44,1.45,1.42,1.44,1878000
2018-02-02,1.43,1.44,1.41,1.43,1698800
2018-02-05,1.42,1.44,1.39,1.43,2415000
2018-02-06,1.4,1.41,1.34,1.34,10992600
2018-02-07,1.37,1.38,1.35,1.35,1972600
2018-02-08,1.36,1.37,1.35,1.37,665400
2018-02-09,1.33,1.34,1.31,1.34,4092600
2018-02-12,1.34,1.39,1.32,1.37,1792600
2018-02-13,1.36,1.38,1.34,1.34,421200
2018-02-14,1.36,1.36,1.33,1.34,452000
2018-02-15,1.34,1.37,1.34,1.36,281000
2018-02-20,1.36,1.37,1.35,1.35,88200
2018-02-21,1.37,1.38,1.36,1.36,210800
2018-02-22,1.35,1.4,1.35,1.39,1779000
2018-02-23,1.39,1.4,1.37,1.4,1098000
2018-02-26,1.39,1.4,1.38,1.38,604000
2018-02-27,1.38,1.39,1.36,1.38,1287200
2018-02-28,1.37,1.38,1.36,1.36,1003400
2018-03-01,1.36,1.38,1.36,1.37,741200
2018-03-02,1.36,1.37,1.35,1.36,833800
2018-03-05,1.35,1.37,1.34,1.35,1367800
2018-03-06,1.35,1.37,1.35,1.37,1048200
2018-03-07,1.37,1.37,1.35,1.36,1271800
2018-03-08,1.36,1.37,1.35,1.35,481800
2018-03-09,1.35,1.37,1.34,1.36,1881600
2018-03-12,1.35,1.37,1.35,1.36,572000
2018-03-13,1.37,1.37,1.35,1.36,888200
2018-03-14,1.36,1.36,1.35,1.36,753200
2018-03-15,1.35,1.36,1.35,1.36,1141600
2018-03-16,1.35,1.36,1.34,1.36,2085132
2018-03-19,1.36,1.36,1.34,1.34,2129682
2018-03-20,1.35,1.36,1.34,1.35,567800
2018-03-21,1.36,1.36,1.34,1.36,763000
2018-03-22,1.36,1.36,1.33,1.35,994200
2018-03-23,1.34,1.34,1.31,1.33,2027800
2018-03-26,1.32,1.32,1.31,1.32,1029200
2018-03-27,1.34,1.35,1.32,1.35,2120400
2018-03-28,1.35,1.35,1.31,1.31,1244200
2018-03-29,1.32,1.32,1.3,1.32,864400
2018-04-03,1.31,1.31,1.29,1.3,490600
2018-04-04,1.3,1.3,1.26,1.28,1242800
2018-04-06,1.29,1.32,1.25,1.27,369000
2018-04-09,1.3,1.33,1.28,1.33,2042000
2018-04-10,1.33,1.34,1.31,1.34,1564000
2018-04-11,1.35,1.35,1.32,1.33,308800
2018-04-12,1.34,1.34,1.32,1.33,623800
2018-04-13,1.34,1.34,1.31,1.32,824400
2018-04-16,1.31,1.31,1.29,1.29,1109400
2018-04-17,1.31,1.35,1.28,1.29,1084400
2018-04-18,1.32,1.32,1.26,1.28,2210200
2018-04-19,1.28,1.32,1.28,1.29,1000400
2018-04-20,1.3,1.31,1.28,1.29,968200
2018-04-23,1.29,1.32,1.29,1.3,2394200
2018-04-24,1.3,1.32,1.3,1.32,365000
2018-04-25,1.31,1.33,1.3,1.31,2439200
2018-04-26,1.3,1.3,1.24,1.26,1461400
2018-04-27,1.27,1.27,1.24,1.26,374800
2018-04-30,1.28,1.29,1.25,1.28,549400
2018-05-02,1.29,1.3,1.29,1.3,1039600
2018-05-03,1.3,1.3,1.29,1.29,561800
2018-05-04,1.3,1.3,1.28,1.29,322200
2018-05-07,1.3,1.3,1.29,1.3,643200
2018-05-08,1.3,1.32,1.28,1.32,1501600
2018-05-09,1.33,1.33,1.3,1.32,791600
2018-05-10,1.3,1.32,1.3,1.31,659000
2018-05-11,1.31,1.33,1.3,1.32,728600
2018-05-14,1.33,1.33,1.31,1.32,191814
2018-05-15,1.32,1.33,1.31,1.32,1202600
2018-05-16,1.33,1.33,1.3,1.3,383853
2018-05-17,1.32,1.32,1.29,1.31,1471200
2018-05-18,1.31,1.32,1.3,1.31,842400
2018-05-21,1.33,1.36,1.31,1.34,2256400
2018-05-23,1.34,1.35,1.3,1.31,699000
2018-05-24,1.32,1.34,1.31,1.31,1535800
2018-05-25,1.31,1.34,1.31,1.32,309600
2018-05-28,1.33,1.33,1.3,1.32,484600
2018-05-29,1.33,1.33,1.31,1.32,351000
2018-05-30,1.33,1.33,1.3,1.3,850800
2018-05-31,1.3,1.32,1.3,1.32,726200
2018-06-01,1.32,1.32,1.29,1.3,1689000
2018-06-04,1.32,1.32,1.3,1.31,197200
2018-06-05,1.32,1.32,1.29,1.3,1885600
2018-06-06,1.32,1.32,1.29,1.3,2706000
2018-06-07,1.31,1.31,1.29,1.29,784400
2018-06-08,1.3,1.3,1.28,1.29,1210600
2018-06-11,1.3,1.3,1.28,1.29,585600
2018-06-12,1.29,1.3,1.27,1.3,1680200
2018-06-13,1.3,1.3,1.27,1.28,245000
2018-06-14,1.28,1.29,1.24,1.27,992000
2018-06-15,1.27,1.29,1.21,1.21,5262200
2018-06-19,1.21,1.28,1.19,1.2,2085600
2018-06-20,1.21,1.22,1.2,1.2,937800
2018-06-21,1.23,1.24,1.2,1.22,896800
2018-06-22,1.22,1.23,1.2,1.23,681493
2018-06-25,1.23,1.23,1.2,1.2,1275200
2018-06-26,1.2,1.22,1.19,1.2,825000
2018-06-27,1.21,1.21,1.17,1.18,1285000
2018-06-28,1.19,1.19,1.16,1.17,848600
2018-06-29,1.17,1.19,1.16,1.17,486702
2018-07-03,1.17,1.17,1.14,1.16,558200
2018-07-04,1.14,1.19,1.14,1.17,605800
2018-07-05,1.17,1.17,1.12,1.14,596200
2018-07-06,1.15,1.15,1.12,1.14,282600
2018-07-09,1.15,1.17,1.15,1.17,612000
2018-07-10,1.17,1.2,1.15,1.16,756122
2018-07-11,1.15,1.18,1.12,1.13,1458000
2018-07-12,1.16,1.17,1.13,1.13,486000
2018-07-13,1.15,1.16,1.13,1.13,1134000
2018-07-16,1.15,1.15,1.11,1.14,986400
2018-07-17,1.14,1.14,1.12,1.13,402000
2018-07-18,1.14,1.14,1.11,1.11,534600
2018-07-19,1.13,1.13,1.11,1.12,386400
2018-07-20,1.12,1.13,1.08,1.11,2475000
2018-07-23,1.11,1.12,1.09,1.12,2360600
2018-07-24,1.12,1.13,1.1,1.13,5133200
2018-07-25,1.13,1.13,1.12,1.13,713000
2018-07-26,1.13,1.14,1.12,1.12,1247600
2018-07-27,1.13,1.13,1.11,1.11,319000
2018-07-30,1.13,1.13,1.1,1.1,548600
2018-07-31,1.11,1.12,1.1,1.12,270000
2018-08-01,1.12,1.12,1.11,1.11,255000
2018-08-02,1.12,1.12,1.09,1.1,636800
2018-08-03,1.1,1.1,1.08,1.1,191800
2018-08-06,1.09,1.11,1.07,1.07,635800
2018-08-07,1.07,1.11,1.07,1.11,1132200
2018-08-08,1.09,1.11,1.09,1.11,188000
2018-08-09,1.1,1.11,1.09,1.11,70000
2018-08-10,1.11,1.11,1.09,1.1,137600
2018-08-13,1.1,1.1,1.09,1.09,369600
2018-08-14,1.09,1.1,1.08,1.1,169600
2018-08-15,1.08,1.1,1.07,1.07,1086600
2018-08-16,1.06,1.1,1.06,1.07,1034400
2018-08-17,1.09,1.09,1.06,1.07,572000
2018-08-20,1.07,1.08,1.05,1.06,610000
2018-08-21,1.05,1.07,1.05,1.07,548000
2018-08-22,1.07,1.08,1.06,1.08,501600
2018-08-23,1.08,1.08,1.06,1.08,83800
2018-08-24,1.08,1.08,1.05,1.06,320000
2018-08-27,1.07,1.1,1.05,1.08,642200
2018-08-28,1.11,1.11,1.07,1.09,263600
2018-08-29,1.09,1.09,1.07,1.07,224600
2018-08-30,1.07,1.08,1.05,1.06,836600
2018-08-31,1.07,1.07,1.04,1.06,714600
2018-09-03,1.07,1.07,1.04,1.06,609800
2018-09-04,1.06,1.07,1.05,1.07,178600
2018-09-05,1.07,1.07,1.05,1.06,171000
2018-09-06,1.07,1.07,1.05,1.05,467600
2018-09-07,1.07,1.07,1.02,1.04,614300
2018-09-10,1.04,1.04,0.99,1.0,469200
2018-09-11,0.99,0.99,0.96,0.98,1085800
2018-09-12,0.98,0.98,0.95,0.95,867100
2018-09-13,0.97,0.98,0.96,0.97,554600
2018-09-14,0.98,0.98,0.97,0.98,126600
2018-09-17,0.98,0.98,0.94,0.98,460000
2018-09-18,0.98,0.99,0.97,0.98,341000
2018-09-19,0.99,1.0,0.98,1.0,233200
2018-09-20,1.0,1.02,1.0,1.01,195000
2018-09-21,1.02,1.02,0.97,0.97,358800
2018-09-24,0.99,1.07,0.96,1.07,337600
2018-09-26,1.04,1.04,0.99,0.99,1172600
2018-09-27,1.0,1.01,0.99,1.01,1085000
2018-09-28,1.01,1.05,0.98,0.98,516000
2018-10-02,1.01,1.01,0.97,0.97,492000
2018-10-03,1.03,1.06,1.0,1.02,321800
2018-10-04,1.02,1.06,1.02,1.03,327200
2018-10-05,1.04,1.04,1.02,1.04,669600
2018-10-08,1.03,1.03,1.01,1.03,697800
2018-10-09,1.04,1.04,1.0,1.01,616412
2018-10-10,1.03,1.03,1.0,1.03,496614
2018-10-11,1.01,1.01,0.94,0.96,1152600
2018-10-12,0.98,0.99,0.95,0.98,602600
2018-10-15,0.97,0.98,0.95,0.97,728000
2018-10-16,0.99,0.99,0.95,0.96,396200
2018-10-18,0.96,0.97,0.94,0.96,1247400
2018-10-19,0.97,1.02,0.95,1.02,2018200
2018-10-22,1.02,1.04,1.01,1.01,1488800
2018-10-23,1.0,1.01,0.99,0.99,238000
2018-10-24,0.99,1.02,0.98,1.02,1450600
2018-10-25,1.01,1.01,0.98,0.99,340800
2018-10-26,0.99,1.01,0.99,1.01,562000
2018-10-29,0.98,1.01,0.98,1.01,244000
2018-10-30,0.99,1.01,0.97,0.98,1649000
2018-10-31,1.01,1.01,0.98,1.01,579600
2018-11-01,1.03,1.03,1.0,1.02,622600
2018-11-02,1.02,1.06,1.02,1.04,2204200
2018-11-05,1.04,1.08,1.04,1.05,3616000
2018-11-06,1.05,1.08,1.05,1.07,934600
2018-11-07,1.08,1.09,1.06,1.06,308000
2018-11-08,1.07,1.08,1.05,1.05,417600
2018-11-09,1.05,1.05,1.04,1.05,300600
2018-11-12,1.03,1.06,1.03,1.05,940600
2018-11-13,1.05,1.06,1.03,1.05,2106200
2018-11-14,1.06,1.06,1.03,1.04,691000
2018-11-15,1.04,1.11,1.03,1.1,2330200
2018-11-16,1.08,1.09,1.06,1.08,616600
2018-11-19,1.09,1.09,1.07,1.08,397800
2018-11-20,1.08,1.09,1.06,1.07,276000
2018-11-21,1.07,1.09,1.07,1.09,654000
2018-11-22,1.08,1.09,1.07,1.08,249600
2018-11-23,1.07,1.07,1.06,1.07,74600
2018-11-26,1.07,1.08,1.06,1.06,281600
2018-11-27,1.08,1.08,1.06,1.06,380800
2018-11-28,1.07,1.08,1.06,1.06,499199
2018-11-29,1.06,1.08,1.05,1.06,246600
2018-11-30,1.05,1.07,1.05,1.06,590000
2018-12-03,1.07,1.09,1.07,1.07,437000
2018-12-04,1.07,1.09,1.06,1.08,300600
2018-12-05,1.07,1.08,1.06,1.06,55400
2018-12-06,1.05,1.07,1.05,1.07,164000
2018-12-07,1.06,1.06,1.05,1.05,176600
2018-12-10,1.05,1.05,1.03,1.03,340600
2018-12-11,1.05,1.05,1.05,1.05,68000
2018-12-12,1.04,1.06,1.04,1.04,222029
2018-12-13,1.07,1.07,1.03,1.05,1089800
2018-12-14,1.05,1.05,1.03,1.03,277800
2018-12-17,1.04,1.04,1.02,1.04,221000
2018-12-18,1.03,1.03,1.01,1.02,488100
2018-12-19,1.02,1.03,1.02,1.03,290000
2018-12-20,1.03,1.03,1.01,1.01,384100
2018-12-21,0.99,1.0,0.96,0.96,970000
2018-12-24,1.0,1.04,0.98,1.0,253800
2018-12-27,0.99,1.0,0.95,0.98,535000
2018-12-28,0.99,1.0,0.98,0.98,194000
2018-12-31,0.97,1.03,0.97,1.01,268803
2019-01-02,0.99,1.02,0.98,0.99,483000
2019-01-03,0.98,1.02,0.98,0.99,311200
2019-01-04,0.99,1.01,0.99,1.0,117000
2019-01-07,1.0,1.01,1.0,1.01,195600
2019-01-08,1.02,1.05,1.01,1.03,313829
2019-01-09,1.03,1.05,1.01,1.01,905200
2019-01-10,1.02,1.06,1.02,1.04,524400
2019-01-11,1.04,1.05,1.03,1.04,216000
2019-01-14,1.04,1.04,1.01,1.02,282600
2019-01-15,1.04,1.07,1.0,1.02,1169800
2019-01-16,1.05,1.05,1.01,1.02,369200
2019-01-17,1.04,1.04,1.01,1.01,362000
2019-01-18,1.02,1.03,1.01,1.01,1086000
2019-01-21,1.02,1.03,1.01,1.02,641000
2019-01-22,1.03,1.03,1.0,1.01,898600
2019-01-23,1.0,1.1,1.0,1.03,1932800
2019-01-24,1.05,1.05,1.01,1.04,642000
2019-01-25,1.03,1.05,1.02,1.04,4437000
2019-01-28,1.03,1.05,1.02,1.02,3263800
2019-01-29,1.02,1.05,1.01,1.04,6879200
2019-01-30,1.03,1.04,1.02,1.03,5486000
2019-01-31,1.02,1.05,1.02,1.04,273800
2019-02-01,1.03,1.07,1.03,1.05,1444000
2019-02-04,1.08,1.08,1.06,1.08,1627800
2019-02-08,1.07,1.07,1.06,1.06,250200
2019-02-11,1.04,1.06,1.03,1.03,9603200
2019-02-12,1.03,1.06,1.03,1.06,4292000
2019-02-13,1.05,1.07,1.05,1.07,2880000
2019-02-14,1.08,1.08,1.06,1.08,8286800
2019-02-15,1.07,1.07,1.04,1.04,7764000
2019-02-18,1.05,1.07,1.04,1.05,2763200
2019-02-19,1.05,1.08,1.05,1.06,9254000
2019-02-20,1.07,1.08,1.05,1.07,5362600
2019-02-21,1.07,1.07,1.05,1.07,7359200
2019-02-22,1.07,1.12,1.06,1.1,16968000
2019-02-25,1.11,1.16,1.09,1.15,19843000
2019-02-26,1.15,1.22,1.15,1.19,17612200
2019-02-27,1.2,1.2,1.15,1.16,3249000
2019-02-28,1.16,1.18,1.1,1.12,6419200
2019-03-01,1.14,1.15,1.1,1.14,8058600
2019-03-04,1.12,1.14,1.09,1.12,8513600
2019-03-05,1.12,1.14,1.12,1.13,2877000
2019-03-06,1.13,1.14,1.1,1.12,5961200
2019-03-07,1.12,1.15,1.11,1.12,5313400
2019-03-08,1.11,1.11,1.06,1.06,8682000
2019-03-11,1.07,1.08,1.06,1.06,6360000
2019-03-12,1.08,1.08,1.06,1.07,8061600
2019-03-13,1.07,1.07,1.06,1.07,3033879
2019-03-14,1.07,1.08,1.06,1.06,1223600
2019-03-15,1.06,1.08,1.05,1.05,54906924
2019-03-18,1.06,1.09,1.06,1.09,3438600
2019-03-19,1.09,1.11,1.08,1.1,4637000
2019-03-20,1.08,1.11,1.08,1.1,3062681
2019-03-21,1.08,1.1,1.07,1.09,2728000
2019-03-22,1.1,1.1,1.07,1.07,4371279
2019-03-25,1.06,1.07,1.05,1.05,2479200
2019-03-26,1.06,1.09,1.05,1.05,4038600
2019-03-27,1.06,1.07,1.04,1.05,2266000
2019-03-28,1.06,1.11,1.05,1.05,9447000
2019-03-29,1.06,1.06,1.05,1.06,922600
2019-04-01,1.06,1.07,1.05,1.06,2674200
2019-04-02,1.06,1.08,1.06,1.06,3103000
2019-04-03,1.06,1.09,1.06,1.08,5262600
2019-04-04,1.08,1.09,1.07,1.08,3558000
2019-04-08,1.08,1.09,1.06,1.07,847640
2019-04-09,1.07,1.09,1.07,1.07,1408800
2019-04-10,1.08,1.08,1.06,1.07,1043000
2019-04-11,1.08,1.08,1.06,1.07,646000
2019-04-12,1.07,1.08,1.06,1.07,1413000
2019-04-15,1.08,1.09,1.07,1.07,1449600
2019-04-16,1.07,1.08,1.06,1.07,685600
2019-04-17,1.08,1.08,1.06,1.07,2461200
2019-04-18,1.07,1.07,1.06,1.06,1458600
2019-04-23,1.06,1.06,1.04,1.04,1023780
2019-04-24,1.05,1.06,1.04,1.04,946000
2019-04-25,1.04,1.05,1.02,1.03,1122000
2019-04-26,1.03,1.04,0.99,1.0,4361200
2019-04-29,1.0,1.02,0.99,1.0,1238516
2019-04-30,1.0,1.02,1.0,1.01,523500
2019-05-02,1.02,1.03,1.01,1.01,858400
2019-05-03,1.03,1.05,1.01,1.04,943400
2019-05-06,1.03,1.03,1.0,1.0,3078600
2019-05-07,1.01,1.03,1.0,1.01,3993200
2019-05-08,1.01,1.03,1.0,1.01,2441600
2019-05-09,1.01,1.02,0.99,1.0,2903000
2019-05-10,1.0,1.02,0.97,0.99,2212000
2019-05-14,0.99,0.99,0.97,0.98,1162000
2019-05-15,0.99,0.99,0.97,0.99,1200400
2019-05-16,0.99,1.0,0.98,1.0,718000
2019-05-17,1.0,1.02,0.99,0.99,4349800
2019-05-20,1.0,1.0,0.98,0.98,964000
2019-05-21,0.99,0.99,0.97,0.99,1443600
2019-05-22,0.98,1.0,0.97,0.99,658600
2019-05-23,0.98,0.99,0.96,0.96,755000
2019-05-24,0.96,0.97,0.94,0.96,688600
2019-05-27,0.96,0.98,0.95,0.97,1216200
2019-05-28,0.98,1.0,0.98,0.99,3058800
2019-05-29,1.0,1.02,0.99,0.99,4059000
2019-05-30,0.99,1.01,0.99,0.99,876600
2019-05-31,0.99,1.03,0.99,1.01,2029600
2019-06-04,1.02,1.04,1.02,1.03,22973740
2019-06-05,1.04,1.05,1.03,1.04,2326200
2019-06-06,1.04,1.04,1.01,1.02,145362400
2019-06-10,1.03,1.03,1.01,1.02,195002800
2019-06-11,1.02,1.02,1.01,1.01,20844600
2019-06-12,1.01,1.02,1.01,1.02,7762600
2019-06-13,1.02,1.03,1.02,1.02,3235200
2019-06-14,1.03,1.03,1.02,1.03,3006000
2019-06-17,1.03,1.03,1.02,1.02,11206000
2019-06-18,1.03,1.03,1.02,1.03,6564000
2019-06-19,1.03,1.03,1.02,1.03,1917200
2019-06-20,1.03,1.03,1.02,1.03,2589600
2019-06-21,1.03,1.03,1.01,1.02,31711200
2019-06-24,1.02,1.02,1.01,1.02,901600
2019-06-25,1.02,1.03,1.01,1.02,1821400
2019-06-26,1.01,1.02,1.01,1.02,615000
2019-06-27,1.01,1.03,1.01,1.03,2535000
2019-06-28,1.02,1.03,1.01,1.03,3734600
2019-07-02,1.03,1.03,1.01,1.03,10486400
2019-07-03,1.01,1.02,1.0,1.01,13868600
2019-07-04,1.01,1.01,1.0,1.01,1788000
2019-07-05,1.0,1.01,1.0,1.0,460200
2019-07-08,1.01,1.01,1.0,1.01,4601400
2019-07-09,1.01,1.01,1.0,1.0,4727600
2019-07-10,1.01,1.01,1.0,1.01,992000
2019-07-11,1.01,1.01,1.0,1.0,740600
2019-07-12,1.0,1.01,1.0,1.0,5763200
2019-07-15,1.0,1.01,1.0,1.01,508000
2019-07-16,1.01,1.02,1.0,1.0,19151600
2019-07-17,1.01,1.02,1.0,1.01,899590
2019-07-18,1.01,1.02,1.0,1.02,2011800
2019-07-19,1.02,1.02,1.0,1.01,1038774
2019-07-22,1.01,1.02,1.0,1.0,1421200
2019-07-23,1.01,1.01,1.0,1.01,1528600
2019-07-24,1.01,1.01,1.0,1.0,718600
2019-07-25,1.02,1.02,1.0,1.0,1091000
2019-07-26,1.01,1.01,1.0,1.0,952400
2019-07-29,1.0,1.01,1.0,1.0,1994800
2019-07-30,1.01,1.01,1.0,1.01,451600
2019-07-31,1.01,1.01,1.0,1.01,1027000
2019-08-01,1.01,1.01,1.0,1.01,9220000
2019-08-02,1.0,1.01,1.0,1.0,21494400
2019-08-05,1.0,1.01,0.99,1.0,6984200
2019-08-06,0.99,1.0,0.98,1.0,22714000
2019-08-07,0.99,1.0,0.99,1.0,3118000
2019-08-08,0.99,1.0,0.99,1.0,1486000
2019-08-09,0.99,1.0,0.99,1.0,168000
2019-08-12,0.99,1.0,0.99,1.0,1451600
2019-08-13,0.99,1.0,0.99,1.0,15927000
2019-08-14,0.99,1.0,0.99,1.0,420400
2019-08-15,0.99,1.0,0.99,1.0,14818400
2019-08-16,0.99,1.0,0.99,1.0,295200
2019-08-19,0.99,1.0,0.99,1.0,312000
2019-08-20,1.0,1.0,0.99,0.99,491959
2019-08-21,0.99,1.0,0.98,0.99,26956000
2019-08-22,1.0,1.0,0.99,1.0,312600
2019-08-23,0.99,1.0,0.99,1.0,472200
2019-08-26,0.99,1.0,0.99,1.0,7544000
2019-08-27,0.99,1.0,0.99,1.0,631340
2019-08-28,0.99,1.0,0.99,1.0,1438200
2019-08-29,0.99,1.0,0.99,1.0,2601000
2019-08-30,0.99,1.0,0.99,1.0,1108600
2019-09-02,0.99,1.0,0.99,1.0,1260000
2019-09-03,1.0,1.0,0.99,0.99,21802600
2019-09-04,0.99,1.0,0.99,0.99,4319600
2019-09-05,1.0,1.0,0.99,1.0,1866200
2019-09-06,1.0,1.02,0.99,1.01,43173080
2019-09-09,1.01,1.01,1.0,1.01,3937600
2019-09-10,1.0,1.01,1.0,1.0,876800
2019-09-11,1.0,1.01,1.0,1.01,571800
2019-09-12,1.0,1.01,1.0,1.01,1127800
2019-09-13,1.0,1.01,1.0,1.01,1533000
2019-09-16,1.01,1.01,1.0,1.0,2606000
2019-09-17,1.0,1.01,1.0,1.01,1378000
2019-09-18,1.0,1.01,1.0,1.01,645000
2019-09-19,1.0,1.01,1.0,1.01,1644000
2019-09-20,1.0,1.01,1.0,1.0,7728000
2019-09-23,1.0,1.01,1.0,1.01,4316500
2019-09-24,1.0,1.01,1.0,1.01,1095288
2019-09-25,1.0,1.01,1.0,1.01,3792600
2019-09-26,1.01,1.01,1.0,1.01,562402
2019-09-27,1.0,1.01,1.0,1.01,651800
2019-09-30,1.0,1.0,0.99,0.99,8506000
2019-10-02,1.01,1.02,1.0,1.01,20490646
2019-10-03,1.01,1.01,1.0,1.01,11041200
2019-10-04,1.01,1.01,1.0,1.01,10428000
2019-10-08,1.0,1.01,1.0,1.01,783200
2019-10-09,1.0,1.01,1.0,1.0,1534000
2019-10-10,1.01,1.01,1.0,1.0,5957400
2019-10-11,1.0,1.01,1.0,1.0,732800
2019-10-14,1.0,1.01,1.0,1.0,2268000
2019-10-15,1.01,1.01,1.0,1.01,14725200
2019-10-16,1.0,1.02,1.0,1.01,5181400
2019-10-17,1.01,1.02,1.01,1.01,7986000
2019-10-18,1.01,1.01,1.0,1.0,3298000
2019-10-21,1.0,1.02,1.0,1.01,3398600
2019-10-22,1.01,1.02,1.01,1.02,1087400
2019-10-23,1.0,1.02,1.0,1.0,1378800
2019-10-24,1.0,1.02,1.0,1.0,1322000
2019-10-25,1.0,1.01,1.0,1.01,578200
2019-10-28,1.01,1.04,1.01,1.02,1635800
2019-10-29,1.02,1.03,1.01,1.01,120800
2019-10-30,1.01,1.02,1.01,1.02,92800
2019-10-31,1.01,1.01,0.99,0.99,2046000
2019-11-01,0.99,1.0,0.99,0.99,1225200
2019-11-04,1.0,1.0,0.99,1.0,851800
2019-11-05,0.99,1.01,0.99,1.0,822800
2019-11-06,1.0,1.01,1.0,1.0,438600
2019-11-07,1.0,1.02,1.0,1.01,553510
2019-11-08,1.01,1.01,1.0,1.01,696200
2019-11-11,1.0,1.0,0.98,0.98,1890200
2019-11-12,0.99,1.0,0.99,0.99,574000
2019-11-13,0.99,1.0,0.98,0.99,184000
2019-11-14,0.99,1.0,0.99,1.0,166600
2019-11-15,1.01,1.01,0.99,0.99,491000
2019-11-18,1.0,1.01,0.99,1.0,443800
2019-11-19,1.0,1.0,0.99,1.0,173800
2019-11-20,1.01,1.01,0.99,1.0,81200
2019-11-21,0.99,0.99,0.99,0.99,149200
2019-11-22,0.99,0.99,0.98,0.98,197200
2019-11-25,0.98,0.99,0.97,0.98,882000
2019-11-26,0.98,0.98,0.97,0.98,188600
2019-11-27,0.97,0.98,0.96,0.96,245000
2019-11-28,0.96,0.97,0.96,0.97,235200
2019-11-29,0.97,0.98,0.96,0.96,356600
2019-12-02,0.97,0.97,0.96,0.96,64000
2019-12-03,0.96,0.96,0.93,0.95,834200
2019-12-04,0.94,0.94,0.94,0.94,90000
2019-12-05,0.95,0.96,0.95,0.96,187600
2019-12-06,0.96,0.97,0.96,0.97,576800
2019-12-09,0.97,0.97,0.96,0.97,330600
2019-12-10,0.97,0.99,0.97,0.99,242000
2019-12-11,0.99,0.99,0.99,0.99,378000
2019-12-12,0.99,0.99,0.97,0.98,91200
2019-12-13,0.97,0.97,0.93,0.97,1788200
2019-12-16,0.97,0.98,0.97,0.98,281000
2019-12-17,0.98,0.99,0.97,0.99,1355400
2019-12-18,0.97,0.98,0.97,0.98,282800
2019-12-19,0.97,0.99,0.96,0.99,1655800
2019-12-20,0.97,0.98,0.97,0.97,552800
2019-12-23,0.97,0.97,0.97,0.97,561200
2019-12-24,0.96,0.97,0.96,0.97,54600
2019-12-27,0.97,0.98,0.96,0.97,617698
2019-12-30,0.98,0.98,0.96,0.97,467000
2019-12-31,0.96,0.97,0.96,0.97,77200
2020-01-02,0.97,0.99,0.97,0.98,403600
2020-01-03,0.98,0.98,0.96,0.97,1813200
2020-01-06,0.97,0.98,0.96,0.98,1066600
2020-01-07,0.97,0.97,0.97,0.97,899800
2020-01-08,0.96,0.97,0.96,0.97,186000
2020-01-09,0.96,0.98,0.96,0.98,1068400
2020-01-10,0.97,0.98,0.96,0.97,725200
2020-01-13,0.97,0.98,0.96,0.97,449000
2020-01-14,0.97,0.98,0.96,0.96,535200
2020-01-15,0.96,0.97,0.95,0.95,2021800
2020-01-16,0.95,0.96,0.95,0.95,1264400
2020-01-17,0.95,0.96,0.94,0.95,1745200
2020-01-20,0.95,0.96,0.94,0.95,1967200
2020-01-21,0.95,0.95,0.93,0.94,898000
2020-01-22,0.93,0.99,0.93,0.94,1299400
2020-01-23,0.93,0.94,0.92,0.93,185200
2020-01-24,0.93,0.93,0.93,0.93,8000
2020-01-29,0.91,0.92,0.89,0.89,158000
2020-01-30,0.88,0.9,0.82,0.86,441800
2020-01-31,0.84,0.86,0.84,0.85,173000
2020-02-03,0.83,0.83,0.79,0.81,1741251
2020-02-04,0.83,0.83,0.78,0.81,1686400
2020-02-05,0.81,0.83,0.81,0.81,991800
2020-02-06,0.81,0.9,0.81,0.83,2308000
2020-02-07,0.83,0.85,0.82,0.83,764083
2020-02-10,0.84,0.84,0.82,0.82,263200
2020-02-11,0.83,0.87,0.83,0.84,1957400
2020-02-12,0.84,0.85,0.83,0.85,948000
2020-02-13,0.85,0.86,0.84,0.84,820600
2020-02-14,0.84,0.85,0.84,0.84,504000
2020-02-17,0.85,0.86,0.85,0.85,831200
2020-02-18,0.86,0.86,0.85,0.85,216000
2020-02-19,0.85,0.86,0.84,0.84,694000
2020-02-20,0.84,0.86,0.84,0.85,524000
2020-02-21,0.85,0.85,0.83,0.84,1407200
2020-02-24,0.83,0.84,0.8,0.83,3094200
2020-02-25,0.82,0.83,0.81,0.82,425000
2020-02-26,0.81,0.84,0.81,0.82,2105600
2020-02-27,0.81,0.84,0.81,0.82,474600
2020-02-28,0.81,0.81,0.79,0.8,2130000
2020-03-02,0.79,0.81,0.79,0.8,478000
2020-03-03,0.8,0.84,0.79,0.81,2079000
2020-03-04,0.81,0.82,0.8,0.81,534000
2020-03-05,0.81,0.82,0.81,0.82,131000
2020-03-06,0.82,0.82,0.8,0.8,644000
2020-03-09,0.79,0.8,0.77,0.78,1919000
2020-03-10,0.77,0.8,0.77,0.8,634000
2020-03-11,0.79,0.81,0.79,0.8,542600
2020-03-12,0.79,0.79,0.76,0.77,1353000
2020-03-13,0.74,0.76,0.72,0.76,1926000
2020-03-16,0.76,0.76,0.71,0.72,684600
2020-03-17,0.72,0.73,0.69,0.71,1522200
2020-03-18,0.71,0.72,0.66,0.67,845600
2020-03-19,0.66,0.67,0.52,0.61,4402600
2020-03-20,0.61,0.62,0.6,0.61,3443200
2020-03-23,0.59,0.6,0.58,0.59,1911800
2020-03-24,0.6,0.62,0.6,0.61,826000
2020-03-25,0.64,0.64,0.62,0.63,1578000
2020-03-26,0.62,0.63,0.61,0.62,1240400
2020-03-27,0.63,0.65,0.63,0.64,1665800
2020-03-30,0.62,0.63,0.62,0.62,420000
2020-03-31,0.63,0.64,0.62,0.64,857000
2020-04-01,0.62,0.65,0.62,0.63,2241000
2020-04-02,0.62,0.66,0.61,0.66,654600
2020-04-03,0.65,0.69,0.65,0.67,890000
2020-04-06,0.66,0.66,0.65,0.66,42000
2020-04-07,0.64,0.65,0.64,0.65,3103600
2020-04-08,0.64,0.65,0.64,0.65,1328800
2020-04-09,0.65,0.66,0.64,0.66,3458000
2020-04-14,0.65,0.66,0.64,0.65,1946000
2020-04-15,0.65,0.65,0.64,0.65,573000
2020-04-16,0.64,0.65,0.63,0.65,1409600
2020-04-17,0.65,0.66,0.65,0.65,3069000
2020-04-20,0.64,0.66,0.64,0.65,1181600
2020-04-21,0.65,0.68,0.64,0.68,5812600
2020-04-22,0.68,0.72,0.67,0.71,8459400
2020-04-23,0.72,0.76,0.72,0.75,5842000
2020-04-24,0.76,0.78,0.7,0.71,6536000
2020-04-27,0.73,0.74,0.72,0.73,2652400
2020-04-28,0.73,0.74,0.67,0.69,1102000
2020-04-29,0.69,0.71,0.69,0.7,292600
2020-05-04,0.72,0.73,0.69,0.69,268000
2020-05-05,0.7,0.7,0.69,0.69,234000
2020-05-06,0.7,0.71,0.69,0.7,1648600
2020-05-07,0.7,0.7,0.69,0.7,320000
2020-05-08,0.7,0.71,0.69,0.71,548800
2020-05-11,0.72,0.72,0.69,0.7,683400
2020-05-12,0.69,0.7,0.69,0.69,542000
2020-05-13,0.7,0.7,0.69,0.7,328000
2020-05-14,0.7,0.7,0.66,0.67,2774000
2020-05-15,0.68,0.68,0.66,0.66,960000
2020-05-18,0.67,0.68,0.66,0.66,557400
2020-05-19,0.68,0.68,0.67,0.68,212800
2020-05-20,0.68,0.68,0.66,0.66,808800
2020-05-21,0.67,0.68,0.66,0.68,384000
2020-05-22,0.66,0.66,0.65,0.65,745800
2020-05-25,0.65,0.66,0.64,0.66,623200
2020-05-26,0.66,0.67,0.65,0.67,332800
2020-05-27,0.66,0.68,0.65,0.66,758200
2020-05-28,0.66,0.66,0.64,0.65,1375200
2020-05-29,0.66,0.66,0.64,0.65,580200
2020-06-01,0.65,0.66,0.65,0.65,2740500
2020-06-02,0.65,0.68,0.65,0.68,1937200
2020-06-03,0.68,0.69,0.67,0.69,916400
2020-06-04,0.68,0.68,0.67,0.68,573000
2020-06-05,0.68,0.7,0.68,0.69,1204400
2020-06-08,0.69,0.69,0.68,0.68,1118650
2020-06-09,0.68,0.71,0.68,0.7,809400
2020-06-10,0.71,0.71,0.69,0.7,258600
2020-06-11,0.7,0.7,0.68,0.69,405800
2020-06-12,0.68,0.68,0.67,0.68,1372000
2020-06-15,0.68,0.68,0.65,0.66,2028600
2020-06-16,0.67,0.68,0.66,0.68,1124200
2020-06-17,0.67,0.67,0.65,0.67,703400
2020-06-18,0.66,0.68,0.65,0.67,888000
2020-06-19,0.68,0.69,0.67,0.68,1234000
2020-06-22,0.69,0.77,0.69,0.73,9217400
2020-06-23,0.74,0.74,0.72,0.72,774000
2020-06-24,0.75,0.75,0.7,0.71,373000
2020-06-26,0.7,0.72,0.7,0.72,96600
2020-06-29,0.71,0.74,0.71,0.73,3021800
2020-06-30,0.74,0.74,0.71,0.71,1305400
2020-07-02,0.72,0.74,0.7,0.72,4589800
2020-07-03,0.73,0.79,0.73,0.78,6634400
2020-07-06,0.78,0.84,0.78,0.84,6527000
2020-07-07,0.85,0.91,0.82,0.82,8219800
2020-07-08,0.91,1.04,0.89,0.99,50730400
2020-07-09,1.02,1.07,0.99,1.02,36737800
2020-07-10,1.03,1.07,0.9,0.9,46171000
2020-07-13,0.91,0.91,0.8,0.81,48360000
2020-07-14,0.81,0.81,0.74,0.77,29384200
2020-07-15,0.78,0.79,0.73,0.74,15347200
2020-07-16,0.74,0.75,0.71,0.72,20446000
2020-07-17,0.72,0.73,0.7,0.71,11422600
2020-07-20,0.7,0.73,0.7,0.71,8914600
2020-07-21,0.73,0.73,0.7,0.71,12300000
2020-07-22,0.7,0.72,0.7,0.7,9707800
2020-07-23,0.7,0.71,0.69,0.7,5313600
2020-07-24,0.7,0.71,0.68,0.69,4773800
2020-07-27,0.69,0.7,0.68,0.7,3723800
2020-07-28,0.7,0.7,0.69,0.7,1748800
2020-07-29,0.7,0.7,0.69,0.7,4008600
2020-07-30,0.69,0.7,0.69,0.69,3570000
2020-07-31,0.69,0.7,0.69,0.7,2224600
2020-08-03,0.7,0.73,0.69,0.72,12327800
2020-08-04,0.72,0.72,0.7,0.72,6578200
2020-08-05,0.72,0.72,0.7,0.72,5823200
2020-08-06,0.71,0.72,0.7,0.71,3978000
2020-08-07,0.72,0.72,0.69,0.7,3646000
2020-08-10,0.71,0.71,0.69,0.7,7201000
2020-08-11,0.71,0.71,0.69,0.7,7233600
2020-08-12,0.7,0.7,0.69,0.69,5814000
2020-08-13,0.7,0.71,0.69,0.71,3341800
2020-08-14,0.71,0.71,0.7,0.7,1990000
2020-08-17,0.71,0.72,0.7,0.72,3452000
2020-08-18,0.72,0.72,0.71,0.72,3046400
2020-08-19,0.72,0.72,0.7,0.71,1942000
2020-08-20,0.71,0.71,0.69,0.7,4760600
2020-08-21,0.7,0.71,0.69,0.71,2014400
2020-08-24,0.71,0.71,0.7,0.71,652200
2020-08-25,0.71,0.71,0.7,0.71,1300600
