Date,Open,High,Low,Close,Volume
2016-10-31,6.55,6.88,6.46,6.87,8761500
2016-11-01,6.89,7.52,6.75,7.25,4199000
2016-11-02,7.26,7.35,7.11,7.22,1248500
2016-11-03,7.26,7.26,6.67,6.78,2631500
2016-11-04,6.81,6.96,6.44,6.87,775500
2016-11-07,6.95,7.24,6.9,6.99,143500
2016-11-08,6.95,7.0,6.9,6.98,391500
2016-11-09,6.97,7.1,6.6,6.8,478000
2016-11-10,7.0,7.17,6.85,6.94,171000
2016-11-11,6.9,6.99,6.7,6.87,86500
2016-11-14,6.71,6.81,6.7,6.76,132500
2016-11-15,6.68,6.8,6.53,6.77,172500
2016-11-16,6.78,6.87,6.56,6.79,213500
2016-11-17,6.6,6.74,6.6,6.62,45500
2016-11-18,6.62,6.81,6.62,6.81,82000
2016-11-21,6.84,6.98,6.84,6.9,179000
2016-11-22,6.99,6.99,6.85,6.86,82500
2016-11-23,6.56,6.95,6.56,6.88,37000
2016-11-24,6.85,6.85,6.62,6.7,5000
2016-11-25,6.6,6.7,6.58,6.7,165500
2016-11-28,6.58,6.61,6.55,6.6,105000
2016-11-29,6.6,6.63,6.56,6.6,99500
2016-11-30,6.57,6.7,6.23,6.52,200000
2016-12-01,6.54,6.54,6.5,6.5,257000
2016-12-02,6.5,6.55,6.45,6.5,278500
2016-12-05,6.5,6.5,6.43,6.45,142000
2016-12-06,6.45,6.78,6.28,6.3,427500
2016-12-07,6.38,6.4,6.2,6.27,675500
2016-12-08,6.28,6.3,6.1,6.2,1266000
2016-12-09,6.3,6.35,6.29,6.32,647000
2016-12-12,6.32,6.33,6.1,6.3,1426500
2016-12-13,6.5,6.66,6.41,6.55,175000
2016-12-14,6.6,6.6,6.25,6.38,156500
2016-12-15,6.22,6.5,6.22,6.42,34000
2016-12-16,6.42,6.42,6.28,6.34,94000
2016-12-19,7.6,7.6,6.61,6.61,1500
2016-12-20,6.5,6.77,6.41,6.61,58500
2016-12-21,6.5,6.61,6.41,6.57,74000
2016-12-22,6.58,6.96,6.41,6.77,141000
2016-12-28,6.73,6.8,6.65,6.8,58500
2016-12-29,6.71,7.2,6.71,7.2,80500
2016-12-30,7.16,7.36,6.63,7.36,1140000
2017-01-03,7.3,7.32,7.3,7.26,16500
2017-01-04,7.25,7.26,7.2,7.2,0
2017-01-05,7.19,7.19,7.1,7.1,0
2017-01-06,6.49,6.92,6.49,6.92,7500
2017-01-09,6.54,6.74,6.53,6.54,42000
2017-01-10,6.5,6.9,6.48,6.51,5000
2017-01-11,6.48,6.56,6.48,6.56,3500
2017-01-12,6.61,6.61,6.61,6.61,7000
2017-01-13,6.61,6.61,6.5,6.54,28500
2017-01-16,6.88,6.88,6.5,6.86,139000
2017-01-17,6.85,6.85,6.85,6.85,0
2017-01-18,6.84,6.84,6.8,6.83,24500
2017-01-19,6.85,6.85,6.78,6.8,27500
2017-01-20,6.8,7.08,6.75,6.85,49500
2017-01-23,7.0,7.0,7.0,6.8,500
2017-01-24,6.79,6.82,6.71,6.72,106500
2017-01-25,6.75,6.75,6.7,6.72,8500
2017-01-26,6.66,7.0,6.66,6.76,211000
2017-01-27,7.0,7.0,7.0,7.0,6500
2017-02-01,7.0,7.0,6.8,6.93,6500
2017-02-02,7.19,7.19,6.83,6.83,3000
2017-02-03,6.8,6.82,6.68,6.68,51500
2017-02-06,6.96,7.26,6.8,6.8,3500
2017-02-07,7.0,7.0,6.99,7.0,2500
2017-02-08,6.9,6.9,6.9,6.9,0
2017-02-09,6.8,7.0,6.66,6.98,34500
2017-02-10,6.95,6.95,6.66,6.66,7000
2017-02-13,6.66,6.66,6.66,6.66,1000
2017-02-14,6.85,6.86,6.85,6.86,8000
2017-02-15,6.67,6.67,6.66,6.69,17500
2017-02-16,6.75,6.8,6.75,6.77,32000
2017-02-17,6.9,6.94,6.69,6.75,22500
2017-02-20,6.76,7.0,6.76,6.97,100500
2017-02-21,6.99,7.18,6.9,7.04,56000
2017-02-22,6.85,7.0,6.76,7.0,119000
2017-02-23,7.0,7.02,6.8,7.0,83000
2017-02-24,7.22,7.4,6.86,6.9,709000
2017-02-27,6.93,6.93,6.8,6.88,13500
2017-02-28,6.88,6.88,6.79,6.8,80000
2017-03-01,6.8,6.85,6.8,6.85,8500
2017-03-02,6.94,6.99,6.85,6.92,29000
2017-03-03,6.92,6.92,6.88,6.9,11000
2017-03-06,6.9,6.9,6.85,6.85,33500
2017-03-07,6.88,7.27,6.88,7.24,33500
2017-03-08,7.19,7.19,6.88,6.9,336000
2017-03-09,6.9,6.91,6.9,6.91,1000
2017-03-10,6.88,6.9,6.88,6.9,11000
2017-03-13,6.88,6.9,6.71,6.85,2009000
2017-03-15,6.85,6.85,6.78,6.79,26000
2017-03-16,6.85,6.89,6.78,6.78,44500
2017-03-17,6.8,6.85,6.76,6.79,53500
2017-03-20,6.79,6.8,6.73,6.76,442000
2017-03-21,6.78,6.78,6.76,6.76,72000
2017-03-22,6.69,6.8,6.66,6.67,75500
2017-03-23,6.73,6.8,6.73,6.79,7000
2017-03-24,6.85,6.87,6.61,6.61,105500
2017-03-27,6.65,6.65,6.65,6.65,500
2017-03-28,6.6,6.61,6.6,6.61,2000
2017-03-29,6.6,6.61,6.5,6.5,57000
2017-03-30,6.47,6.47,6.28,6.29,275000
2017-03-31,6.35,6.36,6.05,6.15,1058500
2017-04-03,6.15,6.21,6.02,6.2,417000
2017-04-05,6.2,6.25,5.92,6.08,998500
2017-04-06,6.11,6.32,5.88,5.99,1672000
2017-04-07,6.04,6.79,5.95,6.11,554000
2017-04-10,6.15,6.15,5.92,5.95,287000
2017-04-11,6.1,6.1,5.95,5.95,136500
2017-04-12,6.11,6.11,6.01,6.01,10000
2017-04-13,5.96,6.0,5.95,6.06,34500
2017-04-18,6.06,6.11,6.01,6.11,388500
2017-04-19,6.09,6.48,6.09,6.34,301000
2017-04-20,6.4,6.45,6.19,6.21,129500
2017-04-21,6.28,6.28,6.28,6.27,12000
2017-04-24,6.27,6.27,6.2,6.22,34500
2017-04-25,6.23,6.28,6.23,6.28,2500
2017-04-26,6.21,6.28,6.21,6.28,3000
2017-04-27,6.28,6.28,6.27,6.27,6500
2017-04-28,6.26,6.31,6.2,6.21,13000
2017-05-02,6.19,6.3,6.19,6.28,168500
2017-05-04,6.26,6.53,6.25,6.3,243500
2017-05-05,6.32,6.39,6.31,6.32,7000
2017-05-08,6.3,6.32,6.23,6.31,2500
2017-05-09,6.28,6.31,6.28,6.3,11000
2017-05-10,6.28,6.43,6.28,6.38,62000
2017-05-11,6.31,6.31,6.22,6.23,139500
2017-05-12,6.28,6.28,6.25,6.25,6500
2017-05-16,6.23,6.45,6.23,6.37,22500
2017-05-17,6.4,6.4,6.29,6.29,11000
2017-05-18,6.21,6.26,6.21,6.26,14500
2017-05-19,6.4,6.58,6.3,6.54,328500
2017-05-22,6.5,6.8,6.5,6.66,363000
2017-05-23,6.69,6.75,6.45,6.68,636000
2017-05-24,6.72,6.88,6.68,6.88,811000
2017-05-25,6.93,6.93,6.6,6.7,15000
2017-05-26,6.56,6.57,6.46,6.46,78000
2017-05-29,6.44,6.44,6.21,6.28,66500
2017-05-31,6.31,6.31,6.25,6.26,101000
2017-06-01,6.26,6.26,5.93,6.12,665500
2017-06-02,6.14,6.2,6.0,6.15,907500
2017-06-05,6.27,6.32,6.15,6.25,40000
2017-06-06,6.1,6.2,6.01,6.03,138500
2017-06-07,6.1,6.19,5.7,5.96,1280000
2017-06-08,5.95,6.02,5.7,6.0,1313500
2017-06-09,6.02,6.04,5.96,6.01,682500
2017-06-12,6.0,6.12,5.85,6.0,464000
2017-06-13,6.05,6.1,6.0,6.05,259500
2017-06-14,6.07,6.15,6.05,6.05,255000
2017-06-15,6.06,6.13,6.05,6.13,356500
2017-06-16,6.13,6.25,6.13,6.14,218000
2017-06-19,6.29,6.39,6.21,6.29,538000
2017-06-20,6.31,6.38,6.17,6.38,329500
2017-06-21,6.3,6.32,6.28,6.29,352000
2017-06-22,6.28,6.28,6.26,6.35,10000
2017-06-23,6.21,6.31,6.21,6.31,26000
2017-06-26,6.26,6.3,6.26,6.3,37500
2017-06-27,6.3,6.5,6.3,6.39,285000
2017-06-28,6.49,6.49,6.42,6.42,80000
2017-06-29,6.31,6.37,6.3,6.31,94000
2017-06-30,6.34,6.49,6.34,6.49,26000
2017-07-03,6.43,6.43,6.36,6.37,133500
2017-07-04,6.36,6.5,6.36,6.43,22500
2017-07-05,6.4,6.5,6.4,6.45,112000
2017-07-06,6.6,6.6,6.46,6.5,68000
2017-07-10,6.5,6.54,6.17,6.28,14000
2017-07-11,6.21,6.43,6.21,6.34,39000
2017-07-12,6.34,6.34,6.08,6.3,9000
2017-07-13,6.31,6.35,6.31,6.35,5000
2017-07-14,6.35,6.5,6.35,6.47,12500
2017-07-18,6.42,6.59,6.42,6.5,42000
2017-07-19,6.25,6.35,6.25,6.37,36500
2017-07-20,6.38,6.48,6.28,6.4,43000
2017-07-21,6.29,6.41,6.29,6.4,8000
2017-07-24,6.4,6.6,6.4,6.46,69000
2017-07-25,6.55,6.6,6.5,6.6,45500
2017-07-26,6.6,6.6,6.4,6.58,21000
2017-07-27,6.58,6.58,6.28,6.48,422000
2017-07-31,6.49,6.49,6.31,6.38,4500
2017-08-01,6.29,6.79,6.29,6.53,7500
2017-08-02,6.53,6.53,6.53,6.52,1000
2017-08-03,6.45,6.45,6.05,6.42,57000
2017-08-04,6.3,6.3,6.21,6.3,54500
2017-08-07,6.22,6.32,6.2,6.32,10000
2017-08-08,6.32,6.45,6.32,6.35,11000
2017-08-09,6.31,6.31,6.15,6.28,19000
2017-08-10,6.26,6.26,6.13,6.21,63000
2017-08-11,6.23,6.27,6.01,6.1,78000
2017-08-14,6.23,6.31,6.23,6.31,29000
2017-08-15,6.3,6.41,6.3,6.4,270000
2017-08-16,6.4,6.43,6.3,6.4,142500
2017-08-17,6.4,6.6,6.37,6.53,168000
2017-08-18,6.42,6.43,6.4,6.4,152500
2017-08-21,6.5,6.51,6.44,6.44,27500
2017-08-22,6.45,6.49,6.42,6.42,4500
2017-08-24,6.5,6.93,6.5,6.52,488000
2017-08-25,6.64,6.77,6.54,6.55,1013000
2017-08-28,6.6,6.6,6.4,6.49,98000
2017-08-29,6.49,6.49,6.28,6.43,129000
2017-08-30,6.49,7.0,6.3,6.75,3489000
2017-08-31,6.75,6.9,6.74,6.83,4455000
2017-09-01,6.86,6.95,6.64,6.8,1005000
2017-09-04,6.86,7.45,6.8,7.3,4502000
2017-09-05,7.45,7.76,7.4,7.57,3626000
2017-09-06,7.54,7.6,7.35,7.54,2354000
2017-09-07,7.6,7.6,7.45,7.5,1622000
2017-09-08,7.41,8.0,7.4,7.92,3954000
2017-09-11,8.03,8.79,8.03,8.46,2809000
2017-09-12,8.5,8.5,8.12,8.24,3130500
2017-09-13,8.28,8.56,8.28,8.44,1481000
2017-09-14,8.44,8.5,8.13,8.19,491500
2017-09-15,8.3,8.34,8.1,8.28,1688000
2017-09-18,8.28,8.28,7.82,8.08,1505000
2017-09-19,8.17,8.17,7.98,8.07,376000
2017-09-20,8.07,8.07,7.98,8.06,1025000
2017-09-21,8.08,8.1,7.85,8.05,515000
2017-09-22,8.1,8.36,8.0,8.35,1421000
2017-09-25,8.35,8.4,7.95,8.0,1391000
2017-09-26,7.93,8.48,7.88,8.36,2027838
2017-09-27,8.38,8.38,8.17,8.26,789500
2017-09-28,8.26,8.4,8.14,8.32,1599500
2017-09-29,8.32,8.38,8.16,8.3,2905000
2017-10-03,8.48,8.53,8.2,8.53,4092000
2017-10-04,8.6,8.98,8.6,8.86,3093500
2017-10-06,8.91,9.07,8.81,8.85,3480500
2017-10-09,8.86,9.4,8.85,9.28,1672000
2017-10-10,9.28,9.77,9.18,9.63,2767000
2017-10-11,9.94,10.1,9.75,9.97,2723000
2017-10-12,10.0,10.02,9.78,9.86,1169000
2017-10-13,9.9,10.5,9.9,10.48,3971000
2017-10-16,10.68,10.78,10.34,10.5,2133500
2017-10-17,10.5,11.0,10.32,10.94,1534838
2017-10-18,11.0,11.68,10.7,10.98,2037000
2017-10-19,10.8,11.1,10.18,10.28,1447500
2017-10-20,10.4,10.8,10.26,10.46,1072000
2017-10-23,10.5,10.66,10.12,10.52,549000
2017-10-24,10.0,10.14,9.69,9.74,805500
2017-10-25,9.8,10.36,9.8,10.0,972000
2017-10-26,9.9,10.32,9.87,9.93,437130
2017-10-27,10.0,10.24,9.91,10.02,670500
2017-10-30,9.92,10.02,9.89,9.97,232500
2017-10-31,9.88,10.2,9.83,10.08,901500
2017-11-01,10.0,11.0,10.0,10.72,2338000
2017-11-02,10.62,11.44,10.62,11.24,2423000
2017-11-03,11.22,11.7,10.96,11.18,2131500
2017-11-06,11.16,11.16,10.64,11.02,1088000
2017-11-07,10.8,11.0,10.34,10.66,1108500
2017-11-08,10.76,11.0,10.6,10.68,1258500
2017-11-09,10.7,10.96,10.42,10.5,1587000
2017-11-10,10.4,10.6,10.36,10.48,897000
2017-11-13,10.48,10.8,10.48,10.6,893000
2017-11-14,10.4,10.6,10.3,10.5,943500
2017-11-15,10.28,10.6,10.14,10.52,850500
2017-11-16,10.52,11.88,10.48,10.84,3775500
2017-11-17,10.92,11.22,10.5,10.76,1690300
2017-11-20,10.76,10.84,10.3,10.74,1522500
2017-11-21,10.76,10.9,10.4,10.6,1068500
2017-11-22,10.62,11.48,10.62,10.94,3814500
2017-11-23,10.94,11.18,9.98,10.16,2298000
2017-11-24,10.2,10.5,10.1,10.34,1119500
2017-11-27,10.34,10.44,10.06,10.2,200000
2017-11-28,10.16,10.44,10.16,10.4,443000
2017-11-29,10.4,10.54,10.28,10.42,123000
2017-11-30,10.3,11.1,10.3,10.8,944500
2017-12-01,10.8,11.1,10.32,10.42,509500
2017-12-04,10.4,10.4,10.14,10.36,1233500
2017-12-05,10.4,10.46,10.2,10.32,515080
2017-12-06,10.26,10.5,10.06,10.4,1104500
2017-12-07,10.6,10.6,10.02,10.16,1246000
2017-12-08,10.0,10.48,10.0,10.3,1830892
2017-12-11,10.3,10.32,10.2,10.32,147000
2017-12-12,10.4,10.6,10.38,10.56,381500
2017-12-13,10.46,11.0,10.46,10.56,1365781
2017-12-14,10.56,10.74,10.4,10.48,147500
2017-12-15,10.4,10.48,9.82,10.28,2892163
2017-12-18,10.3,10.5,10.14,10.22,70000
2017-12-19,10.22,10.46,10.0,10.06,777000
2017-12-20,10.06,10.22,10.0,10.22,1164500
2017-12-21,10.02,10.38,10.02,10.32,602284
2017-12-22,10.14,10.28,9.98,10.08,2203500
2017-12-27,9.82,10.06,9.66,9.84,718500
2017-12-28,9.81,10.0,9.6,9.69,1406490
2017-12-29,9.75,10.1,9.3,9.5,1632500
2018-01-02,9.56,9.8,9.5,9.57,841500
2018-01-03,9.45,9.8,9.3,9.49,1362000
2018-01-04,9.49,9.7,9.29,9.7,664300
2018-01-05,9.69,10.3,9.53,10.24,821500
2018-01-08,10.24,11.28,10.1,10.92,989000
2018-01-09,10.8,11.26,10.8,11.06,1376000
2018-01-10,11.04,11.06,10.8,11.0,429500
2018-01-11,10.96,11.26,10.88,11.0,1022002
2018-01-12,11.2,11.2,10.66,10.92,652487
2018-01-15,10.92,11.2,10.6,10.72,225000
2018-01-16,10.72,10.98,10.54,10.58,202500
2018-01-17,10.58,10.98,10.54,10.74,708500
2018-01-18,10.7,10.84,10.4,10.56,1434500
2018-01-19,10.84,11.1,10.72,10.86,554500
2018-01-22,10.86,11.78,10.86,11.62,1086500
2018-01-23,11.88,12.4,11.54,12.36,1932733
2018-01-24,12.24,12.56,11.96,12.3,426508
2018-01-25,12.3,12.36,11.82,11.84,783000
2018-01-26,11.78,12.06,11.64,11.8,606032
2018-01-29,11.82,12.22,11.68,11.82,679500
2018-01-30,11.64,12.38,11.6,11.92,1172500
2018-01-31,12.16,12.16,11.5,11.92,782750
2018-02-01,11.74,12.04,11.74,11.76,685661
2018-02-02,11.76,12.1,11.52,11.76,727338
2018-02-05,11.44,11.6,11.18,11.2,695500
2018-02-06,10.9,11.08,10.1,10.3,1369500
2018-02-07,10.5,11.02,10.3,10.4,666830
2018-02-08,10.3,10.68,10.22,10.52,461000
2018-02-09,10.28,10.66,10.2,10.58,786169
2018-02-12,10.52,10.98,10.5,10.8,306000
2018-02-13,11.18,11.28,10.98,11.06,236000
2018-02-14,11.04,11.58,10.92,11.34,435500
2018-02-15,11.7,11.78,11.2,11.64,164500
2018-02-20,11.8,11.8,11.34,11.52,312000
2018-02-21,11.56,11.9,11.4,11.86,402500
2018-02-22,11.84,12.8,11.64,12.54,1564000
2018-02-23,12.8,13.26,12.76,13.14,2049000
2018-02-26,13.16,14.5,12.48,14.44,5452500
2018-02-27,14.7,16.0,14.7,15.46,6352400
2018-02-28,15.46,15.72,15.18,15.42,7507440
2018-03-01,15.42,17.0,15.38,16.06,6037500
2018-03-02,15.84,16.12,15.2,15.4,2105500
2018-03-05,15.4,16.06,14.82,15.68,1744000
2018-03-06,15.82,16.4,15.5,15.98,1168500
2018-03-07,16.06,16.78,16.04,16.3,1466500
2018-03-08,16.4,16.6,16.12,16.48,1903000
2018-03-09,16.48,16.54,16.3,16.46,1056000
2018-03-12,16.22,16.8,15.92,16.06,1739710
2018-03-13,16.12,16.5,15.86,16.38,1650000
2018-03-14,16.48,16.6,16.04,16.28,1133300
2018-03-15,15.94,16.26,15.92,16.16,754500
2018-03-16,16.14,16.54,16.14,16.46,847500
2018-03-19,16.5,17.14,16.22,16.42,2276000
2018-03-20,15.98,16.54,15.92,16.3,613000
2018-03-21,16.4,16.5,16.06,16.18,379000
2018-03-22,16.24,16.46,16.02,16.1,519000
2018-03-23,15.66,15.9,15.3,15.62,1368500
2018-03-26,15.46,15.62,15.26,15.42,787734
2018-03-27,15.42,15.86,15.32,15.62,681100
2018-03-28,15.5,16.36,15.5,15.96,922500
2018-03-29,15.96,16.0,15.24,15.94,596000
2018-04-03,15.9,16.14,15.42,15.7,402500
2018-04-04,15.7,16.38,15.58,15.74,749790
2018-04-06,15.84,16.28,15.54,15.66,515000
2018-04-09,15.82,15.9,15.58,15.74,394000
2018-04-10,15.66,16.0,15.54,15.68,810000
2018-04-11,15.68,15.68,15.2,15.4,817000
2018-04-12,15.32,15.6,15.08,15.26,441000
2018-04-13,15.28,15.36,14.9,15.22,781000
2018-04-16,15.36,15.46,15.0,15.02,254524
2018-04-17,15.1,15.22,14.8,14.94,596000
2018-04-18,15.22,15.22,14.6,15.0,511800
2018-04-19,15.0,15.14,14.22,15.1,1021500
2018-04-20,14.82,15.04,14.48,14.54,314000
2018-04-23,14.32,14.66,14.06,14.42,678500
2018-04-24,14.52,15.16,14.42,15.04,812500
2018-04-25,14.9,15.74,14.9,15.5,607500
2018-04-26,15.5,15.7,15.0,15.3,388500
2018-04-27,15.36,15.38,15.02,15.22,313500
2018-04-30,15.22,16.22,15.12,16.02,582000
2018-05-02,15.66,17.48,15.66,16.62,3550500
2018-05-03,16.74,18.02,16.74,18.0,3205900
2018-05-04,17.98,18.12,17.34,17.7,2060000
2018-05-07,17.82,18.1,17.6,17.68,862500
2018-05-08,18.0,18.96,17.86,18.72,2413500
2018-05-09,18.88,19.24,18.64,19.16,3095165
2018-05-10,19.18,19.36,18.62,19.32,3981359
2018-05-11,19.38,20.0,19.04,19.32,1431000
2018-05-14,19.64,19.64,18.22,18.38,2082500
2018-05-15,18.44,19.04,18.4,18.56,1116000
2018-05-16,18.56,18.86,18.28,18.5,1038500
2018-05-17,18.7,19.2,18.7,18.88,1120000
2018-05-18,19.3,19.66,18.98,19.02,1114000
2018-05-21,19.02,19.88,19.02,19.48,1015000
2018-05-23,19.12,20.9,19.12,19.46,3535000
2018-05-24,19.86,20.8,19.74,20.55,2736000
2018-05-25,20.85,20.9,20.35,20.5,1787500
2018-05-28,20.5,20.7,18.32,19.82,6297500
2018-05-29,19.68,20.05,19.58,19.82,661000
2018-05-30,19.6,20.05,19.12,19.36,1947500
2018-05-31,19.24,19.8,18.78,18.84,3552000
2018-06-01,19.2,19.76,19.04,19.22,1060000
2018-06-04,19.1,20.6,19.1,20.05,1888500
2018-06-05,20.5,20.5,19.86,20.0,1719378
2018-06-06,19.94,20.65,19.8,20.3,1966400
2018-06-07,20.55,20.65,19.8,19.82,1325000
2018-06-08,19.84,20.15,19.8,20.1,3571000
2018-06-11,20.0,20.1,19.8,19.92,385000
2018-06-12,20.15,20.35,19.8,20.0,1256000
2018-06-13,20.0,20.25,19.86,20.1,456500
2018-06-14,20.0,20.45,19.9,20.05,861000
2018-06-15,20.15,20.45,20.0,20.2,713500
2018-06-19,19.9,20.5,19.8,19.88,1395500
2018-06-20,19.88,19.96,19.4,19.68,996500
2018-06-21,19.68,19.74,19.3,19.38,555000
2018-06-22,19.14,19.14,18.2,18.76,2009500
2018-06-25,18.82,19.22,17.92,18.06,1643000
2018-06-26,18.08,18.2,16.92,17.02,3261000
2018-06-27,17.02,17.96,16.9,17.46,1596000
2018-06-28,17.4,18.12,17.26,17.72,791000
2018-06-29,17.62,18.08,17.62,17.98,1352500
2018-07-03,17.98,18.06,17.3,17.94,2745500
2018-07-04,17.92,17.94,17.22,17.34,598500
2018-07-05,17.24,17.68,16.88,17.08,690500
2018-07-06,17.04,17.2,16.7,16.94,1185500
2018-07-09,17.0,17.7,16.8,16.86,1255000
2018-07-10,17.1,17.1,16.26,16.32,908175
2018-07-11,16.2,16.6,16.04,16.4,503000
2018-07-12,16.4,17.4,16.38,16.98,1243500
2018-07-13,17.02,17.6,16.82,17.28,952270
2018-07-16,17.28,17.4,16.96,17.3,710500
2018-07-17,17.14,17.38,16.98,17.04,505000
2018-07-18,16.96,17.62,16.96,17.3,604500
2018-07-19,17.16,17.82,17.16,17.32,601000
2018-07-20,17.28,17.28,16.54,17.1,474500
2018-07-23,17.1,17.16,16.76,16.84,253000
2018-07-24,16.8,17.86,16.74,17.72,570000
2018-07-25,17.84,19.68,17.72,19.66,1172000
2018-07-26,19.72,20.0,19.48,19.94,998000
2018-07-27,19.94,19.94,18.76,19.04,1351000
2018-07-30,18.92,19.12,18.28,18.72,454000
2018-07-31,18.72,18.72,18.22,18.48,581500
2018-08-01,18.48,19.12,18.3,18.62,851500
2018-08-02,18.22,19.1,18.12,18.24,610500
2018-08-03,18.24,18.54,17.22,17.26,385000
2018-08-06,17.68,17.68,15.26,15.32,1521500
2018-08-07,15.4,16.18,14.74,16.04,1753500
2018-08-08,16.16,16.6,15.8,16.3,1761000
2018-08-09,16.64,17.3,16.44,16.68,799000
2018-08-10,16.5,17.0,16.4,16.54,991500
2018-08-13,16.6,16.76,16.0,16.42,1229000
2018-08-14,16.44,16.94,16.04,16.1,2038500
2018-08-15,16.2,17.2,16.04,16.18,2953500
2018-08-16,16.04,16.66,15.6,16.54,1698000
2018-08-17,16.98,16.98,14.2,14.6,2038000
2018-08-20,14.86,14.88,14.24,14.4,1349000
2018-08-21,14.56,15.72,14.32,15.68,2215500
2018-08-22,15.68,15.96,14.56,14.6,1315000
2018-08-23,14.9,15.88,14.74,15.8,1481500
2018-08-24,15.88,16.34,15.34,16.18,1412000
2018-08-27,16.92,17.1,15.92,16.86,2219500
2018-08-28,17.52,17.52,13.64,14.82,5864000
2018-08-29,15.0,15.32,14.16,14.28,3397234
2018-08-30,14.24,14.34,13.06,13.62,6476580
2018-08-31,13.5,13.62,13.08,13.4,3980665
2018-09-03,14.0,14.56,13.88,14.44,2724090
2018-09-04,14.74,14.86,13.84,14.7,1553000
2018-09-05,14.8,14.8,13.16,13.4,3770000
2018-09-06,13.7,13.7,12.74,12.92,3298000
2018-09-07,13.14,13.48,12.82,12.92,1388500
2018-09-10,12.86,13.0,12.46,12.9,2504500
2018-09-11,12.78,13.12,12.2,12.6,2993500
2018-09-12,12.42,13.44,11.98,12.2,5456000
2018-09-13,12.3,12.6,11.84,12.1,4399500
2018-09-14,12.26,13.18,12.12,13.02,2490000
2018-09-17,12.9,13.12,12.42,13.0,1571500
2018-09-18,12.6,13.3,12.6,13.02,1332500
2018-09-19,12.74,14.12,12.74,13.76,1983000
2018-09-20,13.76,13.88,13.34,13.44,1704000
2018-09-21,13.46,13.94,13.02,13.94,10170352
2018-09-24,13.28,13.42,13.12,13.26,316500
2018-09-26,13.34,14.5,13.32,14.24,1271500
2018-09-27,14.18,14.18,13.38,13.38,1104216
2018-09-28,13.98,13.98,13.3,13.88,1339500
2018-10-02,13.84,13.84,13.42,13.44,720000
2018-10-03,13.34,13.66,13.22,13.4,1080505
2018-10-04,13.3,13.6,13.28,13.5,520000
2018-10-05,13.2,13.3,12.6,12.86,624500
2018-10-08,12.86,13.0,12.14,12.14,1533500
2018-10-09,12.2,12.54,12.14,12.34,1182000
2018-10-10,12.34,12.96,12.34,12.52,786500
2018-10-11,12.32,12.32,11.68,11.98,1620500
2018-10-12,12.0,12.24,11.5,11.92,1263500
2018-10-15,12.0,12.38,11.92,12.3,1153000
2018-10-16,12.36,12.62,12.04,12.6,895500
2018-10-18,12.62,13.0,12.48,12.76,1344500
2018-10-19,12.76,13.6,12.34,13.58,2410500
2018-10-22,13.58,13.58,12.96,13.4,972500
2018-10-23,13.4,13.4,12.82,13.0,435500
2018-10-24,13.0,13.36,12.82,13.12,604000
2018-10-25,12.66,12.66,12.0,12.14,605500
2018-10-26,12.12,12.3,11.7,11.86,789000
2018-10-29,11.88,12.3,11.5,11.6,1233500
2018-10-30,11.68,11.9,11.4,11.9,967500
2018-10-31,12.0,12.56,11.9,12.0,1324700
2018-11-01,12.14,12.56,12.04,12.2,1214840
2018-11-02,12.46,13.96,12.46,13.92,2633500
2018-11-05,13.56,13.72,13.08,13.68,1259500
2018-11-06,13.68,13.86,13.24,13.7,383500
2018-11-07,13.58,14.56,13.38,14.5,1248000
2018-11-08,14.68,15.7,14.4,14.46,1945500
2018-11-09,14.14,14.4,13.68,14.26,684500
2018-11-12,14.12,14.46,13.96,14.12,487000
2018-11-13,13.88,14.32,13.5,14.28,292000
2018-11-14,14.36,14.44,14.0,14.4,941000
2018-11-15,14.48,14.9,14.1,14.72,1546500
2018-11-16,14.6,14.92,14.5,14.7,174500
2018-11-19,14.78,15.16,14.48,14.74,289500
2018-11-20,14.6,14.6,13.26,13.7,1492500
2018-11-21,13.9,14.16,13.7,14.0,284500
2018-11-22,14.0,14.26,13.46,14.0,281000
2018-11-23,14.2,14.2,13.8,14.0,207000
2018-11-26,14.02,14.38,13.64,14.26,563500
2018-11-27,14.12,14.84,14.1,14.58,1004000
2018-11-28,14.12,14.28,13.9,14.12,889000
2018-11-29,13.92,14.04,13.5,13.74,323000
2018-11-30,13.74,13.74,13.26,13.58,667500
2018-12-03,13.8,14.1,13.64,13.82,371000
2018-12-04,13.88,14.46,13.64,14.3,713560
2018-12-05,14.02,14.06,13.62,13.96,443500
2018-12-06,14.16,14.16,13.4,13.58,611470
2018-12-07,13.4,13.56,12.7,12.8,1825500
2018-12-10,12.7,12.7,11.88,12.02,1436500
2018-12-11,12.02,12.1,10.92,11.7,5781900
2018-12-12,11.76,11.82,11.5,11.64,839500
2018-12-13,11.52,12.5,11.24,12.08,1413000
2018-12-14,12.24,12.24,11.2,11.2,1329500
2018-12-17,11.04,11.58,11.04,11.34,602500
2018-12-18,11.26,11.5,11.2,11.28,303500
2018-12-19,11.38,11.56,11.28,11.52,617000
2018-12-20,11.56,11.76,11.26,11.52,907500
2018-12-21,11.52,11.62,11.0,11.18,1485000
2018-12-24,10.9,11.34,10.72,11.1,684500
2018-12-27,11.1,11.16,10.22,10.4,935500
2018-12-28,10.24,10.98,10.24,10.88,911500
2018-12-31,11.0,11.1,10.56,10.98,167000
2019-01-02,11.1,11.26,9.89,10.28,1376500
2019-01-03,10.36,10.36,9.87,10.0,389800
2019-01-04,9.96,10.08,9.9,10.02,285500
2019-01-07,10.16,10.5,10.12,10.48,1446500
2019-01-08,10.56,10.8,10.4,10.52,2395000
2019-01-09,10.58,11.1,10.42,10.64,1038500
2019-01-10,10.78,10.78,10.36,10.46,271500
2019-01-11,10.54,10.54,10.22,10.34,486000
2019-01-14,10.34,10.46,9.92,10.38,1369000
2019-01-15,10.3,11.0,10.3,10.9,1147500
2019-01-16,11.0,11.14,10.84,10.96,552500
2019-01-17,11.0,11.58,10.8,11.42,881000
2019-01-18,11.54,12.0,11.4,12.0,1422600
2019-01-21,11.92,11.96,11.62,11.76,602500
2019-01-22,11.8,12.18,11.52,11.76,1057000
2019-01-23,11.54,11.54,11.28,11.3,394500
2019-01-24,11.36,11.56,11.04,11.3,751000
2019-01-25,11.18,11.56,11.1,11.36,965000
2019-01-28,11.36,11.86,11.36,11.86,613000
2019-01-29,11.88,12.0,11.68,11.96,766500
2019-01-30,12.02,12.34,11.94,12.26,617500
2019-01-31,12.2,12.38,11.72,11.74,339500
2019-02-01,12.02,12.06,11.3,11.6,593970
2019-02-04,11.56,11.6,11.2,11.26,1734500
2019-02-08,11.4,12.18,11.3,11.96,950500
2019-02-11,11.78,12.0,11.42,11.56,1732000
2019-02-12,11.52,11.9,11.52,11.76,3645000
2019-02-13,11.8,12.0,11.64,11.76,1269500
2019-02-14,11.84,11.84,11.52,11.52,497500
2019-02-15,11.6,11.6,10.66,10.84,1970000
2019-02-18,11.16,11.34,11.0,11.2,1453500
2019-02-19,11.4,11.4,11.16,11.3,841000
2019-02-20,11.3,12.08,11.3,12.02,1924500
2019-02-21,12.1,12.76,12.02,12.56,1762000
2019-02-22,12.6,13.06,12.4,13.02,1080000
2019-02-25,13.24,13.36,12.9,13.28,1272000
2019-02-26,13.28,13.36,12.98,13.08,1364000
2019-02-27,13.42,14.98,13.02,14.44,2553500
2019-02-28,14.6,15.5,14.02,15.5,4822960
2019-03-01,15.36,15.94,15.28,15.6,3058000
2019-03-04,15.52,15.54,15.02,15.3,2109000
2019-03-05,15.16,15.48,15.02,15.36,2428000
2019-03-06,15.38,15.48,14.94,14.94,2303500
2019-03-07,14.9,15.24,14.84,15.18,1954500
2019-03-08,15.08,15.34,14.86,14.98,1636345
2019-03-11,14.8,15.2,14.8,15.1,784022
2019-03-12,14.88,15.84,14.88,15.26,1422000
2019-03-13,15.38,15.38,15.02,15.12,1036615
2019-03-14,15.28,15.52,15.02,15.08,785000
2019-03-15,15.1,15.24,14.82,15.08,903500
2019-03-18,15.3,15.72,14.62,15.64,3423000
2019-03-19,15.78,16.2,15.7,15.92,1120500
2019-03-20,15.92,16.1,15.72,16.0,1212978
2019-03-21,15.9,16.16,15.44,15.62,462000
2019-03-22,15.7,16.08,15.6,16.04,1815500
2019-03-25,15.8,16.0,15.6,15.9,582500
2019-03-26,16.0,16.0,15.52,15.84,611000
2019-03-27,15.72,15.96,15.7,15.8,1344500
2019-03-28,15.76,15.94,15.6,15.8,386200
2019-03-29,15.7,15.88,15.48,15.78,1029150
2019-04-01,15.78,16.04,15.52,16.02,789000
2019-04-02,16.04,16.08,15.66,16.04,856300
2019-04-03,16.04,16.12,15.76,15.88,498900
2019-04-04,15.7,16.08,15.7,15.94,290000
2019-04-08,16.22,16.28,15.84,16.1,1150500
2019-04-09,16.1,16.52,15.9,16.3,838600
2019-04-10,16.22,16.68,16.06,16.68,1426500
2019-04-11,16.72,17.32,16.38,16.64,760500
2019-04-12,16.88,16.88,16.1,16.32,680500
2019-04-15,16.72,16.72,15.82,15.96,657000
2019-04-16,15.96,15.96,15.48,15.78,653000
2019-04-17,15.98,16.24,15.68,15.9,329500
2019-04-18,15.6,16.2,15.5,15.72,229500
2019-04-23,15.9,15.9,14.9,15.08,818730
2019-04-24,14.96,15.58,14.96,15.4,801000
2019-04-25,15.44,15.58,15.14,15.24,644020
2019-04-26,15.14,15.4,15.1,15.26,187000
2019-04-29,15.24,15.54,14.96,15.36,272500
2019-04-30,15.34,15.6,15.3,15.5,163000
2019-05-02,15.5,15.58,15.4,15.5,97000
2019-05-03,15.32,16.2,15.3,16.16,517000
2019-05-06,15.7,15.7,15.0,15.04,857000
2019-05-07,15.04,15.46,15.04,15.34,246500
2019-05-08,15.36,15.36,14.92,14.98,320880
2019-05-09,15.2,15.22,14.5,14.68,893200
2019-05-10,14.68,15.22,14.66,15.0,570500
2019-05-14,14.8,15.0,14.64,14.8,1252100
2019-05-15,15.08,15.26,14.74,15.26,815820
2019-05-16,15.1,16.3,15.1,16.12,780200
2019-05-17,16.12,16.12,15.64,15.72,759500
2019-05-20,15.4,15.64,14.76,14.88,2190500
2019-05-21,14.78,14.88,14.7,14.84,1388500
2019-05-22,14.84,15.1,14.74,14.88,1248000
2019-05-23,14.88,15.3,14.7,14.82,476500
2019-05-24,14.8,14.8,14.1,14.26,1144500
2019-05-27,14.48,14.48,13.56,13.88,508500
2019-05-28,13.86,13.96,13.5,13.62,1949500
2019-05-29,13.62,14.26,13.58,13.78,734500
2019-05-30,13.54,13.68,13.24,13.62,1091500
2019-05-31,13.52,13.8,13.5,13.56,78500
2019-06-03,13.56,13.56,12.94,13.16,235500
2019-06-04,13.16,13.5,13.04,13.2,212246
2019-06-05,13.28,13.34,13.16,13.16,367400
2019-06-06,13.38,13.58,13.04,13.46,196670
2019-06-10,13.5,13.98,13.22,13.48,646000
2019-06-11,13.5,14.18,13.5,14.1,664000
2019-06-12,13.98,13.98,13.2,13.84,383500
2019-06-13,13.98,14.0,13.54,13.82,118000
2019-06-14,13.84,13.84,13.04,13.26,527500
2019-06-17,13.16,13.2,12.2,13.0,967730
2019-06-18,13.44,13.96,13.3,13.82,339500
2019-06-19,14.0,14.3,13.84,13.92,287500
2019-06-20,14.3,14.3,13.76,13.88,419500
2019-06-21,13.62,14.24,13.62,14.2,411000
2019-06-24,13.8,13.98,13.72,13.78,303500
2019-06-25,13.98,13.98,13.58,13.58,226225
2019-06-26,13.7,13.86,13.62,13.7,222180
2019-06-27,13.6,14.32,13.56,13.92,1152000
2019-06-28,13.92,14.38,13.82,14.32,1267500
2019-07-02,14.38,14.8,14.2,14.8,475150
2019-07-03,14.6,15.14,14.6,14.72,348500
2019-07-04,15.02,15.02,14.7,14.9,458000
2019-07-05,14.8,14.86,14.4,14.5,151000
2019-07-08,15.0,15.0,14.0,14.08,541090
2019-07-09,14.02,14.06,13.38,13.58,335000
2019-07-10,13.6,13.74,13.46,13.64,801500
2019-07-11,13.86,14.12,13.52,13.66,207000
2019-07-12,14.28,14.28,13.96,14.06,570500
2019-07-15,14.02,14.2,13.82,14.0,345500
2019-07-16,14.3,14.3,14.12,14.12,109500
2019-07-17,14.2,14.3,14.06,14.06,200000
2019-07-18,14.0,14.28,14.0,14.06,277800
2019-07-19,14.26,14.64,14.02,14.5,288370
2019-07-22,14.16,14.5,14.16,14.48,315460
2019-07-23,14.32,14.68,14.22,14.3,232280
2019-07-24,14.22,14.98,14.22,14.4,363000
2019-07-25,14.6,14.72,14.26,14.3,191500
2019-07-26,14.68,14.76,14.3,14.36,172000
2019-07-29,14.3,14.78,14.3,14.46,455500
2019-07-30,14.66,14.8,14.4,14.48,241000
2019-07-31,14.48,14.6,14.34,14.42,68500
2019-08-01,14.2,14.8,14.02,14.34,282990
2019-08-02,14.14,14.42,13.58,13.72,1098500
2019-08-05,13.7,13.7,13.0,13.12,572500
2019-08-06,13.02,13.26,12.52,13.02,426310
2019-08-07,13.02,13.64,12.84,13.32,386500
2019-08-08,13.7,13.7,12.98,13.4,216460
2019-08-09,13.7,13.7,13.2,13.36,96000
2019-08-12,13.5,13.9,13.46,13.62,271500
2019-08-13,13.36,13.76,13.1,13.1,217000
2019-08-14,13.68,13.68,13.08,13.16,204420
2019-08-15,13.0,13.14,12.88,13.1,454000
2019-08-16,13.58,13.58,13.02,13.26,379500
2019-08-19,13.68,13.84,13.4,13.6,182500
2019-08-20,13.6,13.6,13.1,13.3,775000
2019-08-21,13.7,13.7,13.22,13.52,390110
2019-08-22,13.82,13.82,13.04,13.44,883000
2019-08-23,13.42,13.6,13.26,13.42,63500
2019-08-26,13.4,14.16,12.84,13.0,274810
2019-08-27,12.8,13.12,12.42,12.7,1049246
2019-08-28,12.58,12.7,11.34,11.4,3469720
2019-08-29,11.4,11.46,10.56,10.66,2135026
2019-08-30,10.7,11.36,10.44,11.22,2164885
2019-09-02,11.22,11.4,11.02,11.22,1147000
2019-09-03,11.18,11.2,10.64,10.88,1382450
2019-09-04,10.88,11.3,10.88,11.04,882525
2019-09-05,11.12,11.3,11.08,11.14,401000
2019-09-06,11.16,11.36,11.08,11.1,396500
2019-09-09,11.0,11.04,10.7,10.88,1034880
2019-09-10,10.98,11.14,10.88,11.14,1099096
2019-09-11,11.1,11.62,11.1,11.5,1092500
2019-09-12,11.64,12.0,11.5,11.88,844000
2019-09-13,11.88,12.08,11.76,12.0,444000
2019-09-16,11.9,12.08,11.8,11.86,358860
2019-09-17,11.6,11.84,11.42,11.7,667831
2019-09-18,11.86,11.88,11.7,11.7,262000
2019-09-19,11.62,11.76,11.3,11.4,1042875
2019-09-20,11.28,11.7,11.28,11.7,309000
2019-09-23,11.72,11.72,11.34,11.42,359040
2019-09-24,11.38,11.46,11.16,11.18,277500
2019-09-25,11.26,11.46,11.14,11.14,229500
2019-09-26,11.16,11.58,11.0,11.1,1041500
2019-09-27,11.1,11.48,11.08,11.3,1300860
2019-09-30,11.22,11.32,11.08,11.26,449000
2019-10-02,11.46,11.46,11.0,11.12,2143500
2019-10-03,11.2,11.3,11.04,11.08,475210
2019-10-04,11.14,11.14,10.88,10.96,306500
2019-10-08,11.2,11.22,10.94,10.98,550500
2019-10-09,11.18,11.18,10.9,10.96,407660
2019-10-10,11.2,11.22,11.0,11.0,778914
2019-10-11,11.12,11.54,11.12,11.4,956500
2019-10-14,11.5,11.54,11.28,11.5,1091090
2019-10-15,11.58,11.58,11.34,11.52,373670
2019-10-16,11.46,11.66,11.46,11.6,542480
2019-10-17,11.64,11.74,11.52,11.68,320830
2019-10-18,11.68,11.7,11.5,11.6,743820
2019-10-21,11.56,12.0,11.56,12.0,688080
2019-10-22,11.52,11.6,11.36,11.4,472500
2019-10-23,11.4,11.58,11.26,11.42,271720
2019-10-24,11.3,11.42,11.28,11.36,164000
2019-10-25,11.3,11.5,11.24,11.44,932590
2019-10-28,11.56,12.0,11.44,11.72,830430
2019-10-29,11.84,11.86,11.52,11.64,494740
2019-10-30,11.7,11.84,11.66,11.74,965000
2019-10-31,11.78,11.78,11.08,11.2,871000
2019-11-01,11.12,11.44,11.0,11.28,673500
2019-11-04,11.42,11.8,11.3,11.68,436000
2019-11-05,11.78,11.78,11.44,11.6,363000
2019-11-06,11.98,11.98,11.24,11.34,726100
2019-11-07,11.5,11.5,11.2,11.36,254000
2019-11-08,11.58,11.58,11.3,11.36,103000
2019-11-11,11.38,11.46,11.02,11.04,749480
2019-11-12,11.02,11.14,11.02,11.08,1164240
2019-11-13,11.04,11.16,10.8,11.04,718500
2019-11-14,11.24,11.42,10.84,11.06,274500
2019-11-15,10.98,11.0,10.6,10.76,411000
2019-11-18,10.94,11.1,10.8,11.1,183160
2019-11-19,11.2,11.44,11.08,11.42,608672
2019-11-20,11.3,11.56,11.28,11.4,699750
2019-11-21,11.08,11.46,11.02,11.16,352403
2019-11-22,11.08,11.3,11.08,11.16,348500
2019-11-25,11.32,11.44,11.06,11.36,388500
2019-11-26,11.36,11.4,11.12,11.18,446500
2019-11-27,11.12,11.4,11.12,11.38,296800
2019-11-28,11.38,11.38,11.04,11.1,363000
2019-11-29,11.1,11.1,10.78,10.9,6359000
2019-12-02,10.9,10.98,10.74,10.84,205000
2019-12-03,10.74,10.92,10.74,10.82,227000
2019-12-04,10.8,10.84,10.5,10.62,521000
2019-12-05,10.62,10.66,10.42,10.44,359300
2019-12-06,10.54,10.7,10.22,10.36,734400
2019-12-09,10.72,10.72,10.44,10.5,383500
2019-12-10,10.5,10.64,10.3,10.4,1495500
2019-12-11,10.4,10.4,9.85,9.96,1488100
2019-12-12,10.06,10.2,10.0,10.12,877690
2019-12-13,10.22,10.38,10.18,10.3,1406000
2019-12-16,10.32,10.6,10.12,10.4,434600
2019-12-17,10.44,10.7,10.44,10.6,412000
2019-12-18,10.6,11.14,10.4,10.46,499778
2019-12-19,10.46,10.7,10.14,10.42,472840
2019-12-20,10.28,10.42,10.2,10.34,407500
2019-12-23,10.5,10.5,10.28,10.32,613920
2019-12-24,10.4,10.74,10.4,10.58,427440
2019-12-27,10.74,10.74,10.26,10.28,593276
2019-12-30,10.28,10.62,10.16,10.52,476170
2019-12-31,10.24,10.54,10.24,10.46,182913
2020-01-02,10.46,10.56,10.28,10.5,282270
2020-01-03,10.46,10.6,10.24,10.34,374500
2020-01-06,10.44,10.44,10.1,10.12,424500
2020-01-07,10.18,10.18,9.95,10.04,433900
2020-01-08,10.02,10.26,9.96,10.0,524500
2020-01-09,10.04,10.24,9.88,10.12,810000
2020-01-10,10.06,10.3,9.98,10.28,836000
2020-01-13,10.32,10.4,9.98,10.16,1050000
2020-01-14,10.26,10.28,9.98,10.08,982720
2020-01-15,10.12,10.66,10.12,10.36,1375000
2020-01-16,10.32,10.6,10.3,10.54,704050
2020-01-17,10.56,11.18,10.5,11.16,1118500
2020-01-20,11.08,11.16,10.7,10.84,646500
2020-01-21,10.84,10.84,10.5,10.6,801500
2020-01-22,10.48,10.48,10.24,10.28,355500
2020-01-23,10.42,10.42,9.87,9.91,991000
2020-01-24,10.1,10.24,9.85,10.24,743070
2020-01-29,10.18,10.2,9.55,9.6,887500
2020-01-30,9.64,9.64,8.92,9.0,1829000
2020-01-31,9.21,9.36,9.04,9.1,878000
2020-02-03,9.02,9.14,8.95,9.02,1052619
2020-02-04,9.02,9.21,8.95,8.95,1837120
2020-02-05,9.22,9.22,8.88,9.04,1294500
2020-02-06,9.04,9.1,8.99,9.09,760000
2020-02-07,9.09,9.14,8.96,9.0,1179500
2020-02-10,9.0,9.0,8.68,8.7,1160500
2020-02-11,8.76,8.93,8.7,8.81,1614500
2020-02-12,9.0,9.0,8.72,8.75,1261830
2020-02-13,8.81,8.87,8.7,8.79,1163000
2020-02-14,8.8,8.82,8.7,8.77,1724500
2020-02-17,8.77,9.05,8.72,9.02,819000
2020-02-18,9.02,9.02,8.75,8.78,865500
2020-02-19,8.78,8.82,8.65,8.71,1090000
2020-02-20,8.67,8.71,8.61,8.65,924240
2020-02-21,8.68,8.81,8.61,8.71,1329407
2020-02-24,8.71,8.71,8.5,8.51,759000
2020-02-25,8.5,8.76,8.5,8.61,1246500
2020-02-26,8.44,8.44,8.09,8.36,3573500
2020-02-27,8.28,8.39,8.0,8.06,4513500
2020-02-28,8.04,8.55,7.7,8.4,4495000
2020-03-02,8.4,8.5,7.94,8.06,1489500
2020-03-03,8.03,8.2,7.75,7.76,1893900
2020-03-04,7.81,7.92,7.6,7.92,1506700
2020-03-05,7.97,8.14,7.92,8.1,1890500
2020-03-06,8.0,8.35,8.0,8.31,2163500
2020-03-09,8.29,8.29,7.81,7.85,1345220
2020-03-10,7.85,8.04,7.69,7.91,1679000
2020-03-11,7.82,8.03,7.82,7.91,624000
2020-03-12,7.88,7.88,7.44,7.74,2545500
2020-03-13,7.46,7.49,7.14,7.4,2995663
2020-03-16,7.3,7.33,6.74,6.78,3049660
2020-03-17,6.65,7.0,6.51,6.8,3350755
2020-03-18,7.1,7.1,6.42,6.59,2621000
2020-03-19,6.54,6.54,6.17,6.43,3120520
2020-03-20,6.45,6.71,6.36,6.43,957000
2020-03-23,6.21,6.3,6.0,6.14,2244960
2020-03-24,6.27,6.38,6.13,6.22,852500
2020-03-25,6.3,6.63,6.3,6.54,2087930
2020-03-26,6.32,6.64,6.32,6.49,1075940
2020-03-27,6.69,7.18,6.55,7.0,2382000
2020-03-30,7.0,7.05,6.55,6.65,874450
2020-03-31,6.81,6.88,6.69,6.77,1089500
2020-04-01,6.78,6.85,6.42,6.58,1423360
2020-04-02,6.59,6.59,6.14,6.22,728890
2020-04-03,6.78,6.78,6.16,6.26,1051240
2020-04-06,6.35,6.35,6.05,6.13,447500
2020-04-07,6.29,6.69,6.29,6.69,2107000
2020-04-08,6.49,7.21,6.49,7.05,2104500
2020-04-09,7.05,7.52,6.91,7.41,2223000
2020-04-14,7.41,7.66,7.16,7.2,1635000
2020-04-15,7.13,7.35,6.95,6.97,774700
2020-04-16,6.99,7.03,6.75,6.86,1087990
2020-04-17,6.96,7.27,6.9,7.07,780000
2020-04-20,7.07,7.1,6.91,6.98,605000
2020-04-21,7.0,7.0,6.46,6.53,1809760
2020-04-22,6.61,6.84,6.45,6.72,880500
2020-04-23,6.74,6.76,6.41,6.47,878500
2020-04-24,6.51,6.68,6.5,6.56,591500
2020-04-27,6.39,6.6,6.2,6.48,649610
2020-04-28,6.62,7.11,6.56,7.09,951000
2020-04-29,7.17,7.54,7.01,7.54,1264500
2020-05-04,7.5,7.5,6.78,6.8,841220
2020-05-05,6.87,6.87,6.71,6.76,691490
2020-05-06,6.8,7.42,6.8,6.9,966500
2020-05-07,6.86,7.05,6.8,6.8,990630
2020-05-08,6.86,6.94,6.79,6.8,1132000
2020-05-11,6.9,7.38,6.81,6.94,2522360
2020-05-12,6.94,6.94,6.65,6.8,1263000
2020-05-13,6.77,6.92,6.71,6.9,1993600
2020-05-14,6.76,6.76,6.65,6.65,561500
2020-05-15,6.65,6.78,6.56,6.68,2034000
2020-05-18,6.7,6.76,6.43,6.49,964450
2020-05-19,6.74,7.08,6.6,6.86,1011500
2020-05-20,7.01,7.18,6.94,6.97,945500
2020-05-21,6.97,7.07,6.84,6.84,457000
2020-05-22,6.61,6.8,6.43,6.8,1665500
2020-05-25,6.58,6.66,6.55,6.6,381000
2020-05-26,6.58,6.91,6.58,6.9,261920
2020-05-27,6.86,7.12,6.65,6.75,478000
2020-05-28,6.7,6.78,6.61,6.68,215500
2020-05-29,6.65,6.86,6.63,6.64,238500
2020-06-01,6.67,6.92,6.67,6.88,635500
2020-06-02,6.84,7.17,6.84,7.08,754500
2020-06-03,7.13,7.36,7.08,7.08,466000
2020-06-04,7.12,7.32,6.97,6.98,370500
2020-06-05,6.98,7.25,6.94,7.22,553915
2020-06-08,7.22,8.3,7.22,8.13,3282000
2020-06-09,8.86,8.88,7.9,7.99,2098000
2020-06-10,8.0,8.44,7.9,8.33,1454500
2020-06-11,8.4,8.4,7.68,7.71,1055000
2020-06-12,7.53,7.86,7.35,7.71,673090
2020-06-15,7.71,8.01,7.51,7.85,1102000
2020-06-16,8.02,8.08,7.71,7.87,785700
2020-06-17,7.87,7.92,7.73,7.74,379000
2020-06-18,7.55,7.75,7.55,7.64,318000
2020-06-19,7.64,7.64,7.45,7.46,754500
2020-06-22,7.69,7.69,7.4,7.51,755060
2020-06-23,7.66,7.66,7.41,7.54,311140
2020-06-24,7.55,7.92,7.54,7.85,448000
2020-06-26,7.8,7.98,7.74,7.9,350000
2020-06-29,7.65,7.9,7.44,7.5,472000
2020-06-30,7.5,7.77,7.26,7.77,1707000
2020-07-02,7.75,8.26,7.59,8.07,2442500
2020-07-03,8.07,8.11,7.9,8.02,1151000
2020-07-06,8.15,8.35,7.81,8.3,1526500
2020-07-07,8.35,8.43,8.03,8.14,714270
2020-07-08,8.14,8.38,8.02,8.15,830000
2020-07-09,8.01,8.31,8.01,8.18,561410
2020-07-10,7.96,8.15,7.96,8.01,693500
2020-07-13,8.02,8.13,7.79,8.06,1443670
2020-07-14,7.88,7.98,7.65,7.67,442500
2020-07-15,7.71,8.06,7.6,7.62,503200
2020-07-16,7.61,7.77,7.23,7.25,627020
2020-07-17,7.25,7.38,7.1,7.3,339500
2020-07-20,7.32,7.61,7.16,7.48,447000
2020-07-21,7.48,7.62,7.47,7.47,603500
2020-07-22,7.52,7.87,7.52,7.77,594000
2020-07-23,7.77,7.98,7.77,7.92,936500
2020-07-24,7.67,7.8,7.63,7.7,1134506
2020-07-27,7.73,7.83,7.7,7.76,177370
2020-07-28,7.7,8.0,7.7,7.93,213000
2020-07-29,7.95,7.95,7.67,7.68,78000
2020-07-30,7.52,7.73,7.52,7.67,304000
2020-07-31,7.35,8.05,7.35,7.75,452130
2020-08-03,7.75,7.9,7.7,7.89,178000
2020-08-04,7.73,7.97,7.73,7.95,767500
2020-08-05,7.97,7.97,7.67,7.76,368830
2020-08-06,7.87,7.87,7.51,7.55,551000
2020-08-07,8.0,8.0,7.25,7.43,373808
2020-08-10,7.57,7.57,7.3,7.3,502500
2020-08-11,7.3,7.53,7.13,7.45,261308
2020-08-12,7.42,7.67,7.36,7.61,462500
2020-08-13,7.72,7.82,7.67,7.77,209000
2020-08-14,7.77,7.88,7.76,7.81,248500
2020-08-17,7.87,7.87,7.7,7.82,147640
2020-08-18,7.69,7.94,7.69,7.88,299000
2020-08-19,7.8,7.88,7.68,7.83,254500
2020-08-20,7.83,8.14,7.75,8.05,524500
2020-08-21,8.12,8.12,7.89,8.08,492500
2020-08-24,8.08,8.19,8.02,8.14,652000
2020-08-25,8.14,8.14,7.96,8.0,561500
