Date,Open,High,Low,Close,Volume
2012-10-11,3.31,3.6,3.31,3.49,11572000
2012-10-12,3.46,3.55,3.45,3.47,3632000
2012-10-15,3.48,3.53,3.4,3.43,2278000
2012-10-16,3.45,3.45,3.3,3.41,7190000
2012-10-17,3.45,3.55,3.43,3.47,4206999
2012-10-18,3.5,3.5,3.4,3.42,1746000
2012-10-19,3.4,3.42,3.36,3.37,2138000
2012-10-22,3.37,3.38,3.26,3.27,4164650
2012-10-24,3.27,3.27,3.18,3.21,5326000
2012-10-25,3.2,3.28,3.09,3.15,4290000
2012-10-26,3.15,3.15,3.07,3.08,4490000
2012-10-29,3.06,3.16,3.01,3.09,1862000
2012-10-30,3.11,3.12,3.06,3.1,2745000
2012-10-31,3.13,3.14,3.07,3.1,1996000
2012-11-01,3.11,3.38,3.1,3.33,9956702
2012-11-02,3.34,3.4,3.2,3.34,4842000
2012-11-05,3.33,3.33,3.19,3.21,3284000
2012-11-06,3.2,3.34,3.15,3.33,1994000
2012-11-07,3.38,3.43,3.3,3.36,3264000
2012-11-08,3.26,3.31,3.21,3.22,2396000
2012-11-09,3.17,3.34,3.17,3.31,3658000
2012-11-12,3.3,3.47,3.3,3.43,10022000
2012-11-13,3.45,3.47,3.26,3.29,3752000
2012-11-14,3.3,3.65,3.29,3.63,13424000
2012-11-15,3.52,3.85,3.52,3.78,16922820
2012-11-16,3.78,3.78,3.6,3.63,8134000
2012-11-19,3.64,3.68,3.52,3.55,3396000
2012-11-20,3.59,3.67,3.51,3.6,9192000
2012-11-21,3.63,3.63,3.36,3.5,10092000
2012-11-22,3.46,3.57,3.42,3.52,4752000
2012-11-23,3.53,3.59,3.46,3.49,4149000
2012-11-26,3.51,3.57,3.44,3.48,4502596
2012-11-27,3.5,3.53,3.44,3.47,5114000
2012-11-28,3.47,3.48,3.29,3.37,6545000
2012-11-29,3.38,3.41,3.21,3.26,7548000
2012-11-30,3.25,3.32,3.13,3.15,11210000
2012-12-03,3.16,3.3,3.15,3.23,5110360
2012-12-04,3.21,3.26,3.16,3.18,3152000
2012-12-05,3.18,3.22,3.06,3.11,10392000
2012-12-06,3.13,3.2,3.12,3.15,7404558
2012-12-07,3.17,3.3,3.17,3.29,6644000
2012-12-10,3.3,3.3,3.18,3.23,3194000
2012-12-11,3.23,3.23,3.2,3.22,2164700
2012-12-12,3.22,3.4,3.22,3.36,11093000
2012-12-13,3.4,3.47,3.33,3.35,9644000
2012-12-14,3.35,3.38,3.27,3.3,3852000
2012-12-17,3.3,3.32,3.24,3.29,5204000
2012-12-18,3.28,3.34,3.24,3.29,3398000
2012-12-19,3.3,3.34,3.28,3.3,3393392
2012-12-20,3.34,3.47,3.34,3.35,15096000
2012-12-21,3.5,3.59,3.43,3.52,20814000
2012-12-24,3.52,3.56,3.43,3.45,3504000
2012-12-27,3.49,3.52,3.47,3.47,3366000
2012-12-28,3.5,3.56,3.5,3.55,5014000
2012-12-31,3.55,3.69,3.55,3.66,6284000
2013-01-02,3.74,3.85,3.7,3.77,13158000
2013-01-03,3.76,3.79,3.66,3.72,7528000
2013-01-04,3.75,3.96,3.68,3.94,16122000
2013-01-07,3.94,4.17,3.92,4.15,12994497
2013-01-08,4.17,4.17,3.79,3.86,14692000
2013-01-09,3.87,4.0,3.87,4.0,9565309
2013-01-10,4.1,4.12,3.9,4.02,5062000
2013-01-11,4.01,4.07,3.87,3.9,4238000
2013-01-14,3.95,4.01,3.91,3.96,2940000
2013-01-15,3.96,3.96,3.79,3.89,3864000
2013-01-16,3.85,3.92,3.82,3.85,2020000
2013-01-17,3.91,3.95,3.85,3.86,2326000
2013-01-18,3.9,3.94,3.83,3.87,2868000
2013-01-21,3.87,4.08,3.87,4.08,6883600
2013-01-22,4.12,4.22,4.1,4.11,7066000
2013-01-23,4.15,4.15,3.9,3.94,5024000
2013-01-24,3.93,4.05,3.93,3.97,3454278
2013-01-25,3.95,4.01,3.85,3.88,4142000
2013-01-28,3.87,3.92,3.65,3.74,6762000
2013-01-29,3.78,3.78,3.71,3.75,3836000
2013-01-30,3.78,3.81,3.68,3.73,4950000
2013-01-31,3.75,3.76,3.62,3.72,5118000
2013-02-01,3.7,3.83,3.66,3.82,4398000
2013-02-04,3.8,3.96,3.8,3.86,3776000
2013-02-05,3.8,3.84,3.71,3.73,2866000
2013-02-06,3.8,3.85,3.77,3.83,3332000
2013-02-07,3.8,3.85,3.75,3.8,2766000
2013-02-08,3.75,3.85,3.68,3.79,2375000
2013-02-14,3.8,3.85,3.8,3.85,1509000
2013-02-15,3.81,3.95,3.8,3.93,1873347
2013-02-18,3.94,4.04,3.92,3.93,3651000
2013-02-19,3.97,3.97,3.85,3.89,1970000
2013-02-20,3.89,3.89,3.78,3.84,2559000
2013-02-21,3.8,3.8,3.7,3.76,2804500
2013-02-22,3.76,3.81,3.68,3.68,2176000
2013-02-25,3.71,3.81,3.71,3.75,1127300
2013-02-26,3.69,3.74,3.67,3.72,2958000
2013-02-27,3.79,3.95,3.72,3.94,6244000
2013-02-28,4.03,4.25,4.02,4.2,15027000
2013-03-01,4.17,4.23,4.1,4.14,2774000
2013-03-04,4.15,4.31,4.14,4.29,4980000
2013-03-05,4.29,4.32,4.23,4.26,2780000
2013-03-06,4.29,4.29,4.1,4.15,4366000
2013-03-07,4.12,4.16,4.02,4.09,2918000
2013-03-08,4.13,4.13,4.02,4.09,2040000
2013-03-11,4.13,4.13,4.03,4.04,1636000
2013-03-12,4.02,4.07,3.81,3.86,5055500
2013-03-13,3.86,4.17,3.86,4.12,9804000
2013-03-14,4.17,4.72,4.15,4.63,18761000
2013-03-15,4.6,4.94,4.46,4.87,20276432
2013-03-18,4.87,4.87,4.5,4.7,7510173
2013-03-19,4.7,4.9,4.68,4.78,10207000
2013-03-20,4.86,4.96,4.59,4.78,17777000
2013-03-21,4.78,5.0,4.71,4.98,20998000
2013-03-22,4.98,5.11,4.9,5.06,10689000
2013-03-25,5.1,5.1,4.86,4.89,14982000
2013-03-26,4.88,4.93,4.68,4.78,8908000
2013-03-27,4.84,4.92,4.77,4.88,5661001
2013-03-28,4.88,4.96,4.72,4.88,8054589
2013-04-02,4.85,4.87,4.66,4.72,9082000
2013-04-03,4.72,4.75,4.61,4.64,5690000
2013-04-05,4.68,4.68,4.3,4.63,8427425
2013-04-08,4.5,4.58,4.38,4.44,5057000
2013-04-09,4.4,4.62,4.4,4.58,7714367
2013-04-10,4.58,4.8,4.57,4.79,4663227
2013-04-11,4.81,4.84,4.68,4.74,3642851
2013-04-12,4.8,4.8,4.57,4.63,3303000
2013-04-15,4.57,4.59,4.4,4.42,5017000
2013-04-16,4.35,4.54,4.35,4.52,5538000
2013-04-17,4.5,4.53,4.4,4.41,4942000
2013-04-18,4.4,4.44,4.4,4.44,2308000
2013-04-19,4.44,4.65,4.42,4.58,4138000
2013-04-22,4.56,4.65,4.39,4.53,4234000
2013-04-23,4.5,4.62,4.47,4.59,1162000
2013-04-24,4.59,4.62,4.5,4.55,4950000
2013-04-25,4.59,5.08,4.59,4.96,24841000
2013-04-26,4.96,4.98,4.71,4.73,13554000
2013-04-29,4.76,4.85,4.75,4.79,5118000
2013-04-30,4.79,5.05,4.79,5.05,19905600
2013-05-02,5.05,5.43,4.95,5.38,25436500
2013-05-03,5.4,5.63,5.26,5.33,10973000
2013-05-06,5.36,5.37,5.24,5.36,6683200
2013-05-07,5.35,5.55,5.29,5.49,7246000
2013-05-08,5.49,5.51,5.33,5.44,2926000
2013-05-09,5.49,5.49,5.25,5.29,6294000
2013-05-10,5.25,5.35,5.09,5.19,7198000
2013-05-13,5.19,5.3,5.09,5.11,6932000
2013-05-14,5.05,5.33,5.05,5.26,8659000
2013-05-15,5.26,5.33,5.19,5.25,4302000
2013-05-16,5.2,5.2,4.94,5.03,8282000
2013-05-20,5.06,5.32,5.05,5.3,12603254
2013-05-21,5.32,5.42,5.25,5.41,13200000
2013-05-22,5.41,5.47,5.27,5.46,8028000
2013-05-23,5.44,5.44,5.19,5.23,4910000
2013-05-24,5.23,5.29,4.98,5.13,7056800
2013-05-27,5.21,5.26,5.09,5.25,5808000
2013-05-28,5.26,5.31,5.18,5.23,2038832
2013-05-29,5.25,5.27,5.13,5.14,3532100
2013-05-30,5.13,5.18,4.94,5.08,6066958
2013-05-31,5.14,5.22,5.04,5.1,10721502
2013-06-03,5.08,5.13,5.01,5.07,6182002
2013-06-04,5.1,5.14,5.01,5.13,6984000
2013-06-05,5.15,5.28,5.07,5.1,4951000
2013-06-06,5.07,5.15,4.96,5.12,3588000
2013-06-07,5.1,5.34,5.01,5.15,8610000
2013-06-10,5.18,5.2,5.08,5.11,4378000
2013-06-11,5.07,5.09,4.66,4.7,9564000
2013-06-13,4.55,4.59,4.31,4.49,9624000
2013-06-14,4.52,4.6,4.3,4.39,8184000
2013-06-17,4.39,4.49,4.23,4.42,8182000
2013-06-18,4.35,4.42,4.25,4.26,5172000
2013-06-19,4.35,4.36,3.56,3.68,38955700
2013-06-20,3.68,3.79,3.53,3.67,24931608
2013-06-21,3.58,3.71,3.48,3.65,9399000
2013-06-24,3.65,3.67,3.33,3.37,12053000
2013-06-25,3.32,3.64,3.3,3.63,11768018
2013-06-26,3.68,3.7,3.53,3.57,5390000
2013-06-27,3.6,3.8,3.6,3.76,7546000
2013-06-28,3.73,3.74,3.56,3.63,6952200
2013-07-02,3.62,3.69,3.5,3.59,9723600
2013-07-03,3.53,3.59,3.49,3.52,4539283
2013-07-04,3.51,3.57,3.28,3.3,7130000
2013-07-05,3.38,3.46,3.25,3.33,8102001
2013-07-08,3.36,3.41,3.1,3.14,14678004
2013-07-09,3.16,3.32,3.14,3.24,6914000
2013-07-10,3.29,3.54,3.26,3.41,8877000
2013-07-11,3.42,3.6,3.42,3.5,5986200
2013-07-12,3.53,3.53,3.36,3.37,3805000
2013-07-15,3.5,3.67,3.46,3.61,4354997
2013-07-16,3.73,3.75,3.56,3.59,5194000
2013-07-17,3.6,3.74,3.56,3.72,8178000
2013-07-18,3.75,3.78,3.63,3.68,6022000
2013-07-19,3.61,3.62,3.39,3.4,5636000
2013-07-22,3.42,3.56,3.42,3.52,3181000
2013-07-23,3.54,3.62,3.52,3.61,4088100
2013-07-24,3.63,4.02,3.62,4.0,12516825
2013-07-25,3.92,4.09,3.92,3.93,7500005
2013-07-26,4.03,4.13,4.01,4.04,7525000
2013-07-29,4.04,4.04,3.92,3.98,7238000
2013-07-30,3.94,3.98,3.76,3.78,9190000
2013-07-31,3.79,3.86,3.76,3.77,2948000
2013-08-01,3.8,3.9,3.73,3.83,8148460
2013-08-02,3.94,4.05,3.87,4.03,9096000
2013-08-05,4.0,4.24,4.0,4.12,10521175
2013-08-06,4.13,4.2,4.1,4.13,2935000
2013-08-07,4.25,4.55,4.23,4.31,15028000
2013-08-08,4.49,4.5,4.31,4.37,11032000
2013-08-09,4.36,4.52,4.36,4.49,8688000
2013-08-12,4.55,4.59,4.47,4.48,4961000
2013-08-13,4.48,4.51,4.36,4.36,3517800
2013-08-15,4.38,4.55,4.38,4.5,3828120
2013-08-16,4.32,4.5,4.32,4.45,3327100
2013-08-19,4.5,4.63,4.48,4.61,6748100
2013-08-20,4.69,4.79,4.6,4.64,9839200
2013-08-21,4.69,4.7,4.32,4.45,8880000
2013-08-22,4.55,4.91,4.55,4.88,26888000
2013-08-23,4.97,4.97,4.65,4.73,11352000
2013-08-26,4.74,4.79,4.71,4.75,4072000
2013-08-27,4.72,4.72,4.5,4.58,5424000
2013-08-28,4.58,4.58,4.28,4.34,9858000
2013-08-29,4.34,4.58,4.34,4.52,7772000
2013-08-30,4.45,4.5,4.28,4.34,7480300
2013-09-02,4.41,4.42,4.28,4.35,5071000
2013-09-03,4.42,4.67,4.42,4.63,10588000
2013-09-04,4.6,4.63,4.48,4.53,5864001
2013-09-05,4.59,4.65,4.51,4.52,3022000
2013-09-06,4.58,4.62,4.5,4.52,4587801
2013-09-09,4.6,4.6,4.43,4.5,3150000
2013-09-10,4.55,4.57,4.49,4.56,3003801
2013-09-11,4.59,4.59,4.33,4.42,4490007
2013-09-12,4.42,4.46,4.33,4.34,3781800
2013-09-13,4.34,4.45,4.34,4.39,2484300
2013-09-16,4.4,4.51,4.4,4.46,3114000
2013-09-17,4.5,4.5,4.4,4.49,4504000
2013-09-18,4.45,4.54,4.45,4.51,3906000
2013-09-19,4.54,4.64,4.54,4.6,8997850
2013-09-23,4.6,4.6,4.44,4.48,2945900
2013-09-24,4.5,4.61,4.5,4.59,4858000
2013-09-25,4.59,4.65,4.57,4.59,6268004
2013-09-26,4.6,4.66,4.56,4.59,4998004
2013-09-27,4.69,4.73,4.45,4.58,5500004
2013-09-30,4.5,4.55,4.47,4.55,5416500
2013-10-02,4.5,4.54,4.39,4.42,6466201
2013-10-03,4.47,4.47,4.34,4.36,8159028
2013-10-04,4.4,4.4,4.32,4.36,4082003
2013-10-07,4.36,4.38,4.27,4.29,6422000
2013-10-08,4.28,4.35,4.28,4.31,7457652
2013-10-09,4.47,4.58,4.4,4.44,10300000
2013-10-10,4.45,4.58,4.41,4.56,6096000
2013-10-11,4.65,4.97,4.65,4.95,26602256
2013-10-15,5.0,5.0,4.68,4.75,11429000
2013-10-16,4.71,5.08,4.71,5.01,20744764
2013-10-17,5.05,5.07,4.86,4.91,4729369
2013-10-18,4.91,5.02,4.83,4.99,3614950
2013-10-21,5.0,5.13,5.0,5.05,7746003
2013-10-22,5.04,5.04,4.92,4.94,2868002
2013-10-23,5.03,5.09,4.93,4.98,6862001
2013-10-24,5.03,5.25,4.98,5.23,15413400
2013-10-25,5.25,5.38,5.05,5.19,13441063
2013-10-28,5.19,5.19,5.03,5.1,3424000
2013-10-29,5.15,5.37,5.12,5.27,12736600
2013-10-30,5.35,5.46,5.2,5.43,13630000
2013-10-31,5.45,5.74,5.43,5.64,21570000
2013-11-01,5.64,5.91,5.64,5.76,16742954
2013-11-04,5.76,5.76,5.29,5.53,5491454
2013-11-05,5.57,5.62,5.46,5.51,4344000
2013-11-06,5.51,5.53,5.38,5.41,2989115
2013-11-07,5.56,5.64,5.45,5.46,11482700
2013-11-08,5.43,5.5,5.23,5.26,8438474
2013-11-11,5.22,5.23,5.01,5.15,8294177
2013-11-12,5.12,5.14,4.74,4.79,19312000
2013-11-13,4.9,4.96,4.74,4.82,11676774
2013-11-14,4.81,4.92,4.81,4.89,6488000
2013-11-15,4.92,5.04,4.92,4.96,8742000
2013-11-18,5.01,5.03,4.86,4.94,3930049
2013-11-19,4.97,4.99,4.91,4.93,4472500
2013-11-20,4.92,4.92,4.75,4.77,5200931
2013-11-21,4.8,4.93,4.8,4.91,4780921
2013-11-22,4.96,5.07,4.88,5.0,6692207
2013-11-25,5.09,5.2,5.09,5.17,5008776
2013-11-26,5.17,5.17,5.03,5.04,3850362
2013-11-27,5.04,5.2,5.03,5.16,4701280
2013-11-28,5.19,5.19,5.07,5.11,2041000
2013-11-29,5.13,5.21,5.02,5.2,4138742
2013-12-02,5.16,5.35,5.16,5.26,5949313
2013-12-03,5.2,5.38,5.2,5.31,3904211
2013-12-04,5.3,5.32,5.24,5.32,2324511
2013-12-05,5.34,5.34,5.23,5.29,1230000
2013-12-06,5.3,5.34,5.06,5.15,5484378
2013-12-09,5.17,5.25,5.15,5.22,4799199
2013-12-10,5.2,5.25,5.1,5.22,2205100
2013-12-11,5.18,5.3,5.18,5.2,4356250
2013-12-12,5.16,5.3,5.13,5.29,5547250
2013-12-13,5.31,5.36,5.25,5.34,4132000
2013-12-16,5.21,5.33,5.21,5.29,1066276
2013-12-17,5.34,5.34,5.0,5.11,6397000
2013-12-18,5.08,5.1,4.95,5.07,5432428
2013-12-19,5.09,5.14,4.85,4.87,6856000
2013-12-20,4.9,4.97,4.8,4.91,6296900
2013-12-23,4.86,4.93,4.8,4.86,3264750
2013-12-24,4.86,5.07,4.83,5.05,2635461
2013-12-27,5.05,5.12,4.99,5.1,2196000
2013-12-30,5.08,5.1,5.0,5.1,2306000
2013-12-31,5.12,5.15,5.08,5.13,980289
2014-01-02,5.2,5.24,5.12,5.22,3364000
2014-01-03,5.2,5.26,5.14,5.25,2731000
2014-01-06,5.3,5.34,5.13,5.18,1894000
2014-01-07,5.1,5.23,5.1,5.19,1942371
2014-01-08,5.2,5.26,5.14,5.25,2483096
2014-01-09,5.23,5.25,5.15,5.21,3228000
2014-01-10,5.24,5.24,5.0,5.12,2530900
2014-01-13,5.09,5.15,5.05,5.09,2147617
2014-01-14,5.14,5.24,5.1,5.21,2551100
2014-01-15,5.25,5.28,5.16,5.18,3710900
2014-01-16,5.2,5.22,5.16,5.22,5019999
2014-01-17,5.22,5.36,5.2,5.29,4411543
2014-01-20,5.32,5.32,5.12,5.19,4546948
2014-01-21,5.2,5.24,5.18,5.18,1710000
2014-01-22,5.2,5.24,5.12,5.14,4012000
2014-01-23,5.19,5.27,5.11,5.17,2206036
2014-01-24,5.12,5.18,5.12,5.15,2860479
2014-01-27,5.05,5.11,5.0,5.1,5611953
2014-01-28,5.1,5.13,4.93,5.0,6337000
2014-01-29,5.05,5.32,5.05,5.28,4741300
2014-01-30,5.21,5.24,5.14,5.17,1476461
2014-02-04,5.1,5.1,5.0,5.02,5371571
2014-02-05,5.07,5.13,5.07,5.1,5364734
2014-02-06,5.1,5.25,5.1,5.18,5063000
2014-02-07,5.2,5.57,5.2,5.55,11012511
2014-02-10,5.65,5.8,5.63,5.78,16672774
2014-02-11,5.78,5.88,5.65,5.66,6298000
2014-02-12,5.61,5.75,5.61,5.72,4813012
2014-02-13,5.75,5.95,5.67,5.87,7208000
2014-02-14,5.91,5.94,5.74,5.79,5488000
2014-02-17,5.77,5.8,5.68,5.7,3312000
2014-02-18,5.76,6.07,5.75,5.87,7986000
2014-02-19,5.89,5.93,5.82,5.84,3720000
2014-02-20,5.81,5.91,5.76,5.76,3364400
2014-02-21,5.84,5.85,5.74,5.8,3607521
2014-02-24,5.8,5.86,5.76,5.78,3016886
2014-02-25,5.85,5.99,5.64,5.7,5292921
2014-02-26,5.7,5.81,5.7,5.75,2877237
2014-02-27,5.74,5.89,5.74,5.8,2488537
2014-02-28,5.81,5.95,5.81,5.92,2788000
2014-03-03,5.9,6.14,5.9,5.99,4182000
2014-03-04,5.97,6.01,5.86,5.96,2136000
2014-03-05,6.1,6.14,5.95,6.03,4502200
2014-03-06,5.96,6.12,5.96,6.0,3418600
2014-03-07,5.97,6.1,5.97,6.05,1876000
2014-03-10,6.08,6.17,6.05,6.14,4195644
2014-03-11,6.14,6.42,6.14,6.39,6561600
2014-03-12,6.32,6.47,6.16,6.18,4103000
2014-03-13,6.2,6.35,6.16,6.19,2540000
2014-03-14,6.18,6.19,5.88,5.89,5672500
2014-03-17,5.97,6.12,5.9,6.11,4262900
2014-03-18,6.12,6.19,6.06,6.09,1785800
2014-03-19,6.39,6.4,5.78,5.79,14654000
2014-03-20,5.79,6.0,5.79,5.88,5780974
2014-03-21,5.9,5.96,5.79,5.79,2658624
2014-03-24,5.81,5.9,5.51,5.52,5323755
2014-03-25,5.55,5.8,5.55,5.79,4658000
2014-03-26,5.83,5.84,5.67,5.7,1574967
2014-03-27,5.69,5.74,5.43,5.45,6212000
2014-03-28,5.43,5.58,5.26,5.37,5607850
2014-03-31,5.42,5.51,5.36,5.49,4539200
2014-04-01,5.51,5.8,5.47,5.78,7710000
2014-04-02,5.73,5.82,5.67,5.75,10058000
2014-04-03,5.5,5.77,5.5,5.73,5085028
2014-04-04,5.76,5.76,5.6,5.62,2545000
2014-04-07,5.57,5.69,5.5,5.53,8200000
2014-04-08,5.58,5.67,5.55,5.56,3596000
2014-04-09,5.61,5.82,5.59,5.8,5159821
2014-04-10,5.78,5.8,5.6,5.6,5128600
2014-04-11,5.55,5.63,5.54,5.6,2982921
2014-04-14,5.61,5.66,5.51,5.6,5140736
2014-04-15,5.68,5.68,5.58,5.63,1212090
2014-04-16,5.68,5.68,5.61,5.65,1058000
2014-04-17,5.61,5.68,5.61,5.63,1510000
2014-04-22,5.63,5.7,5.63,5.67,1960000
2014-04-23,5.64,5.8,5.64,5.75,2646571
2014-04-24,5.7,5.81,5.7,5.79,1264891
2014-04-25,5.8,5.85,5.71,5.82,3179300
2014-04-28,5.77,5.81,5.64,5.75,2886000
2014-04-29,5.72,5.82,5.7,5.76,5709000
2014-04-30,5.76,5.76,5.66,5.73,890220
2014-05-02,5.73,5.88,5.73,5.87,3390000
2014-05-05,5.84,6.01,5.78,5.98,3170000
2014-05-07,5.94,5.98,5.79,5.8,1232000
2014-05-08,5.85,5.88,5.56,5.64,6506000
2014-05-09,5.64,5.78,5.6,5.68,2760000
2014-05-12,5.67,5.79,5.65,5.76,1654000
2014-05-13,5.78,5.98,5.78,5.97,2898000
2014-05-14,6.02,6.04,5.87,6.03,2207906
2014-05-15,6.02,6.05,5.87,6.05,4282000
2014-05-16,5.92,6.05,5.79,6.05,3779500
2014-05-19,6.03,6.03,5.93,5.99,1344000
2014-05-20,5.94,5.97,5.9,5.97,624000
2014-05-21,5.92,6.0,5.82,5.97,2118000
2014-05-22,6.0,6.04,5.95,6.03,2321907
2014-05-23,6.09,6.09,5.98,5.99,1324000
2014-05-26,6.0,6.28,5.96,6.08,6524000
2014-05-27,6.13,6.13,5.87,5.94,6630000
2014-05-28,6.01,6.14,5.98,6.1,3492500
2014-05-29,6.14,6.17,6.04,6.1,5522000
2014-05-30,6.14,6.14,5.89,5.91,3180500
2014-06-03,5.99,6.09,5.96,6.09,6691200
2014-06-04,6.05,6.11,5.96,6.1,4455644
2014-06-05,6.11,6.15,6.01,6.14,1714362
2014-06-06,6.13,6.26,6.09,6.24,5240884
2014-06-09,6.25,6.25,6.07,6.08,1124000
2014-06-10,6.14,6.14,6.0,6.05,2172000
2014-06-11,6.09,6.13,6.05,6.1,1742000
2014-06-12,6.08,6.1,5.78,5.84,7190000
2014-06-13,5.86,5.88,5.63,5.76,8932000
2014-06-16,5.76,5.77,5.37,5.43,6162605
2014-06-17,5.45,5.45,5.3,5.37,5156000
2014-06-18,5.43,5.51,5.35,5.38,11602500
2014-06-19,5.39,5.45,5.3,5.42,6541424
2014-06-20,5.44,5.44,5.38,5.43,5256000
2014-06-23,5.47,5.51,5.43,5.48,4276000
2014-06-24,5.5,5.69,5.48,5.68,5452000
2014-06-25,5.68,5.76,5.58,5.64,3702000
2014-06-26,5.69,5.69,5.53,5.65,1903463
2014-06-27,5.59,5.66,5.54,5.66,1679488
2014-06-30,5.67,5.67,5.55,5.57,1318000
2014-07-02,5.57,5.76,5.55,5.64,3831712
2014-07-03,5.74,5.74,5.6,5.66,1540000
2014-07-04,5.6,5.64,5.57,5.62,1284000
2014-07-07,5.64,5.64,5.44,5.45,1948000
2014-07-08,5.46,5.48,5.4,5.41,2236000
2014-07-09,5.44,5.44,5.37,5.43,2974000
2014-07-10,5.48,5.6,5.44,5.6,4711000
2014-07-11,5.55,5.64,5.5,5.58,3158400
2014-07-14,5.62,5.69,5.55,5.57,4251100
2014-07-15,5.57,5.72,5.55,5.58,2540000
2014-07-16,5.63,5.66,5.55,5.59,1430000
2014-07-17,5.56,5.62,5.55,5.59,2144525
2014-07-18,5.52,5.59,5.43,5.48,3104398
2014-07-21,5.52,5.55,5.43,5.5,1527055
2014-07-22,5.48,5.52,5.46,5.5,1606000
2014-07-23,5.5,5.53,5.42,5.44,4735000
2014-07-24,5.45,5.6,5.45,5.54,6910000
2014-07-25,5.52,5.67,5.52,5.59,4522000
2014-07-28,5.58,5.66,5.41,5.46,4132000
2014-07-29,5.5,5.5,5.36,5.38,4447877
2014-07-30,5.4,5.42,5.17,5.17,4680000
2014-07-31,5.2,5.32,5.19,5.21,3281000
2014-08-01,5.17,5.27,5.11,5.13,3522000
2014-08-04,5.1,5.16,5.01,5.05,4462000
2014-08-05,5.07,5.31,5.07,5.28,3135600
2014-08-06,5.26,5.32,5.17,5.29,3092250
2014-08-07,5.24,5.25,5.2,5.21,1030000
2014-08-08,5.17,5.21,5.1,5.11,1131546
2014-08-11,5.17,5.22,5.06,5.1,4558000
2014-08-12,5.13,5.18,5.1,5.13,952000
2014-08-13,5.12,5.2,5.09,5.19,1506000
2014-08-14,5.11,5.14,5.09,5.1,3260000
2014-08-15,5.17,5.32,5.12,5.25,1862000
2014-08-18,5.2,5.2,5.1,5.15,1486000
2014-08-19,5.16,5.27,5.15,5.26,1362000
2014-08-20,5.26,5.32,5.18,5.27,1504000
2014-08-21,5.11,5.11,4.49,4.51,27643532
2014-08-22,4.58,4.71,4.55,4.59,12820000
2014-08-25,4.63,4.68,4.22,4.44,22000016
2014-08-26,4.44,4.45,4.35,4.41,6736000
2014-08-27,4.4,4.56,4.4,4.51,9138000
2014-08-28,4.53,4.56,4.38,4.4,5056116
2014-08-29,4.4,4.55,4.37,4.49,5816000
2014-09-01,4.53,4.63,4.49,4.53,4956000
2014-09-02,4.56,4.63,4.56,4.59,3282000
2014-09-03,4.6,4.62,4.52,4.55,3158000
2014-09-04,4.58,4.6,4.48,4.49,3717740
2014-09-05,4.49,4.51,4.43,4.44,2457586
2014-09-08,4.47,4.48,4.36,4.39,1772000
2014-09-10,4.41,4.43,4.35,4.37,4018000
2014-09-11,4.38,4.52,4.36,4.46,5704000
2014-09-12,4.42,4.46,4.35,4.43,4121000
2014-09-15,4.36,4.45,4.35,4.4,2669036
2014-09-16,4.35,4.41,4.25,4.31,3156000
2014-09-17,4.35,4.36,4.25,4.26,4834000
2014-09-18,4.28,4.33,4.12,4.16,8743000
2014-09-19,4.22,4.38,4.18,4.35,3298000
2014-09-22,4.44,4.7,4.44,4.64,9860870
2014-09-23,4.63,4.96,4.63,4.95,13843492
2014-09-24,4.89,4.93,4.7,4.8,8462000
2014-09-25,4.74,4.84,4.74,4.79,5174374
2014-09-26,4.69,4.78,4.69,4.75,1624000
2014-09-29,4.7,4.7,4.51,4.61,3277723
2014-09-30,4.58,4.58,4.42,4.48,7352000
2014-10-03,4.46,4.59,4.4,4.57,2927646
2014-10-06,4.68,4.82,4.53,4.55,7576300
2014-10-07,4.59,4.75,4.57,4.74,2261026
2014-10-08,4.74,4.77,4.59,4.75,3064000
2014-10-09,4.74,4.84,4.73,4.8,4196528
2014-10-10,4.78,4.85,4.74,4.85,5614279
2014-10-13,4.8,4.89,4.66,4.71,4604000
2014-10-14,4.66,4.7,4.61,4.61,1142000
2014-10-15,4.58,4.69,4.54,4.61,1842566
2014-10-16,4.54,4.64,4.51,4.61,3162200
2014-10-17,4.6,4.62,4.48,4.57,3730522
2014-10-20,4.57,4.62,4.53,4.56,2217485
2014-10-21,4.61,4.72,4.52,4.55,1956000
2014-10-22,4.61,4.65,4.46,4.5,3654000
2014-10-23,4.53,4.57,4.45,4.5,2122929
2014-10-24,4.46,4.54,4.46,4.49,1602000
2014-10-27,4.54,4.54,4.34,4.38,6784500
2014-10-28,4.44,4.47,4.35,4.47,2150566
2014-10-29,4.51,4.51,4.42,4.45,1750000
2014-10-30,4.43,4.48,4.25,4.27,6164000
2014-10-31,4.29,4.34,4.22,4.32,5518000
2014-11-03,4.36,4.42,4.27,4.39,3446000
2014-11-04,4.32,4.43,4.32,4.35,3088801
2014-11-05,4.32,4.37,4.3,4.31,3023740
2014-11-06,4.26,4.36,4.26,4.3,2078000
2014-11-07,4.28,4.32,4.21,4.22,7928713
2014-11-10,4.25,4.3,4.17,4.24,1948001
2014-11-11,4.21,4.22,4.04,4.05,6506552
2014-11-12,4.03,4.05,4.0,4.03,3061347
2014-11-13,4.04,4.04,3.75,3.87,9266348
2014-11-14,3.87,3.95,3.86,3.91,2784000
2014-11-17,3.97,4.06,3.92,3.96,4729600
2014-11-18,4.0,4.03,3.9,3.91,1238522
2014-11-19,3.9,3.96,3.89,3.93,1467383
2014-11-20,3.9,4.03,3.9,3.95,1235410
2014-11-21,3.91,3.99,3.91,3.94,2275837
2014-11-24,3.96,3.99,3.93,3.96,1410193
2014-11-25,3.99,4.0,3.92,3.99,1394000
2014-11-26,3.99,4.14,3.93,4.11,1978948
2014-11-27,4.12,4.16,4.06,4.12,1302000
2014-11-28,4.13,4.14,4.04,4.05,21416000
2014-12-01,4.1,4.1,3.9,3.92,3220000
2014-12-02,3.94,4.01,3.9,3.96,2100186
2014-12-03,4.04,4.04,3.77,3.87,4282000
2014-12-04,3.91,4.03,3.91,4.03,1934000
2014-12-05,4.0,4.05,3.93,4.0,1088000
2014-12-08,4.0,4.0,3.87,3.9,1320000
2014-12-09,3.86,3.9,3.8,3.89,1219696
2014-12-10,3.89,4.06,3.86,4.05,2643300
2014-12-11,4.0,4.0,3.89,3.95,985446
2014-12-12,3.97,4.06,3.8,3.97,860000
2014-12-15,4.05,4.09,3.92,4.08,2827800
2014-12-16,4.12,4.12,4.01,4.03,846367
2014-12-17,4.06,4.1,3.95,4.09,3837500
2014-12-18,4.11,4.11,3.63,3.69,8633500
2014-12-19,3.74,3.74,3.14,3.2,15334000
2014-12-22,3.2,3.8,3.16,3.47,12888000
2014-12-23,3.49,3.87,3.42,3.85,17595000
2014-12-24,3.81,3.83,3.7,3.75,4443000
2014-12-29,3.83,3.83,3.72,3.76,2354000
2014-12-30,3.76,3.79,3.7,3.76,3704000
2014-12-31,3.79,3.85,3.73,3.82,3980000
2015-01-02,3.84,3.94,3.82,3.91,1836000
2015-01-05,3.91,3.97,3.86,3.86,2906000
2015-01-06,3.84,3.95,3.83,3.9,1324000
2015-01-07,3.9,3.93,3.63,3.9,11003194
2015-01-08,3.9,3.9,3.78,3.81,1610000
2015-01-09,3.83,3.9,3.78,3.82,4116000
2015-01-12,3.84,3.84,3.75,3.77,3282000
2015-01-13,3.77,3.84,3.76,3.77,758400
2015-01-14,3.85,3.9,3.78,3.85,2976000
2015-01-15,3.9,4.37,3.83,4.01,4508000
2015-01-16,4.03,4.06,3.87,3.92,2765481
2015-01-17,4.18,4.18,4.18,4.18,0
2015-01-19,3.92,3.92,3.69,3.73,5076000
2015-01-20,3.76,3.83,3.66,3.69,3138000
2015-01-21,3.7,3.78,3.68,3.73,1880000
2015-01-22,3.78,3.8,3.74,3.79,1918316
2015-01-23,3.76,3.83,3.76,3.8,2704889
2015-01-26,3.85,3.92,3.85,3.91,1976000
2015-01-27,3.95,3.95,3.87,3.92,2710000
2015-01-28,3.91,3.99,3.91,3.95,1821400
2015-01-29,4.1,4.15,4.0,4.14,6823560
2015-01-30,4.14,4.14,4.05,4.08,3155571
2015-02-02,4.03,4.06,3.93,4.01,3205986
2015-02-03,3.98,4.06,3.97,4.0,1780200
2015-02-04,4.03,4.07,3.97,4.03,1908810
2015-02-05,4.04,4.04,3.89,3.92,1272870
2015-02-06,3.9,3.98,3.85,3.94,2104000
2015-02-09,3.99,3.99,3.91,3.95,4882000
2015-02-10,4.01,4.05,3.95,4.01,712180
2015-02-11,3.98,4.15,3.98,4.13,2156000
2015-02-12,4.13,4.17,4.1,4.14,1014843
2015-02-13,4.12,4.17,4.11,4.14,1176000
2015-02-16,4.13,4.29,4.13,4.27,1760586
2015-02-17,4.29,4.31,4.22,4.3,888000
2015-02-18,4.32,4.33,4.26,4.32,498400
2015-02-23,4.35,4.41,4.29,4.39,1754000
2015-02-24,4.42,4.58,4.35,4.58,2847607
2015-02-25,4.57,4.57,4.47,4.52,3054000
2015-02-26,4.48,4.52,4.48,4.49,2823018
2015-02-27,4.51,4.58,4.49,4.58,2294000
2015-03-02,4.58,4.61,4.51,4.6,1366000
2015-03-03,4.53,4.63,4.53,4.61,2278000
2015-03-04,4.58,4.68,4.53,4.64,1738000
2015-03-05,4.68,4.85,4.68,4.8,3674522
2015-03-06,4.76,4.88,4.73,4.86,3744000
2015-03-09,4.86,4.86,4.67,4.77,2698000
2015-03-10,4.72,4.74,4.6,4.63,1903000
2015-03-11,4.57,4.88,4.56,4.87,3684000
2015-03-12,4.76,4.84,4.75,4.81,608000
2015-03-13,4.81,4.81,4.68,4.73,1402000
2015-03-16,4.82,4.82,4.69,4.78,1620705
2015-03-17,4.81,4.87,4.75,4.87,4609607
2015-03-18,4.87,4.87,4.64,4.66,3746000
2015-03-19,4.66,4.67,4.46,4.55,6884000
2015-03-20,4.51,4.62,4.49,4.5,5132254
2015-03-23,4.54,4.61,4.5,4.53,3576000
2015-03-24,4.6,4.6,4.49,4.51,3995214
2015-03-25,4.55,4.57,4.5,4.54,2736320
2015-03-26,4.61,4.63,4.5,4.55,2495865
2015-03-27,4.62,4.62,4.5,4.51,972000
2015-03-30,4.56,4.56,4.44,4.52,3119738
2015-03-31,4.8,4.8,4.49,4.52,1829887
2015-04-01,4.42,4.51,4.42,4.5,1767500
2015-04-02,4.5,4.55,4.48,4.5,3370000
2015-04-08,4.5,4.74,4.5,4.68,13284000
2015-04-09,4.7,5.21,4.7,4.94,15258000
2015-04-10,4.96,4.96,4.75,4.88,15297250
2015-04-13,5.38,5.38,5.11,5.28,19489478
2015-04-14,5.3,5.54,5.26,5.44,18207608
2015-04-15,5.5,5.5,5.3,5.44,6344000
2015-04-16,5.27,5.47,5.27,5.47,6319607
2015-04-17,5.45,5.48,5.13,5.17,4744935
2015-04-20,5.07,5.18,4.71,4.87,17074000
2015-04-21,4.98,5.04,4.8,4.95,5205042
2015-04-22,5.07,5.1,4.88,5.07,4072000
2015-04-23,5.1,5.1,4.96,4.99,1842407
2015-04-24,5.07,5.07,4.78,4.84,5550000
2015-04-27,4.96,5.0,4.9,4.99,4272989
2015-04-28,4.94,4.97,4.8,4.84,4547150
2015-04-29,4.89,4.89,4.81,4.85,2358000
2015-04-30,4.88,4.9,4.79,4.87,2128000
2015-05-04,4.89,4.97,4.82,4.94,1531738
2015-05-05,4.91,4.94,4.78,4.91,4350000
2015-05-06,4.95,4.95,4.8,4.82,1584000
2015-05-07,4.8,4.85,4.75,4.82,2030160
2015-05-08,4.8,4.95,4.73,4.89,1970000
2015-05-11,4.97,4.97,4.82,4.96,2751530
2015-05-12,4.95,4.95,4.86,4.89,2006878
2015-05-13,4.86,5.18,4.78,5.09,6138839
2015-05-14,5.15,5.15,4.99,5.03,1158000
2015-05-15,4.99,5.16,4.99,5.04,2342679
2015-05-18,5.01,5.01,4.93,4.98,846000
2015-05-19,5.03,5.08,4.94,5.07,2476360
2015-05-20,5.13,5.14,5.04,5.09,1728000
2015-05-21,5.1,5.1,5.02,5.04,2006188
2015-05-22,5.1,5.1,4.96,5.01,2154360
2015-05-26,5.1,5.12,5.02,5.05,3485000
2015-05-27,5.1,5.1,4.89,4.98,2411214
2015-05-28,4.98,5.1,4.8,4.86,4106000
2015-05-29,4.82,4.91,4.78,4.79,4277321
2015-06-01,4.83,4.88,4.73,4.85,2382000
2015-06-02,4.86,4.86,4.76,4.85,2125645
2015-06-03,4.88,4.88,4.74,4.76,1872000
2015-06-04,4.79,4.79,4.44,4.44,5270000
2015-06-05,4.47,4.58,4.45,4.53,1598292
2015-06-08,4.77,4.77,4.38,4.41,4555738
2015-06-09,4.44,4.44,4.13,4.18,3330000
2015-06-10,4.18,4.21,4.1,4.13,6080000
2015-06-11,4.15,4.15,3.91,4.01,10824095
2015-06-12,4.07,4.12,4.03,4.07,4202000
2015-06-15,4.07,4.07,3.85,3.86,4072000
2015-06-16,4.0,4.02,3.95,3.97,2437439
2015-06-17,3.99,4.06,3.92,4.05,3436000
2015-06-18,4.05,4.17,4.0,4.11,2166000
2015-06-19,4.15,4.15,3.96,3.99,1807075
2015-06-22,4.09,4.09,3.88,4.03,868000
2015-06-23,4.15,4.15,3.91,4.08,1726126
2015-06-24,4.11,4.11,3.91,3.92,1952000
2015-06-25,3.91,3.98,3.9,3.92,1276000
2015-06-26,3.9,3.93,3.75,3.79,3064000
2015-06-29,3.71,3.77,3.47,3.62,2842000
2015-06-30,3.65,3.78,3.57,3.73,3760000
2015-07-02,3.72,3.74,3.51,3.51,5604130
2015-07-03,3.45,3.62,3.37,3.38,4630000
2015-07-06,3.38,3.47,3.11,3.21,6513750
2015-07-07,3.21,3.36,3.17,3.21,6180116
2015-07-08,3.24,3.3,2.91,3.0,12464000
2015-07-09,3.12,3.35,3.06,3.29,8247937
2015-07-10,3.45,3.63,3.45,3.58,4670000
2015-07-13,3.58,3.69,3.51,3.61,3208000
2015-07-14,3.66,3.75,3.6,3.69,4074000
2015-07-15,3.75,3.77,3.57,3.57,3685045
2015-07-16,3.51,3.65,3.51,3.61,1348000
2015-07-17,3.61,3.64,3.5,3.61,1336000
2015-07-20,3.62,3.7,3.57,3.58,1355885
2015-07-21,3.62,3.63,3.58,3.61,1036000
2015-07-22,3.51,3.64,3.51,3.58,642000
2015-07-23,3.54,3.67,3.54,3.66,930754
2015-07-24,3.59,3.72,3.59,3.68,1122225
2015-07-27,3.53,3.7,3.36,3.42,2976000
2015-07-28,3.33,3.52,3.33,3.46,1832000
2015-07-29,3.45,3.52,3.38,3.39,1912000
2015-07-30,3.47,3.5,3.33,3.34,1462124
2015-07-31,3.31,3.49,3.31,3.41,4306000
2015-08-03,3.35,3.53,3.35,3.37,1178000
2015-08-04,3.32,3.47,3.22,3.26,3066000
2015-08-05,3.39,3.39,3.23,3.25,2478000
2015-08-06,3.22,3.25,3.0,3.01,8376000
2015-08-07,3.01,3.15,3.01,3.1,4160000
2015-08-10,3.14,3.29,3.11,3.13,3976000
2015-08-11,3.12,3.22,3.1,3.12,1624000
2015-08-12,3.11,3.17,3.08,3.11,3124000
2015-08-13,3.08,3.15,3.06,3.1,3955131
2015-08-14,3.1,3.16,3.04,3.15,3134175
2015-08-17,3.15,3.17,3.0,3.04,6272000
2015-08-18,3.1,3.1,2.95,2.97,4484000
2015-08-19,3.02,3.04,2.93,2.95,6901824
2015-08-20,2.99,3.03,2.95,2.98,2002000
2015-08-21,2.93,2.98,2.81,2.84,3928160
2015-08-24,2.8,2.8,2.56,2.68,2336000
2015-08-25,2.58,2.75,2.58,2.63,3457705
2015-08-26,2.89,3.06,2.87,2.91,6608000
2015-08-27,2.95,3.03,2.89,2.93,5520000
2015-08-28,2.94,3.0,2.91,2.95,4572000
2015-08-31,2.98,3.04,2.93,2.96,4262000
2015-09-01,2.95,3.1,2.95,3.05,5218503
2015-09-02,3.02,3.11,2.98,3.1,10785290
2015-09-04,3.13,3.16,3.06,3.13,7427800
2015-09-07,3.11,3.15,3.02,3.13,7564000
2015-09-08,3.12,3.24,3.11,3.23,3192000
2015-09-09,3.25,3.43,3.22,3.39,3626800
2015-09-10,3.3,3.36,3.23,3.36,1644000
2015-09-11,3.36,3.41,3.29,3.41,3024300
2015-09-14,3.39,3.4,3.3,3.35,3868000
2015-09-15,3.35,3.38,3.28,3.37,2158000
2015-09-16,3.37,3.52,3.29,3.5,9242285
2015-09-17,3.45,3.61,3.45,3.61,3874000
2015-09-18,3.6,3.72,3.56,3.69,2762186
2015-09-21,3.57,3.67,3.56,3.67,3160000
2015-09-22,3.7,3.75,3.6,3.73,4244000
2015-09-23,3.74,3.75,3.67,3.74,5038273
2015-09-24,3.75,3.8,3.68,3.79,3684000
2015-09-25,3.8,3.85,3.76,3.83,3093305
2015-09-29,3.77,3.84,3.74,3.8,3550000
2015-09-30,3.82,3.84,3.76,3.82,3998000
2015-10-02,3.84,3.95,3.76,3.85,6290000
2015-10-05,3.86,3.93,3.79,3.92,3894000
2015-10-06,3.87,4.01,3.87,3.97,5616600
2015-10-07,3.98,4.15,3.94,4.12,6230000
2015-10-08,4.15,4.15,3.88,3.89,3518000
2015-10-09,3.92,4.01,3.88,4.01,4216000
2015-10-12,4.03,4.39,4.02,4.23,8646475
2015-10-13,4.3,4.34,4.08,4.32,5254718
2015-10-14,4.31,4.31,4.15,4.18,1382000
2015-10-15,4.18,4.21,4.11,4.14,2259250
2015-10-16,4.2,4.22,4.11,4.17,7824000
2015-10-19,4.13,4.16,4.01,4.14,8582000
2015-10-20,4.13,4.18,4.07,4.16,4149600
2015-10-22,4.15,4.19,4.08,4.18,5882100
2015-10-23,4.2,4.22,4.15,4.18,3202000
2015-10-26,4.2,4.23,4.13,4.22,3226000
2015-10-27,4.24,4.24,4.16,4.2,2684000
2015-10-28,4.2,4.21,4.15,4.21,2517000
2015-10-29,4.2,4.24,4.14,4.23,5894000
2015-10-30,4.22,4.25,4.17,4.25,4746000
2015-11-02,4.25,4.41,4.19,4.29,3342000
2015-11-03,4.31,4.31,4.2,4.22,1894000
2015-11-04,4.22,4.24,4.07,4.11,8352296
2015-11-05,4.14,4.16,4.01,4.08,3710000
2015-11-06,4.13,4.23,4.09,4.22,6228000
2015-11-09,4.18,4.2,4.14,4.18,2168000
2015-11-10,4.15,4.2,4.09,4.18,4584000
2015-11-11,4.15,4.17,4.09,4.11,1834000
2015-11-12,4.12,4.14,4.07,4.12,1696000
2015-11-13,4.09,4.19,4.04,4.18,2667029
2015-11-16,4.11,4.14,4.05,4.13,2065234
2015-11-17,4.15,4.25,4.13,4.24,3886000
2015-11-18,4.24,4.3,4.17,4.24,3784000
2015-11-19,4.24,4.32,4.21,4.31,3106000
2015-11-20,4.32,4.35,4.24,4.3,2764000
2015-11-23,4.3,4.35,4.27,4.33,1790313
2015-11-24,4.3,4.38,4.3,4.36,2436000
2015-11-25,4.36,4.37,4.32,4.36,2002000
2015-11-26,4.35,4.37,4.19,4.22,1159764
2015-11-27,4.25,4.25,4.09,4.11,2236273
2015-11-30,4.14,4.22,4.12,4.21,3690000
2015-12-01,4.21,4.21,4.12,4.2,3904000
2015-12-02,4.19,4.26,4.15,4.25,1804000
2015-12-03,4.19,4.22,4.14,4.17,2252750
2015-12-04,4.1,4.22,4.08,4.22,3323000
2015-12-07,4.2,4.21,4.16,4.2,374000
2015-12-08,4.21,4.21,4.14,4.19,1059940
2015-12-09,4.19,4.19,4.12,4.16,1557006
2015-12-10,4.11,4.17,4.05,4.06,2510000
2015-12-11,4.05,4.06,3.91,4.04,7563560
2015-12-14,4.01,4.01,3.9,3.95,3516000
2015-12-15,3.91,4.0,3.9,3.98,4077118
2015-12-16,3.99,4.01,3.92,4.01,882415
2015-12-17,4.0,4.02,3.95,3.99,3480000
2015-12-18,3.94,4.01,3.94,4.0,4778267
2015-12-21,3.99,4.01,3.96,3.99,1818000
2015-12-22,3.99,4.0,3.93,3.95,1850000
2015-12-23,3.96,3.96,3.84,3.89,1912000
2015-12-24,3.95,3.95,3.83,3.9,567000
2015-12-28,3.85,3.85,3.76,3.78,2950056
2015-12-29,3.77,3.78,3.72,3.76,2294000
2015-12-30,3.76,3.76,3.7,3.73,1764000
2015-12-31,3.7,3.72,3.68,3.69,704542
2016-01-04,3.7,3.71,3.61,3.65,2234000
2016-01-05,3.68,3.68,3.57,3.6,3428273
2016-01-06,3.6,3.6,3.55,3.56,1892000
2016-01-07,3.51,3.54,3.32,3.38,2510000
2016-01-08,3.37,3.45,3.3,3.41,2578000
2016-01-11,3.33,3.33,3.23,3.27,840000
2016-01-12,3.31,3.31,3.09,3.2,2897500
2016-01-13,3.24,3.26,3.15,3.2,1292000
2016-01-14,3.08,3.18,3.08,3.14,1202000
2016-01-15,3.11,3.15,2.96,3.04,2732000
2016-01-18,3.03,3.03,2.91,2.92,2878000
2016-01-19,2.94,3.07,2.94,3.0,4654000
2016-01-20,3.1,3.1,2.97,3.0,4282000
2016-01-21,3.09,3.09,2.85,2.89,3680000
2016-01-22,2.95,2.96,2.83,2.85,3066500
2016-01-25,2.9,2.96,2.9,2.95,1706936
2016-01-26,2.94,2.97,2.9,2.93,1194000
2016-01-27,3.0,3.0,2.93,2.94,1544000
2016-01-28,2.92,3.0,2.89,2.98,2492000
2016-01-29,3.01,3.08,2.99,3.05,1744000
2016-02-01,3.05,3.2,3.05,3.19,1920000
2016-02-02,3.19,3.25,3.16,3.17,1981756
2016-02-03,3.14,3.16,3.03,3.07,1762016
2016-02-04,3.06,3.14,3.06,3.1,1162000
2016-02-05,3.11,3.17,3.09,3.14,968000
2016-02-11,3.0,3.09,2.89,2.9,1642000
2016-02-12,2.9,3.02,2.9,2.94,856000
2016-02-15,2.95,3.11,2.95,3.04,856000
2016-02-16,3.04,3.11,3.04,3.07,1032000
2016-02-17,3.09,3.19,3.09,3.12,1080000
2016-02-18,3.16,3.32,3.16,3.26,1682250
2016-02-19,3.18,3.25,3.14,3.19,2392000
2016-02-22,3.18,3.28,3.18,3.25,778000
2016-02-23,3.23,3.25,3.16,3.19,4000000
2016-02-24,3.22,3.22,3.06,3.08,1496000
2016-02-25,3.1,3.17,3.07,3.09,998193
2016-02-26,3.12,3.18,3.09,3.09,702000
2016-02-29,3.07,3.11,3.03,3.1,914000
2016-03-01,3.13,3.19,3.11,3.15,1216000
2016-03-02,3.2,3.43,3.18,3.36,2808000
2016-03-03,3.4,3.42,3.16,3.19,4879853
2016-03-04,3.28,3.32,3.25,3.3,2280000
2016-03-07,3.3,3.4,3.3,3.37,1580060
2016-03-08,3.35,3.38,3.3,3.34,1201895
2016-03-09,3.29,3.37,3.29,3.34,1132000
2016-03-10,3.36,3.36,3.32,3.33,1362000
2016-03-11,3.33,3.35,3.3,3.33,1193865
2016-03-14,3.35,3.44,3.33,3.37,3659600
2016-03-15,3.55,3.6,3.42,3.45,14170000
2016-03-16,3.54,3.57,3.47,3.49,7070000
2016-03-17,3.63,3.66,3.54,3.62,9454000
2016-03-18,3.65,3.76,3.62,3.76,6096160
2016-03-21,3.78,3.95,3.78,3.92,4504000
2016-03-22,3.92,3.96,3.86,3.95,3654000
2016-03-23,3.96,3.97,3.9,3.92,3332000
2016-03-24,3.88,3.96,3.86,3.9,2330000
2016-03-29,3.9,3.94,3.88,3.91,1950000
2016-03-30,3.95,3.95,3.87,3.89,3904000
2016-03-31,3.94,4.0,3.88,4.0,5780000
2016-04-01,4.01,4.01,3.89,3.92,1258000
2016-04-05,3.94,3.94,3.8,3.85,4040000
2016-04-06,3.82,3.93,3.79,3.88,2182000
2016-04-07,3.9,4.06,3.9,4.02,5170000
2016-04-08,3.93,4.0,3.86,3.91,1438000
2016-04-11,3.92,3.92,3.8,3.88,1424000
2016-04-12,3.85,3.86,3.75,3.79,2398000
2016-04-13,3.83,3.91,3.78,3.81,3888000
2016-04-14,3.81,3.88,3.68,3.77,2850000
2016-04-15,3.82,3.82,3.69,3.73,1594273
2016-04-18,3.79,3.85,3.72,3.84,1900273
2016-04-19,3.9,3.9,3.78,3.85,1470000
2016-04-20,3.88,3.93,3.82,3.85,2794000
2016-04-21,3.89,3.89,3.67,3.68,3324000
2016-04-22,3.7,3.73,3.58,3.62,1694000
2016-04-25,3.59,3.59,3.44,3.56,3517100
2016-04-26,3.54,3.6,3.48,3.56,1501759
2016-04-27,3.54,3.55,3.49,3.54,2192000
2016-04-28,3.53,3.61,3.46,3.53,3092000
2016-04-29,3.54,3.57,3.46,3.49,2788000
2016-05-03,3.53,3.53,3.37,3.43,2342000
2016-05-04,3.43,3.43,3.25,3.29,3944273
2016-05-05,3.25,3.33,3.25,3.32,1704000
2016-05-06,3.3,3.31,3.17,3.22,2938273
2016-05-09,3.22,3.22,3.17,3.19,564000
2016-05-10,3.15,3.19,3.15,3.19,884000
2016-05-11,3.23,3.23,3.12,3.14,2068000
2016-05-12,3.19,3.19,3.1,3.11,1946000
2016-05-13,3.11,3.11,2.99,3.03,3066000
2016-05-16,2.99,3.02,2.97,3.01,3495000
2016-05-17,2.9,3.04,2.87,3.03,3898000
2016-05-18,2.97,3.0,2.88,2.89,2846000
2016-05-19,2.95,2.95,2.88,2.94,1928000
2016-05-20,2.94,3.01,2.93,2.98,1915267
2016-05-23,3.01,3.03,2.95,2.96,1114000
2016-05-24,2.99,2.99,2.93,2.96,851240
2016-05-25,2.98,3.03,2.95,2.96,3358000
2016-05-26,2.96,3.08,2.96,3.05,2731000
2016-05-27,3.05,3.19,3.04,3.11,3370714
2016-05-30,3.14,3.28,3.13,3.26,2903900
2016-05-31,3.23,3.39,3.23,3.35,4578000
2016-06-01,3.31,3.4,3.3,3.35,2174000
2016-06-02,3.37,3.37,3.27,3.3,1150749
2016-06-03,3.29,3.29,3.18,3.26,2663980
2016-06-06,3.29,3.3,3.24,3.29,1312000
2016-06-07,3.29,3.37,3.21,3.25,2681508
2016-06-08,3.25,3.32,3.25,3.3,2400273
2016-06-10,3.29,3.29,3.13,3.16,1352000
2016-06-13,3.16,3.16,3.06,3.1,1284000
2016-06-14,3.09,3.09,3.04,3.04,950637
2016-06-15,3.03,3.12,3.01,3.11,962000
2016-06-16,3.07,3.09,3.01,3.03,1175809
2016-06-17,3.09,3.09,2.95,3.0,2902000
2016-06-20,3.01,3.02,2.97,3.0,987000
2016-06-21,3.01,3.01,2.97,3.0,982000
2016-06-22,3.0,3.0,2.93,2.95,4123000
2016-06-23,2.96,2.98,2.93,2.96,986000
2016-06-24,2.93,3.01,2.86,2.96,3460000
2016-06-27,2.94,2.96,2.88,2.95,1494000
2016-06-28,2.91,2.95,2.88,2.93,1014000
2016-06-29,2.94,3.04,2.94,3.02,1308000
2016-06-30,3.05,3.1,3.01,3.09,2054000
2016-07-04,3.09,3.11,3.05,3.06,4466000
2016-07-05,3.07,3.07,3.01,3.01,888700
2016-07-06,2.97,3.01,2.97,2.99,584000
2016-07-07,2.99,3.02,2.95,2.96,1536000
2016-07-08,2.97,2.97,2.91,2.93,654000
2016-07-11,2.96,2.99,2.94,2.95,1856000
2016-07-12,2.98,2.98,2.9,2.97,1728000
2016-07-13,3.0,3.0,2.94,2.95,2238000
2016-07-14,2.94,2.95,2.89,2.92,3550000
2016-07-15,2.8,2.8,2.4,2.43,20578000
2016-07-18,2.45,2.46,2.4,2.4,7742000
2016-07-19,2.41,2.47,2.4,2.44,5602000
2016-07-20,2.45,2.59,2.44,2.53,7074000
2016-07-21,2.59,2.63,2.55,2.6,6231540
2016-07-22,2.57,2.58,2.53,2.53,5574000
2016-07-25,2.61,2.61,2.53,2.54,3244000
2016-07-26,2.55,2.56,2.46,2.47,5336000
2016-07-27,2.54,2.54,2.48,2.52,2256000
2016-07-28,2.51,2.52,2.45,2.46,4122819
2016-07-29,2.48,2.51,2.46,2.47,2320600
2016-08-01,2.53,2.54,2.49,2.5,1094000
2016-08-03,2.52,2.53,2.48,2.49,1959499
2016-08-04,2.52,2.52,2.49,2.49,2262000
2016-08-05,2.5,2.54,2.5,2.52,3330000
2016-08-08,2.53,2.59,2.52,2.56,2848000
2016-08-09,2.56,2.58,2.55,2.55,1424000
2016-08-10,2.6,2.6,2.49,2.5,2290380
2016-08-11,2.5,2.52,2.49,2.5,1710000
2016-08-12,2.5,2.51,2.42,2.43,4758000
2016-08-15,2.44,2.54,2.44,2.5,4640000
2016-08-16,2.6,2.6,2.51,2.53,4004488
2016-08-17,2.53,2.53,2.44,2.46,7797300
2016-08-18,2.45,2.48,2.45,2.45,6852667
2016-08-19,2.45,2.48,2.43,2.44,3368000
2016-08-22,2.44,2.44,2.3,2.33,8145000
2016-08-23,2.34,2.35,2.22,2.24,5213000
2016-08-24,2.32,2.32,2.18,2.19,4415000
2016-08-25,2.18,2.19,2.15,2.15,3481736
2016-08-26,2.16,2.25,2.16,2.23,2232000
2016-08-29,2.29,2.29,2.17,2.18,2870500
2016-08-30,2.19,2.22,2.18,2.2,1873000
2016-08-31,2.21,2.33,2.2,2.3,4721000
2016-09-01,2.3,2.31,2.27,2.27,1817819
2016-09-02,2.29,2.29,2.23,2.24,3303000
2016-09-05,2.32,2.32,2.28,2.31,1070000
2016-09-06,2.33,2.33,2.28,2.32,1586000
2016-09-07,2.34,2.42,2.32,2.41,2528000
2016-09-08,2.43,2.44,2.32,2.37,2600273
2016-09-09,2.37,2.41,2.35,2.36,3392380
2016-09-12,2.34,2.34,2.25,2.29,2530000
2016-09-13,2.33,2.33,2.25,2.26,2818000
2016-09-14,2.28,2.29,2.25,2.26,930000
2016-09-15,2.29,2.29,2.19,2.2,6611500
2016-09-19,2.25,2.37,2.22,2.36,6160000
2016-09-20,2.39,2.39,2.31,2.32,1382000
2016-09-21,2.32,2.35,2.31,2.35,584000
2016-09-22,2.34,2.38,2.33,2.35,2020000
2016-09-23,2.32,2.35,2.32,2.35,1136000
2016-09-26,2.35,2.35,2.26,2.28,3136147
2016-09-27,2.26,2.35,2.23,2.34,2460000
2016-09-28,2.34,2.35,2.3,2.33,709360
2016-09-29,2.35,2.38,2.28,2.36,2296000
2016-09-30,2.38,2.39,2.3,2.31,2160000
2016-10-03,2.32,2.36,2.32,2.33,1152500
2016-10-04,2.36,2.49,2.34,2.49,4990000
2016-10-05,2.48,2.56,2.45,2.56,4942456
2016-10-06,2.58,2.7,2.56,2.66,6990000
2016-10-07,2.68,2.71,2.6,2.66,5566000
2016-10-11,2.65,2.67,2.54,2.59,3310000
2016-10-12,2.6,2.6,2.51,2.57,1766000
2016-10-13,2.59,2.6,2.53,2.56,1844000
2016-10-14,2.6,2.6,2.55,2.58,1414000
2016-10-17,2.55,2.58,2.5,2.5,1316380
2016-10-18,2.53,2.57,2.52,2.56,1153064
2016-10-19,2.58,2.58,2.48,2.51,4652000
2016-10-20,2.51,2.65,2.5,2.64,3722000
2016-10-24,2.65,2.65,2.51,2.57,1216000
2016-10-25,2.61,2.63,2.59,2.63,3368000
2016-10-26,2.62,2.62,2.55,2.56,1078750
2016-10-27,2.57,2.6,2.51,2.56,1922000
2016-10-28,2.57,2.58,2.43,2.49,2816000
2016-10-31,2.49,2.54,2.46,2.46,1002456
2016-11-01,2.53,2.54,2.48,2.52,848000
2016-11-02,2.53,2.53,2.45,2.47,1990967
2016-11-03,2.5,2.5,2.45,2.47,601130
2016-11-04,2.48,2.5,2.45,2.47,582000
2016-11-07,2.52,2.52,2.45,2.46,828000
2016-11-08,2.54,2.54,2.45,2.48,434000
2016-11-09,2.49,2.49,2.37,2.41,1988000
2016-11-10,2.49,2.49,2.42,2.43,708000
2016-11-11,2.47,2.47,2.34,2.37,1942000
2016-11-14,2.37,2.37,2.31,2.35,642000
2016-11-15,2.37,2.43,2.36,2.41,946000
2016-11-16,2.43,2.43,2.38,2.42,498000
2016-11-17,2.44,2.44,2.41,2.41,408000
2016-11-18,2.42,2.43,2.37,2.38,552000
2016-11-21,2.39,2.47,2.35,2.43,1142000
2016-11-22,2.46,2.6,2.46,2.58,4288000
2016-11-23,2.59,2.62,2.48,2.51,2244380
2016-11-24,2.51,2.56,2.5,2.53,672000
2016-11-25,2.56,2.57,2.5,2.57,836000
2016-11-28,2.58,2.6,2.52,2.54,1702000
2016-11-29,2.55,2.63,2.53,2.61,3434912
2016-11-30,2.63,2.66,2.6,2.64,2576000
2016-12-01,2.63,2.64,2.59,2.61,1344000
2016-12-02,2.62,2.65,2.58,2.6,1320000
2016-12-05,2.58,2.63,2.53,2.53,1950000
2016-12-06,2.59,2.62,2.53,2.54,3069700
2016-12-07,2.53,2.6,2.53,2.57,2212000
2016-12-08,2.57,2.62,2.55,2.57,2018720
2016-12-09,2.59,2.61,2.57,2.6,2033812
2016-12-12,2.63,2.63,2.54,2.56,1950000
2016-12-13,2.58,2.6,2.57,2.58,1198000
2016-12-14,2.59,2.61,2.57,2.59,2158000
2016-12-15,2.59,2.63,2.53,2.57,970000
2016-12-16,2.61,2.62,2.55,2.59,1735334
2016-12-19,2.58,2.61,2.58,2.58,577178
2016-12-20,2.59,2.59,2.53,2.55,478000
2016-12-21,2.55,2.6,2.52,2.56,826000
2016-12-22,2.54,2.57,2.51,2.51,1054000
2016-12-23,2.43,2.43,2.32,2.38,4447000
2016-12-28,2.4,2.4,2.35,2.39,1218000
2016-12-29,2.34,2.4,2.34,2.37,920116
2016-12-30,2.38,2.41,2.37,2.4,976000
2017-01-03,2.4,2.43,2.39,2.42,596446
2017-01-04,2.41,2.43,2.39,2.42,722000
2017-01-05,2.45,2.52,2.44,2.48,2670800
2017-01-06,2.5,2.51,2.46,2.46,740245
2017-01-09,2.45,2.45,2.4,2.41,2325291
2017-01-10,2.39,2.43,2.38,2.41,906000
2017-01-11,2.43,2.45,2.4,2.43,706000
2017-01-12,2.41,2.52,2.41,2.51,2501960
2017-01-13,2.51,2.53,2.48,2.5,910000
2017-01-16,2.5,2.5,2.45,2.47,1288000
2017-01-17,2.46,2.53,2.46,2.49,1347675
2017-01-18,2.49,2.51,2.48,2.49,652000
2017-01-19,2.5,2.5,2.47,2.48,1178000
2017-01-20,2.47,2.5,2.47,2.5,1588000
2017-01-23,2.5,2.52,2.49,2.49,2130000
2017-01-24,2.51,2.51,2.45,2.5,882000
2017-01-25,2.51,2.53,2.47,2.5,936633
2017-01-26,2.5,2.53,2.5,2.52,537987
2017-01-27,2.52,2.52,2.5,2.51,234000
2017-02-01,2.5,2.5,2.47,2.5,1220528
2017-02-02,2.5,2.53,2.49,2.51,1085742
2017-02-03,2.5,2.52,2.5,2.52,1165539
2017-02-06,2.53,2.55,2.5,2.54,1013216
2017-02-07,2.54,2.54,2.52,2.54,506000
2017-02-08,2.55,2.68,2.51,2.68,3624000
2017-02-09,2.68,2.7,2.63,2.69,1726600
2017-02-10,2.69,2.72,2.67,2.71,2056000
2017-02-13,2.72,2.76,2.68,2.75,3479000
2017-02-14,2.76,2.9,2.74,2.9,8407000
2017-02-15,2.93,2.94,2.84,2.89,3892000
2017-02-16,2.89,3.1,2.88,3.09,9082904
2017-02-17,3.11,3.14,2.96,3.0,3661270
2017-02-20,3.02,3.05,3.0,3.04,1774000
2017-02-21,3.06,3.09,3.05,3.07,1439435
2017-02-22,3.08,3.08,2.99,3.02,4288053
2017-02-23,3.05,3.1,2.9,2.98,4614000
2017-02-24,2.98,3.03,2.89,2.92,2671689
2017-02-27,2.92,3.03,2.92,3.03,3246000
2017-02-28,3.0,3.05,2.92,2.94,1802000
2017-03-01,2.95,3.0,2.92,2.94,2770000
2017-03-02,2.98,3.1,2.92,3.03,3602000
2017-03-03,3.04,3.04,2.9,2.91,2757037
2017-03-06,2.93,2.97,2.92,2.97,594000
2017-03-07,2.95,3.05,2.95,3.05,3253750
2017-03-08,3.03,3.05,2.99,3.03,1202000
2017-03-09,3.06,3.06,2.96,2.97,961974
2017-03-10,2.95,3.03,2.95,3.02,890000
2017-03-13,3.05,3.05,3.01,3.05,1003480
2017-03-14,3.03,3.05,3.01,3.02,1042000
2017-03-15,3.03,3.03,2.97,2.98,942000
2017-03-16,3.03,3.03,2.99,2.99,1094973
2017-03-17,3.02,3.24,2.99,3.21,6184974
2017-03-20,3.23,3.39,3.2,3.39,6758618
2017-03-21,3.39,3.39,3.17,3.19,6534000
2017-03-22,3.14,3.39,3.1,3.27,8165136
2017-03-23,3.29,3.3,3.17,3.23,3676000
2017-03-24,3.24,3.26,3.16,3.19,4444000
2017-03-27,3.18,3.24,3.15,3.17,2066000
2017-03-28,3.22,3.26,3.18,3.18,2646000
2017-03-29,3.2,3.23,3.18,3.19,2402000
2017-03-30,3.21,3.22,3.11,3.18,1072000
2017-03-31,3.21,3.23,3.15,3.19,1957117
2017-04-03,3.22,3.27,3.15,3.16,1368454
2017-04-05,3.16,3.16,3.04,3.12,2600000
2017-04-06,3.1,3.12,3.08,3.09,1169683
2017-04-07,3.1,3.11,3.06,3.11,1878000
2017-04-10,3.1,3.11,3.05,3.07,770000
2017-04-11,3.06,3.06,3.0,3.03,1516000
2017-04-12,3.01,3.02,2.94,3.0,3080000
2017-04-13,3.0,3.0,2.96,2.96,846000
2017-04-18,2.99,3.01,2.96,3.0,1066000
2017-04-19,3.02,3.03,2.97,2.99,1430000
2017-04-20,3.0,3.0,2.83,2.87,1484000
2017-04-21,2.87,2.87,2.76,2.8,1494000
2017-04-24,2.81,2.82,2.67,2.71,2806721
2017-04-25,2.71,3.05,2.71,3.04,8971494
2017-04-26,3.04,3.08,2.88,2.91,3858000
2017-04-27,2.92,2.95,2.87,2.93,1216000
2017-04-28,2.93,3.0,2.86,2.88,2297295
2017-05-02,2.93,2.93,2.76,2.82,2082000
2017-05-04,2.82,2.85,2.68,2.79,3579484
2017-05-05,2.8,2.81,2.7,2.74,2656000
2017-05-08,2.74,2.87,2.73,2.86,3460000
2017-05-09,2.83,2.87,2.81,2.83,1806000
2017-05-10,2.85,2.96,2.83,2.92,2057050
2017-05-11,2.95,2.95,2.91,2.95,905643
2017-05-12,2.96,2.96,2.89,2.92,1082000
2017-05-15,2.9,2.95,2.89,2.95,376846
2017-05-16,2.92,2.95,2.91,2.94,670000
2017-05-17,2.94,2.94,2.87,2.92,612000
2017-05-18,2.88,2.95,2.8,2.86,540000
2017-05-19,2.88,2.98,2.88,2.93,528000
2017-05-22,2.85,2.89,2.77,2.79,935296
2017-05-23,2.82,2.93,2.82,2.89,1058000
2017-05-24,2.91,2.96,2.88,2.95,2010000
2017-05-25,2.95,2.96,2.9,2.95,1622000
2017-05-26,3.02,3.23,3.02,3.18,10105907
2017-05-29,3.19,3.25,3.14,3.24,2090759
2017-05-31,3.25,3.32,3.21,3.26,5270000
2017-06-01,3.26,3.26,3.15,3.15,5286500
2017-06-02,3.14,3.25,3.13,3.15,3500000
2017-06-05,3.2,3.38,3.09,3.1,12651889
2017-06-06,3.1,3.17,3.05,3.12,2816000
2017-06-07,3.11,3.19,3.1,3.14,1064000
2017-06-08,3.17,3.17,3.04,3.06,2336808
2017-06-09,3.09,3.13,3.05,3.09,2696864
2017-06-12,3.14,3.17,3.04,3.08,2545000
2017-06-13,3.11,3.15,3.08,3.11,3084879
2017-06-14,3.11,3.13,3.05,3.09,1958275
2017-06-15,3.1,3.25,3.03,3.1,18003774
2017-06-16,3.13,3.26,3.1,3.25,4914012
2017-06-19,3.19,3.31,3.18,3.26,6156985
2017-06-20,3.26,3.33,3.21,3.3,6096000
2017-06-21,3.28,3.58,3.25,3.55,12497183
2017-06-22,3.58,3.58,3.31,3.34,9457000
2017-06-23,3.37,3.41,3.25,3.37,4835551
2017-06-26,3.39,3.4,3.3,3.3,5262467
2017-06-27,3.33,3.35,3.21,3.3,3978000
2017-06-28,3.32,3.36,3.15,3.19,6087236
2017-06-29,3.2,3.29,3.2,3.22,1958000
2017-06-30,3.05,3.28,3.0,3.2,10582224
2017-07-03,3.18,3.2,3.07,3.07,8101356
2017-07-04,3.07,3.17,3.07,3.1,4574000
2017-07-05,3.15,3.17,3.12,3.16,1412000
2017-07-06,3.13,3.14,3.08,3.09,4996000
2017-07-07,3.08,3.16,3.08,3.16,3339303
2017-07-10,3.16,3.26,3.12,3.21,3406000
2017-07-11,3.21,3.21,3.14,3.17,2022000
2017-07-12,3.14,3.26,3.14,3.2,3737528
2017-07-13,3.2,3.21,3.13,3.14,5120000
2017-07-14,3.17,3.17,3.06,3.06,5236318
2017-07-17,3.08,3.13,3.08,3.12,6022000
2017-07-18,3.13,3.24,3.13,3.23,1942314
2017-07-19,3.24,3.24,3.13,3.17,3846000
2017-07-20,3.17,3.24,3.15,3.17,1950531
2017-07-21,3.16,3.19,3.14,3.17,1848000
2017-07-24,3.15,3.15,3.09,3.11,4528000
2017-07-25,3.11,3.13,3.09,3.12,1552652
2017-07-26,3.11,3.11,3.0,3.01,5171000
2017-07-27,3.04,3.2,3.04,3.17,5498616
2017-07-28,3.13,3.14,3.09,3.12,546000
2017-07-31,3.11,3.17,3.11,3.15,1123301
2017-08-01,3.15,3.15,3.08,3.1,1405257
2017-08-02,3.1,3.12,3.07,3.08,1132000
2017-08-03,3.08,3.12,3.04,3.09,1888000
2017-08-04,3.09,3.1,3.03,3.06,1764000
2017-08-07,3.06,3.14,3.02,3.02,1987870
2017-08-08,3.03,3.1,3.03,3.07,2728000
2017-08-09,3.06,3.16,3.06,3.15,4134000
2017-08-10,3.16,3.17,3.08,3.13,1644000
2017-08-11,3.14,3.14,3.03,3.07,1600000
2017-08-14,3.07,3.15,3.06,3.1,2642000
2017-08-15,3.13,3.16,3.1,3.13,1310000
2017-08-16,3.11,3.16,3.08,3.16,1546000
2017-08-17,3.07,3.13,2.78,2.96,21682000
2017-08-18,2.9,2.98,2.87,2.95,5326601
2017-08-21,2.93,2.98,2.86,2.97,2862000
2017-08-22,2.99,3.04,2.93,3.03,2448000
2017-08-24,3.02,3.04,2.96,3.04,5511640
2017-08-25,3.04,3.05,2.99,3.04,2360052
2017-08-28,2.99,3.06,2.98,3.06,5506069
2017-08-29,3.01,3.09,3.0,3.08,3320000
2017-08-30,3.07,3.11,3.05,3.1,1646400
2017-08-31,3.07,3.11,3.03,3.1,4293200
2017-09-01,3.09,3.45,3.09,3.42,7022000
2017-09-04,3.35,3.41,3.24,3.24,6636000
2017-09-05,3.29,3.31,3.22,3.26,6004000
2017-09-06,3.24,3.36,3.22,3.29,5050553
2017-09-07,3.28,3.31,3.22,3.3,1958184
2017-09-08,3.29,3.4,3.27,3.35,5764000
2017-09-11,3.31,3.41,3.31,3.41,4416000
2017-09-12,3.39,3.42,3.35,3.35,4146000
2017-09-13,3.37,3.44,3.3,3.37,5432640
2017-09-14,3.35,3.46,3.35,3.45,3570597
2017-09-15,3.45,3.46,3.35,3.44,6174000
2017-09-18,3.4,3.44,3.37,3.43,4171895
2017-09-19,3.43,3.5,3.31,3.41,5388000
2017-09-20,3.39,3.41,3.37,3.37,3941907
2017-09-21,3.34,3.4,3.31,3.35,4127837
2017-09-22,3.34,3.36,3.25,3.3,5411598
2017-09-25,3.3,3.31,3.18,3.19,4842000
2017-09-26,3.19,3.31,3.17,3.28,4554557
2017-09-27,3.2,3.24,3.18,3.19,1287976
2017-09-28,3.18,3.18,3.05,3.05,1724000
2017-09-29,3.1,3.15,3.03,3.08,2172000
2017-10-03,3.01,3.12,2.99,3.07,2241382
2017-10-04,3.07,3.07,3.01,3.03,733648
2017-10-06,3.04,3.11,2.99,3.03,1090000
2017-10-09,3.03,3.03,3.0,3.0,706000
2017-10-10,3.02,3.03,2.98,2.98,1639149
2017-10-11,2.99,3.02,2.95,2.96,1936000
2017-10-12,2.98,2.98,2.93,2.96,1608143
2017-10-13,2.93,3.0,2.92,2.98,2224554
2017-10-16,3.01,3.01,2.96,3.0,700000
2017-10-17,3.01,3.01,2.92,2.95,1024000
2017-10-18,2.96,2.98,2.91,2.93,1437554
2017-10-19,2.92,2.98,2.9,2.91,1430790
2017-10-20,2.9,2.95,2.87,2.88,6349991
2017-10-23,2.91,2.96,2.9,2.96,606000
2017-10-24,2.96,2.98,2.93,2.96,1980000
2017-10-25,2.99,3.0,2.91,2.95,2228000
2017-10-26,2.93,2.95,2.91,2.93,630000
2017-10-27,2.93,2.95,2.88,2.91,3204000
2017-10-30,2.89,2.91,2.86,2.91,752000
2017-10-31,2.88,2.88,2.78,2.78,1640281
2017-11-01,2.78,2.8,2.72,2.74,862878
2017-11-02,2.87,2.87,2.61,2.7,2987334
2017-11-03,2.74,2.74,2.6,2.64,1400000
2017-11-06,2.64,2.64,2.57,2.58,1796000
2017-11-07,2.58,2.67,2.54,2.61,1876810
2017-11-08,2.61,2.61,2.56,2.56,1752000
2017-11-09,2.56,2.62,2.55,2.6,936000
2017-11-10,2.63,2.67,2.6,2.63,1354000
2017-11-13,2.65,2.68,2.56,2.59,1008000
2017-11-14,2.59,2.6,2.45,2.52,2848525
2017-11-15,2.5,2.52,2.47,2.52,1405494
2017-11-16,2.52,2.53,2.46,2.48,1062000
2017-11-17,2.5,2.5,2.38,2.44,2694000
2017-11-20,2.42,2.47,2.42,2.45,2267382
2017-11-21,2.45,2.49,2.39,2.42,2428000
2017-11-22,2.43,2.44,2.38,2.42,1374000
2017-11-23,2.47,2.47,2.35,2.36,1550000
2017-11-24,2.36,2.43,2.35,2.4,928500
2017-11-27,2.42,2.48,2.4,2.43,650000
2017-11-28,2.44,2.44,2.37,2.39,1122000
2017-11-29,2.42,2.42,2.36,2.37,822000
2017-11-30,2.36,2.37,2.28,2.34,2102000
2017-12-01,2.32,2.32,2.27,2.28,846122
2017-12-04,2.29,2.32,2.27,2.28,516000
2017-12-05,2.26,2.27,2.12,2.13,3308000
2017-12-06,2.12,2.12,1.96,1.97,4464000
2017-12-07,1.96,1.98,1.92,1.93,1892000
2017-12-08,1.9,1.9,1.86,1.86,6374000
2017-12-11,1.89,2.03,1.88,1.9,6090000
2017-12-12,1.94,2.07,1.93,2.01,5616500
2017-12-13,1.99,2.02,1.92,2.02,3799276
2017-12-14,1.97,2.11,1.95,2.1,5716000
2017-12-15,2.1,2.17,2.05,2.15,4206000
2017-12-18,2.15,2.24,2.13,2.2,3844000
2017-12-19,2.21,2.3,2.21,2.28,2125060
2017-12-20,2.32,2.42,2.26,2.4,4892000
2017-12-21,2.4,2.52,2.4,2.5,5222000
2017-12-22,2.52,2.62,2.51,2.6,7620000
2017-12-27,2.57,2.71,2.48,2.7,6668000
2017-12-28,2.69,2.7,2.56,2.65,6308000
2017-12-29,2.64,2.67,2.53,2.55,2154000
2018-01-02,2.54,2.71,2.54,2.7,5870000
2018-01-03,2.7,2.72,2.65,2.7,4322000
2018-01-04,2.65,2.71,2.63,2.71,4340000
2018-01-05,2.68,2.71,2.68,2.71,2387060
2018-01-08,2.7,2.72,2.68,2.72,3144000
2018-01-09,2.7,2.71,2.67,2.7,5534000
2018-01-10,2.64,2.71,2.62,2.7,11024000
2018-01-11,2.7,2.71,2.65,2.67,10324000
2018-01-12,2.69,2.71,2.64,2.7,3998000
2018-01-15,2.71,2.71,2.57,2.58,812000
2018-01-16,2.55,2.6,2.41,2.46,2806000
2018-01-17,2.5,2.5,2.36,2.36,2360000
2018-01-18,2.4,2.42,2.37,2.42,1388000
2018-01-19,2.44,2.47,2.43,2.43,1158000
2018-01-22,2.45,2.47,2.38,2.4,1808000
2018-01-23,2.38,2.41,2.36,2.38,1668000
2018-01-24,2.39,2.4,2.34,2.35,1050000
2018-01-25,2.37,2.39,2.36,2.36,274000
2018-01-26,2.38,2.38,2.29,2.3,988014
2018-01-29,2.32,2.34,2.32,2.32,324000
2018-01-30,2.31,2.31,2.27,2.28,472000
2018-01-31,2.28,2.28,2.23,2.24,696000
2018-02-01,2.24,2.28,2.22,2.23,1046000
2018-02-02,2.27,2.27,2.21,2.24,998000
2018-02-05,2.25,2.25,2.2,2.23,1106000
2018-02-06,2.2,2.21,2.08,2.18,3678000
2018-02-07,2.18,2.24,2.14,2.15,924010
2018-02-08,2.17,2.18,2.11,2.17,648000
2018-02-09,2.14,2.19,2.1,2.19,932000
2018-02-12,2.14,2.25,2.11,2.17,1552000
2018-02-13,2.14,2.21,2.11,2.12,900000
2018-02-14,2.12,2.14,2.09,2.12,656000
2018-02-15,2.09,2.21,2.09,2.15,478000
2018-02-20,2.15,2.32,2.15,2.32,734000
2018-02-21,2.3,2.39,2.3,2.36,1416000
2018-02-22,2.37,2.37,2.23,2.25,2364000
2018-02-23,2.25,2.29,2.22,2.28,2424172
2018-02-26,2.28,2.28,2.21,2.23,1289109
2018-02-27,2.22,2.26,2.2,2.25,408000
2018-02-28,2.2,2.25,2.2,2.22,506000
2018-03-01,2.21,2.26,2.21,2.25,1562000
2018-03-02,2.25,2.25,2.19,2.2,540000
2018-03-05,2.19,2.2,2.17,2.2,397000
2018-03-06,2.18,2.21,2.18,2.19,482000
2018-03-07,2.19,2.22,2.17,2.17,812000
2018-03-08,2.18,2.21,2.17,2.21,232010
2018-03-09,2.18,2.21,2.15,2.21,672000
2018-03-12,2.17,2.22,2.16,2.22,486000
2018-03-13,2.22,2.22,2.15,2.21,742000
2018-03-14,2.21,2.21,2.15,2.16,792004
2018-03-15,2.14,2.18,2.14,2.18,436000
2018-03-16,2.19,2.25,2.15,2.25,1306375
2018-03-19,2.25,2.33,2.19,2.28,2039000
2018-03-20,2.23,2.3,2.23,2.26,436000
2018-03-21,2.24,2.25,2.13,2.16,664000
2018-03-22,2.16,2.24,2.16,2.2,350853
2018-03-23,2.14,2.14,2.05,2.07,1162000
2018-03-26,2.06,2.08,1.97,2.01,820000
2018-03-27,1.99,2.06,1.98,2.03,720000
2018-03-28,1.98,2.01,1.92,1.93,1796000
2018-03-29,1.98,2.0,1.94,1.94,474000
2018-04-03,1.94,2.0,1.94,1.99,329750
2018-04-04,1.9,1.99,1.9,1.95,818000
2018-04-06,1.97,1.98,1.91,1.92,896937
2018-04-09,1.88,1.91,1.85,1.89,1163169
2018-04-10,1.89,1.92,1.86,1.9,514000
2018-04-11,1.89,1.98,1.89,1.93,866000
2018-04-12,1.93,1.95,1.91,1.93,674000
2018-04-13,1.93,1.95,1.88,1.9,910024
2018-04-16,1.89,1.9,1.85,1.85,948000
2018-04-17,1.81,1.86,1.8,1.81,736000
2018-04-18,1.76,1.8,1.66,1.71,2747250
2018-04-19,1.66,1.71,1.61,1.64,1971375
2018-04-20,1.66,1.66,1.58,1.58,1776000
2018-04-23,1.56,1.64,1.56,1.62,436000
2018-04-24,1.57,1.64,1.57,1.62,486000
2018-04-25,1.57,1.63,1.57,1.57,1554000
2018-04-26,1.58,1.58,1.5,1.51,1364000
2018-04-27,1.51,1.56,1.49,1.54,1980000
2018-04-30,1.52,1.57,1.52,1.53,728328
2018-05-02,1.5,1.58,1.5,1.5,1134000
2018-05-03,1.52,1.65,1.51,1.6,2552000
2018-05-04,1.62,1.64,1.52,1.57,2208000
2018-05-07,1.54,1.61,1.54,1.61,7526000
2018-05-08,1.6,1.6,1.54,1.57,1326000
2018-05-09,1.58,1.59,1.53,1.53,1562000
2018-05-10,1.57,1.57,1.51,1.54,882000
2018-05-11,1.54,1.54,1.5,1.51,900000
2018-05-14,1.51,1.53,1.5,1.51,1364984
2018-05-15,1.54,1.54,1.51,1.51,1240000
2018-05-16,1.52,1.52,1.49,1.5,2294710
2018-05-17,1.51,1.54,1.49,1.5,2982013
2018-05-18,1.47,1.51,1.47,1.49,1832000
2018-05-21,1.5,1.5,1.35,1.35,3552000
2018-05-23,1.35,1.36,1.27,1.3,4119730
2018-05-24,1.29,1.3,1.26,1.26,1916000
2018-05-25,1.26,1.27,1.22,1.23,3040078
2018-05-28,1.2,1.23,1.17,1.2,1645750
2018-05-29,1.18,1.2,1.17,1.17,3168157
2018-05-30,1.17,1.2,1.11,1.12,2052000
2018-05-31,1.14,1.17,1.13,1.14,11787836
2018-06-01,1.13,1.25,1.13,1.23,2341494
2018-06-04,1.24,1.39,1.21,1.37,4789904
2018-06-05,1.39,1.46,1.39,1.43,3877593
2018-06-06,1.45,1.45,1.36,1.4,1620726
2018-06-07,1.4,1.4,1.35,1.35,1492000
2018-06-08,1.35,1.35,1.32,1.33,1151865
2018-06-11,1.33,1.34,1.31,1.32,1208782
2018-06-12,1.32,1.35,1.31,1.31,3819158
2018-06-13,1.31,1.33,1.3,1.3,1096000
2018-06-14,1.3,1.3,1.25,1.27,1908000
2018-06-15,1.28,1.34,1.26,1.26,2251412
2018-06-19,1.23,1.23,1.18,1.2,2810000
2018-06-20,1.22,1.26,1.22,1.25,2652148
2018-06-21,1.25,1.28,1.23,1.23,1320000
2018-06-22,1.25,1.31,1.23,1.31,3194000
2018-06-25,1.29,1.29,1.22,1.25,3372600
2018-06-26,1.22,1.24,1.22,1.23,876000
2018-06-27,1.24,1.25,1.2,1.22,1408000
2018-06-28,1.23,1.27,1.21,1.23,1554000
2018-06-29,1.25,1.35,1.25,1.3,6402000
2018-07-03,1.34,1.37,1.27,1.35,8508000
2018-07-04,1.35,1.37,1.28,1.3,2858000
2018-07-05,1.3,1.33,1.24,1.25,1372000
2018-07-06,1.26,1.28,1.24,1.27,790000
2018-07-09,1.26,1.32,1.24,1.28,1332000
2018-07-10,1.29,1.34,1.28,1.32,1944000
2018-07-11,1.32,1.4,1.29,1.39,2346000
2018-07-12,1.39,1.46,1.39,1.44,3282000
2018-07-13,1.46,1.46,1.37,1.39,3126000
2018-07-16,1.4,1.45,1.39,1.44,4932000
2018-07-17,1.45,1.5,1.43,1.48,4048000
2018-07-18,1.48,1.51,1.47,1.49,2362000
2018-07-19,1.51,1.51,1.42,1.45,1786000
2018-07-20,1.43,1.43,1.39,1.41,1150000
2018-07-23,1.41,1.42,1.39,1.42,686000
2018-07-24,1.4,1.46,1.4,1.43,1168000
2018-07-25,1.42,1.49,1.42,1.48,808000
2018-07-26,1.45,1.48,1.45,1.46,1782000
2018-07-27,1.44,1.48,1.42,1.47,506000
2018-07-30,1.47,1.49,1.4,1.41,762000
2018-07-31,1.38,1.41,1.36,1.41,654000
2018-08-01,1.43,1.43,1.4,1.4,274000
2018-08-02,1.4,1.4,1.33,1.36,532000
2018-08-03,1.37,1.38,1.35,1.38,134000
2018-08-06,1.36,1.41,1.36,1.37,563066
2018-08-07,1.4,1.4,1.38,1.39,544000
2018-08-08,1.38,1.4,1.35,1.38,796000
2018-08-09,1.35,1.4,1.35,1.38,662000
2018-08-10,1.39,1.42,1.38,1.39,686000
2018-08-13,1.4,1.42,1.38,1.39,166000
2018-08-14,1.4,1.4,1.37,1.38,402000
2018-08-15,1.44,1.44,1.37,1.37,570000
2018-08-16,1.36,1.39,1.34,1.36,266000
2018-08-17,1.37,1.45,1.35,1.36,726000
2018-08-20,1.35,1.41,1.35,1.4,246000
2018-08-21,1.37,1.45,1.37,1.45,290000
2018-08-22,1.41,1.48,1.41,1.46,718000
2018-08-23,1.44,1.45,1.38,1.41,402000
2018-08-24,1.41,1.46,1.41,1.44,443088
2018-08-27,1.42,1.48,1.39,1.46,436000
2018-08-28,1.47,1.47,1.42,1.44,830000
2018-08-29,1.43,1.51,1.43,1.51,752000
2018-08-30,1.48,1.55,1.48,1.48,1169043
2018-08-31,1.45,1.54,1.45,1.48,483086
2018-09-03,1.49,1.55,1.47,1.48,2274000
2018-09-04,1.5,1.54,1.49,1.52,628000
2018-09-05,1.53,1.63,1.51,1.61,3474000
2018-09-06,1.61,1.61,1.58,1.6,1616000
2018-09-07,1.6,1.62,1.58,1.6,845088
2018-09-10,1.6,1.6,1.52,1.54,408000
2018-09-11,1.55,1.59,1.5,1.55,1090000
2018-09-12,1.52,1.59,1.48,1.59,726000
2018-09-13,1.59,1.62,1.51,1.62,1550000
2018-09-14,1.64,1.64,1.56,1.6,338000
2018-09-17,1.55,1.57,1.52,1.54,154000
2018-09-18,1.5,1.68,1.5,1.66,4314000
2018-09-19,1.69,1.74,1.64,1.74,2852000
2018-09-20,1.74,1.76,1.72,1.76,2029333
2018-09-21,1.73,1.89,1.71,1.89,3630000
2018-09-24,1.83,1.92,1.82,1.92,1684000
2018-09-26,1.92,1.93,1.85,1.92,3200000
2018-09-27,1.92,1.97,1.88,1.94,3216000
2018-09-28,1.95,1.98,1.92,1.97,2396000
2018-10-02,1.95,1.98,1.92,1.94,2473648
2018-10-03,1.95,1.95,1.86,1.94,2466000
2018-10-04,1.95,1.95,1.91,1.95,2246000
2018-10-05,1.95,1.96,1.91,1.93,1754000
2018-10-08,1.95,2.02,1.93,2.01,2248000
2018-10-09,2.01,2.02,1.93,2.01,2614020
2018-10-10,2.0,2.01,1.97,1.98,2230006
2018-10-11,1.95,1.98,1.87,1.92,3676000
2018-10-12,1.89,2.0,1.84,1.97,2668000
2018-10-15,1.97,1.97,1.93,1.97,2718162
2018-10-16,1.98,2.01,1.97,1.99,2560000
2018-10-18,1.99,2.01,1.98,2.0,1464334
2018-10-19,2.01,2.01,1.92,1.96,6655660
2018-10-22,2.0,2.0,1.9,1.99,1238000
2018-10-23,1.99,1.99,1.92,1.94,1374000
2018-10-24,1.91,1.95,1.88,1.93,1190000
2018-10-25,1.9,1.9,1.83,1.85,1568000
2018-10-26,1.85,1.87,1.8,1.85,3746000
2018-10-29,1.86,1.98,1.85,1.95,1514279
2018-10-30,1.99,2.02,1.96,2.0,3006000
2018-10-31,2.0,2.02,1.97,1.98,2134000
2018-11-01,2.01,2.02,1.96,1.98,1535549
2018-11-02,2.0,2.02,1.97,2.0,1532000
2018-11-05,2.01,2.01,1.95,1.99,186358
2018-11-06,1.93,1.94,1.9,1.94,102000
2018-11-07,1.97,1.97,1.9,1.91,136000
2018-11-08,1.93,1.96,1.89,1.92,428000
2018-11-09,1.9,1.91,1.86,1.88,566000
2018-11-12,1.91,1.91,1.83,1.84,450000
2018-11-13,1.94,1.94,1.82,1.83,679011
2018-11-14,1.83,1.84,1.82,1.82,594000
2018-11-15,1.86,1.86,1.81,1.82,408000
2018-11-16,1.81,1.85,1.8,1.81,991880
2018-11-19,1.83,1.85,1.73,1.8,518176
2018-11-20,1.82,1.83,1.75,1.78,788235
2018-11-21,1.78,1.81,1.77,1.8,354000
2018-11-22,1.79,1.84,1.79,1.82,146000
2018-11-23,1.78,1.82,1.78,1.8,222000
2018-11-26,1.79,1.84,1.79,1.84,406000
2018-11-27,1.81,1.85,1.81,1.82,222152
2018-11-28,1.8,1.91,1.8,1.87,414314
2018-11-29,1.87,1.88,1.85,1.86,466000
2018-11-30,1.93,2.0,1.93,1.95,651480
2018-12-03,2.01,2.1,1.95,2.1,2784000
2018-12-04,2.12,2.2,2.1,2.16,3315264
2018-12-05,2.14,2.3,2.14,2.3,3050178
2018-12-06,2.27,2.29,2.21,2.29,4524000
2018-12-07,2.27,2.3,2.24,2.29,2550000
2018-12-10,2.3,2.3,2.22,2.25,2602000
2018-12-11,2.29,2.29,2.23,2.24,1496000
2018-12-12,2.27,2.27,2.19,2.19,1640000
2018-12-13,2.2,2.22,2.13,2.18,1944000
2018-12-14,2.15,2.18,2.15,2.16,1236000
2018-12-17,2.2,2.2,2.15,2.2,1272308
2018-12-18,2.18,2.2,2.16,2.19,2358000
2018-12-19,2.15,2.21,2.15,2.21,2350845
2018-12-20,2.2,2.2,2.15,2.18,2342000
2018-12-21,2.14,2.17,2.11,2.16,2836000
2018-12-24,2.12,2.18,2.11,2.17,2232000
2018-12-27,2.11,2.17,2.1,2.15,646370
2018-12-28,2.15,2.15,2.07,2.1,1003133
2018-12-31,2.1,2.15,2.1,2.11,578609
2019-01-02,2.08,2.11,2.03,2.06,626000
2019-01-03,2.04,2.09,2.02,2.04,518000
2019-01-04,2.0,2.05,1.99,2.04,1032000
2019-01-07,2.1,2.1,2.03,2.04,726000
2019-01-08,2.03,2.06,2.0,2.03,994000
2019-01-09,2.06,2.06,2.02,2.05,158000
2019-01-10,2.04,2.06,2.02,2.04,464000
2019-01-11,2.09,2.09,2.02,2.04,310000
2019-01-14,2.03,2.06,2.01,2.02,416000
2019-01-15,2.1,2.1,2.01,2.02,540000
2019-01-16,2.06,2.07,2.01,2.03,714000
2019-01-17,2.11,2.11,2.04,2.06,404000
2019-01-18,2.05,2.07,2.04,2.05,224000
2019-01-21,2.14,2.14,2.04,2.05,298000
2019-01-22,2.12,2.12,1.99,2.05,660508
2019-01-23,2.02,2.04,2.0,2.01,914000
2019-01-24,2.1,2.1,2.0,2.03,736000
2019-01-25,2.08,2.08,2.03,2.04,528000
2019-01-28,2.07,2.07,2.01,2.04,394000
2019-01-29,2.01,2.03,2.0,2.01,254000
2019-01-30,2.01,2.04,2.0,2.0,868000
2019-01-31,2.03,2.1,2.01,2.08,666000
2019-02-01,2.09,2.11,2.05,2.07,347020
2019-02-04,2.13,2.13,2.02,2.09,52000
2019-02-08,2.02,2.09,1.97,1.98,574000
2019-02-11,2.02,2.12,1.99,2.06,924000
2019-02-12,2.14,2.16,2.09,2.15,796000
2019-02-13,2.15,2.18,2.15,2.15,406000
2019-02-14,2.19,2.23,2.16,2.18,1677153
2019-02-15,2.21,2.23,2.18,2.2,740000
2019-02-18,2.22,2.3,2.22,2.27,1560520
2019-02-19,2.31,2.31,2.21,2.23,213422
2019-02-20,2.29,2.29,2.2,2.21,848000
2019-02-21,2.21,2.26,2.21,2.25,348000
2019-02-22,2.26,2.26,2.21,2.24,222000
2019-02-25,2.22,2.23,2.19,2.22,470518
2019-02-26,2.22,2.25,2.2,2.24,158518
2019-02-27,2.2,2.21,2.15,2.16,246000
2019-02-28,2.17,2.17,2.09,2.13,490000
2019-03-01,2.14,2.15,2.09,2.11,170000
2019-03-04,2.14,2.24,2.11,2.13,592000
2019-03-05,2.11,2.22,2.11,2.19,694000
2019-03-06,2.23,2.23,2.14,2.16,670777
2019-03-07,2.22,2.22,2.11,2.15,206000
2019-03-08,2.12,2.12,2.06,2.06,1288000
2019-03-11,2.12,2.12,2.06,2.06,348000
2019-03-12,2.07,2.08,2.06,2.08,208516
2019-03-13,2.08,2.1,2.08,2.09,656000
2019-03-14,2.09,2.17,2.09,2.11,544000
2019-03-15,2.13,2.25,2.03,2.06,6546250
2019-03-18,2.11,2.18,2.11,2.16,350000
2019-03-19,2.16,2.21,2.15,2.15,318000
2019-03-20,2.24,2.25,2.17,2.19,2670000
2019-03-21,2.19,2.29,2.19,2.24,1772000
2019-03-22,2.27,2.29,2.25,2.29,1594000
2019-03-25,2.24,2.29,2.24,2.29,1724000
2019-03-26,2.25,2.28,2.24,2.25,758000
2019-03-27,2.25,2.29,2.24,2.26,734000
2019-03-28,2.28,2.3,2.26,2.29,844000
2019-03-29,2.28,2.29,2.22,2.23,704000
2019-04-01,2.24,2.27,2.2,2.24,726000
2019-04-02,2.25,2.28,2.24,2.28,630000
2019-04-03,2.27,2.29,2.25,2.27,518000
2019-04-04,2.25,2.29,2.24,2.27,533169
2019-04-08,2.25,2.3,2.24,2.29,676000
2019-04-09,2.3,2.4,2.27,2.35,1946252
2019-04-10,2.35,2.36,2.3,2.33,1314000
2019-04-11,2.3,2.3,2.24,2.27,1074000
2019-04-12,2.29,2.33,2.25,2.27,1178000
2019-04-15,2.3,2.3,2.25,2.25,890000
2019-04-16,2.25,2.29,2.24,2.28,750000
2019-04-17,2.3,2.3,2.25,2.26,636000
2019-04-18,2.25,2.28,2.23,2.26,594000
2019-04-23,2.26,2.27,2.23,2.25,516848
2019-04-24,2.25,2.27,2.22,2.25,314000
2019-04-25,2.25,2.27,2.22,2.25,360000
2019-04-26,2.24,2.25,2.21,2.24,414000
2019-04-29,2.24,2.31,2.24,2.27,454000
2019-04-30,2.27,2.3,2.24,2.29,684000
2019-05-02,2.3,2.3,2.25,2.29,780000
2019-05-03,2.28,2.31,2.26,2.31,658384
2019-05-06,2.25,2.28,2.24,2.25,324768
2019-05-07,2.23,2.24,2.22,2.24,452000
2019-05-08,2.23,2.24,2.18,2.2,564000
2019-05-09,2.19,2.19,2.15,2.18,550000
2019-05-10,2.18,2.18,2.15,2.16,282455
2019-05-14,2.0,2.08,2.0,2.06,1406000
2019-05-15,2.05,2.13,2.05,2.12,512000
2019-05-16,2.07,2.18,2.06,2.18,286000
2019-05-17,2.19,2.19,2.1,2.12,82000
2019-05-20,2.1,2.1,1.99,2.02,1052467
2019-05-21,2.0,2.03,1.93,1.98,1266000
2019-05-22,1.98,2.0,1.93,1.95,576000
2019-05-23,1.93,1.95,1.93,1.95,350000
2019-05-24,1.95,1.95,1.9,1.91,586000
2019-05-27,1.91,1.91,1.86,1.91,404000
2019-05-28,1.91,1.95,1.9,1.9,292000
2019-05-29,1.95,1.95,1.92,1.95,376000
2019-05-30,1.94,1.95,1.92,1.95,272000
2019-05-31,1.94,1.95,1.92,1.95,459980
2019-06-03,1.92,1.94,1.91,1.92,344000
2019-06-04,1.95,1.95,1.9,1.92,406930
2019-06-05,1.92,1.95,1.92,1.94,340000
2019-06-06,1.94,1.95,1.89,1.93,442000
2019-06-10,1.84,1.94,1.84,1.92,300000
2019-06-11,1.91,1.94,1.9,1.9,317518
2019-06-12,1.9,1.9,1.87,1.87,292000
2019-06-13,1.86,1.91,1.86,1.9,322000
2019-06-14,1.9,1.92,1.9,1.92,218000
2019-06-17,1.92,1.94,1.9,1.92,234000
2019-06-18,1.88,1.91,1.85,1.87,366000
2019-06-19,1.89,1.9,1.85,1.86,468000
2019-06-20,1.86,1.9,1.85,1.86,471364
2019-06-21,1.86,1.89,1.81,1.81,945289
2019-06-24,1.81,1.86,1.79,1.85,1186000
2019-06-25,1.82,1.86,1.79,1.85,312000
2019-06-26,1.82,1.87,1.82,1.87,156000
2019-06-27,1.88,1.95,1.88,1.93,886000
2019-06-28,1.86,1.91,1.86,1.88,32500
2019-07-02,1.9,1.95,1.9,1.93,258000
2019-07-03,1.91,1.95,1.9,1.91,282000
2019-07-04,1.92,1.95,1.91,1.91,252000
2019-07-05,1.95,1.95,1.94,1.94,1488000
2019-07-08,1.93,1.95,1.91,1.93,466000
2019-07-09,1.92,1.92,1.83,1.84,544000
2019-07-10,1.88,1.95,1.88,1.91,290000
2019-07-11,1.91,1.94,1.9,1.94,256000
2019-07-12,1.94,1.95,1.9,1.95,226000
2019-07-15,1.9,1.93,1.86,1.89,264000
2019-07-16,1.89,1.92,1.89,1.91,74000
2019-07-17,1.89,1.9,1.85,1.87,136000
2019-07-18,1.9,1.9,1.85,1.87,306000
2019-07-19,1.85,1.9,1.85,1.88,122000
2019-07-22,1.86,1.87,1.84,1.87,222388
2019-07-23,1.9,1.9,1.83,1.85,74000
2019-07-24,1.85,1.87,1.83,1.83,220000
2019-07-25,1.88,1.9,1.87,1.9,56000
2019-07-26,1.84,1.89,1.84,1.85,102000
2019-07-29,1.9,1.9,1.88,1.88,14000
2019-07-30,1.88,1.88,1.84,1.86,29576
2019-07-31,1.88,1.88,1.84,1.86,184000
2019-08-01,1.84,1.84,1.82,1.83,143451
2019-08-02,1.8,1.8,1.76,1.78,146000
2019-08-05,1.75,1.75,1.71,1.73,148000
2019-08-06,1.65,1.78,1.65,1.78,109500
2019-08-07,1.7,1.89,1.7,1.71,122000
2019-08-08,1.72,1.77,1.7,1.77,96000
2019-08-09,1.68,1.79,1.68,1.78,109980
2019-08-12,1.72,1.72,1.71,1.72,6000
2019-08-13,1.67,1.69,1.67,1.67,46000
2019-08-14,1.67,1.69,1.62,1.65,78000
2019-08-15,1.61,1.68,1.6,1.68,182000
2019-08-16,1.72,1.72,1.6,1.63,282000
2019-08-19,1.56,1.7,1.56,1.68,34000
2019-08-20,1.57,1.68,1.56,1.68,1637940
2019-08-21,1.78,1.78,1.78,1.78,2000
2019-08-22,1.7,1.7,1.62,1.64,672000
2019-08-23,1.61,1.7,1.6,1.65,662000
2019-08-26,1.68,1.71,1.62,1.63,274000
2019-08-27,1.61,1.7,1.61,1.69,462912
2019-08-28,1.7,1.72,1.66,1.72,511000
2019-08-29,1.66,1.73,1.66,1.71,506000
2019-08-30,1.72,1.8,1.72,1.79,462000
2019-09-02,1.81,1.83,1.71,1.81,532000
2019-09-03,1.76,1.82,1.76,1.81,222000
2019-09-04,1.78,1.82,1.78,1.81,134000
2019-09-05,1.77,1.81,1.77,1.8,196000
2019-09-06,1.8,1.84,1.8,1.84,12000
2019-09-09,1.8,1.82,1.78,1.82,132000
2019-09-10,1.81,1.81,1.78,1.8,68000
2019-09-11,1.8,1.82,1.78,1.82,256000
2019-09-12,1.8,1.86,1.78,1.82,320000
2019-09-13,1.82,1.86,1.82,1.85,324000
2019-09-16,1.85,1.86,1.79,1.84,380000
2019-09-17,1.83,1.83,1.79,1.8,414000
2019-09-18,1.8,1.86,1.76,1.85,288000
2019-09-19,1.85,1.87,1.85,1.85,204000
2019-09-20,1.85,1.85,1.77,1.78,374000
2019-09-23,1.81,1.82,1.77,1.82,348000
2019-09-24,1.79,1.83,1.78,1.81,450000
2019-09-25,1.82,1.82,1.73,1.74,698000
2019-09-26,1.78,1.8,1.71,1.72,366000
2019-09-27,1.75,1.84,1.75,1.82,312000
2019-09-30,1.8,1.85,1.8,1.84,144000
2019-10-02,1.8,1.82,1.77,1.82,356000
2019-10-03,1.83,1.83,1.8,1.82,362000
2019-10-04,1.83,1.84,1.64,1.84,352000
2019-10-08,1.83,1.85,1.81,1.85,316000
2019-10-09,1.85,1.86,1.83,1.85,202000
2019-10-10,1.84,1.85,1.78,1.79,542000
2019-10-11,1.8,1.8,1.66,1.73,526000
2019-10-14,1.77,1.8,1.77,1.8,342000
2019-10-15,1.8,1.8,1.77,1.77,504000
2019-10-16,1.8,1.8,1.76,1.76,466000
2019-10-17,1.78,1.8,1.75,1.77,430000
2019-10-18,1.8,1.8,1.76,1.8,380000
2019-10-21,1.8,1.8,1.75,1.78,458000
2019-10-22,1.8,1.83,1.77,1.8,340000
2019-10-23,1.83,1.84,1.8,1.84,382000
2019-10-24,1.86,1.86,1.84,1.85,86000
2019-10-25,1.84,1.87,1.84,1.84,136000
2019-10-28,1.85,1.88,1.81,1.84,360000
2019-10-29,1.84,1.84,1.82,1.84,386000
2019-10-30,1.84,1.84,1.82,1.84,376000
2019-10-31,1.84,1.84,1.82,1.83,430000
2019-11-01,1.84,1.84,1.82,1.84,376000
2019-11-04,1.84,1.85,1.8,1.82,456000
2019-11-05,1.79,1.82,1.79,1.8,438000
2019-11-06,1.79,1.82,1.79,1.8,10588000
2019-11-07,1.8,1.82,1.8,1.8,798000
2019-11-08,1.8,1.84,1.79,1.83,428000
2019-11-11,1.83,1.86,1.82,1.86,342000
2019-11-12,1.84,1.86,1.84,1.86,1476000
2019-11-13,1.86,1.86,1.83,1.86,568000
2019-11-14,1.88,1.9,1.86,1.9,626000
2019-11-15,1.89,1.93,1.89,1.89,84000
2019-11-18,1.89,1.91,1.82,1.91,144000
2019-11-19,1.9,1.96,1.9,1.96,526000
2019-11-21,1.93,1.96,1.9,1.94,346000
2019-11-22,1.95,1.96,1.94,1.95,374000
2019-11-25,1.92,1.99,1.92,1.95,68000
2019-11-26,1.96,1.97,1.95,1.95,118000
2019-11-27,1.86,1.98,1.86,1.98,746000
2019-11-28,1.99,2.0,1.97,2.0,790000
2019-11-29,1.99,2.0,1.97,1.99,566000
2019-12-02,1.97,2.02,1.97,2.02,530000
2019-12-03,2.0,2.01,1.98,2.0,442000
2019-12-04,2.0,2.02,1.97,2.0,332020
2019-12-05,1.99,2.02,1.98,2.0,306000
2019-12-06,2.0,2.05,2.0,2.01,170000
2019-12-09,2.0,2.02,1.97,1.98,558000
2019-12-10,1.98,2.01,1.98,2.0,320000
2019-12-11,2.01,2.01,2.01,2.01,41292
2019-12-12,1.99,2.02,1.91,1.93,1246000
2019-12-13,1.98,2.03,1.98,2.01,850000
2019-12-16,1.99,2.04,1.99,2.04,1090000
2019-12-17,2.02,2.04,2.01,2.03,1016000
2019-12-18,2.0,2.03,2.0,2.02,932000
2019-12-19,2.03,2.06,2.01,2.06,885366
2019-12-20,2.05,2.05,1.99,1.99,1206000
2019-12-23,1.99,2.04,1.99,2.04,1092729
2019-12-24,2.04,2.06,2.02,2.05,1052000
2019-12-27,2.04,2.04,1.98,2.0,1322316
2019-12-30,2.0,2.04,1.99,1.99,1347303
2019-12-31,2.09,2.09,1.99,1.99,1386000
2020-01-02,1.99,2.06,1.99,2.06,280000
2020-01-03,2.06,2.06,2.0,2.03,1554000
2020-01-06,2.03,2.05,2.0,2.03,1992500
2020-01-07,2.02,2.04,2.0,2.03,1798000
2020-01-08,2.0,2.03,1.98,1.99,2146000
2020-01-09,2.01,2.06,2.0,2.06,1444000
2020-01-10,2.05,2.07,2.05,2.06,856000
2020-01-13,2.07,2.07,2.05,2.06,318000
2020-01-14,2.07,2.07,2.04,2.05,156000
2020-01-15,2.02,2.06,2.02,2.03,170000
2020-01-16,1.99,2.04,1.99,2.01,194000
2020-01-17,2.02,2.03,2.0,2.0,2308000
2020-01-20,2.02,2.04,2.0,2.02,512000
2020-01-21,2.03,2.03,1.96,1.97,64000
2020-01-22,1.97,2.02,1.97,1.99,144695
2020-01-23,1.99,2.0,1.97,1.98,122000
2020-01-24,1.96,1.98,1.91,1.92,66000
2020-01-29,1.85,1.89,1.82,1.83,196000
2020-01-30,1.82,1.82,1.75,1.75,214000
2020-01-31,1.78,1.84,1.75,1.79,146000
2020-02-03,1.82,1.84,1.78,1.78,316460
2020-02-04,1.86,1.86,1.78,1.8,85040
2020-02-05,1.81,1.84,1.81,1.81,46000
2020-02-06,1.81,1.89,1.81,1.83,68000
2020-02-07,1.76,1.85,1.76,1.79,262405
2020-02-10,1.82,1.82,1.79,1.79,22000
2020-02-11,1.8,1.82,1.79,1.8,38000
2020-02-12,1.8,1.84,1.78,1.83,116000
2020-02-13,1.85,1.85,1.79,1.83,48000
2020-02-14,1.79,1.84,1.79,1.79,26000
2020-02-17,1.78,1.81,1.78,1.78,80000
2020-02-18,1.81,1.81,1.78,1.79,50000
2020-02-19,1.79,1.81,1.78,1.78,142000
2020-02-20,1.77,1.79,1.76,1.76,102000
2020-02-21,1.79,1.79,1.74,1.75,132000
2020-02-24,1.75,1.77,1.74,1.76,184000
2020-02-25,1.79,1.79,1.75,1.75,34000
2020-02-26,1.75,1.75,1.75,1.75,6000
2020-02-27,1.75,1.78,1.75,1.76,56000
2020-02-28,1.72,1.76,1.72,1.73,76000
2020-03-02,1.73,1.77,1.7,1.74,127373
2020-03-03,1.75,1.75,1.7,1.7,44000
2020-03-04,1.69,1.74,1.67,1.68,38000
2020-03-05,1.73,1.73,1.69,1.69,142504
2020-03-06,1.69,1.69,1.64,1.67,136205
2020-03-09,1.66,1.69,1.58,1.58,94000
2020-03-10,1.61,1.65,1.51,1.6,365390
2020-03-11,1.65,1.69,1.63,1.63,448000
2020-03-12,1.61,1.62,1.6,1.6,240000
2020-03-13,1.48,1.6,1.45,1.55,966000
2020-03-16,1.53,1.62,1.53,1.56,388000
2020-03-17,1.52,1.53,1.45,1.5,2028000
2020-03-18,1.47,1.51,1.47,1.47,1032051
2020-03-19,1.47,1.47,1.29,1.36,525373
2020-03-20,1.36,1.45,1.36,1.43,186000
2020-03-23,1.35,1.43,1.28,1.3,485373
2020-03-24,1.22,1.43,1.22,1.38,224000
2020-03-25,1.41,1.44,1.41,1.41,116000
2020-03-26,1.45,1.48,1.39,1.39,844000
2020-03-27,1.46,1.49,1.45,1.45,200000
2020-03-30,1.41,1.43,1.4,1.41,196000
2020-03-31,1.42,1.45,1.4,1.43,546000
2020-04-01,1.44,1.46,1.42,1.42,1148000
2020-04-02,1.39,1.4,1.37,1.4,212000
2020-04-03,1.37,1.4,1.37,1.38,618000
2020-04-06,1.39,1.49,1.38,1.45,1524003
2020-04-07,1.51,1.57,1.48,1.56,1950000
2020-04-08,1.58,1.83,1.58,1.77,3704729
2020-04-09,1.77,1.85,1.72,1.72,3164000
2020-04-14,1.73,1.85,1.73,1.81,2506000
2020-04-15,1.82,1.84,1.76,1.81,2874000
2020-04-16,1.8,1.84,1.76,1.82,1494000
2020-04-17,1.81,1.82,1.79,1.8,1966000
2020-04-20,1.8,1.86,1.8,1.85,912000
2020-04-21,1.83,1.87,1.81,1.86,1658000
2020-04-22,1.85,1.89,1.85,1.85,908000
2020-04-23,1.88,1.92,1.86,1.92,1340000
2020-04-24,1.89,1.97,1.89,1.95,834000
2020-04-27,1.98,1.98,1.93,1.95,561507
2020-04-28,1.94,2.01,1.94,2.01,1034000
2020-04-29,1.95,2.02,1.93,2.0,1160000
2020-05-04,2.08,2.25,2.05,2.21,5992000
2020-05-05,2.25,2.32,2.16,2.28,4026000
2020-05-06,2.3,2.35,2.23,2.33,2252000
2020-05-07,2.34,2.41,2.33,2.39,2444000
2020-05-08,2.43,2.47,2.4,2.47,1562000
2020-05-11,2.49,2.5,2.45,2.45,1260000
2020-05-12,2.45,2.47,2.29,2.34,1860000
2020-05-13,2.4,2.47,2.4,2.46,1172000
2020-05-14,2.46,2.48,2.42,2.44,334000
2020-05-15,2.44,2.51,2.4,2.46,1464000
2020-05-18,2.46,2.46,2.38,2.41,364000
2020-05-19,2.42,2.43,2.32,2.35,686000
2020-05-20,2.43,2.49,2.4,2.4,2821153
2020-05-21,2.44,2.44,2.36,2.38,1186000
2020-05-22,2.35,2.38,2.26,2.31,1876000
2020-05-25,2.31,2.32,2.24,2.26,756000
2020-05-26,2.24,2.33,2.23,2.29,1086000
2020-05-27,2.29,2.32,2.24,2.29,1912000
2020-05-28,2.3,2.35,2.25,2.3,1652000
2020-05-29,2.3,2.37,2.28,2.28,2344000
2020-06-01,2.3,2.45,2.3,2.44,2272000
2020-06-02,2.43,2.5,2.43,2.49,1796000
2020-06-03,2.39,2.5,2.39,2.47,2136000
2020-06-04,2.45,2.5,2.45,2.49,1752000
2020-06-05,2.49,2.58,2.49,2.55,3198000
2020-06-08,2.57,2.62,2.51,2.56,2654250
2020-06-09,2.56,2.64,2.54,2.6,2112000
2020-06-10,2.6,2.68,2.59,2.62,2430000
2020-06-11,2.62,2.75,2.62,2.7,2478000
2020-06-12,2.68,2.68,2.53,2.56,3642000
2020-06-15,2.57,2.63,2.54,2.59,2740000
2020-06-16,2.62,2.7,2.56,2.7,3250000
2020-06-17,2.72,2.73,2.69,2.7,2342000
2020-06-18,2.7,2.74,2.69,2.7,1772000
2020-06-19,2.7,2.85,2.7,2.85,3486000
2020-06-22,2.85,2.85,2.79,2.82,2312000
2020-06-23,2.82,2.85,2.79,2.85,1858000
2020-06-24,2.84,2.89,2.84,2.88,3134585
2020-06-26,2.89,2.9,2.88,2.88,496000
2020-06-29,2.84,2.87,2.83,2.85,266000
2020-06-30,2.85,2.86,2.78,2.83,978000
2020-07-02,2.85,3.12,2.84,3.08,6024000
2020-07-03,3.1,3.26,3.1,3.14,2372000
2020-07-06,3.14,3.14,3.03,3.03,1256000
2020-07-07,3.1,3.1,2.92,2.98,1938000
2020-07-08,3.05,3.05,2.89,2.95,572000
2020-07-09,3.05,3.05,2.96,2.99,394000
2020-07-10,2.96,3.0,2.92,2.96,992000
2020-07-13,2.94,2.94,2.85,2.88,684000
2020-07-14,3.06,3.06,2.8,2.81,1092000
2020-07-15,2.78,2.96,2.74,2.85,740000
2020-07-16,2.81,2.86,2.74,2.82,1022000
2020-07-17,2.8,2.89,2.76,2.78,160000
2020-07-20,2.77,2.79,2.65,2.66,779641
2020-07-21,2.66,2.77,2.62,2.63,1246000
2020-07-22,2.62,2.67,2.56,2.56,354000
2020-07-23,2.6,2.61,2.48,2.5,886000
2020-07-24,2.49,2.49,2.38,2.38,594000
2020-07-27,2.31,2.4,2.25,2.36,1298000
2020-07-28,2.36,2.4,2.33,2.4,116000
2020-07-29,2.45,2.66,2.45,2.63,796000
2020-07-30,2.57,2.75,2.57,2.66,960000
2020-07-31,2.64,2.74,2.64,2.73,328000
2020-08-03,2.51,2.69,2.51,2.65,198000
2020-08-04,2.64,2.7,2.64,2.64,220000
2020-08-05,2.64,2.66,2.56,2.58,358000
2020-08-06,2.55,2.57,2.45,2.53,1224000
2020-08-07,2.6,2.61,2.44,2.48,296000
2020-08-10,2.69,2.7,2.54,2.54,600000
2020-08-11,2.49,2.55,2.49,2.52,506000
2020-08-12,2.53,2.53,2.46,2.46,302000
2020-08-13,2.51,2.58,2.49,2.52,448000
2020-08-14,2.45,2.56,2.45,2.55,374000
2020-08-17,2.53,2.69,2.51,2.61,2348000
2020-08-18,2.61,2.65,2.6,2.62,1894000
2020-08-19,2.55,2.64,2.47,2.48,476000
2020-08-20,2.45,2.45,2.33,2.35,896000
2020-08-21,2.33,2.43,2.32,2.42,1286000
2020-08-24,2.56,2.56,2.42,2.45,2114000
2020-08-25,2.48,2.52,2.43,2.44,1960000
