Date,Open,High,Low,Close,Volume
2012-01-04,3.54,3.62,3.46,3.48,3065449
2012-01-05,3.47,3.5,3.38,3.41,4178475
2012-01-06,3.4,3.42,3.32,3.36,2077384
2012-01-09,3.34,3.43,3.3,3.43,3442224
2012-01-10,3.45,3.45,3.38,3.43,2684149
2012-01-11,3.39,3.56,3.39,3.55,3977842
2012-01-12,3.49,3.63,3.49,3.57,4448698
2012-01-13,3.57,3.63,3.55,3.57,4848817
2012-01-16,3.55,3.59,3.48,3.5,1971005
2012-01-17,3.52,3.62,3.5,3.62,6092500
2012-01-18,3.62,3.7,3.56,3.68,8686880
2012-01-19,3.7,3.87,3.69,3.85,12104790
2012-01-20,3.84,3.9,3.76,3.9,9105213
2012-01-26,3.93,4.06,3.87,4.03,8681393
2012-01-27,4.02,4.04,3.94,4.0,4594505
2012-01-30,3.96,4.0,3.83,3.88,4860558
2012-01-31,3.9,4.0,3.82,3.99,6213346
2012-02-01,3.95,3.97,3.82,3.82,2154053
2012-02-02,3.91,4.02,3.88,4.02,6635724
2012-02-03,4.08,4.08,3.98,4.04,3252911
2012-02-06,4.08,4.08,3.97,4.0,4264518
2012-02-07,4.05,4.05,3.95,4.0,4832388
2012-02-08,4.02,4.35,4.01,4.34,15607565
2012-02-09,4.39,4.55,4.17,4.43,17625472
2012-02-10,4.5,4.52,4.23,4.27,6739392
2012-02-13,4.2,4.22,4.03,4.16,9404015
2012-02-14,4.23,4.4,4.15,4.26,11277058
2012-02-15,4.47,4.47,4.29,4.33,8779117
2012-02-16,4.37,4.37,4.25,4.27,3651522
2012-02-17,4.28,4.45,4.28,4.44,5791859
2012-02-20,4.49,4.6,4.43,4.48,9937361
2012-02-21,4.55,4.55,4.43,4.5,6454610
2012-02-22,4.45,4.74,4.45,4.71,20473688
2012-02-23,4.68,4.73,4.61,4.66,9607765
2012-02-24,4.68,4.7,4.56,4.7,5090887
2012-02-27,4.7,4.74,4.52,4.57,5931952
2012-02-28,4.54,4.63,4.48,4.63,5405811
2012-02-29,4.53,4.56,4.43,4.51,10970777
2012-03-01,4.48,4.53,4.16,4.18,9868516
2012-03-02,4.2,4.4,4.17,4.39,8457890
2012-03-05,4.38,4.44,4.2,4.3,6324224
2012-03-06,4.3,4.3,4.08,4.15,8501527
2012-03-07,4.1,4.13,4.0,4.04,5980528
2012-03-08,4.1,4.17,4.08,4.14,4055965
2012-03-09,4.2,4.24,4.14,4.17,3238597
2012-03-12,4.12,4.17,4.02,4.1,4742002
2012-03-13,4.12,4.21,4.09,4.16,3311519
2012-03-14,4.19,4.3,4.07,4.1,8095544
2012-03-15,4.1,4.14,4.04,4.06,5675241
2012-03-16,4.1,4.21,4.02,4.14,14521697
2012-03-19,4.2,4.2,3.85,3.91,7379148
2012-03-20,3.88,3.91,3.8,3.83,2680500
2012-03-21,3.83,3.83,3.7,3.71,5474600
2012-03-22,3.74,3.77,3.57,3.62,6483000
2012-03-23,3.6,3.64,3.55,3.64,5551717
2012-03-26,3.64,3.68,3.56,3.6,4153572
2012-03-27,3.61,3.74,3.61,3.74,10876946
2012-03-28,3.79,3.79,3.63,3.7,4553280
2012-03-29,3.61,3.69,3.53,3.63,6760920
2012-03-30,3.63,3.7,3.59,3.69,6140366
2012-04-02,3.85,3.85,3.55,3.63,3933000
2012-04-03,3.62,3.82,3.62,3.78,6994651
2012-04-05,3.64,3.85,3.62,3.85,5074172
2012-04-10,3.76,3.88,3.72,3.73,2843000
2012-04-11,3.65,3.73,3.63,3.7,2522500
2012-04-12,3.78,3.82,3.7,3.78,4188500
2012-04-13,3.88,3.98,3.84,3.97,7038323
2012-04-16,3.93,3.93,3.81,3.86,3308409
2012-04-17,3.83,3.91,3.77,3.77,3872005
2012-04-18,3.87,3.87,3.78,3.8,5022111
2012-04-19,3.84,3.84,3.71,3.78,5504578
2012-04-20,3.72,3.79,3.65,3.69,9504842
2012-04-23,3.67,3.69,3.6,3.6,5161957
2012-04-24,3.58,3.65,3.55,3.58,4633412
2012-04-25,3.6,3.69,3.57,3.59,5063050
2012-04-26,3.6,3.66,3.59,3.65,4093723
2012-04-27,3.67,3.67,3.57,3.62,5702200
2012-04-30,3.62,3.67,3.61,3.62,4339156
2012-05-02,3.63,3.63,3.49,3.56,11912262
2012-05-03,3.59,3.6,3.54,3.57,4913220
2012-05-04,3.58,3.58,3.52,3.58,4440294
2012-05-07,3.5,3.57,3.38,3.39,4932500
2012-05-08,3.4,3.45,3.26,3.3,5798549
2012-05-09,3.25,3.28,3.11,3.15,7573800
2012-05-10,3.18,3.19,3.11,3.17,6792033
2012-05-11,3.2,3.2,3.12,3.18,4152000
2012-05-14,3.2,3.28,3.12,3.16,4574332
2012-05-15,3.12,3.23,3.12,3.18,4069645
2012-05-16,3.03,3.05,2.84,2.85,9158000
2012-05-17,2.86,3.09,2.86,2.94,10481586
2012-05-18,2.9,2.95,2.82,2.86,6779873
2012-05-21,2.9,2.98,2.88,2.9,3665256
2012-05-22,2.98,3.15,2.98,3.12,6978000
2012-05-23,3.05,3.15,3.04,3.1,5928486
2012-05-24,3.1,3.13,3.07,3.11,5510163
2012-05-25,3.1,3.11,3.0,3.05,4147000
2012-05-28,3.05,3.14,3.03,3.14,4239500
2012-05-29,3.15,3.35,3.12,3.31,10475005
2012-05-30,3.29,3.34,3.2,3.26,23249066
2012-05-31,3.22,3.26,3.13,3.19,37422792
2012-06-01,3.17,3.24,3.16,3.2,16965360
2012-06-04,3.11,3.11,3.02,3.02,4366976
2012-06-05,3.08,3.09,3.03,3.05,3838407
2012-06-06,3.12,3.25,3.1,3.19,7902447
2012-06-07,3.25,3.29,3.19,3.24,8916000
2012-06-08,3.31,3.32,3.23,3.24,15183500
2012-06-11,3.34,3.46,3.29,3.42,18605008
2012-06-12,3.36,3.78,3.33,3.75,24889436
2012-06-13,3.73,3.98,3.72,3.78,24136808
2012-06-14,3.86,3.86,3.71,3.73,6383745
2012-06-15,3.78,3.85,3.68,3.75,7395354
2012-06-18,3.8,3.9,3.78,3.8,6866883
2012-06-19,3.8,3.89,3.73,3.81,4542255
2012-06-20,3.82,3.85,3.74,3.78,5281617
2012-06-21,3.75,3.78,3.58,3.66,8189407
2012-06-22,3.65,3.97,3.61,3.71,13002278
2012-06-25,3.66,3.84,3.65,3.71,6625634
2012-06-26,3.68,3.79,3.67,3.77,4935000
2012-06-27,3.77,3.88,3.76,3.84,7816345
2012-06-28,3.87,3.89,3.73,3.77,5623093
2012-06-29,3.82,3.85,3.76,3.83,7207205
2012-07-03,3.88,4.05,3.84,3.95,12584981
2012-07-04,3.98,4.2,3.98,4.17,13212830
2012-07-05,4.17,4.24,4.09,4.17,8074615
2012-07-06,4.17,4.46,4.17,4.38,26715938
2012-07-09,4.35,4.35,4.21,4.27,9482556
2012-07-10,4.27,4.37,4.22,4.34,5510881
2012-07-11,4.35,4.35,4.23,4.28,8049469
2012-07-12,4.21,4.33,4.2,4.23,4029270
2012-07-13,4.25,4.29,4.19,4.23,2642956
2012-07-16,4.24,4.29,4.19,4.26,3844742
2012-07-17,4.25,4.35,4.2,4.34,3839891
2012-07-18,4.35,4.42,4.07,4.08,6402793
2012-07-19,4.17,4.17,3.99,4.0,8967046
2012-07-20,3.98,4.08,3.91,3.97,4764198
2012-07-23,3.91,3.96,3.88,3.9,3674580
2012-07-24,3.95,3.95,3.83,3.84,2221255
2012-07-25,3.81,3.88,3.71,3.75,4001731
2012-07-26,3.69,3.8,3.68,3.73,10456233
2012-07-27,3.78,3.92,3.76,3.91,7833746
2012-07-30,3.94,3.96,3.69,3.74,6847040
2012-07-31,3.76,3.82,3.71,3.79,4966500
2012-08-01,3.72,3.85,3.72,3.8,5222423
2012-08-02,3.87,3.91,3.71,3.71,5427828
2012-08-03,3.71,3.82,3.67,3.74,3983157
2012-08-06,3.86,3.86,3.78,3.79,2401203
2012-08-07,3.85,3.94,3.79,3.84,2235139
2012-08-08,3.85,3.88,3.73,3.77,2180591
2012-08-09,3.8,3.98,3.77,3.9,7596011
2012-08-10,3.88,3.92,3.81,3.85,3514810
2012-08-13,3.84,3.86,3.76,3.78,3241912
2012-08-14,3.78,3.84,3.61,3.66,6099193
2012-08-15,3.68,3.68,3.62,3.66,2166509
2012-08-16,3.65,3.67,3.61,3.65,2466647
2012-08-17,3.7,3.74,3.64,3.74,5863344
2012-08-20,3.74,3.74,3.66,3.67,4333500
2012-08-21,3.65,3.72,3.65,3.68,4875500
2012-08-22,3.67,3.7,3.58,3.61,4988392
2012-08-23,3.61,3.7,3.56,3.7,2624765
2012-08-24,3.68,3.68,3.63,3.66,1367500
2012-08-27,3.67,3.72,3.62,3.66,2575708
2012-08-28,3.62,3.69,3.61,3.62,1892500
2012-08-29,3.58,3.58,3.47,3.54,2609749
2012-08-30,3.53,3.57,3.41,3.42,2132091
2012-08-31,3.42,3.5,3.41,3.48,2017638
2012-09-03,3.44,3.59,3.44,3.58,2118539
2012-09-04,3.59,3.68,3.57,3.64,5135619
2012-09-05,3.61,3.61,3.51,3.57,3420731
2012-09-06,3.57,3.59,3.46,3.56,1915386
2012-09-07,3.61,3.78,3.61,3.76,5577649
2012-09-10,3.81,3.81,3.67,3.67,3707250
2012-09-11,3.67,3.7,3.59,3.65,1958749
2012-09-12,3.72,3.75,3.69,3.72,3876809
2012-09-13,3.75,4.07,3.75,3.95,22441612
2012-09-14,4.08,4.26,4.06,4.25,15423536
2012-09-17,4.3,4.53,4.18,4.25,26051106
2012-09-18,4.23,4.34,4.14,4.3,11792038
2012-09-19,4.27,4.41,4.24,4.34,8126015
2012-09-20,4.34,4.35,4.27,4.3,11985774
2012-09-21,4.29,4.38,4.18,4.3,10207237
2012-09-24,4.3,4.32,4.15,4.25,6681162
2012-09-25,4.25,4.3,4.17,4.22,4559771
2012-09-26,4.16,4.29,4.15,4.27,6575996
2012-09-27,4.3,4.35,4.24,4.33,6319597
2012-09-28,4.33,4.43,4.3,4.39,7960312
2012-10-03,4.3,4.51,4.3,4.5,12690088
2012-10-04,4.47,4.48,4.38,4.45,6504596
2012-10-05,4.45,4.55,4.45,4.49,12006581
2012-10-08,4.49,4.53,4.38,4.4,5746241
2012-10-09,4.4,4.5,4.37,4.4,4851254
2012-10-10,4.39,4.54,4.39,4.52,7065971
2012-10-11,4.44,4.53,4.42,4.48,6575225
2012-10-12,4.5,4.54,4.4,4.49,10987570
2012-10-15,4.46,4.53,4.4,4.46,3200497
2012-10-16,4.46,4.68,4.43,4.66,15787536
2012-10-17,4.7,4.74,4.66,4.73,16097467
2012-10-18,4.74,4.94,4.69,4.91,16882760
2012-10-19,4.93,4.93,4.69,4.77,11486742
2012-10-22,4.75,4.82,4.7,4.81,4271797
2012-10-24,4.71,4.79,4.71,4.76,7171029
2012-10-25,4.79,4.8,4.71,4.77,9315040
2012-10-26,4.8,4.8,4.59,4.7,9393505
2012-10-29,4.65,4.71,4.6,4.67,3375800
2012-10-30,4.64,4.77,4.62,4.7,3579477
2012-10-31,4.7,4.88,4.57,4.86,4636780
2012-11-01,4.82,5.09,4.82,5.07,12091191
2012-11-02,5.18,5.18,5.08,5.15,19354300
2012-11-05,5.06,5.19,5.06,5.17,4405148
2012-11-06,5.14,5.17,5.03,5.14,2213442
2012-11-07,5.12,5.2,5.07,5.17,3479666
2012-11-08,5.1,5.1,4.98,5.07,7377883
2012-11-09,4.83,5.11,4.83,5.09,3984265
2012-11-12,5.09,5.16,5.05,5.1,4608120
2012-11-13,5.12,5.12,4.84,4.95,3550451
2012-11-14,4.98,5.12,4.94,5.1,4226843
2012-11-15,5.08,5.18,5.04,5.1,5907319
2012-11-16,5.08,5.17,4.97,5.08,2917288
2012-11-19,5.06,5.14,4.99,5.1,2279732
2012-11-20,5.15,5.15,5.04,5.12,3226939
2012-11-21,5.15,5.2,5.11,5.19,6723327
2012-11-22,5.18,5.25,5.12,5.2,9013772
2012-11-23,5.23,5.38,5.21,5.31,14970070
2012-11-26,5.31,5.35,5.2,5.33,5266822
2012-11-27,5.38,5.42,5.34,5.42,7007236
2012-11-28,5.37,5.48,5.36,5.48,5523543
2012-11-29,5.5,5.64,5.47,5.6,14170460
2012-11-30,5.6,5.9,5.59,5.86,25520576
2012-12-03,5.86,5.93,5.66,5.78,11295575
2012-12-04,5.73,5.83,5.67,5.76,9090374
2012-12-05,5.76,5.91,5.76,5.87,7237117
2012-12-06,5.87,5.97,5.8,5.86,6815798
2012-12-07,5.86,5.9,5.8,5.86,10798287
2012-12-10,5.9,5.92,5.62,5.66,10713807
2012-12-11,5.71,5.73,5.47,5.51,8985877
2012-12-12,5.48,5.65,5.48,5.56,14088988
2012-12-13,5.72,5.77,5.57,5.61,10655264
2012-12-14,5.6,5.66,5.5,5.54,5609255
2012-12-17,5.55,5.56,5.36,5.44,5824239
2012-12-18,5.45,5.54,5.44,5.49,7228126
2012-12-19,5.54,5.54,5.42,5.48,13629217
2012-12-20,5.52,5.59,5.45,5.55,8639421
2012-12-21,5.55,5.66,5.31,5.35,10938187
2012-12-24,5.33,5.38,5.24,5.31,4340569
2012-12-27,5.38,5.52,5.35,5.51,6888805
2012-12-28,5.6,5.71,5.49,5.7,8826726
2012-12-31,5.69,5.82,5.61,5.79,7486229
2013-01-02,5.81,5.99,5.79,5.89,16581852
2013-01-03,5.9,5.98,5.84,5.92,11939841
2013-01-04,5.98,5.98,5.81,5.92,13861618
2013-01-07,5.96,6.15,5.95,6.11,30903600
2013-01-08,6.1,6.19,5.93,6.0,12557944
2013-01-09,6.0,6.1,6.0,6.04,11572791
2013-01-10,6.04,6.1,5.82,5.94,14474921
2013-01-11,6.02,6.02,5.74,5.92,11277728
2013-01-14,5.76,6.05,5.76,6.01,9762090
2013-01-15,6.0,6.23,5.98,6.17,18307820
2013-01-16,6.14,6.28,6.14,6.23,16687937
2013-01-17,6.23,6.34,6.19,6.2,16405346
2013-01-18,6.2,6.3,6.14,6.19,12394759
2013-01-21,6.19,6.22,6.14,6.18,10114806
2013-01-22,6.28,6.28,6.1,6.26,13353001
2013-01-23,6.28,6.3,6.2,6.25,10896074
2013-01-24,6.33,6.33,6.2,6.24,15928695
2013-01-25,6.24,6.24,6.17,6.21,9027138
2013-01-28,6.27,6.27,6.16,6.23,5798044
2013-01-29,6.2,6.27,6.09,6.23,7826975
2013-01-30,6.24,6.27,6.22,6.25,7068474
2013-01-31,6.25,6.25,6.15,6.19,6267784
2013-02-01,6.29,6.29,6.14,6.17,5607028
2013-02-04,6.29,6.29,6.02,6.04,3682693
2013-02-05,6.02,6.07,5.86,5.92,49169216
2013-02-06,5.93,5.96,5.81,5.84,26449408
2013-02-07,5.8,5.84,5.53,5.6,9341264
2013-02-08,5.58,5.69,5.58,5.66,8284024
2013-02-14,5.81,5.81,5.67,5.68,5400624
2013-02-15,5.69,5.72,5.57,5.67,4263060
2013-02-18,5.67,5.69,5.47,5.51,8876390
2013-02-19,5.52,5.57,5.27,5.3,9212102
2013-02-20,5.28,5.3,5.17,5.26,9795459
2013-02-21,5.21,5.42,5.1,5.33,8184363
2013-02-22,5.25,5.42,5.25,5.27,8675285
2013-02-25,5.24,5.27,4.99,5.04,9357163
2013-02-26,4.96,5.09,4.92,5.02,9155305
2013-02-27,5.0,5.29,5.0,5.19,7453027
2013-02-28,5.31,5.41,5.25,5.36,9088874
2013-03-01,5.4,5.4,5.25,5.32,6248838
2013-03-04,5.17,5.17,4.75,4.79,21750572
2013-03-05,4.85,4.9,4.72,4.83,8893260
2013-03-06,4.84,4.95,4.84,4.93,3560181
2013-03-07,4.9,4.94,4.8,4.86,6061019
2013-03-08,4.88,4.91,4.85,4.87,6127252
2013-03-11,4.81,4.91,4.79,4.87,6846194
2013-03-12,4.85,4.86,4.7,4.73,6547605
2013-03-13,4.9,4.94,4.67,4.75,13952607
2013-03-14,4.69,4.8,4.59,4.79,10812182
2013-03-15,4.8,4.82,4.53,4.57,20100052
2013-03-18,4.59,4.59,4.4,4.45,10977290
2013-03-19,4.48,4.57,4.41,4.46,9666500
2013-03-20,4.42,4.69,4.42,4.65,14939655
2013-03-21,4.62,4.8,4.59,4.63,11720286
2013-03-22,4.6,4.65,4.52,4.52,6869993
2013-03-25,4.48,4.67,4.48,4.56,5123633
2013-03-26,4.56,4.7,4.53,4.62,9801721
2013-03-27,4.59,4.77,4.59,4.72,12262125
2013-03-28,4.66,4.73,4.59,4.68,7582819
2013-04-02,4.68,4.82,4.63,4.75,11850000
2013-04-03,4.7,4.83,4.7,4.79,8841176
2013-04-05,4.73,4.8,4.55,4.59,10093316
2013-04-08,4.53,4.76,4.48,4.71,9028400
2013-04-09,4.7,4.81,4.7,4.72,5969878
2013-04-10,4.68,4.99,4.68,4.97,14228018
2013-04-11,4.98,5.11,4.98,5.05,13369030
2013-04-12,5.02,5.08,4.88,4.94,4310108
2013-04-15,4.88,4.94,4.79,4.8,4752026
2013-04-16,4.78,4.89,4.7,4.85,6580118
2013-04-17,4.85,5.01,4.75,4.75,11570794
2013-04-18,4.7,4.83,4.7,4.79,4753240
2013-04-19,4.82,5.17,4.82,5.13,9547871
2013-04-22,5.13,5.22,5.08,5.21,6162383
2013-04-23,5.22,5.22,4.92,4.95,8832886
2013-04-24,5.0,5.1,4.96,5.08,3969614
2013-04-25,5.02,5.15,5.02,5.08,4018114
2013-04-26,5.06,5.11,5.0,5.0,3460525
2013-04-29,5.0,5.08,5.0,5.05,2479312
2013-04-30,5.1,5.14,5.03,5.12,10292664
2013-05-02,5.14,5.4,5.1,5.38,15197722
2013-05-03,5.4,5.52,5.31,5.33,5247018
2013-05-06,5.38,5.45,5.35,5.36,4610294
2013-05-07,5.35,5.41,5.35,5.36,3326961
2013-05-08,5.36,5.48,5.36,5.41,5815068
2013-05-09,5.38,5.47,5.38,5.39,2582454
2013-05-10,5.4,5.42,5.37,5.42,3615440
2013-05-13,5.46,5.46,5.32,5.34,2733869
2013-05-14,5.4,5.41,5.33,5.35,3375286
2013-05-15,5.2,5.2,4.97,5.01,6889321
2013-05-16,5.0,5.17,4.99,5.02,4621739
2013-05-20,5.2,5.25,5.14,5.2,5929277
2013-05-21,5.2,5.29,5.12,5.13,2784005
2013-05-22,5.1,5.2,4.94,4.98,5569742
2013-05-23,4.95,5.09,4.95,5.0,4840193
2013-05-24,4.97,5.07,4.94,4.95,2967913
2013-05-27,4.94,5.01,4.9,4.91,2076808
2013-05-28,4.91,5.06,4.91,4.98,4436425
2013-05-29,5.0,5.04,4.87,4.88,4240122
2013-05-30,4.88,4.96,4.8,4.84,4847301
2013-05-31,4.89,4.9,4.7,4.75,8419032
2013-06-03,4.67,4.8,4.51,4.54,12474136
2013-06-04,4.53,4.65,4.5,4.61,7246489
2013-06-05,4.64,4.68,4.54,4.55,3950669
2013-06-06,4.5,4.6,4.5,4.51,5282632
2013-06-07,4.56,4.58,4.49,4.51,5874677
2013-06-10,4.51,4.59,4.42,4.44,3652509
2013-06-11,4.4,4.45,4.28,4.28,6411119
2013-06-13,4.25,4.25,4.02,4.15,6796398
2013-06-14,4.22,4.44,4.22,4.34,7073000
2013-06-17,4.35,4.38,4.26,4.34,3042500
2013-06-18,4.33,4.35,4.21,4.31,4245966
2013-06-19,4.34,4.34,4.15,4.16,7145793
2013-06-20,4.03,4.2,4.03,4.16,6450100
2013-06-21,4.05,4.16,4.0,4.06,9795243
2013-06-24,4.0,4.1,3.86,3.88,5212037
2013-06-25,3.99,3.99,3.66,3.83,10242987
2013-06-26,3.9,4.08,3.88,4.06,11962123
2013-06-27,4.08,4.22,4.08,4.19,7821155
2013-06-28,4.2,4.29,4.11,4.21,10500769
2013-07-02,4.23,4.3,4.04,4.07,7195705
2013-07-03,4.04,4.15,3.92,3.95,6905484
2013-07-04,3.97,4.12,3.94,4.07,6493244
2013-07-05,4.08,4.16,4.07,4.08,5515436
2013-07-08,4.05,4.09,3.96,3.96,5132151
2013-07-09,3.94,4.04,3.83,3.84,7517254
2013-07-10,3.84,3.91,3.83,3.88,6449976
2013-07-11,3.95,4.12,3.9,4.07,28921620
2013-07-12,4.12,4.13,4.05,4.07,8574830
2013-07-15,4.05,4.18,4.05,4.17,6043399
2013-07-16,4.11,4.17,4.07,4.1,3631761
2013-07-17,4.07,4.14,4.04,4.04,7945560
2013-07-18,4.03,4.11,4.03,4.05,5604342
2013-07-19,4.11,4.11,3.97,3.99,2739381
2013-07-22,3.99,4.05,3.94,3.96,4588729
2013-07-23,4.0,4.06,3.96,4.06,13475995
2013-07-24,4.02,4.07,4.01,4.04,7964550
2013-07-25,4.04,4.07,4.02,4.04,12014218
2013-07-26,4.05,4.06,4.0,4.01,8667534
2013-07-29,4.0,4.01,3.88,3.89,8422511
2013-07-30,3.91,3.94,3.83,3.85,9720114
2013-07-31,3.81,4.05,3.81,3.97,20407920
2013-08-01,4.01,4.17,4.01,4.16,12796266
2013-08-02,4.18,4.38,4.18,4.32,16763606
2013-08-05,4.38,4.42,4.34,4.39,10525512
2013-08-06,4.35,4.42,4.3,4.36,5275276
2013-08-07,4.32,4.46,4.26,4.33,7957699
2013-08-08,4.35,4.44,4.3,4.35,7058334
2013-08-09,4.35,4.37,4.33,4.35,4753227
2013-08-12,4.36,4.49,4.33,4.43,5316668
2013-08-13,4.46,4.76,4.45,4.73,9594089
2013-08-15,4.77,4.92,4.71,4.79,16938040
2013-08-16,4.66,4.72,4.61,4.61,14210426
2013-08-19,4.63,4.65,4.46,4.46,9190482
2013-08-20,4.48,4.54,4.34,4.41,12205469
2013-08-21,4.43,4.43,4.34,4.42,7047021
2013-08-22,4.36,4.5,4.21,4.47,14245541
2013-08-23,4.53,4.65,4.5,4.57,8344357
2013-08-26,4.58,4.6,4.48,4.59,4723474
2013-08-27,4.62,4.71,4.53,4.69,11402300
2013-08-28,4.61,4.61,4.48,4.52,6616958
2013-08-29,4.5,4.51,4.38,4.41,5900645
2013-08-30,4.39,4.6,4.34,4.59,9719371
2013-09-02,4.6,4.64,4.51,4.52,2294033
2013-09-03,4.5,4.63,4.5,4.57,3961060
2013-09-04,4.54,4.55,4.49,4.5,5075819
2013-09-05,4.55,4.6,4.53,4.56,8006942
2013-09-06,4.62,4.75,4.57,4.71,9723983
2013-09-09,4.75,4.82,4.67,4.81,12549710
2013-09-10,4.85,4.91,4.81,4.89,14310321
2013-09-11,4.89,4.95,4.82,4.89,8381573
2013-09-12,4.95,4.95,4.81,4.87,6903930
2013-09-13,4.8,4.86,4.7,4.75,6265209
2013-09-16,4.83,4.85,4.8,4.84,5768070
2013-09-17,4.92,4.92,4.79,4.83,5937466
2013-09-18,4.9,4.9,4.66,4.71,6212744
2013-09-19,4.82,4.83,4.66,4.67,5457625
2013-09-23,4.67,4.81,4.6,4.8,7278374
2013-09-24,4.84,4.84,4.62,4.65,6291751
2013-09-25,4.63,4.7,4.62,4.65,3944681
2013-09-26,4.61,4.67,4.6,4.61,3639508
2013-09-27,4.67,4.7,4.63,4.66,6600666
2013-09-30,4.7,4.73,4.51,4.56,13074260
2013-10-02,4.52,4.66,4.52,4.61,8578259
2013-10-03,4.63,4.69,4.62,4.67,3845048
2013-10-04,4.66,4.73,4.62,4.73,3711243
2013-10-07,4.72,4.72,4.63,4.67,5680500
2013-10-08,4.67,4.84,4.67,4.84,7473860
2013-10-09,4.82,4.95,4.78,4.91,11951809
2013-10-10,4.9,4.93,4.85,4.87,7613254
2013-10-11,4.94,4.97,4.88,4.95,10254968
2013-10-15,4.92,4.99,4.9,4.98,11015243
2013-10-16,4.95,4.95,4.87,4.93,8733485
2013-10-17,4.93,4.97,4.82,4.86,6961026
2013-10-18,4.88,4.91,4.82,4.85,5897000
2013-10-21,4.85,4.97,4.85,4.92,5585501
2013-10-22,4.92,4.95,4.88,4.92,4226371
2013-10-23,4.94,4.94,4.68,4.79,9363050
2013-10-24,4.74,4.77,4.68,4.71,11428437
2013-10-25,4.75,4.77,4.72,4.76,7975267
2013-10-28,4.74,4.83,4.73,4.81,7070400
2013-10-29,4.79,4.87,4.79,4.81,4356272
2013-10-30,4.83,4.86,4.76,4.83,5298213
2013-10-31,4.85,4.95,4.8,4.92,8885219
2013-11-01,4.9,4.94,4.83,4.94,5817047
2013-11-04,4.95,5.01,4.91,4.98,5998914
2013-11-05,4.98,5.03,4.93,5.01,6036664
2013-11-06,5.06,5.12,4.96,5.1,7862327
2013-11-07,5.1,5.1,5.02,5.08,5301966
2013-11-08,5.06,5.06,4.96,5.0,4850437
2013-11-11,5.0,5.02,4.9,5.01,5330370
2013-11-12,5.02,5.02,4.87,4.91,4679758
2013-11-13,4.87,4.91,4.81,4.87,4410125
2013-11-14,4.88,4.91,4.83,4.91,5455204
2013-11-15,4.95,4.97,4.89,4.95,3536128
2013-11-18,4.99,5.04,4.91,5.04,4438817
2013-11-19,5.02,5.05,4.94,4.95,2032991
2013-11-20,4.92,5.0,4.92,4.94,10789164
2013-11-21,4.97,4.97,4.8,4.94,8784291
2013-11-22,4.97,4.97,4.9,4.95,6692497
2013-11-25,4.96,4.96,4.8,4.82,7811360
2013-11-26,4.8,4.99,4.8,4.98,9303815
2013-11-27,4.9,5.15,4.9,5.11,17020952
2013-11-28,5.09,5.11,5.05,5.09,3297753
2013-11-29,5.07,5.21,5.07,5.2,7764595
2013-12-02,5.18,5.21,5.15,5.2,3757953
2013-12-03,5.15,5.15,5.07,5.14,7608329
2013-12-04,5.06,5.17,5.05,5.16,9531830
2013-12-05,5.09,5.14,5.0,5.1,10096274
2013-12-06,5.1,5.11,5.02,5.1,4453730
2013-12-09,5.01,5.14,5.01,5.11,4227088
2013-12-10,5.1,5.1,4.95,5.01,6244371
2013-12-11,5.0,5.1,5.0,5.04,4596226
2013-12-12,5.08,5.08,4.98,5.03,6694505
2013-12-13,4.99,5.02,4.95,4.99,5835896
2013-12-16,4.96,5.01,4.92,4.92,2492726
2013-12-17,4.92,5.0,4.88,4.99,6949507
2013-12-18,4.9,5.0,4.86,4.95,8337572
2013-12-19,4.99,5.0,4.93,4.98,5160914
2013-12-20,4.98,5.01,4.9,5.01,4226547
2013-12-23,5.11,5.11,4.99,5.07,3931685
2013-12-24,5.06,5.06,4.99,5.01,1165947
2013-12-27,5.01,5.08,4.98,5.05,1601841
2013-12-30,4.97,5.05,4.97,5.01,2955017
2013-12-31,5.0,5.14,5.0,5.09,3173608
2014-01-02,5.09,5.09,5.0,5.09,1616400
2014-01-03,5.03,5.03,4.96,5.0,1691188
2014-01-06,4.96,4.96,4.75,4.85,2579411
2014-01-07,4.87,4.87,4.78,4.79,2836011
2014-01-08,4.77,4.84,4.75,4.77,3562018
2014-01-09,4.77,4.88,4.77,4.81,7843796
2014-01-10,4.82,4.89,4.73,4.88,5394070
2014-01-13,4.89,4.89,4.72,4.78,2060521
2014-01-14,4.75,4.81,4.68,4.79,2348081
2014-01-15,4.8,4.84,4.71,4.78,3235919
2014-01-16,4.73,4.8,4.73,4.8,1480494
2014-01-17,4.8,4.85,4.74,4.8,1446247
2014-01-20,4.84,4.87,4.78,4.84,3587373
2014-01-21,4.89,4.89,4.69,4.7,5357829
2014-01-22,4.66,4.81,4.58,4.8,8393667
2014-01-23,4.79,4.81,4.71,4.73,3173404
2014-01-24,4.67,4.67,4.54,4.54,7009342
2014-01-27,4.45,4.55,4.27,4.28,8740243
2014-01-28,4.33,4.38,4.23,4.32,7870759
2014-01-29,4.35,4.35,4.26,4.27,6197520
2014-01-30,4.27,4.28,4.14,4.18,9323840
2014-02-04,4.19,4.2,4.03,4.06,12998146
2014-02-05,4.1,4.12,3.97,3.98,8447782
2014-02-06,4.05,4.2,4.03,4.19,6370988
2014-02-07,4.19,4.19,4.1,4.18,3405827
2014-02-10,4.14,4.22,4.13,4.15,1507400
2014-02-11,4.13,4.24,4.13,4.2,4618800
2014-02-12,4.25,4.37,4.21,4.32,6611301
2014-02-13,4.29,4.32,4.18,4.19,3475500
2014-02-14,4.23,4.24,4.16,4.19,2003534
2014-02-17,4.2,4.24,4.12,4.15,3037357
2014-02-18,4.1,4.17,4.07,4.15,4696779
2014-02-19,4.2,4.42,4.18,4.38,7725634
2014-02-20,4.38,4.38,4.2,4.3,8680333
2014-02-21,4.34,4.35,4.1,4.15,6546989
2014-02-24,4.17,4.17,4.0,4.0,7840317
2014-02-25,4.08,4.08,4.0,4.0,3182778
2014-02-26,4.01,4.11,3.99,4.1,9410212
2014-02-27,4.05,4.1,4.05,4.06,2496019
2014-02-28,4.1,4.19,4.07,4.12,5970116
2014-03-03,4.06,4.11,4.03,4.03,1936899
2014-03-04,4.01,4.06,4.0,4.0,3187170
2014-03-05,4.09,4.09,3.98,3.99,6153389
2014-03-06,4.03,4.23,4.02,4.22,6884701
2014-03-07,4.22,4.22,4.09,4.09,2367200
2014-03-10,4.1,4.13,4.0,4.01,4520689
2014-03-11,4.07,4.1,4.0,4.02,4394184
2014-03-12,4.0,4.02,3.91,3.95,3411760
2014-03-13,3.98,4.04,3.95,3.97,2256050
2014-03-14,3.98,3.98,3.85,3.87,5331108
2014-03-17,3.87,3.95,3.87,3.87,3129153
2014-03-18,3.87,4.05,3.83,3.86,6347680
2014-03-19,3.86,3.93,3.84,3.87,4844678
2014-03-20,3.85,3.89,3.78,3.81,3719509
2014-03-21,3.79,4.03,3.79,3.99,13045798
2014-03-24,4.03,4.04,3.93,4.0,3970258
2014-03-25,3.94,3.97,3.78,3.83,9498105
2014-03-26,3.8,3.98,3.8,3.95,9870000
2014-03-27,3.9,4.0,3.89,3.95,3035062
2014-03-28,3.98,4.15,3.98,4.14,7779600
2014-03-31,4.17,4.28,4.04,4.24,5725300
2014-04-01,4.3,4.3,4.09,4.14,5234400
2014-04-02,4.15,4.39,4.15,4.35,13779100
2014-04-03,4.43,4.47,4.33,4.42,5117200
2014-04-04,4.44,4.44,4.23,4.27,2319400
2014-04-07,4.31,4.45,4.27,4.43,6350300
2014-04-08,4.44,4.5,4.33,4.46,6241900
2014-04-09,4.49,4.5,4.41,4.49,6368000
2014-04-10,4.54,4.54,4.43,4.5,4339200
2014-04-11,4.51,4.51,4.36,4.5,5326900
2014-04-14,4.5,4.54,4.45,4.5,2943100
2014-04-15,4.48,4.49,4.29,4.3,2552200
2014-04-16,4.2,4.33,4.2,4.27,5126000
2014-04-17,4.27,4.3,4.2,4.29,1592500
2014-04-22,4.21,4.25,4.17,4.2,1679300
2014-04-23,4.26,4.26,4.13,4.15,2914500
2014-04-24,4.14,4.26,4.11,4.15,3228500
2014-04-25,4.15,4.15,4.11,4.12,1448500
2014-04-28,4.1,4.11,4.02,4.03,2273200
2014-04-29,4.07,4.07,3.91,4.03,5933400
2014-04-30,4.07,4.12,4.0,4.1,5917900
2014-05-02,4.06,4.1,4.01,4.06,3930400
2014-05-05,4.06,4.14,4.02,4.03,1710000
2014-05-07,4.04,4.05,3.92,3.93,3228200
2014-05-08,3.94,4.06,3.88,3.91,5525200
2014-05-09,3.88,3.93,3.88,3.9,5694600
2014-05-12,3.9,3.93,3.68,3.93,7159100
2014-05-13,3.94,4.08,3.93,4.06,5102700
2014-05-14,3.97,4.14,3.9,4.12,6630100
2014-05-15,4.11,4.11,4.02,4.06,5785500
2014-05-16,3.99,4.04,3.99,4.01,3803600
2014-05-19,4.07,4.07,3.94,3.99,2036300
2014-05-20,3.99,4.08,3.97,4.08,3164000
2014-05-21,4.08,4.08,3.97,4.05,2929500
2014-05-22,4.08,4.16,3.99,4.11,6463300
2014-05-23,4.09,4.28,4.04,4.26,9208900
2014-05-26,4.24,4.24,4.16,4.19,2048500
2014-05-27,4.17,4.2,4.11,4.11,2733600
2014-05-28,4.18,4.18,4.08,4.15,2523100
2014-05-29,4.15,4.16,4.07,4.08,3441300
2014-05-30,4.13,4.14,4.04,4.08,5493500
2014-06-03,4.09,4.18,4.06,4.17,4525500
2014-06-04,4.21,4.21,4.04,4.08,4292200
2014-06-05,4.06,4.15,4.02,4.12,3333600
2014-06-06,4.12,4.15,4.07,4.1,5015300
2014-06-09,4.16,4.16,4.07,4.13,4051600
2014-06-10,4.13,4.24,4.09,4.24,4883200
2014-06-11,4.2,4.24,4.13,4.18,4586200
2014-06-12,4.18,4.21,4.15,4.2,5753300
2014-06-13,4.2,4.25,4.13,4.13,2662000
2014-06-16,4.18,4.18,4.1,4.11,2590900
2014-06-17,4.14,4.22,4.11,4.19,4044800
2014-06-18,4.21,4.22,4.06,4.08,3053100
2014-06-19,4.11,4.12,4.04,4.06,2543300
2014-06-20,4.09,4.09,3.91,3.99,8341800
2014-06-23,4.0,4.04,3.94,4.03,2480700
2014-06-24,4.06,4.06,3.91,3.93,4383000
2014-06-25,3.93,3.97,3.92,3.94,2804000
2014-06-26,3.94,3.97,3.92,3.93,1111800
2014-06-27,3.94,3.96,3.86,3.87,2676000
2014-06-30,3.91,3.93,3.84,3.93,4487600
2014-07-02,3.93,4.05,3.89,4.0,4956200
2014-07-03,4.01,4.18,4.01,4.13,6329600
2014-07-04,4.17,4.22,4.14,4.19,4705000
2014-07-07,4.2,4.35,4.18,4.28,6362900
2014-07-08,4.35,4.35,4.17,4.19,2098100
2014-07-09,4.17,4.19,4.08,4.12,7245200
2014-07-10,4.16,4.26,4.12,4.14,4839600
2014-07-11,4.12,4.22,4.12,4.13,1658300
2014-07-14,4.16,4.26,4.15,4.17,1679500
2014-07-15,4.2,4.25,4.18,4.21,1675500
2014-07-16,4.23,4.23,4.18,4.21,1390700
2014-07-17,4.26,4.26,4.11,4.21,3028300
2014-07-18,4.18,4.18,4.11,4.13,2451900
2014-07-21,4.18,4.18,4.09,4.12,1697000
2014-07-22,4.12,4.28,4.12,4.27,3975800
2014-07-23,4.26,4.4,4.2,4.37,7416600
2014-07-24,4.36,4.5,4.36,4.48,8407800
2014-07-25,4.48,4.48,4.39,4.39,6952400
2014-07-28,4.39,4.47,4.39,4.42,2802000
2014-07-29,4.45,4.5,4.41,4.48,4013500
2014-07-30,4.54,4.68,4.5,4.55,7645600
2014-07-31,4.61,4.63,4.46,4.55,6780300
2014-08-01,4.54,4.54,4.44,4.47,2966000
2014-08-04,4.45,4.52,4.44,4.51,2662000
2014-08-05,4.49,4.49,4.27,4.3,18360500
2014-08-06,4.35,4.42,4.29,4.36,5068900
2014-08-07,4.36,4.39,4.31,4.33,3300500
2014-08-08,4.32,4.33,4.27,4.28,2474500
2014-08-11,4.39,4.43,4.3,4.43,2499600
2014-08-12,4.41,4.5,4.35,4.45,2774500
2014-08-13,4.48,4.51,4.42,4.51,4228000
2014-08-14,4.5,4.5,4.41,4.45,2114200
2014-08-15,4.5,4.5,4.4,4.42,1068500
2014-08-18,4.38,4.47,4.34,4.37,3035600
2014-08-19,4.36,4.4,4.34,4.35,2119200
2014-08-20,4.35,4.39,4.33,4.36,2149600
2014-08-21,4.31,4.35,4.21,4.31,3896900
2014-08-22,4.29,4.3,4.22,4.28,1990400
2014-08-25,4.25,4.3,4.21,4.23,1039200
2014-08-26,4.22,4.3,4.21,4.27,1254800
2014-08-27,4.33,4.41,4.33,4.33,3570900
2014-08-28,4.41,4.52,4.27,4.29,3318500
2014-08-29,4.35,4.43,4.33,4.38,5088000
2014-09-01,4.31,4.46,4.31,4.42,3418100
2014-09-02,4.48,4.48,4.37,4.42,2828200
2014-09-03,4.48,4.52,4.45,4.51,6082500
2014-09-04,4.45,4.54,4.45,4.53,6702300
2014-09-05,4.5,4.62,4.49,4.62,5743400
2014-09-08,4.6,4.65,4.53,4.62,3448500
2014-09-10,4.54,4.56,4.45,4.55,4998500
2014-09-11,4.55,4.55,4.48,4.48,1201100
2014-09-12,4.48,4.54,4.43,4.44,3800700
2014-09-15,4.45,4.53,4.43,4.46,2974000
2014-09-16,4.25,4.55,4.25,4.45,2276700
2014-09-17,4.51,4.55,4.46,4.51,2755900
2014-09-18,4.44,4.5,4.34,4.39,3650600
2014-09-19,4.4,4.51,4.35,4.49,4538900
2014-09-22,4.43,4.45,4.28,4.4,4087200
2014-09-23,4.29,4.42,4.29,4.33,2326000
2014-09-24,4.3,4.52,4.27,4.48,6021200
2014-09-25,4.47,4.52,4.42,4.49,3518800
2014-09-26,4.46,4.5,4.43,4.48,2529700
2014-09-29,4.36,4.43,4.33,4.41,2337400
2014-09-30,4.42,4.42,4.08,4.09,8072600
2014-10-03,4.09,4.35,4.05,4.25,5140700
2014-10-06,4.25,4.3,4.2,4.22,2167300
2014-10-07,4.27,4.32,4.23,4.3,2298900
2014-10-08,4.36,4.39,4.18,4.18,3046200
2014-10-09,4.27,4.27,4.15,4.23,3495100
2014-10-10,4.15,4.39,4.15,4.28,5289100
2014-10-13,4.2,4.28,4.14,4.15,3084500
2014-10-14,4.1,4.23,4.1,4.14,1876400
2014-10-15,4.1,4.17,4.1,4.14,1862600
2014-10-16,4.1,4.16,4.1,4.11,1881200
2014-10-17,4.1,4.18,4.09,4.12,5352800
2014-10-20,4.15,4.19,4.09,4.1,3164300
2014-10-21,4.1,4.2,4.09,4.2,2845300
2014-10-22,4.21,4.22,4.11,4.2,2470100
2014-10-23,4.18,4.27,4.16,4.27,1233700
2014-10-24,4.28,4.29,4.21,4.27,1458600
2014-10-27,4.25,4.33,4.2,4.27,1697600
2014-10-28,4.27,4.27,4.18,4.23,1199300
2014-10-29,4.3,4.35,4.22,4.31,2893300
2014-10-30,4.35,4.42,4.27,4.37,3650700
2014-10-31,4.39,4.45,4.32,4.43,3187400
2014-11-03,4.45,4.55,4.35,4.55,4709900
2014-11-04,4.6,4.6,4.47,4.53,4414300
2014-11-05,4.55,4.6,4.48,4.6,7544000
2014-11-06,4.6,4.6,4.48,4.51,1533000
2014-11-07,4.57,4.57,4.5,4.55,3246500
2014-11-10,4.6,4.62,4.51,4.6,2791200
2014-11-11,4.6,4.61,4.52,4.56,1326000
2014-11-12,4.56,4.6,4.5,4.53,1779700
2014-11-13,4.58,4.58,4.47,4.53,1350600
2014-11-14,4.56,4.56,4.46,4.48,2224600
2014-11-17,4.58,4.58,4.41,4.44,2053700
2014-11-18,4.44,4.44,4.32,4.37,2907900
2014-11-19,4.44,4.47,4.38,4.43,2557700
2014-11-20,4.4,4.47,4.37,4.41,2682600
2014-11-21,4.4,4.45,4.38,4.44,2289100
2014-11-24,4.66,4.77,4.5,4.68,18026400
2014-11-25,4.68,4.72,4.52,4.55,7443000
2014-11-26,4.55,4.65,4.55,4.61,4964200
2014-11-27,4.65,4.69,4.57,4.65,5014600
2014-11-28,4.69,4.74,4.6,4.65,9183000
2014-12-01,4.65,4.67,4.49,4.55,6012200
2014-12-02,4.5,4.68,4.4,4.61,16065800
2014-12-03,4.61,4.77,4.61,4.66,10033000
2014-12-04,4.77,4.77,4.67,4.73,12099500
2014-12-05,4.77,4.77,4.63,4.65,3331300
2014-12-08,4.66,4.73,4.65,4.73,4340500
2014-12-09,4.73,4.73,4.53,4.56,2990500
2014-12-10,4.47,4.6,4.42,4.45,4606300
2014-12-11,4.53,4.53,4.42,4.45,3711400
2014-12-12,4.47,4.52,4.43,4.44,3261100
2014-12-15,4.35,4.43,4.26,4.28,7024100
2014-12-16,4.23,4.35,4.17,4.19,8745300
2014-12-17,4.17,4.28,4.17,4.28,6579700
2014-12-18,4.33,4.4,4.25,4.36,4542700
2014-12-19,4.41,4.41,4.24,4.35,2732800
2014-12-22,4.35,4.38,4.25,4.35,1884900
2014-12-23,4.34,4.35,4.27,4.31,2219500
2014-12-24,4.26,4.3,4.22,4.28,1389300
2014-12-29,4.27,4.43,4.27,4.37,3048700
2014-12-30,4.36,4.46,4.31,4.45,3591500
2014-12-31,4.36,4.44,4.36,4.41,1464000
2015-01-02,4.42,4.86,4.42,4.78,13705900
2015-01-05,4.87,5.11,4.8,5.02,19961300
2015-01-06,4.9,5.0,4.79,4.89,10140800
2015-01-07,4.89,4.97,4.84,4.85,9250600
2015-01-08,4.85,5.0,4.84,4.85,6376700
2015-01-09,4.87,5.03,4.87,4.92,11252000
2015-01-12,4.92,4.98,4.85,4.96,7813900
2015-01-13,5.05,5.05,4.86,4.96,9675900
2015-01-14,5.05,5.05,4.65,4.94,5543900
2015-01-15,4.92,4.93,4.79,4.93,5792600
2015-01-16,4.88,4.92,4.77,4.9,8154600
2015-01-17,4.43,4.43,4.43,4.43,0
2015-01-19,4.88,4.88,4.66,4.76,4408900
2015-01-20,4.73,4.9,4.72,4.88,5328900
2015-01-21,4.9,4.97,4.82,4.93,3722600
2015-01-22,4.8,4.99,4.8,4.99,7842700
2015-01-23,5.0,5.0,4.82,4.98,4710500
2015-01-26,4.99,5.0,4.85,4.93,2976700
2015-01-27,4.99,4.99,4.87,4.89,4786200
2015-01-28,4.94,4.94,4.88,4.92,2297700
2015-01-29,4.95,4.95,4.85,4.89,8249100
2015-01-30,5.0,5.02,4.89,4.97,13197100
2015-02-02,4.9,4.9,4.77,4.84,6189500
2015-02-03,4.85,4.85,4.77,4.81,3274600
2015-02-04,4.99,4.99,4.74,4.83,3083700
2015-02-05,5.0,5.0,4.86,4.92,6142600
2015-02-06,4.91,5.0,4.8,4.88,4248000
2015-02-09,4.82,4.88,4.68,4.74,21757500
2015-02-10,4.7,4.86,4.7,4.83,5030800
2015-02-11,4.88,4.9,4.78,4.89,2249600
2015-02-12,4.78,4.89,4.75,4.88,4056300
2015-02-13,4.79,4.92,4.79,4.89,4391000
2015-02-16,4.88,4.94,4.85,4.91,2191600
2015-02-17,4.93,4.95,4.83,4.89,2876100
2015-02-18,4.93,4.98,4.87,4.9,2594300
2015-02-23,4.9,4.93,4.84,4.89,2866100
2015-02-24,4.87,4.9,4.83,4.89,3843600
2015-02-25,4.93,4.97,4.86,4.94,12125500
2015-02-26,4.92,4.95,4.86,4.89,4511300
2015-02-27,4.92,4.92,4.82,4.84,4049000
2015-03-02,4.88,4.92,4.8,4.9,4765700
2015-03-03,4.91,4.91,4.74,4.78,4238300
2015-03-04,4.77,4.77,4.66,4.71,4692500
2015-03-05,4.74,4.77,4.64,4.69,3959700
2015-03-06,4.72,4.81,4.68,4.77,4269600
2015-03-09,4.7,4.72,4.61,4.71,3963700
2015-03-10,4.68,4.74,4.63,4.68,7545000
2015-03-11,4.6,4.73,4.6,4.69,4686500
2015-03-12,4.7,4.77,4.66,4.74,4242100
2015-03-13,4.78,4.8,4.71,4.74,5520500
2015-03-16,4.69,4.75,4.65,4.7,2827300
2015-03-17,4.73,4.75,4.65,4.69,3903800
2015-03-18,4.81,4.88,4.7,4.83,8686000
2015-03-19,4.89,4.89,4.7,4.8,8261800
2015-03-20,4.82,4.85,4.75,4.77,6246400
2015-03-23,4.84,4.84,4.74,4.83,9276600
2015-03-24,4.86,4.86,4.74,4.76,6181900
2015-03-25,4.82,4.82,4.7,4.76,8927100
2015-03-26,4.77,4.77,4.66,4.67,4052300
2015-03-27,4.68,4.76,4.67,4.73,13276400
2015-03-30,4.76,4.85,4.68,4.8,14949800
2015-03-31,5.09,5.13,4.66,4.69,18610000
2015-04-01,4.72,4.8,4.7,4.79,7658000
2015-04-02,4.82,4.93,4.79,4.92,13221700
2015-04-08,5.03,5.09,4.97,5.09,20107000
2015-04-09,5.18,5.5,5.16,5.38,49260800
2015-04-10,5.5,5.68,5.43,5.57,51533900
2015-04-13,5.73,6.05,5.64,6.01,27272100
2015-04-14,6.0,6.05,5.72,5.75,21105500
2015-04-15,5.8,5.88,5.64,5.79,15122700
2015-04-16,5.64,5.86,5.64,5.82,10957200
2015-04-17,5.84,6.07,5.78,5.99,29362700
2015-04-20,6.1,6.1,5.6,5.7,12701600
2015-04-21,5.8,5.87,5.59,5.64,17997500
2015-04-22,5.65,6.25,5.65,6.24,39709300
2015-04-23,6.34,6.43,6.08,6.17,33354300
2015-04-24,6.17,6.2,5.81,5.98,11420500
2015-04-27,6.07,6.33,6.0,6.26,30153400
2015-04-28,6.35,6.36,6.03,6.26,15106900
2015-04-29,6.25,6.27,6.05,6.13,20024300
2015-04-30,6.14,6.53,6.06,6.48,47042100
2015-05-04,6.5,6.76,6.18,6.52,58493000
2015-05-05,6.6,6.65,6.16,6.36,29538300
2015-05-06,6.24,6.36,6.12,6.18,16867100
2015-05-07,6.1,6.19,5.9,5.91,14407100
2015-05-08,6.0,6.15,5.9,6.12,21777100
2015-05-11,6.25,6.25,5.99,6.02,20556300
2015-05-12,6.06,6.1,5.95,6.01,16918800
2015-05-13,6.05,6.06,5.94,5.97,13560400
2015-05-14,5.84,6.04,5.84,5.86,12476000
2015-05-15,5.92,5.98,5.85,5.9,15794300
2015-05-18,5.83,5.94,5.73,5.84,8179500
2015-05-19,5.9,5.9,5.73,5.79,7986500
2015-05-20,5.84,5.84,5.72,5.75,6390100
2015-05-21,5.8,5.8,5.57,5.62,11099500
2015-05-22,5.65,5.75,5.62,5.71,7247600
2015-05-26,5.82,5.88,5.75,5.83,10050500
2015-05-27,5.78,5.92,5.73,5.86,16219600
2015-05-28,5.85,5.9,5.55,5.64,10805200
2015-05-29,5.66,5.66,5.47,5.54,20440800
2015-06-01,5.48,5.69,5.48,5.66,4738100
2015-06-02,5.66,5.69,5.54,5.62,12084500
2015-06-03,5.59,5.66,5.49,5.5,7046300
2015-06-04,5.48,5.61,5.35,5.4,16271100
2015-06-05,5.44,5.54,5.29,5.31,9134400
2015-06-08,5.39,5.47,5.3,5.39,8772300
2015-06-09,5.32,5.47,5.26,5.27,5124000
2015-06-10,5.28,5.39,5.25,5.28,8335800
2015-06-11,5.27,5.34,5.27,5.3,12810000
2015-06-12,5.35,5.6,5.31,5.57,13483100
2015-06-15,5.55,5.55,5.46,5.51,8893900
2015-06-16,5.5,5.53,5.43,5.45,13752900
2015-06-17,5.51,5.53,5.35,5.43,13531800
2015-06-18,5.45,5.53,5.4,5.47,6282700
2015-06-19,5.6,5.6,5.3,5.33,16687000
2015-06-22,5.42,5.72,5.33,5.71,6360600
2015-06-23,5.71,6.1,5.67,6.02,23171400
2015-06-24,6.0,6.02,5.88,5.91,9518900
2015-06-25,5.97,6.2,5.95,6.01,14389000
2015-06-26,5.94,5.99,5.7,5.71,6382000
2015-06-29,5.75,5.84,5.45,5.7,7499200
2015-06-30,5.7,6.08,5.69,5.86,11685300
2015-07-02,5.86,5.97,5.75,5.79,10013700
2015-07-03,5.76,5.92,5.61,5.78,6073200
2015-07-06,5.9,5.93,4.91,5.3,19552900
2015-07-07,5.34,5.39,5.02,5.12,11324600
2015-07-08,4.72,4.97,4.57,4.81,15714900
2015-07-09,4.69,5.36,4.68,5.32,12831400
2015-07-10,5.34,5.55,5.2,5.38,11813600
2015-07-13,5.2,5.44,5.2,5.36,9182200
2015-07-14,5.34,5.46,5.3,5.45,7996600
2015-07-15,5.3,5.43,5.24,5.28,5846100
2015-07-16,5.32,5.51,5.31,5.49,4301200
2015-07-17,5.42,5.64,5.42,5.58,10257100
2015-07-20,5.47,5.56,5.43,5.5,3636100
2015-07-21,5.7,5.7,5.48,5.58,5678200
2015-07-22,5.59,5.59,5.38,5.5,2946700
2015-07-23,5.43,5.61,5.4,5.6,6464500
2015-07-24,5.49,5.59,5.45,5.58,2425300
2015-07-27,5.41,5.44,5.1,5.13,4731900
2015-07-28,5.01,5.3,5.01,5.17,10394000
2015-07-29,5.34,5.35,5.17,5.23,4604400
2015-07-30,5.22,5.32,5.15,5.23,2876600
2015-07-31,5.21,5.35,5.1,5.32,4489400
2015-08-03,5.24,5.26,5.08,5.24,3172500
2015-08-04,5.2,5.28,5.0,5.03,6330100
2015-08-05,4.97,5.18,4.97,5.16,4883600
2015-08-06,5.12,5.16,5.01,5.07,5066400
2015-08-07,5.01,5.12,4.99,5.03,4996000
2015-08-10,5.07,5.08,4.92,5.0,5696400
2015-08-11,5.01,5.17,4.99,5.01,4912000
2015-08-12,4.93,5.08,4.77,4.82,9057700
2015-08-13,4.85,4.85,4.71,4.76,7242100
2015-08-14,4.8,4.81,4.73,4.76,14232700
2015-08-17,4.73,4.73,4.55,4.6,5629000
2015-08-18,4.57,4.7,4.54,4.55,6063200
2015-08-19,4.63,4.65,4.51,4.55,4768100
2015-08-20,4.5,4.56,4.3,4.35,9721400
2015-08-21,4.05,4.25,4.05,4.15,10518600
2015-08-24,3.9,4.06,3.86,3.91,14428800
2015-08-25,3.82,3.97,3.73,3.8,12977000
2015-08-26,3.92,3.92,3.75,3.77,11464700
2015-08-27,3.84,4.04,3.84,4.04,9921100
2015-08-28,4.19,4.21,4.01,4.09,7316800
2015-08-31,4.05,4.08,3.84,4.05,11469500
2015-09-01,3.95,4.06,3.85,3.95,12584300
2015-09-02,3.93,3.93,3.8,3.86,7052000
2015-09-04,3.81,3.85,3.76,3.8,10064700
2015-09-07,3.75,3.93,3.75,3.87,5982600
2015-09-08,3.87,4.03,3.85,3.99,5694800
2015-09-09,3.94,4.13,3.94,4.09,10282300
2015-09-10,4.03,4.12,3.9,4.11,9458900
2015-09-11,4.19,4.19,4.0,4.15,10489700
2015-09-14,4.18,4.25,4.05,4.2,11569200
2015-09-15,4.13,4.23,4.11,4.16,6979000
2015-09-16,4.2,4.38,4.18,4.23,6912700
2015-09-17,4.32,4.32,4.13,4.18,6602800
2015-09-18,4.26,4.26,4.17,4.23,8776800
2015-09-21,4.15,4.27,4.14,4.23,5910300
2015-09-22,4.28,4.35,4.24,4.26,12255300
2015-09-23,4.24,4.24,4.08,4.14,8262600
2015-09-24,4.13,4.22,4.05,4.19,6597100
2015-09-25,4.21,4.26,4.13,4.21,3391500
2015-09-29,4.11,4.19,4.01,4.06,4647500
2015-09-30,4.13,4.23,4.06,4.22,12398800
2015-10-02,4.34,4.61,4.28,4.6,14867800
2015-10-05,4.8,4.8,4.51,4.65,11197000
2015-10-06,4.8,4.8,4.53,4.63,11795500
2015-10-07,4.59,5.05,4.59,5.02,14991600
2015-10-08,4.98,4.98,4.83,4.85,5798400
2015-10-09,4.94,4.96,4.88,4.89,3016000
2015-10-12,4.96,4.96,4.73,4.79,12237500
2015-10-13,4.71,4.82,4.62,4.7,8715300
2015-10-14,4.7,4.7,4.49,4.51,10516800
2015-10-15,4.51,4.64,4.47,4.56,11864700
2015-10-16,4.66,4.67,4.52,4.65,8635500
2015-10-19,4.7,4.7,4.54,4.54,4470100
2015-10-20,4.52,4.68,4.52,4.66,4098200
2015-10-22,4.59,4.65,4.53,4.63,2137900
2015-10-23,4.7,4.77,4.64,4.75,6893200
2015-10-26,4.66,4.87,4.66,4.72,5924500
2015-10-27,4.7,4.77,4.55,4.64,7330000
2015-10-28,4.66,4.66,4.47,4.5,9742800
2015-10-29,4.57,4.57,4.42,4.44,6116900
2015-10-30,4.4,4.57,4.36,4.53,8594000
2015-11-02,4.45,4.5,4.37,4.38,8834200
2015-11-03,4.47,4.49,4.39,4.41,5890900
2015-11-04,4.41,4.52,4.41,4.46,9566000
2015-11-05,4.43,4.51,4.43,4.48,6098100
2015-11-06,4.48,4.48,4.36,4.37,5210700
2015-11-09,4.4,4.43,4.29,4.32,5889800
2015-11-10,4.29,4.35,4.23,4.24,7501000
2015-11-11,4.21,4.28,4.14,4.19,6478000
2015-11-12,4.14,4.25,4.11,4.2,7037000
2015-11-13,4.11,4.19,4.08,4.1,8979100
2015-11-16,4.05,4.12,4.03,4.07,4532500
2015-11-17,4.1,4.22,4.1,4.19,6448200
2015-11-18,4.14,4.58,4.14,4.5,15450300
2015-11-19,4.54,4.61,4.48,4.61,9699600
2015-11-20,4.56,4.62,4.45,4.61,9063000
2015-11-23,4.66,4.67,4.53,4.62,4042500
2015-11-24,4.63,4.63,4.5,4.56,3230400
2015-11-25,4.56,4.62,4.47,4.53,4536000
2015-11-26,4.57,4.57,4.4,4.41,1674700
2015-11-27,4.39,4.43,4.27,4.29,6148300
2015-11-30,4.27,4.42,4.24,4.35,17001100
2015-12-01,4.44,4.55,4.39,4.53,14281300
2015-12-02,4.57,4.81,4.51,4.76,12615800
2015-12-03,4.64,4.8,4.64,4.72,4599100
2015-12-04,4.69,4.69,4.58,4.69,4308500
2015-12-07,4.71,5.44,4.71,5.11,1592899328
2015-12-08,5.22,5.22,4.77,4.91,30573500
2015-12-09,4.85,5.02,4.75,4.94,18697100
2015-12-10,5.01,5.28,4.96,5.03,683599488
2015-12-11,5.08,5.08,4.8,4.87,14619000
2015-12-14,4.73,4.96,4.65,4.89,45590000
2015-12-15,4.9,4.98,4.82,4.86,8598900
2015-12-16,4.83,4.98,4.79,4.97,11775500
2015-12-17,5.0,5.03,4.91,4.95,14670900
2015-12-18,4.94,5.18,4.83,5.1,28055600
2015-12-21,5.0,5.3,5.0,5.11,15740000
2015-12-22,5.09,5.13,4.94,4.97,11477800
2015-12-23,5.0,5.12,5.0,5.09,7195700
2015-12-24,5.12,5.17,5.08,5.08,5774100
2015-12-28,5.11,5.16,5.05,5.1,9472300
2015-12-29,5.05,5.16,5.04,5.05,8033100
2015-12-30,5.07,5.09,4.92,4.93,10090500
2015-12-31,4.97,5.08,4.94,4.97,4099000
2016-01-04,4.93,4.93,4.6,4.66,21601400
2016-01-05,4.73,4.77,4.64,4.73,11017700
2016-01-06,4.82,4.82,4.64,4.71,9389000
2016-01-07,4.7,4.7,4.31,4.35,18048300
2016-01-08,4.48,4.48,4.26,4.37,14528300
2016-01-11,4.35,4.35,3.97,4.03,30546300
2016-01-12,4.12,4.18,4.01,4.03,14554000
2016-01-13,4.06,4.13,4.02,4.05,6961900
2016-01-14,4.04,4.17,3.95,4.15,18604600
2016-01-15,4.16,4.17,3.97,3.99,10050700
2016-01-18,3.94,3.96,3.85,3.9,9080800
2016-01-19,3.87,4.08,3.87,4.04,17082700
2016-01-20,3.98,4.05,3.85,3.86,9295900
2016-01-21,3.83,3.95,3.65,3.66,11583000
2016-01-22,3.75,3.91,3.7,3.82,12718400
2016-01-25,3.94,3.94,3.71,3.82,7032400
2016-01-26,3.77,3.78,3.6,3.62,11715200
2016-01-27,3.7,3.74,3.63,3.71,6010500
2016-01-28,3.66,3.73,3.63,3.72,4653000
2016-01-29,3.74,3.91,3.73,3.9,8714600
2016-02-01,3.89,3.94,3.79,3.85,6126500
2016-02-02,3.82,3.87,3.72,3.77,7926500
2016-02-03,3.68,3.82,3.68,3.75,4804500
2016-02-04,3.81,3.85,3.73,3.78,3016900
2016-02-05,3.82,3.93,3.82,3.91,9579500
2016-02-11,3.89,3.89,3.71,3.8,5553700
2016-02-12,3.75,3.8,3.6,3.61,5454900
2016-02-15,3.7,3.79,3.66,3.74,3636500
2016-02-16,3.8,3.88,3.73,3.84,5639800
2016-02-17,3.88,3.93,3.76,3.8,10206900
2016-02-18,3.88,3.92,3.82,3.89,5694000
2016-02-19,3.85,3.9,3.81,3.86,15189100
2016-02-22,3.9,3.98,3.84,3.86,9533500
2016-02-23,3.88,3.88,3.7,3.7,11281000
2016-02-24,3.67,3.67,3.58,3.62,15457100
2016-02-25,3.6,3.6,3.45,3.45,9111500
2016-02-26,3.52,3.54,3.4,3.46,16536900
2016-02-29,3.46,3.5,3.36,3.4,11599300
2016-03-01,3.41,3.5,3.38,3.39,20266900
2016-03-02,3.46,3.92,3.46,3.91,34654300
2016-03-03,3.91,3.92,3.75,3.91,15873500
2016-03-04,3.91,3.94,3.85,3.91,11810100
2016-03-07,3.91,4.05,3.91,4.01,8730300
2016-03-08,4.02,4.02,3.85,3.94,9355300
2016-03-09,3.94,3.94,3.76,3.79,10322600
2016-03-10,3.83,3.83,3.63,3.67,8858300
2016-03-11,3.71,3.76,3.58,3.75,26719300
2016-03-14,3.81,3.96,3.81,3.94,34945500
2016-03-15,3.97,3.97,3.79,3.85,11264000
2016-03-16,3.85,3.87,3.75,3.86,8233100
2016-03-17,3.92,3.97,3.83,3.9,11376500
2016-03-18,3.9,4.64,3.9,4.2,34040600
2016-03-21,4.2,4.34,4.11,4.19,22451900
2016-03-22,3.96,4.04,3.83,4.01,18095600
2016-03-23,3.95,3.99,3.77,3.8,25838000
2016-03-24,3.78,3.79,3.61,3.65,18876900
2016-03-29,3.68,3.68,3.45,3.57,21890600
2016-03-30,3.61,3.62,3.52,3.62,11413800
2016-03-31,3.62,3.7,3.57,3.67,15674300
2016-04-01,3.67,3.7,3.54,3.62,11725500
2016-04-05,3.61,3.67,3.52,3.56,12052200
2016-04-06,3.56,3.58,3.51,3.55,8333900
2016-04-07,3.56,3.58,3.5,3.52,5269000
2016-04-08,3.52,3.63,3.47,3.63,7578200
2016-04-11,3.59,3.72,3.57,3.67,7968500
2016-04-12,3.74,3.8,3.7,3.79,13741100
2016-04-13,3.8,3.86,3.78,3.8,9269400
2016-04-14,3.88,3.93,3.78,3.79,9780500
2016-04-15,3.82,3.83,3.73,3.77,5706900
2016-04-18,3.74,3.76,3.71,3.73,4398200
2016-04-19,3.8,3.8,3.66,3.7,8970900
2016-04-20,3.7,3.73,3.6,3.65,8871100
2016-04-21,3.69,3.73,3.65,3.71,4622400
2016-04-22,3.69,3.72,3.63,3.7,5846000
2016-04-25,3.71,3.74,3.67,3.7,3316000
2016-04-26,3.73,3.73,3.55,3.61,7262000
2016-04-27,3.61,3.61,3.55,3.58,7071700
2016-04-28,3.62,3.64,3.52,3.57,5797800
2016-04-29,3.55,3.57,3.47,3.5,8367100
2016-05-03,3.53,3.54,3.47,3.5,7663000
2016-05-04,3.5,3.54,3.48,3.5,4304000
2016-05-05,3.51,3.57,3.49,3.52,4850200
2016-05-06,3.52,3.57,3.45,3.47,4291000
2016-05-09,3.5,3.52,3.32,3.33,12143300
2016-05-10,3.33,3.34,3.21,3.25,12637000
2016-05-11,3.32,3.32,3.24,3.25,7301600
2016-05-12,3.21,3.23,3.15,3.17,10003500
2016-05-13,3.16,3.16,3.07,3.09,11861000
2016-05-16,3.04,3.05,2.98,3.04,11467100
2016-05-17,3.07,3.07,2.99,3.03,9042400
2016-05-18,3.0,3.09,2.99,3.09,11872800
2016-05-19,3.09,3.1,3.02,3.09,8902200
2016-05-20,3.08,3.15,3.07,3.11,5405900
2016-05-23,3.13,3.13,3.06,3.07,4323500
2016-05-24,3.07,3.08,3.01,3.01,7160500
2016-05-25,3.06,3.08,3.02,3.05,7061300
2016-05-26,3.05,3.09,3.03,3.08,3665100
2016-05-27,3.1,3.16,3.08,3.15,8133600
2016-05-30,3.1,3.2,3.1,3.15,3120800
2016-05-31,3.12,3.25,3.12,3.15,43053700
2016-06-01,3.14,3.25,3.14,3.22,12672900
2016-06-02,3.24,3.27,3.2,3.26,5353600
2016-06-03,3.27,3.29,3.22,3.25,4609000
2016-06-06,3.23,3.32,3.23,3.28,3512600
2016-06-07,3.3,3.38,3.27,3.36,7304600
2016-06-08,3.38,3.4,3.31,3.37,5215800
2016-06-10,3.38,3.38,3.27,3.28,3512100
2016-06-13,3.22,3.28,3.18,3.21,3584600
2016-06-14,3.2,3.22,3.15,3.16,9625000
2016-06-15,3.14,3.21,3.14,3.18,3486500
2016-06-16,3.18,3.18,3.08,3.11,5516700
2016-06-17,3.11,3.17,3.05,3.07,11083400
2016-06-20,3.07,3.14,3.07,3.14,3259500
2016-06-21,3.16,3.21,3.12,3.19,4725300
2016-06-22,3.18,3.28,3.16,3.26,3607100
2016-06-23,3.3,3.3,3.22,3.28,1780100
2016-06-24,3.25,3.26,3.11,3.22,4884400
2016-06-27,3.16,3.28,3.16,3.26,3757400
2016-06-28,3.21,3.3,3.21,3.28,5095000
2016-06-29,3.31,3.31,3.23,3.27,6884000
2016-06-30,3.3,3.36,3.24,3.35,7905700
2016-07-04,3.34,3.44,3.29,3.4,8235000
2016-07-05,3.37,3.45,3.3,3.3,4693100
2016-07-06,3.25,3.29,3.23,3.23,2863000
2016-07-07,3.27,3.29,3.2,3.23,5587500
2016-07-08,3.23,3.26,3.21,3.24,2132700
2016-07-11,3.3,3.35,3.24,3.35,3170800
2016-07-12,3.36,3.37,3.31,3.35,4218100
2016-07-13,3.38,3.4,3.34,3.39,3657200
2016-07-14,3.37,3.4,3.33,3.39,3807500
2016-07-15,3.39,3.49,3.37,3.49,13725500
2016-07-18,3.46,3.49,3.41,3.46,3569000
2016-07-19,3.45,3.46,3.4,3.43,3838100
2016-07-20,3.43,3.5,3.42,3.48,6084500
2016-07-21,3.49,3.49,3.43,3.44,7691000
2016-07-22,3.45,3.47,3.31,3.35,10938500
2016-07-25,3.39,3.39,3.3,3.32,6633300
2016-07-26,3.31,3.35,3.29,3.3,9111800
2016-07-27,3.31,3.33,3.26,3.3,6592500
2016-07-28,3.33,3.33,3.27,3.28,4147500
2016-07-29,3.3,3.31,3.24,3.28,4168300
2016-08-01,3.42,3.42,3.32,3.32,8170500
2016-08-03,3.28,3.31,3.22,3.23,14791800
2016-08-04,3.29,3.29,3.22,3.26,7562100
2016-08-05,3.26,3.4,3.26,3.38,11737900
2016-08-08,3.42,3.5,3.4,3.5,12192000
2016-08-09,3.49,3.59,3.49,3.56,16006000
2016-08-10,3.58,3.64,3.48,3.53,16072000
2016-08-11,3.53,3.56,3.51,3.56,5783600
2016-08-12,3.6,3.62,3.54,3.62,11349100
2016-08-15,3.63,3.69,3.63,3.68,8040100
2016-08-16,3.7,3.7,3.63,3.65,14675200
2016-08-17,3.65,3.65,3.56,3.58,12708700
2016-08-18,3.58,3.75,3.58,3.7,16577700
2016-08-19,3.67,3.72,3.63,3.68,9518300
2016-08-22,3.68,3.7,3.61,3.68,7242800
2016-08-23,3.68,3.69,3.63,3.65,5860700
2016-08-24,3.65,3.66,3.57,3.58,9260800
2016-08-25,3.56,3.6,3.55,3.6,3228700
2016-08-26,3.57,3.62,3.54,3.6,4531900
2016-08-29,3.6,3.61,3.56,3.6,5553300
2016-08-30,3.62,3.64,3.58,3.64,5861000
2016-08-31,3.61,3.69,3.57,3.6,18921000
2016-09-01,3.5,3.55,3.47,3.5,6334300
2016-09-02,3.52,3.55,3.49,3.55,6319800
2016-09-05,3.56,3.66,3.56,3.64,9718500
2016-09-06,3.61,3.68,3.6,3.63,9263400
2016-09-07,3.67,3.7,3.63,3.67,7165700
2016-09-08,3.72,3.83,3.66,3.83,17135200
2016-09-09,3.83,4.01,3.83,3.92,18808500
2016-09-12,3.82,3.86,3.77,3.79,8414200
2016-09-13,3.85,3.88,3.73,3.77,7685900
2016-09-14,3.72,3.74,3.7,3.74,9633400
2016-09-15,3.72,3.78,3.7,3.72,8347300
2016-09-19,3.76,3.82,3.75,3.82,5988900
2016-09-20,3.83,3.84,3.78,3.84,4620200
2016-09-21,3.86,3.86,3.8,3.8,5675300
2016-09-22,3.87,3.91,3.82,3.87,7795800
2016-09-23,3.87,3.9,3.82,3.84,2499400
2016-09-26,3.83,3.84,3.72,3.75,6213500
2016-09-27,3.76,3.76,3.69,3.73,6985900
2016-09-28,3.77,3.77,3.63,3.65,11282900
2016-09-29,3.69,3.72,3.67,3.7,3232500
2016-09-30,3.66,3.68,3.57,3.57,8068200
2016-10-03,3.61,3.62,3.57,3.58,7493900
2016-10-04,3.57,3.61,3.56,3.58,7341900
2016-10-05,3.57,3.6,3.55,3.58,6503600
2016-10-06,3.57,3.61,3.57,3.58,9857400
2016-10-07,3.6,3.6,3.51,3.54,8190700
2016-10-11,3.57,3.6,3.41,3.47,20234000
2016-10-12,3.44,3.45,3.38,3.44,19843000
2016-10-13,3.44,3.46,3.39,3.39,10828600
2016-10-14,3.45,3.45,3.39,3.41,7606000
2016-10-17,3.45,3.45,3.38,3.38,3589600
2016-10-18,3.42,3.45,3.38,3.43,7481600
2016-10-19,3.4,3.46,3.4,3.4,8557600
2016-10-20,3.41,3.45,3.37,3.37,10062100
2016-10-24,3.35,3.41,3.27,3.41,8994030
2016-10-25,3.42,3.42,3.35,3.38,3391780
2016-10-26,3.37,3.42,3.35,3.36,3762570
2016-10-27,3.35,3.36,3.33,3.33,2509500
2016-10-28,3.33,3.36,3.28,3.29,5965560
2016-10-31,3.31,3.33,3.23,3.23,8163760
2016-11-01,3.28,3.34,3.25,3.29,4740210
2016-11-02,3.34,3.34,3.25,3.27,3649530
2016-11-03,3.35,3.35,3.25,3.25,2327590
2016-11-04,3.28,3.29,3.21,3.26,1632240
2016-11-07,3.21,3.3,3.21,3.27,3953510
2016-11-08,3.33,3.33,3.26,3.31,3615910
2016-11-09,3.32,3.32,3.21,3.26,3955910
2016-11-10,3.32,3.34,3.26,3.31,5010520
2016-11-11,3.31,3.33,3.25,3.25,6433500
2016-11-14,3.23,3.28,3.2,3.2,8450500
2016-11-15,3.22,3.24,3.2,3.2,3677030
2016-11-16,3.22,3.26,3.2,3.25,4111500
2016-11-17,3.3,3.3,3.21,3.26,6545000
2016-11-18,3.25,3.25,3.19,3.2,10856260
2016-11-21,3.21,3.24,3.17,3.17,4944080
2016-11-22,3.2,3.26,3.2,3.25,4048510
2016-11-23,3.25,3.27,3.23,3.26,4248220
2016-11-24,3.22,3.38,3.22,3.35,12770080
2016-11-25,3.35,3.41,3.33,3.39,4540390
2016-11-28,3.39,3.45,3.37,3.4,5320090
2016-11-29,3.37,3.44,3.36,3.36,4357510
2016-11-30,3.42,3.42,3.3,3.31,16474640
2016-12-01,3.4,3.48,3.34,3.47,10612000
2016-12-02,3.47,3.51,3.43,3.47,9244470
2016-12-05,3.5,3.5,3.37,3.4,6515170
2016-12-06,3.41,3.45,3.39,3.41,3638180
2016-12-07,3.41,3.53,3.4,3.42,5279000
2016-12-08,3.46,3.56,3.43,3.52,15887630
2016-12-09,3.54,3.54,3.47,3.51,7750970
2016-12-12,3.43,3.5,3.42,3.46,4230080
2016-12-13,3.46,3.48,3.39,3.46,5566310
2016-12-14,3.47,3.5,3.42,3.43,4153190
2016-12-15,3.44,3.47,3.38,3.46,8324790
2016-12-16,3.46,3.47,3.41,3.47,9927300
2016-12-19,3.41,3.47,3.38,3.39,4300240
2016-12-20,3.4,3.4,3.33,3.36,5460420
2016-12-21,3.36,3.37,3.32,3.32,4716500
2016-12-22,3.32,3.35,3.28,3.31,5178000
2016-12-23,3.31,3.35,3.25,3.31,4124920
2016-12-28,3.29,3.38,3.29,3.36,5680660
2016-12-29,3.32,3.42,3.31,3.36,5032950
2016-12-30,3.39,3.48,3.35,3.47,9154250
2017-01-03,3.49,3.49,3.41,3.46,3922000
2017-01-04,3.47,3.47,3.4,3.42,3892010
2017-01-05,3.42,3.48,3.42,3.48,3525300
2017-01-06,3.43,3.52,3.43,3.52,4439460
2017-01-09,3.52,3.52,3.42,3.43,4603900
2017-01-10,3.39,3.48,3.39,3.46,2968230
2017-01-11,3.45,3.5,3.4,3.42,8347850
2017-01-12,3.41,3.55,3.41,3.47,6009400
2017-01-13,3.54,3.54,3.43,3.47,8704590
2017-01-16,3.47,3.5,3.41,3.42,5832340
2017-01-17,3.41,3.45,3.39,3.41,4716200
2017-01-18,3.43,3.48,3.42,3.43,2241930
2017-01-19,3.43,3.47,3.43,3.46,2539400
2017-01-20,3.45,3.46,3.38,3.38,5258970
2017-01-23,3.41,3.42,3.38,3.38,2991010
2017-01-24,3.37,3.4,3.37,3.4,5872500
2017-01-25,3.41,3.42,3.37,3.38,1953610
2017-01-26,3.39,3.43,3.39,3.42,2702990
2017-01-27,3.42,3.42,3.36,3.36,1709490
2017-02-01,3.38,3.4,3.32,3.39,5729800
2017-02-02,3.37,3.39,3.35,3.36,3656670
2017-02-03,3.4,3.4,3.31,3.35,6976560
2017-02-06,3.35,3.37,3.33,3.36,4914500
2017-02-07,3.37,3.4,3.35,3.39,5149730
2017-02-08,3.4,3.66,3.35,3.63,34982392
2017-02-09,3.65,3.74,3.63,3.66,9871930
2017-02-10,3.71,3.73,3.65,3.69,10496110
2017-02-13,3.73,3.73,3.6,3.67,7696920
2017-02-14,3.67,3.75,3.64,3.74,7515540
2017-02-15,3.76,3.79,3.7,3.73,5879030
2017-02-16,3.68,3.78,3.68,3.76,7925250
2017-02-17,3.77,3.77,3.7,3.72,2938850
2017-02-20,3.74,3.74,3.7,3.71,3016900
2017-02-21,3.73,3.77,3.67,3.69,3710900
2017-02-22,3.69,3.93,3.69,3.92,27448400
2017-02-23,3.93,4.0,3.89,3.9,10705700
2017-02-24,3.93,3.94,3.8,3.81,10070800
2017-02-27,3.81,3.83,3.74,3.74,6382900
2017-02-28,3.72,3.89,3.72,3.86,9511900
2017-03-01,3.88,3.91,3.8,3.9,6146400
2017-03-02,3.92,3.93,3.82,3.83,6127600
2017-03-03,3.79,3.82,3.73,3.73,8764800
2017-03-06,3.76,3.82,3.75,3.77,4460800
2017-03-07,3.8,4.02,3.78,4.0,18605800
2017-03-08,4.0,4.26,3.98,4.22,33919000
2017-03-09,4.25,4.25,4.05,4.08,12662600
2017-03-10,4.12,4.14,4.06,4.07,5299100
2017-03-13,4.06,4.32,4.06,4.28,17830000
2017-03-14,4.27,4.35,4.21,4.26,9510800
2017-03-15,4.2,4.32,4.17,4.28,9419100
2017-03-16,4.33,4.34,4.26,4.33,8818400
2017-03-17,4.32,4.36,4.08,4.08,24079600
2017-03-20,4.03,4.08,3.94,4.03,12135100
2017-03-21,4.06,4.24,4.06,4.2,22650200
2017-03-22,4.12,4.21,4.06,4.13,9130600
2017-03-23,4.16,4.27,4.11,4.21,9789800
2017-03-24,4.24,4.25,4.13,4.15,5184900
2017-03-27,4.12,4.18,3.93,3.96,10103500
2017-03-28,3.96,4.03,3.96,4.0,6132900
2017-03-29,4.03,4.04,3.85,3.88,13992100
2017-03-30,3.88,3.9,3.72,3.75,20283800
2017-03-31,3.71,3.71,3.58,3.65,28186600
2017-04-03,3.7,3.74,3.66,3.69,11752300
2017-04-05,3.73,3.78,3.67,3.75,17751300
2017-04-06,3.8,3.93,3.77,3.83,26015100
2017-04-07,3.85,3.92,3.81,3.83,15414781
2017-04-10,3.87,3.91,3.84,3.87,9618892
2017-04-11,3.84,3.89,3.8,3.82,10405358
2017-04-12,3.8,3.87,3.79,3.87,10315890
2017-04-13,3.85,4.07,3.85,4.0,16188118
2017-04-18,4.0,4.0,3.85,3.9,9330389
2017-04-19,3.9,3.94,3.83,3.9,7838201
2017-04-20,3.89,3.96,3.87,3.91,5426160
2017-04-21,3.95,3.96,3.87,3.9,8351833
2017-04-24,3.93,3.93,3.85,3.88,7749653
2017-04-25,3.88,3.93,3.84,3.9,17747482
2017-04-26,3.93,3.93,3.86,3.89,5177510
2017-04-27,3.9,3.9,3.78,3.82,14216606
2017-04-28,3.84,3.85,3.77,3.8,7345500
2017-05-02,3.82,3.84,3.77,3.82,8037500
2017-05-04,3.77,3.79,3.61,3.62,20059328
2017-05-05,3.61,3.64,3.57,3.59,8220000
2017-05-08,3.6,3.62,3.52,3.56,7841831
2017-05-09,3.58,3.64,3.53,3.64,9495452
2017-05-10,3.66,3.66,3.6,3.62,6403011
2017-05-11,3.65,3.68,3.6,3.65,10203716
2017-05-12,3.63,3.7,3.63,3.69,8553280
2017-05-15,3.69,3.71,3.65,3.69,8258700
2017-05-16,3.68,3.75,3.67,3.75,7261968
2017-05-17,3.74,3.75,3.71,3.74,4823700
2017-05-18,3.7,3.73,3.67,3.69,4440500
2017-05-19,3.73,3.79,3.7,3.73,10336531
2017-05-22,3.67,3.72,3.62,3.64,6751619
2017-05-23,3.64,3.69,3.6,3.64,7556393
2017-05-24,3.66,3.81,3.62,3.78,17307528
2017-05-25,3.82,3.91,3.78,3.85,8062094
2017-05-26,3.87,3.87,3.76,3.81,4580015
2017-05-29,3.79,3.95,3.79,3.9,5335111
2017-05-31,3.9,3.95,3.86,3.93,12291003
2017-06-01,3.95,3.95,3.85,3.87,6855785
2017-06-02,3.9,3.92,3.87,3.89,4195841
2017-06-05,3.91,3.92,3.86,3.88,4118888
2017-06-06,3.88,4.08,3.88,3.96,18464008
2017-06-07,3.98,4.05,3.93,3.97,11893299
2017-06-08,3.93,3.99,3.92,3.92,4539579
2017-06-09,3.95,3.95,3.72,3.76,15173373
2017-06-12,3.76,3.82,3.69,3.7,13320500
2017-06-13,3.77,3.8,3.7,3.71,13694808
2017-06-14,3.7,3.78,3.66,3.73,9416610
2017-06-15,3.69,3.71,3.64,3.65,9266899
2017-06-16,3.65,3.69,3.6,3.65,13372648
2017-06-19,3.65,3.72,3.59,3.71,5631463
2017-06-20,3.73,3.77,3.71,3.74,8989173
2017-06-21,3.75,3.82,3.7,3.75,5844971
2017-06-22,3.75,3.81,3.72,3.75,5876708
2017-06-23,3.73,3.77,3.73,3.73,5575383
2017-06-26,3.73,3.87,3.73,3.85,9900100
2017-06-27,3.88,3.93,3.81,3.85,3846011
2017-06-28,3.83,3.83,3.75,3.77,3860352
2017-06-29,3.78,3.83,3.77,3.82,3957354
2017-06-30,3.8,3.84,3.78,3.82,5672337
2017-07-03,3.83,4.02,3.82,3.96,14252947
2017-07-04,3.93,4.06,3.87,3.95,11470531
2017-07-05,3.94,4.01,3.88,3.98,10881285
2017-07-06,4.02,4.02,3.93,3.97,6004883
2017-07-07,3.98,3.99,3.9,3.92,5226174
2017-07-10,3.92,3.95,3.89,3.9,6157448
2017-07-11,3.9,3.96,3.9,3.92,6149859
2017-07-12,3.92,4.0,3.91,3.92,8581043
2017-07-13,3.92,4.0,3.88,3.9,12545197
2017-07-14,3.92,3.96,3.88,3.94,23882532
2017-07-17,3.99,4.04,3.93,3.99,13803683
2017-07-18,3.99,4.03,3.88,3.94,13522076
2017-07-19,3.98,4.04,3.94,4.02,13391389
2017-07-20,4.05,4.27,4.04,4.24,25119984
2017-07-21,4.28,4.3,4.16,4.18,12940263
2017-07-24,4.16,4.24,4.16,4.17,8013837
2017-07-25,4.15,4.17,4.1,4.15,6991433
2017-07-26,4.18,4.23,4.16,4.16,6829683
2017-07-27,4.22,4.49,4.16,4.47,22999608
2017-07-28,4.47,4.48,4.32,4.4,12184702
2017-07-31,4.4,4.5,4.35,4.37,11814925
2017-08-01,4.39,4.4,4.25,4.27,8866004
2017-08-02,4.34,4.34,4.15,4.19,10531393
2017-08-03,4.16,4.24,4.16,4.17,6582309
2017-08-04,4.18,4.25,4.12,4.2,7533105
2017-08-07,4.2,4.27,4.14,4.23,9398380
2017-08-08,4.23,4.33,4.15,4.3,15308976
2017-08-09,4.3,4.35,4.21,4.29,9753305
2017-08-10,4.27,4.29,4.15,4.2,8650490
2017-08-11,4.12,4.13,4.02,4.02,11176679
2017-08-14,4.04,4.11,4.04,4.08,4414367
2017-08-15,4.17,4.18,4.09,4.1,13982412
2017-08-16,4.16,4.16,4.07,4.1,5226120
2017-08-17,4.17,4.17,3.99,4.0,9610629
2017-08-18,3.96,3.99,3.9,3.96,9628812
2017-08-21,3.96,4.04,3.96,3.99,4547262
2017-08-22,4.05,4.1,4.01,4.06,9665659
2017-08-24,4.26,4.7,4.25,4.7,63954080
2017-08-25,4.79,4.86,4.66,4.84,30111140
2017-08-28,4.86,5.13,4.86,5.1,31939012
2017-08-29,5.09,5.09,4.96,5.0,21021474
2017-08-30,5.09,5.38,5.01,5.3,23964652
2017-08-31,5.35,5.4,5.21,5.4,19576946
2017-09-01,5.38,5.38,5.16,5.16,16221860
2017-09-04,5.1,5.26,5.05,5.21,13222944
2017-09-05,5.15,5.15,5.0,5.12,8871089
2017-09-06,5.13,5.21,5.03,5.11,11771750
2017-09-07,5.15,5.35,5.14,5.26,25356904
2017-09-08,5.33,5.38,5.22,5.22,18735568
2017-09-11,5.2,5.42,5.18,5.42,26147776
2017-09-12,5.35,5.4,5.24,5.34,15634282
2017-09-13,5.3,5.32,5.18,5.18,16076337
2017-09-14,5.18,5.29,5.16,5.22,24821332
2017-09-15,5.21,5.4,5.08,5.33,45363176
2017-09-18,5.38,5.88,5.35,5.77,73659608
2017-09-19,5.79,5.86,5.6,5.73,37200092
2017-09-20,5.7,5.76,5.61,5.7,22912980
2017-09-21,5.73,5.8,5.65,5.73,19559836
2017-09-22,5.67,5.67,5.33,5.41,33113822
2017-09-25,5.36,5.36,4.91,4.95,24969460
2017-09-26,4.89,5.14,4.87,4.96,22716240
2017-09-27,5.0,5.16,5.0,5.11,26590840
2017-09-28,5.15,5.15,5.02,5.11,18335980
2017-09-29,5.14,5.24,5.07,5.21,23632540
2017-10-03,5.21,5.42,5.2,5.26,13336170
2017-10-04,5.28,5.39,5.25,5.35,11590777
2017-10-06,5.37,5.48,5.37,5.47,13906864
2017-10-09,5.46,5.46,5.23,5.27,12338680
2017-10-10,5.27,5.37,5.18,5.22,15765607
2017-10-11,5.28,5.32,5.16,5.19,19551288
2017-10-12,5.24,5.3,5.15,5.29,9555681
2017-10-13,5.3,5.4,5.23,5.36,9159514
2017-10-16,5.34,5.35,5.2,5.23,8064612
2017-10-17,5.29,5.29,5.2,5.23,7518107
2017-10-18,5.23,5.31,5.19,5.25,9942628
2017-10-19,5.3,5.32,5.09,5.15,8033642
2017-10-20,5.1,5.25,5.1,5.21,7760310
2017-10-23,5.27,5.27,5.18,5.18,4201552
2017-10-24,5.2,5.36,5.17,5.26,13215197
2017-10-25,5.3,5.46,5.23,5.44,12804575
2017-10-26,5.3,5.45,5.3,5.36,12940722
2017-10-27,5.42,5.42,5.1,5.14,13504917
2017-10-30,5.19,5.25,5.01,5.14,4904529
2017-10-31,5.1,5.16,5.06,5.09,4816526
2017-11-01,5.13,5.3,5.13,5.22,5933798
2017-11-02,5.22,5.22,5.08,5.13,5079021
2017-11-03,5.16,5.2,5.11,5.15,5468704
2017-11-06,5.17,5.17,4.96,5.02,11485520
2017-11-07,5.0,5.08,4.99,5.01,9497063
2017-11-08,5.05,5.1,4.95,4.99,7241608
2017-11-09,4.99,5.03,4.93,4.98,10897961
2017-11-10,5.04,5.04,4.91,4.95,5249290
2017-11-13,4.95,5.03,4.89,4.91,13408300
2017-11-14,4.96,5.0,4.89,4.96,7816761
2017-11-15,4.96,5.0,4.9,4.93,7142500
2017-11-16,4.98,4.98,4.89,4.9,5476068
2017-11-17,4.9,4.95,4.81,4.85,9854226
2017-11-20,4.89,4.89,4.67,4.75,16883920
2017-11-21,4.77,4.79,4.67,4.79,9633607
2017-11-22,4.85,5.07,4.84,5.0,10873427
2017-11-23,4.99,5.02,4.88,4.91,5176514
2017-11-24,4.91,4.91,4.78,4.85,2754611
2017-11-27,4.86,4.89,4.74,4.8,6852270
2017-11-28,4.79,4.8,4.73,4.8,5697051
2017-11-29,5.05,5.06,4.91,5.03,16619034
2017-11-30,5.11,5.11,4.86,4.89,15581099
2017-12-01,4.97,5.12,4.9,5.05,13901286
2017-12-04,5.05,5.06,4.98,5.0,5105630
2017-12-05,4.98,5.03,4.95,4.99,4107698
2017-12-06,5.03,5.04,4.82,4.85,11131868
2017-12-07,4.92,4.92,4.7,4.78,8124972
2017-12-08,4.86,5.11,4.71,5.07,17800330
2017-12-11,5.02,5.07,4.94,4.98,7546774
2017-12-12,4.93,5.27,4.93,5.27,30796028
2017-12-13,5.3,5.38,5.18,5.26,13091764
2017-12-14,5.23,5.44,5.21,5.44,29506686
2017-12-15,5.38,5.46,5.24,5.25,26165652
2017-12-18,5.19,5.35,5.19,5.3,10301228
2017-12-19,5.28,5.31,5.18,5.24,9994971
2017-12-20,5.3,5.34,5.21,5.23,5406012
2017-12-21,5.15,5.26,5.06,5.2,15449298
2017-12-22,5.25,5.32,5.16,5.25,13492609
2017-12-27,5.27,5.56,5.25,5.46,18179186
2017-12-28,5.38,5.54,5.29,5.48,8817862
2017-12-29,5.46,5.5,5.37,5.39,5903019
2018-01-02,5.42,5.74,5.42,5.68,26541972
2018-01-03,5.69,5.89,5.69,5.87,23677598
2018-01-04,5.8,5.94,5.8,5.93,18314752
2018-01-05,5.97,6.43,5.95,6.37,38101132
2018-01-08,6.48,6.66,6.37,6.6,40130544
2018-01-09,6.6,6.65,6.22,6.24,27998424
2018-01-10,6.21,6.48,6.21,6.34,15337225
2018-01-11,6.26,6.3,5.94,6.19,10976746
2018-01-12,6.25,6.43,6.25,6.3,17502900
2018-01-15,6.38,6.39,6.09,6.13,14189696
2018-01-16,6.11,6.39,6.11,6.29,22949044
2018-01-17,6.23,6.3,6.11,6.2,17505666
2018-01-18,6.31,6.31,6.18,6.2,10688086
2018-01-19,6.19,6.44,6.13,6.43,24110884
2018-01-22,6.41,6.57,6.29,6.49,12295813
2018-01-23,6.56,6.59,6.48,6.56,19706364
2018-01-24,6.54,6.64,6.49,6.53,18905644
2018-01-25,6.45,6.6,6.27,6.51,19275788
2018-01-26,6.6,6.73,6.44,6.65,22549056
2018-01-29,6.73,6.77,6.54,6.61,14760998
2018-01-30,6.57,6.69,6.45,6.55,12454882
2018-01-31,6.45,6.55,6.32,6.47,9958079
2018-02-01,6.47,6.68,6.37,6.38,19187706
2018-02-02,6.47,6.47,6.2,6.38,6919074
2018-02-05,6.15,6.3,6.11,6.23,7137957
2018-02-06,6.1,6.1,5.74,5.77,14915412
2018-02-07,5.95,6.03,5.53,5.63,17048550
2018-02-08,5.69,5.79,5.48,5.62,15267042
2018-02-09,5.49,5.49,5.26,5.42,19167178
2018-02-12,5.41,5.43,5.31,5.35,5493951
2018-02-13,5.45,5.68,5.43,5.46,4583247
2018-02-14,5.58,5.59,5.44,5.57,5050982
2018-02-15,5.57,5.76,5.57,5.64,8312821
2018-02-20,5.75,5.75,5.48,5.65,5705746
2018-02-21,5.59,5.71,5.55,5.69,5667896
2018-02-22,5.65,5.7,5.55,5.57,9231665
2018-02-23,5.64,5.75,5.58,5.65,8788226
2018-02-26,5.77,5.82,5.62,5.64,13399721
2018-02-27,5.71,5.82,5.55,5.58,15128040
2018-02-28,5.61,5.61,5.42,5.58,17225934
2018-03-01,5.6,5.65,5.5,5.62,12217442
2018-03-02,5.5,5.56,5.4,5.53,7723935
2018-03-05,5.58,5.73,5.52,5.57,7728545
2018-03-06,5.68,5.69,5.5,5.62,6080825
2018-03-07,5.68,5.87,5.62,5.73,10531874
2018-03-08,5.71,5.77,5.66,5.72,7480634
2018-03-09,5.75,5.78,5.54,5.59,10428868
2018-03-12,5.67,5.75,5.59,5.63,7628080
2018-03-13,5.68,5.75,5.57,5.6,8954213
2018-03-14,5.57,5.75,5.57,5.74,9493102
2018-03-15,5.75,5.91,5.67,5.87,10132156
2018-03-16,5.9,6.13,5.78,6.13,34552492
2018-03-19,6.21,6.21,5.94,5.95,10751698
2018-03-20,5.9,5.95,5.77,5.91,7670701
2018-03-21,5.94,6.18,5.87,5.94,15424672
2018-03-22,5.98,6.05,5.77,5.86,7954000
2018-03-23,5.68,5.79,5.57,5.68,11836259
2018-03-26,5.62,5.72,5.54,5.66,6475166
2018-03-27,5.65,5.78,5.63,5.7,9758069
2018-03-28,5.73,5.79,5.61,5.66,8749281
2018-03-29,5.68,5.73,5.54,5.69,12832603
2018-04-03,5.56,5.74,5.56,5.7,5671590
2018-04-04,5.69,5.75,5.64,5.66,3968901
2018-04-06,5.73,5.77,5.59,5.72,10799589
2018-04-09,5.72,5.72,5.58,5.65,8046956
2018-04-10,5.65,5.81,5.64,5.8,9813363
2018-04-11,5.9,5.91,5.73,5.8,12249646
2018-04-12,5.81,5.84,5.75,5.8,5909860
2018-04-13,5.77,5.84,5.7,5.81,5972300
2018-04-16,5.79,5.86,5.62,5.8,15424337
2018-04-17,5.74,5.76,5.62,5.71,14978146
2018-04-18,5.79,5.79,5.58,5.62,21765060
2018-04-19,5.59,5.77,5.59,5.63,15043738
2018-04-20,5.63,5.71,5.46,5.47,21336846
2018-04-23,5.46,5.55,5.36,5.43,7760111
2018-04-24,5.4,5.59,5.4,5.59,7566773
2018-04-25,5.49,5.51,5.39,5.46,15601301
2018-04-26,5.41,5.48,5.38,5.44,8611894
2018-04-27,5.49,5.53,5.4,5.52,8999934
2018-04-30,5.5,5.56,5.43,5.5,11394416
2018-05-02,5.46,5.61,5.46,5.61,9675232
2018-05-03,5.61,5.61,5.48,5.49,12154728
2018-05-04,5.49,5.56,5.45,5.49,5948479
2018-05-07,5.49,5.51,5.39,5.47,4195824
2018-05-08,5.49,5.55,5.45,5.49,5553125
2018-05-09,5.46,5.51,5.46,5.49,10547108
2018-05-10,5.56,5.68,5.48,5.65,15801509
2018-05-11,5.74,5.74,5.61,5.65,7360000
2018-05-14,5.63,5.67,5.61,5.65,9295020
2018-05-15,5.71,5.73,5.64,5.66,7725020
2018-05-16,5.62,5.75,5.62,5.72,11194376
2018-05-17,5.76,5.76,5.57,5.63,9795620
2018-05-18,5.6,5.72,5.58,5.67,11652425
2018-05-21,5.66,5.75,5.6,5.62,7324256
2018-05-23,5.48,5.5,5.27,5.28,11802552
2018-05-24,5.3,5.3,5.19,5.26,8709159
2018-05-25,5.26,5.35,5.18,5.3,14849822
2018-05-28,5.32,5.41,5.26,5.4,9966067
2018-05-29,5.44,5.44,5.34,5.35,5844823
2018-05-30,5.32,5.35,5.2,5.23,9674536
2018-05-31,5.26,5.32,5.21,5.3,18254044
2018-06-01,5.28,5.3,5.24,5.25,6843493
2018-06-04,5.28,5.36,5.28,5.31,7581939
2018-06-05,5.3,5.49,5.3,5.42,13086405
2018-06-06,5.42,5.51,5.42,5.47,6381511
2018-06-07,5.45,5.55,5.45,5.48,6886694
2018-06-08,5.45,5.51,5.37,5.4,8110531
2018-06-11,5.45,5.48,5.38,5.43,5874392
2018-06-12,5.45,5.53,5.41,5.48,10840140
2018-06-13,5.48,5.51,5.4,5.43,4743751
2018-06-14,5.43,5.46,5.38,5.39,10689000
2018-06-15,5.44,5.47,5.33,5.33,20179008
2018-06-19,5.31,5.36,5.1,5.15,10033757
2018-06-20,5.33,5.33,5.05,5.07,8967264
2018-06-21,5.07,5.17,4.98,4.99,8658555
2018-06-22,5.07,5.07,4.91,4.96,8573032
2018-06-25,5.03,5.04,4.8,4.8,12448821
2018-06-26,4.8,4.8,4.58,4.65,10313862
2018-06-27,4.62,4.66,4.45,4.47,8706982
2018-06-28,4.43,4.53,4.38,4.39,11539411
2018-06-29,4.38,4.59,4.37,4.56,8797580
2018-07-03,4.55,4.55,4.3,4.38,9934586
2018-07-04,4.33,4.41,4.25,4.29,5337694
2018-07-05,4.25,4.46,4.25,4.45,12195966
2018-07-06,4.45,4.45,4.23,4.32,7528439
2018-07-09,4.38,4.49,4.33,4.48,8561068
2018-07-10,4.48,4.53,4.44,4.47,6219771
2018-07-11,4.29,4.45,4.29,4.42,6879366
2018-07-12,4.41,4.49,4.36,4.41,6730344
2018-07-13,4.43,4.5,4.42,4.46,2153588
2018-07-16,4.45,4.49,4.35,4.42,3727000
2018-07-17,4.42,4.43,4.34,4.36,5335419
2018-07-18,4.37,4.42,4.36,4.39,2881317
2018-07-19,4.36,4.4,4.33,4.33,3368967
2018-07-20,4.37,4.37,4.19,4.33,8137144
2018-07-23,4.26,4.47,4.24,4.45,5676327
2018-07-24,4.49,4.57,4.38,4.47,12922425
2018-07-25,4.54,4.56,4.49,4.53,6415500
2018-07-26,4.56,4.64,4.53,4.58,4269011
2018-07-27,4.63,4.63,4.49,4.55,3908000
2018-07-30,4.56,4.58,4.47,4.49,6011553
2018-07-31,4.51,4.51,4.4,4.43,7899557
2018-08-01,4.41,4.5,4.3,4.33,7600000
2018-08-02,4.31,4.39,4.27,4.29,6358500
2018-08-03,4.26,4.33,4.16,4.2,5094521
2018-08-06,4.25,4.3,4.17,4.17,7651610
2018-08-07,4.18,4.3,4.13,4.29,4886091
2018-08-08,4.34,4.34,4.17,4.23,6452500
2018-08-09,4.31,4.35,4.25,4.3,3901942
2018-08-10,4.36,4.48,4.34,4.4,5843589
2018-08-13,4.32,4.37,4.2,4.21,3872272
2018-08-14,4.2,4.24,4.1,4.19,3805344
2018-08-15,4.16,4.17,3.96,3.96,8896519
2018-08-16,3.96,4.08,3.91,4.05,5289505
2018-08-17,4.15,4.17,3.99,3.99,6164877
2018-08-20,3.97,4.12,3.97,4.05,2873000
2018-08-21,4.05,4.27,4.01,4.27,13582407
2018-08-22,4.21,4.27,4.17,4.2,7819021
2018-08-23,4.09,4.32,3.89,3.95,38961208
2018-08-24,3.93,4.02,3.89,4.0,15045712
2018-08-27,4.03,4.03,3.95,3.98,18118020
2018-08-28,3.99,4.03,3.92,3.94,14282348
2018-08-29,3.95,4.02,3.92,3.98,17912396
2018-08-30,3.95,3.99,3.95,3.97,8121212
2018-08-31,3.95,4.01,3.93,3.99,13671411
2018-09-03,3.99,4.01,3.9,3.93,8855455
2018-09-04,3.87,3.88,3.79,3.84,6696810
2018-09-05,3.82,3.83,3.7,3.72,16406413
2018-09-06,3.77,3.77,3.65,3.66,11360623
2018-09-07,3.69,3.73,3.62,3.68,6326212
2018-09-10,3.71,3.71,3.56,3.6,7646879
2018-09-11,3.56,3.59,3.47,3.48,8231008
2018-09-12,3.47,3.52,3.45,3.52,6475303
2018-09-13,3.53,3.62,3.5,3.61,8919831
2018-09-14,3.68,3.68,3.54,3.6,7297555
2018-09-17,3.54,3.64,3.54,3.58,2056000
2018-09-18,3.54,3.6,3.47,3.57,7122500
2018-09-19,3.54,3.7,3.54,3.67,7553465
2018-09-20,3.66,3.71,3.61,3.67,10014744
2018-09-21,3.69,3.88,3.69,3.88,14229639
2018-09-24,3.8,3.86,3.66,3.69,11118000
2018-09-26,3.64,3.67,3.58,3.58,11813476
2018-09-27,3.55,3.58,3.48,3.51,11560506
2018-09-28,3.49,3.52,3.39,3.45,21479958
2018-10-02,3.47,3.5,3.37,3.39,8533212
2018-10-03,3.38,3.43,3.38,3.41,2345839
2018-10-04,3.41,3.46,3.31,3.36,7499944
2018-10-05,3.32,3.32,3.19,3.23,13302374
2018-10-08,3.25,3.26,3.04,3.05,22879444
2018-10-09,3.07,3.13,3.03,3.08,11764625
2018-10-10,3.08,3.18,3.04,3.04,16474500
2018-10-11,2.97,2.99,2.84,2.85,30006870
2018-10-12,2.89,2.95,2.81,2.95,26917436
2018-10-15,2.94,3.0,2.85,2.85,15712364
2018-10-16,2.85,2.95,2.85,2.89,8062969
2018-10-18,2.94,2.94,2.86,2.92,11312660
2018-10-19,2.88,3.01,2.86,2.97,10970328
2018-10-22,2.97,3.13,2.95,3.05,8845186
2018-10-23,3.0,3.05,2.87,2.88,15026969
2018-10-24,2.93,3.0,2.86,2.88,12967904
2018-10-25,2.8,2.97,2.8,2.97,4408700
2018-10-26,2.99,3.06,2.92,3.01,7373080
2018-10-29,2.98,3.03,2.94,2.96,3026451
2018-10-30,2.96,3.02,2.9,3.02,5772500
2018-10-31,2.98,3.07,2.98,3.07,7932234
2018-11-01,3.08,3.28,3.08,3.27,10644888
2018-11-02,3.34,3.4,3.31,3.4,16644367
2018-11-05,3.28,3.39,3.25,3.32,9963500
2018-11-06,3.29,3.37,3.28,3.36,7811500
2018-11-07,3.3,3.43,3.29,3.38,6784000
2018-11-08,3.45,3.45,3.33,3.35,4337000
2018-11-09,3.31,3.34,3.21,3.25,5862000
2018-11-12,3.24,3.28,3.18,3.26,2585500
2018-11-13,3.17,3.29,3.1,3.29,4679142
2018-11-14,3.29,3.33,3.23,3.32,8297000
2018-11-15,3.32,3.36,3.27,3.32,5191000
2018-11-16,3.33,3.36,3.24,3.36,15139802
2018-11-19,3.36,3.44,3.28,3.43,10613500
2018-11-20,3.35,3.42,3.34,3.37,5566427
2018-11-21,3.35,3.49,3.31,3.48,13334000
2018-11-22,3.48,3.48,3.4,3.43,5360486
2018-11-23,3.45,3.45,3.35,3.39,10394865
2018-11-26,3.4,3.47,3.39,3.42,5466500
2018-11-27,3.4,3.42,3.37,3.41,4864453
2018-11-28,3.43,3.52,3.42,3.51,10576060
2018-11-29,3.53,3.56,3.43,3.46,5654134
2018-11-30,3.45,3.52,3.44,3.5,17125900
2018-12-03,3.53,3.56,3.48,3.53,8191059
2018-12-04,3.55,3.56,3.49,3.56,8924507
2018-12-05,3.48,3.56,3.47,3.56,8109000
2018-12-06,3.49,3.52,3.4,3.46,12481943
2018-12-07,3.49,3.53,3.43,3.46,4770006
2018-12-10,3.41,3.47,3.31,3.44,5822313
2018-12-11,3.44,3.47,3.37,3.4,5003271
2018-12-12,3.46,3.48,3.42,3.45,3541496
2018-12-13,3.49,3.63,3.46,3.61,13609500
2018-12-14,3.55,3.6,3.51,3.54,6312912
2018-12-17,3.57,3.57,3.47,3.51,2730474
2018-12-18,3.45,3.48,3.31,3.33,15186738
2018-12-19,3.36,3.46,3.35,3.44,6768562
2018-12-20,3.37,3.46,3.37,3.4,4321500
2018-12-21,3.4,3.4,3.31,3.4,9266000
2018-12-24,3.38,3.41,3.31,3.36,2675106
2018-12-27,3.38,3.38,3.3,3.32,4573685
2018-12-28,3.32,3.36,3.27,3.34,2591083
2018-12-31,3.38,3.45,3.34,3.45,8430500
2019-01-02,3.44,3.44,3.29,3.35,6391946
2019-01-03,3.37,3.38,3.3,3.32,3753271
2019-01-04,3.27,3.35,3.23,3.33,4786840
2019-01-07,3.4,3.4,3.32,3.36,4420738
2019-01-08,3.35,3.4,3.33,3.35,3350418
2019-01-09,3.43,3.43,3.34,3.37,5099768
2019-01-10,3.38,3.4,3.3,3.37,12161750
2019-01-11,3.39,3.41,3.33,3.37,11443433
2019-01-14,3.36,3.46,3.34,3.46,8748514
2019-01-15,3.46,3.58,3.45,3.57,10716000
2019-01-16,3.55,3.67,3.54,3.67,13099147
2019-01-17,3.69,3.7,3.55,3.58,7594500
2019-01-18,3.63,3.64,3.57,3.61,6700629
2019-01-21,3.67,3.69,3.62,3.66,2405438
2019-01-22,3.66,3.72,3.6,3.66,5437000
2019-01-23,3.63,3.68,3.59,3.61,4069278
2019-01-24,3.59,3.66,3.53,3.65,3151919
2019-01-25,3.66,3.72,3.65,3.72,4827700
2019-01-28,3.73,3.78,3.64,3.7,3220784
2019-01-29,3.62,3.68,3.62,3.68,4334074
2019-01-30,3.65,3.78,3.64,3.75,10941651
2019-01-31,3.79,3.84,3.76,3.84,11227745
2019-02-01,3.87,3.87,3.77,3.8,7052372
2019-02-04,3.85,3.86,3.78,3.83,2485639
2019-02-08,3.82,3.89,3.72,3.85,6632845
2019-02-11,3.83,3.85,3.79,3.85,4667938
2019-02-12,3.85,3.85,3.81,3.82,2593941
2019-02-13,3.88,3.88,3.81,3.86,9010114
2019-02-14,3.85,3.86,3.79,3.8,4604000
2019-02-15,3.8,3.8,3.63,3.67,10149352
2019-02-18,3.68,3.75,3.68,3.72,7360366
2019-02-19,3.72,3.77,3.7,3.71,4825000
2019-02-20,3.68,3.78,3.66,3.78,7513993
2019-02-21,3.79,3.81,3.73,3.78,4688511
2019-02-22,3.74,3.81,3.72,3.81,6028075
2019-02-25,3.84,3.88,3.81,3.84,7406405
2019-02-26,3.85,3.86,3.71,3.72,10634500
2019-02-27,3.75,3.75,3.63,3.66,9641753
2019-02-28,3.66,3.72,3.62,3.67,11740786
2019-03-01,3.67,3.8,3.63,3.79,11720427
2019-03-04,3.75,3.78,3.64,3.67,40016500
2019-03-05,3.68,3.72,3.64,3.66,12909051
2019-03-06,3.67,3.75,3.66,3.68,14504115
2019-03-07,3.67,3.7,3.6,3.61,7638844
2019-03-08,3.6,3.6,3.49,3.49,7270282
2019-03-11,3.52,3.52,3.41,3.5,7970372
2019-03-12,3.52,3.59,3.43,3.48,19742496
2019-03-13,3.45,3.46,3.34,3.42,16691244
2019-03-14,3.46,3.48,3.37,3.38,10038666
2019-03-15,3.37,3.43,3.33,3.33,19750112
2019-03-18,3.35,3.48,3.35,3.44,22248504
2019-03-19,3.47,3.58,3.45,3.55,33566448
2019-03-20,3.55,3.55,3.48,3.52,22695276
2019-03-21,3.33,3.38,3.27,3.37,53662428
2019-03-22,3.39,3.41,3.35,3.41,28603676
2019-03-25,3.32,3.35,3.29,3.31,24196596
2019-03-26,3.31,3.31,3.22,3.24,25083128
2019-03-27,3.23,3.29,3.22,3.28,18295958
2019-03-28,3.28,3.32,3.26,3.3,20176700
2019-03-29,3.31,3.44,3.3,3.44,26893232
2019-04-01,3.46,3.64,3.43,3.62,45197716
2019-04-02,3.64,3.7,3.6,3.69,42815472
2019-04-03,3.7,4.25,3.69,4.17,106329960
2019-04-04,4.11,4.16,4.05,4.09,37861260
2019-04-08,4.12,4.17,3.98,4.05,23504854
2019-04-09,4.0,4.13,4.0,4.08,26687112
2019-04-10,4.07,4.07,4.0,4.04,20135226
2019-04-11,4.04,4.04,3.91,3.95,15986501
2019-04-12,3.96,4.0,3.89,3.96,7463326
2019-04-15,3.94,4.08,3.84,3.9,14493000
2019-04-16,3.85,3.9,3.74,3.83,14015283
2019-04-17,3.78,3.83,3.75,3.78,6087000
2019-04-18,3.73,3.77,3.69,3.72,10429057
2019-04-23,3.67,3.72,3.49,3.56,17646336
2019-04-24,3.58,3.64,3.53,3.58,14054636
2019-04-25,3.56,3.59,3.51,3.52,9933313
2019-04-26,3.51,3.56,3.49,3.52,9846801
2019-04-29,3.5,3.62,3.49,3.56,5816920
2019-04-30,3.58,3.58,3.48,3.52,7298017
2019-05-02,3.49,3.62,3.49,3.55,9251437
2019-05-03,3.52,3.56,3.48,3.56,3539368
2019-05-06,3.53,3.53,3.39,3.45,7123005
2019-05-07,3.51,3.51,3.38,3.39,19709500
2019-05-08,3.34,3.42,3.32,3.36,11393089
2019-05-09,3.35,3.35,3.25,3.28,12047253
2019-05-10,3.37,3.37,3.25,3.3,13884206
2019-05-14,3.2,3.26,3.13,3.26,16719460
2019-05-15,3.26,3.31,3.21,3.26,8665617
2019-05-16,3.23,3.35,3.23,3.3,10783283
2019-05-17,3.36,3.36,3.23,3.24,8937500
2019-05-20,3.2,3.2,3.04,3.1,10758961
2019-05-21,3.15,3.15,3.05,3.11,8014500
2019-05-22,3.14,3.14,3.06,3.07,11455000
2019-05-23,3.07,3.1,3.01,3.03,7657992
2019-05-24,3.07,3.07,3.0,3.03,4946540
2019-05-27,3.03,3.06,3.0,3.02,3417366
2019-05-28,3.05,3.13,3.03,3.08,17293196
2019-05-29,3.15,3.15,3.06,3.08,5796641
2019-05-30,3.08,3.11,3.05,3.07,4424500
2019-05-31,3.07,3.15,3.07,3.13,7219672
2019-06-03,3.11,3.17,3.11,3.14,6915500
2019-06-04,3.18,3.21,3.08,3.11,4318346
2019-06-05,3.18,3.2,3.13,3.14,4074944
2019-06-06,3.13,3.19,3.12,3.13,2337640
2019-06-10,3.17,3.25,3.11,3.23,9033700
2019-06-11,3.25,3.29,3.21,3.24,8351776
2019-06-12,3.24,3.25,3.18,3.19,6045117
2019-06-13,3.17,3.24,3.12,3.21,5761500
2019-06-14,3.25,3.25,3.16,3.21,5642672
2019-06-17,3.2,3.21,3.17,3.17,2579868
2019-06-18,3.21,3.21,3.11,3.18,4305463
2019-06-19,3.22,3.27,3.19,3.21,5730947
2019-06-20,3.21,3.27,3.21,3.27,4633977
2019-06-21,3.28,3.35,3.24,3.26,7124272
2019-06-24,3.27,3.32,3.23,3.27,5168848
2019-06-25,3.28,3.31,3.23,3.27,6051045
2019-06-26,3.25,3.29,3.23,3.23,4880065
2019-06-27,3.26,3.3,3.25,3.28,5349874
2019-06-28,3.3,3.32,3.26,3.32,4410213
2019-07-02,3.34,3.43,3.33,3.42,8753917
2019-07-03,3.45,3.53,3.42,3.46,8214117
2019-07-04,3.5,3.58,3.43,3.49,4917273
2019-07-05,3.49,3.49,3.36,3.39,11427117
2019-07-08,3.35,3.39,3.3,3.34,5754792
2019-07-09,3.38,3.38,3.3,3.34,5126500
2019-07-10,3.35,3.35,3.3,3.33,3049000
2019-07-11,3.34,3.42,3.31,3.37,4943703
2019-07-12,3.4,3.42,3.36,3.37,6078500
2019-07-15,3.37,3.39,3.32,3.38,2644568
2019-07-16,3.42,3.42,3.34,3.37,4057497
2019-07-17,3.4,3.4,3.33,3.36,3695500
2019-07-18,3.37,3.37,3.33,3.34,2460791
2019-07-19,3.38,3.38,3.33,3.35,3104508
2019-07-22,3.34,3.36,3.27,3.29,3747500
2019-07-23,3.32,3.32,3.2,3.23,7290663
2019-07-24,3.25,3.3,3.22,3.22,4177500
2019-07-25,3.26,3.27,3.23,3.24,3816539
2019-07-26,3.26,3.26,3.21,3.22,3636755
2019-07-29,3.22,3.24,3.18,3.2,3641417
2019-07-30,3.22,3.25,3.2,3.2,3111147
2019-07-31,3.2,3.2,3.12,3.18,4393664
2019-08-01,3.17,3.17,3.09,3.13,5992500
2019-08-02,3.08,3.1,3.01,3.02,10620005
2019-08-05,3.02,3.02,2.91,2.91,6376720
2019-08-06,2.9,2.9,2.76,2.83,10108000
2019-08-07,2.87,2.88,2.82,2.85,4963194
2019-08-08,2.88,2.9,2.84,2.88,5566051
2019-08-09,2.91,2.91,2.84,2.87,5323632
2019-08-12,2.9,2.92,2.85,2.88,3284556
2019-08-13,2.84,2.84,2.76,2.77,7237559
2019-08-14,2.78,2.86,2.78,2.83,6678058
2019-08-15,2.78,2.87,2.78,2.84,6023639
2019-08-16,2.84,2.89,2.8,2.87,3833099
2019-08-19,2.87,3.1,2.87,3.01,6142547
2019-08-20,3.02,3.1,3.01,3.01,5128504
2019-08-21,3.01,3.14,2.98,3.1,8531220
2019-08-22,3.05,3.05,2.89,2.99,15657000
2019-08-23,3.0,3.0,2.88,2.91,7857001
2019-08-26,2.78,2.85,2.77,2.83,7533959
2019-08-27,2.83,2.88,2.81,2.82,9479811
2019-08-28,2.81,2.83,2.8,2.8,2845676
2019-08-29,2.84,2.84,2.77,2.78,4536000
2019-08-30,2.78,2.81,2.72,2.8,12501546
2019-09-02,2.8,2.83,2.76,2.81,2524355
2019-09-03,2.82,2.84,2.8,2.8,3336500
2019-09-04,2.74,2.77,2.7,2.76,7923052
2019-09-05,2.81,2.83,2.77,2.8,9264000
2019-09-06,2.81,2.84,2.78,2.81,5646230
2019-09-09,2.82,2.82,2.75,2.77,2107105
2019-09-10,2.79,2.79,2.74,2.79,3963306
2019-09-11,2.83,2.89,2.79,2.89,7929000
2019-09-12,2.92,2.94,2.85,2.89,2087514
2019-09-13,2.91,2.92,2.85,2.91,2102000
2019-09-16,2.9,2.9,2.83,2.85,3365470
2019-09-17,2.88,2.88,2.75,2.78,4516926
2019-09-18,2.79,2.81,2.77,2.8,2473734
2019-09-19,2.83,2.83,2.74,2.76,2121000
2019-09-20,2.76,2.77,2.73,2.73,7670892
2019-09-23,2.72,2.77,2.67,2.7,5954517
2019-09-24,2.7,2.7,2.65,2.67,5278000
2019-09-25,2.66,2.66,2.6,2.62,5917404
2019-09-26,2.62,2.65,2.61,2.62,7478692
2019-09-27,2.65,2.65,2.59,2.62,3460425
2019-09-30,2.62,2.66,2.6,2.66,4516000
2019-10-02,2.64,2.68,2.6,2.64,3244000
2019-10-03,2.64,2.65,2.6,2.63,2593150
2019-10-04,2.64,2.7,2.62,2.64,4975466
2019-10-08,2.64,2.7,2.63,2.65,7233285
2019-10-09,2.64,2.67,2.63,2.64,2323716
2019-10-10,2.68,2.68,2.63,2.64,3357500
2019-10-11,2.64,2.73,2.64,2.72,5428448
2019-10-14,2.75,2.77,2.72,2.76,3604573
2019-10-15,2.75,2.75,2.72,2.74,1944164
2019-10-16,2.75,2.78,2.73,2.76,7256872
2019-10-17,2.75,2.78,2.71,2.74,2999256
2019-10-18,2.74,2.78,2.71,2.74,3798500
2019-10-21,2.72,2.76,2.72,2.74,1980685
2019-10-22,2.74,2.79,2.72,2.78,5251930
2019-10-23,2.76,2.77,2.73,2.77,3161508
2019-10-24,2.76,2.82,2.75,2.82,4046269
2019-10-25,2.82,2.87,2.8,2.85,3382000
2019-10-28,2.83,2.86,2.8,2.84,1253000
2019-10-29,2.87,2.87,2.8,2.86,4278468
2019-10-30,2.86,2.89,2.82,2.86,5302000
2019-10-31,2.86,2.89,2.83,2.89,9018679
2019-11-01,2.86,2.95,2.85,2.92,6946640
2019-11-04,2.93,2.99,2.93,2.98,5610242
2019-11-05,3.0,3.05,2.97,3.02,5932261
2019-11-06,3.04,3.07,2.99,3.06,5579358
2019-11-07,3.06,3.11,3.05,3.1,9047055
2019-11-08,3.13,3.13,3.05,3.07,4979958
2019-11-11,3.07,3.07,2.95,2.98,6387081
2019-11-12,3.02,3.02,2.96,3.0,2725122
2019-11-13,2.95,2.95,2.9,2.93,3055194
2019-11-14,2.93,2.95,2.89,2.91,2341500
2019-11-15,2.94,2.97,2.89,2.92,3677683
2019-11-18,2.94,2.98,2.87,2.95,1546009
2019-11-19,2.89,3.01,2.89,3.01,3121934
2019-11-20,3.01,3.01,2.93,2.98,2487000
2019-11-21,2.99,2.99,2.9,2.91,5632000
2019-11-22,2.95,2.99,2.9,2.92,2036590
2019-11-25,2.91,2.93,2.87,2.89,5356538
2019-11-26,2.9,2.94,2.88,2.92,17644392
2019-11-27,2.89,2.92,2.86,2.92,2176243
2019-11-28,2.96,2.96,2.89,2.9,2146000
2019-11-29,2.87,2.91,2.85,2.9,6561000
2019-12-02,2.9,2.95,2.86,2.9,2092755
2019-12-03,2.9,2.94,2.9,2.94,2364335
2019-12-04,2.9,2.9,2.85,2.85,4288000
2019-12-05,2.88,2.9,2.83,2.83,1937811
2019-12-06,2.88,2.89,2.85,2.89,3153184
2019-12-09,2.89,2.98,2.89,2.94,3313863
2019-12-10,2.93,2.94,2.91,2.91,1524000
2019-12-11,2.85,2.96,2.85,2.95,2103709
2019-12-12,2.94,2.97,2.93,2.95,1868154
2019-12-13,2.98,3.03,2.97,3.02,5034768
2019-12-16,3.01,3.05,2.97,3.04,2703254
2019-12-17,3.03,3.06,2.99,3.04,5509584
2019-12-18,3.05,3.08,3.01,3.06,2777756
2019-12-19,3.07,3.07,2.99,3.03,5036089
2019-12-20,3.01,3.07,3.01,3.06,6130315
2019-12-23,3.04,3.08,3.02,3.05,3344002
2019-12-24,3.05,3.06,3.04,3.04,1095000
2019-12-27,3.07,3.15,3.05,3.12,4219765
2019-12-30,3.1,3.22,3.1,3.17,5353606
2019-12-31,3.18,3.18,3.11,3.13,1562365
2020-01-02,3.19,3.21,3.17,3.2,3863242
2020-01-03,3.21,3.24,3.17,3.19,4475594
2020-01-06,3.2,3.2,3.1,3.14,4292937
2020-01-07,3.16,3.18,3.13,3.15,4566239
2020-01-08,3.09,3.14,3.05,3.08,3866167
2020-01-09,3.14,3.14,3.1,3.13,2317689
2020-01-10,3.1,3.14,3.09,3.1,2849016
2020-01-13,3.12,3.2,3.11,3.19,3690204
2020-01-14,3.22,3.22,3.17,3.21,3588637
2020-01-15,3.19,3.2,3.16,3.17,3840300
2020-01-16,3.15,3.21,3.12,3.21,3632229
2020-01-17,3.23,3.25,3.19,3.25,4128822
2020-01-20,3.25,3.27,3.19,3.21,3184718
2020-01-21,3.25,3.25,3.06,3.09,4132100
2020-01-22,3.17,3.18,3.05,3.17,2402271
2020-01-23,3.12,3.12,3.0,3.03,6630555
2020-01-24,3.14,3.14,2.99,3.09,2860976
2020-01-29,2.98,2.98,2.86,2.87,4342827
2020-01-30,2.85,2.87,2.79,2.81,3594600
2020-01-31,2.81,2.86,2.8,2.82,3559231
2020-02-03,2.77,2.82,2.76,2.81,7616490
2020-02-04,2.86,2.9,2.83,2.89,6065671
2020-02-05,2.95,2.95,2.85,2.89,4232500
2020-02-06,2.89,3.01,2.88,2.99,6373950
2020-02-07,2.98,3.02,2.94,3.0,5679776
2020-02-10,2.92,3.03,2.92,3.0,3680533
2020-02-11,3.02,3.05,2.97,3.02,5629854
2020-02-12,3.04,3.08,2.98,3.08,6431430
2020-02-13,3.1,3.12,3.04,3.08,3082529
2020-02-14,3.08,3.1,3.05,3.09,3849369
2020-02-17,3.1,3.11,3.03,3.06,4222100
2020-02-18,3.06,3.06,3.0,3.01,3748579
2020-02-19,3.08,3.08,3.0,3.02,4846277
2020-02-20,3.05,3.05,2.95,2.98,2696500
2020-02-21,3.03,3.03,2.93,2.97,6320000
2020-02-24,2.95,2.95,2.87,2.88,4413000
2020-02-25,2.88,2.91,2.84,2.9,7986584
2020-02-26,2.91,3.0,2.85,2.95,10846683
2020-02-27,3.0,3.0,2.91,2.93,2665111
2020-02-28,2.9,2.92,2.83,2.83,9671500
2020-03-02,2.82,2.91,2.82,2.87,8089228
2020-03-03,2.92,2.93,2.87,2.9,11540480
2020-03-04,2.92,2.99,2.88,2.96,12113667
2020-03-05,2.96,2.99,2.95,2.98,4478795
2020-03-06,2.94,2.95,2.87,2.87,4794631
2020-03-09,2.83,2.84,2.71,2.73,11301106
2020-03-10,2.77,2.81,2.66,2.75,5985611
2020-03-11,2.79,2.83,2.72,2.79,4960939
2020-03-12,2.77,2.77,2.63,2.65,7972619
2020-03-13,2.52,2.61,2.42,2.58,8827414
2020-03-16,2.54,2.57,2.38,2.41,8921000
2020-03-17,2.38,2.43,2.29,2.32,7886246
2020-03-18,2.4,2.4,2.16,2.19,8564742
2020-03-19,2.19,2.19,1.97,2.07,9958535
2020-03-20,2.05,2.18,2.05,2.16,18505692
2020-03-23,2.0,2.09,2.0,2.02,8215672
2020-03-24,2.05,2.13,2.05,2.09,14786738
2020-03-25,1.97,2.08,1.92,2.07,57963120
2020-03-26,2.02,2.08,2.0,2.04,20565500
2020-03-27,2.09,2.09,1.99,1.99,25763956
2020-03-30,1.95,1.97,1.91,1.95,17307202
2020-03-31,1.99,1.99,1.93,1.97,15646500
2020-04-01,1.96,2.04,1.95,1.98,25583740
2020-04-02,1.96,2.04,1.92,2.04,10067197
2020-04-03,2.05,2.05,2.0,2.04,11439021
2020-04-06,2.05,2.05,1.93,2.01,11704574
2020-04-07,2.01,2.07,2.0,2.07,15680397
2020-04-08,2.02,2.06,2.02,2.03,8803000
2020-04-09,2.03,2.07,2.02,2.06,8511500
2020-04-14,2.06,2.12,2.04,2.06,11133310
2020-04-15,2.07,2.08,2.0,2.0,5938575
2020-04-16,2.0,2.04,1.94,2.02,8842126
2020-04-17,2.05,2.08,2.01,2.05,4055221
2020-04-20,2.06,2.07,2.0,2.0,5354564
2020-04-21,2.0,2.01,1.95,1.96,5732993
2020-04-22,1.98,1.98,1.92,1.93,8848050
2020-04-23,1.94,1.94,1.87,1.9,15555855
2020-04-24,1.9,1.92,1.88,1.89,8916267
2020-04-27,1.91,1.99,1.9,1.96,5179167
2020-04-28,1.99,2.04,1.96,2.01,5833651
2020-04-29,2.03,2.06,2.02,2.04,4688266
2020-05-04,1.98,1.98,1.9,1.92,5904756
2020-05-05,1.94,1.94,1.91,1.91,1868523
2020-05-06,1.93,1.97,1.92,1.95,5685007
2020-05-07,1.95,1.95,1.91,1.93,3882500
2020-05-08,1.95,2.02,1.95,1.98,8256483
2020-05-11,2.0,2.04,2.0,2.02,6051500
2020-05-12,2.0,2.01,1.96,1.96,7630723
2020-05-13,1.95,1.95,1.93,1.94,4217945
2020-05-14,1.93,1.94,1.91,1.92,9406388
2020-05-15,1.94,1.94,1.9,1.9,2850500
2020-05-18,1.9,1.93,1.89,1.91,3749610
2020-05-19,1.94,2.0,1.93,1.95,4788000
2020-05-20,1.97,1.97,1.9,1.9,7879533
2020-05-21,1.92,1.93,1.9,1.92,5085500
2020-05-22,1.89,1.89,1.8,1.8,8147124
2020-05-25,1.8,1.81,1.76,1.8,2815523
2020-05-26,1.82,1.84,1.8,1.82,2140555
2020-05-27,1.83,1.84,1.81,1.83,2139814
2020-05-28,1.83,1.83,1.78,1.79,2620060
2020-05-29,1.77,1.81,1.76,1.79,13204019
2020-06-01,1.8,1.9,1.8,1.88,6160908
2020-06-02,1.86,1.93,1.86,1.9,5745408
2020-06-03,1.91,1.93,1.88,1.9,3946160
2020-06-04,1.9,1.91,1.87,1.89,3062093
2020-06-05,1.9,1.92,1.87,1.92,7962508
2020-06-08,1.92,1.94,1.9,1.92,4752602
2020-06-09,1.92,1.99,1.92,1.97,9063374
2020-06-10,1.97,2.0,1.96,2.0,6173889
2020-06-11,1.98,2.0,1.92,1.93,5274500
2020-06-12,1.89,1.92,1.86,1.89,9212649
2020-06-15,1.89,1.92,1.86,1.86,4324500
2020-06-16,1.91,1.93,1.89,1.9,3180388
2020-06-17,1.91,1.93,1.9,1.91,3216100
2020-06-18,1.91,1.96,1.9,1.94,4583500
2020-06-19,1.93,1.96,1.93,1.94,7733005
2020-06-22,1.94,1.95,1.89,1.9,5035231
2020-06-23,1.9,1.92,1.88,1.89,3799265
2020-06-24,1.91,1.91,1.86,1.88,4343426
2020-06-26,1.88,1.91,1.87,1.91,1236000
2020-06-29,1.88,1.9,1.86,1.89,3383322
2020-06-30,1.91,1.91,1.85,1.86,7043000
2020-07-02,1.88,1.97,1.88,1.95,9757249
2020-07-03,1.98,2.13,1.96,2.05,13745525
2020-07-06,2.08,2.24,2.07,2.23,23119060
2020-07-07,2.3,2.31,2.11,2.12,11215122
2020-07-08,2.09,2.15,2.08,2.13,5861079
2020-07-09,2.1,2.18,2.09,2.1,5707533
2020-07-10,2.08,2.1,2.02,2.02,5035000
2020-07-13,2.04,2.06,2.0,2.02,6282148
2020-07-14,2.04,2.04,1.98,1.98,4616322
2020-07-15,2.02,2.02,1.96,1.97,3450484
2020-07-16,1.98,1.99,1.91,1.91,6128555
2020-07-17,1.94,1.95,1.92,1.93,3678000
2020-07-20,1.96,1.98,1.92,1.96,4081987
2020-07-21,1.97,1.98,1.94,1.96,5392120
2020-07-22,1.96,1.98,1.91,1.91,4361562
2020-07-23,1.93,1.93,1.9,1.91,2502710
2020-07-24,1.89,1.91,1.86,1.88,8880000
2020-07-27,1.89,1.89,1.81,1.84,5019647
2020-07-28,1.87,1.87,1.84,1.85,4193372
2020-07-29,1.86,1.94,1.85,1.89,4134887
2020-07-30,1.89,1.92,1.86,1.86,2283000
2020-07-31,1.86,1.92,1.85,1.87,2456006
2020-08-03,1.88,1.89,1.83,1.87,5237658
2020-08-04,1.88,1.93,1.86,1.92,5794165
2020-08-05,1.9,1.94,1.9,1.94,4761466
2020-08-06,1.95,1.95,1.9,1.92,3902214
2020-08-07,1.91,1.96,1.9,1.92,2653262
2020-08-10,1.92,1.95,1.91,1.93,1766064
2020-08-11,1.93,1.98,1.93,1.94,4384787
2020-08-12,1.95,1.98,1.91,1.98,6529465
2020-08-13,1.97,1.98,1.94,1.94,8071667
2020-08-14,1.95,1.98,1.94,1.96,2095170
2020-08-17,1.98,2.03,1.93,2.01,8668194
2020-08-18,2.0,2.0,1.96,1.98,5378106
2020-08-19,2.08,2.08,1.95,1.98,2316500
2020-08-20,1.99,1.99,1.95,1.98,3592500
2020-08-21,1.99,2.01,1.97,1.99,4803035
2020-08-24,1.99,2.01,1.98,1.99,4760500
2020-08-25,1.99,1.99,1.92,1.96,12436008
