Date,Open,High,Low,Close,Volume
2012-01-05,1.32,1.33,1.29,1.31,1687294
2012-01-06,1.31,1.31,1.26,1.26,4740300
2012-01-09,1.26,1.3,1.25,1.29,3837000
2012-01-10,1.28,1.31,1.28,1.31,4406445
2012-01-11,1.3,1.39,1.3,1.38,11598445
2012-01-12,1.39,1.39,1.34,1.37,4355000
2012-01-13,1.36,1.38,1.34,1.37,3810000
2012-01-16,1.35,1.35,1.33,1.34,1081000
2012-01-17,1.34,1.37,1.33,1.37,3038800
2012-01-18,1.38,1.39,1.35,1.38,4840800
2012-01-19,1.38,1.41,1.37,1.41,6885410
2012-01-20,1.41,1.41,1.34,1.36,6872232
2012-01-26,1.35,1.41,1.35,1.39,13226053
2012-01-27,1.38,1.38,1.34,1.35,9147400
2012-01-30,1.34,1.34,1.23,1.25,19361000
2012-01-31,1.26,1.28,1.24,1.28,13169000
2012-02-01,1.28,1.29,1.22,1.24,20576000
2012-02-02,1.24,1.28,1.24,1.27,9513000
2012-02-03,1.27,1.3,1.24,1.28,21323308
2012-02-06,1.28,1.3,1.26,1.26,12275005
2012-02-07,1.27,1.29,1.26,1.26,6433900
2012-02-08,1.26,1.42,1.26,1.41,63695000
2012-02-09,1.39,1.55,1.37,1.5,64321432
2012-02-10,1.52,1.53,1.41,1.44,29221000
2012-02-13,1.43,1.46,1.41,1.44,8160000
2012-02-14,1.46,1.49,1.38,1.39,12656000
2012-02-15,1.41,1.45,1.37,1.42,33628000
2012-02-16,1.4,1.47,1.4,1.46,27583500
2012-02-17,1.47,1.5,1.43,1.47,13272000
2012-02-20,1.49,1.5,1.41,1.42,7963000
2012-02-21,1.42,1.45,1.38,1.45,10016000
2012-02-22,1.44,1.55,1.42,1.53,20714000
2012-02-23,1.51,1.52,1.45,1.49,12512535
2012-02-24,1.45,1.47,1.39,1.42,25167000
2012-02-27,1.41,1.45,1.4,1.43,12606000
2012-02-28,1.43,1.47,1.4,1.47,11701500
2012-02-29,1.46,1.5,1.44,1.47,20379000
2012-03-01,1.47,1.63,1.47,1.59,67408000
2012-03-02,1.58,1.69,1.55,1.65,36086000
2012-03-05,1.64,1.67,1.56,1.56,17650000
2012-03-06,1.56,1.62,1.47,1.5,19660000
2012-03-07,1.47,1.5,1.44,1.45,9357611
2012-03-08,1.47,1.55,1.47,1.54,14032833
2012-03-09,1.54,1.59,1.49,1.57,18957900
2012-03-12,1.57,1.58,1.47,1.49,18294380
2012-03-13,1.49,1.51,1.47,1.48,21365600
2012-03-14,1.49,1.5,1.4,1.41,27124200
2012-03-15,1.4,1.43,1.36,1.37,12799200
2012-03-16,1.37,1.42,1.36,1.4,14779000
2012-03-19,1.4,1.43,1.39,1.4,7012000
2012-03-20,1.41,1.41,1.31,1.32,16479500
2012-03-21,1.32,1.33,1.23,1.24,25350400
2012-03-22,1.26,1.27,1.22,1.23,20603000
2012-03-23,1.23,1.23,1.19,1.2,12692835
2012-03-26,1.22,1.25,1.18,1.2,13637000
2012-03-27,1.22,1.25,1.19,1.2,16159000
2012-03-28,1.15,1.18,1.1,1.15,36089300
2012-03-29,1.17,1.23,1.14,1.21,25867000
2012-03-30,1.21,1.29,1.21,1.27,17407000
2012-04-02,1.27,1.28,1.2,1.23,8584800
2012-04-03,1.24,1.25,1.21,1.23,9979900
2012-04-05,1.21,1.24,1.18,1.24,9497000
2012-04-10,1.22,1.22,1.19,1.19,9138000
2012-04-11,1.18,1.19,1.15,1.18,13372019
2012-04-12,1.19,1.21,1.17,1.19,5467000
2012-04-13,1.2,1.2,1.06,1.08,62045712
2012-04-16,1.06,1.06,1.01,1.05,15866540
2012-04-17,1.05,1.05,0.95,0.96,45244164
2012-04-18,0.97,1.03,0.97,1.01,65686000
2012-04-19,1.01,1.01,0.96,0.99,47647000
2012-04-20,0.99,1.0,0.97,1.0,9030356
2012-04-23,0.99,1.01,0.96,0.96,14862000
2012-04-24,0.95,1.01,0.95,1.0,40758000
2012-04-25,1.0,1.04,1.0,1.03,22705000
2012-04-26,1.03,1.03,1.0,1.01,48495904
2012-04-27,1.02,1.06,1.02,1.05,20531000
2012-04-30,1.04,1.06,1.02,1.04,18174686
2012-05-02,1.03,1.08,1.03,1.05,37447000
2012-05-03,1.06,1.09,1.06,1.07,12713000
2012-05-04,1.07,1.07,1.01,1.01,21695840
2012-05-07,1.01,1.01,0.97,0.97,17995000
2012-05-08,0.99,1.02,0.99,1.01,9391900
2012-05-09,1.0,1.01,0.96,0.98,21667000
2012-05-10,0.97,0.99,0.97,0.98,9649000
2012-05-11,0.98,1.01,0.98,1.0,7040000
2012-05-14,0.99,1.0,0.97,0.97,10707000
2012-05-15,0.97,0.97,0.95,0.96,16222600
2012-05-16,0.95,0.95,0.93,0.94,27339000
2012-05-17,0.94,0.98,0.94,0.95,16903000
2012-05-18,0.94,0.95,0.93,0.93,4725000
2012-05-21,0.93,1.03,0.93,1.0,25635000
2012-05-22,1.02,1.03,1.0,1.02,13653800
2012-05-23,0.99,1.0,0.97,0.99,5284140
2012-05-24,0.97,0.98,0.94,0.96,36533300
2012-05-25,0.97,1.0,0.97,1.0,17630264
2012-05-28,1.0,1.07,0.99,1.04,23979000
2012-05-29,1.04,1.06,1.0,1.06,17791000
2012-05-30,1.06,1.06,1.0,1.02,28460856
2012-05-31,0.99,1.05,0.97,0.98,214631216
2012-06-01,0.98,1.0,0.95,0.95,57532244
2012-06-04,0.94,0.95,0.91,0.93,16582686
2012-06-05,0.94,0.95,0.89,0.91,10039299
2012-06-06,0.93,0.93,0.88,0.89,19178000
2012-06-07,0.91,0.93,0.89,0.9,30008000
2012-06-08,0.91,0.91,0.88,0.89,11821000
2012-06-11,0.9,0.92,0.88,0.91,30569000
2012-06-12,0.89,0.9,0.88,0.89,13537000
2012-06-13,0.9,0.91,0.88,0.88,15187780
2012-06-14,0.88,0.89,0.83,0.83,21861000
2012-06-15,0.84,0.85,0.81,0.83,8522000
2012-06-18,0.84,0.84,0.8,0.82,11051000
2012-06-19,0.81,0.82,0.8,0.8,12572000
2012-06-20,0.81,0.81,0.8,0.8,9350400
2012-06-21,0.8,0.8,0.74,0.75,42977000
2012-06-22,0.73,0.75,0.72,0.74,35986000
2012-06-25,0.74,0.75,0.72,0.73,27723000
2012-06-26,0.74,0.74,0.72,0.74,35863904
2012-06-27,0.73,0.76,0.73,0.75,17549000
2012-06-28,0.74,0.75,0.72,0.73,24173668
2012-06-29,0.72,0.73,0.68,0.7,25047988
2012-07-03,0.7,0.73,0.69,0.71,18611216
2012-07-04,0.71,0.72,0.69,0.7,19673916
2012-07-05,0.7,0.74,0.7,0.74,24345000
2012-07-06,0.73,0.74,0.71,0.73,13188000
2012-07-09,0.71,0.71,0.67,0.67,27306000
2012-07-10,0.68,0.7,0.67,0.68,18497000
2012-07-11,0.68,0.76,0.68,0.73,26973000
2012-07-12,0.74,0.74,0.7,0.7,7957000
2012-07-13,0.71,0.74,0.7,0.74,14186585
2012-07-16,0.74,0.74,0.68,0.69,16770000
2012-07-17,0.71,0.72,0.69,0.69,10450000
2012-07-18,0.69,0.7,0.68,0.68,6236000
2012-07-19,0.69,0.7,0.69,0.69,5177000
2012-07-20,0.69,0.7,0.66,0.68,7148000
2012-07-23,0.67,0.68,0.66,0.66,5042000
2012-07-24,0.66,0.67,0.62,0.64,16688000
2012-07-25,0.63,0.64,0.62,0.63,3287000
2012-07-26,0.64,0.64,0.61,0.62,10748000
2012-07-27,0.62,0.64,0.61,0.62,8239000
2012-07-30,0.63,0.65,0.61,0.62,10822000
2012-07-31,0.62,0.62,0.59,0.61,15151344
2012-08-01,0.6,0.64,0.6,0.62,16318000
2012-08-02,0.62,0.66,0.62,0.65,17894000
2012-08-03,0.65,0.65,0.63,0.64,11917000
2012-08-06,0.65,0.7,0.64,0.67,45771136
2012-08-07,0.67,0.7,0.66,0.7,20404000
2012-08-08,0.7,0.7,0.67,0.68,73065000
2012-08-09,0.68,0.69,0.67,0.69,32893000
2012-08-10,0.69,0.69,0.64,0.64,33328000
2012-08-13,0.64,0.65,0.62,0.62,8904000
2012-08-14,0.63,0.64,0.62,0.64,22605000
2012-08-15,0.62,0.64,0.62,0.63,7203000
2012-08-16,0.63,0.64,0.61,0.64,28953000
2012-08-17,0.63,0.65,0.63,0.64,34665000
2012-08-20,0.64,0.64,0.62,0.64,6459000
2012-08-21,0.64,0.72,0.63,0.71,51824696
2012-08-22,0.7,0.73,0.7,0.71,36745000
2012-08-23,0.72,0.81,0.71,0.81,50755000
2012-08-24,0.79,0.8,0.76,0.77,31954608
2012-08-27,0.78,0.78,0.74,0.74,16369000
2012-08-28,0.74,0.79,0.74,0.76,13096000
2012-08-29,0.77,0.78,0.75,0.77,6370000
2012-08-30,0.77,0.77,0.74,0.76,7077582
2012-08-31,0.76,0.77,0.74,0.77,13318887
2012-09-03,0.76,0.77,0.75,0.76,10663000
2012-09-04,0.76,0.76,0.74,0.76,22928962
2012-09-05,0.75,0.8,0.75,0.77,47757000
2012-09-06,0.77,0.77,0.74,0.76,11605000
2012-09-07,0.77,0.8,0.76,0.76,18945000
2012-09-10,0.77,0.77,0.74,0.77,12966000
2012-09-11,0.77,0.81,0.77,0.79,20201000
2012-09-12,0.8,0.82,0.79,0.81,21147000
2012-09-13,0.8,0.81,0.78,0.78,15018950
2012-09-14,0.8,0.8,0.77,0.78,12860000
2012-09-17,0.78,0.82,0.78,0.82,43943000
2012-09-18,0.82,0.83,0.8,0.81,21019000
2012-09-19,0.81,0.86,0.79,0.84,33596000
2012-09-20,0.84,0.86,0.81,0.83,28528220
2012-09-21,0.84,0.89,0.83,0.88,25789000
2012-09-24,0.87,0.88,0.83,0.85,35939000
2012-09-25,0.85,0.86,0.81,0.83,25606000
2012-09-26,0.83,0.83,0.81,0.81,5840847
2012-09-27,0.81,0.81,0.79,0.8,8979000
2012-09-28,0.8,0.85,0.8,0.83,25074320
2012-10-03,0.82,0.83,0.77,0.78,14901000
2012-10-04,0.79,0.83,0.78,0.82,15259000
2012-10-05,0.83,0.83,0.8,0.81,10551000
2012-10-08,0.8,0.85,0.8,0.84,16140000
2012-10-09,0.83,0.86,0.82,0.83,28402000
2012-10-10,0.83,0.85,0.81,0.83,26198000
2012-10-11,0.84,0.85,0.83,0.85,31920000
2012-10-12,0.86,0.9,0.86,0.88,47578000
2012-10-15,0.91,0.91,0.85,0.85,15735000
2012-10-16,0.86,0.86,0.85,0.86,11547000
2012-10-17,0.87,0.9,0.86,0.88,34777700
2012-10-18,0.9,0.93,0.89,0.92,50392000
2012-10-19,0.93,0.98,0.92,0.96,40193000
2012-10-22,0.95,1.02,0.95,0.99,32804300
2012-10-24,0.99,1.04,0.98,1.04,31677800
2012-10-25,1.04,1.04,0.98,0.99,45861000
2012-10-26,1.0,1.01,0.95,0.98,26755700
2012-10-29,0.98,1.0,0.98,0.99,6387700
2012-10-30,0.99,1.0,0.96,0.97,5393000
2012-10-31,0.97,0.99,0.95,0.96,12097000
2012-11-01,0.96,1.02,0.95,1.01,44809104
2012-11-02,1.03,1.03,1.01,1.03,22430800
2012-11-05,1.03,1.05,0.99,1.01,27120400
2012-11-06,1.02,1.02,0.98,1.01,14541000
2012-11-07,1.02,1.03,1.0,1.01,5596400
2012-11-08,1.0,1.01,0.98,1.01,16056400
2012-11-09,1.01,1.02,1.0,1.02,17141000
2012-11-12,1.02,1.02,0.99,0.99,13753000
2012-11-13,0.99,1.0,0.96,0.99,27998000
2012-11-14,0.98,1.0,0.98,0.99,6381000
2012-11-15,0.99,0.99,0.95,0.96,9848000
2012-11-16,0.96,0.99,0.93,0.98,15341000
2012-11-19,0.98,0.99,0.97,0.98,8222000
2012-11-20,0.99,0.99,0.94,0.97,17421000
2012-11-21,0.97,0.97,0.95,0.95,6168000
2012-11-22,0.95,0.95,0.93,0.95,8536000
2012-11-23,0.95,0.95,0.9,0.93,19252000
2012-11-26,0.92,0.92,0.9,0.91,2167400
2012-11-27,0.9,0.94,0.9,0.92,6173400
2012-11-28,0.91,0.91,0.88,0.89,7343000
2012-11-29,0.89,0.89,0.84,0.85,21466000
2012-11-30,0.85,0.87,0.83,0.85,22596100
2012-12-03,0.85,0.91,0.84,0.89,36379244
2012-12-04,0.89,0.9,0.86,0.88,6651000
2012-12-05,0.89,0.91,0.88,0.91,5738325
2012-12-06,0.92,0.95,0.9,0.93,18707490
2012-12-07,0.93,0.94,0.92,0.92,8120800
2012-12-10,0.93,0.94,0.92,0.93,11083800
2012-12-11,0.94,0.95,0.92,0.94,15461600
2012-12-12,0.94,0.97,0.94,0.95,14704200
2012-12-13,0.96,0.98,0.95,0.96,17682400
2012-12-14,0.97,0.98,0.95,0.95,20216902
2012-12-17,0.95,0.96,0.92,0.94,11866600
2012-12-18,0.95,0.95,0.93,0.94,5904200
2012-12-19,0.95,0.95,0.93,0.94,9802600
2012-12-20,0.94,0.95,0.92,0.94,6456400
2012-12-21,0.94,0.96,0.93,0.95,9314400
2012-12-24,0.95,0.95,0.95,0.95,1178800
2012-12-27,0.95,0.96,0.94,0.95,10260800
2012-12-28,0.96,1.01,0.96,0.99,29768000
2012-12-31,0.98,1.04,0.97,1.02,34093000
2013-01-02,1.03,1.17,1.03,1.13,62340000
2013-01-03,1.15,1.17,1.11,1.14,30429000
2013-01-04,1.15,1.19,1.13,1.14,16932000
2013-01-07,1.15,1.17,1.14,1.17,19124000
2013-01-08,1.16,1.18,1.14,1.14,11730000
2013-01-09,1.14,1.16,1.13,1.15,16304000
2013-01-10,1.15,1.23,1.15,1.17,31326422
2013-01-11,1.19,1.2,1.15,1.17,18842000
2013-01-14,1.19,1.19,1.14,1.17,17526000
2013-01-15,1.17,1.18,1.14,1.15,9477000
2013-01-16,1.16,1.17,1.11,1.14,16900000
2013-01-17,1.23,1.39,1.2,1.29,145695008
2013-01-18,1.32,1.36,1.3,1.35,77083000
2013-01-21,1.33,1.36,1.29,1.35,26637000
2013-01-22,1.34,1.36,1.31,1.32,14103000
2013-01-23,1.32,1.33,1.21,1.29,68074000
2013-01-24,1.28,1.29,1.24,1.25,21579000
2013-01-25,1.24,1.25,1.18,1.22,22782000
2013-01-28,1.22,1.25,1.22,1.23,10991000
2013-01-29,1.23,1.26,1.23,1.26,6275000
2013-01-30,1.27,1.29,1.25,1.27,17953000
2013-01-31,1.28,1.28,1.23,1.24,12452000
2013-02-01,1.23,1.23,1.21,1.23,6484000
2013-02-04,1.24,1.26,1.22,1.24,6347000
2013-02-05,1.23,1.23,1.2,1.22,5886000
2013-02-06,1.22,1.23,1.17,1.19,16249000
2013-02-07,1.19,1.19,1.13,1.14,8249000
2013-02-08,1.14,1.22,1.14,1.19,8781000
2013-02-14,1.19,1.19,1.16,1.17,12717000
2013-02-15,1.17,1.28,1.16,1.22,16518000
2013-02-18,1.22,1.23,1.2,1.21,3762000
2013-02-19,1.22,1.22,1.14,1.16,16239000
2013-02-20,1.16,1.16,1.1,1.11,26031024
2013-02-21,1.1,1.11,1.03,1.05,41149120
2013-02-22,1.04,1.09,1.02,1.07,14853000
2013-02-25,1.07,1.11,1.02,1.04,14882900
2013-02-26,1.02,1.05,0.94,0.97,54882000
2013-02-27,0.97,1.01,0.97,0.99,18347000
2013-02-28,1.01,1.04,1.01,1.03,8994249
2013-03-01,1.02,1.05,1.01,1.03,12899000
2013-03-04,1.02,1.07,1.01,1.06,35386000
2013-03-05,1.07,1.13,1.07,1.08,17276000
2013-03-06,1.09,1.1,1.06,1.06,6060000
2013-03-07,1.07,1.12,1.06,1.07,13898600
2013-03-08,1.06,1.08,1.05,1.06,8871000
2013-03-11,1.07,1.07,1.03,1.05,5521000
2013-03-12,1.04,1.06,1.01,1.04,10933000
2013-03-13,1.04,1.04,0.99,1.02,10524000
2013-03-14,1.02,1.04,1.0,1.03,12193000
2013-03-15,1.03,1.06,1.01,1.03,26201144
2013-03-18,1.02,1.05,1.01,1.03,19612760
2013-03-19,1.04,1.05,1.01,1.05,8328900
2013-03-20,1.05,1.05,1.02,1.03,22286000
2013-03-21,1.06,1.15,1.06,1.14,103848168
2013-03-22,1.13,1.29,1.12,1.28,104379000
2013-03-25,1.29,1.29,1.23,1.25,47064400
2013-03-26,1.25,1.25,1.19,1.22,25680000
2013-03-27,1.22,1.23,1.16,1.18,14600000
2013-03-28,1.18,1.24,1.15,1.19,28356000
2013-04-02,1.19,1.21,1.17,1.18,8801000
2013-04-03,1.19,1.2,1.15,1.17,20702000
2013-04-05,1.16,1.18,1.13,1.16,12415000
2013-04-08,1.15,1.2,1.15,1.17,25794000
2013-04-09,1.17,1.2,1.17,1.19,39915000
2013-04-10,1.2,1.25,1.2,1.24,30031000
2013-04-11,1.24,1.27,1.24,1.25,27118000
2013-04-12,1.24,1.26,1.24,1.24,17901000
2013-04-15,1.25,1.25,1.22,1.23,4858000
2013-04-16,1.22,1.24,1.19,1.23,11487000
2013-04-17,1.23,1.24,1.21,1.22,20887100
2013-04-18,1.21,1.22,1.19,1.2,9972000
2013-04-19,1.19,1.23,1.19,1.21,14983600
2013-04-22,1.21,1.22,1.21,1.21,5988000
2013-04-23,1.21,1.24,1.21,1.22,12332000
2013-04-24,1.22,1.32,1.22,1.28,34429000
2013-04-25,1.29,1.31,1.26,1.27,20241000
2013-04-26,1.27,1.28,1.24,1.26,7444100
2013-04-29,1.26,1.3,1.26,1.27,9680500
2013-04-30,1.29,1.36,1.28,1.32,78014384
2013-05-02,1.32,1.32,1.28,1.29,22103900
2013-05-03,1.29,1.29,1.27,1.29,18582000
2013-05-06,1.31,1.32,1.25,1.26,27948576
2013-05-07,1.26,1.27,1.25,1.27,18161900
2013-05-08,1.28,1.31,1.27,1.29,45104600
2013-05-09,1.3,1.31,1.27,1.28,22473000
2013-05-10,1.27,1.27,1.24,1.27,9515000
2013-05-13,1.28,1.28,1.25,1.26,11172900
2013-05-14,1.26,1.27,1.23,1.25,18605000
2013-05-15,1.26,1.32,1.25,1.3,51156108
2013-05-16,1.31,1.42,1.3,1.41,136703008
2013-05-20,1.4,1.46,1.36,1.4,53685544
2013-05-21,1.41,1.42,1.36,1.38,27005000
2013-05-22,1.39,1.46,1.33,1.4,34779000
2013-05-23,1.39,1.41,1.34,1.36,43428000
2013-05-24,1.36,1.42,1.36,1.42,30432000
2013-05-27,1.42,1.52,1.42,1.49,82466688
2013-05-28,1.49,1.51,1.47,1.49,26669000
2013-05-29,1.51,1.53,1.48,1.49,40632000
2013-05-30,1.49,1.51,1.43,1.47,33531014
2013-05-31,1.47,1.47,1.43,1.46,15261004
2013-06-03,1.44,1.54,1.43,1.45,35538004
2013-06-04,1.46,1.47,1.44,1.46,11829000
2013-06-05,1.45,1.46,1.38,1.45,20330000
2013-06-06,1.43,1.43,1.37,1.4,19888000
2013-06-07,1.41,1.43,1.39,1.39,13220000
2013-06-10,1.41,1.44,1.38,1.4,13540000
2013-06-11,1.4,1.41,1.36,1.36,18628000
2013-06-13,1.36,1.4,1.28,1.39,20592236
2013-06-14,1.4,1.42,1.34,1.35,11163600
2013-06-17,1.36,1.36,1.33,1.35,20163000
2013-06-18,1.34,1.38,1.33,1.37,22889000
2013-06-19,1.37,1.37,1.32,1.36,25941800
2013-06-20,1.33,1.34,1.28,1.31,29794600
2013-06-21,1.27,1.29,1.22,1.27,41662600
2013-06-24,1.26,1.26,1.18,1.21,35337900
2013-06-25,1.2,1.24,1.18,1.21,27595934
2013-06-26,1.24,1.28,1.23,1.26,16172600
2013-06-27,1.26,1.29,1.23,1.24,8667000
2013-06-28,1.25,1.3,1.24,1.24,10832000
2013-07-02,1.25,1.3,1.25,1.26,9189000
2013-07-03,1.25,1.27,1.21,1.23,8256602
2013-07-04,1.23,1.26,1.22,1.23,7909300
2013-07-05,1.24,1.26,1.23,1.24,3360001
2013-07-08,1.24,1.26,1.19,1.25,10239208
2013-07-09,1.25,1.26,1.22,1.23,2179000
2013-07-10,1.24,1.26,1.21,1.25,11604000
2013-07-11,1.25,1.28,1.25,1.26,17733000
2013-07-12,1.27,1.27,1.24,1.25,7319000
2013-07-15,1.25,1.32,1.25,1.29,22602000
2013-07-16,1.3,1.36,1.26,1.31,49380000
2013-07-17,1.34,1.42,1.32,1.33,55163000
2013-07-18,1.36,1.42,1.36,1.4,59726000
2013-07-19,1.4,1.42,1.37,1.39,20842000
2013-07-22,1.39,1.39,1.35,1.37,8383415
2013-07-23,1.44,1.46,1.39,1.42,48099004
2013-07-24,1.42,1.45,1.41,1.42,26719000
2013-07-25,1.42,1.43,1.4,1.42,13792500
2013-07-26,1.42,1.43,1.37,1.39,16329000
2013-07-29,1.39,1.39,1.35,1.37,16720000
2013-07-30,1.36,1.38,1.35,1.37,13874000
2013-07-31,1.37,1.4,1.35,1.37,11299000
2013-08-01,1.38,1.4,1.37,1.4,15274000
2013-08-02,1.41,1.41,1.38,1.39,8720000
2013-08-05,1.39,1.45,1.39,1.44,37663000
2013-08-06,1.42,1.5,1.41,1.46,31285000
2013-08-07,1.45,1.47,1.39,1.41,22964000
2013-08-08,1.41,1.42,1.36,1.39,19283124
2013-08-09,1.4,1.44,1.38,1.43,18065000
2013-08-12,1.42,1.43,1.4,1.41,7884000
2013-08-13,1.42,1.47,1.4,1.41,17852000
2013-08-15,1.42,1.45,1.39,1.41,30099500
2013-08-16,1.41,1.42,1.36,1.38,36545480
2013-08-19,1.37,1.39,1.36,1.37,17772000
2013-08-20,1.36,1.38,1.29,1.33,33796000
2013-08-21,1.33,1.35,1.29,1.33,8903000
2013-08-22,1.31,1.31,1.26,1.29,39256500
2013-08-23,1.3,1.31,1.26,1.27,19536000
2013-08-26,1.27,1.28,1.25,1.28,14447400
2013-08-27,1.26,1.27,1.22,1.22,33116000
2013-08-28,1.21,1.23,1.19,1.21,30428000
2013-08-29,1.2,1.27,1.2,1.25,21991000
2013-08-30,1.25,1.27,1.22,1.25,14847000
2013-09-02,1.24,1.26,1.23,1.25,9895000
2013-09-03,1.25,1.3,1.25,1.28,31691000
2013-09-04,1.27,1.3,1.27,1.28,11215000
2013-09-05,1.29,1.29,1.25,1.26,10111000
2013-09-06,1.26,1.27,1.24,1.26,12049000
2013-09-09,1.26,1.28,1.24,1.26,11569000
2013-09-10,1.26,1.3,1.24,1.3,15942000
2013-09-11,1.31,1.33,1.27,1.28,12964010
2013-09-12,1.28,1.29,1.23,1.26,31134000
2013-09-13,1.25,1.25,1.21,1.23,24722000
2013-09-16,1.23,1.24,1.15,1.19,57377000
2013-09-17,1.19,1.2,1.17,1.18,7995000
2013-09-18,1.19,1.2,1.18,1.2,11725000
2013-09-19,1.2,1.21,1.19,1.19,13232000
2013-09-23,1.2,1.2,1.17,1.19,7005000
2013-09-24,1.18,1.2,1.16,1.19,15399000
2013-09-25,1.18,1.19,1.17,1.17,13849941
2013-09-26,1.18,1.23,1.17,1.19,32264000
2013-09-27,1.2,1.23,1.19,1.2,16642000
2013-09-30,1.21,1.25,1.2,1.21,29788000
2013-10-02,1.23,1.25,1.19,1.22,21846080
2013-10-03,1.22,1.25,1.22,1.24,25247000
2013-10-04,1.23,1.25,1.22,1.24,14612800
2013-10-07,1.24,1.28,1.23,1.27,44717200
2013-10-08,1.27,1.3,1.26,1.3,37604000
2013-10-09,1.29,1.29,1.26,1.26,12246000
2013-10-10,1.27,1.27,1.23,1.26,9153000
2013-10-11,1.27,1.28,1.24,1.25,9267000
2013-10-15,1.25,1.29,1.24,1.27,23547004
2013-10-16,1.27,1.3,1.25,1.26,12725003
2013-10-17,1.27,1.28,1.25,1.26,14956000
2013-10-18,1.27,1.3,1.26,1.28,21362000
2013-10-21,1.29,1.32,1.28,1.29,44940000
2013-10-22,1.3,1.3,1.26,1.26,26042000
2013-10-23,1.27,1.29,1.25,1.26,29341000
2013-10-24,1.26,1.27,1.25,1.25,5301005
2013-10-25,1.26,1.26,1.21,1.22,23533000
2013-10-28,1.22,1.23,1.21,1.23,7542000
2013-10-29,1.22,1.23,1.18,1.21,20429000
2013-10-30,1.22,1.22,1.2,1.22,13300000
2013-10-31,1.21,1.21,1.19,1.21,18842400
2013-11-01,1.21,1.22,1.19,1.22,13856300
2013-11-04,1.22,1.22,1.2,1.21,5551000
2013-11-05,1.21,1.22,1.19,1.22,6845000
2013-11-06,1.21,1.22,1.19,1.21,11921000
2013-11-07,1.21,1.22,1.2,1.21,4522000
2013-11-08,1.21,1.21,1.18,1.19,27624000
2013-11-11,1.19,1.2,1.18,1.19,11643000
2013-11-12,1.19,1.22,1.19,1.2,17148000
2013-11-13,1.2,1.21,1.19,1.2,4771000
2013-11-14,1.2,1.23,1.2,1.22,17918000
2013-11-15,1.22,1.23,1.21,1.22,15588000
2013-11-18,1.22,1.24,1.22,1.23,11727000
2013-11-19,1.23,1.27,1.22,1.24,27953000
2013-11-20,1.25,1.26,1.24,1.24,13666500
2013-11-21,1.25,1.25,1.23,1.24,6195500
2013-11-22,1.25,1.3,1.25,1.26,28495500
2013-11-25,1.26,1.28,1.25,1.26,11604500
2013-11-26,1.26,1.27,1.23,1.24,11086000
2013-11-27,1.24,1.24,1.2,1.21,11504500
2013-11-28,1.21,1.24,1.21,1.24,8834629
2013-11-29,1.24,1.26,1.23,1.25,11111000
2013-12-02,1.25,1.25,1.23,1.24,6498000
2013-12-03,1.23,1.24,1.22,1.23,4514000
2013-12-04,1.23,1.23,1.22,1.23,5588000
2013-12-05,1.23,1.24,1.22,1.23,9401000
2013-12-06,1.23,1.24,1.2,1.22,11883000
2013-12-09,1.23,1.23,1.19,1.21,14672000
2013-12-10,1.21,1.21,1.19,1.2,17491100
2013-12-11,1.19,1.22,1.18,1.22,14976500
2013-12-12,1.21,1.23,1.2,1.22,12958000
2013-12-13,1.22,1.23,1.21,1.22,5944000
2013-12-16,1.21,1.24,1.21,1.23,17675900
2013-12-17,1.23,1.27,1.23,1.25,30370062
2013-12-18,1.28,1.29,1.27,1.28,37385000
2013-12-19,1.29,1.3,1.27,1.3,39981000
2013-12-20,1.3,1.33,1.27,1.31,30970900
2013-12-23,1.32,1.34,1.31,1.32,22253070
2013-12-24,1.34,1.34,1.29,1.3,13746660
2013-12-27,1.31,1.32,1.29,1.32,6459000
2013-12-30,1.32,1.37,1.32,1.34,17223000
2013-12-31,1.35,1.35,1.31,1.32,3884000
2014-01-02,1.33,1.37,1.32,1.37,26693000
2014-01-03,1.37,1.44,1.35,1.42,75067000
2014-01-06,1.44,1.44,1.39,1.41,12814000
2014-01-07,1.41,1.59,1.4,1.52,103812896
2014-01-08,1.53,1.54,1.48,1.5,44748600
2014-01-09,1.5,1.6,1.5,1.55,87232000
2014-01-10,1.55,1.55,1.48,1.52,25380000
2014-01-13,1.51,1.52,1.48,1.5,23501000
2014-01-14,1.48,1.5,1.46,1.5,22752900
2014-01-15,1.5,1.5,1.45,1.47,19865000
2014-01-16,1.47,1.52,1.45,1.46,20010000
2014-01-17,1.47,1.48,1.44,1.48,15740600
2014-01-20,1.47,1.53,1.47,1.5,16940000
2014-01-21,1.5,1.56,1.49,1.52,31162000
2014-01-22,1.54,1.64,1.54,1.59,44767200
2014-01-23,1.59,1.61,1.55,1.6,22528000
2014-01-24,1.64,1.67,1.6,1.61,56290000
2014-01-27,1.56,1.61,1.54,1.57,38786500
2014-01-28,1.55,1.61,1.55,1.59,29493000
2014-01-29,1.6,1.6,1.54,1.55,34024000
2014-01-30,1.54,1.54,1.48,1.51,23461000
2014-02-04,1.47,1.52,1.46,1.49,18296900
2014-02-05,1.5,1.54,1.5,1.51,35516000
2014-02-06,1.5,1.52,1.45,1.49,23086000
2014-02-07,1.5,1.52,1.49,1.51,12025505
2014-02-10,1.5,1.53,1.5,1.51,3556002
2014-02-11,1.5,1.53,1.48,1.5,10414000
2014-02-12,1.5,1.52,1.49,1.5,11881000
2014-02-13,1.51,1.57,1.49,1.56,24195050
2014-02-14,1.57,1.61,1.55,1.57,15573000
2014-02-17,1.56,1.61,1.56,1.6,22190000
2014-02-18,1.59,1.6,1.56,1.58,8756000
2014-02-19,1.59,1.61,1.58,1.6,14122000
2014-02-20,1.6,1.6,1.49,1.52,44171000
2014-02-21,1.53,1.55,1.51,1.54,10166000
2014-02-24,1.55,1.55,1.51,1.52,5829000
2014-02-25,1.53,1.56,1.5,1.51,9521000
2014-02-26,1.5,1.53,1.49,1.53,9785000
2014-02-27,1.53,1.55,1.53,1.54,11800000
2014-02-28,1.54,1.55,1.52,1.54,7810340
2014-03-03,1.53,1.55,1.51,1.53,17908000
2014-03-04,1.52,1.53,1.49,1.52,13702175
2014-03-05,1.53,1.58,1.52,1.56,21143000
2014-03-06,1.57,1.63,1.56,1.6,27951000
2014-03-07,1.6,1.62,1.59,1.6,8544000
2014-03-10,1.61,1.62,1.54,1.54,15679000
2014-03-11,1.54,1.56,1.51,1.52,14177000
2014-03-12,1.51,1.51,1.46,1.49,20461000
2014-03-13,1.48,1.49,1.45,1.47,12101000
2014-03-14,1.46,1.46,1.41,1.45,13827000
2014-03-17,1.55,1.59,1.47,1.48,57277000
2014-03-18,1.51,1.53,1.48,1.49,26866000
2014-03-19,1.53,1.58,1.51,1.57,62677000
2014-03-20,1.6,1.74,1.59,1.69,142394000
2014-03-21,1.72,1.72,1.64,1.67,42796000
2014-03-24,1.7,1.77,1.63,1.64,37898272
2014-03-25,1.66,1.67,1.54,1.58,28780000
2014-03-26,1.61,1.64,1.58,1.6,26570000
2014-03-27,1.59,1.62,1.55,1.6,42971204
2014-03-28,1.61,1.62,1.55,1.57,17390140
2014-03-31,1.57,1.61,1.51,1.54,27817194
2014-04-01,1.54,1.59,1.53,1.57,14721600
2014-04-02,1.57,1.57,1.54,1.56,13191300
2014-04-03,1.56,1.57,1.52,1.53,12273804
2014-04-04,1.53,1.53,1.48,1.51,16125600
2014-04-07,1.49,1.49,1.43,1.47,21676000
2014-04-08,1.46,1.47,1.43,1.46,12541300
2014-04-09,1.46,1.5,1.46,1.49,15632000
2014-04-10,1.5,1.52,1.48,1.5,21487500
2014-04-11,1.49,1.51,1.44,1.45,16026516
2014-04-14,1.45,1.47,1.45,1.45,8556000
2014-04-15,1.46,1.49,1.44,1.44,10992000
2014-04-16,1.51,1.54,1.47,1.5,30272000
2014-04-17,1.52,1.54,1.5,1.52,14102000
2014-04-22,1.53,1.55,1.48,1.5,8975000
2014-04-23,1.5,1.52,1.49,1.5,7318000
2014-04-24,1.5,1.52,1.48,1.5,9181000
2014-04-25,1.49,1.49,1.46,1.46,10084900
2014-04-28,1.46,1.48,1.44,1.48,6099000
2014-04-29,1.47,1.47,1.44,1.45,13328000
2014-04-30,1.46,1.46,1.36,1.37,48440400
2014-05-02,1.38,1.42,1.38,1.4,9373274
2014-05-05,1.42,1.44,1.4,1.4,7163542
2014-05-07,1.43,1.48,1.36,1.38,28363000
2014-05-08,1.38,1.38,1.32,1.35,23661200
2014-05-09,1.35,1.4,1.31,1.36,12477000
2014-05-12,1.35,1.36,1.33,1.36,15710400
2014-05-13,1.36,1.4,1.35,1.39,4121800
2014-05-14,1.39,1.42,1.36,1.39,6402000
2014-05-15,1.39,1.39,1.36,1.38,4978000
2014-05-16,1.37,1.38,1.36,1.38,2026000
2014-05-19,1.37,1.38,1.34,1.36,5039900
2014-05-20,1.36,1.39,1.35,1.38,11812000
2014-05-21,1.38,1.41,1.37,1.38,4178000
2014-05-22,1.37,1.42,1.37,1.38,2905000
2014-05-23,1.39,1.4,1.37,1.38,3261000
2014-05-26,1.38,1.43,1.38,1.38,6086000
2014-05-27,1.38,1.38,1.36,1.36,3362000
2014-05-28,1.37,1.38,1.35,1.37,6122000
2014-05-29,1.37,1.39,1.33,1.35,8685900
2014-05-30,1.36,1.39,1.35,1.37,16022000
2014-06-03,1.37,1.37,1.35,1.37,7593691
2014-06-04,1.37,1.38,1.35,1.37,5432350
2014-06-05,1.36,1.41,1.36,1.4,11981000
2014-06-06,1.41,1.43,1.38,1.38,8592000
2014-06-09,1.39,1.46,1.39,1.42,24895000
2014-06-10,1.43,1.45,1.41,1.44,7671000
2014-06-11,1.44,1.45,1.42,1.42,7548000
2014-06-12,1.42,1.47,1.42,1.44,15454000
2014-06-13,1.45,1.47,1.44,1.44,6784000
2014-06-16,1.45,1.46,1.43,1.45,7043300
2014-06-17,1.45,1.45,1.42,1.43,7277000
2014-06-18,1.43,1.44,1.42,1.42,5889000
2014-06-19,1.42,1.47,1.4,1.44,17012000
2014-06-20,1.45,1.48,1.45,1.46,22847000
2014-06-23,1.46,1.47,1.43,1.44,5631000
2014-06-24,1.44,1.44,1.42,1.44,5515000
2014-06-25,1.44,1.45,1.42,1.43,5177000
2014-06-26,1.43,1.46,1.42,1.45,12057000
2014-06-27,1.47,1.49,1.45,1.46,18842000
2014-06-30,1.47,1.47,1.45,1.46,3197000
2014-07-02,1.47,1.48,1.45,1.46,15817687
2014-07-03,1.47,1.48,1.44,1.47,9125097
2014-07-04,1.48,1.55,1.48,1.53,29415000
2014-07-07,1.55,1.55,1.5,1.51,10674000
2014-07-08,1.52,1.52,1.48,1.49,9880200
2014-07-09,1.49,1.51,1.47,1.51,19691000
2014-07-10,1.51,1.52,1.49,1.5,17873870
2014-07-11,1.5,1.5,1.47,1.49,5154000
2014-07-14,1.49,1.52,1.49,1.5,14924000
2014-07-15,1.51,1.51,1.49,1.5,4006000
2014-07-16,1.51,1.52,1.49,1.51,9496000
2014-07-17,1.52,1.63,1.52,1.57,47281000
2014-07-18,1.55,1.56,1.52,1.56,18581000
2014-07-21,1.55,1.56,1.52,1.54,18127000
2014-07-22,1.55,1.58,1.55,1.56,12879000
2014-07-23,1.58,1.58,1.53,1.55,10728000
2014-07-24,1.56,1.57,1.55,1.57,9054000
2014-07-25,1.58,1.58,1.53,1.55,9908000
2014-07-28,1.55,1.55,1.48,1.51,21632000
2014-07-29,1.5,1.51,1.48,1.5,12018000
2014-07-30,1.51,1.55,1.5,1.51,15229000
2014-07-31,1.53,1.54,1.51,1.52,11084044
2014-08-01,1.51,1.52,1.48,1.49,18252000
2014-08-04,1.48,1.52,1.48,1.51,11989000
2014-08-05,1.52,1.53,1.5,1.53,9350100
2014-08-06,1.53,1.55,1.52,1.54,3463000
2014-08-07,1.55,1.58,1.52,1.53,22781000
2014-08-08,1.53,1.59,1.51,1.57,28918000
2014-08-11,1.59,1.59,1.56,1.57,12656000
2014-08-12,1.6,1.6,1.57,1.58,15505000
2014-08-13,1.58,1.59,1.57,1.59,18178000
2014-08-14,1.59,1.59,1.57,1.57,3151000
2014-08-15,1.57,1.59,1.56,1.58,8503124
2014-08-18,1.58,1.59,1.56,1.57,4706000
2014-08-19,1.58,1.62,1.56,1.61,14672000
2014-08-20,1.64,1.68,1.64,1.66,67744000
2014-08-21,1.71,1.72,1.67,1.71,62060000
2014-08-22,1.73,1.76,1.72,1.75,53707000
2014-08-25,1.76,1.76,1.71,1.74,26693260
2014-08-26,1.75,1.75,1.66,1.68,19430740
2014-08-27,1.69,1.71,1.67,1.67,29171000
2014-08-28,1.69,1.7,1.62,1.64,22074800
2014-08-29,1.63,1.69,1.62,1.66,22335000
2014-09-01,1.66,1.7,1.65,1.69,21965150
2014-09-02,1.7,1.71,1.67,1.69,17047000
2014-09-03,1.71,1.71,1.67,1.67,18972000
2014-09-04,1.69,1.73,1.66,1.7,25417000
2014-09-05,1.71,1.75,1.7,1.73,25957250
2014-09-08,1.77,1.81,1.71,1.71,47604900
2014-09-10,1.72,1.73,1.69,1.7,19328010
2014-09-11,1.71,1.73,1.69,1.7,15092838
2014-09-12,1.7,1.7,1.66,1.68,13465000
2014-09-15,1.7,1.72,1.67,1.7,37071416
2014-09-16,1.74,1.74,1.69,1.7,37175000
2014-09-17,1.71,1.73,1.67,1.72,55764000
2014-09-18,1.72,1.73,1.68,1.7,29891000
2014-09-19,1.72,1.74,1.67,1.73,60050000
2014-09-22,1.75,1.76,1.48,1.51,187476496
2014-09-23,1.48,1.53,1.41,1.49,124209864
2014-09-24,1.46,1.52,1.45,1.52,33297000
2014-09-25,1.53,1.53,1.48,1.51,24490000
2014-09-26,1.49,1.51,1.45,1.51,48325168
2014-09-29,1.48,1.48,1.43,1.47,63084316
2014-09-30,1.45,1.46,1.4,1.46,51971000
2014-10-03,1.42,1.45,1.41,1.44,18802000
2014-10-06,1.44,1.46,1.42,1.43,25126000
2014-10-07,1.42,1.43,1.36,1.41,36559920
2014-10-08,1.38,1.43,1.38,1.41,19467200
2014-10-09,1.4,1.41,1.38,1.4,21529280
2014-10-10,1.39,1.39,1.36,1.39,9118000
2014-10-13,1.38,1.38,1.34,1.38,21323108
2014-10-14,1.36,1.41,1.35,1.39,9925300
2014-10-15,1.38,1.39,1.35,1.36,10746000
2014-10-16,1.34,1.36,1.31,1.36,22643200
2014-10-17,1.36,1.38,1.36,1.37,6602000
2014-10-20,1.37,1.38,1.34,1.37,8948000
2014-10-21,1.37,1.37,1.34,1.37,12769000
2014-10-22,1.37,1.39,1.36,1.38,9265000
2014-10-23,1.38,1.38,1.35,1.36,8104000
2014-10-24,1.36,1.37,1.35,1.35,8082000
2014-10-27,1.36,1.37,1.35,1.35,8874000
2014-10-28,1.35,1.38,1.34,1.37,15508200
2014-10-29,1.38,1.43,1.37,1.39,14076000
2014-10-30,1.38,1.44,1.38,1.41,25256000
2014-10-31,1.41,1.45,1.41,1.42,14556300
2014-11-03,1.41,1.44,1.4,1.42,4070000
2014-11-04,1.44,1.48,1.44,1.48,23155000
2014-11-05,1.49,1.5,1.44,1.48,19959000
2014-11-06,1.49,1.5,1.46,1.47,7728167
2014-11-07,1.47,1.48,1.45,1.46,2837000
2014-11-10,1.47,1.48,1.45,1.47,8558000
2014-11-11,1.48,1.5,1.47,1.49,39952000
2014-11-12,1.49,1.49,1.44,1.47,12937000
2014-11-13,1.46,1.47,1.43,1.45,12166000
2014-11-14,1.45,1.45,1.41,1.43,15108000
2014-11-17,1.42,1.45,1.42,1.44,4529000
2014-11-18,1.44,1.46,1.43,1.45,6104000
2014-11-19,1.45,1.45,1.42,1.44,6094000
2014-11-20,1.44,1.44,1.42,1.43,4875000
2014-11-21,1.44,1.5,1.44,1.5,34603248
2014-11-24,1.52,1.54,1.48,1.48,5931000
2014-11-25,1.49,1.51,1.48,1.5,8913000
2014-11-26,1.5,1.52,1.48,1.51,10287301
2014-11-27,1.5,1.5,1.46,1.48,4737000
2014-11-28,1.49,1.49,1.46,1.48,4225000
2014-12-01,1.48,1.48,1.42,1.46,9946127
2014-12-02,1.45,1.49,1.43,1.46,7816000
2014-12-03,1.47,1.47,1.43,1.45,6906000
2014-12-04,1.44,1.45,1.42,1.44,10943900
2014-12-05,1.45,1.45,1.39,1.43,42993000
2014-12-08,1.43,1.45,1.42,1.42,8560000
2014-12-09,1.42,1.43,1.4,1.42,22947000
2014-12-10,1.42,1.44,1.42,1.42,5378000
2014-12-11,1.42,1.44,1.41,1.43,8047661
2014-12-12,1.42,1.44,1.4,1.42,12129769
2014-12-15,1.4,1.43,1.4,1.42,9029700
2014-12-16,1.48,1.49,1.44,1.45,16703789
2014-12-17,1.45,1.46,1.42,1.42,20372700
2014-12-18,1.42,1.43,1.4,1.4,27993000
2014-12-19,1.41,1.41,1.4,1.41,11531000
2014-12-22,1.41,1.41,1.4,1.4,2358000
2014-12-23,1.41,1.41,1.37,1.39,16683102
2014-12-24,1.38,1.4,1.38,1.39,2309000
2014-12-29,1.4,1.4,1.35,1.37,7676000
2014-12-30,1.37,1.39,1.33,1.38,6706485
2014-12-31,1.39,1.39,1.37,1.38,2027000
2015-01-02,1.38,1.39,1.37,1.38,1062000
2015-01-05,1.39,1.41,1.37,1.38,5150000
2015-01-06,1.37,1.46,1.34,1.45,15841180
2015-01-07,1.43,1.43,1.38,1.38,10936000
2015-01-08,1.4,1.4,1.36,1.37,7620000
2015-01-09,1.37,1.37,1.34,1.35,10530800
2015-01-12,1.36,1.36,1.34,1.35,8085000
2015-01-13,1.34,1.35,1.31,1.34,9352000
2015-01-14,1.33,1.33,1.31,1.33,8457000
2015-01-15,1.32,1.33,1.31,1.33,4038973
2015-01-16,1.33,1.33,1.29,1.3,7312000
2015-01-17,1.42,1.42,1.42,1.42,0
2015-01-19,1.3,1.31,1.24,1.29,9972000
2015-01-20,1.3,1.33,1.26,1.3,5977304
2015-01-21,1.31,1.32,1.3,1.31,1787000
2015-01-22,1.32,1.32,1.27,1.29,4987000
2015-01-23,1.3,1.3,1.25,1.28,9425916
2015-01-26,1.29,1.3,1.26,1.29,5834000
2015-01-27,1.29,1.31,1.28,1.3,2146000
2015-01-28,1.32,1.36,1.31,1.33,18221000
2015-01-29,1.33,1.33,1.31,1.33,2027000
2015-01-30,1.3,1.32,1.29,1.32,8380000
2015-02-02,1.33,1.33,1.29,1.31,10823000
2015-02-03,1.3,1.31,1.29,1.3,17692000
2015-02-04,1.31,1.31,1.25,1.28,8328000
2015-02-05,1.28,1.31,1.28,1.3,11260000
2015-02-06,1.31,1.31,1.25,1.28,10732000
2015-02-09,1.3,1.3,1.27,1.28,2405000
2015-02-10,1.29,1.29,1.27,1.28,1336000
2015-02-11,1.27,1.3,1.27,1.29,2261000
2015-02-12,1.3,1.31,1.28,1.29,4961000
2015-02-13,1.29,1.29,1.28,1.29,1193000
2015-02-16,1.29,1.32,1.29,1.31,5071000
2015-02-17,1.32,1.32,1.31,1.31,2543000
2015-02-18,1.31,1.34,1.31,1.32,3520000
2015-02-23,1.33,1.33,1.31,1.33,5139000
2015-02-24,1.33,1.33,1.3,1.32,12005000
2015-02-25,1.32,1.32,1.3,1.32,3676000
2015-02-26,1.31,1.32,1.31,1.32,6824000
2015-02-27,1.31,1.32,1.3,1.3,4145000
2015-03-02,1.31,1.31,1.29,1.31,4800370
2015-03-03,1.31,1.32,1.3,1.31,3158000
2015-03-04,1.3,1.32,1.3,1.32,3595000
2015-03-05,1.31,1.32,1.3,1.31,7398000
2015-03-06,1.31,1.31,1.3,1.31,2014000
2015-03-09,1.3,1.32,1.29,1.3,6495700
2015-03-10,1.3,1.35,1.29,1.32,16020226
2015-03-11,1.32,1.32,1.29,1.3,5212000
2015-03-12,1.31,1.31,1.29,1.3,1395000
2015-03-13,1.3,1.31,1.29,1.31,7295000
2015-03-16,1.3,1.35,1.3,1.33,11431000
2015-03-17,1.34,1.37,1.34,1.36,14701000
2015-03-18,1.36,1.42,1.36,1.39,13315256
2015-03-19,1.37,1.45,1.37,1.42,20306000
2015-03-20,1.42,1.47,1.42,1.44,22113000
2015-03-23,1.45,1.46,1.41,1.42,4632000
2015-03-24,1.45,1.48,1.4,1.43,9040000
2015-03-25,1.44,1.52,1.43,1.46,36062836
2015-03-26,1.44,1.46,1.38,1.39,32904900
2015-03-27,1.4,1.41,1.39,1.41,8812000
2015-03-30,1.41,1.42,1.38,1.4,16092000
2015-03-31,1.4,1.41,1.39,1.4,13103000
2015-04-01,1.4,1.41,1.38,1.39,15088000
2015-04-02,1.39,1.44,1.39,1.41,35550952
2015-04-08,1.44,1.51,1.43,1.45,84145832
2015-04-09,1.49,1.6,1.47,1.51,76743000
2015-04-10,1.55,1.55,1.49,1.54,22758000
2015-04-13,1.55,1.68,1.53,1.67,97557296
2015-04-14,1.61,1.66,1.61,1.61,49367436
2015-04-15,1.62,1.65,1.58,1.6,27613000
2015-04-16,1.61,1.75,1.6,1.73,82820736
2015-04-17,1.78,1.9,1.74,1.89,173890592
2015-04-20,1.84,1.89,1.8,1.83,86544704
2015-04-21,1.87,1.94,1.8,1.93,95155000
2015-04-22,2.02,2.08,1.94,1.97,86464000
2015-04-23,2.0,2.09,1.97,1.98,72746608
2015-04-24,1.99,2.0,1.92,1.94,40917716
2015-04-27,1.94,2.0,1.93,1.95,61101328
2015-04-28,1.94,1.97,1.88,1.93,47412500
2015-04-29,1.93,1.95,1.88,1.91,41115000
2015-04-30,1.91,1.93,1.87,1.9,32379000
2015-05-04,1.91,1.94,1.84,1.87,48978000
2015-05-05,1.89,1.9,1.82,1.85,24985000
2015-05-06,1.82,1.84,1.79,1.8,46625000
2015-05-07,1.79,1.82,1.72,1.75,27436000
2015-05-08,1.76,1.86,1.74,1.83,28906000
2015-05-11,1.79,1.82,1.76,1.8,20432000
2015-05-12,1.81,1.84,1.79,1.8,12251367
2015-05-13,1.78,1.81,1.77,1.78,11327578
2015-05-14,1.78,1.82,1.75,1.8,15938151
2015-05-15,1.8,1.83,1.77,1.81,29815682
2015-05-18,1.82,1.89,1.82,1.88,45439000
2015-05-19,1.89,1.92,1.89,1.9,46785416
2015-05-20,1.91,1.93,1.89,1.89,28247000
2015-05-21,1.89,1.9,1.87,1.88,36587000
2015-05-22,1.85,1.96,1.8,1.93,39506500
2015-05-26,1.95,2.09,1.95,2.04,79521856
2015-05-27,2.05,2.21,2.03,2.2,82267016
2015-05-28,2.2,2.29,2.1,2.14,38814000
2015-05-29,2.15,2.28,2.09,2.2,28706000
2015-06-01,2.22,2.35,2.19,2.35,31167364
2015-06-02,2.37,2.41,2.25,2.3,37319000
2015-06-03,2.28,2.28,2.22,2.23,15316400
2015-06-04,2.24,2.32,2.14,2.28,23424000
2015-06-05,2.25,2.25,2.15,2.24,23344000
2015-06-08,2.24,2.27,2.2,2.21,24097000
2015-06-09,2.22,2.26,2.11,2.12,29926000
2015-06-10,2.09,2.21,2.07,2.13,28461112
2015-06-11,2.16,2.2,2.14,2.17,34342000
2015-06-12,2.2,2.23,2.15,2.2,23105000
2015-06-15,2.19,2.22,2.11,2.15,11962000
2015-06-16,2.14,2.23,2.13,2.18,17259000
2015-06-17,2.18,2.19,2.11,2.18,14481000
2015-06-18,2.18,2.18,2.1,2.13,16291000
2015-06-19,2.13,2.16,1.95,2.1,39018996
2015-06-22,2.05,2.1,2.02,2.07,6227101
2015-06-23,2.13,2.13,2.05,2.11,11846400
2015-06-24,2.09,2.09,2.02,2.07,19712000
2015-06-25,2.06,2.09,2.04,2.08,30815000
2015-06-26,2.08,2.1,2.03,2.05,37106384
2015-06-29,2.06,2.07,1.84,2.02,50399652
2015-06-30,2.0,2.06,1.9,2.05,29873000
2015-07-02,2.06,2.09,1.93,2.01,26802400
2015-07-03,1.95,2.05,1.91,1.99,27070684
2015-07-06,2.1,2.1,1.75,1.87,78896000
2015-07-07,1.8,1.89,1.8,1.86,54628760
2015-07-08,1.8,1.81,1.54,1.8,118888112
2015-07-09,1.75,1.96,1.71,1.85,45489832
2015-07-10,1.85,2.01,1.84,1.87,23903764
2015-07-13,1.85,1.92,1.77,1.91,13655700
2015-07-14,1.91,1.94,1.86,1.88,6181540
2015-07-15,1.85,1.91,1.84,1.88,6729000
2015-07-16,1.84,1.96,1.82,1.91,10865021
2015-07-17,1.92,2.05,1.92,2.02,37388000
2015-07-20,2.05,2.08,2.02,2.05,37622816
2015-07-21,2.07,2.08,2.02,2.06,9519000
2015-07-22,2.03,2.07,2.03,2.06,10463000
2015-07-23,2.08,2.12,2.03,2.06,17391000
2015-07-24,2.04,2.07,2.02,2.05,6109000
2015-07-27,2.05,2.05,1.97,1.99,11706253
2015-07-28,1.95,2.05,1.91,2.01,10789000
2015-07-29,2.02,2.02,1.97,1.99,3786000
2015-07-30,2.0,2.08,1.99,2.0,10022000
2015-07-31,2.01,2.02,1.95,1.98,11246000
2015-08-03,2.02,2.02,1.92,1.97,10501000
2015-08-04,1.94,2.0,1.94,1.98,5790000
2015-08-05,2.0,2.05,1.97,2.02,29303000
2015-08-06,1.99,2.04,1.99,2.03,4854000
2015-08-07,2.0,2.04,1.98,2.0,5568701
2015-08-10,2.0,2.03,1.99,2.01,6467000
2015-08-11,2.0,2.01,1.94,1.97,6426000
2015-08-12,1.97,1.97,1.93,1.95,8989667
2015-08-13,1.94,1.97,1.92,1.94,7069918
2015-08-14,1.94,1.97,1.94,1.95,3258000
2015-08-17,2.0,2.04,1.95,1.96,21589000
2015-08-18,1.97,2.07,1.94,1.95,28155154
2015-08-19,2.0,2.05,1.99,2.03,25723826
2015-08-20,2.01,2.03,1.96,1.99,20767000
2015-08-21,1.92,1.98,1.87,1.91,43839160
2015-08-24,1.81,1.86,1.68,1.8,48146880
2015-08-25,1.75,1.93,1.75,1.84,25959328
2015-08-26,1.88,1.88,1.82,1.83,6939000
2015-08-27,1.9,1.9,1.86,1.87,13246645
2015-08-28,1.88,1.93,1.87,1.87,17893000
2015-08-31,1.89,1.92,1.84,1.9,17979840
2015-09-01,1.95,1.95,1.88,1.91,9680701
2015-09-02,1.89,1.94,1.89,1.93,11349000
2015-09-04,1.92,1.99,1.92,1.97,19438000
2015-09-07,1.98,1.99,1.93,1.94,7629000
2015-09-08,1.95,1.98,1.94,1.97,6788000
2015-09-09,1.97,2.0,1.94,1.95,18159200
2015-09-10,1.97,1.97,1.95,1.97,10212274
2015-09-11,1.97,2.06,1.96,2.02,30428000
2015-09-14,2.01,2.07,1.96,1.99,16761000
2015-09-15,1.98,1.99,1.95,1.98,7633000
2015-09-16,1.99,2.0,1.94,1.97,19656000
2015-09-17,1.99,1.99,1.96,1.97,8356000
2015-09-18,1.95,1.98,1.93,1.93,6635274
2015-09-21,1.96,1.97,1.9,1.92,5904660
2015-09-22,1.91,1.98,1.91,1.91,8630000
2015-09-23,1.9,1.93,1.85,1.9,13018000
2015-09-24,1.91,1.95,1.88,1.9,8684320
2015-09-25,1.89,1.91,1.84,1.88,11040000
2015-09-29,1.83,1.87,1.83,1.86,7585000
2015-09-30,1.89,1.89,1.81,1.87,7773800
2015-10-02,1.89,1.93,1.85,1.88,15150780
2015-10-05,1.91,1.92,1.89,1.91,5641678
2015-10-06,1.93,1.93,1.87,1.9,11091000
2015-10-07,1.89,1.97,1.88,1.94,12133000
2015-10-08,1.97,1.97,1.89,1.92,12745000
2015-10-09,1.93,1.93,1.86,1.9,4685030
2015-10-12,1.93,1.93,1.87,1.88,8002000
2015-10-13,1.86,1.89,1.85,1.87,6318000
2015-10-14,1.87,1.9,1.86,1.9,5582451
2015-10-15,1.91,1.91,1.87,1.88,5536590
2015-10-16,1.88,1.91,1.88,1.89,4094000
2015-10-19,1.88,1.91,1.87,1.91,5239000
2015-10-20,1.88,1.9,1.87,1.89,7962800
2015-10-22,1.87,1.88,1.85,1.87,7049080
2015-10-23,1.88,1.91,1.87,1.9,12854000
2015-10-26,1.88,1.93,1.88,1.9,7481250
2015-10-27,1.91,1.97,1.9,1.95,19170000
2015-10-28,1.94,2.01,1.94,1.97,21388580
2015-10-29,1.97,2.02,1.97,1.99,14984653
2015-10-30,1.99,2.0,1.94,1.97,11297600
2015-11-02,1.97,1.99,1.96,1.97,9264000
2015-11-03,1.98,1.99,1.95,1.96,7724000
2015-11-04,1.96,1.99,1.94,1.95,6240000
2015-11-05,1.95,1.98,1.95,1.97,2743000
2015-11-06,1.96,2.02,1.96,1.98,10954000
2015-11-09,1.97,1.98,1.88,1.95,11037000
2015-11-10,1.95,1.95,1.89,1.92,5963957
2015-11-11,1.9,1.93,1.88,1.91,5474000
2015-11-12,1.89,1.93,1.89,1.92,9634000
2015-11-13,1.9,1.92,1.88,1.92,8095000
2015-11-16,1.9,1.91,1.88,1.9,8084000
2015-11-17,1.91,1.95,1.89,1.9,12886000
2015-11-18,1.9,1.96,1.9,1.93,17441000
2015-11-19,1.94,2.0,1.94,1.98,21217500
2015-11-20,1.99,2.07,1.98,1.99,28341000
2015-11-23,1.99,2.02,1.97,1.99,17226450
2015-11-24,1.98,2.01,1.98,2.01,11038000
2015-11-25,2.01,2.01,1.98,1.99,9787740
2015-11-26,1.98,1.99,1.95,1.98,7718182
2015-11-27,1.97,1.97,1.92,1.95,5463653
2015-11-30,1.95,1.95,1.92,1.94,9649000
2015-12-01,1.94,1.95,1.89,1.92,15402000
2015-12-02,1.93,1.93,1.9,1.91,16766610
2015-12-03,1.9,1.91,1.89,1.9,6727478
2015-12-04,1.89,1.89,1.86,1.89,9289000
2015-12-07,1.88,1.91,1.88,1.88,3223000
2015-12-08,1.89,1.9,1.86,1.89,7226267
2015-12-09,1.89,1.9,1.88,1.9,3521000
2015-12-10,1.89,1.9,1.87,1.88,10146264
2015-12-11,1.87,1.87,1.82,1.85,25030000
2015-12-14,1.82,1.87,1.8,1.86,10547830
2015-12-15,1.86,1.86,1.82,1.85,4837634
2015-12-16,1.85,1.85,1.8,1.84,13370246
2015-12-17,1.85,1.85,1.79,1.83,14639272
2015-12-18,1.83,1.84,1.8,1.84,10372533
2015-12-21,1.84,1.86,1.82,1.84,7148621
2015-12-22,1.83,1.87,1.83,1.86,6351872
2015-12-23,1.84,1.88,1.84,1.85,8074551
2015-12-24,1.86,1.89,1.84,1.86,3270000
2015-12-28,1.88,1.88,1.83,1.85,4843000
2015-12-29,1.85,1.86,1.82,1.82,6709110
2015-12-30,1.83,1.85,1.82,1.85,8299531
2015-12-31,1.85,1.86,1.83,1.85,3085809
2016-01-04,1.84,1.87,1.81,1.83,6130000
2016-01-05,1.82,1.84,1.8,1.82,4975000
2016-01-06,1.82,1.83,1.79,1.81,6675000
2016-01-07,1.8,1.8,1.7,1.78,12028653
2016-01-08,1.78,1.78,1.74,1.77,6324000
2016-01-11,1.75,1.76,1.7,1.74,17896222
2016-01-12,1.74,1.76,1.69,1.69,25973000
2016-01-13,1.71,1.71,1.65,1.69,16689000
2016-01-14,1.67,1.67,1.58,1.61,28279256
2016-01-15,1.6,1.64,1.59,1.59,16369123
2016-01-18,1.6,1.61,1.58,1.6,5349000
2016-01-19,1.59,1.6,1.55,1.57,10948050
2016-01-20,1.55,1.59,1.49,1.5,13912000
2016-01-21,1.52,1.6,1.44,1.47,28166604
2016-01-22,1.52,1.57,1.5,1.56,12041000
2016-01-25,1.56,1.6,1.54,1.56,5021990
2016-01-26,1.56,1.57,1.47,1.48,7457000
2016-01-27,1.49,1.52,1.45,1.49,10205273
2016-01-28,1.48,1.51,1.47,1.5,8580000
2016-01-29,1.51,1.58,1.51,1.55,10909000
2016-02-01,1.56,1.59,1.55,1.56,4050000
2016-02-02,1.57,1.6,1.55,1.59,9892000
2016-02-03,1.56,1.56,1.5,1.55,5751874
2016-02-04,1.56,1.57,1.55,1.56,2577000
2016-02-05,1.57,1.57,1.53,1.53,1243644
2016-02-11,1.53,1.53,1.5,1.5,7369750
2016-02-12,1.48,1.55,1.48,1.52,5472900
2016-02-15,1.52,1.57,1.51,1.57,3981999
2016-02-16,1.54,1.64,1.54,1.62,7507000
2016-02-17,1.62,1.66,1.61,1.62,6712780
2016-02-18,1.61,1.68,1.61,1.66,11647000
2016-02-19,1.67,1.69,1.65,1.67,4827000
2016-02-22,1.69,1.75,1.69,1.74,18476000
2016-02-23,1.74,1.75,1.67,1.67,7723273
2016-02-24,1.68,1.68,1.66,1.67,6696000
2016-02-25,1.68,1.68,1.65,1.67,4820083
2016-02-26,1.68,1.69,1.65,1.67,3940219
2016-02-29,1.67,1.73,1.66,1.68,3540800
2016-03-01,1.68,1.68,1.66,1.67,1160000
2016-03-02,1.69,1.76,1.66,1.69,9712000
2016-03-03,1.68,1.69,1.6,1.63,14840020
2016-03-04,1.64,1.65,1.6,1.62,14766000
2016-03-07,1.62,1.64,1.62,1.62,15218000
2016-03-08,1.61,1.65,1.61,1.64,3672882
2016-03-09,1.64,1.64,1.6,1.61,10619927
2016-03-10,1.62,1.62,1.6,1.61,4056000
2016-03-11,1.6,1.62,1.6,1.62,4726974
2016-03-14,1.63,1.63,1.6,1.62,4979100
2016-03-15,1.6,1.61,1.52,1.53,12943018
2016-03-16,1.54,1.55,1.46,1.49,10216025
2016-03-17,1.51,1.51,1.46,1.46,22115000
2016-03-18,1.47,1.57,1.47,1.54,27776124
2016-03-21,1.55,1.59,1.53,1.58,13364000
2016-03-22,1.59,1.67,1.58,1.63,34793340
2016-03-23,1.64,1.64,1.58,1.59,7815000
2016-03-24,1.56,1.58,1.55,1.56,4340000
2016-03-29,1.57,1.62,1.56,1.62,12426394
2016-03-30,1.61,1.61,1.59,1.6,5298531
2016-03-31,1.59,1.61,1.55,1.57,11664416
2016-04-01,1.59,1.59,1.53,1.56,7005000
2016-04-05,1.54,1.59,1.54,1.56,6714500
2016-04-06,1.55,1.57,1.54,1.55,6765225
2016-04-07,1.55,1.59,1.54,1.55,12073000
2016-04-08,1.54,1.59,1.54,1.58,8266000
2016-04-11,1.57,1.6,1.57,1.58,6009000
2016-04-12,1.57,1.62,1.57,1.61,7139021
2016-04-13,1.61,1.61,1.58,1.6,7763926
2016-04-14,1.61,1.65,1.61,1.64,21260418
2016-04-15,1.64,1.65,1.61,1.63,6042000
2016-04-18,1.63,1.63,1.61,1.62,3718808
2016-04-19,1.64,1.65,1.62,1.64,11829268
2016-04-20,1.63,1.65,1.6,1.62,7654515
2016-04-21,1.62,1.63,1.59,1.6,6650000
2016-04-22,1.6,1.62,1.59,1.61,5685000
2016-04-25,1.6,1.62,1.57,1.58,4004664
2016-04-26,1.59,1.6,1.55,1.57,6110132
2016-04-27,1.58,1.6,1.56,1.59,8863030
2016-04-28,1.59,1.62,1.58,1.61,7914150
2016-04-29,1.59,1.61,1.59,1.6,2454898
2016-05-03,1.6,1.61,1.57,1.57,5191027
2016-05-04,1.56,1.57,1.52,1.54,7164000
2016-05-05,1.52,1.54,1.51,1.53,5055000
2016-05-06,1.52,1.53,1.49,1.5,7947000
2016-05-09,1.47,1.47,1.45,1.46,2847000
2016-05-10,1.44,1.46,1.43,1.44,4537622
2016-05-11,1.45,1.46,1.43,1.45,2747019
2016-05-12,1.44,1.45,1.42,1.44,2697000
2016-05-13,1.43,1.43,1.32,1.36,16055166
2016-05-16,1.37,1.4,1.34,1.37,3911000
2016-05-17,1.3730000000000002,1.432,1.364,1.403,10840622
2016-05-18,1.383,1.413,1.383,1.393,4654929
2016-05-19,1.393,1.403,1.393,1.393,21317000
2016-05-20,1.37,1.4,1.36,1.39,10485000
2016-05-23,1.38,1.38,1.32,1.34,9434166
2016-05-24,1.35,1.36,1.28,1.29,10698312
2016-05-25,1.3,1.35,1.3,1.32,11026662
2016-05-26,1.3,1.3,1.24,1.25,26834008
2016-05-27,1.29,1.3,1.26,1.29,11574391
2016-05-30,1.3,1.31,1.29,1.29,6051652
2016-05-31,1.29,1.34,1.29,1.32,8559935
2016-06-01,1.32,1.34,1.3,1.31,8731196
2016-06-02,1.3,1.32,1.29,1.31,4291990
2016-06-03,1.31,1.32,1.3,1.3,7010224
2016-06-06,1.3,1.54,1.3,1.46,33538000
2016-06-07,1.47,1.53,1.47,1.49,24826000
2016-06-08,1.48,1.49,1.39,1.4,18136066
2016-06-10,1.4,1.42,1.39,1.39,13916478
2016-06-13,1.39,1.4,1.36,1.38,6382000
2016-06-14,1.39,1.39,1.33,1.36,17170218
2016-06-15,1.36,1.37,1.32,1.34,19288000
2016-06-16,1.34,1.34,1.3,1.32,10438000
2016-06-17,1.32,1.33,1.29,1.31,16872668
2016-06-20,1.31,1.32,1.3,1.31,2197000
2016-06-21,1.31,1.31,1.28,1.29,5808000
2016-06-22,1.35,1.4,1.33,1.34,26403460
2016-06-23,1.35,1.39,1.34,1.37,13856131
2016-06-24,1.36,1.38,1.32,1.38,9806000
2016-06-27,1.37,1.45,1.35,1.45,10326180
2016-06-28,1.42,1.44,1.39,1.41,6171029
2016-06-29,1.41,1.43,1.41,1.43,3041000
2016-06-30,1.43,1.47,1.37,1.37,16270000
2016-07-04,1.39,1.43,1.38,1.42,8908000
2016-07-05,1.41,1.44,1.41,1.43,2063000
2016-07-06,1.42,1.42,1.39,1.41,2915000
2016-07-07,1.4,1.42,1.38,1.38,6377700
2016-07-08,1.39,1.39,1.35,1.36,11142800
2016-07-11,1.39,1.42,1.39,1.41,5989642
2016-07-12,1.41,1.48,1.41,1.46,22799000
2016-07-13,1.47,1.48,1.45,1.47,8057000
2016-07-14,1.45,1.47,1.43,1.45,6299000
2016-07-15,1.46,1.5,1.45,1.48,7907000
2016-07-18,1.48,1.52,1.48,1.52,5067000
2016-07-19,1.53,1.59,1.5,1.56,17960162
2016-07-20,1.56,1.57,1.51,1.52,7782000
2016-07-21,1.52,1.56,1.51,1.54,6469660
2016-07-22,1.55,1.58,1.54,1.55,5061000
2016-07-25,1.55,1.56,1.53,1.54,2633000
2016-07-26,1.54,1.59,1.54,1.57,4260000
2016-07-27,1.57,1.58,1.5,1.53,6934772
2016-07-28,1.52,1.57,1.5,1.56,5216386
2016-07-29,1.56,1.57,1.53,1.53,5152600
2016-08-01,1.54,1.6,1.54,1.57,6657158
2016-08-03,1.55,1.57,1.52,1.53,9327000
2016-08-04,1.53,1.58,1.53,1.55,11662295
2016-08-05,1.57,1.59,1.57,1.59,4300000
2016-08-08,1.59,1.62,1.57,1.6,6007000
2016-08-09,1.6,1.62,1.58,1.58,5952000
2016-08-10,1.58,1.61,1.57,1.59,4660000
2016-08-11,1.59,1.64,1.59,1.64,9541000
2016-08-12,1.65,1.71,1.64,1.69,10908000
2016-08-15,1.7,1.73,1.69,1.69,15796000
2016-08-16,1.7,1.71,1.67,1.69,6575344
2016-08-17,1.7,1.73,1.64,1.7,21565700
2016-08-18,1.71,1.71,1.65,1.68,23895000
2016-08-19,1.6480000000000001,1.6580000000000001,1.629,1.6480000000000001,5270000
2016-08-22,1.6680000000000001,1.6680000000000001,1.599,1.619,7496000
2016-08-23,1.619,1.629,1.599,1.609,5256772
2016-08-24,1.609,1.629,1.599,1.619,6063386
2016-08-25,1.629,1.639,1.609,1.619,4992000
2016-08-26,1.639,1.639,1.589,1.599,11344000
2016-08-29,1.609,1.609,1.57,1.58,7032500
2016-08-30,1.6,1.61,1.55,1.56,9661000
2016-08-31,1.56,1.57,1.53,1.56,9837000
2016-09-01,1.55,1.56,1.53,1.55,4119525
2016-09-02,1.55,1.56,1.54,1.55,11397000
2016-09-05,1.56,1.57,1.54,1.55,5590000
2016-09-06,1.55,1.59,1.54,1.59,7943000
2016-09-07,1.6,1.63,1.59,1.61,12645772
2016-09-08,1.62,1.62,1.55,1.56,20680658
2016-09-09,1.56,1.6,1.56,1.58,19428000
2016-09-12,1.56,1.56,1.54,1.55,5621492
2016-09-13,1.56,1.56,1.54,1.56,22089700
2016-09-14,1.55,1.56,1.54,1.55,790127
2016-09-15,1.54,1.56,1.53,1.55,10980065
2016-09-19,1.54,1.55,1.52,1.53,6315238
2016-09-20,1.54,1.54,1.53,1.53,6296166
2016-09-21,1.55,1.55,1.53,1.55,14683000
2016-09-22,1.55,1.58,1.55,1.57,12815000
2016-09-23,1.56,1.58,1.54,1.56,4592046
2016-09-26,1.57,1.57,1.53,1.53,7067000
2016-09-27,1.52,1.55,1.52,1.55,5653400
2016-09-28,1.55,1.56,1.5,1.5,16462000
2016-09-29,1.52,1.55,1.51,1.55,6774000
2016-09-30,1.53,1.54,1.49,1.53,17792000
2016-10-03,1.53,1.55,1.53,1.55,2790000
2016-10-04,1.55,1.56,1.53,1.56,4740494
2016-10-05,1.55,1.57,1.55,1.57,4287612
2016-10-06,1.57,1.6,1.54,1.59,5553000
2016-10-07,1.58,1.6,1.57,1.59,6176000
2016-10-11,1.61,1.61,1.57,1.59,5046000
2016-10-12,1.58,1.59,1.55,1.56,4675000
2016-10-13,1.58,1.58,1.52,1.54,6380000
2016-10-14,1.54,1.56,1.53,1.56,3656000
2016-10-17,1.57,1.57,1.54,1.56,4248000
2016-10-18,1.56,1.57,1.55,1.55,1859000
2016-10-19,1.56,1.56,1.55,1.55,2408443
2016-10-20,1.56,1.58,1.55,1.55,2936000
2016-10-24,1.55,1.59,1.55,1.59,3728000
2016-10-25,1.59,1.59,1.56,1.57,2936000
2016-10-26,1.57,1.58,1.55,1.56,4346000
2016-10-27,1.57,1.57,1.54,1.55,3977000
2016-10-28,1.55,1.57,1.54,1.54,3395000
2016-10-31,1.54,1.55,1.51,1.51,4143900
2016-11-01,1.52,1.54,1.51,1.51,2136000
2016-11-02,1.51,1.53,1.51,1.52,2068000
2016-11-03,1.51,1.52,1.51,1.51,1117000
2016-11-04,1.51,1.53,1.51,1.52,3101224
2016-11-07,1.52,1.54,1.51,1.53,4439000
2016-11-08,1.53,1.54,1.51,1.53,4805000
2016-11-09,1.53,1.53,1.47,1.51,8193000
2016-11-10,1.52,1.53,1.51,1.53,1942000
2016-11-11,1.51,1.51,1.48,1.5,5993000
2016-11-14,1.49,1.5,1.45,1.48,5328000
2016-11-15,1.48,1.48,1.44,1.46,4982000
2016-11-16,1.47,1.5,1.46,1.5,2436000
2016-11-17,1.49,1.5,1.45,1.46,4185042
2016-11-18,1.46,1.49,1.45,1.49,2192321
2016-11-21,1.49,1.49,1.46,1.48,1442000
2016-11-22,1.48,1.51,1.47,1.49,2065310
2016-11-23,1.49,1.49,1.45,1.46,6092000
2016-11-24,1.47,1.48,1.46,1.48,716000
2016-11-25,1.47,1.49,1.45,1.45,2056000
2016-11-28,1.48,1.51,1.47,1.49,4553000
2016-11-29,1.5,1.5,1.48,1.5,5866000
2016-11-30,1.51,1.56,1.49,1.55,6726000
2016-12-01,1.55,1.55,1.53,1.53,1574800
2016-12-02,1.52,1.54,1.51,1.51,1017461
2016-12-05,1.52,1.54,1.51,1.51,4407000
2016-12-06,1.53,1.53,1.5,1.51,6500000
2016-12-07,1.51,1.52,1.5,1.52,1186053
2016-12-08,1.52,1.53,1.51,1.52,3012900
2016-12-09,1.51,1.52,1.49,1.49,3887000
2016-12-12,1.49,1.5,1.45,1.45,2027000
2016-12-13,1.45,1.48,1.44,1.46,3303000
2016-12-14,1.46,1.49,1.46,1.47,2647000
2016-12-15,1.46,1.47,1.45,1.45,2560678
2016-12-16,1.45,1.47,1.44,1.46,4458027
2016-12-19,1.46,1.46,1.43,1.43,1617000
2016-12-20,1.44,1.46,1.43,1.43,3459000
2016-12-21,1.44,1.45,1.42,1.43,3099900
2016-12-22,1.43,1.44,1.39,1.4,5552000
2016-12-23,1.4,1.41,1.38,1.4,2156000
2016-12-28,1.4,1.4,1.37,1.39,2536157
2016-12-29,1.39,1.4,1.38,1.38,5618668
2016-12-30,1.38,1.41,1.38,1.4,3008000
2017-01-03,1.4,1.44,1.4,1.44,1334600
2017-01-04,1.43,1.44,1.42,1.44,1595800
2017-01-05,1.44,1.45,1.43,1.44,733800
2017-01-06,1.44,1.45,1.43,1.43,1207851
2017-01-09,1.44,1.44,1.4,1.4,2212000
2017-01-10,1.41,1.42,1.4,1.42,2575000
2017-01-11,1.42,1.44,1.41,1.42,3125000
2017-01-12,1.41,1.44,1.41,1.42,2538000
2017-01-13,1.42,1.44,1.42,1.43,1857257
2017-01-16,1.42,1.43,1.4,1.41,1564000
2017-01-17,1.41,1.42,1.41,1.42,1681750
2017-01-18,1.42,1.45,1.41,1.45,3978000
2017-01-19,1.44,1.46,1.43,1.44,3372421
2017-01-20,1.44,1.45,1.43,1.43,3002000
2017-01-23,1.43,1.45,1.43,1.45,1090000
2017-01-24,1.45,1.45,1.41,1.43,10095000
2017-01-25,1.43,1.46,1.43,1.43,3084000
2017-01-26,1.44,1.47,1.43,1.47,5286756
2017-01-27,1.47,1.47,1.44,1.45,964600
2017-02-01,1.45,1.47,1.44,1.46,2698842
2017-02-02,1.46,1.47,1.45,1.47,2025836
2017-02-03,1.47,1.47,1.44,1.45,1772830
2017-02-06,1.46,1.47,1.45,1.45,2522000
2017-02-07,1.45,1.46,1.42,1.42,5723000
2017-02-08,1.42,1.42,1.4,1.41,15753000
2017-02-09,1.42,1.44,1.42,1.43,19333000
2017-02-10,1.44,1.47,1.43,1.45,17183268
2017-02-13,1.47,1.54,1.46,1.53,37509000
2017-02-14,1.53,1.54,1.49,1.52,20272268
2017-02-15,1.53,1.53,1.51,1.51,10611000
2017-02-16,1.52,1.53,1.49,1.51,13439368
2017-02-17,1.51,1.51,1.47,1.49,9592545
2017-02-20,1.49,1.5,1.47,1.49,9673000
2017-02-21,1.5,1.52,1.49,1.5,15206326
2017-02-22,1.5,1.53,1.49,1.5,10006823
2017-02-23,1.49,1.51,1.47,1.49,14899836
2017-02-24,1.48,1.49,1.44,1.47,21058600
2017-02-27,1.47,1.47,1.44,1.45,15913000
2017-02-28,1.45,1.47,1.44,1.47,8228000
2017-03-01,1.46,1.48,1.45,1.48,14554000
2017-03-02,1.5,1.51,1.48,1.49,14226000
2017-03-03,1.49,1.49,1.47,1.47,3708114
2017-03-06,1.48,1.48,1.45,1.47,23053000
2017-03-07,1.46,1.47,1.45,1.47,5050545
2017-03-08,1.47,1.57,1.47,1.56,60022000
2017-03-09,1.56,1.57,1.53,1.54,12250658
2017-03-10,1.54,1.54,1.51,1.51,5088791
2017-03-13,1.52,1.55,1.51,1.53,6006000
2017-03-14,1.53,1.64,1.52,1.57,36289032
2017-03-15,1.59,1.6,1.56,1.56,6675000
2017-03-16,1.57,1.59,1.54,1.55,13552000
2017-03-17,1.266,1.29,1.258,1.266,11330609
2017-03-20,1.266,1.33,1.266,1.298,21847500
2017-03-21,1.306,1.306,1.274,1.2819999999999998,9828554
2017-03-22,1.274,1.29,1.234,1.258,22588000
2017-03-23,1.258,1.266,1.225,1.242,11678000
2017-03-24,1.242,1.25,1.225,1.234,8368545
2017-03-27,1.225,1.234,1.193,1.217,12322000
2017-03-28,1.225,1.234,1.209,1.225,3885000
2017-03-29,1.225,1.234,1.2009999999999998,1.209,7952000
2017-03-30,1.2009999999999998,1.209,1.185,1.209,2773478
2017-03-31,1.209,1.217,1.185,1.2009999999999998,6876000
2017-04-03,1.2009999999999998,1.209,1.193,1.209,3604316
2017-04-05,1.209,1.225,1.2009999999999998,1.225,6818667
2017-04-06,1.234,1.25,1.209,1.225,6854000
2017-04-07,1.225,1.225,1.193,1.2009999999999998,9485000
2017-04-10,1.2009999999999998,1.217,1.193,1.2009999999999998,4721866
2017-04-11,1.2009999999999998,1.2009999999999998,1.193,1.2009999999999998,3596948
2017-04-12,1.2009999999999998,1.2009999999999998,1.177,1.193,9829060
2017-04-13,1.185,1.209,1.177,1.209,9505000
2017-04-18,1.2009999999999998,1.209,1.193,1.209,3631000
2017-04-19,1.209,1.209,1.185,1.193,6065600
2017-04-20,1.193,1.209,1.193,1.209,3780030
2017-04-21,1.209,1.225,1.193,1.217,3311000
2017-04-24,1.217,1.217,1.2009999999999998,1.217,4233000
2017-04-25,1.209,1.25,1.209,1.25,10592000
2017-04-26,1.25,1.25,1.225,1.234,2821000
2017-04-27,1.225,1.234,1.193,1.2009999999999998,7810200
2017-04-28,1.217,1.217,1.193,1.193,5804000
2017-05-02,1.2009999999999998,1.209,1.193,1.209,2545000
2017-05-04,1.209,1.209,1.193,1.2009999999999998,4270000
2017-05-05,1.209,1.217,1.2009999999999998,1.209,8903000
2017-05-08,1.217,1.225,1.193,1.217,8094943
2017-05-09,1.225,1.242,1.217,1.242,12602000
2017-05-10,1.25,1.25,1.217,1.234,8099000
2017-05-11,1.234,1.25,1.2009999999999998,1.234,12801000
2017-05-12,1.234,1.234,1.217,1.217,10219836
2017-05-15,1.229,1.237,1.188,1.196,12522000
2017-05-16,1.188,1.188,1.147,1.171,19189216
2017-05-17,1.163,1.171,1.122,1.139,14592000
2017-05-18,1.131,1.147,1.122,1.131,6464000
2017-05-19,1.131,1.155,1.122,1.139,10975000
2017-05-22,1.147,1.155,1.139,1.147,3003000
2017-05-23,1.147,1.147,1.131,1.147,10661000
2017-05-24,1.147,1.147,1.122,1.131,7197000
2017-05-25,1.131,1.131,1.114,1.122,6838200
2017-05-26,1.122,1.155,1.122,1.139,6497322
2017-05-29,1.131,1.147,1.131,1.139,2151000
2017-05-31,1.131,1.147,1.122,1.139,5209000
2017-06-01,1.131,1.139,1.114,1.131,6595000
2017-06-02,1.122,1.139,1.0979999999999999,1.0979999999999999,12961345
2017-06-05,1.1059999999999999,1.147,1.1059999999999999,1.131,9199000
2017-06-06,1.122,1.131,1.1059999999999999,1.1059999999999999,4902000
2017-06-07,1.1059999999999999,1.122,1.1059999999999999,1.122,4382000
2017-06-08,1.114,1.122,1.1059999999999999,1.114,3542700
2017-06-09,1.163,1.171,1.131,1.155,18726000
2017-06-12,1.147,1.155,1.139,1.147,5212000
2017-06-13,1.139,1.155,1.139,1.155,3765000
2017-06-14,1.147,1.155,1.139,1.155,4722000
2017-06-15,1.147,1.155,1.139,1.147,6990000
2017-06-16,1.155,1.188,1.139,1.18,7196700
2017-06-19,1.18,1.18,1.155,1.155,3882000
2017-06-20,1.163,1.171,1.155,1.171,3268400
2017-06-21,1.163,1.188,1.163,1.18,4402000
2017-06-22,1.171,1.18,1.139,1.147,25840000
2017-06-23,1.147,1.155,1.131,1.131,5387311
2017-06-26,1.131,1.147,1.131,1.139,7016000
2017-06-27,1.139,1.147,1.131,1.147,5253000
2017-06-28,1.139,1.147,1.114,1.122,7515000
2017-06-29,1.122,1.139,1.122,1.122,5376700
2017-06-30,1.131,1.139,1.122,1.139,7055000
2017-07-03,1.139,1.139,1.114,1.114,6163000
2017-07-04,1.122,1.131,1.0979999999999999,1.114,9343000
2017-07-05,1.1059999999999999,1.131,1.1059999999999999,1.122,2682836
2017-07-06,1.114,1.131,1.114,1.131,4393000
2017-07-07,1.122,1.131,1.114,1.131,3656000
2017-07-10,1.122,1.131,1.122,1.122,1392000
2017-07-11,1.122,1.139,1.122,1.122,3856400
2017-07-12,1.122,1.131,1.122,1.122,3625545
2017-07-13,1.131,1.155,1.122,1.139,6414000
2017-07-14,1.139,1.147,1.131,1.139,3469000
2017-07-17,1.139,1.147,1.131,1.131,2024030
2017-07-18,1.139,1.139,1.122,1.131,2068000
2017-07-19,1.131,1.139,1.122,1.131,8665000
2017-07-20,1.131,1.147,1.122,1.147,7291000
2017-07-21,1.147,1.147,1.131,1.139,2705000
2017-07-24,1.131,1.163,1.131,1.163,10759000
2017-07-25,1.163,1.171,1.155,1.155,5174000
2017-07-26,1.171,1.18,1.147,1.163,4545338
2017-07-27,1.163,1.188,1.155,1.18,5497672
2017-07-28,1.171,1.18,1.163,1.171,2253000
2017-07-31,1.163,1.204,1.163,1.188,7794000
2017-08-01,1.188,1.188,1.171,1.18,5269049
2017-08-02,1.188,1.196,1.18,1.188,3022000
2017-08-03,1.188,1.188,1.171,1.171,4708000
2017-08-04,1.171,1.188,1.155,1.155,5127000
2017-08-07,1.163,1.253,1.163,1.2209999999999999,30800000
2017-08-08,1.229,1.278,1.229,1.278,22117000
2017-08-09,1.278,1.286,1.253,1.27,10595000
2017-08-10,1.262,1.286,1.237,1.262,11971000
2017-08-11,1.253,1.253,1.229,1.253,8454000
2017-08-14,1.262,1.27,1.237,1.27,4788000
2017-08-15,1.27,1.278,1.245,1.262,8525000
2017-08-16,1.27,1.45,1.245,1.368,74528400
2017-08-17,1.368,1.3840000000000001,1.3430000000000002,1.36,33458434
2017-08-18,1.3519999999999999,1.36,1.311,1.335,36340000
2017-08-21,1.3430000000000002,1.376,1.3430000000000002,1.368,29485000
2017-08-22,1.368,1.376,1.3519999999999999,1.36,16898000
2017-08-24,1.368,1.409,1.3519999999999999,1.401,21073000
2017-08-25,1.401,1.401,1.3840000000000001,1.393,14760000
2017-08-28,1.3840000000000001,1.393,1.368,1.376,27781000
2017-08-29,1.354,1.354,1.278,1.307,26233000
2017-08-30,1.307,1.3159999999999998,1.297,1.3159999999999998,7858200
2017-08-31,1.3159999999999998,1.335,1.297,1.335,16298000
2017-09-01,1.335,1.345,1.307,1.307,5440200
2017-09-04,1.307,1.3159999999999998,1.288,1.307,6082000
2017-09-05,1.307,1.3159999999999998,1.297,1.307,6259400
2017-09-06,1.297,1.3159999999999998,1.288,1.3159999999999998,5774344
2017-09-07,1.307,1.335,1.307,1.335,10694000
2017-09-08,1.345,1.345,1.3159999999999998,1.335,5281254
2017-09-11,1.364,1.364,1.3159999999999998,1.3259999999999998,4092000
2017-09-12,1.335,1.345,1.3259999999999998,1.345,8344666
2017-09-13,1.335,1.345,1.3259999999999998,1.335,7651000
2017-09-14,1.335,1.335,1.3159999999999998,1.3259999999999998,5775800
2017-09-15,1.3159999999999998,1.335,1.3159999999999998,1.335,6396400
2017-09-18,1.335,1.335,1.307,1.3159999999999998,6164000
2017-09-19,1.3159999999999998,1.335,1.307,1.335,5121648
2017-09-20,1.335,1.335,1.3159999999999998,1.335,7084000
2017-09-21,1.335,1.335,1.3159999999999998,1.3259999999999998,8870000
2017-09-22,1.3159999999999998,1.3259999999999998,1.307,1.3159999999999998,8930000
2017-09-25,1.3159999999999998,1.3159999999999998,1.288,1.297,7196000
2017-09-26,1.297,1.297,1.278,1.278,3896000
2017-09-27,1.288,1.307,1.278,1.288,5186000
2017-09-28,1.297,1.297,1.2590000000000001,1.2690000000000001,9189316
2017-09-29,1.2690000000000001,1.297,1.2690000000000001,1.297,4013000
2017-10-03,1.288,1.3159999999999998,1.278,1.3159999999999998,2827707
2017-10-04,1.3259999999999998,1.335,1.307,1.3259999999999998,7353000
2017-10-06,1.3259999999999998,1.335,1.3159999999999998,1.335,8197600
2017-10-09,1.3259999999999998,1.3259999999999998,1.307,1.3159999999999998,6327000
2017-10-10,1.335,1.45,1.3259999999999998,1.421,63306664
2017-10-11,1.431,1.45,1.412,1.412,27209408
2017-10-12,1.421,1.45,1.383,1.44,11502000
2017-10-13,1.431,1.431,1.393,1.402,6982000
2017-10-16,1.393,1.431,1.393,1.421,14164000
2017-10-17,1.431,1.431,1.402,1.412,9443224
2017-10-18,1.421,1.421,1.393,1.402,3700000
2017-10-19,1.393,1.402,1.3259999999999998,1.335,13138000
2017-10-20,1.345,1.364,1.335,1.354,6069000
2017-10-23,1.354,1.383,1.354,1.3730000000000002,8242394
2017-10-24,1.3730000000000002,1.383,1.364,1.383,2967000
2017-10-25,1.383,1.383,1.364,1.364,3413161
2017-10-26,1.3730000000000002,1.402,1.364,1.393,6415679
2017-10-27,1.393,1.402,1.3730000000000002,1.3730000000000002,8806262
2017-10-30,1.383,1.383,1.345,1.364,6368000
2017-10-31,1.3730000000000002,1.393,1.364,1.383,8042804
2017-11-01,1.402,1.412,1.3730000000000002,1.402,9122710
2017-11-02,1.402,1.402,1.383,1.402,4265710
2017-11-03,1.412,1.412,1.393,1.412,6859517
2017-11-06,1.412,1.412,1.383,1.402,8211000
2017-11-07,1.402,1.402,1.364,1.383,5365000
2017-11-08,1.3730000000000002,1.383,1.354,1.364,5132781
2017-11-09,1.364,1.3730000000000002,1.345,1.354,4510000
2017-11-10,1.345,1.354,1.335,1.335,3153000
2017-11-13,1.345,1.354,1.335,1.345,927000
2017-11-14,1.354,1.354,1.3259999999999998,1.335,2191000
2017-11-15,1.335,1.335,1.3159999999999998,1.3259999999999998,1451734
2017-11-16,1.335,1.335,1.3159999999999998,1.335,2430000
2017-11-17,1.345,1.345,1.3159999999999998,1.3259999999999998,2808000
2017-11-20,1.3259999999999998,1.335,1.3159999999999998,1.3259999999999998,4212000
2017-11-21,1.3159999999999998,1.335,1.3159999999999998,1.3259999999999998,2506000
2017-11-22,1.3259999999999998,1.354,1.3259999999999998,1.345,4442705
2017-11-23,1.345,1.345,1.3259999999999998,1.335,4435000
2017-11-24,1.345,1.345,1.3259999999999998,1.335,562000
2017-11-27,1.335,1.345,1.3259999999999998,1.335,2724000
2017-11-28,1.345,1.345,1.3159999999999998,1.3259999999999998,1896000
2017-11-29,1.335,1.335,1.3159999999999998,1.3259999999999998,2146000
2017-11-30,1.3159999999999998,1.335,1.3159999999999998,1.335,5969000
2017-12-01,1.335,1.345,1.3159999999999998,1.335,2746000
2017-12-04,1.3259999999999998,1.345,1.3259999999999998,1.345,2171358
2017-12-05,1.345,1.364,1.345,1.364,2077000
2017-12-06,1.345,1.364,1.3259999999999998,1.335,7284000
2017-12-07,1.335,1.345,1.3159999999999998,1.3259999999999998,3863000
2017-12-08,1.3259999999999998,1.335,1.3159999999999998,1.335,5484030
2017-12-11,1.3259999999999998,1.383,1.3259999999999998,1.3730000000000002,14076000
2017-12-12,1.3730000000000002,1.421,1.3730000000000002,1.402,11531000
2017-12-13,1.393,1.421,1.393,1.412,4347030
2017-12-14,1.412,1.412,1.383,1.393,5590955
2017-12-15,1.383,1.393,1.364,1.393,5028000
2017-12-18,1.383,1.383,1.345,1.3730000000000002,5301224
2017-12-19,1.383,1.393,1.364,1.383,1740000
2017-12-20,1.3730000000000002,1.383,1.354,1.354,2234000
2017-12-21,1.364,1.383,1.354,1.364,3629000
2017-12-22,1.383,1.393,1.364,1.393,4173000
2017-12-27,1.393,1.402,1.3730000000000002,1.383,2739642
2017-12-28,1.393,1.393,1.364,1.383,1682000
2017-12-29,1.3730000000000002,1.383,1.364,1.383,2214000
2018-01-02,1.383,1.402,1.383,1.402,2223000
2018-01-03,1.402,1.421,1.393,1.412,6409000
2018-01-04,1.412,1.412,1.383,1.393,3480000
2018-01-05,1.383,1.402,1.383,1.402,4252392
2018-01-08,1.402,1.412,1.383,1.402,6041000
2018-01-09,1.402,1.4780000000000002,1.393,1.469,19925000
2018-01-10,1.4880000000000002,1.4980000000000002,1.44,1.469,6145000
2018-01-11,1.469,1.469,1.431,1.459,5889088
2018-01-12,1.469,1.469,1.431,1.45,3065000
2018-01-15,1.45,1.45,1.402,1.44,7899000
2018-01-16,1.44,1.44,1.412,1.431,1851000
2018-01-17,1.431,1.431,1.402,1.421,4214000
2018-01-18,1.421,1.421,1.402,1.402,3345000
2018-01-19,1.402,1.44,1.402,1.421,6356000
2018-01-22,1.44,1.4980000000000002,1.431,1.4780000000000002,15183635
2018-01-23,1.4780000000000002,1.5830000000000002,1.44,1.526,32862000
2018-01-24,1.526,1.564,1.507,1.545,10597030
2018-01-25,1.555,1.564,1.507,1.526,11187545
2018-01-26,1.536,1.555,1.526,1.555,6828000
2018-01-29,1.564,1.564,1.526,1.545,4397452
2018-01-30,1.545,1.555,1.469,1.507,6718000
2018-01-31,1.507,1.517,1.4780000000000002,1.517,7214000
2018-02-01,1.526,1.545,1.4880000000000002,1.536,7848895
2018-02-02,1.545,1.545,1.507,1.526,1217883
2018-02-05,1.507,1.507,1.469,1.4780000000000002,2761224
2018-02-06,1.459,1.4780000000000002,1.412,1.44,16567000
2018-02-07,1.421,1.469,1.412,1.431,5036000
2018-02-08,1.431,1.44,1.393,1.402,5293000
2018-02-09,1.402,1.402,1.335,1.383,10718277
2018-02-12,1.383,1.412,1.3730000000000002,1.412,1990000
2018-02-13,1.421,1.431,1.3730000000000002,1.421,3138512
2018-02-14,1.421,1.44,1.402,1.44,1593487
2018-02-15,1.431,1.469,1.431,1.469,2276000
2018-02-20,1.469,1.4780000000000002,1.44,1.469,1703924
2018-02-21,1.469,1.4880000000000002,1.459,1.459,2541000
2018-02-22,1.469,1.4780000000000002,1.431,1.45,2043000
2018-02-23,1.45,1.469,1.44,1.459,703000
2018-02-26,1.469,1.4780000000000002,1.45,1.469,2684000
2018-02-27,1.469,1.4780000000000002,1.431,1.44,5275503
2018-02-28,1.44,1.469,1.431,1.45,2507546
2018-03-01,1.44,1.459,1.44,1.459,2064000
2018-03-02,1.459,1.469,1.44,1.459,6278000
2018-03-05,1.459,1.4980000000000002,1.45,1.4880000000000002,8748000
2018-03-06,1.4880000000000002,1.517,1.469,1.4980000000000002,6150000
2018-03-07,1.4980000000000002,1.507,1.469,1.4780000000000002,2147000
2018-03-08,1.4780000000000002,1.4980000000000002,1.469,1.4780000000000002,4849000
2018-03-09,1.469,1.4780000000000002,1.459,1.4780000000000002,6178000
2018-03-12,1.4780000000000002,1.4880000000000002,1.469,1.469,2771000
2018-03-13,1.469,1.4780000000000002,1.45,1.45,2867542
2018-03-14,1.45,1.45,1.431,1.44,9496000
2018-03-15,1.44,1.45,1.431,1.45,9216240
2018-03-16,1.45,1.507,1.44,1.507,19357936
2018-03-19,1.507,1.6119999999999999,1.507,1.555,28169464
2018-03-20,1.545,1.564,1.4780000000000002,1.517,12149000
2018-03-21,1.526,1.536,1.412,1.431,41203000
2018-03-22,1.44,1.44,1.364,1.3730000000000002,26066000
2018-03-23,1.364,1.3730000000000002,1.335,1.354,8522000
2018-03-26,1.345,1.3730000000000002,1.335,1.364,5942000
2018-03-27,1.3730000000000002,1.393,1.345,1.354,10018150
2018-03-28,1.345,1.345,1.3159999999999998,1.3159999999999998,9208448
2018-03-29,1.3159999999999998,1.3259999999999998,1.297,1.307,8998000
2018-04-03,1.307,1.307,1.278,1.288,15109290
2018-04-04,1.288,1.307,1.278,1.288,6012823
2018-04-06,1.297,1.297,1.288,1.297,6760000
2018-04-09,1.297,1.307,1.288,1.297,8175000
2018-04-10,1.297,1.307,1.288,1.307,15792160
2018-04-11,1.307,1.383,1.307,1.364,26081620
2018-04-12,1.364,1.364,1.3159999999999998,1.3159999999999998,8946000
2018-04-13,1.335,1.335,1.297,1.297,7299000
2018-04-16,1.297,1.307,1.278,1.278,5371000
2018-04-17,1.297,1.3730000000000002,1.288,1.3730000000000002,23971740
2018-04-18,1.3730000000000002,1.383,1.3259999999999998,1.345,5976000
2018-04-19,1.354,1.402,1.3259999999999998,1.335,14918000
2018-04-20,1.335,1.335,1.3159999999999998,1.3259999999999998,2637000
2018-04-23,1.335,1.383,1.3159999999999998,1.3259999999999998,4545000
2018-04-24,1.3159999999999998,1.402,1.3159999999999998,1.402,8954000
2018-04-25,1.393,1.393,1.354,1.3730000000000002,3425000
2018-04-26,1.383,1.383,1.345,1.354,2735782
2018-04-27,1.364,1.3730000000000002,1.345,1.354,2038000
2018-04-30,1.354,1.3730000000000002,1.354,1.3730000000000002,2440000
2018-05-02,1.364,1.364,1.3159999999999998,1.354,6889000
2018-05-03,1.345,1.345,1.3259999999999998,1.335,2977030
2018-05-04,1.335,1.364,1.3259999999999998,1.354,16633000
2018-05-07,1.354,1.364,1.3159999999999998,1.3159999999999998,7177000
2018-05-08,1.345,1.345,1.3159999999999998,1.3159999999999998,6611000
2018-05-09,1.3259999999999998,1.335,1.307,1.3159999999999998,7421000
2018-05-10,1.3259999999999998,1.3259999999999998,1.307,1.307,5371000
2018-05-11,1.3159999999999998,1.3259999999999998,1.307,1.3159999999999998,6565000
2018-05-14,1.321,1.331,1.3119999999999998,1.331,6037000
2018-05-15,1.321,1.351,1.3119999999999998,1.341,5297000
2018-05-16,1.341,1.4,1.321,1.361,17047926
2018-05-17,1.361,1.39,1.361,1.39,4101000
2018-05-18,1.4,1.4,1.38,1.39,3562000
2018-05-21,1.4,1.429,1.39,1.419,9767000
2018-05-23,1.409,1.419,1.38,1.38,4287000
2018-05-24,1.39,1.39,1.361,1.39,4890000
2018-05-25,1.38,1.39,1.37,1.38,8407000
2018-05-28,1.38,1.439,1.38,1.419,7625000
2018-05-29,1.409,1.449,1.39,1.439,12518000
2018-05-30,1.419,1.429,1.4,1.409,9076000
2018-05-31,1.429,1.4580000000000002,1.409,1.4580000000000002,11874000
2018-06-01,1.449,1.4680000000000002,1.429,1.4580000000000002,12746000
2018-06-04,1.449,1.4680000000000002,1.439,1.4680000000000002,8492000
2018-06-05,1.4680000000000002,1.4680000000000002,1.449,1.4580000000000002,2759000
2018-06-06,1.4580000000000002,1.4680000000000002,1.429,1.449,7590000
2018-06-07,1.4680000000000002,1.507,1.449,1.4880000000000002,14103000
2018-06-08,1.4880000000000002,1.4980000000000002,1.4580000000000002,1.4980000000000002,6886000
2018-06-11,1.4980000000000002,1.4980000000000002,1.4580000000000002,1.4780000000000002,3892000
2018-06-12,1.4780000000000002,1.4880000000000002,1.4580000000000002,1.4680000000000002,3963001
2018-06-13,1.4780000000000002,1.537,1.4780000000000002,1.527,12853030
2018-06-14,1.527,1.527,1.449,1.449,9092000
2018-06-15,1.449,1.4680000000000002,1.449,1.4680000000000002,5259000
2018-06-19,1.4580000000000002,1.4580000000000002,1.38,1.419,10617000
2018-06-20,1.419,1.429,1.409,1.419,2522000
2018-06-21,1.419,1.419,1.38,1.4,4773000
2018-06-22,1.38,1.4,1.37,1.39,6284000
2018-06-25,1.39,1.4,1.38,1.39,4152152
2018-06-26,1.4,1.449,1.4,1.429,11147000
2018-06-27,1.439,1.449,1.4,1.409,7454000
2018-06-28,1.419,1.429,1.38,1.38,5357000
2018-06-29,1.409,1.409,1.38,1.409,3134000
2018-07-03,1.409,1.409,1.331,1.351,11895000
2018-07-04,1.341,1.361,1.3119999999999998,1.3119999999999998,7178971
2018-07-05,1.3119999999999998,1.341,1.3119999999999998,1.341,6007000
2018-07-06,1.321,1.321,1.2919999999999998,1.3019999999999998,3822000
2018-07-09,1.3119999999999998,1.351,1.3019999999999998,1.351,3671000
2018-07-10,1.351,1.39,1.331,1.351,6347000
2018-07-11,1.341,1.37,1.321,1.37,6832000
2018-07-12,1.351,1.361,1.341,1.361,4241000
2018-07-13,1.361,1.361,1.331,1.341,3828000
2018-07-16,1.321,1.331,1.3119999999999998,1.321,4886000
2018-07-17,1.3119999999999998,1.3119999999999998,1.2919999999999998,1.2919999999999998,5007000
2018-07-18,1.2919999999999998,1.3119999999999998,1.2919999999999998,1.3119999999999998,4270000
2018-07-19,1.3119999999999998,1.3119999999999998,1.2919999999999998,1.3019999999999998,5621000
2018-07-20,1.3019999999999998,1.3019999999999998,1.272,1.3019999999999998,4296000
2018-07-23,1.2919999999999998,1.2919999999999998,1.272,1.2819999999999998,2752000
2018-07-24,1.2919999999999998,1.331,1.2819999999999998,1.331,7158000
2018-07-25,1.321,1.331,1.321,1.321,3484000
2018-07-26,1.3019999999999998,1.331,1.3019999999999998,1.321,3099000
2018-07-27,1.3019999999999998,1.3119999999999998,1.2819999999999998,1.3019999999999998,3506000
2018-07-30,1.3019999999999998,1.3019999999999998,1.263,1.2919999999999998,10733000
2018-07-31,1.2919999999999998,1.2919999999999998,1.272,1.272,1864000
2018-08-01,1.2919999999999998,1.2919999999999998,1.272,1.2919999999999998,1065000
2018-08-02,1.2919999999999998,1.2919999999999998,1.253,1.253,3491000
2018-08-03,1.263,1.263,1.224,1.224,6177000
2018-08-06,1.2329999999999999,1.2429999999999999,1.194,1.194,3849000
2018-08-07,1.214,1.272,1.214,1.2429999999999999,2059000
2018-08-08,1.253,1.272,1.175,1.194,22373000
2018-08-09,1.194,1.2429999999999999,1.194,1.2429999999999999,4354000
2018-08-10,1.2329999999999999,1.2329999999999999,1.214,1.2329999999999999,2901000
2018-08-13,1.2329999999999999,1.2329999999999999,1.214,1.224,917000
2018-08-14,1.224,1.224,1.194,1.224,2793000
2018-08-15,1.224,1.263,1.165,1.1840000000000002,10566000
2018-08-16,1.175,1.2329999999999999,1.175,1.204,24851000
2018-08-17,1.204,1.224,1.1840000000000002,1.194,9980000
2018-08-20,1.214,1.2429999999999999,1.194,1.214,5544000
2018-08-21,1.224,1.253,1.214,1.253,6446000
2018-08-22,1.253,1.3019999999999998,1.2429999999999999,1.2919999999999998,9781000
2018-08-23,1.3019999999999998,1.3019999999999998,1.272,1.2919999999999998,3538000
2018-08-24,1.272,1.3019999999999998,1.263,1.3019999999999998,11360000
2018-08-27,1.3119999999999998,1.321,1.2919999999999998,1.2919999999999998,5674000
2018-08-28,1.29,1.31,1.28,1.31,6719000
2018-08-29,1.31,1.32,1.3,1.32,1615000
2018-08-30,1.32,1.32,1.3,1.32,2253000
2018-08-31,1.31,1.31,1.29,1.3,9583000
2018-09-03,1.3,1.31,1.3,1.3,978800
2018-09-04,1.3,1.31,1.29,1.31,1822000
2018-09-05,1.3,1.31,1.29,1.29,3392000
2018-09-06,1.29,1.3,1.24,1.25,3984000
2018-09-07,1.25,1.27,1.23,1.27,5217000
2018-09-10,1.25,1.26,1.24,1.26,1812000
2018-09-11,1.25,1.27,1.24,1.27,5262000
2018-09-12,1.27,1.27,1.23,1.24,3887000
2018-09-13,1.25,1.29,1.25,1.26,5357000
2018-09-14,1.28,1.28,1.26,1.26,750000
2018-09-17,1.26,1.28,1.26,1.28,2116000
2018-09-18,1.27,1.28,1.25,1.26,1845000
2018-09-19,1.26,1.3,1.26,1.3,2724000
2018-09-20,1.29,1.3,1.27,1.27,11638000
2018-09-21,1.28,1.3,1.27,1.28,2832000
2018-09-24,1.28,1.3,1.27,1.3,279000
2018-09-26,1.29,1.32,1.29,1.3,5446000
2018-09-27,1.3,1.31,1.29,1.29,1086000
2018-09-28,1.3,1.31,1.29,1.31,3710000
2018-10-02,1.3,1.32,1.29,1.3,1791000
2018-10-03,1.28,1.3,1.28,1.29,1395000
2018-10-04,1.28,1.29,1.28,1.28,420000
2018-10-05,1.28,1.28,1.25,1.26,3427000
2018-10-08,1.26,1.27,1.23,1.24,4460000
2018-10-09,1.24,1.26,1.23,1.24,2602646
2018-10-10,1.24,1.26,1.24,1.25,834030
2018-10-11,1.26,1.26,1.18,1.21,9979000
2018-10-12,1.2,1.22,1.2,1.2,2473000
2018-10-15,1.2,1.22,1.19,1.21,4160000
2018-10-16,1.21,1.23,1.19,1.2,3507000
2018-10-18,1.2,1.22,1.2,1.21,1856000
2018-10-19,1.19,1.21,1.16,1.2,2952000
2018-10-22,1.21,1.22,1.18,1.2,8465000
2018-10-23,1.21,1.22,1.19,1.19,2661000
2018-10-24,1.2,1.21,1.19,1.2,3448300
2018-10-25,1.18,1.2,1.16,1.2,3007000
2018-10-26,1.18,1.21,1.18,1.2,6399000
2018-10-29,1.19,1.2,1.17,1.18,1608740
2018-10-30,1.18,1.18,1.16,1.17,4396000
2018-10-31,1.18,1.21,1.18,1.21,6598000
2018-11-01,1.21,1.22,1.2,1.21,1459000
2018-11-02,1.22,1.25,1.22,1.24,3787000
2018-11-05,1.24,1.25,1.23,1.24,1161000
2018-11-06,1.24,1.26,1.23,1.26,2796000
2018-11-07,1.25,1.25,1.18,1.23,6510000
2018-11-08,1.23,1.25,1.19,1.23,10990000
2018-11-09,1.22,1.23,1.2,1.21,3827000
2018-11-12,1.2,1.21,1.18,1.21,1984000
2018-11-13,1.18,1.22,1.18,1.22,2148000
2018-11-14,1.22,1.24,1.21,1.23,2235000
2018-11-15,1.23,1.24,1.21,1.24,1237000
2018-11-16,1.24,1.26,1.23,1.25,5164020
2018-11-19,1.25,1.27,1.23,1.27,4534000
2018-11-20,1.25,1.26,1.25,1.26,973000
2018-11-21,1.25,1.26,1.23,1.24,2229000
2018-11-22,1.24,1.24,1.18,1.2,9895000
2018-11-23,1.2,1.22,1.17,1.21,1542000
2018-11-26,1.23,1.23,1.21,1.23,3647100
2018-11-27,1.23,1.24,1.21,1.22,3872000
2018-11-28,1.22,1.24,1.21,1.24,3408000
2018-11-29,1.24,1.25,1.23,1.25,3385000
2018-11-30,1.23,1.26,1.23,1.25,4715000
2018-12-03,1.25,1.27,1.23,1.24,3660000
2018-12-04,1.24,1.27,1.24,1.27,2943000
2018-12-05,1.25,1.27,1.25,1.26,1596000
2018-12-06,1.27,1.27,1.24,1.26,1658920
2018-12-07,1.26,1.26,1.23,1.24,1644000
2018-12-10,1.24,1.25,1.23,1.24,633000
2018-12-11,1.25,1.25,1.21,1.22,1736000
2018-12-12,1.22,1.23,1.21,1.22,2128000
2018-12-13,1.23,1.23,1.21,1.22,1818000
2018-12-14,1.22,1.24,1.22,1.24,3392000
2018-12-17,1.22,1.23,1.2,1.2,3444000
2018-12-18,1.21,1.21,1.19,1.19,1585000
2018-12-19,1.2,1.2,1.19,1.2,3535000
2018-12-20,1.19,1.19,1.16,1.19,2976000
2018-12-21,1.2,1.21,1.18,1.18,3596943
2018-12-24,1.17,1.19,1.17,1.19,305600
2018-12-27,1.18,1.19,1.18,1.18,568000
2018-12-28,1.19,1.2,1.18,1.2,1239827
2018-12-31,1.2,1.21,1.18,1.2,626000
2019-01-02,1.2,1.21,1.18,1.19,4204280
2019-01-03,1.2,1.2,1.18,1.19,2391000
2019-01-04,1.18,1.19,1.17,1.17,2476600
2019-01-07,1.18,1.19,1.17,1.18,1310000
2019-01-08,1.18,1.19,1.15,1.17,2277400
2019-01-09,1.18,1.18,1.15,1.16,4929000
2019-01-10,1.16,1.17,1.14,1.16,3164600
2019-01-11,1.16,1.17,1.15,1.17,1528400
2019-01-14,1.15,1.17,1.15,1.16,1080000
2019-01-15,1.17,1.17,1.15,1.15,2693000
2019-01-16,1.16,1.17,1.15,1.16,4246000
2019-01-17,1.17,1.18,1.16,1.17,4257000
2019-01-18,1.19,1.19,1.17,1.18,2958000
2019-01-21,1.18,1.19,1.17,1.19,2753000
2019-01-22,1.18,1.19,1.17,1.19,1472000
2019-01-23,1.18,1.2,1.17,1.19,2725000
2019-01-24,1.19,1.19,1.17,1.18,2050000
2019-01-25,1.18,1.19,1.17,1.18,1945000
2019-01-28,1.19,1.2,1.18,1.2,1480000
2019-01-29,1.2,1.2,1.17,1.18,3478000
2019-01-30,1.19,1.19,1.16,1.18,2249000
2019-01-31,1.19,1.19,1.17,1.19,4100479
2019-02-01,1.19,1.19,1.13,1.17,14339000
2019-02-04,1.18,1.18,1.16,1.18,1446000
2019-02-08,1.17,1.18,1.12,1.15,14892840
2019-02-11,1.15,1.18,1.13,1.17,13599880
2019-02-12,1.16,1.18,1.16,1.17,3694172
2019-02-13,1.18,1.2,1.16,1.19,20613772
2019-02-14,1.19,1.19,1.17,1.18,5132000
2019-02-15,1.18,1.18,1.16,1.17,2543000
2019-02-18,1.18,1.19,1.17,1.18,2720000
2019-02-19,1.18,1.18,1.16,1.18,3662000
2019-02-20,1.18,1.18,1.17,1.18,3053865
2019-02-21,1.18,1.19,1.17,1.18,14927000
2019-02-22,1.18,1.19,1.17,1.18,9061000
2019-02-25,1.17,1.22,1.17,1.22,11022000
2019-02-26,1.2,1.22,1.2,1.21,2246000
2019-02-27,1.2,1.21,1.07,1.15,30990000
2019-02-28,1.14,1.15,1.12,1.13,5870000
2019-03-01,1.13,1.14,1.12,1.13,4390000
2019-03-04,1.13,1.16,1.13,1.14,5581000
2019-03-05,1.15,1.16,1.14,1.15,2467000
2019-03-06,1.16,1.17,1.15,1.17,2906880
2019-03-07,1.16,1.17,1.16,1.17,3431000
2019-03-08,1.16,1.16,1.14,1.15,4293960
2019-03-11,1.14,1.15,1.14,1.15,1547000
2019-03-12,1.14,1.17,1.14,1.16,2812000
2019-03-13,1.16,1.17,1.14,1.16,2884000
2019-03-14,1.16,1.16,1.15,1.15,1408000
2019-03-15,1.15,1.17,1.15,1.17,6155000
2019-03-18,1.16,1.17,1.16,1.17,2406924
2019-03-19,1.16,1.17,1.16,1.16,1350000
2019-03-20,1.17,1.17,1.16,1.17,2771000
2019-03-21,1.17,1.17,1.16,1.17,1668000
2019-03-22,1.17,1.18,1.16,1.18,4055000
2019-03-25,1.16,1.17,1.14,1.16,2587000
2019-03-26,1.16,1.16,1.15,1.15,513000
2019-03-27,1.16,1.16,1.13,1.13,2909000
2019-03-28,1.13,1.15,1.12,1.13,2614000
2019-03-29,1.13,1.15,1.13,1.14,4540000
2019-04-01,1.15,1.15,1.12,1.14,8754000
2019-04-02,1.15,1.15,1.14,1.15,657000
2019-04-03,1.15,1.17,1.15,1.15,5619000
2019-04-04,1.15,1.16,1.14,1.15,6168000
2019-04-08,1.15,1.16,1.13,1.14,6207000
2019-04-09,1.15,1.15,1.14,1.15,2882000
2019-04-10,1.14,1.15,1.13,1.14,9087465
2019-04-11,1.14,1.15,1.13,1.15,4239000
2019-04-12,1.15,1.2,1.13,1.19,42177200
2019-04-15,1.18,1.21,1.17,1.18,10596000
2019-04-16,1.18,1.2,1.17,1.19,9008350
2019-04-17,1.19,1.21,1.18,1.2,6460000
2019-04-18,1.2,1.21,1.19,1.2,2778000
2019-04-23,1.2,1.2,1.18,1.18,3330152
2019-04-24,1.19,1.19,1.17,1.18,3095531
2019-04-25,1.19,1.2,1.17,1.19,3055560
2019-04-26,1.17,1.19,1.15,1.17,3150000
2019-04-29,1.17,1.18,1.16,1.17,538000
2019-04-30,1.17,1.17,1.15,1.16,1341000
2019-05-02,1.15,1.16,1.15,1.16,215000
2019-05-03,1.16,1.16,1.14,1.15,1333959
2019-05-06,1.14,1.14,1.1,1.12,6528280
2019-05-07,1.11,1.12,1.1,1.12,2585000
2019-05-08,1.1,1.11,1.08,1.09,3915000
2019-05-09,1.1,1.1,1.03,1.05,3934000
2019-05-10,1.05,1.07,1.05,1.06,878000
2019-05-14,1.05,1.07,1.02,1.03,2413800
2019-05-15,1.04,1.05,1.02,1.04,3231000
2019-05-16,1.03,1.06,1.03,1.05,658000
2019-05-17,1.05,1.06,1.03,1.03,1277000
2019-05-20,1.03,1.05,1.01,1.01,2148000
2019-05-21,1.02,1.03,1.0,1.0,5035000
2019-05-22,1.02,1.02,1.0,1.01,1517010
2019-05-23,1.0,1.01,0.99,0.99,1744490
2019-05-24,0.99,1.0,0.98,0.98,3034000
2019-05-27,0.98,0.99,0.97,0.97,1825000
2019-05-28,0.98,1.02,0.96,0.96,10800000
2019-05-29,0.96,0.98,0.95,0.96,2460000
2019-05-30,0.97,0.98,0.96,0.97,3480000
2019-05-31,0.97,0.97,0.95,0.96,1820000
2019-06-03,0.97,0.97,0.95,0.96,1003000
2019-06-04,0.96,0.98,0.95,0.97,4328298
2019-06-05,0.97,0.98,0.96,0.97,3345900
2019-06-06,0.97,0.99,0.96,0.99,1968000
2019-06-10,0.99,1.0,0.98,0.99,2974000
2019-06-11,0.99,1.0,0.98,0.99,1036000
2019-06-12,0.99,1.0,0.98,0.98,1566000
2019-06-13,0.99,1.01,0.98,1.0,1671000
2019-06-14,1.0,1.0,0.97,0.97,1327000
2019-06-17,0.97,0.99,0.97,0.98,741000
2019-06-18,0.99,1.0,0.98,0.98,2698000
2019-06-19,0.99,1.0,0.95,0.97,11480000
2019-06-20,0.97,0.98,0.96,0.98,5414000
2019-06-21,0.98,0.98,0.95,0.95,5327000
2019-06-24,0.96,0.96,0.9,0.91,14310000
2019-06-25,0.91,0.93,0.9,0.91,2873000
2019-06-26,0.91,0.92,0.9,0.92,3209000
2019-06-27,0.92,0.93,0.91,0.92,5437000
2019-06-28,0.93,0.96,0.92,0.96,5736309
2019-07-02,0.98,0.99,0.97,0.99,7464286
2019-07-03,0.99,0.99,0.96,0.97,3565000
2019-07-04,0.98,1.0,0.97,0.98,3151000
2019-07-05,0.99,1.02,0.98,1.01,5397000
2019-07-08,1.0,1.02,0.98,0.99,3154000
2019-07-09,1.0,1.01,0.98,1.0,3999000
2019-07-10,1.0,1.0,0.98,0.99,2078000
2019-07-11,0.99,1.0,0.99,1.0,627000
2019-07-12,1.0,1.02,0.99,1.0,3833000
2019-07-15,0.99,1.0,0.97,0.99,6222000
2019-07-16,0.98,1.01,0.98,1.0,4063000
2019-07-17,0.99,1.0,0.99,1.0,1089500
2019-07-18,1.0,1.01,0.99,1.0,2926000
2019-07-19,1.0,1.01,1.0,1.01,807000
2019-07-22,1.0,1.01,1.0,1.01,1043000
2019-07-23,1.0,1.02,1.0,1.01,1745000
2019-07-24,1.01,1.01,1.0,1.0,1586000
2019-07-25,1.01,1.01,0.99,1.0,2406539
2019-07-26,1.0,1.01,0.99,0.99,1827000
2019-07-29,0.99,1.0,0.98,0.99,1539078
2019-07-30,0.99,1.0,0.98,0.99,1894000
2019-07-31,0.99,0.99,0.94,0.97,4713000
2019-08-01,0.96,0.97,0.95,0.95,3633000
2019-08-02,0.96,0.96,0.92,0.92,2537000
2019-08-05,0.92,0.92,0.89,0.9,6069000
2019-08-06,0.89,0.9,0.85,0.88,5475000
2019-08-07,0.87,0.92,0.87,0.89,2117000
2019-08-08,0.9,0.92,0.89,0.92,2689000
2019-08-09,0.92,0.92,0.89,0.91,1902000
2019-08-12,0.88,0.89,0.86,0.87,1637000
2019-08-13,0.86,0.87,0.84,0.85,2595000
2019-08-14,0.85,0.87,0.8,0.81,4426000
2019-08-15,0.82,0.82,0.79,0.81,2838000
2019-08-16,0.81,0.81,0.78,0.81,10822000
2019-08-19,0.8,0.82,0.8,0.81,9929000
2019-08-20,0.81,0.83,0.8,0.82,33844000
2019-08-21,0.82,0.86,0.82,0.86,7169000
2019-08-22,0.86,0.86,0.84,0.85,2231000
2019-08-23,0.85,0.86,0.84,0.85,2358000
2019-08-26,0.83,0.84,0.81,0.84,5034000
2019-08-27,0.84,0.85,0.83,0.83,2348610
2019-08-28,0.83,0.86,0.83,0.84,4867000
2019-08-29,0.85,0.86,0.83,0.84,3928000
2019-08-30,0.86,0.86,0.82,0.84,6249000
2019-09-02,0.83,0.84,0.82,0.83,3293500
2019-09-03,0.83,0.85,0.82,0.83,10781000
2019-09-04,0.84,0.85,0.83,0.84,6553000
2019-09-05,0.85,0.86,0.83,0.83,3534000
2019-09-06,0.84,0.85,0.83,0.84,3238000
2019-09-09,0.85,0.86,0.84,0.84,6601000
2019-09-10,0.85,0.86,0.85,0.85,1469000
2019-09-11,0.85,0.88,0.84,0.87,1686000
2019-09-12,0.87,0.87,0.85,0.86,1732000
2019-09-13,0.85,0.86,0.84,0.85,4284000
2019-09-16,0.85,0.86,0.82,0.82,5835973
2019-09-17,0.83,0.85,0.83,0.84,6384000
2019-09-18,0.85,0.87,0.84,0.85,6575000
2019-09-19,0.85,0.85,0.84,0.85,2803000
2019-09-20,0.85,0.85,0.83,0.83,30643796
2019-09-23,0.84,0.85,0.82,0.82,12396000
2019-09-24,0.83,0.83,0.81,0.81,11786000
2019-09-25,0.82,0.82,0.8,0.8,5873000
2019-09-26,0.81,0.83,0.81,0.81,18903000
2019-09-27,0.8,0.84,0.8,0.84,9636598
2019-09-30,0.83,0.84,0.82,0.84,1423061
2019-10-02,0.83,0.84,0.82,0.82,343000
2019-10-03,0.84,0.85,0.82,0.84,4061000
2019-10-04,0.83,0.85,0.83,0.83,1473000
2019-10-08,0.83,0.87,0.83,0.86,7546000
2019-10-09,0.84,0.91,0.84,0.88,18869000
2019-10-10,0.87,0.88,0.86,0.88,1303000
2019-10-11,0.87,0.89,0.86,0.87,3373366
2019-10-14,0.87,0.89,0.87,0.87,764000
2019-10-15,0.88,0.93,0.87,0.9,14817000
2019-10-16,0.91,0.93,0.9,0.9,2924000
2019-10-17,0.89,0.93,0.88,0.91,6026000
2019-10-18,0.91,0.91,0.89,0.9,655000
2019-10-21,0.9,0.9,0.87,0.87,1977000
2019-10-22,0.88,0.88,0.86,0.87,2181000
2019-10-23,0.87,0.89,0.85,0.87,2647000
2019-10-24,0.87,0.88,0.86,0.87,1504000
2019-10-25,0.87,0.87,0.84,0.85,6896000
2019-10-28,0.85,0.89,0.85,0.88,2664000
2019-10-29,0.88,0.89,0.86,0.88,2165000
2019-10-30,0.89,0.9,0.87,0.9,2356000
2019-10-31,0.9,0.9,0.87,0.88,2155050
2019-11-01,0.88,0.88,0.87,0.88,7204000
2019-11-04,0.88,0.89,0.87,0.87,5697000
2019-11-05,0.89,0.9,0.88,0.89,7543997
2019-11-06,0.88,0.89,0.87,0.88,2587000
2019-11-07,0.88,0.9,0.87,0.89,4915000
2019-11-08,0.9,0.92,0.89,0.9,7078827
2019-11-11,0.9,0.91,0.87,0.88,6063010
2019-11-12,0.88,0.9,0.87,0.88,12471000
2019-11-13,0.88,0.88,0.84,0.86,11379000
2019-11-14,0.84,0.86,0.83,0.84,4145000
2019-11-15,0.84,0.85,0.81,0.84,6701000
2019-11-18,0.87,0.87,0.82,0.84,5817000
2019-11-19,0.82,0.84,0.82,0.83,6452000
2019-11-20,0.82,0.84,0.82,0.84,4994000
2019-11-21,0.83,0.84,0.82,0.83,2168000
2019-11-22,0.82,0.83,0.82,0.83,2471000
2019-11-25,0.83,0.84,0.82,0.83,3181000
2019-11-26,0.84,0.84,0.82,0.83,5191000
2019-11-27,0.83,0.91,0.82,0.9,33722000
2019-11-28,0.9,0.91,0.86,0.87,9469000
2019-11-29,0.87,0.89,0.86,0.88,4256000
2019-12-02,0.87,0.88,0.87,0.88,2124000
2019-12-03,0.87,0.88,0.86,0.87,2734000
2019-12-04,0.87,0.87,0.85,0.87,3431009
2019-12-05,0.87,0.87,0.83,0.84,6313000
2019-12-06,0.84,0.86,0.84,0.84,2462000
2019-12-09,0.84,0.84,0.82,0.83,2414000
2019-12-10,0.82,0.83,0.82,0.82,1868000
2019-12-11,0.82,0.82,0.81,0.81,2435000
2019-12-12,0.81,0.83,0.81,0.83,2711000
2019-12-13,0.84,0.85,0.83,0.85,3873000
2019-12-16,0.84,0.86,0.84,0.84,2899000
2019-12-17,0.85,0.86,0.84,0.86,3107000
2019-12-18,0.85,0.86,0.83,0.84,4764000
2019-12-19,0.84,0.85,0.83,0.84,2269000
2019-12-20,0.84,0.85,0.83,0.85,1932000
2019-12-23,0.85,0.86,0.84,0.85,2104000
2019-12-24,0.85,0.87,0.84,0.86,1601000
2019-12-27,0.86,0.87,0.85,0.85,2901362
2019-12-30,0.85,0.86,0.84,0.85,1935000
2019-12-31,0.86,0.86,0.85,0.86,762000
2020-01-02,0.86,0.88,0.85,0.87,3455000
2020-01-03,0.88,0.88,0.86,0.87,2338000
2020-01-06,0.87,0.87,0.85,0.85,2404000
2020-01-07,0.86,0.87,0.85,0.85,6266000
2020-01-08,0.85,0.86,0.84,0.85,3883000
2020-01-09,0.85,0.87,0.84,0.87,4004000
2020-01-10,0.87,0.88,0.85,0.86,10785000
2020-01-13,0.86,0.88,0.86,0.87,3811027
2020-01-14,0.87,0.89,0.86,0.88,6644000
2020-01-15,0.88,0.89,0.87,0.89,4655000
2020-01-16,0.89,0.89,0.87,0.88,2154000
2020-01-17,0.88,0.89,0.88,0.89,3414000
2020-01-20,0.88,0.95,0.88,0.91,15416000
2020-01-21,0.91,0.92,0.89,0.89,4021000
2020-01-22,0.89,0.9,0.86,0.89,2539000
2020-01-23,0.89,0.9,0.86,0.87,3469000
2020-01-24,0.86,0.87,0.85,0.87,505000
2020-01-29,0.85,0.85,0.81,0.82,4224000
2020-01-30,0.82,0.82,0.78,0.79,5614000
2020-01-31,0.78,0.8,0.76,0.8,1899000
2020-02-03,0.8,0.8,0.77,0.78,5861522
2020-02-04,0.78,0.82,0.78,0.8,4384000
2020-02-05,0.81,0.82,0.8,0.81,2014000
2020-02-06,0.81,0.82,0.79,0.8,10397000
2020-02-07,0.81,0.81,0.8,0.81,1920000
2020-02-10,0.8,0.81,0.8,0.8,949000
2020-02-11,0.81,0.82,0.8,0.81,4568555
2020-02-12,0.8,0.83,0.8,0.83,3168000
2020-02-13,0.82,0.83,0.81,0.82,2429000
2020-02-14,0.82,0.83,0.81,0.82,1522000
2020-02-17,0.82,0.85,0.81,0.84,3876000
2020-02-18,0.83,0.84,0.82,0.83,2790000
2020-02-19,0.82,0.83,0.8,0.82,5325000
2020-02-20,0.82,0.83,0.81,0.81,3579000
2020-02-21,0.82,0.82,0.8,0.82,2909000
2020-02-24,0.81,0.81,0.79,0.79,4317000
2020-02-25,0.79,0.8,0.78,0.79,4925000
2020-02-26,0.78,0.8,0.78,0.78,2699000
2020-02-27,0.8,0.8,0.77,0.78,4424000
2020-02-28,0.78,0.78,0.77,0.78,3498000
2020-03-02,0.78,0.78,0.77,0.78,1954000
2020-03-03,0.78,0.78,0.77,0.77,5156000
2020-03-04,0.77,0.78,0.77,0.78,2887000
2020-03-05,0.78,0.78,0.77,0.77,4152000
2020-03-06,0.77,0.77,0.76,0.77,2013000
2020-03-09,0.76,0.76,0.72,0.74,4196000
2020-03-10,0.73,0.76,0.73,0.73,5232000
2020-03-11,0.73,0.76,0.73,0.75,1270000
2020-03-12,0.74,0.75,0.71,0.72,2766000
2020-03-13,0.7,0.71,0.65,0.7,5945000
2020-03-16,0.68,0.7,0.65,0.68,4280000
2020-03-17,0.69,0.69,0.65,0.66,5124000
2020-03-18,0.67,0.68,0.64,0.65,6491000
2020-03-19,0.64,0.64,0.54,0.6,11791000
2020-03-20,0.61,0.66,0.59,0.65,3891000
2020-03-23,0.61,0.63,0.58,0.61,5778000
2020-03-24,0.61,0.65,0.61,0.63,3142000
2020-03-25,0.64,0.67,0.64,0.66,6439000
2020-03-26,0.66,0.66,0.64,0.66,8832000
2020-03-27,0.66,0.68,0.66,0.67,4861000
2020-03-30,0.67,0.68,0.65,0.65,4169000
2020-03-31,0.67,0.68,0.66,0.67,6880000
2020-04-01,0.67,0.68,0.66,0.67,5952000
2020-04-02,0.67,0.68,0.66,0.68,715000
2020-04-03,0.66,0.67,0.66,0.67,112000
2020-04-06,0.67,0.67,0.63,0.66,1850000
2020-04-07,0.67,0.68,0.66,0.67,3911000
2020-04-08,0.67,0.68,0.65,0.67,1081000
2020-04-09,0.67,0.68,0.66,0.67,1691000
2020-04-14,0.66,0.67,0.66,0.66,2216000
2020-04-15,0.67,0.67,0.65,0.66,2284000
2020-04-16,0.66,0.66,0.63,0.63,3732000
2020-04-17,0.63,0.66,0.63,0.65,2858000
2020-04-20,0.65,0.68,0.65,0.66,2810000
2020-04-21,0.66,0.67,0.64,0.64,2253000
2020-04-22,0.63,0.66,0.63,0.64,2543700
2020-04-23,0.65,0.66,0.64,0.65,1773000
2020-04-24,0.65,0.66,0.64,0.65,1367000
2020-04-27,0.65,0.66,0.64,0.64,3112000
2020-04-28,0.65,0.67,0.64,0.66,1802000
2020-04-29,0.66,0.67,0.64,0.65,1344000
2020-05-04,0.64,0.64,0.6,0.6,2851000
2020-05-05,0.62,0.65,0.61,0.64,2969000
2020-05-06,0.63,0.64,0.62,0.63,2176000
2020-05-07,0.63,0.63,0.62,0.62,1224000
2020-05-08,0.63,0.65,0.63,0.64,2927000
2020-05-11,0.65,0.66,0.64,0.65,1879000
2020-05-12,0.65,0.66,0.64,0.65,842000
2020-05-13,0.65,0.66,0.64,0.65,1578000
2020-05-14,0.65,0.68,0.65,0.65,4031000
2020-05-15,0.66,0.66,0.65,0.66,1689000
2020-05-18,0.64,0.66,0.64,0.66,3987000
2020-05-19,0.66,0.67,0.64,0.64,2804000
2020-05-20,0.65,0.66,0.65,0.66,2075000
2020-05-21,0.66,0.66,0.65,0.65,3782000
2020-05-22,0.65,0.65,0.63,0.64,4611000
2020-05-25,0.64,0.65,0.63,0.64,1401000
2020-05-26,0.64,0.65,0.64,0.63,2046000
2020-05-27,0.63,0.65,0.62,0.63,1980000
2020-05-28,0.64,0.64,0.61,0.61,2696000
2020-05-29,0.63,0.63,0.6,0.61,4584000
2020-06-01,0.61,0.64,0.61,0.62,3400582
2020-06-02,0.62,0.64,0.61,0.62,7388057
2020-06-03,0.63,0.66,0.63,0.63,4180000
2020-06-04,0.64,0.64,0.63,0.63,2830000
2020-06-05,0.64,0.65,0.63,0.63,4306541
2020-06-08,0.64,0.69,0.64,0.67,7505000
2020-06-09,0.67,0.73,0.66,0.7,9133000
2020-06-10,0.73,0.76,0.69,0.69,9984000
2020-06-11,0.69,0.71,0.66,0.68,5017000
2020-06-12,0.67,0.73,0.67,0.71,4956000
2020-06-15,0.7,0.72,0.69,0.69,3764000
2020-06-16,0.73,0.73,0.67,0.69,7488000
2020-06-17,0.68,0.7,0.63,0.68,17261000
2020-06-18,0.67,0.67,0.66,0.67,5897000
2020-06-19,0.67,0.71,0.67,0.69,10365000
2020-06-22,0.69,0.71,0.68,0.7,5128000
2020-06-23,0.7,0.72,0.69,0.7,3872000
2020-06-24,0.7,0.72,0.7,0.71,4272000
2020-06-26,0.72,0.74,0.71,0.73,5184000
2020-06-29,0.73,0.73,0.7,0.71,8222000
2020-06-30,0.71,0.72,0.69,0.69,7002000
2020-07-02,0.7,0.71,0.69,0.69,4412000
2020-07-03,0.7,0.71,0.69,0.7,4943000
2020-07-06,0.71,0.74,0.71,0.74,8136000
2020-07-07,0.75,0.75,0.73,0.74,8038000
2020-07-08,0.75,0.79,0.73,0.78,8262100
2020-07-09,0.81,0.9,0.81,0.88,23159000
2020-07-10,0.92,1.03,0.9,0.94,45473000
2020-07-13,0.95,0.97,0.92,0.95,18316000
2020-07-14,0.95,0.96,0.91,0.91,16360000
2020-07-15,0.92,0.93,0.85,0.89,6766000
2020-07-16,0.9,0.9,0.8,0.82,9947000
2020-07-17,0.82,0.86,0.82,0.86,3206000
2020-07-20,0.84,0.87,0.83,0.85,4799000
2020-07-21,0.93,1.25,0.92,1.12,322121984
2020-07-22,1.12,1.41,1.01,1.02,425111104
2020-07-23,1.1,1.22,1.04,1.07,283256992
2020-07-24,1.05,1.11,0.98,1.03,120094000
2020-07-27,1.04,1.06,0.98,0.99,41176000
2020-07-28,1.02,1.09,0.99,1.03,73556000
2020-07-29,1.03,1.05,1.0,1.01,38653000
2020-07-30,1.02,1.03,0.98,0.99,32122000
2020-07-31,1.0,1.04,0.98,0.98,35284000
2020-08-03,1.01,1.01,0.95,0.96,29203000
2020-08-04,0.97,1.03,0.97,1.0,73187104
2020-08-05,1.01,1.07,0.99,1.07,46360000
2020-08-06,1.11,1.12,1.03,1.06,88768200
2020-08-07,1.07,1.07,0.99,1.03,47166000
2020-08-10,1.03,1.03,0.96,0.96,43819000
2020-08-11,0.97,0.98,0.95,0.96,33859700
2020-08-12,0.96,0.96,0.88,0.91,35486000
2020-08-13,0.92,0.93,0.91,0.92,11374000
2020-08-14,0.92,0.94,0.91,0.92,13371000
2020-08-17,0.94,0.97,0.94,0.95,19505000
2020-08-18,0.96,1.0,0.94,1.0,39356000
2020-08-19,1.0,1.01,0.97,1.0,13365000
2020-08-20,1.0,1.0,0.96,0.97,18135000
2020-08-21,0.96,0.97,0.94,0.96,11317000
2020-08-24,0.97,0.98,0.95,0.96,14922000
2020-08-25,0.97,0.98,0.96,0.97,9965000
