Date,High,Low,Open,Close,Volume
2016-11-25,5.480000019073486,4.900000095367432,4.900000095367432,5.110000133514403,8105500.0
2016-11-28,5.139999866485597,5.079999923706055,5.110000133514403,5.099999904632568,1232500.0
2016-11-29,5.099999904632568,4.699999809265137,5.099999904632568,4.96999979019165,1419000.0
2016-11-30,5.510000228881836,5.03000020980835,5.03000020980835,5.269999980926514,652000.0
2016-12-01,5.179999828338623,5.039999961853027,5.179999828338623,5.059999942779541,197500.0
2016-12-02,5.25,5.019999980926514,5.25,5.070000171661377,86500.0
2016-12-05,5.150000095367432,5.059999942779541,5.099999904632568,5.099999904632568,62000.0
2016-12-06,5.199999809265137,5.059999942779541,5.099999904632568,5.099999904632568,168500.0
2016-12-07,6.329999923706055,5.070000171661377,5.1599998474121085,5.230000019073486,4584000.0
2016-12-08,5.3400001525878915,5.0,5.3400001525878915,5.099999904632568,1200500.0
2016-12-09,5.230000019073486,5.039999961853027,5.099999904632568,5.079999923706055,454500.0
2016-12-12,5.150000095367432,5.03000020980835,5.079999923706055,5.079999923706055,575000.0
2016-12-13,5.099999904632568,5.050000190734863,5.079999923706055,5.070000171661377,381000.0
2016-12-14,5.309999942779541,5.059999942779541,5.110000133514403,5.070000171661377,155000.0
2016-12-15,5.079999923706055,5.039999961853027,5.079999923706055,5.079999923706055,211500.0
2016-12-16,5.269999980926514,5.0900001525878915,5.119999885559082,5.150000095367432,73000.0
2016-12-19,5.239999771118164,5.079999923706055,5.239999771118164,5.110000133514403,37000.0
2016-12-20,5.119999885559082,5.059999942779541,5.110000133514403,5.110000133514403,71500.0
2016-12-21,5.199999809265137,5.070000171661377,5.079999923706055,5.199999809265137,28500.0
2016-12-22,5.230000019073486,5.079999923706055,5.230000019073486,5.110000133514403,6500.0
2016-12-23,5.179999828338623,5.059999942779541,5.079999923706055,5.150000095367432,74500.0
2016-12-28,5.130000114440918,5.050000190734863,5.130000114440918,5.110000133514403,137000.0
2016-12-29,5.079999923706055,5.039999961853027,5.079999923706055,5.079999923706055,137000.0
2016-12-30,5.239999771118164,5.039999961853027,5.079999923706055,5.230000019073486,532500.0
2017-01-03,5.179999828338623,5.070000171661377,5.110000133514403,5.179999828338623,37500.0
2017-01-04,5.079999923706055,5.070000171661377,5.079999923706055,5.079999923706055,22000.0
2017-01-05,5.079999923706055,5.050000190734863,5.079999923706055,5.050000190734863,77500.0
2017-01-06,5.079999923706055,5.059999942779541,5.079999923706055,5.070000171661377,23500.0
2017-01-09,5.150000095367432,5.099999904632568,5.099999904632568,5.099999904632568,56000.0
2017-01-10,5.099999904632568,5.050000190734863,5.099999904632568,5.0900001525878915,71000.0
2017-01-11,5.0900001525878915,5.050000190734863,5.079999923706055,5.070000171661377,71000.0
2017-01-12,5.0900001525878915,5.050000190734863,5.079999923706055,5.070000171661377,114500.0
2017-01-13,5.079999923706055,5.050000190734863,5.079999923706055,5.070000171661377,54500.0
2017-01-16,5.079999923706055,5.059999942779541,5.079999923706055,5.059999942779541,12500.0
2017-01-17,5.0900001525878915,5.059999942779541,5.079999923706055,5.0900001525878915,17000.0
2017-01-18,5.079999923706055,5.059999942779541,5.079999923706055,5.079999923706055,21500.0
2017-01-19,5.139999866485597,5.070000171661377,5.079999923706055,5.139999866485597,38500.0
2017-01-20,5.139999866485597,5.050000190734863,5.0900001525878915,5.139999866485597,28000.0
2017-01-23,5.079999923706055,5.059999942779541,5.079999923706055,5.059999942779541,223500.0
2017-01-24,5.079999923706055,5.059999942779541,5.079999923706055,5.059999942779541,4500.0
2017-01-25,5.369999885559082,5.050000190734863,5.079999923706055,5.099999904632568,2596000.0
2017-01-26,5.190000057220459,5.059999942779541,5.099999904632568,5.070000171661377,550000.0
2017-01-27,5.079999923706055,5.079999923706055,5.079999923706055,5.079999923706055,3500.0
2017-02-01,5.079999923706055,5.039999961853027,5.079999923706055,5.070000171661377,97000.0
2017-02-02,5.070000171661377,5.050000190734863,5.079999923706055,5.059999942779541,36500.0
2017-02-03,5.070000171661377,5.059999942779541,5.079999923706055,5.070000171661377,8500.0
2017-02-06,5.0900001525878915,5.050000190734863,5.0900001525878915,5.070000171661377,36500.0
2017-02-07,5.079999923706055,5.059999942779541,5.079999923706055,5.070000171661377,96000.0
2017-02-08,5.079999923706055,5.059999942779541,5.079999923706055,5.079999923706055,7500.0
2017-02-09,5.070000171661377,5.059999942779541,5.079999923706055,5.059999942779541,101000.0
2017-02-10,5.079999923706055,5.050000190734863,5.079999923706055,5.079999923706055,160000.0
2017-02-13,5.079999923706055,5.03000020980835,5.079999923706055,5.070000171661377,487000.0
2017-02-14,5.099999904632568,5.039999961853027,5.099999904632568,5.079999923706055,263500.0
2017-02-15,5.099999904632568,5.050000190734863,5.099999904632568,5.059999942779541,157000.0
2017-02-16,5.099999904632568,5.079999923706055,5.099999904632568,5.099999904632568,101500.0
2017-02-17,5.099999904632568,5.050000190734863,5.079999923706055,5.079999923706055,18000.0
2017-02-20,5.099999904632568,5.0900001525878915,5.0900001525878915,5.099999904632568,153000.0
2017-02-21,5.099999904632568,5.070000171661377,5.099999904632568,5.0900001525878915,123500.0
2017-02-22,5.099999904632568,5.070000171661377,5.099999904632568,5.099999904632568,125500.0
2017-02-23,5.099999904632568,5.070000171661377,5.099999904632568,5.099999904632568,73000.0
2017-02-24,5.099999904632568,5.059999942779541,5.099999904632568,5.099999904632568,159000.0
2017-02-27,5.099999904632568,5.059999942779541,5.099999904632568,5.099999904632568,201000.0
2017-02-28,5.099999904632568,5.070000171661377,5.079999923706055,5.070000171661377,111000.0
2017-03-01,5.099999904632568,5.059999942779541,5.0900001525878915,5.099999904632568,178000.0
2017-03-02,5.099999904632568,5.079999923706055,5.099999904632568,5.079999923706055,127500.0
2017-03-03,5.099999904632568,5.0900001525878915,5.0900001525878915,5.0900001525878915,27500.0
2017-03-06,5.099999904632568,5.050000190734863,5.079999923706055,5.099999904632568,65000.0
2017-03-07,5.099999904632568,5.0900001525878915,5.099999904632568,5.099999904632568,138500.0
2017-03-08,5.309999942779541,5.079999923706055,5.099999904632568,5.199999809265137,190500.0
2017-03-09,5.199999809265137,5.139999866485597,5.199999809265137,5.199999809265137,33500.0
2017-03-10,5.289999961853027,5.199999809265137,5.199999809265137,5.25,22500.0
2017-03-13,5.289999961853027,5.210000038146973,5.25,5.239999771118164,57000.0
2017-03-14,5.210000038146973,5.210000038146973,5.210000038146973,5.239999771118164,1500.0
2017-03-15,5.210000038146973,5.210000038146973,5.210000038146973,5.230000019073486,15000.0
2017-03-16,5.210000038146973,5.199999809265137,5.210000038146973,5.199999809265137,33000.0
2017-03-17,5.119999885559082,5.099999904632568,5.119999885559082,5.119999885559082,4000.0
2017-03-20,5.119999885559082,5.119999885559082,5.119999885559082,5.119999885559082,1500.0
2017-03-21,5.199999809265137,5.190000057220459,5.190000057220459,5.199999809265137,17500.0
2017-03-22,5.21999979019165,5.1599998474121085,5.1599998474121085,5.21999979019165,32000.0
2017-03-23,5.199999809265137,5.179999828338623,5.199999809265137,5.179999828338623,25000.0
2017-03-24,5.199999809265137,5.110000133514403,5.199999809265137,5.110000133514403,23000.0
2017-03-27,5.110000133514403,5.079999923706055,5.099999904632568,5.099999904632568,121500.0
2017-03-28,5.110000133514403,5.079999923706055,5.210000038146973,5.119999885559082,1000.0
2017-03-29,5.099999904632568,5.0900001525878915,5.099999904632568,5.110000133514403,8000.0
2017-03-30,5.099999904632568,5.099999904632568,5.099999904632568,5.119999885559082,1000.0
2017-03-31,5.110000133514403,5.099999904632568,5.110000133514403,5.099999904632568,14500.0
2017-04-03,5.099999904632568,5.059999942779541,5.099999904632568,5.099999904632568,16000.0
2017-04-05,5.119999885559082,5.099999904632568,5.119999885559082,5.099999904632568,60000.0
2017-04-06,5.099999904632568,5.039999961853027,5.0900001525878915,5.099999904632568,58500.0
2017-04-07,5.119999885559082,5.119999885559082,5.119999885559082,5.119999885559082,8000.0
2017-04-10,5.150000095367432,5.039999961853027,5.099999904632568,5.130000114440918,121000.0
2017-04-11,5.119999885559082,5.119999885559082,5.119999885559082,5.119999885559082,0.0
2017-04-12,5.150000095367432,5.150000095367432,5.150000095367432,5.150000095367432,1500.0
2017-04-13,5.139999866485597,5.139999866485597,5.139999866485597,5.139999866485597,500.0
2017-04-18,5.139999866485597,5.070000171661377,5.0900001525878915,5.070000171661377,3000.0
2017-04-19,5.0900001525878915,5.0900001525878915,5.0900001525878915,5.0900001525878915,0.0
2017-04-20,5.0900001525878915,5.059999942779541,5.0900001525878915,5.079999923706055,5000.0
2017-04-21,5.099999904632568,5.050000190734863,5.079999923706055,5.070000171661377,39500.0
2017-04-24,5.170000076293945,5.070000171661377,5.0900001525878915,5.150000095367432,17000.0
2017-04-25,5.170000076293945,5.070000171661377,5.170000076293945,5.150000095367432,2500.0
2017-04-26,5.139999866485597,5.130000114440918,5.130000114440918,5.139999866485597,1000.0
2017-04-27,5.150000095367432,5.050000190734863,5.130000114440918,5.150000095367432,43500.0
2017-04-28,5.130000114440918,5.070000171661377,5.099999904632568,5.130000114440918,48500.0
2017-05-02,5.130000114440918,5.119999885559082,5.130000114440918,5.130000114440918,16500.0
2017-05-04,5.119999885559082,5.0900001525878915,5.119999885559082,5.099999904632568,7500.0
2017-05-05,5.150000095367432,5.079999923706055,5.099999904632568,5.150000095367432,34000.0
2017-05-08,5.139999866485597,5.119999885559082,5.139999866485597,5.139999866485597,15000.0
2017-05-09,5.150000095367432,5.139999866485597,5.170000076293945,5.139999866485597,15000.0
2017-05-10,5.139999866485597,5.139999866485597,5.199999809265137,5.139999866485597,11500.0
2017-05-11,5.139999866485597,5.139999866485597,5.1599998474121085,5.139999866485597,1500.0
2017-05-12,5.139999866485597,5.139999866485597,5.139999866485597,5.139999866485597,8000.0
2017-05-15,5.139999866485597,5.0900001525878915,5.139999866485597,5.0900001525878915,13000.0
2017-05-16,5.099999904632568,5.050000190734863,5.079999923706055,5.079999923706055,49500.0
2017-05-17,5.099999904632568,5.010000228881836,5.079999923706055,5.099999904632568,19500.0
2017-05-18,5.130000114440918,5.070000171661377,5.119999885559082,5.099999904632568,10500.0
2017-05-19,5.110000133514403,5.110000133514403,5.099999904632568,5.110000133514403,2500.0
2017-05-22,5.110000133514403,5.110000133514403,5.099999904632568,5.110000133514403,2500.0
2017-05-23,5.119999885559082,5.119999885559082,5.119999885559082,5.119999885559082,13000.0
2017-05-24,5.0900001525878915,5.0900001525878915,5.110000133514403,5.099999904632568,6500.0
2017-05-25,5.119999885559082,5.119999885559082,5.110000133514403,5.099999904632568,4000.0
2017-05-26,5.0900001525878915,5.0900001525878915,5.0900001525878915,5.0900001525878915,7000.0
2017-05-29,5.099999904632568,5.0900001525878915,5.099999904632568,5.0900001525878915,28000.0
2017-05-31,5.119999885559082,5.0900001525878915,5.099999904632568,5.0900001525878915,10000.0
2017-06-01,5.170000076293945,5.0900001525878915,5.099999904632568,5.0900001525878915,17500.0
2017-06-02,5.179999828338623,5.079999923706055,5.099999904632568,5.110000133514403,12500.0
2017-06-05,5.0900001525878915,5.0900001525878915,5.119999885559082,5.099999904632568,6000.0
2017-06-06,5.0900001525878915,5.059999942779541,5.0900001525878915,5.079999923706055,10000.0
2017-06-07,5.079999923706055,5.059999942779541,5.099999904632568,5.0900001525878915,6000.0
2017-06-08,5.1599998474121085,5.1599998474121085,5.1599998474121085,5.139999866485597,500.0
2017-06-09,5.28000020980835,5.28000020980835,5.28000020980835,5.179999828338623,500.0
2017-06-12,5.079999923706055,5.079999923706055,5.079999923706055,5.0900001525878915,1000.0
2017-06-13,5.079999923706055,5.039999961853027,5.150000095367432,5.0900001525878915,26500.0
2017-06-14,5.079999923706055,5.079999923706055,5.099999904632568,5.0900001525878915,4000.0
2017-06-15,5.21999979019165,5.21999979019165,5.21999979019165,5.139999866485597,500.0
2017-06-16,5.130000114440918,5.079999923706055,5.0900001525878915,5.079999923706055,8500.0
2017-06-19,5.099999904632568,5.079999923706055,5.079999923706055,5.079999923706055,26500.0
2017-06-20,5.0900001525878915,5.079999923706055,5.0900001525878915,5.079999923706055,13000.0
2017-06-21,5.079999923706055,5.050000190734863,5.079999923706055,5.079999923706055,16000.0
2017-06-22,5.0900001525878915,5.050000190734863,5.079999923706055,5.079999923706055,36500.0
2017-06-23,5.130000114440918,5.099999904632568,5.119999885559082,5.110000133514403,168000.0
2017-06-26,5.150000095367432,5.0900001525878915,5.119999885559082,5.139999866485597,275500.0
2017-06-27,5.110000133514403,5.099999904632568,5.110000133514403,5.099999904632568,214000.0
2017-06-28,5.119999885559082,5.099999904632568,5.119999885559082,5.119999885559082,204500.0
2017-06-29,5.130000114440918,5.119999885559082,5.119999885559082,5.130000114440918,280500.0
2017-06-30,5.150000095367432,5.130000114440918,5.130000114440918,5.130000114440918,119000.0
2017-07-03,5.349999904632568,5.130000114440918,5.130000114440918,5.150000095367432,268000.0
2017-07-04,5.099999904632568,5.0900001525878915,5.099999904632568,5.0900001525878915,109000.0
2017-07-05,5.099999904632568,5.0900001525878915,5.099999904632568,5.099999904632568,106000.0
2017-07-06,5.099999904632568,5.079999923706055,5.099999904632568,5.079999923706055,52000.0
2017-07-07,5.099999904632568,5.079999923706055,5.099999904632568,5.099999904632568,59000.0
2017-07-10,5.099999904632568,5.079999923706055,5.099999904632568,5.099999904632568,25000.0
2017-07-11,5.119999885559082,5.099999904632568,5.119999885559082,5.099999904632568,31500.0
2017-07-12,5.110000133514403,5.0900001525878915,5.099999904632568,5.099999904632568,69000.0
2017-07-13,5.110000133514403,5.079999923706055,5.099999904632568,5.110000133514403,78500.0
2017-07-14,5.110000133514403,5.079999923706055,5.099999904632568,5.079999923706055,46200.0
2017-07-17,5.099999904632568,5.059999942779541,5.099999904632568,5.099999904632568,59000.0
2017-07-18,5.190000057220459,5.119999885559082,5.119999885559082,5.150000095367432,99500.0
2017-07-19,5.1599998474121085,5.119999885559082,5.119999885559082,5.150000095367432,129000.0
2017-07-20,5.170000076293945,5.130000114440918,5.150000095367432,5.170000076293945,179500.0
2017-07-21,5.150000095367432,5.150000095367432,5.150000095367432,5.130000114440918,23500.0
2017-07-24,5.1599998474121085,5.130000114440918,5.139999866485597,5.1599998474121085,96500.0
2017-07-25,5.1599998474121085,5.1599998474121085,5.1599998474121085,5.1599998474121085,2500.0
2017-07-26,5.1599998474121085,5.1599998474121085,5.1599998474121085,5.1599998474121085,6000.0
2017-07-27,5.170000076293945,5.150000095367432,5.170000076293945,5.150000095367432,26000.0
2017-07-28,5.1599998474121085,5.150000095367432,5.150000095367432,5.1599998474121085,111000.0
2017-07-31,5.150000095367432,5.139999866485597,5.150000095367432,5.150000095367432,176000.0
2017-08-01,5.150000095367432,5.150000095367432,5.150000095367432,5.150000095367432,110000.0
2017-08-02,5.150000095367432,5.099999904632568,5.150000095367432,5.139999866485597,179000.0
2017-08-03,5.150000095367432,5.099999904632568,5.139999866485597,5.099999904632568,66000.0
2017-08-04,5.150000095367432,5.119999885559082,5.119999885559082,5.139999866485597,34500.0
2017-08-07,5.139999866485597,5.099999904632568,5.130000114440918,5.099999904632568,3000.0
2017-08-08,5.139999866485597,5.099999904632568,5.130000114440918,5.130000114440918,109500.0
2017-08-09,5.130000114440918,5.110000133514403,5.110000133514403,5.119999885559082,122000.0
2017-08-10,5.130000114440918,5.130000114440918,5.130000114440918,5.130000114440918,27500.0
2017-08-11,5.130000114440918,5.079999923706055,5.130000114440918,5.079999923706055,7500.0
2017-08-14,5.170000076293945,5.099999904632568,5.110000133514403,5.170000076293945,65500.0
2017-08-15,5.170000076293945,5.119999885559082,5.170000076293945,5.150000095367432,84500.0
2017-08-16,5.1599998474121085,5.139999866485597,5.1599998474121085,5.139999866485597,83500.0
2017-08-17,5.179999828338623,5.139999866485597,5.139999866485597,5.1599998474121085,117500.0
2017-08-18,5.1599998474121085,5.099999904632568,5.1599998474121085,5.1599998474121085,136500.0
2017-08-21,5.28000020980835,5.1599998474121085,5.1599998474121085,5.25,249500.0
2017-08-22,5.28000020980835,5.25,5.25,5.25,27500.0
2017-08-23,5.25,5.25,5.25,5.25,0.0
2017-08-24,5.300000190734863,5.260000228881836,5.260000228881836,5.269999980926514,36500.0
2017-08-25,5.3400001525878915,5.28000020980835,5.28000020980835,5.300000190734863,135500.0
2017-08-28,5.349999904632568,5.320000171661377,5.349999904632568,5.300000190734863,29000.0
2017-08-29,5.28000020980835,5.179999828338623,5.28000020980835,5.199999809265137,87500.0
2017-08-30,5.230000019073486,5.190000057220459,5.199999809265137,5.190000057220459,50500.0
2017-08-31,5.199999809265137,5.099999904632568,5.190000057220459,5.190000057220459,83000.0
2017-09-01,5.21999979019165,5.179999828338623,5.179999828338623,5.21999979019165,26000.0
2017-09-04,5.239999771118164,5.170000076293945,5.199999809265137,5.199999809265137,126000.0
2017-09-05,5.230000019073486,5.119999885559082,5.210000038146973,5.119999885559082,57000.0
2017-09-06,5.300000190734863,5.25,5.25,5.289999961853027,61000.0
2017-09-07,5.300000190734863,5.28000020980835,5.300000190734863,5.28000020980835,54000.0
2017-09-08,5.28000020980835,5.150000095367432,5.269999980926514,5.28000020980835,117500.0
2017-09-11,5.3400001525878915,5.300000190734863,5.300000190734863,5.309999942779541,50000.0
2017-09-12,5.349999904632568,5.320000171661377,5.320000171661377,5.300000190734863,68000.0
2017-09-13,5.309999942779541,5.300000190734863,5.309999942779541,5.300000190734863,47000.0
2017-09-14,5.389999866485597,5.300000190734863,5.300000190734863,5.349999904632568,67500.0
2017-09-15,5.360000133514403,5.230000019073486,5.349999904632568,5.3400001525878915,96000.0
2017-09-18,5.5,5.300000190734863,5.349999904632568,5.489999771118164,107500.0
2017-09-19,5.599999904632568,5.210000038146973,5.599999904632568,5.429999828338623,48500.0
2017-09-20,5.429999828338623,5.429999828338623,5.429999828338623,5.389999866485597,2000.0
2017-09-21,5.449999809265137,5.440000057220459,5.440000057220459,5.400000095367432,10000.0
2017-09-22,5.429999828338623,5.320000171661377,5.429999828338623,5.389999866485597,59500.0
2017-09-25,5.440000057220459,5.199999809265137,5.420000076293945,5.400000095367432,46000.0
2017-09-26,5.449999809265137,5.4099998474121085,5.4099998474121085,5.449999809265137,33000.0
2017-09-27,5.489999771118164,5.449999809265137,5.460000038146973,5.46999979019165,40500.0
2017-09-28,5.480000019073486,5.480000019073486,5.480000019073486,5.449999809265137,10000.0
2017-09-29,5.489999771118164,5.449999809265137,5.449999809265137,5.46999979019165,41500.0
2017-10-03,5.670000076293945,5.46999979019165,5.480000019073486,5.539999961853027,147000.0
2017-10-04,5.739999771118164,5.449999809265137,5.559999942779541,5.610000133514403,158500.0
2017-10-06,5.820000171661378,5.619999885559082,5.619999885559082,5.809999942779541,177500.0
2017-10-09,6.210000038146973,5.820000171661378,5.829999923706055,5.800000190734862,242000.0
2017-10-10,5.78000020980835,5.610000133514403,5.75,5.730000019073486,154500.0
2017-10-11,5.699999809265138,5.440000057220459,5.690000057220459,5.480000019073486,415000.0
2017-10-12,5.610000133514403,5.449999809265137,5.449999809265137,5.610000133514403,398500.0
2017-10-13,5.599999904632568,5.510000228881836,5.579999923706055,5.579999923706055,342500.0
2017-10-16,5.599999904632568,5.550000190734863,5.550000190734863,5.599999904632568,325000.0
2017-10-17,5.5900001525878915,5.489999771118164,5.579999923706055,5.519999980926514,200000.0
2017-10-18,5.5900001525878915,5.449999809265137,5.579999923706055,5.460000038146973,85500.0
2017-10-19,5.510000228881836,5.480000019073486,5.480000019073486,5.489999771118164,254500.0
2017-10-20,5.550000190734863,5.4099998474121085,5.489999771118164,5.449999809265137,405000.0
2017-10-23,5.539999961853027,5.400000095367432,5.5,5.4099998474121085,242500.0
2017-10-24,5.5,5.400000095367432,5.5,5.489999771118164,140500.0
2017-10-25,5.599999904632568,5.5,5.5,5.579999923706055,256500.0
2017-10-26,5.619999885559082,5.579999923706055,5.619999885559082,5.579999923706055,143000.0
2017-10-27,5.6500000953674325,5.639999866485597,5.599999904632568,5.630000114440918,183000.0
2017-10-30,6.019999980926514,5.630000114440918,5.6500000953674325,5.929999828338622,285500.0
2017-10-31,5.929999828338622,5.610000133514403,5.9000000953674325,5.739999771118164,117000.0
2017-11-01,5.78000020980835,5.6500000953674325,5.679999828338622,5.6500000953674325,109000.0
2017-11-02,5.6500000953674325,5.630000114440918,5.630000114440918,5.599999904632568,84000.0
2017-11-03,5.630000114440918,5.519999980926514,5.550000190734863,5.550000190734863,448000.0
2017-11-06,5.559999942779541,5.480000019073486,5.480000019073486,5.559999942779541,409000.0
2017-11-07,5.53000020980835,5.480000019073486,5.5,5.5,231500.0
2017-11-08,5.53000020980835,5.400000095367432,5.5,5.429999828338623,615500.0
2017-11-09,5.5,5.400000095367432,5.480000019073486,5.4099998474121085,1002000.0
2017-11-10,5.4099998474121085,5.389999866485597,5.400000095367432,5.400000095367432,1051500.0
2017-11-13,5.420000076293945,5.389999866485597,5.420000076293945,5.420000076293945,931500.0
2017-11-14,5.539999961853027,5.5,5.5,5.539999961853027,280500.0
2017-11-15,5.599999904632568,5.5,5.579999923706055,5.5,217000.0
2017-11-16,5.550000190734863,5.480000019073486,5.489999771118164,5.539999961853027,205000.0
2017-11-17,5.679999828338622,5.5900001525878915,5.599999904632568,5.670000076293945,262500.0
2017-11-20,5.9000000953674325,5.519999980926514,5.71999979019165,5.9000000953674325,368000.0
2017-11-21,6.179999828338622,5.889999866485597,6.050000190734862,6.179999828338622,278500.0
2017-11-22,6.5,6.1500000953674325,6.4099998474121085,6.5,251500.0
2017-11-23,7.5,6.4000000953674325,6.5,6.889999866485597,511500.0
2017-11-24,7.110000133514403,6.699999809265138,6.9099998474121085,6.820000171661378,362000.0
2017-11-27,7.0999999046325675,6.699999809265138,6.789999961853027,7.0999999046325675,358000.0
2017-11-28,7.1599998474121085,6.960000038146973,7.139999866485597,7.0999999046325675,70000.0
2017-11-29,7.210000038146973,7.050000190734862,7.0999999046325675,7.179999828338622,105500.0
2017-11-30,7.289999961853027,6.989999771118164,7.199999809265138,7.0,136000.0
2017-12-01,7.0999999046325675,6.980000019073486,7.0,7.070000171661378,218500.0
2017-12-04,7.1500000953674325,7.079999923706055,7.1500000953674325,7.139999866485597,240000.0
2017-12-05,7.199999809265138,7.0999999046325675,7.170000076293945,7.190000057220459,146000.0
2017-12-06,7.289999961853027,7.130000114440918,7.210000038146973,7.21999979019165,209000.0
2017-12-07,7.329999923706055,7.1500000953674325,7.179999828338622,7.210000038146973,416500.0
2017-12-08,7.25,7.1500000953674325,7.190000057220459,7.230000019073486,452000.0
2017-12-11,7.25,7.170000076293945,7.239999771118164,7.190000057220459,258500.0
2017-12-12,7.230000019073486,7.230000019073486,7.230000019073486,7.230000019073486,0.0
2017-12-13,7.78000020980835,7.230000019073486,7.230000019073486,7.25,292500.0
2017-12-14,7.5999999046325675,7.1599998474121085,7.199999809265138,7.28000020980835,230500.0
2017-12-15,7.630000114440918,7.170000076293945,7.4000000953674325,7.25,206500.0
2017-12-18,7.489999771118164,7.230000019073486,7.489999771118164,7.25,279500.0
2017-12-19,7.269999980926514,7.179999828338622,7.179999828338622,7.25,153000.0
2017-12-20,7.360000133514403,7.050000190734862,7.360000133514403,7.0900001525878915,614000.0
2017-12-21,7.139999866485597,6.96999979019165,7.139999866485597,7.0,224500.0
2017-12-22,7.5,6.710000038146973,7.0999999046325675,7.420000076293945,262000.0
2017-12-27,7.980000019073486,7.5,7.5,7.96999979019165,224500.0
2017-12-28,7.980000019073486,7.8499999046325675,7.980000019073486,7.8499999046325675,204000.0
2017-12-29,7.860000133514403,7.690000057220459,7.860000133514403,7.71999979019165,164500.0
2018-01-02,7.8499999046325675,7.8499999046325675,7.8499999046325675,7.8499999046325675,0.0
2018-01-03,7.8400001525878915,7.8400001525878915,7.8400001525878915,7.8400001525878915,0.0
2018-01-04,7.8400001525878915,7.789999961853027,7.8400001525878915,7.8400001525878915,394500.0
2018-01-05,7.860000133514403,7.8400001525878915,7.8499999046325675,7.8400001525878915,166000.0
2018-01-08,7.860000133514403,7.670000076293945,7.8499999046325675,7.670000076293945,223500.0
2018-01-09,7.71999979019165,7.550000190734862,7.690000057220459,7.550000190734862,214000.0
2018-01-10,7.639999866485597,7.420000076293945,7.639999866485597,7.420000076293945,137000.0
2018-01-11,7.78000020980835,7.380000114440918,7.550000190734862,7.679999828338622,184500.0
2018-01-12,7.710000038146973,7.510000228881836,7.639999866485597,7.519999980926514,178500.0
2018-01-15,7.619999885559082,7.320000171661378,7.610000133514403,7.3400001525878915,174000.0
2018-01-16,7.3499999046325675,7.260000228881836,7.320000171661378,7.3499999046325675,164000.0
2018-01-17,7.3499999046325675,7.309999942779541,7.3499999046325675,7.3499999046325675,200000.0
2018-01-18,7.510000228881836,7.320000171661378,7.3499999046325675,7.510000228881836,238500.0
2018-01-19,7.639999866485597,7.510000228881836,7.550000190734862,7.5999999046325675,164500.0
2018-01-22,7.75,7.480000019073486,7.579999923706055,7.75,270500.0
2018-01-23,7.8499999046325675,7.769999980926514,7.78000020980835,7.78000020980835,197500.0
2018-01-24,7.880000114440918,7.820000171661378,7.820000171661378,7.880000114440918,225500.0
2018-01-25,7.789999961853027,7.610000133514403,7.789999961853027,7.6599998474121085,149000.0
2018-01-26,7.809999942779541,7.579999923706055,7.699999809265138,7.579999923706055,136000.0
2018-01-29,7.610000133514403,7.550000190734862,7.610000133514403,7.610000133514403,190000.0
2018-01-30,7.630000114440918,7.5999999046325675,7.630000114440918,7.5999999046325675,173500.0
2018-01-31,7.75,7.679999828338622,7.679999828338622,7.75,165500.0
2018-02-01,7.820000171661378,7.690000057220459,7.78000020980835,7.75,182000.0
2018-02-02,7.78000020980835,7.6500000953674325,7.760000228881836,7.679999828338622,101500.0
2018-02-05,7.78000020980835,7.6500000953674325,7.710000038146973,7.699999809265138,167500.0
2018-02-06,7.5900001525878915,7.4099998474121085,7.5900001525878915,7.4099998474121085,155000.0
2018-02-07,7.710000038146973,7.119999885559082,7.610000133514403,7.190000057220459,180500.0
2018-02-08,7.309999942779541,7.309999942779541,7.309999942779541,7.309999942779541,0.0
2018-02-09,7.329999923706055,7.139999866485597,7.25,7.25,178000.0
2018-02-12,7.389999866485597,7.239999771118164,7.369999885559082,7.239999771118164,154000.0
2018-02-13,7.320000171661378,7.210000038146973,7.25,7.25,160000.0
2018-02-14,7.460000038146973,7.210000038146973,7.210000038146973,7.260000228881836,114500.0
2018-02-15,7.329999923706055,7.28000020980835,7.28000020980835,7.329999923706055,160500.0
2018-02-20,7.429999828338622,7.380000114440918,7.380000114440918,7.429999828338622,193500.0
2018-02-21,7.440000057220459,7.440000057220459,7.440000057220459,7.440000057220459,0.0
2018-02-22,7.429999828338622,7.28000020980835,7.309999942779541,7.429999828338622,207000.0
2018-02-23,7.550000190734862,7.4099998474121085,7.449999809265138,7.539999961853027,214500.0
2018-02-26,7.570000171661378,7.550000190734862,7.550000190734862,7.550000190734862,202500.0
2018-02-27,7.559999942779541,7.539999961853027,7.559999942779541,7.539999961853027,135500.0
2018-02-28,7.510000228881836,7.380000114440918,7.440000057220459,7.420000076293945,188500.0
2018-03-01,7.510000228881836,7.360000133514403,7.360000133514403,7.510000228881836,189000.0
2018-03-02,7.420000076293945,7.420000076293945,7.420000076293945,7.420000076293945,0.0
2018-03-05,7.519999980926514,7.3499999046325675,7.519999980926514,7.389999866485597,231500.0
2018-03-06,7.489999771118164,7.429999828338622,7.480000019073486,7.429999828338622,163000.0
2018-03-07,7.480000019073486,7.360000133514403,7.420000076293945,7.360000133514403,153000.0
2018-03-08,7.559999942779541,7.360000133514403,7.559999942779541,7.46999979019165,178000.0
2018-03-09,7.519999980926514,7.460000038146973,7.519999980926514,7.480000019073486,178500.0
2018-03-12,7.579999923706055,7.4000000953674325,7.579999923706055,7.550000190734862,539000.0
2018-03-13,7.53000020980835,7.420000076293945,7.53000020980835,7.5,156000.0
2018-03-14,7.389999866485597,7.28000020980835,7.389999866485597,7.300000190734862,93000.0
2018-03-15,7.389999866485597,7.210000038146973,7.389999866485597,7.25,98500.0
2018-03-16,7.4000000953674325,7.199999809265138,7.4000000953674325,7.389999866485597,140000.0
2018-03-19,7.489999771118164,7.300000190734862,7.489999771118164,7.420000076293945,147000.0
2018-03-20,7.429999828338622,7.309999942779541,7.3499999046325675,7.429999828338622,144500.0
2018-03-21,7.5,7.460000038146973,7.480000019073486,7.460000038146973,140500.0
2018-03-22,7.489999771118164,7.289999961853027,7.489999771118164,7.300000190734862,98500.0
2018-03-23,7.289999961853027,7.130000114440918,7.210000038146973,7.239999771118164,127500.0
2018-03-26,7.25,7.110000133514403,7.230000019073486,7.25,142000.0
2018-03-27,7.420000076293945,7.300000190734862,7.300000190734862,7.329999923706055,123000.0
2018-03-28,7.320000171661378,7.230000019073486,7.28000020980835,7.300000190734862,135500.0
2018-03-29,7.289999961853027,7.21999979019165,7.230000019073486,7.21999979019165,178000.0
2018-04-03,7.230000019073486,7.190000057220459,7.190000057220459,7.21999979019165,136500.0
2018-04-04,7.3499999046325675,7.190000057220459,7.230000019073486,7.3499999046325675,133000.0
2018-04-06,7.460000038146973,7.460000038146973,7.460000038146973,7.460000038146973,0.0
2018-04-09,7.53000020980835,7.389999866485597,7.389999866485597,7.53000020980835,164000.0
2018-04-10,7.539999961853027,7.539999961853027,7.539999961853027,7.539999961853027,0.0
2018-04-11,7.559999942779541,7.480000019073486,7.519999980926514,7.559999942779541,176000.0
2018-04-12,7.4099998474121085,7.4099998474121085,7.4099998474121085,7.4099998474121085,0.0
2018-04-13,7.510000228881836,7.4000000953674325,7.480000019073486,7.5,148000.0
2018-04-16,7.480000019073486,7.320000171661378,7.480000019073486,7.369999885559082,186000.0
2018-04-17,7.389999866485597,7.309999942779541,7.389999866485597,7.309999942779541,143500.0
2018-04-18,7.449999809265138,7.239999771118164,7.4099998474121085,7.3499999046325675,137000.0
2018-04-19,7.420000076293945,7.309999942779541,7.420000076293945,7.309999942779541,117000.0
2018-04-20,7.3499999046325675,7.21999979019165,7.3499999046325675,7.289999961853027,113500.0
2018-04-23,7.489999771118164,7.309999942779541,7.440000057220459,7.460000038146973,130000.0
2018-04-24,7.539999961853027,7.380000114440918,7.46999979019165,7.46999979019165,161500.0
2018-04-25,7.440000057220459,7.179999828338622,7.4099998474121085,7.199999809265138,119000.0
2018-04-26,7.320000171661378,7.119999885559082,7.269999980926514,7.179999828338622,166500.0
2018-04-27,7.269999980926514,7.269999980926514,7.269999980926514,7.269999980926514,0.0
2018-04-30,7.380000114440918,7.380000114440918,7.380000114440918,7.380000114440918,0.0
2018-05-02,7.570000171661378,7.460000038146973,7.550000190734862,7.460000038146973,156000.0
2018-05-03,7.46999979019165,7.3400001525878915,7.380000114440918,7.46999979019165,108500.0
2018-05-04,7.480000019073486,7.480000019073486,7.480000019073486,7.480000019073486,0.0
2018-05-07,7.570000171661378,7.3400001525878915,7.5,7.559999942779541,149500.0
2018-05-08,7.320000171661378,7.320000171661378,7.320000171661378,7.320000171661378,0.0
2018-05-09,7.4000000953674325,7.28000020980835,7.28000020980835,7.389999866485597,123500.0
2018-05-10,7.449999809265138,7.309999942779541,7.420000076293945,7.389999866485597,101000.0
2018-05-11,7.440000057220459,7.440000057220459,7.440000057220459,7.440000057220459,0.0
2018-05-14,7.489999771118164,7.420000076293945,7.489999771118164,7.489999771118164,143000.0
2018-05-15,7.550000190734862,7.510000228881836,7.53000020980835,7.5,127000.0
2018-05-16,7.519999980926514,7.480000019073486,7.519999980926514,7.480000019073486,114500.0
2018-05-17,7.460000038146973,7.380000114440918,7.380000114440918,7.429999828338622,130500.0
2018-05-18,7.449999809265138,7.449999809265138,7.449999809265138,7.449999809265138,0.0
2018-05-21,7.46999979019165,7.449999809265138,7.449999809265138,7.449999809265138,127500.0
2018-05-23,7.510000228881836,7.380000114440918,7.4099998474121085,7.4000000953674325,102000.0
2018-05-24,7.3499999046325675,7.25,7.320000171661378,7.309999942779541,129000.0
2018-05-25,7.25,7.25,7.25,7.25,0.0
2018-05-28,7.329999923706055,7.179999828338622,7.239999771118164,7.269999980926514,127000.0
2018-05-29,7.380000114440918,7.210000038146973,7.300000190734862,7.260000228881836,145500.0
2018-05-30,7.239999771118164,7.1500000953674325,7.210000038146973,7.210000038146973,369500.0
2018-05-31,7.329999923706055,7.329999923706055,7.329999923706055,7.329999923706055,0.0
2018-06-01,7.429999828338622,7.389999866485597,7.389999866485597,7.429999828338622,117000.0
2018-06-04,7.480000019073486,7.449999809265138,7.480000019073486,7.480000019073486,132000.0
2018-06-05,7.449999809265138,7.380000114440918,7.449999809265138,7.429999828338622,100500.0
2018-06-06,7.489999771118164,7.449999809265138,7.489999771118164,7.449999809265138,92000.0
2018-06-07,7.480000019073486,7.369999885559082,7.480000019073486,7.380000114440918,30500.0
2018-06-08,7.460000038146973,7.289999961853027,7.460000038146973,7.360000133514403,216500.0
2018-06-11,7.28000020980835,7.199999809265138,7.28000020980835,7.199999809265138,169000.0
2018-06-12,7.3499999046325675,7.21999979019165,7.25,7.21999979019165,189500.0
2018-06-13,7.269999980926514,7.190000057220459,7.190000057220459,7.230000019073486,264000.0
2018-06-14,7.28000020980835,7.1500000953674325,7.21999979019165,7.1500000953674325,426000.0
2018-06-15,7.289999961853027,7.0999999046325675,7.239999771118164,7.199999809265138,272000.0
2018-06-19,7.190000057220459,7.179999828338622,7.179999828338622,7.179999828338622,2000.0
2018-06-20,7.1500000953674325,7.1500000953674325,7.1500000953674325,7.1500000953674325,0.0
2018-06-21,7.210000038146973,7.210000038146973,7.210000038146973,7.210000038146973,0.0
2018-06-22,7.239999771118164,7.170000076293945,7.230000019073486,7.210000038146973,1000.0
2018-06-25,7.170000076293945,7.170000076293945,7.21999979019165,7.170000076293945,1500.0
2018-06-26,7.179999828338622,7.139999866485597,7.179999828338622,7.1500000953674325,8000.0
2018-06-27,7.179999828338622,7.110000133514403,7.179999828338622,7.139999866485597,19500.0
2018-06-28,7.1500000953674325,7.139999866485597,7.1500000953674325,7.1500000953674325,3000.0
2018-06-29,7.1500000953674325,7.139999866485597,7.1500000953674325,7.1500000953674325,2500.0
2018-07-03,7.139999866485597,7.139999866485597,7.139999866485597,7.139999866485597,0.0
2018-07-04,7.3499999046325675,7.059999942779541,7.139999866485597,7.3400001525878915,22500.0
2018-07-05,7.1599998474121085,7.079999923706055,7.1599998474121085,7.079999923706055,3000.0
2018-07-06,7.110000133514403,7.110000133514403,7.110000133514403,7.110000133514403,0.0
2018-07-09,7.110000133514403,7.110000133514403,7.110000133514403,7.110000133514403,0.0
2018-07-10,7.139999866485597,7.0900001525878915,7.119999885559082,7.139999866485597,152000.0
2018-07-11,7.130000114440918,7.0999999046325675,7.119999885559082,7.110000133514403,36500.0
2018-07-12,7.1599998474121085,7.0999999046325675,7.119999885559082,7.1599998474121085,87000.0
2018-07-13,7.210000038146973,7.1500000953674325,7.1500000953674325,7.199999809265138,85000.0
2018-07-16,7.190000057220459,7.190000057220459,7.190000057220459,7.190000057220459,0.0
2018-07-17,7.190000057220459,7.190000057220459,7.190000057220459,7.190000057220459,0.0
2018-07-18,7.179999828338622,7.0999999046325675,7.139999866485597,7.0999999046325675,83500.0
2018-07-19,7.1500000953674325,7.0900001525878915,7.130000114440918,7.0900001525878915,101500.0
2018-07-20,7.0999999046325675,7.079999923706055,7.0999999046325675,7.1599998474121085,77500.0
2018-07-23,7.46999979019165,7.130000114440918,7.3499999046325675,7.139999866485597,67500.0
2018-07-24,7.179999828338622,7.130000114440918,7.179999828338622,7.170000076293945,54500.0
2018-07-25,7.309999942779541,7.25,7.25,7.300000190734862,23000.0
2018-07-26,7.320000171661378,7.320000171661378,7.320000171661378,7.320000171661378,1500.0
2018-07-27,7.139999866485597,7.139999866485597,7.139999866485597,7.139999866485597,0.0
2018-07-30,7.1500000953674325,7.010000228881836,7.1500000953674325,7.0999999046325675,24000.0
2018-07-31,7.119999885559082,7.119999885559082,7.119999885559082,7.119999885559082,0.0
2018-08-01,7.119999885559082,7.119999885559082,7.119999885559082,7.119999885559082,0.0
2018-08-02,7.119999885559082,7.119999885559082,7.119999885559082,7.119999885559082,0.0
2018-08-03,7.28000020980835,7.21999979019165,7.21999979019165,7.269999980926514,127000.0
2018-08-06,7.289999961853027,7.0999999046325675,7.25,7.289999961853027,155000.0
2018-08-07,7.360000133514403,7.360000133514403,7.360000133514403,7.360000133514403,0.0
2018-08-08,7.389999866485597,7.210000038146973,7.320000171661378,7.389999866485597,106000.0
2018-08-09,7.429999828338622,7.1500000953674325,7.429999828338622,7.429999828338622,17000.0
2018-08-10,7.460000038146973,7.199999809265138,7.460000038146973,7.230000019073486,10000.0
2018-08-13,7.239999771118164,7.239999771118164,7.239999771118164,7.239999771118164,0.0
2018-08-14,7.239999771118164,7.239999771118164,7.239999771118164,7.239999771118164,0.0
2018-08-15,7.309999942779541,7.199999809265138,7.25,7.309999942779541,243500.0
2018-08-16,7.3400001525878915,7.309999942779541,7.309999942779541,7.329999923706055,80000.0
2018-08-17,7.3400001525878915,7.300000190734862,7.300000190734862,7.3400001525878915,89000.0
2018-08-20,7.460000038146973,7.360000133514403,7.360000133514403,7.460000038146973,1500.0
2018-08-21,7.550000190734862,7.4000000953674325,7.449999809265138,7.550000190734862,32000.0
2018-08-22,7.5900001525878915,7.5900001525878915,7.5900001525878915,7.5900001525878915,2500.0
2018-08-23,7.6500000953674325,7.570000171661378,7.570000171661378,7.5999999046325675,10000.0
2018-08-24,7.380000114440918,7.380000114440918,7.380000114440918,7.380000114440918,0.0
2018-08-27,7.1599998474121085,7.1599998474121085,7.389999866485597,7.1599998474121085,10500.0
2018-08-28,7.1599998474121085,7.119999885559082,7.1599998474121085,7.119999885559082,17500.0
2018-08-29,7.199999809265138,7.0900001525878915,7.130000114440918,7.139999866485597,5500.0
2018-08-30,7.1599998474121085,7.1599998474121085,7.1599998474121085,7.1599998474121085,0.0
2018-08-31,7.309999942779541,7.139999866485597,7.25,7.230000019073486,62500.0
2018-09-03,7.239999771118164,7.179999828338622,7.329999923706055,7.179999828338622,57000.0
2018-09-04,7.300000190734862,7.139999866485597,7.329999923706055,7.3499999046325675,24500.0
2018-09-05,7.380000114440918,7.179999828338622,7.380000114440918,7.309999942779541,34500.0
2018-09-06,7.3400001525878915,7.1599998474121085,7.269999980926514,7.1599998474121085,56500.0
2018-09-07,7.25,7.119999885559082,7.25,7.1599998474121085,11500.0
2018-09-10,7.300000190734862,7.300000190734862,7.300000190734862,7.300000190734862,0.0
2018-09-11,7.3499999046325675,7.179999828338622,7.260000228881836,7.230000019073486,7000.0
2018-09-12,7.320000171661378,7.320000171661378,7.320000171661378,7.300000190734862,5000.0
2018-09-13,7.5,7.300000190734862,7.300000190734862,7.480000019073486,17000.0
2018-09-14,7.449999809265138,7.449999809265138,7.449999809265138,7.449999809265138,0.0
2018-09-17,7.300000190734862,7.300000190734862,7.300000190734862,7.300000190734862,0.0
2018-09-18,7.3400001525878915,7.3400001525878915,7.3400001525878915,7.3400001525878915,0.0
2018-09-19,7.4000000953674325,7.4000000953674325,7.4000000953674325,7.4000000953674325,0.0
2018-09-20,7.449999809265138,7.179999828338622,7.3499999046325675,7.449999809265138,373500.0
2018-09-21,7.5,7.5,7.5,7.5,0.0
2018-09-24,7.510000228881836,7.510000228881836,7.510000228881836,7.510000228881836,0.0
2018-09-26,7.550000190734862,7.519999980926514,7.519999980926514,7.550000190734862,36500.0
2018-09-27,7.5,7.449999809265138,7.449999809265138,7.480000019073486,62000.0
2018-09-28,7.440000057220459,7.440000057220459,7.440000057220459,7.440000057220459,62000.0
2018-10-02,7.46999979019165,7.260000228881836,7.449999809265138,7.260000228881836,62500.0
2018-10-03,7.420000076293945,7.25,7.25,7.420000076293945,26500.0
2018-10-04,7.440000057220459,7.440000057220459,7.440000057220459,7.440000057220459,0.0
2018-10-05,7.489999771118164,7.489999771118164,7.489999771118164,7.489999771118164,0.0
2018-10-08,7.5,7.5,7.5,7.5,0.0
2018-10-09,7.429999828338622,7.1599998474121085,7.190000057220459,7.429999828338622,27500.0
2018-10-10,7.329999923706055,7.179999828338622,7.199999809265138,7.179999828338622,67000.0
2018-10-11,7.25,7.119999885559082,7.190000057220459,7.119999885559082,51000.0
2018-10-12,7.329999923706055,7.190000057220459,7.329999923706055,7.190000057220459,5500.0
2018-10-15,7.239999771118164,7.199999809265138,7.199999809265138,7.239999771118164,48000.0
2018-10-16,7.28000020980835,7.1500000953674325,7.28000020980835,7.230000019073486,172500.0
2018-10-18,7.440000057220459,7.059999942779541,7.380000114440918,7.139999866485597,47000.0
2018-10-19,7.239999771118164,7.239999771118164,7.239999771118164,7.239999771118164,0.0
2018-10-22,7.269999980926514,7.269999980926514,7.269999980926514,7.269999980926514,0.0
2018-10-23,7.3400001525878915,7.3400001525878915,7.3400001525878915,7.3400001525878915,0.0
2018-10-24,7.210000038146973,7.210000038146973,7.210000038146973,7.210000038146973,0.0
2018-10-25,7.179999828338622,7.119999885559082,7.179999828338622,7.130000114440918,8000.0
2018-10-26,7.199999809265138,7.110000133514403,7.139999866485597,7.199999809265138,3500.0
2018-10-29,7.210000038146973,7.210000038146973,7.210000038146973,7.210000038146973,0.0
2018-10-30,7.300000190734862,7.300000190734862,7.300000190734862,7.300000190734862,0.0
2018-10-31,7.3499999046325675,7.3499999046325675,7.3499999046325675,7.3499999046325675,0.0
2018-11-01,7.360000133514403,7.360000133514403,7.360000133514403,7.360000133514403,0.0
2018-11-02,7.480000019073486,7.480000019073486,7.480000019073486,7.480000019073486,0.0
2018-11-05,7.489999771118164,7.260000228881836,7.449999809265138,7.28000020980835,138500.0
2018-11-06,7.25,7.25,7.300000190734862,7.25,61000.0
2018-11-07,7.269999980926514,7.179999828338622,7.199999809265138,7.269999980926514,72000.0
2018-11-08,7.380000114440918,7.380000114440918,7.380000114440918,7.380000114440918,0.0
2018-11-09,7.380000114440918,7.380000114440918,7.380000114440918,7.380000114440918,0.0
2018-11-12,7.420000076293945,7.420000076293945,7.420000076293945,7.420000076293945,0.0
2018-11-13,7.440000057220459,7.440000057220459,7.440000057220459,7.440000057220459,0.0
2018-11-14,7.440000057220459,7.440000057220459,7.420000076293945,7.420000076293945,34000.0
2018-11-15,7.480000019073486,7.449999809265138,7.449999809265138,7.480000019073486,30000.0
2018-11-16,7.449999809265138,7.449999809265138,7.449999809265138,7.449999809265138,1500.0
2018-11-19,7.550000190734862,7.550000190734862,7.550000190734862,7.550000190734862,2000.0
2018-11-20,7.480000019073486,7.480000019073486,7.480000019073486,7.480000019073486,0.0
2018-11-21,7.5,7.5,7.5,7.5,0.0
2018-11-22,7.579999923706055,7.579999923706055,7.579999923706055,7.579999923706055,2000.0
2018-11-23,7.619999885559082,7.619999885559082,7.619999885559082,7.619999885559082,2000.0
2018-11-26,7.5999999046325675,7.5999999046325675,7.5999999046325675,7.5999999046325675,0.0
2018-11-27,7.619999885559082,7.619999885559082,7.619999885559082,7.619999885559082,5000.0
2018-11-28,7.679999828338622,7.679999828338622,7.679999828338622,7.679999828338622,5500.0
2018-11-29,7.730000019073486,7.730000019073486,7.730000019073486,7.730000019073486,7000.0
2018-11-30,7.710000038146973,7.710000038146973,7.710000038146973,7.710000038146973,0.0
2018-12-03,7.5,7.5,7.5,7.5,3000.0
2018-12-04,7.5,7.5,7.5,7.5,0.0
2018-12-05,7.449999809265138,7.449999809265138,7.449999809265138,7.449999809265138,12000.0
2018-12-06,7.449999809265138,7.449999809265138,7.449999809265138,7.449999809265138,0.0
2018-12-07,7.420000076293945,7.420000076293945,7.420000076293945,7.380000114440918,8500.0
2018-12-10,7.3499999046325675,7.3499999046325675,7.3499999046325675,7.3499999046325675,0.0
2018-12-11,7.420000076293945,7.420000076293945,7.420000076293945,7.420000076293945,19500.0
2018-12-12,7.449999809265138,7.449999809265138,7.449999809265138,7.449999809265138,0.0
2018-12-13,7.460000038146973,7.460000038146973,7.460000038146973,7.460000038146973,0.0
2018-12-14,7.460000038146973,7.460000038146973,7.460000038146973,7.460000038146973,0.0
2018-12-17,7.460000038146973,7.460000038146973,7.460000038146973,7.460000038146973,0.0
2018-12-18,7.449999809265138,7.449999809265138,7.449999809265138,7.449999809265138,0.0
2018-12-19,7.449999809265138,7.449999809265138,7.449999809265138,7.449999809265138,0.0
2018-12-20,7.449999809265138,7.449999809265138,7.449999809265138,7.449999809265138,0.0
2018-12-21,7.449999809265138,7.449999809265138,7.449999809265138,7.449999809265138,0.0
2018-12-24,7.449999809265138,7.449999809265138,7.449999809265138,7.449999809265138,0.0
2018-12-27,7.4000000953674325,7.4000000953674325,7.4000000953674325,7.4000000953674325,0.0
2018-12-28,7.4000000953674325,7.4000000953674325,7.4000000953674325,7.4000000953674325,0.0
2018-12-31,7.4000000953674325,7.4000000953674325,7.4000000953674325,7.4000000953674325,0.0
2019-01-02,7.320000171661378,7.320000171661378,7.320000171661378,7.320000171661378,10500.0
2019-01-03,7.320000171661378,7.320000171661378,7.320000171661378,7.320000171661378,0.0
2019-01-04,7.320000171661378,7.320000171661378,7.320000171661378,7.320000171661378,0.0
2019-01-07,7.519999980926514,7.489999771118164,7.489999771118164,7.519999980926514,15500.0
2019-01-08,7.510000228881836,7.510000228881836,7.510000228881836,7.510000228881836,0.0
2019-01-09,7.559999942779541,7.5,7.559999942779541,7.5,9000.0
2019-01-10,7.550000190734862,7.5,7.5,7.550000190734862,10500.0
2019-01-11,7.550000190734862,7.550000190734862,7.550000190734862,7.550000190734862,0.0
2019-01-14,7.550000190734862,7.550000190734862,7.550000190734862,7.550000190734862,0.0
2019-01-15,7.579999923706055,7.53000020980835,7.579999923706055,7.53000020980835,6000.0
2019-01-16,7.53000020980835,7.53000020980835,7.53000020980835,7.53000020980835,0.0
2019-01-17,7.53000020980835,7.53000020980835,7.53000020980835,7.53000020980835,0.0
2019-01-18,7.579999923706055,7.53000020980835,7.579999923706055,7.53000020980835,5500.0
2019-01-21,7.53000020980835,7.53000020980835,7.53000020980835,7.53000020980835,0.0
2019-01-22,7.53000020980835,7.53000020980835,7.53000020980835,7.53000020980835,0.0
2019-01-23,7.5,7.5,7.5,7.5,0.0
2019-01-24,7.5,7.5,7.5,7.5,0.0
2019-01-25,7.5,7.5,7.5,7.5,0.0
2019-01-28,7.5,7.5,7.5,7.5,0.0
2019-01-29,7.480000019073486,7.480000019073486,7.480000019073486,7.480000019073486,0.0
2019-01-30,7.480000019073486,7.480000019073486,7.480000019073486,7.480000019073486,0.0
2019-01-31,7.320000171661378,7.139999866485597,7.1599998474121085,7.320000171661378,3000.0
2019-02-01,7.320000171661378,7.320000171661378,7.320000171661378,7.320000171661378,0.0
2019-02-04,7.320000171661378,7.320000171661378,7.320000171661378,7.320000171661378,0.0
2019-02-08,7.320000171661378,7.320000171661378,7.320000171661378,7.320000171661378,0.0
2019-02-11,7.46999979019165,7.449999809265138,7.46999979019165,7.449999809265138,20500.0
2019-02-12,7.619999885559082,7.5999999046325675,7.619999885559082,7.5999999046325675,9500.0
2019-02-13,7.6599998474121085,7.6599998474121085,7.6599998474121085,7.6599998474121085,0.0
2019-02-14,7.6599998474121085,7.6599998474121085,7.6599998474121085,7.6599998474121085,0.0
2019-02-15,7.5999999046325675,7.5999999046325675,7.5999999046325675,7.5999999046325675,0.0
2019-02-18,7.5999999046325675,7.5999999046325675,7.5999999046325675,7.5999999046325675,0.0
2019-02-19,7.679999828338622,7.6599998474121085,7.679999828338622,7.6599998474121085,11000.0
2019-02-20,7.6599998474121085,7.6599998474121085,7.6599998474121085,7.6599998474121085,0.0
2019-02-21,7.5999999046325675,7.5999999046325675,7.5999999046325675,7.5999999046325675,0.0
2019-02-22,7.5999999046325675,7.5999999046325675,7.5999999046325675,7.5999999046325675,0.0
2019-02-25,7.5,7.5,7.5,7.5,0.0
2019-02-26,7.5999999046325675,7.5,7.5,7.5999999046325675,11000.0
2019-02-27,7.739999771118164,7.6599998474121085,7.6599998474121085,7.739999771118164,45000.0
2019-02-28,7.820000171661378,7.78000020980835,7.78000020980835,7.820000171661378,24500.0
2019-03-01,7.8499999046325675,7.8499999046325675,7.8499999046325675,7.8499999046325675,12500.0
2019-03-04,7.880000114440918,7.860000133514403,7.880000114440918,7.880000114440918,28500.0
2019-03-05,7.880000114440918,7.880000114440918,7.880000114440918,7.880000114440918,0.0
2019-03-06,7.679999828338622,7.5,7.679999828338622,7.6500000953674325,27000.0
2019-03-07,7.6500000953674325,7.6500000953674325,7.6500000953674325,7.6500000953674325,0.0
2019-03-08,7.5999999046325675,7.5999999046325675,7.5999999046325675,7.5999999046325675,0.0
2019-03-11,7.5,7.5,7.5,7.5,0.0
2019-03-12,7.5,7.5,7.5,7.5,0.0
2019-03-13,7.5,7.5,7.5,7.5,0.0
2019-03-14,7.449999809265138,7.449999809265138,7.449999809265138,7.449999809265138,0.0
2019-03-15,7.449999809265138,7.449999809265138,7.449999809265138,7.449999809265138,0.0
2019-03-18,7.449999809265138,7.449999809265138,7.449999809265138,7.449999809265138,0.0
2019-03-19,7.449999809265138,7.449999809265138,7.449999809265138,7.449999809265138,0.0
2019-03-20,7.449999809265138,7.449999809265138,7.449999809265138,7.449999809265138,0.0
2019-03-21,7.449999809265138,7.449999809265138,7.449999809265138,7.449999809265138,0.0
2019-03-22,7.449999809265138,7.449999809265138,7.449999809265138,7.449999809265138,0.0
2019-03-25,7.260000228881836,7.260000228881836,7.260000228881836,7.260000228881836,0.0
2019-03-26,7.260000228881836,7.260000228881836,7.260000228881836,7.260000228881836,0.0
2019-03-27,7.28000020980835,7.28000020980835,7.28000020980835,7.28000020980835,0.0
2019-03-28,7.3499999046325675,7.3499999046325675,7.3499999046325675,7.3499999046325675,0.0
2019-03-29,7.3499999046325675,7.3499999046325675,7.3499999046325675,7.3499999046325675,0.0
2019-04-01,7.380000114440918,7.380000114440918,7.380000114440918,7.380000114440918,0.0
2019-04-02,7.5999999046325675,7.5999999046325675,7.5999999046325675,7.5999999046325675,0.0
2019-04-03,7.5999999046325675,7.5999999046325675,7.5999999046325675,7.5999999046325675,0.0
2019-04-04,7.5999999046325675,7.5999999046325675,7.5999999046325675,7.5999999046325675,0.0
2019-04-08,7.5999999046325675,7.5999999046325675,7.5999999046325675,7.5999999046325675,0.0
2019-04-09,7.1599998474121085,7.1500000953674325,7.1599998474121085,7.1500000953674325,12000.0
2019-04-10,7.5900001525878915,7.119999885559082,7.1500000953674325,7.579999923706055,9000.0
2019-04-11,7.5900001525878915,7.5900001525878915,7.5900001525878915,7.5900001525878915,0.0
2019-04-12,7.510000228881836,7.510000228881836,7.510000228881836,7.510000228881836,0.0
2019-04-15,7.510000228881836,7.510000228881836,7.510000228881836,7.510000228881836,0.0
2019-04-16,7.489999771118164,7.489999771118164,7.489999771118164,7.489999771118164,0.0
2019-04-17,7.489999771118164,7.489999771118164,7.489999771118164,7.489999771118164,0.0
2019-04-18,7.170000076293945,7.170000076293945,7.170000076293945,7.170000076293945,0.0
2019-04-23,7.4000000953674325,7.4000000953674325,7.4000000953674325,7.4000000953674325,1000.0
2019-04-24,7.420000076293945,7.420000076293945,7.420000076293945,7.420000076293945,0.0
2019-04-25,7.420000076293945,7.420000076293945,7.420000076293945,7.420000076293945,0.0
2019-04-26,7.420000076293945,7.420000076293945,7.420000076293945,7.420000076293945,0.0
2019-04-29,7.420000076293945,7.420000076293945,7.420000076293945,7.420000076293945,0.0
2019-04-30,7.420000076293945,7.420000076293945,7.420000076293945,7.420000076293945,0.0
2019-05-02,7.449999809265138,7.440000057220459,7.440000057220459,7.449999809265138,38500.0
2019-05-03,7.449999809265138,7.449999809265138,7.449999809265138,7.449999809265138,0.0
2019-05-06,7.449999809265138,7.449999809265138,7.449999809265138,7.449999809265138,0.0
2019-05-07,7.380000114440918,7.380000114440918,7.380000114440918,7.380000114440918,0.0
2019-05-08,7.380000114440918,7.380000114440918,7.380000114440918,7.380000114440918,0.0
2019-05-09,7.3499999046325675,7.3499999046325675,7.3499999046325675,7.3499999046325675,0.0
2019-05-10,7.5900001525878915,7.3499999046325675,7.5900001525878915,7.550000190734862,5000.0
2019-05-14,7.5,7.449999809265138,7.5,7.449999809265138,40500.0
2019-05-15,7.25,7.25,7.25,7.25,0.0
2019-05-16,7.28000020980835,7.1599998474121085,7.28000020980835,7.300000190734862,10000.0
2019-05-17,7.300000190734862,7.300000190734862,7.300000190734862,7.300000190734862,0.0
2019-05-20,7.300000190734862,7.300000190734862,7.300000190734862,7.300000190734862,0.0
2019-05-21,7.300000190734862,7.300000190734862,7.300000190734862,7.300000190734862,0.0
2019-05-22,7.360000133514403,7.360000133514403,7.360000133514403,7.360000133514403,0.0
2019-05-23,7.360000133514403,7.360000133514403,7.360000133514403,7.360000133514403,0.0
2019-05-24,7.360000133514403,7.360000133514403,7.360000133514403,7.360000133514403,0.0
2019-05-27,7.360000133514403,7.360000133514403,7.360000133514403,7.360000133514403,0.0
2019-05-28,7.5,7.5,7.5,7.5,0.0
2019-05-29,7.800000190734862,7.3499999046325675,7.5999999046325675,7.789999961853027,21500.0
2019-05-30,7.789999961853027,7.789999961853027,7.789999961853027,7.789999961853027,0.0
2019-05-31,7.5,7.5,7.5,7.5,0.0
2019-06-03,7.5,7.059999942779541,7.059999942779541,7.5,17000.0
2019-06-04,7.3499999046325675,7.3499999046325675,7.3499999046325675,7.3499999046325675,6000.0
2019-06-05,7.769999980926514,7.269999980926514,7.489999771118164,7.579999923706055,10500.0
2019-06-06,7.579999923706055,7.579999923706055,7.579999923706055,7.579999923706055,0.0
2019-06-10,7.5999999046325675,7.5999999046325675,7.5999999046325675,7.5999999046325675,500.0
2019-06-11,7.5999999046325675,7.5999999046325675,7.5999999046325675,7.5999999046325675,0.0
2019-06-12,7.5999999046325675,7.5999999046325675,7.5999999046325675,7.5999999046325675,0.0
2019-06-13,7.5999999046325675,7.5999999046325675,7.5999999046325675,7.5999999046325675,0.0
2019-06-14,7.5999999046325675,7.5999999046325675,7.5999999046325675,7.5999999046325675,0.0
2019-06-17,7.5999999046325675,7.5999999046325675,7.5999999046325675,7.5999999046325675,0.0
2019-06-18,7.5999999046325675,7.5999999046325675,7.5999999046325675,7.5999999046325675,0.0
2019-06-19,7.940000057220459,7.940000057220459,7.940000057220459,7.940000057220459,0.0
2019-06-20,7.940000057220459,7.940000057220459,7.940000057220459,7.940000057220459,0.0
2019-06-21,7.789999961853027,7.789999961853027,7.789999961853027,7.789999961853027,0.0
2019-06-24,7.789999961853027,7.789999961853027,7.789999961853027,7.789999961853027,0.0
2019-06-25,7.789999961853027,7.789999961853027,7.789999961853027,7.789999961853027,0.0
2019-06-26,7.789999961853027,7.789999961853027,7.789999961853027,7.789999961853027,0.0
2019-06-27,7.789999961853027,7.789999961853027,7.789999961853027,7.789999961853027,0.0
2019-06-28,7.789999961853027,7.789999961853027,7.789999961853027,7.789999961853027,0.0
2019-07-02,7.789999961853027,7.789999961853027,7.789999961853027,7.789999961853027,0.0
2019-07-03,7.789999961853027,7.789999961853027,7.789999961853027,7.789999961853027,0.0
2019-07-04,7.550000190734862,7.550000190734862,7.550000190734862,7.550000190734862,0.0
2019-07-05,7.550000190734862,7.550000190734862,7.550000190734862,7.550000190734862,0.0
2019-07-08,7.550000190734862,7.550000190734862,7.550000190734862,7.550000190734862,0.0
2019-07-09,7.550000190734862,7.550000190734862,7.550000190734862,7.550000190734862,0.0
2019-07-10,7.559999942779541,7.559999942779541,7.559999942779541,7.559999942779541,4000.0
2019-07-11,7.389999866485597,7.389999866485597,7.389999866485597,7.389999866485597,500.0
2019-07-12,7.8499999046325675,7.8499999046325675,7.8499999046325675,7.8499999046325675,0.0
2019-07-15,7.8499999046325675,7.8499999046325675,7.8499999046325675,7.8499999046325675,0.0
2019-07-16,7.8499999046325675,7.8499999046325675,7.8499999046325675,7.8499999046325675,0.0
2019-07-17,7.8499999046325675,7.8499999046325675,7.8499999046325675,7.8499999046325675,0.0
2019-07-18,7.8499999046325675,7.8499999046325675,7.8499999046325675,7.8499999046325675,0.0
2019-07-19,7.920000076293945,7.6500000953674325,7.789999961853027,7.920000076293945,425500.0
2019-07-22,8.0,7.699999809265138,7.699999809265138,8.0,631500.0
2019-07-23,8.020000457763674,7.699999809265138,7.699999809265138,8.020000457763674,394000.0
2019-07-24,8.0,7.699999809265138,7.699999809265138,8.0,317000.0
2019-07-25,8.0,7.800000190734862,7.800000190734862,8.0,135000.0
2019-07-26,8.180000305175781,7.800000190734862,7.9000000953674325,8.020000457763674,132500.0
2019-07-29,8.149999618530272,7.880000114440918,8.050000190734862,8.149999618530272,123000.0
2019-07-30,8.5,8.060000419616701,8.149999618530272,8.420000076293945,662500.0
2019-07-31,8.75,8.449999809265138,8.479999542236326,8.75,191500.0
2019-08-01,9.100000381469727,8.680000305175781,8.75,8.850000381469727,410500.0
2019-08-02,9.09000015258789,8.770000457763674,8.800000190734863,8.770000457763674,203000.0
2019-08-05,8.829999923706055,8.590000152587889,8.600000381469728,8.829999923706055,94500.0
2019-08-06,8.960000038146973,8.640000343322754,8.699999809265138,8.680000305175781,756000.0
2019-08-07,9.300000190734863,8.600000381469728,8.649999618530272,9.010000228881836,118000.0
2019-08-08,11.380000114440918,9.029999732971193,9.029999732971193,10.0600004196167,133500.0
2019-08-09,13.300000190734865,9.93000030517578,9.93000030517578,13.279999732971193,131880.0
2019-08-12,14.899999618530273,13.399999618530273,13.399999618530273,13.399999618530273,107000.0
2019-08-13,13.779999732971193,13.220000267028807,13.220000267028807,13.479999542236328,129500.0
2019-08-14,14.380000114440918,13.279999732971193,13.34000015258789,13.539999961853027,610000.0
2019-08-15,13.5,13.220000267028807,13.5,13.479999542236328,30500.0
2019-08-16,14.5,13.199999809265135,13.300000190734865,14.5,49000.0
2019-08-19,14.479999542236328,13.899999618530273,14.239999771118164,14.0,57500.0
2019-08-20,14.199999809265135,13.720000267028807,13.800000190734865,14.100000381469727,86500.0
2019-08-21,14.239999771118164,13.800000190734865,14.199999809265135,14.0,138500.0
2019-08-22,13.979999542236328,13.760000228881836,13.760000228881836,13.979999542236328,234000.0
2019-08-23,14.0,13.739999771118164,13.739999771118164,14.0,143500.0
2019-08-26,14.0,13.65999984741211,13.699999809265135,13.960000038146973,107500.0
2019-08-27,13.960000038146973,13.600000381469727,13.699999809265135,13.899999618530273,252000.0
2019-08-28,13.859999656677244,13.199999809265135,13.84000015258789,13.380000114440918,243000.0
2019-08-29,13.539999961853027,13.140000343322756,13.140000343322756,13.399999618530273,242500.0
2019-08-30,13.960000038146973,13.4399995803833,13.4399995803833,13.880000114440918,573000.0
2019-09-02,13.920000076293945,13.800000190734865,13.880000114440918,13.81999969482422,413440.0
2019-09-03,13.880000114440918,13.600000381469727,13.600000381469727,13.65999984741211,75500.0
2019-09-04,14.5,13.68000030517578,13.800000190734865,13.779999732971193,382500.0
2019-09-05,14.100000381469727,13.520000457763672,13.800000190734865,13.979999542236328,289000.0
2019-09-06,14.199999809265135,13.699999809265135,14.0,14.0,118500.0
2019-09-09,14.15999984741211,13.9399995803833,14.0,14.0600004196167,101500.0
2019-09-10,14.279999732971193,14.0,14.0,14.199999809265135,227000.0
2019-09-11,14.260000228881836,14.0,14.199999809265135,14.260000228881836,327000.0
2019-09-12,14.199999809265135,14.0,14.199999809265135,14.100000381469727,335500.0
2019-09-13,14.199999809265135,14.100000381469727,14.100000381469727,14.199999809265135,113000.0
2019-09-16,14.239999771118164,14.0,14.0,14.079999923706055,110000.0
2019-09-17,14.100000381469727,13.84000015258789,14.100000381469727,13.880000114440918,294000.0
2019-09-18,14.260000228881836,13.739999771118164,14.260000228881836,13.899999618530273,141000.0
2019-09-19,14.079999923706055,13.779999732971193,13.899999618530273,14.0,74000.0
2019-09-20,14.199999809265135,13.880000114440918,14.100000381469727,13.920000076293945,705000.0
2019-09-23,14.100000381469727,13.800000190734865,14.0600004196167,14.100000381469727,229500.0
2019-09-24,16.959999084472653,14.0,14.0,14.979999542236328,1049500.0
2019-09-25,15.600000381469727,14.739999771118164,15.0,15.220000267028807,340500.0
2019-09-26,15.520000457763672,14.960000038146973,15.220000267028807,15.380000114440918,676500.0
2019-09-27,15.68000030517578,15.140000343322756,15.399999618530273,15.579999923706055,90000.0
2019-09-30,15.779999732971193,15.300000190734865,15.579999923706055,15.739999771118164,295500.0
2019-10-02,15.859999656677244,15.619999885559082,15.800000190734865,15.81999969482422,92000.0
2019-10-03,15.920000076293945,15.600000381469727,15.920000076293945,15.899999618530273,251500.0
2019-10-04,16.059999465942386,15.800000190734865,15.899999618530273,16.059999465942386,291500.0
2019-10-08,16.260000228881836,15.5,16.100000381469727,16.059999465942386,237000.0
2019-10-09,16.0,15.399999618530273,16.0,15.619999885559082,201000.0
2019-10-10,15.800000190734865,14.699999809265135,15.800000190734865,14.699999809265135,96500.0
2019-10-11,14.880000114440918,14.399999618530273,14.5,14.579999923706055,24500.0
2019-10-14,14.640000343322756,14.5,14.5,14.640000343322756,94000.0
2019-10-15,14.520000457763672,13.899999618530273,14.520000457763672,14.199999809265135,146000.0
2019-10-16,14.479999542236328,13.899999618530273,14.300000190734865,14.460000038146973,450500.0
2019-10-17,14.800000190734865,13.979999542236328,14.399999618530273,14.800000190734865,843000.0
2019-10-18,15.300000190734865,14.640000343322756,14.760000228881836,15.300000190734865,276500.0
2019-10-21,16.15999984741211,15.300000190734865,15.300000190734865,16.15999984741211,186000.0
2019-10-22,16.219999313354492,15.880000114440918,16.15999984741211,16.100000381469727,168500.0
2019-10-23,16.059999465942386,15.34000015258789,16.059999465942386,16.0,679500.0
2019-10-24,16.0,15.600000381469727,16.0,15.920000076293945,183500.0
2019-10-25,16.0,15.640000343322756,15.920000076293945,15.960000038146973,92000.0
2019-10-28,16.15999984741211,15.539999961853027,16.0,16.0,105000.0
2019-10-29,15.960000038146973,15.600000381469727,15.960000038146973,15.960000038146973,103000.0
2019-10-30,16.299999237060547,15.600000381469727,15.960000038146973,16.299999237060547,143500.0
2019-10-31,16.5,15.960000038146973,16.200000762939453,16.5,840000.0
2019-11-01,16.84000015258789,16.319999694824222,16.5,16.84000015258789,740500.0
2019-11-04,17.299999237060547,16.860000610351562,16.940000534057614,17.280000686645508,1217500.0
2019-11-05,17.65999984741211,17.15999984741211,17.420000076293945,17.639999389648438,941500.0
2019-11-06,23.75,17.639999389648438,17.639999389648438,20.899999618530273,1509000.0
2019-11-07,21.299999237060547,20.149999618530273,21.149999618530273,20.799999237060547,320500.0
2019-11-08,21.0,20.25,20.399999618530273,21.0,584620.0
2019-11-11,21.200000762939453,20.399999618530273,21.200000762939453,20.5,710500.0
2019-11-12,21.5,20.299999237060547,20.5,21.5,641000.0
2019-11-13,22.149999618530273,21.0,21.649999618530273,22.149999618530273,930000.0
2019-11-14,23.399999618530273,21.850000381469727,22.100000381469727,23.29999923706055,886000.0
2019-11-15,24.399999618530273,23.10000038146973,23.29999923706055,23.5,617500.0
2019-11-18,23.70000076293945,22.54999923706055,23.5,22.54999923706055,605046.0
2019-11-19,22.54999923706055,19.81999969482422,22.049999237060547,21.649999618530273,876000.0
2019-11-20,21.899999618530273,20.5,21.899999618530273,21.600000381469727,646500.0
2019-11-21,21.799999237060547,20.799999237060547,21.600000381469727,21.600000381469727,897500.0
2019-11-22,22.899999618530273,21.0,21.799999237060547,22.70000076293945,727500.0
2019-11-25,23.35000038146973,22.0,22.70000076293945,23.35000038146973,727000.0
2019-11-26,23.79999923706055,23.0,23.10000038146973,23.649999618530273,467000.0
2019-11-27,24.85000038146973,23.649999618530273,23.649999618530273,24.60000038146973,873000.0
2019-11-28,25.149999618530273,24.54999923706055,24.60000038146973,25.149999618530273,958000.0
2019-11-29,25.5,24.25,25.0,25.29999923706055,1187000.0
2019-12-02,25.70000076293945,24.60000038146973,25.29999923706055,25.60000038146973,720000.0
2019-12-03,26.04999923706055,25.0,25.29999923706055,25.95000076293945,845500.0
2019-12-04,26.10000038146973,25.5,25.79999923706055,26.04999923706055,779000.0
2019-12-05,26.70000076293945,26.04999923706055,26.04999923706055,26.70000076293945,1882500.0
2019-12-06,27.35000038146973,26.45000076293945,26.70000076293945,27.20000076293945,1621000.0
2019-12-09,27.79999923706055,26.75,27.0,27.79999923706055,989000.0
2019-12-10,28.25,27.60000038146973,27.75,28.25,2067500.0
2019-12-11,28.95000076293945,28.10000038146973,28.20000076293945,28.95000076293945,1627500.0
2019-12-12,31.899999618530273,28.899999618530273,28.95000076293945,30.29999923706055,1499100.0
2019-12-13,30.45000076293945,3.009999990463257,30.29999923706055,4.400000095367432,89153701.0
2019-12-16,5.9099998474121085,4.489999771118164,4.900000095367432,4.829999923706055,65577000.0
2019-12-17,5.079999923706055,4.300000190734863,5.0,4.320000171661377,12756000.0
2019-12-18,4.300000190734863,3.940000057220459,4.25,3.9600000381469727,7629630.0
2019-12-19,3.9500000476837163,3.509999990463257,3.910000085830689,3.609999895095825,7275020.0
2019-12-20,3.990000009536743,3.5199999809265137,3.5999999046325684,3.809999942779541,5163500.0
2019-12-23,3.829999923706055,3.5999999046325684,3.809999942779541,3.630000114440918,1446000.0
2019-12-24,3.670000076293945,3.509999990463257,3.630000114440918,3.539999961853028,1382000.0
2019-12-27,3.5799999237060547,3.3299999237060547,3.539999961853028,3.3299999237060547,2873500.0
2019-12-30,3.3299999237060547,3.140000104904175,3.3299999237060547,3.190000057220459,2222500.0
2019-12-31,3.190000057220459,3.0299999713897705,3.1600000858306885,3.059999942779541,1612000.0
2020-01-02,3.4200000762939453,3.039999961853028,3.0499999523162837,3.2100000381469727,3661500.0
2020-01-03,3.309999942779541,3.059999942779541,3.25,3.109999895095825,1483000.0
2020-01-06,3.240000009536743,3.0699999332427983,3.0699999332427983,3.1700000762939453,1411000.0
2020-01-07,3.1800000667572017,3.0699999332427983,3.1800000667572017,3.0799999237060547,1269500.0
2020-01-08,3.0999999046325684,2.970000028610229,3.0999999046325684,3.059999942779541,1203500.0
2020-01-09,3.0799999237060547,2.9100000858306885,3.0799999237060547,2.9600000381469727,1489000.0
2020-01-10,2.9300000667572017,2.799999952316284,2.9600000381469727,2.809999942779541,2141500.0
2020-01-13,3.0299999713897705,2.799999952316284,2.9100000858306885,2.8499999046325684,1832000.0
2020-01-14,2.9100000858306885,2.799999952316284,2.869999885559082,2.8399999141693115,1445000.0
2020-01-15,2.880000114440918,2.720000028610229,2.880000114440918,2.7799999713897705,1425000.0
2020-01-16,2.799999952316284,2.7100000381469727,2.759999990463257,2.75,799500.0
2020-01-17,2.9500000476837163,2.7100000381469727,2.75,2.7300000190734863,1020900.0
2020-01-20,2.759999990463257,2.549999952316284,2.759999990463257,2.5699999332427983,1907000.0
2020-01-21,2.5199999809265137,2.289999961853028,2.5199999809265137,2.309999942779541,2902500.0
2020-01-22,2.3199999332427983,2.1600000858306885,2.2300000190734863,2.200000047683716,2763000.0
2020-01-23,2.190000057220459,2.0,2.190000057220459,2.059999942779541,2530500.0
2020-01-24,2.220000028610229,1.9900000095367432,2.009999990463257,2.1700000762939453,794000.0
2020-01-29,2.150000095367432,1.9700000286102293,2.150000095367432,2.0,1291400.0
2020-01-30,2.0299999713897705,1.7200000286102295,2.0299999713897705,1.7599999904632568,2151500.0
2020-01-31,1.8999999761581419,1.7000000476837158,1.8200000524520876,1.7799999713897705,1955000.0
2020-02-03,1.8899999856948853,1.6799999475479126,1.7200000286102295,1.8400000333786009,972000.0
2020-02-04,2.880000114440918,1.830000042915344,1.8799999952316284,2.880000114440918,15982500.0
2020-02-05,3.25,2.359999895095825,2.75,2.369999885559082,15414000.0
2020-02-06,2.509999990463257,2.1800000667572017,2.359999895095825,2.2300000190734863,3080500.0
2020-02-07,2.799999952316284,2.200000047683716,2.299999952316284,2.4800000190734863,9624000.0
2020-02-10,2.539999961853028,2.200000047683716,2.5199999809265137,2.3399999141693115,2619500.0
2020-02-11,2.4200000762939453,2.200000047683716,2.3399999141693115,2.2300000190734863,2810500.0
2020-02-12,2.3199999332427983,2.150000095367432,2.299999952316284,2.2300000190734863,1183000.0
2020-02-13,2.2799999713897705,2.0999999046325684,2.240000009536743,2.1600000858306885,1175000.0
2020-02-14,2.1600000858306885,2.0299999713897705,2.1600000858306885,2.0799999237060547,1161500.0
2020-02-17,2.150000095367432,2.049999952316284,2.049999952316284,2.0899999141693115,880500.0
2020-02-18,2.240000009536743,2.0699999332427983,2.1199998855590816,2.1400001049041752,652500.0
2020-02-19,2.200000047683716,2.0899999141693115,2.190000057220459,2.1400001049041752,397000.0
2020-02-20,2.2300000190734863,2.0799999237060547,2.1400001049041752,2.1300001144409184,503500.0
2020-02-21,2.2699999809265137,2.059999942779541,2.1300001144409184,2.150000095367432,1600000.0
2020-02-24,2.200000047683716,2.059999942779541,2.200000047683716,2.1199998855590816,465000.0
2020-02-25,2.1700000762939453,2.059999942779541,2.1199998855590816,2.1099998950958248,494000.0
2020-02-26,2.0899999141693115,1.9700000286102293,2.1099998950958248,2.039999961853028,658500.0
2020-02-27,2.0699999332427983,2.0,2.009999990463257,2.039999961853028,400000.0
2020-02-28,2.0299999713897705,1.950000047683716,2.0299999713897705,2.0,827500.0
2020-03-02,2.039999961853028,1.919999957084656,1.9900000095367432,1.9700000286102293,466500.0
2020-03-03,2.0199999809265137,1.9700000286102293,2.009999990463257,1.9900000095367432,397000.0
2020-03-04,2.4300000667572017,1.919999957084656,1.919999957084656,2.150000095367432,7531000.0
2020-03-05,2.220000028610229,2.0699999332427983,2.150000095367432,2.0999999046325684,1639500.0
2020-03-06,2.1099998950958248,2.039999961853028,2.0899999141693115,2.0799999237060547,373000.0
2020-03-09,2.0799999237060547,2.0799999237060547,2.0799999237060547,2.0799999237060547,0.0
2020-03-10,1.950000047683716,1.950000047683716,1.950000047683716,1.950000047683716,0.0
2020-03-11,2.009999990463257,1.9099999666213991,2.0,1.940000057220459,468000.0
2020-03-12,1.9099999666213991,1.8400000333786009,1.8999999761581419,1.8600000143051147,591000.0
2020-03-13,1.7999999523162842,1.7100000381469729,1.7799999713897705,1.7999999523162842,1216000.0
2020-03-16,1.7999999523162842,1.6799999475479126,1.7999999523162842,1.690000057220459,584500.0
2020-03-17,1.6799999475479126,1.5900000333786009,1.6499999761581419,1.6299999952316284,566025.0
2020-03-18,1.6299999952316284,1.4600000381469729,1.6000000238418581,1.4700000286102295,967000.0
2020-03-19,1.4500000476837158,1.2300000190734863,1.2599999904632568,1.3300000429153442,502000.0
2020-03-20,1.440000057220459,1.3400000333786009,1.3400000333786009,1.3700000047683716,312500.0
2020-03-23,1.3300000429153442,1.25,1.2599999904632568,1.2799999713897705,477500.0
2020-03-24,1.3400000333786009,1.2799999713897705,1.2799999713897705,1.3200000524520874,350500.0
2020-03-25,1.399999976158142,1.3400000333786009,1.3799999952316284,1.350000023841858,314000.0
2020-03-26,1.350000023841858,1.309999942779541,1.309999942779541,1.3300000429153442,295000.0
2020-03-27,1.4900000095367432,1.3300000429153442,1.3799999952316284,1.4600000381469729,705000.0
2020-03-30,1.5,1.3700000047683716,1.5,1.399999976158142,271500.0
2020-03-31,1.6799999475479126,1.399999976158142,1.4199999570846558,1.5,1795500.0
2020-04-01,1.5800000429153442,1.4199999570846558,1.5499999523162842,1.4600000381469729,680000.0
2020-04-02,1.4800000190734863,1.4199999570846558,1.440000057220459,1.4600000381469729,216500.0
2020-04-03,1.4800000190734863,1.3600000143051147,1.4800000190734863,1.3899999856948853,415000.0
2020-04-06,1.4500000476837158,1.350000023841858,1.350000023841858,1.3899999856948853,203500.0
2020-04-07,1.4500000476837158,1.3700000047683716,1.3700000047683716,1.4199999570846558,248500.0
2020-04-08,1.4700000286102295,1.3700000047683716,1.4099999666213991,1.399999976158142,263000.0
2020-04-09,1.440000057220459,1.3600000143051147,1.4199999570846558,1.4199999570846558,436000.0
2020-04-14,1.4700000286102295,1.3700000047683716,1.4199999570846558,1.4099999666213991,72500.0
2020-04-15,1.4199999570846558,1.3700000047683716,1.3799999952316284,1.3899999856948853,219500.0
2020-04-16,1.3899999856948853,1.3400000333786009,1.3799999952316284,1.350000023841858,423500.0
2020-04-17,1.399999976158142,1.350000023841858,1.3600000143051147,1.3600000143051147,192000.0
2020-04-20,1.3899999856948853,1.3400000333786009,1.3799999952316284,1.3600000143051147,68500.0
2020-04-21,1.3400000333786009,1.2899999618530271,1.3400000333786009,1.3300000429153442,368500.0
2020-04-22,1.3300000429153442,1.2699999809265137,1.3300000429153442,1.309999942779541,331500.0
2020-04-23,1.3300000429153442,1.2599999904632568,1.3200000524520874,1.2899999618530271,339000.0
2020-04-24,1.2999999523162842,1.2699999809265137,1.2699999809265137,1.2699999809265137,62000.0
2020-04-27,1.3799999952316284,1.2999999523162842,1.2999999523162842,1.3400000333786009,219000.0
2020-04-28,1.3899999856948853,1.350000023841858,1.350000023841858,1.3600000143051147,229500.0
2020-04-29,1.3799999952316284,1.350000023841858,1.3799999952316284,1.3700000047683716,172000.0
2020-05-04,1.350000023841858,1.2899999618530271,1.350000023841858,1.2899999618530271,190000.0
2020-05-05,1.3200000524520874,1.2699999809265137,1.2799999713897705,1.2799999713897705,274500.0
2020-05-06,1.3600000143051147,1.2699999809265137,1.2999999523162842,1.2899999618530271,191000.0
2020-05-07,1.2899999618530271,1.25,1.2799999713897705,1.2799999713897705,111500.0
2020-05-08,1.3200000524520874,1.2699999809265137,1.2699999809265137,1.2899999618530271,210500.0
2020-05-11,1.3200000524520874,1.2899999618530271,1.309999942779541,1.2899999618530271,177000.0
2020-05-12,1.309999942779541,1.2699999809265137,1.2799999713897705,1.2899999618530271,203500.0
2020-05-13,1.2999999523162842,1.2799999713897705,1.2899999618530271,1.2799999713897705,81000.0
2020-05-14,1.3300000429153442,1.25,1.2799999713897705,1.2699999809265137,153500.0
2020-05-15,1.2999999523162842,1.2699999809265137,1.2699999809265137,1.2699999809265137,99000.0
2020-05-18,1.2899999618530271,1.2699999809265137,1.2699999809265137,1.2799999713897705,93000.0
2020-05-19,1.2899999618530271,1.25,1.2899999618530271,1.2899999618530271,155500.0
2020-05-20,1.309999942779541,1.2599999904632568,1.309999942779541,1.2799999713897705,167500.0
2020-05-21,1.3899999856948853,1.25,1.2799999713897705,1.3899999856948853,1121500.0
2020-05-22,1.5700000524520874,1.2799999713897705,1.4800000190734863,1.3799999952316284,2524500.0
2020-05-25,1.3700000047683716,1.2899999618530271,1.3600000143051147,1.350000023841858,399500.0
2020-05-26,1.440000057220459,1.350000023841858,1.350000023841858,1.3600000143051147,280000.0
2020-05-27,1.3300000429153442,1.2699999809265137,1.3300000429153442,1.2899999618530271,307000.0
2020-05-28,1.309999942779541,1.2400000095367432,1.2999999523162842,1.2799999713897705,386000.0
2020-05-29,1.2899999618530271,1.2599999904632568,1.2899999618530271,1.2599999904632568,115000.0
2020-06-01,1.309999942779541,1.2200000286102295,1.2699999809265137,1.2599999904632568,236500.0
2020-06-02,1.2699999809265137,1.2400000095367432,1.2599999904632568,1.2400000095367432,270500.0
2020-06-03,1.3200000524520874,1.25,1.25,1.2899999618530271,414500.0
2020-06-04,1.7400000095367432,1.309999942779541,1.309999942779541,1.6000000238418581,5584000.0
2020-06-05,1.75,1.399999976158142,1.6200000047683716,1.4500000476837158,2943500.0
2020-06-08,1.5199999809265137,1.4199999570846558,1.5099999904632568,1.4500000476837158,822500.0
2020-06-09,1.4700000286102295,1.3899999856948853,1.4500000476837158,1.4299999475479126,455500.0
2020-06-10,1.4199999570846558,1.3799999952316284,1.4199999570846558,1.3899999856948853,459500.0
2020-06-11,1.3799999952316284,1.3400000333786009,1.3799999952316284,1.3600000143051147,287500.0
2020-06-12,1.5800000429153442,1.3300000429153442,1.3300000429153442,1.4800000190734863,544500.0
2020-06-15,1.4800000190734863,1.3600000143051147,1.4199999570846558,1.3899999856948853,253000.0
2020-06-16,1.440000057220459,1.3799999952316284,1.3799999952316284,1.399999976158142,315500.0
2020-06-17,1.4199999570846558,1.3799999952316284,1.399999976158142,1.3799999952316284,124000.0
2020-06-18,1.4800000190734863,1.350000023841858,1.3799999952316284,1.399999976158142,363000.0
2020-06-19,1.440000057220459,1.3799999952316284,1.4199999570846558,1.399999976158142,93000.0
2020-06-22,1.399999976158142,1.3700000047683716,1.399999976158142,1.3799999952316284,110500.0
2020-06-23,1.3899999856948853,1.3600000143051147,1.3700000047683716,1.3700000047683716,115500.0
2020-06-24,1.4299999475479126,1.3600000143051147,1.3899999856948853,1.3600000143051147,179000.0
2020-06-26,1.4700000286102295,1.3400000333786009,1.350000023841858,1.3400000333786009,144000.0
2020-06-29,1.350000023841858,1.2799999713897705,1.350000023841858,1.2999999523162842,286500.0
2020-06-30,1.3300000429153442,1.2799999713897705,1.2999999523162842,1.2799999713897705,149000.0
2020-07-02,1.3899999856948853,1.2899999618530271,1.2899999618530271,1.3600000143051147,246000.0
2020-07-03,1.399999976158142,1.309999942779541,1.3700000047683716,1.350000023841858,82500.0
2020-07-06,1.3899999856948853,1.3200000524520874,1.3799999952316284,1.3400000333786009,336300.0
2020-07-07,1.3799999952316284,1.3200000524520874,1.350000023841858,1.3400000333786009,200000.0
2020-07-08,1.3600000143051147,1.3200000524520874,1.3300000429153442,1.350000023841858,284500.0
2020-07-09,1.3700000047683716,1.3300000429153442,1.3400000333786009,1.350000023841858,284000.0
2020-07-10,1.350000023841858,1.309999942779541,1.350000023841858,1.3200000524520874,297000.0
2020-07-13,1.350000023841858,1.3200000524520874,1.3200000524520874,1.3200000524520874,143800.0
2020-07-14,1.3200000524520874,1.2999999523162842,1.3200000524520874,1.2999999523162842,152000.0
2020-07-15,1.309999942779541,1.2899999618530271,1.309999942779541,1.309999942779541,222500.0
2020-07-16,1.2999999523162842,1.2599999904632568,1.2999999523162842,1.2699999809265137,282500.0
2020-07-17,1.309999942779541,1.2400000095367432,1.2699999809265137,1.2999999523162842,222500.0
2020-07-20,1.2899999618530271,1.25,1.2799999713897705,1.2599999904632568,204000.0
2020-07-21,1.350000023841858,1.2699999809265137,1.2699999809265137,1.2999999523162842,154500.0
2020-07-22,1.2999999523162842,1.2699999809265137,1.2999999523162842,1.2699999809265137,65500.0
2020-07-23,1.2799999713897705,1.25,1.2599999904632568,1.2599999904632568,143000.0
2020-07-24,1.2699999809265137,1.2200000286102295,1.2599999904632568,1.2400000095367432,380000.0
2020-07-27,1.25,1.2200000286102295,1.2400000095367432,1.2300000190734863,150500.0
2020-07-28,1.2300000190734863,1.2200000286102295,1.2200000286102295,1.2200000286102295,122500.0
2020-07-29,1.2200000286102295,1.2200000286102295,1.2200000286102295,1.2200000286102295,97000.0
2020-07-30,1.2400000095367432,1.2000000476837158,1.2100000381469729,1.2400000095367432,51000.0
2020-07-31,1.2599999904632568,1.2200000286102295,1.2200000286102295,1.2599999904632568,82500.0
2020-08-03,1.4500000476837158,1.2699999809265137,1.2699999809265137,1.399999976158142,2806000.0
2020-08-04,1.4299999475479126,1.309999942779541,1.4299999475479126,1.3300000429153442,560500.0
2020-08-05,1.3400000333786009,1.2999999523162842,1.3300000429153442,1.3400000333786009,261500.0
2020-08-06,1.3400000333786009,1.2999999523162842,1.3400000333786009,1.309999942779541,281500.0
2020-08-07,1.309999942779541,1.2899999618530271,1.2899999618530271,1.2999999523162842,125000.0
2020-08-10,1.2999999523162842,1.2599999904632568,1.2999999523162842,1.2899999618530271,116000.0
2020-08-11,1.2899999618530271,1.25,1.2899999618530271,1.25,363000.0
2020-08-12,1.25,1.2300000190734863,1.2400000095367432,1.2400000095367432,91500.0
2020-08-13,1.2400000095367432,1.2300000190734863,1.2300000190734863,1.2300000190734863,143000.0
2020-08-14,1.2799999713897705,1.2200000286102295,1.2200000286102295,1.2799999713897705,419500.0
2020-08-17,1.4900000095367432,1.309999942779541,1.309999942779541,1.3400000333786009,950500.0
2020-08-18,1.3300000429153442,1.2899999618530271,1.3300000429153442,1.3200000524520874,75000.0
2020-08-19,1.3600000143051147,1.2899999618530271,1.309999942779541,1.3200000524520874,82000.0
2020-08-20,1.2999999523162842,1.2599999904632568,1.2899999618530271,1.2799999713897705,95500.0
2020-08-21,1.350000023841858,1.2599999904632568,1.2699999809265137,1.2699999809265137,246500.0
2020-08-24,1.2699999809265137,1.25,1.2699999809265137,1.2599999904632568,127500.0
2020-08-25,1.25,1.2300000190734863,1.2400000095367432,1.25,59000.0
