Date,High,Low,Open,Close,Volume
2018-11-19,1.0800000429153442,0.9700000286102296,1.0399999618530271,1.0700000524520874,55550000.0
2018-11-20,1.2100000381469729,1.0499999523162842,1.0499999523162842,1.2000000476837158,17602000.0
2018-11-21,1.2599999904632568,1.0700000524520874,1.1799999475479126,1.0800000429153442,9082000.0
2018-11-22,1.2000000476837158,1.0800000429153442,1.100000023841858,1.100000023841858,5922000.0
2018-11-23,1.1299999952316284,1.0199999809265137,1.1200000047683716,1.0399999618530271,5032010.0
2018-11-26,1.0900000333786009,1.0199999809265137,1.0399999618530271,1.0499999523162842,4674000.0
2018-11-27,1.0599999427795408,1.0199999809265137,1.0599999427795408,1.0399999618530271,1394000.0
2018-11-28,1.0499999523162842,1.0199999809265137,1.0399999618530271,1.0299999713897705,2150000.0
2018-11-29,1.0499999523162842,1.0199999809265137,1.0399999618530271,1.0199999809265137,2786000.0
2018-11-30,1.0299999713897705,1.0199999809265137,1.0199999809265137,1.0299999713897705,1060000.0
2018-12-03,1.0299999713897705,1.0,1.0199999809265137,1.0199999809265137,4690000.0
2018-12-04,1.1200000047683716,1.0199999809265137,1.0199999809265137,1.0399999618530271,2376000.0
2018-12-05,1.0399999618530271,1.0199999809265137,1.0199999809265137,1.0299999713897705,1254000.0
2018-12-06,1.0800000429153442,1.0199999809265137,1.0299999713897705,1.0499999523162842,2522000.0
2018-12-07,1.0499999523162842,1.0199999809265137,1.0499999523162842,1.0399999618530271,668000.0
2018-12-10,1.0399999618530271,0.9900000095367432,1.0299999713897705,1.0299999713897705,2242000.0
2018-12-11,1.0800000429153442,1.0099999904632568,1.0099999904632568,1.0399999618530271,1024000.0
2018-12-12,1.0399999618530271,1.0199999809265137,1.0399999618530271,1.0399999618530271,440000.0
2018-12-13,1.0399999618530271,1.0199999809265137,1.0399999618530271,1.0399999618530271,290000.0
2018-12-14,1.0299999713897705,1.0,1.0299999713897705,1.0,3870000.0
2018-12-17,1.0499999523162842,1.0,1.0,1.0,1632000.0
2018-12-18,1.0,0.8000000119209291,1.0,0.9399999976158142,3926000.0
2018-12-19,0.9800000190734864,0.9100000262260436,0.959999978542328,0.9200000166893004,388000.0
2018-12-20,0.9700000286102296,0.8999999761581421,0.8999999761581421,0.9300000071525574,862000.0
2018-12-21,0.959999978542328,0.8999999761581421,0.9100000262260436,0.9399999976158142,350000.0
2018-12-24,1.0099999904632568,0.8299999833106995,0.9499999880790709,0.9800000190734864,246000.0
2018-12-27,0.9900000095367432,0.9200000166893004,0.9300000071525574,0.9800000190734864,488000.0
2018-12-28,1.0199999809265137,0.9300000071525574,0.9399999976158142,1.0199999809265137,834000.0
2018-12-31,1.0499999523162842,1.0199999809265137,1.0199999809265137,1.0499999523162842,166000.0
2019-01-02,1.0700000524520874,0.9800000190734864,0.9800000190734864,1.0499999523162842,658000.0
2019-01-03,1.0299999713897705,0.9700000286102296,0.9800000190734864,1.0,486000.0
2019-01-04,1.0299999713897705,1.0299999713897705,1.0299999713897705,1.0299999713897705,0.0
2019-01-07,1.0599999427795408,0.9399999976158142,1.0599999427795408,1.0099999904632568,586000.0
2019-01-08,1.0,0.9499999880790709,0.9800000190734864,0.9800000190734864,400000.0
2019-01-09,0.9900000095367432,0.9499999880790709,0.9800000190734864,0.9700000286102296,408000.0
2019-01-10,1.0,0.9499999880790709,0.9700000286102296,1.0,388000.0
2019-01-11,1.0199999809265137,0.9499999880790709,0.9900000095367432,1.0,498000.0
2019-01-14,1.0299999713897705,0.9800000190734864,0.9800000190734864,1.0,158000.0
2019-01-15,1.0199999809265137,0.9700000286102296,0.9700000286102296,0.9900000095367432,68000.0
2019-01-16,1.190000057220459,1.0,1.0,1.1599999666213991,5210000.0
2019-01-17,1.2200000286102295,1.0,1.2000000476837158,1.0199999809265137,3266000.0
2019-01-18,1.0599999427795408,0.9700000286102296,1.0299999713897705,0.9800000190734864,1356000.0
2019-01-21,1.0199999809265137,0.8799999952316284,0.9800000190734864,0.9900000095367432,1836000.0
2019-01-22,1.0199999809265137,0.9399999976158142,0.9900000095367432,1.0199999809265137,340000.0
2019-01-23,1.0499999523162842,1.0199999809265137,1.0199999809265137,1.0199999809265137,234000.0
2019-01-24,1.0299999713897705,0.9800000190734864,0.9800000190734864,1.0299999713897705,618000.0
2019-01-25,1.0199999809265137,0.9800000190734864,1.0199999809265137,1.0099999904632568,396000.0
2019-01-28,1.0199999809265137,0.9800000190734864,1.0099999904632568,1.0199999809265137,282000.0
2019-01-29,1.0199999809265137,1.0199999809265137,1.0199999809265137,1.0199999809265137,0.0
2019-01-30,1.0299999713897705,0.9900000095367432,0.9900000095367432,1.0299999713897705,360000.0
2019-01-31,1.0599999427795408,0.9900000095367432,1.0,1.0599999427795408,204000.0
2019-02-01,1.1299999952316284,1.0199999809265137,1.0499999523162842,1.1200000047683716,3936000.0
2019-02-04,1.149999976158142,1.100000023841858,1.1200000047683716,1.1200000047683716,56000.0
2019-02-08,1.149999976158142,1.0499999523162842,1.1200000047683716,1.1299999952316284,244000.0
2019-02-11,1.1100000143051147,1.0599999427795408,1.0800000429153442,1.100000023841858,284000.0
2019-02-12,1.0700000524520874,1.0,1.0700000524520874,1.0,750000.0
2019-02-13,1.0299999713897705,0.9700000286102296,0.9800000190734864,1.0199999809265137,1084000.0
2019-02-14,1.0299999713897705,1.0,1.0199999809265137,1.0299999713897705,1062000.0
2019-02-15,1.0299999713897705,0.9800000190734864,1.0199999809265137,1.0199999809265137,1228000.0
2019-02-18,1.0499999523162842,1.0,1.0199999809265137,1.0499999523162842,3540000.0
2019-02-19,1.0599999427795408,1.0199999809265137,1.0499999523162842,1.0599999427795408,2350000.0
2019-02-20,1.0700000524520874,1.0399999618530271,1.0399999618530271,1.0700000524520874,1474000.0
2019-02-21,1.0800000429153442,1.0399999618530271,1.0399999618530271,1.0800000429153442,74000.0
2019-02-22,1.0700000524520874,1.0499999523162842,1.0599999427795408,1.0700000524520874,58000.0
2019-02-25,1.0800000429153442,1.0199999809265137,1.0199999809265137,1.0800000429153442,238000.0
2019-02-26,1.0599999427795408,1.0399999618530271,1.0499999523162842,1.0599999427795408,74000.0
2019-02-27,1.0700000524520874,1.0199999809265137,1.0700000524520874,1.0700000524520874,376000.0
2019-02-28,1.0800000429153442,1.0299999713897705,1.0700000524520874,1.0800000429153442,462000.0
2019-03-01,1.0700000524520874,1.0499999523162842,1.0700000524520874,1.0700000524520874,30000.0
2019-03-04,1.100000023841858,1.0399999618530271,1.0800000429153442,1.0399999618530271,190000.0
2019-03-05,1.0900000333786009,1.0099999904632568,1.0399999618530271,1.0399999618530271,588000.0
2019-03-06,1.0599999427795408,1.0099999904632568,1.0499999523162842,1.0599999427795408,432000.0
2019-03-07,1.0599999427795408,1.0,1.0299999713897705,1.0599999427795408,258000.0
2019-03-08,1.0700000524520874,1.0299999713897705,1.0599999427795408,1.0700000524520874,114000.0
2019-03-11,1.0900000333786009,1.0299999713897705,1.0900000333786009,1.0800000429153442,154000.0
2019-03-12,1.100000023841858,1.0499999523162842,1.0499999523162842,1.0599999427795408,498000.0
2019-03-13,1.1399999856948853,1.0700000524520874,1.1100000143051147,1.0700000524520874,324000.0
2019-03-14,1.1299999952316284,1.0599999427795408,1.1100000143051147,1.100000023841858,366000.0
2019-03-15,1.2200000286102295,1.1100000143051147,1.1100000143051147,1.2200000286102295,1020000.0
2019-03-18,1.399999976158142,1.2200000286102295,1.2300000190734863,1.3799999952316284,3720000.0
2019-03-19,1.4500000476837158,1.3200000524520874,1.3700000047683716,1.3600000143051147,736000.0
2019-03-20,1.3899999856948853,1.2000000476837158,1.3200000524520874,1.2400000095367432,1086000.0
2019-03-21,1.3400000333786009,1.0700000524520874,1.190000057220459,1.2599999904632568,1828000.0
2019-03-22,1.2699999809265137,1.2300000190734863,1.2599999904632568,1.2400000095367432,120000.0
2019-03-25,1.2000000476837158,1.1399999856948853,1.1799999475479126,1.190000057220459,666000.0
2019-03-26,1.2599999904632568,1.149999976158142,1.2200000286102295,1.2200000286102295,542000.0
2019-03-27,1.2999999523162842,1.149999976158142,1.2000000476837158,1.2999999523162842,960000.0
2019-03-28,1.3799999952316284,1.2599999904632568,1.3799999952316284,1.2999999523162842,224000.0
2019-03-29,1.3400000333786009,1.190000057220459,1.3400000333786009,1.2599999904632568,622000.0
2019-04-01,1.2599999904632568,1.100000023841858,1.2599999904632568,1.1699999570846558,1768000.0
2019-04-02,1.190000057220459,1.1200000047683716,1.1200000047683716,1.190000057220459,530000.0
2019-04-03,1.2100000381469729,1.149999976158142,1.2100000381469729,1.2100000381469729,182000.0
2019-04-04,1.2400000095367432,1.149999976158142,1.2000000476837158,1.2200000286102295,242000.0
2019-04-08,1.2400000095367432,1.1599999666213991,1.2400000095367432,1.2000000476837158,344000.0
2019-04-09,1.1799999475479126,1.1399999856948853,1.1799999475479126,1.1699999570846558,376000.0
2019-04-10,1.2000000476837158,1.1200000047683716,1.149999976158142,1.190000057220459,622000.0
2019-04-11,1.1699999570846558,1.1200000047683716,1.1699999570846558,1.149999976158142,342000.0
2019-04-12,1.1699999570846558,1.1299999952316284,1.1299999952316284,1.1699999570846558,98000.0
2019-04-15,1.190000057220459,1.0800000429153442,1.1699999570846558,1.0900000333786009,436000.0
2019-04-16,1.1200000047683716,1.0499999523162842,1.0700000524520874,1.100000023841858,498000.0
2019-04-17,1.1200000047683716,1.0599999427795408,1.1100000143051147,1.100000023841858,92000.0
2019-04-18,1.1100000143051147,1.0599999427795408,1.1100000143051147,1.100000023841858,384000.0
2019-04-23,1.1100000143051147,1.0700000524520874,1.0700000524520874,1.1100000143051147,376000.0
2019-04-24,1.1299999952316284,1.1100000143051147,1.1100000143051147,1.1299999952316284,38000.0
2019-04-25,1.1200000047683716,1.0599999427795408,1.1200000047683716,1.0900000333786009,318000.0
2019-04-26,1.0800000429153442,1.0,1.0599999427795408,1.0599999427795408,272000.0
2019-04-29,1.0800000429153442,1.0700000524520874,1.0700000524520874,1.0700000524520874,60000.0
2019-04-30,1.0800000429153442,1.0299999713897705,1.0299999713897705,1.0800000429153442,468000.0
2019-05-02,1.0800000429153442,1.0399999618530271,1.0399999618530271,1.0800000429153442,38000.0
2019-05-03,1.0800000429153442,1.0700000524520874,1.0800000429153442,1.0700000524520874,36000.0
2019-05-06,1.0700000524520874,1.0199999809265137,1.0700000524520874,1.0700000524520874,78000.0
2019-05-07,1.0800000429153442,1.0,1.0299999713897705,1.0800000429153442,234000.0
2019-05-08,1.1299999952316284,1.0800000429153442,1.0700000524520874,1.1200000047683716,456000.0
2019-05-09,1.1200000047683716,1.0700000524520874,1.1200000047683716,1.0800000429153442,232000.0
2019-05-10,1.100000023841858,1.0499999523162842,1.0700000524520874,1.100000023841858,84000.0
2019-05-14,1.0800000429153442,0.9800000190734864,1.0599999427795408,1.0399999618530271,832000.0
2019-05-15,1.0599999427795408,1.0499999523162842,1.0599999427795408,1.0499999523162842,26000.0
2019-05-16,1.0599999427795408,1.0099999904632568,1.0599999427795408,1.0499999523162842,82000.0
2019-05-17,1.0599999427795408,1.0499999523162842,1.0499999523162842,1.0599999427795408,126000.0
2019-05-20,1.0700000524520874,1.0299999713897705,1.0499999523162842,1.0599999427795408,120000.0
2019-05-21,1.0599999427795408,1.0299999713897705,1.0599999427795408,1.0599999427795408,66000.0
2019-05-22,1.0599999427795408,1.0299999713897705,1.0599999427795408,1.0599999427795408,106000.0
2019-05-23,1.0599999427795408,0.9900000095367432,1.0399999618530271,1.0499999523162842,206000.0
2019-05-24,1.0499999523162842,1.0199999809265137,1.0399999618530271,1.0199999809265137,124000.0
2019-05-27,1.0499999523162842,1.0399999618530271,1.0399999618530271,1.0499999523162842,46000.0
2019-05-28,1.0900000333786009,1.0499999523162842,1.0599999427795408,1.0900000333786009,110000.0
2019-05-29,1.0800000429153442,1.0599999427795408,1.0800000429153442,1.0700000524520874,72000.0
2019-05-30,1.100000023841858,1.0599999427795408,1.0900000333786009,1.0599999427795408,722000.0
2019-05-31,1.0900000333786009,1.0599999427795408,1.0900000333786009,1.0800000429153442,94000.0
2019-06-03,1.0800000429153442,1.0399999618530271,1.0599999427795408,1.0399999618530271,118000.0
2019-06-04,1.0800000429153442,1.0299999713897705,1.0800000429153442,1.0399999618530271,120000.0
2019-06-05,1.0700000524520874,1.0199999809265137,1.0399999618530271,1.0399999618530271,148000.0
2019-06-06,1.0700000524520874,1.0399999618530271,1.0399999618530271,1.0499999523162842,74000.0
2019-06-10,1.0700000524520874,1.0399999618530271,1.0700000524520874,1.0499999523162842,62000.0
2019-06-11,1.0700000524520874,1.0399999618530271,1.0700000524520874,1.0499999523162842,52000.0
2019-06-12,1.0399999618530271,1.0099999904632568,1.0399999618530271,1.0399999618530271,80000.0
2019-06-13,1.0499999523162842,1.0399999618530271,1.0499999523162842,1.0499999523162842,30000.0
2019-06-14,1.0599999427795408,1.0499999523162842,1.0499999523162842,1.0499999523162842,36000.0
2019-06-17,1.0599999427795408,1.0199999809265137,1.0199999809265137,1.0599999427795408,50000.0
2019-06-18,1.0700000524520874,1.0199999809265137,1.0700000524520874,1.0499999523162842,82000.0
2019-06-19,1.0399999618530271,1.0199999809265137,1.0199999809265137,1.0399999618530271,82000.0
2019-06-20,1.0399999618530271,1.0199999809265137,1.0399999618530271,1.0299999713897705,58000.0
2019-06-21,1.0399999618530271,0.9900000095367432,1.0399999618530271,1.0299999713897705,164000.0
2019-06-24,1.0299999713897705,1.0,1.0199999809265137,1.0,130000.0
2019-06-25,1.0299999713897705,1.0,1.0199999809265137,1.0099999904632568,112000.0
2019-06-26,1.0299999713897705,1.0,1.0099999904632568,1.0199999809265137,364000.0
2019-06-27,1.0299999713897705,1.0199999809265137,1.0299999713897705,1.0299999713897705,74000.0
2019-06-28,1.0399999618530271,1.0,1.0,1.0399999618530271,98000.0
2019-07-02,1.0599999427795408,1.0299999713897705,1.0599999427795408,1.0499999523162842,88000.0
2019-07-03,1.0399999618530271,1.0,1.0099999904632568,1.0199999809265137,152000.0
2019-07-04,1.0299999713897705,1.0199999809265137,1.0299999713897705,1.0299999713897705,112000.0
2019-07-05,1.0299999713897705,1.0,1.0299999713897705,1.0299999713897705,164000.0
2019-07-08,1.0399999618530271,1.0299999713897705,1.0299999713897705,1.0299999713897705,42000.0
2019-07-09,1.0599999427795408,1.0399999618530271,1.0399999618530271,1.0599999427795408,120000.0
2019-07-10,1.0599999427795408,1.0599999427795408,1.0599999427795408,1.0599999427795408,108000.0
2019-07-11,1.0599999427795408,1.0399999618530271,1.0599999427795408,1.0499999523162842,60000.0
2019-07-12,1.0599999427795408,1.0099999904632568,1.0599999427795408,1.0599999427795408,144000.0
2019-07-15,1.0800000429153442,1.0599999427795408,1.0599999427795408,1.0700000524520874,72000.0
2019-07-16,1.0900000333786009,1.0700000524520874,1.0800000429153442,1.0700000524520874,142000.0
2019-07-17,1.0900000333786009,1.0599999427795408,1.0800000429153442,1.0900000333786009,68000.0
2019-07-18,1.1699999570846558,1.0599999427795408,1.0900000333786009,1.0800000429153442,1164000.0
2019-07-19,1.1100000143051147,1.0599999427795408,1.1100000143051147,1.0900000333786009,182000.0
2019-07-22,1.100000023841858,1.0700000524520874,1.100000023841858,1.0900000333786009,118000.0
2019-07-23,1.100000023841858,1.0700000524520874,1.100000023841858,1.0700000524520874,102000.0
2019-07-24,1.100000023841858,1.0700000524520874,1.0800000429153442,1.0700000524520874,76000.0
2019-07-25,1.0900000333786009,1.0399999618530271,1.0800000429153442,1.0800000429153442,134000.0
2019-07-26,1.100000023841858,1.0800000429153442,1.0900000333786009,1.0900000333786009,146000.0
2019-07-29,1.100000023841858,1.0800000429153442,1.100000023841858,1.0800000429153442,44000.0
2019-07-30,1.100000023841858,1.0800000429153442,1.0900000333786009,1.0800000429153442,42000.0
2019-07-31,1.100000023841858,1.0900000333786009,1.0900000333786009,1.100000023841858,78000.0
2019-08-01,1.100000023841858,1.100000023841858,1.100000023841858,1.0800000429153442,48000.0
2019-08-02,1.0900000333786009,1.0399999618530271,1.0900000333786009,1.0800000429153442,60000.0
2019-08-05,1.0800000429153442,1.0499999523162842,1.0499999523162842,1.0800000429153442,86000.0
2019-08-06,1.0499999523162842,1.0299999713897705,1.0499999523162842,1.0399999618530271,72000.0
2019-08-07,1.0299999713897705,1.0199999809265137,1.0299999713897705,1.0199999809265137,62000.0
2019-08-08,1.0399999618530271,1.0199999809265137,1.0199999809265137,1.0299999713897705,194000.0
2019-08-09,1.0299999713897705,1.0299999713897705,1.0299999713897705,1.0299999713897705,0.0
2019-08-12,1.0399999618530271,1.0299999713897705,1.0299999713897705,1.0399999618530271,186000.0
2019-08-13,1.0299999713897705,1.0,1.0299999713897705,1.0,82000.0
2019-08-14,1.0299999713897705,1.0099999904632568,1.0099999904632568,1.0299999713897705,48000.0
2019-08-15,1.0499999523162842,1.0299999713897705,1.0299999713897705,1.0399999618530271,52000.0
2019-08-16,1.0499999523162842,1.0299999713897705,1.0499999523162842,1.0399999618530271,68000.0
2019-08-19,1.0299999713897705,1.0299999713897705,1.0299999713897705,1.0299999713897705,0.0
2019-08-20,1.0399999618530271,1.0299999713897705,1.0399999618530271,1.0299999713897705,40000.0
2019-08-21,1.0399999618530271,1.0099999904632568,1.0299999713897705,1.0399999618530271,120000.0
2019-08-22,1.0399999618530271,0.8500000238418579,1.0399999618530271,1.0099999904632568,220000.0
2019-08-23,1.0099999904632568,0.9700000286102296,0.9700000286102296,1.0099999904632568,148000.0
2019-08-26,1.0099999904632568,0.9399999976158142,0.9700000286102296,1.0,24000.0
2019-08-27,1.0199999809265137,0.9700000286102296,0.9700000286102296,1.0199999809265137,32000.0
2019-08-28,1.0299999713897705,1.0099999904632568,1.0099999904632568,1.0299999713897705,116000.0
2019-08-29,1.1200000047683716,0.9900000095367432,1.0099999904632568,1.1100000143051147,114000.0
2019-08-30,1.0599999427795408,1.0099999904632568,1.0299999713897705,1.0599999427795408,50000.0
2019-09-02,1.0499999523162842,1.0499999523162842,1.0499999523162842,1.0499999523162842,0.0
2019-09-03,1.0399999618530271,1.0299999713897705,1.0299999713897705,1.0399999618530271,30000.0
2019-09-04,1.0499999523162842,1.0299999713897705,1.0499999523162842,1.0499999523162842,38000.0
2019-09-05,1.0499999523162842,1.0099999904632568,1.0499999523162842,1.0199999809265137,54000.0
2019-09-06,1.0299999713897705,0.9800000190734864,1.0199999809265137,1.0299999713897705,68000.0
2019-09-09,1.0299999713897705,1.0,1.0199999809265137,1.0299999713897705,20000.0
2019-09-10,1.0299999713897705,1.0,1.0199999809265137,1.0199999809265137,18000.0
2019-09-11,1.0599999427795408,1.0,1.0299999713897705,1.0199999809265137,68000.0
2019-09-12,1.0499999523162842,0.9800000190734864,1.0499999523162842,1.0,30000.0
2019-09-13,1.0199999809265137,1.0,1.0199999809265137,1.0199999809265137,14000.0
2019-09-16,1.0299999713897705,0.9700000286102296,0.9700000286102296,1.0299999713897705,48000.0
2019-09-17,1.0199999809265137,1.0,1.0,1.0199999809265137,20000.0
2019-09-18,1.0099999904632568,0.9800000190734864,0.9800000190734864,1.0099999904632568,28000.0
2019-09-19,1.0199999809265137,0.9499999880790709,1.0199999809265137,1.0099999904632568,20000.0
2019-09-20,1.0199999809265137,1.0199999809265137,1.0199999809265137,1.0199999809265137,0.0
2019-09-23,1.0199999809265137,1.0099999904632568,1.0099999904632568,1.0199999809265137,12000.0
2019-09-24,1.0099999904632568,0.9900000095367432,1.0099999904632568,1.0,10000.0
2019-09-25,1.0099999904632568,0.959999978542328,1.0,0.9800000190734864,94000.0
2019-09-26,1.0099999904632568,1.0099999904632568,1.0099999904632568,1.0099999904632568,0.0
2019-09-27,1.0099999904632568,1.0099999904632568,1.0099999904632568,1.0099999904632568,0.0
2019-09-30,1.2000000476837158,0.9700000286102296,0.9800000190734864,1.1799999475479126,198000.0
2019-10-02,1.0599999427795408,1.0599999427795408,1.0599999427795408,1.0599999427795408,0.0
2019-10-03,1.0499999523162842,1.0499999523162842,1.0499999523162842,1.0499999523162842,2000.0
2019-10-04,1.0199999809265137,0.8299999833106995,1.0199999809265137,0.8500000238418579,42000.0
2019-10-08,1.0900000333786009,0.8999999761581421,0.9300000071525574,1.0299999713897705,74000.0
2019-10-09,1.0700000524520874,0.9800000190734864,1.0700000524520874,1.0199999809265137,46000.0
2019-10-10,1.0199999809265137,0.9800000190734864,1.0199999809265137,1.0,78000.0
2019-10-11,1.0099999904632568,0.9800000190734864,0.9800000190734864,1.0099999904632568,22000.0
2019-10-14,1.0199999809265137,1.0199999809265137,1.0199999809265137,1.0199999809265137,0.0
2019-10-15,1.0199999809265137,1.0,1.0,1.0199999809265137,18000.0
2019-10-16,1.0199999809265137,1.0199999809265137,1.0199999809265137,1.0199999809265137,4000.0
2019-10-17,1.0199999809265137,0.9800000190734864,1.0199999809265137,1.0099999904632568,162000.0
2019-10-18,1.0199999809265137,1.0,1.0199999809265137,1.0199999809265137,30000.0
2019-10-21,1.0299999713897705,0.9900000095367432,1.0099999904632568,1.0299999713897705,70000.0
2019-10-22,1.0199999809265137,1.0099999904632568,1.0099999904632568,1.0,20000.0
2019-10-23,1.0099999904632568,1.0099999904632568,1.0099999904632568,1.0099999904632568,0.0
2019-10-24,1.0099999904632568,1.0099999904632568,1.0099999904632568,1.0099999904632568,0.0
2019-10-25,1.0499999523162842,1.0,1.0099999904632568,1.0499999523162842,22000.0
2019-10-28,1.0499999523162842,1.0499999523162842,1.0499999523162842,1.0499999523162842,0.0
2019-10-29,0.9900000095367432,0.9300000071525574,0.9900000095367432,0.9900000095367432,182000.0
2019-10-30,1.0199999809265137,0.9900000095367432,0.9900000095367432,1.0199999809265137,114000.0
2019-10-31,1.0099999904632568,1.0,1.0099999904632568,1.0,56000.0
2019-11-01,1.0199999809265137,0.9900000095367432,0.9900000095367432,1.0199999809265137,108000.0
2019-11-04,1.0099999904632568,0.9900000095367432,1.0099999904632568,1.0099999904632568,112000.0
2019-11-05,1.0099999904632568,0.9700000286102296,1.0,1.0,208000.0
2019-11-06,1.0,0.9800000190734864,0.9900000095367432,1.0,56000.0
2019-11-07,1.0,0.9800000190734864,0.9900000095367432,0.9800000190734864,126000.0
2019-11-08,1.0,0.8700000047683716,0.9900000095367432,0.959999978542328,202000.0
2019-11-11,1.0,0.9200000166893004,0.9800000190734864,0.9900000095367432,154000.0
2019-11-12,1.0199999809265137,0.959999978542328,1.0,1.0199999809265137,90000.0
2019-11-13,1.0499999523162842,1.0199999809265137,1.0299999713897705,1.0499999523162842,124000.0
2019-11-14,1.0399999618530271,1.0399999618530271,1.0399999618530271,1.0399999618530271,308000.0
2019-11-15,1.0499999523162842,1.0499999523162842,1.0499999523162842,1.0499999523162842,0.0
2019-11-18,1.0599999427795408,1.0499999523162842,1.0499999523162842,1.0599999427795408,70000.0
2019-11-19,1.0800000429153442,1.0499999523162842,1.0599999427795408,1.0700000524520874,94000.0
2019-11-20,1.0800000429153442,1.0499999523162842,1.0499999523162842,1.0800000429153442,74000.0
2019-11-21,1.0700000524520874,1.0399999618530271,1.0599999427795408,1.0700000524520874,74000.0
2019-11-22,1.0499999523162842,1.0399999618530271,1.0399999618530271,1.0499999523162842,26000.0
2019-11-25,1.0800000429153442,1.0599999427795408,1.0599999427795408,1.0800000429153442,256000.0
2019-11-26,1.0700000524520874,1.0599999427795408,1.0700000524520874,1.0599999427795408,36000.0
2019-11-27,1.0700000524520874,1.0299999713897705,1.0599999427795408,1.0700000524520874,250000.0
2019-11-28,1.0499999523162842,1.0299999713897705,1.0499999523162842,1.0399999618530271,42000.0
2019-11-29,1.0599999427795408,1.0199999809265137,1.0299999713897705,1.0499999523162842,252000.0
2019-12-02,1.0599999427795408,1.0499999523162842,1.0599999427795408,1.0599999427795408,12000.0
2019-12-03,1.0700000524520874,1.0,1.0,1.0700000524520874,368000.0
2019-12-04,1.0700000524520874,1.0599999427795408,1.0599999427795408,1.0700000524520874,216000.0
2019-12-05,1.0700000524520874,1.0599999427795408,1.0599999427795408,1.0700000524520874,46000.0
2019-12-06,1.0700000524520874,1.0599999427795408,1.0599999427795408,1.0700000524520874,26000.0
2019-12-09,1.0599999427795408,1.0499999523162842,1.0599999427795408,1.0599999427795408,60000.0
2019-12-10,1.0700000524520874,1.0700000524520874,1.0700000524520874,1.0700000524520874,0.0
2019-12-11,1.0599999427795408,1.0499999523162842,1.0499999523162842,1.0599999427795408,42000.0
2019-12-12,1.0700000524520874,1.0499999523162842,1.0700000524520874,1.0599999427795408,50000.0
2019-12-13,1.0700000524520874,1.0,1.0700000524520874,1.0599999427795408,136000.0
2019-12-16,1.0599999427795408,1.0499999523162842,1.0499999523162842,1.0599999427795408,38000.0
2019-12-17,1.0599999427795408,1.0499999523162842,1.0499999523162842,1.0599999427795408,22000.0
2019-12-18,1.0499999523162842,1.0499999523162842,1.0499999523162842,1.0499999523162842,0.0
2019-12-19,1.0499999523162842,1.0499999523162842,1.0499999523162842,1.0499999523162842,0.0
2019-12-20,1.0499999523162842,1.0499999523162842,1.0499999523162842,1.0499999523162842,0.0
2019-12-23,1.0399999618530271,0.9800000190734864,1.0399999618530271,1.0399999618530271,48000.0
2019-12-24,1.0299999713897705,0.9800000190734864,1.0,0.9800000190734864,88000.0
2019-12-27,1.0499999523162842,1.0,1.0099999904632568,1.0299999713897705,120000.0
2019-12-30,1.0399999618530271,1.0399999618530271,1.0399999618530271,1.0399999618530271,0.0
2019-12-31,1.0700000524520874,1.0599999427795408,1.0599999427795408,1.0499999523162842,4000.0
2020-01-02,1.0800000429153442,1.0299999713897705,1.0800000429153442,1.0299999713897705,10000.0
2020-01-03,1.0399999618530271,1.0399999618530271,1.0399999618530271,1.0399999618530271,0.0
2020-01-06,1.0199999809265137,1.0199999809265137,1.0199999809265137,1.0199999809265137,0.0
2020-01-07,1.0399999618530271,1.0399999618530271,1.0399999618530271,1.0399999618530271,0.0
2020-01-08,1.0199999809265137,0.9800000190734864,1.0,1.0199999809265137,10000.0
2020-01-09,1.0299999713897705,1.0299999713897705,1.0299999713897705,1.0299999713897705,0.0
2020-01-10,1.0700000524520874,0.9499999880790709,1.0599999427795408,0.9900000095367432,76000.0
2020-01-13,1.0,1.0,1.0,1.0,0.0
2020-01-14,1.0299999713897705,1.0299999713897705,1.0299999713897705,1.0299999713897705,0.0
2020-01-15,1.0199999809265137,1.0199999809265137,1.0199999809265137,1.0199999809265137,0.0
2020-01-16,1.0199999809265137,1.0199999809265137,1.0199999809265137,1.0199999809265137,0.0
2020-01-17,1.0,0.959999978542328,0.9800000190734864,1.0,54000.0
2020-01-20,1.0,0.9300000071525574,0.959999978542328,1.0,28000.0
2020-01-21,1.0,1.0,1.0,1.0,0.0
2020-01-22,1.0399999618530271,1.0,1.0,1.0199999809265137,72000.0
2020-01-23,1.0099999904632568,1.0099999904632568,1.0099999904632568,1.0099999904632568,0.0
2020-01-24,1.0499999523162842,1.0199999809265137,1.0499999523162842,1.0299999713897705,10000.0
2020-01-29,1.0199999809265137,1.0199999809265137,1.0199999809265137,1.0199999809265137,0.0
2020-01-30,1.0299999713897705,0.9100000262260436,0.9800000190734864,0.9100000262260436,262000.0
2020-01-31,1.0,0.9200000166893004,0.9800000190734864,0.9800000190734864,18000.0
2020-02-03,0.9700000286102296,0.959999978542328,0.959999978542328,0.9700000286102296,8000.0
2020-02-04,0.9800000190734864,0.959999978542328,0.9700000286102296,0.9800000190734864,18000.0
2020-02-05,0.9499999880790709,0.9399999976158142,0.959999978542328,0.9499999880790709,6000.0
2020-02-06,0.9800000190734864,0.9100000262260436,0.9100000262260436,0.959999978542328,16000.0
2020-02-07,0.9700000286102296,0.9399999976158142,0.9499999880790709,0.9399999976158142,10000.0
2020-02-10,0.9399999976158142,0.9399999976158142,0.9399999976158142,0.9399999976158142,0.0
2020-02-11,0.9499999880790709,0.8899999856948853,0.9200000166893004,0.9200000166893004,58000.0
2020-02-12,0.9300000071525574,0.9200000166893004,0.9200000166893004,0.9200000166893004,22000.0
2020-02-13,0.9300000071525574,0.9300000071525574,0.9300000071525574,0.9300000071525574,0.0
2020-02-14,0.9499999880790709,0.9499999880790709,0.9499999880790709,0.9499999880790709,0.0
2020-02-17,0.9800000190734864,0.9399999976158142,0.9499999880790709,0.959999978542328,72000.0
2020-02-18,0.959999978542328,0.9300000071525574,0.9300000071525574,0.959999978542328,16000.0
2020-02-19,0.9800000190734864,0.9399999976158142,0.9800000190734864,0.9399999976158142,6000.0
2020-02-20,0.9800000190734864,0.9300000071525574,0.959999978542328,0.959999978542328,14000.0
2020-02-21,0.959999978542328,0.9399999976158142,0.9399999976158142,0.959999978542328,10000.0
2020-02-24,0.9499999880790709,0.9100000262260436,0.9100000262260436,0.9499999880790709,18000.0
2020-02-25,0.9499999880790709,0.9300000071525574,0.9300000071525574,0.9499999880790709,4000.0
2020-02-26,0.9499999880790709,0.9100000262260436,0.9100000262260436,0.9499999880790709,6000.0
2020-02-27,0.9499999880790709,0.9499999880790709,0.9499999880790709,0.9499999880790709,0.0
2020-02-28,0.9900000095367432,0.9499999880790709,0.9499999880790709,0.9800000190734864,24000.0
2020-03-02,0.959999978542328,0.9300000071525574,0.9300000071525574,0.959999978542328,22000.0
2020-03-03,1.0399999618530271,0.8299999833106995,0.959999978542328,0.8999999761581421,158000.0
2020-03-04,0.9399999976158142,0.8500000238418579,0.8500000238418579,0.8999999761581421,32000.0
2020-03-05,0.8899999856948853,0.8600000143051147,0.8899999856948853,0.8899999856948853,80000.0
2020-03-06,0.9399999976158142,0.8299999833106995,0.8299999833106995,0.9399999976158142,50000.0
2020-03-09,0.9399999976158142,0.9399999976158142,0.9399999976158142,0.9399999976158142,0.0
2020-03-10,0.9399999976158142,0.9399999976158142,0.9399999976158142,0.9399999976158142,0.0
2020-03-11,1.0199999809265137,0.8799999952316284,1.0199999809265137,0.8999999761581421,48000.0
2020-03-12,0.9200000166893004,0.9100000262260436,0.9100000262260436,0.9200000166893004,4000.0
2020-03-13,0.9399999976158142,0.8700000047683716,0.9200000166893004,0.9300000071525574,110000.0
2020-03-16,0.9499999880790709,0.9499999880790709,0.9499999880790709,0.9399999976158142,2000.0
2020-03-17,0.9399999976158142,0.9399999976158142,0.9200000166893004,0.9300000071525574,36000.0
2020-03-18,0.8899999856948853,0.8399999737739563,0.8500000238418579,0.8899999856948853,94000.0
2020-03-19,0.8399999737739563,0.6700000166893005,0.8399999737739563,0.699999988079071,108000.0
2020-03-20,0.7699999809265137,0.6600000262260437,0.7599999904632568,0.6899999976158142,86000.0
2020-03-23,0.7200000286102295,0.6800000071525574,0.6800000071525574,0.7099999785423279,42000.0
2020-03-24,0.699999988079071,0.699999988079071,0.699999988079071,0.699999988079071,0.0
2020-03-25,0.7200000286102295,0.6899999976158142,0.699999988079071,0.7200000286102295,62000.0
2020-03-26,0.7699999809265137,0.7200000286102295,0.7200000286102295,0.7699999809265137,40000.0
2020-03-27,0.8199999928474426,0.7099999785423279,0.75,0.8000000119209291,54000.0
2020-03-30,0.8000000119209291,0.8000000119209291,0.8000000119209291,0.8000000119209291,0.0
2020-03-31,0.8000000119209291,0.8000000119209291,0.8000000119209291,0.8000000119209291,0.0
2020-04-01,0.8000000119209291,0.7900000214576721,0.7900000214576721,0.8000000119209291,24000.0
2020-04-02,0.8000000119209291,0.7799999713897705,0.7900000214576721,0.8000000119209291,22000.0
2020-04-03,0.8000000119209291,0.7900000214576721,0.7900000214576721,0.8000000119209291,30000.0
2020-04-06,0.8000000119209291,0.8000000119209291,0.8000000119209291,0.8000000119209291,0.0
2020-04-07,0.8000000119209291,0.8000000119209291,0.8000000119209291,0.8000000119209291,0.0
2020-04-08,0.8000000119209291,0.8000000119209291,0.8000000119209291,0.8000000119209291,0.0
2020-04-09,0.8999999761581421,0.8999999761581421,0.8999999761581421,0.8999999761581421,0.0
2020-04-14,0.9399999976158142,0.9399999976158142,0.9399999976158142,0.9399999976158142,0.0
2020-04-15,0.9399999976158142,0.9399999976158142,0.9399999976158142,0.9399999976158142,0.0
2020-04-16,0.8999999761581421,0.8999999761581421,0.8999999761581421,0.8999999761581421,0.0
2020-04-17,0.8999999761581421,0.8999999761581421,0.8999999761581421,0.8999999761581421,0.0
2020-04-20,0.8999999761581421,0.8000000119209291,0.8500000238418579,0.8999999761581421,26000.0
2020-04-21,0.8899999856948853,0.8899999856948853,0.8899999856948853,0.8899999856948853,0.0
2020-04-22,0.8899999856948853,0.8899999856948853,0.8899999856948853,0.8899999856948853,0.0
2020-04-23,0.8899999856948853,0.8799999952316284,0.8799999952316284,0.8899999856948853,18000.0
2020-04-24,0.8799999952316284,0.8000000119209291,0.8299999833106995,0.8700000047683716,132000.0
2020-04-27,0.8500000238418579,0.8000000119209291,0.8199999928474426,0.8299999833106995,84000.0
2020-04-28,0.8299999833106995,0.8299999833106995,0.8299999833106995,0.8299999833106995,0.0
2020-04-29,0.8700000047683716,0.8299999833106995,0.8299999833106995,0.8700000047683716,28000.0
2020-05-04,0.8700000047683716,0.8700000047683716,0.8700000047683716,0.8700000047683716,0.0
2020-05-05,0.8999999761581421,0.8899999856948853,0.8899999856948853,0.8799999952316284,4000.0
2020-05-06,0.8799999952316284,0.8000000119209291,0.8199999928474426,0.8199999928474426,192000.0
2020-05-07,0.8500000238418579,0.8500000238418579,0.8500000238418579,0.8500000238418579,0.0
2020-05-08,0.8600000143051147,0.8000000119209291,0.8199999928474426,0.8600000143051147,30000.0
2020-05-11,0.8600000143051147,0.8600000143051147,0.8600000143051147,0.8600000143051147,0.0
2020-05-12,0.8600000143051147,0.8600000143051147,0.8600000143051147,0.8600000143051147,0.0
2020-05-13,0.8600000143051147,0.8600000143051147,0.8600000143051147,0.8600000143051147,0.0
2020-05-14,0.8600000143051147,0.8600000143051147,0.8600000143051147,0.8600000143051147,0.0
2020-05-15,0.8999999761581421,0.8700000047683716,0.8700000047683716,0.8799999952316284,16000.0
2020-05-18,0.8700000047683716,0.8500000238418579,0.8500000238418579,0.8700000047683716,4000.0
2020-05-19,0.8600000143051147,0.8600000143051147,0.8600000143051147,0.8600000143051147,0.0
2020-05-20,0.8700000047683716,0.8700000047683716,0.8700000047683716,0.8700000047683716,0.0
2020-05-21,0.8700000047683716,0.8700000047683716,0.8700000047683716,0.8700000047683716,0.0
2020-05-22,0.8799999952316284,0.8299999833106995,0.8700000047683716,0.8700000047683716,154000.0
2020-05-25,0.8500000238418579,0.8500000238418579,0.8500000238418579,0.8500000238418579,0.0
2020-05-26,0.8700000047683716,0.8700000047683716,0.8700000047683716,0.8700000047683716,0.0
2020-05-27,0.8799999952316284,0.8799999952316284,0.8799999952316284,0.8799999952316284,0.0
2020-05-28,0.8500000238418579,0.8500000238418579,0.8500000238418579,0.8500000238418579,0.0
2020-05-29,0.8500000238418579,0.8500000238418579,0.8500000238418579,0.8500000238418579,0.0
2020-06-01,0.8500000238418579,0.8500000238418579,0.8500000238418579,0.8500000238418579,0.0
2020-06-02,0.8500000238418579,0.8500000238418579,0.8500000238418579,0.8500000238418579,0.0
2020-06-03,0.8199999928474426,0.8199999928474426,0.8199999928474426,0.8199999928474426,0.0
2020-06-04,0.8199999928474426,0.699999988079071,0.7699999809265137,0.8000000119209291,186000.0
2020-06-05,0.8000000119209291,0.7900000214576721,0.7900000214576721,0.7900000214576721,44000.0
2020-06-08,0.7799999713897705,0.7799999713897705,0.7799999713897705,0.7799999713897705,0.0
2020-06-09,0.7900000214576721,0.7900000214576721,0.7900000214576721,0.7900000214576721,0.0
2020-06-10,0.7900000214576721,0.75,0.75,0.7900000214576721,4000.0
2020-06-11,0.7900000214576721,0.7900000214576721,0.7900000214576721,0.7900000214576721,0.0
2020-06-12,0.75,0.699999988079071,0.75,0.7400000095367432,136000.0
2020-06-15,0.7699999809265137,0.7699999809265137,0.7699999809265137,0.7699999809265137,0.0
2020-06-16,0.7699999809265137,0.7200000286102295,0.7200000286102295,0.7699999809265137,20000.0
2020-06-17,0.7699999809265137,0.7699999809265137,0.7699999809265137,0.7699999809265137,0.0
2020-06-18,0.7699999809265137,0.7699999809265137,0.7699999809265137,0.7699999809265137,0.0
2020-06-19,0.7699999809265137,0.7699999809265137,0.7699999809265137,0.7699999809265137,0.0
2020-06-22,0.8500000238418579,0.7799999713897705,0.7799999713897705,0.8199999928474426,14000.0
2020-06-23,0.8100000023841858,0.8100000023841858,0.8100000023841858,0.8100000023841858,0.0
2020-06-24,0.8100000023841858,0.8100000023841858,0.8100000023841858,0.8100000023841858,0.0
2020-06-26,0.8000000119209291,0.8000000119209291,0.8000000119209291,0.8000000119209291,0.0
2020-06-29,0.8899999856948853,0.75,0.8899999856948853,0.75,4000.0
2020-06-30,0.8500000238418579,0.8000000119209291,0.8399999737739563,0.8399999737739563,26000.0
2020-07-02,0.8299999833106995,0.8199999928474426,0.8199999928474426,0.8299999833106995,22000.0
2020-07-03,0.8299999833106995,0.8100000023841858,0.8299999833106995,0.8299999833106995,20000.0
2020-07-06,0.8299999833106995,0.8299999833106995,0.8299999833106995,0.8299999833106995,0.0
2020-07-07,0.8399999737739563,0.8399999737739563,0.8399999737739563,0.8399999737739563,0.0
2020-07-08,0.8399999737739563,0.8399999737739563,0.8399999737739563,0.8399999737739563,2000.0
2020-07-09,0.8299999833106995,0.8000000119209291,0.8000000119209291,0.8299999833106995,24000.0
2020-07-10,0.8399999737739563,0.8399999737739563,0.8399999737739563,0.8399999737739563,2000.0
2020-07-13,0.8500000238418579,0.8399999737739563,0.8399999737739563,0.8500000238418579,8000.0
2020-07-14,0.8500000238418579,0.8500000238418579,0.8500000238418579,0.8500000238418579,0.0
2020-07-15,0.8399999737739563,0.8399999737739563,0.8399999737739563,0.8399999737739563,0.0
2020-07-16,0.8399999737739563,0.7099999785423279,0.8399999737739563,0.7900000214576721,108000.0
2020-07-17,0.8399999737739563,0.8000000119209291,0.8100000023841858,0.8100000023841858,20000.0
