Date,High,Low,Open,Close,Volume
2017-07-14,0.7400000095367432,0.6299999952316284,0.6299999952316284,0.7300000190734863,15180000
2017-07-17,0.75,0.6600000262260437,0.75,0.6800000071525574,3064000
2017-07-18,0.699999988079071,0.6200000047683716,0.6499999761581421,0.6899999976158142,9956000
2017-07-19,0.7200000286102295,0.6800000071525574,0.6899999976158142,0.699999988079071,2000000
2017-07-20,0.6899999976158142,0.6600000262260437,0.6600000262260437,0.6899999976158142,980000
2017-07-21,0.7300000190734863,0.6800000071525574,0.7300000190734863,0.6899999976158142,828000
2017-07-24,0.7200000286102295,0.6800000071525574,0.7099999785423279,0.6800000071525574,352000
2017-07-25,0.7200000286102295,0.6800000071525574,0.699999988079071,0.699999988079071,520000
2017-07-26,0.7300000190734863,0.699999988079071,0.7300000190734863,0.7099999785423279,208000
2017-07-27,0.7300000190734863,0.699999988079071,0.7300000190734863,0.7200000286102295,3532000
2017-07-28,0.7300000190734863,0.6899999976158142,0.7300000190734863,0.7200000286102295,2568000
2017-07-31,1.100000023841858,0.6800000071525574,0.7300000190734863,1.0800000429153442,15868000
2017-08-01,1.25,0.8700000047683716,1.1699999570846558,0.8899999856948853,16880000
2017-08-02,1.0,0.8700000047683716,0.8899999856948853,0.8899999856948853,4968000
2017-08-03,0.8899999856948853,0.7200000286102295,0.8899999856948853,0.7699999809265137,3348000
2017-08-04,0.8399999737739563,0.7599999904632568,0.8000000119209291,0.7699999809265137,1308000
2017-08-07,0.8399999737739563,0.7599999904632568,0.7699999809265137,0.8199999928474426,548000
2017-08-08,0.8000000119209291,0.7799999713897705,0.8000000119209291,0.7900000214576721,408000
2017-08-09,0.8199999928474426,0.7599999904632568,0.7599999904632568,0.8199999928474426,1316000
2017-08-10,0.8500000238418579,0.7699999809265137,0.8500000238418579,0.7799999713897705,1132000
2017-08-11,0.7699999809265137,0.7400000095367432,0.7400000095367432,0.7599999904632568,468000
2017-08-14,0.7699999809265137,0.7200000286102295,0.7400000095367432,0.7200000286102295,604000
2017-08-15,0.7200000286102295,0.7200000286102295,0.7200000286102295,0.7200000286102295,116000
2017-08-16,0.7300000190734863,0.699999988079071,0.7300000190734863,0.7300000190734863,392000
2017-08-17,0.7699999809265137,0.6899999976158142,0.6899999976158142,0.7099999785423279,5900000
2017-08-18,0.7599999904632568,0.7400000095367432,0.7400000095367432,0.7400000095367432,20000
2017-08-21,0.7599999904632568,0.699999988079071,0.7599999904632568,0.7099999785423279,660000
2017-08-22,0.75,0.699999988079071,0.699999988079071,0.7099999785423279,2220000
2017-08-23,0.7099999785423279,0.7099999785423279,0.7099999785423279,0.7099999785423279,0
2017-08-24,0.7099999785423279,0.7099999785423279,0.7099999785423279,0.7099999785423279,44000
2017-08-25,0.7099999785423279,0.7099999785423279,0.7099999785423279,0.7099999785423279,16000
2017-08-28,0.7099999785423279,0.6800000071525574,0.7099999785423279,0.6800000071525574,76000
2017-08-29,0.6800000071525574,0.6700000166893005,0.6700000166893005,0.6800000071525574,60000
2017-08-30,0.6800000071525574,0.6800000071525574,0.6800000071525574,0.6800000071525574,60000
2017-08-31,0.6899999976158142,0.6700000166893005,0.6800000071525574,0.6700000166893005,456000
2017-09-01,0.7699999809265137,0.6800000071525574,0.699999988079071,0.7599999904632568,4716000
2017-09-04,0.8899999856948853,0.7599999904632568,0.7699999809265137,0.7699999809265137,4384000
2017-09-05,0.8299999833106995,0.7900000214576721,0.8299999833106995,0.7900000214576721,48000
2017-09-06,0.7799999713897705,0.7099999785423279,0.7099999785423279,0.7799999713897705,384000
2017-09-07,0.7799999713897705,0.7200000286102295,0.7300000190734863,0.7699999809265137,1764000
2017-09-08,0.8000000119209291,0.7300000190734863,0.7699999809265137,0.7300000190734863,84000
2017-09-11,0.7599999904632568,0.7099999785423279,0.75,0.7300000190734863,152000
2017-09-12,0.7599999904632568,0.7099999785423279,0.7099999785423279,0.7400000095367432,252000
2017-09-13,0.7200000286102295,0.6899999976158142,0.75,0.6899999976158142,336000
2017-09-14,0.7300000190734863,0.7200000286102295,0.7300000190734863,0.7300000190734863,60000
2017-09-15,0.7799999713897705,0.7300000190734863,0.7400000095367432,0.7599999904632568,5192000
2017-09-18,0.7599999904632568,0.7300000190734863,0.7599999904632568,0.75,5104000
2017-09-19,0.7900000214576721,0.7200000286102295,0.75,0.75,4584000
2017-09-20,0.7799999713897705,0.7200000286102295,0.7699999809265137,0.7699999809265137,7976000
2017-09-21,0.7799999713897705,0.7599999904632568,0.7799999713897705,0.7799999713897705,12152000
2017-09-22,0.8299999833106995,0.7799999713897705,0.8299999833106995,0.7900000214576721,224000
2017-09-25,0.8000000119209291,0.75,0.8000000119209291,0.75,1288000
2017-09-26,0.8000000119209291,0.75,0.75,0.8000000119209291,2148000
2017-09-27,0.7900000214576721,0.6399999856948853,0.7699999809265137,0.7200000286102295,29632000
2017-09-28,0.75,0.6899999976158142,0.7200000286102295,0.699999988079071,412000
2017-09-29,0.699999988079071,0.6000000238418579,0.699999988079071,0.6399999856948853,15584000
2017-10-03,0.6499999761581421,0.6499999761581421,0.6499999761581421,0.6499999761581421,16000
2017-10-04,0.9499999880790709,0.6800000071525574,0.6800000071525574,0.8600000143051147,13616000
2017-10-06,0.9200000166893004,0.8600000143051147,0.8600000143051147,0.9200000166893004,1624000
2017-10-09,0.9300000071525574,0.8600000143051147,0.8999999761581421,0.9200000166893004,5988000
2017-10-10,0.9800000190734864,0.8999999761581421,0.9200000166893004,0.9800000190734864,3228000
2017-10-11,1.2000000476837158,0.959999978542328,0.9800000190734864,1.1699999570846558,6572000
2017-10-12,1.2200000286102295,0.9900000095367432,1.190000057220459,0.9900000095367432,6148000
2017-10-13,1.0599999427795408,0.9300000071525574,0.9900000095367432,0.9800000190734864,11012000
2017-10-16,0.9800000190734864,0.9200000166893004,0.9900000095367432,0.9700000286102296,972000
2017-10-17,0.9700000286102296,0.9300000071525574,0.9399999976158142,0.9499999880790709,288000
2017-10-18,0.9499999880790709,0.9200000166893004,0.9300000071525574,0.9399999976158142,520000
2017-10-19,1.0700000524520874,0.8700000047683716,0.9800000190734864,0.9499999880790709,3688000
2017-10-20,0.9800000190734864,0.9300000071525574,0.9499999880790709,0.9800000190734864,6664000
2017-10-23,1.0499999523162842,0.959999978542328,0.959999978542328,1.0099999904632568,5480000
2017-10-24,1.0199999809265137,0.9499999880790709,1.0099999904632568,1.0,3836000
2017-10-25,1.0099999904632568,0.9300000071525574,0.9499999880790709,1.0,4672000
2017-10-26,1.0199999809265137,0.9499999880790709,0.9700000286102296,1.0,3408000
2017-10-27,0.9900000095367432,0.8000000119209291,0.9700000286102296,0.8500000238418579,2448000
2017-10-30,0.8700000047683716,0.8199999928474426,0.8199999928474426,0.8700000047683716,716000
2017-10-31,0.9800000190734864,0.8700000047683716,0.8700000047683716,0.9399999976158142,3948000
2017-11-01,0.9800000190734864,0.9100000262260436,0.9100000262260436,0.9300000071525574,1624000
2017-11-02,1.0800000429153442,0.8999999761581421,0.9200000166893004,1.0499999523162842,4084000
2017-11-03,1.100000023841858,0.9800000190734864,1.0399999618530271,1.0299999713897705,6232000
2017-11-06,1.0399999618530271,0.9499999880790709,1.0399999618530271,1.0,1016000
2017-11-07,1.0299999713897705,0.9399999976158142,0.9399999976158142,1.0299999713897705,1744000
2017-11-08,1.0499999523162842,0.9700000286102296,1.0399999618530271,0.9900000095367432,560000
2017-11-09,1.0499999523162842,0.9700000286102296,0.9800000190734864,1.0,4556000
2017-11-10,1.100000023841858,0.9900000095367432,1.0599999427795408,1.0900000333786009,2908000
2017-11-13,1.3400000333786009,1.100000023841858,1.100000023841858,1.3400000333786009,13096000
2017-11-14,1.5,1.25,1.2999999523162842,1.350000023841858,5716000
2017-11-15,1.350000023841858,1.25,1.350000023841858,1.25,588000
2017-11-16,1.5099999904632568,1.190000057220459,1.25,1.399999976158142,4824000
2017-11-17,1.4500000476837158,1.350000023841858,1.4199999570846558,1.399999976158142,308000
2017-11-20,1.4500000476837158,1.2799999713897705,1.3300000429153442,1.4099999666213991,472000
2017-11-21,1.559999942779541,1.3300000429153442,1.399999976158142,1.5,2288000
2017-11-22,1.5399999618530271,1.4600000381469729,1.5399999618530271,1.4600000381469729,732000
2017-11-23,1.4600000381469729,1.4199999570846558,1.4600000381469729,1.4199999570846558,128000
2017-11-24,1.6100000143051147,1.4700000286102295,1.5299999713897705,1.4600000381469729,928000
2017-11-27,1.440000057220459,1.440000057220459,1.440000057220459,1.440000057220459,40000
2017-11-28,1.6000000238418581,1.440000057220459,1.440000057220459,1.6000000238418581,864000
2017-11-29,1.8400000333786009,1.5199999809265137,1.5499999523162842,1.830000042915344,1152000
2017-11-30,1.8500000238418581,1.5800000429153442,1.8500000238418581,1.7000000476837158,1308000
2017-12-01,2.0,1.5199999809265137,1.6000000238418581,1.8899999856948853,5152000
2017-12-04,2.1800000667572017,1.8200000524520876,1.9099999666213991,1.9800000190734863,2955500
2017-12-05,2.200000047683716,1.9600000381469729,2.0,2.0199999809265137,2332000
2017-12-06,2.0,1.8500000238418581,1.9900000095367432,1.950000047683716,2263500
2017-12-07,2.0699999332427983,1.8899999856948853,1.8899999856948853,2.0,1948000
2017-12-08,2.150000095367432,1.950000047683716,1.9600000381469729,2.0699999332427983,1056000
2017-12-11,2.049999952316284,1.950000047683716,2.049999952316284,2.0,752000
2017-12-12,2.0,1.9299999475479128,2.0,1.9700000286102293,300000
2017-12-13,1.950000047683716,1.870000004768372,1.8799999952316284,1.8999999761581419,420000
2017-12-14,2.049999952316284,1.870000004768372,1.8999999761581419,1.940000057220459,800000
2017-12-15,2.0299999713897705,1.8999999761581419,1.940000057220459,2.0199999809265137,296000
2017-12-18,2.0699999332427983,1.919999957084656,1.9900000095367432,1.950000047683716,796000
2017-12-19,1.9600000381469729,1.8999999761581419,1.8999999761581419,1.9299999475479128,1216000
2017-12-20,2.0,1.9299999475479128,1.9299999475479128,1.940000057220459,480000
2017-12-21,2.009999990463257,1.9600000381469729,1.9600000381469729,2.0,120000
2017-12-22,2.150000095367432,2.0,2.0999999046325684,2.1199998855590816,6172000
2017-12-27,2.200000047683716,2.009999990463257,2.200000047683716,2.1199998855590816,1056000
2017-12-28,2.0999999046325684,2.0999999046325684,2.0999999046325684,2.0999999046325684,0
2017-12-29,2.039999961853028,1.8999999761581419,2.009999990463257,2.0,1416000
2018-01-02,1.919999957084656,1.919999957084656,1.919999957084656,2.0299999713897705,40000
2018-01-03,1.9700000286102293,1.8400000333786009,1.8400000333786009,1.9700000286102293,24000
2018-01-04,2.0,1.8799999952316284,2.0,1.8799999952316284,2212000
2018-01-05,2.0,1.809999942779541,1.8400000333786009,2.0,2288000
2018-01-08,1.950000047683716,1.809999942779541,1.950000047683716,1.8400000333786009,284000
2018-01-09,1.8999999761581419,1.8400000333786009,1.8799999952316284,1.8400000333786009,64000
2018-01-10,2.0,1.8500000238418581,1.9700000286102293,1.8600000143051147,416000
2018-01-11,1.919999957084656,1.7999999523162842,1.919999957084656,1.809999942779541,404000
2018-01-12,2.0,1.8600000143051147,1.8600000143051147,2.0,1664000
2018-01-15,2.1800000667572017,1.919999957084656,2.0299999713897705,1.9700000286102293,6164000
2018-01-16,2.0899999141693115,1.9900000095367432,2.0,2.0199999809265137,552000
2018-01-17,2.0899999141693115,1.950000047683716,2.0299999713897705,1.9700000286102293,152000
2018-01-18,2.0199999809265137,1.6499999761581419,1.950000047683716,1.6499999761581419,4308000
2018-01-19,1.7000000476837158,1.1200000047683716,1.6699999570846558,1.3899999856948853,6656000
2018-01-22,1.3899999856948853,1.2300000190734863,1.3799999952316284,1.2599999904632568,604000
2018-01-23,1.3799999952316284,1.2400000095367432,1.3400000333786009,1.2799999713897705,1312000
2018-01-24,1.3300000429153442,1.1799999475479126,1.3300000429153442,1.2000000476837158,2488000
2018-01-25,1.6200000047683716,1.0700000524520874,1.190000057220459,1.5800000429153442,45768000
2018-01-26,1.6100000143051147,1.4600000381469729,1.5900000333786009,1.5,1172000
2018-01-29,1.5299999713897705,1.3700000047683716,1.5099999904632568,1.4299999475479126,2104000
2018-01-30,1.5199999809265137,1.4500000476837158,1.5099999904632568,1.4500000476837158,780000
2018-01-31,1.5,1.3200000524520874,1.4099999666213991,1.350000023841858,724000
2018-02-01,1.350000023841858,1.2999999523162842,1.350000023841858,1.2999999523162842,152000
2018-02-02,1.2999999523162842,1.25,1.2999999523162842,1.2899999618530271,768000
2018-02-05,1.3899999856948853,1.1100000143051147,1.1100000143051147,1.3600000143051147,1488000
2018-02-06,1.3400000333786009,1.25,1.3200000524520874,1.3300000429153442,236000
2018-02-07,1.2899999618530271,1.2899999618530271,1.2899999618530271,1.2899999618530271,0
2018-02-08,1.309999942779541,1.2799999713897705,1.2799999713897705,1.2999999523162842,92000
2018-02-09,1.2599999904632568,1.2100000381469729,1.2100000381469729,1.2699999809265137,9576000
2018-02-12,1.2000000476837158,1.1299999952316284,1.2000000476837158,1.190000057220459,292000
2018-02-13,1.3400000333786009,1.190000057220459,1.190000057220459,1.2699999809265137,320000
2018-02-14,1.350000023841858,1.2100000381469729,1.2100000381469729,1.2599999904632568,32000
2018-02-15,1.2999999523162842,1.149999976158142,1.2200000286102295,1.2999999523162842,192000
2018-02-20,1.2899999618530271,1.2899999618530271,1.2899999618530271,1.2899999618530271,0
2018-02-21,1.350000023841858,1.2599999904632568,1.3200000524520874,1.2699999809265137,236000
2018-02-22,1.3300000429153442,1.2699999809265137,1.2699999809265137,1.3300000429153442,292000
2018-02-23,1.5499999523162842,1.2799999713897705,1.3200000524520874,1.5299999713897705,764000
2018-02-26,1.5299999713897705,1.4099999666213991,1.5299999713897705,1.4600000381469729,532000
2018-02-27,1.4900000095367432,1.4500000476837158,1.4900000095367432,1.4500000476837158,56000
2018-02-28,1.4500000476837158,1.399999976158142,1.399999976158142,1.4500000476837158,52000
2018-03-01,1.4500000476837158,1.4500000476837158,1.4500000476837158,1.4500000476837158,0
2018-03-02,1.4199999570846558,1.399999976158142,1.4099999666213991,1.4199999570846558,112000
2018-03-05,1.3700000047683716,1.3700000047683716,1.3700000047683716,1.3700000047683716,0
2018-03-06,1.5299999713897705,1.350000023841858,1.350000023841858,1.5,1228000
2018-03-07,1.4900000095367432,1.4900000095367432,1.4900000095367432,1.4900000095367432,40000
2018-03-08,1.6299999952316284,1.5,1.5,1.5199999809265137,3188000
2018-03-09,1.5800000429153442,1.5199999809265137,1.5800000429153442,1.5700000524520874,160000
2018-03-12,1.5499999523162842,1.5499999523162842,1.5499999523162842,1.5499999523162842,60000
2018-03-13,1.6200000047683716,1.559999942779541,1.6200000047683716,1.6000000238418581,700000
2018-03-14,1.6000000238418581,1.5700000524520874,1.5800000429153442,1.6000000238418581,140000
2018-03-15,1.6100000143051147,1.5,1.5,1.6000000238418581,904000
2018-03-16,1.5800000429153442,1.5299999713897705,1.5399999618530271,1.5399999618530271,376000
2018-03-19,1.6100000143051147,1.5900000333786009,1.6000000238418581,1.6100000143051147,848000
2018-03-20,1.6100000143051147,1.6100000143051147,1.6100000143051147,1.6100000143051147,128000
2018-03-21,1.7100000381469729,1.5499999523162842,1.5499999523162842,1.6299999952316284,732000
2018-03-22,1.6799999475479126,1.6200000047683716,1.6299999952316284,1.6599999666213991,172000
2018-03-23,1.7200000286102295,1.6000000238418581,1.6000000238418581,1.7000000476837158,2228000
2018-03-26,1.7200000286102295,1.7000000476837158,1.7100000381469729,1.7000000476837158,132000
2018-03-27,1.690000057220459,1.690000057220459,1.690000057220459,1.690000057220459,24000
2018-03-28,1.8799999952316284,1.690000057220459,1.690000057220459,1.7000000476837158,460000
2018-03-29,1.7000000476837158,1.690000057220459,1.690000057220459,1.690000057220459,228000
2018-04-03,1.7000000476837158,1.7000000476837158,1.7000000476837158,1.7000000476837158,24000
2018-04-04,1.690000057220459,1.690000057220459,1.690000057220459,1.690000057220459,0
2018-04-06,1.6799999475479126,1.6499999761581419,1.6599999666213991,1.6699999570846558,316000
2018-04-09,1.7400000095367432,1.6699999570846558,1.6699999570846558,1.7000000476837158,292000
2018-04-10,1.6699999570846558,1.6699999570846558,1.6699999570846558,1.6699999570846558,56000
2018-04-11,1.7100000381469729,1.6799999475479126,1.6799999475479126,1.7100000381469729,80000
2018-04-12,1.7100000381469729,1.350000023841858,1.7100000381469729,1.5499999523162842,304000
2018-04-13,1.6299999952316284,1.5499999523162842,1.5499999523162842,1.6299999952316284,1324000
2018-04-16,1.6299999952316284,1.6299999952316284,1.6299999952316284,1.6299999952316284,0
2018-04-17,1.6000000238418581,1.5,1.559999942779541,1.5199999809265137,428000
2018-04-18,1.559999942779541,1.559999942779541,1.559999942779541,1.559999942779541,0
2018-04-19,1.6299999952316284,1.6299999952316284,1.6299999952316284,1.6299999952316284,0
2018-04-20,1.690000057220459,1.6399999856948853,1.6499999761581419,1.6399999856948853,268000
2018-04-23,1.6599999666213991,1.6100000143051147,1.6599999666213991,1.6100000143051147,288000
2018-04-24,1.7000000476837158,1.6299999952316284,1.6499999761581419,1.6299999952316284,540000
2018-04-25,1.6599999666213991,1.6499999761581419,1.6599999666213991,1.6499999761581419,60000
2018-04-26,1.6599999666213991,1.6499999761581419,1.6599999666213991,1.6499999761581419,52000
2018-04-27,1.6399999856948853,1.6299999952316284,1.6399999856948853,1.6299999952316284,80000
2018-04-30,1.6299999952316284,1.3600000143051147,1.6299999952316284,1.5800000429153442,572000
2018-05-02,1.5199999809265137,1.4800000190734863,1.5199999809265137,1.4800000190734863,212000
2018-05-03,1.5,1.4199999570846558,1.4800000190734863,1.5,1008000
2018-05-04,1.6000000238418581,1.5700000524520874,1.5700000524520874,1.6000000238418581,88000
2018-05-07,1.6000000238418581,1.6000000238418581,1.6000000238418581,1.6000000238418581,0
2018-05-08,1.6100000143051147,1.6100000143051147,1.6100000143051147,1.6100000143051147,88000
2018-05-09,1.6100000143051147,1.6100000143051147,1.5800000429153442,1.5900000333786009,48000
2018-05-10,1.5700000524520874,1.5700000524520874,1.5700000524520874,1.5700000524520874,0
2018-05-11,1.5700000524520874,1.5700000524520874,1.5700000524520874,1.5700000524520874,0
2018-05-14,1.5700000524520874,1.5700000524520874,1.5700000524520874,1.5700000524520874,0
2018-05-15,1.5700000524520874,1.5700000524520874,1.5700000524520874,1.5700000524520874,0
2018-05-16,1.5700000524520874,1.5700000524520874,1.5700000524520874,1.5700000524520874,0
2018-05-17,1.5700000524520874,1.5700000524520874,1.5700000524520874,1.5700000524520874,0
2018-05-18,1.5700000524520874,1.5700000524520874,1.5700000524520874,1.5700000524520874,0
2018-05-21,1.5700000524520874,1.5700000524520874,1.5700000524520874,1.5700000524520874,0
2018-05-23,1.4700000286102295,1.4700000286102295,1.4700000286102295,1.4700000286102295,0
2018-05-24,1.4700000286102295,1.4700000286102295,1.4700000286102295,1.4700000286102295,0
2018-05-25,1.3600000143051147,1.2400000095367432,1.3600000143051147,1.2400000095367432,40000
2018-05-28,1.2599999904632568,1.2000000476837158,1.2599999904632568,1.2000000476837158,196000
2018-05-29,1.399999976158142,1.399999976158142,1.399999976158142,1.399999976158142,400000
2018-05-30,1.5399999618530271,1.5299999713897705,1.5299999713897705,1.5399999618530271,308000
2018-05-31,1.5099999904632568,1.5099999904632568,1.5099999904632568,1.5099999904632568,0
2018-06-01,1.5099999904632568,1.5099999904632568,1.5099999904632568,1.5099999904632568,0
2018-06-04,1.2999999523162842,1.2999999523162842,1.2999999523162842,1.399999976158142,12000
2018-06-05,1.399999976158142,1.2300000190734863,1.3899999856948853,1.25,80000
2018-06-06,1.2999999523162842,1.2999999523162842,1.2999999523162842,1.309999942779541,300000
2018-06-07,1.6000000238418581,1.2899999618530271,1.399999976158142,1.3799999952316284,2088000
2018-06-08,1.4500000476837158,1.350000023841858,1.350000023841858,1.4500000476837158,80000
2018-06-11,1.4500000476837158,1.3300000429153442,1.4500000476837158,1.3400000333786009,264000
2018-06-12,1.399999976158142,1.3400000333786009,1.350000023841858,1.3799999952316284,180000
2018-06-13,1.399999976158142,1.3400000333786009,1.3600000143051147,1.3400000333786009,872000
2018-06-14,1.3799999952316284,1.2999999523162842,1.3400000333786009,1.2999999523162842,88000
2018-06-15,1.2999999523162842,1.2699999809265137,1.2999999523162842,1.3799999952316284,112000
2018-06-19,1.3799999952316284,1.2799999713897705,1.3600000143051147,1.3600000143051147,1708000
2018-06-20,1.3799999952316284,1.309999942779541,1.3600000143051147,1.3300000429153442,896000
2018-06-21,1.440000057220459,1.3300000429153442,1.350000023841858,1.399999976158142,3876000
2018-06-22,1.4099999666213991,1.350000023841858,1.4099999666213991,1.3799999952316284,480000
2018-06-25,1.4600000381469729,1.3700000047683716,1.4199999570846558,1.3899999856948853,488000
2018-06-26,1.3200000524520874,1.2999999523162842,1.3200000524520874,1.3200000524520874,32000
2018-06-27,1.3700000047683716,1.2000000476837158,1.2999999523162842,1.2000000476837158,200000
2018-06-28,1.4700000286102295,1.2100000381469729,1.2799999713897705,1.25,264000
2018-06-29,1.7999999523162842,1.2400000095367432,1.2599999904632568,1.690000057220459,1116000
2018-07-03,1.309999942779541,1.309999942779541,1.309999942779541,1.309999942779541,36000
2018-07-04,1.350000023841858,1.350000023841858,1.350000023841858,1.350000023841858,128000
2018-07-05,1.3300000429153442,1.3200000524520874,1.3300000429153442,1.3300000429153442,176000
2018-07-06,1.6799999475479126,1.309999942779541,1.3300000429153442,1.6299999952316284,1680000
2018-07-09,1.4800000190734863,1.3600000143051147,1.4800000190734863,1.4700000286102295,352000
2018-07-10,1.4600000381469729,1.4600000381469729,1.4600000381469729,1.4600000381469729,0
2018-07-11,1.3899999856948853,1.3899999856948853,1.3899999856948853,1.3899999856948853,0
2018-07-12,1.4099999666213991,1.3300000429153442,1.3600000143051147,1.3899999856948853,652000
2018-07-13,1.4099999666213991,1.4099999666213991,1.4099999666213991,1.4099999666213991,0
2018-07-16,1.350000023841858,1.2999999523162842,1.350000023841858,1.350000023841858,72000
2018-07-17,1.3700000047683716,1.2100000381469729,1.2599999904632568,1.3600000143051147,704000
2018-07-18,1.4199999570846558,1.350000023841858,1.350000023841858,1.399999976158142,176000
2018-07-19,1.4600000381469729,1.4500000476837158,1.4500000476837158,1.4199999570846558,196000
2018-07-20,1.3700000047683716,1.3700000047683716,1.3700000047683716,1.3700000047683716,4000
2018-07-23,1.4199999570846558,1.350000023841858,1.3700000047683716,1.4199999570846558,296000
2018-07-24,1.559999942779541,1.559999942779541,1.559999942779541,1.5499999523162842,4000
2018-07-25,1.399999976158142,1.399999976158142,1.399999976158142,1.399999976158142,0
2018-07-26,1.4099999666213991,1.3600000143051147,1.3899999856948853,1.4099999666213991,148000
2018-07-27,1.4500000476837158,1.3300000429153442,1.4500000476837158,1.3300000429153442,220000
2018-07-30,1.5399999618530271,1.3200000524520874,1.3600000143051147,1.5399999618530271,468000
2018-07-31,1.4800000190734863,1.309999942779541,1.4800000190734863,1.3300000429153442,1132000
2018-08-01,1.3400000333786009,1.3400000333786009,1.3400000333786009,1.3400000333786009,0
2018-08-02,1.3300000429153442,1.2799999713897705,1.3200000524520874,1.3400000333786009,144000
2018-08-03,1.350000023841858,1.2400000095367432,1.2400000095367432,1.2599999904632568,116000
2018-08-06,1.5,1.2599999904632568,1.2599999904632568,1.4299999475479126,512000
2018-08-07,1.399999976158142,1.399999976158142,1.399999976158142,1.399999976158142,0
2018-08-08,1.3200000524520874,1.2999999523162842,1.3200000524520874,1.3200000524520874,100000
2018-08-09,1.350000023841858,1.2899999618530271,1.2899999618530271,1.350000023841858,652000
2018-08-10,1.2999999523162842,1.2999999523162842,1.2999999523162842,1.2999999523162842,0
2018-08-13,1.2999999523162842,1.2999999523162842,1.2999999523162842,1.2999999523162842,12000
2018-08-14,1.2699999809265137,1.2699999809265137,1.2699999809265137,1.2699999809265137,0
2018-08-15,1.2599999904632568,1.2599999904632568,1.2599999904632568,1.2599999904632568,0
2018-08-16,1.25,1.25,1.25,1.25,36000
2018-08-17,1.25,1.25,1.25,1.25,0
2018-08-20,1.2799999713897705,1.2699999809265137,1.2799999713897705,1.2699999809265137,12000
2018-08-21,1.2699999809265137,1.2699999809265137,1.2699999809265137,1.2699999809265137,0
2018-08-22,1.2899999618530271,1.2899999618530271,1.2899999618530271,1.2899999618530271,32000
2018-08-23,1.2899999618530271,1.2899999618530271,1.2899999618530271,1.2899999618530271,0
2018-08-24,1.25,1.25,1.25,1.25,40000
2018-08-27,1.25,1.25,1.25,1.25,0
2018-08-28,1.4500000476837158,1.3300000429153442,1.3300000429153442,1.3899999856948853,472000
2018-08-29,1.350000023841858,1.350000023841858,1.350000023841858,1.350000023841858,80000
2018-08-30,1.2999999523162842,1.2599999904632568,1.2999999523162842,1.2699999809265137,108000
2018-08-31,1.2799999713897705,1.25,1.2599999904632568,1.2599999904632568,180000
2018-09-03,1.2799999713897705,1.1699999570846558,1.25,1.2799999713897705,112000
2018-09-04,1.2899999618530271,1.25,1.2799999713897705,1.2599999904632568,380000
2018-09-05,1.2999999523162842,1.2599999904632568,1.2999999523162842,1.2799999713897705,252000
2018-09-06,1.3799999952316284,1.2799999713897705,1.2799999713897705,1.3799999952316284,1392000
2018-09-07,1.5700000524520874,1.2699999809265137,1.2899999618530271,1.4700000286102295,10062000
2018-09-10,1.4600000381469729,0.8000000119209291,1.4600000381469729,1.1599999666213991,6588000
2018-09-11,1.350000023841858,1.0,1.149999976158142,1.2999999523162842,7608000
2018-09-12,1.2899999618530271,1.0800000429153442,1.2899999618530271,1.1799999475479126,2972000
2018-09-13,1.2200000286102295,1.0900000333786009,1.2000000476837158,1.2000000476837158,3580000
2018-09-14,1.2400000095367432,1.1599999666213991,1.1599999666213991,1.2000000476837158,168000
2018-09-17,1.2000000476837158,1.1399999856948853,1.2000000476837158,1.1799999475479126,200000
2018-09-18,1.1799999475479126,1.1799999475479126,1.1799999475479126,1.1799999475479126,16000
2018-09-19,1.2000000476837158,1.1299999952316284,1.2000000476837158,1.149999976158142,548000
2018-09-20,1.149999976158142,1.1299999952316284,1.1399999856948853,1.1399999856948853,132000
2018-09-21,1.1799999475479126,1.100000023841858,1.149999976158142,1.1200000047683716,748000
2018-09-24,1.2200000286102295,1.1200000047683716,1.1799999475479126,1.1200000047683716,5452000
2018-09-26,1.2999999523162842,1.1599999666213991,1.2999999523162842,1.2000000476837158,108000
2018-09-27,1.190000057220459,1.0900000333786009,1.149999976158142,1.1100000143051147,932000
2018-09-28,1.399999976158142,1.100000023841858,1.1100000143051147,1.3600000143051147,1612000
2018-10-02,1.3600000143051147,1.1200000047683716,1.3600000143051147,1.149999976158142,432000
2018-10-03,1.1699999570846558,1.100000023841858,1.1599999666213991,1.100000023841858,320000
2018-10-04,1.1200000047683716,1.0900000333786009,1.100000023841858,1.0900000333786009,96000
2018-10-05,1.100000023841858,1.0399999618530271,1.100000023841858,1.0900000333786009,132000
2018-10-08,1.1200000047683716,1.0800000429153442,1.1200000047683716,1.0800000429153442,24000
2018-10-09,1.0800000429153442,1.0800000429153442,1.0800000429153442,1.0800000429153442,0
2018-10-10,1.100000023841858,1.0299999713897705,1.0599999427795408,1.0499999523162842,132000
2018-10-11,1.1299999952316284,0.9900000095367432,1.0700000524520874,1.0399999618530271,360000
2018-10-12,1.100000023841858,1.0099999904632568,1.100000023841858,1.0900000333786009,724000
2018-10-15,1.1200000047683716,1.0199999809265137,1.1200000047683716,1.100000023841858,636000
2018-10-16,1.1399999856948853,1.0599999427795408,1.1100000143051147,1.1100000143051147,320000
2018-10-18,1.100000023841858,0.9800000190734864,1.100000023841858,1.0800000429153442,1332000
2018-10-19,1.1200000047683716,1.0299999713897705,1.0599999427795408,1.100000023841858,196000
2018-10-22,1.0700000524520874,1.0199999809265137,1.0700000524520874,1.0700000524520874,428000
2018-10-23,1.1200000047683716,0.9900000095367432,1.100000023841858,1.0,808000
2018-10-24,1.0499999523162842,0.9700000286102296,1.0199999809265137,1.0499999523162842,292000
2018-10-25,1.0299999713897705,0.9499999880790709,1.0299999713897705,1.0099999904632568,1072000
2018-10-26,1.0499999523162842,0.9399999976158142,1.0499999523162842,0.9499999880790709,1128000
2018-10-29,0.9499999880790709,0.9300000071525574,0.9300000071525574,0.9499999880790709,32000
2018-10-30,1.0,0.8500000238418579,0.8600000143051147,1.0,128000
2018-10-31,1.0299999713897705,0.9700000286102296,1.0199999809265137,0.9700000286102296,268000
2018-11-01,1.0,0.9300000071525574,0.9300000071525574,1.0,396000
2018-11-02,1.0099999904632568,0.9499999880790709,0.959999978542328,1.0099999904632568,172000
2018-11-05,1.0,0.959999978542328,0.9800000190734864,1.0,100000
2018-11-06,0.9900000095367432,0.9800000190734864,0.9800000190734864,0.9900000095367432,204000
2018-11-07,1.0,1.0,1.0,1.0,0
2018-11-08,1.149999976158142,1.0199999809265137,1.0499999523162842,1.1299999952316284,3208000
2018-11-09,1.149999976158142,1.0499999523162842,1.0599999427795408,1.149999976158142,528000
2018-11-12,1.2000000476837158,1.0499999523162842,1.2000000476837158,1.0599999427795408,364000
2018-11-13,1.0599999427795408,1.0,1.0800000429153442,1.0299999713897705,120000
2018-11-14,1.0099999904632568,0.9900000095367432,1.0099999904632568,0.9900000095367432,24000
2018-11-15,1.0800000429153442,0.699999988079071,1.0499999523162842,1.0499999523162842,4268000
2018-11-16,1.0,0.8999999761581421,0.9100000262260436,1.0,300000
2018-11-19,1.0099999904632568,0.9200000166893004,1.0099999904632568,0.9300000071525574,112000
2018-11-20,1.0,0.9399999976158142,0.9700000286102296,0.9800000190734864,1168000
2018-11-21,0.9800000190734864,0.9800000190734864,0.9800000190734864,0.9800000190734864,0
2018-11-22,0.9800000190734864,0.8999999761581421,0.9300000071525574,0.8999999761581421,308000
2018-11-23,1.1100000143051147,0.9100000262260436,0.9300000071525574,1.100000023841858,1276000
2018-11-26,0.9900000095367432,0.9900000095367432,0.9900000095367432,0.9900000095367432,84000
2018-11-27,1.0,0.9399999976158142,1.0,0.9700000286102296,220000
2018-11-28,0.9800000190734864,0.9800000190734864,0.9800000190734864,0.9800000190734864,0
2018-11-29,1.100000023841858,1.0,1.0,1.0800000429153442,8584000
2018-11-30,1.0700000524520874,1.0,1.0,1.0599999427795408,8000
2018-12-03,0.9900000095367432,0.9800000190734864,0.9900000095367432,0.9800000190734864,88000
2018-12-04,0.959999978542328,0.9499999880790709,0.959999978542328,0.959999978542328,48000
2018-12-05,1.0,0.9700000286102296,0.9900000095367432,0.9700000286102296,516000
2018-12-06,0.9700000286102296,0.9700000286102296,0.9700000286102296,0.9700000286102296,0
2018-12-07,1.0099999904632568,0.9800000190734864,0.9900000095367432,1.0,10500000
2018-12-10,1.0599999427795408,0.9399999976158142,0.9399999976158142,0.9900000095367432,149000
2018-12-11,0.9800000190734864,0.9800000190734864,0.9800000190734864,0.9800000190734864,0
2018-12-12,0.9499999880790709,0.8999999761581421,0.9499999880790709,0.8999999761581421,52000
2018-12-13,0.959999978542328,0.7799999713897705,0.9200000166893004,0.959999978542328,5376000
2018-12-14,0.959999978542328,0.8999999761581421,0.9100000262260436,0.9399999976158142,180000
2018-12-17,0.9499999880790709,0.8899999856948853,0.8899999856948853,0.9499999880790709,1056000
2018-12-18,1.0,0.959999978542328,0.9700000286102296,0.9800000190734864,2436000
2018-12-19,0.9800000190734864,0.9800000190734864,0.9800000190734864,0.9800000190734864,600000
2018-12-20,0.9800000190734864,0.9800000190734864,0.9800000190734864,0.9800000190734864,0
2018-12-21,1.0,0.8999999761581421,0.8999999761581421,0.959999978542328,232000
2018-12-24,0.959999978542328,0.959999978542328,0.959999978542328,0.959999978542328,0
2018-12-27,0.959999978542328,0.959999978542328,0.959999978542328,0.959999978542328,0
2018-12-28,1.0499999523162842,0.9700000286102296,0.9700000286102296,1.0499999523162842,392000
2018-12-31,0.9700000286102296,0.9499999880790709,0.9700000286102296,0.9499999880790709,44000
2019-01-02,1.0099999904632568,0.9499999880790709,0.9499999880790709,1.0099999904632568,408000
2019-01-03,1.0399999618530271,1.0399999618530271,1.0399999618530271,1.0399999618530271,0
2019-01-04,1.0199999809265137,1.0199999809265137,1.0199999809265137,1.0199999809265137,0
2019-01-07,1.0399999618530271,0.9900000095367432,0.9900000095367432,1.0299999713897705,404000
2019-01-08,1.0399999618530271,0.9800000190734864,1.0399999618530271,1.0199999809265137,240000
2019-01-09,1.0599999427795408,0.9800000190734864,0.9800000190734864,1.0399999618530271,5572000
2019-01-10,1.0499999523162842,0.9800000190734864,1.0,1.0499999523162842,2608000
2019-01-11,1.0499999523162842,1.0,1.0399999618530271,1.0499999523162842,6868000
2019-01-14,1.0299999713897705,0.9900000095367432,1.0099999904632568,0.9900000095367432,104000
2019-01-15,1.0700000524520874,0.9900000095367432,1.0,1.0199999809265137,6280000
2019-01-16,1.0299999713897705,0.9499999880790709,1.0299999713897705,1.0099999904632568,892000
2019-01-17,1.0499999523162842,1.0,1.0,1.0,436000
2019-01-18,1.0800000429153442,0.9900000095367432,1.0,1.0700000524520874,228000
2019-01-21,1.0700000524520874,1.0599999427795408,1.0700000524520874,1.0599999427795408,36000
2019-01-22,1.0700000524520874,1.0099999904632568,1.0099999904632568,1.0700000524520874,448000
2019-01-23,1.0499999523162842,1.0199999809265137,1.0499999523162842,1.0399999618530271,112000
2019-01-24,1.0399999618530271,1.0099999904632568,1.0199999809265137,1.0099999904632568,368000
2019-01-25,1.0,0.9499999880790709,0.9900000095367432,0.9499999880790709,336000
2019-01-28,0.9800000190734864,0.9499999880790709,0.9499999880790709,0.9499999880790709,36000
2019-01-29,0.959999978542328,0.9499999880790709,0.9499999880790709,0.9499999880790709,44000
2019-01-30,0.9499999880790709,0.9499999880790709,0.9499999880790709,0.9499999880790709,0
2019-01-31,0.9800000190734864,0.9499999880790709,0.9800000190734864,0.9499999880790709,48000
2019-02-01,1.0399999618530271,0.9499999880790709,0.959999978542328,1.0099999904632568,72000
2019-02-04,1.0099999904632568,1.0,1.0099999904632568,0.959999978542328,36000
2019-02-08,0.959999978542328,0.959999978542328,0.959999978542328,0.959999978542328,0
2019-02-11,0.959999978542328,0.959999978542328,0.959999978542328,0.959999978542328,28000
2019-02-12,1.0099999904632568,0.959999978542328,1.0099999904632568,0.959999978542328,12000
2019-02-13,0.9499999880790709,0.9200000166893004,0.9499999880790709,0.9800000190734864,516000
2019-02-14,0.9700000286102296,0.8700000047683716,0.9700000286102296,0.9300000071525574,452000
2019-02-15,0.9800000190734864,0.8000000119209291,0.9300000071525574,0.8999999761581421,996000
2019-02-18,0.9100000262260436,0.8500000238418579,0.8799999952316284,0.8500000238418579,256000
2019-02-19,0.8999999761581421,0.8600000143051147,0.8600000143051147,0.8899999856948853,880000
2019-02-20,0.9100000262260436,0.8500000238418579,0.8799999952316284,0.8500000238418579,76000
2019-02-21,0.8899999856948853,0.8299999833106995,0.8500000238418579,0.8500000238418579,196000
2019-02-22,0.8500000238418579,0.8199999928474426,0.8199999928474426,0.8500000238418579,320000
2019-02-25,0.8600000143051147,0.8399999737739563,0.8500000238418579,0.8500000238418579,60000
2019-02-26,0.8600000143051147,0.7599999904632568,0.7599999904632568,0.8500000238418579,328000
2019-02-27,0.8500000238418579,0.8000000119209291,0.8100000023841858,0.8500000238418579,224000
2019-02-28,0.8999999761581421,0.8899999856948853,0.8899999856948853,0.8999999761581421,328000
2019-03-01,0.8999999761581421,0.8500000238418579,0.8899999856948853,0.8999999761581421,604000
2019-03-04,0.9300000071525574,0.8999999761581421,0.9200000166893004,0.8999999761581421,104000
2019-03-05,0.9399999976158142,0.8899999856948853,0.9100000262260436,0.9399999976158142,2028000
2019-03-06,0.959999978542328,0.9100000262260436,0.9100000262260436,0.9399999976158142,112000
2019-03-07,0.959999978542328,0.8999999761581421,0.9100000262260436,0.9300000071525574,72000
2019-03-08,0.9399999976158142,0.8999999761581421,0.9100000262260436,0.9200000166893004,208000
2019-03-11,0.9499999880790709,0.8999999761581421,0.9300000071525574,0.8999999761581421,128000
2019-03-12,0.9499999880790709,0.8999999761581421,0.9200000166893004,0.9100000262260436,2184000
2019-03-13,0.9300000071525574,0.9200000166893004,0.9300000071525574,0.9300000071525574,588000
2019-03-14,0.9399999976158142,0.8999999761581421,0.9399999976158142,0.9200000166893004,624000
2019-03-15,0.9300000071525574,0.8799999952316284,0.9300000071525574,0.8999999761581421,108000
2019-03-18,0.9300000071525574,0.8999999761581421,0.9200000166893004,0.9300000071525574,1636000
2019-03-19,0.9399999976158142,0.9200000166893004,0.9399999976158142,0.9200000166893004,2080000
2019-03-20,0.9200000166893004,0.9200000166893004,0.9200000166893004,0.9200000166893004,0
2019-03-21,0.9399999976158142,0.9300000071525574,0.9300000071525574,0.9399999976158142,24000
2019-03-22,0.9399999976158142,0.9399999976158142,0.9399999976158142,0.9399999976158142,0
2019-03-25,0.9700000286102296,0.9300000071525574,0.9300000071525574,0.9700000286102296,2512000
2019-03-26,0.9700000286102296,0.959999978542328,0.959999978542328,0.9700000286102296,1216000
2019-03-27,0.9700000286102296,0.9499999880790709,0.959999978542328,0.959999978542328,3152000
2019-03-28,0.9499999880790709,0.8999999761581421,0.8999999761581421,0.9499999880790709,3240000
2019-03-29,0.9499999880790709,0.9499999880790709,0.9499999880790709,0.9499999880790709,0
2019-04-01,0.9499999880790709,0.9499999880790709,0.9499999880790709,0.9499999880790709,0
2019-04-02,0.9800000190734864,0.9100000262260436,0.959999978542328,0.9300000071525574,2516000
2019-04-03,0.9399999976158142,0.9100000262260436,0.9399999976158142,0.9300000071525574,104000
2019-04-04,0.9399999976158142,0.8999999761581421,0.8999999761581421,0.9399999976158142,76000
2019-04-08,0.9499999880790709,0.8899999856948853,0.9499999880790709,0.9200000166893004,112000
2019-04-09,0.9800000190734864,0.8700000047683716,0.9399999976158142,0.9200000166893004,696000
2019-04-10,0.9800000190734864,0.9399999976158142,0.9800000190734864,0.9399999976158142,2428000
2019-04-11,0.9499999880790709,0.8999999761581421,0.8999999761581421,0.9499999880790709,1648000
2019-04-12,0.9499999880790709,0.9499999880790709,0.9499999880790709,0.9499999880790709,0
2019-04-15,0.959999978542328,0.9300000071525574,0.9300000071525574,0.9399999976158142,1412000
2019-04-16,0.9399999976158142,0.8899999856948853,0.9399999976158142,0.9200000166893004,2788000
2019-04-17,0.9499999880790709,0.8999999761581421,0.9200000166893004,0.9300000071525574,2008000
2019-04-18,0.9200000166893004,0.8999999761581421,0.8999999761581421,0.8999999761581421,108000
2019-04-23,0.8999999761581421,0.8999999761581421,0.8999999761581421,0.8999999761581421,0
2019-04-24,0.9200000166893004,0.8999999761581421,0.8999999761581421,0.9100000262260436,28000
2019-04-25,0.9800000190734864,0.8999999761581421,0.9200000166893004,0.8999999761581421,4352000
2019-04-26,0.9200000166893004,0.8799999952316284,0.8999999761581421,0.8999999761581421,2328000
2019-04-29,0.9100000262260436,0.8799999952316284,0.8799999952316284,0.9100000262260436,224000
2019-04-30,0.8999999761581421,0.8999999761581421,0.8999999761581421,0.8999999761581421,0
2019-05-02,0.8999999761581421,0.8999999761581421,0.8999999761581421,0.8999999761581421,0
2019-05-03,0.8199999928474426,0.8199999928474426,0.8199999928474426,0.8999999761581421,4000
2019-05-06,0.8999999761581421,0.8600000143051147,0.8799999952316284,0.8799999952316284,552000
2019-05-07,0.8799999952316284,0.8500000238418579,0.8500000238418579,0.8799999952316284,56000
2019-05-08,0.8700000047683716,0.8700000047683716,0.8700000047683716,0.8700000047683716,0
2019-05-09,0.8600000143051147,0.8600000143051147,0.8600000143051147,0.8600000143051147,0
2019-05-10,0.8600000143051147,0.8600000143051147,0.8600000143051147,0.8600000143051147,0
2019-05-14,0.7599999904632568,0.7599999904632568,0.7599999904632568,0.7599999904632568,4000
2019-05-15,0.8999999761581421,0.8299999833106995,0.8600000143051147,0.8999999761581421,312000
2019-05-16,0.8999999761581421,0.8799999952316284,0.8799999952316284,0.8999999761581421,8000
2019-05-17,0.8999999761581421,0.8299999833106995,0.8999999761581421,0.8999999761581421,192000
2019-05-20,0.9200000166893004,0.8799999952316284,0.8999999761581421,0.8999999761581421,88000
2019-05-21,0.9300000071525574,0.8999999761581421,0.8999999761581421,0.8999999761581421,20000
2019-05-22,0.8999999761581421,0.8600000143051147,0.8600000143051147,0.8999999761581421,8000
2019-05-23,0.8999999761581421,0.8500000238418579,0.8500000238418579,0.8999999761581421,56000
2019-05-24,0.9499999880790709,0.8199999928474426,0.8299999833106995,0.9499999880790709,476000
2019-05-27,0.8999999761581421,0.8199999928474426,0.8500000238418579,0.8899999856948853,624000
2019-05-28,0.8899999856948853,0.8899999856948853,0.8899999856948853,0.8899999856948853,0
2019-05-29,0.8999999761581421,0.8700000047683716,0.8700000047683716,0.8799999952316284,324000
2019-05-30,0.8799999952316284,0.8799999952316284,0.8799999952316284,0.8799999952316284,0
2019-05-31,0.8999999761581421,0.8799999952316284,0.8999999761581421,0.8799999952316284,84000
2019-06-03,0.8799999952316284,0.8799999952316284,0.8799999952316284,0.8799999952316284,12000
2019-06-04,0.8999999761581421,0.8399999737739563,0.8399999737739563,0.8999999761581421,12000
2019-06-05,0.9499999880790709,0.8399999737739563,0.8999999761581421,0.8999999761581421,632000
2019-06-06,0.9100000262260436,0.8299999833106995,0.8999999761581421,0.8899999856948853,1076000
2019-06-10,0.8799999952316284,0.7599999904632568,0.8799999952316284,0.8000000119209291,408000
2019-06-11,0.8199999928474426,0.7300000190734863,0.8000000119209291,0.7599999904632568,1392000
2019-06-12,0.8000000119209291,0.7799999713897705,0.8000000119209291,0.7799999713897705,32000
2019-06-13,0.8999999761581421,0.7400000095367432,0.75,0.8899999856948853,700000
2019-06-14,0.8700000047683716,0.8199999928474426,0.8199999928474426,0.8700000047683716,64000
2019-06-17,0.8999999761581421,0.8199999928474426,0.8299999833106995,0.8999999761581421,3804000
2019-06-18,0.8199999928474426,0.8000000119209291,0.8199999928474426,0.8199999928474426,212000
2019-06-19,0.8500000238418579,0.8000000119209291,0.8199999928474426,0.8500000238418579,112000
2019-06-20,0.8700000047683716,0.8000000119209291,0.8000000119209291,0.8700000047683716,16000
2019-06-21,0.9300000071525574,0.8500000238418579,0.8600000143051147,0.8500000238418579,648000
2019-06-24,0.8500000238418579,0.8000000119209291,0.8199999928474426,0.8500000238418579,284000
2019-06-25,0.8999999761581421,0.7300000190734863,0.8700000047683716,0.8999999761581421,1984000
2019-06-26,1.0,0.8299999833106995,0.8999999761581421,0.9499999880790709,752000
2019-06-27,1.0199999809265137,0.8299999833106995,0.8399999737739563,0.8399999737739563,2584000
2019-06-28,0.8999999761581421,0.8100000023841858,0.8399999737739563,0.8899999856948853,592000
2019-07-02,0.8700000047683716,0.8000000119209291,0.8399999737739563,0.8399999737739563,1292000
2019-07-03,0.8299999833106995,0.75,0.8100000023841858,0.7900000214576721,804000
2019-07-04,0.8399999737739563,0.75,0.75,0.8299999833106995,6400000
2019-07-05,0.8299999833106995,0.8199999928474426,0.8199999928474426,0.8299999833106995,16000
2019-07-08,0.8299999833106995,0.8000000119209291,0.8100000023841858,0.8299999833106995,40000
2019-07-09,0.8299999833106995,0.7799999713897705,0.7799999713897705,0.8299999833106995,60000
2019-07-10,0.7900000214576721,0.7900000214576721,0.7900000214576721,0.7900000214576721,72000
2019-07-11,0.7900000214576721,0.7900000214576721,0.7900000214576721,0.7900000214576721,0
2019-07-12,0.8299999833106995,0.7699999809265137,0.7699999809265137,0.8000000119209291,7592000
2019-07-15,0.8199999928474426,0.8000000119209291,0.8000000119209291,0.8199999928474426,20000
2019-07-16,0.8600000143051147,0.7900000214576721,0.8199999928474426,0.8100000023841858,4252000
2019-07-17,0.8799999952316284,0.7900000214576721,0.8100000023841858,0.8100000023841858,1344000
2019-07-18,0.8100000023841858,0.7900000214576721,0.8000000119209291,0.8100000023841858,35000
2019-07-19,0.8100000023841858,0.8100000023841858,0.8100000023841858,0.8100000023841858,0
2019-07-22,0.8000000119209291,0.7699999809265137,0.7900000214576721,0.8000000119209291,24000
2019-07-23,0.7799999713897705,0.7799999713897705,0.7799999713897705,0.7799999713897705,72000
2019-07-24,0.8199999928474426,0.7799999713897705,0.7799999713897705,0.8199999928474426,100000
2019-07-25,0.8100000023841858,0.7799999713897705,0.7900000214576721,0.8100000023841858,140000
2019-07-26,0.8000000119209291,0.7900000214576721,0.7900000214576721,0.8000000119209291,120000
2019-07-29,0.8000000119209291,0.8000000119209291,0.8000000119209291,0.8000000119209291,0
2019-07-30,0.8000000119209291,0.8000000119209291,0.8000000119209291,0.8000000119209291,0
2019-07-31,0.8000000119209291,0.8000000119209291,0.8000000119209291,0.8000000119209291,0
2019-08-01,0.8199999928474426,0.7900000214576721,0.8000000119209291,0.8199999928474426,2088000
2019-08-02,0.8100000023841858,0.7900000214576721,0.8000000119209291,0.8100000023841858,1672000
2019-08-05,0.8000000119209291,0.7799999713897705,0.8000000119209291,0.7900000214576721,1140000
2019-08-06,0.7900000214576721,0.75,0.7799999713897705,0.7699999809265137,1552000
2019-08-07,0.8000000119209291,0.75,0.75,0.8000000119209291,1604000
2019-08-08,0.8100000023841858,0.7799999713897705,0.7900000214576721,0.8000000119209291,1128000
2019-08-09,0.8100000023841858,0.7799999713897705,0.7900000214576721,0.7799999713897705,1416000
2019-08-12,0.8199999928474426,0.7900000214576721,0.8000000119209291,0.7900000214576721,1320000
2019-08-13,0.8100000023841858,0.7699999809265137,0.8000000119209291,0.7900000214576721,1528000
2019-08-14,0.8000000119209291,0.7599999904632568,0.8000000119209291,0.7599999904632568,1440000
2019-08-15,0.8399999737739563,0.7400000095367432,0.7400000095367432,0.8000000119209291,3324000
2019-08-16,0.8000000119209291,0.7699999809265137,0.8000000119209291,0.8000000119209291,1428000
2019-08-19,0.8000000119209291,0.7799999713897705,0.7900000214576721,0.8000000119209291,1160000
2019-08-20,0.8399999737739563,0.7799999713897705,0.8000000119209291,0.7900000214576721,1576000
2019-08-21,0.8100000023841858,0.7799999713897705,0.8000000119209291,0.7799999713897705,1144000
2019-08-22,0.8999999761581421,0.7799999713897705,0.7799999713897705,0.8899999856948853,1803500
2019-08-23,0.9100000262260436,0.8500000238418579,0.8899999856948853,0.8600000143051147,1744000
2019-08-26,0.8500000238418579,0.8100000023841858,0.8399999737739563,0.8299999833106995,1628000
2019-08-27,0.8399999737739563,0.8000000119209291,0.8299999833106995,0.8199999928474426,1616000
2019-08-28,0.8399999737739563,0.8000000119209291,0.8000000119209291,0.8199999928474426,1656000
2019-08-29,0.8199999928474426,0.7900000214576721,0.8199999928474426,0.8100000023841858,2896000
2019-08-30,0.8899999856948853,0.7900000214576721,0.8000000119209291,0.8899999856948853,2244000
2019-09-02,0.8500000238418579,0.8000000119209291,0.8299999833106995,0.8100000023841858,1460000
2019-09-03,0.8299999833106995,0.75,0.8199999928474426,0.7599999904632568,1724000
2019-09-04,0.8100000023841858,0.75,0.7699999809265137,0.7699999809265137,1244000
2019-09-05,0.8199999928474426,0.7699999809265137,0.7900000214576721,0.7900000214576721,1440000
2019-09-06,0.8299999833106995,0.7699999809265137,0.7699999809265137,0.8299999833106995,1376000
2019-09-09,0.8199999928474426,0.7799999713897705,0.8100000023841858,0.7900000214576721,1064000
2019-09-10,0.8000000119209291,0.7699999809265137,0.7900000214576721,0.7900000214576721,1432000
2019-09-11,0.7900000214576721,0.7699999809265137,0.7799999713897705,0.7900000214576721,1228000
2019-09-12,0.7699999809265137,0.75,0.7699999809265137,0.7599999904632568,1616000
2019-09-13,0.7799999713897705,0.75,0.75,0.7599999904632568,1212000
2019-09-16,0.7900000214576721,0.7300000190734863,0.7599999904632568,0.7900000214576721,1392000
2019-09-17,0.8000000119209291,0.7099999785423279,0.8000000119209291,0.7300000190734863,776000
2019-09-18,0.7900000214576721,0.7099999785423279,0.7300000190734863,0.7799999713897705,616000
2019-09-19,0.7699999809265137,0.7400000095367432,0.7400000095367432,0.7599999904632568,684000
2019-09-20,0.7799999713897705,0.7300000190734863,0.7400000095367432,0.7400000095367432,1524000
2019-09-23,0.7300000190734863,0.7099999785423279,0.7300000190734863,0.7200000286102295,3936000
2019-09-24,0.7900000214576721,0.699999988079071,0.7099999785423279,0.7599999904632568,1772000
2019-09-25,0.7799999713897705,0.7200000286102295,0.7300000190734863,0.7799999713897705,820000
2019-09-26,0.8000000119209291,0.7400000095367432,0.7900000214576721,0.7599999904632568,8416000
2019-09-27,0.7799999713897705,0.7400000095367432,0.7599999904632568,0.7699999809265137,7848000
2019-09-30,0.7900000214576721,0.7200000286102295,0.7799999713897705,0.7400000095367432,1036000
2019-10-02,0.75,0.7400000095367432,0.7400000095367432,0.75,856000
2019-10-03,0.7599999904632568,0.7200000286102295,0.7400000095367432,0.75,1320000
2019-10-04,0.7699999809265137,0.7200000286102295,0.75,0.7200000286102295,704000
2019-10-08,0.7400000095367432,0.7200000286102295,0.7200000286102295,0.7200000286102295,916000
2019-10-09,0.7300000190734863,0.7200000286102295,0.7300000190734863,0.7300000190734863,456000
2019-10-10,0.7300000190734863,0.7099999785423279,0.7300000190734863,0.7200000286102295,720000
2019-10-11,0.7400000095367432,0.7099999785423279,0.7200000286102295,0.7400000095367432,632000
2019-10-14,0.7400000095367432,0.7200000286102295,0.7400000095367432,0.7400000095367432,416000
2019-10-15,0.7400000095367432,0.7400000095367432,0.7400000095367432,0.7400000095367432,120000
2019-10-16,0.7200000286102295,0.699999988079071,0.7200000286102295,0.7099999785423279,1064000
2019-10-17,0.7400000095367432,0.699999988079071,0.7099999785423279,0.7400000095367432,2288000
2019-10-18,0.8299999833106995,0.7200000286102295,0.7300000190734863,0.7900000214576721,2488000
2019-10-21,0.7900000214576721,0.7599999904632568,0.7900000214576721,0.7699999809265137,520000
2019-10-22,0.7599999904632568,0.75,0.75,0.7599999904632568,292000
2019-10-23,0.7699999809265137,0.7200000286102295,0.7699999809265137,0.7200000286102295,352000
2019-10-24,0.7400000095367432,0.699999988079071,0.7200000286102295,0.7400000095367432,6004000
2019-10-25,0.7599999904632568,0.7200000286102295,0.7300000190734863,0.7200000286102295,2384000
2019-10-28,0.7599999904632568,0.7200000286102295,0.7400000095367432,0.7200000286102295,544000
2019-10-29,0.7599999904632568,0.7400000095367432,0.7400000095367432,0.7400000095367432,520000
2019-10-30,0.7400000095367432,0.7200000286102295,0.7200000286102295,0.7300000190734863,430000
2019-10-31,0.7400000095367432,0.699999988079071,0.7200000286102295,0.7099999785423279,844000
2019-11-01,0.7200000286102295,0.6800000071525574,0.7200000286102295,0.6899999976158142,1012000
2019-11-04,0.7200000286102295,0.6800000071525574,0.699999988079071,0.7099999785423279,804000
2019-11-05,0.7300000190734863,0.6600000262260437,0.699999988079071,0.7300000190734863,1220000
2019-11-06,0.7300000190734863,0.6899999976158142,0.7300000190734863,0.7300000190734863,528000
2019-11-07,0.7300000190734863,0.6800000071525574,0.6899999976158142,0.699999988079071,748000
2019-11-08,0.75,0.6899999976158142,0.6899999976158142,0.75,580000
2019-11-11,0.7300000190734863,0.7300000190734863,0.7300000190734863,0.7300000190734863,0
2019-11-12,0.699999988079071,0.6700000166893005,0.699999988079071,0.6700000166893005,376000
2019-11-13,0.7099999785423279,0.7099999785423279,0.7099999785423279,0.7099999785423279,0
2019-11-14,0.7300000190734863,0.699999988079071,0.7300000190734863,0.7099999785423279,264000
2019-11-15,0.7200000286102295,0.6899999976158142,0.6899999976158142,0.7099999785423279,412000
2019-11-18,0.75,0.6800000071525574,0.6899999976158142,0.75,2552000
2019-11-19,0.7300000190734863,0.7300000190734863,0.7300000190734863,0.7300000190734863,0
2019-11-20,0.7300000190734863,0.7300000190734863,0.7300000190734863,0.7300000190734863,0
2019-11-21,0.7300000190734863,0.7300000190734863,0.7300000190734863,0.7300000190734863,0
2019-11-22,0.7200000286102295,0.6899999976158142,0.699999988079071,0.699999988079071,440000
2019-11-25,0.699999988079071,0.6899999976158142,0.6899999976158142,0.699999988079071,160000
2019-11-26,0.7099999785423279,0.6800000071525574,0.699999988079071,0.6899999976158142,228000
2019-11-27,0.7200000286102295,0.6700000166893005,0.6700000166893005,0.7200000286102295,836000
2019-11-28,0.7200000286102295,0.6800000071525574,0.7099999785423279,0.6800000071525574,1632000
2019-11-29,0.8500000238418579,0.6800000071525574,0.6800000071525574,0.699999988079071,4792000
2019-12-02,0.7099999785423279,0.6800000071525574,0.699999988079071,0.6899999976158142,768000
2019-12-03,0.7200000286102295,0.6700000166893005,0.6800000071525574,0.7099999785423279,680000
2019-12-04,0.7400000095367432,0.6899999976158142,0.7200000286102295,0.699999988079071,496000
2019-12-05,0.699999988079071,0.6800000071525574,0.6800000071525574,0.699999988079071,340000
2019-12-06,0.7200000286102295,0.6899999976158142,0.6899999976158142,0.699999988079071,1132000
2019-12-09,0.699999988079071,0.6700000166893005,0.6800000071525574,0.699999988079071,188000
2019-12-10,0.6800000071525574,0.6800000071525574,0.6800000071525574,0.6800000071525574,8000
2019-12-11,0.699999988079071,0.6800000071525574,0.6800000071525574,0.699999988079071,56000
2019-12-12,0.7099999785423279,0.699999988079071,0.699999988079071,0.7099999785423279,92000
2019-12-13,0.7099999785423279,0.6899999976158142,0.7099999785423279,0.699999988079071,376000
2019-12-16,0.8000000119209291,0.7300000190734863,0.7400000095367432,0.8000000119209291,3344000
2019-12-17,0.8899999856948853,0.7799999713897705,0.8000000119209291,0.8799999952316284,1612000
2019-12-18,0.8299999833106995,0.7599999904632568,0.8299999833106995,0.7699999809265137,2316000
2019-12-19,0.8600000143051147,0.7200000286102295,0.7200000286102295,0.8100000023841858,8264000
2019-12-20,0.8500000238418579,0.8100000023841858,0.8299999833106995,0.8199999928474426,2004000
2019-12-23,0.8700000047683716,0.7599999904632568,0.8600000143051147,0.7900000214576721,364000
2019-12-24,0.7799999713897705,0.7699999809265137,0.7799999713897705,0.7699999809265137,56000
2019-12-27,0.8100000023841858,0.7699999809265137,0.8100000023841858,0.7699999809265137,124000
2019-12-30,0.7799999713897705,0.75,0.7799999713897705,0.7799999713897705,484000
2019-12-31,0.7699999809265137,0.7599999904632568,0.7699999809265137,0.7599999904632568,100000
2020-01-02,0.7400000095367432,0.7300000190734863,0.7400000095367432,0.7400000095367432,60000
2020-01-03,0.7200000286102295,0.699999988079071,0.7099999785423279,0.7200000286102295,1132000
2020-01-06,0.75,0.7099999785423279,0.7099999785423279,0.75,3676000
2020-01-07,0.7900000214576721,0.6899999976158142,0.7200000286102295,0.699999988079071,5300000
2020-01-08,0.7099999785423279,0.6899999976158142,0.7099999785423279,0.6899999976158142,300000
2020-01-09,0.6899999976158142,0.6899999976158142,0.6899999976158142,0.6899999976158142,0
2020-01-10,0.7200000286102295,0.699999988079071,0.7099999785423279,0.7200000286102295,148000
2020-01-13,0.7099999785423279,0.6899999976158142,0.6899999976158142,0.7099999785423279,8000
2020-01-14,0.7099999785423279,0.6899999976158142,0.7099999785423279,0.6899999976158142,116000
2020-01-15,0.699999988079071,0.6899999976158142,0.699999988079071,0.6899999976158142,524000
2020-01-16,0.7099999785423279,0.6899999976158142,0.6899999976158142,0.699999988079071,1312000
2020-01-17,0.7200000286102295,0.6899999976158142,0.699999988079071,0.699999988079071,1176000
2020-01-20,0.7200000286102295,0.699999988079071,0.7099999785423279,0.699999988079071,492000
2020-01-21,0.7200000286102295,0.699999988079071,0.7200000286102295,0.7099999785423279,104000
2020-01-22,0.7599999904632568,0.7099999785423279,0.7200000286102295,0.7099999785423279,3124000
2020-01-23,0.7099999785423279,0.699999988079071,0.699999988079071,0.699999988079071,108000
2020-01-24,0.6899999976158142,0.6899999976158142,0.6899999976158142,0.699999988079071,8000
2020-01-29,0.699999988079071,0.6899999976158142,0.699999988079071,0.6899999976158142,56000
2020-01-30,0.7099999785423279,0.6800000071525574,0.6899999976158142,0.6800000071525574,412000
2020-01-31,0.6899999976158142,0.6700000166893005,0.6700000166893005,0.6800000071525574,56000
2020-02-03,0.6800000071525574,0.6800000071525574,0.6800000071525574,0.6800000071525574,0
2020-02-04,0.6899999976158142,0.6800000071525574,0.6800000071525574,0.6899999976158142,108000
2020-02-05,0.7099999785423279,0.6700000166893005,0.7099999785423279,0.6899999976158142,960000
2020-02-06,0.699999988079071,0.6700000166893005,0.699999988079071,0.6700000166893005,732000
2020-02-07,0.6700000166893005,0.6700000166893005,0.6700000166893005,0.6700000166893005,0
2020-02-10,0.6700000166893005,0.6700000166893005,0.6700000166893005,0.6700000166893005,0
2020-02-11,0.6700000166893005,0.6700000166893005,0.6700000166893005,0.6700000166893005,0
2020-02-12,0.6700000166893005,0.6700000166893005,0.6700000166893005,0.6700000166893005,0
2020-02-13,0.6800000071525574,0.6600000262260437,0.6600000262260437,0.6800000071525574,136000
2020-02-14,0.6800000071525574,0.6800000071525574,0.6800000071525574,0.6800000071525574,0
2020-02-17,0.699999988079071,0.6600000262260437,0.6899999976158142,0.6899999976158142,132000
2020-02-18,0.6800000071525574,0.6700000166893005,0.6800000071525574,0.6700000166893005,80000
2020-02-19,0.6800000071525574,0.6700000166893005,0.6800000071525574,0.6700000166893005,76000
2020-02-20,0.6800000071525574,0.6800000071525574,0.6800000071525574,0.6800000071525574,92000
2020-02-21,0.6800000071525574,0.6800000071525574,0.6700000166893005,0.6800000071525574,100000
2020-02-24,0.6800000071525574,0.6800000071525574,0.6800000071525574,0.6800000071525574,1104000
2020-02-25,0.6700000166893005,0.6700000166893005,0.6700000166893005,0.6700000166893005,0
2020-02-26,0.6899999976158142,0.6899999976158142,0.6899999976158142,0.6899999976158142,0
2020-02-27,0.6899999976158142,0.6899999976158142,0.6899999976158142,0.6899999976158142,0
2020-02-28,0.6899999976158142,0.6700000166893005,0.6700000166893005,0.6899999976158142,72000
2020-03-02,0.6600000262260437,0.6600000262260437,0.6600000262260437,0.6600000262260437,56000
2020-03-03,0.6600000262260437,0.6100000143051147,0.6100000143051147,0.6499999761581421,260000
2020-03-04,0.6299999952316284,0.6100000143051147,0.6200000047683716,0.6200000047683716,276000
2020-03-05,0.6800000071525574,0.6399999856948853,0.6399999856948853,0.6800000071525574,48000
2020-03-06,0.6800000071525574,0.6800000071525574,0.6800000071525574,0.6800000071525574,0
2020-03-09,0.6800000071525574,0.6800000071525574,0.6800000071525574,0.6800000071525574,0
2020-03-10,0.6700000166893005,0.6700000166893005,0.6700000166893005,0.6700000166893005,0
2020-03-11,0.699999988079071,0.6100000143051147,0.6399999856948853,0.6499999761581421,512000
2020-03-12,0.7200000286102295,0.6700000166893005,0.6899999976158142,0.6899999976158142,540000
2020-03-13,0.6899999976158142,0.6299999952316284,0.6899999976158142,0.6700000166893005,1388000
2020-03-16,0.6899999976158142,0.6499999761581421,0.6499999761581421,0.6700000166893005,152000
2020-03-17,0.6700000166893005,0.6700000166893005,0.6700000166893005,0.6700000166893005,0
2020-03-18,0.6700000166893005,0.6700000166893005,0.6700000166893005,0.6700000166893005,0
2020-03-19,0.6899999976158142,0.6200000047683716,0.6700000166893005,0.6899999976158142,700000
2020-03-20,0.8199999928474426,0.6899999976158142,0.6899999976158142,0.8199999928474426,948000
2020-03-23,0.75,0.699999988079071,0.699999988079071,0.75,12000
2020-03-24,0.75,0.75,0.75,0.75,0
2020-03-25,0.7699999809265137,0.75,0.75,0.7599999904632568,48000
2020-03-26,0.7200000286102295,0.699999988079071,0.7099999785423279,0.7200000286102295,64000
2020-03-27,0.8000000119209291,0.6600000262260437,0.6600000262260437,0.8000000119209291,336000
2020-03-30,0.7699999809265137,0.7099999785423279,0.7099999785423279,0.7699999809265137,8000
2020-03-31,0.7599999904632568,0.7300000190734863,0.7300000190734863,0.7599999904632568,308000
2020-04-01,0.8000000119209291,0.7300000190734863,0.7300000190734863,0.7699999809265137,824000
2020-04-02,0.75,0.7400000095367432,0.75,0.75,12000
2020-04-03,0.7599999904632568,0.7599999904632568,0.7599999904632568,0.7599999904632568,0
2020-04-06,0.7599999904632568,0.7599999904632568,0.7599999904632568,0.7599999904632568,0
2020-04-07,0.8000000119209291,0.7400000095367432,0.7699999809265137,0.7799999713897705,644000
2020-04-08,0.8100000023841858,0.7300000190734863,0.75,0.7900000214576721,168000
2020-04-09,0.8000000119209291,0.7400000095367432,0.75,0.8000000119209291,288000
2020-04-14,0.8100000023841858,0.7699999809265137,0.8000000119209291,0.8000000119209291,272000
2020-04-15,0.7900000214576721,0.7799999713897705,0.7799999713897705,0.7900000214576721,2508000
2020-04-16,0.8000000119209291,0.7200000286102295,0.8000000119209291,0.75,2820000
2020-04-17,0.7699999809265137,0.7200000286102295,0.7200000286102295,0.7599999904632568,64000
2020-04-20,0.7599999904632568,0.7599999904632568,0.7599999904632568,0.7599999904632568,0
2020-04-21,0.7599999904632568,0.699999988079071,0.7300000190734863,0.699999988079071,5280000
2020-04-22,0.699999988079071,0.699999988079071,0.699999988079071,0.699999988079071,0
2020-04-23,0.7400000095367432,0.6800000071525574,0.699999988079071,0.7300000190734863,272000
2020-04-24,0.7400000095367432,0.699999988079071,0.699999988079071,0.7400000095367432,500000
2020-04-27,0.7599999904632568,0.7300000190734863,0.7400000095367432,0.7300000190734863,2412000
2020-04-28,0.7799999713897705,0.7099999785423279,0.7099999785423279,0.7799999713897705,680000
2020-04-29,0.7799999713897705,0.7799999713897705,0.7799999713897705,0.7799999713897705,0
2020-05-04,0.7799999713897705,0.75,0.75,0.7799999713897705,820000
2020-05-05,0.8000000119209291,0.7799999713897705,0.7799999713897705,0.8000000119209291,356000
2020-05-06,0.8000000119209291,0.7900000214576721,0.7900000214576721,0.8000000119209291,1240000
2020-05-07,0.8000000119209291,0.699999988079071,0.8000000119209291,0.7200000286102295,3056000
2020-05-08,0.7699999809265137,0.75,0.7599999904632568,0.75,152000
2020-05-11,0.75,0.75,0.75,0.75,0
2020-05-12,0.7900000214576721,0.7200000286102295,0.7599999904632568,0.7900000214576721,1224000
2020-05-13,0.7900000214576721,0.7900000214576721,0.7900000214576721,0.7900000214576721,0
2020-05-14,0.7900000214576721,0.7900000214576721,0.7900000214576721,0.7900000214576721,0
2020-05-15,0.7900000214576721,0.7900000214576721,0.7900000214576721,0.7900000214576721,0
2020-05-18,0.7900000214576721,0.7900000214576721,0.7900000214576721,0.7900000214576721,0
2020-05-19,0.7900000214576721,0.7599999904632568,0.7599999904632568,0.7900000214576721,20000
2020-05-20,0.7900000214576721,0.7900000214576721,0.7900000214576721,0.7900000214576721,0
2020-05-21,0.7699999809265137,0.7200000286102295,0.75,0.7699999809265137,1008000
2020-05-22,0.7400000095367432,0.699999988079071,0.7300000190734863,0.699999988079071,1696000
2020-05-25,0.7599999904632568,0.699999988079071,0.699999988079071,0.7599999904632568,36000
2020-05-26,0.8199999928474426,0.7799999713897705,0.7799999713897705,0.7900000214576721,208000
2020-05-27,0.7599999904632568,0.7599999904632568,0.7599999904632568,0.7599999904632568,0
2020-05-28,0.7900000214576721,0.7599999904632568,0.7599999904632568,0.7799999713897705,1904000
2020-05-29,0.7799999713897705,0.7599999904632568,0.7799999713897705,0.7599999904632568,580000
2020-06-01,0.7900000214576721,0.75,0.7599999904632568,0.7900000214576721,52000
2020-06-02,0.8999999761581421,0.7400000095367432,0.7699999809265137,0.8500000238418579,5828000
2020-06-03,0.8299999833106995,0.7699999809265137,0.7699999809265137,0.8199999928474426,412000
2020-06-04,0.8399999737739563,0.8100000023841858,0.8199999928474426,0.8399999737739563,664000
2020-06-05,0.8600000143051147,0.8100000023841858,0.8600000143051147,0.8399999737739563,440000
2020-06-08,0.8600000143051147,0.75,0.8000000119209291,0.7799999713897705,252000
2020-06-09,0.8000000119209291,0.75,0.7599999904632568,0.8000000119209291,5712000
2020-06-10,0.8000000119209291,0.8000000119209291,0.8000000119209291,0.8000000119209291,4000
2020-06-11,0.8100000023841858,0.8100000023841858,0.8100000023841858,0.8100000023841858,68000
2020-06-12,0.7900000214576721,0.75,0.7699999809265137,0.7799999713897705,52000
2020-06-15,0.8000000119209291,0.8000000119209291,0.8000000119209291,0.8000000119209291,0
2020-06-16,0.8000000119209291,0.8000000119209291,0.8000000119209291,0.8000000119209291,0
2020-06-17,0.7699999809265137,0.7599999904632568,0.7599999904632568,0.7699999809265137,280000
2020-06-18,0.7599999904632568,0.7599999904632568,0.7599999904632568,0.7599999904632568,80000
2020-06-19,0.8000000119209291,0.7799999713897705,0.7900000214576721,0.7799999713897705,128000
2020-06-22,0.7699999809265137,0.7699999809265137,0.7699999809265137,0.7699999809265137,0
2020-06-23,0.7699999809265137,0.7599999904632568,0.7699999809265137,0.7599999904632568,12000
2020-06-24,0.7599999904632568,0.7599999904632568,0.7599999904632568,0.7599999904632568,0
2020-06-26,0.7900000214576721,0.7900000214576721,0.7900000214576721,0.7900000214576721,0
2020-06-29,0.7599999904632568,0.7400000095367432,0.7599999904632568,0.7400000095367432,16000
2020-06-30,0.7400000095367432,0.7400000095367432,0.7400000095367432,0.7400000095367432,0
2020-07-02,0.7300000190734863,0.7099999785423279,0.7300000190734863,0.7099999785423279,28000
2020-07-03,0.75,0.6899999976158142,0.6899999976158142,0.75,72000
2020-07-06,0.75,0.7400000095367432,0.7400000095367432,0.75,20000
2020-07-07,0.7400000095367432,0.7400000095367432,0.7400000095367432,0.7400000095367432,0
2020-07-08,0.7400000095367432,0.7400000095367432,0.7400000095367432,0.7400000095367432,0
2020-07-09,0.8000000119209291,0.7400000095367432,0.7400000095367432,0.8000000119209291,160000
2020-07-10,0.7799999713897705,0.699999988079071,0.7400000095367432,0.7699999809265137,356000
2020-07-13,0.7799999713897705,0.7799999713897705,0.7799999713897705,0.7699999809265137,160000
2020-07-14,0.7599999904632568,0.7599999904632568,0.7599999904632568,0.7599999904632568,0
2020-07-15,0.7400000095367432,0.7400000095367432,0.7400000095367432,0.7400000095367432,3000000
2020-07-16,0.7300000190734863,0.6800000071525574,0.7200000286102295,0.7300000190734863,80000
2020-07-17,0.7400000095367432,0.7300000190734863,0.7300000190734863,0.7400000095367432,976000
2020-07-20,2.0899999141693115,1.8500000238418581,1.9099999666213991,1.8500000238418581,3788000
2020-07-21,1.870000004768372,1.7400000095367432,1.8200000524520876,1.7999999523162842,1358000
2020-07-22,1.8799999952316284,1.7200000286102295,1.7599999904632568,1.7899999618530271,7584000
2020-07-23,1.8899999856948853,1.7699999809265137,1.7699999809265137,1.8200000524520876,1670000
2020-07-24,1.8999999761581419,1.809999942779541,1.8200000524520876,1.8999999761581419,2098000
2020-07-27,1.8999999761581419,1.7200000286102295,1.8999999761581419,1.809999942779541,5256000
2020-07-28,2.3499999046325684,1.9099999666213991,1.9099999666213991,2.200000047683716,9544000
2020-07-29,2.470000028610229,2.1300001144409184,2.1300001144409184,2.309999942779541,6017000
2020-07-30,2.9800000190734863,2.380000114440918,2.380000114440918,2.9200000762939453,9485000
2020-07-31,3.2999999523162837,2.799999952316284,3.119999885559082,2.900000095367432,6492000
2020-08-03,3.0499999523162837,2.720000028610229,2.900000095367432,2.880000114440918,5378000
2020-08-04,2.970000028610229,2.799999952316284,2.880000114440918,2.9300000667572017,2250000
2020-08-05,3.5899999141693115,2.890000104904175,2.9500000476837163,3.4100000858306885,4166000
2020-08-06,4.119999885559082,3.490000009536743,3.5999999046325684,4.0,7403700
2020-08-07,4.2899999618530265,3.7999999523162837,4.0,4.1599998474121085,2858500
2020-08-10,5.0,4.1599998474121085,4.2800002098083505,5.0,7140756
2020-08-11,5.199999809265137,4.75,5.0900001525878915,4.75,4926000
2020-08-12,4.980000019073486,4.5,4.75,4.769999980926514,5624000
2020-08-13,4.829999923706055,3.190000057220459,4.769999980926514,3.670000076293945,5120600
2020-08-14,4.2899999618530265,3.650000095367432,3.6800000667572017,3.9700000286102295,2492000
2020-08-17,4.179999828338623,4.0300002098083505,4.099999904632568,4.0900001525878915,3528000
2020-08-18,4.110000133514403,3.690000057220459,4.0900001525878915,4.019999980926514,2822000
2020-08-19,4.170000076293944,4.0300002098083505,4.0900001525878915,4.150000095367432,1296000
2020-08-20,4.199999809265137,4.099999904632568,4.110000133514403,4.170000076293944,2884000
2020-08-21,4.710000038146973,4.170000076293944,4.179999828338623,4.599999904632568,3686000
2020-08-24,4.889999866485597,4.599999904632568,4.699999809265137,4.690000057220459,2404000
2020-08-25,4.699999809265137,4.369999885559082,4.599999904632568,4.440000057220459,1870000
