Date,Open,High,Low,Close,Volume
2012-11-14,0.57,0.59,0.57,0.59,69688
2012-11-15,0.57,0.57,0.5,0.57,1006300
2012-11-16,0.58,0.62,0.58,0.62,13938
2012-11-19,0.63,0.63,0.63,0.63,13938
2012-11-21,0.64,0.64,0.61,0.61,25088
2012-11-22,0.61,0.61,0.57,0.57,27875
2012-11-23,0.63,0.75,0.63,0.7,526286
2012-11-26,0.71,0.8,0.71,0.72,817863
2012-11-27,0.85,0.85,0.62,0.7,248091
2012-11-29,0.72,0.73,0.72,0.72,469281
2012-11-30,0.72,0.72,0.72,0.72,209065
2012-12-03,0.7,0.72,0.61,0.67,642387
2012-12-04,0.62,0.66,0.59,0.66,423705
2012-12-05,0.66,0.66,0.62,0.66,735073
2012-12-06,0.62,0.66,0.59,0.66,942744
2012-12-07,0.65,0.66,0.63,0.65,1046998
2012-12-10,0.65,0.67,0.65,0.65,8363
2012-12-11,0.67,0.67,0.66,0.67,183977
2012-12-12,0.68,0.76,0.68,0.75,200145
2012-12-13,0.77,0.86,0.77,0.86,2177482
2012-12-14,0.9,0.95,0.9,0.95,653119
2012-12-17,0.99,1.23,0.99,1.12,2142833
2012-12-18,1.13,1.21,1.13,1.15,2013297
2012-12-19,1.15,1.21,1.04,1.2,521826
2012-12-20,1.15,1.23,1.15,1.21,433462
2012-12-21,1.21,1.21,1.15,1.16,480013
2012-12-24,1.14,1.18,1.14,1.17,41395
2012-12-27,1.15,1.17,1.1,1.1,613759
2012-12-28,1.1,1.12,1.1,1.1,474996
2012-12-31,1.11,1.15,1.1,1.14,206278
2013-01-02,1.15,1.22,1.13,1.18,3277248
2013-01-03,1.52,1.52,1.26,1.33,688000
2013-01-04,1.21,1.21,1.19,1.19,140800
2013-01-07,1.2,1.2,1.08,1.14,360200
2013-01-08,1.1,1.15,1.06,1.14,330100
2013-01-09,1.08,1.14,1.06,1.14,324000
2013-01-10,1.1,1.14,1.09,1.13,406000
2013-01-11,1.1,1.14,1.1,1.14,82000
2013-01-14,1.12,1.15,1.08,1.14,541300
2013-01-15,1.1,1.12,1.08,1.12,491860
2013-01-16,1.1,1.12,0.99,1.12,1121840
2013-01-17,1.12,1.18,1.12,1.14,974455
2013-01-18,1.2,1.22,1.16,1.18,725600
2013-01-21,1.23,1.5,1.16,1.44,5261800
2013-01-22,1.44,1.44,1.32,1.4,772420
2013-01-23,1.39,1.39,1.18,1.2,2014000
2013-01-24,1.28,1.39,1.2,1.26,423200
2013-01-25,1.29,1.29,1.13,1.21,1702500
2013-01-28,0.97,1.01,0.94,0.97,618193
2013-01-29,0.97,0.97,0.8,0.88,1154658
2013-01-30,0.81,0.88,0.74,0.87,1155846
2013-01-31,0.81,0.88,0.81,0.88,177000
2013-02-01,0.84,0.88,0.84,0.87,272746
2013-02-04,0.84,0.91,0.77,0.87,626651
2013-02-05,0.81,0.82,0.69,0.82,2035381
2013-02-06,0.77,0.78,0.75,0.78,719226
2013-02-07,0.72,0.8,0.72,0.78,862429
2013-02-08,0.78,0.78,0.74,0.77,601087
2013-02-14,0.81,0.81,0.76,0.79,161557
2013-02-15,0.74,0.77,0.71,0.76,1413624
2013-02-18,0.71,0.74,0.71,0.72,506172
2013-02-19,0.72,0.72,0.66,0.68,1515785
2013-02-20,0.68,0.69,0.67,0.69,413396
2013-02-21,0.68,0.7,0.66,0.67,860054
2013-02-22,0.67,0.67,0.67,0.67,166736
2013-02-25,0.68,0.68,0.67,0.68,223329
2013-02-26,0.68,0.68,0.67,0.68,307671
2013-02-27,0.67,0.72,0.67,0.69,3041074
2013-02-28,0.68,0.76,0.67,0.68,3587754
2013-03-01,0.71,0.78,0.71,0.74,1326312
2013-03-04,0.72,0.74,0.72,0.72,1803262
2013-03-05,0.72,0.72,0.71,0.72,247087
2013-03-06,0.71,0.8,0.7,0.74,48909016
2013-03-07,0.73,0.73,0.7,0.72,3121852
2013-03-08,0.7,0.72,0.68,0.72,1781879
2013-03-11,0.72,0.72,0.67,0.7,1748641
2013-03-12,0.7,0.72,0.66,0.72,1275825
2013-03-13,0.7,0.7,0.67,0.7,166309
2013-03-14,0.7,0.7,0.67,0.7,618253
2013-03-15,0.7,0.7,0.7,0.7,4752
2013-03-18,0.67,0.7,0.66,0.66,734134
2013-03-19,0.66,0.66,0.64,0.64,175812
2013-03-20,0.63,0.66,0.63,0.64,688102
2013-03-21,0.65,0.65,0.64,0.64,370631
2013-03-22,0.64,0.64,0.64,0.64,173436
2013-03-25,0.65,0.66,0.65,0.66,579705
2013-03-26,0.66,0.66,0.64,0.65,1653584
2013-03-27,0.64,0.64,0.61,0.61,601087
2013-03-28,0.62,0.62,0.61,0.61,394389
2013-04-02,0.59,0.63,0.53,0.63,705505
2013-04-03,0.67,0.78,0.67,0.69,4134553
2013-04-05,0.63,0.64,0.61,0.63,3291368
2013-04-08,0.61,0.62,0.61,0.61,237584
2013-04-09,0.66,0.73,0.66,0.72,703248
2013-04-10,0.72,0.72,0.67,0.72,950336
2013-04-11,0.68,0.72,0.68,0.71,2045597
2013-04-12,0.61,0.72,0.61,0.69,1976425
2013-04-15,0.69,0.77,0.68,0.75,3825151
2013-04-16,0.72,0.72,0.71,0.71,80185
2013-04-17,0.72,0.77,0.72,0.72,1116288
2013-04-18,0.72,0.72,0.72,0.72,179613
2013-04-19,0.71,0.72,0.71,0.72,401042
2013-04-22,0.71,0.71,0.7,0.7,294604
2013-04-23,0.7,0.7,0.69,0.69,135447
2013-04-24,0.68,0.69,0.68,0.69,235624
2013-04-25,0.68,0.76,0.68,0.75,5694885
2013-04-26,0.76,0.76,0.69,0.75,9833240
2013-04-29,0.71,0.71,0.71,0.71,5631
2013-04-30,0.7,0.7,0.69,0.69,803271
2013-05-02,0.69,0.69,0.66,0.68,2352080
2013-05-03,0.68,0.7,0.68,0.7,305533
2013-05-06,0.71,0.72,0.71,0.71,2109745
2013-05-07,0.7,0.71,0.69,0.71,594530
2013-05-08,0.71,0.71,0.68,0.68,1149906
2013-05-09,0.66,0.68,0.66,0.68,1321774
2013-05-10,0.67,0.67,0.62,0.67,2538584
2013-05-13,0.64,0.67,0.64,0.67,2424425
2013-05-14,0.47,0.66,0.45,0.66,19601
2013-05-16,0.59,0.66,0.59,0.66,95509
2013-05-21,0.6,0.63,0.6,0.63,170110
2013-05-22,0.63,0.63,0.56,0.61,52269
2013-05-23,0.57,0.57,0.57,0.59,4871
2013-05-24,0.57,0.58,0.57,0.59,22369
2013-05-29,0.67,0.67,0.67,0.67,85530
2013-05-30,0.68,0.68,0.61,0.66,1848403
2013-05-31,0.64,0.64,0.57,0.59,157518
2013-06-03,0.59,0.61,0.59,0.62,3682550
2013-06-04,0.61,0.67,0.61,0.63,2088837
2013-06-05,0.63,0.68,0.63,0.67,3820349
2013-06-06,0.67,0.72,0.67,0.72,2221409
2013-06-07,0.72,0.77,0.72,0.72,13988986
2013-06-10,0.74,0.76,0.74,0.76,498926
2013-06-11,0.67,0.76,0.67,0.76,382510
2013-06-13,0.74,0.76,0.74,0.75,988349
2013-06-14,0.76,0.78,0.75,0.78,3917758
2013-06-17,0.78,0.8,0.78,0.8,5234423
2013-06-18,0.78,0.78,0.75,0.75,950526
2013-06-19,0.7,0.72,0.7,0.72,871933
2013-06-20,0.72,0.72,0.72,0.72,27916
2013-06-21,0.72,0.72,0.65,0.68,677114
2013-06-24,0.66,0.68,0.63,0.68,6652348
2013-06-25,0.63,0.68,0.62,0.67,2157856
2013-06-26,0.65,0.65,0.63,0.65,831544
2013-06-28,0.67,0.67,0.65,0.65,708000
2013-07-03,0.64,0.72,0.64,0.64,10094939
2013-07-04,0.64,0.64,0.64,0.64,13067
2013-07-05,0.64,0.64,0.64,0.64,10691
2013-07-08,0.64,0.64,0.64,0.64,52269
2013-07-09,0.64,0.64,0.64,0.64,23758
2013-07-11,0.64,0.64,0.64,0.64,9503
2013-07-15,0.64,0.64,0.64,0.64,14421
2013-07-16,0.64,0.64,0.64,0.64,17106
2013-07-18,0.67,0.67,0.67,0.67,2993557
2013-07-19,0.67,0.67,0.67,0.67,9503
2013-07-22,0.64,0.64,0.64,0.64,143406
2013-07-23,0.67,0.67,0.66,0.66,3133731
2013-07-26,0.54,0.54,0.54,0.61,14255
2013-07-30,0.62,0.63,0.62,0.63,156805
2013-08-01,0.67,0.67,0.66,0.66,2033718
2013-08-02,0.66,0.66,0.66,0.66,193488
2013-08-05,0.66,0.66,0.62,0.62,627578
2013-08-06,0.63,0.63,0.59,0.59,611125
2013-08-07,0.61,0.63,0.57,0.59,690704
2013-08-08,0.57,0.61,0.56,0.61,109289
2013-08-09,0.57,0.61,0.56,0.59,244711
2013-08-12,0.58,0.59,0.58,0.59,8220402
2013-08-13,0.57,0.59,0.54,0.58,367661
2013-08-15,0.55,0.59,0.55,0.59,45379
2013-08-16,0.58,0.59,0.58,0.59,38013
2013-08-19,0.55,0.62,0.54,0.59,3738620
2013-08-20,0.55,0.61,0.55,0.61,1344725
2013-08-21,0.58,0.59,0.58,0.59,11879
2013-08-22,0.55,0.58,0.55,0.58,111664
2013-08-23,0.56,0.58,0.56,0.58,52269
2013-08-26,0.57,0.65,0.57,0.61,11454869
2013-08-27,0.61,0.63,0.61,0.61,3630282
2013-08-28,0.62,0.67,0.62,0.67,8172647
2013-08-29,0.66,0.72,0.66,0.72,4554008
2013-08-30,0.71,0.73,0.66,0.72,19949916
2013-09-02,0.72,0.75,0.7,0.72,18761700
2013-09-03,0.72,0.72,0.68,0.72,18873068
2013-09-04,0.72,0.76,0.71,0.73,60620296
2013-09-05,0.73,0.76,0.72,0.72,14181737
2013-09-06,0.73,0.75,0.71,0.71,8645677
2013-11-11,0.71,0.71,0.65,0.65,513276
2013-11-12,0.648,0.657,0.615,0.631,745004
2013-11-14,0.505,0.631,0.505,0.623,392013
2013-11-15,0.5720000000000001,0.598,0.5720000000000001,0.598,727007
2013-11-18,0.589,0.589,0.539,0.564,7116825
2013-11-19,0.564,0.5720000000000001,0.488,0.513,10429932
2013-11-20,0.513,0.513,0.49700000000000005,0.513,541691
2013-11-21,0.539,0.539,0.505,0.522,323209
2013-11-22,0.49700000000000005,0.6729999999999999,0.49700000000000005,0.657,1214054
2013-11-25,0.657,0.7070000000000001,0.615,0.6729999999999999,8530211
2013-11-26,0.657,0.657,0.615,0.631,8897516
2013-11-27,0.631,0.631,0.598,0.598,854708
2013-11-28,0.598,0.631,0.598,0.631,38013
2013-11-29,0.556,0.623,0.53,0.589,14711193
2013-12-02,0.589,0.589,0.564,0.564,546621
2013-12-03,0.589,0.589,0.589,0.589,7840
2013-12-04,0.564,0.5720000000000001,0.556,0.5720000000000001,26134
2013-12-05,0.556,0.589,0.556,0.589,67117
2013-12-09,0.581,0.589,0.581,0.589,47517
2013-12-10,0.589,0.631,0.556,0.631,1387193
2013-12-11,0.598,0.615,0.598,0.615,1629825
2013-12-12,0.564,0.564,0.564,0.564,9503
2013-12-13,0.581,0.615,0.581,0.615,23758
2013-12-17,0.606,0.648,0.606,0.648,237584
2013-12-18,0.648,0.657,0.631,0.648,1160122
2013-12-19,0.589,0.6729999999999999,0.589,0.665,3492483
2013-12-20,0.631,0.631,0.606,0.631,72225
2013-12-23,0.615,0.631,0.589,0.589,15136088
2013-12-24,0.5720000000000001,0.615,0.5720000000000001,0.615,3352308
2013-12-27,0.615,0.615,0.615,0.615,14255
2014-01-02,0.547,0.598,0.539,0.598,2817745
2014-01-03,0.598,0.615,0.5720000000000001,0.5720000000000001,1267510
2014-01-06,0.5720000000000001,0.5720000000000001,0.5720000000000001,0.5720000000000001,30411
2014-01-07,0.623,0.631,0.615,0.598,3254899
2014-01-08,0.5720000000000001,0.581,0.564,0.581,1506282
2014-01-10,0.564,0.564,0.564,0.564,59396
2014-01-13,0.564,0.564,0.564,0.564,229447
2014-01-14,0.547,0.547,0.547,0.547,356376
2014-01-15,0.547,0.589,0.53,0.589,5972858
2014-01-16,0.5720000000000001,0.5720000000000001,0.564,0.564,30886
2014-01-17,0.564,0.6729999999999999,0.547,0.589,20977468
2014-01-20,0.5720000000000001,0.5720000000000001,0.564,0.564,61772
2014-01-22,0.615,0.623,0.564,0.589,14335811
2014-01-23,0.606,0.64,0.589,0.598,4290765
2014-01-24,0.606,0.615,0.564,0.564,18260696
2014-01-27,0.5720000000000001,0.581,0.564,0.5720000000000001,4044509
2014-01-28,0.5720000000000001,0.5720000000000001,0.547,0.5720000000000001,16535837
2014-01-29,0.5720000000000001,0.623,0.564,0.606,4468953
2014-02-04,0.589,0.589,0.589,0.589,9503
2014-02-05,0.556,0.5720000000000001,0.547,0.5720000000000001,864805
2014-02-06,0.5720000000000001,0.5720000000000001,0.547,0.5720000000000001,522685
2014-02-07,0.556,0.564,0.547,0.564,732946
2014-02-10,0.547,0.547,0.539,0.539,118792
2014-02-11,0.513,0.556,0.513,0.556,251839
2014-02-12,0.522,0.53,0.505,0.53,658107
2014-02-13,0.513,0.522,0.505,0.522,211271
2014-02-14,0.522,0.522,0.49700000000000005,0.513,1285448
2014-02-17,0.49700000000000005,0.513,0.49700000000000005,0.513,139937
2014-02-18,0.49700000000000005,0.522,0.49700000000000005,0.522,6471785
2014-02-19,0.53,0.581,0.522,0.556,1582309
2014-02-20,0.522,0.539,0.522,0.539,8305932
2014-02-21,0.505,0.539,0.505,0.53,9023435
2014-02-24,0.53,0.53,0.53,0.53,38013
2014-02-25,0.522,0.522,0.49700000000000005,0.49700000000000005,8234657
2014-02-26,0.505,0.505,0.505,0.505,413396
2014-02-27,0.488,0.488,0.488,0.488,28510
2014-02-28,0.49700000000000005,0.522,0.49700000000000005,0.505,1924429
2014-03-03,0.505,0.505,0.46299999999999997,0.48,736510
2014-03-04,0.455,0.48,0.455,0.48,269895
2014-03-05,0.455,0.47100000000000003,0.455,0.455,216201
2014-03-06,0.455,0.47100000000000003,0.455,0.47100000000000003,70087
2014-03-07,0.446,0.47100000000000003,0.446,0.47100000000000003,15490
2014-03-10,0.43799999999999994,0.505,0.43799999999999994,0.505,243999
2014-03-11,0.505,0.522,0.505,0.522,241385
2014-03-12,0.522,0.522,0.522,0.522,9503
2014-03-13,0.522,0.522,0.47100000000000003,0.48,288189
2014-03-14,0.505,0.505,0.505,0.505,118792
2014-03-17,0.48,0.505,0.48,0.505,61891
2014-03-18,0.505,0.505,0.505,0.505,7128
2014-03-19,0.522,0.53,0.522,0.53,688162
2014-03-20,0.539,0.539,0.539,0.53,3112349
2014-03-21,0.53,0.53,0.53,0.53,28510
2014-03-24,0.49700000000000005,0.53,0.49700000000000005,0.522,3606523
2014-03-25,0.522,0.564,0.522,0.564,551195
2014-03-26,0.505,0.589,0.505,0.547,150628
2014-03-27,0.513,0.522,0.505,0.522,3590367
2014-03-28,0.522,0.522,0.522,0.522,28510
2014-03-31,0.539,0.631,0.539,0.564,617718
2014-04-01,0.581,0.581,0.564,0.581,156805
2014-04-04,0.564,0.5720000000000001,0.564,0.564,465664
2014-04-08,0.547,0.547,0.522,0.522,175812
2014-04-09,0.513,0.539,0.505,0.539,48705
2014-04-11,0.505,0.522,0.49700000000000005,0.522,19007
2014-04-14,0.49700000000000005,0.522,0.49700000000000005,0.522,140174
2014-04-15,0.505,0.505,0.488,0.488,374432
2014-04-16,0.49700000000000005,0.547,0.49700000000000005,0.547,769772
2014-04-17,0.564,0.581,0.564,0.581,751525
2014-04-22,0.589,0.589,0.589,0.589,1353040
2014-04-23,0.665,0.6729999999999999,0.64,0.631,1244939
2014-04-24,0.631,0.665,0.631,0.657,28814052
2014-04-25,0.657,0.6990000000000001,0.64,0.665,10666328
2014-04-28,0.648,0.6729999999999999,0.648,0.657,19344078
2014-04-29,0.648,0.665,0.615,0.657,3589595
2014-04-30,0.64,0.665,0.615,0.64,4451134
2014-05-02,0.6729999999999999,0.69,0.623,0.6729999999999999,18422582
2014-05-05,0.665,0.665,0.64,0.64,6856670
2014-05-07,0.665,0.6990000000000001,0.657,0.6729999999999999,7384107
2014-05-08,0.657,0.69,0.657,0.682,4630510
2014-05-09,0.682,0.716,0.6729999999999999,0.6990000000000001,20073348
2014-05-12,0.6990000000000001,0.716,0.682,0.682,1926092
2014-05-13,0.6729999999999999,0.69,0.6729999999999999,0.69,555946
2014-05-14,0.682,0.6990000000000001,0.682,0.6990000000000001,12587193
2014-05-15,0.69,0.7909999999999999,0.69,0.741,16039049
2014-05-16,0.732,0.758,0.6990000000000001,0.758,16568505
2014-05-19,0.7829999999999999,0.7829999999999999,0.7070000000000001,0.7829999999999999,16583354
2014-05-20,0.774,0.8,0.716,0.774,18429024
2014-05-21,0.774,0.774,0.758,0.7659999999999999,3387946
2014-05-22,0.758,0.8,0.741,0.8,8064309
2014-05-23,0.825,0.825,0.682,0.682,48533632
2014-05-26,0.69,0.758,0.69,0.7240000000000001,13718663
2014-05-27,0.758,0.774,0.6990000000000001,0.7490000000000001,15007128
2014-05-28,0.7240000000000001,0.758,0.6990000000000001,0.741,35941688
2014-05-29,0.741,0.8420000000000001,0.7070000000000001,0.8079999999999999,36452316
2014-05-30,0.8,0.8590000000000001,0.7490000000000001,0.758,17398028
2014-06-03,0.7829999999999999,0.8079999999999999,0.758,0.774,8623106
2014-06-04,0.8,0.8,0.69,0.716,51984848
2014-06-05,0.732,0.7490000000000001,0.7070000000000001,0.741,19904776
2014-06-06,0.758,0.758,0.7240000000000001,0.732,1035866
2014-06-09,0.732,0.7490000000000001,0.716,0.7240000000000001,5965731
2014-06-10,0.732,0.741,0.7240000000000001,0.732,1649545
2014-06-11,0.7240000000000001,0.7240000000000001,0.6990000000000001,0.716,2007251
2014-06-12,0.7070000000000001,0.716,0.69,0.716,1140403
2014-06-13,0.7240000000000001,0.741,0.716,0.7240000000000001,456161
2014-06-16,0.741,0.758,0.7240000000000001,0.7490000000000001,4243367
2014-06-17,0.774,0.7909999999999999,0.7240000000000001,0.732,9086157
2014-06-18,0.732,0.7659999999999999,0.732,0.741,3866535
2014-06-19,0.741,0.774,0.741,0.774,9883489
2014-06-20,0.7829999999999999,0.8079999999999999,0.774,0.8079999999999999,13747790
2014-06-23,0.8079999999999999,0.909,0.8,0.909,26933624
2014-06-24,0.909,0.934,0.884,0.892,11607160
2014-06-25,0.909,0.9179999999999999,0.8590000000000001,0.884,9209939
2014-06-26,0.875,0.9009999999999999,0.85,0.85,11615475
2014-06-27,0.867,0.884,0.825,0.825,6561639
2014-06-30,0.8590000000000001,0.867,0.7909999999999999,0.8079999999999999,4725543
2014-07-02,0.825,0.833,0.774,0.833,4758805
2014-07-03,0.833,0.909,0.8079999999999999,0.867,5264858
2014-07-04,0.867,0.909,0.8590000000000001,0.875,4750252
2014-07-07,0.892,0.9009999999999999,0.85,0.875,5199285
2014-07-08,0.892,0.892,0.85,0.884,12240321
2014-07-09,0.892,0.892,0.85,0.884,10922681
2014-07-10,0.892,0.892,0.8590000000000001,0.892,27516964
2014-07-11,0.892,0.909,0.884,0.909,20708760
2014-07-14,0.9009999999999999,0.951,0.884,0.951,20271844
2014-07-15,0.951,1.002,0.934,0.993,31218284
2014-07-16,1.01,1.01,0.968,0.985,19865092
2014-07-17,0.985,1.01,0.909,0.993,36473876
2014-07-18,0.985,1.002,0.951,1.002,26013058
2014-07-21,1.002,1.002,0.977,0.993,17191568
2014-07-22,0.985,0.985,0.943,0.977,22182374
2014-07-23,0.985,0.993,0.943,0.951,25835344
2014-07-24,0.943,1.0270000000000001,0.943,0.993,34331440
2014-07-25,0.993,1.01,0.943,0.985,20465712
2014-07-28,0.985,0.985,0.943,0.977,26310036
2014-07-29,0.977,0.985,0.943,0.977,21185352
2014-07-30,0.977,0.985,0.951,0.968,17479520
2014-07-31,0.96,0.993,0.96,0.993,21736548
2014-08-01,0.993,1.002,0.968,0.993,18819732
2014-08-04,0.993,1.052,0.993,1.052,30995844
2014-08-05,1.052,1.094,1.035,1.077,31983540
2014-08-06,1.061,1.0859999999999999,1.0270000000000001,1.077,22590188
2014-08-07,1.061,1.069,1.0270000000000001,1.061,32908414
2014-08-08,1.044,1.077,1.01,1.061,48766464
2014-08-11,1.061,1.069,1.052,1.069,27602494
2014-08-12,1.069,1.077,1.044,1.061,22116968
2014-08-13,1.061,1.069,1.035,1.069,28887822
2014-08-14,1.069,1.077,1.052,1.069,23782144
2014-08-15,1.069,1.136,1.061,1.136,58795948
2014-08-18,1.145,1.212,1.136,1.204,40949836
2014-08-19,1.212,1.2209999999999999,1.179,1.187,30705340
2014-08-20,1.187,1.195,1.162,1.179,28262976
2014-08-21,1.179,1.246,1.179,1.238,37198504
2014-08-22,1.238,1.254,1.195,1.229,31760924
2014-08-25,1.238,1.238,1.128,1.153,35618812
2014-08-26,1.153,1.187,1.12,1.136,34487672
2014-08-27,1.128,1.153,1.12,1.145,19467622
2014-08-28,1.145,1.179,1.12,1.179,49675224
2014-08-29,1.179,1.179,1.153,1.162,25193156
2014-09-01,1.162,1.162,1.094,1.111,36856384
2014-09-02,1.12,1.12,0.993,1.002,52595604
2014-09-03,1.0190000000000001,1.17,0.951,1.094,61785348
2014-09-04,1.111,1.136,1.077,1.111,44788836
2014-09-05,1.111,1.204,1.094,1.179,105012072
2014-09-08,1.187,1.271,1.179,1.254,70862360
2014-09-10,1.254,1.263,1.204,1.2209999999999999,26697300
2014-09-11,1.238,1.238,1.204,1.2209999999999999,36433488
2014-09-12,1.229,1.229,1.195,1.195,30876044
2014-09-15,1.204,1.212,1.153,1.162,29977144
2014-09-16,1.17,1.179,1.145,1.162,17600212
2014-09-17,1.179,1.179,1.136,1.145,28049330
2014-09-18,1.153,1.162,1.12,1.153,36353360
2014-09-19,1.179,1.179,1.136,1.153,36030304
2014-09-22,1.179,1.3969999999999998,1.17,1.3969999999999998,89237312
2014-09-23,1.4140000000000001,1.473,1.3219999999999998,1.44,73959520
2014-09-24,1.4480000000000002,1.473,1.355,1.423,39375960
2014-09-25,1.431,1.431,1.3719999999999999,1.406,36497396
2014-09-26,1.4140000000000001,1.4140000000000001,1.296,1.3719999999999999,48229524
2014-09-29,1.364,1.364,1.288,1.355,40697520
2014-09-30,1.355,1.355,1.263,1.296,40895312
2014-10-03,1.296,1.3719999999999999,1.296,1.347,39391704
2014-10-06,1.347,1.364,1.305,1.347,33432802
2014-10-07,1.355,1.364,1.3130000000000002,1.355,39543316
2014-10-08,1.364,1.364,1.288,1.33,40508048
2014-10-09,1.33,1.347,1.305,1.3130000000000002,37600024
2014-10-10,1.305,1.3130000000000002,1.263,1.28,38520544
2014-10-13,1.288,1.288,1.212,1.254,50757416
2014-10-14,1.263,1.515,1.254,1.355,53169764
2014-10-15,1.364,1.599,1.3219999999999998,1.389,73713368
2014-10-16,1.3969999999999998,1.3969999999999998,1.305,1.339,43819968
2014-10-17,1.347,1.364,1.263,1.347,40224136
2014-10-20,1.355,1.381,1.3130000000000002,1.355,38111304
2014-10-21,1.364,1.423,1.3219999999999998,1.3719999999999999,60740700
2014-10-22,1.381,1.389,1.3219999999999998,1.347,38640600
2014-10-23,1.364,1.473,1.33,1.347,55153200
2014-10-24,1.355,1.364,1.305,1.347,38421600
2014-10-27,1.347,1.347,1.28,1.305,44342700
2014-10-28,1.305,1.33,1.28,1.305,31698400
2014-10-29,1.305,1.3130000000000002,1.263,1.288,36089000
2014-10-30,1.296,1.3130000000000002,1.212,1.305,42324400
2014-10-31,1.305,1.3130000000000002,1.162,1.238,50966500
2014-11-03,1.187,1.212,1.094,1.103,28657600
2014-11-04,1.103,1.162,1.103,1.136,21035700
2014-11-05,1.136,1.136,0.985,1.077,39027900
2014-11-06,1.094,1.094,0.96,0.977,38925700
2014-11-07,0.993,1.002,0.867,0.934,17728500
2014-11-10,0.943,0.977,0.9179999999999999,0.951,19505600
2014-11-11,0.96,0.96,0.8079999999999999,0.825,19685000
2014-11-12,0.825,0.833,0.69,0.732,25602000
2014-11-13,0.7490000000000001,0.7490000000000001,0.7240000000000001,0.732,11480100
2014-11-14,0.741,0.7490000000000001,0.716,0.7490000000000001,5089000
2014-11-17,0.758,0.774,0.7240000000000001,0.758,10608600
2014-11-18,0.758,0.7659999999999999,0.7240000000000001,0.7240000000000001,2456600
2014-11-19,0.7240000000000001,0.732,0.581,0.682,20212400
2014-11-20,0.657,0.657,0.564,0.623,22085800
2014-11-21,0.581,0.631,0.522,0.631,31794200
2014-11-24,0.631,0.6729999999999999,0.631,0.6729999999999999,11133400
2014-11-25,0.6729999999999999,0.6729999999999999,0.631,0.665,13090900
2014-11-26,0.665,0.665,0.615,0.648,13128100
2014-11-27,0.648,0.657,0.589,0.657,17581200
2014-11-28,0.648,0.648,0.615,0.648,10577200
2014-12-01,0.648,0.648,0.615,0.631,8188400
2014-12-02,0.64,0.64,0.615,0.631,10867100
2014-12-03,0.631,0.631,0.581,0.598,5223300
2014-12-04,0.598,0.598,0.5720000000000001,0.589,4462100
2014-12-05,0.589,0.606,0.556,0.589,6343600
2014-12-08,0.589,0.589,0.547,0.564,5397900
2014-12-09,0.5720000000000001,0.5720000000000001,0.522,0.539,4324000
2014-12-10,0.556,0.556,0.522,0.53,3852400
2014-12-11,0.539,0.5720000000000001,0.53,0.556,8039800
2014-12-12,0.564,0.564,0.53,0.556,3221600
2014-12-15,0.564,0.564,0.539,0.547,2380600
2014-12-16,0.556,0.556,0.53,0.539,2010600
2014-12-17,0.547,0.556,0.53,0.539,3739600
2014-12-18,0.547,0.547,0.513,0.539,3145600
2014-12-19,0.547,0.547,0.53,0.539,2314100
2014-12-22,0.539,0.539,0.513,0.539,2549000
2014-12-23,0.539,0.539,0.513,0.53,2399700
2014-12-24,0.539,0.539,0.513,0.539,641600
2014-12-29,0.53,0.539,0.429,0.539,9950200
2014-12-30,0.53,0.539,0.513,0.53,2235800
2014-12-31,0.53,0.53,0.505,0.522,1249700
2015-01-02,0.522,0.539,0.505,0.539,6288400
2015-01-05,0.539,0.539,0.513,0.539,6543100
2015-01-06,0.53,0.53,0.513,0.522,1648800
2015-01-07,0.505,0.522,0.48,0.522,2052900
2015-01-08,0.522,0.522,0.505,0.522,1743900
2015-01-09,0.522,0.522,0.505,0.513,3654000
2015-01-12,0.505,0.505,0.429,0.49700000000000005,6182500
2015-01-13,0.5,0.57,0.5,0.53,14868000
2015-01-14,0.54,0.56,0.51,0.54,7422000
2015-01-15,0.53,0.53,0.51,0.53,3700000
2015-01-16,0.51,0.52,0.5,0.51,2600800
2015-01-17,1.47,1.47,1.47,1.47,0
2015-01-19,0.51,0.52,0.49,0.51,752000
2015-01-20,0.51,0.52,0.5,0.5,4684000
2015-01-21,0.51,0.56,0.5,0.54,13218400
2015-01-22,0.55,0.64,0.54,0.61,17492800
2015-01-23,0.62,0.73,0.62,0.71,25655400
2015-01-26,0.78,0.78,0.6,0.7,19653100
2015-01-27,0.7,0.7,0.61,0.65,15852600
2015-01-28,0.66,0.66,0.6,0.62,7391100
2015-01-29,0.62,0.62,0.54,0.56,5544200
2015-01-30,0.52,0.54,0.51,0.51,8436600
2015-02-02,0.46,0.55,0.46,0.48,13927000
2015-02-03,0.485,0.54,0.485,0.5,11464100
2015-02-04,0.51,0.51,0.465,0.485,10128000
2015-02-05,0.47,0.54,0.455,0.475,15504000
2015-02-06,0.475,0.485,0.47,0.485,3604000
2015-02-09,0.48,0.48,0.47,0.475,724000
2015-02-10,0.48,0.49,0.48,0.485,1804000
2015-02-11,0.48,0.48,0.445,0.46,4180000
2015-02-12,0.455,0.455,0.44,0.45,3751000
2015-02-13,0.425,0.46,0.42,0.445,19464300
2015-02-16,0.445,0.445,0.4,0.425,9629200
2015-02-17,0.42,0.43,0.415,0.425,2660000
2015-02-18,0.43,0.43,0.415,0.425,576000
2015-02-23,0.425,0.44,0.42,0.43,3556000
2015-02-24,0.44,0.44,0.42,0.43,4914000
2015-02-25,0.43,0.435,0.42,0.425,1536000
2015-02-26,0.43,0.435,0.425,0.43,2752000
2015-02-27,0.425,0.435,0.425,0.435,2932000
2015-03-02,0.435,0.465,0.435,0.455,19317700
2015-03-03,0.455,0.47,0.44,0.47,26996000
2015-03-04,0.47,0.51,0.465,0.51,60923500
2015-03-05,0.51,0.58,0.51,0.56,76122896
2015-03-06,0.56,0.59,0.52,0.58,83796096
2015-03-09,0.56,0.6,0.56,0.6,56280000
2015-03-10,0.6,0.6,0.58,0.6,48352000
2015-03-11,0.58,0.6,0.58,0.59,32908000
2015-03-12,0.59,0.6,0.57,0.59,52520000
2015-03-13,0.59,0.68,0.59,0.65,114813000
2015-03-16,0.66,0.72,0.65,0.69,98641200
2015-03-17,0.7,0.72,0.66,0.68,44748000
2015-03-18,0.69,0.69,0.58,0.66,65470800
2015-03-19,0.67,0.68,0.63,0.66,79477904
2015-03-20,0.66,0.66,0.57,0.6,37736000
2015-03-23,0.6,0.6,0.55,0.57,56442600
2015-03-24,0.58,0.63,0.57,0.63,91770000
2015-03-25,0.62,0.65,0.58,0.59,71744400
2015-03-26,0.59,0.59,0.56,0.56,31148000
2015-03-27,0.56,0.58,0.56,0.57,29184000
2015-03-30,0.58,0.58,0.55,0.57,19420000
2015-03-31,0.57,0.57,0.55,0.57,27044000
2015-04-01,0.57,0.57,0.51,0.53,28552000
2015-04-02,0.54,0.56,0.5,0.56,28816000
2015-04-08,0.56,0.57,0.51,0.54,19466800
2015-04-09,0.54,0.54,0.49,0.5,30489200
2015-04-10,0.49,0.52,0.485,0.495,28654000
2015-04-13,0.5,0.51,0.36,0.495,57164000
2015-04-14,0.495,0.5,0.455,0.49,27964700
2015-04-15,0.49,0.49,0.465,0.485,28218000
2015-04-16,0.485,0.485,0.46,0.485,21604000
2015-04-17,0.485,0.55,0.46,0.51,37592000
2015-04-20,0.51,0.51,0.48,0.49,22713300
2015-04-21,0.495,0.495,0.475,0.485,23057000
2015-04-22,0.49,0.53,0.485,0.51,35216200
2015-04-23,0.52,0.6,0.5,0.56,83215104
2015-04-24,0.56,0.57,0.52,0.52,18935900
2015-04-27,0.53,0.57,0.51,0.53,28160700
2015-04-28,0.53,0.54,0.5,0.52,22708000
2015-04-29,0.51,0.52,0.49,0.495,17412000
2015-04-30,0.495,0.5,0.485,0.495,32019200
2015-05-04,0.495,0.495,0.455,0.46,31887800
2015-05-05,0.465,0.49,0.46,0.47,19281000
2015-05-06,0.475,0.48,0.46,0.465,12875600
2015-05-07,0.465,0.47,0.455,0.465,15232000
2015-05-08,0.455,0.485,0.455,0.465,30352000
2015-05-11,0.455,0.51,0.455,0.48,42302000
2015-05-12,0.47,0.485,0.45,0.46,38115000
2015-05-13,0.45,0.45,0.43,0.43,12626700
2015-05-14,0.43,0.44,0.41,0.43,12392400
2015-05-15,0.43,0.43,0.405,0.41,21449000
2015-05-18,0.41,0.425,0.39,0.405,42876500
2015-05-19,0.405,0.415,0.39,0.41,19432000
2015-05-20,0.415,0.415,0.38,0.39,34931000
2015-05-21,0.39,0.405,0.37,0.405,47956100
2015-05-22,0.41,0.425,0.39,0.425,35980000
2015-05-26,0.425,0.45,0.405,0.44,48320000
2015-05-27,0.44,0.475,0.425,0.47,60762000
2015-05-28,0.47,0.5,0.45,0.465,113284000
2015-05-29,0.455,0.485,0.45,0.46,96824200
2015-06-01,0.46,0.47,0.45,0.455,12027600
2015-06-02,0.455,0.5,0.45,0.455,55004000
2015-06-03,0.465,0.465,0.45,0.455,9592000
2015-06-04,0.46,0.46,0.425,0.44,7552000
2015-06-05,0.425,0.45,0.425,0.44,6866800
2015-06-08,0.435,0.445,0.425,0.43,7056000
2015-06-09,0.425,0.435,0.395,0.41,10488000
2015-06-10,0.4,0.41,0.38,0.385,11508000
2015-06-11,0.39,0.39,0.355,0.365,18217200
2015-06-12,0.365,0.365,0.35,0.36,14856000
2015-06-15,0.35,0.39,0.35,0.38,15816000
2015-06-16,0.385,0.44,0.385,0.425,35457500
2015-06-17,0.43,0.45,0.41,0.415,14892000
2015-06-18,0.43,0.43,0.41,0.415,7168000
2015-06-19,0.415,0.42,0.39,0.395,12680000
2015-06-22,0.4,0.435,0.4,0.425,77889696
2015-06-23,0.43,0.47,0.415,0.425,85816000
2015-06-24,0.435,0.45,0.405,0.425,85968000
2015-06-25,0.425,0.455,0.41,0.45,120831000
2015-06-26,0.45,0.47,0.425,0.47,195836000
2015-06-29,0.475,0.495,0.44,0.45,193600000
2015-06-30,0.45,0.465,0.42,0.42,25584400
2015-07-02,0.42,0.43,0.365,0.38,39250000
2015-07-03,0.38,0.38,0.29,0.29,44020000
2015-07-06,0.305,0.325,0.23,0.24600000000000002,35368000
2015-07-07,0.248,0.25,0.215,0.22,8744000
2015-07-08,0.2,0.24,0.14400000000000002,0.185,64451000
2015-07-09,0.18,0.295,0.17,0.28,46552000
2015-07-10,0.28,0.325,0.24600000000000002,0.26,45556000
2015-07-13,0.26,0.27,0.245,0.255,24832000
2015-07-14,0.26,0.265,0.24,0.245,15324000
2015-07-15,0.255,0.255,0.225,0.23,8588000
2015-07-16,0.24,0.24,0.225,0.24,5956000
2015-07-17,0.24,0.255,0.24,0.255,10140000
2015-07-20,0.255,0.255,0.24100000000000002,0.25,3484000
2015-07-21,0.245,0.265,0.24,0.26,6736000
2015-07-22,0.255,0.255,0.24,0.243,9668000
2015-07-23,0.23600000000000002,0.242,0.235,0.239,3820000
2015-07-24,0.24100000000000002,0.24100000000000002,0.228,0.23199999999999998,2596000
2015-07-27,0.231,0.231,0.191,0.192,14090000
2015-07-28,0.19399999999999998,0.22,0.19399999999999998,0.198,7396000
2015-07-29,0.198,0.214,0.198,0.21100000000000002,6412000
2015-07-30,0.212,0.214,0.19399999999999998,0.19699999999999998,55920000
2015-07-31,0.20199999999999999,0.20199999999999999,0.17800000000000002,0.187,40792000
2015-08-03,0.19,0.19,0.166,0.18100000000000002,7784000
2015-08-04,0.18,0.188,0.17600000000000002,0.18,3976000
2015-08-05,0.18100000000000002,0.185,0.17800000000000002,0.17800000000000002,903400
2015-08-06,0.18100000000000002,0.182,0.17800000000000002,0.179,2620000
2015-08-07,0.172,0.19399999999999998,0.172,0.187,4424000
2015-08-10,0.18600000000000003,0.19699999999999998,0.18600000000000003,0.19,4284000
2015-08-11,0.19699999999999998,0.198,0.182,0.195,7704000
2015-08-12,0.19899999999999998,0.205,0.19,0.2,24750000
2015-08-13,0.198,0.198,0.177,0.192,13000000
2015-08-14,0.19,0.19,0.17600000000000002,0.18,836000
2015-08-17,0.179,0.179,0.171,0.17300000000000001,2164000
2015-08-18,0.18,0.18100000000000002,0.17,0.171,2400000
2015-08-19,0.171,0.171,0.168,0.168,1376000
2015-08-20,0.154,0.198,0.154,0.18899999999999997,11492000
2015-08-21,0.17,0.183,0.165,0.17,2044000
2015-08-24,0.17,0.17,0.15,0.16399999999999998,11420000
2015-08-25,0.155,0.165,0.152,0.154,8772000
2015-08-26,0.157,0.16,0.156,0.16,7834000
2015-08-27,0.16899999999999998,0.17600000000000002,0.159,0.17300000000000001,14196000
2015-08-28,0.174,0.193,0.17300000000000001,0.18,105843504
2015-08-31,0.18,0.187,0.172,0.17300000000000001,1460000
2015-09-01,0.17300000000000001,0.17300000000000001,0.159,0.159,6100000
2015-09-02,0.159,0.165,0.142,0.15,6244000
2015-09-04,0.155,0.159,0.155,0.155,664000
2015-09-07,0.15,0.154,0.15,0.15,1222600
2015-09-08,0.18,0.18,0.15,0.17300000000000001,6808000
2015-09-09,0.17800000000000002,0.223,0.17600000000000002,0.215,25616000
2015-09-10,0.21,0.26,0.195,0.255,327932000
2015-09-11,0.25,0.255,0.24,0.248,31520000
2015-09-14,0.245,0.26,0.23800000000000002,0.239,19824700
2015-09-15,0.239,0.24100000000000002,0.23199999999999998,0.239,13056600
2015-09-16,0.24100000000000002,0.24100000000000002,0.23,0.23399999999999999,8976000
2015-09-17,0.245,0.24600000000000002,0.235,0.237,12100000
2015-09-18,0.237,0.26,0.237,0.247,100204000
2015-09-21,0.248,0.248,0.201,0.22699999999999998,64076000
2015-09-22,0.23,0.249,0.22,0.231,48208000
2015-09-23,0.23,0.231,0.21899999999999997,0.221,18800000
2015-09-24,0.225,0.239,0.22,0.22399999999999998,17832000
2015-09-25,0.222,0.226,0.207,0.215,19464000
2015-09-29,0.21,0.21,0.18,0.185,20548000
2015-09-30,0.19899999999999998,0.19899999999999998,0.182,0.185,58096000
2015-10-02,0.182,0.19,0.18,0.19,11308000
2015-10-05,0.198,0.198,0.177,0.184,18432000
2015-10-06,0.187,0.19399999999999998,0.184,0.18899999999999997,15120000
2015-10-07,0.192,0.193,0.18600000000000003,0.191,16068000
2015-10-08,0.188,0.193,0.185,0.18899999999999997,109640000
2015-10-09,0.191,0.203,0.184,0.19,61684000
2015-10-12,0.193,0.193,0.182,0.184,14612000
2015-10-13,0.185,0.18899999999999997,0.179,0.185,15782400
2015-10-14,0.185,0.187,0.18,0.185,14688000
2015-10-15,0.18899999999999997,0.18899999999999997,0.18,0.18,13480000
2015-10-16,0.183,0.185,0.17800000000000002,0.179,16976000
2015-10-19,0.179,0.191,0.175,0.18100000000000002,19512000
2015-10-20,0.18100000000000002,0.188,0.18100000000000002,0.18100000000000002,28524000
2015-10-22,0.18,0.18,0.17600000000000002,0.179,2592000
2015-10-23,0.179,0.179,0.17,0.174,9248000
2015-10-26,0.17300000000000001,0.17300000000000001,0.158,0.162,10996000
2015-10-27,0.168,0.182,0.15,0.153,24704000
2015-10-28,0.151,0.158,0.14800000000000002,0.152,15836000
2015-10-29,0.156,0.16399999999999998,0.149,0.15,23132000
2015-10-30,0.151,0.154,0.14800000000000002,0.149,11568000
2015-11-02,0.149,0.153,0.145,0.146,10536000
2015-11-03,0.151,0.151,0.142,0.142,6788000
2015-11-04,0.142,0.147,0.139,0.14,5428000
2015-11-05,0.147,0.15,0.14,0.14400000000000002,20544000
2015-11-06,0.141,0.141,0.138,0.139,6312000
2015-11-09,0.142,0.14400000000000002,0.131,0.136,24216000
2015-11-10,0.13,0.14400000000000002,0.125,0.13,22296000
2015-11-11,0.13,0.16,0.129,0.13,62072000
2015-11-12,0.13,0.133,0.12300000000000001,0.127,10328000
2015-11-13,0.125,0.13,0.12300000000000001,0.125,4696000
2015-11-16,0.122,0.128,0.115,0.11599999999999999,12812000
2015-11-17,0.11699999999999999,0.126,0.11699999999999999,0.12,59172000
2015-11-18,0.129,0.129,0.11699999999999999,0.12,10644000
2015-11-19,0.11699999999999999,0.127,0.11599999999999999,0.12300000000000001,7192000
2015-11-20,0.121,0.124,0.11599999999999999,0.11699999999999999,27488700
2015-11-23,0.11699999999999999,0.12300000000000001,0.11699999999999999,0.12,6825700
2015-11-24,0.12300000000000001,0.129,0.12,0.125,12804000
2015-11-25,0.124,0.135,0.124,0.132,6976000
2015-11-26,0.134,0.14400000000000002,0.132,0.13699999999999998,16180000
2015-11-27,0.141,0.142,0.132,0.13699999999999998,12672000
2015-11-30,0.13,0.13,0.12,0.121,59424000
2015-12-01,0.125,0.125,0.11,0.113,18092000
2015-12-02,0.11199999999999999,0.114,0.08800000000000001,0.092,103792000
2015-12-03,0.092,0.094,0.086,0.09,18168000
2015-12-04,0.08800000000000001,0.09,0.086,0.08800000000000001,9916000
2015-12-07,0.085,0.08900000000000001,0.085,0.087,4604000
2015-12-08,0.085,0.091,0.085,0.08900000000000001,8640000
2015-12-09,0.08800000000000001,0.095,0.08800000000000001,0.092,18980000
2015-12-10,0.08900000000000001,0.094,0.08,0.087,13280000
2015-12-11,0.09,0.091,0.087,0.08900000000000001,2028600
2015-12-14,0.08900000000000001,0.091,0.086,0.091,30852000
2015-12-15,0.092,0.092,0.08800000000000001,0.09,8192000
2015-12-16,0.092,0.092,0.081,0.084,5364000
2015-12-17,0.08800000000000001,0.08800000000000001,0.083,0.085,4276000
2015-12-18,0.085,0.087,0.08199999999999999,0.084,4060000
2015-12-21,0.091,0.091,0.08,0.081,3784000
2015-12-22,0.08199999999999999,0.08199999999999999,0.081,0.08199999999999999,1248000
2015-12-23,0.085,0.106,0.085,0.09300000000000001,46820000
2015-12-24,0.094,0.095,0.09300000000000001,0.09300000000000001,3528000
2015-12-28,0.092,0.094,0.087,0.09300000000000001,7760000
2015-12-29,0.09,0.091,0.084,0.087,16513200
2015-12-30,0.087,0.08800000000000001,0.08199999999999999,0.084,6820000
2015-12-31,0.084,0.08800000000000001,0.084,0.085,6164000
2016-01-04,0.085,0.08900000000000001,0.08,0.085,5776000
2016-01-05,0.08199999999999999,0.083,0.08,0.08199999999999999,5372000
2016-01-06,0.084,0.087,0.081,0.08199999999999999,50004000
2016-01-07,0.08199999999999999,0.095,0.081,0.092,18040000
2016-01-08,0.092,0.098,0.087,0.094,9096000
2016-01-11,0.09,0.09,0.084,0.084,2440000
2016-01-12,0.085,0.092,0.085,0.09,5365100
2016-01-13,0.09,0.09,0.085,0.087,4100000
2016-01-14,0.087,0.087,0.081,0.08199999999999999,18494000
2016-01-15,0.083,0.092,0.081,0.081,8496000
2016-01-18,0.08199999999999999,0.086,0.08,0.083,98774000
2016-01-19,0.083,0.083,0.081,0.08199999999999999,3184000
2016-01-20,0.081,0.085,0.081,0.084,6112000
2016-01-21,0.083,0.083,0.078,0.078,4062000
2016-01-22,0.076,0.081,0.07200000000000001,0.07400000000000001,2620000
2016-01-25,0.081,0.081,0.076,0.078,1421500
2016-01-26,0.075,0.077,0.07400000000000001,0.077,1068000
2016-01-27,0.07400000000000001,0.07400000000000001,0.065,0.066,6522000
2016-01-28,0.066,0.069,0.066,0.066,2696000
2016-01-29,0.07,0.07400000000000001,0.07,0.07400000000000001,576000
2016-02-01,0.066,0.071,0.066,0.07,986000
2016-02-02,0.07400000000000001,0.07400000000000001,0.067,0.069,511500
2016-02-03,0.068,0.078,0.065,0.068,2128000
2016-02-04,0.07,0.07,0.065,0.067,5104000
2016-02-05,0.066,0.068,0.061,0.067,360000
2016-02-11,0.06,0.064,0.06,0.064,572000
2016-02-12,0.068,0.068,0.068,0.065,148000
2016-02-15,0.069,0.069,0.067,0.067,204000
2016-02-16,0.073,0.078,0.063,0.07200000000000001,11776000
2016-02-17,0.073,0.077,0.07,0.075,1700000
2016-02-18,0.068,0.078,0.066,0.076,14856000
2016-02-19,0.076,0.091,0.07400000000000001,0.09,51472000
2016-02-22,0.092,0.109,0.085,0.10800000000000001,49995200
2016-02-23,0.11199999999999999,0.114,0.1,0.10099999999999999,21608000
2016-02-24,0.10400000000000001,0.106,0.09,0.09699999999999999,17977600
2016-02-25,0.1,0.1,0.081,0.086,14504000
2016-02-26,0.086,0.096,0.086,0.087,16773000
2016-02-29,0.085,0.08800000000000001,0.078,0.087,6936000
2016-03-01,0.087,0.09,0.083,0.09,12084000
2016-03-02,0.08900000000000001,0.08900000000000001,0.08900000000000001,0.08900000000000001,0
2016-03-03,0.084,0.10400000000000001,0.077,0.10300000000000001,48984000
2016-03-04,0.10300000000000001,0.12,0.095,0.105,87710000
2016-03-07,0.113,0.113,0.092,0.094,3360000
2016-03-08,0.098,0.107,0.095,0.096,9012000
2016-03-09,0.08900000000000001,0.09699999999999999,0.08900000000000001,0.094,5660000
2016-03-10,0.094,0.095,0.09,0.092,1772000
2016-03-11,0.08900000000000001,0.099,0.08900000000000001,0.09300000000000001,10304000
2016-03-14,0.09300000000000001,0.09699999999999999,0.092,0.092,1692000
2016-03-15,0.09300000000000001,0.09300000000000001,0.092,0.09300000000000001,2480000
2016-03-16,0.092,0.096,0.08900000000000001,0.091,8050400
2016-03-17,0.09,0.09699999999999999,0.09,0.09300000000000001,5720000
2016-03-18,0.09300000000000001,0.09300000000000001,0.08800000000000001,0.091,7824000
2016-03-21,0.09,0.099,0.083,0.094,19628000
2016-03-22,0.095,0.10300000000000001,0.094,0.098,32404000
2016-03-23,0.099,0.10400000000000001,0.094,0.098,14356000
2016-03-24,0.096,0.102,0.09300000000000001,0.102,44728000
2016-03-29,0.10099999999999999,0.102,0.098,0.098,7800000
2016-03-30,0.10099999999999999,0.10099999999999999,0.09699999999999999,0.09699999999999999,1270000
2016-03-31,0.098,0.1,0.094,0.096,4736000
2016-04-01,0.09300000000000001,0.1,0.08800000000000001,0.099,26104000
2016-04-05,0.09699999999999999,0.09699999999999999,0.09300000000000001,0.09300000000000001,904000
2016-04-06,0.09300000000000001,0.09699999999999999,0.09,0.091,2500000
2016-04-07,0.091,0.091,0.091,0.091,532000
2016-04-08,0.08,0.092,0.08,0.092,672000
2016-04-11,0.092,0.094,0.08800000000000001,0.08800000000000001,528000
2016-04-12,0.08800000000000001,0.08800000000000001,0.087,0.08800000000000001,4436000
2016-04-13,0.087,0.08800000000000001,0.08,0.084,2384000
2016-04-14,0.08800000000000001,0.096,0.087,0.08800000000000001,15576000
2016-04-15,0.08800000000000001,0.09300000000000001,0.08800000000000001,0.09,3668000
2016-04-18,0.087,0.091,0.085,0.08800000000000001,11588000
2016-04-19,0.087,0.09,0.085,0.08800000000000001,4740000
2016-04-20,0.09,0.098,0.087,0.091,15269800
2016-04-21,0.09300000000000001,0.098,0.092,0.09699999999999999,12456000
2016-04-22,0.09699999999999999,0.09699999999999999,0.09699999999999999,0.096,48000
2016-04-25,0.09300000000000001,0.094,0.09300000000000001,0.094,2408000
2016-04-26,0.09,0.11800000000000001,0.09,0.1,100392000
2016-04-27,0.10800000000000001,0.10800000000000001,0.102,0.102,4692000
2016-04-28,0.10300000000000001,0.105,0.098,0.102,4338000
2016-04-29,0.099,0.10300000000000001,0.09699999999999999,0.098,12012000
2016-05-03,0.098,0.10400000000000001,0.094,0.09699999999999999,9120000
2016-05-04,0.098,0.10099999999999999,0.098,0.1,9968000
2016-05-05,0.09699999999999999,0.10099999999999999,0.09300000000000001,0.098,5432000
2016-05-06,0.095,0.11199999999999999,0.095,0.105,164480096
2016-05-09,0.106,0.11199999999999999,0.099,0.11,34452000
2016-05-10,0.107,0.115,0.105,0.106,15556000
2016-05-11,0.106,0.114,0.10400000000000001,0.10400000000000001,24556000
2016-05-12,0.106,0.11,0.1,0.10300000000000001,9140000
2016-05-13,0.10300000000000001,0.105,0.09699999999999999,0.098,13600000
2016-05-16,0.09699999999999999,0.102,0.09699999999999999,0.10099999999999999,7672000
2016-05-17,0.1,0.107,0.1,0.10300000000000001,18820000
2016-05-18,0.10400000000000001,0.113,0.10300000000000001,0.106,77589000
2016-05-19,0.10400000000000001,0.109,0.10300000000000001,0.109,8360000
2016-05-20,0.109,0.11199999999999999,0.10400000000000001,0.107,3768000
2016-05-23,0.107,0.109,0.102,0.10300000000000001,11720000
2016-05-24,0.10099999999999999,0.106,0.10099999999999999,0.105,10149000
2016-05-25,0.106,0.10800000000000001,0.10300000000000001,0.107,45976000
2016-05-26,0.10400000000000001,0.10800000000000001,0.10300000000000001,0.105,11104000
2016-05-27,0.105,0.107,0.09699999999999999,0.10300000000000001,20064000
2016-05-30,0.10099999999999999,0.102,0.098,0.102,4660000
2016-05-31,0.10099999999999999,0.10300000000000001,0.099,0.102,14256000
2016-06-01,0.1,0.102,0.098,0.1,2488000
2016-06-02,0.095,0.098,0.095,0.098,2088000
2016-06-03,0.09699999999999999,0.098,0.095,0.098,6044000
2016-06-06,0.09699999999999999,0.098,0.092,0.098,1704000
2016-06-07,0.096,0.107,0.094,0.10099999999999999,24352400
2016-06-08,0.099,0.10300000000000001,0.099,0.099,6344000
2016-06-10,0.096,0.10400000000000001,0.094,0.102,5264000
2016-06-13,0.096,0.1,0.091,0.096,12429200
2016-06-14,0.098,0.11,0.095,0.10099999999999999,76728000
2016-06-15,0.10400000000000001,0.105,0.099,0.099,20276000
2016-06-16,0.099,0.102,0.098,0.102,1244800
2016-06-17,0.102,0.10300000000000001,0.1,0.1,13072000
2016-06-20,0.10300000000000001,0.10400000000000001,0.099,0.099,7904000
2016-06-21,0.1,0.10300000000000001,0.096,0.096,3688000
2016-06-22,0.096,0.099,0.091,0.094,5320000
2016-06-23,0.094,0.094,0.08800000000000001,0.09,4988000
2016-06-24,0.08800000000000001,0.08800000000000001,0.076,0.081,12420000
2016-06-27,0.085,0.09,0.081,0.085,27060000
2016-06-28,0.08900000000000001,0.08900000000000001,0.08,0.084,22556000
2016-06-29,0.083,0.084,0.08199999999999999,0.084,2068000
2016-06-30,0.084,0.084,0.078,0.081,37840000
2016-07-04,0.081,0.08800000000000001,0.078,0.081,8440000
2016-07-06,0.081,0.083,0.079,0.08199999999999999,10736000
2016-07-07,0.08199999999999999,0.08199999999999999,0.08,0.08,1040000
2016-07-08,0.08199999999999999,0.084,0.08199999999999999,0.084,3596000
2016-07-11,0.083,0.083,0.08199999999999999,0.08199999999999999,2748000
2016-07-12,0.08199999999999999,0.08199999999999999,0.076,0.08199999999999999,2120000
2016-07-13,0.078,0.081,0.075,0.077,1628000
2016-07-14,0.077,0.08,0.077,0.08,4456200
2016-07-15,0.075,0.083,0.07400000000000001,0.077,41960000
2016-07-18,0.079,0.079,0.07400000000000001,0.075,208000
2016-07-19,0.075,0.081,0.07400000000000001,0.079,34364000
2016-07-20,0.075,0.079,0.07200000000000001,0.078,16780400
2016-07-21,0.076,0.084,0.075,0.077,16072000
2016-07-22,0.076,0.077,0.075,0.077,1708000
2016-07-25,0.076,0.078,0.075,0.075,1124000
2016-07-26,0.075,0.08,0.07400000000000001,0.07400000000000001,11424000
2016-07-27,0.073,0.08199999999999999,0.07200000000000001,0.08199999999999999,27612000
2016-07-28,0.08199999999999999,0.098,0.077,0.094,45716000
2016-07-29,0.09300000000000001,0.095,0.086,0.086,8912000
2016-08-01,0.09300000000000001,0.106,0.09,0.105,47387000
2016-08-03,0.102,0.11,0.09699999999999999,0.10099999999999999,23064000
2016-08-04,0.10099999999999999,0.105,0.096,0.098,14596000
2016-08-05,0.1,0.10400000000000001,0.1,0.102,7660000
2016-08-08,0.102,0.111,0.098,0.1,16960000
2016-08-09,0.10099999999999999,0.10300000000000001,0.099,0.099,2172000
2016-08-10,0.1,0.107,0.1,0.105,7856000
2016-08-11,0.105,0.10800000000000001,0.10300000000000001,0.10300000000000001,7618000
2016-08-12,0.10300000000000001,0.105,0.10099999999999999,0.10099999999999999,6644000
2016-08-15,0.10300000000000001,0.105,0.1,0.105,3288000
2016-08-16,0.105,0.109,0.10400000000000001,0.107,60136000
2016-08-17,0.10800000000000001,0.11,0.105,0.105,7824000
2016-08-18,0.109,0.11199999999999999,0.105,0.10800000000000001,46544000
2016-08-19,0.11,0.152,0.11,0.149,177436400
2016-08-22,0.149,0.171,0.135,0.149,90500000
2016-08-23,0.149,0.16699999999999998,0.14800000000000002,0.155,78036000
2016-08-24,0.155,0.162,0.153,0.155,34168000
2016-08-25,0.154,0.162,0.136,0.14,65549500
2016-08-26,0.141,0.159,0.132,0.153,54016000
2016-08-29,0.153,0.158,0.14800000000000002,0.152,7260000
2016-08-30,0.151,0.151,0.147,0.15,3891500
2016-08-31,0.14400000000000002,0.146,0.135,0.14400000000000002,20190200
2016-09-01,0.14400000000000002,0.147,0.139,0.14300000000000002,4676000
2016-09-02,0.142,0.14300000000000002,0.136,0.14,6137000
2016-09-05,0.14,0.16899999999999998,0.14,0.16699999999999998,156484000
2016-09-06,0.165,0.17800000000000002,0.16399999999999998,0.168,118144000
2016-09-07,0.17300000000000001,0.18,0.17,0.174,148192000
2016-09-08,0.17300000000000001,0.188,0.17300000000000001,0.184,244144000
2016-09-09,0.183,0.184,0.175,0.17800000000000002,12392000
2016-09-12,0.17600000000000002,0.185,0.16899999999999998,0.179,5288000
2016-09-13,0.175,0.179,0.17,0.17,4252000
2016-09-14,0.17,0.183,0.168,0.17800000000000002,10836000
2016-09-15,0.177,0.184,0.17600000000000002,0.18100000000000002,8748000
2016-09-19,0.182,0.187,0.179,0.18,23800000
2016-09-20,0.18100000000000002,0.185,0.18,0.18,23824000
2016-09-21,0.177,0.18100000000000002,0.177,0.18100000000000002,672000
2016-09-22,0.18100000000000002,0.183,0.179,0.179,2268000
2016-09-23,0.179,0.18,0.17800000000000002,0.17800000000000002,2056000
2016-09-26,0.18,0.18100000000000002,0.17800000000000002,0.17800000000000002,6588000
2016-09-27,0.17800000000000002,0.18,0.17800000000000002,0.179,4854200
2016-09-28,0.179,0.18600000000000003,0.174,0.18,82952000
2016-09-29,0.177,0.18100000000000002,0.17600000000000002,0.17800000000000002,7723200
2016-09-30,0.18,0.182,0.17800000000000002,0.179,6430000
2016-10-03,0.185,0.18899999999999997,0.172,0.17800000000000002,50700000
2016-10-04,0.177,0.18,0.17600000000000002,0.17600000000000002,2244000
2016-10-05,0.17600000000000002,0.179,0.175,0.17600000000000002,1840000
2016-10-06,0.175,0.18,0.172,0.179,30792000
2016-10-07,0.179,0.18,0.171,0.179,48032000
2016-10-11,0.17800000000000002,0.179,0.17300000000000001,0.17800000000000002,31051200
2016-10-12,0.17800000000000002,0.18,0.17800000000000002,0.179,2468000
2016-10-13,0.179,0.18,0.17300000000000001,0.18,39880000
2016-10-14,0.18,0.182,0.179,0.18,2548000
2016-10-17,0.17800000000000002,0.18,0.17800000000000002,0.17800000000000002,7636000
2016-10-18,0.17800000000000002,0.17800000000000002,0.174,0.17600000000000002,23324000
2016-10-19,0.175,0.182,0.168,0.182,74160000
2016-10-20,0.18,0.182,0.177,0.179,44900000
2016-10-24,0.179,0.179,0.177,0.179,1380000
2016-10-25,0.177,0.18,0.17300000000000001,0.18,58664000
2016-10-26,0.183,0.184,0.177,0.18,9040000
2016-10-27,0.18,0.184,0.174,0.184,16392000
2016-10-28,0.18,0.183,0.177,0.179,3576000
2016-10-31,0.179,0.249,0.179,0.213,64380000
2016-11-01,0.215,0.21600000000000003,0.196,0.2,14888000
2016-11-02,0.191,0.204,0.191,0.20199999999999999,6004000
2016-11-03,0.20800000000000002,0.21,0.2,0.20800000000000002,3004000
2016-11-04,0.21,0.21,0.20600000000000002,0.20800000000000002,1764000
2016-11-07,0.20800000000000002,0.237,0.20600000000000002,0.222,10860000
2016-11-08,0.23,0.231,0.22,0.22,13484000
2016-11-09,0.222,0.222,0.203,0.20600000000000002,10924000
2016-11-10,0.222,0.22899999999999998,0.201,0.213,68352000
2016-11-11,0.214,0.223,0.214,0.215,7188000
2016-11-14,0.20800000000000002,0.225,0.20800000000000002,0.22399999999999998,93952000
2016-11-15,0.223,0.223,0.215,0.218,19444000
2016-11-16,0.217,0.217,0.212,0.21600000000000003,4964000
2016-11-17,0.21600000000000003,0.22,0.21,0.217,56292000
2016-11-18,0.217,0.21899999999999997,0.214,0.21600000000000003,8048000
2016-11-21,0.22,0.22,0.21,0.213,5964000
2016-11-22,0.215,0.217,0.204,0.20600000000000002,19604000
2016-11-23,0.20600000000000002,0.21100000000000002,0.19399999999999998,0.19899999999999998,130980000
2016-11-24,0.198,0.20600000000000002,0.198,0.20600000000000002,76024000
2016-11-25,0.209,0.22399999999999998,0.209,0.217,25204000
2016-11-28,0.218,0.22699999999999998,0.218,0.225,33492000
2016-11-29,0.22399999999999998,0.22699999999999998,0.221,0.22399999999999998,6212000
2016-11-30,0.22399999999999998,0.22699999999999998,0.223,0.225,2861200
2016-12-01,0.22699999999999998,0.235,0.22699999999999998,0.231,10540000
2016-12-02,0.231,0.24,0.231,0.239,17252000
2016-12-05,0.239,0.25,0.23,0.239,9132000
2016-12-06,0.24,0.248,0.235,0.245,130048000
2016-12-07,0.245,0.24600000000000002,0.235,0.24,55776600
2016-12-08,0.23600000000000002,0.24600000000000002,0.235,0.237,14400000
2016-12-09,0.235,0.244,0.228,0.228,6456000
2016-12-12,0.228,0.242,0.22699999999999998,0.23,15544000
2016-12-13,0.231,0.23600000000000002,0.228,0.23,13218000
2016-12-14,0.23,0.239,0.22699999999999998,0.231,31488000
2016-12-15,0.22899999999999998,0.235,0.22699999999999998,0.231,4588000
2016-12-16,0.221,0.235,0.218,0.23199999999999998,19730000
2016-12-19,0.235,0.24,0.23,0.235,12712000
2016-12-20,0.239,0.255,0.23600000000000002,0.255,24008000
2016-12-21,0.255,0.3,0.255,0.3,51717000
2016-12-22,0.3,0.32,0.28,0.285,73333000
2016-12-23,0.29,0.3,0.29,0.3,14929400
2016-12-28,0.295,0.295,0.28,0.285,3342400
2016-12-29,0.29,0.295,0.285,0.285,1812000
2016-12-30,0.285,0.3,0.285,0.295,12312000
2017-01-03,0.3,0.3,0.285,0.285,8600000
2017-01-04,0.285,0.29,0.27,0.285,15215000
2017-01-05,0.285,0.29,0.285,0.29,1324000
2017-01-06,0.29,0.295,0.285,0.29,1852000
2017-01-09,0.29,0.29,0.275,0.28,2136000
2017-01-10,0.275,0.28,0.27,0.27,4866400
2017-01-11,0.275,0.28,0.26,0.265,74588000
2017-01-12,0.27,0.275,0.265,0.265,2528000
2017-01-13,0.265,0.28,0.265,0.275,30300700
2017-01-16,0.28,0.29,0.28,0.285,8052000
2017-01-17,0.295,0.295,0.27,0.27,4613400
2017-01-18,0.27,0.28,0.27,0.275,3988000
2017-01-19,0.27,0.28,0.265,0.275,13116000
2017-01-20,0.275,0.28,0.24100000000000002,0.275,16976000
2017-01-23,0.265,0.275,0.265,0.27,3348000
2017-01-24,0.28,0.28,0.265,0.275,3508000
2017-01-25,0.26,0.275,0.26,0.27,1832000
2017-01-26,0.27,0.28,0.265,0.28,88144000
2017-02-01,0.28,0.3,0.275,0.29,10980000
2017-02-02,0.29,0.3,0.265,0.29,15397000
2017-02-03,0.29,0.295,0.27,0.275,10304000
2017-02-06,0.27,0.28,0.265,0.28,5472000
2017-02-07,0.28,0.29,0.27,0.28,44884000
2017-02-08,0.28,0.285,0.28,0.28,5236000
2017-02-09,0.28,0.285,0.275,0.275,92536000
2017-02-10,0.28,0.285,0.275,0.275,1724000
2017-02-13,0.28,0.315,0.275,0.31,87884000
2017-02-14,0.31,0.33,0.31,0.32,27123200
2017-02-15,0.32,0.325,0.31,0.31,31672000
2017-02-16,0.31,0.325,0.31,0.315,24556000
2017-02-17,0.31,0.31,0.295,0.31,9296000
2017-02-20,0.3,0.305,0.295,0.3,9220000
2017-02-21,0.295,0.305,0.27,0.3,12800000
2017-02-22,0.295,0.31,0.29,0.305,7828000
2017-02-23,0.305,0.305,0.295,0.3,18440100
2017-02-24,0.3,0.305,0.3,0.3,2016400
2017-02-27,0.305,0.32,0.3,0.305,22092000
2017-02-28,0.305,0.315,0.305,0.305,8400000
2017-03-01,0.31,0.315,0.305,0.305,3944000
2017-03-02,0.305,0.32,0.3,0.31,73070600
2017-03-03,0.31,0.31,0.31,0.31,10544000
2017-03-06,0.31,0.315,0.305,0.305,3260400
2017-03-07,0.31,0.315,0.295,0.305,83009504
2017-03-08,0.305,0.315,0.305,0.305,1300000
2017-03-09,0.31,0.31,0.3,0.305,10276200
2017-03-10,0.3,0.305,0.3,0.305,39695000
2017-03-13,0.305,0.31,0.3,0.3,3384000
2017-03-14,0.3,0.3,0.295,0.3,2136000
2017-03-15,0.3,0.305,0.3,0.3,2064000
2017-03-16,0.3,0.31,0.3,0.305,8800600
2017-03-17,0.305,0.305,0.3,0.305,3484000
2017-03-20,0.3,0.305,0.295,0.3,15380000
2017-03-21,0.3,0.315,0.3,0.31,8304000
2017-03-22,0.31,0.31,0.305,0.31,37624000
2017-03-23,0.31,0.31,0.305,0.31,2215200
2017-03-24,0.305,0.305,0.3,0.3,9769000
2017-03-27,0.3,0.305,0.285,0.295,6144000
2017-03-28,0.295,0.3,0.295,0.295,4832000
2017-03-29,0.295,0.3,0.29,0.295,5072000
2017-03-30,0.3,0.305,0.295,0.295,3264000
2017-03-31,0.295,0.295,0.295,0.295,4708000
2017-04-03,0.295,0.305,0.29,0.305,5972000
2017-04-05,0.305,0.305,0.3,0.3,2624000
2017-04-06,0.3,0.305,0.3,0.3,2608000
2017-04-07,0.295,0.305,0.29,0.295,89768000
2017-04-10,0.295,0.305,0.285,0.295,6906000
2017-04-11,0.29,0.305,0.29,0.305,35056000
2017-04-12,0.305,0.305,0.3,0.3,72828000
2017-04-13,0.3,0.305,0.3,0.3,12418000
2017-04-18,0.3,0.305,0.295,0.3,6508000
2017-04-19,0.3,0.3,0.29,0.3,5480000
2017-04-20,0.3,0.3,0.29,0.295,6288000
2017-04-21,0.295,0.315,0.29,0.315,3812000
2017-04-24,0.31,0.355,0.3,0.34,40352000
2017-04-25,0.34,0.395,0.34,0.375,63096900
2017-04-26,0.38,0.385,0.36,0.365,27456000
2017-04-27,0.37,0.375,0.36,0.37,8088000
2017-04-28,0.37,0.375,0.35,0.36,36456000
2017-05-02,0.36,0.385,0.35,0.37,48516000
2017-05-04,0.365,0.41,0.365,0.39,68665952
2017-05-05,0.395,0.4,0.385,0.39,122032200
2017-05-08,0.395,0.41,0.395,0.4,9868000
2017-05-09,0.41,0.41,0.395,0.4,7080540
2017-05-10,0.4,0.405,0.395,0.4,3944000
2017-05-11,0.4,0.405,0.4,0.4,1656600
2017-05-12,0.4,0.41,0.395,0.4,8084000
2017-05-15,0.4,0.4,0.395,0.4,6796000
2017-05-16,0.39,0.405,0.37,0.4,19784000
2017-05-17,0.4,0.4,0.395,0.4,4096000
2017-05-18,0.4,0.42,0.37,0.42,26324000
2017-05-19,0.42,0.43,0.415,0.425,75708000
2017-05-22,0.43,0.435,0.425,0.435,45848000
2017-05-23,0.435,0.455,0.435,0.455,54824000
2017-05-24,0.455,0.465,0.44,0.45,99704000
2017-05-25,0.45,0.45,0.38,0.405,97646000
2017-05-26,0.43,0.43,0.39,0.41,41828240
2017-05-29,0.405,0.415,0.385,0.39,48416000
2017-05-31,0.39,0.43,0.39,0.43,36582900
2017-06-01,0.42,0.44,0.415,0.43,57839000
2017-06-02,0.435,0.445,0.41,0.445,71708000
2017-06-05,0.435,0.45,0.435,0.45,7872854
2017-06-06,0.45,0.455,0.44,0.445,5160300
2017-06-07,0.45,0.455,0.435,0.445,16840000
2017-06-08,0.445,0.45,0.435,0.445,86856000
2017-06-09,0.435,0.445,0.435,0.44,7084000
2017-06-12,0.435,0.44,0.415,0.43,14640000
2017-06-13,0.43,0.435,0.415,0.425,14289600
2017-06-14,0.425,0.425,0.41,0.415,9532000
2017-06-15,0.405,0.42,0.385,0.42,29800000
2017-06-16,0.415,0.435,0.405,0.435,24448000
2017-06-19,0.435,0.435,0.38,0.405,22800000
2017-06-20,0.405,0.415,0.4,0.41,6680000
2017-06-21,0.41,0.43,0.4,0.43,19592000
2017-06-22,0.43,0.44,0.425,0.43,16944000
2017-06-23,0.425,0.45,0.415,0.45,63688000
2017-06-26,0.45,0.455,0.43,0.43,8556000
2017-06-27,0.42,0.435,0.405,0.43,18144000
2017-06-28,0.415,0.43,0.41,0.43,23732000
2017-06-29,0.425,0.435,0.42,0.42,17104000
2017-06-30,0.415,0.43,0.415,0.425,32148000
2017-07-03,0.425,0.45,0.42,0.425,68428000
2017-07-04,0.42,0.425,0.41,0.415,8400000
2017-07-05,0.415,0.45,0.415,0.435,86340000
2017-07-06,0.425,0.455,0.425,0.45,166040000
2017-07-07,0.45,0.45,0.425,0.435,21040000
2017-07-10,0.43,0.435,0.425,0.435,5104000
2017-07-11,0.43,0.435,0.425,0.43,5136000
2017-07-12,0.43,0.435,0.425,0.43,1904000
2017-07-13,0.43,0.43,0.41,0.42,10680000
2017-07-14,0.415,0.425,0.41,0.42,12376000
2017-07-17,0.415,0.435,0.415,0.42,14244000
2017-07-18,0.42,0.42,0.415,0.42,4012000
2017-07-19,0.415,0.42,0.415,0.415,4108000
2017-07-20,0.41,0.425,0.41,0.42,7832400
2017-07-21,0.42,0.43,0.415,0.42,9737400
2017-07-24,0.42,0.42,0.415,0.42,2376000
2017-07-25,0.42,0.425,0.42,0.42,1858300
2017-07-26,0.415,0.43,0.415,0.42,8296000
2017-07-27,0.42,0.425,0.415,0.42,26048000
2017-07-28,0.425,0.43,0.415,0.415,12612000
2017-07-31,0.415,0.47,0.415,0.46,78914000
2017-08-01,0.46,0.485,0.455,0.48,19705000
2017-08-02,0.48,0.485,0.445,0.48,95926000
2017-08-03,0.48,0.485,0.47,0.48,7420000
2017-08-04,0.48,0.48,0.47,0.48,4748000
2017-08-07,0.48,0.49,0.47,0.49,10858000
2017-08-08,0.49,0.53,0.49,0.51,52894600
2017-08-09,0.52,0.58,0.52,0.58,31156000
2017-08-10,0.58,0.61,0.53,0.58,37482560
2017-08-11,0.58,0.59,0.54,0.57,54553000
2017-08-14,0.57,0.57,0.54,0.56,6352800
2017-08-15,0.55,0.58,0.54,0.57,6252000
2017-08-16,0.57,0.57,0.56,0.57,9050300
2017-08-17,0.57,0.57,0.55,0.56,8588000
2017-08-18,0.55,0.56,0.55,0.55,32230000
2017-08-21,0.55,0.56,0.54,0.55,16234000
2017-08-22,0.55,0.56,0.55,0.55,10524000
2017-08-24,0.55,0.6,0.55,0.57,14364100
2017-08-25,0.57,0.58,0.57,0.58,8312000
2017-08-28,0.58,0.59,0.56,0.57,10872000
2017-08-29,0.57,0.58,0.56,0.56,8620000
2017-08-30,0.56,0.58,0.56,0.58,6008000
2017-08-31,0.58,0.59,0.57,0.58,8640000
2017-09-01,0.58,0.58,0.56,0.56,10972000
2017-09-04,0.56,0.56,0.55,0.55,7232000
2017-09-05,0.54,0.57,0.54,0.55,12494700
2017-09-06,0.57,0.63,0.56,0.6,27114000
2017-09-07,0.61,0.64,0.59,0.63,18964000
2017-09-08,0.65,0.65,0.61,0.63,24406000
2017-09-11,0.63,0.64,0.62,0.64,8236300
2017-09-12,0.63,0.67,0.62,0.65,17472000
2017-09-13,0.65,0.65,0.62,0.63,6028000
2017-09-14,0.64,0.65,0.62,0.64,13432100
2017-09-15,0.62,0.64,0.61,0.63,18200000
2017-09-18,0.63,0.63,0.62,0.62,10052000
2017-09-19,0.61,0.62,0.59,0.62,8952000
2017-09-20,0.61,0.64,0.6,0.62,28940000
2017-09-21,0.63,0.63,0.59,0.61,21024000
2017-09-22,0.6,0.62,0.59,0.6,18896000
2017-09-25,0.6,0.6,0.57,0.58,21000000
2017-09-26,0.58,0.59,0.57,0.58,22200000
2017-09-27,0.58,0.58,0.57,0.58,19972000
2017-09-28,0.57,0.58,0.56,0.56,16308000
2017-09-29,0.56,0.57,0.55,0.56,21980000
2017-10-03,0.56,0.56,0.54,0.55,12524000
2017-10-04,0.55,0.57,0.54,0.55,2800000
2017-10-06,0.56,0.59,0.55,0.56,13787260
2017-10-09,0.56,0.59,0.56,0.59,18336480
2017-10-10,0.59,0.64,0.59,0.64,34866000
2017-10-11,0.64,0.66,0.63,0.65,21024620
2017-10-12,0.66,0.68,0.65,0.68,16380000
2017-10-13,0.68,0.7,0.64,0.65,19352600
2017-10-16,0.65,0.68,0.64,0.67,11644000
2017-10-17,0.69,0.69,0.65,0.66,16472400
2017-10-18,0.65,0.71,0.65,0.7,25752000
2017-10-19,0.7,0.71,0.66,0.67,8692000
2017-10-20,0.67,0.7,0.67,0.68,7116000
2017-10-23,0.68,0.8,0.68,0.7,13072000
2017-10-24,0.71,0.74,0.69,0.7,5566000
2017-10-25,0.69,0.7,0.68,0.69,3732000
2017-10-26,0.69,0.7,0.68,0.69,9104000
2017-10-27,0.69,0.69,0.67,0.68,3461420
2017-10-30,0.68,0.68,0.62,0.67,10307600
2017-10-31,0.68,0.68,0.66,0.68,2008200
2017-11-01,0.68,0.69,0.66,0.68,11660000
2017-11-02,0.67,0.7,0.67,0.68,7075000
2017-11-03,0.68,0.68,0.66,0.67,3004000
2017-11-06,0.67,0.68,0.66,0.66,5028000
2017-11-07,0.66,0.66,0.64,0.66,5168000
2017-11-08,0.66,0.66,0.63,0.65,5212000
2017-11-09,0.65,0.66,0.64,0.65,6960640
2017-11-10,0.65,0.65,0.63,0.64,3900000
2017-11-13,0.64,0.68,0.63,0.66,10076000
2017-11-14,0.66,0.68,0.64,0.64,11052000
2017-11-15,0.65,0.65,0.62,0.64,4204000
2017-11-16,0.64,0.64,0.62,0.63,1492000
2017-11-17,0.63,0.64,0.61,0.63,7492000
2017-11-20,0.62,0.63,0.59,0.62,7301400
2017-11-21,0.61,0.63,0.57,0.63,26388800
2017-11-22,0.63,0.65,0.6,0.62,8732000
2017-11-23,0.6,0.61,0.59,0.6,6212000
2017-11-24,0.6,0.61,0.59,0.61,748000
2017-11-27,0.6,0.68,0.59,0.65,56384000
2017-11-28,0.65,0.7,0.63,0.66,17028900
2017-11-29,0.65,0.68,0.63,0.63,17620000
2017-11-30,0.62,0.64,0.6,0.61,9492000
2017-12-01,0.61,0.64,0.59,0.63,15632000
2017-12-04,0.62,0.62,0.59,0.6,6768000
2017-12-05,0.59,0.61,0.58,0.6,8596000
2017-12-06,0.59,0.6,0.57,0.59,5248000
2017-12-07,0.58,0.58,0.55,0.58,8764000
2017-12-08,0.58,0.58,0.56,0.57,3134600
2017-12-11,0.56,0.6,0.56,0.59,12328000
2017-12-12,0.59,0.59,0.56,0.57,3596800
2017-12-13,0.56,0.57,0.55,0.57,500000
2017-12-14,0.56,0.57,0.53,0.54,6476000
2017-12-15,0.52,0.6,0.465,0.6,19644000
2017-12-18,0.6,0.63,0.57,0.59,3770000
2017-12-19,0.58,0.58,0.57,0.57,8663980
2017-12-20,0.57,0.57,0.52,0.54,6428000
2017-12-21,0.54,0.6,0.54,0.58,3020000
2017-12-22,0.59,0.59,0.57,0.58,1997400
2017-12-27,0.58,0.6,0.57,0.58,2084000
2017-12-28,0.59,0.6,0.57,0.6,2336000
2017-12-29,0.58,0.6,0.57,0.58,4964000
2018-01-02,0.58,0.59,0.57,0.57,904000
2018-01-03,0.56,0.58,0.55,0.57,4744000
2018-01-04,0.55,0.57,0.54,0.56,4704000
2018-01-05,0.56,0.56,0.54,0.56,4308000
2018-01-08,0.55,0.56,0.54,0.54,5244000
2018-01-09,0.55,0.55,0.52,0.53,6536000
2018-01-10,0.53,0.54,0.5,0.54,3290480
2018-01-11,0.53,0.54,0.52,0.53,688000
2018-01-12,0.52,0.54,0.52,0.54,5064720
2018-01-15,0.54,0.56,0.51,0.55,5277280
2018-01-16,0.56,0.56,0.53,0.55,2988000
2018-01-17,0.54,0.56,0.53,0.56,2824000
2018-01-18,0.55,0.55,0.53,0.54,2756500
2018-01-19,0.53,0.54,0.53,0.54,440000
2018-01-22,0.53,0.54,0.52,0.53,2309800
2018-01-23,0.52,0.53,0.52,0.53,1292300
2018-01-24,0.53,0.53,0.52,0.53,924000
2018-01-25,0.53,0.53,0.5,0.52,3580000
2018-01-26,0.51,0.53,0.5,0.53,2950000
2018-01-29,0.53,0.53,0.51,0.51,1940000
2018-01-30,0.5,0.54,0.48,0.54,5772000
2018-01-31,0.51,0.57,0.51,0.56,7614700
2018-02-01,0.56,0.59,0.51,0.52,15639200
2018-02-02,0.52,0.56,0.52,0.53,4064000
2018-02-05,0.52,0.57,0.51,0.57,4762100
2018-02-06,0.52,0.57,0.52,0.54,4466400
2018-02-07,0.54,0.57,0.53,0.54,3588000
2018-02-08,0.56,0.57,0.54,0.56,988000
2018-02-09,0.53,0.56,0.52,0.56,3894600
2018-02-12,0.54,0.56,0.53,0.56,2108000
2018-02-13,0.54,0.56,0.53,0.56,4868000
2018-02-14,0.54,0.55,0.54,0.55,560000
2018-02-15,0.54,0.55,0.54,0.54,304000
2018-02-20,0.54,0.56,0.54,0.56,1052000
2018-02-21,0.54,0.56,0.54,0.56,298400
2018-02-22,0.55,0.56,0.55,0.56,272000
2018-02-23,0.55,0.55,0.54,0.55,1292000
2018-02-26,0.54,0.56,0.54,0.55,1944000
2018-02-27,0.55,0.55,0.55,0.55,436000
2018-02-28,0.55,0.56,0.54,0.56,2776000
2018-03-01,0.55,0.57,0.55,0.57,1432000
2018-03-02,0.55,0.6,0.55,0.59,4612000
2018-03-05,0.58,0.58,0.57,0.57,6914000
2018-03-06,0.59,0.59,0.55,0.55,1848000
2018-03-07,0.55,0.59,0.55,0.58,3892400
2018-03-08,0.56,0.58,0.56,0.57,1560000
2018-03-09,0.57,0.6,0.57,0.6,80424000
2018-03-12,0.6,0.72,0.51,0.63,42788000
2018-03-13,0.64,0.67,0.61,0.64,10680000
2018-03-14,0.64,0.65,0.6,0.64,3736000
2018-03-15,0.64,0.64,0.59,0.61,4100000
2018-03-16,0.6,0.61,0.6,0.6,2048000
2018-03-19,0.6,0.61,0.58,0.6,1612000
2018-03-20,0.6,0.61,0.58,0.61,4876000
2018-03-21,0.6,0.61,0.59,0.61,2688000
2018-03-22,0.6,0.61,0.6,0.61,1772000
2018-03-23,0.6,0.63,0.59,0.62,12506000
2018-03-26,0.62,0.66,0.61,0.62,1216800
2018-03-27,0.62,0.63,0.6,0.62,2244000
2018-03-28,0.61,0.62,0.6,0.62,3640000
2018-03-29,0.62,0.63,0.6,0.6,3600000
2018-04-03,0.61,0.62,0.61,0.62,3192000
2018-04-04,0.62,0.63,0.62,0.62,1836000
2018-04-06,0.62,0.65,0.62,0.63,3696000
2018-04-09,0.63,0.64,0.62,0.64,53384000
2018-04-10,0.64,0.64,0.62,0.63,7100240
2018-04-11,0.63,0.63,0.6,0.6,3752000
2018-04-12,0.6,0.62,0.59,0.6,3876000
2018-04-13,0.59,0.6,0.59,0.59,2008000
2018-04-16,0.58,0.59,0.58,0.59,687000
2018-04-17,0.58,0.61,0.56,0.6,4329500
2018-04-18,0.59,0.59,0.58,0.59,380000
2018-04-19,0.58,0.58,0.58,0.58,601100
2018-04-20,0.58,0.58,0.56,0.57,1644000
2018-04-23,0.56,0.56,0.56,0.56,1324000
2018-04-24,0.55,0.57,0.54,0.56,2852000
2018-04-25,0.56,0.57,0.54,0.54,1940000
2018-04-26,0.54,0.54,0.51,0.52,3996000
2018-04-27,0.51,0.55,0.51,0.55,1056000
2018-04-30,0.54,0.57,0.54,0.57,1088000
2018-05-02,0.57,0.59,0.56,0.59,1328000
2018-05-03,0.59,0.59,0.55,0.58,1440000
2018-05-04,0.57,0.59,0.56,0.59,1244000
2018-05-07,0.58,0.59,0.57,0.59,1076000
2018-05-08,0.59,0.59,0.57,0.59,3401000
2018-05-09,0.59,0.59,0.58,0.58,548000
2018-05-10,0.57,0.58,0.57,0.58,768100
2018-05-11,0.58,0.58,0.56,0.57,592000
2018-05-14,0.56,0.56,0.54,0.56,360000
2018-05-15,0.55,0.56,0.54,0.54,1688000
2018-05-16,0.54,0.57,0.54,0.56,3709500
2018-05-17,0.54,0.55,0.53,0.55,3924000
2018-05-18,0.56,0.58,0.55,0.55,3033200
2018-05-21,0.55,0.58,0.55,0.56,2960000
2018-05-23,0.55,0.55,0.53,0.53,2448000
2018-05-24,0.53,0.55,0.53,0.55,724000
2018-05-25,0.55,0.55,0.54,0.54,196000
2018-05-28,0.53,0.55,0.53,0.55,1092000
2018-05-29,0.53,0.54,0.53,0.53,2134400
2018-05-30,0.52,0.53,0.52,0.53,1516000
2018-05-31,0.53,0.53,0.53,0.53,120000
2018-06-01,0.53,0.58,0.52,0.54,3400550
2018-06-04,0.54,0.54,0.52,0.52,2348000
2018-06-05,0.53,0.54,0.52,0.53,268000
2018-06-06,0.54,0.56,0.54,0.54,2344000
2018-06-07,0.55,0.56,0.55,0.56,2864000
2018-06-08,0.55,0.58,0.55,0.57,2908000
2018-06-11,0.58,0.58,0.55,0.56,1256000
2018-06-12,0.54,0.56,0.53,0.53,1206380
2018-06-13,0.55,0.55,0.53,0.55,4327100
2018-06-14,0.55,0.58,0.55,0.58,4638000
2018-06-15,0.56,0.68,0.56,0.62,11392000
2018-06-19,0.62,0.63,0.55,0.6,6856000
2018-06-20,0.62,0.62,0.56,0.56,2068000
2018-06-21,0.57,0.57,0.56,0.56,708000
2018-06-22,0.56,0.57,0.55,0.56,2008000
2018-06-25,0.55,0.6,0.55,0.6,6377055
2018-06-26,0.6,0.62,0.58,0.61,7556000
2018-06-27,0.61,0.61,0.58,0.61,1852000
2018-06-28,0.6,0.61,0.58,0.6,5780000
2018-06-29,0.59,0.6,0.57,0.57,3168000
2018-07-03,0.57,0.58,0.56,0.57,3536000
2018-07-04,0.56,0.59,0.56,0.58,51016000
2018-07-05,0.58,0.58,0.56,0.57,884000
2018-07-06,0.57,0.58,0.54,0.58,14754400
2018-07-09,0.56,0.57,0.54,0.56,15296000
2018-07-10,0.54,0.55,0.52,0.54,5852000
2018-07-11,0.54,0.55,0.53,0.55,2808000
2018-07-12,0.55,0.57,0.54,0.55,3656000
2018-07-13,0.54,0.55,0.53,0.54,6900000
2018-07-16,0.53,0.54,0.53,0.54,3280000
2018-07-17,0.52,0.54,0.52,0.53,2264000
2018-07-18,0.53,0.54,0.52,0.53,2648000
2018-07-19,0.52,0.53,0.51,0.52,756050
2018-07-20,0.51,0.53,0.51,0.52,3576000
2018-07-23,0.51,0.52,0.51,0.52,2653000
2018-07-24,0.52,0.56,0.52,0.53,2644000
2018-07-25,0.54,0.6,0.53,0.56,6184000
2018-07-26,0.55,0.59,0.53,0.54,6016000
2018-07-27,0.53,0.53,0.51,0.52,17812000
2018-07-30,0.52,0.52,0.51,0.52,11436000
2018-07-31,0.5,0.53,0.485,0.53,6880000
2018-08-01,0.52,0.52,0.51,0.52,2080000
2018-08-02,0.52,0.52,0.495,0.5,7970100
2018-08-03,0.52,0.52,0.495,0.51,1508000
2018-08-06,0.51,0.52,0.5,0.52,604000
2018-08-07,0.52,0.56,0.495,0.54,12611000
2018-08-08,0.54,0.55,0.52,0.53,2780000
2018-08-09,0.53,0.55,0.5,0.51,11076000
2018-08-10,0.51,0.52,0.495,0.5,8396000
2018-08-13,0.495,0.51,0.495,0.5,892000
2018-08-14,0.5,0.5,0.485,0.5,1232000
2018-08-15,0.495,0.51,0.495,0.5,4376000
2018-08-16,0.5,0.52,0.49,0.51,3596000
2018-08-17,0.52,0.52,0.5,0.52,360000
2018-08-20,0.51,0.52,0.51,0.52,292000
2018-08-21,0.51,0.52,0.5,0.52,1083000
2018-08-22,0.52,0.54,0.51,0.53,1492000
2018-08-23,0.52,0.52,0.51,0.52,1264000
2018-08-24,0.51,0.52,0.51,0.52,192000
2018-08-27,0.52,0.52,0.5,0.52,416000
2018-08-28,0.52,0.6,0.51,0.54,4376000
2018-08-29,0.52,0.52,0.51,0.52,1508000
2018-08-30,0.51,0.52,0.5,0.51,692000
2018-08-31,0.51,0.52,0.5,0.52,2804000
2018-09-03,0.52,0.52,0.51,0.52,736000
2018-09-04,0.52,0.52,0.5,0.5,2140000
2018-09-05,0.5,0.51,0.495,0.51,2906000
2018-09-06,0.5,0.51,0.5,0.51,132000
2018-09-07,0.5,0.52,0.48,0.49,44860000
2018-09-10,0.49,0.51,0.49,0.5,4976000
2018-09-11,0.49,0.51,0.465,0.51,3540000
2018-09-12,0.5,0.51,0.49,0.51,1880000
2018-09-13,0.5,0.51,0.495,0.5,3140000
2018-09-14,0.495,0.51,0.49,0.5,2272000
2018-09-17,0.5,0.51,0.5,0.5,1472000
2018-09-18,0.5,0.51,0.495,0.5,1032000
2018-09-19,0.5,0.51,0.495,0.5,161200
2018-09-20,0.5,0.51,0.49,0.51,1300000
2018-09-21,0.5,0.51,0.49,0.49,2336000
2018-09-24,0.49,0.5,0.49,0.5,460000
2018-09-26,0.495,0.5,0.49,0.495,1068000
2018-09-27,0.495,0.5,0.495,0.495,64000
2018-09-28,0.495,0.5,0.485,0.49,101200
2018-10-02,0.49,0.5,0.49,0.495,1504000
2018-10-03,0.485,0.495,0.485,0.49,272000
2018-10-04,0.49,0.5,0.49,0.495,2600000
2018-10-05,0.485,0.495,0.485,0.495,420000
2018-10-08,0.495,0.495,0.485,0.49,1782280
2018-10-09,0.485,0.495,0.485,0.49,2596000
2018-10-10,0.485,0.49,0.485,0.49,1960000
2018-10-11,0.48,0.49,0.47,0.48,2262100
2018-10-12,0.475,0.5,0.475,0.49,9592000
2018-10-15,0.495,0.52,0.495,0.52,5976000
2018-10-16,0.52,0.57,0.52,0.56,12104000
2018-10-18,0.56,0.59,0.53,0.59,15450000
2018-10-19,0.59,0.6,0.56,0.59,10772000
2018-10-22,0.59,0.59,0.56,0.56,1680000
2018-10-23,0.56,0.56,0.55,0.56,456000
2018-10-24,0.56,0.57,0.54,0.55,568000
2018-10-25,0.53,0.55,0.52,0.53,1948000
2018-10-26,0.53,0.54,0.52,0.53,736000
2018-10-29,0.52,0.53,0.51,0.51,1192000
2018-10-30,0.52,0.52,0.5,0.5,792000
2018-10-31,0.5,0.54,0.5,0.52,1884000
2018-11-01,0.52,0.55,0.52,0.54,2340000
2018-11-02,0.55,0.58,0.52,0.53,2148000
2018-11-05,0.53,0.54,0.52,0.52,1652000
2018-11-06,0.53,0.53,0.51,0.51,1788000
2018-11-07,0.51,0.52,0.5,0.51,2512000
2018-11-08,0.5,0.53,0.5,0.52,1740000
2018-11-09,0.51,0.51,0.5,0.5,1924000
2018-11-12,0.5,0.51,0.5,0.51,28000
2018-11-13,0.51,0.52,0.51,0.51,1156000
2018-11-14,0.51,0.52,0.5,0.5,500000
2018-11-15,0.51,0.52,0.495,0.5,1892000
2018-11-16,0.495,0.5,0.49,0.5,2848000
2018-11-19,0.49,0.5,0.49,0.49,284000
2018-11-20,0.5,0.51,0.495,0.5,428000
2018-11-21,0.495,0.5,0.49,0.495,584000
2018-11-22,0.495,0.495,0.495,0.495,72000
2018-11-23,0.49,0.5,0.49,0.495,460000
2018-11-26,0.5,0.51,0.5,0.51,288000
2018-11-27,0.5,0.5,0.495,0.495,1252000
2018-11-28,0.49,0.5,0.49,0.495,116000
2018-11-29,0.49,0.5,0.47,0.5,6320000
2018-11-30,0.5,0.51,0.49,0.51,1664240
2018-12-03,0.51,0.54,0.495,0.5,1880000
2018-12-04,0.5,0.51,0.5,0.5,156000
2018-12-05,0.49,0.49,0.485,0.49,324000
2018-12-06,0.485,0.5,0.48,0.495,1136000
2018-12-07,0.485,0.495,0.48,0.485,1516480
2018-12-10,0.48,0.49,0.45,0.465,2236000
2018-12-11,0.47,0.475,0.42,0.47,9976500
2018-12-12,0.475,0.48,0.45,0.45,224200
2018-12-13,0.465,0.465,0.43,0.45,1112000
2018-12-14,0.45,0.45,0.44,0.44,2907200
2018-12-17,0.45,0.5,0.45,0.5,5028600
2018-12-18,0.51,0.53,0.5,0.51,6408000
2018-12-19,0.51,0.51,0.495,0.51,2820000
2018-12-20,0.51,0.55,0.51,0.52,2268000
2018-12-21,0.52,0.53,0.49,0.52,1644000
2018-12-24,0.5,0.51,0.48,0.51,1930000
2018-12-27,0.485,0.51,0.48,0.5,2792000
2018-12-28,0.495,0.5,0.49,0.49,533900
2018-12-31,0.495,0.55,0.49,0.55,7976000
2019-01-02,0.51,0.54,0.485,0.5,10472000
2019-01-03,0.495,0.5,0.49,0.495,896000
2019-01-04,0.495,0.5,0.485,0.49,800000
2019-01-07,0.49,0.49,0.48,0.485,1132000
2019-01-08,0.485,0.5,0.485,0.495,1974600
2019-01-09,0.495,0.495,0.49,0.495,2864000
2019-01-10,0.485,0.495,0.485,0.495,1338700
2019-01-11,0.495,0.495,0.49,0.49,148000
2019-01-14,0.49,0.49,0.48,0.485,1580000
2019-01-15,0.47,0.485,0.47,0.485,84000
2019-01-16,0.485,0.485,0.485,0.485,132000
2019-01-17,0.475,0.48,0.46,0.48,128000
2019-01-18,0.475,0.475,0.47,0.47,236000
2019-01-21,0.465,0.47,0.46,0.465,498000
2019-01-22,0.455,0.46,0.445,0.46,484000
2019-01-23,0.46,0.46,0.45,0.46,708000
2019-01-24,0.455,0.46,0.45,0.455,316000
2019-01-25,0.45,0.455,0.45,0.455,320000
2019-01-28,0.44,0.49,0.44,0.49,1192000
2019-01-30,0.47,0.49,0.47,0.49,8000
2019-01-31,0.47,0.5,0.455,0.495,1516000
2019-02-01,0.495,0.51,0.485,0.495,956000
2019-02-04,0.495,0.52,0.495,0.52,2084000
2019-02-08,0.52,0.54,0.49,0.5,860000
2019-02-11,0.5,0.5,0.49,0.5,176000
2019-02-12,0.5,0.52,0.485,0.49,184000
2019-02-13,0.485,0.49,0.485,0.49,1064000
2019-02-14,0.48,0.49,0.48,0.49,1060000
2019-02-15,0.475,0.49,0.475,0.49,315500
2019-02-18,0.485,0.49,0.485,0.49,200000
2019-02-19,0.485,0.5,0.475,0.5,1160000
2019-02-20,0.51,0.51,0.49,0.5,1464000
2019-02-21,0.495,0.5,0.49,0.495,2614000
2019-02-22,0.485,0.5,0.48,0.485,1684000
2019-02-25,0.5,0.5,0.48,0.48,1352000
2019-02-26,0.48,0.485,0.475,0.48,11060000
2019-02-27,0.475,0.48,0.44,0.475,12396000
2019-02-28,0.475,0.485,0.45,0.48,12120000
2019-03-01,0.48,0.485,0.47,0.485,17596000
2019-03-04,0.475,0.48,0.47,0.48,11760000
2019-03-05,0.475,0.5,0.475,0.485,13112000
2019-03-06,0.485,0.49,0.48,0.49,16128000
2019-03-07,0.485,0.49,0.48,0.485,18420000
2019-03-08,0.48,0.48,0.47,0.48,10120000
2019-03-11,0.475,0.48,0.465,0.48,13356000
2019-03-12,0.475,0.48,0.465,0.475,13004000
2019-03-13,0.465,0.47,0.46,0.47,11336000
2019-03-14,0.475,0.475,0.455,0.47,11636000
2019-03-15,0.47,0.475,0.465,0.47,12824000
2019-03-18,0.47,0.475,0.46,0.47,12320000
2019-03-19,0.47,0.47,0.445,0.46,21612000
2019-03-20,0.455,0.455,0.445,0.45,12424000
2019-03-21,0.45,0.45,0.44,0.445,11668000
2019-03-22,0.44,0.465,0.425,0.465,11561000
2019-03-25,0.465,0.48,0.455,0.47,10920000
2019-03-26,0.47,0.47,0.455,0.47,11044000
2019-03-27,0.47,0.47,0.45,0.46,12688000
2019-03-28,0.445,0.46,0.445,0.45,408000
2019-03-29,0.445,0.45,0.44,0.45,196000
2019-04-01,0.44,0.45,0.43,0.44,2196000
2019-04-02,0.435,0.44,0.42,0.44,5213000
2019-04-03,0.44,0.45,0.425,0.43,1764000
2019-04-04,0.42,0.43,0.415,0.42,1762000
2019-04-08,0.42,0.42,0.415,0.415,1460000
2019-04-09,0.425,0.44,0.385,0.44,2140000
2019-04-10,0.415,0.44,0.415,0.44,4164000
2019-04-11,0.43,0.44,0.42,0.44,2213600
2019-04-12,0.43,0.44,0.425,0.435,1616000
2019-04-15,0.42,0.43,0.42,0.43,580000
2019-04-16,0.415,0.425,0.405,0.41,2784000
2019-04-17,0.4,0.425,0.4,0.4,6724000
2019-04-18,0.395,0.425,0.39,0.415,4896000
2019-04-23,0.4,0.42,0.4,0.405,3152000
2019-04-24,0.4,0.43,0.395,0.42,8520000
2019-04-25,0.415,0.415,0.4,0.415,704000
2019-04-26,0.41,0.415,0.4,0.415,1204000
2019-04-29,0.415,0.42,0.39,0.4,6416000
2019-04-30,0.39,0.4,0.39,0.4,2776000
2019-05-02,0.4,0.415,0.395,0.4,1102000
2019-05-03,0.4,0.405,0.39,0.405,448000
2019-05-06,0.4,0.42,0.39,0.395,1246000
2019-05-07,0.4,0.41,0.395,0.4,888000
2019-05-08,0.395,0.4,0.38,0.395,676000
2019-05-09,0.4,0.41,0.39,0.395,4048000
2019-05-10,0.395,0.4,0.39,0.395,164000
2019-05-14,0.39,0.42,0.39,0.42,880000
2019-05-15,0.425,0.465,0.4,0.445,10946500
2019-05-16,0.455,0.46,0.4,0.445,3704000
2019-05-17,0.44,0.455,0.415,0.445,2044000
2019-05-20,0.45,0.45,0.425,0.43,472000
2019-05-21,0.44,0.44,0.4,0.405,1760000
2019-05-22,0.405,0.41,0.38,0.395,3116000
2019-05-23,0.385,0.42,0.385,0.41,2072000
2019-05-24,0.395,0.4,0.39,0.4,1192000
2019-05-27,0.39,0.41,0.39,0.41,548000
2019-05-28,0.41,0.415,0.4,0.405,252000
2019-05-29,0.405,0.41,0.39,0.4,1688000
2019-05-30,0.405,0.42,0.395,0.4,260000
2019-05-31,0.395,0.4,0.39,0.4,3388000
2019-06-03,0.395,0.4,0.39,0.4,192000
2019-06-04,0.395,0.4,0.39,0.4,820000
2019-06-05,0.395,0.4,0.39,0.395,748000
2019-06-06,0.39,0.395,0.385,0.39,1773200
2019-06-10,0.39,0.395,0.37,0.375,1496000
2019-06-11,0.365,0.38,0.35,0.37,5088000
2019-06-12,0.355,0.375,0.335,0.37,9124000
2019-06-13,0.37,0.37,0.34,0.36,9076000
2019-06-14,0.355,0.36,0.34,0.35,2620000
2019-06-17,0.35,0.355,0.335,0.34,1356000
2019-06-18,0.335,0.34,0.32,0.34,100000
2019-06-19,0.34,0.34,0.27,0.335,8244000
2019-06-20,0.32,0.34,0.32,0.34,452000
2019-06-21,0.37,0.37,0.33,0.355,3192000
2019-06-24,0.355,0.385,0.325,0.34,5632000
2019-06-25,0.335,0.34,0.32,0.33,1328000
2019-06-26,0.32,0.435,0.315,0.435,14360000
2019-06-27,0.43,0.45,0.38,0.425,3888000
2019-06-28,0.405,0.43,0.385,0.395,4596000
2019-07-02,0.385,0.395,0.37,0.38,832000
2019-07-03,0.375,0.375,0.355,0.36,292000
2019-07-04,0.36,0.38,0.36,0.365,240000
2019-07-05,0.36,0.36,0.355,0.355,64000
2019-07-08,0.35,0.36,0.34,0.35,1568000
2019-07-09,0.345,0.35,0.33,0.35,504000
2019-07-10,0.335,0.345,0.335,0.34,236000
2019-07-11,0.335,0.345,0.33,0.345,128000
2019-07-12,0.33,0.345,0.32,0.335,485000
2019-07-15,0.335,0.35,0.335,0.35,260000
2019-07-16,0.345,0.35,0.345,0.35,1208000
2019-07-17,0.35,0.35,0.335,0.345,240000
2019-07-18,0.345,0.35,0.345,0.35,108000
2019-07-19,0.345,0.35,0.33,0.345,1316000
2019-07-22,0.345,0.355,0.345,0.355,676000
2019-07-23,0.34,0.35,0.34,0.34,1984000
2019-07-24,0.335,0.345,0.335,0.335,656000
2019-07-25,0.335,0.335,0.325,0.33,256000
2019-07-26,0.325,0.335,0.325,0.33,360000
2019-07-29,0.325,0.345,0.32,0.32,408000
2019-07-30,0.325,0.33,0.305,0.32,201200
2019-07-31,0.305,0.315,0.305,0.315,48000
2019-08-05,0.305,0.315,0.305,0.315,352000
2019-08-06,0.3,0.315,0.3,0.31,2300000
2019-08-08,0.3,0.32,0.3,0.32,1316000
2019-08-09,0.3,0.31,0.3,0.31,3612000
2019-08-12,0.3,0.3,0.3,0.3,120000
2019-08-13,0.3,0.305,0.3,0.3,2648000
2019-08-14,0.29,0.295,0.28,0.295,184000
2019-08-15,0.28,0.295,0.28,0.29,592000
2019-08-19,0.285,0.285,0.275,0.285,1592000
2019-08-20,0.28,0.285,0.28,0.285,1816000
2019-08-21,0.285,0.285,0.25,0.28,1276000
2019-08-22,0.26,0.27,0.26,0.27,252000
2019-08-23,0.275,0.28,0.27,0.275,168000
2019-08-26,0.285,0.285,0.25,0.275,1568000
2019-08-27,0.275,0.285,0.255,0.265,2264000
2019-08-28,0.27,0.275,0.265,0.265,312000
2019-08-29,0.27,0.35,0.27,0.35,5572400
2019-08-30,0.305,0.36,0.305,0.36,2540000
2019-09-02,0.355,0.37,0.325,0.34,3620304
2019-09-03,0.32,0.32,0.295,0.295,1756000
2019-09-04,0.295,0.34,0.295,0.32,1352000
2019-09-05,0.31,0.32,0.295,0.32,2165500
2019-09-06,0.305,0.32,0.295,0.295,1476000
2019-09-09,0.29,0.295,0.28,0.29,524000
2019-09-10,0.285,0.285,0.275,0.275,188000
2019-09-11,0.275,0.29,0.275,0.28,204400
2019-09-12,0.28,0.285,0.275,0.285,270000
2019-09-16,0.275,0.295,0.27,0.28,984000
2019-09-17,0.275,0.29,0.275,0.29,304000
2019-09-20,0.27,0.29,0.27,0.27,924000
2019-09-23,0.265,0.28,0.26,0.28,448000
2019-09-24,0.27,0.27,0.27,0.27,0
2019-09-25,0.265,0.265,0.26,0.26,504000
2019-09-26,0.26,0.26,0.26,0.26,8000
2019-09-27,0.26,0.26,0.255,0.255,688000
2019-09-30,0.265,0.325,0.255,0.32,3248000
2019-10-02,0.3,0.31,0.28,0.29,884000
2019-10-03,0.28,0.285,0.28,0.28,80000
2019-10-04,0.275,0.275,0.255,0.26,3436000
2019-10-08,0.26,0.26,0.255,0.255,476000
2019-10-09,0.26,0.27,0.24100000000000002,0.265,2314000
2019-10-10,0.25,0.265,0.25,0.265,1924000
2019-10-11,0.25,0.265,0.25,0.255,1600000
2019-10-14,0.25,0.255,0.249,0.249,480000
2019-10-15,0.255,0.255,0.25,0.25,408000
2019-10-16,0.255,0.255,0.255,0.255,317000
2019-10-17,0.255,0.255,0.245,0.25,212000
2019-10-18,0.25,0.25,0.24100000000000002,0.242,140000
2019-10-23,0.249,0.249,0.249,0.249,24000
2019-10-24,0.249,0.249,0.22699999999999998,0.22699999999999998,776000
2019-10-25,0.22699999999999998,0.22699999999999998,0.22699999999999998,0.22699999999999998,60000
2019-10-28,0.23399999999999999,0.245,0.233,0.244,240000
2019-10-29,0.244,0.25,0.244,0.25,372000
2019-10-31,0.23199999999999998,0.243,0.231,0.243,528400
2019-11-01,0.239,0.244,0.239,0.23800000000000002,3180000
2019-11-05,0.248,0.248,0.245,0.245,2836000
2019-11-06,0.24,0.24,0.24,0.24,136000
2019-11-08,0.23,0.245,0.23,0.244,456000
2019-11-12,0.243,0.244,0.24,0.244,5484000
2019-11-15,0.23,0.244,0.23,0.244,44000
2019-11-18,0.243,0.243,0.23,0.23,108000
2019-11-19,0.24,0.24,0.23,0.23800000000000002,1308000
2019-11-21,0.23600000000000002,0.247,0.23600000000000002,0.24600000000000002,1354400
2019-11-22,0.21,0.248,0.21,0.24,6116000
2019-11-25,0.231,0.244,0.23,0.24,124000
2019-11-26,0.22,0.24,0.22,0.24,96000
2019-11-27,0.225,0.235,0.222,0.228,9324000
2019-11-28,0.23800000000000002,0.244,0.225,0.228,3840000
2019-11-29,0.213,0.233,0.17,0.17,3700000
2019-12-02,0.195,0.21,0.16,0.163,7836000
2019-12-03,0.16399999999999998,0.17,0.15,0.156,2984000
2019-12-04,0.162,0.16899999999999998,0.16,0.166,780000
2019-12-05,0.172,0.174,0.172,0.17300000000000001,28000
2019-12-06,0.14,0.165,0.135,0.149,17216000
2019-12-09,0.139,0.14800000000000002,0.132,0.147,1496000
2019-12-10,0.14,0.149,0.13,0.135,14864000
2019-12-11,0.135,0.138,0.1,0.115,27172000
2019-12-12,0.12,0.12300000000000001,0.11,0.11699999999999999,5092000
2019-12-13,0.11699999999999999,0.142,0.11699999999999999,0.138,1692000
2019-12-16,0.134,0.14400000000000002,0.128,0.14,1441800
2019-12-17,0.14400000000000002,0.165,0.142,0.15,22938000
2019-12-18,0.15,0.15,0.145,0.145,3016000
2019-12-19,0.159,0.159,0.152,0.152,16000
2019-12-20,0.159,0.16,0.147,0.159,10768000
2019-12-23,0.16,0.182,0.159,0.18,7708000
2019-12-24,0.162,0.23800000000000002,0.162,0.231,1854400
2019-12-27,0.231,0.255,0.22,0.243,3648000
2019-12-30,0.243,0.248,0.239,0.248,500000
2019-12-31,0.242,0.242,0.24,0.24,88000
2020-01-02,0.24,0.25,0.235,0.235,1932000
2020-01-03,0.25,0.25,0.223,0.235,496000
2020-01-06,0.24,0.24,0.22,0.22899999999999998,724000
2020-01-07,0.20600000000000002,0.24,0.20600000000000002,0.225,200000
2020-01-08,0.225,0.23,0.203,0.226,332000
2020-01-09,0.226,0.226,0.203,0.212,408000
2020-01-10,0.21899999999999997,0.25,0.21899999999999997,0.23800000000000002,20162000
2020-01-13,0.25,0.25,0.23399999999999999,0.24,2276000
2020-01-14,0.247,0.25,0.23,0.24,256000
2020-01-15,0.239,0.239,0.233,0.239,121000
2020-01-16,0.23800000000000002,0.239,0.209,0.22699999999999998,2452000
2020-01-17,0.215,0.22,0.20800000000000002,0.22,323100
2020-01-20,0.205,0.214,0.205,0.214,20000
2020-01-21,0.205,0.22,0.19,0.22,1212000
2020-01-22,0.20199999999999999,0.21899999999999997,0.195,0.209,1032000
2020-01-23,0.21600000000000003,0.21600000000000003,0.195,0.209,1380000
2020-01-24,0.21,0.22899999999999998,0.21,0.22899999999999998,3156000
2020-01-29,0.23,0.247,0.228,0.24,1092000
2020-01-30,0.247,0.248,0.2,0.248,2000000
2020-01-31,0.24,0.24600000000000002,0.24,0.244,336000
2020-02-03,0.248,0.248,0.248,0.24,4000
2020-02-04,0.22,0.24,0.22,0.24,8200
2020-02-05,0.22,0.228,0.205,0.22,954600
2020-02-07,0.20600000000000002,0.228,0.20600000000000002,0.221,720000
2020-02-11,0.22699999999999998,0.22699999999999998,0.21600000000000003,0.22399999999999998,148000
2020-02-12,0.207,0.212,0.2,0.205,1360000
2020-02-13,0.2,0.2,0.196,0.196,228000
2020-02-17,0.195,0.19899999999999998,0.195,0.19699999999999998,24000
2020-02-18,0.19899999999999998,0.19899999999999998,0.185,0.187,552000
2020-02-19,0.182,0.207,0.182,0.2,676200
2020-02-20,0.2,0.2,0.19699999999999998,0.19699999999999998,3000
2020-02-21,0.19699999999999998,0.19699999999999998,0.195,0.195,244000
2020-02-25,0.195,0.195,0.195,0.195,320000
2020-02-26,0.195,0.195,0.19399999999999998,0.19399999999999998,160000
2020-02-27,0.19,0.192,0.19,0.192,188000
2020-02-28,0.192,0.19399999999999998,0.16699999999999998,0.19,1044000
2020-03-03,0.187,0.188,0.18600000000000003,0.18600000000000003,412000
2020-03-04,0.185,0.18600000000000003,0.185,0.18600000000000003,8016000
2020-03-05,0.165,0.183,0.16399999999999998,0.18100000000000002,128000
2020-03-06,0.171,0.187,0.165,0.18600000000000003,339200
2020-03-10,0.165,0.177,0.165,0.177,440000
2020-03-11,0.153,0.18100000000000002,0.14800000000000002,0.18100000000000002,1040000
2020-03-13,0.179,0.184,0.179,0.18100000000000002,236000
2020-03-17,0.124,0.18,0.124,0.177,404000
2020-03-18,0.17300000000000001,0.17600000000000002,0.17300000000000001,0.17600000000000002,284000
2020-03-19,0.177,0.22,0.177,0.212,2692000
2020-03-20,0.21,0.245,0.21,0.23600000000000002,3704000
2020-03-23,0.23600000000000002,0.249,0.22,0.22,980000
2020-03-24,0.23800000000000002,0.26,0.22899999999999998,0.23,1192000
2020-03-25,0.23,0.23,0.20600000000000002,0.22899999999999998,512000
2020-03-26,0.198,0.201,0.198,0.201,28000
2020-03-27,0.25,0.25,0.19899999999999998,0.23,398000
2020-03-30,0.215,0.22,0.215,0.22,308000
2020-03-31,0.20600000000000002,0.21,0.20199999999999999,0.21,392000
2020-04-01,0.20199999999999999,0.20199999999999999,0.2,0.2,504000
2020-04-02,0.209,0.215,0.2,0.201,608000
2020-04-03,0.198,0.21,0.198,0.209,16000
2020-04-06,0.2,0.20800000000000002,0.198,0.20800000000000002,332000
2020-04-07,0.20199999999999999,0.20199999999999999,0.174,0.18,420000
2020-04-08,0.184,0.184,0.16,0.16,3224000
2020-04-09,0.161,0.166,0.16,0.16,1864000
2020-04-14,0.163,0.185,0.16,0.16,2968000
2020-04-15,0.168,0.18,0.16,0.16,2812000
2020-04-16,0.165,0.165,0.16,0.16,1076000
2020-04-17,0.161,0.161,0.16,0.16,546700
2020-04-20,0.161,0.161,0.161,0.161,0
2020-04-21,0.16699999999999998,0.168,0.16,0.16,380000
2020-04-22,0.162,0.162,0.16,0.16,44000
2020-04-23,0.159,0.16,0.159,0.16,260000
2020-04-24,0.16,0.16,0.16,0.16,424000
2020-04-27,0.168,0.204,0.166,0.191,940000
2020-04-28,0.18,0.218,0.179,0.205,2708000
2020-04-29,0.201,0.22,0.201,0.21600000000000003,1420000
2020-05-04,0.21600000000000003,0.248,0.214,0.23800000000000002,696000
2020-05-05,0.237,0.239,0.22899999999999998,0.239,3100000
2020-05-06,0.223,0.223,0.223,0.223,0
2020-05-07,0.215,0.22,0.215,0.22,124000
2020-05-08,0.21,0.22,0.183,0.20800000000000002,1476000
2020-05-11,0.20800000000000002,0.235,0.20800000000000002,0.214,64000
2020-05-12,0.23,0.235,0.21,0.21,726000
2020-05-13,0.19,0.20199999999999999,0.188,0.19899999999999998,1760000
2020-05-14,0.191,0.20800000000000002,0.19,0.207,384000
2020-05-15,0.192,0.19899999999999998,0.18899999999999997,0.19399999999999998,204000
2020-05-18,0.195,0.209,0.195,0.20800000000000002,1016000
2020-05-19,0.196,0.215,0.191,0.20600000000000002,2400000
2020-05-20,0.205,0.20800000000000002,0.205,0.205,224000
2020-05-21,0.204,0.204,0.203,0.203,164000
2020-05-22,0.209,0.209,0.209,0.20800000000000002,4000
2020-05-25,0.205,0.205,0.205,0.205,0
2020-05-26,0.18899999999999997,0.209,0.18899999999999997,0.207,96000
2020-05-27,0.18899999999999997,0.20600000000000002,0.18899999999999997,0.20600000000000002,464000
2020-05-28,0.192,0.20600000000000002,0.18899999999999997,0.18899999999999997,232000
2020-05-29,0.19,0.195,0.183,0.185,104000
2020-06-01,0.18100000000000002,0.191,0.17300000000000001,0.174,12692000
2020-06-02,0.187,0.2,0.182,0.2,872000
2020-06-03,0.198,0.198,0.18100000000000002,0.184,296000
2020-06-04,0.17800000000000002,0.18,0.17800000000000002,0.18,296000
2020-06-05,0.171,0.18,0.17,0.18,208000
2020-06-08,0.17300000000000001,0.17300000000000001,0.17300000000000001,0.175,412000
2020-06-09,0.16399999999999998,0.185,0.163,0.16399999999999998,1392000
2020-06-10,0.175,0.175,0.172,0.175,1476000
2020-06-11,0.16,0.166,0.16,0.166,332000
2020-06-12,0.168,0.185,0.165,0.183,1508000
2020-06-15,0.17,0.18,0.17,0.171,48000
2020-06-16,0.171,0.19,0.17,0.17,688000
2020-06-17,0.17,0.175,0.17,0.17,498500
2020-06-18,0.161,0.163,0.161,0.163,336000
2020-06-19,0.17,0.17,0.153,0.154,152000
2020-06-22,0.16,0.18899999999999997,0.153,0.157,804000
2020-06-23,0.157,0.188,0.156,0.185,1104000
2020-06-24,0.185,0.215,0.16,0.198,18455600
2020-06-26,0.19899999999999998,0.19899999999999998,0.16699999999999998,0.193,544000
2020-06-29,0.177,0.198,0.17300000000000001,0.19399999999999998,1252000
2020-06-30,0.182,0.19899999999999998,0.182,0.19899999999999998,700000
2020-07-02,0.19399999999999998,0.19399999999999998,0.18,0.192,56000
2020-07-03,0.182,0.19899999999999998,0.175,0.19899999999999998,559200
2020-07-06,0.183,0.19899999999999998,0.183,0.195,88000
2020-07-07,0.195,0.207,0.187,0.195,288000
2020-07-08,0.187,0.21,0.187,0.2,97700
2020-07-09,0.188,0.20199999999999999,0.188,0.2,56000
2020-07-10,0.18899999999999997,0.18899999999999997,0.183,0.183,84000
2020-07-13,0.18600000000000003,0.18600000000000003,0.17300000000000001,0.174,9436000
2020-07-14,0.17600000000000002,0.17600000000000002,0.171,0.17300000000000001,244000
2020-07-15,0.174,0.174,0.166,0.17,8940000
2020-07-16,0.16699999999999998,0.168,0.161,0.161,13420000
2020-07-17,0.157,0.157,0.155,0.155,536000
2020-07-20,0.163,0.163,0.15,0.151,104000
2020-07-21,0.152,0.21899999999999997,0.151,0.21600000000000003,4548000
2020-07-22,0.2,0.21600000000000003,0.19,0.195,100640000
2020-07-23,0.195,0.195,0.168,0.168,976000
2020-07-24,0.151,0.168,0.149,0.158,7600000
2020-07-27,0.151,0.151,0.10400000000000001,0.121,21768000
2020-07-28,0.121,0.13,0.114,0.12300000000000001,3916000
2020-07-29,0.12,0.13,0.11900000000000001,0.125,4724000
2020-07-30,0.129,0.13,0.12,0.13,1044000
2020-07-31,0.13,0.13,0.121,0.128,13180000
2020-08-03,0.125,0.125,0.107,0.109,4620000
2020-08-04,0.109,0.11900000000000001,0.105,0.11699999999999999,4364000
2020-08-05,0.11,0.11599999999999999,0.109,0.114,5208000
2020-08-06,0.11,0.125,0.11,0.11800000000000001,2424000
2020-08-07,0.113,0.113,0.11,0.11199999999999999,276000
2020-08-10,0.115,0.121,0.11,0.121,1284000
2020-08-11,0.12,0.12,0.11199999999999999,0.113,5412000
2020-08-12,0.11199999999999999,0.12,0.11199999999999999,0.11800000000000001,3336000
2020-08-13,0.114,0.11800000000000001,0.113,0.11800000000000001,2564000
2020-08-14,0.113,0.11800000000000001,0.113,0.11800000000000001,712000
2020-08-17,0.128,0.138,0.124,0.134,2800000
2020-08-18,0.134,0.14400000000000002,0.127,0.13,432000
2020-08-19,0.13,0.13,0.13,0.13,284000
2020-08-20,0.13,0.13,0.13,0.13,0
2020-08-21,0.127,0.127,0.127,0.127,0
2020-08-24,0.11900000000000001,0.126,0.11900000000000001,0.126,14000
2020-08-25,0.126,0.126,0.115,0.122,576000
