Date,Open,High,Low,Close,Volume
2015-04-30,0.4,0.44,0.4,0.426,112500000
2015-05-04,0.44799999999999995,0.6,0.44799999999999995,0.5479999999999999,60725000
2015-05-05,0.54,0.54,0.47,0.504,39502500
2015-05-06,0.47,0.534,0.47,0.5,17000000
2015-05-07,0.494,0.52,0.48,0.5,32700000
2015-05-08,0.496,0.516,0.49,0.512,22800000
2015-05-11,0.514,0.53,0.47,0.518,16200000
2015-05-12,0.5,0.5,0.49200000000000005,0.498,1800000
2015-05-13,0.484,0.484,0.48,0.484,1200000
2015-05-14,0.47200000000000003,0.48,0.44,0.48,22300000
2015-05-15,0.46,0.46,0.45,0.46,1100000
2015-05-18,0.46,0.46,0.44,0.44,1600000
2015-05-19,0.44,0.44,0.44,0.44,2900000
2015-05-20,0.44,0.46399999999999997,0.43799999999999994,0.46,1600000
2015-05-21,0.512,0.512,0.42,0.44,3000000
2015-05-22,0.49,0.49,0.4,0.436,11500000
2015-05-26,0.436,0.442,0.41,0.42200000000000004,1900000
2015-05-27,0.4,0.46,0.4,0.45399999999999996,3100000
2015-05-28,0.48,0.48,0.42,0.42,600000
2015-05-29,0.42,0.46,0.42,0.452,907500
2015-06-01,0.456,0.47600000000000003,0.452,0.46799999999999997,3800000
2015-06-02,0.46799999999999997,0.46799999999999997,0.44,0.456,4300000
2015-06-03,0.45399999999999996,0.456,0.45399999999999996,0.456,200000
2015-06-04,0.456,0.456,0.42,0.426,900000
2015-06-05,0.46,0.462,0.442,0.446,500000
2015-06-08,0.48,0.48,0.44,0.444,1300000
2015-06-09,0.444,0.444,0.44,0.442,5200000
2015-06-10,0.442,0.48,0.4,0.442,34600000
2015-06-11,0.45,0.45,0.45,0.45,3200000
2015-06-15,0.426,0.426,0.426,0.426,100000
2015-06-16,0.43,0.44,0.43,0.44,500000
2015-06-17,0.45799999999999996,0.45799999999999996,0.456,0.456,400000
2015-06-18,0.42200000000000004,0.45,0.42200000000000004,0.45,300000
2015-06-19,0.44,0.44,0.44,0.44,300050
2015-06-22,0.40399999999999997,0.41600000000000004,0.4,0.42,1000000
2015-06-23,0.41200000000000003,0.452,0.41200000000000003,0.452,20900000
2015-06-24,0.45399999999999996,0.47600000000000003,0.45,0.47,57600000
2015-06-25,0.47,0.47,0.47,0.47,400000
2015-06-26,0.442,0.48,0.442,0.46,2800000
2015-06-29,0.43799999999999994,0.43799999999999994,0.43799999999999994,0.43799999999999994,100000
2015-07-02,0.43,0.43,0.40399999999999997,0.41,900000
2015-07-03,0.402,0.402,0.38,0.38,2000000
2015-07-06,0.37799999999999995,0.37799999999999995,0.332,0.332,900000
2015-07-07,0.332,0.35,0.332,0.35,40700000
2015-07-08,0.308,0.308,0.308,0.308,100000
2015-07-09,0.308,0.332,0.308,0.32,29800000
2015-07-10,0.326,0.326,0.324,0.324,400000
2015-07-13,0.324,0.336,0.324,0.336,7800000
2015-07-14,0.336,0.336,0.336,0.336,19700000
2015-07-15,0.336,0.35,0.336,0.35,34400000
2015-07-16,0.336,0.336,0.336,0.336,100000
2015-07-17,0.33399999999999996,0.34600000000000003,0.33399999999999996,0.34600000000000003,64300000
2015-07-20,0.34,0.34,0.34,0.34,200000
2015-07-21,0.34,0.34,0.34,0.34,200000
2015-07-24,0.37200000000000005,0.37200000000000005,0.37200000000000005,0.37200000000000005,100000
2015-07-27,0.36,0.36,0.33799999999999997,0.33799999999999997,8800000
2015-07-28,0.34,0.34,0.34,0.34,100000
2015-07-30,0.34,0.34,0.34,0.34,1700000
2015-07-31,0.3,0.3,0.3,0.3,100000
2015-08-03,0.3,0.3,0.18,0.19399999999999998,7500000
2015-08-04,0.22,0.266,0.162,0.2,1600000
2015-08-07,0.20199999999999999,0.25,0.198,0.218,2500000
2015-08-10,0.22399999999999998,0.22399999999999998,0.20600000000000002,0.20600000000000002,400000
2015-08-11,0.2,0.2,0.2,0.2,100000
2015-08-12,0.198,0.2,0.198,0.198,15400000
2015-08-13,0.22399999999999998,0.22399999999999998,0.2,0.20199999999999999,11700000
2015-08-14,0.20199999999999999,0.268,0.20199999999999999,0.24,1700000
2015-08-17,0.21,0.21,0.20199999999999999,0.204,900000
2015-08-18,0.222,0.24,0.2,0.214,1200000
2015-08-21,0.20199999999999999,0.20199999999999999,0.20199999999999999,0.20199999999999999,300000
2015-08-24,0.198,0.20199999999999999,0.198,0.20199999999999999,1000000
2015-08-26,0.2,0.2,0.2,0.2,100000
2015-08-27,0.22399999999999998,0.22399999999999998,0.22399999999999998,0.222,100000
2015-08-31,0.204,0.204,0.204,0.20600000000000002,100000
2015-09-01,0.20600000000000002,0.20600000000000002,0.20600000000000002,0.20600000000000002,100000
2015-09-02,0.20600000000000002,0.20600000000000002,0.20600000000000002,0.20600000000000002,100000
2015-09-07,0.22,0.22,0.218,0.218,300000
2015-09-09,0.20600000000000002,0.20600000000000002,0.20600000000000002,0.20600000000000002,500000
2015-09-10,0.218,0.218,0.218,0.218,500000
2015-09-14,0.212,0.212,0.212,0.212,20000000
2015-09-16,0.2,0.212,0.2,0.212,28500000
2015-09-17,0.212,0.212,0.2,0.2,21000000
2015-09-18,0.2,0.20600000000000002,0.2,0.20600000000000002,20500000
2015-09-21,0.21,0.21,0.21,0.21,40000000
2015-09-22,0.21,0.21,0.21,0.21,96700000
2015-09-23,0.20800000000000002,0.20800000000000002,0.20800000000000002,0.20800000000000002,20000000
2015-09-24,0.20600000000000002,0.20600000000000002,0.20600000000000002,0.20600000000000002,50100000
2015-09-29,0.21,0.21,0.21,0.21,10000000
2015-09-30,0.22,0.256,0.21600000000000003,0.256,1300000
2015-10-02,0.254,0.254,0.254,0.254,100000
2015-10-05,0.25,0.25,0.2,0.2,1900000
2015-10-06,0.2,0.20600000000000002,0.2,0.20600000000000002,14100000
2015-10-07,0.2,0.2,0.2,0.2,1800000
2015-10-08,0.2,0.2,0.2,0.2,2400000
2015-10-09,0.20800000000000002,0.20800000000000002,0.2,0.2,2400000
2015-10-12,0.2,0.2,0.2,0.2,2100000
2015-10-13,0.198,0.198,0.198,0.198,200000
2015-10-14,0.2,0.20800000000000002,0.198,0.2,18100000
2015-10-15,0.2,0.2,0.2,0.2,500000
2015-10-16,0.204,0.204,0.204,0.204,100000
2015-10-19,0.2,0.2,0.2,0.2,200000
2015-10-20,0.2,0.22,0.2,0.2,1400000
2015-10-22,0.22,0.22,0.22,0.218,17500000
2015-10-23,0.21600000000000003,0.21600000000000003,0.2,0.20199999999999999,28800000
2015-10-26,0.204,0.212,0.204,0.212,300000
2015-10-27,0.20600000000000002,0.20600000000000002,0.20600000000000002,0.20600000000000002,100000
2015-10-28,0.21,0.21,0.21,0.21,100000
2015-11-02,0.20800000000000002,0.20800000000000002,0.20800000000000002,0.20800000000000002,200000
2015-11-03,0.20800000000000002,0.20800000000000002,0.20800000000000002,0.20800000000000002,100000
2015-11-05,0.20199999999999999,0.20199999999999999,0.20199999999999999,0.20199999999999999,100000
2015-11-06,0.20600000000000002,0.20600000000000002,0.20600000000000002,0.21,100000
2015-11-09,0.21600000000000003,0.21600000000000003,0.21,0.21,600000
2015-11-10,0.20800000000000002,0.22,0.20199999999999999,0.21,31300000
2015-11-11,0.22,0.22,0.22,0.22,25300000
2015-11-12,0.22,0.22,0.212,0.22,25600000
2015-11-13,0.22399999999999998,0.22399999999999998,0.22399999999999998,0.22399999999999998,100000
2015-11-16,0.24,0.3,0.24,0.284,3300000
2015-11-17,0.23,0.23,0.23,0.278,300000
2015-11-18,0.28,0.28,0.28,0.28,500000
2015-11-20,0.294,0.294,0.294,0.306,100000
2015-11-23,0.33,0.33,0.33,0.33,100000
2015-11-24,0.33,0.38,0.33,0.38,600000
2015-11-25,0.38,0.38,0.38,0.38,500000
2015-11-26,0.37799999999999995,0.38,0.37799999999999995,0.38,44600000
2015-12-01,0.3,0.37200000000000005,0.3,0.35,200000
2015-12-02,0.36,0.36,0.35600000000000004,0.358,16600000
2015-12-07,0.35,0.35,0.35,0.35,100000
2015-12-08,0.358,0.36,0.358,0.358,200000
2015-12-09,0.35,0.35,0.35,0.35,100000
2015-12-14,0.34600000000000003,0.35,0.33799999999999997,0.348,27200000
2015-12-16,0.34600000000000003,0.34600000000000003,0.33799999999999997,0.34,46600000
2015-12-17,0.3,0.3,0.29,0.3,36000000
2015-12-18,0.3,0.3,0.298,0.3,1300000
2015-12-22,0.31,0.31,0.3,0.31,61500000
2015-12-23,0.32,0.32,0.32,0.32,32800000
2015-12-24,0.32,0.32,0.32,0.32,28500000
2015-12-28,0.32,0.32,0.3,0.3,32900000
2015-12-29,0.32,0.35,0.3,0.332,42500000
2015-12-30,0.34,0.36,0.34,0.35,31500000
2015-12-31,0.37,0.38,0.37,0.38,35100000
2016-01-04,0.38,0.396,0.35600000000000004,0.36,12400000
2016-01-05,0.374,0.374,0.37200000000000005,0.374,25700000
2016-01-06,0.366,0.374,0.366,0.374,25600000
2016-01-07,0.36200000000000004,0.382,0.36,0.38,20100000
2016-01-08,0.382,0.392,0.382,0.39,500000
2016-01-11,0.38,0.4,0.37799999999999995,0.396,68300000
2016-01-12,0.4,0.42,0.39,0.39,16000000
2016-01-13,0.38799999999999996,0.406,0.37799999999999995,0.402,500000
2016-01-14,0.402,0.402,0.396,0.39,200000
2016-01-18,0.374,0.374,0.36,0.36,300000
2016-01-19,0.36,0.36,0.36,0.36,12600000
2016-01-20,0.39,0.39,0.374,0.39,700000
2016-01-21,0.386,0.386,0.36,0.38,2900000
2016-01-22,0.342,0.38,0.342,0.36,12600000
2016-01-25,0.36200000000000004,0.38,0.36200000000000004,0.38,700000
2016-01-26,0.382,0.39,0.382,0.38799999999999996,300000
2016-01-27,0.38799999999999996,0.38799999999999996,0.37799999999999995,0.37799999999999995,50100000
2016-01-28,0.41,0.41,0.38,0.38,600000
2016-01-29,0.374,0.38,0.344,0.38,45400000
2016-02-01,0.374,0.39799999999999996,0.374,0.38,500000
2016-02-02,0.36200000000000004,0.37799999999999995,0.35,0.37,41000000
2016-02-04,0.37,0.374,0.364,0.364,33600000
2016-02-11,0.354,0.354,0.354,0.354,100000
2016-02-15,0.33799999999999997,0.358,0.33799999999999997,0.358,29600000
2016-02-17,0.358,0.358,0.358,0.358,200000
2016-02-24,0.35200000000000004,0.36,0.35,0.35,16400000
2016-02-25,0.36,0.36,0.36,0.36,1000000
2016-02-26,0.35600000000000004,0.35600000000000004,0.35600000000000004,0.35600000000000004,300000
2016-02-29,0.35600000000000004,0.35600000000000004,0.35600000000000004,0.35600000000000004,200000
2016-03-01,0.35,0.35,0.35,0.35,14000000
2016-03-02,0.35,0.376,0.35,0.374,1100000
2016-03-07,0.368,0.368,0.368,0.368,300000
2016-03-08,0.332,0.34,0.33,0.34,1200000
2016-03-10,0.35,0.36,0.322,0.348,3200000
2016-03-11,0.322,0.324,0.322,0.324,1000000
2016-03-15,0.32,0.33,0.32,0.32799999999999996,1900000
2016-03-16,0.318,0.32,0.318,0.32,700000
2016-03-17,0.32,0.34,0.32,0.34,1300000
2016-03-18,0.33799999999999997,0.34,0.33799999999999997,0.33799999999999997,200000
2016-03-21,0.33799999999999997,0.34,0.33799999999999997,0.34,900000
2016-03-22,0.34,0.348,0.33799999999999997,0.33799999999999997,1000000
2016-03-23,0.33799999999999997,0.35,0.33799999999999997,0.348,1300000
2016-03-24,0.35,0.35,0.35,0.35,500000
2016-04-05,0.324,0.35,0.324,0.35,3200000
2016-04-06,0.35,0.35,0.34,0.35,10700000
2016-04-07,0.33,0.332,0.326,0.332,2200000
2016-04-08,0.324,0.33,0.324,0.33,1800000
2016-04-11,0.314,0.314,0.31,0.312,500000
2016-04-12,0.32,0.32,0.32,0.32,200000
2016-04-13,0.318,0.32,0.318,0.32,6500000
2016-04-18,0.33,0.33,0.32,0.32,1500000
2016-04-20,0.33,0.33,0.33,0.33,100000
2016-04-21,0.33,0.33,0.33,0.33,2900000
2016-04-25,0.33,0.33,0.33,0.33,15600000
2016-04-26,0.32,0.32,0.32,0.32,100000
2016-05-17,0.27399999999999997,0.27399999999999997,0.27399999999999997,0.276,200000
2016-05-18,0.28,0.29,0.28,0.29,300000
2016-05-23,0.29,0.3,0.29,0.3,1100000
2016-05-24,0.31,0.33,0.31,0.33,17100000
2016-05-27,0.33,0.33,0.33,0.33,21800000
2016-05-30,0.33,0.33,0.318,0.33,4400000
2016-05-31,0.32799999999999996,0.33,0.32799999999999996,0.33,9700000
2016-06-01,0.33,0.33,0.32,0.33,19300000
2016-06-02,0.35600000000000004,0.35600000000000004,0.33,0.34,14400000
2016-06-03,0.34,0.34,0.34,0.34,9100000
2016-06-06,0.35,0.36,0.35,0.36,9100000
2016-06-07,0.36,0.37,0.36,0.37,13100000
2016-06-08,0.396,0.396,0.368,0.368,22400000
2016-06-10,0.38,0.384,0.38,0.382,1200000
2016-06-13,0.36200000000000004,0.36200000000000004,0.36,0.36,500000
2016-06-14,0.37799999999999995,0.38,0.37799999999999995,0.37799999999999995,200000
2016-06-15,0.36,0.36,0.36,0.364,500000
2016-06-16,0.36,0.376,0.36,0.376,12700000
2016-06-17,0.37799999999999995,0.39,0.374,0.376,11400000
2016-06-20,0.36,0.37,0.36,0.36,800000
2016-06-21,0.35,0.35,0.342,0.342,500000
2016-06-22,0.34,0.344,0.308,0.324,13000000
2016-06-23,0.302,0.33399999999999996,0.302,0.33399999999999996,3600000
2016-06-24,0.32799999999999996,0.32799999999999996,0.304,0.32,4700000
2016-06-27,0.32,0.33,0.32,0.33,200000
2016-06-28,0.33,0.33,0.33,0.33,2000000
2016-06-30,0.33,0.33,0.33,0.33,1000000
2016-07-04,0.33,0.336,0.33,0.336,9100000
2016-07-05,0.34,0.35,0.34,0.34,53300000
2016-07-06,0.36,0.36,0.33399999999999996,0.34,18200000
2016-07-07,0.34,0.364,0.34,0.374,1500000
2016-07-08,0.395,0.4,0.395,0.395,300000
2016-07-11,0.395,0.4,0.39,0.4,15700000
2016-07-12,0.4,0.4,0.385,0.39,34400000
2016-07-13,0.39,0.395,0.385,0.395,4300000
2016-07-14,0.4,0.4,0.39,0.39,34800000
2016-07-15,0.395,0.395,0.385,0.385,300000
2016-07-19,0.38,0.38,0.38,0.38,100000
2016-07-20,0.38,0.38,0.38,0.38,3100000
2016-07-21,0.375,0.375,0.375,0.375,500000
2016-07-22,0.38,0.38,0.375,0.375,200000
2016-07-25,0.385,0.4,0.385,0.4,2600000
2016-07-26,0.375,0.375,0.375,0.375,60000
2016-07-29,0.375,0.375,0.375,0.375,100000
2016-08-05,0.355,0.355,0.355,0.355,120000
2016-08-12,0.35,0.39,0.35,0.385,5720000
2016-08-15,0.385,0.4,0.385,0.4,1340000
2016-08-16,0.4,0.4,0.4,0.395,100000
2016-08-18,0.365,0.4,0.365,0.38,15440000
2016-08-19,0.38,0.385,0.38,0.385,10980000
2016-08-22,0.375,0.38,0.375,0.375,8300000
2016-08-23,0.38,0.4,0.38,0.395,35900000
2016-08-24,0.4,0.4,0.39,0.39,25300000
2016-08-25,0.395,0.43,0.39,0.43,28500000
2016-08-26,0.43,0.43,0.41,0.43,21340000
2016-08-29,0.43,0.43,0.415,0.43,17940000
2016-08-30,0.43,0.43,0.425,0.43,3040000
2016-08-31,0.425,0.45,0.39,0.445,10160000
2016-09-01,0.44,0.46,0.425,0.455,32460000
2016-09-02,0.455,0.455,0.44,0.45,18840000
2016-09-05,0.445,0.445,0.425,0.435,17620000
2016-09-06,0.43,0.44,0.405,0.44,23360000
2016-09-07,0.45,0.47,0.43,0.465,42220000
2016-09-08,0.46,0.465,0.455,0.455,11680000
2016-09-09,0.45,0.475,0.445,0.47,36720000
2016-09-12,0.465,0.465,0.46,0.465,33160000
2016-09-13,0.47,0.485,0.47,0.485,24860000
2016-09-14,0.485,0.495,0.485,0.495,19580000
2016-09-15,0.495,0.495,0.475,0.49,28560000
2016-09-19,0.495,0.51,0.475,0.51,31740000
2016-09-20,0.5,0.51,0.495,0.5,10020000
2016-09-21,0.495,0.52,0.485,0.52,19340000
2016-09-22,0.52,0.52,0.5,0.52,17840000
2016-09-23,0.51,0.52,0.495,0.51,22920000
2016-09-26,0.5,0.5,0.485,0.495,19600000
2016-09-27,0.5,0.5,0.475,0.475,19900000
2016-09-28,0.465,0.475,0.45,0.45,22720000
2016-09-29,0.455,0.48,0.455,0.46,20460000
2016-09-30,0.455,0.47,0.445,0.45,21540000
2016-10-03,0.45,0.485,0.44,0.485,19500000
2016-10-04,0.485,0.5,0.465,0.5,19660000
2016-10-05,0.495,0.495,0.465,0.48,15700000
2016-10-06,0.46,0.475,0.445,0.47,17180000
2016-10-07,0.47,0.47,0.455,0.455,20680000
2016-10-11,0.48,0.48,0.445,0.465,2760000
2016-10-12,0.44,0.475,0.435,0.475,19440000
2016-10-13,0.47,0.47,0.445,0.465,18800000
2016-10-14,0.46,0.46,0.44,0.45,20260000
2016-10-17,0.455,0.455,0.44,0.45,20820000
2016-10-18,0.45,0.46,0.435,0.445,20380000
2016-10-19,0.445,0.445,0.435,0.44,20540000
2016-10-20,0.435,0.435,0.42,0.425,21360000
2016-10-24,0.41,0.44,0.41,0.415,22580000
2016-10-25,0.42,0.435,0.36,0.42,18520000
2016-10-26,0.415,0.415,0.38,0.39,22980000
2016-10-27,0.39,0.435,0.385,0.43,58800000
2016-10-28,0.42,0.46,0.415,0.45,23820000
2016-10-31,0.435,0.45,0.39,0.39,24100000
2016-11-01,0.395,0.405,0.385,0.395,28400000
2016-11-02,0.385,0.405,0.38,0.405,21620000
2016-11-03,0.4,0.435,0.4,0.41,25180000
2016-11-04,0.4,0.42,0.375,0.42,36000000
2016-11-07,0.42,0.435,0.395,0.435,41060000
2016-11-08,0.43,0.455,0.405,0.42,78800000
2016-11-09,0.415,0.42,0.385,0.4,67820000
2016-11-10,0.4,0.405,0.375,0.39,63860000
2016-11-11,0.39,0.395,0.375,0.39,66360000
2016-11-14,0.385,0.39,0.36,0.37,54220000
2016-11-15,0.365,0.375,0.355,0.37,50660000
2016-11-16,0.37,0.39,0.355,0.365,44260000
2016-11-17,0.36,0.39,0.36,0.39,67040000
2016-11-18,0.38,0.445,0.375,0.435,102580000
2016-11-21,0.43,0.44,0.41,0.435,52100000
2016-11-22,0.43,0.435,0.41,0.42,24900000
2016-11-23,0.415,0.425,0.405,0.42,41240000
2016-11-24,0.41,0.42,0.375,0.38,52500000
2016-11-25,0.38,0.445,0.36,0.43,56160000
2016-11-28,0.415,0.44,0.41,0.44,43280000
2016-11-29,0.44,0.445,0.435,0.435,15640000
2016-11-30,0.45,0.45,0.405,0.425,34200000
2016-12-01,0.425,0.425,0.385,0.39,37380000
2016-12-02,0.39,0.4,0.365,0.395,35980000
2016-12-05,0.39,0.42,0.38,0.42,67560000
2016-12-06,0.415,0.42,0.375,0.38,39980000
2016-12-07,0.375,0.38,0.37,0.38,36260000
2016-12-08,0.38,0.405,0.37,0.405,45620000
2016-12-09,0.405,0.415,0.4,0.405,45000000
2016-12-12,0.405,0.415,0.395,0.415,42560000
2016-12-13,0.41,0.41,0.38,0.395,30780000
2016-12-14,0.39,0.41,0.385,0.4,43280000
2016-12-15,0.39,0.405,0.39,0.395,35960000
2016-12-16,0.39,0.395,0.38,0.395,41680000
2016-12-19,0.39,0.395,0.38,0.385,37220000
2016-12-20,0.385,0.395,0.38,0.395,36020000
2016-12-21,0.39,0.4,0.385,0.4,50960000
2016-12-22,0.395,0.4,0.39,0.4,34500000
2016-12-23,0.395,0.4,0.395,0.395,30840000
2016-12-28,0.395,0.4,0.39,0.4,35420000
2016-12-29,0.4,0.4,0.38,0.39,37480000
2016-12-30,0.39,0.39,0.37,0.385,35860000
2017-01-03,0.385,0.395,0.38,0.39,26560000
2017-01-04,0.39,0.405,0.385,0.395,32250000
2017-01-05,0.39,0.47,0.39,0.47,70340000
2017-01-06,0.47,0.63,0.465,0.58,69800000
2017-01-09,0.57,0.6,0.51,0.53,35300000
2017-01-10,0.54,0.56,0.53,0.53,34500000
2017-01-11,0.53,0.55,0.46,0.495,47380000
2017-01-12,0.485,0.51,0.475,0.48,39520000
2017-01-13,0.495,0.5,0.485,0.495,57680000
2017-01-16,0.5,0.5,0.48,0.5,50400000
2017-01-17,0.5,0.53,0.495,0.52,22760000
2017-01-18,0.53,0.56,0.53,0.54,59940000
2017-01-19,0.54,0.57,0.53,0.57,38520000
2017-01-20,0.57,0.61,0.57,0.6,62980000
2017-01-23,0.56,0.6,0.56,0.59,37660000
2017-01-24,0.58,0.6,0.55,0.56,51120000
2017-01-25,0.57,0.59,0.55,0.56,54320000
2017-01-26,0.55,0.57,0.54,0.55,58700000
2017-01-27,0.55,0.57,0.54,0.55,50880000
2017-02-01,0.55,0.56,0.51,0.52,41880000
2017-02-02,0.51,0.53,0.5,0.52,46180000
2017-02-03,0.51,0.52,0.5,0.52,38604952
2017-02-06,0.52,0.53,0.44,0.455,47480000
2017-02-07,0.445,0.445,0.29,0.405,88680000
2017-02-08,0.415,0.45,0.39,0.445,14001000
2017-02-09,0.45,0.475,0.445,0.475,16640000
2017-02-10,0.47,0.48,0.45,0.47,25000000
2017-02-13,0.455,0.47,0.43,0.445,29020000
2017-02-14,0.45,0.46,0.44,0.45,13520000
2017-02-15,0.455,0.455,0.445,0.45,3420000
2017-02-16,0.45,0.46,0.45,0.45,11440000
2017-02-17,0.45,0.45,0.4,0.43,26820000
2017-02-20,0.42,0.425,0.405,0.41,28820000
2017-02-21,0.41,0.415,0.405,0.405,16000000
2017-02-22,0.405,0.425,0.405,0.425,42560000
2017-02-23,0.42,0.42,0.405,0.405,39810000
2017-02-24,0.405,0.405,0.38,0.4,12700000
2017-02-27,0.39,0.41,0.39,0.395,13840000
2017-02-28,0.385,0.385,0.335,0.375,34700000
2017-03-01,0.37,0.395,0.295,0.3,76480000
2017-03-02,0.31,0.335,0.305,0.315,54140000
2017-03-03,0.315,0.335,0.315,0.32,42260000
2017-03-06,0.315,0.325,0.315,0.315,26520000
2017-03-07,0.315,0.315,0.295,0.3,38560000
2017-03-08,0.3,0.305,0.255,0.305,31560000
2017-03-09,0.29,0.295,0.27,0.295,17920000
2017-03-10,0.295,0.305,0.285,0.295,17980000
2017-03-13,0.285,0.295,0.28,0.29,16640000
2017-03-14,0.29,0.335,0.285,0.285,12300000
2017-03-15,0.28,0.285,0.28,0.285,14940000
2017-03-16,0.295,0.295,0.28,0.28,380000
2017-03-17,0.275,0.285,0.265,0.28,10820000
2017-03-20,0.285,0.295,0.28,0.295,15240000
2017-03-21,0.295,0.31,0.29,0.29,5080000
2017-03-22,0.28,0.29,0.265,0.28,13680000
2017-03-23,0.28,0.28,0.28,0.28,7860000
2017-03-24,0.28,0.28,0.27,0.27,8820000
2017-03-27,0.275,0.28,0.27,0.275,23720000
2017-03-28,0.275,0.295,0.275,0.28,32380000
2017-03-29,0.285,0.285,0.28,0.28,11780000
2017-03-30,0.28,0.29,0.265,0.265,45540000
2017-03-31,0.28,0.295,0.265,0.27,51360000
2017-04-03,0.28,0.31,0.28,0.3,31780000
2017-04-05,0.3,0.3,0.27,0.28,50360000
2017-04-06,0.29,0.29,0.28,0.285,55540000
2017-04-07,0.285,0.29,0.28,0.285,43620000
2017-04-10,0.28,0.285,0.275,0.275,74840000
2017-04-11,0.275,0.275,0.27,0.27,46400000
2017-04-12,0.27,0.275,0.27,0.27,43100000
2017-04-13,0.27,0.27,0.265,0.27,61260000
2017-04-18,0.275,0.33,0.275,0.315,47930000
2017-04-19,0.3,0.33,0.295,0.33,60340000
2017-04-20,0.33,0.34,0.315,0.335,49700000
2017-04-21,0.325,0.34,0.325,0.33,36000000
2017-04-24,0.32,0.33,0.315,0.325,57820000
2017-04-25,0.31,0.335,0.3,0.335,59680000
2017-04-26,0.33,0.365,0.32,0.325,53940000
2017-04-27,0.325,0.33,0.315,0.32,2120000
2017-04-28,0.325,0.365,0.325,0.355,112700000
2017-05-02,0.355,0.365,0.34,0.36,65060000
2017-05-04,0.355,0.365,0.35,0.365,24360000
2017-05-05,0.36,0.38,0.325,0.38,24340000
2017-05-08,0.36,0.37,0.355,0.36,22940000
2017-05-09,0.36,0.36,0.355,0.36,30100000
2017-05-10,0.36,0.375,0.355,0.36,22700000
2017-05-11,0.355,0.37,0.34,0.36,21240000
2017-05-12,0.35,0.375,0.345,0.37,28460000
2017-05-15,0.37,0.37,0.355,0.365,20580000
2017-05-16,0.36,0.36,0.33,0.36,20480000
2017-05-17,0.345,0.36,0.34,0.355,23120000
2017-05-18,0.355,0.38,0.345,0.38,21560000
2017-05-19,0.38,0.4,0.355,0.395,19880000
2017-05-22,0.385,0.41,0.385,0.41,22240000
2017-05-23,0.415,0.42,0.4,0.41,20100000
2017-05-24,0.395,0.41,0.395,0.41,17280000
2017-05-25,0.41,0.425,0.395,0.41,27720000
2017-05-26,0.42,0.42,0.4,0.42,22120000
2017-05-29,0.42,0.42,0.4,0.415,25080000
2017-05-31,0.405,0.41,0.4,0.4,25960000
2017-06-01,0.4,0.405,0.395,0.405,27980000
2017-06-02,0.4,0.42,0.395,0.42,37940000
2017-06-05,0.415,0.415,0.405,0.41,26460000
2017-06-06,0.405,0.41,0.395,0.41,21500000
2017-06-07,0.405,0.405,0.38,0.395,22340000
2017-06-08,0.385,0.39,0.38,0.39,25420000
2017-06-09,0.4,0.405,0.39,0.4,20020000
2017-06-12,0.395,0.405,0.395,0.405,21240000
2017-06-13,0.4,0.405,0.395,0.4,23160000
2017-06-14,0.39,0.4,0.39,0.39,26580000
2017-06-15,0.395,0.4,0.385,0.4,24280000
2017-06-16,0.395,0.4,0.39,0.4,21680000
2017-06-19,0.395,0.41,0.39,0.41,26380000
2017-06-20,0.405,0.405,0.385,0.4,30640000
2017-06-21,0.39,0.395,0.385,0.395,28840000
2017-06-22,0.39,0.395,0.385,0.395,20940000
2017-06-23,0.39,0.39,0.375,0.385,49260000
2017-06-26,0.38,0.385,0.37,0.385,21640000
2017-06-27,0.375,0.38,0.37,0.38,43900000
2017-06-28,0.375,0.38,0.365,0.37,21700000
2017-06-29,0.375,0.38,0.37,0.38,26160000
2017-06-30,0.37,0.43,0.35,0.42,62180000
2017-07-03,0.405,0.415,0.395,0.4,23180000
2017-07-04,0.39,0.395,0.375,0.385,28460000
2017-07-05,0.385,0.395,0.385,0.39,22160000
2017-07-06,0.385,0.385,0.38,0.385,21360000
2017-07-07,0.38,0.385,0.375,0.38,23940000
2017-07-10,0.375,0.395,0.375,0.38,25480000
2017-07-11,0.375,0.38,0.37,0.375,19240000
2017-07-12,0.375,0.375,0.365,0.365,22500000
2017-07-13,0.365,0.37,0.36,0.365,20640000
2017-07-14,0.36,0.36,0.35,0.355,20340000
2017-07-17,0.35,0.355,0.335,0.345,11380000
2017-07-18,0.345,0.345,0.33,0.33,12380000
2017-07-19,0.335,0.355,0.335,0.34,15960000
2017-07-20,0.33,0.34,0.33,0.335,10460000
2017-07-21,0.33,0.345,0.33,0.345,12920000
2017-07-24,0.34,0.34,0.335,0.335,29740000
2017-07-25,0.335,0.335,0.32,0.325,22580000
2017-07-26,0.33,0.35,0.325,0.33,21880000
2017-07-27,0.325,0.325,0.315,0.32,21600000
2017-07-28,0.32,0.375,0.31,0.33,13760000
2017-07-31,0.33,0.335,0.305,0.315,10020000
2017-08-01,0.33,0.345,0.315,0.345,20220000
2017-08-02,0.32,0.32,0.31,0.32,19140000
2017-08-03,0.315,0.315,0.305,0.31,35240000
2017-08-04,0.31,0.32,0.3,0.31,23320000
2017-08-07,0.31,0.315,0.31,0.31,22900000
2017-08-08,0.31,0.315,0.305,0.31,18800000
2017-08-09,0.305,0.305,0.295,0.3,18380000
2017-08-10,0.3,0.305,0.295,0.295,21720000
2017-08-11,0.305,0.305,0.285,0.285,12280000
2017-08-14,0.29,0.345,0.28,0.345,21580000
2017-08-15,0.34,0.34,0.295,0.3,17560000
2017-08-16,0.29,0.295,0.29,0.29,13990000
2017-08-17,0.29,0.295,0.28,0.29,12060000
2017-08-18,0.285,0.29,0.28,0.28,19460000
2017-08-21,0.28,0.285,0.275,0.28,13100000
2017-08-22,0.27,0.28,0.27,0.275,10920000
2017-08-24,0.27,0.275,0.27,0.275,18500000
2017-08-25,0.27,0.285,0.27,0.285,13960000
2017-08-28,0.275,0.295,0.275,0.295,10200000
2017-08-29,0.285,0.29,0.28,0.285,29020000
2017-08-30,0.28,0.28,0.275,0.28,17900000
2017-08-31,0.27,0.275,0.265,0.27,10040000
2017-09-01,0.26,0.265,0.26,0.26,8360000
2017-09-04,0.26,0.27,0.255,0.27,9780000
2017-09-05,0.265,0.27,0.255,0.27,8960000
2017-09-06,0.265,0.265,0.26,0.265,21560000
2017-09-07,0.265,0.275,0.26,0.26,37260000
2017-09-08,0.26,0.32,0.26,0.32,14100000
2017-09-11,0.325,0.33,0.28,0.305,19820000
2017-09-12,0.29,0.31,0.265,0.305,57560000
2017-09-13,0.285,0.285,0.26,0.27,28820000
2017-09-14,0.265,0.27,0.255,0.27,17420000
2017-09-15,0.27,0.27,0.255,0.26,34300000
2017-09-18,0.26,0.265,0.255,0.265,10620000
2017-09-19,0.265,0.295,0.265,0.285,14060000
2017-09-20,0.285,0.29,0.26,0.265,22700000
2017-09-21,0.265,0.29,0.265,0.29,35120000
2017-09-22,0.29,0.3,0.275,0.3,30440000
2017-09-25,0.295,0.32,0.28,0.315,20320000
2017-09-26,0.315,0.315,0.28,0.285,35720000
2017-09-27,0.28,0.29,0.28,0.29,21580000
2017-09-28,0.285,0.3,0.28,0.3,58690000
2017-09-29,0.3,0.3,0.29,0.3,44800000
2017-10-03,0.295,0.3,0.285,0.295,43160000
2017-10-04,0.295,0.31,0.295,0.3,60780000
2017-10-06,0.3,0.3,0.29,0.3,30540000
2017-10-09,0.3,0.3,0.295,0.3,30960000
2017-10-10,0.3,0.3,0.28,0.29,27500000
2017-10-11,0.285,0.29,0.275,0.29,27620000
2017-10-12,0.29,0.29,0.28,0.29,76560000
2017-10-13,0.29,0.29,0.275,0.285,98160000
2017-10-16,0.285,0.285,0.27,0.275,30220000
2017-10-17,0.28,0.285,0.28,0.28,34680000
2017-10-18,0.285,0.3,0.28,0.28,28880000
2017-10-19,0.285,0.285,0.27,0.28,44020000
2017-10-20,0.28,0.31,0.275,0.31,40440000
2017-10-23,0.31,0.345,0.31,0.335,34580000
2017-10-24,0.34,0.355,0.34,0.355,30020000
2017-10-25,0.36,0.365,0.345,0.35,22460000
2017-10-26,0.34,0.35,0.335,0.34,14820000
2017-10-27,0.32,0.35,0.32,0.35,30180000
2017-10-30,0.35,0.38,0.34,0.38,30540000
2017-10-31,0.375,0.4,0.34,0.4,32460000
2017-11-01,0.39,0.395,0.36,0.39,36580000
2017-11-02,0.39,0.39,0.35,0.35,39300000
2017-11-03,0.345,0.35,0.34,0.35,47840000
2017-11-06,0.35,0.355,0.31,0.34,41740000
2017-11-07,0.33,0.345,0.315,0.32,34740000
2017-11-08,0.32,0.33,0.315,0.315,24780000
2017-11-09,0.32,0.32,0.305,0.315,26540000
2017-11-10,0.305,0.325,0.3,0.32,39520000
2017-11-13,0.32,0.335,0.3,0.31,37580000
2017-11-14,0.31,0.31,0.29,0.3,41540000
2017-11-15,0.3,0.305,0.285,0.29,21980000
2017-11-16,0.29,0.32,0.28,0.29,26000000
2017-11-17,0.285,0.305,0.28,0.3,22520000
2017-11-20,0.3,0.305,0.295,0.305,35900000
2017-11-21,0.3,0.31,0.3,0.31,31360000
2017-11-22,0.31,0.315,0.28,0.3,22760000
2017-11-23,0.3,0.3,0.29,0.3,63180000
2017-11-24,0.3,0.3,0.295,0.3,50920000
2017-11-27,0.3,0.305,0.295,0.305,24160000
2017-11-28,0.305,0.305,0.295,0.305,18120000
2017-11-29,0.3,0.31,0.3,0.305,27920000
2017-11-30,0.305,0.305,0.295,0.3,32720000
2017-12-01,0.3,0.3,0.265,0.27,41600000
2017-12-04,0.265,0.28,0.265,0.28,22300000
2017-12-05,0.28,0.295,0.275,0.28,25920000
2017-12-06,0.28,0.365,0.275,0.33,87540000
2017-12-07,0.325,0.33,0.305,0.32,23200000
2017-12-08,0.3,0.325,0.28,0.305,34400000
2017-12-11,0.305,0.305,0.295,0.305,14980000
2017-12-12,0.305,0.31,0.3,0.305,16280000
2017-12-13,0.305,0.305,0.27,0.29,65020000
2017-12-14,0.28,0.29,0.28,0.29,23780000
2017-12-15,0.28,0.28,0.27,0.275,38420000
2017-12-18,0.28,0.28,0.27,0.275,32440000
2017-12-19,0.275,0.275,0.265,0.275,14640000
2017-12-20,0.275,0.28,0.27,0.275,33140000
2017-12-21,0.275,0.345,0.27,0.3,125600000
2017-12-22,0.3,0.3,0.29,0.295,19960000
2017-12-27,0.295,0.3,0.27,0.28,33340000
2017-12-28,0.28,0.285,0.255,0.265,36900000
2017-12-29,0.27,0.27,0.25,0.255,36500000
2018-01-02,0.25,0.255,0.245,0.25,20300000
2018-01-03,0.248,0.255,0.248,0.25,24460000
2018-01-04,0.249,0.26,0.249,0.26,29600000
2018-01-05,0.26,0.26,0.245,0.248,26820000
2018-01-08,0.24600000000000002,0.25,0.24100000000000002,0.247,24520000
2018-01-09,0.247,0.248,0.24,0.24,21220000
2018-01-10,0.24,0.25,0.24,0.25,25980000
2018-01-11,0.249,0.265,0.247,0.248,110778000
2018-01-12,0.25,0.255,0.24600000000000002,0.24600000000000002,51060000
2018-01-15,0.24600000000000002,0.247,0.23600000000000002,0.24,7740000
2018-01-16,0.235,0.235,0.228,0.22899999999999998,27660000
2018-01-17,0.228,0.24,0.21899999999999997,0.22899999999999998,7120000
2018-01-18,0.23,0.255,0.23,0.25,30080000
2018-01-19,0.24100000000000002,0.255,0.23800000000000002,0.24600000000000002,56700000
2018-01-22,0.244,0.25,0.23800000000000002,0.24600000000000002,13840000
2018-01-23,0.247,0.247,0.239,0.243,115660000
2018-01-24,0.24,0.245,0.233,0.24,26000000
2018-01-25,0.245,0.245,0.231,0.235,5640000
2018-01-26,0.23399999999999999,0.247,0.22399999999999998,0.231,10340000
2018-01-29,0.22899999999999998,0.243,0.22899999999999998,0.23399999999999999,9700000
2018-01-30,0.23,0.23399999999999999,0.22899999999999998,0.23399999999999999,380000
2018-01-31,0.233,0.233,0.225,0.22899999999999998,13040000
2018-02-01,0.221,0.22699999999999998,0.22,0.222,41880000
2018-02-02,0.228,0.249,0.215,0.22,40320000
2018-02-05,0.22,0.221,0.22,0.22,37800000
2018-02-06,0.22,0.22,0.21,0.21,17100000
2018-02-07,0.191,0.2,0.19,0.19399999999999998,840000
2018-02-08,0.21,0.21,0.19,0.19699999999999998,25840000
2018-02-09,0.19699999999999998,0.19699999999999998,0.19,0.192,25820000
2018-02-12,0.192,0.195,0.192,0.195,6920000
2018-02-13,0.195,0.196,0.195,0.196,100000
2018-02-14,0.195,0.196,0.195,0.196,300000
2018-02-20,0.196,0.196,0.196,0.196,18640000
2018-02-21,0.196,0.196,0.195,0.195,70240000
2018-02-22,0.195,0.195,0.19399999999999998,0.19399999999999998,15240000
2018-02-23,0.19399999999999998,0.19399999999999998,0.19399999999999998,0.19399999999999998,100000
2018-02-26,0.19399999999999998,0.195,0.19399999999999998,0.19399999999999998,19360000
2018-02-27,0.19399999999999998,0.19399999999999998,0.19399999999999998,0.19399999999999998,220000
2018-02-28,0.191,0.19399999999999998,0.19,0.19,1300000
2018-03-01,0.2,0.2,0.2,0.196,140000
2018-03-02,0.195,0.195,0.195,0.195,400000
2018-03-05,0.19,0.195,0.19,0.195,180000
2018-03-06,0.195,0.195,0.19399999999999998,0.193,10100000
2018-03-07,0.192,0.192,0.192,0.172,10000000
2018-03-08,0.192,0.192,0.172,0.17800000000000002,18520000
2018-03-09,0.18,0.18,0.18,0.161,40000
2018-03-12,0.161,0.17,0.16,0.16,1220000
2018-03-13,0.16,0.165,0.16,0.161,13460000
2018-03-14,0.158,0.166,0.158,0.16399999999999998,6280000
2018-03-15,0.132,0.161,0.132,0.152,57760000
2018-03-16,0.149,0.16399999999999998,0.138,0.158,31380000
2018-03-19,0.145,0.15,0.145,0.15,1220000
2018-03-20,0.15,0.165,0.15,0.159,24800000
2018-03-21,0.159,0.16699999999999998,0.159,0.16699999999999998,3420000
2018-03-22,0.17,0.174,0.17,0.17,11940000
2018-03-26,0.179,0.179,0.174,0.175,33080000
2018-03-27,0.19,0.19,0.17600000000000002,0.17600000000000002,3322000
2018-03-28,0.17,0.17,0.17,0.17,0
2018-03-29,0.15,0.174,0.15,0.166,420000
2018-04-03,0.165,0.166,0.165,0.166,180000
2018-04-04,0.17,0.175,0.165,0.168,1820000
2018-04-06,0.168,0.168,0.168,0.168,20000
2018-04-09,0.175,0.193,0.16899999999999998,0.18100000000000002,20900000
2018-04-10,0.185,0.193,0.185,0.191,40000
2018-04-11,0.19,0.191,0.133,0.134,28780000
2018-04-12,0.138,0.185,0.132,0.185,29580000
2018-04-13,0.19,0.19,0.18,0.183,5760000
2018-04-16,0.182,0.182,0.18,0.182,1000000
2018-04-17,0.185,0.185,0.185,0.185,140000
2018-04-18,0.185,0.185,0.185,0.185,180000
2018-04-19,0.184,0.184,0.18,0.18,0
2018-04-20,0.185,0.185,0.185,0.185,24100000
2018-04-23,0.184,0.185,0.18,0.184,11800000
2018-04-25,0.18,0.18,0.179,0.18,7400000
2018-04-26,0.18,0.18,0.177,0.18,420000
2018-04-27,0.177,0.18,0.177,0.179,300000
2018-05-03,0.179,0.179,0.179,0.179,28200000
2018-05-04,0.17800000000000002,0.179,0.17800000000000002,0.179,220000
2018-05-07,0.18,0.18,0.18,0.18,66880000
2018-05-08,0.18,0.18,0.177,0.18,800000
2018-05-09,0.175,0.179,0.175,0.179,200000
2018-05-10,0.179,0.179,0.179,0.179,0
2018-05-11,0.14300000000000002,0.17,0.14300000000000002,0.16899999999999998,2600000
2018-05-14,0.179,0.18,0.175,0.177,360000
2018-05-15,0.159,0.17600000000000002,0.159,0.17600000000000002,4380000
2018-05-16,0.175,0.17600000000000002,0.175,0.17600000000000002,100000
2018-05-18,0.179,0.179,0.179,0.17800000000000002,600000
2018-05-21,0.177,0.177,0.177,0.177,0
2018-05-23,0.179,0.185,0.179,0.183,5180000
2018-05-28,0.172,0.172,0.172,0.172,260000
2018-05-29,0.159,0.18,0.152,0.171,660000
2018-05-31,0.161,0.175,0.16,0.174,37560000
2018-06-01,0.174,0.175,0.174,0.175,760000
2018-06-04,0.174,0.175,0.174,0.175,0
2018-06-05,0.17300000000000001,0.17300000000000001,0.165,0.172,8960000
2018-06-06,0.172,0.183,0.166,0.174,980000
2018-06-07,0.174,0.18600000000000003,0.16399999999999998,0.172,3620000
2018-06-08,0.17300000000000001,0.177,0.163,0.172,2980000
2018-06-11,0.168,0.17300000000000001,0.161,0.17,1860000
2018-06-12,0.165,0.16899999999999998,0.16399999999999998,0.16899999999999998,1020000
2018-06-13,0.156,0.171,0.155,0.162,1240000
2018-06-14,0.163,0.16399999999999998,0.158,0.16399999999999998,25840000
2018-06-15,0.16399999999999998,0.168,0.163,0.168,480000
2018-06-19,0.16399999999999998,0.16399999999999998,0.16399999999999998,0.16399999999999998,3500000
2018-06-20,0.163,0.163,0.162,0.162,0
2018-06-21,0.165,0.165,0.165,0.165,3100000
2018-06-22,0.161,0.161,0.156,0.159,280000
2018-06-25,0.158,0.159,0.158,0.159,0
2018-06-26,0.153,0.158,0.151,0.158,500000
2018-06-28,0.14800000000000002,0.158,0.142,0.155,1480000
2018-06-29,0.153,0.16,0.153,0.16,140000
2018-07-03,0.149,0.158,0.149,0.155,3080000
2018-07-04,0.155,0.155,0.155,0.155,0
2018-07-05,0.151,0.154,0.151,0.154,700000
2018-07-06,0.153,0.153,0.153,0.153,0
2018-07-09,0.15,0.152,0.15,0.15,9400000
2018-07-10,0.149,0.149,0.149,0.149,0
2018-07-11,0.14800000000000002,0.149,0.147,0.149,7900000
2018-07-12,0.14,0.149,0.14,0.14800000000000002,140000
2018-07-13,0.149,0.149,0.14800000000000002,0.14800000000000002,30780000
2018-07-16,0.14,0.147,0.139,0.146,1900000
2018-07-17,0.14,0.15,0.14,0.149,1760000
2018-07-18,0.166,0.166,0.166,0.16399999999999998,500000
2018-07-19,0.145,0.163,0.145,0.154,11160000
2018-07-20,0.147,0.16699999999999998,0.14400000000000002,0.16399999999999998,28380000
2018-07-23,0.16399999999999998,0.17,0.16399999999999998,0.17,1900000
2018-07-24,0.168,0.168,0.168,0.168,7720000
2018-07-26,0.16899999999999998,0.16899999999999998,0.16899999999999998,0.168,16080000
2018-07-27,0.14800000000000002,0.165,0.14800000000000002,0.165,600000
2018-07-30,0.153,0.16,0.153,0.16,400000
2018-07-31,0.159,0.159,0.149,0.158,17400000
2018-08-01,0.151,0.159,0.147,0.159,2120000
2018-08-02,0.155,0.158,0.15,0.156,26260000
2018-08-03,0.155,0.155,0.154,0.154,0
2018-08-07,0.155,0.159,0.155,0.158,400000
2018-08-08,0.15,0.157,0.146,0.157,460000
2018-08-09,0.14800000000000002,0.156,0.146,0.156,1100000
2018-08-10,0.156,0.165,0.15,0.155,43260000
2018-08-13,0.157,0.16,0.151,0.154,9100000
2018-08-14,0.154,0.154,0.138,0.149,18280000
2018-08-15,0.147,0.147,0.14,0.145,17160000
2018-08-16,0.14400000000000002,0.14400000000000002,0.14400000000000002,0.14400000000000002,0
2018-08-22,0.14,0.149,0.138,0.149,140000
2018-08-23,0.146,0.147,0.146,0.147,100000
2018-08-27,0.151,0.151,0.147,0.146,5800000
2018-08-29,0.139,0.14800000000000002,0.138,0.14800000000000002,160000
2018-08-30,0.145,0.145,0.14400000000000002,0.14400000000000002,0
2018-09-03,0.14400000000000002,0.15,0.14400000000000002,0.14800000000000002,0
2018-09-04,0.14,0.141,0.14,0.141,87620000
2018-09-05,0.111,0.14,0.111,0.14,240000
2018-09-06,0.139,0.14,0.139,0.14,47200000
2018-09-07,0.139,0.139,0.139,0.139,12460000
2018-09-10,0.139,0.14,0.139,0.14,18500000
2018-09-11,0.13699999999999998,0.13699999999999998,0.134,0.134,86920000
2018-09-12,0.134,0.139,0.134,0.139,11120000
2018-09-13,0.135,0.135,0.134,0.134,0
2018-09-17,0.133,0.134,0.133,0.134,0
2018-09-18,0.133,0.134,0.125,0.133,22700000
2018-09-19,0.13,0.13,0.13,0.13,200000
2018-09-20,0.113,0.13,0.113,0.128,140000
2018-09-21,0.14,0.14,0.139,0.135,17040000
2018-09-26,0.115,0.134,0.115,0.134,440000
2018-09-27,0.11900000000000001,0.133,0.11900000000000001,0.133,120000
2018-10-02,0.121,0.126,0.11800000000000001,0.12,2100000
2018-10-03,0.134,0.134,0.134,0.134,40000
2018-10-05,0.133,0.133,0.133,0.133,0
2018-10-08,0.132,0.132,0.131,0.131,0
2018-10-09,0.125,0.125,0.124,0.125,140000
2018-10-10,0.122,0.125,0.122,0.125,120000
2018-10-11,0.11599999999999999,0.126,0.114,0.125,6160000
2018-10-12,0.124,0.129,0.11699999999999999,0.129,340000
2018-10-15,0.128,0.128,0.128,0.128,0
2018-10-23,0.121,0.128,0.121,0.128,100000
2018-10-25,0.125,0.128,0.124,0.126,32020000
2018-10-26,0.12,0.13,0.12,0.13,200000
2018-10-29,0.128,0.129,0.12,0.121,600000
2018-10-30,0.124,0.124,0.111,0.121,1320000
2018-10-31,0.11800000000000001,0.11800000000000001,0.11599999999999999,0.11599999999999999,2220000
2018-11-01,0.11599999999999999,0.122,0.11599999999999999,0.12,940000
2018-11-02,0.11900000000000001,0.11900000000000001,0.11900000000000001,0.11900000000000001,0
2018-11-07,0.115,0.115,0.115,0.115,38000000
2018-11-09,0.11,0.111,0.10800000000000001,0.107,22980000
2018-11-12,0.106,0.11900000000000001,0.106,0.11900000000000001,16480000
2018-11-14,0.11,0.11,0.11,0.11,100000
2018-11-16,0.11800000000000001,0.11800000000000001,0.11800000000000001,0.11599999999999999,40000
2018-11-19,0.1,0.11,0.098,0.11,6100000
2018-11-20,0.109,0.11,0.099,0.102,9440000
2018-11-21,0.1,0.10099999999999999,0.095,0.095,2940000
2018-11-22,0.09,0.11,0.07,0.084,46500000
2018-11-23,0.08,0.08800000000000001,0.067,0.07,138940000
2018-11-26,0.071,0.08900000000000001,0.071,0.07400000000000001,5480000
2018-11-27,0.073,0.073,0.067,0.067,5060000
2018-11-28,0.07,0.07200000000000001,0.066,0.07,4120000
2018-11-29,0.069,0.08,0.069,0.07200000000000001,880000
2018-11-30,0.07200000000000001,0.07200000000000001,0.067,0.067,740000
2018-12-03,0.067,0.07,0.05,0.051,13120000
2018-12-04,0.052000000000000005,0.052000000000000005,0.039,0.049,12020000
2018-12-05,0.043,0.045,0.03,0.040999999999999995,70140000
2018-12-06,0.04,0.044000000000000004,0.04,0.043,68180000
2018-12-07,0.039,0.044000000000000004,0.038,0.044000000000000004,68860000
2018-12-10,0.044000000000000004,0.046,0.044000000000000004,0.046,55660000
2018-12-11,0.04,0.045,0.04,0.040999999999999995,71400000
2018-12-12,0.043,0.043,0.039,0.042,76760000
2018-12-13,0.043,0.043,0.039,0.04,79680000
2018-12-14,0.04,0.05,0.04,0.05,71660000
2018-12-17,0.05,0.055,0.045,0.05,3020000
2018-12-18,0.048,0.048,0.047,0.047,8180000
2018-12-19,0.043,0.05,0.043,0.047,1480000
2018-12-20,0.047,0.047,0.047,0.047,100000
2018-12-28,0.042,0.042,0.042,0.043,500000
2019-01-02,0.038,0.04,0.038,0.04,3340000
2019-01-03,0.039,0.039,0.039,0.039,300000
2019-01-04,0.039,0.039,0.039,0.039,25260000
2019-01-07,0.039,0.043,0.039,0.042,500000
2019-01-09,0.038,0.040999999999999995,0.038,0.040999999999999995,1440000
2019-01-11,0.037000000000000005,0.04,0.037000000000000005,0.04,620000
2019-01-15,0.039,0.039,0.038,0.038,200000
2019-01-16,0.038,0.043,0.038,0.039,1600000
2019-01-17,0.04,0.04,0.032,0.034,1060000
2019-01-18,0.037000000000000005,0.037000000000000005,0.036000000000000004,0.036000000000000004,700000
2019-01-21,0.034,0.036000000000000004,0.033,0.035,500000
2019-01-22,0.036000000000000004,0.04,0.035,0.04,960000
2019-01-24,0.039,0.039,0.039,0.038,20000
2019-01-25,0.037000000000000005,0.037000000000000005,0.035,0.035,440000
2019-01-28,0.026000000000000002,0.039,0.026000000000000002,0.039,1200000
2019-01-29,0.039,0.049,0.038,0.038,2220000
2019-01-30,0.040999999999999995,0.040999999999999995,0.034,0.034,280000
2019-01-31,0.038,0.038,0.038,0.037000000000000005,20000
2019-02-01,0.037000000000000005,0.038,0.037000000000000005,0.038,40000
2019-02-04,0.043,0.043,0.043,0.043,20000
2019-02-08,0.044000000000000004,0.044000000000000004,0.035,0.039,200000
2019-02-11,0.039,0.039,0.039,0.040999999999999995,100000
2019-02-12,0.04,0.05,0.04,0.048,520000
2019-02-13,0.048,0.048,0.048,0.046,400000
2019-02-14,0.045,0.046,0.040999999999999995,0.042,600000
2019-02-15,0.042,0.042,0.042,0.043,200000
2019-02-18,0.04,0.04,0.034,0.040999999999999995,580000
2019-02-19,0.042,0.042,0.042,0.042,480000
2019-02-21,0.045,0.045,0.045,0.045,820000
2019-02-22,0.049,0.049,0.049,0.048,40000
2019-02-25,0.048,0.048,0.045,0.045,700000
2019-03-04,0.04,0.04,0.04,0.042,120000
2019-03-07,0.04,0.046,0.04,0.046,5040000
2019-03-08,0.04,0.04,0.039,0.04,2600000
2019-03-11,0.039,0.039,0.039,0.039,200000
2019-03-14,0.039,0.043,0.039,0.043,2460000
2019-03-15,0.043,0.043,0.043,0.04,100000
2019-03-18,0.039,0.039,0.039,0.039,560000
2019-03-19,0.033,0.033,0.033,0.035,200000
2019-03-20,0.035,0.035,0.033,0.035,6620000
2019-03-27,0.027999999999999997,0.027999999999999997,0.027999999999999997,0.035,160000
2019-03-28,0.031,0.035,0.028999999999999998,0.035,960000
2019-03-29,0.035,0.036000000000000004,0.035,0.035,680000
2019-04-01,0.033,0.035,0.027999999999999997,0.035,62680000
2019-04-03,0.035,0.035,0.035,0.035,500000
2019-04-04,0.044000000000000004,0.044000000000000004,0.044000000000000004,0.039,2000000
2019-04-09,0.037000000000000005,0.037000000000000005,0.035,0.035,1640000
2019-04-10,0.035,0.035,0.034,0.034,180000
2019-04-17,0.032,0.032,0.032,0.032,200000
2019-04-18,0.035,0.035,0.035,0.035,40000
2019-04-25,0.027000000000000003,0.036000000000000004,0.027000000000000003,0.036000000000000004,160000
2019-04-29,0.03,0.036000000000000004,0.028999999999999998,0.039,160000
2019-05-06,0.03,0.043,0.021,0.034,5020000
2019-05-07,0.031,0.032,0.03,0.035,1160000
2019-05-10,0.04,0.04,0.04,0.04,20000
2019-05-15,0.032,0.048,0.032,0.04,480000
2019-05-16,0.04,0.04,0.034,0.034,200000
2019-05-28,0.03,0.032,0.03,0.03,1120000
2019-05-30,0.027000000000000003,0.027000000000000003,0.027000000000000003,0.037000000000000005,100000
2019-06-03,0.027999999999999997,0.027999999999999997,0.027999999999999997,0.032,100000
2019-06-06,0.04,0.04,0.04,0.04,100000
2019-06-10,0.036000000000000004,0.04,0.035,0.04,2580000
2019-06-11,0.032,0.043,0.032,0.039,2640000
2019-06-12,0.033,0.042,0.033,0.04,2560000
2019-06-13,0.034,0.034,0.034,0.035,200000
2019-06-14,0.031,0.031,0.03,0.03,1160000
2019-06-17,0.032,0.032,0.031,0.032,960000
2019-06-18,0.038,0.039,0.038,0.038,980000
2019-06-20,0.03,0.036000000000000004,0.026000000000000002,0.036000000000000004,2440000
2019-06-21,0.031,0.039,0.03,0.036000000000000004,16420000
2019-06-24,0.04,0.04,0.036000000000000004,0.038,210000
2019-06-25,0.033,0.033,0.033,0.035,20000
2019-06-28,0.036000000000000004,0.037000000000000005,0.036000000000000004,0.037000000000000005,11420000
2019-07-02,0.043,0.043,0.043,0.043,40000
2019-07-04,0.033,0.033,0.033,0.035,20000
2019-07-08,0.033,0.033,0.033,0.033,20000
2019-07-09,0.028999999999999998,0.028999999999999998,0.028999999999999998,0.033,200000
2019-07-23,0.035,0.035,0.035,0.035,20000
2019-07-25,0.034,0.035,0.034,0.035,200000
2019-08-15,0.027999999999999997,0.03,0.026000000000000002,0.028999999999999998,1900000
2019-08-19,0.028999999999999998,0.034,0.028999999999999998,0.034,360000
2019-08-21,0.027000000000000003,0.031,0.024,0.031,1400000
2019-08-27,0.026000000000000002,0.03,0.026000000000000002,0.026000000000000002,1040000
2019-08-28,0.03,0.03,0.03,0.027999999999999997,40000
2019-09-10,0.03,0.035,0.028999999999999998,0.034,320000
2019-09-25,0.028999999999999998,0.028999999999999998,0.028999999999999998,0.028999999999999998,380000
2019-09-30,0.027000000000000003,0.027000000000000003,0.023,0.023,3940000
2019-10-02,0.025,0.025,0.02,0.02,1980000
2019-10-03,0.022000000000000002,0.022000000000000002,0.021,0.021,1120000
2019-10-04,0.02,0.022000000000000002,0.019,0.02,880000
2019-10-10,0.021,0.022000000000000002,0.021,0.022000000000000002,40000
2019-10-11,0.022000000000000002,0.022000000000000002,0.022000000000000002,0.022000000000000002,140000
2019-10-14,0.023,0.023,0.023,0.023,140000
2019-10-15,0.019,0.019,0.019,0.02,300000
2019-10-17,0.021,0.022000000000000002,0.021,0.022000000000000002,600000
2019-10-25,0.025,0.025,0.025,0.025,140000
2019-10-28,0.025,0.034,0.022000000000000002,0.024,3540000
2019-10-29,0.025,0.025,0.025,0.025,40000
2019-10-31,0.023,0.026000000000000002,0.022000000000000002,0.023,280000
2019-11-01,0.022000000000000002,0.022000000000000002,0.021,0.021,560000
2019-11-05,0.02,0.02,0.019,0.02,2440000
2019-11-07,0.019,0.02,0.019,0.02,200000
2019-11-12,0.019,0.019,0.019,0.019,520000
2019-11-21,0.019,0.019,0.019,0.02,360000
2019-11-25,0.022000000000000002,0.022000000000000002,0.022000000000000002,0.022000000000000002,20000
2019-11-26,0.024,0.024,0.024,0.024,160000
2019-11-27,0.024,0.024,0.024,0.024,400000
2019-12-03,0.028999999999999998,0.028999999999999998,0.028999999999999998,0.028999999999999998,140000
2019-12-04,0.022000000000000002,0.022000000000000002,0.02,0.022000000000000002,21280000
2019-12-05,0.022000000000000002,0.024,0.022000000000000002,0.022000000000000002,780000
2019-12-06,0.022000000000000002,0.022000000000000002,0.022000000000000002,0.022000000000000002,200000
2019-12-09,0.021,0.021,0.021,0.021,520000
2019-12-10,0.021,0.023,0.02,0.02,19560000
2019-12-11,0.023,0.027999999999999997,0.023,0.027000000000000003,320000
2019-12-16,0.028999999999999998,0.028999999999999998,0.027999999999999997,0.027999999999999997,60000
2019-12-18,0.03,0.039,0.03,0.033,400000
2019-12-23,0.031,0.035,0.031,0.035,60000
2019-12-30,0.027999999999999997,0.03,0.023,0.023,219960000
2019-12-31,0.024,0.027999999999999997,0.022000000000000002,0.023,3740000
2020-01-02,0.023,0.027999999999999997,0.023,0.026000000000000002,1140000
2020-01-03,0.023,0.027999999999999997,0.023,0.027000000000000003,4220000
2020-01-06,0.024,0.028999999999999998,0.024,0.028999999999999998,528080000
2020-01-07,0.028999999999999998,0.03,0.024,0.03,21160000
2020-01-08,0.027999999999999997,0.027999999999999997,0.026000000000000002,0.027999999999999997,21060000
2020-01-09,0.027999999999999997,0.027999999999999997,0.026000000000000002,0.027999999999999997,11700000
2020-01-10,0.027999999999999997,0.03,0.026000000000000002,0.03,258560000
2020-01-13,0.028999999999999998,0.03,0.025,0.026000000000000002,42700000
2020-01-14,0.025,0.027000000000000003,0.024,0.027000000000000003,2840000
2020-01-15,0.026000000000000002,0.027000000000000003,0.026000000000000002,0.027000000000000003,180000
2020-01-16,0.026000000000000002,0.026000000000000002,0.02,0.02,6940000
2020-01-17,0.022000000000000002,0.023,0.022000000000000002,0.023,3740000
2020-01-21,0.022000000000000002,0.022000000000000002,0.02,0.02,2820000
2020-01-22,0.02,0.02,0.019,0.02,2940000
2020-01-23,0.02,0.02,0.02,0.02,860000
2020-01-29,0.019,0.019,0.018000000000000002,0.018000000000000002,680000
2020-01-30,0.018000000000000002,0.02,0.018000000000000002,0.02,220000
2020-01-31,0.018000000000000002,0.022000000000000002,0.018000000000000002,0.022000000000000002,620000
2020-02-03,0.022000000000000002,0.024,0.022000000000000002,0.024,1360000
2020-02-04,0.02,0.024,0.02,0.024,340000
2020-02-05,0.024,0.024,0.024,0.024,100000
2020-02-06,0.025,0.025,0.025,0.025,100000
2020-02-07,0.025,0.027000000000000003,0.025,0.027000000000000003,240000
2020-02-11,0.021,0.023,0.021,0.022000000000000002,1420000
2020-02-12,0.022000000000000002,0.022000000000000002,0.018000000000000002,0.02,24540000
2020-02-13,0.02,0.02,0.017,0.018000000000000002,24440000
2020-02-14,0.018000000000000002,0.018000000000000002,0.017,0.017,9720000
2020-02-17,0.019,0.019,0.018000000000000002,0.018000000000000002,440000
2020-02-19,0.018000000000000002,0.018000000000000002,0.018000000000000002,0.018000000000000002,60000
2020-02-20,0.016,0.019,0.016,0.019,680000
2020-02-21,0.019,0.019,0.018000000000000002,0.018000000000000002,13460000
2020-02-24,0.016,0.016,0.016,0.016,1000000
2020-02-25,0.016,0.017,0.016,0.017,2140000
2020-02-26,0.016,0.017,0.016,0.017,22120000
2020-03-02,0.017,0.017,0.017,0.017,42320000
2020-03-03,0.017,0.018000000000000002,0.017,0.018000000000000002,67500000
2020-03-04,0.016,0.017,0.015,0.017,40960000
2020-03-05,0.015,0.016,0.015,0.016,220000
2020-03-06,0.015,0.016,0.015,0.015,4080000
2020-03-09,0.013999999999999999,0.013999999999999999,0.013000000000000001,0.013999999999999999,3200000
2020-03-10,0.013999999999999999,0.013999999999999999,0.013999999999999999,0.013999999999999999,500000
2020-03-11,0.013000000000000001,0.013999999999999999,0.013000000000000001,0.013999999999999999,200000
2020-03-16,0.012,0.013000000000000001,0.012,0.013000000000000001,2620000
2020-03-19,0.012,0.012,0.012,0.012,500000
2020-03-20,0.013000000000000001,0.013999999999999999,0.013000000000000001,0.013999999999999999,2000000
2020-03-23,0.013999999999999999,0.015,0.013999999999999999,0.013999999999999999,1200000
2020-03-24,0.013999999999999999,0.019,0.013999999999999999,0.016,25560000
2020-03-25,0.013999999999999999,0.016,0.013999999999999999,0.013999999999999999,3100000
2020-03-27,0.015,0.017,0.015,0.016,400000
2020-03-30,0.013000000000000001,0.018000000000000002,0.013000000000000001,0.018000000000000002,1440000
2020-03-31,0.015,0.02,0.015,0.018000000000000002,45360000
2020-04-01,0.015,0.017,0.015,0.017,1320000
2020-04-02,0.017,0.017,0.017,0.017,0
2020-04-03,0.017,0.017,0.017,0.017,100000000
2020-04-06,0.013999999999999999,0.019,0.013999999999999999,0.018000000000000002,80345000
2020-04-07,0.017,0.017,0.017,0.017,0
2020-04-08,0.017,0.017,0.017,0.017,6000000
2020-04-09,0.017,0.017,0.017,0.017,0
2020-04-14,0.017,0.017,0.017,0.017,0
2020-04-15,0.016,0.018000000000000002,0.016,0.018000000000000002,2220000
2020-04-16,0.017,0.017,0.017,0.017,0
2020-04-17,0.016,0.017,0.013999999999999999,0.017,180000
2020-04-20,0.015,0.017,0.015,0.017,80360000
2020-04-21,0.017,0.017,0.017,0.017,0
2020-04-22,0.013999999999999999,0.017,0.013999999999999999,0.017,10680000
2020-04-23,0.016,0.016,0.016,0.016,40000
2020-04-24,0.016,0.016,0.016,0.016,0
2020-04-27,0.013999999999999999,0.016,0.013999999999999999,0.016,500000
2020-04-28,0.013999999999999999,0.013999999999999999,0.013000000000000001,0.013999999999999999,2400000
2020-04-29,0.013000000000000001,0.016,0.013000000000000001,0.016,2100000
2020-05-04,0.016,0.016,0.016,0.016,0
2020-05-05,0.016,0.016,0.016,0.016,0
2020-05-06,0.016,0.016,0.016,0.016,0
2020-05-07,0.015,0.015,0.015,0.015,0
2020-05-08,0.015,0.015,0.015,0.015,600000
2020-05-11,0.015,0.015,0.015,0.015,140000
2020-05-12,0.015,0.015,0.015,0.015,0
2020-05-13,0.015,0.015,0.015,0.015,0
2020-05-14,0.013999999999999999,0.015,0.013999999999999999,0.013999999999999999,19200000
2020-05-15,0.013999999999999999,0.015,0.013999999999999999,0.015,12080000
2020-05-18,0.015,0.015,0.015,0.015,0
2020-05-19,0.013000000000000001,0.015,0.013000000000000001,0.015,28440000
2020-05-20,0.015,0.015,0.015,0.015,0
2020-05-21,0.015,0.015,0.015,0.015,0
2020-05-22,0.015,0.015,0.015,0.015,0
2020-05-25,0.015,0.015,0.015,0.015,0
2020-05-26,0.015,0.015,0.015,0.015,0
2020-05-27,0.015,0.015,0.015,0.015,0
2020-05-28,0.016,0.018000000000000002,0.016,0.018000000000000002,22380000
2020-05-29,0.015,0.015,0.015,0.015,500000
2020-06-01,0.012,0.016,0.012,0.016,2980000
2020-06-02,0.013000000000000001,0.016,0.013000000000000001,0.016,500000
2020-06-03,0.013000000000000001,0.016,0.013000000000000001,0.016,120000
2020-06-04,0.013999999999999999,0.016,0.013999999999999999,0.016,100000
2020-06-05,0.016,0.018000000000000002,0.015,0.016,63840000
2020-06-08,0.018000000000000002,0.018000000000000002,0.018000000000000002,0.018000000000000002,60000
2020-06-09,0.018000000000000002,0.018000000000000002,0.013000000000000001,0.016,1480000
2020-06-10,0.016,0.016,0.016,0.016,0
2020-06-11,0.016,0.016,0.016,0.016,0
2020-06-12,0.019,0.019,0.015,0.016,54560000
2020-06-15,0.016,0.016,0.016,0.016,102520000
2020-06-16,0.017,0.017,0.015,0.017,52200000
2020-06-17,0.02,0.021,0.016,0.017,110360000
2020-06-18,0.017,0.022000000000000002,0.016,0.018000000000000002,86620000
2020-06-19,0.019,0.019,0.013999999999999999,0.015,36840000
2020-06-22,0.013999999999999999,0.016,0.013999999999999999,0.016,35340000
2020-06-23,0.016,0.018000000000000002,0.016,0.017,4980000
2020-06-24,0.016,0.019,0.015,0.019,43800000
2020-06-26,0.018000000000000002,0.025,0.016,0.022000000000000002,201540000
2020-06-29,0.022000000000000002,0.024,0.018000000000000002,0.023,38400000
2020-06-30,0.02,0.023,0.019,0.023,47940000
2020-07-02,0.024,0.024,0.02,0.024,39960000
2020-07-03,0.021,0.022000000000000002,0.019,0.021,47840000
2020-07-06,0.022000000000000002,0.023,0.019,0.021,15360000
2020-07-07,0.019,0.023,0.019,0.022000000000000002,19820000
2020-07-08,0.022000000000000002,0.023,0.02,0.023,12240000
2020-07-09,0.022000000000000002,0.023,0.02,0.023,10160000
2020-07-10,0.021,0.023,0.021,0.023,40160000
2020-07-13,0.022000000000000002,0.024,0.021,0.024,22800000
2020-07-14,0.025,0.026000000000000002,0.023,0.026000000000000002,131280000
2020-07-15,0.026000000000000002,0.03,0.026000000000000002,0.03,89960000
2020-07-16,0.03,0.033,0.027000000000000003,0.028999999999999998,31080000
2020-07-17,0.028999999999999998,0.031,0.027000000000000003,0.031,14420000
2020-07-20,0.031,0.032,0.027999999999999997,0.032,2280000
2020-07-21,0.032,0.035,0.032,0.035,3900000
2020-07-22,0.035,0.036000000000000004,0.035,0.036000000000000004,4720000
2020-07-23,0.034,0.036000000000000004,0.033,0.036000000000000004,6720000
2020-07-24,0.035,0.036000000000000004,0.034,0.036000000000000004,1580000
2020-07-27,0.036000000000000004,0.036000000000000004,0.034,0.036000000000000004,680000
2020-07-28,0.035,0.036000000000000004,0.032,0.036000000000000004,4480000
2020-07-29,0.034,0.036000000000000004,0.033,0.036000000000000004,3380000
2020-07-30,0.033,0.036000000000000004,0.033,0.036000000000000004,46720000
2020-07-31,0.035,0.036000000000000004,0.035,0.036000000000000004,4000000
2020-08-03,0.035,0.037000000000000005,0.033,0.037000000000000005,54040000
2020-08-04,0.035,0.038,0.035,0.038,36940000
2020-08-05,0.036000000000000004,0.04,0.034,0.04,38780000
2020-08-06,0.04,0.042,0.04,0.042,93600000
2020-08-07,0.043,0.045,0.042,0.045,24980000
2020-08-10,0.043,0.05,0.043,0.05,81980000
2020-08-11,0.051,0.055,0.048,0.053,49000000
2020-08-12,0.053,0.054000000000000006,0.049,0.053,9000000
2020-08-13,0.046,0.055,0.046,0.051,12380000
2020-08-14,0.048,0.05,0.043,0.049,9840000
2020-08-17,0.049,0.05,0.045,0.049,4200000
2020-08-18,0.05,0.05,0.047,0.049,1400000
2020-08-19,0.052000000000000005,0.052000000000000005,0.052000000000000005,0.049,500000
2020-08-20,0.046,0.049,0.043,0.048,3260000
2020-08-21,0.042,0.048,0.042,0.048,740000
2020-08-24,0.047,0.048,0.047,0.048,54160000
2020-08-25,0.048,0.052000000000000005,0.048,0.051,11820000
