Date,Open,High,Low,Close,Volume
2012-11-14,0.13,0.13,0.13,0.13,548000
2012-11-15,0.13,0.14,0.13,0.13,1028000
2012-11-16,0.14,0.14,0.13,0.14,540000
2012-11-19,0.14,0.14,0.14,0.14,1218600
2012-11-20,0.14,0.14,0.13,0.13,804000
2012-11-21,0.13,0.14,0.13,0.14,697999
2012-11-22,0.15,0.15,0.14,0.14,472000
2012-11-23,0.14,0.14,0.13,0.13,310333
2012-11-27,0.13,0.14,0.13,0.14,204000
2012-11-28,0.13,0.14,0.13,0.14,26000
2012-11-29,0.12,0.13,0.12,0.13,750000
2012-11-30,0.12,0.13,0.12,0.13,134666
2012-12-03,0.13,0.13,0.13,0.13,385000
2012-12-05,0.13,0.13,0.13,0.13,88000
2012-12-06,0.12,0.13,0.12,0.13,64000
2012-12-07,0.13,0.13,0.13,0.13,64000
2012-12-10,0.13,0.13,0.13,0.13,100000
2012-12-11,0.12,0.13,0.12,0.13,122800
2012-12-12,0.12,0.13,0.12,0.13,235421
2012-12-14,0.12,0.13,0.12,0.13,155333
2012-12-17,0.13,0.13,0.13,0.13,104000
2012-12-18,0.13,0.13,0.13,0.13,168000
2012-12-19,0.13,0.13,0.12,0.13,931333
2012-12-21,0.13,0.13,0.13,0.13,104000
2012-12-27,0.13,0.13,0.13,0.13,32000
2012-12-31,0.12,0.14,0.12,0.13,18000
2013-01-02,0.12,0.13,0.12,0.12,344000
2013-01-03,0.12,0.13,0.12,0.12,459800
2013-01-04,0.12,0.13,0.12,0.13,506000
2013-01-07,0.13,0.13,0.13,0.13,472000
2013-01-08,0.13,0.13,0.13,0.13,328000
2013-01-09,0.13,0.14,0.13,0.13,605301
2013-01-10,0.13,0.13,0.13,0.13,1095834
2013-01-11,0.13,0.13,0.13,0.13,28000
2013-01-14,0.13,0.13,0.13,0.13,52000
2013-01-15,0.12,0.12,0.12,0.12,100000
2013-01-16,0.12,0.12,0.12,0.12,456000
2013-01-17,0.12,0.13,0.12,0.13,1688497
2013-01-18,0.13,0.13,0.13,0.13,324000
2013-01-21,0.13,0.13,0.12,0.12,589000
2013-01-22,0.13,0.13,0.13,0.13,16000
2013-01-23,0.13,0.13,0.13,0.13,6000
2013-01-24,0.13,0.13,0.12,0.13,308000
2013-01-25,0.11,0.12,0.11,0.12,118000
2013-01-28,0.12,0.12,0.12,0.12,8000
2013-01-29,0.13,0.13,0.12,0.13,2562000
2013-01-30,0.12,0.12,0.12,0.13,8000
2013-01-31,0.13,0.13,0.13,0.13,552000
2013-02-01,0.13,0.13,0.13,0.13,119500
2013-02-04,0.13,0.13,0.13,0.13,848000
2013-02-05,0.13,0.14,0.13,0.13,772000
2013-02-06,0.13,0.13,0.13,0.13,708000
2013-02-07,0.13,0.13,0.13,0.13,20000
2013-02-08,0.13,0.13,0.13,0.13,52000
2013-02-14,0.12,0.12,0.12,0.12,40000
2013-02-15,0.12,0.12,0.12,0.12,4000
2013-02-18,0.12,0.12,0.12,0.12,150000
2013-02-19,0.12,0.12,0.12,0.12,218000
2013-02-20,0.12,0.12,0.12,0.13,4000
2013-02-21,0.13,0.13,0.13,0.13,320000
2013-02-22,0.12,0.13,0.12,0.12,324333
2013-02-26,0.12,0.14,0.12,0.13,3340000
2013-02-27,0.13,0.13,0.12,0.13,221333
2013-02-28,0.13,0.13,0.13,0.13,316037
2013-03-01,0.13,0.13,0.13,0.13,2366000
2013-03-04,0.13,0.13,0.13,0.13,1468000
2013-03-05,0.14,0.14,0.13,0.13,2312000
2013-03-06,0.13,0.14,0.13,0.13,862000
2013-03-07,0.13,0.13,0.13,0.13,634500
2013-03-08,0.14,0.14,0.13,0.13,164000
2013-03-11,0.13,0.13,0.13,0.13,500000
2013-03-12,0.13,0.13,0.13,0.13,520000
2013-03-13,0.12,0.12,0.12,0.13,40000
2013-03-14,0.12,0.12,0.12,0.12,53333
2013-03-15,0.12,0.13,0.12,0.12,1024000
2013-03-19,0.12,0.12,0.12,0.12,364000
2013-03-20,0.12,0.12,0.12,0.12,10000
2013-03-22,0.14,0.14,0.13,0.13,368000
2013-03-25,0.12,0.12,0.11,0.12,5239000
2013-03-26,0.12,0.12,0.12,0.12,42000
2013-03-28,0.12,0.12,0.12,0.12,12000
2013-04-02,0.12,0.12,0.12,0.12,400000
2013-04-03,0.12,0.12,0.12,0.12,522500
2013-04-05,0.12,0.12,0.12,0.12,24000
2013-04-08,0.13,0.13,0.12,0.12,213067
2013-04-09,0.12,0.12,0.12,0.12,56000
2013-04-10,0.12,0.12,0.12,0.12,20000
2013-04-11,0.12,0.12,0.12,0.12,280000
2013-04-12,0.12,0.12,0.12,0.12,113000
2013-04-15,0.12,0.12,0.11,0.11,220000
2013-04-16,0.11,0.12,0.11,0.11,383545
2013-04-17,0.11,0.11,0.11,0.11,16000
2013-04-18,0.11,0.11,0.11,0.11,30666
2013-04-22,0.11,0.12,0.11,0.12,40000
2013-04-24,0.11,0.12,0.11,0.12,30000
2013-04-25,0.11,0.11,0.11,0.11,80001
2013-04-26,0.11,0.11,0.11,0.11,10000
2013-04-29,0.1,0.11,0.1,0.11,470000
2013-04-30,0.1,0.11,0.1,0.11,296000
2013-05-02,0.11,0.11,0.1,0.11,418000
2013-05-03,0.11,0.11,0.11,0.11,8000
2013-05-06,0.11,0.12,0.11,0.11,204000
2013-05-07,0.11,0.12,0.11,0.12,184000
2013-05-10,0.11,0.11,0.11,0.11,42000
2013-05-13,0.11,0.11,0.11,0.11,540000
2013-05-14,0.11,0.12,0.11,0.11,309678
2013-05-15,0.11,0.11,0.11,0.11,28000
2013-05-16,0.11,0.11,0.11,0.11,424000
2013-05-20,0.11,0.13,0.11,0.13,54666
2013-05-22,0.12,0.12,0.12,0.12,290000
2013-05-24,0.11,0.11,0.11,0.12,8000
2013-05-27,0.12,0.12,0.12,0.12,64000
2013-05-29,0.12,0.12,0.12,0.12,16000
2013-05-30,0.12,0.12,0.12,0.12,20000
2013-05-31,0.11,0.12,0.11,0.11,770000
2013-06-03,0.10800000000000001,0.11,0.10800000000000001,0.11,1222380
2013-06-04,0.115,0.115,0.10400000000000001,0.10800000000000001,93380
2013-06-05,0.1,0.10800000000000001,0.09699999999999999,0.10800000000000001,89130
2013-06-07,0.10400000000000001,0.12,0.1,0.11800000000000001,284370
2013-06-10,0.124,0.124,0.11599999999999999,0.11599999999999999,33950
2013-06-11,0.109,0.11800000000000001,0.109,0.115,25470
2013-06-14,0.111,0.114,0.10800000000000001,0.11199999999999999,111460
2013-06-17,0.121,0.121,0.11,0.11,69500
2013-06-18,0.12,0.12,0.12,0.11900000000000001,63670
2013-06-20,0.11,0.114,0.11,0.114,536210
2013-06-21,0.114,0.114,0.114,0.114,530550
2013-06-25,0.114,0.114,0.114,0.114,148550
2013-06-26,0.114,0.114,0.114,0.114,530550
2013-06-27,0.114,0.114,0.114,0.114,169770
2013-06-28,0.114,0.12300000000000001,0.114,0.114,619680
2013-07-04,0.111,0.111,0.111,0.111,318330
2013-07-05,0.111,0.111,0.111,0.111,21220
2013-07-08,0.099,0.099,0.099,0.10300000000000001,10610
2013-07-09,0.102,0.102,0.102,0.102,25470
2013-07-10,0.102,0.102,0.102,0.102,415950
2013-07-11,0.10800000000000001,0.10800000000000001,0.10300000000000001,0.10300000000000001,8490
2013-07-12,0.10300000000000001,0.10300000000000001,0.10300000000000001,0.10300000000000001,309840
2013-07-18,0.10400000000000001,0.10400000000000001,0.10400000000000001,0.10400000000000001,4240
2013-07-19,0.10400000000000001,0.10400000000000001,0.10400000000000001,0.10400000000000001,4240
2013-07-22,0.102,0.102,0.102,0.10300000000000001,21220
2013-07-23,0.10400000000000001,0.10400000000000001,0.10400000000000001,0.105,21220
2013-07-24,0.105,0.105,0.105,0.105,16980
2013-07-29,0.10800000000000001,0.109,0.10800000000000001,0.109,59420
2013-07-30,0.114,0.127,0.114,0.121,115670
2013-07-31,0.114,0.114,0.114,0.114,62600
2013-08-01,0.11900000000000001,0.11900000000000001,0.10400000000000001,0.107,1460060
2013-08-02,0.109,0.109,0.10800000000000001,0.10800000000000001,237680
2013-08-05,0.109,0.11699999999999999,0.10800000000000001,0.11,1277560
2013-08-06,0.114,0.114,0.105,0.106,1918460
2013-08-07,0.106,0.106,0.10400000000000001,0.105,749130
2013-08-08,0.105,0.105,0.10400000000000001,0.10400000000000001,464050
2013-08-09,0.10400000000000001,0.10400000000000001,0.10400000000000001,0.10400000000000001,76400
2013-08-12,0.10400000000000001,0.106,0.10400000000000001,0.106,526300
2013-08-13,0.109,0.11699999999999999,0.106,0.11599999999999999,884950
2013-08-15,0.122,0.127,0.121,0.124,5356400
2013-08-16,0.11900000000000001,0.124,0.11900000000000001,0.12,2300450
2013-08-19,0.132,0.179,0.13,0.158,18978840
2013-08-20,0.161,0.161,0.145,0.15,4089450
2013-08-21,0.155,0.187,0.14800000000000002,0.18100000000000002,7227460
2013-08-22,0.179,0.192,0.171,0.174,6832730
2013-08-23,0.174,0.18100000000000002,0.174,0.179,2506300
2013-08-26,0.17600000000000002,0.184,0.161,0.161,2096720
2013-08-27,0.161,0.171,0.161,0.171,848870
2013-08-28,0.166,0.166,0.155,0.163,1557690
2013-08-29,0.166,0.171,0.158,0.171,1133250
2013-08-30,0.17600000000000002,0.17600000000000002,0.171,0.174,63670
2013-09-02,0.17600000000000002,0.17600000000000002,0.174,0.174,280130
2013-09-03,0.174,0.174,0.161,0.166,823410
2013-09-04,0.174,0.18100000000000002,0.171,0.17600000000000002,2917300
2013-09-05,0.17600000000000002,0.17600000000000002,0.166,0.174,1778390
2013-09-06,0.16899999999999998,0.174,0.166,0.174,522060
2013-09-09,0.166,0.174,0.163,0.16899999999999998,663540
2013-09-10,0.161,0.171,0.161,0.171,662120
2013-09-11,0.163,0.16899999999999998,0.163,0.16899999999999998,284370
2013-09-12,0.163,0.166,0.158,0.158,348040
2013-09-13,0.155,0.166,0.155,0.158,294980
2013-09-16,0.155,0.158,0.155,0.158,176140
2013-09-17,0.16899999999999998,0.184,0.161,0.171,6840600
2013-09-18,0.163,0.16899999999999998,0.163,0.163,2907400
2013-09-19,0.166,0.16899999999999998,0.153,0.16899999999999998,4332980
2013-09-23,0.18100000000000002,0.18899999999999997,0.166,0.171,3808320
2013-09-24,0.171,0.174,0.166,0.16899999999999998,2784310
2013-09-25,0.174,0.174,0.166,0.174,1625600
2013-09-26,0.174,0.18100000000000002,0.174,0.18100000000000002,1718970
2013-09-27,0.184,0.207,0.184,0.187,21914900
2013-09-30,0.217,0.24,0.209,0.23199999999999998,12754340
2013-10-02,0.22899999999999998,0.259,0.22899999999999998,0.25,4100070
2013-10-03,0.25,0.259,0.23399999999999999,0.245,2665470
2013-10-04,0.23600000000000002,0.24,0.231,0.23199999999999998,1321590
2013-10-07,0.235,0.235,0.226,0.23199999999999998,2449000
2013-10-08,0.233,0.25,0.233,0.23600000000000002,5309710
2013-10-09,0.23600000000000002,0.24,0.231,0.235,995940
2013-10-10,0.235,0.23600000000000002,0.231,0.23600000000000002,1264820
2013-10-11,0.25,0.25,0.20800000000000002,0.21,23963900
2013-10-15,0.225,0.24,0.22,0.235,34135380
2013-10-16,0.235,0.23600000000000002,0.22399999999999998,0.23199999999999998,10521800
2013-10-17,0.23600000000000002,0.23600000000000002,0.225,0.225,5910290
2013-10-18,0.225,0.23,0.222,0.223,2389580
2013-10-21,0.226,0.226,0.222,0.223,3212990
2013-10-22,0.223,0.24,0.218,0.23399999999999999,9293060
2013-10-23,0.23600000000000002,0.23600000000000002,0.22699999999999998,0.231,5057880
2013-10-24,0.226,0.23399999999999999,0.223,0.22899999999999998,1835690
2013-10-25,0.22899999999999998,0.233,0.22699999999999998,0.231,2094600
2013-10-28,0.23600000000000002,0.264,0.23399999999999999,0.25,24623030
2013-10-29,0.25,0.26899999999999996,0.25,0.25,10852860
2013-10-30,0.24,0.255,0.24,0.245,4267820
2013-10-31,0.245,0.245,0.23600000000000002,0.245,6948040
2013-11-01,0.245,0.245,0.23399999999999999,0.23600000000000002,1818710
2013-11-04,0.24,0.24,0.23600000000000002,0.24,685470
2013-11-05,0.24,0.24,0.23199999999999998,0.23600000000000002,1765660
2013-11-06,0.23600000000000002,0.24,0.23199999999999998,0.23600000000000002,1073830
2013-11-07,0.231,0.231,0.221,0.225,4507530
2013-11-08,0.226,0.226,0.221,0.222,1095050
2013-11-11,0.226,0.23600000000000002,0.226,0.231,1701990
2013-11-12,0.231,0.231,0.231,0.231,271640
2013-11-13,0.23199999999999998,0.255,0.22399999999999998,0.245,8115240
2013-11-14,0.245,0.25,0.23600000000000002,0.245,7223920
2013-11-15,0.245,0.273,0.245,0.26899999999999996,21323220
2013-11-18,0.287,0.363,0.287,0.33899999999999997,31618460
2013-11-20,0.353,0.377,0.32,0.349,33889380
2013-11-21,0.36700000000000005,0.36700000000000005,0.32,0.325,11173310
2013-11-22,0.335,0.335,0.302,0.311,10799100
2013-11-25,0.316,0.32,0.306,0.311,4242250
2013-11-26,0.292,0.306,0.292,0.292,3005020
2013-11-27,0.292,0.311,0.273,0.302,4970160
2013-11-28,0.302,0.302,0.292,0.297,1472800
2013-11-29,0.297,0.33,0.297,0.325,15213960
2013-12-02,0.33,0.344,0.32,0.344,16546690
2013-12-03,0.349,0.349,0.325,0.325,2542380
2013-12-04,0.32,0.335,0.316,0.316,3079290
2013-12-05,0.32,0.325,0.316,0.316,2583410
2013-12-06,0.311,0.325,0.306,0.32,1303020
2013-12-09,0.32,0.325,0.311,0.325,2207070
2013-12-10,0.316,0.33899999999999997,0.306,0.33,3509250
2013-12-11,0.33,0.335,0.311,0.325,4634860
2013-12-12,0.316,0.335,0.316,0.33,2741870
2013-12-13,0.33,0.33899999999999997,0.32,0.335,1188420
2013-12-16,0.33,0.335,0.325,0.335,1370930
2013-12-17,0.335,0.335,0.33,0.335,1103540
2013-12-18,0.335,0.335,0.32,0.33,1464310
2013-12-19,0.32,0.33,0.306,0.325,3834790
2013-12-20,0.316,0.32,0.306,0.32,1829330
2013-12-23,0.302,0.311,0.297,0.302,3387010
2013-12-24,0.297,0.297,0.292,0.292,1154470
2013-12-27,0.287,0.302,0.278,0.302,5797810
2013-12-30,0.287,0.32,0.287,0.316,3815690
2013-12-31,0.297,0.349,0.297,0.335,6184050
2014-01-02,0.349,0.363,0.325,0.33899999999999997,7521580
2014-01-03,0.33899999999999997,0.33899999999999997,0.316,0.32,3353060
2014-01-06,0.32,0.32,0.306,0.316,2317430
2014-01-07,0.311,0.316,0.292,0.311,5186390
2014-01-08,0.316,0.33899999999999997,0.302,0.311,13832420
2014-01-09,0.316,0.344,0.316,0.325,9613510
2014-01-10,0.33899999999999997,0.33899999999999997,0.325,0.33,4549970
2014-01-13,0.33899999999999997,0.377,0.33899999999999997,0.358,16418650
2014-01-14,0.363,0.386,0.353,0.353,21960390
2014-01-15,0.353,0.363,0.33899999999999997,0.349,3412480
2014-01-16,0.33899999999999997,0.36700000000000005,0.335,0.363,4596360
2014-01-17,0.36700000000000005,0.36700000000000005,0.353,0.36700000000000005,2351380
2014-01-20,0.344,0.363,0.344,0.353,1436720
2014-01-21,0.363,0.363,0.335,0.353,2050030
2014-01-22,0.344,0.353,0.344,0.353,233440
2014-01-23,0.363,0.363,0.33899999999999997,0.349,522060
2014-01-24,0.33899999999999997,0.349,0.33899999999999997,0.344,101860
2014-01-27,0.33899999999999997,0.33899999999999997,0.32,0.33,1642570
2014-01-28,0.33,0.349,0.33,0.33899999999999997,1706240
2014-01-29,0.349,0.349,0.335,0.335,475370
2014-01-30,0.33899999999999997,0.33899999999999997,0.33,0.33,1527970
2014-02-04,0.32,0.33,0.316,0.33,1651060
2014-02-05,0.32,0.325,0.316,0.316,882830
2014-02-06,0.316,0.33,0.297,0.316,3117490
2014-02-07,0.311,0.311,0.306,0.311,916780
2014-02-10,0.311,0.325,0.306,0.32,1914210
2014-02-11,0.325,0.33899999999999997,0.325,0.335,2937110
2014-02-12,0.33,0.33899999999999997,0.316,0.32,1273310
2014-02-13,0.33,0.33899999999999997,0.316,0.335,2983790
2014-02-14,0.335,0.349,0.33,0.33,1092930
2014-02-17,0.33,0.33899999999999997,0.325,0.335,3026240
2014-02-18,0.335,0.335,0.311,0.311,2741870
2014-02-19,0.33,0.33,0.316,0.325,3624700
2014-02-20,0.33,0.335,0.32,0.32,3255430
2014-02-21,0.32,0.33,0.316,0.33,3881480
2014-02-24,0.325,0.335,0.32,0.33,4456590
2014-02-25,0.33899999999999997,0.43799999999999994,0.33899999999999997,0.43799999999999994,47608440
2014-02-26,0.44799999999999995,0.452,0.405,0.424,11349460
2014-02-27,0.429,0.49,0.401,0.47100000000000003,20781870
2014-02-28,0.48100000000000004,0.509,0.462,0.47100000000000003,11309140
2014-03-03,0.48100000000000004,0.49,0.44299999999999995,0.48100000000000004,9447980
2014-03-04,0.49,0.49,0.457,0.467,7244090
2014-03-05,0.47100000000000003,0.48100000000000004,0.44799999999999995,0.457,4817510
2014-03-06,0.462,0.556,0.462,0.547,23340170
2014-03-07,0.556,0.669,0.547,0.6409999999999999,44233128
2014-03-10,0.65,0.8390000000000001,0.6409999999999999,0.773,47136512
2014-03-11,0.81,0.81,0.6779999999999999,0.735,15609530
2014-03-12,0.735,0.735,0.66,0.7070000000000001,12617900
2014-03-13,0.6779999999999999,0.81,0.669,0.754,25548660
2014-03-14,0.763,0.773,0.7070000000000001,0.726,12363660
2014-03-17,0.735,0.782,0.735,0.763,6175560
2014-03-18,0.745,0.8009999999999999,0.745,0.754,25720910
2014-03-19,0.754,0.763,0.735,0.754,6182640
2014-03-20,0.745,0.754,0.735,0.754,4927720
2014-03-21,0.745,0.745,0.594,0.622,16438460
2014-03-24,0.622,0.631,0.518,0.5660000000000001,16770940
2014-03-25,0.575,0.603,0.5660000000000001,0.594,5076270
2014-03-26,0.613,0.613,0.575,0.594,2113700
2014-03-27,0.603,0.603,0.47100000000000003,0.547,11052350
2014-03-28,0.528,0.547,0.499,0.528,6914090
2014-03-31,0.528,0.547,0.499,0.518,4613630
2014-04-01,0.528,0.65,0.528,0.613,20672220
2014-04-02,0.613,0.66,0.613,0.6409999999999999,6969260
2014-04-03,0.6409999999999999,0.688,0.613,0.6409999999999999,9392800
2014-04-04,0.622,0.6409999999999999,0.622,0.631,2818260
2014-04-07,0.631,0.6409999999999999,0.603,0.613,2941350
2014-04-08,0.603,0.622,0.547,0.584,3996080
2014-04-09,0.584,0.631,0.575,0.594,3469780
2014-04-10,0.603,0.631,0.594,0.622,2826750
2014-04-11,0.594,0.613,0.594,0.613,1273310
2014-04-14,0.622,0.622,0.5660000000000001,0.584,1629840
2014-04-15,0.603,0.622,0.518,0.528,5424310
2014-04-16,0.528,0.5660000000000001,0.528,0.537,780960
2014-04-17,0.537,0.556,0.518,0.556,3425210
2014-04-22,0.537,0.575,0.528,0.556,1232460
2014-04-23,0.537,0.556,0.537,0.547,884950
2014-04-24,0.556,0.584,0.556,0.5660000000000001,2736560
2014-04-25,0.5660000000000001,0.65,0.537,0.603,10651260
2014-04-28,0.622,0.66,0.594,0.594,2831000
2014-04-29,0.622,0.631,0.584,0.603,1839940
2014-04-30,0.622,0.622,0.5660000000000001,0.594,4252860
2014-05-02,0.603,0.603,0.5660000000000001,0.594,925270
2014-05-05,0.594,0.603,0.556,0.556,1825080
2014-05-07,0.575,0.575,0.537,0.547,1180470
2014-05-08,0.537,0.5660000000000001,0.537,0.547,2096720
2014-05-09,0.537,0.537,0.509,0.509,2973180
2014-05-12,0.547,0.547,0.509,0.518,1078070
2014-05-13,0.518,0.547,0.509,0.537,1740190
2014-05-14,0.547,0.556,0.547,0.547,1315760
2014-05-15,0.5660000000000001,0.5660000000000001,0.537,0.537,657880
2014-05-16,0.528,0.537,0.528,0.537,309840
2014-05-19,0.528,0.537,0.518,0.537,140060
2014-05-20,0.518,0.528,0.499,0.518,1634080
2014-05-21,0.509,0.537,0.499,0.537,1244310
2014-05-22,0.537,0.584,0.537,0.5660000000000001,3522830
2014-05-23,0.547,0.5660000000000001,0.528,0.547,1606230
2014-05-26,0.5660000000000001,0.5660000000000001,0.537,0.5660000000000001,1472800
2014-05-27,0.5660000000000001,0.575,0.528,0.547,2071960
2014-05-28,0.537,0.556,0.537,0.556,522060
2014-05-29,0.556,0.556,0.528,0.547,1926950
2014-05-30,0.547,0.5660000000000001,0.537,0.556,742770
2014-06-03,0.556,0.556,0.537,0.547,2191510
2014-06-04,0.537,0.556,0.537,0.537,564500
2014-06-05,0.537,0.537,0.518,0.537,1665210
2014-06-06,0.518,0.528,0.509,0.518,2094600
2014-06-09,0.518,0.518,0.49,0.499,1765660
2014-06-10,0.499,0.528,0.499,0.528,1673340
2014-06-11,0.537,0.547,0.518,0.528,819190
2014-06-12,0.518,0.537,0.509,0.537,369260
2014-06-13,0.528,0.537,0.518,0.528,169770
2014-06-16,0.509,0.518,0.499,0.509,1239360
2014-06-17,0.509,0.518,0.509,0.518,157040
2014-06-18,0.499,0.509,0.49,0.509,360770
2014-06-19,0.499,0.509,0.499,0.509,127330
2014-06-20,0.49,0.509,0.49,0.499,458390
2014-06-23,0.499,0.499,0.48100000000000004,0.49,971960
2014-06-24,0.48100000000000004,0.499,0.48100000000000004,0.48100000000000004,861610
2014-06-25,0.49,0.49,0.452,0.457,3590740
2014-06-26,0.433,0.462,0.433,0.44299999999999995,2168880
2014-06-27,0.429,0.467,0.429,0.452,1578550
2014-06-30,0.424,0.47100000000000003,0.424,0.462,1876010
2014-07-02,0.457,0.499,0.457,0.48100000000000004,1498260
2014-07-03,0.509,0.509,0.48100000000000004,0.48100000000000004,84890
2014-07-04,0.49,0.49,0.467,0.47100000000000003,963470
2014-07-07,0.47100000000000003,0.49,0.462,0.462,721540
2014-07-08,0.47100000000000003,0.47100000000000003,0.462,0.462,1124760
2014-07-09,0.467,0.467,0.467,0.467,59760
2014-07-10,0.457,0.47100000000000003,0.457,0.47100000000000003,526300
2014-07-11,0.48100000000000004,0.49,0.47100000000000003,0.47100000000000003,530550
2014-07-14,0.47100000000000003,0.49,0.47100000000000003,0.48100000000000004,1205400
2014-07-15,0.48100000000000004,0.48100000000000004,0.47100000000000003,0.47100000000000003,2021170
2014-07-16,0.48100000000000004,0.48100000000000004,0.467,0.47100000000000003,409580
2014-07-17,0.47100000000000003,0.47100000000000003,0.457,0.47100000000000003,291450
2014-07-18,0.47100000000000003,0.47100000000000003,0.457,0.462,377750
2014-07-21,0.462,0.467,0.452,0.462,1973630
2014-07-22,0.452,0.462,0.43799999999999994,0.462,1078070
2014-07-23,0.452,0.462,0.44799999999999995,0.462,1090800
2014-07-24,0.462,0.48100000000000004,0.457,0.457,1051190
2014-07-25,0.457,0.467,0.457,0.467,423380
2014-07-28,0.467,0.467,0.452,0.452,489520
2014-07-29,0.452,0.457,0.452,0.452,738520
2014-07-30,0.44799999999999995,0.44799999999999995,0.424,0.429,3480390
2014-07-31,0.44299999999999995,0.44299999999999995,0.424,0.424,4334830
2014-08-01,0.424,0.43799999999999994,0.391,0.401,3819940
2014-08-04,0.382,0.47100000000000003,0.382,0.44799999999999995,6445080
2014-08-05,0.44299999999999995,0.47100000000000003,0.43799999999999994,0.452,2864950
2014-08-06,0.452,0.467,0.43799999999999994,0.44299999999999995,1264820
2014-08-07,0.452,0.452,0.424,0.44299999999999995,772480
2014-08-08,0.44299999999999995,0.44299999999999995,0.44299999999999995,0.44299999999999995,388360
2014-08-11,0.433,0.43799999999999994,0.405,0.433,2232540
2014-08-12,0.43799999999999994,0.452,0.429,0.429,921030
2014-08-13,0.429,0.429,0.405,0.424,1144920
2014-08-14,0.424,0.424,0.391,0.41,10156790
2014-08-15,0.415,0.452,0.415,0.424,2915880
2014-08-18,0.424,0.433,0.41,0.415,2147650
2014-08-19,0.41,0.43799999999999994,0.396,0.415,1553440
2014-08-20,0.424,0.43799999999999994,0.401,0.424,2327330
2014-08-21,0.41,0.429,0.41,0.429,696080
2014-08-22,0.429,0.429,0.419,0.424,1714730
2014-08-25,0.424,0.43799999999999994,0.41,0.424,2215560
2014-08-26,0.424,0.43799999999999994,0.415,0.43799999999999994,2423540
2014-08-27,0.433,0.43799999999999994,0.433,0.433,309840
2014-08-28,0.419,0.43799999999999994,0.415,0.424,2258010
2014-08-29,0.415,0.43799999999999994,0.41,0.424,2279230
2014-09-01,0.433,0.43799999999999994,0.419,0.424,1438840
2014-09-02,0.433,0.518,0.433,0.49,17386550
2014-09-03,0.499,0.556,0.49,0.556,15856980
2014-09-04,0.556,0.622,0.518,0.5660000000000001,12552740
2014-09-05,0.5660000000000001,0.584,0.537,0.537,3002050
2014-09-08,0.5660000000000001,0.5660000000000001,0.537,0.537,2143410
2014-09-10,0.537,0.594,0.537,0.584,13047210
2014-09-11,0.603,0.6409999999999999,0.575,0.631,29186440
2014-09-12,0.631,0.65,0.594,0.603,10659750
2014-09-15,0.613,0.6409999999999999,0.613,0.631,5428550
2014-09-16,0.631,0.669,0.622,0.631,10065010
2014-09-17,0.6409999999999999,0.65,0.622,0.631,5526180
2014-09-18,0.622,0.6409999999999999,0.594,0.603,4422640
2014-09-19,0.613,0.631,0.603,0.603,1151290
2014-09-22,0.594,0.613,0.556,0.584,4070090
2014-09-23,0.584,0.613,0.584,0.594,2820880
2014-09-24,0.603,0.613,0.5660000000000001,0.613,5190870
2014-09-25,0.603,0.613,0.575,0.594,3507980
2014-09-26,0.575,0.6409999999999999,0.575,0.594,3111130
2014-09-29,0.584,0.594,0.5660000000000001,0.575,2703670
2014-09-30,0.575,0.594,0.528,0.575,4002440
2014-10-03,0.575,0.594,0.547,0.575,827650
2014-10-06,0.584,0.584,0.5660000000000001,0.584,507910
2014-10-07,0.584,0.613,0.575,0.584,725790
2014-10-08,0.584,0.584,0.5660000000000001,0.575,662120
2014-10-09,0.575,0.594,0.5660000000000001,0.575,1859040
2014-10-10,0.5660000000000001,0.594,0.556,0.584,1939680
2014-10-13,0.584,0.594,0.5660000000000001,0.584,1472800
2014-10-14,0.584,0.688,0.584,0.65,14172610
2014-10-15,0.65,0.688,0.613,0.622,10744630
2014-10-16,0.622,0.6409999999999999,0.613,0.631,3476140
2014-10-17,0.631,0.66,0.603,0.622,4291060
2014-10-20,0.6409999999999999,0.65,0.622,0.622,4333510
2014-10-21,0.622,0.6409999999999999,0.613,0.631,3614790
2014-10-22,0.66,0.82,0.631,0.669,32776480
2014-10-23,0.688,0.726,0.688,0.726,18113400
2014-10-24,0.735,0.763,0.688,0.6970000000000001,13932160
2014-10-27,0.7070000000000001,0.7070000000000001,0.669,0.688,5759620
2014-10-28,0.688,0.716,0.6779999999999999,0.7070000000000001,3034730
2014-10-29,0.726,0.773,0.716,0.726,8737340
2014-10-30,0.7070000000000001,0.745,0.7070000000000001,0.735,3574050
2014-10-31,0.726,0.735,0.688,0.726,6383810
2014-11-03,0.726,0.726,0.688,0.716,7707780
2014-11-04,0.7070000000000001,0.7070000000000001,0.669,0.688,4325020
2014-11-05,0.6779999999999999,0.716,0.669,0.7070000000000001,4694280
2014-11-06,0.688,0.7070000000000001,0.669,0.6970000000000001,6645630
2014-11-07,0.6779999999999999,0.688,0.66,0.688,4632730
2014-11-10,0.688,0.7070000000000001,0.6779999999999999,0.688,4542890
2014-11-11,0.6779999999999999,0.7070000000000001,0.669,0.688,4456590
2014-11-12,0.6970000000000001,0.7070000000000001,0.65,0.6779999999999999,6145850
2014-11-13,0.65,0.6779999999999999,0.65,0.669,4823670
2014-11-14,0.65,0.6779999999999999,0.6409999999999999,0.65,4282570
2014-11-17,0.65,0.65,0.622,0.631,976210
2014-11-18,0.631,0.631,0.594,0.613,3365790
2014-11-19,0.594,0.622,0.594,0.603,1116270
2014-11-20,0.603,0.613,0.575,0.575,6273180
2014-11-21,0.5660000000000001,0.6409999999999999,0.556,0.594,13898910
2014-11-24,0.594,0.613,0.575,0.584,5411580
2014-11-25,0.584,0.622,0.5660000000000001,0.584,13178780
2014-11-26,0.594,0.613,0.584,0.584,3679870
2014-11-27,0.584,0.613,0.547,0.575,18119230
2014-11-28,0.556,0.584,0.537,0.5660000000000001,6807980
2014-12-01,0.537,0.594,0.47100000000000003,0.499,9545600
2014-12-05,0.48100000000000004,0.518,0.467,0.49,11342310
2014-12-08,0.509,0.528,0.47100000000000003,0.499,5984570
2014-12-09,0.499,0.499,0.452,0.47100000000000003,4575440
2014-12-10,0.48100000000000004,0.509,0.457,0.49,6302900
2014-12-11,0.47100000000000003,0.47100000000000003,0.457,0.467,3212990
2014-12-12,0.457,0.47100000000000003,0.424,0.462,5929390
2014-12-15,0.462,0.467,0.429,0.452,1850550
2014-12-16,0.457,0.467,0.433,0.44799999999999995,1685020
2014-12-17,0.433,0.452,0.433,0.433,2712160
2014-12-18,0.433,0.44799999999999995,0.433,0.44799999999999995,2157560
2014-12-19,0.44799999999999995,0.44799999999999995,0.43799999999999994,0.43799999999999994,865850
2014-12-22,0.433,0.44299999999999995,0.424,0.43799999999999994,3229970
2014-12-23,0.424,0.457,0.424,0.43799999999999994,2826750
2014-12-24,0.429,0.433,0.424,0.424,708810
2014-12-29,0.429,0.43799999999999994,0.415,0.419,2253760
2014-12-30,0.429,0.429,0.391,0.396,6294410
2014-12-31,0.396,0.396,0.37200000000000005,0.391,1617110
2015-01-02,0.363,0.391,0.363,0.386,619680
2015-01-05,0.377,0.401,0.37200000000000005,0.391,4231640
2015-01-06,0.386,0.396,0.377,0.391,2306820
2015-01-07,0.401,0.429,0.401,0.424,1511000
2015-01-08,0.452,0.47100000000000003,0.44299999999999995,0.452,1627720
2015-01-09,0.452,0.499,0.43799999999999994,0.47100000000000003,3735050
2015-01-16,0.499,0.518,0.452,0.452,819160
2015-01-17,0.77,0.77,0.77,0.77,0
2015-01-19,0.452,0.48100000000000004,0.452,0.47100000000000003,2185850
2015-01-20,0.47100000000000003,0.47100000000000003,0.462,0.462,572990
2015-01-21,0.457,0.499,0.452,0.48100000000000004,4987140
2015-01-22,0.499,0.509,0.47100000000000003,0.47100000000000003,2262250
2015-01-23,0.48100000000000004,0.518,0.48100000000000004,0.509,2368360
2015-01-26,0.499,0.547,0.499,0.537,1498260
2015-01-27,0.537,0.613,0.509,0.575,6413250
2015-01-28,0.575,0.575,0.556,0.556,1943920
2015-01-29,0.556,0.556,0.499,0.556,3964250
2015-01-30,0.528,0.594,0.509,0.5660000000000001,3883600
2015-02-02,0.575,0.575,0.537,0.547,623920
2015-02-03,0.537,0.547,0.47100000000000003,0.518,3756270
2015-02-04,0.547,0.547,0.48100000000000004,0.509,1179940
2015-02-05,0.509,0.509,0.47100000000000003,0.48100000000000004,2432030
2015-02-06,0.49,0.518,0.47100000000000003,0.499,1243600
2015-02-09,0.499,0.575,0.499,0.509,4329260
2015-02-10,0.509,0.518,0.499,0.509,755500
2015-02-11,0.509,0.509,0.48100000000000004,0.509,1778390
2015-02-12,0.49,0.518,0.49,0.509,704570
2015-02-13,0.49,0.509,0.49,0.499,309840
2015-02-16,0.499,0.509,0.47100000000000003,0.49,2100970
2015-02-17,0.47100000000000003,0.49,0.47100000000000003,0.49,182510
2015-02-18,0.48100000000000004,0.49,0.48100000000000004,0.48100000000000004,420190
2015-02-23,0.49,0.509,0.48100000000000004,0.499,1171450
2015-02-24,0.499,0.499,0.48100000000000004,0.49,827650
2015-02-25,0.49,0.49,0.47100000000000003,0.48100000000000004,564500
2015-02-26,0.48100000000000004,0.49,0.48100000000000004,0.48100000000000004,324690
2015-02-27,0.49,0.518,0.48100000000000004,0.499,483860
2015-03-02,0.518,0.528,0.49,0.528,2887590
2015-03-03,0.547,0.5660000000000001,0.518,0.528,3648750
2015-03-04,0.528,0.547,0.518,0.528,3701090
2015-03-05,0.528,0.537,0.528,0.537,4151000
2015-03-06,0.528,0.528,0.518,0.518,335310
2015-03-09,0.528,0.613,0.528,0.5660000000000001,6349580
2015-03-10,0.575,0.584,0.528,0.556,3547660
2015-03-11,0.556,0.5660000000000001,0.556,0.5660000000000001,488100
2015-03-12,0.5660000000000001,0.584,0.5660000000000001,0.575,1986370
2015-03-13,0.584,0.584,0.537,0.575,2886170
2015-03-16,0.556,0.575,0.556,0.575,963470
2015-03-17,0.584,0.622,0.556,0.584,6294410
2015-03-18,0.5660000000000001,0.594,0.556,0.584,3149330
2015-03-19,0.575,0.584,0.5660000000000001,0.5660000000000001,1948170
2015-03-20,0.556,0.5660000000000001,0.537,0.556,3174790
2015-03-23,0.556,0.5660000000000001,0.537,0.547,2239450
2015-03-24,0.547,0.556,0.528,0.537,2054280
2015-03-25,0.537,0.547,0.528,0.528,1294530
2015-03-26,0.528,0.603,0.528,0.537,3449970
2015-03-27,0.528,0.5660000000000001,0.518,0.528,4040640
2015-03-30,0.537,0.556,0.528,0.537,3578010
2015-03-31,0.537,0.575,0.518,0.556,7096590
2015-04-01,0.584,0.584,0.556,0.5660000000000001,5220580
2015-04-02,0.575,0.594,0.556,0.584,7320480
2015-04-08,0.584,0.6409999999999999,0.547,0.613,16490100
2015-04-09,0.584,0.66,0.575,0.603,10704310
2015-04-10,0.594,0.613,0.5660000000000001,0.613,7068300
2015-04-13,0.613,0.6970000000000001,0.584,0.669,23415920
2015-04-14,0.688,0.688,0.613,0.622,17257840
2015-04-15,0.622,0.6409999999999999,0.584,0.613,9619870
2015-04-16,0.613,0.622,0.584,0.594,11987600
2015-04-17,0.622,0.6970000000000001,0.613,0.631,24935700
2015-04-20,0.81,1.008,0.782,0.9329999999999999,134463568
2015-04-21,0.905,0.9329999999999999,0.726,0.8859999999999999,78746784
2015-04-22,0.9420000000000001,1.3,0.905,1.159,118059560
2015-04-23,1.225,1.649,1.197,1.6019999999999999,112557352
2015-04-24,1.5830000000000002,1.649,1.376,1.555,54069080
2015-04-27,1.6019999999999999,1.96,1.433,1.574,54528180
2015-04-28,1.6019999999999999,1.64,1.48,1.6019999999999999,36954568
2015-04-29,1.6019999999999999,1.63,1.489,1.5930000000000002,27177790
2015-04-30,1.63,1.6680000000000001,1.508,1.527,21346200
2015-05-04,1.555,1.564,1.348,1.395,46415592
2015-05-05,1.4140000000000001,1.433,1.169,1.31,43379620
2015-05-06,1.31,1.4040000000000001,1.253,1.319,18202000
2015-05-07,1.31,1.31,1.131,1.159,22536920
2015-05-08,1.159,1.272,1.15,1.244,15293890
2015-05-11,1.263,1.4509999999999998,1.225,1.423,27737260
2015-05-12,1.433,1.5830000000000002,1.367,1.442,20562110
2015-05-13,1.4980000000000002,1.508,1.367,1.4140000000000001,9577430
2015-05-14,1.395,1.574,1.348,1.527,27615310
2015-05-15,1.546,1.621,1.517,1.6019999999999999,32289960
2015-05-18,1.64,1.857,1.611,1.81,41379072
2015-05-19,1.838,1.932,1.659,1.725,33809272
2015-05-20,1.744,1.744,1.6019999999999999,1.64,24823650
2015-05-21,1.6869999999999998,1.715,1.527,1.5830000000000002,14412830
2015-05-22,1.574,1.64,1.489,1.564,19916730
2015-05-26,1.621,1.706,1.6019999999999999,1.64,19261320
2015-05-27,1.64,1.64,1.574,1.621,11667780
2015-05-28,1.649,1.649,1.4140000000000001,1.536,15965210
2015-05-29,1.527,1.546,1.47,1.527,8648970
2015-06-01,1.508,1.6769999999999998,1.47,1.64,17648280
2015-06-02,1.64,1.64,1.527,1.546,16284800
2015-06-03,1.508,1.6019999999999999,1.4609999999999999,1.489,27782260
2015-06-04,1.489,1.517,1.348,1.4609999999999999,14024120
2015-06-05,1.442,1.48,1.385,1.4140000000000001,7068110
2015-06-08,1.376,1.442,1.263,1.2819999999999998,20752160
2015-06-09,1.244,1.2819999999999998,1.159,1.188,14426630
2015-06-10,1.178,1.31,1.178,1.206,12672640
2015-06-11,1.3,1.3,1.225,1.272,5364890
2015-06-12,1.225,1.291,1.225,1.272,6111900
2015-06-15,1.225,1.272,1.178,1.235,6005790
2015-06-16,1.235,1.4509999999999998,1.216,1.31,8418730
2015-06-17,1.357,1.367,1.2819999999999998,1.367,5489570
2015-06-18,1.376,1.385,1.2819999999999998,1.31,9017880
2015-06-19,1.31,1.357,1.263,1.2819999999999998,5367010
2015-06-22,1.272,1.319,1.272,1.31,2181610
2015-06-23,1.272,1.291,1.188,1.272,9803440
2015-06-24,1.206,1.3,1.206,1.225,5793570
2015-06-25,1.225,1.272,1.188,1.244,3709580
2015-06-26,1.244,1.244,1.188,1.197,4859810
2015-06-29,1.27,1.3,1.05,1.1,11803200
2015-06-30,1.08,1.15,1.01,1.13,6028000
2015-07-02,1.15,1.19,1.02,1.08,11633441
2015-07-03,1.1,1.1,0.88,0.92,12992000
2015-07-06,0.95,0.98,0.62,0.73,21128000
2015-07-07,0.69,0.78,0.58,0.62,14118001
2015-07-08,0.52,0.58,0.42,0.52,24988000
2015-07-09,0.5,0.8,0.465,0.71,20368000
2015-07-10,0.76,0.95,0.76,0.87,17238668
2015-07-13,0.87,1.0,0.87,0.99,9288000
2015-07-14,1.07,1.15,0.94,1.0,12022666
2015-07-15,1.08,1.08,0.89,0.91,5916000
2015-07-16,0.86,0.96,0.85,0.92,7560000
2015-07-17,0.94,0.95,0.9,0.94,2928000
2015-07-20,0.99,0.99,0.92,0.94,1304000
2015-07-21,0.92,1.0,0.91,0.96,2472000
2015-07-22,0.97,0.97,0.9,0.92,3432000
2015-07-23,0.9,0.91,0.86,0.89,4968000
2015-07-24,0.88,0.89,0.85,0.87,692000
2015-07-27,0.84,0.85,0.66,0.7,8732000
2015-07-28,0.7,0.83,0.65,0.74,7552000
2015-07-29,0.75,0.82,0.75,0.79,1820000
2015-07-30,0.82,0.82,0.73,0.77,1232000
2015-07-31,0.77,0.8,0.75,0.79,3580000
2015-08-03,0.75,0.82,0.75,0.8,5100000
2015-08-04,0.83,0.84,0.81,0.84,984000
2015-08-05,0.83,0.87,0.8,0.82,1888000
2015-08-06,0.82,0.82,0.74,0.79,12024000
2015-08-07,0.75,0.82,0.72,0.77,4793333
2015-08-10,0.77,0.85,0.77,0.82,3164000
2015-08-11,0.86,0.86,0.77,0.78,936000
2015-08-12,0.74,0.77,0.73,0.74,2844000
2015-08-13,0.76,0.76,0.73,0.75,541950
2015-08-14,0.74,0.84,0.73,0.8,2652000
2015-08-17,0.8,0.8,0.72,0.75,6508000
2015-08-18,0.75,0.77,0.7,0.71,2284000
2015-08-19,0.7,0.73,0.67,0.7,2576000
2015-08-20,0.7,0.76,0.69,0.7,2088000
2015-08-21,0.68,0.71,0.64,0.68,6256000
2015-08-24,0.63,0.65,0.48,0.57,14624000
2015-08-25,0.56,0.6,0.52,0.56,7968000
2015-08-26,0.56,0.62,0.55,0.56,2172000
2015-08-27,0.6,0.64,0.57,0.62,2564000
2015-08-28,0.66,0.66,0.56,0.62,2636000
2015-08-31,0.59,0.6,0.58,0.59,1920000
2015-09-01,0.6,0.6,0.57,0.58,1080000
2015-09-02,0.56,0.6,0.56,0.57,2036000
2015-09-04,0.58,0.61,0.56,0.57,972000
2015-09-07,0.56,0.59,0.56,0.58,452000
2015-09-08,0.58,0.62,0.57,0.62,2104000
2015-09-09,0.63,0.66,0.61,0.66,3456000
2015-09-10,0.65,0.66,0.62,0.65,1608000
2015-09-11,0.65,0.76,0.65,0.7,2568000
2015-09-14,0.71,0.74,0.69,0.71,2416000
2015-09-15,0.7,0.71,0.7,0.71,1470000
2015-09-16,0.73,0.73,0.7,0.71,5720000
2015-09-17,0.71,0.74,0.7,0.72,1338500
2015-09-18,0.72,0.77,0.72,0.75,1664000
2015-09-21,0.75,0.83,0.75,0.81,5040000
2015-09-22,0.83,0.83,0.79,0.79,1956400
2015-09-23,0.81,0.84,0.77,0.77,1856000
2015-09-24,0.81,0.81,0.76,0.78,2088000
2015-09-25,0.78,0.82,0.76,0.82,5168000
2015-09-29,0.78,0.83,0.78,0.83,3149861
2015-09-30,0.84,0.86,0.82,0.83,2354000
2015-10-02,0.85,0.89,0.84,0.86,1704000
2015-10-05,0.86,0.88,0.84,0.86,1376000
2015-10-06,0.86,0.92,0.86,0.89,2228000
2015-10-07,0.88,0.93,0.88,0.91,4696000
2015-10-08,0.9,0.93,0.89,0.91,5260000
2015-10-09,0.93,0.93,0.88,0.88,4228000
2015-10-12,0.88,0.92,0.88,0.88,2112000
2015-10-13,0.88,0.88,0.85,0.87,1848000
2015-10-14,0.85,0.88,0.84,0.85,1928000
2015-10-15,0.86,0.86,0.81,0.82,3264000
2015-10-16,0.83,0.85,0.82,0.85,1616000
2015-10-19,0.85,0.85,0.82,0.83,2860000
2015-10-20,0.83,0.84,0.82,0.82,1816000
2015-10-22,0.82,0.88,0.82,0.84,3060000
2015-10-23,0.85,0.87,0.84,0.85,1320000
2015-10-26,0.86,0.86,0.82,0.86,2088000
2015-10-27,0.84,0.87,0.83,0.83,5708000
2015-10-28,0.84,0.84,0.82,0.83,1688000
2015-10-29,0.84,0.84,0.82,0.82,720000
2015-10-30,0.84,0.84,0.82,0.83,1101000
2015-11-02,0.85,0.86,0.82,0.86,2112000
2015-11-03,0.87,0.92,0.87,0.9,3600000
2015-11-04,0.9,0.97,0.86,0.96,9260000
2015-11-05,0.96,0.99,0.94,0.99,9596000
2015-11-06,0.99,1.15,0.99,1.15,24094000
2015-11-09,1.15,1.16,1.07,1.09,11624000
2015-11-10,1.09,1.19,1.08,1.09,8878000
2015-11-11,1.1,1.1,1.07,1.09,9622000
2015-11-12,1.1,1.14,1.08,1.09,7376000
2015-11-13,1.08,1.14,1.08,1.11,5390000
2015-11-16,1.08,1.14,1.08,1.11,3592000
2015-11-17,1.13,1.17,1.12,1.16,9962000
2015-11-18,1.18,1.3,1.18,1.22,14272000
2015-11-19,1.25,1.27,1.2,1.24,8380250
2015-11-20,1.25,1.27,1.22,1.25,4956000
2015-11-23,1.24,1.27,1.21,1.23,6368000
2015-11-24,1.24,1.24,1.03,1.15,8368000
2015-11-25,1.15,1.18,1.12,1.18,4456000
2015-11-26,1.18,1.18,1.15,1.15,2868000
2015-11-27,1.15,1.16,1.08,1.08,2016000
2015-11-30,1.12,1.16,1.06,1.1,3492000
2015-12-02,1.15,1.25,1.1,1.15,8524000
2015-12-03,1.15,1.2,1.13,1.16,5000000
2015-12-04,1.15,1.2,1.13,1.16,2900000
2015-12-07,1.16,1.19,1.11,1.15,1768000
2015-12-08,1.15,1.15,1.07,1.08,2076000
2015-12-09,1.06,1.1,1.04,1.06,2130000
2015-12-10,1.06,1.15,1.04,1.13,2108000
2015-12-11,1.11,1.13,1.06,1.08,1394838
2015-12-14,1.03,1.12,1.03,1.11,1936000
2015-12-15,1.06,1.13,1.06,1.12,1372000
2015-12-16,1.13,1.17,1.09,1.1,1458000
2015-12-17,1.1,1.16,1.1,1.1,1068666
2015-12-18,1.08,1.11,1.07,1.08,780000
2015-12-21,1.06,1.07,1.03,1.03,1399677
2015-12-22,1.03,1.08,1.0,1.02,976000
2015-12-23,1.02,1.05,1.02,1.03,529000
2015-12-24,1.04,1.05,1.04,1.05,384000
2015-12-28,1.05,1.09,0.99,1.0,3120000
2015-12-29,1.0,1.01,0.98,0.98,380000
2015-12-30,0.98,0.99,0.96,0.97,2388000
2015-12-31,0.97,1.0,0.97,0.98,164000
2016-01-04,0.97,0.99,0.96,0.96,900000
2016-01-05,0.96,0.97,0.94,0.94,680000
2016-01-06,0.95,0.97,0.94,0.95,936000
2016-01-07,0.93,0.93,0.8,0.89,4634000
2016-01-08,0.89,0.89,0.86,0.88,360000
2016-01-11,0.85,0.87,0.79,0.8,1564000
2016-01-12,0.82,0.86,0.75,0.82,2204000
2016-01-13,0.84,0.85,0.8,0.83,428000
2016-01-14,0.85,0.85,0.8,0.82,632000
2016-01-15,0.82,0.84,0.8,0.81,1284000
2016-01-18,0.81,0.81,0.76,0.77,452000
2016-01-19,0.77,0.81,0.77,0.81,864000
2016-01-20,0.79,0.79,0.75,0.75,520000
2016-01-21,0.75,0.81,0.65,0.7,1776000
2016-01-22,0.7,0.7,0.66,0.67,1272000
2016-01-25,0.66,0.7,0.65,0.7,1460000
2016-01-26,0.69,0.69,0.66,0.68,860000
2016-01-27,0.68,0.69,0.66,0.66,764000
2016-01-28,0.66,0.67,0.63,0.64,540000
2016-01-29,0.62,0.69,0.61,0.68,2204000
2016-02-01,0.69,0.71,0.67,0.67,336000
2016-02-02,0.67,0.68,0.64,0.67,480000
2016-02-03,0.65,0.65,0.63,0.64,220000
2016-02-04,0.64,0.67,0.64,0.67,744000
2016-02-05,0.67,0.68,0.66,0.67,1184020
2016-02-11,0.7,0.7,0.67,0.68,984000
2016-02-12,0.68,0.68,0.66,0.66,656000
2016-02-15,0.66,0.7,0.66,0.66,1000000
2016-02-16,0.66,0.68,0.62,0.64,2528000
2016-02-17,0.64,0.64,0.61,0.62,1484000
2016-02-18,0.63,0.68,0.62,0.67,2032000
2016-02-19,0.68,0.68,0.66,0.66,348000
2016-02-22,0.66,0.71,0.66,0.71,1208000
2016-02-23,0.72,0.72,0.68,0.7,1712000
2016-02-24,0.68,0.68,0.65,0.67,1972000
2016-02-25,0.65,0.68,0.63,0.65,2444000
2016-02-26,0.65,0.69,0.64,0.68,2840000
2016-02-29,0.68,0.7,0.66,0.68,2060000
2016-03-01,0.67,0.68,0.64,0.67,1816000
2016-03-02,0.67,0.69,0.65,0.67,2000000
2016-03-03,0.67,0.69,0.66,0.66,1380000
2016-03-04,0.67,0.69,0.66,0.66,1286000
2016-03-07,0.66,0.68,0.62,0.63,2280000
2016-03-08,0.63,0.68,0.63,0.64,1304000
2016-03-09,0.63,0.66,0.63,0.64,636000
2016-03-10,0.65,0.67,0.64,0.65,312000
2016-03-11,0.66,0.66,0.66,0.66,208000
2016-03-14,0.67,0.67,0.6,0.63,3412000
2016-03-15,0.63,0.65,0.59,0.6,3276000
2016-03-16,0.59,0.62,0.59,0.61,676000
2016-03-17,0.6,0.63,0.6,0.62,576000
2016-03-18,0.62,0.62,0.62,0.62,140000
2016-03-21,0.62,0.66,0.61,0.63,532000
2016-03-22,0.62,0.65,0.62,0.65,796000
2016-03-23,0.63,0.64,0.61,0.63,1208000
2016-03-24,0.64,0.65,0.62,0.64,488000
2016-03-29,0.63,0.65,0.62,0.64,536000
2016-03-30,0.63,0.64,0.63,0.63,432000
2016-03-31,0.63,0.64,0.62,0.64,496000
2016-04-01,0.62,0.63,0.61,0.63,552000
2016-04-05,0.61,0.64,0.58,0.61,1980000
2016-04-06,0.61,0.61,0.59,0.6,1176000
2016-04-07,0.6,0.61,0.58,0.58,320000
2016-04-08,0.58,0.59,0.58,0.59,1020000
2016-04-11,0.59,0.59,0.59,0.59,348000
2016-04-12,0.59,0.6,0.58,0.59,168000
2016-04-13,0.6,0.62,0.6,0.61,1712000
2016-04-14,0.64,0.68,0.63,0.66,5524000
2016-04-15,0.66,0.66,0.65,0.66,1434000
2016-04-18,0.66,0.66,0.63,0.64,1108000
2016-04-19,0.65,0.67,0.64,0.64,1576000
2016-04-20,0.64,0.64,0.64,0.64,488000
2016-04-21,0.64,0.65,0.62,0.64,1096000
2016-04-22,0.62,0.63,0.61,0.62,988000
2016-04-25,0.62,0.62,0.6,0.61,300000
2016-04-26,0.63,0.66,0.62,0.63,1308000
2016-04-27,0.63,0.63,0.62,0.62,396000
2016-04-28,0.64,0.64,0.61,0.62,396000
2016-04-29,0.61,0.62,0.6,0.61,432000
2016-05-03,0.6,0.6,0.49,0.53,8016000
2016-05-04,0.53,0.53,0.475,0.5,7844000
2016-05-05,0.5,0.53,0.5,0.52,4768000
2016-05-06,0.52,0.55,0.5,0.51,3276000
2016-05-09,0.51,0.53,0.5,0.5,896000
2016-05-10,0.495,0.5,0.48,0.5,1620000
2016-05-11,0.51,0.52,0.51,0.51,204000
2016-05-12,0.5,0.52,0.5,0.52,520000
2016-05-13,0.52,0.52,0.495,0.5,2132000
2016-05-16,0.5,0.5,0.49,0.49,1832000
2016-05-17,0.495,0.5,0.49,0.5,680000
2016-05-18,0.51,0.52,0.48,0.5,2208000
2016-05-19,0.5,0.52,0.49,0.49,5348000
2016-05-20,0.48,0.49,0.48,0.49,660000
2016-05-23,0.48,0.49,0.47,0.485,2300000
2016-05-24,0.46,0.5,0.455,0.485,761700
2016-05-25,0.475,0.495,0.47,0.49,556000
2016-05-26,0.475,0.5,0.47,0.5,424000
2016-05-27,0.48,0.495,0.47,0.49,1676000
2016-05-30,0.48,0.495,0.475,0.49,1008000
2016-05-31,0.48,0.5,0.48,0.495,1328000
2016-06-01,0.49,0.5,0.49,0.5,1168000
2016-06-02,0.5,0.5,0.485,0.49,1948000
2016-06-03,0.485,0.495,0.475,0.48,724000
2016-06-06,0.485,0.49,0.48,0.485,436000
2016-06-07,0.49,0.49,0.47,0.48,1188000
2016-06-08,0.48,0.485,0.48,0.48,672000
2016-06-10,0.475,0.485,0.475,0.475,188000
2016-06-13,0.47,0.485,0.44,0.46,4972000
2016-06-14,0.485,0.485,0.44,0.47,4796000
2016-06-15,0.47,0.47,0.45,0.465,1012000
2016-06-16,0.465,0.475,0.455,0.465,604000
2016-06-17,0.47,0.47,0.46,0.47,328000
2016-06-20,0.46,0.47,0.46,0.47,350000
2016-06-21,0.465,0.47,0.465,0.47,92000
2016-06-22,0.46,0.465,0.46,0.465,48000
2016-06-23,0.465,0.465,0.45,0.455,1136000
2016-06-24,0.46,0.46,0.39,0.435,5825333
2016-06-27,0.415,0.425,0.395,0.4,4600000
2016-06-28,0.39,0.41,0.39,0.41,4880000
2016-06-29,0.4,0.4,0.39,0.39,1252000
2016-06-30,0.395,0.41,0.395,0.41,468000
2016-07-04,0.4,0.405,0.4,0.405,5772000
2016-07-05,0.4,0.405,0.4,0.4,246000
2016-07-06,0.4,0.4,0.4,0.4,150000
2016-07-07,0.405,0.41,0.4,0.4,276000
2016-07-08,0.4,0.41,0.39,0.405,652000
2016-07-11,0.4,0.4,0.4,0.4,116000
2016-07-12,0.385,0.4,0.385,0.395,188000
2016-07-13,0.395,0.395,0.39,0.395,512000
2016-07-14,0.39,0.405,0.39,0.395,444000
2016-07-15,0.39,0.39,0.355,0.38,1256000
2016-07-18,0.385,0.385,0.37,0.38,2876500
2016-07-19,0.375,0.38,0.375,0.375,2276000
2016-07-20,0.37,0.375,0.365,0.37,869000
2016-07-21,0.37,0.375,0.37,0.37,672000
2016-07-22,0.385,0.45,0.385,0.405,8176000
2016-07-25,0.395,0.395,0.375,0.375,2184000
2016-07-26,0.375,0.38,0.37,0.38,2656000
2016-07-27,0.37,0.38,0.355,0.355,2880000
2016-07-28,0.355,0.37,0.345,0.35,5280000
2016-07-29,0.34,0.355,0.34,0.35,2840000
2016-08-01,0.355,0.38,0.35,0.35,2132000
2016-08-03,0.345,0.37,0.345,0.365,1084000
2016-08-04,0.355,0.37,0.355,0.36,712000
2016-08-05,0.35,0.365,0.35,0.365,444000
2016-08-08,0.365,0.385,0.36,0.36,2972000
2016-08-09,0.36,0.375,0.36,0.375,1028000
2016-08-10,0.375,0.375,0.36,0.36,1372000
2016-08-11,0.37,0.375,0.36,0.36,804000
2016-08-12,0.375,0.39,0.37,0.38,1784000
2016-08-15,0.37,0.38,0.37,0.37,2124000
2016-08-16,0.365,0.375,0.365,0.375,436000
2016-08-17,0.375,0.385,0.375,0.375,1452000
2016-08-18,0.37,0.37,0.36,0.365,1464666
2016-08-19,0.36,0.36,0.355,0.36,976000
2016-08-22,0.36,0.36,0.345,0.36,1092000
2016-08-23,0.36,0.36,0.36,0.36,800000
2016-08-24,0.345,0.36,0.345,0.36,168000
2016-08-25,0.345,0.36,0.34,0.35,552000
2016-08-26,0.35,0.36,0.35,0.35,224000
2016-08-29,0.35,0.35,0.33,0.33,1320000
2016-08-30,0.34,0.345,0.34,0.34,1384000
2016-08-31,0.34,0.345,0.335,0.335,2180000
2016-09-01,0.345,0.35,0.34,0.34,908000
2016-09-02,0.34,0.34,0.33,0.33,1872000
2016-09-05,0.34,0.35,0.33,0.35,1278000
2016-09-06,0.36,0.36,0.345,0.36,1836000
2016-09-07,0.36,0.37,0.355,0.36,968000
2016-09-08,0.36,0.39,0.36,0.37,1874000
2016-09-09,0.36,0.375,0.36,0.37,1284000
2016-09-12,0.365,0.365,0.34,0.36,1244000
2016-09-13,0.36,0.37,0.355,0.36,920000
2016-09-14,0.355,0.365,0.35,0.36,988000
2016-09-15,0.36,0.36,0.355,0.355,152000
2016-09-19,0.35,0.36,0.35,0.35,1048000
2016-09-20,0.35,0.36,0.35,0.355,556000
2016-09-21,0.355,0.365,0.35,0.36,952000
2016-09-22,0.355,0.36,0.355,0.36,428000
2016-09-23,0.36,0.365,0.355,0.355,1184000
2016-09-26,0.36,0.375,0.355,0.365,1644000
2016-09-27,0.36,0.36,0.36,0.36,293834
2016-09-28,0.36,0.36,0.355,0.36,260000
2016-09-29,0.36,0.36,0.355,0.36,300000
2016-09-30,0.355,0.37,0.355,0.37,1488000
2016-10-03,0.365,0.375,0.365,0.365,196000
2016-10-04,0.36,0.37,0.36,0.365,596000
2016-10-05,0.365,0.37,0.365,0.37,536000
2016-10-06,0.365,0.41,0.365,0.38,6980000
2016-10-07,0.38,0.38,0.365,0.37,1448000
2016-10-11,0.37,0.385,0.36,0.38,2620000
2016-10-12,0.38,0.385,0.37,0.38,1760000
2016-10-13,0.375,0.39,0.34,0.355,6204000
2016-10-14,0.35,0.365,0.35,0.36,948000
2016-10-17,0.35,0.36,0.35,0.36,408000
2016-10-18,0.35,0.36,0.35,0.36,404000
2016-10-19,0.36,0.37,0.35,0.36,2340000
2016-10-20,0.35,0.36,0.35,0.355,1344250
2016-10-24,0.355,0.365,0.35,0.355,1892000
2016-10-25,0.35,0.36,0.35,0.355,240000
2016-10-26,0.35,0.355,0.345,0.345,2128000
2016-10-27,0.35,0.35,0.345,0.345,124000
2016-10-28,0.345,0.35,0.345,0.35,44000
2016-10-31,0.345,0.35,0.345,0.35,84000
2016-11-01,0.35,0.35,0.34,0.34,1120000
2016-11-02,0.345,0.345,0.335,0.345,444000
2016-11-03,0.34,0.34,0.33,0.33,832000
2016-11-04,0.34,0.345,0.33,0.335,2076000
2016-11-07,0.335,0.345,0.335,0.345,240000
2016-11-08,0.345,0.35,0.345,0.35,536000
2016-11-09,0.345,0.345,0.335,0.34,172000
2016-11-10,0.35,0.37,0.35,0.35,1616000
2016-11-11,0.355,0.395,0.35,0.375,4158000
2016-11-14,0.375,0.39,0.37,0.37,2264000
2016-11-15,0.37,0.37,0.365,0.37,832000
2016-11-16,0.37,0.37,0.36,0.36,432000
2016-11-17,0.37,0.38,0.365,0.37,1388000
2016-11-18,0.365,0.385,0.365,0.38,940000
2016-11-21,0.38,0.385,0.37,0.37,598000
2016-11-22,0.39,0.43,0.38,0.42,5688000
2016-11-23,0.42,0.43,0.41,0.41,3428000
2016-11-24,0.4,0.415,0.395,0.415,1080000
2016-11-25,0.415,0.415,0.4,0.41,716000
2016-11-28,0.41,0.43,0.41,0.415,1056000
2016-11-29,0.41,0.41,0.405,0.405,492000
2016-11-30,0.4,0.425,0.4,0.41,1072000
2016-12-01,0.4,0.415,0.4,0.415,1236000
2016-12-02,0.405,0.45,0.405,0.42,2860000
2016-12-05,0.42,0.42,0.41,0.41,804000
2016-12-06,0.415,0.425,0.41,0.41,740000
2016-12-07,0.405,0.405,0.37,0.385,3784000
2016-12-08,0.385,0.405,0.385,0.39,1460000
2016-12-09,0.38,0.385,0.36,0.375,1392000
2016-12-12,0.37,0.385,0.37,0.385,704000
2016-12-13,0.375,0.39,0.375,0.385,364000
2016-12-14,0.385,0.395,0.38,0.395,608000
2016-12-15,0.38,0.39,0.375,0.38,5204000
2016-12-16,0.38,0.38,0.365,0.365,772000
2016-12-19,0.37,0.37,0.365,0.365,1072000
2016-12-20,0.36,0.36,0.35,0.35,1542000
2016-12-21,0.36,0.365,0.355,0.365,100000
2016-12-22,0.355,0.355,0.35,0.35,636000
2016-12-23,0.355,0.355,0.325,0.345,812000
2016-12-28,0.345,0.345,0.335,0.335,472000
2016-12-29,0.34,0.34,0.34,0.34,7000
2016-12-30,0.33,0.345,0.325,0.345,720000
2017-01-03,0.335,0.34,0.335,0.34,88000
2017-01-04,0.34,0.345,0.34,0.345,84000
2017-01-05,0.345,0.345,0.34,0.345,92000
2017-01-06,0.345,0.345,0.345,0.345,50000
2017-01-09,0.345,0.345,0.34,0.345,76000
2017-01-10,0.34,0.345,0.34,0.345,392000
2017-01-11,0.345,0.345,0.345,0.345,152000
2017-01-12,0.345,0.345,0.335,0.34,300000
2017-01-13,0.335,0.335,0.335,0.335,40000
2017-01-16,0.34,0.34,0.34,0.34,26000
2017-01-17,0.335,0.34,0.33,0.335,656000
2017-01-18,0.335,0.335,0.325,0.335,400000
2017-01-19,0.34,0.35,0.335,0.35,1483000
2017-01-20,0.345,0.36,0.345,0.36,412000
2017-01-23,0.355,0.36,0.33,0.36,776000
2017-01-24,0.36,0.36,0.36,0.36,124000
2017-01-26,0.355,0.355,0.35,0.35,278000
2017-02-01,0.345,0.355,0.34,0.35,536000
2017-02-02,0.34,0.355,0.335,0.355,212000
2017-02-03,0.335,0.35,0.33,0.35,928000
2017-02-06,0.36,0.36,0.35,0.35,536000
2017-02-07,0.265,0.265,0.258,0.258,1076000
2017-02-08,0.258,0.261,0.254,0.254,464000
2017-02-09,0.265,0.265,0.258,0.261,784000
2017-02-10,0.258,0.265,0.258,0.258,2696000
2017-02-13,0.254,0.258,0.254,0.258,88000
2017-02-14,0.254,0.261,0.254,0.261,264000
2017-02-15,0.258,0.258,0.258,0.258,292000
2017-02-16,0.258,0.258,0.254,0.254,184000
2017-02-17,0.254,0.254,0.25,0.254,1444000
2017-02-20,0.275,0.31,0.26,0.295,7994000
2017-02-21,0.295,0.3,0.28,0.28,823067
2017-02-22,0.295,0.295,0.285,0.285,296000
2017-02-23,0.28,0.28,0.27,0.28,1600000
2017-02-24,0.28,0.28,0.265,0.265,416000
2017-02-27,0.265,0.27,0.26,0.265,1456000
2017-02-28,0.265,0.265,0.25,0.255,1752000
2017-03-01,0.25,0.255,0.243,0.248,2488000
2017-03-02,0.24600000000000002,0.248,0.245,0.248,424000
2017-03-03,0.265,0.265,0.25,0.25,1280000
2017-03-06,0.24600000000000002,0.265,0.24600000000000002,0.265,8614000
2017-03-07,0.265,0.275,0.26,0.27,13388000
2017-03-08,0.27,0.275,0.265,0.27,4504000
2017-03-09,0.26,0.27,0.245,0.245,2884000
2017-03-10,0.245,0.25,0.24100000000000002,0.25,768000
2017-03-13,0.244,0.244,0.244,0.244,70000
2017-03-14,0.244,0.245,0.24100000000000002,0.24100000000000002,1268000
2017-03-15,0.24,0.24,0.223,0.235,9247000
2017-03-16,0.239,0.24,0.237,0.23800000000000002,6516000
2017-03-17,0.23600000000000002,0.24,0.23399999999999999,0.24,2212000
2017-03-20,0.242,0.242,0.23600000000000002,0.23600000000000002,924000
2017-03-21,0.23600000000000002,0.23600000000000002,0.23600000000000002,0.23600000000000002,484000
2017-03-22,0.237,0.237,0.237,0.237,44000
2017-03-23,0.226,0.23399999999999999,0.225,0.23399999999999999,1428000
2017-03-24,0.23,0.23,0.22399999999999998,0.22699999999999998,6252000
2017-03-27,0.228,0.228,0.223,0.22699999999999998,5888000
2017-03-28,0.23,0.25,0.22899999999999998,0.249,9584000
2017-03-29,0.25,0.25,0.23600000000000002,0.23800000000000002,472000
2017-03-30,0.244,0.25,0.23600000000000002,0.237,4892000
2017-03-31,0.237,0.237,0.223,0.23399999999999999,3888000
2017-04-03,0.23399999999999999,0.23399999999999999,0.221,0.223,916000
2017-04-05,0.223,0.23399999999999999,0.221,0.223,4224000
2017-04-06,0.228,0.228,0.217,0.21899999999999997,3804000
2017-04-07,0.21600000000000003,0.21600000000000003,0.214,0.214,6604000
2017-04-10,0.225,0.225,0.213,0.215,4452000
2017-04-11,0.214,0.214,0.214,0.214,112000
2017-04-12,0.213,0.213,0.212,0.212,1208000
2017-04-13,0.212,0.212,0.201,0.205,2088000
2017-04-18,0.203,0.203,0.20199999999999999,0.20199999999999999,444000
2017-04-19,0.2,0.20199999999999999,0.2,0.201,744000
2017-04-20,0.20199999999999999,0.20199999999999999,0.19899999999999998,0.19899999999999998,1744000
2017-04-21,0.19899999999999998,0.2,0.192,0.2,1828000
2017-04-24,0.198,0.198,0.192,0.19699999999999998,8000
2017-04-25,0.18,0.20199999999999999,0.162,0.19699999999999998,21118000
2017-04-26,0.19699999999999998,0.19699999999999998,0.188,0.19,13432000
2017-04-27,0.191,0.193,0.191,0.193,0
2017-04-28,0.188,0.191,0.17800000000000002,0.18600000000000003,1368000
2017-05-02,0.18600000000000003,0.18600000000000003,0.175,0.175,850666
2017-05-04,0.175,0.19899999999999998,0.175,0.185,296000
2017-05-05,0.18,0.188,0.18,0.187,1501300
2017-05-08,0.195,0.195,0.18,0.18100000000000002,412000
2017-05-09,0.17300000000000001,0.185,0.17300000000000001,0.179,22552000
2017-05-10,0.179,0.185,0.17800000000000002,0.18100000000000002,892000
2017-05-12,0.18,0.184,0.18,0.18100000000000002,208000
2017-05-15,0.18100000000000002,0.18100000000000002,0.172,0.17600000000000002,132000
2017-05-16,0.175,0.17600000000000002,0.172,0.172,688000
2017-05-17,0.17,0.177,0.17,0.171,2688000
2017-05-18,0.17,0.18,0.162,0.175,6472000
2017-05-19,0.175,0.175,0.165,0.17,411000
2017-05-22,0.17,0.17300000000000001,0.17,0.17300000000000001,1356000
2017-05-23,0.17,0.17,0.165,0.16699999999999998,364000
2017-05-24,0.16699999999999998,0.174,0.166,0.171,1564000
2017-05-25,0.165,0.168,0.165,0.165,548000
2017-05-26,0.163,0.163,0.15,0.157,3420000
2017-05-29,0.157,0.157,0.156,0.156,408000
2017-05-31,0.174,0.174,0.151,0.151,988000
2017-06-01,0.16699999999999998,0.16699999999999998,0.15,0.16,168000
2017-06-02,0.161,0.161,0.16,0.16,267592
2017-06-05,0.16,0.16699999999999998,0.159,0.162,616000
2017-06-06,0.162,0.162,0.154,0.154,60000
2017-06-07,0.155,0.156,0.155,0.156,2028000
2017-06-08,0.16,0.161,0.157,0.16,2252000
2017-06-09,0.156,0.156,0.155,0.155,212000
2017-06-12,0.155,0.161,0.153,0.16,556000
2017-06-13,0.168,0.168,0.168,0.16,200000
2017-06-14,0.158,0.158,0.158,0.158,68000
2017-06-15,0.159,0.159,0.15,0.158,1104000
2017-06-16,0.159,0.159,0.155,0.155,48000
2017-06-19,0.157,0.162,0.152,0.158,3296000
2017-06-20,0.16,0.161,0.155,0.155,88000
2017-06-21,0.153,0.153,0.15,0.151,252000
2017-06-22,0.151,0.156,0.15,0.155,1092000
2017-06-23,0.155,0.155,0.153,0.153,104000
2017-06-26,0.153,0.155,0.15,0.153,1518000
2017-06-27,0.146,0.146,0.136,0.14,808000
2017-06-28,0.14,0.14,0.13,0.132,226000
2017-06-29,0.132,0.149,0.132,0.14,1764000
2017-06-30,0.145,0.153,0.14400000000000002,0.14300000000000002,232000
2017-07-03,0.145,0.145,0.145,0.145,8000
2017-07-04,0.14,0.14,0.14,0.141,6000
2017-07-05,0.142,0.14300000000000002,0.139,0.139,264000
2017-07-06,0.132,0.139,0.132,0.139,0
2017-07-07,0.131,0.139,0.13,0.138,148000
2017-07-10,0.133,0.14,0.133,0.139,1728000
2017-07-11,0.14,0.14,0.139,0.14,500000
2017-07-12,0.14,0.15,0.138,0.14,2082000
2017-07-13,0.15,0.15,0.14,0.14,142000
2017-07-14,0.149,0.149,0.146,0.146,180000
2017-07-17,0.149,0.149,0.149,0.145,10000
2017-07-18,0.133,0.145,0.133,0.134,1314000
2017-07-19,0.13,0.131,0.128,0.129,1972000
2017-07-20,0.129,0.135,0.128,0.135,2038000
2017-07-21,0.134,0.134,0.132,0.132,628000
2017-07-24,0.134,0.134,0.134,0.134,138000
2017-07-25,0.134,0.134,0.133,0.133,198000
2017-07-26,0.133,0.133,0.133,0.133,216666
2017-07-27,0.131,0.131,0.131,0.131,8000
2017-07-28,0.13,0.132,0.126,0.131,1036000
2017-07-31,0.13,0.13,0.128,0.128,240000
2017-08-01,0.14400000000000002,0.14400000000000002,0.131,0.132,468000
2017-08-02,0.11199999999999999,0.13,0.111,0.128,1308000
2017-08-03,0.131,0.132,0.13,0.13,1860000
2017-08-07,0.13,0.13,0.129,0.129,472000
2017-08-08,0.128,0.138,0.128,0.13,4869000
2017-08-09,0.13,0.14,0.13,0.134,7492000
2017-08-10,0.134,0.141,0.134,0.136,8244000
2017-08-11,0.135,0.168,0.135,0.165,14200000
2017-08-14,0.165,0.165,0.14800000000000002,0.14800000000000002,4884000
2017-08-15,0.128,0.168,0.12,0.16,3148000
2017-08-16,0.16,0.171,0.155,0.155,1564000
2017-08-17,0.151,0.16,0.151,0.151,1860000
2017-08-18,0.139,0.152,0.139,0.151,624000
2017-08-21,0.138,0.156,0.138,0.156,1038400
2017-08-22,0.157,0.162,0.157,0.161,48000
2017-08-24,0.15,0.158,0.15,0.158,100000
2017-08-25,0.158,0.158,0.156,0.156,88000
2017-08-28,0.155,0.155,0.139,0.149,744000
2017-08-29,0.14,0.159,0.14,0.153,62666
2017-08-30,0.152,0.152,0.13,0.142,1168000
2017-08-31,0.142,0.142,0.14,0.14,556000
2017-09-01,0.153,0.153,0.135,0.136,1900000
2017-09-04,0.139,0.139,0.13699999999999998,0.138,1220000
2017-09-05,0.139,0.145,0.139,0.14,268000
2017-09-06,0.13699999999999998,0.14800000000000002,0.135,0.147,104000
2017-09-07,0.145,0.145,0.145,0.145,8000
2017-09-08,0.139,0.14,0.135,0.14,416000
2017-09-11,0.14,0.14,0.14,0.14,196000
2017-09-12,0.138,0.14,0.135,0.14,304000
2017-09-13,0.135,0.15,0.135,0.145,712000
2017-09-14,0.147,0.147,0.145,0.145,8000
2017-09-15,0.134,0.145,0.131,0.136,2596000
2017-09-18,0.131,0.133,0.126,0.126,3016000
2017-09-19,0.128,0.128,0.12,0.125,4572000
2017-09-20,0.134,0.134,0.12,0.129,768000
2017-09-21,0.125,0.136,0.12,0.124,5312000
2017-09-22,0.122,0.134,0.122,0.12300000000000001,456000
2017-09-25,0.122,0.125,0.122,0.125,224000
2017-09-26,0.128,0.128,0.122,0.122,724000
2017-09-27,0.122,0.125,0.122,0.124,548000
2017-09-28,0.121,0.125,0.12,0.124,388000
2017-09-29,0.12,0.125,0.12,0.124,8968000
2017-10-03,0.128,0.128,0.12300000000000001,0.12300000000000001,8320000
2017-10-04,0.13,0.13,0.12,0.125,1796000
2017-10-06,0.125,0.128,0.122,0.127,884000
2017-10-09,0.128,0.129,0.12300000000000001,0.127,1826000
2017-10-10,0.127,0.132,0.127,0.13,1633000
2017-10-11,0.13,0.13,0.128,0.13,120000
2017-10-12,0.13,0.132,0.13,0.131,616000
2017-10-13,0.139,0.24,0.135,0.21600000000000003,102156000
2017-10-16,0.225,0.23199999999999998,0.182,0.185,34012000
2017-10-17,0.185,0.185,0.168,0.171,7696000
2017-10-18,0.162,0.18,0.162,0.175,2748000
2017-10-19,0.175,0.175,0.155,0.161,4768000
2017-10-20,0.161,0.168,0.152,0.168,2716000
2017-10-23,0.16399999999999998,0.166,0.157,0.163,1156000
2017-10-24,0.163,0.196,0.163,0.195,6700000
2017-10-25,0.19899999999999998,0.215,0.17,0.198,21088000
2017-10-26,0.192,0.19699999999999998,0.185,0.19,2294000
2017-10-27,0.182,0.185,0.174,0.184,1984000
2017-10-30,0.18,0.184,0.177,0.179,1044000
2017-10-31,0.177,0.177,0.16899999999999998,0.175,1336000
2017-11-01,0.175,0.175,0.16899999999999998,0.16899999999999998,1328000
2017-11-02,0.174,0.177,0.17300000000000001,0.177,968000
2017-11-03,0.177,0.18,0.177,0.18,186000
2017-11-06,0.18,0.18,0.17,0.172,100000
2017-11-07,0.166,0.182,0.166,0.17300000000000001,750000
2017-11-08,0.16899999999999998,0.17800000000000002,0.16899999999999998,0.17600000000000002,500000
2017-11-09,0.17600000000000002,0.17600000000000002,0.16899999999999998,0.175,1276000
2017-11-10,0.17,0.17300000000000001,0.16699999999999998,0.168,1608000
2017-11-13,0.16699999999999998,0.16699999999999998,0.154,0.154,1112000
2017-11-14,0.15,0.166,0.134,0.151,3652000
2017-11-15,0.149,0.156,0.149,0.15,148000
2017-11-16,0.158,0.158,0.158,0.156,48000
2017-11-17,0.15,0.159,0.15,0.15,668000
2017-11-20,0.151,0.151,0.14800000000000002,0.15,438501
2017-11-21,0.14800000000000002,0.15,0.14800000000000002,0.14800000000000002,620400
2017-11-22,0.14400000000000002,0.14400000000000002,0.142,0.14400000000000002,64000
2017-11-23,0.142,0.165,0.142,0.14800000000000002,3340000
2017-11-24,0.14800000000000002,0.149,0.146,0.149,21014
2017-11-27,0.15,0.159,0.15,0.15,444000
2017-11-28,0.154,0.154,0.15,0.15,1180000
2017-11-29,0.145,0.15,0.138,0.15,316000
2017-11-30,0.141,0.14400000000000002,0.14,0.141,244000
2017-12-01,0.141,0.141,0.14,0.14,120000
2017-12-04,0.13699999999999998,0.13699999999999998,0.134,0.134,1104000
2017-12-05,0.133,0.139,0.132,0.136,783852
2017-12-06,0.131,0.135,0.131,0.134,676000
2017-12-07,0.129,0.135,0.125,0.13,1740000
2017-12-08,0.13,0.132,0.125,0.13,752000
2017-12-11,0.131,0.131,0.131,0.13,8000
2017-12-12,0.13,0.13,0.127,0.13,240000
2017-12-13,0.125,0.13,0.12300000000000001,0.13,456000
2017-12-14,0.15,0.15,0.13,0.139,1083003
2017-12-15,0.15,0.15,0.138,0.14,76000
2017-12-18,0.15,0.155,0.145,0.145,28000
2017-12-19,0.14400000000000002,0.14400000000000002,0.138,0.14300000000000002,36000
2017-12-20,0.14300000000000002,0.14300000000000002,0.14300000000000002,0.14300000000000002,4000
2017-12-21,0.139,0.14400000000000002,0.132,0.136,112000
2017-12-22,0.136,0.139,0.136,0.136,80000
2017-12-27,0.129,0.136,0.127,0.136,224000
2017-12-28,0.136,0.14800000000000002,0.129,0.13699999999999998,656000
2017-12-29,0.131,0.139,0.131,0.139,88000
2018-01-02,0.141,0.14300000000000002,0.141,0.14300000000000002,760000
2018-01-03,0.136,0.145,0.135,0.14400000000000002,72000
2018-01-04,0.149,0.149,0.131,0.146,164000
2018-01-05,0.147,0.14800000000000002,0.14,0.147,989333
2018-01-08,0.147,0.15,0.141,0.141,320000
2018-01-09,0.14,0.14,0.14,0.14,200000
2018-01-10,0.131,0.138,0.13,0.13699999999999998,2632000
2018-01-11,0.133,0.135,0.13,0.131,2576000
2018-01-12,0.131,0.132,0.13,0.131,1812000
2018-01-15,0.151,0.151,0.13,0.13,232000
2018-01-16,0.15,0.15,0.131,0.131,3988000
2018-01-17,0.145,0.145,0.128,0.13,2572000
2018-01-18,0.129,0.135,0.127,0.13,6390000
2018-01-19,0.133,0.14,0.127,0.13,6012000
2018-01-22,0.13,0.134,0.127,0.134,1636000
2018-01-23,0.13,0.13,0.125,0.128,3270000
2018-01-24,0.128,0.128,0.127,0.127,1036000
2018-01-25,0.126,0.127,0.125,0.125,776000
2018-01-26,0.125,0.126,0.12300000000000001,0.125,2096000
2018-01-29,0.133,0.133,0.12300000000000001,0.125,1464000
2018-01-30,0.134,0.134,0.127,0.127,3320000
2018-01-31,0.147,0.147,0.125,0.13,5708000
2018-02-01,0.13,0.13,0.124,0.127,32940000
2018-02-02,0.125,0.129,0.125,0.125,13934328
2018-02-05,0.125,0.125,0.12,0.12,1968000
2018-02-06,0.12,0.125,0.115,0.125,12616000
2018-02-07,0.11599999999999999,0.125,0.11599999999999999,0.125,592000
2018-02-08,0.125,0.126,0.11599999999999999,0.124,48000
2018-02-09,0.11599999999999999,0.12,0.11,0.11199999999999999,3010000
2018-02-12,0.127,0.127,0.11,0.12,1188000
2018-02-13,0.11599999999999999,0.12,0.114,0.12,304000
2018-02-14,0.124,0.124,0.11599999999999999,0.11599999999999999,96000
2018-02-15,0.11599999999999999,0.11599999999999999,0.11599999999999999,0.11599999999999999,48000
2018-02-20,0.11900000000000001,0.12,0.11900000000000001,0.12,8000
2018-02-21,0.12,0.125,0.12,0.122,972000
2018-02-22,0.127,0.127,0.125,0.125,176000
2018-02-23,0.124,0.13,0.124,0.13,1052000
2018-02-26,0.13,0.13,0.124,0.124,146000
2018-02-27,0.125,0.125,0.124,0.124,856000
2018-02-28,0.125,0.125,0.11699999999999999,0.11699999999999999,1996000
2018-03-01,0.11800000000000001,0.11800000000000001,0.11800000000000001,0.11800000000000001,144000
2018-03-02,0.121,0.121,0.11800000000000001,0.11800000000000001,20000
2018-03-05,0.11800000000000001,0.11900000000000001,0.11599999999999999,0.11900000000000001,1276000
2018-03-06,0.11900000000000001,0.125,0.11900000000000001,0.125,2268000
2018-03-07,0.125,0.13,0.12,0.125,1952000
2018-03-08,0.121,0.125,0.12,0.125,572000
2018-03-09,0.124,0.124,0.12,0.12,124000
2018-03-12,0.12,0.124,0.12,0.124,24000
2018-03-13,0.122,0.122,0.12,0.121,844000
2018-03-14,0.13699999999999998,0.13699999999999998,0.124,0.132,2190000
2018-03-15,0.13,0.141,0.129,0.13699999999999998,3088000
2018-03-16,0.13699999999999998,0.138,0.131,0.136,1472000
2018-03-19,0.136,0.136,0.131,0.132,120000
2018-03-20,0.135,0.139,0.135,0.138,1232000
2018-03-21,0.14,0.16399999999999998,0.136,0.136,11112000
2018-03-22,0.136,0.136,0.124,0.132,3000000
2018-03-23,0.13,0.133,0.11800000000000001,0.12,6668000
2018-03-26,0.129,0.129,0.12,0.122,2464000
2018-03-27,0.11900000000000001,0.12,0.11900000000000001,0.12,1190600
2018-03-28,0.129,0.129,0.11900000000000001,0.12,1800000
2018-03-29,0.129,0.129,0.11800000000000001,0.12,504000
2018-04-03,0.127,0.127,0.11699999999999999,0.12,776000
2018-04-04,0.12,0.12,0.11800000000000001,0.12,830000
2018-04-06,0.125,0.125,0.12,0.12,1156000
2018-04-09,0.127,0.127,0.11800000000000001,0.11800000000000001,1556000
2018-04-10,0.125,0.125,0.11800000000000001,0.11800000000000001,1052000
2018-04-11,0.11900000000000001,0.12,0.11900000000000001,0.11900000000000001,288000
2018-04-12,0.11800000000000001,0.12,0.11800000000000001,0.11900000000000001,656000
2018-04-13,0.11900000000000001,0.12,0.11800000000000001,0.11800000000000001,672000
2018-04-16,0.136,0.136,0.12,0.125,1020000
2018-04-17,0.11699999999999999,0.125,0.11599999999999999,0.12,828000
2018-04-18,0.136,0.136,0.11900000000000001,0.12,276000
2018-04-19,0.11699999999999999,0.11900000000000001,0.11599999999999999,0.11900000000000001,1228000
2018-04-20,0.11699999999999999,0.11900000000000001,0.113,0.11900000000000001,1752000
2018-04-23,0.11900000000000001,0.11900000000000001,0.115,0.11699999999999999,1310000
2018-04-24,0.124,0.124,0.115,0.12,1052000
2018-04-30,0.14,0.142,0.122,0.125,7864000
2018-05-02,0.134,0.135,0.121,0.124,2498000
2018-05-03,0.124,0.124,0.11900000000000001,0.11900000000000001,12032000
2018-05-04,0.12,0.12300000000000001,0.12,0.121,656000
2018-05-07,0.129,0.129,0.12,0.125,36000
2018-05-08,0.126,0.126,0.121,0.12300000000000001,448000
2018-05-09,0.125,0.127,0.125,0.125,368000
2018-05-10,0.129,0.129,0.12,0.12300000000000001,4420000
2018-05-11,0.12300000000000001,0.12300000000000001,0.121,0.122,2228000
2018-05-14,0.121,0.121,0.121,0.121,540000
2018-05-15,0.125,0.131,0.12,0.125,676000
2018-05-16,0.121,0.12300000000000001,0.12,0.12300000000000001,480000
2018-05-17,0.12300000000000001,0.12300000000000001,0.12,0.12300000000000001,5692000
2018-05-18,0.12300000000000001,0.125,0.12,0.125,8632000
2018-05-21,0.125,0.125,0.12,0.12,2296000
2018-05-23,0.12,0.125,0.12,0.125,240000
2018-05-24,0.125,0.125,0.121,0.121,100000
2018-05-25,0.121,0.124,0.121,0.124,300000
2018-05-28,0.122,0.122,0.121,0.121,880000
2018-05-29,0.121,0.122,0.121,0.121,380000
2018-05-30,0.122,0.12300000000000001,0.122,0.12300000000000001,460000
2018-05-31,0.131,0.131,0.121,0.122,1036000
2018-06-01,0.121,0.121,0.12,0.121,8524000
2018-06-04,0.121,0.121,0.12,0.12,1216000
2018-06-05,0.122,0.127,0.121,0.126,9020000
2018-06-06,0.122,0.122,0.121,0.121,12000
2018-06-07,0.121,0.122,0.12,0.12,1312000
2018-06-08,0.12,0.12300000000000001,0.12,0.12300000000000001,762000
2018-06-11,0.125,0.127,0.12,0.12,1544000
2018-06-12,0.12300000000000001,0.12300000000000001,0.121,0.121,730000
2018-06-13,0.121,0.122,0.12,0.12,1524000
2018-06-14,0.12,0.121,0.12,0.12,3162000
2018-06-15,0.121,0.12300000000000001,0.12,0.121,1600000
2018-06-19,0.12,0.12,0.12,0.12,2556000
2018-06-20,0.12,0.121,0.12,0.12,4500000
2018-06-21,0.12,0.121,0.12,0.121,2910000
2018-06-22,0.12,0.12,0.12,0.12,464000
2018-06-25,0.12,0.121,0.12,0.12,2294000
2018-06-26,0.12,0.12,0.12,0.12,8571999
2018-06-27,0.11900000000000001,0.11900000000000001,0.11900000000000001,0.11900000000000001,3119000
2018-06-28,0.11900000000000001,0.11900000000000001,0.11800000000000001,0.11800000000000001,2988000
2018-06-29,0.11699999999999999,0.11699999999999999,0.11699999999999999,0.11699999999999999,240000
2018-07-03,0.11599999999999999,0.11699999999999999,0.11599999999999999,0.11599999999999999,740000
2018-07-04,0.11599999999999999,0.11599999999999999,0.11599999999999999,0.11599999999999999,8000
2018-07-05,0.11699999999999999,0.11699999999999999,0.11599999999999999,0.11599999999999999,340000
2018-07-06,0.11199999999999999,0.11599999999999999,0.11199999999999999,0.11599999999999999,208000
2018-07-09,0.12,0.12,0.12,0.11800000000000001,4000
2018-07-10,0.11800000000000001,0.11800000000000001,0.11800000000000001,0.11800000000000001,4000
2018-07-11,0.11800000000000001,0.11800000000000001,0.11800000000000001,0.11800000000000001,0
2018-07-12,0.12,0.12,0.11,0.11,256667
2018-07-13,0.12,0.12,0.11,0.11699999999999999,144000
2018-07-16,0.13,0.13,0.10300000000000001,0.107,734000
2018-07-17,0.11599999999999999,0.11599999999999999,0.10300000000000001,0.113,1564000
2018-07-18,0.105,0.11199999999999999,0.10400000000000001,0.11199999999999999,404000
2018-07-19,0.11,0.111,0.11,0.11,148000
2018-07-20,0.115,0.115,0.11199999999999999,0.11199999999999999,28000
2018-07-23,0.10400000000000001,0.10400000000000001,0.10300000000000001,0.10300000000000001,228000
2018-07-24,0.10800000000000001,0.115,0.10800000000000001,0.114,2568000
2018-07-25,0.115,0.115,0.114,0.114,100000
2018-07-26,0.11699999999999999,0.11800000000000001,0.11699999999999999,0.11800000000000001,256000
2018-07-27,0.111,0.12,0.111,0.12,1152000
2018-07-30,0.11900000000000001,0.11900000000000001,0.11900000000000001,0.11900000000000001,0
2018-07-31,0.11800000000000001,0.12,0.11800000000000001,0.12,124000
2018-08-01,0.12,0.12,0.12,0.12,0
2018-08-02,0.12,0.12,0.12,0.12,0
2018-08-03,0.11,0.114,0.105,0.114,240000
2018-08-06,0.11199999999999999,0.114,0.11199999999999999,0.114,0
2018-08-07,0.106,0.113,0.105,0.113,36000
2018-08-08,0.106,0.114,0.105,0.114,638000
2018-08-09,0.115,0.115,0.115,0.114,260000
2018-08-10,0.114,0.114,0.114,0.114,0
2018-08-13,0.114,0.114,0.114,0.114,44000
2018-08-14,0.114,0.114,0.107,0.10800000000000001,184000
2018-08-15,0.106,0.111,0.106,0.111,260000
2018-08-16,0.105,0.111,0.105,0.111,532000
2018-08-17,0.106,0.106,0.106,0.106,72000
2018-08-20,0.107,0.11,0.107,0.11,28000
2018-08-21,0.109,0.11,0.109,0.109,0
2018-08-22,0.10800000000000001,0.109,0.106,0.106,0
2018-08-23,0.109,0.111,0.109,0.109,448000
2018-08-24,0.114,0.115,0.105,0.11,1900000
2018-08-27,0.11,0.11,0.11,0.11,444000
2018-08-28,0.115,0.115,0.105,0.106,330000
2018-08-29,0.106,0.114,0.106,0.114,72000
2018-08-30,0.111,0.111,0.111,0.111,40000
2018-08-31,0.111,0.111,0.111,0.111,480000
2018-09-03,0.111,0.111,0.111,0.111,224000
2018-09-04,0.10800000000000001,0.10800000000000001,0.107,0.107,400000
2018-09-05,0.107,0.109,0.105,0.105,1416000
2018-09-06,0.115,0.115,0.109,0.109,20000
2018-09-07,0.10300000000000001,0.109,0.10300000000000001,0.10800000000000001,152000
2018-09-10,0.10800000000000001,0.10800000000000001,0.10800000000000001,0.10800000000000001,200000
2018-09-11,0.106,0.106,0.106,0.106,16000
2018-09-12,0.106,0.11,0.105,0.105,784000
2018-09-13,0.109,0.125,0.109,0.11,272000
2018-09-14,0.111,0.111,0.11,0.11,0
2018-09-17,0.10800000000000001,0.10800000000000001,0.105,0.10800000000000001,968000
2018-09-18,0.107,0.107,0.10300000000000001,0.107,4806000
2018-09-19,0.107,0.107,0.107,0.107,4000
2018-09-20,0.122,0.122,0.10800000000000001,0.109,212000
2018-09-21,0.11900000000000001,0.128,0.11,0.12,2432000
2018-09-24,0.12,0.12,0.12,0.12,0
2018-09-26,0.12,0.12,0.12,0.12,0
2018-09-27,0.12,0.12,0.12,0.12,0
2018-09-28,0.10800000000000001,0.10800000000000001,0.10800000000000001,0.12,4000
2018-10-02,0.12,0.12,0.12,0.12,0
2018-10-03,0.10800000000000001,0.125,0.10800000000000001,0.125,24000
2018-10-04,0.124,0.125,0.124,0.124,530666
2018-10-05,0.12300000000000001,0.12300000000000001,0.11900000000000001,0.11900000000000001,0
2018-10-08,0.10800000000000001,0.10800000000000001,0.107,0.10800000000000001,134000
2018-10-09,0.10800000000000001,0.10800000000000001,0.10800000000000001,0.10800000000000001,0
2018-10-10,0.10800000000000001,0.10800000000000001,0.10800000000000001,0.10800000000000001,0
2018-10-11,0.107,0.107,0.10400000000000001,0.10400000000000001,260000
2018-10-12,0.10800000000000001,0.10800000000000001,0.10800000000000001,0.10800000000000001,100000
2018-10-15,0.10800000000000001,0.10800000000000001,0.10800000000000001,0.10800000000000001,112000
2018-10-16,0.10800000000000001,0.10800000000000001,0.10800000000000001,0.10800000000000001,0
2018-10-18,0.111,0.11699999999999999,0.111,0.11699999999999999,68000
2018-10-19,0.11599999999999999,0.11699999999999999,0.11599999999999999,0.11699999999999999,268000
2018-10-22,0.10800000000000001,0.10800000000000001,0.10800000000000001,0.10800000000000001,8000
2018-10-23,0.10300000000000001,0.106,0.10300000000000001,0.10400000000000001,378000
2018-10-24,0.102,0.102,0.102,0.102,76000
2018-10-25,0.102,0.102,0.102,0.102,101000
2018-10-26,0.102,0.102,0.102,0.102,104000
2018-10-29,0.11599999999999999,0.11599999999999999,0.11599999999999999,0.11,4000
2018-10-30,0.109,0.109,0.109,0.109,0
2018-10-31,0.125,0.125,0.10300000000000001,0.10300000000000001,64000
2018-11-01,0.1,0.1,0.1,0.1,204000
2018-11-02,0.12,0.12,0.1,0.105,36000
2018-11-05,0.11900000000000001,0.11900000000000001,0.102,0.102,224000
2018-11-06,0.10099999999999999,0.10099999999999999,0.10099999999999999,0.10099999999999999,0
2018-11-07,0.10099999999999999,0.10099999999999999,0.10099999999999999,0.10099999999999999,0
2018-11-08,0.10099999999999999,0.10099999999999999,0.10099999999999999,0.10099999999999999,0
2018-11-09,0.10099999999999999,0.10099999999999999,0.10099999999999999,0.10099999999999999,0
2018-11-12,0.10099999999999999,0.111,0.1,0.102,1588000
2018-11-13,0.109,0.109,0.10800000000000001,0.102,16000
2018-11-14,0.10099999999999999,0.10099999999999999,0.10099999999999999,0.10099999999999999,0
2018-11-15,0.10099999999999999,0.11599999999999999,0.1,0.10300000000000001,164000
2018-11-16,0.102,0.10800000000000001,0.102,0.10300000000000001,580000
2018-11-19,0.10300000000000001,0.10300000000000001,0.10300000000000001,0.10300000000000001,4000
2018-11-20,0.10300000000000001,0.10300000000000001,0.10099999999999999,0.10099999999999999,408000
2018-11-21,0.10099999999999999,0.105,0.10099999999999999,0.105,268000
2018-11-22,0.105,0.115,0.102,0.102,81333
2018-11-23,0.10400000000000001,0.10400000000000001,0.10300000000000001,0.10300000000000001,156000
2018-11-26,0.1,0.105,0.1,0.10400000000000001,160000
2018-11-27,0.107,0.107,0.105,0.105,100000
2018-11-28,0.10400000000000001,0.10400000000000001,0.10400000000000001,0.10400000000000001,132000
2018-11-29,0.10400000000000001,0.10400000000000001,0.10400000000000001,0.10400000000000001,0
2018-11-30,0.1,0.10099999999999999,0.1,0.10099999999999999,236000
2018-12-03,0.1,0.1,0.098,0.098,592000
2018-12-04,0.096,0.10400000000000001,0.096,0.102,240000
2018-12-05,0.10099999999999999,0.10099999999999999,0.10099999999999999,0.10099999999999999,0
2018-12-06,0.11,0.11,0.11,0.10099999999999999,4000
2018-12-07,0.1,0.1,0.1,0.1,0
2018-12-10,0.098,0.098,0.098,0.098,0
2018-12-11,0.098,0.098,0.098,0.098,0
2018-12-12,0.09300000000000001,0.09300000000000001,0.09300000000000001,0.09300000000000001,4000
2018-12-13,0.09300000000000001,0.09300000000000001,0.09300000000000001,0.09300000000000001,0
2018-12-14,0.10400000000000001,0.10400000000000001,0.1,0.099,128000
2018-12-17,0.098,0.098,0.098,0.098,0
2018-12-18,0.096,0.096,0.096,0.096,0
2018-12-19,0.096,0.096,0.094,0.096,7000
2018-12-20,0.096,0.096,0.096,0.096,0
2018-12-21,0.094,0.094,0.094,0.094,200000
2018-12-24,0.094,0.094,0.094,0.094,0
2018-12-27,0.09,0.09,0.09,0.09,240000
2018-12-28,0.09,0.09,0.09,0.09,20000
2018-12-31,0.09,0.09,0.09,0.09,0
2019-01-02,0.09,0.09,0.09,0.09,0
2019-01-03,0.09,0.09,0.09,0.09,0
2019-01-04,0.09,0.09,0.09,0.09,0
2019-01-07,0.075,0.075,0.075,0.078,13333
2019-01-08,0.078,0.079,0.078,0.08,84000
2019-01-09,0.09,0.09,0.08,0.08,92000
2019-01-10,0.08199999999999999,0.09,0.08199999999999999,0.083,40000
2019-01-11,0.08900000000000001,0.11,0.08900000000000001,0.10800000000000001,1016000
2019-01-14,0.10800000000000001,0.10800000000000001,0.10300000000000001,0.10099999999999999,340000
2019-01-15,0.10099999999999999,0.10099999999999999,0.09300000000000001,0.09300000000000001,66000
2019-01-16,0.09300000000000001,0.09300000000000001,0.09300000000000001,0.09300000000000001,0
2019-01-17,0.09300000000000001,0.09300000000000001,0.09300000000000001,0.09300000000000001,0
2019-01-18,0.09300000000000001,0.09300000000000001,0.09300000000000001,0.09300000000000001,0
2019-01-21,0.09300000000000001,0.09300000000000001,0.083,0.09,366000
2019-01-22,0.083,0.10400000000000001,0.083,0.1,244000
2019-01-23,0.1,0.106,0.09699999999999999,0.09699999999999999,64000
2019-01-24,0.084,0.102,0.084,0.1,20000
2019-01-25,0.08800000000000001,0.096,0.08800000000000001,0.091,920000
2019-01-28,0.091,0.095,0.091,0.095,8000
2019-01-29,0.095,0.095,0.095,0.095,0
2019-01-30,0.08199999999999999,0.092,0.08199999999999999,0.092,12000
2019-01-31,0.092,0.092,0.092,0.092,0
2019-02-01,0.09300000000000001,0.09300000000000001,0.08800000000000001,0.09,744000
2019-02-04,0.076,0.087,0.076,0.09,204000
2019-02-08,0.076,0.095,0.076,0.095,748000
2019-02-11,0.085,0.087,0.085,0.087,20000
2019-02-12,0.087,0.087,0.087,0.087,0
2019-02-13,0.087,0.091,0.087,0.091,96000
2019-02-14,0.10400000000000001,0.10400000000000001,0.091,0.092,252000
2019-02-15,0.077,0.077,0.077,0.092,4000
2019-02-18,0.099,0.099,0.092,0.092,192000
2019-02-19,0.092,0.092,0.092,0.092,8000
2019-02-20,0.092,0.092,0.092,0.092,0
2019-02-21,0.091,0.091,0.091,0.091,92000
2019-02-22,0.091,0.091,0.091,0.091,0
2019-02-25,0.08800000000000001,0.08800000000000001,0.08199999999999999,0.083,344000
2019-02-26,0.092,0.092,0.083,0.083,856000
2019-02-27,0.094,0.094,0.085,0.08900000000000001,1248000
2019-02-28,0.08900000000000001,0.09,0.08900000000000001,0.09,108000
2019-03-01,0.09,0.09,0.09,0.09,0
2019-03-04,0.08900000000000001,0.09,0.08900000000000001,0.09,528000
2019-03-05,0.09,0.09300000000000001,0.08900000000000001,0.08900000000000001,1020000
2019-03-06,0.08900000000000001,0.092,0.08900000000000001,0.092,80000
2019-03-07,0.092,0.095,0.092,0.095,200000
2019-03-08,0.095,0.105,0.095,0.105,904000
2019-03-11,0.105,0.105,0.09,0.099,268000
2019-03-12,0.099,0.105,0.099,0.10400000000000001,172000
2019-03-13,0.109,0.109,0.092,0.096,852000
2019-03-14,0.096,0.096,0.096,0.096,20000
2019-03-15,0.096,0.10300000000000001,0.096,0.10300000000000001,184000
2019-03-18,0.11199999999999999,0.11199999999999999,0.11,0.10800000000000001,8000
2019-03-19,0.092,0.105,0.092,0.099,752000
2019-03-20,0.099,0.099,0.098,0.098,132000
2019-03-21,0.098,0.11599999999999999,0.098,0.11,2424000
2019-03-22,0.111,0.115,0.111,0.11199999999999999,208000
2019-03-25,0.11199999999999999,0.11199999999999999,0.11199999999999999,0.11199999999999999,0
2019-03-26,0.11199999999999999,0.11199999999999999,0.11199999999999999,0.11199999999999999,0
2019-03-27,0.098,0.102,0.098,0.099,608000
2019-03-28,0.1,0.109,0.099,0.10400000000000001,752000
2019-03-29,0.10400000000000001,0.11,0.09699999999999999,0.1,1512000
2019-04-01,0.11,0.13,0.1,0.12300000000000001,2708000
2019-04-02,0.12300000000000001,0.126,0.12300000000000001,0.12300000000000001,304000
2019-04-03,0.12,0.12,0.11,0.11,68000
2019-04-04,0.105,0.105,0.105,0.105,40000
2019-04-08,0.107,0.107,0.107,0.107,200000
2019-04-09,0.109,0.109,0.109,0.109,0
2019-04-10,0.11,0.11,0.11,0.11,0
2019-04-11,0.11,0.11,0.11,0.11,0
2019-04-12,0.111,0.122,0.111,0.111,208000
2019-04-15,0.111,0.121,0.111,0.121,556000
2019-04-16,0.121,0.121,0.121,0.121,0
2019-04-17,0.12,0.12,0.12,0.12,0
2019-04-18,0.12,0.12,0.12,0.12,88000
2019-04-23,0.12,0.12300000000000001,0.12,0.12300000000000001,98000
2019-04-24,0.111,0.12300000000000001,0.111,0.122,584000
2019-04-25,0.115,0.115,0.115,0.115,100000
2019-04-26,0.111,0.111,0.111,0.111,0
2019-04-29,0.1,0.105,0.09699999999999999,0.10300000000000001,412000
2019-04-30,0.12,0.12,0.09300000000000001,0.102,80000
2019-05-02,0.12,0.12,0.1,0.11800000000000001,220000
2019-05-03,0.1,0.113,0.1,0.113,192000
2019-05-06,0.122,0.122,0.09300000000000001,0.09300000000000001,28000
2019-05-07,0.098,0.113,0.098,0.11,8000
2019-05-08,0.099,0.099,0.099,0.099,96000
2019-05-09,0.09300000000000001,0.09300000000000001,0.09300000000000001,0.09300000000000001,32000
2019-05-10,0.109,0.11,0.09,0.10800000000000001,396000
2019-05-14,0.12300000000000001,0.12300000000000001,0.11,0.111,468000
2019-05-15,0.1,0.122,0.09300000000000001,0.109,520000
2019-05-16,0.10800000000000001,0.10800000000000001,0.10800000000000001,0.10800000000000001,0
2019-05-17,0.098,0.102,0.098,0.098,976000
2019-05-20,0.11800000000000001,0.11800000000000001,0.095,0.109,48000
2019-05-21,0.115,0.115,0.115,0.102,4000
2019-05-22,0.099,0.099,0.091,0.094,284000
2019-05-23,0.094,0.09699999999999999,0.08900000000000001,0.08900000000000001,1400000
2019-05-24,0.08199999999999999,0.09,0.078,0.086,244000
2019-05-27,0.086,0.08800000000000001,0.075,0.08800000000000001,252000
2019-05-28,0.08199999999999999,0.08199999999999999,0.08199999999999999,0.086,4000
2019-05-29,0.086,0.086,0.086,0.086,0
2019-05-30,0.087,0.087,0.087,0.087,0
2019-05-31,0.087,0.087,0.087,0.087,0
2019-06-03,0.087,0.087,0.087,0.087,0
2019-06-04,0.087,0.107,0.087,0.095,1204000
2019-06-05,0.10099999999999999,0.10099999999999999,0.09,0.09,100000
2019-06-06,0.09699999999999999,0.09699999999999999,0.09699999999999999,0.096,4000
2019-06-10,0.092,0.105,0.092,0.10300000000000001,8000
2019-06-11,0.084,0.09699999999999999,0.08199999999999999,0.095,36000
2019-06-12,0.107,0.107,0.09699999999999999,0.09699999999999999,24000
2019-06-13,0.09699999999999999,0.09699999999999999,0.09699999999999999,0.09699999999999999,0
2019-06-14,0.10800000000000001,0.10800000000000001,0.107,0.107,8000
2019-06-17,0.10400000000000001,0.10400000000000001,0.084,0.08800000000000001,616000
2019-06-18,0.10800000000000001,0.11,0.09,0.10800000000000001,820000
2019-06-19,0.09300000000000001,0.095,0.09300000000000001,0.095,44000
2019-06-20,0.095,0.10800000000000001,0.095,0.096,1072000
2019-06-21,0.096,0.106,0.096,0.10400000000000001,240000
2019-06-24,0.115,0.115,0.095,0.095,476000
2019-06-25,0.11,0.11,0.09300000000000001,0.098,260000
2019-06-26,0.113,0.113,0.107,0.107,48000
2019-06-27,0.11900000000000001,0.11900000000000001,0.092,0.098,480000
2019-06-28,0.092,0.098,0.092,0.098,84000
2019-07-02,0.09699999999999999,0.098,0.09300000000000001,0.09300000000000001,928000
2019-07-03,0.08900000000000001,0.08900000000000001,0.08900000000000001,0.08900000000000001,32000
2019-07-04,0.095,0.096,0.08900000000000001,0.08900000000000001,484000
2019-07-05,0.08900000000000001,0.08900000000000001,0.08900000000000001,0.09,28000
2019-07-08,0.08800000000000001,0.099,0.085,0.098,608000
2019-07-09,0.096,0.096,0.096,0.096,0
2019-07-10,0.096,0.096,0.096,0.096,0
2019-07-11,0.10800000000000001,0.10800000000000001,0.09699999999999999,0.09699999999999999,24000
2019-07-12,0.087,0.099,0.087,0.092,732000
2019-07-15,0.084,0.084,0.084,0.084,28000
2019-07-16,0.08199999999999999,0.08199999999999999,0.08199999999999999,0.08199999999999999,4000
2019-07-17,0.08199999999999999,0.08199999999999999,0.08199999999999999,0.08199999999999999,464000
2019-07-18,0.098,0.098,0.08199999999999999,0.08199999999999999,1204000
2019-07-19,0.098,0.098,0.084,0.09699999999999999,52000
2019-07-22,0.09,0.09699999999999999,0.09,0.09699999999999999,8000
2019-07-23,0.09,0.09699999999999999,0.08199999999999999,0.092,92000
2019-07-24,0.09699999999999999,0.09699999999999999,0.095,0.095,8000
2019-07-25,0.095,0.095,0.095,0.095,0
2019-07-26,0.095,0.095,0.095,0.095,4000
2019-07-29,0.084,0.095,0.084,0.084,724000
2019-07-30,0.09699999999999999,0.09699999999999999,0.096,0.096,8000
2019-07-31,0.096,0.096,0.096,0.096,0
2019-08-01,0.096,0.096,0.096,0.096,0
2019-08-02,0.096,0.096,0.096,0.096,0
2019-08-05,0.10400000000000001,0.10400000000000001,0.079,0.081,508000
2019-08-06,0.1,0.1,0.079,0.08800000000000001,276000
2019-08-07,0.09699999999999999,0.09699999999999999,0.081,0.09300000000000001,132000
2019-08-08,0.09699999999999999,0.09699999999999999,0.08,0.08900000000000001,424000
2019-08-09,0.086,0.086,0.086,0.086,0
2019-08-12,0.081,0.087,0.08,0.083,552000
2019-08-13,0.08,0.08,0.06,0.07,2064000
2019-08-14,0.063,0.085,0.063,0.083,216000
2019-08-15,0.099,0.099,0.099,0.086,4000
2019-08-16,0.086,0.086,0.086,0.086,0
2019-08-19,0.09699999999999999,0.09699999999999999,0.071,0.07400000000000001,612000
2019-08-20,0.065,0.07,0.065,0.07,23087
2019-08-21,0.062,0.096,0.062,0.095,56000
2019-08-22,0.094,0.094,0.094,0.094,0
2019-08-23,0.094,0.094,0.07400000000000001,0.07400000000000001,76000
2019-08-26,0.07400000000000001,0.07400000000000001,0.07400000000000001,0.07400000000000001,0
2019-08-27,0.07400000000000001,0.07400000000000001,0.07400000000000001,0.07400000000000001,0
2019-08-28,0.065,0.065,0.065,0.066,4000
2019-08-29,0.066,0.066,0.066,0.066,80000
2019-08-30,0.069,0.069,0.069,0.069,0
2019-09-02,0.069,0.069,0.069,0.069,1424
2019-09-03,0.069,0.069,0.069,0.069,0
2019-09-04,0.069,0.069,0.069,0.069,0
2019-09-05,0.07,0.07,0.07,0.07,36000
2019-09-06,0.067,0.067,0.067,0.067,24000
2019-09-09,0.067,0.067,0.067,0.067,52000
2019-09-10,0.068,0.068,0.068,0.068,0
2019-09-11,0.068,0.068,0.068,0.068,0
2019-09-12,0.08800000000000001,0.09,0.08800000000000001,0.08800000000000001,160000
2019-09-13,0.08800000000000001,0.08800000000000001,0.08800000000000001,0.08800000000000001,0
2019-09-16,0.08800000000000001,0.08800000000000001,0.08800000000000001,0.08800000000000001,0
2019-09-17,0.069,0.069,0.069,0.071,8000
2019-09-18,0.071,0.071,0.071,0.071,20000
2019-09-19,0.071,0.071,0.071,0.071,0
2019-09-20,0.071,0.071,0.071,0.071,0
2019-09-23,0.071,0.071,0.071,0.071,0
2019-09-24,0.071,0.071,0.071,0.071,0
2019-09-25,0.071,0.071,0.071,0.071,0
2019-09-26,0.071,0.071,0.071,0.071,0
2019-09-27,0.071,0.071,0.071,0.071,0
2019-09-30,0.066,0.066,0.066,0.066,300000
2019-10-02,0.086,0.086,0.07,0.07,484000
2019-10-03,0.07,0.07,0.07,0.07,8000
2019-10-04,0.07,0.07,0.07,0.07,0
2019-10-08,0.07,0.087,0.07,0.079,8000
2019-10-09,0.066,0.08199999999999999,0.066,0.08199999999999999,36000
2019-10-10,0.08199999999999999,0.08199999999999999,0.08199999999999999,0.08199999999999999,0
2019-10-11,0.066,0.085,0.066,0.083,124000
2019-10-14,0.069,0.069,0.069,0.07,100000
2019-10-15,0.07,0.07,0.07,0.07,0
2019-10-16,0.067,0.076,0.066,0.076,1424000
2019-10-17,0.081,0.081,0.081,0.076,4000
2019-10-18,0.067,0.075,0.067,0.069,116000
2019-10-21,0.084,0.084,0.063,0.069,1556000
2019-10-22,0.078,0.078,0.078,0.071,4000
2019-10-23,0.063,0.069,0.063,0.069,238000
2019-10-24,0.064,0.065,0.064,0.065,108000
2019-10-25,0.065,0.065,0.065,0.065,60000
2019-10-28,0.066,0.069,0.062,0.062,740000
2019-10-29,0.064,0.064,0.064,0.064,100000
2019-10-30,0.064,0.064,0.064,0.064,8000
2019-10-31,0.064,0.064,0.064,0.064,0
2019-11-01,0.065,0.065,0.065,0.065,292000
2019-11-04,0.066,0.076,0.066,0.073,628000
2019-11-05,0.071,0.07400000000000001,0.066,0.07400000000000001,254666
2019-11-06,0.071,0.071,0.071,0.071,0
2019-11-07,0.07,0.07,0.07,0.07,0
2019-11-08,0.067,0.07,0.067,0.069,136000
2019-11-11,0.067,0.067,0.066,0.066,500000
2019-11-12,0.07400000000000001,0.07400000000000001,0.065,0.069,84000
2019-11-13,0.065,0.069,0.065,0.069,16000
2019-11-14,0.069,0.069,0.069,0.069,0
2019-11-15,0.069,0.073,0.069,0.069,88000
2019-11-18,0.08900000000000001,0.08900000000000001,0.066,0.069,544000
2019-11-19,0.087,0.087,0.066,0.078,484000
2019-11-20,0.087,0.087,0.081,0.081,228000
2019-11-21,0.07,0.07,0.07,0.07,204000
2019-11-22,0.07,0.07,0.07,0.07,4000
2019-11-25,0.068,0.07,0.068,0.07,12000
2019-11-26,0.066,0.066,0.065,0.066,468000
2019-11-27,0.065,0.065,0.065,0.065,360000
2019-11-28,0.065,0.065,0.065,0.065,1212000
2019-11-29,0.065,0.067,0.065,0.067,48000
2019-12-02,0.079,0.079,0.079,0.069,4000
2019-12-03,0.079,0.079,0.079,0.069,4000
2019-12-04,0.068,0.068,0.068,0.068,72000
2019-12-05,0.068,0.068,0.068,0.068,0
2019-12-06,0.065,0.067,0.061,0.067,2108000
2019-12-09,0.067,0.067,0.067,0.067,4000
2019-12-10,0.065,0.065,0.065,0.065,108000
2019-12-11,0.065,0.065,0.065,0.065,0
2019-12-12,0.065,0.066,0.065,0.066,132033
2019-12-13,0.067,0.068,0.066,0.066,2194521
2019-12-16,0.065,0.065,0.065,0.065,268000
2019-12-17,0.065,0.065,0.065,0.065,296000
2019-12-18,0.065,0.066,0.065,0.065,2460000
2019-12-19,0.07400000000000001,0.07400000000000001,0.065,0.07,300000
2019-12-20,0.07,0.07,0.07,0.07,0
2019-12-23,0.065,0.073,0.065,0.073,92000
2019-12-24,0.09,0.09,0.073,0.073,84000
2019-12-27,0.073,0.073,0.07200000000000001,0.07200000000000001,144000
2019-12-30,0.07,0.07,0.07,0.07,0
2019-12-31,0.066,0.066,0.065,0.065,400000
2020-01-02,0.065,0.07,0.065,0.065,376000
2020-01-03,0.065,0.065,0.065,0.065,0
2020-01-06,0.065,0.069,0.065,0.069,40000
2020-01-07,0.065,0.068,0.065,0.068,112000
2020-01-08,0.065,0.065,0.065,0.065,134000
2020-01-09,0.065,0.068,0.065,0.068,60000
2020-01-10,0.068,0.068,0.068,0.068,0
2020-01-13,0.068,0.068,0.068,0.068,0
2020-01-14,0.065,0.067,0.065,0.067,24000
2020-01-15,0.066,0.07,0.065,0.066,1472000
2020-01-16,0.066,0.066,0.066,0.066,56000
2020-01-17,0.066,0.066,0.066,0.066,20000
2020-01-20,0.065,0.065,0.062,0.065,426167
2020-01-21,0.065,0.065,0.065,0.065,316000
2020-01-22,0.066,0.075,0.066,0.075,328000
2020-01-23,0.095,0.095,0.067,0.069,1796000
2020-01-24,0.066,0.067,0.065,0.067,112000
2020-01-29,0.066,0.081,0.066,0.078,964000
2020-01-30,0.078,0.095,0.07,0.09,5684000
2020-01-31,0.102,0.233,0.09,0.10099999999999999,70556000
2020-02-03,0.10300000000000001,0.10300000000000001,0.077,0.081,8352000
2020-02-04,0.08,0.094,0.075,0.085,2524000
2020-02-05,0.083,0.085,0.08,0.08,1792000
2020-02-06,0.08,0.09,0.08,0.081,1852000
2020-02-07,0.077,0.08199999999999999,0.077,0.08199999999999999,804000
2020-02-10,0.076,0.08,0.076,0.08,1092000
2020-02-11,0.077,0.08800000000000001,0.077,0.083,1511000
2020-02-12,0.084,0.08900000000000001,0.078,0.087,2896000
2020-02-13,0.09,0.092,0.083,0.087,948000
2020-02-14,0.087,0.091,0.085,0.09,916000
2020-02-17,0.08800000000000001,0.092,0.086,0.09,940000
2020-02-18,0.08199999999999999,0.08800000000000001,0.078,0.08800000000000001,1584000
2020-02-19,0.08,0.08800000000000001,0.08,0.087,86000
2020-02-20,0.083,0.085,0.083,0.084,260000
2020-02-21,0.08199999999999999,0.084,0.081,0.081,652000
2020-02-24,0.08,0.08,0.08,0.08,0
2020-02-25,0.078,0.079,0.075,0.079,1316000
2020-02-26,0.073,0.07400000000000001,0.07,0.073,2592000
2020-02-27,0.075,0.084,0.075,0.08,196000
2020-02-28,0.07200000000000001,0.078,0.071,0.073,372000
2020-03-02,0.077,0.077,0.065,0.067,1996000
2020-03-03,0.07,0.073,0.07,0.071,464000
2020-03-04,0.071,0.071,0.07,0.07,148000
2020-03-05,0.071,0.078,0.066,0.068,348000
2020-03-06,0.069,0.073,0.068,0.071,756000
2020-03-09,0.071,0.078,0.071,0.073,556000
2020-03-10,0.071,0.071,0.071,0.071,0
2020-03-11,0.07,0.071,0.065,0.07,720000
2020-03-12,0.065,0.069,0.065,0.066,1012000
2020-03-13,0.065,0.066,0.059000000000000004,0.059000000000000004,6176000
2020-03-16,0.077,0.077,0.055999999999999994,0.057999999999999996,3620000
2020-03-17,0.055,0.057999999999999996,0.055,0.057999999999999996,212000
2020-03-18,0.062,0.062,0.055,0.055,768000
2020-03-19,0.063,0.063,0.054000000000000006,0.054000000000000006,5332000
2020-03-20,0.064,0.064,0.051,0.055,4024000
2020-03-23,0.051,0.055,0.051,0.055,124000
2020-03-24,0.055,0.055,0.055,0.055,0
2020-03-25,0.059000000000000004,0.059000000000000004,0.051,0.057,332000
2020-03-26,0.055,0.057999999999999996,0.055,0.055,4588000
2020-03-27,0.06,0.06,0.054000000000000006,0.055,2164000
2020-03-30,0.055,0.059000000000000004,0.054000000000000006,0.057999999999999996,104000
2020-03-31,0.057999999999999996,0.057999999999999996,0.057999999999999996,0.057999999999999996,76000
2020-04-01,0.07400000000000001,0.07400000000000001,0.057999999999999996,0.057999999999999996,212000
2020-04-02,0.055,0.057,0.054000000000000006,0.057,908000
2020-04-03,0.062,0.062,0.055,0.06,712000
2020-04-06,0.06,0.06,0.055,0.06,68000
2020-04-07,0.055,0.057999999999999996,0.055,0.057999999999999996,920000
2020-04-08,0.057999999999999996,0.057999999999999996,0.057999999999999996,0.057999999999999996,100000
2020-04-09,0.055999999999999994,0.055999999999999994,0.055999999999999994,0.055999999999999994,12000
2020-04-14,0.055999999999999994,0.055999999999999994,0.055,0.055999999999999994,116000
2020-04-15,0.055999999999999994,0.055999999999999994,0.055999999999999994,0.055999999999999994,264000
2020-04-16,0.055,0.055999999999999994,0.055,0.055999999999999994,284000
2020-04-17,0.055999999999999994,0.057999999999999996,0.055999999999999994,0.057999999999999996,28000
2020-04-20,0.055999999999999994,0.057999999999999996,0.055,0.055,952000
2020-04-21,0.055,0.057999999999999996,0.055,0.057999999999999996,36000
2020-04-22,0.057999999999999996,0.057999999999999996,0.057999999999999996,0.057999999999999996,0
2020-04-23,0.055,0.055,0.055,0.055,1812000
2020-04-24,0.055,0.055999999999999994,0.055,0.055,440000
2020-04-27,0.055,0.055,0.055,0.055,0
2020-04-28,0.055,0.055,0.055,0.055,12000
2020-04-29,0.055,0.057999999999999996,0.055,0.057999999999999996,648000
2020-05-04,0.055,0.055,0.055,0.055999999999999994,1324000
2020-05-05,0.055999999999999994,0.055999999999999994,0.055999999999999994,0.055999999999999994,0
2020-05-06,0.055,0.057999999999999996,0.054000000000000006,0.057999999999999996,208000
2020-05-07,0.057999999999999996,0.057999999999999996,0.057999999999999996,0.057999999999999996,0
2020-05-08,0.057999999999999996,0.057999999999999996,0.057999999999999996,0.057999999999999996,0
2020-05-11,0.057,0.057,0.057,0.057,0
2020-05-12,0.054000000000000006,0.057,0.054000000000000006,0.057,56000
2020-05-13,0.054000000000000006,0.057,0.054000000000000006,0.057,544000
2020-05-14,0.055,0.057,0.055,0.057,12000
2020-05-15,0.054000000000000006,0.054000000000000006,0.054000000000000006,0.054000000000000006,152000
2020-05-18,0.055,0.057,0.055,0.057,12000
2020-05-19,0.057,0.057,0.057,0.057,0
2020-05-20,0.055,0.055,0.055,0.055,528000
2020-05-21,0.055,0.055,0.055,0.055,52000
2020-05-22,0.055,0.055,0.055,0.055,868000
2020-05-25,0.054000000000000006,0.055,0.054000000000000006,0.055,108000
2020-05-26,0.055,0.055,0.054000000000000006,0.054000000000000006,252000
2020-05-27,0.054000000000000006,0.054000000000000006,0.054000000000000006,0.054000000000000006,24000
2020-05-28,0.054000000000000006,0.055,0.054000000000000006,0.055,16000
2020-05-29,0.054000000000000006,0.055,0.054000000000000006,0.054000000000000006,780000
2020-06-01,0.054000000000000006,0.055,0.054000000000000006,0.055,3537333
2020-06-02,0.054000000000000006,0.057,0.054000000000000006,0.055,218000
2020-06-03,0.054000000000000006,0.057999999999999996,0.054000000000000006,0.057999999999999996,392000
2020-06-04,0.055,0.057,0.055,0.057,16000
2020-06-05,0.055,0.055,0.055,0.055,256000
2020-06-08,0.055,0.057,0.055,0.057,203333
2020-06-09,0.055,0.055,0.055,0.055,240000
2020-06-10,0.055,0.055,0.055,0.055,60000
2020-06-11,0.055,0.057,0.055,0.057,566666
2020-06-12,0.055,0.055,0.055,0.055,220000
2020-06-15,0.055,0.055,0.055,0.055,32000
2020-06-16,0.055,0.055,0.055,0.055,108000
2020-06-17,0.057999999999999996,0.057999999999999996,0.055,0.055,2108000
2020-06-18,0.055,0.057,0.055,0.057,1052000
2020-06-19,0.057,0.057,0.055999999999999994,0.055999999999999994,132000
2020-06-22,0.055999999999999994,0.06,0.055,0.06,2072000
2020-06-23,0.076,0.076,0.055,0.057999999999999996,332000
2020-06-24,0.067,0.067,0.055,0.061,32000
2020-06-26,0.061,0.061,0.06,0.059000000000000004,56000
2020-06-29,0.061,0.061,0.057999999999999996,0.057999999999999996,124000
2020-06-30,0.061,0.061,0.059000000000000004,0.059000000000000004,196000
2020-07-02,0.059000000000000004,0.059000000000000004,0.057,0.057,404000
2020-07-03,0.057999999999999996,0.057999999999999996,0.055,0.055,356000
2020-07-06,0.055,0.057,0.055,0.055999999999999994,3628000
2020-07-07,0.065,0.065,0.061,0.061,2080000
2020-07-08,0.057999999999999996,0.057999999999999996,0.055,0.057,3580000
2020-07-09,0.064,0.064,0.055,0.055,1524000
2020-07-10,0.059000000000000004,0.059000000000000004,0.055,0.055,836000
2020-07-13,0.055999999999999994,0.057999999999999996,0.055,0.055,924000
2020-07-14,0.065,0.065,0.055,0.059000000000000004,272000
2020-07-15,0.055,0.057999999999999996,0.055,0.055,2424000
2020-07-16,0.062,0.062,0.055,0.06,1168000
2020-07-17,0.055999999999999994,0.055999999999999994,0.055,0.055999999999999994,28000
2020-07-20,0.055999999999999994,0.061,0.055999999999999994,0.061,28000
2020-07-21,0.06,0.06,0.06,0.06,102178
2020-07-22,0.055,0.055,0.055,0.057,160000
2020-07-23,0.055,0.059000000000000004,0.055,0.059000000000000004,344000
2020-07-24,0.055999999999999994,0.055999999999999994,0.055999999999999994,0.055999999999999994,568000
2020-07-27,0.055,0.059000000000000004,0.055,0.059000000000000004,63000
2020-07-28,0.059000000000000004,0.059000000000000004,0.059000000000000004,0.059000000000000004,204000
2020-07-29,0.055,0.055,0.055,0.055,72000
2020-07-30,0.055,0.057,0.055,0.057,640000
2020-07-31,0.057,0.057,0.057,0.057,0
2020-08-03,0.055,0.057,0.055,0.055999999999999994,148000
2020-08-05,0.055,0.057,0.055,0.057,60000
2020-08-07,0.055,0.057,0.055,0.057,32000
2020-08-10,0.055,0.057,0.055,0.057,128000
2020-08-11,0.055,0.057,0.055,0.057,16000
2020-08-12,0.054000000000000006,0.054000000000000006,0.054000000000000006,0.054000000000000006,20000
2020-08-13,0.053,0.053,0.053,0.053,8000
2020-08-14,0.055999999999999994,0.059000000000000004,0.055,0.059000000000000004,608000
2020-08-17,0.06,0.06,0.06,0.06,204000
2020-08-18,0.057,0.057,0.055999999999999994,0.055999999999999994,94000
2020-08-19,0.059000000000000004,0.065,0.057999999999999996,0.057999999999999996,1916000
2020-08-20,0.057999999999999996,0.057999999999999996,0.057999999999999996,0.057999999999999996,404000
2020-08-21,0.057,0.057999999999999996,0.055,0.057999999999999996,432000
2020-08-24,0.057999999999999996,0.057999999999999996,0.055999999999999994,0.055999999999999994,280000
2020-08-25,0.053,0.053,0.053,0.053,132000
