Date,Open,High,Low,Close,Volume
2014-09-01,1.18,1.3,1.18,1.27,350000
2014-09-02,1.32,1.32,1.25,1.3,500000
2014-09-03,1.25,1.31,1.25,1.3,300000
2014-09-04,1.27,1.3,1.27,1.28,210000
2014-09-05,1.27,1.35,1.27,1.35,470000
2014-09-08,1.37,1.37,1.35,1.37,130000
2014-09-10,1.38,1.45,1.38,1.4,680000
2014-09-11,1.4,1.45,1.4,1.4,190000
2014-09-12,1.38,1.38,1.35,1.35,120000
2014-09-15,1.26,1.4,1.26,1.3,210000
2014-09-17,1.4,1.4,1.31,1.36,204000
2014-09-18,1.27,1.36,1.27,1.36,60000
2014-09-19,1.35,1.35,1.3,1.31,40000
2014-09-22,1.31,1.31,1.27,1.27,50000
2014-09-23,1.28,1.3,1.28,1.29,80000
2014-09-24,1.29,1.29,1.29,1.29,20000
2014-09-25,1.27,1.27,1.23,1.23,200000
2014-09-26,1.23,1.23,1.2,1.23,210000
2014-09-29,1.24,1.5,1.24,1.5,830000
2014-09-30,1.45,1.5,1.45,1.48,510000
2014-10-03,1.47,1.47,1.43,1.43,40000
2014-10-06,1.43,1.44,1.4,1.41,180000
2014-10-07,1.41,1.41,1.41,1.41,20000
2014-10-08,1.41,1.5,1.41,1.47,50000
2014-10-10,1.42,1.42,1.42,1.42,10000
2014-10-13,1.4,1.4,1.4,1.4,30000
2014-10-14,1.41,1.41,1.34,1.34,90000
2014-10-15,1.39,1.39,1.37,1.37,20000
2014-10-16,1.35,1.35,1.35,1.35,10000
2014-10-17,1.24,1.32,1.23,1.32,550000
2014-10-20,1.32,1.32,1.32,1.32,10000
2014-10-24,1.3,1.3,1.3,1.3,10000
2014-10-27,1.29,1.29,1.25,1.22,60000
2014-11-03,1.39,1.39,1.39,1.38,50000
2014-11-05,1.3,1.3,1.23,1.23,190000
2014-11-06,1.2,1.2,1.2,1.21,20000
2014-11-10,1.21,1.23,1.21,1.23,20000
2014-11-12,1.23,1.6,1.23,1.45,3380000
2014-11-13,1.51,2.2,1.35,1.94,15495000
2014-11-14,2.0,2.32,2.0,2.29,14544000
2014-11-17,2.31,2.67,2.13,2.57,10070000
2014-11-18,2.6,4.15,2.6,4.11,10787000
2014-11-19,4.2,4.21,2.7,3.2,3400000
2014-11-20,3.1,3.1,2.66,2.66,2880000
2014-11-21,2.5,3.51,2.1,3.36,6450000
2014-11-24,3.4,4.79,3.4,4.4,8305000
2014-11-25,4.1,4.65,3.94,4.4,2370000
2014-11-26,4.5,5.03,4.45,4.98,4540000
2014-11-27,4.99,5.3,4.68,5.2,4460000
2014-11-28,4.9,5.46,4.85,5.2,4530000
2014-12-01,5.01,5.11,4.61,4.98,4390000
2014-12-02,5.0,5.19,4.77,4.79,4050000
2014-12-03,5.05,5.05,4.03,4.3,2510000
2014-12-04,4.3,4.8,4.3,4.53,2270000
2014-12-05,4.5,4.66,4.15,4.15,2240000
2014-12-08,4.5,4.5,3.62,3.62,430000
2014-12-09,3.2,3.45,3.14,3.25,1330000
2014-12-10,3.25,3.82,3.25,3.75,1190000
2014-12-11,3.4,4.1,3.4,4.1,2240000
2014-12-12,4.05,4.06,3.63,3.63,1540000
2014-12-15,3.8,3.8,3.45,3.6,920000
2014-12-16,3.77,3.79,3.28,3.45,910000
2014-12-17,3.64,3.65,3.25,3.27,570000
2014-12-18,3.41,3.48,3.05,3.24,980000
2014-12-19,3.42,3.43,3.21,3.14,980000
2014-12-22,3.25,3.39,3.2,3.2,990000
2014-12-23,3.17,3.36,3.0,3.12,1080000
2014-12-24,3.12,3.24,3.12,3.18,840000
2014-12-29,3.18,3.31,2.98,3.05,820000
2014-12-30,3.15,3.15,2.81,2.81,890000
2014-12-31,2.95,2.95,2.66,2.81,850000
2015-01-02,2.75,3.29,2.42,3.29,910000
2015-01-05,3.13,3.13,2.73,3.01,1240000
2015-01-06,3.0,3.02,2.88,2.89,1060000
2015-01-07,2.85,2.88,2.69,2.84,890000
2015-01-08,2.7,2.79,2.62,2.76,620000
2015-01-09,2.6,2.86,2.5,2.7,920000
2015-01-12,2.71,2.85,2.65,2.79,690000
2015-01-13,2.66,2.79,2.59,2.7,750000
2015-01-14,2.7,2.78,2.67,2.73,590000
2015-01-15,2.78,2.78,0.5,1.06,449470016
2015-01-16,1.1,1.32,1.06,1.12,160730000
2015-01-19,1.15,1.21,0.92,1.06,32240000
2015-01-20,1.09,1.09,0.92,0.95,21250000
2015-01-21,0.97,1.04,0.9,0.92,33180000
2015-01-22,0.93,0.93,0.83,0.84,16590000
2015-01-23,0.84,0.92,0.7,0.85,30750000
2015-01-26,0.87,0.89,0.82,0.84,2800000
2015-01-27,0.84,0.84,0.79,0.8,4460000
2015-01-28,0.78,0.8,0.75,0.77,3550000
2015-01-29,0.75,0.76,0.73,0.73,4450000
2015-01-30,0.72,0.84,0.72,0.79,14420000
2015-02-02,0.79,0.87,0.73,0.85,12060000
2015-02-03,0.84,0.91,0.79,0.8,12780000
2015-02-04,0.81,0.81,0.76,0.77,2120000
2015-02-05,0.77,0.79,0.75,0.77,1920000
2015-02-06,0.76,0.8,0.75,0.77,2380000
2015-02-09,0.75,0.77,0.74,0.75,1080000
2015-02-10,0.74,0.79,0.73,0.75,2300000
2015-02-11,0.74,0.75,0.73,0.75,880000
2015-02-12,0.74,0.75,0.73,0.74,590000
2015-02-13,0.72,0.75,0.72,0.74,930000
2015-02-16,0.73,0.74,0.72,0.72,1030000
2015-02-17,0.71,0.75,0.68,0.72,2950000
2015-02-18,0.71,0.82,0.71,0.76,5770000
2015-02-23,0.75,0.79,0.73,0.75,1080000
2015-02-24,0.74,0.77,0.73,0.75,1060000
2015-02-25,0.74,0.74,0.72,0.72,1780000
2015-02-26,0.71,0.74,0.71,0.74,1060000
2015-02-27,0.73,0.74,0.72,0.72,420000
2015-03-02,0.71,0.73,0.71,0.72,730000
2015-03-03,0.71,0.72,0.7,0.71,550000
2015-03-04,0.7,0.71,0.69,0.69,1290000
2015-03-05,0.69,0.7,0.65,0.67,2010000
2015-03-06,0.67,0.71,0.67,0.7,1420000
2015-03-09,0.7,0.7,0.67,0.68,2570000
2015-03-10,0.68,0.69,0.68,0.68,540000
2015-03-11,0.66,0.68,0.66,0.67,800000
2015-03-12,0.67,0.78,0.66,0.72,3790000
2015-03-13,0.7,0.72,0.69,0.69,1180000
2015-03-16,0.68,0.7,0.67,0.69,930000
2015-03-17,0.68,0.69,0.68,0.68,450000
2015-03-18,0.68,0.69,0.67,0.67,1310000
2015-03-19,0.67,0.67,0.65,0.66,1600000
2015-03-20,0.65,0.66,0.65,0.66,1040000
2015-03-23,0.64,0.65,0.64,0.64,460000
2015-03-24,0.63,0.64,0.61,0.63,1490000
2015-03-25,0.63,0.63,0.61,0.63,960000
2015-03-26,0.67,0.69,0.64,0.68,1260000
2015-03-27,0.65,0.68,0.65,0.67,500000
2015-03-30,0.62,0.65,0.6,0.64,670000
2015-03-31,0.64,0.66,0.64,0.64,530000
2015-04-01,0.63,0.67,0.63,0.66,710000
2015-04-02,0.66,0.71,0.65,0.71,3250000
2015-04-08,0.75,0.78,0.71,0.77,5790000
2015-04-09,0.79,0.82,0.76,0.78,3880000
2015-04-10,0.78,0.81,0.77,0.78,1880000
2015-04-13,0.78,0.92,0.78,0.9,9540000
2015-04-14,0.9,1.28,0.9,1.16,31420000
2015-04-15,1.22,1.25,0.97,1.05,15360000
2015-04-16,1.08,1.08,0.94,0.99,7830000
2015-04-17,1.02,1.06,1.0,1.01,4020000
2015-04-20,1.01,1.14,0.94,0.98,7250000
2015-04-21,0.97,1.02,0.95,0.98,3000000
2015-04-22,0.99,1.01,0.98,1.0,2170000
2015-04-23,1.0,1.07,1.0,1.02,3710000
2015-04-24,1.06,1.06,0.97,0.97,2830000
2015-04-27,0.98,1.03,0.97,0.98,2140000
2015-04-28,0.98,1.0,0.97,0.98,2380000
2015-04-29,0.98,0.98,0.92,0.94,1590000
2015-04-30,0.94,0.94,0.92,0.92,1170000
2015-05-04,0.93,1.0,0.93,0.98,2210000
2015-05-05,0.99,1.02,0.95,0.96,3930000
2015-05-06,0.99,0.99,0.94,0.95,1470000
2015-05-07,0.95,0.95,0.92,0.92,1110000
2015-05-08,0.93,1.0,0.93,0.96,1290000
2015-05-11,0.99,0.99,0.94,0.96,1600000
2015-05-12,0.97,0.97,0.93,0.93,1350000
2015-05-13,0.93,0.94,0.91,0.93,2340000
2015-05-14,0.93,0.93,0.9,0.93,1760000
2015-05-15,0.91,0.93,0.9,0.91,1220000
2015-05-18,0.91,0.93,0.9,0.92,1850000
2015-05-19,0.94,0.94,0.9,0.91,1370000
2015-05-20,0.9,1.12,0.9,1.09,19640000
2015-05-21,1.12,1.2,1.02,1.03,11580000
2015-05-22,1.03,1.09,1.03,1.03,4940400
2015-05-26,1.09,1.09,1.04,1.07,3850000
2015-05-27,1.06,1.13,1.03,1.07,5200000
2015-05-28,1.09,1.09,1.0,1.03,3110000
2015-05-29,1.0,1.13,1.0,1.09,7470000
2015-06-01,1.11,1.17,1.09,1.13,6760000
2015-06-02,1.16,1.18,1.11,1.13,5850000
2015-06-03,1.14,1.16,1.12,1.14,2130000
2015-06-04,1.14,1.14,1.07,1.11,2990000
2015-06-05,1.13,1.14,1.07,1.08,2620000
2015-06-08,1.09,1.09,1.03,1.05,1450000
2015-06-09,1.01,1.03,0.93,0.99,3620000
2015-06-10,0.97,1.0,0.95,0.96,1160000
2015-06-11,0.96,1.02,0.96,0.97,1070000
2015-06-12,1.0,1.0,0.95,0.96,1450000
2015-06-15,0.96,0.96,0.95,0.95,1120000
2015-06-16,0.95,0.96,0.93,0.96,920000
2015-06-17,0.95,0.98,0.91,0.98,2270000
2015-06-18,0.99,0.99,0.95,0.98,110000
2015-06-19,0.98,0.99,0.91,0.93,910000
2015-06-22,0.93,0.96,0.93,0.95,630000
2015-06-23,0.95,0.96,0.9,0.93,1030000
2015-06-24,0.96,0.96,0.93,0.94,730000
2015-06-25,0.94,0.94,0.9,0.91,930000
2015-06-26,0.89,0.91,0.89,0.89,650000
2015-06-29,0.88,0.88,0.78,0.82,3390000
2015-06-30,0.79,0.85,0.77,0.83,2000000
2015-07-02,0.83,0.9,0.83,0.86,1860000
2015-07-03,0.85,0.85,0.8,0.83,1870000
2015-07-06,0.85,0.9,0.65,0.7,3050000
2015-07-07,0.7,0.7,0.65,0.66,1060000
2015-07-08,0.52,0.58,0.52,0.53,1770000
2015-07-09,0.52,0.67,0.52,0.64,3570000
2015-07-10,0.69,0.74,0.69,0.71,1760000
2015-07-13,0.72,0.75,0.71,0.75,1730000
2015-07-14,0.76,0.77,0.71,0.76,3560000
2015-07-15,0.76,0.76,0.72,0.74,580000
2015-07-16,0.73,0.75,0.73,0.74,560000
2015-07-17,0.76,0.77,0.74,0.76,1120000
2015-07-20,0.74,0.76,0.73,0.74,1220000
2015-07-21,0.76,0.77,0.73,0.76,460000
2015-07-22,0.75,0.75,0.7,0.72,1680000
2015-07-23,0.72,0.72,0.69,0.7,770000
2015-07-24,0.7,0.71,0.69,0.71,440000
2015-07-27,0.69,0.69,0.63,0.65,1040000
2015-07-28,0.58,0.68,0.58,0.68,620000
2015-07-29,0.68,0.72,0.68,0.69,230000
2015-07-30,0.69,0.7,0.69,0.69,280000
2015-07-31,0.68,0.68,0.68,0.69,230000
2015-08-03,0.66,0.68,0.65,0.68,140000
2015-08-04,0.66,0.68,0.65,0.66,560000
2015-08-05,0.65,0.65,0.64,0.64,380000
2015-08-07,0.62,0.72,0.6,0.62,3110000
2015-08-10,0.62,0.69,0.62,0.67,380000
2015-08-11,0.7,0.72,0.68,0.69,890000
2015-08-12,0.67,0.69,0.66,0.66,240000
2015-08-13,0.67,0.7,0.67,0.67,540000
2015-08-14,0.69,0.75,0.67,0.74,2930000
2015-08-17,0.75,0.84,0.75,0.76,2390000
2015-08-18,0.78,0.78,0.72,0.75,920000
2015-08-19,0.75,0.78,0.72,0.78,870000
2015-08-20,0.78,0.78,0.72,0.76,1290000
2015-08-21,0.73,0.73,0.68,0.71,890000
2015-08-24,0.69,0.69,0.6,0.65,910000
2015-08-25,0.61,0.68,0.61,0.68,490000
2015-08-26,0.62,0.65,0.59,0.62,1220000
2015-08-27,0.64,0.65,0.61,0.63,1220000
2015-08-28,0.65,0.65,0.61,0.64,590000
2015-08-31,0.62,0.62,0.6,0.61,790000
2015-09-01,0.65,0.65,0.6,0.65,2900000
2015-09-02,0.65,0.68,0.62,0.66,1000000
2015-09-04,0.68,0.68,0.65,0.66,1190000
2015-09-07,0.63,0.66,0.62,0.64,380000
2015-09-08,0.62,0.63,0.62,0.63,470000
2015-09-09,0.64,0.65,0.62,0.65,870000
2015-09-10,0.63,0.65,0.63,0.65,560000
2015-09-11,0.65,0.72,0.63,0.72,2240000
2015-09-14,0.75,0.92,0.75,0.92,14700000
2015-09-15,1.0,1.02,0.74,0.88,10300000
2015-09-16,0.93,0.95,0.88,0.92,6490000
2015-09-17,0.94,0.97,0.81,0.82,53990000
2015-09-18,0.83,0.87,0.82,0.86,2567000
2015-09-21,0.85,0.85,0.78,0.81,890000
2015-09-22,0.84,0.86,0.78,0.79,1330000
2015-09-23,0.77,0.77,0.71,0.71,6500000
2015-09-24,0.77,0.77,0.71,0.73,1270000
2015-09-25,0.72,0.72,0.7,0.72,1350000
2015-09-29,0.7,0.72,0.69,0.72,1510000
2015-09-30,0.71,0.72,0.7,0.71,340000
2015-10-02,0.74,0.76,0.74,0.75,350000
2015-10-05,0.77,0.78,0.73,0.73,920000
2015-10-06,0.75,0.76,0.75,0.75,1010000
2015-10-07,0.77,0.77,0.75,0.77,639800
2015-10-08,0.76,0.77,0.76,0.77,470000
2015-10-09,0.78,0.83,0.78,0.82,1060000
2015-10-12,0.82,0.85,0.82,0.84,1440000
2015-10-13,0.84,0.84,0.82,0.82,710000
2015-10-14,0.82,0.84,0.8,0.8,1620000
2015-10-15,0.83,0.84,0.79,0.83,980000
2015-10-16,0.83,0.83,0.81,0.82,220000
2015-10-19,0.8,0.81,0.78,0.8,1080000
2015-10-20,0.8,0.8,0.78,0.78,300000
2015-10-22,0.81,0.81,0.77,0.78,740000
2015-10-23,0.8,0.8,0.78,0.78,220000
2015-10-26,0.8,0.8,0.77,0.78,580000
2015-10-27,0.79,0.79,0.78,0.78,290000
2015-10-28,0.78,0.78,0.76,0.77,1110000
2015-10-29,0.78,0.78,0.75,0.78,590000
2015-10-30,0.78,0.84,0.78,0.8,1010000
2015-11-02,0.8,0.84,0.8,0.8,520000
2015-11-03,0.8,0.81,0.78,0.79,120000
2015-11-04,0.79,0.79,0.76,0.78,300000
2015-11-05,0.78,0.83,0.76,0.79,1620000
2015-11-06,0.81,0.83,0.78,0.83,1370000
2015-11-09,0.81,0.81,0.8,0.8,380000
2015-11-10,0.77,0.8,0.77,0.8,60000
2015-11-11,0.8,0.8,0.79,0.79,310000
2015-11-12,0.79,0.81,0.79,0.79,610000
2015-11-13,0.79,0.8,0.78,0.79,560000
2015-11-16,0.79,0.84,0.79,0.82,1920000
2015-11-17,0.82,0.84,0.81,0.82,1040000
2015-11-18,0.77,0.83,0.75,0.82,710000
2015-11-19,0.82,0.82,0.81,0.81,320000
2015-11-20,0.81,0.81,0.79,0.79,1000000
2015-11-23,0.8,0.81,0.78,0.8,400000
2015-11-24,0.8,0.8,0.79,0.79,250000
2015-11-25,0.77,0.79,0.77,0.77,400000
2015-11-26,0.79,0.79,0.78,0.79,260000
2015-11-30,0.79,0.79,0.76,0.76,410000
2015-12-01,0.77,0.77,0.73,0.73,330000
2015-12-02,0.72,0.75,0.71,0.75,780000
2015-12-03,0.74,0.76,0.71,0.72,160000
2015-12-04,0.74,0.74,0.71,0.72,130000
2015-12-07,0.71,0.72,0.71,0.72,130000
2015-12-08,0.71,0.75,0.7,0.73,400000
2015-12-09,0.73,0.73,0.7,0.7,250000
2015-12-10,0.73,0.74,0.72,0.72,440000
2015-12-11,0.71,0.73,0.68,0.68,300000
2015-12-14,0.66,0.66,0.65,0.66,240000
2015-12-15,0.65,0.65,0.64,0.65,140000
2015-12-16,0.65,0.67,0.65,0.65,210000
2015-12-17,0.65,0.69,0.65,0.69,50000
2015-12-21,0.66,0.67,0.66,0.67,130000
2015-12-22,0.65,0.73,0.65,0.68,270000
2015-12-23,0.71,0.71,0.67,0.7,470000
2015-12-28,0.65,0.67,0.59,0.67,620000
2015-12-29,0.66,0.66,0.66,0.66,10000
2015-12-30,0.63,0.67,0.6,0.62,610000
2015-12-31,0.61,0.65,0.61,0.65,200000
2016-01-04,0.67,0.72,0.65,0.66,820000
2016-01-05,0.65,0.65,0.63,0.63,350000
2016-01-06,0.68,0.68,0.62,0.62,210000
2016-01-07,0.6,0.63,0.6,0.6,440000
2016-01-08,0.61,0.63,0.61,0.63,370000
2016-01-11,0.63,0.65,0.59,0.64,660000
2016-01-12,0.61,0.61,0.6,0.6,400000
2016-01-13,0.65,0.65,0.6,0.64,1480000
2016-01-14,0.64,0.64,0.61,0.63,180000
2016-01-15,0.61,0.61,0.61,0.61,120000
2016-01-18,0.6,0.6,0.56,0.56,330000
2016-01-19,0.56,0.6,0.56,0.6,160000
2016-01-20,0.57,0.6,0.54,0.6,750000
2016-01-21,0.59,0.59,0.57,0.57,180000
2016-01-22,0.61,0.7,0.59,0.66,2110000
2016-01-25,0.67,0.67,0.64,0.64,150000
2016-01-26,0.64,0.64,0.62,0.62,240000
2016-01-27,0.63,0.63,0.6,0.61,130000
2016-01-28,0.58,0.58,0.55,0.55,1130000
2016-01-29,0.59,0.62,0.52,0.62,1360000
2016-02-01,0.58,0.65,0.57,0.61,460000
2016-02-02,0.58,0.65,0.57,0.62,1080000
2016-02-03,0.57,0.66,0.56,0.65,880000
2016-02-04,0.62,0.64,0.61,0.63,140000
2016-02-05,0.65,0.65,0.62,0.65,9320000
2016-02-11,0.6,0.65,0.6,0.65,1260000
2016-02-12,0.63,0.65,0.63,0.65,70000
2016-02-15,0.64,0.65,0.64,0.65,50000
2016-02-16,0.63,0.64,0.63,0.64,810000
2016-02-18,0.61,0.63,0.56,0.59,20758100
2016-02-19,0.59,0.6,0.53,0.55,1190000
2016-02-22,0.55,0.58,0.55,0.56,1150000
2016-02-23,0.56,0.56,0.55,0.55,60000
2016-02-24,0.56,0.56,0.55,0.55,90000
2016-02-25,0.54,0.54,0.53,0.54,90000
2016-02-26,0.53,0.54,0.53,0.53,70000
2016-02-29,0.53,0.53,0.52,0.53,140000
2016-03-01,0.53,0.56,0.53,0.56,400000
2016-03-02,0.55,0.56,0.55,0.56,140000
2016-03-03,0.54,0.54,0.54,0.54,130000
2016-03-07,0.55,0.56,0.55,0.56,20000
2016-03-08,0.56,0.57,0.56,0.56,340000
2016-03-09,0.57,0.57,0.57,0.57,180000
2016-03-10,0.56,0.57,0.56,0.57,820000
2016-03-11,0.57,0.57,0.56,0.56,170000
2016-03-14,0.57,0.57,0.56,0.56,50000
2016-03-15,0.55,0.56,0.55,0.56,50000
2016-03-16,0.55,0.57,0.55,0.57,100000
2016-03-17,0.56,0.57,0.56,0.57,50000
2016-03-18,0.56,0.56,0.56,0.56,100000
2016-03-21,0.55,0.55,0.54,0.55,250000
2016-03-22,0.55,0.55,0.55,0.55,120000
2016-03-23,0.54,0.55,0.54,0.55,1180000
2016-03-24,0.54,0.54,0.54,0.54,130000
2016-03-29,0.5,0.54,0.5,0.53,80000
2016-03-30,0.53,0.53,0.53,0.53,110000
2016-03-31,0.53,0.53,0.52,0.53,500000
2016-04-01,0.52,0.53,0.51,0.52,1730000
2016-04-05,0.53,0.53,0.52,0.52,80000
2016-04-06,0.52,0.52,0.52,0.52,100000
2016-04-11,0.53,0.55,0.53,0.54,560000
2016-04-12,0.51,0.55,0.51,0.54,1290000
2016-04-13,0.55,0.58,0.53,0.58,3860000
2016-04-14,0.56,0.57,0.54,0.56,2540000
2016-04-15,0.56,0.57,0.54,0.55,3570000
2016-04-18,0.59,0.59,0.56,0.58,3570000
2016-04-19,0.58,0.6,0.56,0.58,3430000
2016-04-20,0.57,0.61,0.56,0.58,15920000
2016-04-21,0.6,0.6,0.56,0.59,3350000
2016-04-22,0.59,0.59,0.57,0.58,3410000
2016-04-25,0.59,0.6,0.56,0.58,3490000
2016-04-26,0.58,0.59,0.57,0.58,3320000
2016-04-27,0.58,0.59,0.57,0.58,4120000
2016-04-28,0.57,0.58,0.56,0.57,3910000
2016-04-29,0.56,0.56,0.55,0.56,3670000
2016-05-03,0.55,0.56,0.54,0.56,3590000
2016-05-04,0.56,0.57,0.56,0.56,3610000
2016-05-05,0.56,0.57,0.55,0.56,3760000
2016-05-06,0.56,0.6,0.56,0.58,3410000
2016-05-09,0.59,0.6,0.57,0.57,3540000
2016-05-10,0.58,0.59,0.57,0.57,3090000
2016-05-11,0.58,0.59,0.58,0.59,30000
2016-05-12,0.59,0.59,0.57,0.57,100000
2016-05-13,0.56,0.56,0.56,0.56,160000
2016-05-16,0.54,0.57,0.54,0.57,210000
2016-05-17,0.57,0.57,0.57,0.57,320000
2016-05-18,0.55,0.57,0.55,0.57,60000
2016-05-19,0.55,0.55,0.55,0.55,50000
2016-05-20,0.54,0.55,0.54,0.55,240000
2016-05-23,0.54,0.54,0.54,0.54,10000
2016-05-24,0.55,0.55,0.55,0.55,20000
2016-05-25,0.55,0.55,0.55,0.55,70000
2016-05-26,0.53,0.53,0.52,0.53,54600
2016-05-27,0.53,0.53,0.52,0.53,50000
2016-05-30,0.52,0.53,0.52,0.53,190000
2016-05-31,0.52,0.53,0.52,0.54,70000
2016-06-01,0.52,0.52,0.52,0.53,210000
2016-06-03,0.54,0.56,0.54,0.54,170000
2016-06-06,0.52,0.52,0.52,0.53,30000
2016-06-08,0.53,0.54,0.53,0.53,150000
2016-06-13,0.52,0.53,0.51,0.53,110000
2016-06-15,0.51,0.52,0.51,0.52,120000
2016-06-16,0.53,0.53,0.53,0.53,40000
2016-06-17,0.53,0.53,0.52,0.52,160000
2016-06-23,0.51,0.51,0.5,0.51,710000
2016-06-24,0.51,0.51,0.5,0.51,130000
2016-06-27,0.5,0.53,0.5,0.52,30000
2016-06-28,0.53,0.53,0.51,0.52,140000
2016-06-29,0.51,0.52,0.51,0.52,30000
2016-06-30,0.51,0.51,0.51,0.51,250000
2016-07-04,0.52,0.55,0.52,0.55,350000
2016-07-05,0.55,0.55,0.52,0.52,170000
2016-07-06,0.52,0.53,0.49,0.53,1160000
2016-07-07,0.55,0.55,0.52,0.53,190000
2016-07-11,0.52,0.52,0.52,0.52,80000
2016-07-12,0.52,0.54,0.52,0.54,150000
2016-07-13,0.53,0.53,0.53,0.53,70000
2016-07-14,0.52,0.52,0.52,0.52,10000
2016-07-15,0.53,0.54,0.53,0.54,60000
2016-07-18,0.53,0.55,0.53,0.54,120000
2016-07-20,0.52,0.52,0.52,0.53,200000
2016-07-21,0.52,0.52,0.52,0.52,20000
2016-07-22,0.52,0.52,0.52,0.52,160000
2016-07-25,0.52,0.53,0.52,0.53,200000
2016-07-26,0.53,0.55,0.53,0.54,60000
2016-07-27,0.53,0.53,0.53,0.53,80000
2016-07-28,0.53,0.53,0.53,0.53,100000
2016-07-29,0.52,0.52,0.52,0.52,230000
2016-08-01,0.52,0.52,0.52,0.52,50000
2016-08-03,0.53,0.54,0.53,0.54,80000
2016-08-04,0.54,0.57,0.54,0.56,630000
2016-08-05,0.58,0.68,0.58,0.63,3830000
2016-08-08,0.65,0.69,0.64,0.68,7130000
2016-08-09,0.68,0.72,0.68,0.71,6120000
2016-08-10,0.71,0.74,0.69,0.7,6260000
2016-08-11,0.7,0.73,0.7,0.71,6028100
2016-08-12,0.71,0.72,0.69,0.7,5270000
2016-08-15,0.7,0.7,0.64,0.68,7510000
2016-08-16,0.67,0.7,0.67,0.69,11530000
2016-08-17,0.7,0.71,0.69,0.7,7520000
2016-08-18,0.7,0.72,0.7,0.72,3420000
2016-08-19,0.71,0.75,0.7,0.75,10760000
2016-08-22,0.75,0.75,0.74,0.75,4490000
2016-08-23,0.75,0.77,0.72,0.75,4070000
2016-08-24,0.74,0.77,0.73,0.75,127960000
2016-08-25,0.75,0.75,0.72,0.73,4587900
2016-08-26,0.74,0.75,0.72,0.72,3840600
2016-08-29,0.73,0.74,0.72,0.73,13870000
2016-08-30,0.73,0.74,0.72,0.73,8670000
2016-08-31,0.73,0.74,0.72,0.74,3780000
2016-09-01,0.74,0.75,0.74,0.75,4030000
2016-09-02,0.75,0.76,0.74,0.75,5980000
2016-09-05,0.75,0.75,0.74,0.74,2750000
2016-09-06,0.74,0.74,0.73,0.74,2250000
2016-09-07,0.74,0.77,0.74,0.75,7460000
2016-09-08,0.75,0.76,0.74,0.75,1860000
2016-09-09,0.75,0.75,0.74,0.74,1340000
2016-09-12,0.74,0.74,0.72,0.72,1100000
2016-09-13,0.72,0.75,0.72,0.74,1660000
2016-09-14,0.74,0.76,0.73,0.75,3060000
2016-09-15,0.75,0.76,0.74,0.75,3410000
2016-09-19,0.76,0.76,0.74,0.75,3020000
2016-09-20,0.75,0.75,0.74,0.74,2710000
2016-09-21,0.75,0.75,0.74,0.74,2710000
2016-09-22,0.75,0.75,0.73,0.74,2490000
2016-09-23,0.74,0.75,0.74,0.75,5250000
2016-09-26,0.75,0.76,0.74,0.75,7240000
2016-09-27,0.75,0.75,0.74,0.75,8560000
2016-09-28,0.75,0.76,0.74,0.75,2400000
2016-09-29,0.75,0.82,0.75,0.77,12240000
2016-09-30,0.77,0.77,0.72,0.75,3550000
2016-10-03,0.74,0.75,0.73,0.75,560000
2016-10-04,0.75,0.75,0.73,0.74,860000
2016-10-05,0.74,0.75,0.73,0.75,280000
2016-10-06,0.74,0.77,0.74,0.75,1580000
2016-10-07,0.75,0.75,0.73,0.73,1160000
2016-10-11,0.74,0.75,0.74,0.74,470000
2016-10-12,0.75,0.76,0.75,0.75,1000000
2016-10-13,0.74,0.75,0.74,0.75,540000
2016-10-14,0.73,0.73,0.73,0.73,390000
2016-10-17,0.73,0.73,0.73,0.73,80000
2016-10-18,0.73,0.73,0.71,0.73,280000
2016-10-19,0.74,0.75,0.74,0.74,310000
2016-10-20,0.76,0.76,0.75,0.75,310000
2016-10-24,0.75,0.76,0.75,0.75,200000
2016-10-25,0.74,0.74,0.74,0.74,50000
2016-10-26,0.74,0.76,0.73,0.74,620000
2016-10-28,0.74,0.74,0.74,0.74,200000
2016-10-31,0.75,0.75,0.73,0.74,180000
2016-11-01,0.75,0.75,0.74,0.74,310000
2016-11-02,0.75,0.86,0.75,0.8,3350000
2016-11-03,0.79,0.8,0.78,0.8,5090000
2016-11-04,0.8,0.81,0.77,0.77,2840000
2016-11-07,0.79,0.8,0.75,0.77,3540000
2016-11-08,0.79,0.79,0.75,0.75,1160000
2016-11-09,0.76,0.76,0.74,0.75,610000
2016-11-10,0.75,0.79,0.74,0.77,800000
2016-11-11,0.77,0.77,0.74,0.75,5670000
2016-11-14,0.75,0.78,0.7,0.78,1890000
2016-11-15,0.77,0.77,0.74,0.75,770000
2016-11-16,0.77,0.78,0.74,0.75,590000
2016-11-17,0.75,0.75,0.75,0.75,2180000
2016-11-18,0.75,0.76,0.74,0.75,2790000
2016-11-21,0.74,0.75,0.74,0.74,4480000
2016-11-22,0.75,0.75,0.74,0.74,3410000
2016-11-23,0.74,0.75,0.74,0.74,1570000
2016-11-24,0.75,0.75,0.74,0.74,640000
2016-11-25,0.73,0.74,0.73,0.74,180000
2016-11-28,0.74,0.74,0.74,0.74,40000
2016-11-29,0.75,0.75,0.75,0.75,2920000
2016-11-30,0.76,0.76,0.74,0.76,1780000
2016-12-01,0.76,0.76,0.75,0.76,450000
2016-12-02,0.74,0.74,0.73,0.73,390000
2016-12-05,0.73,0.73,0.7,0.7,460000
2016-12-06,0.7,0.72,0.7,0.7,440000
2016-12-07,0.71,0.72,0.69,0.69,660000
2016-12-08,0.7,0.74,0.69,0.72,550000
2016-12-09,0.74,0.74,0.72,0.74,1040000
2016-12-12,0.74,0.75,0.74,0.75,560000
2016-12-13,0.74,0.75,0.74,0.74,210000
2016-12-14,0.74,0.76,0.72,0.75,960000
2016-12-15,0.74,0.74,0.72,0.72,420000
2016-12-16,0.73,0.75,0.71,0.74,760000
2016-12-19,0.73,0.74,0.73,0.74,500000
2016-12-20,0.74,0.75,0.73,0.75,570000
2016-12-21,0.75,0.75,0.74,0.75,670000
2016-12-22,0.74,0.75,0.74,0.75,610000
2016-12-23,0.75,0.75,0.71,0.75,330000
2016-12-28,0.76,0.76,0.73,0.73,150000
2016-12-29,0.74,0.75,0.73,0.73,540000
2016-12-30,0.74,0.75,0.73,0.75,60000
2017-01-03,0.75,0.75,0.73,0.74,270000
2017-01-04,0.73,0.74,0.73,0.74,60000
2017-01-05,0.75,0.75,0.74,0.75,250000
2017-01-06,0.74,0.75,0.74,0.74,100000
2017-01-09,0.74,0.74,0.73,0.74,260000
2017-01-10,0.74,0.74,0.74,0.74,210000
2017-01-11,0.73,0.75,0.73,0.75,690000
2017-01-12,0.75,0.75,0.72,0.74,980000
2017-01-13,0.73,0.74,0.73,0.74,170000
2017-01-16,0.73,0.74,0.71,0.74,380000
2017-01-17,0.73,0.74,0.73,0.74,350000
2017-01-18,0.74,0.74,0.71,0.73,490000
2017-01-19,0.72,0.74,0.72,0.74,300000
2017-01-20,0.74,0.75,0.73,0.73,490000
2017-01-23,0.74,0.74,0.73,0.74,310000
2017-01-24,0.75,0.75,0.75,0.75,180000
2017-01-25,0.75,0.75,0.74,0.74,160000
2017-02-01,0.74,0.74,0.74,0.74,30000
2017-02-06,0.75,0.75,0.75,0.75,160000
2017-02-08,0.73,0.73,0.73,0.73,30000
2017-02-09,0.74,0.74,0.73,0.73,380000
2017-02-10,0.74,0.74,0.73,0.73,210000
2017-02-13,0.73,0.73,0.73,0.73,220000
2017-02-14,0.73,0.74,0.73,0.73,170000
2017-02-15,0.73,0.74,0.72,0.73,630000
2017-02-16,0.72,0.73,0.72,0.73,130000
2017-02-20,0.72,0.72,0.72,0.72,180000
2017-02-21,0.73,0.73,0.72,0.72,250000
2017-02-22,0.66,0.73,0.66,0.73,180000
2017-02-23,0.74,0.75,0.74,0.75,360000
2017-02-27,0.73,0.73,0.71,0.72,150000
2017-02-28,0.72,0.72,0.72,0.72,120000
2017-03-01,0.7,0.71,0.69,0.7,370000
2017-03-03,0.72,0.74,0.72,0.74,5740000
2017-03-06,0.73,0.74,0.73,0.73,80000
2017-03-07,0.73,0.73,0.73,0.73,2410000
2017-03-08,0.74,0.74,0.73,0.74,5110000
2017-03-09,0.74,0.74,0.73,0.74,5130000
2017-03-10,0.74,0.74,0.74,0.74,4250000
2017-03-14,0.73,0.73,0.73,0.73,160000
2017-03-15,0.73,0.73,0.73,0.73,220000
2017-03-16,0.72,0.74,0.72,0.74,120000
2017-03-17,0.74,0.74,0.72,0.72,230000
2017-03-20,0.73,0.73,0.73,0.73,220000
2017-03-21,0.72,0.72,0.72,0.72,30000
2017-03-22,0.72,0.72,0.72,0.72,210000
2017-03-24,0.72,0.72,0.7,0.71,90000
2017-03-27,0.71,0.71,0.71,0.71,10000
2017-03-28,0.71,0.71,0.71,0.71,230000
2017-03-29,0.69,0.7,0.69,0.7,580000
2017-03-30,0.7,0.7,0.69,0.69,260000
2017-03-31,0.69,0.74,0.69,0.73,890000
2017-04-03,0.73,0.76,0.72,0.74,700000
2017-04-05,0.73,0.73,0.72,0.73,610000
2017-04-06,0.71,0.73,0.69,0.69,980000
2017-04-07,0.65,0.72,0.65,0.67,1250000
2017-04-10,0.7,0.71,0.7,0.71,350000
2017-04-11,0.72,0.73,0.72,0.72,580000
2017-04-12,0.68,0.72,0.68,0.72,940000
2017-04-13,0.69,0.69,0.69,0.69,50000
2017-04-18,0.7,0.7,0.67,0.67,550000
2017-04-19,0.67,0.68,0.67,0.68,50000
2017-04-20,0.69,0.7,0.69,0.7,570000
2017-04-21,0.69,0.7,0.68,0.68,660000
2017-04-24,0.69,0.69,0.69,0.69,10000
2017-04-28,0.63,0.63,0.63,0.64,10000
2017-05-02,0.68,0.69,0.68,0.69,310000
2017-05-04,0.69,0.69,0.69,0.69,100000
2017-05-05,0.68,0.68,0.68,0.68,0
2017-05-08,0.65,0.66,0.65,0.66,70000
2017-05-09,0.65,0.66,0.65,0.66,130000
2017-05-10,0.69,0.69,0.55,0.65,520000
2017-05-11,0.61,0.65,0.61,0.65,120000
2017-05-15,0.6,0.62,0.6,0.62,70000
2017-05-16,0.63,0.63,0.63,0.65,20000
2017-05-17,0.64,0.65,0.64,0.64,0
2017-05-18,0.63,0.63,0.63,0.63,50000
2017-05-19,0.6,0.63,0.6,0.63,360000
2017-05-23,0.65,0.65,0.6,0.6,270000
2017-05-24,0.6,0.64,0.56,0.58,700000
2017-05-25,0.6,0.6,0.59,0.59,210000
2017-05-26,0.59,0.59,0.58,0.58,250000
2017-05-29,0.55,0.58,0.55,0.58,80000
2017-05-31,0.56,0.58,0.56,0.58,50000
2017-06-01,0.6,0.6,0.6,0.6,90000
2017-06-02,0.58,0.59,0.58,0.59,120000
2017-06-05,0.61,0.61,0.57,0.57,350000
2017-06-06,0.59,0.59,0.56,0.56,150000
2017-06-07,0.57,0.57,0.56,0.55,150000
2017-06-08,0.53,0.54,0.53,0.55,180000
2017-06-09,0.54,0.56,0.54,0.56,430000
2017-06-12,0.57,0.57,0.57,0.57,30000
2017-06-13,0.59,0.59,0.57,0.58,230000
2017-06-15,0.57,0.6,0.57,0.59,130000
2017-06-20,0.58,0.58,0.57,0.57,80000
2017-06-21,0.57,0.57,0.57,0.57,0
2017-06-26,0.53,0.53,0.53,0.57,40000
2017-06-27,0.55,0.55,0.52,0.57,130000
2017-06-28,0.53,0.57,0.52,0.57,380000
2017-06-29,0.55,0.57,0.54,0.57,110000
2017-06-30,0.55,0.55,0.55,0.55,100000
2017-07-04,0.53,0.57,0.53,0.55,5320000
2017-07-05,0.54,0.56,0.54,0.56,3820000
2017-07-06,0.55,0.55,0.54,0.54,200000
2017-07-07,0.54,0.54,0.52,0.54,260000
2017-07-10,0.55,0.55,0.52,0.52,210000
2017-07-11,0.52,0.52,0.52,0.52,30000
2017-07-12,0.5,0.5,0.5,0.52,50000
2017-07-13,0.53,0.53,0.53,0.53,0
2017-07-14,0.51,0.53,0.485,0.52,510000
2017-07-17,0.495,0.495,0.475,0.48,780000
2017-07-18,0.485,0.485,0.48,0.48,0
2017-07-19,0.48,0.5,0.48,0.5,620000
2017-07-20,0.49,0.5,0.48,0.5,2700000
2017-07-24,0.52,0.52,0.5,0.5,270000
2017-07-25,0.5,0.5,0.485,0.5,250000
2017-07-26,0.5,0.5,0.485,0.5,420000
2017-07-27,0.52,0.54,0.5,0.54,300000
2017-07-28,0.55,0.55,0.54,0.54,160000
2017-07-31,0.57,0.57,0.52,0.54,90000
2017-08-01,0.5,0.54,0.5,0.54,350000
2017-08-02,0.54,0.54,0.52,0.54,190000
2017-08-03,0.52,0.58,0.52,0.54,340000
2017-08-04,0.54,0.56,0.54,0.56,220000
2017-08-07,0.54,0.56,0.53,0.53,150000
2017-08-08,0.54,0.54,0.54,0.54,150000
2017-08-09,0.54,0.54,0.52,0.52,380000
2017-08-10,0.53,0.53,0.52,0.52,30000
2017-08-11,0.48,0.5,0.48,0.5,500000
2017-08-15,0.48,0.48,0.48,0.495,750000
2017-08-16,0.53,0.53,0.39,0.51,800000
2017-08-21,0.47,0.47,0.465,0.465,250000
2017-08-22,0.465,0.465,0.465,0.465,40000
2017-08-24,0.45,0.48,0.45,0.48,1420000
2017-08-25,0.435,0.475,0.43,0.475,220000
2017-08-30,0.45,0.49,0.45,0.475,130000
2017-08-31,0.485,0.485,0.485,0.485,40000
2017-09-01,0.475,0.475,0.475,0.48,450000
2017-09-04,0.45,0.47,0.45,0.47,450000
2017-09-05,0.455,0.46,0.455,0.46,50000
2017-09-06,0.43,0.45,0.43,0.45,240000
2017-09-08,0.455,0.455,0.45,0.45,0
2017-09-11,0.415,0.415,0.415,0.5,30000
2017-09-12,0.5,0.5,0.5,0.49,30000
2017-09-13,0.485,0.49,0.485,0.49,0
2017-09-14,0.485,0.485,0.48,0.48,0
2017-09-15,0.48,0.48,0.48,0.475,10000
2017-09-18,0.42,0.42,0.42,0.425,90000
2017-09-19,0.425,0.425,0.425,0.425,100000
2017-09-21,0.425,0.47,0.395,0.47,80000
2017-09-22,0.465,0.47,0.455,0.465,0
2017-09-25,0.4,0.4,0.4,0.4,20000
2017-09-26,0.4,0.4,0.4,0.4,160000
2017-09-27,0.4,0.4,0.4,0.4,10000
2017-09-28,0.4,0.4,0.4,0.4,70000
2017-10-03,0.4,0.4,0.35,0.35,20000
2017-10-04,0.37,0.37,0.35,0.36,480000
2017-10-06,0.4,0.4,0.35,0.36,270000
2017-10-09,0.35,0.365,0.35,0.36,350000
2017-10-10,0.355,0.37,0.34,0.36,180000
2017-10-11,0.32,0.375,0.32,0.36,60000
2017-10-12,0.33,0.365,0.33,0.365,400000
2017-10-13,0.365,0.365,0.365,0.365,20000
2017-10-16,0.355,0.355,0.35,0.35,210000
2017-10-17,0.335,0.35,0.335,0.35,40000
2017-10-18,0.335,0.35,0.33,0.345,1110000
2017-10-19,0.34,0.34,0.34,0.34,110000
2017-10-23,0.345,0.36,0.345,0.35,500000
2017-10-24,0.38,0.38,0.38,0.38,40000
2017-10-27,0.36,0.36,0.36,0.36,220000
2017-10-30,0.35,0.36,0.35,0.36,0
2017-11-01,0.355,0.36,0.355,0.36,90000
2017-11-02,0.355,0.36,0.355,0.36,110000
2017-11-06,0.36,0.36,0.36,0.36,30000
2017-11-08,0.36,0.36,0.335,0.36,70000
2017-11-10,0.355,0.355,0.355,0.355,0
2017-11-14,0.325,0.33,0.25,0.31,990000
2017-11-15,0.315,0.35,0.315,0.35,430000
2017-11-16,0.35,0.35,0.35,0.35,10000
2017-11-17,0.32,0.34,0.285,0.34,290000
2017-11-20,0.335,0.335,0.335,0.335,50000
2017-11-21,0.33,0.345,0.33,0.345,60000
2017-11-22,0.335,0.345,0.335,0.345,0
2017-11-23,0.33,0.34,0.3,0.34,230000
2017-11-24,0.3,0.32,0.29,0.32,260000
2017-11-27,0.32,0.32,0.32,0.32,10000
2017-11-28,0.35,0.35,0.345,0.345,20000
2017-11-29,0.3,0.345,0.3,0.345,40000
2017-11-30,0.34,0.34,0.34,0.34,0
2017-12-06,0.335,0.335,0.285,0.295,720000
2017-12-07,0.295,0.295,0.295,0.295,140000
2017-12-12,0.32,0.32,0.3,0.325,420000
2017-12-13,0.3,0.32,0.3,0.32,420000
2017-12-14,0.33,0.33,0.3,0.3,70000
2017-12-15,0.32,0.335,0.32,0.32,720000
2017-12-18,0.32,0.355,0.32,0.355,2320000
2017-12-19,0.325,0.36,0.325,0.36,650000
2017-12-20,0.36,0.36,0.36,0.36,50000
2017-12-21,0.35,0.4,0.33,0.4,2970000
2017-12-22,0.4,0.475,0.4,0.46,1100000
2017-12-27,0.48,0.49,0.415,0.415,630000
2017-12-28,0.45,0.475,0.435,0.465,790000
2017-12-29,0.5,0.5,0.44,0.495,1530000
2018-01-02,0.49,0.49,0.49,0.49,0
2018-01-03,0.48,0.55,0.48,0.52,680000
2018-01-04,0.52,0.52,0.49,0.52,510000
2018-01-05,0.56,0.56,0.5,0.54,350000
2018-01-08,0.54,0.54,0.54,0.54,0
2018-01-09,0.52,0.55,0.5,0.54,530000
2018-01-10,0.5,0.54,0.5,0.54,80000
2018-01-11,0.53,0.56,0.53,0.56,280000
2018-01-12,0.55,0.55,0.53,0.53,0
2018-01-15,0.54,0.54,0.5,0.54,430000
2018-01-16,0.51,0.51,0.5,0.5,320000
2018-01-17,0.475,0.53,0.475,0.53,300000
2018-01-18,0.51,0.54,0.5,0.54,310000
2018-01-19,0.54,0.54,0.54,0.54,80000
2018-01-22,0.5,0.54,0.465,0.53,300000
2018-01-23,0.5,0.53,0.5,0.52,20000
2018-01-24,0.53,0.54,0.53,0.54,60000
2018-01-25,0.53,0.53,0.53,0.53,0
2018-01-26,0.53,0.53,0.53,0.53,40000
2018-01-29,0.55,0.55,0.55,0.55,10000
2018-01-30,0.5,0.53,0.5,0.53,120000
2018-01-31,0.5,0.54,0.5,0.53,340000
2018-02-01,0.5,0.52,0.5,0.52,250000
2018-02-02,0.5,0.52,0.5,0.51,90000
2018-02-05,0.52,0.54,0.52,0.54,50000
2018-02-06,0.5,0.53,0.5,0.5,110000
2018-02-07,0.52,0.52,0.52,0.52,10000
2018-02-08,0.5,0.52,0.5,0.52,70000
2018-02-09,0.5,0.5,0.49,0.49,0
2018-02-12,0.53,0.53,0.5,0.51,30000
2018-02-13,0.5,0.52,0.5,0.51,120000
2018-02-14,0.5,0.51,0.5,0.51,50000
2018-02-20,0.54,0.54,0.5,0.52,50000
2018-02-22,0.52,0.53,0.52,0.53,30000
2018-02-23,0.48,0.48,0.48,0.48,80000
2018-02-26,0.52,0.53,0.48,0.48,80000
2018-02-28,0.52,0.52,0.485,0.52,60000
2018-03-05,0.5,0.5,0.48,0.5,140000
2018-03-08,0.435,0.48,0.435,0.48,610000
2018-03-09,0.49,0.49,0.49,0.49,10000
2018-03-12,0.485,0.485,0.485,0.485,170000
2018-03-13,0.52,0.52,0.52,0.51,10000
2018-03-14,0.5,0.5,0.495,0.495,0
2018-03-16,0.485,0.5,0.475,0.5,1370000
2018-03-20,0.495,0.5,0.495,0.5,0
2018-03-21,0.495,0.5,0.495,0.5,0
2018-03-22,0.465,0.5,0.465,0.5,30000
2018-03-23,0.495,0.5,0.495,0.5,0
2018-03-26,0.455,0.495,0.445,0.48,130000
2018-03-27,0.5,0.5,0.5,0.5,10000
2018-03-28,0.49,0.49,0.485,0.485,0
2018-03-29,0.51,0.51,0.49,0.49,4520000
2018-04-03,0.485,0.49,0.485,0.49,0
2018-04-04,0.485,0.485,0.48,0.48,0
2018-04-06,0.475,0.48,0.47,0.47,0
2018-04-09,0.495,0.495,0.49,0.485,30000
2018-04-10,0.485,0.485,0.47,0.47,0
2018-04-11,0.465,0.47,0.465,0.47,0
2018-04-12,0.465,0.47,0.465,0.47,10000
2018-04-13,0.43,0.46,0.43,0.455,20000
2018-04-16,0.45,0.455,0.445,0.445,0
2018-04-17,0.44,0.445,0.44,0.445,0
2018-04-18,0.4,0.435,0.395,0.435,90000
2018-04-19,0.43,0.44,0.4,0.43,3230000
2018-04-20,0.4,0.43,0.4,0.425,30000
2018-04-24,0.42,0.42,0.42,0.42,0
2018-04-25,0.44,0.44,0.44,0.435,10000
2018-04-26,0.4,0.425,0.4,0.425,50000
2018-04-27,0.4,0.415,0.4,0.415,70000
2018-04-30,0.4,0.4,0.4,0.4,0
2018-05-04,0.435,0.435,0.435,0.4,40000
2018-05-07,0.4,0.4,0.4,0.4,20000
2018-05-10,0.4,0.4,0.4,0.4,40000
2018-05-14,0.36,0.4,0.36,0.38,80000
2018-05-15,0.4,0.4,0.4,0.4,0
2018-05-17,0.385,0.4,0.38,0.4,120000
2018-05-18,0.38,0.38,0.375,0.38,230000
2018-05-21,0.37,0.37,0.36,0.365,520000
2018-05-23,0.34,0.38,0.34,0.345,260000
2018-05-24,0.34,0.365,0.34,0.365,170000
2018-05-25,0.345,0.35,0.345,0.35,100000
2018-05-28,0.36,0.36,0.36,0.36,40000
2018-05-29,0.36,0.365,0.36,0.365,270000
2018-05-30,0.365,0.365,0.365,0.365,70000
2018-05-31,0.37,0.375,0.37,0.375,140000
2018-06-04,0.375,0.375,0.37,0.37,80000
2018-06-06,0.375,0.375,0.375,0.375,0
2018-06-07,0.39,0.43,0.39,0.39,2900000
2018-06-08,0.39,0.39,0.39,0.39,90000
2018-06-11,0.395,0.405,0.39,0.39,240000
2018-06-12,0.4,0.4,0.385,0.385,200000
2018-06-13,0.37,0.37,0.37,0.38,60000
2018-06-15,0.38,0.385,0.38,0.385,2640000
2018-06-22,0.375,0.375,0.375,0.375,150000
2018-06-25,0.39,0.39,0.375,0.375,170000
2018-06-26,0.365,0.375,0.365,0.375,230000
2018-06-27,0.365,0.365,0.365,0.365,110000
2018-06-28,0.36,0.36,0.35,0.385,390000
2018-06-29,0.38,0.385,0.375,0.38,3010000
2018-07-05,0.38,0.38,0.38,0.38,10000
2018-07-11,0.36,0.38,0.36,0.38,40000
2018-07-12,0.345,0.345,0.345,0.345,10000
2018-07-16,0.35,0.35,0.35,0.35,150000
2018-07-17,0.385,0.385,0.385,0.385,10000
2018-07-19,0.335,0.335,0.335,0.385,20000
2018-07-23,0.37,0.37,0.37,0.37,110000
2018-07-24,0.32,0.325,0.32,0.375,50000
2018-07-25,0.375,0.375,0.375,0.375,30000
2018-07-27,0.365,0.365,0.365,0.37,880000
2018-07-30,0.335,0.335,0.325,0.355,190000
2018-08-06,0.325,0.325,0.325,0.325,10000
2018-08-07,0.33,0.395,0.33,0.395,8330000
2018-08-08,0.39,0.39,0.385,0.385,0
2018-08-09,0.36,0.385,0.33,0.385,70000
2018-08-10,0.39,0.395,0.39,0.395,440000
2018-08-13,0.35,0.375,0.34,0.35,410000
2018-08-14,0.36,0.36,0.355,0.355,390000
2018-08-20,0.345,0.345,0.345,0.345,20000
2018-08-22,0.345,0.345,0.345,0.345,0
2018-08-23,0.34,0.34,0.34,0.365,160000
2018-08-27,0.36,0.36,0.35,0.35,0
2018-08-28,0.375,0.375,0.375,0.375,0
2018-08-29,0.37,0.37,0.365,0.365,0
2018-08-30,0.365,0.37,0.365,0.37,0
2018-09-03,0.325,0.325,0.325,0.325,120000
2018-09-07,0.33,0.33,0.325,0.325,270000
2018-09-12,0.32,0.32,0.31,0.31,0
2018-09-13,0.305,0.31,0.29,0.3,160000
2018-09-14,0.29,0.29,0.275,0.28,620000
2018-09-17,0.3,0.34,0.3,0.33,2560000
2018-09-18,0.31,0.35,0.31,0.35,1230000
2018-09-19,0.34,0.34,0.325,0.325,0
2018-09-20,0.31,0.31,0.305,0.3,20000
2018-09-21,0.365,0.365,0.365,0.355,30000
2018-09-24,0.35,0.35,0.35,0.35,0
2018-09-26,0.3,0.34,0.3,0.34,210000
2018-09-28,0.36,0.36,0.36,0.36,50000
2018-10-02,0.31,0.36,0.31,0.36,220000
2018-10-03,0.355,0.36,0.35,0.35,0
2018-10-04,0.35,0.355,0.34,0.345,0
2018-10-05,0.315,0.335,0.31,0.335,390000
2018-10-08,0.305,0.335,0.3,0.335,40000
2018-10-09,0.33,0.335,0.33,0.335,0
2018-10-10,0.3,0.335,0.3,0.32,40000
2018-10-11,0.32,0.32,0.32,0.32,40000
2018-10-12,0.315,0.32,0.315,0.32,0
2018-10-15,0.315,0.315,0.315,0.32,50000
2018-10-18,0.325,0.325,0.325,0.325,950000
2018-10-22,0.32,0.335,0.32,0.335,7370000
2018-10-23,0.335,0.335,0.335,0.335,110000
2018-10-24,0.335,0.335,0.335,0.335,70000
2018-10-30,0.32,0.335,0.32,0.335,2090000
2018-11-01,0.33,0.335,0.33,0.335,0
2018-11-02,0.33,0.335,0.33,0.335,0
2018-11-09,0.305,0.315,0.3,0.31,130000
2018-11-12,0.31,0.31,0.3,0.31,40000
2018-11-14,0.305,0.305,0.3,0.3,1370000
2018-11-16,0.3,0.3,0.3,0.3,20000
2018-11-19,0.295,0.3,0.27,0.3,3380000
2018-11-20,0.29,0.29,0.28,0.28,240000
2018-11-21,0.295,0.31,0.295,0.31,3240000
2018-11-22,0.285,0.285,0.285,0.285,110000
2018-11-27,0.28,0.28,0.28,0.28,90000
2018-11-29,0.265,0.275,0.265,0.265,840000
2018-11-30,0.265,0.265,0.26,0.26,200000
2018-12-04,0.28,0.285,0.275,0.285,1730000
2018-12-07,0.28,0.295,0.275,0.275,7580000
2018-12-20,0.28,0.28,0.28,0.28,70000
2018-12-27,0.285,0.285,0.285,0.285,130000
2019-01-02,0.285,0.285,0.285,0.285,10000
2019-01-03,0.285,0.285,0.285,0.285,50000
2019-01-09,0.36,0.4,0.36,0.37,5570000
2019-01-10,0.34,0.34,0.3,0.31,570000
2019-01-11,0.295,0.295,0.285,0.295,1210000
2019-01-14,0.27,0.29,0.265,0.28,900000
2019-01-15,0.28,0.28,0.28,0.27,80000
2019-01-16,0.255,0.26,0.255,0.26,60000
2019-01-24,0.255,0.255,0.245,0.25,230000
2019-01-25,0.24100000000000002,0.25,0.239,0.25,150000
2019-02-01,0.3,0.3,0.265,0.26,750000
2019-02-04,0.35,0.35,0.35,0.3,10000
2019-02-08,0.35,0.35,0.35,0.29,10000
2019-02-12,0.29,0.29,0.29,0.29,120000
2019-02-13,0.285,0.285,0.28,0.28,120000
2019-02-14,0.275,0.28,0.275,0.28,120000
2019-02-19,0.26,0.26,0.26,0.26,100000
2019-02-20,0.27,0.275,0.27,0.275,120000
2019-02-21,0.275,0.3,0.275,0.295,403000
2019-02-22,0.3,0.3,0.28,0.3,280000
2019-02-25,0.305,0.32,0.3,0.3,710000
2019-02-26,0.3,0.305,0.28,0.305,2050000
2019-02-27,0.305,0.34,0.305,0.32,470000
2019-02-28,0.315,0.315,0.305,0.31,1300000
2019-03-01,0.315,0.32,0.315,0.32,350000
2019-03-04,0.32,0.35,0.32,0.33,1410000
2019-03-05,0.335,0.355,0.335,0.355,670000
2019-03-06,0.36,0.37,0.345,0.37,280000
2019-03-07,0.355,0.36,0.345,0.355,2320000
2019-03-08,0.36,0.365,0.355,0.36,2920000
2019-03-11,0.36,0.375,0.36,0.375,3550000
2019-03-12,0.37,0.47,0.37,0.395,4690000
2019-03-13,0.4,0.405,0.385,0.395,3150000
2019-03-14,0.395,0.42,0.395,0.41,3980000
2019-03-15,0.4,0.415,0.4,0.415,3510000
2019-03-18,0.405,0.43,0.405,0.425,4890000
2019-03-19,0.415,0.435,0.415,0.42,3710000
2019-03-20,0.42,0.425,0.41,0.42,4330000
2019-03-21,0.415,0.43,0.41,0.43,5730000
2019-03-22,0.435,0.45,0.425,0.44,5230000
2019-03-25,0.44,0.44,0.43,0.44,3010000
2019-03-26,0.435,0.44,0.435,0.44,3670000
2019-03-27,0.435,0.44,0.43,0.435,3430000
2019-03-28,0.435,0.44,0.43,0.435,2860000
2019-03-29,0.435,0.46,0.435,0.455,4950000
2019-04-01,0.445,0.475,0.445,0.46,5150000
2019-04-02,0.455,0.47,0.455,0.47,6550000
2019-04-03,0.47,0.5,0.46,0.465,3410000
2019-04-04,0.465,0.48,0.455,0.465,3970000
2019-04-08,0.455,0.475,0.455,0.465,4190000
2019-04-09,0.46,0.47,0.46,0.47,2680000
2019-04-10,0.465,0.48,0.465,0.475,4360000
2019-04-11,0.465,0.47,0.455,0.465,3950000
2019-04-12,0.46,0.475,0.455,0.475,3130000
2019-04-15,0.475,0.5,0.46,0.485,4520000
2019-04-16,0.47,0.49,0.47,0.485,2980000
2019-04-17,0.48,0.485,0.465,0.48,3270000
2019-04-18,0.475,0.49,0.47,0.48,4090000
2019-04-23,0.485,0.485,0.475,0.475,4330000
2019-04-24,0.475,0.48,0.47,0.475,4230000
2019-04-25,0.47,0.475,0.465,0.475,2780000
2019-04-26,0.47,0.48,0.47,0.475,3620000
2019-04-29,0.475,0.49,0.47,0.49,6680000
2019-04-30,0.485,0.51,0.48,0.5,4660000
2019-05-02,0.5,0.52,0.485,0.495,4400000
2019-05-03,0.485,0.5,0.48,0.49,4500000
2019-05-06,0.485,0.495,0.475,0.48,2110000
2019-05-07,0.47,0.495,0.47,0.475,2410000
2019-05-08,0.465,0.48,0.465,0.475,4510000
2019-05-09,0.47,0.49,0.46,0.49,6280000
2019-05-10,0.485,0.49,0.48,0.49,1820000
2019-05-14,0.475,0.48,0.465,0.48,3170000
2019-05-15,0.47,0.55,0.47,0.495,4270000
2019-05-16,0.485,0.495,0.485,0.495,3260000
2019-05-17,0.49,0.495,0.48,0.49,2050000
2019-05-20,0.485,0.49,0.475,0.48,1930000
2019-05-21,0.475,0.48,0.47,0.475,1720000
2019-05-22,0.47,0.48,0.47,0.475,3290000
2019-05-23,0.47,0.48,0.465,0.475,2630000
2019-05-24,0.47,0.475,0.465,0.47,1570000
2019-05-27,0.47,0.475,0.455,0.47,3980000
2019-05-28,0.46,0.475,0.46,0.46,3860000
2019-05-29,0.46,0.46,0.46,0.46,960000
2019-05-30,0.46,0.46,0.455,0.46,2330000
2019-05-31,0.46,0.46,0.46,0.46,1010000
2019-06-03,0.46,0.46,0.46,0.46,4270000
2019-06-04,0.46,0.46,0.46,0.46,2520000
2019-06-05,0.465,0.47,0.465,0.465,4500000
2019-06-06,0.46,0.465,0.46,0.46,4029365
2019-06-10,0.46,0.465,0.46,0.465,3160000
2019-06-11,0.46,0.465,0.46,0.46,2680000
2019-06-12,0.46,0.475,0.455,0.465,5250000
2019-06-13,0.46,0.465,0.455,0.46,4300000
2019-06-14,0.46,0.46,0.455,0.46,3910000
2019-06-17,0.46,0.465,0.455,0.46,7080000
2019-06-18,0.465,0.47,0.46,0.46,2970000
2019-06-19,0.455,0.47,0.455,0.47,3420000
2019-06-20,0.46,0.465,0.46,0.46,1280000
2019-06-21,0.465,0.465,0.445,0.445,5390000
2019-06-24,0.445,0.455,0.445,0.455,3320000
2019-06-25,0.455,0.46,0.45,0.455,3760000
2019-06-26,0.455,0.46,0.455,0.455,1870000
2019-06-27,0.455,0.46,0.455,0.46,1990000
2019-06-28,0.45,0.46,0.45,0.46,1870000
2019-07-02,0.46,0.475,0.46,0.47,2930000
2019-07-03,0.465,0.49,0.46,0.475,4410000
2019-07-04,0.47,0.48,0.47,0.48,4580000
2019-07-05,0.475,0.5,0.47,0.5,5810000
2019-07-08,0.495,0.52,0.495,0.5,3568342
2019-07-09,0.5,0.53,0.5,0.52,7600000
2019-07-10,0.51,0.55,0.5,0.54,6370000
2019-07-11,0.54,0.57,0.53,0.56,7510000
2019-07-12,0.55,0.58,0.53,0.55,6610000
2019-07-15,0.55,0.58,0.54,0.56,4230000
2019-07-16,0.56,0.6,0.56,0.6,10300000
2019-07-17,0.6,0.63,0.58,0.61,7150000
2019-07-18,0.6,0.6,0.57,0.59,5320000
2019-07-19,0.57,0.61,0.57,0.59,7550000
2019-07-22,0.6,0.61,0.58,0.6,5930000
2019-07-23,0.59,0.6,0.57,0.6,7500000
2019-07-24,0.6,0.63,0.59,0.61,6140000
2019-07-25,0.6,0.63,0.6,0.61,9070000
2019-07-26,0.61,0.64,0.61,0.64,8240000
2019-07-29,0.64,0.65,0.62,0.63,7009026
2019-07-30,0.64,0.66,0.63,0.64,6570000
2019-07-31,0.63,0.65,0.63,0.64,6600000
2019-08-01,0.64,0.67,0.64,0.66,6540000
2019-08-02,0.65,0.67,0.62,0.66,9440000
2019-08-05,0.65,0.65,0.6,0.63,26840000
2019-08-06,0.6,0.62,0.59,0.61,3630000
2019-08-07,0.6,0.62,0.59,0.61,9420000
2019-08-08,0.59,0.61,0.57,0.6,24150000
2019-08-09,0.6,0.6,0.55,0.56,9110000
2019-08-12,0.57,0.57,0.54,0.56,13690000
2019-08-13,0.55,0.56,0.55,0.56,13760000
2019-08-14,0.56,0.57,0.56,0.56,1480000
2019-08-15,0.56,0.58,0.56,0.58,2760000
2019-08-16,0.58,0.6,0.58,0.6,3170000
2019-08-19,0.59,0.62,0.59,0.59,2280000
2019-08-20,0.58,0.61,0.58,0.61,2070000
2019-08-21,0.59,0.62,0.58,0.6,2050000
2019-08-22,0.59,0.63,0.58,0.63,4520000
2019-08-23,0.63,0.66,0.62,0.64,2750000
2019-08-26,0.6,0.6,0.59,0.6,2440000
2019-08-27,0.6,0.61,0.59,0.6,2840000
2019-08-28,0.6,0.61,0.59,0.6,2240000
2019-08-29,0.6,0.61,0.59,0.61,2730000
2019-08-30,0.6,0.63,0.6,0.6,3900000
2019-09-02,0.59,0.6,0.58,0.6,2560000
2019-09-03,0.6,0.61,0.58,0.6,4340000
2019-09-04,0.6,0.6,0.58,0.6,7930000
2019-09-05,0.58,0.6,0.58,0.6,2370000
2019-09-06,0.58,0.6,0.58,0.6,2910000
2019-09-09,0.59,0.61,0.59,0.61,4810000
2019-09-10,0.6,0.63,0.6,0.61,3620000
2019-09-11,0.6,0.61,0.59,0.61,3060000
2019-09-12,0.59,0.59,0.58,0.59,4260000
2019-09-13,0.59,0.6,0.58,0.6,3090000
2019-09-16,0.58,0.6,0.58,0.6,2850000
2019-09-17,0.59,0.61,0.59,0.61,4140000
2019-09-18,0.6,0.62,0.6,0.61,4100000
2019-09-19,0.6,0.61,0.6,0.61,2580000
2019-09-20,0.61,0.61,0.58,0.59,9450000
2019-09-23,0.59,0.61,0.59,0.6,5000000
2019-09-24,0.59,0.6,0.58,0.6,4740000
2019-09-25,0.59,0.6,0.58,0.59,2830000
2019-09-26,0.59,0.6,0.58,0.59,2450000
2019-09-27,0.59,0.6,0.59,0.59,1500000
2019-09-30,0.58,0.6,0.58,0.59,2080000
2019-10-02,0.59,0.6,0.58,0.6,2270000
2019-10-03,0.59,0.61,0.58,0.61,2895000
2019-10-04,0.6,0.61,0.59,0.6,4510000
2019-10-08,0.59,0.6,0.59,0.6,2250000
2019-10-09,0.6,0.61,0.59,0.61,3270000
2019-10-10,0.6,0.61,0.6,0.61,3220000
2019-10-11,0.6,0.61,0.59,0.6,1700000
2019-10-14,0.59,0.6,0.59,0.6,2310000
2019-10-15,0.59,0.6,0.59,0.59,2020000
2019-10-16,0.6,0.62,0.6,0.62,3440000
2019-10-17,0.61,0.63,0.6,0.63,7870000
2019-10-18,0.61,0.65,0.61,0.65,4150000
2019-10-21,0.64,0.65,0.62,0.64,3720000
2019-10-22,0.64,0.65,0.63,0.65,3830000
2019-10-23,0.64,0.65,0.63,0.65,2980000
2019-10-24,0.64,0.66,0.64,0.65,3650000
2019-10-25,0.65,0.66,0.65,0.65,1800000
2019-10-28,0.64,0.68,0.62,0.67,21330000
2019-10-29,0.67,0.7,0.66,0.7,6630000
2019-10-30,0.69,0.73,0.68,0.73,6425941
2019-10-31,0.73,0.76,0.71,0.75,7600000
2019-11-01,0.76,0.79,0.76,0.78,8650000
2019-11-04,0.78,0.81,0.77,0.8,8140000
2019-11-05,0.81,0.83,0.79,0.81,10460000
2019-11-06,0.81,0.83,0.79,0.82,6510000
2019-11-07,0.81,0.84,0.81,0.83,6560000
2019-11-08,0.82,0.84,0.81,0.81,6000000
2019-11-11,0.81,0.83,0.8,0.81,6376741
2019-11-12,0.81,0.81,0.78,0.79,9078342
2019-11-13,0.79,0.8,0.76,0.77,2560000
2019-11-14,0.76,0.79,0.76,0.78,3100000
2019-11-15,0.78,0.81,0.78,0.81,4320000
2019-11-18,0.8,0.84,0.79,0.8,5590000
2019-11-19,0.8,0.81,0.79,0.8,2920000
2019-11-20,0.8,0.8,0.78,0.8,2100000
2019-11-21,0.79,0.8,0.78,0.8,2130000
2019-11-22,0.78,0.8,0.78,0.8,2340000
2019-11-25,0.79,0.8,0.78,0.8,2770000
2019-11-26,0.79,0.8,0.78,0.8,2200000
2019-11-27,0.79,0.8,0.78,0.8,2930000
2019-11-28,0.78,0.8,0.78,0.8,2710000
2019-11-29,0.78,0.8,0.78,0.8,2270000
2019-12-02,0.79,0.8,0.78,0.8,2570000
2019-12-03,0.79,0.79,0.77,0.78,2740000
2019-12-04,0.77,0.78,0.75,0.78,2900000
2019-12-05,0.77,0.77,0.75,0.76,1830000
2019-12-06,0.76,0.77,0.75,0.77,1720000
2019-12-09,0.76,0.77,0.75,0.77,1670000
2019-12-10,0.77,0.8,0.76,0.79,5780000
2019-12-11,0.78,0.8,0.78,0.8,2380000
2019-12-12,0.79,0.83,0.79,0.82,6460000
2019-12-13,0.82,0.85,0.82,0.84,6640000
2019-12-16,0.83,0.85,0.82,0.85,3490000
2019-12-17,0.84,0.86,0.83,0.86,7470000
2019-12-18,0.86,0.91,0.86,0.89,8390000
2019-12-19,0.87,0.89,0.86,0.89,7930000
2019-12-20,0.89,0.92,0.88,0.9,6350000
2019-12-23,0.89,0.93,0.89,0.9,4800000
2019-12-24,0.91,0.93,0.9,0.93,3990000
2019-12-27,0.93,0.95,0.92,0.94,3200000
2019-12-30,0.94,0.95,0.89,0.89,11310000
2019-12-31,0.89,0.91,0.86,0.88,3810000
2020-01-02,0.85,0.87,0.85,0.87,2020000
2020-01-03,0.86,0.88,0.85,0.88,864000
2020-01-06,0.87,0.88,0.86,0.88,1870000
2020-01-07,0.88,0.88,0.86,0.88,2930000
2020-01-08,0.87,0.87,0.85,0.87,1540000
2020-01-09,0.86,0.87,0.85,0.85,1350000
2020-01-10,0.86,0.87,0.85,0.87,630000
2020-01-13,0.86,0.87,0.85,0.86,1580000
2020-01-14,0.86,0.9,0.85,0.87,2760000
2020-01-15,0.86,0.87,0.85,0.86,889200
2020-01-16,0.86,0.86,0.85,0.86,880000
2020-01-17,0.85,0.85,0.74,0.74,7970000
2020-01-20,0.72,0.75,0.72,0.73,410000
2020-01-21,0.72,0.76,0.72,0.73,460000
2020-01-22,0.73,0.74,0.71,0.74,630000
2020-01-23,0.74,0.74,0.74,0.74,50000
2020-01-24,0.75,0.75,0.72,0.74,120000
2020-01-29,0.7,0.73,0.7,0.73,210000
2020-01-30,0.71,0.73,0.68,0.73,1020000
2020-01-31,0.71,0.73,0.68,0.73,1620000
2020-02-04,0.68,0.68,0.66,0.66,950000
2020-02-05,0.67,0.69,0.62,0.65,880000
2020-02-06,0.6,0.65,0.6,0.64,860000
2020-02-07,0.61,0.63,0.59,0.59,550000
2020-02-10,0.6,0.63,0.6,0.6,50000
2020-02-11,0.57,0.61,0.57,0.61,60000
2020-02-12,0.6,0.61,0.6,0.61,70000
2020-02-13,0.58,0.59,0.58,0.58,110000
2020-02-14,0.63,0.63,0.58,0.61,90000
2020-02-17,0.63,0.63,0.63,0.63,660000
2020-02-18,0.61,0.67,0.61,0.67,270000
2020-02-19,0.63,0.63,0.6,0.6,890000
2020-02-20,0.61,0.61,0.6,0.6,350000
2020-02-25,0.61,0.65,0.6,0.65,90000
2020-02-26,0.65,0.65,0.6,0.6,160000
2020-02-27,0.61,0.62,0.59,0.59,30000
2020-02-28,0.59,0.6,0.59,0.62,20000
2020-03-10,0.55,0.6,0.54,0.61,80000
2020-03-12,0.65,0.65,0.64,0.62,40000
2020-03-13,0.62,0.62,0.62,0.61,70000
2020-03-16,0.53,0.59,0.53,0.59,260000
2020-03-17,0.57,0.59,0.57,0.59,100000
2020-03-19,0.5,0.56,0.49,0.56,120000
2020-03-20,0.54,0.54,0.54,0.54,0
2020-03-23,0.54,0.54,0.54,0.54,0
2020-03-24,0.5,0.54,0.49,0.54,140000
2020-03-25,0.54,0.57,0.54,0.57,20000
2020-03-26,0.51,0.51,0.48,0.49,220000
2020-03-27,0.445,0.48,0.375,0.48,850000
2020-03-30,0.48,0.48,0.48,0.48,30000
2020-03-31,0.455,0.49,0.45,0.45,310000
2020-04-01,0.445,0.445,0.445,0.445,0
2020-04-02,0.495,0.495,0.495,0.445,50000
2020-04-03,0.445,0.445,0.445,0.445,0
2020-04-06,0.445,0.445,0.445,0.445,0
2020-04-07,0.445,0.445,0.43,0.455,60000
2020-04-08,0.455,0.455,0.455,0.455,0
2020-04-09,0.455,0.455,0.43,0.46,150000
2020-04-14,0.46,0.46,0.46,0.46,0
2020-04-15,0.415,0.44,0.405,0.44,170000
2020-04-16,0.44,0.44,0.44,0.44,0
2020-04-17,0.44,0.44,0.44,0.44,0
2020-04-20,0.44,0.44,0.44,0.44,0
2020-04-21,0.44,0.44,0.44,0.44,0
2020-04-22,0.44,0.44,0.44,0.44,0
2020-04-23,0.44,0.44,0.44,0.44,0
2020-04-24,0.435,0.45,0.435,0.45,150000
2020-04-27,0.45,0.45,0.45,0.45,0
2020-04-28,0.45,0.45,0.45,0.45,0
2020-04-29,0.45,0.45,0.45,0.45,0
2020-05-04,0.45,0.45,0.45,0.45,0
2020-05-05,0.45,0.45,0.45,0.45,0
2020-05-06,0.44,0.44,0.44,0.44,10000
2020-05-07,0.44,0.44,0.44,0.44,0
2020-05-08,0.44,0.44,0.44,0.44,0
2020-05-11,0.42,0.445,0.405,0.445,90000
2020-05-12,0.445,0.445,0.445,0.445,0
2020-05-13,0.445,0.445,0.445,0.445,0
2020-05-14,0.445,0.445,0.445,0.445,0
2020-05-15,0.445,0.445,0.445,0.445,0
2020-05-18,0.445,0.445,0.445,0.445,0
2020-05-19,0.445,0.445,0.445,0.445,0
2020-05-20,0.435,0.435,0.435,0.435,10000
2020-05-21,0.435,0.435,0.435,0.435,0
2020-05-22,0.435,0.435,0.435,0.435,0
2020-05-25,0.39,0.39,0.39,0.39,20000
2020-05-26,0.39,0.39,0.39,0.39,0
2020-05-27,0.4,0.4,0.4,0.4,50000
2020-05-28,0.4,0.4,0.4,0.4,0
2020-05-29,0.4,0.4,0.4,0.4,0
2020-06-01,0.4,0.4,0.4,0.4,0
2020-06-02,0.4,0.4,0.4,0.4,10000
2020-06-03,0.4,0.4,0.4,0.4,20000
2020-06-04,0.4,0.4,0.4,0.4,0
2020-06-05,0.4,0.4,0.4,0.4,0
2020-06-08,0.4,0.4,0.4,0.4,0
2020-06-09,0.4,0.4,0.4,0.4,0
2020-06-10,0.4,0.4,0.4,0.4,0
2020-06-11,0.4,0.4,0.4,0.4,0
2020-06-12,0.4,0.4,0.4,0.4,0
2020-06-15,0.4,0.4,0.4,0.4,0
2020-06-16,0.4,0.4,0.4,0.4,0
2020-06-17,0.38,0.38,0.38,0.38,0
2020-06-18,0.38,0.38,0.38,0.38,0
2020-06-19,0.38,0.38,0.38,0.38,0
2020-06-22,0.38,0.38,0.38,0.38,0
2020-06-23,0.38,0.38,0.38,0.38,0
2020-06-24,0.38,0.38,0.38,0.38,0
2020-06-26,0.34,0.39,0.34,0.39,80000
2020-06-29,0.39,0.39,0.39,0.39,0
2020-06-30,0.39,0.39,0.39,0.39,250000
2020-07-02,0.38,0.38,0.38,0.38,0
2020-07-03,0.375,0.375,0.375,0.375,30000
2020-07-06,0.375,0.375,0.375,0.375,0
2020-07-07,0.34,0.36,0.34,0.36,20000
2020-07-08,0.36,0.36,0.36,0.36,0
2020-07-09,0.36,0.36,0.36,0.36,0
2020-07-10,0.275,0.365,0.27,0.32,1810000
2020-07-13,0.32,0.32,0.32,0.32,0
2020-07-14,0.32,0.32,0.32,0.32,0
2020-07-15,0.29,0.32,0.285,0.32,470000
2020-07-16,0.32,0.32,0.3,0.3,20000
2020-07-17,0.3,0.32,0.29,0.31,130000
2020-07-20,0.4,0.4,0.33,0.33,520000
2020-07-21,0.33,0.335,0.33,0.335,477000
2020-07-23,0.36,0.36,0.34,0.34,150000
2020-07-24,0.34,0.34,0.34,0.34,10000
2020-07-27,0.34,0.34,0.34,0.34,0
2020-07-28,0.34,0.34,0.32,0.325,90000
2020-07-29,0.355,0.355,0.31,0.33,310000
2020-07-30,0.34,0.34,0.33,0.33,410000
2020-07-31,0.34,0.34,0.32,0.335,290000
2020-08-03,0.335,0.335,0.335,0.335,0
2020-08-04,0.335,0.34,0.32,0.325,170000
2020-08-06,0.32,0.325,0.32,0.32,70000
2020-08-07,0.34,0.36,0.34,0.36,120000
2020-08-10,0.36,0.36,0.295,0.335,180000
2020-08-11,0.335,0.335,0.335,0.335,0
2020-08-12,0.335,0.335,0.335,0.335,0
2020-08-13,0.45,0.45,0.31,0.38,250000
2020-08-14,0.38,0.38,0.33,0.365,620000
2020-08-17,0.32,0.335,0.32,0.335,90000
2020-08-18,0.335,0.335,0.335,0.335,0
2020-08-19,0.335,0.335,0.335,0.335,0
2020-08-20,0.34,0.34,0.34,0.34,0
2020-08-21,0.36,0.36,0.34,0.34,40000
2020-08-24,0.335,0.34,0.335,0.34,340000
2020-08-25,0.35,0.355,0.35,0.35,70000
