Date,Open,High,Low,Close,Volume
2016-06-27,1.99,1.99,1.53,1.7,49912000
2016-06-28,1.7,1.71,1.58,1.58,8256000
2016-06-29,1.58,1.58,1.45,1.5,10590000
2016-06-30,1.51,1.57,1.46,1.52,3238000
2016-07-04,1.51,1.51,1.4,1.45,2792000
2016-07-05,1.45,1.45,1.34,1.37,2902000
2016-07-06,1.37,1.37,1.26,1.31,3046000
2016-07-07,1.3,1.31,1.26,1.29,746000
2016-07-08,1.24,1.34,1.23,1.31,818000
2016-07-11,1.38,1.38,1.32,1.37,670000
2016-07-12,1.35,1.38,1.3,1.36,814000
2016-07-13,1.36,1.42,1.31,1.4,1972000
2016-07-14,1.4,1.42,1.37,1.4,1224000
2016-07-15,1.37,1.52,1.37,1.52,4746000
2016-07-18,1.52,1.54,1.44,1.53,1096000
2016-07-19,1.55,1.55,1.46,1.51,2836000
2016-07-20,1.5,1.55,1.47,1.5,894000
2016-07-21,1.46,1.5,1.45,1.49,500000
2016-07-22,1.45,1.5,1.44,1.49,264000
2016-07-25,1.45,1.5,1.45,1.49,258000
2016-07-26,1.44,1.49,1.42,1.49,380000
2016-07-27,1.44,1.49,1.43,1.48,346000
2016-07-28,1.43,1.45,1.42,1.45,74000
2016-07-29,1.41,1.42,1.33,1.42,1052000
2016-08-01,1.35,1.4,1.35,1.4,248000
2016-08-03,1.36,1.41,1.35,1.39,420000
2016-08-04,1.35,1.44,1.35,1.4,954000
2016-08-05,1.4,1.53,1.39,1.49,2146000
2016-08-08,1.55,1.55,1.47,1.47,304000
2016-08-09,1.48,1.5,1.41,1.44,212000
2016-08-10,1.41,1.59,1.41,1.56,5488000
2016-08-11,1.57,1.63,1.5,1.5,1670000
2016-08-12,1.49,1.49,1.44,1.46,758000
2016-08-15,1.44,1.47,1.41,1.47,632000
2016-08-16,1.45,1.45,1.43,1.44,352000
2016-08-17,1.4,1.48,1.4,1.48,332000
2016-08-18,1.48,1.48,1.44,1.47,94000
2016-08-19,1.45,1.47,1.41,1.43,160000
2016-08-22,1.45,1.53,1.44,1.44,504000
2016-08-23,1.44,1.5,1.4,1.48,498000
2016-08-24,1.47,1.47,1.42,1.43,84000
2016-08-25,1.4,1.43,1.35,1.43,474000
2016-08-26,1.4,1.43,1.39,1.43,202000
2016-08-29,1.38,1.42,1.38,1.42,114000
2016-08-30,1.38,1.42,1.38,1.42,232000
2016-08-31,1.42,1.42,1.38,1.38,10000
2016-09-01,1.38,1.42,1.38,1.39,174000
2016-09-02,1.39,1.41,1.36,1.4,430000
2016-09-05,1.39,1.44,1.39,1.44,204000
2016-09-06,1.43,1.43,1.39,1.43,148000
2016-09-07,1.43,1.45,1.4,1.43,558000
2016-09-08,1.42,1.42,1.38,1.42,326000
2016-09-09,1.4,1.42,1.38,1.42,564000
2016-09-12,1.39,1.45,1.36,1.37,2572000
2016-09-13,1.37,1.38,1.35,1.38,246000
2016-09-14,1.35,1.38,1.35,1.38,94000
2016-09-15,1.36,1.37,1.36,1.37,36000
2016-09-19,1.4,1.41,1.38,1.38,434000
2016-09-20,1.38,1.4,1.34,1.39,472000
2016-09-21,1.35,1.36,1.35,1.36,120000
2016-09-22,1.36,1.36,1.35,1.35,66000
2016-09-23,1.37,1.38,1.37,1.37,42000
2016-09-26,1.35,1.35,1.34,1.34,68000
2016-09-27,1.3,1.37,1.3,1.37,26000
2016-09-28,1.32,1.35,1.3,1.35,242000
2016-09-29,1.34,1.37,1.34,1.37,26000
2016-09-30,1.35,1.36,1.32,1.34,26000
2016-10-03,1.36,1.37,1.36,1.36,24000
2016-10-04,1.34,1.35,1.29,1.35,462000
2016-10-05,1.35,1.35,1.35,1.35,4000
2016-10-06,1.33,1.34,1.33,1.34,22000
2016-10-07,1.3,1.34,1.3,1.32,110000
2016-10-11,1.29,1.33,1.29,1.32,506000
2016-10-12,1.3,1.34,1.3,1.34,122000
2016-10-13,1.33,1.35,1.32,1.32,72000
2016-10-14,1.3,1.3,1.3,1.3,32000
2016-10-17,1.3,1.31,1.3,1.3,88000
2016-10-18,1.31,1.31,1.31,1.31,38000
2016-10-19,1.3,1.31,1.3,1.3,40000
2016-10-20,1.3,1.3,1.3,1.3,10000
2016-10-24,1.31,1.31,1.28,1.31,66000
2016-10-25,1.3,1.32,1.3,1.32,24000
2016-10-26,1.31,1.32,1.31,1.32,100000
2016-10-27,1.3,1.3,1.29,1.29,24000
2016-10-28,1.28,1.28,1.28,1.28,56000
2016-11-01,1.28,1.41,1.28,1.37,1542000
2016-11-02,1.31,1.35,1.3,1.33,356000
2016-11-03,1.32,1.33,1.31,1.33,432000
2016-11-04,1.33,1.33,1.31,1.32,148000
2016-11-07,1.28,1.31,1.28,1.31,266000
2016-11-08,1.3,1.3,1.27,1.3,194000
2016-11-09,1.32,1.32,1.23,1.28,882000
2016-11-10,1.31,1.36,1.3,1.31,566000
2016-11-11,1.31,1.31,1.28,1.3,194000
2016-11-14,1.28,1.28,1.27,1.27,158000
2016-11-15,1.29,1.31,1.29,1.3,64000
2016-11-16,1.28,1.29,1.28,1.29,26000
2016-11-17,1.26,1.35,1.26,1.26,182000
2016-11-18,1.26,1.28,1.2,1.24,698000
2016-11-21,1.25,1.28,1.2,1.24,1088000
2016-11-22,1.25,1.27,1.16,1.19,1996000
2016-11-23,1.19,1.21,1.14,1.19,620000
2016-11-25,1.19,1.23,1.17,1.23,216000
2016-11-28,1.25,1.26,1.21,1.25,154000
2016-11-29,1.25,1.25,1.24,1.24,8000
2016-11-30,1.24,1.24,1.21,1.24,60000
2016-12-01,1.24,1.24,1.24,1.24,6000
2016-12-02,1.24,1.24,1.2,1.2,80000
2016-12-05,1.18,1.21,1.18,1.21,28000
2016-12-06,1.19,1.19,1.19,1.19,2000
2016-12-07,1.19,1.19,1.17,1.17,52000
2016-12-08,1.2,1.2,1.16,1.17,92000
2016-12-09,1.16,1.17,1.16,1.17,0
2016-12-12,1.17,1.27,1.15,1.19,248000
2016-12-13,1.25,1.28,1.16,1.18,446000
2016-12-14,1.19,1.19,1.18,1.19,46000
2016-12-15,1.19,1.25,1.19,1.23,110000
2016-12-16,1.21,1.21,1.19,1.19,6000
2016-12-19,1.2,1.2,1.16,1.17,234000
2016-12-20,1.12,1.2,1.12,1.13,212000
2016-12-21,1.18,1.18,1.15,1.15,116000
2016-12-22,1.15,1.15,1.15,1.15,38000
2016-12-23,1.15,1.24,1.13,1.18,454000
2016-12-28,1.16,1.16,1.13,1.15,90000
2016-12-30,1.16,1.21,1.16,1.16,336000
2017-01-04,1.16,1.21,1.16,1.2,18000
2017-01-05,1.2,1.2,1.17,1.17,8000
2017-01-09,1.14,1.18,1.14,1.18,292000
2017-01-10,1.21,1.21,1.1,1.15,840000
2017-01-11,1.15,1.15,1.1,1.13,242000
2017-01-12,1.15,1.16,1.12,1.13,230000
2017-01-13,1.16,1.18,1.11,1.15,404000
2017-01-16,1.12,1.3,1.1,1.2,2560000
2017-01-17,1.13,1.18,1.13,1.15,118000
2017-01-18,1.18,1.18,1.16,1.16,70000
2017-01-19,1.22,1.23,1.22,1.22,30000
2017-01-20,1.22,1.22,1.16,1.17,92000
2017-01-23,1.17,1.18,1.12,1.13,286000
2017-01-24,1.11,1.15,1.11,1.15,40000
2017-01-25,1.18,1.18,1.17,1.17,12000
2017-01-26,1.13,1.17,1.12,1.17,118000
2017-01-27,1.16,1.17,1.16,1.17,0
2017-02-01,1.13,1.18,1.13,1.17,150000
2017-02-02,1.15,1.15,1.14,1.15,36000
2017-02-03,1.14,1.16,1.14,1.16,16000
2017-02-07,1.18,1.22,1.15,1.18,116000
2017-02-08,1.15,1.15,1.14,1.16,58000
2017-02-09,1.15,1.17,1.14,1.17,316000
2017-02-10,1.19,1.19,1.19,1.19,38000
2017-02-13,1.2,1.22,1.2,1.21,66000
2017-02-14,1.22,1.22,1.2,1.2,90000
2017-02-15,1.19,1.21,1.19,1.2,242000
2017-02-16,1.2,1.22,1.2,1.2,140000
2017-02-17,1.2,1.2,1.2,1.21,130000
2017-02-20,1.16,1.21,1.16,1.21,28000
2017-02-21,1.2,1.2,1.2,1.21,48000
2017-02-22,1.21,1.22,1.21,1.21,88000
2017-02-24,1.23,1.24,1.21,1.24,154000
2017-02-27,1.23,1.28,1.22,1.25,154000
2017-02-28,1.23,1.28,1.23,1.26,222000
2017-03-01,1.26,1.28,1.26,1.28,28000
2017-03-02,1.3,1.3,1.26,1.28,106000
2017-03-03,1.24,1.3,1.2,1.28,308000
2017-03-06,1.33,1.35,1.32,1.33,750000
2017-03-07,1.34,1.45,1.33,1.42,1004000
2017-03-08,1.36,1.43,1.36,1.4,324000
2017-03-09,1.39,1.41,1.31,1.41,630000
2017-03-10,1.41,1.46,1.41,1.42,560000
2017-03-13,1.37,1.42,1.37,1.42,174000
2017-03-14,1.4,1.42,1.38,1.42,150000
2017-03-15,1.37,1.42,1.34,1.42,96000
2017-03-16,1.38,1.43,1.38,1.43,48000
2017-03-17,1.45,1.47,1.41,1.47,536000
2017-03-20,1.46,1.52,1.46,1.49,410000
2017-03-21,1.47,1.51,1.41,1.49,344000
2017-03-22,1.42,1.49,1.42,1.49,196000
2017-03-23,1.42,1.49,1.37,1.49,180000
2017-03-24,1.47,1.49,1.47,1.48,56000
2017-03-27,1.4,1.48,1.4,1.48,150000
2017-03-28,1.47,1.48,1.47,1.48,110000
2017-03-29,1.36,1.48,1.36,1.48,22000
2017-03-30,1.48,1.48,1.48,1.48,20000
2017-03-31,1.47,1.48,1.47,1.47,52000
2017-04-05,1.46,1.47,1.45,1.47,46000
2017-04-06,1.46,1.47,1.43,1.47,66000
2017-04-07,1.36,1.36,1.36,1.36,20000
2017-04-10,1.37,1.37,1.36,1.37,80000
2017-04-11,1.38,1.45,1.38,1.45,14000
2017-04-12,1.43,1.44,1.38,1.44,254000
2017-04-13,1.43,1.43,1.43,1.43,0
2017-04-18,1.41,1.42,1.28,1.34,424000
2017-04-19,1.29,1.3,1.21,1.3,818000
2017-04-20,1.28,1.33,1.28,1.33,20000
2017-04-21,1.33,1.33,1.33,1.32,6000
2017-04-24,1.32,1.32,1.32,1.32,2000
2017-04-25,1.29,1.33,1.28,1.32,38000
2017-04-26,1.3,1.37,1.3,1.34,48000
2017-04-27,1.21,1.3,1.21,1.3,18000
2017-04-28,1.32,1.34,1.21,1.34,416000
2017-05-02,1.28,1.32,1.24,1.3,108000
2017-05-05,1.29,1.3,1.27,1.3,0
2017-05-08,1.29,1.29,1.29,1.29,0
2017-05-09,1.2,1.28,1.2,1.27,8000
2017-05-10,1.28,1.4,1.28,1.29,400000
2017-05-11,1.25,1.31,1.25,1.31,74000
2017-05-15,1.23,1.34,1.23,1.3,172000
2017-05-16,1.35,1.35,1.23,1.33,6000
2017-05-17,1.31,1.32,1.3,1.32,4000
2017-05-18,1.3,1.35,1.3,1.35,326000
2017-05-19,1.28,1.33,1.28,1.33,26000
2017-05-23,1.31,1.33,1.3,1.31,176000
2017-05-24,1.31,1.31,1.29,1.3,304000
2017-05-25,1.3,1.41,1.28,1.37,1002000
2017-05-26,1.31,1.4,1.28,1.3,1328000
2017-05-31,1.22,1.36,1.22,1.29,1440000
2017-06-01,1.21,1.29,1.19,1.28,360000
2017-06-02,1.2,1.28,1.2,1.28,34000
2017-06-05,1.27,1.34,1.27,1.27,250000
2017-06-07,1.2,1.2,1.2,1.21,4000
2017-06-08,1.26,1.26,1.25,1.26,26000
2017-06-09,1.26,1.32,1.26,1.29,2358000
2017-06-12,1.29,1.3,1.27,1.27,14000
2017-06-13,1.2,1.27,1.2,1.27,154000
2017-06-16,1.29,1.3,1.29,1.27,22000
2017-06-21,1.25,1.29,1.25,1.26,30000
2017-06-23,1.27,1.27,1.26,1.26,12000
2017-06-26,1.18,1.29,1.18,1.26,4000
2017-06-27,1.26,1.26,1.18,1.24,90000
2017-06-28,1.24,1.27,1.24,1.24,22000
2017-06-29,1.23,1.24,1.23,1.2,8000
2017-06-30,1.18,1.27,1.18,1.2,56000
2017-07-03,1.19,1.25,1.19,1.2,220000
2017-07-04,1.15,1.3,1.15,1.29,106000
2017-07-05,1.28,1.28,1.23,1.25,0
2017-07-06,1.15,1.24,1.15,1.24,12000
2017-07-07,1.21,1.24,1.19,1.19,138000
2017-07-11,1.17,1.24,1.17,1.16,212000
2017-07-12,1.24,1.24,1.17,1.2,304000
2017-07-13,1.24,1.24,1.24,1.22,206000
2017-07-14,1.24,1.28,1.24,1.24,578000
2017-07-17,1.11,1.23,1.11,1.23,8000
2017-07-18,1.15,1.22,1.14,1.22,12000
2017-07-19,1.2,1.21,1.2,1.21,6000
2017-07-20,1.2,1.2,1.2,1.2,4000
2017-07-21,1.13,1.19,1.13,1.19,62000
2017-07-25,1.17,1.18,1.17,1.17,4000
2017-07-26,1.12,1.18,1.12,1.18,38000
2017-07-27,1.17,1.17,1.17,1.17,2000
2017-07-31,1.19,1.25,1.15,1.2,86000
2017-08-01,1.13,1.19,1.1,1.19,72000
2017-08-02,1.12,1.17,1.12,1.17,56000
2017-08-03,1.16,1.16,1.16,1.16,194000
2017-08-04,1.16,1.22,1.12,1.16,630000
2017-08-07,1.12,1.15,1.12,1.15,22000
2017-08-08,1.16,1.16,1.16,1.16,6000
2017-08-09,1.12,1.16,1.12,1.16,16000
2017-08-11,1.15,1.16,1.15,1.15,4000
2017-08-14,1.12,1.12,1.11,1.11,6000
2017-08-16,1.08,1.12,1.0,1.1,32000
2017-08-18,1.13,1.13,1.1,1.1,24000
2017-08-24,1.02,1.08,1.01,1.08,62000
2017-08-25,1.05,1.06,1.05,1.06,80000
2017-08-28,1.08,1.15,1.08,1.12,18000
2017-08-30,1.11,1.11,1.11,1.11,0
2017-09-01,1.08,1.17,1.08,1.17,4066000
2017-09-04,1.08,1.11,1.08,1.11,46000
2017-09-05,1.1,1.1,1.1,1.1,0
2017-09-07,1.03,1.1,1.03,1.1,14000
2017-09-08,1.1,1.1,1.1,1.1,8000
2017-09-11,1.05,1.1,1.05,1.1,8000
2017-09-13,1.05,1.1,1.05,1.08,84000
2017-09-14,1.08,1.11,1.08,1.11,72000
2017-09-15,1.11,1.11,1.11,1.11,0
2017-09-18,1.06,1.1,1.05,1.09,20000
2017-09-19,1.08,1.09,1.08,1.09,0
2017-09-20,1.08,1.08,1.06,1.08,44000
2017-09-21,1.04,1.08,1.04,1.08,12000
2017-09-22,1.08,1.08,1.08,1.08,20000
2017-09-25,1.08,1.11,1.08,1.11,28000
2017-09-26,1.11,1.12,1.1,1.12,80000
2017-09-27,1.12,1.15,1.1,1.15,106000
2017-09-28,1.15,1.15,1.15,1.15,50000
2017-09-29,1.15,1.15,1.15,1.14,52000
2017-10-03,1.15,1.15,1.13,1.13,90000
2017-10-04,1.13,1.13,1.13,1.13,38000
2017-10-10,1.04,1.1,1.04,1.1,102000
2017-10-12,1.09,1.09,1.09,1.09,0
2017-10-13,1.06,1.15,1.06,1.14,22000
2017-10-16,1.14,1.2,1.08,1.08,86000
2017-10-17,1.07,1.07,1.06,1.06,136000
2017-10-18,1.06,1.06,1.06,1.06,20000
2017-10-19,1.06,1.06,1.06,1.06,20000
2017-10-24,1.06,1.08,1.06,1.08,6000
2017-10-26,1.08,1.08,1.08,1.08,10000
2017-10-27,1.08,1.09,1.08,1.09,18000
2017-10-30,1.05,1.12,1.05,1.09,40000
2017-10-31,1.08,1.09,1.08,1.09,34000
2017-11-01,1.09,1.18,1.05,1.09,88000
2017-11-02,1.18,1.18,1.18,1.14,2000
2017-11-06,1.13,1.14,1.13,1.14,0
2017-11-07,1.14,1.14,1.13,1.14,0
2017-11-08,1.08,1.1,1.04,1.1,278000
2017-11-10,1.08,1.08,1.05,1.07,114000
2017-11-13,1.04,1.04,1.01,1.01,10000
2017-11-14,1.07,1.07,1.01,1.01,72000
2017-11-15,1.06,1.06,1.01,1.04,42000
2017-11-16,1.0,1.05,1.0,1.05,38000
2017-11-17,0.98,1.02,0.98,1.02,56000
2017-11-20,1.01,1.01,1.01,1.01,0
2017-11-21,0.96,1.04,0.96,1.0,8000
2017-11-22,0.96,1.04,0.96,1.0,72000
2017-11-23,0.97,0.97,0.97,0.99,2000
2017-11-24,1.0,1.09,1.0,1.0,638000
2017-11-27,1.09,1.09,1.07,1.01,8000
2017-11-28,1.0,1.0,1.0,1.0,10000
2017-12-01,0.99,0.99,0.96,0.99,20000
2017-12-05,0.95,0.99,0.89,0.99,138000
2017-12-06,0.93,0.99,0.86,0.99,318000
2017-12-07,0.96,0.99,0.91,0.99,74000
2017-12-08,0.92,0.99,0.86,0.98,1252000
2017-12-11,0.98,0.98,0.98,0.98,0
2017-12-12,0.93,0.93,0.87,0.88,512000
2017-12-13,0.88,0.92,0.84,0.89,254000
2017-12-14,0.88,0.88,0.85,0.88,34000
2017-12-15,0.85,0.85,0.85,0.85,22000
2017-12-18,0.82,0.87,0.82,0.83,4350000
2017-12-19,0.86,0.9,0.8,0.82,1098000
2017-12-20,0.85,0.87,0.82,0.83,758000
2017-12-21,0.85,0.86,0.82,0.83,114000
2017-12-22,0.87,0.87,0.77,0.8,430000
2017-12-27,0.81,0.81,0.76,0.78,74000
2017-12-28,0.8,0.8,0.77,0.77,4000
2017-12-29,0.8,0.98,0.8,0.83,6074000
2018-01-02,0.86,0.89,0.82,0.84,34000
2018-01-03,0.88,0.88,0.81,0.86,130000
2018-01-04,0.88,0.98,0.85,0.88,2222000
2018-01-05,0.95,1.0,0.85,0.87,2330000
2018-01-08,0.85,0.94,0.84,0.85,172000
2018-01-09,0.83,0.86,0.83,0.85,92000
2018-01-10,0.85,0.86,0.85,0.86,28000
2018-01-11,0.86,0.86,0.83,0.86,78000
2018-01-12,0.86,0.9,0.86,0.89,60000
2018-01-15,0.86,0.9,0.86,0.9,56000
2018-01-16,0.85,0.9,0.83,0.87,470000
2018-01-17,0.93,0.93,0.83,0.83,656000
2018-01-18,0.84,0.85,0.82,0.83,104000
2018-01-19,0.83,0.86,0.83,0.86,90000
2018-01-22,0.86,0.86,0.86,0.86,22000
2018-01-23,0.81,0.83,0.8,0.81,76000
2018-01-24,0.8,0.86,0.8,0.84,140000
2018-01-25,0.86,0.86,0.86,0.84,2000
2018-01-26,0.84,0.84,0.84,0.84,88000
2018-01-29,0.84,0.91,0.84,0.85,602000
2018-01-31,0.84,0.84,0.84,0.84,0
2018-02-01,0.84,0.84,0.8,0.81,220000
2018-02-02,0.81,0.83,0.81,0.83,186000
2018-02-05,0.78,0.82,0.78,0.82,20000
2018-02-06,0.79,0.8,0.74,0.8,232000
2018-02-07,0.8,0.8,0.8,0.8,84000
2018-02-09,0.78,0.8,0.78,0.8,0
2018-02-12,0.77,0.8,0.7,0.8,1292000
2018-02-13,0.74,0.82,0.74,0.78,238000
2018-02-14,0.8,0.81,0.76,0.77,194000
2018-02-15,0.8,0.8,0.76,0.77,78000
2018-02-21,0.75,0.77,0.75,0.77,42000
2018-02-22,0.8,0.8,0.78,0.78,22000
2018-02-26,0.76,0.76,0.76,0.76,52000
2018-02-27,0.76,0.76,0.76,0.76,20000
2018-02-28,0.76,0.76,0.76,0.76,0
2018-03-02,0.77,0.77,0.77,0.77,6000
2018-03-07,0.74,0.77,0.7,0.76,168000
2018-03-08,0.78,0.78,0.75,0.75,24000
2018-03-12,0.73,0.73,0.73,0.73,22000
2018-03-13,0.73,0.73,0.71,0.73,150000
2018-03-14,0.7,0.73,0.7,0.73,20000
2018-03-15,0.72,0.72,0.72,0.72,0
2018-03-16,0.7,0.72,0.7,0.72,28000
2018-03-19,0.7,0.72,0.7,0.7,52000
2018-03-20,0.75,0.75,0.71,0.71,34000
2018-03-21,0.71,0.74,0.71,0.73,56000
2018-03-22,0.73,0.73,0.72,0.72,0
2018-03-23,0.72,0.72,0.72,0.72,0
2018-03-27,0.73,0.8,0.72,0.78,48000
2018-03-28,0.76,0.76,0.75,0.75,0
2018-03-29,0.85,0.85,0.81,0.79,12000
2018-04-03,0.78,0.78,0.76,0.76,0
2018-04-04,0.78,0.78,0.78,0.78,2000
2018-04-10,0.71,0.71,0.71,0.74,2000
2018-04-11,0.78,0.78,0.78,0.76,2000
2018-04-12,0.75,0.75,0.74,0.74,0
2018-04-13,0.74,0.75,0.74,0.75,0
2018-04-16,0.79,0.79,0.79,0.75,6000
2018-04-17,0.74,0.74,0.74,0.74,0
2018-04-18,0.72,0.72,0.72,0.72,2000
2018-04-23,0.69,0.69,0.69,0.69,4000
2018-04-24,0.68,0.72,0.68,0.7,52000
2018-04-25,0.65,0.65,0.65,0.65,2000
2018-04-26,0.7,0.7,0.7,0.7,2000
2018-04-27,0.65,0.72,0.63,0.72,186000
2018-05-02,0.71,0.71,0.71,0.71,0
2018-05-03,0.7,0.7,0.7,0.7,30000
2018-05-07,0.7,0.7,0.7,0.68,30000
2018-05-08,0.65,0.65,0.65,0.65,22000
2018-05-11,0.65,0.65,0.65,0.65,30000
2018-05-14,0.66,0.67,0.65,0.67,0
2018-05-16,0.63,0.65,0.63,0.65,200000
2018-05-18,0.62,0.66,0.62,0.66,18000
2018-05-28,0.62,0.62,0.62,0.65,6000
2018-05-29,0.65,0.65,0.65,0.65,6000
2018-06-04,0.62,0.7,0.62,0.63,178000
2018-06-05,0.63,0.68,0.63,0.67,358000
2018-06-06,0.68,0.68,0.64,0.64,124000
2018-06-07,0.64,0.64,0.63,0.63,104000
2018-06-08,0.65,0.66,0.65,0.65,4000
2018-06-11,0.64,0.64,0.64,0.64,0
2018-06-15,0.63,0.63,0.63,0.63,0
2018-06-19,0.6,0.65,0.6,0.65,4000
2018-06-20,0.6,0.65,0.6,0.65,46000
2018-06-21,0.7,0.7,0.65,0.65,0
2018-06-22,0.65,0.74,0.65,0.68,6040000
2018-06-25,0.69,0.69,0.69,0.69,20000
2018-06-26,0.68,0.7,0.64,0.7,30000
2018-07-03,0.7,0.7,0.7,0.7,20000
2018-07-04,0.65,0.7,0.65,0.7,0
2018-07-09,0.62,0.63,0.62,0.63,40000
2018-07-10,0.63,0.63,0.61,0.61,30000
2018-07-11,0.61,0.61,0.54,0.6,26000
2018-07-12,0.61,0.65,0.6,0.62,2030000
2018-07-13,0.62,0.7,0.62,0.67,2018000
2018-07-16,0.61,0.66,0.61,0.66,1230000
2018-07-17,0.61,0.61,0.61,0.61,24000
2018-07-18,0.61,0.61,0.6,0.6,50000
2018-07-23,0.61,0.61,0.6,0.6,52000
2018-07-25,0.58,0.58,0.58,0.58,20000
2018-07-27,0.58,0.63,0.58,0.63,26000
2018-07-30,0.57,0.57,0.57,0.57,22000
2018-07-31,0.6,0.6,0.6,0.58,2000
2018-08-01,0.56,0.56,0.56,0.56,22000
2018-08-06,0.5,0.51,0.48,0.48,108000
2018-08-08,0.49,0.49,0.49,0.49,0
2018-08-09,0.5,0.5,0.5,0.5,10000
2018-08-10,0.5,0.5,0.455,0.455,222000
2018-08-13,0.57,0.57,0.47,0.455,24000
2018-08-15,0.445,0.445,0.43,0.44,0
2018-08-16,0.43,0.44,0.43,0.44,0
2018-08-17,0.42,0.42,0.41,0.41,0
2018-08-20,0.445,0.445,0.445,0.445,2000
2018-08-21,0.44,0.44,0.42,0.4,114000
2018-08-23,0.365,0.365,0.365,0.365,10000
2018-08-24,0.415,0.415,0.415,0.41,18000
2018-08-27,0.41,0.41,0.41,0.41,4000
2018-08-28,0.41,0.41,0.38,0.38,52000
2018-08-31,0.34,0.37,0.34,0.355,18000
2018-09-03,0.355,0.355,0.33,0.33,114000
2018-09-04,0.345,0.345,0.345,0.34,2000
2018-09-06,0.315,0.315,0.315,0.315,8000
2018-09-07,0.315,0.315,0.315,0.315,4000
2018-09-10,0.36,0.36,0.32,0.33,72000
2018-09-11,0.345,0.345,0.345,0.345,2000
2018-09-12,0.315,0.34,0.315,0.34,8000
2018-09-13,0.335,0.34,0.335,0.34,0
2018-09-14,0.385,0.62,0.385,0.44,412000
2018-09-17,0.44,0.44,0.44,0.43,13796000
2018-09-18,0.42,0.42,0.4,0.4,0
2018-09-19,0.39,0.39,0.36,0.375,106000
2018-09-20,0.34,0.34,0.34,0.34,2000
2018-09-21,0.34,0.34,0.34,0.34,10000
2018-09-24,0.34,0.34,0.335,0.335,28000
2018-09-26,0.33,0.33,0.33,0.325,6000
2018-09-27,0.3,0.32,0.29,0.29,286000
2018-09-28,0.375,0.375,0.275,0.275,24000
2018-10-02,0.36,0.36,0.32,0.32,24000
2018-10-03,0.355,0.355,0.355,0.33,2000
2018-10-04,0.475,0.475,0.295,0.3,526000
2018-10-05,0.28,0.28,0.28,0.28,20000
2018-10-08,0.34,0.34,0.28,0.28,160000
2018-10-09,0.3,0.3,0.3,0.295,6000
2018-10-10,0.33,0.33,0.3,0.295,72000
2018-10-11,0.26,0.26,0.26,0.26,8000
2018-10-12,0.325,0.325,0.305,0.29,10000
2018-10-15,0.28,0.28,0.265,0.265,8000
2018-10-16,0.25,0.275,0.245,0.245,244000
2018-10-18,0.24,0.275,0.24,0.26,58000
2018-10-19,0.29,0.29,0.29,0.27,2000
2018-10-22,0.28,0.28,0.26,0.26,10000
2018-10-23,0.26,0.26,0.235,0.235,476000
2018-10-24,0.244,0.244,0.23600000000000002,0.23600000000000002,98000
2018-10-25,0.29,0.29,0.255,0.255,188000
2018-10-26,0.245,0.245,0.24,0.24,102000
2018-10-29,0.24,0.24,0.237,0.237,4000
2018-10-30,0.24,0.24,0.237,0.237,0
2018-10-31,0.228,0.228,0.22399999999999998,0.22399999999999998,132000
2018-11-01,0.244,0.244,0.235,0.239,66000
2018-11-02,0.23,0.239,0.23,0.23800000000000002,94000
2018-11-06,0.22399999999999998,0.22399999999999998,0.22399999999999998,0.225,2000
2018-11-07,0.24,0.24,0.22399999999999998,0.22399999999999998,290000
2018-11-08,0.265,0.265,0.223,0.223,362000
2018-11-09,0.24,0.24,0.23,0.223,42000
2018-11-12,0.213,0.233,0.205,0.205,442000
2018-11-13,0.22399999999999998,0.22399999999999998,0.204,0.204,134000
2018-11-14,0.215,0.215,0.21,0.209,22000
2018-11-15,0.21,0.21100000000000002,0.201,0.201,406000
2018-11-16,0.209,0.209,0.192,0.2,458000
2018-11-19,0.214,0.214,0.212,0.212,424000
2018-11-21,0.20600000000000002,0.20600000000000002,0.20600000000000002,0.20600000000000002,14000
2018-11-23,0.207,0.207,0.2,0.20199999999999999,518000
2018-11-26,0.23,0.23,0.191,0.204,498000
2018-11-27,0.22399999999999998,0.22399999999999998,0.2,0.2,272000
2018-11-28,0.218,0.218,0.218,0.214,2000
2018-11-29,0.22,0.22,0.19399999999999998,0.2,24000
2018-11-30,0.19399999999999998,0.22899999999999998,0.19399999999999998,0.205,244000
2018-12-03,0.225,0.225,0.213,0.213,32000
2018-12-04,0.22899999999999998,0.22899999999999998,0.203,0.205,128000
2018-12-05,0.21600000000000003,0.21600000000000003,0.21600000000000003,0.21,2000
2018-12-06,0.22699999999999998,0.22699999999999998,0.22699999999999998,0.20199999999999999,2000
2018-12-07,0.196,0.215,0.19399999999999998,0.2,28000
2018-12-13,0.209,0.209,0.19399999999999998,0.19399999999999998,22000
2018-12-17,0.214,0.214,0.201,0.201,114000
2018-12-19,0.207,0.207,0.187,0.187,186000
2018-12-20,0.207,0.207,0.2,0.2,8000
2018-12-21,0.207,0.207,0.207,0.20199999999999999,2000
2019-01-02,0.198,0.198,0.19699999999999998,0.195,132000
2019-01-03,0.19,0.19,0.19,0.19,10000
2019-01-04,0.18600000000000003,0.222,0.18600000000000003,0.222,46000
2019-01-07,0.23399999999999999,0.245,0.22399999999999998,0.222,104000
2019-01-10,0.19,0.21899999999999997,0.185,0.21899999999999997,104000
2019-01-11,0.23600000000000002,0.23600000000000002,0.23600000000000002,0.221,2000
2019-01-14,0.218,0.218,0.218,0.218,8000
2019-01-15,0.215,0.215,0.215,0.213,2000
2019-01-16,0.25,0.25,0.21100000000000002,0.21100000000000002,4000
2019-01-17,0.192,0.21,0.192,0.21,16000
2019-01-21,0.207,0.207,0.207,0.207,40000
2019-01-24,0.205,0.205,0.205,0.2,6000
2019-01-25,0.19,0.19,0.19,0.19,16000
2019-01-28,0.187,0.187,0.183,0.183,8000
2019-02-04,0.184,0.184,0.18100000000000002,0.18100000000000002,330000
2019-02-08,0.18100000000000002,0.20199999999999999,0.18100000000000002,0.19899999999999998,84000
2019-02-12,0.20600000000000002,0.20600000000000002,0.19,0.19,44000
2019-02-13,0.191,0.191,0.19,0.19,20000
2019-02-15,0.19,0.19,0.19,0.19,2000
2019-02-19,0.185,0.201,0.179,0.198,24000
2019-02-21,0.17600000000000002,0.18600000000000003,0.175,0.18,1580000
2019-02-22,0.18,0.18,0.177,0.177,626000
2019-02-25,0.18600000000000003,0.18600000000000003,0.16699999999999998,0.175,948000
2019-02-26,0.179,0.179,0.175,0.175,112000
2019-02-27,0.175,0.184,0.175,0.18,28000
2019-03-01,0.18600000000000003,0.18600000000000003,0.18600000000000003,0.184,2000
2019-03-04,0.196,0.196,0.18,0.18,596000
2019-03-05,0.177,0.177,0.175,0.175,424000
2019-03-06,0.23199999999999998,0.23199999999999998,0.18,0.18,64000
2019-03-07,0.19699999999999998,0.19699999999999998,0.19699999999999998,0.184,2000
2019-03-08,0.196,0.196,0.17,0.18100000000000002,314000
2019-03-11,0.175,0.18100000000000002,0.175,0.18100000000000002,124000
2019-03-13,0.18,0.18,0.17800000000000002,0.17800000000000002,358000
2019-03-14,0.184,0.184,0.171,0.174,218000
2019-03-15,0.18100000000000002,0.18100000000000002,0.171,0.172,222000
2019-03-18,0.175,0.175,0.175,0.175,664000
2019-03-19,0.201,0.201,0.179,0.179,182000
2019-03-20,0.16699999999999998,0.16699999999999998,0.16699999999999998,0.16899999999999998,2000
2019-03-21,0.18,0.18,0.17,0.17,72000
2019-03-22,0.171,0.171,0.171,0.171,20000
2019-03-26,0.171,0.171,0.171,0.171,4000
2019-03-28,0.172,0.18,0.172,0.174,260000
2019-03-29,0.19399999999999998,0.19399999999999998,0.16699999999999998,0.17,274000
2019-04-01,0.19,0.19,0.171,0.171,46000
2019-04-02,0.187,0.187,0.174,0.17300000000000001,94000
2019-04-03,0.19,0.19,0.17,0.17,64000
2019-04-04,0.17,0.179,0.162,0.175,114000
2019-04-08,0.185,0.185,0.17,0.17,372000
2019-04-09,0.18600000000000003,0.18600000000000003,0.175,0.174,54000
2019-04-10,0.18600000000000003,0.18600000000000003,0.168,0.17,204000
2019-04-11,0.185,0.185,0.16699999999999998,0.172,8000
2019-04-12,0.188,0.188,0.174,0.174,78000
2019-04-15,0.188,0.188,0.188,0.18,92000
2019-04-16,0.172,0.172,0.166,0.166,766000
2019-04-17,0.177,0.21,0.171,0.171,1860000
2019-04-18,0.19,0.195,0.171,0.171,648000
2019-04-23,0.179,0.179,0.179,0.179,98000
2019-04-24,0.179,0.179,0.175,0.175,120000
2019-04-26,0.172,0.172,0.168,0.168,416000
2019-04-29,0.188,0.188,0.188,0.188,10000
2019-04-30,0.20199999999999999,0.20199999999999999,0.165,0.17800000000000002,692000
2019-05-02,0.192,0.192,0.168,0.177,576000
2019-05-03,0.192,0.192,0.168,0.17,406000
2019-05-06,0.17,0.17,0.16,0.16,154000
2019-05-07,0.16,0.16,0.16,0.16,2000
2019-05-08,0.152,0.175,0.152,0.175,192000
2019-05-09,0.17800000000000002,0.17800000000000002,0.158,0.158,804000
2019-05-16,0.159,0.175,0.159,0.162,52000
2019-05-20,0.155,0.155,0.14,0.146,14000
2019-05-21,0.166,0.17300000000000001,0.14800000000000002,0.14800000000000002,54000
2019-05-22,0.153,0.153,0.152,0.152,22000
2019-05-23,0.152,0.16899999999999998,0.147,0.147,136000
2019-05-24,0.147,0.165,0.146,0.161,154000
2019-05-27,0.16899999999999998,0.16899999999999998,0.146,0.16399999999999998,12000
2019-05-28,0.175,0.175,0.168,0.168,4000
2019-05-30,0.145,0.155,0.145,0.151,202000
2019-05-31,0.132,0.132,0.132,0.136,2000
2019-06-03,0.11599999999999999,0.15,0.11599999999999999,0.134,390000
2019-06-04,0.13699999999999998,0.149,0.12,0.133,180000
2019-06-05,0.16899999999999998,0.16899999999999998,0.146,0.14300000000000002,74000
2019-06-06,0.147,0.147,0.133,0.135,28000
2019-06-11,0.136,0.136,0.12300000000000001,0.129,626000
2019-06-12,0.17800000000000002,0.17800000000000002,0.127,0.15,638000
2019-06-13,0.135,0.15,0.131,0.133,1720000
2019-06-14,0.134,0.139,0.13,0.132,1346000
2019-06-17,0.14300000000000002,0.159,0.132,0.13699999999999998,484000
2019-06-18,0.155,0.155,0.155,0.142,2000
2019-06-19,0.15,0.15,0.15,0.14,2000
2019-06-20,0.149,0.149,0.149,0.14300000000000002,2000
2019-06-21,0.157,0.157,0.157,0.14400000000000002,2000
2019-06-24,0.142,0.142,0.128,0.128,262000
2019-06-25,0.141,0.142,0.122,0.138,712000
2019-06-26,0.142,0.142,0.14,0.138,52000
2019-06-27,0.149,0.149,0.149,0.141,2000
2019-07-05,0.133,0.14300000000000002,0.121,0.13699999999999998,376000
2019-07-12,0.127,0.133,0.124,0.131,244000
2019-07-15,0.12,0.12,0.11699999999999999,0.11699999999999999,152000
2019-07-16,0.11699999999999999,0.133,0.113,0.127,504000
2019-07-17,0.135,0.135,0.127,0.13,86000
2019-07-18,0.126,0.127,0.11699999999999999,0.11699999999999999,260000
2019-07-22,0.121,0.121,0.12,0.12,68000
2019-07-29,0.114,0.114,0.114,0.114,20000
2019-07-30,0.113,0.11900000000000001,0.1,0.11599999999999999,170000
2019-07-31,0.11199999999999999,0.11199999999999999,0.111,0.109,120000
2019-08-01,0.109,0.109,0.09300000000000001,0.09300000000000001,370000
2019-08-02,0.102,0.102,0.092,0.092,356000
2019-08-05,0.099,0.1,0.079,0.094,1300000
2019-08-06,0.081,0.098,0.08,0.095,1492000
2019-08-07,0.083,0.083,0.079,0.079,538000
2019-08-08,0.073,0.077,0.073,0.076,470000
2019-08-09,0.07,0.07,0.068,0.069,752000
2019-08-12,0.071,0.071,0.069,0.069,54000
2019-08-13,0.062,0.062,0.06,0.06,1000000
2019-08-14,0.054000000000000006,0.064,0.054000000000000006,0.064,366000
2019-08-15,0.059000000000000004,0.061,0.055999999999999994,0.061,322000
2019-08-16,0.057,0.062,0.057,0.061,150000
2019-08-20,0.051,0.067,0.051,0.057,130000
2019-08-21,0.062,0.063,0.043,0.046,34886000
2019-08-22,0.049,0.094,0.046,0.051,44450000
2019-08-23,0.055,0.055,0.048,0.049,3556000
2019-08-26,0.051,0.052000000000000005,0.046,0.047,1252000
2019-08-27,0.049,0.05,0.047,0.047,1572000
2019-08-28,0.047,0.049,0.046,0.049,682000
2019-08-29,0.048,0.049,0.048,0.048,1198000
2019-08-30,0.047,0.055,0.046,0.047,3940000
2019-09-02,0.047,0.05,0.047,0.047,532000
2019-09-03,0.055,0.055,0.048,0.052000000000000005,1494000
2019-09-04,0.053,0.055,0.049,0.05,890000
2019-09-05,0.051,0.054000000000000006,0.049,0.049,1058000
2019-09-06,0.049,0.049,0.047,0.047,1556000
2019-09-09,0.052000000000000005,0.06,0.047,0.055999999999999994,2764000
2019-09-10,0.057,0.081,0.057,0.076,8808000
2019-09-11,0.071,0.11,0.07,0.092,6218000
2019-09-12,0.08900000000000001,0.105,0.08900000000000001,0.098,2462000
2019-09-13,0.09699999999999999,0.105,0.09699999999999999,0.10400000000000001,526000
2019-09-16,0.10400000000000001,0.10400000000000001,0.086,0.099,2248000
2019-09-17,0.09,0.098,0.09,0.09699999999999999,618000
2019-09-18,0.096,0.106,0.09,0.105,170000
2019-09-20,0.107,0.107,0.107,0.106,288000
2019-09-23,0.09300000000000001,0.105,0.092,0.105,132000
2019-09-24,0.1,0.10099999999999999,0.099,0.10099999999999999,1000000
2019-09-25,0.091,0.10300000000000001,0.09,0.09,704000
2019-09-26,0.102,0.102,0.098,0.098,218000
2019-09-27,0.102,0.102,0.102,0.10099999999999999,2000
2019-09-30,0.10300000000000001,0.10300000000000001,0.10300000000000001,0.1,84000
2019-10-04,0.10800000000000001,0.11699999999999999,0.09,0.10400000000000001,342000
2019-10-08,0.09,0.095,0.08,0.08,1654000
2019-10-09,0.085,0.09,0.08,0.08900000000000001,230000
2019-10-10,0.091,0.091,0.09,0.09,206000
2019-10-11,0.09,0.09,0.071,0.08199999999999999,146000
2019-10-14,0.076,0.087,0.076,0.076,102000
2019-10-15,0.075,0.084,0.073,0.084,260000
2019-10-18,0.079,0.079,0.078,0.075,94000
2019-10-21,0.07400000000000001,0.087,0.07400000000000001,0.087,32000
2019-10-23,0.094,0.094,0.079,0.079,194000
2019-10-24,0.07200000000000001,0.08900000000000001,0.07200000000000001,0.08800000000000001,4000
2019-10-25,0.094,0.094,0.067,0.083,116000
2019-10-29,0.094,0.094,0.08800000000000001,0.085,72000
2019-11-01,0.09300000000000001,0.09300000000000001,0.09300000000000001,0.08900000000000001,2000
2019-11-04,0.08199999999999999,0.08900000000000001,0.08199999999999999,0.085,12000
2019-11-05,0.076,0.09,0.076,0.076,270000
2019-11-06,0.09,0.09,0.09,0.079,6000
2019-11-08,0.076,0.087,0.076,0.077,410000
2019-11-11,0.07,0.077,0.066,0.077,578000
2019-11-13,0.064,0.064,0.064,0.064,370000
2019-11-14,0.07400000000000001,0.07400000000000001,0.061,0.061,562000
2019-11-15,0.075,0.075,0.055,0.055,248000
2019-11-18,0.065,0.065,0.055,0.06,554000
2019-11-19,0.065,0.065,0.062,0.062,102000
2019-11-20,0.055,0.06,0.052000000000000005,0.057,1248000
2019-11-21,0.051,0.055,0.05,0.055,96000
2019-11-25,0.052000000000000005,0.052000000000000005,0.052000000000000005,0.052000000000000005,6000
2019-11-26,0.051,0.053,0.042,0.046,1628000
2019-11-27,0.055,0.055,0.048,0.051,284000
2019-11-28,0.063,0.063,0.051,0.051,78000
2019-11-29,0.063,0.063,0.055999999999999994,0.059000000000000004,286000
2019-12-02,0.057,0.068,0.049,0.051,240000
2019-12-03,0.057999999999999996,0.057999999999999996,0.048,0.052000000000000005,390000
2019-12-04,0.052000000000000005,0.059000000000000004,0.049,0.049,110000
2019-12-06,0.052000000000000005,0.052000000000000005,0.048,0.049,106000
2019-12-09,0.048,0.05,0.045,0.05,426000
2019-12-10,0.047,0.054000000000000006,0.045,0.045,998000
2019-12-11,0.046,0.05,0.045,0.046,748000
2019-12-12,0.045,0.049,0.045,0.046,16000
2019-12-13,0.05,0.054000000000000006,0.047,0.053,458000
2019-12-16,0.05,0.052000000000000005,0.05,0.05,808000
2019-12-17,0.05,0.05,0.048,0.05,428000
2019-12-18,0.05,0.05,0.05,0.05,28000
2019-12-19,0.051,0.051,0.051,0.051,30000
2019-12-23,0.052000000000000005,0.052000000000000005,0.047,0.051,54000
2019-12-24,0.054000000000000006,0.054000000000000006,0.054000000000000006,0.053,2000
2019-12-27,0.053,0.054000000000000006,0.047,0.053,442000
2019-12-31,0.054000000000000006,0.054000000000000006,0.054000000000000006,0.054000000000000006,2000
2020-01-02,0.051,0.053,0.047,0.052000000000000005,362000
2020-01-03,0.054000000000000006,0.054000000000000006,0.053,0.052000000000000005,82000
2020-01-06,0.054000000000000006,0.054000000000000006,0.054000000000000006,0.054000000000000006,2000
2020-01-07,0.053,0.053,0.053,0.052000000000000005,2000
2020-01-09,0.054000000000000006,0.054000000000000006,0.05,0.053,32000
2020-01-10,0.053,0.054000000000000006,0.053,0.054000000000000006,1220000
2020-01-13,0.054000000000000006,0.054000000000000006,0.054000000000000006,0.054000000000000006,1000000
2020-01-15,0.053,0.053,0.053,0.053,628000
2020-01-20,0.048,0.051,0.048,0.051,32000
2020-01-21,0.051,0.051,0.051,0.051,318000
2020-01-22,0.051,0.051,0.051,0.051,130000
2020-01-23,0.053,0.053,0.049,0.049,1010000
2020-01-30,0.049,0.049,0.043,0.044000000000000004,916000
2020-01-31,0.043,0.053,0.043,0.053,930000
2020-02-03,0.047,0.047,0.047,0.047,20000
2020-02-04,0.047,0.047,0.043,0.044000000000000004,350000
2020-02-06,0.048,0.049,0.048,0.048,842000
2020-02-10,0.049,0.049,0.049,0.049,14000
2020-02-11,0.054000000000000006,0.054000000000000006,0.049,0.05,568000
2020-02-12,0.054000000000000006,0.054000000000000006,0.047,0.047,140000
2020-02-13,0.05,0.05,0.049,0.049,370000
2020-02-14,0.049,0.049,0.049,0.049,1468000
2020-02-17,0.048,0.053,0.048,0.049,300000
2020-02-20,0.053,0.054000000000000006,0.048,0.048,510000
2020-02-21,0.049,0.049,0.048,0.048,40000
2020-02-26,0.048,0.048,0.048,0.048,0
2020-02-28,0.043,0.048,0.043,0.046,316000
2020-03-04,0.048,0.048,0.048,0.048,0
2020-03-05,0.048,0.048,0.048,0.048,12000
2020-03-06,0.043,0.048,0.043,0.047,972000
2020-03-09,0.044000000000000004,0.046,0.042,0.042,228000
2020-03-10,0.046,0.046,0.046,0.046,198000
2020-03-13,0.043,0.043,0.043,0.043,1590000
2020-03-16,0.048,0.048,0.048,0.046,2000
2020-03-17,0.048,0.048,0.048,0.048,4000
2020-03-18,0.052000000000000005,0.052000000000000005,0.052000000000000005,0.048,4000
2020-03-19,0.042,0.042,0.042,0.042,10000
2020-03-20,0.04,0.05,0.04,0.042,650000
2020-03-23,0.042,0.042,0.042,0.042,0
2020-03-25,0.042,0.046,0.040999999999999995,0.040999999999999995,212000
2020-03-27,0.045,0.045,0.045,0.045,2000
2020-03-30,0.042,0.042,0.042,0.042,0
2020-03-31,0.040999999999999995,0.040999999999999995,0.040999999999999995,0.040999999999999995,2000
2020-04-01,0.040999999999999995,0.040999999999999995,0.040999999999999995,0.040999999999999995,0
2020-04-02,0.040999999999999995,0.040999999999999995,0.040999999999999995,0.040999999999999995,0
2020-04-03,0.040999999999999995,0.040999999999999995,0.040999999999999995,0.040999999999999995,0
2020-04-06,0.040999999999999995,0.040999999999999995,0.040999999999999995,0.040999999999999995,0
2020-04-07,0.040999999999999995,0.040999999999999995,0.040999999999999995,0.040999999999999995,0
2020-04-08,0.040999999999999995,0.040999999999999995,0.040999999999999995,0.040999999999999995,0
2020-04-09,0.039,0.046,0.039,0.042,4000
2020-04-14,0.039,0.043,0.038,0.039,324000
2020-04-15,0.046,0.046,0.046,0.040999999999999995,2000
2020-04-16,0.040999999999999995,0.040999999999999995,0.040999999999999995,0.040999999999999995,0
2020-04-17,0.040999999999999995,0.040999999999999995,0.040999999999999995,0.040999999999999995,0
2020-04-20,0.040999999999999995,0.040999999999999995,0.040999999999999995,0.040999999999999995,0
2020-04-21,0.040999999999999995,0.040999999999999995,0.040999999999999995,0.040999999999999995,0
2020-04-22,0.040999999999999995,0.040999999999999995,0.040999999999999995,0.040999999999999995,0
2020-04-23,0.040999999999999995,0.040999999999999995,0.040999999999999995,0.040999999999999995,0
2020-04-24,0.039,0.043,0.038,0.043,12000
2020-04-27,0.045,0.045,0.045,0.040999999999999995,22000
2020-04-28,0.040999999999999995,0.040999999999999995,0.040999999999999995,0.040999999999999995,0
2020-04-29,0.040999999999999995,0.040999999999999995,0.040999999999999995,0.040999999999999995,0
2020-05-04,0.040999999999999995,0.040999999999999995,0.040999999999999995,0.040999999999999995,0
2020-05-05,0.040999999999999995,0.040999999999999995,0.040999999999999995,0.040999999999999995,0
2020-05-06,0.040999999999999995,0.040999999999999995,0.040999999999999995,0.040999999999999995,0
2020-05-07,0.038,0.038,0.033,0.033,3430000
2020-05-08,0.035,0.036000000000000004,0.035,0.036000000000000004,1000000
2020-05-11,0.034,0.034,0.034,0.034,18000
2020-05-12,0.034,0.034,0.034,0.034,44000
2020-05-13,0.036000000000000004,0.036000000000000004,0.036000000000000004,0.036000000000000004,22000
2020-05-15,0.032,0.04,0.032,0.039,1076000
2020-05-18,0.039,0.05,0.035,0.035,482000
2020-05-19,0.037000000000000005,0.040999999999999995,0.036000000000000004,0.04,8000
2020-05-20,0.048,0.048,0.034,0.034,404000
2020-05-21,0.034,0.034,0.032,0.034,782000
2020-05-22,0.034,0.034,0.032,0.034,1336000
2020-05-25,0.034,0.034,0.034,0.034,2000
2020-05-26,0.033,0.033,0.033,0.033,2000
2020-05-27,0.033,0.033,0.033,0.033,2000
2020-05-28,0.033,0.033,0.033,0.033,100000
2020-05-29,0.033,0.033,0.033,0.033,50000
2020-06-01,0.03,0.03,0.03,0.03,32000
2020-06-02,0.03,0.03,0.03,0.03,0
2020-06-03,0.03,0.03,0.03,0.03,0
2020-06-04,0.03,0.03,0.03,0.03,0
2020-06-05,0.03,0.03,0.03,0.03,0
2020-06-08,0.03,0.03,0.03,0.03,0
2020-06-09,0.034,0.034,0.031,0.031,798000
2020-06-10,0.031,0.035,0.031,0.035,4000
2020-06-11,0.035,0.035,0.035,0.035,0
2020-06-12,0.035,0.035,0.035,0.035,0
2020-06-15,0.034,0.034,0.031,0.031,212000
2020-06-16,0.035,0.035,0.035,0.035,530000
2020-06-18,0.040999999999999995,0.040999999999999995,0.040999999999999995,0.040999999999999995,2000
2020-06-19,0.046,0.046,0.04,0.043,332000
2020-06-22,0.046,0.046,0.042,0.044000000000000004,294000
2020-06-23,0.044000000000000004,0.044000000000000004,0.044000000000000004,0.044000000000000004,0
2020-06-24,0.044000000000000004,0.044000000000000004,0.044000000000000004,0.044000000000000004,0
2020-06-26,0.035,0.044000000000000004,0.035,0.043,12000
2020-06-29,0.036000000000000004,0.045,0.036000000000000004,0.045,14000
2020-06-30,0.045,0.045,0.039,0.039,12000
2020-07-02,0.039,0.039,0.039,0.039,0
2020-07-03,0.046,0.046,0.046,0.045,18000
2020-07-06,0.036000000000000004,0.045,0.036000000000000004,0.045,30000
2020-07-07,0.045,0.045,0.036000000000000004,0.036000000000000004,212000
2020-07-08,0.039,0.039,0.039,0.039,0
2020-07-09,0.039,0.039,0.039,0.039,0
2020-07-10,0.039,0.046,0.039,0.039,1430000
2020-07-13,0.039,0.039,0.039,0.039,0
2020-07-14,0.04,0.04,0.04,0.04,144000
2020-07-15,0.043,0.043,0.043,0.043,100000
2020-07-17,0.045,0.045,0.035,0.038,656000
2020-07-20,0.038,0.038,0.038,0.038,0
2020-07-21,0.038,0.038,0.038,0.038,0
2020-07-22,0.038,0.038,0.038,0.038,0
2020-07-23,0.036000000000000004,0.040999999999999995,0.035,0.040999999999999995,236000
2020-07-24,0.04,0.045,0.039,0.040999999999999995,298000
2020-07-27,0.040999999999999995,0.040999999999999995,0.040999999999999995,0.040999999999999995,0
2020-07-28,0.040999999999999995,0.040999999999999995,0.040999999999999995,0.040999999999999995,0
2020-07-29,0.037000000000000005,0.037000000000000005,0.037000000000000005,0.037000000000000005,124000
2020-07-30,0.037000000000000005,0.037000000000000005,0.037000000000000005,0.037000000000000005,0
2020-07-31,0.038,0.038,0.038,0.038,0
2020-08-03,0.039,0.039,0.039,0.039,0
2020-08-04,0.039,0.039,0.039,0.039,0
2020-08-05,0.039,0.039,0.039,0.039,0
2020-08-06,0.040999999999999995,0.043,0.037000000000000005,0.040999999999999995,692000
2020-08-07,0.040999999999999995,0.040999999999999995,0.040999999999999995,0.040999999999999995,0
2020-08-10,0.043,0.045,0.043,0.044000000000000004,52000
2020-08-11,0.046,0.047,0.046,0.046,1520000
2020-08-12,0.046,0.046,0.046,0.046,4000
2020-08-13,0.046,0.048,0.046,0.048,94000
2020-08-14,0.048,0.048,0.048,0.048,0
2020-08-17,0.048,0.048,0.048,0.048,0
2020-08-18,0.048,0.048,0.048,0.048,0
2020-08-19,0.048,0.048,0.048,0.048,0
2020-08-20,0.048,0.048,0.048,0.048,0
2020-08-21,0.048,0.048,0.048,0.048,0
2020-08-24,0.048,0.048,0.048,0.048,0
