Date,High,Low,Open,Close,Volume
2017-06-09,23.26000022888184,23.26000022888184,23.26000022888184,23.26000022888184,0.0
2017-06-12,23.13999938964844,23.13999938964844,23.13999938964844,23.13999938964844,0.0
2017-06-13,23.13999938964844,23.13999938964844,23.13999938964844,23.13999938964844,0.0
2017-06-14,23.20000076293945,23.1200008392334,23.20000076293945,23.1200008392334,1500.0
2017-06-15,22.979999542236328,22.979999542236328,22.979999542236328,22.979999542236328,0.0
2017-06-16,23.020000457763672,23.020000457763672,23.020000457763672,23.020000457763672,0.0
2017-06-19,22.899999618530273,22.86000061035156,22.899999618530273,22.920000076293945,3000.0
2017-06-20,23.040000915527344,22.979999542236328,23.040000915527344,22.979999542236328,3000.0
2017-06-21,22.8799991607666,22.65999984741211,22.76000022888184,22.78000068664551,40000.0
2017-06-22,22.81999969482422,22.81999969482422,22.81999969482422,22.81999969482422,500.0
2017-06-23,22.940000534057614,22.8799991607666,22.940000534057614,22.8799991607666,2000.0
2017-06-26,23.0,23.0,23.0,23.0,0.0
2017-06-27,22.979999542236328,22.979999542236328,22.979999542236328,22.979999542236328,0.0
2017-06-28,22.81999969482422,22.81999969482422,22.81999969482422,22.81999969482422,0.0
2017-06-29,22.86000061035156,22.86000061035156,22.86000061035156,22.86000061035156,0.0
2017-06-30,22.76000022888184,22.76000022888184,22.76000022888184,22.76000022888184,500.0
2017-07-03,22.76000022888184,22.76000022888184,22.76000022888184,22.76000022888184,0.0
2017-07-04,22.3799991607666,22.3799991607666,22.3799991607666,22.520000457763672,500.0
2017-07-05,22.6200008392334,22.6200008392334,22.6200008392334,22.6200008392334,0.0
2017-07-06,22.6200008392334,22.6200008392334,22.6200008392334,22.6200008392334,0.0
2017-07-07,22.559999465942386,22.559999465942386,22.559999465942386,22.559999465942386,0.0
2017-07-10,22.68000030517578,22.68000030517578,22.68000030517578,22.68000030517578,0.0
2017-07-11,23.020000457763672,23.020000457763672,23.020000457763672,23.020000457763672,0.0
2017-07-12,23.1200008392334,23.1200008392334,23.1200008392334,23.1200008392334,0.0
2017-07-13,23.36000061035156,23.36000061035156,23.36000061035156,23.36000061035156,0.0
2017-07-14,23.3799991607666,23.3799991607666,23.3799991607666,23.3799991607666,0.0
2017-07-17,23.440000534057614,23.440000534057614,23.440000534057614,23.440000534057614,0.0
2017-07-18,23.440000534057614,23.440000534057614,23.440000534057614,23.440000534057614,0.0
2017-07-19,23.559999465942386,23.559999465942386,23.559999465942386,23.559999465942386,500.0
2017-07-20,23.540000915527344,23.540000915527344,23.540000915527344,23.63999938964844,100.0
2017-07-21,23.63999938964844,23.63999938964844,23.63999938964844,23.63999938964844,0.0
2017-07-24,23.68000030517578,23.68000030517578,23.68000030517578,23.68000030517578,0.0
2017-07-25,23.70000076293945,23.70000076293945,23.70000076293945,23.70000076293945,0.0
2017-07-26,23.739999771118164,23.739999771118164,23.739999771118164,23.739999771118164,0.0
2017-07-27,23.8799991607666,23.8799991607666,23.8799991607666,23.8799991607666,0.0
2017-07-28,23.84000015258789,23.84000015258789,23.84000015258789,23.84000015258789,0.0
2017-07-31,23.959999084472656,23.959999084472656,23.959999084472656,23.959999084472656,0.0
2017-08-01,24.20000076293945,24.20000076293945,24.20000076293945,24.20000076293945,0.0
2017-08-02,24.26000022888184,24.26000022888184,24.26000022888184,24.26000022888184,0.0
2017-08-03,24.26000022888184,24.26000022888184,24.26000022888184,24.26000022888184,0.0
2017-08-04,24.26000022888184,24.26000022888184,24.26000022888184,24.26000022888184,0.0
2017-08-07,24.29999923706055,24.29999923706055,24.29999923706055,24.29999923706055,0.0
2017-08-08,24.36000061035156,24.36000061035156,24.36000061035156,24.36000061035156,0.0
2017-08-09,24.31999969482422,24.31999969482422,24.31999969482422,24.31999969482422,0.0
2017-08-10,24.040000915527344,24.040000915527344,24.040000915527344,24.040000915527344,0.0
2017-08-11,23.559999465942386,23.559999465942386,23.559999465942386,23.559999465942386,0.0
2017-08-14,23.79999923706055,23.79999923706055,23.79999923706055,23.79999923706055,0.0
2017-08-15,23.79999923706055,23.79999923706055,23.79999923706055,23.79999923706055,0.0
2017-08-16,23.979999542236328,23.979999542236328,23.979999542236328,23.979999542236328,0.0
2017-08-17,23.899999618530273,23.899999618530273,23.899999618530273,23.899999618530273,0.0
2017-08-18,23.739999771118164,23.739999771118164,23.739999771118164,23.739999771118164,0.0
2017-08-21,23.739999771118164,23.739999771118164,23.739999771118164,23.739999771118164,0.0
2017-08-22,23.8799991607666,23.8799991607666,23.8799991607666,23.8799991607666,0.0
2017-08-23,23.8799991607666,23.8799991607666,23.8799991607666,23.8799991607666,0.0
2017-08-24,23.959999084472656,23.959999084472656,23.959999084472656,23.959999084472656,0.0
2017-08-25,23.979999542236328,23.979999542236328,23.979999542236328,24.239999771118164,500.0
2017-08-28,24.21999931335449,24.21999931335449,24.21999931335449,24.21999931335449,0.0
2017-08-29,24.059999465942386,24.059999465942386,24.059999465942386,24.059999465942386,0.0
2017-08-30,24.21999931335449,24.21999931335449,24.21999931335449,24.21999931335449,0.0
2017-08-31,24.20000076293945,24.20000076293945,24.20000076293945,24.20000076293945,500.0
2017-09-01,24.18000030517578,24.18000030517578,24.18000030517578,24.18000030517578,0.0
2017-09-04,23.86000061035156,23.86000061035156,23.86000061035156,23.86000061035156,0.0
2017-09-05,23.86000061035156,23.86000061035156,23.86000061035156,23.86000061035156,0.0
2017-09-06,23.71999931335449,23.71999931335449,23.71999931335449,23.71999931335449,0.0
2017-09-07,23.6200008392334,23.6200008392334,23.6200008392334,23.6200008392334,0.0
2017-09-08,23.6200008392334,23.6200008392334,23.6200008392334,23.6200008392334,0.0
2017-09-11,23.979999542236328,23.979999542236328,23.979999542236328,24.0,500.0
2017-09-12,24.040000915527344,24.040000915527344,24.040000915527344,24.040000915527344,0.0
2017-09-13,24.020000457763672,24.020000457763672,24.020000457763672,24.020000457763672,0.0
2017-09-14,24.020000457763672,24.020000457763672,24.020000457763672,24.020000457763672,0.0
2017-09-15,24.020000457763672,24.020000457763672,24.020000457763672,24.020000457763672,0.0
2017-09-18,24.28000068664551,24.28000068664551,24.28000068664551,24.28000068664551,0.0
2017-09-19,24.36000061035156,24.36000061035156,24.36000061035156,24.36000061035156,0.0
2017-09-20,24.10689926147461,24.10689926147461,24.10689926147461,24.10689926147461,0.0
2017-09-21,24.18000030517578,24.18000030517578,24.18000030517578,24.18000030517578,0.0
2017-09-22,24.10000038146973,23.8799991607666,23.8799991607666,23.959999084472656,25500.0
2017-09-25,23.920000076293945,23.76000022888184,23.920000076293945,23.739999771118164,2000.0
2017-09-26,23.78000068664551,23.78000068664551,23.78000068664551,23.78000068664551,100.0
2017-09-27,23.920000076293945,23.920000076293945,23.920000076293945,23.920000076293945,0.0
2017-09-28,23.959999084472656,23.8799991607666,23.920000076293945,23.920000076293945,2000.0
2017-09-29,23.959999084472656,23.959999084472656,23.959999084472656,23.940000534057614,3000.0
2017-10-03,24.399999618530273,24.239999771118164,24.239999771118164,24.440000534057614,2000.0
2017-10-04,24.71999931335449,24.6200008392334,24.71999931335449,24.6200008392334,1500.0
2017-10-06,24.70000076293945,24.70000076293945,24.70000076293945,24.70000076293945,0.0
2017-10-09,24.559999465942386,24.559999465942386,24.559999465942386,24.559999465942386,0.0
2017-10-10,24.540000915527344,24.540000915527344,24.540000915527344,24.540000915527344,0.0
2017-10-11,24.36000061035156,24.36000061035156,24.36000061035156,24.36000061035156,0.0
2017-10-12,24.440000534057614,24.440000534057614,24.440000534057614,24.440000534057614,0.0
2017-10-13,24.440000534057614,24.440000534057614,24.440000534057614,24.440000534057614,700.0
2017-10-16,24.6200008392334,24.6200008392334,24.6200008392334,24.6200008392334,0.0
2017-10-17,24.76000022888184,24.76000022888184,24.76000022888184,24.76000022888184,0.0
2017-10-18,24.78000068664551,24.78000068664551,24.78000068664551,24.78000068664551,0.0
2017-10-19,24.459999084472656,24.459999084472656,24.459999084472656,24.459999084472656,0.0
2017-10-20,24.63999938964844,24.63999938964844,24.63999938964844,24.63999938964844,0.0
2017-10-23,24.60000038146973,24.60000038146973,24.60000038146973,24.60000038146973,0.0
2017-10-24,24.479999542236328,24.479999542236328,24.479999542236328,24.479999542236328,0.0
2017-10-25,24.520000457763672,24.520000457763672,24.520000457763672,24.520000457763672,0.0
2017-10-26,24.520000457763672,24.520000457763672,24.520000457763672,24.520000457763672,0.0
2017-10-27,24.68000030517578,24.68000030517578,24.68000030517578,24.68000030517578,0.0
2017-10-30,24.68000030517578,24.68000030517578,24.68000030517578,24.68000030517578,0.0
2017-10-31,24.57999992370605,24.57999992370605,24.57999992370605,24.57999992370605,0.0
2017-11-01,24.71999931335449,24.71999931335449,24.71999931335449,24.71999931335449,0.0
2017-11-02,24.70000076293945,24.70000076293945,24.70000076293945,24.70000076293945,0.0
2017-11-03,24.739999771118164,24.739999771118164,24.739999771118164,24.739999771118164,0.0
2017-11-06,24.86000061035156,24.70000076293945,24.86000061035156,24.76000022888184,300.0
2017-11-07,24.979999542236328,24.979999542236328,24.979999542236328,25.10000038146973,100.0
2017-11-08,25.20000076293945,25.13999938964844,25.20000076293945,25.13999938964844,3100.0
2017-11-09,25.28000068664551,25.28000068664551,25.28000068664551,25.28000068664551,0.0
2017-11-10,25.29999923706055,25.29999923706055,25.29999923706055,25.29999923706055,0.0
2017-11-13,25.3799991607666,25.3799991607666,25.3799991607666,25.3799991607666,0.0
2017-11-14,25.420000076293945,25.420000076293945,25.420000076293945,25.420000076293945,100.0
2017-11-15,25.15999984741211,25.15999984741211,25.15999984741211,25.15999984741211,0.0
2017-11-16,25.21999931335449,25.18000030517578,25.21999931335449,25.18000030517578,55500.0
2017-11-17,25.29999923706055,25.29999923706055,25.29999923706055,25.29999923706055,0.0
2017-11-20,25.29999923706055,25.29999923706055,25.29999923706055,25.29999923706055,0.0
2017-11-21,25.81999969482422,25.81999969482422,25.81999969482422,25.81999969482422,0.0
2017-11-22,25.940000534057614,25.940000534057614,25.940000534057614,25.940000534057614,0.0
2017-11-23,25.76000022888184,25.76000022888184,25.76000022888184,25.76000022888184,0.0
2017-11-24,25.78000068664551,25.78000068664551,25.78000068664551,25.78000068664551,0.0
2017-11-27,25.78000068664551,25.78000068664551,25.78000068664551,25.78000068664551,0.0
2017-11-28,25.739999771118164,25.739999771118164,25.739999771118164,25.739999771118164,0.0
2017-11-29,25.70000076293945,25.70000076293945,25.70000076293945,25.70000076293945,0.0
2017-11-30,25.70000076293945,25.70000076293945,25.70000076293945,25.70000076293945,0.0
2017-12-01,25.149999618530273,25.149999618530273,25.149999618530273,25.149999618530273,0.0
2017-12-04,25.149999618530273,25.149999618530273,25.149999618530273,25.149999618530273,0.0
2017-12-05,25.149999618530273,25.149999618530273,25.149999618530273,25.149999618530273,0.0
2017-12-06,25.149999618530273,25.149999618530273,25.149999618530273,25.149999618530273,0.0
2017-12-07,24.649999618530273,24.45000076293945,24.45000076293945,24.649999618530273,5500.0
2017-12-08,24.649999618530273,24.649999618530273,24.649999618530273,24.649999618530273,0.0
2017-12-11,24.649999618530273,24.649999618530273,24.649999618530273,24.649999618530273,0.0
2017-12-12,24.649999618530273,24.649999618530273,24.649999618530273,24.649999618530273,0.0
2017-12-13,24.649999618530273,24.649999618530273,24.649999618530273,24.649999618530273,0.0
2017-12-14,24.649999618530273,24.649999618530273,24.649999618530273,24.649999618530273,0.0
2017-12-15,24.649999618530273,24.649999618530273,24.649999618530273,24.649999618530273,0.0
2017-12-18,25.0,25.0,25.0,25.0,0.0
2017-12-19,25.0,25.0,25.0,25.0,0.0
2017-12-20,25.0,25.0,25.0,25.0,0.0
2017-12-21,25.0,25.0,25.0,25.0,0.0
2017-12-22,25.0,25.0,25.0,25.0,0.0
2017-12-27,25.149999618530273,25.149999618530273,25.149999618530273,25.149999618530273,0.0
2017-12-28,25.29999923706055,25.25,25.29999923706055,25.29999923706055,17600.0
2017-12-29,25.29999923706055,25.29999923706055,25.29999923706055,25.29999923706055,0.0
2018-01-02,25.29999923706055,25.29999923706055,25.29999923706055,25.29999923706055,0.0
2018-01-03,25.29999923706055,25.29999923706055,25.29999923706055,25.29999923706055,0.0
2018-01-04,25.29999923706055,25.25,26.0,25.899999618530273,5000.0
2018-01-05,25.95000076293945,25.95000076293945,25.95000076293945,25.95000076293945,0.0
2018-01-08,25.95000076293945,25.95000076293945,25.95000076293945,25.95000076293945,0.0
2018-01-09,25.95000076293945,25.95000076293945,25.95000076293945,25.95000076293945,0.0
2018-01-10,25.95000076293945,25.95000076293945,25.95000076293945,25.95000076293945,0.0
2018-01-11,26.29999923706055,26.29999923706055,26.29999923706055,26.29999923706055,0.0
2018-01-12,26.29999923706055,26.29999923706055,26.29999923706055,26.29999923706055,0.0
2018-01-15,26.29999923706055,26.29999923706055,26.29999923706055,26.29999923706055,0.0
2018-01-16,26.29999923706055,26.29999923706055,26.29999923706055,26.29999923706055,0.0
2018-01-17,26.75,26.649999618530273,26.649999618530273,26.75,6500.0
2018-01-18,26.85000038146973,26.75,26.75,26.85000038146973,60000.0
2018-01-19,26.79999923706055,26.79999923706055,26.79999923706055,26.79999923706055,0.0
2018-01-22,26.79999923706055,26.79999923706055,26.79999923706055,26.79999923706055,0.0
2018-01-23,26.79999923706055,26.79999923706055,26.79999923706055,26.79999923706055,0.0
2018-01-24,26.79999923706055,26.79999923706055,26.79999923706055,26.79999923706055,0.0
2018-01-25,26.79999923706055,26.79999923706055,26.79999923706055,26.79999923706055,0.0
2018-01-26,26.79999923706055,26.79999923706055,26.79999923706055,26.79999923706055,0.0
2018-01-29,26.79999923706055,26.79999923706055,26.79999923706055,26.79999923706055,0.0
2018-01-30,26.79999923706055,26.79999923706055,26.79999923706055,26.79999923706055,0.0
2018-01-31,26.79999923706055,26.79999923706055,26.79999923706055,26.79999923706055,0.0
2018-02-01,26.79999923706055,26.79999923706055,26.79999923706055,26.79999923706055,0.0
2018-02-02,26.79999923706055,26.79999923706055,26.79999923706055,26.79999923706055,0.0
2018-02-05,26.79999923706055,26.79999923706055,26.79999923706055,26.79999923706055,0.0
2018-02-06,26.79999923706055,26.79999923706055,26.79999923706055,26.79999923706055,0.0
2018-02-07,26.79999923706055,26.79999923706055,26.79999923706055,26.79999923706055,0.0
2018-02-08,25.0,25.0,25.0,25.0,0.0
2018-02-09,25.0,25.0,25.0,25.0,0.0
2018-02-12,25.0,25.0,25.0,25.0,0.0
2018-02-13,24.54999923706055,24.54999923706055,24.54999923706055,24.54999923706055,10000.0
2018-02-14,25.10000038146973,25.10000038146973,25.10000038146973,25.10000038146973,0.0
2018-02-15,25.10000038146973,25.10000038146973,25.10000038146973,25.10000038146973,0.0
2018-02-20,25.10000038146973,25.10000038146973,25.10000038146973,25.10000038146973,0.0
2018-02-21,25.10000038146973,25.10000038146973,25.10000038146973,25.10000038146973,0.0
2018-02-22,25.10000038146973,25.10000038146973,25.10000038146973,25.10000038146973,0.0
2018-02-23,25.10000038146973,25.10000038146973,25.10000038146973,25.10000038146973,0.0
2018-02-26,25.10000038146973,25.10000038146973,25.10000038146973,25.10000038146973,0.0
2018-02-27,25.79999923706055,25.79999923706055,25.79999923706055,25.70000076293945,100.0
2018-02-28,25.399999618530273,25.399999618530273,25.399999618530273,25.399999618530273,0.0
2018-03-01,25.399999618530273,25.399999618530273,25.399999618530273,25.399999618530273,0.0
2018-03-02,25.399999618530273,25.399999618530273,25.399999618530273,25.399999618530273,0.0
2018-03-05,25.399999618530273,25.399999618530273,25.399999618530273,25.399999618530273,0.0
2018-03-06,25.399999618530273,25.399999618530273,25.399999618530273,25.399999618530273,0.0
2018-03-07,25.399999618530273,25.399999618530273,25.399999618530273,25.399999618530273,0.0
2018-03-08,25.399999618530273,25.399999618530273,25.399999618530273,25.399999618530273,0.0
2018-03-09,25.399999618530273,25.399999618530273,25.399999618530273,25.399999618530273,0.0
2018-03-12,25.399999618530273,25.399999618530273,25.399999618530273,25.399999618530273,0.0
2018-03-13,25.399999618530273,25.399999618530273,25.399999618530273,25.399999618530273,0.0
2018-03-14,25.399999618530273,25.399999618530273,25.399999618530273,25.399999618530273,0.0
2018-03-15,25.399999618530273,25.399999618530273,25.399999618530273,25.399999618530273,0.0
2018-03-16,25.399999618530273,25.399999618530273,25.399999618530273,25.399999618530273,0.0
2018-03-19,25.399999618530273,25.399999618530273,25.399999618530273,25.399999618530273,0.0
2018-03-20,25.399999618530273,25.399999618530273,25.399999618530273,25.399999618530273,0.0
2018-03-21,25.399999618530273,25.399999618530273,25.399999618530273,25.399999618530273,0.0
2018-03-22,25.399999618530273,25.399999618530273,25.399999618530273,25.399999618530273,0.0
2018-03-23,25.399999618530273,25.399999618530273,25.399999618530273,25.399999618530273,0.0
2018-03-26,24.85000038146973,24.85000038146973,24.85000038146973,24.85000038146973,0.0
2018-03-27,24.85000038146973,24.85000038146973,24.85000038146973,24.85000038146973,0.0
2018-03-28,24.60000038146973,24.399999618530273,24.60000038146973,24.399999618530273,13000.0
2018-03-29,24.5,24.5,24.5,24.5,0.0
2018-04-03,24.5,24.5,24.5,24.5,0.0
2018-04-04,24.5,24.5,24.5,24.5,0.0
2018-04-06,24.5,24.5,24.5,24.5,0.0
2018-04-09,24.5,24.5,24.5,24.5,0.0
2018-04-10,24.5,24.5,24.5,24.5,0.0
2018-04-11,24.5,24.5,24.5,24.5,0.0
2018-04-12,24.5,24.5,24.5,24.5,0.0
2018-04-13,24.5,24.5,24.5,24.5,0.0
2018-04-16,24.5,24.5,24.5,24.5,0.0
2018-04-17,24.70000076293945,24.70000076293945,24.70000076293945,24.70000076293945,0.0
2018-04-18,24.70000076293945,24.70000076293945,24.70000076293945,24.70000076293945,0.0
2018-04-19,25.0,25.0,25.0,25.0,0.0
2018-04-20,25.0,25.0,25.0,25.0,0.0
2018-04-23,25.0,25.0,25.0,25.0,0.0
2018-04-24,25.0,25.0,25.0,25.0,0.0
2018-04-25,25.0,25.0,25.0,25.0,0.0
2018-04-26,25.0,25.0,25.0,25.0,0.0
2018-04-27,25.0,25.0,25.0,25.0,0.0
2018-04-30,25.0,25.0,25.0,25.0,0.0
2018-05-02,25.0,25.0,25.0,25.0,0.0
2018-05-03,25.0,25.0,25.0,25.0,0.0
2018-05-04,25.0,25.0,25.0,25.0,0.0
2018-05-07,25.0,25.0,25.0,25.0,0.0
2018-05-08,25.0,25.0,25.0,25.0,0.0
2018-05-09,25.0,25.0,25.0,25.0,0.0
2018-05-10,25.0,25.0,25.0,25.0,0.0
2018-05-11,25.649999618530273,25.649999618530273,25.649999618530273,25.60000038146973,2000.0
2018-05-14,25.85000038146973,25.85000038146973,25.85000038146973,25.85000038146973,0.0
2018-05-15,25.85000038146973,25.85000038146973,25.85000038146973,25.85000038146973,0.0
2018-05-16,25.85000038146973,25.85000038146973,25.85000038146973,25.85000038146973,0.0
2018-05-17,25.85000038146973,25.85000038146973,25.85000038146973,25.85000038146973,0.0
2018-05-18,25.85000038146973,25.85000038146973,25.85000038146973,25.85000038146973,0.0
2018-05-21,25.85000038146973,25.85000038146973,25.85000038146973,25.85000038146973,0.0
2018-05-23,25.85000038146973,25.85000038146973,25.85000038146973,25.85000038146973,0.0
2018-05-24,25.54999923706055,25.54999923706055,25.54999923706055,25.54999923706055,0.0
2018-05-25,25.54999923706055,25.54999923706055,25.54999923706055,25.54999923706055,5500.0
2018-05-28,25.649999618530273,25.649999618530273,25.649999618530273,25.649999618530273,0.0
2018-05-29,25.649999618530273,25.649999618530273,25.649999618530273,25.649999618530273,0.0
2018-05-30,25.649999618530273,25.649999618530273,25.649999618530273,25.649999618530273,0.0
2018-05-31,25.649999618530273,25.649999618530273,25.649999618530273,25.649999618530273,0.0
2018-06-01,25.649999618530273,25.649999618530273,25.649999618530273,25.649999618530273,0.0
2018-06-04,25.649999618530273,25.649999618530273,25.649999618530273,25.649999618530273,0.0
2018-06-05,25.649999618530273,25.649999618530273,25.649999618530273,25.649999618530273,0.0
2018-06-06,25.649999618530273,25.649999618530273,25.649999618530273,25.649999618530273,0.0
2018-06-07,25.649999618530273,25.649999618530273,25.649999618530273,25.649999618530273,0.0
2018-06-08,26.04999923706055,25.95000076293945,26.04999923706055,25.95000076293945,1000.0
2018-06-11,26.0,26.0,26.0,26.0,0.0
2018-06-12,26.0,26.0,26.0,26.0,0.0
2018-06-13,25.75,25.75,25.75,25.75,0.0
2018-06-14,25.75,25.75,25.75,25.75,0.0
2018-06-15,25.45000076293945,25.45000076293945,25.45000076293945,25.45000076293945,0.0
2018-06-19,25.25,25.0,25.25,25.0,2000.0
2018-06-20,25.149999618530273,25.149999618530273,25.149999618530273,25.149999618530273,0.0
2018-06-21,25.0,25.0,25.0,25.0,0.0
2018-06-22,25.0,25.0,25.0,25.0,0.0
2018-06-25,24.899999618530273,24.899999618530273,24.899999618530273,24.899999618530273,0.0
2018-06-26,24.5,24.5,24.5,24.5,0.0
2018-06-27,24.35000038146973,24.35000038146973,24.35000038146973,24.25,5000.0
2018-06-28,24.399999618530273,24.399999618530273,24.399999618530273,24.399999618530273,0.0
2018-06-29,24.399999618530273,24.399999618530273,24.399999618530273,24.399999618530273,0.0
2018-07-03,24.75,24.75,24.75,24.75,600.0
2018-07-04,24.29999923706055,24.29999923706055,24.29999923706055,24.29999923706055,0.0
2018-07-05,24.29999923706055,24.29999923706055,24.29999923706055,24.29999923706055,0.0
2018-07-06,24.54999923706055,24.54999923706055,24.54999923706055,24.54999923706055,5000.0
2018-07-09,24.85000038146973,24.85000038146973,24.85000038146973,24.85000038146973,0.0
2018-07-10,24.85000038146973,24.85000038146973,24.85000038146973,24.85000038146973,0.0
2018-07-11,24.85000038146973,24.85000038146973,24.85000038146973,24.85000038146973,0.0
2018-07-12,24.899999618530273,24.79999923706055,24.79999923706055,24.899999618530273,5600.0
2018-07-13,24.899999618530273,24.899999618530273,24.899999618530273,24.899999618530273,0.0
2018-07-16,24.95000076293945,24.85000038146973,24.95000076293945,24.95000076293945,6200.0
2018-07-17,24.60000038146973,24.60000038146973,24.60000038146973,24.60000038146973,5000.0
2018-07-18,24.75,24.75,24.75,24.75,0.0
2018-07-19,24.899999618530273,24.85000038146973,24.899999618530273,24.85000038146973,6200.0
2018-07-20,25.0,25.0,25.0,25.0,0.0
2018-07-23,25.0,25.0,25.0,25.0,0.0
2018-07-24,25.0,25.0,25.0,25.0,0.0
2018-07-25,25.70000076293945,25.70000076293945,25.70000076293945,25.70000076293945,5200.0
2018-07-26,25.5,25.5,25.5,25.5,0.0
2018-07-27,25.5,25.5,25.5,25.5,0.0
2018-07-30,25.60000038146973,25.60000038146973,25.60000038146973,25.60000038146973,0.0
2018-07-31,25.5,25.5,25.5,25.5,2000.0
2018-08-01,25.29999923706055,25.29999923706055,25.29999923706055,25.20000076293945,5000.0
2018-08-02,24.70000076293945,24.70000076293945,24.70000076293945,24.70000076293945,2900.0
2018-08-03,24.899999618530273,24.899999618530273,24.899999618530273,24.899999618530273,0.0
2018-08-06,24.79999923706055,24.79999923706055,24.79999923706055,24.79999923706055,500.0
2018-08-07,25.149999618530273,25.149999618530273,25.149999618530273,25.20000076293945,500.0
2018-08-08,25.20000076293945,25.20000076293945,25.20000076293945,25.20000076293945,0.0
2018-08-09,25.399999618530273,25.399999618530273,25.399999618530273,25.399999618530273,0.0
2018-08-10,25.399999618530273,25.399999618530273,25.399999618530273,25.399999618530273,5500.0
2018-08-13,25.149999618530273,25.149999618530273,25.149999618530273,25.149999618530273,0.0
2018-08-14,25.149999618530273,25.149999618530273,25.149999618530273,25.149999618530273,0.0
2018-08-15,25.149999618530273,25.149999618530273,25.149999618530273,25.149999618530273,0.0
2018-08-16,24.399999618530273,24.399999618530273,24.399999618530273,24.399999618530273,500.0
2018-08-17,24.399999618530273,24.399999618530273,24.399999618530273,24.399999618530273,0.0
2018-08-20,24.54999923706055,24.399999618530273,24.399999618530273,24.60000038146973,13900.0
2018-08-21,24.70000076293945,24.70000076293945,24.70000076293945,24.70000076293945,0.0
2018-08-22,24.70000076293945,24.70000076293945,24.70000076293945,24.70000076293945,0.0
2018-08-23,24.899999618530273,24.899999618530273,24.899999618530273,24.899999618530273,200.0
2018-08-24,24.899999618530273,24.899999618530273,24.899999618530273,24.899999618530273,0.0
2018-08-27,24.899999618530273,24.899999618530273,24.899999618530273,24.899999618530273,0.0
2018-08-28,24.899999618530273,24.899999618530273,24.899999618530273,24.899999618530273,0.0
2018-08-29,24.899999618530273,24.899999618530273,24.899999618530273,24.899999618530273,0.0
2018-08-30,24.899999618530273,24.899999618530273,24.899999618530273,24.899999618530273,0.0
2018-08-31,24.899999618530273,24.899999618530273,24.899999618530273,24.899999618530273,0.0
2018-09-03,24.899999618530273,24.899999618530273,24.899999618530273,24.899999618530273,0.0
2018-09-04,24.899999618530273,24.899999618530273,24.899999618530273,24.899999618530273,0.0
2018-09-05,24.899999618530273,24.899999618530273,24.899999618530273,24.899999618530273,0.0
2018-09-06,24.25,24.25,24.25,24.25,0.0
2018-09-07,24.20000076293945,24.20000076293945,24.20000076293945,24.20000076293945,0.0
2018-09-10,24.04999923706055,24.04999923706055,24.04999923706055,24.04999923706055,0.0
2018-09-11,24.0,23.79999923706055,24.0,23.79999923706055,1500.0
2018-09-12,23.85000038146973,23.85000038146973,23.85000038146973,23.85000038146973,0.0
2018-09-13,23.85000038146973,23.85000038146973,23.85000038146973,23.85000038146973,0.0
2018-09-14,24.5,24.399999618530273,24.399999618530273,24.5,9100.0
2018-09-17,24.35000038146973,24.35000038146973,24.35000038146973,24.35000038146973,0.0
2018-09-18,24.45000076293945,24.20000076293945,24.20000076293945,24.45000076293945,4800.0
2018-09-19,24.35000038146973,24.29999923706055,24.35000038146973,24.29999923706055,1500.0
2018-09-20,24.45000076293945,24.45000076293945,24.45000076293945,24.45000076293945,0.0
2018-09-21,24.899999618530273,24.649999618530273,24.649999618530273,24.899999618530273,600.0
2018-09-24,24.54999923706055,24.54999923706055,24.54999923706055,24.54999923706055,6900.0
2018-09-26,24.85000038146973,24.85000038146973,24.85000038146973,24.85000038146973,0.0
2018-09-27,24.79999923706055,24.79999923706055,24.79999923706055,24.79999923706055,0.0
2018-09-28,24.79999923706055,24.79999923706055,24.79999923706055,24.79999923706055,0.0
2018-10-02,24.20000076293945,24.20000076293945,24.20000076293945,24.20000076293945,0.0
2018-10-03,24.20000076293945,24.20000076293945,24.20000076293945,24.20000076293945,0.0
2018-10-04,24.10000038146973,23.79999923706055,24.10000038146973,23.79999923706055,600.0
2018-10-05,23.79999923706055,23.79999923706055,23.79999923706055,23.79999923706055,0.0
2018-10-08,23.60000038146973,23.60000038146973,23.60000038146973,23.60000038146973,0.0
2018-10-09,23.60000038146973,23.60000038146973,23.60000038146973,23.60000038146973,0.0
2018-10-10,23.60000038146973,23.60000038146973,23.60000038146973,23.60000038146973,0.0
2018-10-11,22.79999923706055,22.79999923706055,22.79999923706055,22.79999923706055,0.0
2018-10-12,23.149999618530273,23.149999618530273,23.149999618530273,23.149999618530273,0.0
2018-10-15,22.95000076293945,22.95000076293945,22.95000076293945,22.95000076293945,0.0
2018-10-16,22.95000076293945,22.95000076293945,22.95000076293945,22.95000076293945,0.0
2018-10-18,22.95000076293945,22.95000076293945,22.95000076293945,22.95000076293945,0.0
2018-10-19,23.04999923706055,23.04999923706055,23.04999923706055,23.04999923706055,0.0
2018-10-22,23.60000038146973,23.60000038146973,23.60000038146973,23.60000038146973,0.0
2018-10-23,23.0,23.0,23.0,23.0,0.0
2018-10-24,22.95000076293945,22.95000076293945,22.95000076293945,22.95000076293945,0.0
2018-10-25,22.79999923706055,22.79999923706055,22.79999923706055,22.79999923706055,0.0
2018-10-26,22.5,22.5,22.5,22.5,0.0
2018-10-29,22.5,22.5,22.5,22.5,0.0
2018-10-30,22.450000762939453,22.450000762939453,22.450000762939453,22.450000762939453,0.0
2018-10-31,22.649999618530273,22.649999618530273,22.649999618530273,22.649999618530273,0.0
2018-11-01,22.95000076293945,22.95000076293945,22.95000076293945,22.95000076293945,0.0
2018-11-02,23.75,23.75,23.75,23.75,0.0
2018-11-05,23.399999618530273,23.399999618530273,23.399999618530273,23.399999618530273,0.0
2018-11-06,23.5,23.5,23.5,23.5,0.0
2018-11-07,23.5,23.5,23.5,23.5,0.0
2018-11-08,23.60000038146973,23.60000038146973,23.60000038146973,23.60000038146973,0.0
2018-11-09,23.45000076293945,23.20000076293945,23.45000076293945,23.20000076293945,300200.0
2018-11-12,23.20000076293945,23.20000076293945,23.20000076293945,23.20000076293945,0.0
2018-11-13,23.29999923706055,23.29999923706055,23.29999923706055,23.29999923706055,0.0
2018-11-14,23.35000038146973,23.25,23.35000038146973,23.35000038146973,100000.0
2018-11-15,23.54999923706055,23.54999923706055,23.54999923706055,23.54999923706055,0.0
2018-11-16,23.60000038146973,23.60000038146973,23.60000038146973,23.60000038146973,0.0
2018-11-19,23.54999923706055,23.54999923706055,23.75,23.75,500.0
2018-11-20,23.79999923706055,23.54999923706055,23.649999618530273,23.649999618530273,300000.0
2018-11-21,23.79999923706055,23.149999618530273,23.149999618530273,23.60000038146973,205900.0
2018-11-22,23.85000038146973,23.54999923706055,23.60000038146973,23.75,1151000.0
2018-11-23,23.54999923706055,23.54999923706055,23.54999923706055,23.54999923706055,0.0
2018-11-26,23.85000038146973,23.85000038146973,23.85000038146973,23.85000038146973,0.0
2018-11-27,24.10000038146973,24.0,24.04999923706055,24.10000038146973,660000.0
2018-11-28,24.25,24.25,24.25,24.25,0.0
2018-11-29,24.20000076293945,24.20000076293945,24.20000076293945,24.20000076293945,0.0
2018-11-30,24.20000076293945,24.20000076293945,24.20000076293945,24.20000076293945,0.0
2018-12-03,24.899999618530273,24.60000038146973,24.79999923706055,24.75,520100.0
2018-12-04,24.399999618530273,24.35000038146973,24.399999618530273,24.35000038146973,23800.0
2018-12-05,24.399999618530273,24.399999618530273,24.399999618530273,24.399999618530273,0.0
2018-12-06,23.79999923706055,23.79999923706055,23.79999923706055,23.79999923706055,0.0
2018-12-07,23.70000076293945,23.649999618530273,23.649999618530273,23.70000076293945,1300.0
2018-12-10,23.5,23.5,23.5,23.5,0.0
2018-12-11,23.5,23.5,23.5,23.5,0.0
2018-12-12,23.60000038146973,23.60000038146973,23.60000038146973,23.60000038146973,0.0
2018-12-13,23.85000038146973,23.85000038146973,23.85000038146973,23.85000038146973,0.0
2018-12-14,23.75,23.75,23.75,23.75,0.0
2018-12-17,23.75,23.75,23.75,23.75,0.0
2018-12-18,23.5,23.5,23.5,23.5,0.0
2018-12-19,23.45000076293945,23.45000076293945,23.45000076293945,23.45000076293945,0.0
2018-12-20,23.25,23.25,23.25,23.25,0.0
2018-12-21,23.25,23.25,23.25,23.25,0.0
2018-12-24,23.25,23.25,23.25,23.25,0.0
2018-12-27,23.04999923706055,23.04999923706055,23.04999923706055,23.04999923706055,0.0
2018-12-28,23.0,23.0,23.0,23.0,0.0
2018-12-31,23.0,23.0,23.0,23.0,0.0
2019-01-02,22.5,22.5,22.5,22.5,0.0
2019-01-03,22.5,22.5,22.5,22.5,0.0
2019-01-04,22.79999923706055,22.79999923706055,22.79999923706055,22.79999923706055,0.0
2019-01-07,22.95000076293945,22.95000076293945,22.95000076293945,22.95000076293945,0.0
2019-01-08,23.0,23.0,23.0,23.0,0.0
2019-01-09,23.5,23.5,23.5,23.5,0.0
2019-01-10,23.45000076293945,23.45000076293945,23.45000076293945,23.45000076293945,0.0
2019-01-11,23.5,23.399999618530273,23.399999618530273,23.5,305500.0
2019-01-14,23.25,23.25,23.25,23.25,0.0
2019-01-15,23.649999618530273,23.649999618530273,23.649999618530273,23.649999618530273,51400.0
2019-01-16,23.85000038146973,23.60000038146973,23.60000038146973,23.79999923706055,880900.0
2019-01-17,23.79999923706055,23.60000038146973,23.70000076293945,23.75,1031000.0
2019-01-18,24.0,23.95000076293945,24.0,24.0,100000.0
2019-01-21,24.0,24.0,24.0,24.0,0.0
2019-01-22,24.0,24.0,24.0,24.0,0.0
2019-01-23,24.10000038146973,23.95000076293945,24.10000038146973,24.0,70000.0
2019-01-24,24.04999923706055,23.899999618530273,24.0,24.04999923706055,300000.0
2019-01-25,24.399999618530273,24.29999923706055,24.35000038146973,24.35000038146973,300000.0
2019-01-28,24.5,24.29999923706055,24.399999618530273,24.35000038146973,569000.0
2019-01-29,24.29999923706055,24.10000038146973,24.25,24.29999923706055,85500.0
2019-01-30,24.25,24.149999618530273,24.149999618530273,24.20000076293945,410000.0
2019-01-31,24.35000038146973,24.35000038146973,24.35000038146973,24.35000038146973,0.0
2019-02-01,24.35000038146973,24.35000038146973,24.35000038146973,24.35000038146973,0.0
2019-02-04,24.35000038146973,24.35000038146973,24.35000038146973,24.35000038146973,0.0
2019-02-08,24.5,24.5,24.5,24.5,0.0
2019-02-11,24.70000076293945,24.70000076293945,24.70000076293945,24.70000076293945,0.0
2019-02-12,24.75,24.75,24.75,24.75,0.0
2019-02-13,24.95000076293945,24.95000076293945,24.95000076293945,24.95000076293945,0.0
2019-02-14,24.95000076293945,24.95000076293945,24.95000076293945,24.95000076293945,0.0
2019-02-15,24.60000038146973,24.60000038146973,24.60000038146973,24.60000038146973,0.0
2019-02-18,24.85000038146973,24.85000038146973,24.85000038146973,24.85000038146973,0.0
2019-02-19,25.10000038146973,24.899999618530273,25.10000038146973,24.95000076293945,600000.0
2019-02-20,24.95000076293945,24.95000076293945,24.95000076293945,24.95000076293945,0.0
2019-02-21,25.10000038146973,24.95000076293945,25.0,25.0,100000.0
2019-02-22,25.10000038146973,25.10000038146973,25.10000038146973,25.10000038146973,0.0
2019-02-25,25.10000038146973,25.10000038146973,25.10000038146973,25.10000038146973,0.0
2019-02-26,25.10000038146973,25.10000038146973,25.10000038146973,25.10000038146973,0.0
2019-02-27,25.04999923706055,25.04999923706055,25.04999923706055,25.04999923706055,0.0
2019-02-28,24.95000076293945,24.95000076293945,24.95000076293945,24.95000076293945,0.0
2019-03-01,25.0,25.0,25.0,25.0,0.0
2019-03-04,25.10000038146973,25.10000038146973,25.10000038146973,25.10000038146973,0.0
2019-03-05,25.10000038146973,25.10000038146973,25.10000038146973,25.10000038146973,0.0
2019-03-06,25.25,25.25,25.25,25.25,0.0
2019-03-07,25.20000076293945,25.20000076293945,25.20000076293945,25.20000076293945,0.0
2019-03-08,24.75,24.75,24.75,24.75,0.0
2019-03-11,24.85000038146973,24.85000038146973,24.85000038146973,24.85000038146973,0.0
2019-03-12,25.25,25.25,25.25,25.25,0.0
2019-03-13,25.29999923706055,25.149999618530273,25.20000076293945,25.29999923706055,420000.0
2019-03-14,25.29999923706055,25.29999923706055,25.29999923706055,25.29999923706055,0.0
2019-03-15,25.29999923706055,25.29999923706055,25.29999923706055,25.29999923706055,0.0
2019-03-18,25.60000038146973,25.60000038146973,25.60000038146973,25.60000038146973,0.0
2019-03-19,25.60000038146973,25.54999923706055,25.60000038146973,25.60000038146973,557500.0
2019-03-20,25.54999923706055,25.45000076293945,25.5,25.5,1219100.0
2019-03-21,25.399999618530273,25.399999618530273,25.399999618530273,25.29999923706055,428900.0
2019-03-22,25.20000076293945,25.0,25.20000076293945,25.20000076293945,1475100.0
2019-03-25,24.85000038146973,24.70000076293945,24.85000038146973,24.70000076293945,960000.0
2019-03-26,24.75,24.75,24.75,24.75,0.0
2019-03-27,25.04999923706055,24.95000076293945,24.95000076293945,25.10000038146973,815200.0
2019-03-28,25.10000038146973,25.0,25.0,25.04999923706055,385100.0
2019-03-29,25.29999923706055,25.20000076293945,25.20000076293945,25.29999923706055,520000.0
2019-04-01,25.70000076293945,25.60000038146973,25.649999618530273,25.70000076293945,700000.0
2019-04-02,25.79999923706055,25.70000076293945,25.75,25.79999923706055,530000.0
2019-04-03,26.04999923706055,26.04999923706055,26.04999923706055,26.04999923706055,0.0
2019-04-04,26.04999923706055,26.04999923706055,26.04999923706055,26.04999923706055,0.0
2019-04-08,26.149999618530273,26.04999923706055,26.149999618530273,26.10000038146973,810000.0
2019-04-09,26.35000038146973,26.35000038146973,26.35000038146973,26.35000038146973,700.0
2019-04-10,26.35000038146973,26.35000038146973,26.35000038146973,26.35000038146973,0.0
2019-04-11,26.04999923706055,26.04999923706055,26.04999923706055,26.04999923706055,0.0
2019-04-12,26.04999923706055,26.04999923706055,26.04999923706055,26.04999923706055,0.0
2019-04-15,26.0,26.0,26.0,26.0,0.0
2019-04-16,26.10000038146973,26.10000038146973,26.10000038146973,26.10000038146973,0.0
2019-04-17,26.10000038146973,26.10000038146973,26.10000038146973,26.10000038146973,0.0
2019-04-18,26.04999923706055,26.04999923706055,26.04999923706055,26.04999923706055,0.0
2019-04-23,26.04999923706055,26.04999923706055,26.04999923706055,26.04999923706055,0.0
2019-04-24,25.95000076293945,25.899999618530273,25.899999618530273,25.95000076293945,40000.0
2019-04-25,25.899999618530273,25.899999618530273,25.899999618530273,25.899999618530273,0.0
2019-04-26,25.899999618530273,25.899999618530273,25.899999618530273,25.899999618530273,0.0
2019-04-29,26.0,26.0,26.0,26.04999923706055,2000.0
2019-04-30,26.04999923706055,26.04999923706055,26.04999923706055,26.04999923706055,0.0
2019-05-02,26.04999923706055,26.04999923706055,26.04999923706055,26.04999923706055,0.0
2019-05-03,26.20000076293945,26.20000076293945,26.20000076293945,26.20000076293945,0.0
2019-05-06,25.70000076293945,25.70000076293945,25.70000076293945,25.70000076293945,0.0
2019-05-07,25.70000076293945,25.70000076293945,25.70000076293945,25.70000076293945,0.0
2019-05-08,25.54999923706055,25.54999923706055,25.54999923706055,25.54999923706055,0.0
2019-05-09,25.20000076293945,25.20000076293945,25.20000076293945,25.20000076293945,0.0
2019-05-10,25.20000076293945,25.20000076293945,25.20000076293945,25.20000076293945,0.0
2019-05-14,25.20000076293945,25.20000076293945,25.20000076293945,25.20000076293945,0.0
2019-05-15,25.20000076293945,25.20000076293945,25.20000076293945,25.20000076293945,0.0
2019-05-16,25.29999923706055,25.29999923706055,25.29999923706055,25.29999923706055,0.0
2019-05-17,25.25,25.25,25.25,25.25,0.0
2019-05-20,25.149999618530273,25.149999618530273,25.149999618530273,25.149999618530273,0.0
2019-05-21,25.04999923706055,25.04999923706055,25.04999923706055,25.04999923706055,0.0
2019-05-22,25.04999923706055,25.04999923706055,25.04999923706055,25.04999923706055,0.0
2019-05-23,24.75,24.75,24.75,24.75,0.0
2019-05-24,24.75,24.75,24.75,24.75,0.0
2019-05-27,24.70000076293945,24.70000076293945,24.70000076293945,24.70000076293945,0.0
2019-05-28,24.70000076293945,24.70000076293945,24.70000076293945,24.70000076293945,0.0
2019-05-29,24.70000076293945,24.70000076293945,24.70000076293945,24.70000076293945,0.0
2019-05-30,24.60000038146973,24.60000038146973,24.60000038146973,24.60000038146973,0.0
2019-05-31,24.45000076293945,24.45000076293945,24.45000076293945,24.45000076293945,0.0
2019-06-03,24.45000076293945,24.45000076293945,24.45000076293945,24.45000076293945,0.0
2019-06-04,24.35000038146973,24.35000038146973,24.35000038146973,24.35000038146973,0.0
2019-06-05,24.35000038146973,24.35000038146973,24.35000038146973,24.35000038146973,0.0
2019-06-06,24.399999618530273,24.399999618530273,24.399999618530273,24.399999618530273,0.0
2019-06-10,25.10000038146973,25.10000038146973,25.10000038146973,25.10000038146973,0.0
2019-06-11,25.20000076293945,25.20000076293945,25.20000076293945,25.20000076293945,0.0
2019-06-12,24.899999618530273,24.899999618530273,24.899999618530273,24.899999618530273,0.0
2019-06-13,24.899999618530273,24.899999618530273,24.899999618530273,24.899999618530273,0.0
2019-06-14,24.75,24.75,24.75,24.75,0.0
2019-06-17,24.75,24.75,24.75,24.75,0.0
2019-06-18,25.0,25.0,25.0,25.0,0.0
2019-06-19,25.54999923706055,25.54999923706055,25.54999923706055,25.54999923706055,0.0
2019-06-20,25.29999923706055,25.29999923706055,25.29999923706055,25.29999923706055,0.0
2019-06-21,25.35000038146973,25.35000038146973,25.35000038146973,25.35000038146973,0.0
2019-06-24,25.399999618530273,25.399999618530273,25.399999618530273,25.399999618530273,0.0
2019-06-25,25.29999923706055,25.29999923706055,25.29999923706055,25.29999923706055,0.0
2019-06-26,25.29999923706055,25.29999923706055,25.29999923706055,25.29999923706055,0.0
2019-06-27,25.54999923706055,25.54999923706055,25.54999923706055,25.54999923706055,0.0
2019-06-28,25.54999923706055,25.54999923706055,25.54999923706055,25.54999923706055,0.0
2019-07-02,25.899999618530273,25.899999618530273,25.899999618530273,25.899999618530273,0.0
2019-07-03,25.95000076293945,25.95000076293945,25.95000076293945,25.95000076293945,0.0
2019-07-04,25.95000076293945,25.95000076293945,25.95000076293945,25.95000076293945,0.0
2019-07-05,25.899999618530273,25.899999618530273,25.899999618530273,25.899999618530273,0.0
2019-07-08,25.70000076293945,25.70000076293945,25.70000076293945,25.70000076293945,0.0
2019-07-09,25.5,25.5,25.5,25.5,0.0
2019-07-10,25.5,25.5,25.5,25.5,0.0
2019-07-11,25.5,25.5,25.5,25.5,0.0
2019-07-12,25.5,25.5,25.5,25.5,0.0
2019-07-15,25.5,25.5,25.5,25.5,0.0
2019-07-16,25.5,25.5,25.5,25.5,0.0
2019-07-17,25.5,25.5,25.5,25.5,0.0
2019-07-18,25.5,25.5,25.5,25.5,0.0
2019-07-19,25.70000076293945,25.70000076293945,25.70000076293945,25.70000076293945,0.0
2019-07-22,25.649999618530273,25.649999618530273,25.649999618530273,25.649999618530273,0.0
2019-07-23,25.649999618530273,25.649999618530273,25.649999618530273,25.649999618530273,0.0
2019-07-24,25.649999618530273,25.649999618530273,25.649999618530273,25.649999618530273,0.0
2019-07-25,25.649999618530273,25.649999618530273,25.649999618530273,25.649999618530273,0.0
2019-07-26,25.649999618530273,25.649999618530273,25.649999618530273,25.649999618530273,0.0
2019-07-29,25.5,25.5,25.5,25.5,0.0
2019-07-30,25.5,25.5,25.5,25.5,0.0
2019-07-31,25.5,25.5,25.5,25.5,0.0
2019-08-01,25.10000038146973,24.75,25.04999923706055,24.75,1700.0
2019-08-02,24.649999618530273,24.649999618530273,24.649999618530273,24.649999618530273,0.0
2019-08-05,24.25,24.25,24.25,24.25,0.0
2019-08-06,24.04999923706055,23.70000076293945,23.70000076293945,24.04999923706055,2400.0
2019-08-07,24.04999923706055,24.04999923706055,24.04999923706055,24.04999923706055,0.0
2019-08-08,24.04999923706055,24.04999923706055,24.04999923706055,24.04999923706055,0.0
2019-08-09,24.04999923706055,24.04999923706055,24.04999923706055,24.04999923706055,0.0
2019-08-12,24.10000038146973,24.10000038146973,24.10000038146973,24.10000038146973,400.0
2019-08-13,23.54999923706055,23.54999923706055,23.54999923706055,23.54999923706055,0.0
2019-08-14,23.10000038146973,23.10000038146973,23.10000038146973,23.10000038146973,400.0
2019-08-15,23.20000076293945,23.20000076293945,23.20000076293945,23.20000076293945,0.0
2019-08-16,23.45000076293945,23.45000076293945,23.45000076293945,23.45000076293945,0.0
2019-08-19,24.25,24.04999923706055,24.10000038146973,24.25,460000.0
2019-08-20,24.25,24.25,24.25,24.25,0.0
2019-08-21,24.20000076293945,24.20000076293945,24.20000076293945,24.20000076293945,0.0
2019-08-22,24.10000038146973,24.10000038146973,24.10000038146973,24.10000038146973,0.0
2019-08-23,24.149999618530273,24.149999618530273,24.149999618530273,24.149999618530273,100.0
2019-08-26,24.10000038146973,24.10000038146973,24.10000038146973,24.10000038146973,0.0
2019-08-27,24.04999923706055,24.04999923706055,24.04999923706055,24.04999923706055,0.0
2019-08-28,24.0,24.0,24.0,24.0,0.0
2019-08-29,24.0,24.0,24.0,24.0,0.0
2019-08-30,24.0,24.0,24.0,24.0,1000.0
2019-09-02,24.0,24.0,24.0,24.0,0.0
2019-09-03,24.0,24.0,24.0,24.0,0.0
2019-09-04,24.75,24.75,24.75,24.75,0.0
2019-09-05,24.75,24.75,24.75,24.75,10000.0
2019-09-06,24.899999618530273,24.899999618530273,24.899999618530273,24.899999618530273,0.0
2019-09-09,24.899999618530273,24.899999618530273,24.899999618530273,24.899999618530273,0.0
2019-09-10,24.899999618530273,24.899999618530273,24.899999618530273,24.899999618530273,0.0
2019-09-11,25.149999618530273,25.149999618530273,25.149999618530273,25.149999618530273,0.0
2019-09-12,25.149999618530273,25.149999618530273,25.149999618530273,25.149999618530273,0.0
2019-09-13,25.20000076293945,25.20000076293945,25.20000076293945,25.20000076293945,0.0
2019-09-16,25.20000076293945,25.20000076293945,25.20000076293945,25.20000076293945,0.0
2019-09-17,25.0,25.0,25.0,25.0,1000.0
2019-09-18,25.0,25.0,25.0,25.0,0.0
2019-09-19,24.54999923706055,24.54999923706055,24.54999923706055,24.54999923706055,0.0
2019-09-20,24.5,24.5,24.5,24.5,0.0
2019-09-23,24.29999923706055,24.29999923706055,24.29999923706055,24.29999923706055,0.0
2019-09-24,24.29999923706055,24.29999923706055,24.29999923706055,24.29999923706055,0.0
2019-09-25,24.149999618530273,24.149999618530273,24.149999618530273,24.149999618530273,0.0
2019-09-26,24.149999618530273,24.149999618530273,24.149999618530273,24.149999618530273,0.0
2019-09-27,24.149999618530273,24.149999618530273,24.149999618530273,24.149999618530273,0.0
2019-09-30,24.149999618530273,24.149999618530273,24.149999618530273,24.149999618530273,0.0
2019-10-02,24.149999618530273,24.149999618530273,24.149999618530273,24.149999618530273,0.0
2019-10-03,24.149999618530273,24.149999618530273,24.149999618530273,24.149999618530273,0.0
2019-10-04,24.04999923706055,24.04999923706055,24.04999923706055,24.04999923706055,0.0
2019-10-08,24.04999923706055,24.04999923706055,24.04999923706055,24.04999923706055,0.0
2019-10-09,24.0,24.0,24.0,24.0,0.0
2019-10-10,23.95000076293945,23.95000076293945,23.95000076293945,23.95000076293945,0.0
2019-10-11,24.25,24.25,24.25,24.25,0.0
2019-10-14,24.54999923706055,24.45000076293945,24.5,24.45000076293945,305000.0
2019-10-15,24.45000076293945,24.45000076293945,24.45000076293945,24.45000076293945,0.0
2019-10-16,24.54999923706055,24.54999923706055,24.54999923706055,24.54999923706055,0.0
2019-10-17,24.75,24.75,24.75,24.75,0.0
2019-10-18,24.70000076293945,24.70000076293945,24.70000076293945,24.70000076293945,0.0
2019-10-21,24.70000076293945,24.70000076293945,24.70000076293945,24.70000076293945,0.0
2019-10-22,24.70000076293945,24.70000076293945,24.70000076293945,24.70000076293945,0.0
2019-10-23,24.70000076293945,24.35000038146973,24.70000076293945,24.399999618530273,1345900.0
2019-10-24,24.60000038146973,24.60000038146973,24.60000038146973,24.60000038146973,0.0
2019-10-25,24.60000038146973,24.60000038146973,24.60000038146973,24.60000038146973,0.0
2019-10-28,24.70000076293945,24.70000076293945,24.70000076293945,24.70000076293945,0.0
2019-10-29,24.649999618530273,24.649999618530273,24.649999618530273,24.649999618530273,0.0
2019-10-30,24.54999923706055,24.54999923706055,24.54999923706055,24.54999923706055,0.0
2019-10-31,24.54999923706055,24.54999923706055,24.54999923706055,24.54999923706055,0.0
2019-11-01,24.75,24.75,24.75,24.75,0.0
2019-11-04,25.149999618530273,25.149999618530273,25.149999618530273,25.149999618530273,900.0
2019-11-05,25.20000076293945,25.20000076293945,25.20000076293945,25.20000076293945,0.0
2019-11-06,25.20000076293945,25.20000076293945,25.20000076293945,25.20000076293945,0.0
2019-11-07,25.29999923706055,25.29999923706055,25.29999923706055,25.29999923706055,0.0
2019-11-08,25.25,25.25,25.25,25.25,10000.0
2019-11-11,24.649999618530273,24.649999618530273,24.649999618530273,24.649999618530273,0.0
2019-11-12,24.649999618530273,24.649999618530273,24.649999618530273,24.649999618530273,0.0
2019-11-13,24.54999923706055,24.25,24.54999923706055,24.25,10100.0
2019-11-14,24.20000076293945,24.20000076293945,24.20000076293945,24.20000076293945,0.0
2019-11-15,24.149999618530273,24.149999618530273,24.149999618530273,24.149999618530273,0.0
2019-11-18,24.29999923706055,24.29999923706055,24.29999923706055,24.29999923706055,0.0
2019-11-19,24.70000076293945,24.54999923706055,24.54999923706055,24.70000076293945,30000.0
2019-11-20,24.70000076293945,24.70000076293945,24.70000076293945,24.70000076293945,0.0
2019-11-21,24.399999618530273,24.399999618530273,24.399999618530273,24.399999618530273,0.0
2019-11-22,24.399999618530273,24.399999618530273,24.399999618530273,24.399999618530273,0.0
2019-11-25,24.75,24.75,24.75,24.75,0.0
2019-11-26,24.75,24.75,24.75,24.75,0.0
2019-11-27,24.75,24.75,24.75,24.75,0.0
2019-11-28,24.70000076293945,24.70000076293945,24.70000076293945,24.70000076293945,3800.0
2019-11-29,24.5,24.149999618530273,24.5,24.149999618530273,30200.0
2019-12-02,24.20000076293945,24.20000076293945,24.20000076293945,24.20000076293945,0.0
2019-12-03,24.20000076293945,24.20000076293945,24.20000076293945,24.20000076293945,0.0
2019-12-04,24.149999618530273,24.149999618530273,24.149999618530273,24.149999618530273,0.0
2019-12-05,24.149999618530273,24.149999618530273,24.149999618530273,24.149999618530273,0.0
2019-12-06,24.29999923706055,24.29999923706055,24.29999923706055,24.29999923706055,100.0
2019-12-09,24.29999923706055,24.29999923706055,24.29999923706055,24.29999923706055,0.0
2019-12-10,24.399999618530273,24.399999618530273,24.399999618530273,24.399999618530273,100.0
2019-12-11,24.399999618530273,24.399999618530273,24.399999618530273,24.399999618530273,0.0
2019-12-12,24.79999923706055,24.79999923706055,24.79999923706055,24.79999923706055,20000.0
2019-12-13,25.25,25.25,25.25,25.25,0.0
2019-12-16,25.25,25.25,25.25,25.25,1600.0
2019-12-17,25.29999923706055,25.29999923706055,25.29999923706055,25.29999923706055,1000.0
2019-12-18,25.35000038146973,25.35000038146973,25.35000038146973,25.35000038146973,0.0
2019-12-19,25.35000038146973,25.35000038146973,25.35000038146973,25.35000038146973,0.0
2019-12-20,25.399999618530273,25.399999618530273,25.399999618530273,25.399999618530273,0.0
2019-12-23,25.5,25.5,25.5,25.5,0.0
2019-12-24,25.60000038146973,25.54999923706055,25.60000038146973,25.54999923706055,25100.0
2019-12-27,25.70000076293945,25.70000076293945,25.70000076293945,25.70000076293945,0.0
2019-12-30,25.70000076293945,25.70000076293945,25.70000076293945,25.70000076293945,0.0
2019-12-31,25.70000076293945,25.70000076293945,25.70000076293945,25.70000076293945,0.0
2020-01-02,25.79999923706055,25.79999923706055,25.79999923706055,25.79999923706055,0.0
2020-01-03,25.79999923706055,25.79999923706055,25.79999923706055,25.79999923706055,0.0
2020-01-06,25.79999923706055,25.79999923706055,25.79999923706055,25.79999923706055,0.0
2020-01-07,25.75,25.75,25.75,25.75,0.0
2020-01-08,25.54999923706055,25.54999923706055,25.54999923706055,25.54999923706055,0.0
2020-01-09,25.899999618530273,25.899999618530273,25.899999618530273,25.899999618530273,500.0
2020-01-10,25.899999618530273,25.899999618530273,25.899999618530273,25.899999618530273,0.0
2020-01-13,26.10000038146973,26.04999923706055,26.04999923706055,26.10000038146973,500.0
2020-01-14,26.149999618530273,26.04999923706055,26.10000038146973,26.04999923706055,2900.0
2020-01-15,26.0,26.0,26.0,26.0,0.0
2020-01-16,26.0,26.0,26.0,26.0,0.0
2020-01-17,26.0,26.0,26.0,26.0,0.0
2020-01-20,25.95000076293945,25.95000076293945,25.95000076293945,25.95000076293945,0.0
2020-01-21,25.399999618530273,25.399999618530273,25.399999618530273,25.399999618530273,0.0
2020-01-22,25.5,25.5,25.5,25.5,0.0
2020-01-23,25.29999923706055,25.29999923706055,25.29999923706055,25.29999923706055,0.0
2020-01-24,25.29999923706055,25.25,25.29999923706055,25.25,1700.0
2020-01-29,24.85000038146973,24.70000076293945,24.85000038146973,24.70000076293945,2300.0
2020-01-30,24.29999923706055,24.29999923706055,24.29999923706055,24.29999923706055,0.0
2020-01-31,24.29999923706055,24.20000076293945,24.29999923706055,24.20000076293945,7000.0
2020-02-03,24.20000076293945,24.20000076293945,24.20000076293945,24.20000076293945,0.0
2020-02-04,24.25,24.25,24.25,24.25,0.0
2020-02-05,24.45000076293945,24.45000076293945,24.45000076293945,24.45000076293945,2200.0
2020-02-06,24.899999618530273,24.899999618530273,24.899999618530273,24.899999618530273,0.0
2020-02-07,25.0,24.899999618530273,24.899999618530273,25.0,500.0
2020-02-10,24.95000076293945,24.95000076293945,24.95000076293945,24.95000076293945,0.0
2020-02-11,25.10000038146973,25.10000038146973,25.10000038146973,25.10000038146973,0.0
2020-02-12,25.29999923706055,25.29999923706055,25.29999923706055,25.29999923706055,0.0
2020-02-13,25.29999923706055,25.29999923706055,25.29999923706055,25.29999923706055,0.0
2020-02-14,25.60000038146973,25.60000038146973,25.60000038146973,25.60000038146973,500.0
2020-02-17,25.60000038146973,25.60000038146973,25.60000038146973,25.60000038146973,0.0
2020-02-18,25.25,25.25,25.25,25.25,0.0
2020-02-19,25.25,25.25,25.25,25.25,0.0
2020-02-20,25.25,25.25,25.25,25.25,0.0
2020-02-21,25.25,25.25,25.25,25.25,0.0
2020-02-24,27.5,27.25,27.5,27.25,123400.0
2020-02-25,24.54999923706055,24.54999923706055,24.54999923706055,24.54999923706055,0.0
2020-02-26,24.45000076293945,24.45000076293945,24.45000076293945,24.45000076293945,0.0
2020-02-27,24.45000076293945,24.35000038146973,24.399999618530273,24.5,3100.0
2020-02-28,24.20000076293945,23.899999618530273,24.20000076293945,23.95000076293945,19500.0
2020-03-02,26.899999618530273,26.649999618530273,26.649999618530273,26.79999923706055,133300.0
2020-03-03,24.20000076293945,24.0,24.149999618530273,24.0,6900.0
2020-03-04,23.79999923706055,23.79999923706055,23.79999923706055,23.79999923706055,0.0
2020-03-05,24.25,24.25,24.25,24.25,5100.0
2020-03-06,24.04999923706055,23.79999923706055,24.04999923706055,23.79999923706055,5300.0
2020-03-09,26.70000076293945,26.70000076293945,26.70000076293945,26.70000076293945,0.0
2020-03-10,22.75,22.75,22.75,22.75,0.0
2020-03-11,23.10000038146973,23.10000038146973,23.10000038146973,23.10000038146973,0.0
2020-03-12,23.149999618530273,23.149999618530273,23.149999618530273,23.149999618530273,0.0
2020-03-13,22.25,22.25,22.25,22.25,0.0
2020-03-16,24.70000076293945,24.70000076293945,24.70000076293945,24.70000076293945,0.0
2020-03-17,21.649999618530273,21.649999618530273,21.649999618530273,21.649999618530273,0.0
2020-03-18,21.399999618530273,21.399999618530273,21.399999618530273,21.399999618530273,0.0
2020-03-19,20.850000381469727,19.86000061035156,20.850000381469727,20.299999237060547,3500.0
2020-03-20,21.100000381469727,21.100000381469727,21.100000381469727,21.100000381469727,0.0
2020-03-23,22.60000038146973,21.950000762939453,21.950000762939453,22.149999618530273,205345.0
2020-03-24,21.049999237060547,21.049999237060547,21.049999237060547,21.049999237060547,0.0
2020-03-25,22.0,22.0,22.0,22.0,0.0
2020-03-26,21.950000762939453,21.950000762939453,21.950000762939453,21.950000762939453,0.0
2020-03-27,21.950000762939453,21.950000762939453,21.950000762939453,21.950000762939453,0.0
2020-03-30,23.95000076293945,23.45000076293945,23.5,23.60000038146973,72300.0
2020-03-31,22.200000762939453,22.0,22.0,22.200000762939453,28200.0
2020-04-01,22.200000762939453,22.200000762939453,22.200000762939453,21.700000762939453,500.0
2020-04-02,21.700000762939453,21.700000762939453,21.700000762939453,21.700000762939453,0.0
2020-04-03,21.700000762939453,21.700000762939453,21.700000762939453,21.700000762939453,0.0
2020-04-06,24.35000038146973,23.85000038146973,23.899999618530273,24.29999923706055,57400.0
2020-04-07,22.399999618530273,22.399999618530273,22.399999618530273,22.399999618530273,0.0
2020-04-08,22.350000381469727,22.350000381469727,22.350000381469727,22.350000381469727,0.0
2020-04-09,22.450000762939453,22.450000762939453,22.450000762939453,22.450000762939453,0.0
2020-04-14,22.54999923706055,22.54999923706055,22.54999923706055,22.54999923706055,0.0
2020-04-15,22.5,22.5,22.5,22.5,0.0
2020-04-16,22.5,22.5,22.5,22.5,0.0
2020-04-17,22.95000076293945,22.95000076293945,22.95000076293945,22.899999618530273,2200.0
2020-04-20,22.85000038146973,22.79999923706055,22.79999923706055,22.85000038146973,1900.0
2020-04-21,22.649999618530273,22.350000381469727,22.649999618530273,22.450000762939453,2500.0
2020-04-22,22.299999237060547,22.299999237060547,22.299999237060547,22.299999237060547,0.0
2020-04-23,22.450000762939453,22.450000762939453,22.450000762939453,22.450000762939453,0.0
2020-04-24,22.450000762939453,22.450000762939453,22.450000762939453,22.450000762939453,0.0
2020-04-27,22.5,22.5,22.5,22.5,0.0
2020-04-28,22.79999923706055,22.79999923706055,22.79999923706055,22.79999923706055,0.0
2020-04-29,22.79999923706055,22.79999923706055,22.79999923706055,22.79999923706055,0.0
2020-05-04,22.25,22.25,22.25,22.25,0.0
2020-05-05,22.25,22.25,22.25,22.25,0.0
2020-05-06,22.399999618530273,22.399999618530273,22.399999618530273,22.399999618530273,0.0
2020-05-07,22.399999618530273,22.399999618530273,22.399999618530273,22.399999618530273,0.0
2020-05-08,22.450000762939453,22.450000762939453,22.450000762939453,22.450000762939453,0.0
2020-05-11,22.899999618530273,22.899999618530273,22.899999618530273,22.899999618530273,0.0
2020-05-12,22.79999923706055,22.79999923706055,22.79999923706055,22.79999923706055,0.0
2020-05-13,22.70000076293945,22.70000076293945,22.70000076293945,22.70000076293945,0.0
2020-05-14,22.399999618530273,22.399999618530273,22.399999618530273,22.399999618530273,0.0
2020-05-15,22.350000381469727,22.350000381469727,22.350000381469727,22.350000381469727,2500.0
2020-05-18,22.350000381469727,22.350000381469727,22.350000381469727,22.350000381469727,0.0
2020-05-19,22.70000076293945,22.70000076293945,22.70000076293945,22.70000076293945,0.0
2020-05-20,22.70000076293945,22.70000076293945,22.70000076293945,22.70000076293945,0.0
2020-05-21,22.70000076293945,22.70000076293945,22.70000076293945,22.70000076293945,0.0
2020-05-22,22.0,21.799999237060547,22.0,21.75,7300.0
2020-05-25,21.600000381469727,21.600000381469727,21.600000381469727,21.600000381469727,0.0
2020-05-26,22.0,22.0,22.0,22.0,0.0
2020-05-27,22.0,22.0,22.0,22.0,0.0
2020-05-28,22.0,22.0,22.0,22.0,0.0
2020-05-29,21.899999618530273,21.899999618530273,21.899999618530273,21.899999618530273,0.0
2020-06-01,22.420000076293945,22.21999931335449,22.21999931335449,22.36000061035156,132600.0
2020-06-02,22.520000457763672,22.520000457763672,22.520000457763672,22.520000457763672,0.0
2020-06-03,22.86000061035156,22.86000061035156,22.86000061035156,22.86000061035156,0.0
2020-06-04,22.959999084472656,22.959999084472656,22.959999084472656,22.959999084472656,0.0
2020-06-05,23.26000022888184,23.26000022888184,23.26000022888184,23.28000068664551,900.0
2020-06-08,23.20000076293945,23.20000076293945,23.20000076293945,23.20000076293945,0.0
2020-06-09,23.440000534057614,23.440000534057614,23.440000534057614,23.440000534057614,0.0
2020-06-10,23.459999084472656,23.459999084472656,23.459999084472656,23.459999084472656,0.0
2020-06-11,23.0,23.0,23.0,22.959999084472656,7500.0
2020-06-12,22.739999771118164,22.739999771118164,22.739999771118164,22.739999771118164,0.0
2020-06-15,22.3799991607666,22.3799991607666,22.3799991607666,22.3799991607666,0.0
2020-06-16,22.84000015258789,22.84000015258789,22.84000015258789,22.84000015258789,0.0
2020-06-17,22.979999542236328,22.979999542236328,22.979999542236328,22.979999542236328,0.0
2020-06-18,22.8799991607666,22.8799991607666,22.8799991607666,22.8799991607666,0.0
2020-06-19,23.07999992370605,23.07999992370605,23.07999992370605,23.07999992370605,0.0
2020-06-22,22.84000015258789,22.84000015258789,22.84000015258789,22.84000015258789,0.0
2020-06-23,23.10000038146973,23.10000038146973,23.10000038146973,23.10000038146973,0.0
2020-06-24,23.07999992370605,23.07999992370605,23.07999992370605,23.07999992370605,0.0
2020-06-26,23.0,22.899999618530273,22.979999542236328,22.899999618530273,59400.0
2020-06-29,25.059999465942386,24.559999465942386,25.0,24.76000022888184,355056.0
2020-06-30,25.040000915527344,24.78000068664551,24.979999542236328,24.920000076293945,145700.0
2020-07-02,25.739999771118164,25.059999465942386,25.059999465942386,25.70000076293945,414100.0
2020-07-08,27.040000915527344,26.70000076293945,26.78000068664551,26.899999618530273,296610.0
2020-07-09,24.34000015258789,24.21999931335449,24.34000015258789,24.31999969482422,7300.0
2020-07-10,23.940000534057614,23.940000534057614,23.940000534057614,23.940000534057614,0.0
2020-07-13,24.18000030517578,23.979999542236328,24.020000457763672,24.0,64100.0
2020-07-14,23.81999969482422,23.70000076293945,23.70000076293945,23.68000030517578,2200.0
2020-07-15,23.920000076293945,23.60000038146973,23.920000076293945,23.6200008392334,24700.0
2020-07-16,23.21999931335449,23.21999931335449,23.21999931335449,23.21999931335449,0.0
2020-07-17,23.399999618530273,23.28000068664551,23.34000015258789,23.29999923706055,41300.0
2020-07-20,23.18000030517578,23.18000030517578,23.18000030517578,23.18000030517578,8000.0
2020-07-21,23.71999931335449,23.71999931335449,23.71999931335449,23.71999931335449,0.0
2020-07-22,23.65999984741211,23.520000457763672,23.65999984741211,23.3799991607666,12400.0
2020-07-23,23.420000076293945,23.420000076293945,23.420000076293945,23.420000076293945,0.0
2020-07-24,23.0,23.0,23.0,23.0,400.0
2020-07-27,22.920000076293945,22.920000076293945,22.920000076293945,22.920000076293945,0.0
2020-07-28,23.0,23.0,23.0,23.0,0.0
2020-07-29,22.979999542236328,22.979999542236328,22.979999542236328,23.059999465942386,7500.0
2020-07-30,23.1200008392334,22.940000534057614,23.1200008392334,22.940000534057614,38200.0
2020-07-31,22.899999618530273,22.899999618530273,22.899999618530273,22.899999618530273,13000.0
2020-08-03,25.36000061035156,24.979999542236328,25.36000061035156,25.10000038146973,364200.0
2020-08-04,25.79999923706055,25.26000022888184,25.420000076293945,25.65999984741211,627700.0
2020-08-05,25.959999084472656,25.60000038146973,25.68000030517578,25.84000015258789,306855.0
2020-08-06,26.0,25.34000015258789,26.0,25.63999938964844,483400.0
2020-08-07,22.86000061035156,22.5,22.86000061035156,22.63999938964844,37400.0
2020-08-10,22.60000038146973,22.5,22.5,22.57999992370605,17700.0
2020-08-11,22.899999618530273,22.899999618530273,22.899999618530273,22.899999618530273,0.0
2020-08-12,23.1200008392334,22.8799991607666,22.899999618530273,23.20000076293945,42600.0
2020-08-13,23.20000076293945,23.20000076293945,23.20000076293945,23.20000076293945,0.0
2020-08-14,23.28000068664551,23.13999938964844,23.13999938964844,23.20000076293945,53400.0
2020-08-17,23.479999542236328,23.31999969482422,23.459999084472656,23.34000015258789,23000.0
2020-08-18,23.36000061035156,23.34000015258789,23.34000015258789,23.28000068664551,7500.0
2020-08-19,23.13999938964844,23.13999938964844,23.13999938964844,23.13999938964844,0.0
2020-08-20,22.68000030517578,22.68000030517578,22.68000030517578,22.68000030517578,0.0
2020-08-21,22.940000534057614,22.81999969482422,22.8799991607666,23.0,22700.0
2020-08-24,26.26000022888184,25.920000076293945,26.0,26.20000076293945,374200.0
2020-08-25,23.3799991607666,23.36000061035156,23.3799991607666,23.36000061035156,37600.0
