Date,High,Low,Open,Close,Volume
2020-08-07,85.12000274658203,85.12000274658203,85.12000274658203,83.9000015258789,2400
2020-08-25,83.05999755859375,83.05999755859375,83.05999755859375,82.76000213623047,4950
