Date,High,Low,Open,Close,Volume
2017-07-19,0.8000000119209291,0.4000000059604645,0.44999998807907104,0.699999988079071,151584000
2017-07-20,0.7799999713897705,0.550000011920929,0.6899999976158142,0.5699999928474426,44312000
2017-07-21,0.6899999976158142,0.550000011920929,0.6200000047683716,0.6200000047683716,21416000
2017-07-24,0.9300000071525574,0.6399999856948853,0.6399999856948853,0.7300000190734863,59600000
2017-07-25,0.7900000214576721,0.6200000047683716,0.7799999713897705,0.6200000047683716,37056000
2017-07-26,0.7200000286102295,0.6299999952316284,0.6499999761581421,0.6499999761581421,7856000
2017-07-27,0.699999988079071,0.6399999856948853,0.6899999976158142,0.6600000262260437,5096000
2017-07-28,0.6700000166893005,0.6299999952316284,0.6700000166893005,0.6499999761581421,1992000
2017-07-31,0.6899999976158142,0.6499999761581421,0.6600000262260437,0.6700000166893005,2856000
2017-08-01,0.8500000238418579,0.6899999976158142,0.6899999976158142,0.8399999737739563,27736000
2017-08-02,0.8399999737739563,0.7599999904632568,0.8299999833106995,0.8199999928474426,18248000
2017-08-03,1.0199999809265137,0.7300000190734863,0.8199999928474426,0.8000000119209291,43920000
2017-08-04,0.8600000143051147,0.75,0.8000000119209291,0.7699999809265137,3648000
2017-08-07,0.8700000047683716,0.7900000214576721,0.8000000119209291,0.8299999833106995,5008000
2017-08-08,0.8399999737739563,0.7599999904632568,0.8299999833106995,0.8299999833106995,2888000
2017-08-09,0.8500000238418579,0.7699999809265137,0.8100000023841858,0.7699999809265137,2216000
2017-08-10,0.8000000119209291,0.6899999976158142,0.7799999713897705,0.7300000190734863,5896000
2017-08-11,0.75,0.6700000166893005,0.75,0.7400000095367432,3448000
2017-08-14,0.8000000119209291,0.7599999904632568,0.8000000119209291,0.7799999713897705,2440000
2017-08-15,0.8000000119209291,0.7799999713897705,0.7799999713897705,0.7799999713897705,1496000
2017-08-16,0.8299999833106995,0.7699999809265137,0.7699999809265137,0.8100000023841858,2928000
2017-08-17,0.8500000238418579,0.7900000214576721,0.7900000214576721,0.8100000023841858,2696000
2017-08-18,0.8299999833106995,0.7699999809265137,0.7699999809265137,0.7799999713897705,2992000
2017-08-21,0.9200000166893004,0.7799999713897705,0.7900000214576721,0.9200000166893004,15144000
2017-08-22,1.0,0.9100000262260436,0.9100000262260436,0.9900000095367432,14424000
2017-08-23,0.9900000095367432,0.9900000095367432,0.9900000095367432,0.9900000095367432,0
2017-08-24,1.0900000333786009,0.8000000119209291,0.9900000095367432,0.959999978542328,20832000
2017-08-25,1.0199999809265137,0.9300000071525574,0.9700000286102296,0.9700000286102296,4888000
2017-08-28,1.0499999523162842,0.9800000190734864,0.9800000190734864,1.0099999904632568,4040000
2017-08-29,1.0299999713897705,0.9800000190734864,0.9800000190734864,1.0199999809265137,4040000
2017-08-30,1.0399999618530271,0.9900000095367432,0.9900000095367432,1.0099999904632568,1664000
2017-08-31,1.0900000333786009,1.0099999904632568,1.0099999904632568,1.0299999713897705,4008000
2017-09-01,1.0399999618530271,1.0099999904632568,1.0199999809265137,1.0299999713897705,1535000
2017-09-04,1.0199999809265137,0.8799999952316284,1.0099999904632568,0.9900000095367432,4112000
2017-09-05,0.9399999976158142,0.7300000190734863,0.9399999976158142,0.8500000238418579,17968000
2017-09-06,0.8299999833106995,0.7799999713897705,0.8000000119209291,0.8100000023841858,3128000
2017-09-07,0.8100000023841858,0.7400000095367432,0.8100000023841858,0.7599999904632568,4864000
2017-09-08,0.7599999904632568,0.699999988079071,0.75,0.75,2344000
2017-09-11,0.7599999904632568,0.7200000286102295,0.75,0.7599999904632568,1392000
2017-09-12,0.7599999904632568,0.6700000166893005,0.7599999904632568,0.7300000190734863,1936000
2017-09-13,0.7300000190734863,0.6899999976158142,0.7300000190734863,0.7300000190734863,544600
2017-09-14,0.7200000286102295,0.6800000071525574,0.699999988079071,0.7200000286102295,2568000
2017-09-15,0.7599999904632568,0.6600000262260437,0.7099999785423279,0.7200000286102295,3112000
2017-09-18,0.8199999928474426,0.75,0.7799999713897705,0.8100000023841858,3720000
2017-09-19,0.8399999737739563,0.7699999809265137,0.8100000023841858,0.7699999809265137,1768000
2017-09-20,0.75,0.6700000166893005,0.75,0.699999988079071,6600000
2017-09-21,0.6899999976158142,0.6000000238418579,0.6899999976158142,0.6200000047683716,6304000
2017-09-22,0.6399999856948853,0.5299999713897705,0.6399999856948853,0.550000011920929,5720000
2017-09-25,0.5400000214576721,0.4699999988079071,0.5400000214576721,0.4950000047683716,5376000
2017-09-26,0.5199999809265137,0.4699999988079071,0.5,0.4850000143051148,1776000
2017-09-27,0.4850000143051148,0.44999998807907104,0.4850000143051148,0.4550000131130218,1200000
2017-09-28,0.5199999809265137,0.4600000083446503,0.4600000083446503,0.5199999809265137,2224000
2017-09-29,0.5400000214576721,0.4900000095367432,0.5199999809265137,0.5,1608000
2017-10-03,0.5099999904632568,0.44999998807907104,0.5099999904632568,0.4850000143051148,952000
2017-10-04,0.4950000047683716,0.4699999988079071,0.4699999988079071,0.4950000047683716,568000
2017-10-06,0.4850000143051148,0.4699999988079071,0.479999989271164,0.4749999940395355,392000
2017-10-09,0.5199999809265137,0.4650000035762787,0.4650000035762787,0.5099999904632568,632000
2017-10-10,0.5199999809265137,0.5,0.5,0.5099999904632568,840000
2017-10-11,0.5099999904632568,0.5,0.5099999904632568,0.5099999904632568,344000
2017-10-12,0.5,0.4749999940395355,0.5,0.479999989271164,856000
2017-10-13,0.479999989271164,0.4650000035762787,0.4650000035762787,0.479999989271164,176000
2017-10-16,0.4699999988079071,0.4399999976158142,0.4650000035762787,0.4550000131130218,1920000
2017-10-17,0.4600000083446503,0.44999998807907104,0.4550000131130218,0.4550000131130218,360000
2017-10-18,0.4550000131130218,0.4550000131130218,0.4550000131130218,0.4550000131130218,0
2017-10-19,0.4699999988079071,0.4399999976158142,0.4399999976158142,0.4550000131130218,4056000
2017-10-20,0.4550000131130218,0.4350000023841858,0.4449999928474426,0.4449999928474426,6312000
2017-10-23,0.4650000035762787,0.4399999976158142,0.4550000131130218,0.4449999928474426,7856000
2017-10-24,0.4600000083446503,0.4300000071525574,0.4449999928474426,0.4600000083446503,12256000
2017-10-25,0.4749999940395355,0.4550000131130218,0.4749999940395355,0.4600000083446503,248000
2017-10-26,0.4550000131130218,0.4300000071525574,0.4550000131130218,0.4350000023841858,264000
2017-10-27,0.4449999928474426,0.4149999916553497,0.4300000071525574,0.4300000071525574,504000
2017-10-30,0.41999998688697815,0.4050000011920929,0.4099999964237213,0.4149999916553497,488000
2017-10-31,0.4550000131130218,0.41999998688697815,0.41999998688697815,0.4449999928474426,3456000
2017-11-01,0.4550000131130218,0.4300000071525574,0.4550000131130218,0.4399999976158142,4072000
2017-11-02,0.44999998807907104,0.4300000071525574,0.4449999928474426,0.4399999976158142,1864000
2017-11-03,0.4550000131130218,0.42500001192092896,0.44999998807907104,0.42500001192092896,248000
2017-11-06,0.4399999976158142,0.4149999916553497,0.4399999976158142,0.4300000071525574,184000
2017-11-07,0.4300000071525574,0.41999998688697815,0.41999998688697815,0.42500001192092896,176000
2017-11-08,0.42500001192092896,0.4000000059604645,0.42500001192092896,0.4000000059604645,4168000
2017-11-09,0.4050000011920929,0.3449999988079071,0.4050000011920929,0.3499999940395355,11632000
2017-11-10,0.36000001430511475,0.33000001311302185,0.3499999940395355,0.3449999988079071,8192000
2017-11-13,0.3499999940395355,0.3199999928474426,0.3499999940395355,0.3199999928474426,5048000
2017-11-14,0.32499998807907104,0.2800000011920929,0.3199999928474426,0.2849999964237213,9240000
2017-11-15,0.3050000071525574,0.25,0.2800000011920929,0.30000001192092896,14776000
2017-11-16,0.4350000023841858,0.2949999868869781,0.3100000023841858,0.4149999916553497,17392000
2017-11-17,0.5299999713897705,0.3650000095367432,0.4149999916553497,0.3899999856948853,24576000
2017-11-20,0.3849999904632568,0.32499998807907104,0.3899999856948853,0.3449999988079071,7064000
2017-11-21,0.3499999940395355,0.33000001311302185,0.3449999988079071,0.3400000035762787,7864000
2017-11-22,0.3499999940395355,0.3050000071525574,0.3499999940395355,0.3050000071525574,7064000
2017-11-23,0.36000001430511475,0.2899999916553497,0.2899999916553497,0.3050000071525574,7672000
2017-11-24,0.3499999940395355,0.3100000023841858,0.3100000023841858,0.3400000035762787,6000000
2017-11-27,0.35499998927116394,0.33000001311302185,0.3499999940395355,0.3400000035762787,5120000
2017-11-28,0.3400000035762787,0.3199999928474426,0.3350000083446503,0.3400000035762787,4904000
2017-11-29,0.3849999904632568,0.33000001311302185,0.3400000035762787,0.3799999952316284,12024000
2017-11-30,0.4300000071525574,0.3700000047683716,0.3799999952316284,0.3849999904632568,16952000
2017-12-01,0.4099999964237213,0.36000001430511475,0.4000000059604645,0.36000001430511475,7080000
2017-12-04,0.3849999904632568,0.3400000035762787,0.3849999904632568,0.3650000095367432,6312000
2017-12-05,0.3849999904632568,0.3400000035762787,0.3849999904632568,0.3449999988079071,6272000
2017-12-06,0.3499999940395355,0.3350000083446503,0.3499999940395355,0.3350000083446503,3392000
2017-12-07,0.35499998927116394,0.3350000083446503,0.3449999988079071,0.3350000083446503,2200000
2017-12-08,0.35499998927116394,0.3350000083446503,0.3400000035762787,0.3449999988079071,2048000
2017-12-11,0.3499999940395355,0.32499998807907104,0.3400000035762787,0.3400000035762787,6576000
2017-12-12,0.3449999988079071,0.3350000083446503,0.3449999988079071,0.3350000083446503,3608000
2017-12-13,0.3499999940395355,0.3350000083446503,0.3449999988079071,0.3400000035762787,2824000
2017-12-14,0.3499999940395355,0.3199999928474426,0.3449999988079071,0.32499998807907104,5448000
2017-12-15,0.3499999940395355,0.33000001311302185,0.33000001311302185,0.3350000083446503,3280000
2017-12-18,0.3400000035762787,0.30000001192092896,0.33000001311302185,0.3050000071525574,6040000
2017-12-19,0.3149999976158142,0.2899999916553497,0.3149999976158142,0.3100000023841858,6632000
2017-12-20,0.3050000071525574,0.2949999868869781,0.3050000071525574,0.30000001192092896,3032000
2017-12-21,0.3199999928474426,0.2899999916553497,0.30000001192092896,0.3100000023841858,17016000
2017-12-22,0.3199999928474426,0.3050000071525574,0.3100000023841858,0.3100000023841858,10424000
2017-12-27,0.3149999976158142,0.2949999868869781,0.3100000023841858,0.3050000071525574,2304000
2017-12-28,0.30000001192092896,0.2849999964237213,0.30000001192092896,0.2949999868869781,10872000
2017-12-29,0.2949999868869781,0.2800000011920929,0.2949999868869781,0.2899999916553497,2288000
2018-01-02,0.3050000071525574,0.2899999916553497,0.2899999916553497,0.2949999868869781,4088000
2018-01-03,0.3100000023841858,0.2949999868869781,0.2949999868869781,0.3050000071525574,4568000
2018-01-04,0.3050000071525574,0.2849999964237213,0.3050000071525574,0.2949999868869781,4824000
2018-01-05,0.30000001192092896,0.2899999916553497,0.2949999868869781,0.30000001192092896,5352000
2018-01-08,0.3050000071525574,0.2949999868869781,0.2949999868869781,0.2949999868869781,5456000
2018-01-09,0.30000001192092896,0.2849999964237213,0.30000001192092896,0.2899999916553497,7760000
2018-01-10,0.2949999868869781,0.2800000011920929,0.2949999868869781,0.2849999964237213,5896000
2018-01-11,0.2949999868869781,0.2849999964237213,0.2849999964237213,0.2949999868869781,9344000
2018-01-12,0.3050000071525574,0.2849999964237213,0.2949999868869781,0.2899999916553497,15704000
2018-01-15,0.30000001192092896,0.2899999916553497,0.2899999916553497,0.2899999916553497,4672000
2018-01-16,0.2949999868869781,0.2849999964237213,0.2899999916553497,0.2849999964237213,5464000
2018-01-17,0.2849999964237213,0.2750000059604645,0.2800000011920929,0.2750000059604645,4496000
2018-01-18,0.2800000011920929,0.2700000107288361,0.2750000059604645,0.2700000107288361,5160000
2018-01-19,0.2800000011920929,0.26499998569488525,0.2750000059604645,0.2800000011920929,7592000
2018-01-22,0.2849999964237213,0.2750000059604645,0.2849999964237213,0.2849999964237213,5816000
2018-01-23,0.2849999964237213,0.2750000059604645,0.2800000011920929,0.2750000059604645,7272000
2018-01-24,0.2800000011920929,0.2700000107288361,0.2750000059604645,0.2700000107288361,7328000
2018-01-25,0.2800000011920929,0.2700000107288361,0.2700000107288361,0.2750000059604645,6760000
2018-01-26,0.2800000011920929,0.2700000107288361,0.2800000011920929,0.2700000107288361,8000000
2018-01-29,0.2750000059604645,0.26499998569488525,0.2750000059604645,0.2700000107288361,7472000
2018-01-30,0.2750000059604645,0.25999999046325684,0.26499998569488525,0.2750000059604645,6112000
2018-01-31,0.2750000059604645,0.26499998569488525,0.2750000059604645,0.2700000107288361,7304000
2018-02-01,0.3199999928474426,0.2700000107288361,0.2700000107288361,0.2899999916553497,15280000
2018-02-02,0.3149999976158142,0.2750000059604645,0.3050000071525574,0.2849999964237213,13624000
2018-02-05,0.2849999964237213,0.2700000107288361,0.2849999964237213,0.2849999964237213,8040000
2018-02-06,0.2800000011920929,0.26499998569488525,0.2800000011920929,0.2700000107288361,8304000
2018-02-07,0.2800000011920929,0.26499998569488525,0.2750000059604645,0.2700000107288361,7688000
2018-02-08,0.2750000059604645,0.2700000107288361,0.2750000059604645,0.2750000059604645,8752000
2018-02-09,0.2700000107288361,0.2549999952316284,0.2700000107288361,0.2549999952316284,5344000
2018-02-12,0.2800000011920929,0.25999999046325684,0.25999999046325684,0.2700000107288361,8704000
2018-02-13,0.2800000011920929,0.2700000107288361,0.2750000059604645,0.2700000107288361,7584000
2018-02-14,0.2750000059604645,0.26499998569488525,0.2750000059604645,0.2750000059604645,7072000
2018-02-15,0.2750000059604645,0.25999999046325684,0.2750000059604645,0.2750000059604645,3240000
2018-02-20,0.2750000059604645,0.26499998569488525,0.2750000059604645,0.2750000059604645,8808000
2018-02-21,0.30000001192092896,0.25999999046325684,0.2700000107288361,0.25999999046325684,24520000
2018-02-22,0.2750000059604645,0.25999999046325684,0.25999999046325684,0.2750000059604645,4016000
2018-02-23,0.2899999916553497,0.26499998569488525,0.2750000059604645,0.2800000011920929,6520000
2018-02-26,0.2949999868869781,0.2700000107288361,0.2800000011920929,0.2800000011920929,6872000
2018-02-27,0.2849999964237213,0.2700000107288361,0.2800000011920929,0.2750000059604645,9544000
2018-02-28,0.2750000059604645,0.25999999046325684,0.2750000059604645,0.26499998569488525,5784000
2018-03-01,0.2750000059604645,0.25999999046325684,0.26499998569488525,0.2750000059604645,5608000
2018-03-02,0.2750000059604645,0.26499998569488525,0.2750000059604645,0.26499998569488525,3376000
2018-03-05,0.2700000107288361,0.26499998569488525,0.26499998569488525,0.2700000107288361,680000
2018-03-06,0.2750000059604645,0.25999999046325684,0.26499998569488525,0.26499998569488525,5424000
2018-03-07,0.2750000059604645,0.26499998569488525,0.2700000107288361,0.26499998569488525,3040000
2018-03-08,0.2750000059604645,0.2700000107288361,0.2750000059604645,0.2700000107288361,672000
2018-03-09,0.2700000107288361,0.25999999046325684,0.2700000107288361,0.2700000107288361,3192000
2018-03-12,0.2949999868869781,0.26499998569488525,0.26499998569488525,0.2750000059604645,8952000
2018-03-13,0.2949999868869781,0.2700000107288361,0.2800000011920929,0.2849999964237213,7200000
2018-03-14,0.36000001430511475,0.2849999964237213,0.2849999964237213,0.3400000035762787,21544000
2018-03-15,0.3700000047683716,0.2949999868869781,0.3449999988079071,0.3199999928474426,57288000
2018-03-16,0.3350000083446503,0.30000001192092896,0.3199999928474426,0.3050000071525574,7272000
2018-03-19,0.3499999940395355,0.3149999976158142,0.3149999976158142,0.3350000083446503,12744000
2018-03-20,0.42500001192092896,0.3449999988079071,0.3449999988079071,0.42500001192092896,57712000
2018-03-21,0.44999998807907104,0.3700000047683716,0.44999998807907104,0.3849999904632568,28288000
2018-03-22,0.3799999952316284,0.3149999976158142,0.3799999952316284,0.3199999928474426,15352000
2018-03-23,0.3700000047683716,0.2899999916553497,0.3199999928474426,0.3350000083446503,10296000
2018-03-26,0.3849999904632568,0.3350000083446503,0.36000001430511475,0.3799999952316284,13160000
2018-03-27,0.4099999964237213,0.33000001311302185,0.3950000107288361,0.3400000035762787,18728000
2018-03-28,0.36000001430511475,0.3199999928474426,0.3499999940395355,0.3350000083446503,5632000
2018-03-29,0.3700000047683716,0.3400000035762787,0.3400000035762787,0.3650000095367432,6896000
2018-04-03,0.3849999904632568,0.36000001430511475,0.375,0.3799999952316284,3760000
2018-04-04,0.4149999916553497,0.3799999952316284,0.3799999952316284,0.3899999856948853,11888000
2018-04-06,0.4099999964237213,0.3700000047683716,0.4099999964237213,0.3899999856948853,1736000
2018-04-09,0.4099999964237213,0.3650000095367432,0.4099999964237213,0.375,3144000
2018-04-10,0.4099999964237213,0.3700000047683716,0.4099999964237213,0.3899999856948853,8496000
2018-04-11,0.4000000059604645,0.375,0.4000000059604645,0.3899999856948853,7400000
2018-04-12,0.3950000107288361,0.3700000047683716,0.3899999856948853,0.3799999952316284,2912000
2018-04-13,0.3899999856948853,0.3700000047683716,0.3799999952316284,0.3849999904632568,9016000
2018-04-16,0.4000000059604645,0.3499999940395355,0.3849999904632568,0.35499998927116394,5616000
2018-04-17,0.3799999952316284,0.3350000083446503,0.35499998927116394,0.3799999952316284,4480000
2018-04-18,0.3899999856948853,0.3499999940395355,0.3899999856948853,0.3700000047683716,2760000
2018-04-19,0.375,0.3499999940395355,0.3700000047683716,0.3700000047683716,1480000
2018-04-20,0.36000001430511475,0.33000001311302185,0.35499998927116394,0.3449999988079071,3648000
2018-04-23,0.35499998927116394,0.3199999928474426,0.3499999940395355,0.32499998807907104,3952000
2018-04-24,0.32499998807907104,0.2800000011920929,0.32499998807907104,0.2949999868869781,7216000
2018-04-25,0.2949999868869781,0.2750000059604645,0.2949999868869781,0.2849999964237213,2064000
2018-04-26,0.30000001192092896,0.2750000059604645,0.30000001192092896,0.2800000011920929,2448000
2018-04-27,0.2949999868869781,0.2899999916553497,0.2899999916553497,0.2949999868869781,592000
2018-04-30,0.30000001192092896,0.2849999964237213,0.30000001192092896,0.2949999868869781,224000
2018-05-02,0.30000001192092896,0.2849999964237213,0.30000001192092896,0.2899999916553497,600000
2018-05-03,0.2899999916553497,0.2849999964237213,0.2849999964237213,0.2899999916553497,456000
2018-05-04,0.2899999916553497,0.2800000011920929,0.2849999964237213,0.2800000011920929,1000000
2018-05-07,0.2849999964237213,0.2800000011920929,0.2849999964237213,0.2800000011920929,384000
2018-05-08,0.2949999868869781,0.2849999964237213,0.2849999964237213,0.2949999868869781,224000
2018-05-09,0.30000001192092896,0.2849999964237213,0.2949999868869781,0.30000001192092896,480000
2018-05-10,0.2949999868869781,0.2800000011920929,0.2949999868869781,0.2899999916553497,536000
2018-05-11,0.2899999916553497,0.2849999964237213,0.2899999916553497,0.2899999916553497,448000
2018-05-14,0.2899999916553497,0.2750000059604645,0.2899999916553497,0.2849999964237213,2120000
2018-05-15,0.2849999964237213,0.2849999964237213,0.2849999964237213,0.2849999964237213,224000
2018-05-16,0.2849999964237213,0.2750000059604645,0.2849999964237213,0.2849999964237213,1640000
2018-05-17,0.2849999964237213,0.2750000059604645,0.2800000011920929,0.2849999964237213,888000
2018-05-18,0.2849999964237213,0.2800000011920929,0.2800000011920929,0.2849999964237213,152000
2018-05-21,0.3350000083446503,0.26499998569488525,0.2800000011920929,0.3199999928474426,38048000
2018-05-23,0.36000001430511475,0.3149999976158142,0.32499998807907104,0.33000001311302185,28288000
2018-05-24,0.3449999988079071,0.3149999976158142,0.3449999988079071,0.32499998807907104,14808000
2018-05-25,0.3400000035762787,0.2949999868869781,0.32499998807907104,0.30000001192092896,5440000
2018-05-28,0.33000001311302185,0.30000001192092896,0.30000001192092896,0.3050000071525574,5448000
2018-05-29,0.3100000023841858,0.2849999964237213,0.3050000071525574,0.2949999868869781,4008000
2018-05-30,0.2899999916553497,0.2849999964237213,0.2849999964237213,0.2899999916553497,992000
2018-05-31,0.2899999916553497,0.2800000011920929,0.2899999916553497,0.2800000011920929,624000
2018-06-01,0.2849999964237213,0.26499998569488525,0.2800000011920929,0.2849999964237213,2800000
2018-06-04,0.3050000071525574,0.2750000059604645,0.30000001192092896,0.2899999916553497,1216000
2018-06-05,0.3050000071525574,0.2849999964237213,0.2949999868869781,0.30000001192092896,16760000
2018-06-06,0.3050000071525574,0.2849999964237213,0.3050000071525574,0.2899999916553497,3928000
2018-06-07,0.2899999916553497,0.2750000059604645,0.2899999916553497,0.2800000011920929,2800000
2018-06-08,0.2800000011920929,0.2700000107288361,0.2750000059604645,0.2800000011920929,1304000
2018-06-11,0.2800000011920929,0.2750000059604645,0.2800000011920929,0.2750000059604645,440000
2018-06-12,0.2949999868869781,0.2750000059604645,0.2750000059604645,0.2949999868869781,11196000
2018-06-13,0.2949999868869781,0.2849999964237213,0.2949999868869781,0.2849999964237213,1144000
2018-06-14,0.2849999964237213,0.2750000059604645,0.2849999964237213,0.2750000059604645,1264000
2018-06-15,0.2899999916553497,0.2750000059604645,0.2750000059604645,0.2899999916553497,1872000
2018-06-19,0.2800000011920929,0.2700000107288361,0.2800000011920929,0.2700000107288361,2036000
2018-06-20,0.2700000107288361,0.2700000107288361,0.2700000107288361,0.2700000107288361,568000
2018-06-21,0.2750000059604645,0.26499998569488525,0.2700000107288361,0.2700000107288361,976000
2018-06-22,0.26499998569488525,0.25999999046325684,0.26499998569488525,0.25999999046325684,1200000
2018-06-25,0.25999999046325684,0.25,0.2549999952316284,0.25,1344000
2018-06-26,0.25,0.239999994635582,0.25,0.239999994635582,376000
2018-06-27,0.239999994635582,0.20999999344348907,0.239999994635582,0.2290000021457672,640000
2018-06-28,0.25999999046325684,0.2290000021457672,0.2290000021457672,0.2380000054836273,376000
2018-06-29,0.26499998569488525,0.2450000047683716,0.2450000047683716,0.25999999046325684,2008000
2018-07-03,0.25999999046325684,0.25,0.25999999046325684,0.2549999952316284,360000
2018-07-04,0.25,0.239999994635582,0.25,0.2450000047683716,488000
2018-07-05,0.23100000619888306,0.2240000069141388,0.23100000619888306,0.23000000417232516,336000
2018-07-06,0.239999994635582,0.22499999403953552,0.239999994635582,0.2370000034570694,1320000
2018-07-09,0.2440000027418137,0.239999994635582,0.2409999966621399,0.239999994635582,320000
2018-07-10,0.2800000011920929,0.25999999046325684,0.2700000107288361,0.2800000011920929,2272000
2018-07-11,0.2800000011920929,0.25999999046325684,0.2750000059604645,0.2800000011920929,3768000
2018-07-12,0.2750000059604645,0.2549999952316284,0.2750000059604645,0.2750000059604645,376000
2018-07-13,0.26499998569488525,0.2549999952316284,0.25999999046325684,0.25999999046325684,296000
2018-07-16,0.2549999952316284,0.25,0.25,0.25,312000
2018-07-17,0.2430000007152557,0.239999994635582,0.2409999966621399,0.2419999986886978,592000
2018-07-18,0.22699999809265134,0.22699999809265134,0.22699999809265134,0.2450000047683716,16000
2018-07-19,0.25999999046325684,0.239999994635582,0.239999994635582,0.25,544000
2018-07-20,0.2549999952316284,0.2450000047683716,0.2450000047683716,0.2549999952316284,168000
2018-07-23,0.26499998569488525,0.2409999966621399,0.25,0.26499998569488525,176000
2018-07-24,0.25999999046325684,0.25,0.26499998569488525,0.25999999046325684,1528000
2018-07-25,0.2700000107288361,0.25,0.26499998569488525,0.25,432000
2018-07-26,0.2800000011920929,0.2800000011920929,0.2800000011920929,0.2800000011920929,0
2018-07-27,0.2750000059604645,0.2750000059604645,0.2750000059604645,0.2750000059604645,0
2018-07-30,0.2800000011920929,0.2700000107288361,0.2800000011920929,0.2750000059604645,8976000
2018-07-31,0.2700000107288361,0.26499998569488525,0.26499998569488525,0.2700000107288361,536000
2018-08-01,0.2700000107288361,0.26499998569488525,0.2700000107288361,0.2700000107288361,4816000
2018-08-02,0.2700000107288361,0.25,0.2549999952316284,0.2700000107288361,1072000
2018-08-03,0.2849999964237213,0.2750000059604645,0.2849999964237213,0.2800000011920929,1793600
2018-08-06,0.2849999964237213,0.2800000011920929,0.2800000011920929,0.2800000011920929,2592000
2018-08-07,0.2849999964237213,0.2700000107288361,0.2800000011920929,0.2800000011920929,22960000
2018-08-08,0.2849999964237213,0.2800000011920929,0.2849999964237213,0.2849999964237213,1088000
2018-08-09,0.2849999964237213,0.2750000059604645,0.2849999964237213,0.2849999964237213,1640000
2018-08-10,0.2800000011920929,0.2700000107288361,0.2700000107288361,0.2800000011920929,704000
2018-08-13,0.2800000011920929,0.2700000107288361,0.2700000107288361,0.2800000011920929,80000
2018-08-14,0.2750000059604645,0.2700000107288361,0.2700000107288361,0.2750000059604645,224000
2018-08-15,0.26499998569488525,0.25999999046325684,0.25999999046325684,0.25999999046325684,512000
2018-08-16,0.26499998569488525,0.25,0.25,0.2549999952316284,304000
2018-08-17,0.2549999952316284,0.2450000047683716,0.2549999952316284,0.25,944000
2018-08-20,0.2700000107288361,0.2489999979734421,0.2489999979734421,0.26499998569488525,344000
2018-08-21,0.26499998569488525,0.26499998569488525,0.26499998569488525,0.26499998569488525,0
2018-08-22,0.26499998569488525,0.25,0.2549999952316284,0.26499998569488525,168000
2018-08-23,0.2549999952316284,0.2549999952316284,0.2549999952316284,0.2549999952316284,80000
2018-08-24,0.2549999952316284,0.2549999952316284,0.2549999952316284,0.2549999952316284,480000
2018-08-27,0.25,0.2460000067949295,0.25,0.25,264000
2018-08-28,0.2489999979734421,0.239999994635582,0.2489999979734421,0.2430000007152557,304000
2018-08-29,0.239999994635582,0.2360000014305115,0.239999994635582,0.2360000014305115,176000
2018-08-30,0.24799999594688416,0.2440000027418137,0.2440000027418137,0.24799999594688416,160000
2018-08-31,0.2700000107288361,0.239999994635582,0.239999994635582,0.25999999046325684,11352000
2018-09-03,0.2750000059604645,0.2440000027418137,0.25,0.2549999952316284,12328000
2018-09-04,0.2700000107288361,0.2549999952316284,0.2549999952316284,0.26499998569488525,14000000
2018-09-05,0.26499998569488525,0.25,0.26499998569488525,0.2549999952316284,6680000
2018-09-06,0.26499998569488525,0.2549999952316284,0.2549999952316284,0.2549999952316284,17520000
2018-09-07,0.2549999952316284,0.239999994635582,0.2549999952316284,0.239999994635582,8976000
2018-09-10,0.239999994635582,0.22599999606609344,0.23000000417232516,0.22599999606609344,536000
2018-09-11,0.23000000417232516,0.22499999403953552,0.22499999403953552,0.2280000001192093,272000
2018-09-12,0.22499999403953552,0.22499999403953552,0.22499999403953552,0.22499999403953552,0
2018-09-13,0.22300000488758087,0.2160000056028366,0.2160000056028366,0.22300000488758087,624000
2018-09-14,0.2380000054836273,0.21699999272823334,0.2380000054836273,0.2179999947547913,408000
2018-09-17,0.2179999947547913,0.2179999947547913,0.2179999947547913,0.2179999947547913,0
2018-09-18,0.2179999947547913,0.2179999947547913,0.2179999947547913,0.2179999947547913,0
2018-09-19,0.2290000021457672,0.2150000035762787,0.2150000035762787,0.2240000069141388,352000
2018-09-20,0.2240000069141388,0.2240000069141388,0.2240000069141388,0.2240000069141388,0
2018-09-21,0.23000000417232516,0.210999995470047,0.2240000069141388,0.2150000035762787,832000
2018-09-24,0.2160000056028366,0.21199999749660486,0.2160000056028366,0.21199999749660486,544000
2018-09-26,0.21199999749660486,0.19900000095367432,0.21199999749660486,0.20000000298023224,872000
2018-09-27,0.20100000500679016,0.17800000309944153,0.20100000500679016,0.18700000643730166,3952000
2018-09-28,0.19499999284744265,0.18700000643730166,0.18700000643730166,0.1889999955892563,432000
2018-10-02,0.1889999955892563,0.18000000715255735,0.1889999955892563,0.1809999942779541,608000
2018-10-03,0.18700000643730166,0.18700000643730166,0.18700000643730166,0.18700000643730166,8000
2018-10-04,0.1850000023841858,0.17299999296665192,0.18000000715255735,0.1850000023841858,504000
2018-10-05,0.1850000023841858,0.1850000023841858,0.1809999942779541,0.1850000023841858,160000
2018-10-08,0.20100000500679016,0.18299999833106995,0.1899999976158142,0.19699999690055847,768000
2018-10-09,0.19499999284744265,0.19499999284744265,0.19499999284744265,0.19499999284744265,0
2018-10-10,0.19099999964237213,0.19099999964237213,0.19099999964237213,0.19099999964237213,112000
2018-10-11,0.1899999976158142,0.15000000596046448,0.1899999976158142,0.17499999701976776,904000
2018-10-12,0.16200000047683716,0.1599999964237213,0.1599999964237213,0.16200000047683716,1128000
2018-10-15,0.16200000047683716,0.16200000047683716,0.16200000047683716,0.16200000047683716,0
2018-10-16,0.15600000321865082,0.15600000321865082,0.15600000321865082,0.15600000321865082,0
2018-10-18,0.1599999964237213,0.1599999964237213,0.1599999964237213,0.1599999964237213,0
2018-10-19,0.1550000011920929,0.1550000011920929,0.1550000011920929,0.1550000011920929,56000
2018-10-22,0.15000000596046448,0.1430000066757202,0.15000000596046448,0.15000000596046448,672000
2018-10-23,0.15000000596046448,0.15000000596046448,0.15000000596046448,0.15000000596046448,0
2018-10-24,0.15000000596046448,0.15000000596046448,0.15000000596046448,0.15000000596046448,0
2018-10-25,0.14100000262260434,0.12999999523162842,0.13500000536441806,0.1330000013113022,432000
2018-10-26,0.1330000013113022,0.13199999928474426,0.1330000013113022,0.1330000013113022,648000
2018-10-29,0.1770000010728836,0.13899999856948853,0.13899999856948853,0.1770000010728836,736000
2018-10-30,0.20000000298023224,0.18000000715255735,0.19699999690055847,0.19900000095367432,824000
2018-10-31,0.2199999988079071,0.20000000298023224,0.2199999988079071,0.2179999947547913,680000
2018-11-01,0.2179999947547913,0.2179999947547913,0.2179999947547913,0.2179999947547913,448000
2018-11-02,0.2179999947547913,0.2179999947547913,0.2179999947547913,0.21699999272823334,176000
2018-11-05,0.22499999403953552,0.21699999272823334,0.21699999272823334,0.22499999403953552,216000
2018-11-06,0.22499999403953552,0.2240000069141388,0.2240000069141388,0.22499999403953552,272000
2018-11-07,0.23000000417232516,0.2199999988079071,0.22599999606609344,0.23000000417232516,160000
2018-11-08,0.23899999260902405,0.23000000417232516,0.23000000417232516,0.2380000054836273,304000
2018-11-09,0.23499999940395355,0.23499999940395355,0.23499999940395355,0.23499999940395355,0
2018-11-12,0.23000000417232516,0.23000000417232516,0.23000000417232516,0.2290000021457672,208000
2018-11-13,0.22699999809265134,0.193000003695488,0.193000003695488,0.22699999809265134,232000
2018-11-14,0.22599999606609344,0.22599999606609344,0.22599999606609344,0.22599999606609344,0
2018-11-15,0.22300000488758087,0.1940000057220459,0.20000000298023224,0.22300000488758087,304000
2018-11-16,0.2189999967813492,0.2189999967813492,0.2189999967813492,0.2189999967813492,0
2018-11-19,0.22599999606609344,0.2189999967813492,0.2189999967813492,0.22499999403953552,248000
2018-11-20,0.20499999821186066,0.20499999821186066,0.20499999821186066,0.20499999821186066,8000
2018-11-21,0.30000001192092896,0.20999999344348907,0.20999999344348907,0.239999994635582,624000
2018-11-22,0.23899999260902405,0.20499999821186066,0.20499999821186066,0.2199999988079071,64000
2018-11-23,0.2199999988079071,0.17000000178813934,0.20499999821186066,0.2199999988079071,27824000
2018-11-26,0.22100000083446505,0.20200000703334808,0.22100000083446505,0.2029999941587448,264000
2018-11-27,0.2489999979734421,0.17800000309944153,0.18299999833106995,0.2380000054836273,216000
2018-11-28,0.2150000035762787,0.21299999952316284,0.2150000035762787,0.21299999952316284,248000
2018-11-29,0.23000000417232516,0.20999999344348907,0.20999999344348907,0.2199999988079071,88000
2018-11-30,0.2199999988079071,0.2199999988079071,0.2199999988079071,0.2199999988079071,0
2018-12-03,0.2199999988079071,0.2199999988079071,0.2199999988079071,0.2199999988079071,0
2018-12-04,0.2150000035762787,0.2150000035762787,0.2150000035762787,0.2150000035762787,0
2018-12-05,0.23499999940395355,0.20000000298023224,0.20000000298023224,0.20000000298023224,504000
2018-12-06,0.20100000500679016,0.20000000298023224,0.20100000500679016,0.20000000298023224,176000
2018-12-07,0.20000000298023224,0.20000000298023224,0.20000000298023224,0.20000000298023224,0
2018-12-10,0.20000000298023224,0.1899999976158142,0.19499999284744265,0.20000000298023224,296000
2018-12-11,0.20999999344348907,0.1850000023841858,0.20999999344348907,0.20000000298023224,1888000
2018-12-12,0.24699999392032626,0.18700000643730166,0.20000000298023224,0.24699999392032626,1824000
2018-12-13,0.2419999986886978,0.2419999986886978,0.2419999986886978,0.2419999986886978,0
2018-12-14,0.22200000286102292,0.20000000298023224,0.2199999988079071,0.21699999272823334,1368000
2018-12-17,0.20999999344348907,0.20999999344348907,0.20999999344348907,0.20999999344348907,0
2018-12-18,0.2140000015497208,0.2140000015497208,0.2140000015497208,0.2140000015497208,8000
2018-12-19,0.21199999749660486,0.21199999749660486,0.21199999749660486,0.21199999749660486,0
2018-12-20,0.21199999749660486,0.19499999284744265,0.20000000298023224,0.21199999749660486,272000
2018-12-21,0.22200000286102292,0.19599999487400052,0.22200000286102292,0.20399999618530276,744000
2018-12-24,0.20399999618530276,0.18400000035762787,0.20399999618530276,0.20399999618530276,72000
2018-12-27,0.20600000023841855,0.20000000298023224,0.20000000298023224,0.20900000631809235,168000
2018-12-28,0.2199999988079071,0.20200000703334808,0.20999999344348907,0.2070000022649765,528000
2018-12-31,0.2199999988079071,0.19499999284744265,0.2150000035762787,0.20000000298023224,648000
2019-01-02,0.20000000298023224,0.20000000298023224,0.20000000298023224,0.20000000298023224,0
2019-01-03,0.20900000631809235,0.19499999284744265,0.19699999690055847,0.2080000042915344,560000
2019-01-04,0.20000000298023224,0.20000000298023224,0.20000000298023224,0.20000000298023224,0
2019-01-07,0.1979999989271164,0.1979999989271164,0.1979999989271164,0.19699999690055847,104000
2019-01-08,0.2029999941587448,0.18000000715255735,0.19699999690055847,0.19499999284744265,1872000
2019-01-09,0.19499999284744265,0.19499999284744265,0.19499999284744265,0.19499999284744265,0
2019-01-10,0.19499999284744265,0.17499999701976776,0.18000000715255735,0.19499999284744265,96000
2019-01-11,0.20399999618530276,0.19499999284744265,0.19499999284744265,0.20399999618530276,200000
2019-01-14,0.20999999344348907,0.20999999344348907,0.20999999344348907,0.20999999344348907,0
2019-01-15,0.2070000022649765,0.19499999284744265,0.19499999284744265,0.2070000022649765,16000
2019-01-16,0.20399999618530276,0.20399999618530276,0.20399999618530276,0.20399999618530276,0
2019-01-17,0.20499999821186066,0.20399999618530276,0.20399999618530276,0.20000000298023224,136000
2019-01-18,0.20000000298023224,0.20000000298023224,0.20000000298023224,0.20000000298023224,0
2019-01-21,0.20000000298023224,0.20000000298023224,0.20000000298023224,0.20000000298023224,0
2019-01-22,0.20900000631809235,0.20000000298023224,0.20000000298023224,0.20900000631809235,312000
2019-01-23,0.20999999344348907,0.20000000298023224,0.20100000500679016,0.20000000298023224,192000
2019-01-24,0.20000000298023224,0.20000000298023224,0.20000000298023224,0.20000000298023224,800000
2019-01-25,0.20999999344348907,0.2029999941587448,0.20999999344348907,0.2029999941587448,24000
2019-01-28,0.20000000298023224,0.20000000298023224,0.20000000298023224,0.20000000298023224,272000
2019-01-29,0.20999999344348907,0.1850000023841858,0.20200000703334808,0.19499999284744265,1080000
2019-01-30,0.19599999487400052,0.1899999976158142,0.1899999976158142,0.1899999976158142,808000
2019-01-31,0.19099999964237213,0.1899999976158142,0.19099999964237213,0.1899999976158142,112000
2019-02-01,0.1899999976158142,0.1899999976158142,0.1899999976158142,0.1899999976158142,0
2019-02-04,0.3149999976158142,0.19499999284744265,0.19499999284744265,0.30000001192092896,3048000
2019-02-08,0.23000000417232516,0.23000000417232516,0.23000000417232516,0.23000000417232516,0
2019-02-11,0.2849999964237213,0.2160000056028366,0.2160000056028366,0.239999994635582,248000
2019-02-12,0.2409999966621399,0.22300000488758087,0.23199999332427976,0.23000000417232516,424000
2019-02-13,0.23399999737739566,0.2199999988079071,0.23399999737739566,0.2199999988079071,312000
2019-02-14,0.2199999988079071,0.20499999821186066,0.20499999821186066,0.20900000631809235,128000
2019-02-15,0.23100000619888306,0.2150000035762787,0.2150000035762787,0.23000000417232516,688000
2019-02-18,0.239999994635582,0.2240000069141388,0.239999994635582,0.239999994635582,1640000
2019-02-19,0.26499998569488525,0.239999994635582,0.239999994635582,0.26499998569488525,2456000
2019-02-20,0.26499998569488525,0.239999994635582,0.26499998569488525,0.2549999952316284,1472000
2019-02-21,0.2800000011920929,0.2450000047683716,0.26499998569488525,0.25999999046325684,1496000
2019-02-22,0.30000001192092896,0.2549999952316284,0.2700000107288361,0.2899999916553497,4176000
2019-02-25,0.3050000071525574,0.2800000011920929,0.2899999916553497,0.2949999868869781,2572000
2019-02-26,0.36000001430511475,0.2899999916553497,0.2899999916553497,0.36000001430511475,5578400
2019-02-27,0.4149999916553497,0.3350000083446503,0.36000001430511475,0.375,12448000
2019-02-28,0.4000000059604645,0.3350000083446503,0.3849999904632568,0.3400000035762787,7744000
2019-03-01,0.3350000083446503,0.2899999916553497,0.3350000083446503,0.2899999916553497,3424000
2019-03-04,0.3400000035762787,0.2899999916553497,0.2899999916553497,0.3050000071525574,672000
2019-03-05,0.32499998807907104,0.3050000071525574,0.3100000023841858,0.3100000023841858,1328000
2019-03-06,0.32499998807907104,0.2949999868869781,0.3149999976158142,0.2949999868869781,400000
2019-03-07,0.2949999868869781,0.2899999916553497,0.2899999916553497,0.2949999868869781,280000
2019-03-08,0.30000001192092896,0.25999999046325684,0.2700000107288361,0.26499998569488525,1512000
2019-03-11,0.2849999964237213,0.2800000011920929,0.2849999964237213,0.2800000011920929,112000
2019-03-12,0.2800000011920929,0.25999999046325684,0.25999999046325684,0.2700000107288361,512000
2019-03-13,0.2800000011920929,0.2700000107288361,0.2700000107288361,0.2750000059604645,88000
2019-03-14,0.30000001192092896,0.2700000107288361,0.2700000107288361,0.30000001192092896,720000
2019-03-15,0.3400000035762787,0.2899999916553497,0.30000001192092896,0.3199999928474426,1768000
2019-03-18,0.3350000083446503,0.3199999928474426,0.3350000083446503,0.33000001311302185,384000
2019-03-19,0.3400000035762787,0.3149999976158142,0.32499998807907104,0.3350000083446503,472000
2019-03-20,0.3449999988079071,0.33000001311302185,0.3350000083446503,0.3350000083446503,3160000
2019-03-21,0.32499998807907104,0.2750000059604645,0.32499998807907104,0.30000001192092896,2352000
2019-03-22,0.30000001192092896,0.30000001192092896,0.30000001192092896,0.30000001192092896,104000
2019-03-25,0.30000001192092896,0.30000001192092896,0.30000001192092896,0.30000001192092896,0
2019-03-26,0.3050000071525574,0.2700000107288361,0.2700000107288361,0.2949999868869781,816000
2019-03-27,0.30000001192092896,0.2800000011920929,0.2800000011920929,0.30000001192092896,192000
2019-03-28,0.3149999976158142,0.3050000071525574,0.3050000071525574,0.3100000023841858,136000
2019-03-29,0.32499998807907104,0.25999999046325684,0.3199999928474426,0.3149999976158142,696000
2019-04-01,0.3100000023841858,0.2899999916553497,0.2949999868869781,0.3100000023841858,224000
2019-04-02,0.3100000023841858,0.3100000023841858,0.3100000023841858,0.3100000023841858,0
2019-04-03,0.3100000023841858,0.3100000023841858,0.3100000023841858,0.3100000023841858,0
2019-04-04,0.3100000023841858,0.3100000023841858,0.3100000023841858,0.3100000023841858,0
2019-04-08,0.3100000023841858,0.3100000023841858,0.3100000023841858,0.3100000023841858,0
2019-04-09,0.3100000023841858,0.3100000023841858,0.3100000023841858,0.3100000023841858,0
2019-04-10,0.3050000071525574,0.3050000071525574,0.3050000071525574,0.3050000071525574,0
2019-04-11,0.3100000023841858,0.2899999916553497,0.2949999868869781,0.2899999916553497,360000
2019-04-12,0.2849999964237213,0.2849999964237213,0.2849999964237213,0.2849999964237213,0
2019-04-15,0.2800000011920929,0.2800000011920929,0.2800000011920929,0.2800000011920929,120000
2019-04-16,0.2800000011920929,0.2800000011920929,0.2800000011920929,0.2800000011920929,0
2019-04-17,0.2800000011920929,0.2800000011920929,0.2800000011920929,0.2800000011920929,0
2019-04-18,0.2849999964237213,0.26499998569488525,0.2700000107288361,0.2849999964237213,136000
2019-04-23,0.2849999964237213,0.2849999964237213,0.2849999964237213,0.2849999964237213,0
2019-04-24,0.2849999964237213,0.26499998569488525,0.26499998569488525,0.2849999964237213,48000
2019-04-25,0.26499998569488525,0.25999999046325684,0.26499998569488525,0.25999999046325684,272000
2019-04-26,0.25999999046325684,0.25999999046325684,0.25999999046325684,0.25999999046325684,0
2019-04-29,0.3199999928474426,0.25999999046325684,0.25999999046325684,0.2949999868869781,256000
2019-04-30,0.2899999916553497,0.2899999916553497,0.2899999916553497,0.2899999916553497,0
2019-05-02,0.2800000011920929,0.2800000011920929,0.2800000011920929,0.2800000011920929,80000
2019-05-03,0.2700000107288361,0.2700000107288361,0.2700000107288361,0.2700000107288361,104000
2019-05-06,0.25999999046325684,0.25,0.25999999046325684,0.25999999046325684,248000
2019-05-07,0.2800000011920929,0.25,0.25,0.2800000011920929,248000
2019-05-08,0.25999999046325684,0.25,0.25999999046325684,0.25,88000
2019-05-09,0.2409999966621399,0.239999994635582,0.2409999966621399,0.239999994635582,112000
2019-05-10,0.239999994635582,0.239999994635582,0.239999994635582,0.239999994635582,0
2019-05-14,0.239999994635582,0.239999994635582,0.239999994635582,0.239999994635582,0
2019-05-15,0.239999994635582,0.239999994635582,0.239999994635582,0.239999994635582,0
2019-05-16,0.25,0.2199999988079071,0.25,0.23000000417232516,64000
2019-05-17,0.2199999988079071,0.18000000715255735,0.2199999988079071,0.2080000042915344,112000
2019-05-20,0.20499999821186066,0.18000000715255735,0.20000000298023224,0.1850000023841858,112000
2019-05-21,0.2700000107288361,0.19499999284744265,0.19499999284744265,0.25999999046325684,1464000
2019-05-22,0.3100000023841858,0.2700000107288361,0.2949999868869781,0.2949999868869781,1304000
2019-05-23,0.2849999964237213,0.2700000107288361,0.2800000011920929,0.2849999964237213,656000
2019-05-24,0.3050000071525574,0.2700000107288361,0.2849999964237213,0.2899999916553497,2728000
2019-05-27,0.2700000107288361,0.2549999952316284,0.2700000107288361,0.2549999952316284,472000
2019-05-28,0.26499998569488525,0.26499998569488525,0.26499998569488525,0.26499998569488525,0
2019-05-29,0.2800000011920929,0.26499998569488525,0.26499998569488525,0.2750000059604645,64000
2019-05-30,0.2800000011920929,0.2750000059604645,0.2750000059604645,0.2750000059604645,1944000
2019-05-31,0.2849999964237213,0.2700000107288361,0.2800000011920929,0.2750000059604645,1064000
2019-06-03,0.2849999964237213,0.2700000107288361,0.2700000107288361,0.2849999964237213,64000
2019-06-04,0.2849999964237213,0.2849999964237213,0.2849999964237213,0.2849999964237213,0
2019-06-05,0.3050000071525574,0.25,0.25,0.30000001192092896,200000
2019-06-06,0.30000001192092896,0.30000001192092896,0.30000001192092896,0.30000001192092896,0
2019-06-10,0.30000001192092896,0.30000001192092896,0.30000001192092896,0.30000001192092896,80000
2019-06-11,0.2899999916553497,0.2899999916553497,0.2899999916553497,0.2899999916553497,0
2019-06-12,0.2899999916553497,0.2899999916553497,0.2899999916553497,0.2899999916553497,0
2019-06-13,0.2700000107288361,0.25999999046325684,0.2700000107288361,0.25999999046325684,40000
2019-06-14,0.25999999046325684,0.25999999046325684,0.25999999046325684,0.25999999046325684,0
2019-06-17,0.2700000107288361,0.2700000107288361,0.2700000107288361,0.2700000107288361,0
2019-06-18,0.2700000107288361,0.2700000107288361,0.2700000107288361,0.2700000107288361,0
2019-06-19,0.2899999916553497,0.2700000107288361,0.2700000107288361,0.2899999916553497,312000
2019-06-20,0.30000001192092896,0.25999999046325684,0.2899999916553497,0.30000001192092896,2144000
2019-06-21,0.32499998807907104,0.26499998569488525,0.30000001192092896,0.2800000011920929,6768000
2019-06-24,0.3199999928474426,0.25999999046325684,0.2849999964237213,0.3199999928474426,6176000
2019-06-25,0.3799999952316284,0.2949999868869781,0.33000001311302185,0.3799999952316284,15192000
2019-06-26,0.375,0.3499999940395355,0.375,0.3499999940395355,2008000
2019-06-27,0.3650000095367432,0.30000001192092896,0.3650000095367432,0.3400000035762787,5648000
2019-06-28,0.36000001430511475,0.2949999868869781,0.3499999940395355,0.3050000071525574,6696000
2019-07-02,0.3499999940395355,0.07500000298023224,0.2899999916553497,0.15199999511241913,118104000
2019-07-03,0.181999996304512,0.15199999511241913,0.15199999511241913,0.17000000178813934,12504000
2019-07-04,0.17599999904632568,0.15000000596046448,0.17499999701976776,0.1509999930858612,3672000
2019-07-05,0.17000000178813934,0.15199999511241913,0.17000000178813934,0.15600000321865082,2088000
2019-07-08,0.15199999511241913,0.1379999965429306,0.15199999511241913,0.14100000262260434,1848000
2019-07-09,0.15000000596046448,0.11400000005960464,0.14100000262260434,0.1289999932050705,2536000
2019-07-10,0.119999997317791,0.10199999809265137,0.119999997317791,0.119999997317791,6520000
2019-07-11,0.119999997317791,0.10999999940395357,0.119999997317791,0.11299999803304672,1888000
2019-07-12,0.12300000339746475,0.1040000021457672,0.11299999803304672,0.11800000071525575,9848000
2019-07-15,0.11800000071525575,0.1120000034570694,0.1120000034570694,0.11800000071525575,128000
2019-07-16,0.11800000071525575,0.10000000149011612,0.1120000034570694,0.11800000071525575,10808000
2019-07-17,0.12700000405311584,0.11100000143051147,0.11800000071525575,0.12200000137090684,392000
2019-07-18,0.12200000137090684,0.12099999934434892,0.12200000137090684,0.12099999934434892,48000
2019-07-19,0.125,0.11500000208616255,0.11500000208616255,0.11800000071525575,576000
2019-07-22,0.125,0.1169999986886978,0.1169999986886978,0.12399999797344208,168000
2019-07-23,0.14000000059604645,0.12999999523162842,0.12999999523162842,0.14000000059604645,2272000
2019-07-24,0.1379999965429306,0.1379999965429306,0.1379999965429306,0.1379999965429306,16000
2019-07-25,0.12999999523162842,0.12999999523162842,0.12999999523162842,0.12999999523162842,16000
2019-07-26,0.12200000137090684,0.11500000208616255,0.12200000137090684,0.11500000208616255,688000
2019-07-29,0.11500000208616255,0.10599999874830246,0.10899999737739564,0.11500000208616255,1832000
2019-07-30,0.12099999934434892,0.10700000077486037,0.10899999737739564,0.12099999934434892,472000
2019-07-31,0.11100000143051147,0.10599999874830246,0.11100000143051147,0.10700000077486037,320000
2019-08-01,0.10599999874830246,0.10599999874830246,0.10599999874830246,0.10599999874830246,0
2019-08-02,0.1120000034570694,0.1040000021457672,0.1040000021457672,0.1120000034570694,224000
2019-08-05,0.10199999809265137,0.10100000351667404,0.10199999809265137,0.1040000021457672,736000
2019-08-06,0.10300000011920928,0.10199999809265137,0.10199999809265137,0.10199999809265137,512000
2019-08-07,0.10100000351667404,0.10000000149011612,0.10100000351667404,0.10000000149011612,192000
2019-08-08,0.10199999809265137,0.10199999809265137,0.10199999809265137,0.10199999809265137,0
2019-08-09,0.10599999874830246,0.10499999672174454,0.10499999672174454,0.10599999874830246,16000
2019-08-12,0.10100000351667404,0.10000000149011612,0.10100000351667404,0.10000000149011612,136000
2019-08-13,0.1120000034570694,0.10000000149011612,0.10000000149011612,0.1120000034570694,224000
2019-08-14,0.1120000034570694,0.0949999988079071,0.1120000034570694,0.0989999994635582,64000
2019-08-15,0.10000000149011612,0.10000000149011612,0.10000000149011612,0.10000000149011612,0
2019-08-16,0.1080000028014183,0.10599999874830246,0.10599999874830246,0.1080000028014183,440000
2019-08-19,0.12999999523162842,0.11299999803304672,0.11500000208616255,0.12999999523162842,504000
2019-08-20,0.12999999523162842,0.12999999523162842,0.12999999523162842,0.12999999523162842,152000
2019-08-21,0.12999999523162842,0.12300000339746475,0.12800000607967374,0.12300000339746475,656000
2019-08-22,0.14800000190734866,0.12800000607967374,0.13500000536441806,0.1289999932050705,920000
2019-08-23,0.1469999998807907,0.13899999856948853,0.14000000059604645,0.1420000046491623,2152000
2019-08-26,0.18000000715255735,0.13899999856948853,0.13899999856948853,0.1679999977350235,4456000
2019-08-27,0.16899999976158142,0.16599999368190765,0.16599999368190765,0.16899999976158142,720000
2019-08-28,0.16899999976158142,0.16599999368190765,0.16899999976158142,0.16599999368190765,512000
2019-08-29,0.17499999701976776,0.15000000596046448,0.15000000596046448,0.17499999701976776,472000
2019-08-30,0.19900000095367432,0.17000000178813934,0.1770000010728836,0.18000000715255735,2048000
2019-09-02,0.25,0.1850000023841858,0.1850000023841858,0.2450000047683716,6632000
2019-09-03,0.2450000047683716,0.23499999940395355,0.239999994635582,0.23499999940395355,1664000
2019-09-04,0.26499998569488525,0.23000000417232516,0.2419999986886978,0.2430000007152557,12472000
2019-09-05,0.2489999979734421,0.2199999988079071,0.2489999979734421,0.2199999988079071,352000
2019-09-06,0.2150000035762787,0.20499999821186066,0.2150000035762787,0.20900000631809235,32000
2019-09-09,0.193000003695488,0.17900000512599945,0.193000003695488,0.19200000166893005,704000
2019-09-10,0.17399999499320984,0.1550000011920929,0.17800000309944153,0.17399999499320984,672000
2019-09-11,0.20999999344348907,0.17599999904632568,0.17599999904632568,0.18400000035762787,672000
2019-09-12,0.19900000095367432,0.18400000035762787,0.18400000035762787,0.19900000095367432,64000
2019-09-13,0.17299999296665192,0.17000000178813934,0.17000000178813934,0.19099999964237213,312000
2019-09-16,0.19099999964237213,0.19099999964237213,0.19099999964237213,0.19099999964237213,0
2019-09-17,0.2029999941587448,0.2029999941587448,0.2029999941587448,0.20200000703334808,48000
2019-09-18,0.20000000298023224,0.19900000095367432,0.19900000095367432,0.19900000095367432,488000
2019-09-19,0.19900000095367432,0.19900000095367432,0.19900000095367432,0.19900000095367432,0
2019-09-20,0.20999999344348907,0.1940000057220459,0.19900000095367432,0.20999999344348907,200000
2019-09-23,0.25999999046325684,0.2199999988079071,0.2199999988079071,0.23000000417232516,2216000
2019-09-24,0.25999999046325684,0.2199999988079071,0.2280000001192093,0.2549999952316284,4136000
2019-09-25,0.25,0.22100000083446505,0.22100000083446505,0.2450000047683716,4248000
2019-09-26,0.25,0.23100000619888306,0.23100000619888306,0.25,360000
2019-09-27,0.2700000107288361,0.25,0.25,0.26499998569488525,1016000
2019-09-30,0.25999999046325684,0.25,0.2549999952316284,0.25999999046325684,152000
2019-10-02,0.25999999046325684,0.23000000417232516,0.25999999046325684,0.23000000417232516,256000
2019-10-03,0.25999999046325684,0.2450000047683716,0.2450000047683716,0.2549999952316284,152000
2019-10-04,0.2549999952316284,0.23000000417232516,0.2549999952316284,0.2549999952316284,496000
2019-10-08,0.2549999952316284,0.239999994635582,0.239999994635582,0.2549999952316284,344000
2019-10-09,0.25999999046325684,0.2549999952316284,0.25999999046325684,0.2549999952316284,928000
2019-10-10,0.25999999046325684,0.25999999046325684,0.25999999046325684,0.25999999046325684,0
2019-10-11,0.25999999046325684,0.25999999046325684,0.25999999046325684,0.25999999046325684,0
2019-10-14,0.2549999952316284,0.23000000417232516,0.23499999940395355,0.2549999952316284,552000
2019-10-15,0.2549999952316284,0.2549999952316284,0.2549999952316284,0.2549999952316284,0
2019-10-16,0.25,0.23000000417232516,0.23000000417232516,0.239999994635582,80000
2019-10-17,0.239999994635582,0.239999994635582,0.239999994635582,0.239999994635582,0
2019-10-18,0.2549999952316284,0.23499999940395355,0.23499999940395355,0.25,272000
2019-10-21,0.239999994635582,0.23000000417232516,0.23000000417232516,0.239999994635582,72000
2019-10-22,0.239999994635582,0.239999994635582,0.239999994635582,0.239999994635582,0
2019-10-23,0.23000000417232516,0.23000000417232516,0.23000000417232516,0.239999994635582,8000
2019-10-24,0.2450000047683716,0.2450000047683716,0.2450000047683716,0.2450000047683716,0
2019-10-25,0.2489999979734421,0.23499999940395355,0.23499999940395355,0.2489999979734421,248000
2019-10-28,0.2489999979734421,0.2489999979734421,0.2489999979734421,0.2489999979734421,0
2019-10-29,0.25,0.25,0.25,0.25,0
2019-10-30,0.25,0.25,0.25,0.25,0
2019-10-31,0.2489999979734421,0.2489999979734421,0.2489999979734421,0.2489999979734421,0
2019-11-01,0.2489999979734421,0.2489999979734421,0.2489999979734421,0.2489999979734421,0
2019-11-04,0.239999994635582,0.239999994635582,0.239999994635582,0.239999994635582,0
2019-11-05,0.239999994635582,0.23000000417232516,0.23000000417232516,0.239999994635582,296000
2019-11-06,0.239999994635582,0.239999994635582,0.239999994635582,0.239999994635582,0
2019-11-07,0.239999994635582,0.2199999988079071,0.2199999988079071,0.239999994635582,112000
2019-11-08,0.23499999940395355,0.23499999940395355,0.23499999940395355,0.23499999940395355,0
2019-11-11,0.23499999940395355,0.23499999940395355,0.23499999940395355,0.23499999940395355,0
2019-11-12,0.23499999940395355,0.23499999940395355,0.23499999940395355,0.23499999940395355,0
2019-11-13,0.23000000417232516,0.23000000417232516,0.23000000417232516,0.23000000417232516,0
2019-11-14,0.23399999737739566,0.2150000035762787,0.2150000035762787,0.23399999737739566,256000
2019-11-15,0.23499999940395355,0.2150000035762787,0.2199999988079071,0.23499999940395355,704000
2019-11-18,0.22100000083446505,0.2140000015497208,0.22100000083446505,0.2140000015497208,232000
2019-11-19,0.2290000021457672,0.20399999618530276,0.20399999618530276,0.2290000021457672,208000
2019-11-20,0.2450000047683716,0.2290000021457672,0.2290000021457672,0.2450000047683716,1088000
2019-11-21,0.23100000619888306,0.23000000417232516,0.23100000619888306,0.23000000417232516,328000
2019-11-22,0.23000000417232516,0.23000000417232516,0.23000000417232516,0.23000000417232516,0
2019-11-25,0.2290000021457672,0.2290000021457672,0.2290000021457672,0.2290000021457672,56000
2019-11-26,0.2290000021457672,0.2290000021457672,0.2290000021457672,0.2290000021457672,0
2019-11-27,0.2290000021457672,0.2290000021457672,0.2290000021457672,0.2290000021457672,0
2019-11-28,0.239999994635582,0.2199999988079071,0.2290000021457672,0.239999994635582,2008000
2019-11-29,0.239999994635582,0.239999994635582,0.239999994635582,0.239999994635582,0
2019-12-02,0.239999994635582,0.239999994635582,0.239999994635582,0.239999994635582,0
2019-12-03,0.2750000059604645,0.25999999046325684,0.2750000059604645,0.2549999952316284,136000
2019-12-04,0.25,0.25,0.25,0.25,0
2019-12-05,0.25,0.25,0.25,0.25,0
2019-12-06,0.2450000047683716,0.2450000047683716,0.2450000047683716,0.2450000047683716,0
2019-12-09,0.239999994635582,0.239999994635582,0.239999994635582,0.239999994635582,616000
2019-12-10,0.239999994635582,0.239999994635582,0.239999994635582,0.239999994635582,0
2019-12-11,0.23000000417232516,0.23000000417232516,0.23000000417232516,0.23000000417232516,0
2019-12-12,0.23000000417232516,0.23000000417232516,0.23000000417232516,0.23000000417232516,0
2019-12-13,0.23000000417232516,0.23000000417232516,0.23000000417232516,0.23000000417232516,0
2019-12-16,0.23000000417232516,0.23000000417232516,0.23000000417232516,0.23000000417232516,0
2019-12-17,0.23000000417232516,0.23000000417232516,0.23000000417232516,0.23000000417232516,0
2019-12-18,0.23000000417232516,0.23000000417232516,0.23000000417232516,0.23000000417232516,0
2019-12-19,0.23000000417232516,0.23000000417232516,0.23000000417232516,0.23000000417232516,0
2019-12-20,0.239999994635582,0.239999994635582,0.23000000417232516,0.23000000417232516,8000
2019-12-23,0.23000000417232516,0.23000000417232516,0.23000000417232516,0.23000000417232516,0
2019-12-24,0.23000000417232516,0.23000000417232516,0.23000000417232516,0.23000000417232516,0
2019-12-27,0.23000000417232516,0.23000000417232516,0.23000000417232516,0.23000000417232516,0
2019-12-30,0.239999994635582,0.23000000417232516,0.23000000417232516,0.239999994635582,120000
2019-12-31,0.239999994635582,0.239999994635582,0.239999994635582,0.239999994635582,0
2020-01-02,0.239999994635582,0.239999994635582,0.239999994635582,0.239999994635582,0
2020-01-03,0.239999994635582,0.239999994635582,0.239999994635582,0.239999994635582,0
2020-01-06,0.239999994635582,0.239999994635582,0.239999994635582,0.239999994635582,0
2020-01-07,0.239999994635582,0.239999994635582,0.239999994635582,0.239999994635582,0
2020-01-08,0.239999994635582,0.239999994635582,0.239999994635582,0.239999994635582,0
2020-01-09,0.239999994635582,0.239999994635582,0.239999994635582,0.239999994635582,0
2020-01-10,0.239999994635582,0.239999994635582,0.239999994635582,0.239999994635582,0
2020-01-13,0.239999994635582,0.239999994635582,0.239999994635582,0.239999994635582,0
2020-01-14,0.239999994635582,0.239999994635582,0.239999994635582,0.239999994635582,0
2020-01-15,0.239999994635582,0.239999994635582,0.239999994635582,0.239999994635582,0
2020-01-16,0.239999994635582,0.239999994635582,0.239999994635582,0.239999994635582,0
2020-01-17,0.20999999344348907,0.20999999344348907,0.20999999344348907,0.20999999344348907,0
2020-01-20,0.20900000631809235,0.20900000631809235,0.20900000631809235,0.20900000631809235,0
2020-01-21,0.20900000631809235,0.20900000631809235,0.20900000631809235,0.20900000631809235,0
2020-01-22,0.20900000631809235,0.20900000631809235,0.20900000631809235,0.20900000631809235,0
2020-01-23,0.20900000631809235,0.20900000631809235,0.20900000631809235,0.20900000631809235,0
2020-01-24,0.20900000631809235,0.20900000631809235,0.20900000631809235,0.20900000631809235,0
2020-01-29,0.20000000298023224,0.20000000298023224,0.20000000298023224,0.20000000298023224,0
2020-01-30,0.239999994635582,0.21199999749660486,0.21199999749660486,0.239999994635582,240000
2020-01-31,0.239999994635582,0.239999994635582,0.239999994635582,0.239999994635582,0
2020-02-03,0.239999994635582,0.239999994635582,0.239999994635582,0.239999994635582,0
2020-02-04,0.239999994635582,0.239999994635582,0.239999994635582,0.239999994635582,0
2020-02-05,0.23000000417232516,0.23000000417232516,0.23000000417232516,0.23000000417232516,0
2020-02-06,0.23000000417232516,0.23000000417232516,0.23000000417232516,0.23000000417232516,0
2020-02-07,0.23000000417232516,0.23000000417232516,0.23000000417232516,0.23000000417232516,0
2020-02-10,0.2199999988079071,0.2199999988079071,0.2199999988079071,0.2199999988079071,0
2020-02-11,0.20999999344348907,0.20999999344348907,0.20999999344348907,0.20999999344348907,24000
2020-02-12,0.23000000417232516,0.23000000417232516,0.23000000417232516,0.23000000417232516,0
2020-02-13,0.23399999737739566,0.23199999332427976,0.23399999737739566,0.23199999332427976,40000
2020-02-14,0.22200000286102292,0.20000000298023224,0.22200000286102292,0.20000000298023224,312000
2020-02-17,0.20000000298023224,0.20000000298023224,0.20000000298023224,0.20000000298023224,0
2020-02-18,0.20000000298023224,0.20000000298023224,0.20000000298023224,0.20000000298023224,0
2020-02-19,0.20000000298023224,0.20000000298023224,0.20000000298023224,0.20000000298023224,0
2020-02-20,0.20000000298023224,0.20000000298023224,0.20000000298023224,0.20000000298023224,24000
2020-02-21,0.20000000298023224,0.20000000298023224,0.20000000298023224,0.20000000298023224,0
2020-02-24,0.20000000298023224,0.20000000298023224,0.20000000298023224,0.20000000298023224,0
2020-02-25,0.20000000298023224,0.20000000298023224,0.20000000298023224,0.20000000298023224,0
2020-02-26,0.1899999976158142,0.1899999976158142,0.1899999976158142,0.1899999976158142,88000
2020-02-27,0.23000000417232516,0.23000000417232516,0.23000000417232516,0.23000000417232516,16000
2020-02-28,0.23000000417232516,0.23000000417232516,0.23000000417232516,0.23000000417232516,0
2020-03-02,0.23000000417232516,0.23000000417232516,0.23000000417232516,0.23000000417232516,0
2020-03-03,0.23000000417232516,0.23000000417232516,0.23000000417232516,0.23000000417232516,0
2020-03-04,0.2280000001192093,0.2280000001192093,0.2280000001192093,0.2280000001192093,0
2020-03-05,0.22499999403953552,0.22499999403953552,0.22499999403953552,0.22499999403953552,0
2020-03-06,0.2199999988079071,0.2199999988079071,0.2199999988079071,0.2199999988079071,0
2020-03-09,0.2199999988079071,0.2199999988079071,0.2199999988079071,0.2199999988079071,0
2020-03-10,0.20999999344348907,0.20999999344348907,0.20999999344348907,0.20999999344348907,0
2020-03-11,0.20999999344348907,0.20999999344348907,0.20999999344348907,0.20999999344348907,0
2020-03-12,0.1899999976158142,0.1899999976158142,0.1899999976158142,0.1879999935626984,16000
2020-03-13,0.16500000655651093,0.1599999964237213,0.16500000655651093,0.164000004529953,48000
2020-03-16,0.2280000001192093,0.16099999845027926,0.16099999845027926,0.2199999988079071,352000
2020-03-17,0.2199999988079071,0.2199999988079071,0.2199999988079071,0.2199999988079071,0
2020-03-18,0.2179999947547913,0.2179999947547913,0.2179999947547913,0.2179999947547913,0
2020-03-19,0.1850000023841858,0.1850000023841858,0.1850000023841858,0.1850000023841858,0
2020-03-20,0.1850000023841858,0.1850000023841858,0.1850000023841858,0.1850000023841858,0
2020-03-23,0.1850000023841858,0.1850000023841858,0.1850000023841858,0.1850000023841858,0
2020-03-24,0.1850000023841858,0.1850000023841858,0.1850000023841858,0.1850000023841858,0
2020-03-25,0.1850000023841858,0.1850000023841858,0.1850000023841858,0.1850000023841858,0
2020-03-26,0.1850000023841858,0.1850000023841858,0.1850000023841858,0.1850000023841858,0
2020-03-27,0.1850000023841858,0.1850000023841858,0.1850000023841858,0.1850000023841858,0
2020-03-30,0.1850000023841858,0.1850000023841858,0.1850000023841858,0.1850000023841858,0
2020-03-31,0.19699999690055847,0.18299999833106995,0.18299999833106995,0.19699999690055847,112000
2020-04-01,0.19599999487400052,0.19599999487400052,0.19599999487400052,0.19599999487400052,0
2020-04-02,0.19599999487400052,0.19599999487400052,0.19599999487400052,0.19599999487400052,0
2020-04-03,0.18000000715255735,0.18000000715255735,0.18000000715255735,0.18000000715255735,0
2020-04-06,0.18000000715255735,0.18000000715255735,0.18000000715255735,0.18000000715255735,0
2020-04-07,0.16200000047683716,0.11500000208616255,0.1379999965429306,0.1469999998807907,984000
2020-04-08,0.181999996304512,0.10100000351667404,0.12999999523162842,0.17499999701976776,1736000
2020-04-09,0.1850000023841858,0.125,0.1550000011920929,0.1599999964237213,4176000
2020-04-14,0.15700000524520874,0.14499999582767487,0.1550000011920929,0.14800000190734866,376000
2020-04-15,0.14800000190734866,0.13500000536441806,0.14100000262260434,0.14100000262260434,608000
2020-04-16,0.15700000524520874,0.12700000405311584,0.12700000405311584,0.13899999856948853,11776000
2020-04-17,0.17399999499320984,0.13899999856948853,0.14000000059604645,0.15000000596046448,6656000
2020-04-20,0.17800000309944153,0.15199999511241913,0.15199999511241913,0.17800000309944153,4400000
2020-04-21,0.20100000500679016,0.17800000309944153,0.17800000309944153,0.18000000715255735,5960000
2020-04-22,0.19900000095367432,0.17000000178813934,0.17000000178813934,0.19900000095367432,1560000
2020-04-23,0.2070000022649765,0.1809999942779541,0.1809999942779541,0.1879999935626984,1968000
2020-04-24,0.20399999618530276,0.17000000178813934,0.1879999935626984,0.1809999942779541,3832000
2020-04-27,0.19200000166893005,0.17100000381469727,0.17100000381469727,0.17599999904632568,1096000
2020-04-28,0.1809999942779541,0.16500000655651093,0.1770000010728836,0.1770000010728836,248000
2020-04-29,0.18400000035762787,0.15399999916553495,0.17100000381469727,0.18400000035762787,5408000
2020-05-04,0.1809999942779541,0.15600000321865082,0.1720000058412552,0.17100000381469727,2960000
2020-05-05,0.19099999964237213,0.16099999845027926,0.16099999845027926,0.17499999701976776,4072000
2020-05-06,0.193000003695488,0.1720000058412552,0.1720000058412552,0.18400000035762787,928000
2020-05-07,0.19699999690055847,0.1679999977350235,0.19699999690055847,0.17599999904632568,2592000
2020-05-08,0.17599999904632568,0.17599999904632568,0.17599999904632568,0.17599999904632568,40000
2020-05-11,0.18299999833106995,0.16599999368190765,0.16899999976158142,0.17599999904632568,1000000
2020-05-12,0.18700000643730166,0.16500000655651093,0.17599999904632568,0.17100000381469727,3248000
2020-05-13,0.1770000010728836,0.16500000655651093,0.17100000381469727,0.16500000655651093,1248000
2020-05-14,0.17399999499320984,0.1589999943971634,0.17299999296665192,0.1720000058412552,2232000
2020-05-15,0.1720000058412552,0.15700000524520874,0.1599999964237213,0.17000000178813934,488000
2020-05-18,0.17000000178813934,0.16200000047683716,0.17000000178813934,0.16200000047683716,376000
2020-05-19,0.16699999570846558,0.16099999845027926,0.16200000047683716,0.16699999570846558,144000
2020-05-20,0.17499999701976776,0.17499999701976776,0.17499999701976776,0.17499999701976776,0
2020-05-21,0.17800000309944153,0.16300000250339508,0.17499999701976776,0.1679999977350235,280000
2020-05-22,0.17499999701976776,0.15299999713897705,0.16200000047683716,0.17299999296665192,1776000
2020-05-25,0.17000000178813934,0.16300000250339508,0.16300000250339508,0.17000000178813934,48000
2020-05-26,0.17599999904632568,0.15600000321865082,0.15600000321865082,0.17599999904632568,328000
2020-05-27,0.17100000381469727,0.17100000381469727,0.17100000381469727,0.17100000381469727,0
2020-05-28,0.17100000381469727,0.17100000381469727,0.17100000381469727,0.17100000381469727,0
2020-05-29,0.17499999701976776,0.1599999964237213,0.16099999845027926,0.17499999701976776,752000
2020-06-01,0.16099999845027926,0.16099999845027926,0.16099999845027926,0.16099999845027926,0
2020-06-02,0.16099999845027926,0.16099999845027926,0.16099999845027926,0.16099999845027926,0
2020-06-03,0.16200000047683716,0.1550000011920929,0.15600000321865082,0.16200000047683716,352000
2020-06-04,0.17599999904632568,0.17000000178813934,0.15800000727176666,0.17599999904632568,576000
2020-06-05,0.2199999988079071,0.17599999904632568,0.17599999904632568,0.2199999988079071,664000
2020-06-08,0.2189999967813492,0.2189999967813492,0.2189999967813492,0.2189999967813492,0
2020-06-09,0.19900000095367432,0.18000000715255735,0.18299999833106995,0.18000000715255735,440000
2020-06-10,0.2199999988079071,0.1720000058412552,0.19499999284744265,0.2199999988079071,5176000
2020-06-11,0.2150000035762787,0.059999998658895486,0.20999999344348907,0.08699999749660492,292344000
2020-06-12,0.09000000357627869,0.0729999989271164,0.08699999749660492,0.08299999684095383,18472000
2020-06-15,0.08900000154972076,0.07500000298023224,0.07800000160932541,0.08500000089406967,7528000
2020-06-16,0.08399999886751175,0.07900000363588333,0.08399999886751175,0.07900000363588333,2432000
2020-06-17,0.08100000023841858,0.07699999958276749,0.07800000160932541,0.08100000023841858,1160000
2020-06-18,0.07699999958276749,0.0729999989271164,0.07699999958276749,0.07699999958276749,1360000
2020-06-19,0.07699999958276749,0.07100000232458115,0.07400000095367433,0.07500000298023224,2312000
2020-06-22,0.07400000095367433,0.07000000029802322,0.0729999989271164,0.07400000095367433,656000
2020-06-23,0.07400000095367433,0.07000000029802322,0.07000000029802322,0.07400000095367433,1072000
2020-06-24,0.08900000154972076,0.0729999989271164,0.0729999989271164,0.08900000154972076,6392000
2020-06-26,0.08900000154972076,0.0820000022649765,0.08900000154972076,0.0860000029206276,880000
2020-06-29,0.07999999821186066,0.07800000160932541,0.07999999821186066,0.07800000160932541,232000
2020-06-30,0.07800000160932541,0.07599999755620956,0.07800000160932541,0.07800000160932541,72000
2020-07-02,0.07599999755620956,0.07599999755620956,0.07599999755620956,0.07599999755620956,200000
2020-07-03,0.07400000095367433,0.06599999964237213,0.07100000232458115,0.07100000232458115,2880000
2020-07-06,0.07999999821186066,0.07100000232458115,0.07999999821186066,0.07100000232458115,480000
2020-07-07,0.07599999755620956,0.07100000232458115,0.07100000232458115,0.07199999690055847,338000
2020-07-08,0.07599999755620956,0.07500000298023224,0.07199999690055847,0.07599999755620956,424000
2020-07-09,0.07999999821186066,0.07599999755620956,0.07599999755620956,0.07900000363588333,1472000
2020-07-10,0.0729999989271164,0.07100000232458115,0.0729999989271164,0.07199999690055847,200000
2020-07-13,0.07900000363588333,0.07000000029802322,0.07199999690055847,0.07100000232458115,7552000
2020-07-14,0.08399999886751175,0.07100000232458115,0.07100000232458115,0.07699999958276749,520000
2020-07-15,0.0820000022649765,0.07199999690055847,0.07599999755620956,0.07400000095367433,928000
2020-07-16,0.0729999989271164,0.07100000232458115,0.0729999989271164,0.07100000232458115,1640000
2020-07-17,0.08399999886751175,0.07100000232458115,0.07599999755620956,0.0729999989271164,7376000
2020-07-20,0.08399999886751175,0.07699999958276749,0.07699999958276749,0.07900000363588333,494000
2020-07-21,0.07699999958276749,0.07400000095367433,0.07699999958276749,0.07599999755620956,520000
2020-07-22,0.07599999755620956,0.07599999755620956,0.07599999755620956,0.07599999755620956,1088000
2020-07-23,0.07800000160932541,0.07699999958276749,0.07699999958276749,0.07800000160932541,840000
2020-07-24,0.07500000298023224,0.07000000029802322,0.07100000232458115,0.07500000298023224,760000
2020-07-27,0.07500000298023224,0.07500000298023224,0.07500000298023224,0.07500000298023224,0
2020-07-28,0.07500000298023224,0.07500000298023224,0.07500000298023224,0.07500000298023224,0
2020-07-29,0.07500000298023224,0.07500000298023224,0.07500000298023224,0.07500000298023224,616000
2020-07-30,0.07500000298023224,0.07500000298023224,0.07500000298023224,0.07500000298023224,440000
2020-07-31,0.07500000298023224,0.06199999898672104,0.07100000232458115,0.07400000095367433,4432000
2020-08-03,0.07400000095367433,0.07000000029802322,0.07199999690055847,0.07400000095367433,232000
2020-08-04,0.08900000154972076,0.07500000298023224,0.07500000298023224,0.07500000298023224,4224000
2020-08-05,0.08299999684095383,0.07000000029802322,0.07599999755620956,0.07800000160932541,1400000
2020-08-06,0.07800000160932541,0.0729999989271164,0.07500000298023224,0.07800000160932541,1072000
2020-08-07,0.07500000298023224,0.0729999989271164,0.07500000298023224,0.0729999989271164,472000
2020-08-10,0.07599999755620956,0.07000000029802322,0.0729999989271164,0.07500000298023224,2640000
2020-08-11,0.07800000160932541,0.0729999989271164,0.07400000095367433,0.07400000095367433,104000
2020-08-12,0.09000000357627869,0.07400000095367433,0.07800000160932541,0.07400000095367433,10272000
2020-08-13,0.07400000095367433,0.07400000095367433,0.07400000095367433,0.07400000095367433,288000
2020-08-14,0.07400000095367433,0.07400000095367433,0.07400000095367433,0.07400000095367433,0
2020-08-17,0.07400000095367433,0.07400000095367433,0.07400000095367433,0.07400000095367433,0
2020-08-18,0.07500000298023224,0.07400000095367433,0.07400000095367433,0.07500000298023224,1024000
2020-08-19,0.07500000298023224,0.07500000298023224,0.07500000298023224,0.07500000298023224,0
2020-08-20,0.07699999958276749,0.07500000298023224,0.07500000298023224,0.07699999958276749,56000
2020-08-21,0.08399999886751175,0.07199999690055847,0.0729999989271164,0.07999999821186066,3760000
2020-08-24,0.08399999886751175,0.07900000363588333,0.07900000363588333,0.08399999886751175,3352000
2020-08-25,0.08699999749660492,0.0820000022649765,0.0820000022649765,0.08399999886751175,1016000
