Date,Open,High,Low,Close,Volume
2014-08-04,0.299,0.315,0.299,0.315,70390176
2014-08-05,0.319,0.319,0.307,0.315,47120728
2014-08-06,0.315,0.331,0.307,0.331,83343032
2014-08-07,0.335,0.35200000000000004,0.335,0.34,182374640
2014-08-08,0.335,0.34,0.327,0.335,42927236
2014-08-11,0.335,0.34,0.331,0.335,23804738
2014-08-12,0.335,0.34,0.331,0.335,23400622
2014-08-13,0.335,0.34,0.327,0.331,33239040
2014-08-14,0.335,0.335,0.327,0.331,17161162
2014-08-15,0.331,0.331,0.32299999999999995,0.331,23847054
2014-08-18,0.331,0.331,0.32299999999999995,0.327,11880153
2014-08-19,0.327,0.327,0.319,0.32299999999999995,17918614
2014-08-20,0.32299999999999995,0.327,0.319,0.327,21430824
2014-08-21,0.327,0.327,0.319,0.32299999999999995,5395261
2014-08-22,0.32299999999999995,0.348,0.319,0.348,65693120
2014-08-25,0.348,0.35200000000000004,0.335,0.344,48796432
2014-08-26,0.335,0.335,0.327,0.335,13431026
2014-08-27,0.335,0.335,0.327,0.331,12688385
2014-08-28,0.331,0.331,0.319,0.32299999999999995,17785320
2014-08-29,0.32299999999999995,0.32299999999999995,0.315,0.319,13422563
2014-09-01,0.319,0.319,0.311,0.311,11524701
2014-09-02,0.315,0.327,0.311,0.32299999999999995,28116716
2014-09-03,0.32299999999999995,0.327,0.319,0.327,28440432
2014-09-04,0.327,0.327,0.319,0.327,16767625
2014-09-05,0.327,0.327,0.32299999999999995,0.327,13458532
2014-09-08,0.327,0.327,0.319,0.32299999999999995,6846692
2014-09-10,0.327,0.327,0.319,0.319,4967872
2014-09-11,0.32299999999999995,0.32299999999999995,0.319,0.319,8621839
2014-09-12,0.32299999999999995,0.327,0.319,0.319,13875342
2014-09-15,0.32299999999999995,0.32299999999999995,0.315,0.315,10591638
2014-09-16,0.319,0.319,0.315,0.319,6448924
2014-09-17,0.319,0.319,0.315,0.315,9787638
2014-09-18,0.315,0.319,0.311,0.315,9298891
2014-09-19,0.315,0.315,0.307,0.311,9825722
2014-09-22,0.311,0.311,0.303,0.303,22560654
2014-09-23,0.303,0.315,0.303,0.315,31512556
2014-09-24,0.315,0.315,0.307,0.311,16968624
2014-09-25,0.311,0.311,0.307,0.311,28829736
2014-09-26,0.307,0.307,0.303,0.307,6867850
2014-09-29,0.303,0.303,0.287,0.295,24813968
2014-09-30,0.29100000000000004,0.295,0.287,0.295,13623563
2014-10-03,0.295,0.295,0.28300000000000003,0.295,10578943
2014-10-06,0.299,0.303,0.295,0.303,7580871
2014-10-07,0.299,0.303,0.299,0.303,7119629
2014-10-08,0.295,0.303,0.295,0.303,3945946
2014-10-09,0.303,0.303,0.299,0.299,3146178
2014-10-10,0.299,0.299,0.29100000000000004,0.295,6641461
2014-10-13,0.295,0.295,0.287,0.295,8827070
2014-10-14,0.295,0.295,0.29100000000000004,0.295,6783218
2014-10-15,0.295,0.299,0.29100000000000004,0.299,4110977
2014-10-16,0.29100000000000004,0.295,0.29100000000000004,0.29100000000000004,4836693
2014-10-17,0.295,0.299,0.29100000000000004,0.29100000000000004,6279661
2014-10-20,0.295,0.295,0.29100000000000004,0.29100000000000004,5562408
2014-10-21,0.29100000000000004,0.29100000000000004,0.287,0.29100000000000004,2695515
2014-10-22,0.29100000000000004,0.295,0.287,0.29100000000000004,9487196
2014-10-23,0.29100000000000004,0.29100000000000004,0.287,0.29100000000000004,2593957
2014-10-24,0.29100000000000004,0.295,0.287,0.29100000000000004,2323136
2014-10-27,0.29100000000000004,0.29100000000000004,0.28300000000000003,0.287,10303891
2014-10-28,0.287,0.287,0.28300000000000003,0.287,15790131
2014-10-29,0.287,0.29100000000000004,0.287,0.29100000000000004,8503460
2014-10-30,0.29100000000000004,0.29100000000000004,0.28300000000000003,0.287,11848416
2014-10-31,0.287,0.29100000000000004,0.28300000000000003,0.287,8207144
2014-11-03,0.287,0.29100000000000004,0.28300000000000003,0.287,6914397
2014-11-04,0.287,0.29100000000000004,0.28300000000000003,0.287,9525281
2014-11-05,0.287,0.295,0.287,0.29100000000000004,29965916
2014-11-06,0.29100000000000004,0.29100000000000004,0.287,0.29100000000000004,10377943
2014-11-07,0.29100000000000004,0.295,0.28300000000000003,0.29100000000000004,23508528
2014-11-10,0.295,0.295,0.287,0.29100000000000004,18003246
2014-11-11,0.29100000000000004,0.295,0.287,0.29100000000000004,11818795
2014-11-12,0.29100000000000004,0.29100000000000004,0.287,0.29100000000000004,13522005
2014-11-13,0.29100000000000004,0.29100000000000004,0.287,0.29100000000000004,6349482
2014-11-14,0.29100000000000004,0.29100000000000004,0.287,0.29100000000000004,19994204
2014-11-17,0.29100000000000004,0.29100000000000004,0.28300000000000003,0.287,12013448
2014-11-18,0.287,0.29100000000000004,0.28300000000000003,0.28300000000000003,4766872
2014-11-19,0.28300000000000003,0.287,0.27899999999999997,0.28300000000000003,14141931
2014-11-20,0.28300000000000003,0.28300000000000003,0.27899999999999997,0.27899999999999997,6178103
2014-11-21,0.28300000000000003,0.28300000000000003,0.27899999999999997,0.28300000000000003,6903818
2014-11-24,0.28300000000000003,0.287,0.27899999999999997,0.28300000000000003,15373320
2014-11-25,0.28300000000000003,0.28300000000000003,0.27899999999999997,0.28300000000000003,2437389
2014-11-26,0.28300000000000003,0.28300000000000003,0.27899999999999997,0.28300000000000003,1572031
2014-11-27,0.28300000000000003,0.287,0.28300000000000003,0.287,8336207
2014-11-28,0.28300000000000003,0.287,0.28300000000000003,0.287,10980943
2014-12-01,0.28300000000000003,0.287,0.271,0.27899999999999997,24725106
2014-12-02,0.275,0.28300000000000003,0.275,0.27899999999999997,17408708
2014-12-03,0.27899999999999997,0.287,0.275,0.27899999999999997,16647025
2014-12-04,0.28300000000000003,0.295,0.27899999999999997,0.29100000000000004,36981872
2014-12-05,0.29100000000000004,0.319,0.29100000000000004,0.307,161324656
2014-12-08,0.311,0.344,0.311,0.344,250723072
2014-12-09,0.335,0.35600000000000004,0.315,0.319,290521056
2014-12-10,0.319,0.327,0.307,0.311,77433632
2014-12-11,0.307,0.311,0.299,0.303,46661604
2014-12-12,0.299,0.307,0.295,0.299,25482558
2014-12-15,0.29100000000000004,0.295,0.287,0.295,15356394
2014-12-16,0.29100000000000004,0.299,0.287,0.299,23237708
2014-12-17,0.299,0.299,0.28300000000000003,0.287,24866864
2014-12-18,0.29100000000000004,0.29100000000000004,0.27899999999999997,0.28300000000000003,17084992
2014-12-19,0.28300000000000003,0.287,0.28300000000000003,0.287,8865154
2014-12-22,0.287,0.287,0.28300000000000003,0.287,5896703
2014-12-23,0.28300000000000003,0.28300000000000003,0.27899999999999997,0.28300000000000003,6611840
2014-12-24,0.28300000000000003,0.28300000000000003,0.27899999999999997,0.28300000000000003,4375451
2014-12-29,0.28300000000000003,0.29100000000000004,0.28300000000000003,0.287,10001333
2014-12-30,0.28300000000000003,0.287,0.27899999999999997,0.28300000000000003,9836301
2014-12-31,0.28300000000000003,0.28300000000000003,0.27899999999999997,0.28300000000000003,3141946
2015-01-02,0.28300000000000003,0.295,0.27899999999999997,0.29100000000000004,28330410
2015-01-05,0.29100000000000004,0.29100000000000004,0.28300000000000003,0.287,11480269
2015-01-06,0.28300000000000003,0.287,0.27899999999999997,0.287,14689921
2015-01-07,0.28300000000000003,0.287,0.28300000000000003,0.28300000000000003,12134048
2015-01-08,0.287,0.287,0.28300000000000003,0.287,7310050
2015-01-09,0.287,0.299,0.28300000000000003,0.295,43172668
2015-01-12,0.29100000000000004,0.295,0.287,0.29100000000000004,18519498
2015-01-13,0.29100000000000004,0.299,0.29100000000000004,0.295,24342148
2015-01-14,0.299,0.299,0.29100000000000004,0.295,9427954
2015-01-15,0.295,0.295,0.29100000000000004,0.295,7432766
2015-01-16,0.29100000000000004,0.295,0.287,0.29100000000000004,11048648
2015-01-19,0.287,0.287,0.27899999999999997,0.28300000000000003,18519498
2015-01-20,0.28300000000000003,0.287,0.28300000000000003,0.287,3761872
2015-01-21,0.28300000000000003,0.29100000000000004,0.28300000000000003,0.29100000000000004,9387754
2015-01-22,0.287,0.295,0.287,0.29100000000000004,13172900
2015-01-23,0.29100000000000004,0.299,0.29100000000000004,0.299,27238664
2015-01-26,0.295,0.295,0.29100000000000004,0.295,10710122
2015-01-27,0.295,0.295,0.29100000000000004,0.295,6798029
2015-01-28,0.295,0.295,0.29100000000000004,0.295,4489704
2015-01-29,0.29100000000000004,0.29100000000000004,0.287,0.29100000000000004,16308499
2015-01-30,0.29100000000000004,0.29100000000000004,0.28300000000000003,0.287,9576059
2015-02-02,0.287,0.299,0.28300000000000003,0.299,17673184
2015-02-03,0.295,0.303,0.295,0.299,33647388
2015-02-04,0.299,0.299,0.29100000000000004,0.299,13022679
2015-02-05,0.299,0.299,0.29100000000000004,0.295,13287153
2015-02-06,0.295,0.295,0.287,0.29100000000000004,12220795
2015-02-09,0.287,0.29100000000000004,0.28300000000000003,0.29100000000000004,12525469
2015-02-10,0.287,0.29100000000000004,0.287,0.287,2807652
2015-02-11,0.287,0.29100000000000004,0.287,0.287,13727237
2015-02-12,0.287,0.303,0.287,0.303,37250576
2015-02-13,0.295,0.299,0.287,0.295,25873980
2015-02-16,0.29100000000000004,0.29100000000000004,0.287,0.29100000000000004,9326396
2015-02-17,0.287,0.29100000000000004,0.287,0.287,6431997
2015-02-18,0.271,0.275,0.259,0.275,95058432
2015-02-23,0.271,0.271,0.263,0.271,27126632
2015-02-24,0.271,0.271,0.263,0.271,25457168
2015-02-25,0.271,0.271,0.263,0.271,10997869
2015-02-26,0.271,0.271,0.263,0.271,5228114
2015-02-27,0.267,0.271,0.267,0.271,7026534
2015-03-02,0.267,0.271,0.263,0.267,11994438
2015-03-03,0.267,0.267,0.259,0.263,22162992
2015-03-04,0.259,0.263,0.259,0.263,7166176
2015-03-05,0.263,0.263,0.259,0.259,5238809
2015-03-06,0.259,0.263,0.259,0.263,13039605
2015-03-09,0.259,0.271,0.259,0.271,53576432
2015-03-10,0.27399999999999997,0.27399999999999997,0.265,0.26899999999999996,14470000
2015-03-11,0.265,0.26899999999999996,0.261,0.26899999999999996,10538000
2015-03-12,0.265,0.26899999999999996,0.261,0.26899999999999996,5658000
2015-03-13,0.265,0.26899999999999996,0.261,0.26899999999999996,7068000
2015-03-16,0.265,0.26899999999999996,0.261,0.26899999999999996,7428000
2015-03-17,0.265,0.26899999999999996,0.261,0.265,6498000
2015-03-18,0.26899999999999996,0.26899999999999996,0.261,0.265,20572000
2015-03-19,0.265,0.26899999999999996,0.261,0.26899999999999996,30125000
2015-03-20,0.265,0.265,0.261,0.265,8444000
2015-03-23,0.261,0.265,0.257,0.265,28213000
2015-03-24,0.261,0.265,0.257,0.257,30946000
2015-03-25,0.257,0.265,0.257,0.261,44581000
2015-03-26,0.261,0.261,0.257,0.261,43034000
2015-03-27,0.257,0.261,0.257,0.261,8620000
2015-03-30,0.257,0.265,0.257,0.261,9981000
2015-03-31,0.261,0.265,0.261,0.265,11136000
2015-04-01,0.265,0.265,0.257,0.265,13162000
2015-04-02,0.265,0.27399999999999997,0.261,0.27399999999999997,25951000
2015-04-08,0.26899999999999996,0.28600000000000003,0.26899999999999996,0.28600000000000003,58192000
2015-04-09,0.28600000000000003,0.308,0.28600000000000003,0.295,81810000
2015-04-10,0.282,0.308,0.278,0.308,246993824
2015-04-13,0.325,0.355,0.316,0.342,464005184
2015-04-14,0.342,0.34600000000000003,0.325,0.33399999999999996,202232304
2015-04-15,0.33399999999999996,0.33799999999999997,0.321,0.325,127696432
2015-04-16,0.32899999999999996,0.32899999999999996,0.312,0.316,96662136
2015-04-17,0.316,0.325,0.308,0.312,87205152
2015-04-20,0.308,0.316,0.304,0.308,86604464
2015-04-21,0.308,0.33399999999999996,0.304,0.32899999999999996,179137216
2015-04-22,0.33399999999999996,0.34600000000000003,0.32899999999999996,0.33799999999999997,196214704
2015-04-23,0.342,0.34600000000000003,0.32899999999999996,0.33799999999999997,70497112
2015-04-24,0.33799999999999997,0.33799999999999997,0.32899999999999996,0.32899999999999996,46065592
2015-04-27,0.33399999999999996,0.342,0.33399999999999996,0.33799999999999997,83157424
2015-04-28,0.33799999999999997,0.342,0.33399999999999996,0.33799999999999997,52355216
2015-04-29,0.39799999999999996,0.47,0.359,0.47,1196446976
2015-04-30,0.445,0.513,0.436,0.47,913434624
2015-05-04,0.47,0.513,0.462,0.47,365886912
2015-05-05,0.47,0.479,0.406,0.42700000000000005,472179648
2015-05-06,0.419,0.436,0.415,0.423,141547408
2015-05-07,0.419,0.419,0.389,0.39799999999999996,155126512
2015-05-08,0.39799999999999996,0.42700000000000005,0.39799999999999996,0.42700000000000005,198065856
2015-05-11,0.436,0.45299999999999996,0.42700000000000005,0.445,179891168
2015-05-12,0.445,0.445,0.419,0.423,134952000
2015-05-13,0.423,0.42700000000000005,0.41,0.419,57015000
2015-05-14,0.415,0.423,0.406,0.415,82859000
2015-05-15,0.419,0.445,0.41,0.436,156682000
2015-05-18,0.42700000000000005,0.436,0.419,0.42700000000000005,66351784
2015-05-19,0.423,0.42700000000000005,0.419,0.42700000000000005,62348000
2015-05-20,0.42700000000000005,0.436,0.419,0.42700000000000005,90445000
2015-05-21,0.423,0.42700000000000005,0.419,0.423,48850000
2015-05-22,0.423,0.462,0.423,0.45299999999999996,296444448
2015-05-26,0.462,0.496,0.45299999999999996,0.48700000000000004,352057824
2015-05-27,0.48700000000000004,0.496,0.462,0.479,179603840
2015-05-28,0.479,0.479,0.436,0.45299999999999996,110960000
2015-05-29,0.45299999999999996,0.45299999999999996,0.436,0.445,45801000
2015-06-01,0.445,0.462,0.436,0.45299999999999996,87111000
2015-06-02,0.45299999999999996,0.45299999999999996,0.436,0.45299999999999996,56112008
2015-06-03,0.445,0.445,0.42700000000000005,0.436,52660000
2015-06-04,0.436,0.445,0.419,0.42700000000000005,110550000
2015-06-05,0.42700000000000005,0.42700000000000005,0.41,0.415,85933000
2015-06-08,0.415,0.419,0.406,0.41,51074680
2015-06-09,0.41,0.41,0.389,0.39799999999999996,89247184
2015-06-10,0.39299999999999996,0.402,0.376,0.385,71082000
2015-06-11,0.389,0.39799999999999996,0.389,0.389,28647000
2015-06-12,0.39299999999999996,0.423,0.385,0.423,159008992
2015-06-15,0.41,0.445,0.406,0.445,210347008
2015-06-16,0.436,0.445,0.423,0.42700000000000005,108368736
2015-06-17,0.42700000000000005,0.436,0.419,0.423,46375184
2015-06-18,0.423,0.42700000000000005,0.419,0.42700000000000005,29392000
2015-06-19,0.42700000000000005,0.445,0.415,0.436,108624000
2015-06-22,0.436,0.436,0.41,0.415,81457000
2015-06-23,0.415,0.419,0.406,0.419,41388000
2015-06-24,0.419,0.419,0.406,0.415,20642782
2015-06-25,0.41,0.415,0.402,0.41,35486000
2015-06-26,0.406,0.406,0.39299999999999996,0.402,37174000
2015-06-29,0.402,0.406,0.359,0.376,73518000
2015-06-30,0.376,0.415,0.363,0.402,61950000
2015-07-02,0.39799999999999996,0.402,0.385,0.389,36572000
2015-07-03,0.389,0.389,0.355,0.359,59085024
2015-07-06,0.359,0.37200000000000005,0.28600000000000003,0.308,171334176
2015-07-07,0.308,0.312,0.26899999999999996,0.278,89888248
2015-07-08,0.257,0.261,0.231,0.244,169151216
2015-07-09,0.244,0.28600000000000003,0.244,0.282,167850000
2015-07-10,0.28600000000000003,0.325,0.28600000000000003,0.304,128275720
2015-07-13,0.308,0.33399999999999996,0.299,0.325,113427312
2015-07-14,0.325,0.32899999999999996,0.312,0.321,53660000
2015-07-15,0.321,0.321,0.299,0.304,41103000
2015-07-16,0.304,0.312,0.295,0.304,30871768
2015-07-17,0.304,0.316,0.304,0.316,40544000
2015-07-20,0.321,0.321,0.312,0.316,17288000
2015-07-21,0.316,0.316,0.308,0.312,14197000
2015-07-22,0.308,0.312,0.299,0.308,27960000
2015-07-23,0.304,0.312,0.304,0.308,11562000
2015-07-24,0.304,0.321,0.304,0.316,43990000
2015-07-27,0.308,0.312,0.29100000000000004,0.295,45446000
2015-07-28,0.28600000000000003,0.299,0.28600000000000003,0.295,21436000
2015-07-29,0.295,0.295,0.29100000000000004,0.295,7102000
2015-07-30,0.295,0.299,0.28600000000000003,0.29100000000000004,10588924
2015-07-31,0.29100000000000004,0.29100000000000004,0.28600000000000003,0.29100000000000004,6826000
2015-08-03,0.29100000000000004,0.29100000000000004,0.282,0.29100000000000004,17190554
2015-08-04,0.28600000000000003,0.295,0.28600000000000003,0.29100000000000004,7960000
2015-08-05,0.295,0.295,0.29100000000000004,0.295,5858000
2015-08-06,0.299,0.299,0.29100000000000004,0.299,9104000
2015-08-07,0.299,0.312,0.299,0.304,34091236
2015-08-10,0.299,0.312,0.299,0.304,31431000
2015-08-11,0.312,0.312,0.299,0.304,14268000
2015-08-12,0.299,0.308,0.295,0.299,17670526
2015-08-13,0.299,0.304,0.295,0.304,6670000
2015-08-14,0.304,0.304,0.295,0.299,7144000
2015-08-17,0.299,0.304,0.295,0.299,4628000
2015-08-18,0.299,0.299,0.28600000000000003,0.295,8733000
2015-08-19,0.29100000000000004,0.29100000000000004,0.282,0.29100000000000004,13876000
2015-08-20,0.282,0.28600000000000003,0.278,0.282,20962000
2015-08-21,0.27399999999999997,0.27399999999999997,0.252,0.261,74110912
2015-08-24,0.235,0.239,0.22699999999999998,0.231,103084000
2015-08-25,0.22699999999999998,0.235,0.218,0.22699999999999998,45760000
2015-08-26,0.22699999999999998,0.231,0.218,0.22699999999999998,25236000
2015-08-27,0.231,0.244,0.22699999999999998,0.239,43174000
2015-08-28,0.244,0.248,0.231,0.235,22220000
2015-08-31,0.235,0.235,0.22699999999999998,0.231,19535000
2015-09-01,0.22699999999999998,0.231,0.222,0.22699999999999998,19606000
2015-09-02,0.222,0.22699999999999998,0.218,0.222,12392000
2015-09-04,0.222,0.22699999999999998,0.212,0.213,44792000
2015-09-07,0.212,0.218,0.209,0.212,22846000
2015-09-08,0.214,0.22699999999999998,0.214,0.222,28595720
2015-09-09,0.22699999999999998,0.235,0.22699999999999998,0.235,15606000
2015-09-10,0.231,0.231,0.22699999999999998,0.231,10826000
2015-09-11,0.235,0.244,0.231,0.231,14446000
2015-09-14,0.235,0.239,0.22699999999999998,0.235,12600000
2015-09-15,0.235,0.239,0.231,0.235,6087630
2015-09-16,0.239,0.239,0.231,0.239,9286000
2015-09-17,0.239,0.244,0.235,0.235,6444000
2015-09-18,0.239,0.239,0.231,0.235,10666000
2015-09-21,0.231,0.239,0.231,0.239,7762000
2015-09-22,0.239,0.239,0.235,0.239,6660000
2015-09-23,0.235,0.239,0.231,0.235,5839000
2015-09-24,0.235,0.239,0.231,0.239,6270000
2015-09-25,0.235,0.235,0.231,0.231,2804000
2015-09-29,0.231,0.231,0.218,0.222,12222000
2015-09-30,0.222,0.235,0.222,0.231,9858000
2015-10-02,0.257,0.26899999999999996,0.252,0.257,100197152
2015-10-05,0.257,0.261,0.257,0.261,30163000
2015-10-06,0.261,0.261,0.252,0.261,19052000
2015-10-07,0.261,0.26899999999999996,0.257,0.26899999999999996,32812000
2015-10-08,0.265,0.26899999999999996,0.261,0.265,16614000
2015-10-09,0.265,0.27399999999999997,0.265,0.265,16465000
2015-10-12,0.265,0.282,0.265,0.27399999999999997,37336924
2015-10-13,0.27399999999999997,0.299,0.26899999999999996,0.29100000000000004,48240368
2015-10-14,0.29100000000000004,0.29100000000000004,0.282,0.28600000000000003,15074000
2015-10-15,0.28600000000000003,0.29100000000000004,0.282,0.29100000000000004,19854000
2015-10-16,0.29100000000000004,0.295,0.28600000000000003,0.29100000000000004,7402000
2015-10-19,0.28600000000000003,0.29100000000000004,0.282,0.28600000000000003,8270000
2015-10-20,0.28600000000000003,0.28600000000000003,0.282,0.28600000000000003,3550000
2015-10-22,0.28600000000000003,0.299,0.282,0.299,21424000
2015-10-23,0.299,0.304,0.28600000000000003,0.29100000000000004,38749000
2015-10-26,0.28600000000000003,0.29100000000000004,0.282,0.28600000000000003,24652000
2015-10-27,0.28600000000000003,0.28600000000000003,0.278,0.278,14128000
2015-10-28,0.278,0.278,0.26899999999999996,0.27399999999999997,13057000
2015-10-29,0.27399999999999997,0.278,0.26899999999999996,0.27399999999999997,11792000
2015-10-30,0.27399999999999997,0.27399999999999997,0.26899999999999996,0.27399999999999997,4568042
2015-11-02,0.26899999999999996,0.27399999999999997,0.26899999999999996,0.27399999999999997,3798000
2015-11-03,0.278,0.278,0.26899999999999996,0.26899999999999996,5712000
2015-11-04,0.27399999999999997,0.29100000000000004,0.27399999999999997,0.28600000000000003,52412000
2015-11-05,0.28600000000000003,0.28600000000000003,0.278,0.282,11209000
2015-11-06,0.278,0.29100000000000004,0.278,0.28600000000000003,29388000
2015-11-09,0.28600000000000003,0.29100000000000004,0.282,0.28600000000000003,27816000
2015-11-10,0.282,0.29100000000000004,0.278,0.28600000000000003,15302000
2015-11-11,0.28600000000000003,0.28600000000000003,0.278,0.28600000000000003,14272000
2015-11-12,0.28600000000000003,0.29100000000000004,0.282,0.282,11710000
2015-11-13,0.282,0.282,0.278,0.282,8932000
2015-11-16,0.27399999999999997,0.278,0.27399999999999997,0.278,5447696
2015-11-17,0.278,0.282,0.278,0.282,4666000
2015-11-18,0.282,0.282,0.278,0.282,9500000
2015-11-19,0.282,0.282,0.278,0.282,1911000
2015-11-20,0.282,0.28600000000000003,0.278,0.28600000000000003,21110000
2015-11-23,0.28600000000000003,0.29100000000000004,0.282,0.29100000000000004,10162000
2015-11-24,0.295,0.295,0.278,0.29100000000000004,47090000
2015-11-25,0.28600000000000003,0.295,0.28600000000000003,0.29100000000000004,29006000
2015-11-26,0.29100000000000004,0.295,0.28600000000000003,0.295,33704000
2015-11-27,0.295,0.299,0.29100000000000004,0.299,49638304
2015-11-30,0.299,0.308,0.29100000000000004,0.308,49884000
2015-12-01,0.308,0.316,0.304,0.316,64583000
2015-12-02,0.316,0.32899999999999996,0.316,0.32899999999999996,47368480
2015-12-03,0.32899999999999996,0.33399999999999996,0.325,0.33399999999999996,25139108
2015-12-04,0.325,0.32899999999999996,0.321,0.32899999999999996,14364784
2015-12-07,0.32899999999999996,0.32899999999999996,0.321,0.32899999999999996,18726000
2015-12-08,0.325,0.325,0.304,0.312,40364000
2015-12-09,0.308,0.308,0.299,0.308,14366739
2015-12-10,0.304,0.308,0.295,0.304,17234000
2015-12-11,0.299,0.304,0.295,0.295,11694000
2015-12-14,0.29100000000000004,0.308,0.282,0.308,22342714
2015-12-15,0.304,0.308,0.299,0.308,8517481
2015-12-16,0.304,0.304,0.29100000000000004,0.299,10226000
2015-12-17,0.299,0.304,0.295,0.304,9010000
2015-12-18,0.299,0.299,0.295,0.299,5558000
2015-12-21,0.29100000000000004,0.299,0.29100000000000004,0.295,6434000
2015-12-22,0.295,0.299,0.29100000000000004,0.299,1552000
2015-12-23,0.299,0.308,0.295,0.308,15838000
2015-12-24,0.308,0.308,0.304,0.308,3746000
2015-12-28,0.308,0.308,0.295,0.304,3945961
2015-12-29,0.299,0.304,0.299,0.304,1726000
2015-12-30,0.304,0.304,0.299,0.304,1477000
2015-12-31,0.304,0.304,0.299,0.304,752000
2016-01-04,0.299,0.299,0.29100000000000004,0.295,12836000
2016-01-05,0.29100000000000004,0.295,0.29100000000000004,0.295,10916000
2016-01-06,0.295,0.295,0.29100000000000004,0.295,6376000
2016-01-07,0.29100000000000004,0.29100000000000004,0.265,0.26899999999999996,58802000
2016-01-08,0.26899999999999996,0.278,0.26899999999999996,0.278,14192000
2016-01-11,0.27399999999999997,0.27399999999999997,0.261,0.261,16380000
2016-01-12,0.265,0.265,0.248,0.252,37232000
2016-01-13,0.257,0.261,0.257,0.261,14840000
2016-01-14,0.252,0.261,0.248,0.257,22864000
2016-01-15,0.261,0.265,0.257,0.261,11429000
2016-01-18,0.252,0.261,0.248,0.257,23950000
2016-01-19,0.257,0.257,0.235,0.252,35434000
2016-01-20,0.248,0.248,0.235,0.239,23246000
2016-01-21,0.239,0.239,0.22699999999999998,0.22699999999999998,22218000
2016-01-22,0.231,0.239,0.231,0.239,8312000
2016-01-25,0.239,0.244,0.235,0.239,6828000
2016-01-26,0.235,0.239,0.231,0.235,3240000
2016-01-27,0.239,0.239,0.231,0.231,6096000
2016-01-28,0.231,0.239,0.231,0.239,3222000
2016-01-29,0.235,0.239,0.231,0.239,7936000
2016-02-01,0.235,0.239,0.235,0.239,2996000
2016-02-02,0.235,0.239,0.235,0.235,2872000
2016-02-03,0.235,0.235,0.22699999999999998,0.235,5308000
2016-02-04,0.235,0.239,0.231,0.235,5882000
2016-02-05,0.235,0.239,0.235,0.239,3094000
2016-02-11,0.231,0.235,0.22699999999999998,0.231,6298000
2016-02-12,0.22699999999999998,0.231,0.22699999999999998,0.22699999999999998,3142000
2016-02-15,0.231,0.235,0.22699999999999998,0.231,5654000
2016-02-16,0.231,0.239,0.231,0.235,5104000
2016-02-17,0.235,0.239,0.235,0.239,3308000
2016-02-18,0.239,0.244,0.239,0.239,6378000
2016-02-19,0.239,0.239,0.235,0.239,3744000
2016-02-22,0.239,0.244,0.239,0.244,5624000
2016-02-23,0.244,0.252,0.244,0.252,13378000
2016-02-24,0.248,0.252,0.244,0.248,8960000
2016-02-25,0.248,0.248,0.239,0.239,10932000
2016-02-26,0.244,0.248,0.239,0.248,3290000
2016-02-29,0.248,0.248,0.244,0.248,2384000
2016-03-01,0.248,0.248,0.244,0.248,1455000
2016-03-02,0.248,0.261,0.248,0.257,13630310
2016-03-03,0.257,0.261,0.252,0.257,5778000
2016-03-04,0.257,0.265,0.257,0.265,12605000
2016-03-07,0.265,0.26899999999999996,0.261,0.261,4282000
2016-03-08,0.261,0.27399999999999997,0.261,0.265,17862000
2016-03-09,0.265,0.27399999999999997,0.265,0.27399999999999997,13988000
2016-03-10,0.27399999999999997,0.278,0.26899999999999996,0.27399999999999997,13663000
2016-03-11,0.27399999999999997,0.27399999999999997,0.265,0.27399999999999997,7644000
2016-03-14,0.27399999999999997,0.278,0.27399999999999997,0.278,12240000
2016-03-15,0.27399999999999997,0.282,0.27399999999999997,0.282,13630000
2016-03-16,0.282,0.282,0.278,0.278,15634000
2016-03-17,0.282,0.282,0.278,0.282,16276000
2016-03-18,0.282,0.28600000000000003,0.282,0.282,11169000
2016-03-21,0.28600000000000003,0.295,0.28600000000000003,0.295,41950000
2016-03-22,0.325,0.325,0.295,0.295,35966740
2016-03-23,0.3,0.305,0.295,0.295,15386000
2016-03-24,0.295,0.305,0.285,0.29,32244000
2016-03-29,0.29,0.29,0.275,0.28,32191000
2016-03-30,0.28,0.28,0.27,0.28,24934000
2016-03-31,0.28,0.28,0.27,0.27,25592000
2016-04-01,0.27,0.275,0.27,0.275,4416999
2016-04-05,0.275,0.275,0.27,0.275,6014000
2016-04-06,0.27,0.275,0.27,0.275,2688554
2016-04-07,0.275,0.275,0.27,0.275,4793000
2016-04-08,0.27,0.27,0.26,0.27,21648300
2016-04-11,0.265,0.27,0.26,0.27,11318700
2016-04-12,0.27,0.27,0.265,0.27,3416000
2016-04-13,0.27,0.275,0.27,0.27,27480266
2016-04-14,0.275,0.285,0.27,0.28,50201000
2016-04-15,0.28,0.285,0.275,0.28,8990000
2016-04-18,0.275,0.275,0.27,0.27,12280000
2016-04-19,0.275,0.28,0.27,0.275,16709589
2016-04-20,0.275,0.28,0.27,0.275,8992000
2016-04-21,0.275,0.28,0.275,0.275,17058160
2016-04-22,0.275,0.28,0.275,0.275,5878000
2016-04-25,0.275,0.28,0.27,0.275,9490000
2016-04-26,0.275,0.275,0.27,0.27,12404000
2016-04-27,0.27,0.27,0.265,0.265,5748000
2016-04-28,0.27,0.275,0.265,0.27,10576000
2016-04-29,0.275,0.285,0.275,0.28,37865000
2016-05-03,0.28,0.28,0.275,0.275,15524000
2016-05-04,0.275,0.275,0.27,0.27,4788000
2016-05-05,0.27,0.275,0.27,0.27,8198000
2016-05-06,0.27,0.27,0.265,0.265,8696000
2016-05-09,0.265,0.27,0.265,0.265,7911000
2016-05-10,0.265,0.27,0.265,0.265,4628000
2016-05-11,0.27,0.27,0.265,0.265,1214000
2016-05-12,0.265,0.275,0.265,0.275,8956000
2016-05-13,0.27,0.275,0.265,0.275,5514000
2016-05-16,0.27,0.275,0.265,0.27,5336810
2016-05-17,0.27,0.275,0.265,0.275,2456000
2016-05-18,0.27,0.27,0.265,0.27,10824000
2016-05-19,0.265,0.27,0.265,0.265,1530000
2016-05-20,0.265,0.27,0.26,0.265,2124000
2016-05-23,0.265,0.27,0.265,0.265,1512000
2016-05-24,0.265,0.27,0.26,0.265,3862000
2016-05-25,0.265,0.27,0.26,0.265,12020000
2016-05-26,0.26,0.27,0.26,0.265,2324000
2016-05-27,0.265,0.27,0.26,0.265,11834000
2016-05-30,0.265,0.27,0.26,0.265,8215000
2016-05-31,0.265,0.27,0.26,0.27,10432000
2016-06-01,0.27,0.27,0.265,0.27,2874000
2016-06-02,0.27,0.27,0.265,0.265,8428000
2016-06-03,0.27,0.27,0.265,0.265,7634000
2016-06-06,0.27,0.27,0.26,0.265,3747000
2016-06-07,0.265,0.27,0.265,0.265,6544000
2016-06-08,0.27,0.27,0.265,0.27,13360000
2016-06-10,0.27,0.27,0.265,0.265,2614000
2016-06-13,0.265,0.27,0.26,0.265,12874000
2016-06-14,0.265,0.265,0.26,0.26,2200000
2016-06-15,0.26,0.265,0.26,0.26,2198000
2016-06-16,0.26,0.265,0.255,0.26,13104000
2016-06-17,0.265,0.265,0.255,0.26,3908000
2016-06-20,0.26,0.265,0.26,0.26,1870000
2016-06-21,0.265,0.265,0.26,0.26,5779000
2016-06-22,0.265,0.265,0.26,0.26,3018000
2016-06-23,0.265,0.27,0.265,0.265,5832000
2016-06-24,0.265,0.27,0.255,0.26,15517000
2016-06-27,0.26,0.265,0.255,0.265,2281000
2016-06-28,0.26,0.265,0.255,0.265,4602000
2016-06-29,0.265,0.27,0.26,0.27,9796000
2016-06-30,0.27,0.27,0.265,0.265,16078000
2016-07-04,0.265,0.27,0.26,0.265,7932000
2016-07-05,0.265,0.27,0.26,0.265,4808000
2016-07-06,0.265,0.265,0.255,0.255,9649000
2016-07-07,0.26,0.265,0.26,0.26,4054000
2016-07-08,0.26,0.265,0.26,0.26,6528000
2016-07-11,0.265,0.265,0.26,0.26,2170000
2016-07-12,0.26,0.265,0.26,0.26,4691000
2016-07-13,0.265,0.265,0.26,0.265,3295000
2016-07-14,0.265,0.265,0.26,0.26,5092152
2016-07-15,0.26,0.265,0.26,0.265,15166000
2016-07-18,0.265,0.27,0.26,0.27,8804965
2016-07-19,0.265,0.27,0.265,0.27,3896000
2016-07-20,0.27,0.27,0.265,0.27,14776000
2016-07-21,0.27,0.275,0.265,0.275,15571000
2016-07-22,0.275,0.275,0.27,0.275,5557000
2016-07-25,0.275,0.275,0.27,0.27,3284002
2016-07-26,0.27,0.275,0.265,0.275,13366000
2016-07-27,0.275,0.275,0.265,0.27,6234000
2016-07-28,0.27,0.275,0.265,0.27,5046000
2016-07-29,0.265,0.27,0.265,0.265,4692000
2016-08-01,0.265,0.27,0.265,0.265,5250000
2016-08-03,0.265,0.27,0.265,0.27,4336000
2016-08-04,0.27,0.27,0.265,0.27,10348000
2016-08-05,0.27,0.27,0.265,0.27,10260000
2016-08-08,0.27,0.275,0.27,0.275,7222000
2016-08-09,0.275,0.275,0.27,0.275,5962000
2016-08-10,0.275,0.275,0.27,0.275,8046000
2016-08-11,0.275,0.29,0.27,0.28,92508696
2016-08-12,0.285,0.285,0.275,0.275,29957000
2016-08-15,0.275,0.285,0.275,0.28,38680000
2016-08-16,0.275,0.28,0.26,0.265,86272000
2016-08-17,0.265,0.265,0.26,0.265,14497100
2016-08-18,0.265,0.27,0.26,0.26,25459000
2016-08-19,0.265,0.265,0.26,0.265,8998000
2016-08-22,0.265,0.265,0.255,0.265,17154554
2016-08-23,0.265,0.27,0.26,0.265,17514000
2016-08-24,0.27,0.27,0.265,0.27,4094000
2016-08-25,0.27,0.27,0.265,0.27,2106000
2016-08-26,0.27,0.27,0.265,0.27,6293000
2016-08-29,0.27,0.27,0.265,0.27,6276000
2016-08-30,0.26,0.265,0.26,0.265,4430000
2016-08-31,0.265,0.265,0.26,0.26,1214000
2016-09-01,0.26,0.265,0.26,0.265,6196000
2016-09-02,0.265,0.265,0.26,0.265,5906000
2016-09-05,0.265,0.265,0.26,0.265,18544000
2016-09-06,0.27,0.27,0.265,0.265,8281848
2016-09-07,0.265,0.27,0.26,0.265,11818000
2016-09-08,0.265,0.28,0.265,0.27,30806000
2016-09-09,0.275,0.285,0.275,0.275,48838000
2016-09-12,0.27,0.27,0.265,0.265,21940000
2016-09-13,0.265,0.27,0.265,0.265,4266000
2016-09-14,0.265,0.27,0.265,0.265,9194000
2016-09-15,0.27,0.275,0.27,0.275,12264000
2016-09-19,0.275,0.275,0.27,0.275,1984000
2016-09-20,0.275,0.275,0.27,0.275,4752010
2016-09-21,0.275,0.275,0.27,0.275,1332000
2016-09-22,0.275,0.28,0.27,0.275,15331000
2016-09-23,0.275,0.275,0.265,0.27,12410000
2016-09-26,0.27,0.275,0.265,0.27,9706076
2016-09-27,0.27,0.275,0.265,0.27,3318000
2016-09-28,0.265,0.27,0.265,0.27,3678000
2016-09-29,0.27,0.27,0.265,0.27,2972000
2016-09-30,0.265,0.27,0.265,0.265,4635020
2016-10-03,0.265,0.27,0.265,0.27,294000
2016-10-04,0.27,0.27,0.265,0.27,3320000
2016-10-05,0.27,0.27,0.265,0.27,1226000
2016-10-06,0.27,0.275,0.27,0.275,12232000
2016-10-07,0.275,0.275,0.27,0.275,11292000
2016-10-11,0.275,0.275,0.265,0.27,8244000
2016-10-12,0.265,0.27,0.265,0.27,10878000
2016-10-13,0.265,0.27,0.26,0.265,17222000
2016-10-14,0.265,0.27,0.26,0.27,13596024
2016-10-17,0.27,0.27,0.265,0.27,1318000
2016-10-18,0.27,0.27,0.265,0.27,2372000
2016-10-19,0.27,0.27,0.265,0.27,6056000
2016-10-20,0.27,0.27,0.265,0.265,4829000
2016-10-24,0.265,0.275,0.265,0.275,11656000
2016-10-25,0.275,0.275,0.27,0.275,2130000
2016-10-26,0.27,0.275,0.27,0.27,7006000
2016-10-27,0.27,0.275,0.265,0.27,5651000
2016-10-28,0.27,0.275,0.265,0.27,3148000
2016-10-31,0.27,0.27,0.265,0.27,1432185
2016-11-01,0.27,0.27,0.27,0.27,2248000
2016-11-02,0.27,0.27,0.265,0.27,1386000
2016-11-03,0.27,0.27,0.265,0.265,2536000
2016-11-04,0.265,0.27,0.265,0.27,3366000
2016-11-07,0.27,0.27,0.26,0.27,20474000
2016-11-08,0.27,0.27,0.265,0.27,6251000
2016-11-09,0.27,0.27,0.26,0.265,5649236
2016-11-10,0.265,0.27,0.265,0.27,4868000
2016-11-11,0.265,0.27,0.265,0.265,3966000
2016-11-14,0.265,0.27,0.26,0.27,21817848
2016-11-15,0.27,0.27,0.265,0.27,14567848
2016-11-16,0.265,0.27,0.265,0.27,2418000
2016-11-17,0.27,0.27,0.265,0.27,2386000
2016-11-18,0.27,0.27,0.265,0.265,2148000
2016-11-21,0.265,0.27,0.265,0.265,3856000
2016-11-22,0.27,0.27,0.265,0.265,2427980
2016-11-23,0.27,0.275,0.265,0.27,20398000
2016-11-24,0.27,0.275,0.265,0.275,4642000
2016-11-25,0.275,0.275,0.27,0.275,1988000
2016-11-28,0.275,0.275,0.27,0.27,4428109
2016-11-29,0.27,0.27,0.265,0.27,2656000
2016-11-30,0.27,0.275,0.265,0.265,4645000
2016-12-01,0.27,0.27,0.265,0.27,25084000
2016-12-02,0.27,0.275,0.265,0.27,14051184
2016-12-05,0.27,0.275,0.265,0.27,11683000
2016-12-06,0.27,0.275,0.265,0.275,24848000
2016-12-07,0.275,0.275,0.27,0.275,14248000
2016-12-08,0.275,0.275,0.27,0.275,14416000
2016-12-09,0.275,0.275,0.27,0.275,7660000
2016-12-12,0.275,0.275,0.27,0.27,11386000
2016-12-13,0.27,0.27,0.265,0.265,37834000
2016-12-14,0.27,0.27,0.265,0.27,13780000
2016-12-15,0.27,0.27,0.265,0.27,7362000
2016-12-16,0.27,0.27,0.265,0.27,7912000
2016-12-19,0.27,0.275,0.265,0.275,12586000
2016-12-20,0.265,0.27,0.26,0.27,12034000
2016-12-21,0.265,0.27,0.265,0.27,5404000
2016-12-22,0.27,0.27,0.265,0.27,4950000
2016-12-23,0.265,0.265,0.26,0.265,3686000
2016-12-28,0.265,0.265,0.26,0.265,1458000
2016-12-29,0.26,0.265,0.26,0.265,2037479
2016-12-30,0.265,0.265,0.26,0.265,10289000
2017-01-03,0.265,0.265,0.26,0.265,5290000
2017-01-04,0.265,0.265,0.26,0.265,21483000
2017-01-05,0.265,0.265,0.26,0.265,2436000
2017-01-06,0.265,0.265,0.255,0.265,50131000
2017-01-09,0.265,0.265,0.26,0.26,3797000
2017-01-10,0.26,0.265,0.26,0.26,1836000
2017-01-11,0.26,0.265,0.26,0.26,3412000
2017-01-12,0.26,0.265,0.26,0.265,2396000
2017-01-13,0.265,0.265,0.26,0.26,9870000
2017-01-16,0.265,0.265,0.26,0.265,17692000
2017-01-17,0.265,0.265,0.26,0.26,1182000
2017-01-18,0.26,0.27,0.26,0.26,13464000
2017-01-19,0.265,0.27,0.26,0.265,3432000
2017-01-20,0.265,0.275,0.265,0.27,24156000
2017-01-23,0.27,0.27,0.265,0.27,364000
2017-01-24,0.27,0.27,0.265,0.27,883000
2017-01-25,0.27,0.27,0.265,0.265,1928000
2017-01-26,0.265,0.27,0.265,0.265,94178000
2017-01-27,0.265,0.27,0.265,0.27,2155000
2017-02-01,0.27,0.27,0.265,0.27,2668000
2017-02-02,0.27,0.27,0.265,0.265,8591000
2017-02-03,0.265,0.27,0.265,0.265,1604000
2017-02-06,0.27,0.275,0.265,0.27,19044000
2017-02-07,0.27,0.275,0.27,0.27,5002000
2017-02-08,0.275,0.275,0.27,0.27,8001000
2017-02-09,0.275,0.275,0.27,0.27,16819000
2017-02-10,0.27,0.275,0.27,0.27,7478000
2017-02-13,0.275,0.275,0.27,0.27,4358000
2017-02-14,0.275,0.275,0.27,0.27,4001000
2017-02-15,0.275,0.28,0.27,0.275,28106000
2017-02-16,0.28,0.285,0.28,0.28,30566000
2017-02-17,0.28,0.285,0.275,0.275,12950000
2017-02-20,0.28,0.285,0.275,0.28,13956000
2017-02-21,0.28,0.285,0.28,0.28,8500000
2017-02-22,0.28,0.285,0.28,0.28,4651478
2017-02-23,0.285,0.285,0.28,0.285,3948000
2017-02-24,0.285,0.285,0.28,0.28,3408000
2017-02-27,0.28,0.28,0.275,0.275,4370000
2017-02-28,0.275,0.28,0.27,0.27,10580000
2017-03-01,0.27,0.28,0.27,0.28,8260000
2017-03-02,0.28,0.28,0.27,0.28,6558000
2017-03-03,0.28,0.28,0.275,0.28,3086000
2017-03-06,0.28,0.28,0.27,0.275,4811000
2017-03-07,0.275,0.28,0.275,0.275,5998000
2017-03-08,0.28,0.28,0.275,0.275,8700000
2017-03-09,0.28,0.28,0.275,0.275,6349000
2017-03-10,0.275,0.275,0.27,0.275,13076000
2017-03-13,0.275,0.275,0.27,0.27,9510000
2017-03-14,0.27,0.275,0.27,0.275,2206000
2017-03-15,0.275,0.275,0.27,0.275,1246739
2017-03-16,0.275,0.275,0.27,0.275,12850000
2017-03-17,0.275,0.275,0.27,0.27,11935300
2017-03-20,0.275,0.275,0.27,0.275,10638000
2017-03-21,0.275,0.275,0.27,0.275,7528000
2017-03-22,0.27,0.275,0.27,0.27,7026000
2017-03-23,0.27,0.275,0.27,0.27,1812000
2017-03-24,0.27,0.275,0.27,0.275,1854000
2017-03-27,0.275,0.275,0.27,0.27,57408000
2017-03-28,0.275,0.275,0.27,0.27,2921563
2017-03-29,0.27,0.275,0.27,0.27,2219000
2017-03-30,0.27,0.275,0.27,0.275,3840000
2017-03-31,0.275,0.275,0.27,0.27,1481000
2017-04-03,0.27,0.275,0.27,0.27,4189000
2017-04-05,0.275,0.275,0.27,0.27,3566000
2017-04-06,0.27,0.275,0.27,0.27,1082185
2017-04-07,0.275,0.275,0.265,0.27,11791000
2017-04-10,0.27,0.27,0.265,0.265,6502000
2017-04-11,0.27,0.27,0.265,0.265,2900000
2017-04-12,0.265,0.275,0.265,0.27,7114000
2017-04-13,0.27,0.275,0.27,0.27,1630000
2017-04-18,0.27,0.275,0.27,0.27,7740000
2017-04-19,0.27,0.275,0.265,0.265,15379185
2017-04-20,0.27,0.275,0.265,0.275,23297480
2017-04-21,0.275,0.275,0.27,0.27,4929000
2017-04-24,0.27,0.275,0.27,0.275,8134000
2017-04-25,0.275,0.275,0.265,0.27,6384000
2017-04-26,0.27,0.275,0.27,0.275,3082000
2017-04-27,0.27,0.27,0.265,0.27,2340000
2017-04-28,0.27,0.275,0.27,0.27,1736000
2017-05-02,0.275,0.275,0.27,0.275,13701000
2017-05-04,0.275,0.28,0.27,0.275,7228000
2017-05-05,0.27,0.27,0.27,0.27,2464000
2017-05-08,0.27,0.275,0.27,0.275,5726000
2017-05-09,0.275,0.275,0.27,0.27,2672000
2017-05-10,0.27,0.275,0.27,0.27,6158000
2017-05-11,0.27,0.275,0.27,0.275,9680000
2017-05-12,0.275,0.275,0.27,0.27,2582000
2017-05-15,0.275,0.275,0.27,0.27,2462000
2017-05-16,0.27,0.275,0.27,0.275,3366000
2017-05-17,0.27,0.275,0.27,0.275,8080000
2017-05-18,0.27,0.275,0.27,0.27,1628000
2017-05-19,0.27,0.275,0.27,0.27,4970000
2017-05-22,0.27,0.275,0.27,0.27,2042000
2017-05-23,0.27,0.28,0.27,0.28,27714000
2017-05-24,0.28,0.28,0.275,0.28,2510000
2017-05-25,0.28,0.28,0.275,0.275,2802000
2017-05-26,0.275,0.28,0.275,0.28,7528000
2017-05-29,0.28,0.28,0.275,0.275,2372000
2017-05-31,0.275,0.28,0.275,0.28,1738020
2017-06-01,0.28,0.28,0.275,0.28,1506000
2017-06-02,0.275,0.28,0.275,0.28,12619718
2017-06-05,0.28,0.285,0.275,0.275,24438000
2017-06-06,0.275,0.28,0.275,0.275,3000000
2017-06-07,0.28,0.28,0.275,0.28,3414000
2017-06-08,0.28,0.28,0.275,0.275,2542000
2017-06-09,0.275,0.28,0.275,0.275,11450000
2017-06-12,0.275,0.275,0.27,0.275,8048000
2017-06-13,0.275,0.28,0.27,0.275,5078000
2017-06-14,0.275,0.275,0.275,0.275,2768000
2017-06-15,0.275,0.275,0.27,0.275,4282000
2017-06-16,0.275,0.28,0.275,0.275,3058370
2017-06-19,0.275,0.28,0.275,0.275,378000
2017-06-20,0.275,0.28,0.275,0.28,1608000
2017-06-21,0.28,0.28,0.27,0.275,4126000
2017-06-22,0.275,0.28,0.275,0.28,1190000
2017-06-23,0.28,0.28,0.275,0.28,1982000
2017-06-26,0.28,0.28,0.27,0.275,4438000
2017-06-27,0.275,0.275,0.275,0.275,2088000
2017-06-28,0.275,0.275,0.265,0.27,21216000
2017-06-29,0.275,0.28,0.27,0.275,9986000
2017-06-30,0.275,0.275,0.27,0.275,5344000
2017-07-03,0.27,0.275,0.27,0.275,2701000
2017-07-04,0.27,0.275,0.27,0.275,10970000
2017-07-05,0.275,0.275,0.27,0.275,2568000
2017-07-06,0.27,0.275,0.27,0.275,3796000
2017-07-07,0.275,0.28,0.275,0.28,7100000
2017-07-10,0.28,0.28,0.275,0.28,4984176
2017-07-11,0.275,0.28,0.275,0.28,1512000
2017-07-12,0.275,0.28,0.275,0.28,1670000
2017-07-13,0.275,0.28,0.275,0.28,6202000
2017-07-14,0.275,0.275,0.275,0.275,1314000
2017-07-17,0.275,0.28,0.275,0.28,5602000
2017-07-18,0.275,0.275,0.275,0.275,6367000
2017-07-19,0.275,0.28,0.275,0.28,3844000
2017-07-20,0.275,0.28,0.275,0.28,1666000
2017-07-21,0.28,0.28,0.275,0.28,715962
2017-07-24,0.275,0.28,0.275,0.28,2374000
2017-07-25,0.275,0.28,0.275,0.28,2755000
2017-07-26,0.275,0.28,0.275,0.28,586000
2017-07-27,0.275,0.28,0.275,0.28,1336000
2017-07-28,0.275,0.28,0.275,0.28,1902000
2017-07-31,0.28,0.285,0.275,0.28,15554711
2017-08-01,0.28,0.285,0.28,0.285,14594000
2017-08-02,0.285,0.29,0.28,0.285,38005000
2017-08-03,0.29,0.29,0.285,0.285,15624114
2017-08-04,0.285,0.29,0.28,0.285,12329000
2017-08-07,0.285,0.285,0.28,0.285,6096000
2017-08-08,0.28,0.285,0.28,0.28,1866000
2017-08-09,0.285,0.29,0.28,0.29,15591000
2017-08-10,0.285,0.29,0.28,0.285,25672000
2017-08-11,0.28,0.285,0.28,0.28,8790000
2017-08-14,0.28,0.285,0.275,0.28,2692000
2017-08-15,0.285,0.285,0.275,0.28,5536000
2017-08-16,0.285,0.285,0.28,0.28,3584000
2017-08-17,0.28,0.285,0.28,0.28,2938000
2017-08-18,0.28,0.285,0.28,0.285,16136000
2017-08-21,0.285,0.29,0.28,0.285,14826000
2017-08-22,0.285,0.29,0.28,0.29,15256000
2017-08-24,0.29,0.29,0.285,0.285,6866370
2017-08-25,0.285,0.305,0.285,0.305,99122000
2017-08-28,0.305,0.315,0.295,0.315,69551976
2017-08-29,0.315,0.315,0.305,0.31,30923478
2017-08-30,0.3,0.31,0.3,0.3,34867000
2017-08-31,0.3,0.305,0.295,0.295,23176000
2017-09-01,0.295,0.31,0.295,0.3,24944000
2017-09-04,0.3,0.32,0.3,0.315,44230544
2017-09-05,0.32,0.33,0.315,0.32,110160184
2017-09-06,0.31,0.33,0.305,0.315,98021184
2017-09-07,0.315,0.315,0.305,0.315,31096000
2017-09-08,0.315,0.315,0.305,0.31,25974000
2017-09-11,0.305,0.31,0.305,0.31,17548000
2017-09-12,0.31,0.31,0.305,0.31,6641958
2017-09-13,0.31,0.325,0.305,0.325,46839000
2017-09-14,0.325,0.325,0.315,0.32,22243000
2017-09-15,0.32,0.325,0.315,0.315,11027000
2017-09-18,0.315,0.32,0.315,0.32,27932000
2017-09-19,0.32,0.32,0.315,0.32,14028000
2017-09-20,0.32,0.32,0.315,0.32,14232000
2017-09-21,0.32,0.32,0.305,0.315,38755000
2017-09-22,0.31,0.35,0.305,0.35,149522000
2017-09-25,0.345,0.35,0.33,0.34,45218000
2017-09-26,0.34,0.34,0.33,0.335,45508000
2017-09-27,0.335,0.34,0.33,0.335,38996000
2017-09-28,0.335,0.345,0.33,0.34,51746176
2017-09-29,0.34,0.34,0.335,0.34,22423000
2017-10-03,0.34,0.36,0.34,0.355,68772544
2017-10-04,0.355,0.355,0.35,0.355,37858368
2017-10-06,0.355,0.355,0.345,0.355,39771000
2017-10-09,0.36,0.36,0.35,0.355,28466000
2017-10-10,0.355,0.36,0.35,0.36,31384090
2017-10-11,0.36,0.36,0.35,0.36,28601000
2017-10-12,0.36,0.36,0.35,0.36,30925696
2017-10-13,0.36,0.365,0.355,0.365,61652000
2017-10-16,0.365,0.375,0.365,0.375,78042392
2017-10-17,0.375,0.375,0.365,0.37,70293000
2017-10-18,0.37,0.37,0.36,0.365,43037000
2017-10-19,0.365,0.365,0.325,0.335,96852000
2017-10-20,0.335,0.345,0.335,0.345,41622000
2017-10-23,0.345,0.345,0.335,0.34,22452000
2017-10-24,0.345,0.35,0.335,0.345,38506924
2017-10-25,0.345,0.345,0.335,0.335,34774000
2017-10-26,0.335,0.34,0.335,0.34,6576555
2017-10-27,0.335,0.335,0.32,0.325,27376000
2017-10-30,0.325,0.325,0.305,0.31,31818000
2017-10-31,0.31,0.34,0.305,0.335,57735696
2017-11-01,0.34,0.34,0.325,0.325,17201000
2017-11-02,0.325,0.33,0.315,0.33,18349702
2017-11-03,0.33,0.33,0.32,0.325,7089499
2017-11-06,0.33,0.33,0.315,0.32,14320000
2017-11-07,0.32,0.32,0.31,0.315,14973000
2017-11-08,0.315,0.32,0.315,0.32,10832792
2017-11-09,0.315,0.32,0.315,0.32,5392000
2017-11-10,0.315,0.32,0.31,0.31,14362000
2017-11-13,0.31,0.315,0.305,0.31,18049102
2017-11-14,0.31,0.315,0.305,0.305,17862000
2017-11-15,0.305,0.31,0.305,0.305,11176000
2017-11-16,0.305,0.315,0.305,0.31,10742000
2017-11-17,0.31,0.315,0.305,0.315,8025691
2017-11-20,0.315,0.315,0.305,0.31,5677237
2017-11-21,0.31,0.315,0.305,0.305,7748000
2017-11-22,0.305,0.315,0.305,0.31,4028000
2017-11-23,0.31,0.325,0.31,0.325,18832000
2017-11-24,0.325,0.33,0.32,0.325,16660197
2017-11-27,0.325,0.325,0.315,0.315,6876000
2017-11-28,0.315,0.315,0.305,0.31,14979000
2017-11-29,0.315,0.32,0.31,0.315,7450000
2017-11-30,0.315,0.335,0.31,0.335,32284858
2017-12-01,0.335,0.345,0.325,0.345,53967368
2017-12-04,0.345,0.355,0.33,0.34,59817272
2017-12-05,0.335,0.335,0.32,0.325,19703804
2017-12-06,0.325,0.35,0.315,0.345,74290000
2017-12-07,0.345,0.37,0.335,0.365,297760000
2017-12-08,0.365,0.37,0.275,0.29,270722720
2017-12-11,0.31,0.325,0.3,0.32,176036976
2017-12-12,0.32,0.32,0.31,0.31,27568000
2017-12-13,0.31,0.31,0.3,0.31,49830000
2017-12-14,0.31,0.31,0.305,0.31,11523422
2017-12-15,0.31,0.31,0.305,0.31,12018000
2017-12-18,0.31,0.32,0.305,0.315,39068000
2017-12-19,0.31,0.31,0.3,0.305,22464000
2017-12-20,0.305,0.305,0.3,0.305,6876000
2017-12-21,0.3,0.305,0.295,0.3,11558000
2017-12-22,0.3,0.3,0.295,0.3,13460000
2017-12-27,0.295,0.305,0.295,0.305,20334000
2017-12-28,0.305,0.305,0.295,0.3,8592000
2017-12-29,0.295,0.3,0.295,0.3,4838000
2018-01-02,0.3,0.3,0.29,0.295,42630000
2018-01-03,0.295,0.3,0.285,0.29,36028000
2018-01-04,0.295,0.295,0.285,0.295,24672184
2018-01-05,0.295,0.295,0.285,0.295,12977000
2018-01-08,0.295,0.295,0.29,0.29,23956000
2018-01-09,0.29,0.295,0.29,0.29,9061237
2018-01-10,0.29,0.295,0.29,0.29,7888000
2018-01-11,0.29,0.295,0.285,0.285,14730000
2018-01-12,0.29,0.29,0.28,0.285,49136000
2018-01-15,0.285,0.29,0.28,0.285,25398000
2018-01-16,0.285,0.29,0.275,0.285,65587368
2018-01-17,0.285,0.29,0.28,0.29,22146000
2018-01-18,0.29,0.295,0.285,0.285,21051000
2018-01-19,0.285,0.29,0.285,0.29,10545294
2018-01-22,0.29,0.29,0.285,0.29,7255606
2018-01-23,0.29,0.29,0.285,0.29,18426000
2018-01-24,0.285,0.29,0.285,0.29,10861500
2018-01-25,0.29,0.29,0.285,0.29,9361500
2018-01-26,0.29,0.295,0.29,0.295,10703500
2018-01-29,0.295,0.295,0.29,0.295,10737000
2018-01-30,0.29,0.295,0.285,0.29,11507500
2018-01-31,0.29,0.29,0.285,0.29,8566000
2018-02-01,0.285,0.29,0.285,0.285,6814000
2018-02-02,0.285,0.29,0.285,0.285,6634000
2018-02-05,0.285,0.29,0.275,0.28,28127000
2018-02-06,0.28,0.28,0.265,0.27,43058100
2018-02-07,0.275,0.275,0.27,0.27,8394000
2018-02-08,0.275,0.28,0.27,0.275,11834000
2018-02-09,0.27,0.27,0.265,0.265,20980000
2018-02-12,0.265,0.27,0.265,0.27,7084000
2018-02-13,0.27,0.275,0.265,0.27,5458000
2018-02-14,0.27,0.275,0.27,0.27,8926000
2018-02-15,0.275,0.275,0.27,0.27,2782000
2018-02-20,0.275,0.28,0.27,0.275,10632000
2018-02-21,0.275,0.285,0.27,0.28,10822000
2018-02-22,0.28,0.29,0.28,0.29,13886000
2018-02-23,0.295,0.31,0.295,0.305,68438000
2018-02-26,0.315,0.325,0.31,0.315,46256000
2018-02-27,0.32,0.32,0.31,0.315,32868000
2018-02-28,0.315,0.325,0.315,0.315,44744000
2018-03-01,0.315,0.32,0.31,0.31,15740370
2018-03-02,0.315,0.315,0.31,0.31,9156000
2018-03-05,0.315,0.32,0.305,0.305,18118000
2018-03-06,0.31,0.31,0.305,0.31,3482000
2018-03-07,0.31,0.31,0.3,0.3,9521000
2018-03-08,0.305,0.31,0.3,0.305,12387000
2018-03-09,0.305,0.32,0.3,0.31,23993696
2018-03-12,0.315,0.315,0.31,0.31,1976000
2018-03-13,0.31,0.315,0.305,0.31,1568000
2018-03-14,0.31,0.31,0.305,0.305,3892000
2018-03-15,0.31,0.31,0.305,0.305,9072000
2018-03-16,0.305,0.31,0.3,0.305,8318000
2018-03-19,0.3,0.31,0.3,0.305,3514000
2018-03-20,0.3,0.31,0.3,0.305,11524000
2018-03-21,0.31,0.31,0.3,0.3,5732000
2018-03-22,0.3,0.305,0.3,0.3,2700000
2018-03-23,0.29,0.295,0.29,0.29,6162000
2018-03-26,0.29,0.29,0.28,0.29,19004000
2018-03-27,0.29,0.295,0.29,0.29,2272000
2018-03-28,0.29,0.29,0.285,0.29,4992000
2018-03-29,0.29,0.295,0.29,0.29,9624000
2018-04-03,0.29,0.295,0.285,0.29,5102000
2018-04-04,0.295,0.295,0.285,0.285,3312000
2018-04-06,0.29,0.295,0.285,0.285,5766000
2018-04-09,0.285,0.295,0.285,0.285,4612000
2018-04-10,0.285,0.29,0.285,0.285,4694000
2018-04-11,0.285,0.3,0.285,0.3,22124000
2018-04-12,0.295,0.3,0.29,0.295,5787000
2018-04-13,0.3,0.3,0.29,0.3,6442000
2018-04-16,0.295,0.3,0.29,0.295,2136000
2018-04-17,0.295,0.295,0.29,0.29,2000000
2018-04-18,0.295,0.295,0.29,0.29,1980000
2018-04-19,0.29,0.295,0.29,0.29,1628000
2018-04-20,0.29,0.295,0.29,0.29,6140000
2018-04-23,0.29,0.295,0.285,0.29,11078000
2018-04-24,0.29,0.295,0.285,0.29,2192000
2018-04-25,0.29,0.29,0.285,0.285,2550000
2018-04-26,0.285,0.29,0.285,0.29,2686000
2018-04-27,0.285,0.29,0.285,0.29,2204000
2018-04-30,0.285,0.29,0.285,0.285,1504000
2018-05-02,0.285,0.29,0.285,0.285,1277000
2018-05-03,0.285,0.29,0.285,0.285,1392000
2018-05-04,0.285,0.29,0.285,0.29,16139000
2018-05-07,0.29,0.295,0.285,0.29,3984000
2018-05-08,0.29,0.295,0.29,0.295,2213478
2018-05-09,0.29,0.295,0.29,0.29,4156000
2018-05-10,0.29,0.295,0.29,0.29,1822000
2018-05-11,0.29,0.29,0.29,0.29,2748000
2018-05-14,0.29,0.295,0.29,0.295,5380000
2018-05-15,0.29,0.29,0.285,0.29,6502000
2018-05-16,0.29,0.295,0.285,0.29,2916000
2018-05-17,0.295,0.295,0.285,0.29,4863000
2018-05-18,0.285,0.29,0.285,0.29,15326311
2018-05-21,0.29,0.295,0.285,0.295,5620000
2018-05-23,0.295,0.295,0.285,0.29,4866000
2018-05-24,0.29,0.295,0.285,0.295,3885000
2018-05-25,0.29,0.29,0.285,0.29,1760000
2018-05-28,0.29,0.295,0.285,0.29,1204000
2018-05-29,0.29,0.29,0.285,0.29,2424000
2018-05-30,0.29,0.29,0.285,0.285,2618000
2018-05-31,0.285,0.29,0.285,0.29,4722000
2018-06-01,0.285,0.29,0.285,0.29,2372000
2018-06-04,0.29,0.29,0.285,0.285,2695000
2018-06-05,0.285,0.29,0.285,0.285,2787237
2018-06-06,0.29,0.29,0.285,0.285,4474000
2018-06-07,0.29,0.29,0.285,0.29,2160000
2018-06-08,0.29,0.29,0.285,0.285,4834000
2018-06-11,0.29,0.29,0.285,0.285,4384000
2018-06-12,0.29,0.29,0.285,0.29,13916000
2018-06-13,0.29,0.29,0.285,0.285,1575000
2018-06-14,0.29,0.29,0.285,0.285,2962000
2018-06-15,0.285,0.29,0.285,0.285,8058000
2018-06-19,0.29,0.29,0.28,0.28,17492000
2018-06-20,0.285,0.285,0.28,0.285,3678000
2018-06-21,0.285,0.285,0.28,0.28,3358000
2018-06-22,0.28,0.285,0.28,0.285,3284000
2018-06-25,0.285,0.285,0.28,0.28,2950000
2018-06-26,0.28,0.285,0.28,0.28,6652000
2018-06-27,0.285,0.285,0.28,0.285,6199000
2018-06-28,0.28,0.285,0.275,0.28,7658000
2018-06-29,0.28,0.28,0.275,0.28,5792000
2018-07-03,0.275,0.28,0.275,0.275,7360000
2018-07-04,0.275,0.28,0.275,0.275,3855000
2018-07-05,0.275,0.28,0.27,0.27,6986000
2018-07-06,0.275,0.275,0.27,0.27,10202000
2018-07-09,0.275,0.28,0.27,0.275,3816000
2018-07-10,0.275,0.28,0.275,0.275,892000
2018-07-11,0.275,0.275,0.27,0.27,5268000
2018-07-12,0.275,0.275,0.27,0.275,1482000
2018-07-13,0.275,0.275,0.27,0.27,2518000
2018-07-16,0.275,0.275,0.27,0.27,9960000
2018-07-17,0.27,0.275,0.27,0.27,850000
2018-07-18,0.27,0.275,0.27,0.27,1806000
2018-07-19,0.27,0.275,0.27,0.27,1212000
2018-07-20,0.27,0.27,0.265,0.265,7397848
2018-07-23,0.27,0.275,0.265,0.27,3844000
2018-07-24,0.27,0.275,0.27,0.27,1386000
2018-07-25,0.27,0.275,0.27,0.275,836000
2018-07-26,0.27,0.275,0.27,0.275,4688000
2018-07-27,0.275,0.275,0.27,0.275,790000
2018-07-30,0.27,0.275,0.27,0.27,4958000
2018-07-31,0.27,0.275,0.27,0.275,1122000
2018-08-01,0.275,0.275,0.27,0.27,1618000
2018-08-02,0.27,0.275,0.265,0.265,9138000
2018-08-03,0.27,0.27,0.27,0.27,2916000
2018-08-06,0.27,0.275,0.265,0.27,5676000
2018-08-07,0.27,0.275,0.27,0.27,1660000
2018-08-08,0.27,0.275,0.27,0.27,1194000
2018-08-09,0.27,0.275,0.27,0.27,2784000
2018-08-10,0.275,0.275,0.27,0.27,2200000
2018-08-13,0.27,0.275,0.265,0.27,4342000
2018-08-14,0.265,0.27,0.265,0.27,2116000
2018-08-15,0.27,0.27,0.265,0.265,4710000
2018-08-16,0.27,0.27,0.265,0.265,5269000
2018-08-17,0.27,0.27,0.265,0.265,7950000
2018-08-20,0.265,0.275,0.265,0.27,5030000
2018-08-21,0.27,0.275,0.27,0.27,1484000
2018-08-22,0.27,0.275,0.27,0.27,1762000
2018-08-23,0.275,0.275,0.27,0.27,2758000
2018-08-24,0.27,0.275,0.27,0.27,5000000
2018-08-27,0.275,0.275,0.27,0.27,1298000
2018-08-28,0.275,0.275,0.27,0.27,1568000
2018-08-29,0.27,0.275,0.265,0.27,29148000
2018-08-30,0.265,0.265,0.255,0.255,17388000
2018-08-31,0.26,0.26,0.25,0.255,3823952
2018-09-03,0.255,0.26,0.25,0.255,2102000
2018-09-04,0.255,0.26,0.255,0.255,1418000
2018-09-05,0.255,0.26,0.25,0.25,4894000
2018-09-06,0.25,0.26,0.25,0.25,5200000
2018-09-07,0.255,0.255,0.25,0.25,1427000
2018-09-10,0.25,0.255,0.247,0.25,8441000
2018-09-11,0.25,0.255,0.249,0.25,4670000
2018-09-12,0.25,0.25,0.245,0.248,15308000
2018-09-13,0.248,0.25,0.247,0.249,7934000
2018-09-14,0.249,0.255,0.249,0.249,3494000
2018-09-17,0.249,0.249,0.245,0.248,7180000
2018-09-18,0.249,0.25,0.248,0.249,1424000
2018-09-19,0.249,0.25,0.248,0.249,5148000
2018-09-20,0.248,0.25,0.248,0.249,2658000
2018-09-21,0.248,0.25,0.248,0.25,5114000
2018-09-24,0.25,0.25,0.247,0.25,3780000
2018-09-26,0.25,0.25,0.248,0.248,1470000
2018-09-27,0.249,0.25,0.248,0.248,1434000
2018-09-28,0.249,0.25,0.248,0.249,2618000
2018-10-02,0.248,0.248,0.245,0.24600000000000002,15362000
2018-10-03,0.24600000000000002,0.249,0.24600000000000002,0.24600000000000002,3032000
2018-10-04,0.24600000000000002,0.249,0.24600000000000002,0.247,2430000
2018-10-05,0.24600000000000002,0.248,0.245,0.247,5280000
2018-10-08,0.245,0.249,0.245,0.245,5354000
2018-10-09,0.245,0.24600000000000002,0.23,0.242,12268000
2018-10-10,0.244,0.244,0.242,0.242,474000
2018-10-11,0.23800000000000002,0.24,0.231,0.233,14591000
2018-10-12,0.239,0.244,0.235,0.237,2542000
2018-10-15,0.23600000000000002,0.239,0.23399999999999999,0.235,3060000
2018-10-16,0.235,0.237,0.235,0.23600000000000002,506000
2018-10-18,0.235,0.237,0.233,0.233,2692000
2018-10-19,0.233,0.237,0.23199999999999998,0.23600000000000002,5828000
2018-10-22,0.23800000000000002,0.242,0.23600000000000002,0.23600000000000002,1694000
2018-10-23,0.23600000000000002,0.23600000000000002,0.23399999999999999,0.235,4608000
2018-10-24,0.235,0.237,0.235,0.235,1217000
2018-10-25,0.235,0.235,0.233,0.23399999999999999,5397000
2018-10-26,0.23399999999999999,0.23800000000000002,0.23399999999999999,0.23399999999999999,1431000
2018-10-29,0.233,0.23399999999999999,0.233,0.233,1852000
2018-10-30,0.233,0.23600000000000002,0.233,0.233,3154185
2018-10-31,0.23399999999999999,0.24,0.233,0.24,4020000
2018-11-01,0.23800000000000002,0.242,0.235,0.242,440000
2018-11-02,0.24,0.249,0.23800000000000002,0.248,15058000
2018-11-05,0.25,0.25,0.24100000000000002,0.249,8150000
2018-11-06,0.243,0.247,0.242,0.243,5828000
2018-11-07,0.244,0.248,0.243,0.247,2934000
2018-11-08,0.249,0.249,0.244,0.244,4670000
2018-11-09,0.244,0.247,0.242,0.244,3333000
2018-11-12,0.245,0.25,0.242,0.24600000000000002,1254000
2018-11-13,0.249,0.255,0.243,0.25,5292000
2018-11-14,0.25,0.26,0.248,0.26,3359696
2018-11-15,0.26,0.265,0.255,0.265,2482000
2018-11-16,0.26,0.26,0.255,0.255,2674982
2018-11-19,0.26,0.26,0.255,0.26,320000
2018-11-20,0.255,0.26,0.25,0.26,1574000
2018-11-21,0.255,0.26,0.25,0.26,646000
2018-11-22,0.255,0.26,0.25,0.25,460000
2018-11-23,0.25,0.26,0.25,0.255,520000
2018-11-26,0.255,0.265,0.25,0.255,4868739
2018-11-27,0.255,0.265,0.255,0.26,3478000
2018-11-28,0.26,0.275,0.26,0.265,4364000
2018-11-29,0.265,0.265,0.26,0.265,1014000
2018-11-30,0.27,0.27,0.26,0.265,324000
2018-12-03,0.265,0.27,0.26,0.265,3272000
2018-12-04,0.265,0.27,0.26,0.265,461000
2018-12-05,0.265,0.27,0.26,0.265,474000
2018-12-06,0.265,0.27,0.26,0.26,1014000
2018-12-07,0.265,0.265,0.26,0.265,1125536
2018-12-10,0.26,0.26,0.255,0.255,1382000
2018-12-11,0.255,0.265,0.255,0.26,1430000
2018-12-12,0.26,0.265,0.255,0.26,1184000
2018-12-13,0.26,0.265,0.26,0.26,1080000
2018-12-14,0.26,0.27,0.26,0.26,4328000
2018-12-17,0.26,0.265,0.255,0.26,2336000
2018-12-18,0.25,0.26,0.245,0.25,9363231
2018-12-19,0.25,0.255,0.249,0.249,8864000
2018-12-20,0.255,0.255,0.249,0.249,2240000
2018-12-21,0.249,0.255,0.249,0.25,3890000
2018-12-24,0.25,0.255,0.25,0.255,564000
2018-12-27,0.255,0.255,0.248,0.25,5633848
2018-12-28,0.25,0.25,0.249,0.25,382562
2018-12-31,0.255,0.255,0.249,0.25,2276000
2019-01-02,0.25,0.255,0.249,0.255,4082000
2019-01-03,0.25,0.255,0.249,0.25,2280000
2019-01-04,0.25,0.255,0.249,0.255,776000
2019-01-07,0.249,0.255,0.248,0.25,1676000
2019-01-08,0.25,0.255,0.25,0.255,2948000
2019-01-09,0.255,0.26,0.25,0.255,7917663
2019-01-10,0.255,0.26,0.25,0.25,1864000
2019-01-11,0.255,0.255,0.25,0.255,3896000
2019-01-14,0.255,0.26,0.25,0.25,5792000
2019-01-15,0.255,0.26,0.25,0.26,6107000
2019-01-16,0.26,0.28,0.25,0.255,33885000
2019-01-17,0.27,0.28,0.265,0.28,58920000
2019-01-18,0.285,0.295,0.275,0.295,61918000
2019-01-21,0.295,0.295,0.285,0.295,24924000
2019-01-22,0.29,0.295,0.275,0.285,28468000
2019-01-23,0.285,0.295,0.285,0.29,53005576
2019-01-24,0.29,0.295,0.275,0.285,39296000
2019-01-25,0.285,0.285,0.275,0.28,15035848
2019-01-28,0.275,0.28,0.275,0.275,5946000
2019-01-29,0.275,0.28,0.275,0.28,6504000
2019-01-30,0.28,0.28,0.27,0.275,6824000
2019-01-31,0.275,0.29,0.275,0.29,54461960
2019-02-01,0.29,0.29,0.28,0.285,6062000
2019-02-04,0.285,0.29,0.28,0.285,1562200
2019-02-08,0.285,0.29,0.275,0.285,7174000
2019-02-11,0.285,0.29,0.28,0.285,6188000
2019-02-12,0.285,0.29,0.28,0.28,2090000
2019-02-13,0.285,0.29,0.28,0.29,6058000
2019-02-14,0.29,0.29,0.285,0.29,14306962
2019-02-15,0.29,0.29,0.285,0.29,12784000
2019-02-18,0.29,0.29,0.285,0.285,3208000
2019-02-19,0.285,0.29,0.285,0.29,5968000
2019-02-20,0.29,0.31,0.285,0.31,62796000
2019-02-21,0.305,0.31,0.3,0.31,25728370
2019-02-22,0.305,0.31,0.3,0.305,19422000
2019-02-25,0.305,0.31,0.3,0.305,15542000
2019-02-26,0.305,0.31,0.29,0.3,37620368
2019-02-27,0.3,0.3,0.29,0.295,5830000
2019-02-28,0.29,0.295,0.29,0.295,3210000
2019-03-01,0.29,0.295,0.29,0.29,3956000
2019-03-04,0.29,0.295,0.29,0.295,8550000
2019-03-05,0.29,0.295,0.29,0.295,7836000
2019-03-06,0.295,0.295,0.29,0.295,4216000
2019-03-07,0.29,0.295,0.29,0.295,7580000
2019-03-08,0.29,0.295,0.285,0.285,15856000
2019-03-11,0.285,0.31,0.285,0.31,68444000
2019-03-12,0.305,0.325,0.305,0.315,134011216
2019-03-13,0.315,0.315,0.3,0.31,38198000
2019-03-14,0.31,0.31,0.295,0.3,17538000
2019-03-15,0.305,0.305,0.295,0.3,6710240
2019-03-18,0.3,0.3,0.295,0.3,5128000
2019-03-19,0.3,0.305,0.295,0.3,5192370
2019-03-20,0.295,0.3,0.295,0.3,3764000
2019-03-21,0.295,0.3,0.29,0.295,9624000
2019-03-22,0.295,0.295,0.29,0.295,21060000
2019-03-25,0.29,0.29,0.285,0.285,10737000
2019-03-26,0.29,0.29,0.285,0.29,5684000
2019-03-27,0.29,0.295,0.285,0.285,4402000
2019-03-28,0.285,0.29,0.285,0.285,3748000
2019-03-29,0.29,0.29,0.285,0.29,9262000
2019-04-01,0.285,0.29,0.285,0.285,6306000
2019-04-02,0.29,0.3,0.29,0.295,9114000
2019-04-03,0.29,0.295,0.285,0.285,6216000
2019-04-04,0.29,0.295,0.285,0.285,3258000
2019-04-08,0.29,0.295,0.29,0.29,8656000
2019-04-09,0.29,0.295,0.285,0.29,5452000
2019-04-10,0.29,0.295,0.275,0.285,34044000
2019-04-11,0.285,0.29,0.28,0.285,5830000
2019-04-12,0.285,0.29,0.285,0.285,3924000
2019-04-15,0.285,0.29,0.285,0.29,8596000
2019-04-16,0.285,0.29,0.28,0.29,4788000
2019-04-17,0.285,0.29,0.28,0.285,5344000
2019-04-18,0.285,0.29,0.28,0.285,7416000
2019-04-23,0.285,0.29,0.285,0.285,5200000
2019-04-24,0.285,0.29,0.285,0.29,3286000
2019-04-25,0.285,0.29,0.28,0.285,4024000
2019-04-26,0.28,0.285,0.28,0.285,3550000
2019-04-29,0.285,0.285,0.28,0.285,724000
2019-04-30,0.285,0.285,0.28,0.28,2572000
2019-05-02,0.28,0.285,0.28,0.28,2562000
2019-05-03,0.28,0.285,0.28,0.28,2088000
2019-05-06,0.28,0.28,0.27,0.275,12292000
2019-05-07,0.275,0.28,0.27,0.275,4798000
2019-05-08,0.275,0.275,0.27,0.275,2626000
2019-05-09,0.27,0.275,0.265,0.265,10848000
2019-05-10,0.27,0.275,0.265,0.27,4400000
2019-05-14,0.27,0.275,0.265,0.27,1310000
2019-05-15,0.27,0.28,0.265,0.275,8220000
2019-05-16,0.275,0.28,0.27,0.27,2922739
2019-05-17,0.275,0.275,0.27,0.27,2518000
2019-05-20,0.27,0.27,0.26,0.265,13677000
2019-05-21,0.265,0.27,0.265,0.265,1044000
2019-05-22,0.27,0.27,0.265,0.27,1320000
2019-05-23,0.265,0.27,0.26,0.26,10344000
2019-05-24,0.265,0.265,0.26,0.265,756000
2019-05-27,0.265,0.265,0.26,0.265,2936000
2019-05-28,0.265,0.265,0.26,0.265,1450000
2019-05-29,0.265,0.265,0.26,0.265,858000
2019-05-30,0.265,0.265,0.26,0.265,1854000
2019-05-31,0.26,0.265,0.26,0.26,6326000
2019-06-03,0.26,0.265,0.26,0.26,888000
2019-06-04,0.26,0.265,0.255,0.265,16784000
2019-06-05,0.265,0.265,0.255,0.26,4932000
2019-06-06,0.26,0.265,0.255,0.255,9216000
2019-06-10,0.26,0.265,0.26,0.26,3436000
2019-06-11,0.265,0.265,0.26,0.265,2952000
2019-06-12,0.26,0.265,0.255,0.26,8020000
2019-06-13,0.26,0.26,0.255,0.26,3490000
2019-06-14,0.26,0.265,0.255,0.26,3542000
2019-06-17,0.26,0.26,0.255,0.26,8354000
2019-06-18,0.255,0.26,0.25,0.255,17148000
2019-06-19,0.255,0.26,0.255,0.26,1540000
2019-06-20,0.26,0.26,0.255,0.255,3036000
2019-06-21,0.255,0.26,0.255,0.26,12264000
2019-06-24,0.26,0.26,0.255,0.26,336000
2019-06-25,0.255,0.26,0.255,0.26,646000
2019-06-26,0.26,0.26,0.255,0.26,648000
2019-06-27,0.255,0.265,0.255,0.265,8617607
2019-06-28,0.26,0.265,0.26,0.265,1630001
2019-07-02,0.265,0.265,0.26,0.265,520000
2019-07-03,0.26,0.265,0.26,0.265,2754000
2019-07-04,0.26,0.265,0.26,0.265,380000
2019-07-05,0.26,0.265,0.26,0.265,466000
2019-07-08,0.26,0.265,0.26,0.26,2704000
2019-07-09,0.26,0.265,0.26,0.265,1051000
2019-07-10,0.26,0.265,0.26,0.265,374000
2019-07-11,0.265,0.265,0.26,0.265,970000
2019-07-12,0.265,0.265,0.26,0.26,956000
2019-07-15,0.26,0.265,0.26,0.265,1396000
2019-07-16,0.26,0.265,0.26,0.265,3819237
2019-07-17,0.26,0.265,0.26,0.265,362000
2019-07-18,0.265,0.265,0.265,0.265,18000
2019-07-19,0.26,0.265,0.26,0.26,1872000
2019-07-22,0.26,0.265,0.26,0.26,1010000
2019-07-23,0.26,0.265,0.26,0.265,643000
2019-07-24,0.26,0.265,0.26,0.26,4124000
2019-07-25,0.26,0.27,0.26,0.265,10994000
2019-07-26,0.265,0.265,0.26,0.26,1166000
2019-07-29,0.26,0.265,0.26,0.26,10356000
2019-07-30,0.26,0.265,0.26,0.265,162000
2019-07-31,0.26,0.265,0.26,0.265,924000
2019-08-01,0.26,0.265,0.255,0.265,1918000
2019-08-02,0.255,0.26,0.255,0.255,810000
2019-08-05,0.255,0.255,0.25,0.255,13418000
2019-08-06,0.25,0.255,0.25,0.25,9780000
2019-08-07,0.25,0.255,0.25,0.25,4000000
2019-08-08,0.25,0.255,0.25,0.255,1516050
2019-08-09,0.25,0.255,0.25,0.25,1644000
2019-08-12,0.25,0.255,0.25,0.25,2044000
2019-08-13,0.25,0.25,0.24600000000000002,0.248,6062000
2019-08-14,0.248,0.255,0.24600000000000002,0.24600000000000002,3336000
2019-08-15,0.24600000000000002,0.249,0.24,0.248,1422000
2019-08-16,0.25,0.25,0.24,0.25,2021236
2019-08-19,0.25,0.255,0.248,0.25,1146000
2019-08-20,0.25,0.255,0.25,0.255,781000
2019-08-21,0.255,0.255,0.25,0.25,704000
2019-08-22,0.25,0.255,0.25,0.25,1158441
2019-08-23,0.255,0.255,0.25,0.255,1784000
2019-08-26,0.25,0.25,0.243,0.247,2084384
2019-08-27,0.247,0.25,0.247,0.248,2637962
2019-08-28,0.248,0.255,0.248,0.255,2620000
2019-08-29,0.245,0.248,0.24,0.24100000000000002,3362000
2019-08-30,0.24600000000000002,0.247,0.24100000000000002,0.244,21910000
2019-09-02,0.237,0.244,0.237,0.244,448000
2019-09-03,0.24,0.243,0.23800000000000002,0.239,370000
2019-09-04,0.237,0.243,0.237,0.242,1120000
2019-09-05,0.23800000000000002,0.24,0.23800000000000002,0.24,879000
2019-09-06,0.23800000000000002,0.24,0.23800000000000002,0.24,476184
2019-09-09,0.24100000000000002,0.242,0.24,0.24,290000
2019-09-10,0.242,0.245,0.24,0.243,1374000
2019-09-11,0.244,0.248,0.24100000000000002,0.245,3525000
2019-09-12,0.245,0.24600000000000002,0.24,0.24100000000000002,4831435
2019-09-13,0.243,0.247,0.243,0.24600000000000002,2700000
2019-09-16,0.245,0.24600000000000002,0.242,0.24600000000000002,758000
2019-09-17,0.245,0.24600000000000002,0.243,0.243,1646000
2019-09-18,0.244,0.245,0.242,0.243,1544000
2019-09-19,0.243,0.24600000000000002,0.242,0.242,440000
2019-09-20,0.243,0.24600000000000002,0.242,0.242,942000
2019-09-23,0.242,0.244,0.24100000000000002,0.242,434184
2019-09-24,0.24100000000000002,0.242,0.239,0.242,4072000
2019-09-25,0.24,0.245,0.24,0.24,2510000
2019-09-26,0.24,0.243,0.24,0.24,854000
2019-09-27,0.24100000000000002,0.242,0.24100000000000002,0.24100000000000002,1246000
2019-09-30,0.24,0.24100000000000002,0.239,0.24100000000000002,1572000
2019-10-02,0.237,0.243,0.237,0.243,476000
2019-10-03,0.24,0.242,0.24,0.24100000000000002,307000
2019-10-04,0.24100000000000002,0.24100000000000002,0.239,0.24100000000000002,2460000
2019-10-08,0.23800000000000002,0.24,0.23800000000000002,0.239,690000
2019-10-09,0.237,0.239,0.237,0.23800000000000002,1446000
2019-10-10,0.237,0.239,0.237,0.23800000000000002,782000
2019-10-11,0.23600000000000002,0.24100000000000002,0.23600000000000002,0.23800000000000002,3240000
2019-10-14,0.24100000000000002,0.24100000000000002,0.23800000000000002,0.24,1290000
2019-10-15,0.24,0.24100000000000002,0.239,0.24100000000000002,856000
2019-10-16,0.24,0.242,0.24,0.24,1564000
2019-10-17,0.24,0.242,0.239,0.24100000000000002,1774000
2019-10-18,0.24,0.24100000000000002,0.23,0.23800000000000002,7412000
2019-10-21,0.23800000000000002,0.242,0.23800000000000002,0.239,910000
2019-10-22,0.23800000000000002,0.239,0.23600000000000002,0.237,4537000
2019-10-23,0.235,0.239,0.235,0.239,1402000
2019-10-24,0.237,0.23800000000000002,0.237,0.23800000000000002,1690000
2019-10-25,0.23800000000000002,0.23800000000000002,0.23600000000000002,0.23600000000000002,1328000
2019-10-28,0.237,0.23800000000000002,0.23600000000000002,0.23600000000000002,1108000
2019-10-29,0.23600000000000002,0.239,0.22699999999999998,0.233,4770000
2019-10-30,0.235,0.23600000000000002,0.233,0.23399999999999999,1700000
2019-10-31,0.235,0.23800000000000002,0.233,0.235,3150000
2019-11-01,0.235,0.237,0.23,0.235,6766000
2019-11-04,0.233,0.23800000000000002,0.22899999999999998,0.237,9058000
2019-11-05,0.23600000000000002,0.237,0.233,0.237,1454000
2019-11-06,0.237,0.23800000000000002,0.233,0.23600000000000002,548000
2019-11-07,0.23600000000000002,0.23800000000000002,0.23399999999999999,0.23800000000000002,3138000
2019-11-08,0.235,0.237,0.235,0.237,1438000
2019-11-11,0.23399999999999999,0.235,0.23199999999999998,0.233,1284000
2019-11-12,0.23199999999999998,0.23399999999999999,0.231,0.233,2002000
2019-11-13,0.233,0.235,0.231,0.23199999999999998,962000
2019-11-14,0.23,0.23399999999999999,0.23,0.231,1700000
2019-11-15,0.23399999999999999,0.23800000000000002,0.22899999999999998,0.23,4604000
2019-11-18,0.23,0.231,0.22699999999999998,0.228,540000
2019-11-19,0.228,0.23199999999999998,0.228,0.23199999999999998,414000
2019-11-20,0.23199999999999998,0.235,0.23,0.231,578000
2019-11-21,0.22899999999999998,0.233,0.228,0.23199999999999998,2078000
2019-11-22,0.23,0.23399999999999999,0.22899999999999998,0.22899999999999998,7863000
2019-11-25,0.233,0.23399999999999999,0.23,0.233,174000
2019-11-26,0.23600000000000002,0.23600000000000002,0.23,0.23600000000000002,912000
2019-11-27,0.237,0.237,0.23,0.23600000000000002,2746000
2019-11-28,0.235,0.239,0.235,0.239,4270000
2019-11-29,0.237,0.237,0.23,0.23199999999999998,1798000
2019-12-02,0.233,0.233,0.22899999999999998,0.231,3472000
2019-12-03,0.23,0.23199999999999998,0.23,0.23199999999999998,872000
2019-12-04,0.23,0.23199999999999998,0.228,0.23,1286000
2019-12-05,0.231,0.231,0.23,0.231,744000
2019-12-06,0.23,0.231,0.22899999999999998,0.231,1505000
2019-12-09,0.23,0.23600000000000002,0.23,0.235,212000
2019-12-10,0.235,0.237,0.235,0.237,346000
2019-12-11,0.23199999999999998,0.237,0.23199999999999998,0.233,82000
2019-12-12,0.233,0.23399999999999999,0.23199999999999998,0.23199999999999998,612000
2019-12-13,0.23399999999999999,0.237,0.23199999999999998,0.23600000000000002,1964000
2019-12-16,0.22899999999999998,0.23,0.22699999999999998,0.22699999999999998,1936000
2019-12-17,0.22699999999999998,0.23,0.22699999999999998,0.22699999999999998,2406000
2019-12-18,0.22899999999999998,0.22899999999999998,0.226,0.22699999999999998,2654000
2019-12-19,0.225,0.22899999999999998,0.22399999999999998,0.22899999999999998,1162000
2019-12-20,0.226,0.22699999999999998,0.223,0.22699999999999998,2000000
2019-12-23,0.223,0.22699999999999998,0.223,0.225,2553000
2019-12-24,0.225,0.226,0.223,0.223,910000
2019-12-27,0.22399999999999998,0.231,0.22399999999999998,0.228,6176000
2019-12-30,0.228,0.22899999999999998,0.22399999999999998,0.22699999999999998,3256000
2019-12-31,0.22399999999999998,0.225,0.222,0.225,1586000
2020-01-02,0.22399999999999998,0.22699999999999998,0.223,0.225,2006000
2020-01-03,0.22399999999999998,0.226,0.222,0.222,4484000
2020-01-06,0.221,0.222,0.21,0.21100000000000002,6844962
2020-01-07,0.21100000000000002,0.21600000000000003,0.207,0.209,8752000
2020-01-08,0.20800000000000002,0.20800000000000002,0.204,0.20800000000000002,3131000
2020-01-09,0.207,0.21,0.203,0.20800000000000002,7010369
2020-01-10,0.207,0.209,0.204,0.207,5447680
2020-01-13,0.205,0.207,0.204,0.20600000000000002,2784000
2020-01-14,0.20600000000000002,0.20800000000000002,0.204,0.204,5750000
2020-01-15,0.205,0.205,0.203,0.204,12682314
2020-01-16,0.204,0.20600000000000002,0.204,0.205,6920000
2020-01-17,0.20600000000000002,0.213,0.204,0.21,7460000
2020-01-20,0.21100000000000002,0.21100000000000002,0.20800000000000002,0.21100000000000002,5752000
2020-01-21,0.21,0.21,0.205,0.209,4774000
2020-01-22,0.20600000000000002,0.212,0.205,0.212,4474000
2020-01-23,0.212,0.212,0.20600000000000002,0.209,2590000
2020-01-24,0.20800000000000002,0.21100000000000002,0.20600000000000002,0.209,2234000
2020-01-29,0.205,0.209,0.203,0.20800000000000002,8208000
2020-01-30,0.203,0.207,0.2,0.2,4750000
2020-01-31,0.20199999999999999,0.20600000000000002,0.2,0.20199999999999999,4974000
2020-02-03,0.2,0.201,0.198,0.19899999999999998,2934000
2020-02-04,0.198,0.201,0.198,0.2,2409000
2020-02-05,0.2,0.2,0.198,0.19899999999999998,1843237
2020-02-06,0.198,0.20199999999999999,0.198,0.2,3504185
2020-02-07,0.198,0.2,0.198,0.19899999999999998,2248000
2020-02-10,0.198,0.2,0.196,0.198,2452000
2020-02-11,0.198,0.19899999999999998,0.19699999999999998,0.198,1795000
2020-02-12,0.19899999999999998,0.19899999999999998,0.19699999999999998,0.198,3444000
2020-02-13,0.19899999999999998,0.19899999999999998,0.196,0.19899999999999998,312000
2020-02-14,0.19699999999999998,0.19899999999999998,0.196,0.198,2686000
2020-02-17,0.198,0.19899999999999998,0.196,0.19699999999999998,4504000
2020-02-18,0.196,0.198,0.195,0.196,4394000
2020-02-19,0.196,0.19699999999999998,0.195,0.196,2934000
2020-02-20,0.195,0.196,0.195,0.196,808000
2020-02-21,0.195,0.195,0.193,0.195,2118000
2020-02-24,0.19399999999999998,0.195,0.192,0.19399999999999998,2450000
2020-02-25,0.191,0.192,0.187,0.187,3632000
2020-02-26,0.187,0.188,0.185,0.187,5820000
2020-02-27,0.18600000000000003,0.188,0.183,0.18600000000000003,3866000
2020-02-28,0.185,0.185,0.182,0.183,4179000
2020-03-02,0.18100000000000002,0.185,0.18100000000000002,0.182,4567000
2020-03-03,0.185,0.18600000000000003,0.183,0.184,2285000
2020-03-04,0.182,0.184,0.182,0.183,1016000
2020-03-05,0.182,0.184,0.182,0.183,2526000
2020-03-06,0.18100000000000002,0.182,0.18,0.18100000000000002,4466000
2020-03-09,0.179,0.18100000000000002,0.175,0.175,7392226
2020-03-10,0.174,0.18100000000000002,0.16899999999999998,0.17600000000000002,5497000
2020-03-11,0.17600000000000002,0.17600000000000002,0.172,0.17300000000000001,2748000
2020-03-12,0.17300000000000001,0.17300000000000001,0.16899999999999998,0.171,5704000
2020-03-13,0.165,0.17300000000000001,0.16,0.17,5622000
2020-03-16,0.166,0.172,0.158,0.16,4344000
2020-03-17,0.159,0.162,0.155,0.155,2562000
2020-03-18,0.155,0.162,0.15,0.154,6478000
2020-03-19,0.152,0.152,0.14,0.142,6968000
2020-03-20,0.14300000000000002,0.14800000000000002,0.142,0.142,3836000
2020-03-23,0.14,0.145,0.138,0.141,4166000
2020-03-24,0.141,0.142,0.14,0.142,4991000
2020-03-25,0.141,0.14400000000000002,0.141,0.14300000000000002,5492000
2020-03-26,0.142,0.147,0.142,0.14300000000000002,3344000
2020-03-27,0.14300000000000002,0.145,0.142,0.142,2826000
2020-03-30,0.14,0.142,0.136,0.142,1836000
2020-03-31,0.141,0.145,0.14,0.145,4866000
2020-04-01,0.149,0.149,0.141,0.14300000000000002,1649000
2020-04-02,0.14,0.142,0.138,0.139,4718000
2020-04-03,0.138,0.141,0.13699999999999998,0.139,2860000
2020-04-06,0.14,0.14,0.138,0.139,2320000
2020-04-07,0.14,0.142,0.138,0.138,7647000
2020-04-08,0.138,0.141,0.13699999999999998,0.138,4468000
2020-04-09,0.138,0.142,0.13699999999999998,0.142,5034000
2020-04-14,0.14,0.142,0.139,0.14,2636000
2020-04-15,0.14,0.14,0.138,0.139,454000
2020-04-16,0.138,0.141,0.13699999999999998,0.139,5616000
2020-04-17,0.139,0.14,0.138,0.138,5850000
2020-04-20,0.138,0.139,0.13699999999999998,0.13699999999999998,6628000
2020-04-21,0.136,0.138,0.131,0.133,7812772
2020-04-22,0.13,0.13,0.124,0.126,8736000
2020-04-23,0.126,0.129,0.125,0.126,4886000
2020-04-24,0.124,0.127,0.124,0.125,3468000
2020-04-27,0.125,0.13,0.124,0.124,4030000
2020-04-28,0.124,0.126,0.12300000000000001,0.125,4158000
2020-04-29,0.124,0.125,0.122,0.12300000000000001,7906000
2020-05-04,0.122,0.122,0.11699999999999999,0.11800000000000001,10454000
2020-05-05,0.11699999999999999,0.11900000000000001,0.115,0.115,5646000
2020-05-06,0.11800000000000001,0.11800000000000001,0.115,0.11599999999999999,5944000
2020-05-07,0.11599999999999999,0.11699999999999999,0.115,0.11599999999999999,6146000
2020-05-08,0.11599999999999999,0.11699999999999999,0.113,0.115,8358000
2020-05-11,0.11599999999999999,0.11599999999999999,0.114,0.115,8872000
2020-05-12,0.113,0.115,0.11199999999999999,0.114,10621775
2020-05-13,0.11199999999999999,0.115,0.11199999999999999,0.113,18370000
2020-05-14,0.114,0.114,0.11199999999999999,0.113,4866000
2020-05-15,0.11199999999999999,0.113,0.11,0.11,25414000
2020-05-18,0.109,0.11,0.107,0.107,17106000
2020-05-19,0.10800000000000001,0.109,0.106,0.109,17393000
2020-05-20,0.109,0.12,0.109,0.11900000000000001,25714000
2020-05-21,0.122,0.122,0.11599999999999999,0.11800000000000001,10056000
2020-05-22,0.11900000000000001,0.11900000000000001,0.11199999999999999,0.115,5460000
2020-05-25,0.11,0.115,0.11,0.115,1438000
2020-05-26,0.115,0.11699999999999999,0.113,0.11699999999999999,3324000
2020-05-27,0.11599999999999999,0.11599999999999999,0.111,0.114,1800000
2020-05-28,0.11199999999999999,0.11800000000000001,0.11199999999999999,0.11699999999999999,4621000
2020-05-29,0.11699999999999999,0.12,0.115,0.11699999999999999,3460000
2020-06-01,0.11599999999999999,0.11699999999999999,0.114,0.115,3176000
2020-06-02,0.115,0.11599999999999999,0.115,0.11599999999999999,1906000
2020-06-03,0.11599999999999999,0.11699999999999999,0.115,0.11699999999999999,3356000
2020-06-04,0.11699999999999999,0.11699999999999999,0.114,0.115,1658000
2020-06-05,0.11599999999999999,0.11699999999999999,0.115,0.11599999999999999,2495000
2020-06-08,0.11900000000000001,0.121,0.115,0.11599999999999999,3196000
2020-06-09,0.11800000000000001,0.11800000000000001,0.11599999999999999,0.11599999999999999,7204000
2020-06-10,0.11599999999999999,0.11599999999999999,0.114,0.115,2884000
2020-06-11,0.115,0.11599999999999999,0.114,0.115,1884000
2020-06-12,0.113,0.114,0.113,0.114,1154000
2020-06-15,0.114,0.11599999999999999,0.114,0.115,2250000
2020-06-16,0.115,0.11900000000000001,0.115,0.11599999999999999,5276000
2020-06-17,0.11599999999999999,0.11599999999999999,0.115,0.115,2006000
2020-06-18,0.11599999999999999,0.121,0.11599999999999999,0.11800000000000001,23312000
2020-06-19,0.11900000000000001,0.134,0.11699999999999999,0.13,31423240
2020-06-22,0.134,0.14300000000000002,0.13,0.139,27270000
2020-06-23,0.14,0.14,0.132,0.138,6424000
2020-06-24,0.135,0.135,0.128,0.132,5892000
2020-06-26,0.132,0.132,0.127,0.128,3514000
2020-06-29,0.127,0.14,0.125,0.13699999999999998,11869000
2020-06-30,0.135,0.136,0.131,0.133,10246000
2020-07-02,0.133,0.142,0.133,0.141,10968000
2020-07-03,0.14,0.142,0.136,0.139,8311000
2020-07-06,0.14,0.16,0.139,0.155,17958924
2020-07-07,0.155,0.158,0.146,0.152,18333000
2020-07-08,0.151,0.158,0.14800000000000002,0.156,6293000
2020-07-09,0.162,0.175,0.158,0.17300000000000001,17150612
2020-07-10,0.17800000000000002,0.18,0.166,0.16899999999999998,10266000
2020-07-13,0.172,0.17300000000000001,0.168,0.172,7038000
2020-07-14,0.172,0.18,0.17,0.172,9032000
2020-07-15,0.17300000000000001,0.175,0.17,0.172,2366000
2020-07-16,0.17300000000000001,0.17300000000000001,0.16899999999999998,0.17,5862000
2020-07-17,0.17,0.17600000000000002,0.16899999999999998,0.175,6206000
2020-07-20,0.172,0.17600000000000002,0.172,0.17300000000000001,7493000
2020-07-21,0.17600000000000002,0.198,0.17600000000000002,0.187,12324000
2020-07-22,0.18600000000000003,0.19,0.184,0.184,2840000
2020-07-23,0.184,0.195,0.183,0.187,4189000
2020-07-24,0.188,0.188,0.17,0.175,11932000
2020-07-27,0.172,0.172,0.165,0.17,5221241
2020-07-28,0.16899999999999998,0.17,0.163,0.17,1734000
2020-07-29,0.17,0.17,0.161,0.17,1304000
2020-07-30,0.168,0.168,0.168,0.168,700000
2020-07-31,0.168,0.17300000000000001,0.165,0.16899999999999998,1318000
2020-08-03,0.175,0.175,0.158,0.16899999999999998,1584000
2020-08-04,0.163,0.168,0.159,0.168,2990000
2020-08-05,0.168,0.168,0.161,0.166,2998000
2020-08-06,0.166,0.168,0.162,0.168,3032000
2020-08-07,0.16699999999999998,0.16699999999999998,0.162,0.16399999999999998,490000
2020-08-10,0.16399999999999998,0.16699999999999998,0.159,0.166,2988000
2020-08-11,0.162,0.16899999999999998,0.162,0.168,4123000
2020-08-12,0.163,0.166,0.161,0.166,475000
2020-08-13,0.166,0.166,0.163,0.166,1711696
2020-08-14,0.163,0.166,0.162,0.166,416000
2020-08-17,0.162,0.166,0.162,0.165,1038000
2020-08-18,0.161,0.166,0.161,0.16399999999999998,2010000
2020-08-19,0.166,0.166,0.163,0.166,918000
2020-08-20,0.16399999999999998,0.166,0.16,0.166,3140000
2020-08-21,0.163,0.166,0.162,0.166,1004000
2020-08-24,0.16699999999999998,0.16699999999999998,0.161,0.16399999999999998,1352000
2020-08-25,0.161,0.166,0.161,0.166,16906000
