Date,Open,High,Low,Close,Volume
2014-08-28,1.875,1.996,1.8259999999999998,1.85,1663490
2014-08-29,1.899,1.899,1.8259999999999998,1.8259999999999998,492886
2014-09-01,1.8019999999999998,1.899,1.8019999999999998,1.8259999999999998,492886
2014-09-02,1.8019999999999998,1.8019999999999998,1.7530000000000001,1.777,595571
2014-09-03,1.7530000000000001,1.7530000000000001,1.704,1.729,1088457
2014-09-04,1.729,1.729,1.68,1.704,903624
2014-09-05,1.704,1.704,1.704,1.704,143758
2014-09-08,1.704,1.704,1.656,1.68,369665
2014-09-10,1.704,1.8019999999999998,1.704,1.8019999999999998,349128
2014-09-11,1.8019999999999998,1.8019999999999998,1.7530000000000001,1.777,123222
2014-09-12,1.8019999999999998,2.069,1.8019999999999998,1.972,2520599
2014-09-15,1.972,2.069,1.972,1.996,1581343
2014-09-16,2.045,2.045,2.021,2.021,246443
2014-09-17,2.021,2.045,1.9480000000000002,2.021,759866
2014-09-18,2.021,2.069,1.972,1.972,800940
2014-09-19,1.9480000000000002,2.021,1.9480000000000002,2.021,287517
2014-09-22,1.972,1.972,1.85,1.899,636644
2014-09-23,1.899,1.972,1.899,1.972,205369
2014-09-24,1.996,2.021,1.972,2.021,369665
2014-09-25,1.9480000000000002,2.2159999999999997,1.9480000000000002,2.167,10205411
2014-09-26,2.094,2.1430000000000002,2.094,2.094,266980
2014-09-29,2.069,2.069,1.9480000000000002,2.021,770134
2014-09-30,1.972,2.021,1.9480000000000002,2.021,2618457
2014-10-03,1.972,2.094,1.972,2.094,513423
2014-10-06,2.069,2.2159999999999997,2.069,2.2159999999999997,2376840
2014-10-07,2.24,2.532,2.24,2.362,4283385
2014-10-08,2.362,2.41,2.289,2.362,2495235
2014-10-09,2.362,2.362,2.191,2.3369999999999997,1150067
2014-10-10,2.191,2.313,2.191,2.313,2649262
2014-10-13,2.2640000000000002,2.3369999999999997,2.2159999999999997,2.313,1334900
2014-10-14,2.289,2.289,2.167,2.24,708524
2014-10-15,2.1430000000000002,2.191,2.1430000000000002,2.1430000000000002,2197450
2014-10-16,2.021,2.1430000000000002,2.021,2.1180000000000003,2187182
2014-10-17,2.167,2.167,2.1430000000000002,2.167,657181
2014-10-20,2.094,2.094,1.996,2.021,369665
2014-10-21,2.069,2.094,1.972,2.045,636644
2014-10-22,2.069,2.1430000000000002,2.069,2.1430000000000002,205369
2014-10-23,2.045,2.1430000000000002,2.045,2.1430000000000002,965235
2014-10-24,2.045,2.094,2.045,2.045,390201
2014-10-27,2.021,2.021,1.923,1.9480000000000002,2628725
2014-10-28,1.9480000000000002,2.1180000000000003,1.9480000000000002,2.021,2793021
2014-10-29,2.021,2.021,1.8259999999999998,1.85,3244833
2014-10-30,1.899,1.923,1.777,1.85,2197450
2014-10-31,1.923,1.923,1.85,1.899,451812
2014-11-03,1.899,1.899,1.8259999999999998,1.85,770134
2014-11-04,1.85,1.85,1.8019999999999998,1.8019999999999998,1499195
2014-11-05,1.8259999999999998,1.8259999999999998,1.68,1.68,2505504
2014-11-06,1.729,1.729,1.68,1.704,513423
2014-11-07,1.729,1.8019999999999998,1.704,1.7530000000000001,1273289
2014-11-10,1.8019999999999998,1.8259999999999998,1.7530000000000001,1.7530000000000001,739329
2014-11-11,1.7530000000000001,1.777,1.7530000000000001,1.777,143758
2014-11-12,1.8019999999999998,1.8019999999999998,1.704,1.729,800940
2014-11-13,1.704,1.7530000000000001,1.68,1.7530000000000001,431275
2014-11-14,1.7530000000000001,1.7530000000000001,1.729,1.7530000000000001,390201
2014-11-17,1.7530000000000001,1.7530000000000001,1.7530000000000001,1.7530000000000001,123222
2014-11-18,1.7530000000000001,1.8259999999999998,1.7530000000000001,1.8259999999999998,184832
2014-11-19,1.8259999999999998,1.996,1.8259999999999998,1.923,1478658
2014-11-20,1.7530000000000001,1.821,1.73,1.798,263557
2014-11-21,1.73,1.73,1.685,1.7069999999999999,307483
2014-11-24,1.73,1.73,1.639,1.73,329446
2014-11-25,1.662,1.73,1.639,1.662,153742
2014-11-26,1.685,1.685,1.662,1.685,109816
2014-11-27,1.639,1.7069999999999999,1.639,1.7069999999999999,329446
2014-11-28,1.662,1.662,1.662,1.662,21963
2014-12-01,1.662,1.662,1.639,1.639,153742
2014-12-02,1.6159999999999999,1.6159999999999999,1.6159999999999999,1.6159999999999999,131779
2014-12-03,1.594,1.662,1.594,1.594,142760
2014-12-04,1.594,1.639,1.594,1.6159999999999999,153742
2014-12-05,1.639,1.662,1.639,1.639,329446
2014-12-08,1.73,1.73,1.662,1.685,1822937
2014-12-09,1.662,1.685,1.6159999999999999,1.685,4502434
2014-12-10,1.685,1.7069999999999999,1.685,1.685,5754330
2014-12-11,1.685,1.685,1.662,1.662,3118759
2014-12-12,1.685,1.685,1.6159999999999999,1.639,3294464
2014-12-15,1.639,1.639,1.594,1.594,373373
2014-12-16,1.594,1.6159999999999999,1.548,1.594,2657534
2014-12-18,1.571,1.571,1.548,1.571,87852
2014-12-19,1.6159999999999999,1.6159999999999999,1.571,1.571,3327408
2014-12-29,1.5019999999999998,1.5019999999999998,1.5019999999999998,1.5019999999999998,21963
2015-01-02,1.548,1.548,1.5019999999999998,1.5019999999999998,65889
2015-01-05,1.5019999999999998,1.571,1.5019999999999998,1.5019999999999998,296502
2015-01-06,1.525,1.525,1.525,1.525,43926
2015-01-07,1.594,1.594,1.48,1.5019999999999998,197668
2015-01-08,1.571,1.571,1.548,1.548,131779
2015-01-09,1.548,1.548,1.5019999999999998,1.5019999999999998,175705
2015-01-12,1.5019999999999998,1.5019999999999998,1.5019999999999998,1.5019999999999998,43926
2015-01-13,1.548,1.571,1.548,1.548,43926
2015-01-14,1.4569999999999999,1.525,1.4569999999999999,1.525,131779
2015-01-15,1.594,1.685,1.548,1.548,1120118
2015-01-16,1.548,1.594,1.548,1.594,153742
2015-01-19,1.548,1.571,1.5019999999999998,1.571,527114
2015-01-20,1.571,1.571,1.571,1.571,65889
2015-01-22,1.571,1.594,1.571,1.594,274539
2015-01-23,1.594,1.594,1.594,1.594,65889
2015-01-26,1.594,1.594,1.594,1.594,65889
2015-01-27,1.594,1.594,1.594,1.594,131779
2015-01-28,1.639,1.685,1.548,1.662,746745
2015-01-29,1.685,1.685,1.594,1.6159999999999999,2240235
2015-01-30,1.685,1.685,1.6159999999999999,1.639,1251896
2015-02-02,1.6159999999999999,1.6159999999999999,1.6159999999999999,1.6159999999999999,900487
2015-02-03,1.639,1.639,1.6159999999999999,1.6159999999999999,1449564
2015-02-04,1.6159999999999999,1.6159999999999999,1.594,1.594,2262198
2015-02-05,1.594,1.594,1.48,1.525,7785916
2015-02-06,1.525,1.571,1.4569999999999999,1.5019999999999998,7291746
2015-02-09,1.48,1.48,1.48,1.48,43926
2015-02-10,1.525,1.525,1.4340000000000002,1.4569999999999999,2503792
2015-02-11,1.5019999999999998,1.5019999999999998,1.4569999999999999,1.4569999999999999,351409
2015-02-12,1.4569999999999999,1.4569999999999999,1.4340000000000002,1.4569999999999999,109816
2015-02-13,1.4340000000000002,1.4340000000000002,1.411,1.411,1625269
2015-02-16,1.3659999999999999,1.4340000000000002,1.3659999999999999,1.389,3953356
2015-02-17,1.411,1.411,1.3659999999999999,1.3659999999999999,527114
2015-02-18,1.389,1.389,1.389,1.389,21963
2015-02-25,1.389,1.389,1.3430000000000002,1.3659999999999999,351409
2015-02-26,1.3659999999999999,1.3659999999999999,1.3659999999999999,1.3659999999999999,219631
2015-02-27,1.3659999999999999,1.3659999999999999,1.3659999999999999,1.3659999999999999,65889
2015-03-02,1.389,1.389,1.3659999999999999,1.3659999999999999,197931
2015-03-03,1.3659999999999999,1.411,1.3659999999999999,1.411,131779
2015-03-04,1.3659999999999999,1.3659999999999999,1.252,1.252,1142081
2015-03-05,1.275,1.298,1.275,1.275,658893
2015-03-06,1.32,1.32,1.298,1.298,329446
2015-03-09,1.298,1.298,1.229,1.275,636930
2015-03-10,1.275,1.275,1.207,1.252,395336
2015-03-11,1.207,1.252,1.207,1.229,219631
2015-03-12,1.229,1.252,1.229,1.229,351409
2015-03-13,1.252,1.275,1.252,1.275,329446
2015-03-16,1.229,1.275,1.229,1.275,373373
2015-03-17,1.229,1.275,1.229,1.275,197668
2015-03-18,1.298,1.389,1.275,1.3430000000000002,571040
2015-03-19,1.32,1.32,1.32,1.32,65889
2015-03-20,1.32,1.3430000000000002,1.32,1.3430000000000002,197668
2015-03-23,1.3430000000000002,1.3659999999999999,1.3430000000000002,1.3430000000000002,87852
2015-03-25,1.3659999999999999,1.389,1.3659999999999999,1.3659999999999999,87852
2015-03-26,1.32,1.3659999999999999,1.32,1.3659999999999999,87852
2015-03-27,1.3659999999999999,1.3659999999999999,1.3659999999999999,1.3659999999999999,87852
2015-03-30,1.411,1.4569999999999999,1.389,1.411,417299
2015-03-31,1.411,1.411,1.3430000000000002,1.389,153742
2015-04-01,1.389,1.411,1.3659999999999999,1.3659999999999999,351409
2015-04-02,1.3430000000000002,1.411,1.32,1.411,527114
2015-04-08,1.4340000000000002,1.571,1.4340000000000002,1.5019999999999998,702819
2015-04-09,1.5019999999999998,1.548,1.4569999999999999,1.4569999999999999,219631
2015-04-10,1.548,1.571,1.548,1.571,2393977
2015-04-13,1.571,1.798,1.571,1.776,3118759
2015-04-14,1.776,1.821,1.685,1.776,1603306
2015-04-15,1.798,1.889,1.798,1.844,6171628
2015-04-16,1.844,1.889,1.776,1.867,944413
2015-04-17,1.889,1.912,1.776,1.776,1207970
2015-04-20,1.776,1.776,1.6159999999999999,1.6159999999999999,1361712
2015-04-21,1.639,1.7530000000000001,1.639,1.7069999999999999,1954715
2015-04-22,1.7530000000000001,1.798,1.7530000000000001,1.798,944413
2015-04-23,1.821,1.9809999999999999,1.798,1.912,3118759
2015-04-24,1.9809999999999999,2.072,1.9809999999999999,2.049,4700101
2015-04-27,2.003,2.595,2.003,2.55,8927996
2015-04-28,2.504,2.595,2.276,2.3680000000000003,4755009
2015-04-29,2.3680000000000003,3.096,2.3680000000000003,2.641,8763273
2015-04-30,2.7769999999999997,2.8680000000000003,2.55,2.7769999999999997,5062492
2015-05-04,2.7319999999999998,2.823,2.6860000000000004,2.7319999999999998,1559379
2015-05-05,2.641,2.7319999999999998,2.4130000000000003,2.504,3206611
2015-05-06,2.504,2.55,2.276,2.322,1361712
2015-05-07,2.276,2.276,2.117,2.208,4151024
2015-05-08,2.231,2.459,2.231,2.4130000000000003,1768029
2015-05-11,2.459,2.6860000000000004,2.4130000000000003,2.504,1109136
2015-05-12,2.459,2.459,2.276,2.322,1515453
2015-05-13,2.322,2.3680000000000003,2.276,2.276,944413
2015-05-14,2.4130000000000003,2.9589999999999996,2.4130000000000003,2.9589999999999996,8653458
2015-05-15,3.551,4.143,3.5060000000000002,3.9610000000000003,21259172
2015-05-18,4.007,4.098,3.597,3.733,5169013
2015-05-19,3.733,3.779,3.187,3.3689999999999998,7348850
2015-05-20,3.324,3.597,3.142,3.5060000000000002,3898449
2015-05-21,3.46,3.779,3.278,3.551,2470848
2015-05-22,3.6430000000000002,3.825,3.46,3.5060000000000002,2965017
2015-05-26,3.6430000000000002,3.688,3.3689999999999998,3.551,3623910
2015-05-27,3.5060000000000002,3.597,3.46,3.46,2009623
2015-05-28,3.5060000000000002,3.5060000000000002,3.187,3.278,3601947
2015-05-29,3.278,3.278,3.096,3.278,3052870
2015-06-01,3.278,3.3689999999999998,3.187,3.278,1142081
2015-06-02,3.324,3.324,3.187,3.324,1317785
2015-06-03,3.324,3.324,3.233,3.278,1374890
2015-06-04,3.233,3.324,3.187,3.278,2086494
2015-06-05,3.278,3.278,3.187,3.187,1172829
2015-06-08,3.187,3.278,3.187,3.233,865346
2015-06-09,3.187,3.187,2.6860000000000004,2.9139999999999997,2440099
2015-06-10,2.9139999999999997,2.9589999999999996,2.6860000000000004,2.7319999999999998,768708
2015-06-11,2.8680000000000003,3.142,2.8680000000000003,3.096,1494588
2015-06-12,3.142,3.324,3.051,3.142,1207970
2015-06-15,3.096,3.096,2.7769999999999997,2.823,1735084
2015-06-16,2.7769999999999997,2.7769999999999997,2.641,2.641,1515453
2015-06-17,2.6860000000000004,2.7319999999999998,2.55,2.641,5073474
2015-06-18,2.6860000000000004,2.6860000000000004,2.55,2.55,1076191
2015-06-19,2.55,2.641,2.55,2.595,1383675
2015-06-22,2.595,2.641,2.595,2.595,131779
2015-06-23,2.641,2.641,2.3680000000000003,2.55,944413
2015-06-24,2.55,2.6860000000000004,2.55,2.6860000000000004,812634
2015-06-25,2.6860000000000004,2.6860000000000004,2.3680000000000003,2.641,1273859
2015-06-26,2.55,3.187,2.459,3.051,5666477
2015-06-29,3.005,3.5060000000000002,2.55,2.7319999999999998,6742669
2015-06-30,2.641,3.096,2.55,3.005,3239556
2015-07-02,3.005,3.005,2.6860000000000004,2.7319999999999998,1976678
2015-07-03,2.6860000000000004,2.7319999999999998,2.186,2.186,4381637
2015-07-06,2.276,2.276,1.639,1.844,3755689
2015-07-07,1.821,1.821,1.594,1.7069999999999999,1098155
2015-07-08,1.594,1.594,1.229,1.229,2657534
2015-07-09,1.298,1.821,1.298,1.73,3933590
2015-07-10,1.776,1.9809999999999999,1.7069999999999999,1.7530000000000001,9004867
2015-07-13,1.7530000000000001,1.844,1.662,1.821,6224340
2015-07-14,1.821,1.844,1.7530000000000001,1.7530000000000001,2205094
2015-07-15,1.776,1.798,1.685,1.7069999999999999,1800973
2015-07-16,1.685,1.776,1.685,1.7530000000000001,856561
2015-07-17,1.867,2.641,1.867,2.276,33763860
2015-07-20,2.276,2.322,2.1630000000000003,2.186,3623910
2015-07-21,2.186,2.186,2.003,2.072,3228574
2015-07-22,2.049,2.072,1.9809999999999999,2.049,1076191
2015-07-23,2.049,2.322,2.049,2.14,4897769
2015-07-24,2.117,2.186,2.049,2.117,1713121
2015-07-27,2.049,2.049,1.776,1.798,4063172
2015-07-28,1.776,1.844,1.685,1.776,4019246
2015-07-29,1.776,1.844,1.73,1.776,2020604
2015-07-30,1.798,1.798,1.685,1.7069999999999999,2306125
2015-07-31,1.7069999999999999,1.776,1.7069999999999999,1.73,527114
2015-08-03,1.7530000000000001,1.7530000000000001,1.639,1.662,860953
2015-08-04,1.662,1.73,1.594,1.594,3755689
2015-08-05,1.594,1.662,1.525,1.548,2196309
2015-08-06,1.548,1.639,1.525,1.639,1251896
2015-08-07,1.639,1.639,1.594,1.639,1142081
2015-08-10,1.6159999999999999,1.639,1.5019999999999998,1.548,3316427
2015-08-11,1.571,1.594,1.5019999999999998,1.525,2042567
2015-08-12,1.525,1.525,1.3659999999999999,1.411,3689799
2015-08-13,1.4569999999999999,1.4569999999999999,1.3659999999999999,1.411,1251896
2015-08-14,1.411,1.411,1.3659999999999999,1.389,2437903
2015-08-17,1.389,1.389,1.32,1.3659999999999999,1449564
2015-08-18,1.411,1.411,1.32,1.32,485384
2015-08-19,1.32,1.32,1.275,1.275,1515453
2015-08-20,1.275,1.3430000000000002,1.252,1.32,1449564
2015-08-21,1.275,1.298,1.252,1.298,571040
2015-08-24,1.1840000000000002,1.229,1.138,1.1840000000000002,4458507
2015-08-25,1.161,1.229,1.138,1.1840000000000002,1493490
2015-08-26,1.207,1.229,1.161,1.1840000000000002,944413
2015-08-27,1.229,1.32,1.207,1.298,1361712
2015-08-28,1.3659999999999999,1.411,1.275,1.275,1076213
2015-08-31,1.252,1.252,1.1840000000000002,1.229,1010302
2015-09-01,1.1840000000000002,1.252,1.1840000000000002,1.1840000000000002,636930
2015-09-02,1.1840000000000002,1.1840000000000002,1.12,1.138,1010302
2015-09-04,1.161,1.161,1.138,1.138,461225
2015-09-07,1.161,1.161,1.138,1.161,636930
2015-09-08,1.161,1.275,1.138,1.252,2503792
2015-09-09,1.298,1.3659999999999999,1.129,1.138,8345974
2015-09-10,1.138,1.161,1.115,1.161,4194950
2015-09-11,1.138,1.207,1.12,1.161,6127702
2015-09-14,1.1840000000000002,1.32,1.1840000000000002,1.252,5446846
2015-09-15,1.229,1.298,1.207,1.252,2284161
2015-09-16,1.229,1.275,1.207,1.252,1361712
2015-09-17,1.229,1.252,1.207,1.207,1361712
2015-09-18,1.207,1.298,1.207,1.252,3184648
2015-09-21,1.229,1.275,1.229,1.252,1559379
2015-09-22,1.252,1.275,1.229,1.252,1098155
2015-09-23,1.229,1.229,1.1840000000000002,1.207,1164044
2015-09-24,1.1840000000000002,1.229,1.1840000000000002,1.207,593003
2015-09-25,1.1840000000000002,1.207,1.161,1.207,505151
2015-09-29,1.138,1.161,1.125,1.161,1691158
2015-09-30,1.161,1.161,1.115,1.1340000000000001,900487
2015-10-02,1.138,1.1840000000000002,1.138,1.161,900487
2015-10-05,1.1840000000000002,1.1840000000000002,1.161,1.161,329446
2015-10-06,1.161,1.229,1.161,1.1840000000000002,1251896
2015-10-07,1.1840000000000002,1.275,1.1840000000000002,1.275,2196309
2015-10-08,1.275,1.275,1.207,1.229,1142081
2015-10-09,1.252,1.298,1.229,1.252,2108457
2015-10-12,1.275,1.298,1.207,1.229,1221148
2015-10-13,1.252,1.252,1.229,1.252,1581343
2015-10-14,1.229,1.252,1.207,1.207,1322178
2015-10-15,1.229,1.298,1.207,1.275,2859594
2015-10-16,1.275,1.298,1.252,1.298,768708
2015-10-19,1.32,1.32,1.275,1.298,878524
2015-10-20,1.298,1.298,1.252,1.252,834597
2015-10-22,1.229,1.252,1.229,1.252,285520
2015-10-23,1.252,1.275,1.229,1.252,856561
2015-10-26,1.275,1.32,1.252,1.275,1098155
2015-10-27,1.298,1.298,1.252,1.275,724782
2015-10-28,1.275,1.298,1.252,1.252,571040
2015-10-29,1.252,1.275,1.252,1.252,329446
2015-10-30,1.252,1.252,1.229,1.252,219631
2015-11-02,1.229,1.229,1.207,1.207,197887
2015-11-03,1.252,1.252,1.207,1.252,197668
2015-11-04,1.229,1.252,1.129,1.252,3338390
2015-11-05,1.207,1.229,1.1840000000000002,1.207,307483
2015-11-06,1.1840000000000002,1.207,1.1840000000000002,1.207,614967
2015-11-09,1.229,1.252,1.207,1.229,417299
2015-11-10,1.207,1.229,1.207,1.207,549077
2015-11-11,1.207,1.207,1.1840000000000002,1.207,219631
2015-11-12,1.207,1.229,1.1840000000000002,1.229,505151
2015-11-13,1.1840000000000002,1.207,1.1840000000000002,1.1840000000000002,307483
2015-11-16,1.1840000000000002,1.1840000000000002,1.161,1.1840000000000002,329446
2015-11-17,1.1840000000000002,1.229,1.161,1.1840000000000002,614967
2015-11-18,1.207,1.229,1.207,1.229,746745
2015-11-19,1.229,1.229,1.207,1.207,373373
2015-11-20,1.229,1.229,1.207,1.229,614967
2015-11-23,1.229,1.229,1.207,1.207,292109
2015-11-24,1.1840000000000002,1.1840000000000002,1.138,1.138,4041209
2015-11-25,1.161,1.1840000000000002,1.1340000000000001,1.1840000000000002,2613608
2015-11-26,1.1840000000000002,1.1840000000000002,1.138,1.138,2372014
2015-11-27,1.138,1.138,1.1340000000000001,1.138,1361712
2015-11-30,1.138,1.138,1.138,1.138,1251896
2015-12-01,1.138,1.161,1.138,1.161,1109136
2015-12-02,1.192,1.192,1.127,1.127,1775278
2015-12-03,1.127,1.159,1.127,1.141,598889
2015-12-04,1.141,1.145,1.127,1.131,213889
2015-12-07,1.122,1.122,1.113,1.113,213889
2015-12-08,1.113,1.113,1.099,1.113,641667
2015-12-09,1.127,1.131,1.122,1.122,160417
2015-12-10,1.1079999999999999,1.1079999999999999,1.099,1.113,363611
2015-12-11,1.099,1.099,1.094,1.094,222444
2015-12-14,1.075,1.094,1.075,1.085,128333
2015-12-15,1.136,1.136,1.103,1.103,213889
2015-12-16,1.103,1.1079999999999999,1.103,1.103,256667
2015-12-17,1.127,1.127,1.089,1.127,4331250
2015-12-18,1.122,1.122,1.094,1.099,641667
2015-12-21,1.094,1.094,1.08,1.085,663056
2015-12-22,1.089,1.089,1.08,1.089,427778
2015-12-23,1.089,1.113,1.089,1.094,149722
2015-12-24,1.094,1.094,1.094,1.094,491944
2015-12-28,1.099,1.099,1.099,1.099,235278
2015-12-29,1.1079999999999999,1.145,1.103,1.131,909028
2015-12-30,1.131,1.1640000000000001,1.131,1.155,1283333
2015-12-31,1.15,1.15,1.131,1.131,363611
2016-01-04,1.131,1.136,1.103,1.1079999999999999,1540000
2016-01-05,1.103,1.1079999999999999,1.099,1.099,427778
2016-01-06,1.099,1.122,1.099,1.113,256667
2016-01-07,1.1079999999999999,1.1079999999999999,1.024,1.057,1753889
2016-01-08,1.08,1.089,1.057,1.075,663056
2016-01-11,1.052,1.057,1.052,1.047,406389
2016-01-12,1.005,1.005,0.94,0.9540000000000001,470556
2016-01-13,0.9540000000000001,0.991,0.9440000000000001,0.958,705833
2016-01-14,0.9259999999999999,0.94,0.9259999999999999,0.94,491944
2016-01-15,0.958,1.014,0.958,0.982,727222
2016-01-18,0.9540000000000001,0.9540000000000001,0.935,0.935,85556
2016-01-19,0.935,0.982,0.935,0.982,449167
2016-01-20,0.94,0.94,0.912,0.912,438472
2016-01-21,0.912,0.912,0.8420000000000001,0.846,941111
2016-01-22,0.8420000000000001,0.856,0.8420000000000001,0.856,128333
2016-01-25,0.888,0.888,0.865,0.865,299444
2016-01-26,0.818,0.818,0.785,0.785,320833
2016-01-27,0.753,0.785,0.753,0.757,385000
2016-01-29,0.789,0.789,0.789,0.789,43300
2016-02-02,0.8029999999999999,0.8220000000000001,0.794,0.8170000000000001,433300
2016-02-03,0.8170000000000001,0.8220000000000001,0.8170000000000001,0.8170000000000001,130000
2016-02-05,0.826,0.826,0.826,0.826,65000
2016-02-12,0.794,0.794,0.794,0.8079999999999999,43300
2016-02-16,0.835,0.84,0.835,0.84,108300
2016-02-17,0.8170000000000001,0.826,0.8170000000000001,0.826,130000
2016-02-18,0.868,0.868,0.84,0.84,130000
2016-02-19,0.9,0.9,0.8490000000000001,0.8540000000000001,346700
2016-02-22,0.895,0.9,0.895,0.895,65000
2016-02-23,0.877,0.9,0.868,0.868,455000
2016-02-25,0.877,0.877,0.8590000000000001,0.8590000000000001,368300
2016-02-26,0.8590000000000001,0.863,0.8590000000000001,0.8590000000000001,476700
2016-03-01,0.8590000000000001,0.9229999999999999,0.831,0.877,671700
2016-03-02,0.877,0.8909999999999999,0.877,0.8909999999999999,455000
2016-03-03,0.9229999999999999,0.9229999999999999,0.895,0.9179999999999999,736700
2016-03-04,0.8909999999999999,0.8909999999999999,0.8909999999999999,0.895,43300
2016-03-07,0.8540000000000001,0.8540000000000001,0.845,0.8590000000000001,65000
2016-03-08,0.8590000000000001,1.089,0.8590000000000001,0.992,585000
2016-03-10,1.006,1.052,0.9690000000000001,0.9690000000000001,433300
2016-03-11,0.946,1.011,0.9420000000000001,1.006,238300
2016-03-14,1.015,1.085,0.992,0.992,411700
2016-03-15,0.992,0.992,0.992,0.992,54200
2016-03-17,0.992,1.038,0.992,1.038,379200
2016-03-18,1.038,1.038,0.9790000000000001,0.9790000000000001,108300
2016-03-22,1.025,1.038,1.025,1.038,130000
2016-03-23,1.0290000000000001,1.0290000000000001,1.0290000000000001,1.0290000000000001,43300
2016-03-24,1.0290000000000001,1.0290000000000001,1.0290000000000001,1.0290000000000001,21700
2016-03-29,0.9790000000000001,0.9790000000000001,0.946,0.9740000000000001,130000
2016-03-30,0.9790000000000001,0.988,0.937,0.9690000000000001,325000
2016-03-31,0.951,0.955,0.9179999999999999,0.9229999999999999,715000
2016-04-05,0.9229999999999999,0.9229999999999999,0.9229999999999999,0.9229999999999999,21700
2016-04-07,0.9229999999999999,0.9229999999999999,0.9229999999999999,0.9229999999999999,21700
2016-04-08,0.9,0.9,0.9,0.895,21700
2016-04-11,0.895,0.895,0.895,0.895,21700
2016-04-12,0.8220000000000001,0.9690000000000001,0.8220000000000001,0.965,11721700
2016-04-13,1.011,1.011,0.9690000000000001,0.992,17246700
2016-04-14,0.997,1.002,0.914,0.914,6218300
2016-04-15,0.9229999999999999,0.9279999999999999,0.8909999999999999,0.9229999999999999,585000
2016-04-19,0.9279999999999999,0.9279999999999999,0.8809999999999999,0.9,693300
2016-04-20,0.877,0.877,0.831,0.845,2015000
2016-04-21,0.845,0.932,0.845,0.877,3575000
2016-04-22,0.8859999999999999,0.905,0.8079999999999999,0.8490000000000001,1993300
2016-04-25,0.8540000000000001,0.868,0.831,0.831,520000
2016-04-26,0.845,0.8590000000000001,0.831,0.831,736700
2016-04-27,0.84,0.8540000000000001,0.831,0.835,325000
2016-04-28,0.8540000000000001,0.8590000000000001,0.7979999999999999,0.826,606700
2016-04-29,0.826,0.826,0.826,0.826,21700
2016-05-03,0.831,0.835,0.826,0.826,866700
2016-05-04,0.835,0.835,0.8170000000000001,0.8170000000000001,476700
2016-05-05,0.789,0.835,0.789,0.835,130000
2016-05-06,0.845,0.845,0.8079999999999999,0.8079999999999999,173300
2016-05-09,0.7659999999999999,0.826,0.7659999999999999,0.8220000000000001,130000
2016-05-10,0.831,0.831,0.831,0.831,21700
2016-05-11,0.831,0.831,0.831,0.831,21700
2016-05-12,0.8079999999999999,0.8220000000000001,0.8029999999999999,0.8220000000000001,86700
2016-05-13,0.8029999999999999,0.8029999999999999,0.78,0.78,151700
2016-05-16,0.7979999999999999,0.8170000000000001,0.7979999999999999,0.8079999999999999,151700
2016-05-17,0.826,0.826,0.826,0.8220000000000001,21700
2016-05-18,0.826,0.845,0.826,0.84,2210000
2016-05-19,0.835,0.835,0.794,0.831,2383300
2016-05-20,0.826,0.845,0.826,0.831,1527500
2016-05-23,0.826,0.826,0.794,0.8029999999999999,4355000
2016-05-24,0.8220000000000001,0.826,0.794,0.794,2361700
2016-05-25,0.794,0.794,0.775,0.775,260000
2016-05-26,0.785,0.794,0.7709999999999999,0.775,3990200
2016-05-27,0.789,0.812,0.7709999999999999,0.775,325000
2016-05-30,0.7659999999999999,0.7659999999999999,0.7609999999999999,0.7609999999999999,65000
2016-05-31,0.7709999999999999,0.78,0.752,0.7659999999999999,541700
2016-06-01,0.785,0.7979999999999999,0.785,0.7979999999999999,238300
2016-06-02,0.7709999999999999,0.7709999999999999,0.7709999999999999,0.775,43300
2016-06-03,0.785,0.7979999999999999,0.775,0.775,671700
2016-06-06,0.7709999999999999,0.78,0.752,0.775,476700
2016-06-07,0.775,0.78,0.7709999999999999,0.78,130000
2016-06-08,0.7659999999999999,0.78,0.7609999999999999,0.7659999999999999,108300
2016-06-10,0.7609999999999999,0.7609999999999999,0.7609999999999999,0.7609999999999999,108300
2016-06-13,0.752,0.752,0.743,0.743,195000
2016-06-14,0.775,0.775,0.757,0.757,335800
2016-06-15,0.752,0.752,0.7340000000000001,0.7340000000000001,433300
2016-06-16,0.7390000000000001,0.748,0.7340000000000001,0.7340000000000001,270800
2016-06-17,0.7340000000000001,0.7390000000000001,0.7340000000000001,0.7390000000000001,173300
2016-06-20,0.7390000000000001,0.7659999999999999,0.7340000000000001,0.757,173300
2016-06-21,0.7609999999999999,0.84,0.757,0.7709999999999999,1126700
2016-06-22,0.785,0.785,0.757,0.757,260000
2016-06-23,0.752,0.7709999999999999,0.752,0.7709999999999999,65000
2016-06-24,0.7609999999999999,0.7609999999999999,0.6920000000000001,0.7290000000000001,693300
2016-06-27,0.715,0.7709999999999999,0.715,0.7709999999999999,411700
2016-06-28,0.711,0.7709999999999999,0.711,0.7709999999999999,801700
2016-06-29,0.831,0.831,0.7609999999999999,0.775,1310800
2016-06-30,0.78,0.794,0.725,0.743,2773300
2016-07-04,0.743,0.743,0.7020000000000001,0.711,2708300
2016-07-05,0.7020000000000001,0.752,0.6409999999999999,0.7340000000000001,5590000
2016-07-06,0.7659999999999999,0.7659999999999999,0.665,0.6829999999999999,5893300
2016-07-07,0.6829999999999999,0.6829999999999999,0.6509999999999999,0.655,4268300
2016-07-08,0.669,0.6829999999999999,0.6509999999999999,0.66,4311700
2016-07-11,0.6829999999999999,0.6829999999999999,0.6509999999999999,0.6509999999999999,1040000
2016-07-12,0.665,0.665,0.6459999999999999,0.655,1863300
2016-07-13,0.665,0.669,0.655,0.655,368300
2016-07-14,0.655,0.6829999999999999,0.6459999999999999,0.669,3770000
2016-07-15,0.674,0.674,0.66,0.665,1733300
2016-07-18,0.669,0.6779999999999999,0.655,0.669,780000
2016-07-19,0.6829999999999999,0.6829999999999999,0.655,0.66,411700
2016-07-20,0.665,0.7609999999999999,0.665,0.7020000000000001,3531700
2016-07-21,0.715,0.752,0.6829999999999999,0.7020000000000001,5655000
2016-07-22,0.711,0.711,0.674,0.688,823300
2016-07-25,0.6829999999999999,0.6829999999999999,0.674,0.6829999999999999,65000
2016-07-26,0.688,0.6920000000000001,0.665,0.674,411700
2016-07-27,0.674,0.6779999999999999,0.6459999999999999,0.674,801700
2016-07-28,0.7290000000000001,0.7290000000000001,0.674,0.674,1343300
2016-07-29,0.6509999999999999,0.655,0.637,0.6459999999999999,650000
2016-08-01,0.637,0.669,0.452,0.462,23649200
2016-08-03,0.466,0.498,0.425,0.462,27581700
2016-08-04,0.485,0.489,0.415,0.434,44850000
2016-08-05,0.439,0.457,0.429,0.44299999999999995,4506700
2016-08-08,0.452,0.452,0.429,0.434,3661700
2016-08-09,0.434,0.439,0.429,0.439,22667700
2016-08-10,0.439,0.457,0.434,0.439,3726700
2016-08-11,0.439,0.452,0.434,0.439,2405000
2016-08-12,0.439,0.44799999999999995,0.434,0.44799999999999995,2080000
2016-08-15,0.415,0.415,0.369,0.38299999999999995,11879800
2016-08-16,0.38299999999999995,0.402,0.379,0.38799999999999996,3921700
2016-08-17,0.379,0.392,0.379,0.38299999999999995,931700
2016-08-18,0.38799999999999996,0.38799999999999996,0.365,0.369,715000
2016-08-19,0.369,0.392,0.36,0.379,8460800
2016-08-22,0.379,0.38299999999999995,0.369,0.38299999999999995,3488300
2016-08-23,0.374,0.38799999999999996,0.374,0.379,1863300
2016-08-24,0.374,0.374,0.374,0.374,21700
2016-08-25,0.365,0.365,0.34600000000000003,0.355,2773300
2016-08-26,0.36,0.36,0.355,0.355,671700
2016-08-29,0.355,0.374,0.34600000000000003,0.369,1105000
2016-08-30,0.365,0.379,0.36,0.369,1690000
2016-08-31,0.369,0.379,0.36,0.369,1191700
2016-09-01,0.36,0.374,0.36,0.365,325000
2016-09-02,0.365,0.374,0.365,0.374,866700
2016-09-05,0.365,0.379,0.365,0.379,346700
2016-09-06,0.379,0.41100000000000003,0.379,0.41100000000000003,2058300
2016-09-07,0.406,0.44799999999999995,0.402,0.415,6110000
2016-09-08,0.42,0.42,0.406,0.415,931700
2016-09-09,0.41100000000000003,0.42,0.406,0.415,996700
2016-09-12,0.402,0.402,0.38799999999999996,0.402,4268300
2016-09-13,0.42,0.42,0.397,0.406,5373300
2016-09-14,0.397,0.406,0.397,0.402,5958300
2016-09-15,0.402,0.406,0.402,0.402,368300
2016-09-19,0.402,0.402,0.397,0.397,303300
2016-09-20,0.397,0.397,0.38299999999999995,0.38299999999999995,1018300
2016-09-21,0.38299999999999995,0.38799999999999996,0.369,0.374,1950000
2016-09-22,0.392,0.397,0.38299999999999995,0.38799999999999996,1408300
2016-09-23,0.38799999999999996,0.402,0.38799999999999996,0.392,368300
2016-09-26,0.392,0.392,0.379,0.379,54200
2016-09-27,0.38299999999999995,0.397,0.379,0.397,281700
2016-09-28,0.379,0.415,0.379,0.41100000000000003,7648300
2016-09-29,0.397,0.434,0.397,0.415,6175000
2016-09-30,0.397,0.397,0.38799999999999996,0.38799999999999996,996700
2016-10-03,0.38799999999999996,0.38799999999999996,0.38799999999999996,0.38799999999999996,21700
2016-10-04,0.397,0.41100000000000003,0.397,0.41100000000000003,693300
2016-10-05,0.415,0.415,0.397,0.397,520000
2016-10-06,0.392,0.397,0.392,0.397,65000
2016-10-07,0.41100000000000003,0.429,0.41100000000000003,0.425,238300
2016-10-11,0.425,0.425,0.415,0.415,346700
2016-10-12,0.415,0.425,0.402,0.406,195000
2016-10-13,0.406,0.415,0.397,0.415,325000
2016-10-14,0.439,0.498,0.434,0.452,7605000
2016-10-17,0.44299999999999995,0.462,0.425,0.44299999999999995,1538300
2016-10-18,0.44299999999999995,0.44799999999999995,0.429,0.429,455000
2016-10-19,0.429,0.439,0.425,0.429,498300
2016-10-20,0.439,0.439,0.434,0.439,151700
2016-10-24,0.44299999999999995,0.44299999999999995,0.42,0.429,238300
2016-10-25,0.44299999999999995,0.44299999999999995,0.425,0.425,303300
2016-10-26,0.415,0.425,0.415,0.415,563300
2016-10-27,0.41100000000000003,0.41100000000000003,0.402,0.41100000000000003,238300
2016-10-28,0.42,0.425,0.406,0.406,1061700
2016-10-31,0.406,0.415,0.402,0.415,130000
2016-11-01,0.415,0.425,0.415,0.425,455000
2016-11-02,0.41100000000000003,0.41100000000000003,0.41100000000000003,0.41100000000000003,130000
2016-11-03,0.41100000000000003,0.41100000000000003,0.406,0.406,996700
2016-11-04,0.406,0.406,0.397,0.402,1061700
2016-11-07,0.374,0.374,0.337,0.36,9631400
2016-11-08,0.35100000000000003,0.36,0.35100000000000003,0.35100000000000003,1408600
2016-11-09,0.35100000000000003,0.35100000000000003,0.32799999999999996,0.32799999999999996,2448300
2016-11-10,0.32799999999999996,0.38799999999999996,0.32799999999999996,0.355,3510100
2016-11-11,0.35100000000000003,0.355,0.337,0.355,1235000
2016-11-14,0.342,0.34600000000000003,0.342,0.34600000000000003,260300
2016-11-15,0.342,0.35100000000000003,0.337,0.35100000000000003,1809200
2016-11-16,0.342,0.355,0.342,0.355,975000
2016-11-17,0.342,0.35100000000000003,0.342,0.35100000000000003,216700
2016-11-18,0.342,0.355,0.342,0.355,671700
2016-11-21,0.355,0.355,0.35100000000000003,0.355,238300
2016-11-22,0.355,0.36,0.355,0.355,931700
2016-11-23,0.36,0.36,0.34600000000000003,0.35100000000000003,780000
2016-11-24,0.342,0.36,0.342,0.35100000000000003,1343300
2016-11-25,0.34600000000000003,0.35100000000000003,0.342,0.35100000000000003,541700
2016-11-28,0.355,0.355,0.35100000000000003,0.35100000000000003,541700
2016-11-29,0.342,0.34600000000000003,0.337,0.337,8905000
2016-11-30,0.342,0.365,0.342,0.34600000000000003,12393300
2016-12-01,0.342,0.34600000000000003,0.342,0.342,2210000
2016-12-02,0.342,0.342,0.332,0.332,563400
2016-12-05,0.342,0.34600000000000003,0.332,0.34600000000000003,433300
2016-12-06,0.332,0.337,0.332,0.337,736900
2016-12-07,0.32799999999999996,0.32799999999999996,0.314,0.319,1191700
2016-12-08,0.314,0.319,0.314,0.319,563300
2016-12-09,0.319,0.319,0.319,0.319,173300
2016-12-12,0.314,0.314,0.295,0.305,1061700
2016-12-13,0.295,0.305,0.28600000000000003,0.305,1690000
2016-12-14,0.3,0.305,0.29100000000000004,0.305,2090800
2016-12-15,0.305,0.309,0.295,0.305,2407200
2016-12-16,0.321,0.321,0.306,0.316,2107000
2016-12-19,0.316,0.316,0.311,0.311,628100
2016-12-20,0.306,0.316,0.306,0.311,850900
2016-12-21,0.301,0.306,0.301,0.306,567300
2016-12-22,0.301,0.301,0.301,0.311,20300
2016-12-23,0.306,0.306,0.306,0.306,101300
2016-12-28,0.301,0.306,0.29600000000000004,0.306,344400
2016-12-29,0.306,0.316,0.301,0.301,455800
2016-12-30,0.311,0.316,0.301,0.306,1418200
2017-01-03,0.306,0.306,0.29600000000000004,0.29600000000000004,1884200
2017-01-04,0.301,0.301,0.29600000000000004,0.301,1681600
2017-01-05,0.29600000000000004,0.301,0.29600000000000004,0.301,2147500
2017-01-06,0.306,0.316,0.301,0.306,2897100
2017-01-09,0.311,0.311,0.301,0.306,1519500
2017-01-10,0.306,0.311,0.29600000000000004,0.301,4963600
2017-01-11,0.306,0.311,0.301,0.306,1276400
2017-01-12,0.301,0.306,0.301,0.306,1944900
2017-01-13,0.29600000000000004,0.306,0.29600000000000004,0.301,1762600
2017-01-16,0.311,0.321,0.311,0.311,3565700
2017-01-17,0.306,0.311,0.301,0.301,506500
2017-01-18,0.306,0.326,0.29600000000000004,0.301,16592700
2017-01-19,0.306,0.306,0.301,0.306,3869600
2017-01-20,0.306,0.311,0.29600000000000004,0.306,3180800
2017-01-23,0.301,0.316,0.301,0.311,5409400
2017-01-24,0.306,0.316,0.301,0.316,6727900
2017-01-25,0.316,0.345,0.306,0.306,47539500
2017-01-26,0.306,0.316,0.301,0.306,83794304
2017-01-27,0.311,0.316,0.306,0.311,6219700
2017-02-01,0.311,0.316,0.29600000000000004,0.29600000000000004,15903900
2017-02-02,0.301,0.306,0.262,0.267,42322600
2017-02-03,0.267,0.316,0.267,0.281,79256096
2017-02-06,0.281,0.306,0.276,0.281,41768900
2017-02-07,0.281,0.29100000000000004,0.267,0.281,98188896
2017-02-08,0.281,0.301,0.272,0.272,95170200
2017-02-09,0.276,0.281,0.267,0.267,76318496
2017-02-10,0.272,0.28600000000000003,0.257,0.262,70220304
2017-02-13,0.262,0.267,0.24600000000000002,0.247,88140000
2017-02-14,0.247,0.252,0.244,0.244,47569900
2017-02-15,0.24600000000000002,0.247,0.239,0.24100000000000002,45057700
2017-02-16,0.243,0.24600000000000002,0.23800000000000002,0.24,42434000
2017-02-17,0.24100000000000002,0.244,0.237,0.23800000000000002,34826500
2017-02-20,0.239,0.24,0.233,0.23399999999999999,25892000
2017-02-21,0.233,0.235,0.23,0.23199999999999998,23541800
2017-02-22,0.23199999999999998,0.237,0.23199999999999998,0.23600000000000002,3251700
2017-02-23,0.237,0.237,0.22899999999999998,0.233,6219700
2017-02-24,0.23199999999999998,0.23600000000000002,0.23,0.23600000000000002,4112700
2017-02-27,0.23600000000000002,0.23600000000000002,0.23199999999999998,0.23199999999999998,1276400
2017-02-28,0.23199999999999998,0.267,0.23199999999999998,0.257,65846200
2017-03-01,0.257,0.262,0.244,0.247,14890900
2017-03-02,0.247,0.252,0.242,0.245,22611900
2017-03-03,0.245,0.247,0.244,0.247,10839000
2017-03-06,0.247,0.247,0.242,0.244,3464400
2017-03-07,0.239,0.244,0.23800000000000002,0.244,3750100
2017-03-08,0.243,0.244,0.23399999999999999,0.244,4781300
2017-03-09,0.23800000000000002,0.239,0.237,0.239,1458700
2017-03-10,0.237,0.237,0.23600000000000002,0.23600000000000002,2026000
2017-03-13,0.237,0.243,0.23399999999999999,0.235,2372400
2017-03-14,0.23600000000000002,0.237,0.235,0.235,1924700
2017-03-15,0.23399999999999999,0.24100000000000002,0.23199999999999998,0.24100000000000002,3586000
2017-03-16,0.23399999999999999,0.235,0.233,0.235,4599000
2017-03-17,0.233,0.235,0.228,0.22899999999999998,31341800
2017-03-20,0.226,0.23,0.225,0.23,2026000
2017-03-21,0.22899999999999998,0.231,0.223,0.225,4052000
2017-03-22,0.225,0.225,0.19699999999999998,0.215,5085200
2017-03-23,0.217,0.222,0.217,0.218,1154800
2017-03-24,0.218,0.218,0.218,0.218,60800
2017-03-27,0.217,0.217,0.205,0.21600000000000003,324200
2017-03-28,0.21100000000000002,0.215,0.21100000000000002,0.215,1560000
2017-03-29,0.223,0.223,0.21899999999999997,0.222,547000
2017-03-30,0.23399999999999999,0.237,0.22399999999999998,0.22399999999999998,2107000
2017-03-31,0.23600000000000002,0.237,0.22399999999999998,0.23199999999999998,4498700
2017-04-03,0.23600000000000002,0.23600000000000002,0.228,0.228,1136600
2017-04-05,0.22699999999999998,0.22699999999999998,0.218,0.225,2147500
2017-04-06,0.22,0.22,0.215,0.215,1154800
2017-04-07,0.21,0.21899999999999997,0.207,0.21899999999999997,28849900
2017-04-10,0.212,0.22399999999999998,0.212,0.22,526800
2017-04-11,0.22,0.221,0.212,0.21600000000000003,1337100
2017-04-12,0.201,0.218,0.201,0.20800000000000002,688800
2017-04-13,0.207,0.222,0.20600000000000002,0.215,1560000
2017-04-18,0.205,0.207,0.205,0.207,182300
2017-04-19,0.207,0.209,0.207,0.209,1134500
2017-04-20,0.212,0.212,0.205,0.207,1560000
2017-04-21,0.203,0.207,0.201,0.207,15883600
2017-04-24,0.20800000000000002,0.209,0.19699999999999998,0.201,2208300
2017-04-25,0.2,0.20199999999999999,0.198,0.20199999999999999,992700
2017-04-26,0.20199999999999999,0.20199999999999999,0.20199999999999999,0.20199999999999999,425500
2017-04-27,0.207,0.209,0.207,0.207,911700
2017-04-28,0.2,0.207,0.2,0.207,911700
2017-05-02,0.2,0.203,0.2,0.2,729400
2017-05-04,0.2,0.201,0.196,0.2,1438400
2017-05-05,0.19899999999999998,0.20199999999999999,0.19899999999999998,0.20199999999999999,790100
2017-05-08,0.19699999999999998,0.198,0.19699999999999998,0.20199999999999999,150900
2017-05-09,0.204,0.204,0.20199999999999999,0.20199999999999999,506500
2017-05-10,0.20199999999999999,0.204,0.20199999999999999,0.20199999999999999,182300
2017-05-11,0.19399999999999998,0.20199999999999999,0.19399999999999998,0.2,1823400
2017-05-12,0.2,0.204,0.2,0.204,162100
2017-05-15,0.205,0.207,0.205,0.207,1033200
2017-05-16,0.207,0.209,0.196,0.19699999999999998,1563400
2017-05-17,0.19699999999999998,0.19899999999999998,0.18899999999999997,0.191,3028800
2017-05-18,0.19,0.195,0.188,0.193,668600
2017-05-19,0.192,0.195,0.192,0.195,810400
2017-05-22,0.19,0.19,0.18899999999999997,0.18899999999999997,243100
2017-05-23,0.188,0.18899999999999997,0.182,0.187,4609100
2017-05-24,0.185,0.193,0.183,0.183,1722100
2017-05-25,0.183,0.187,0.183,0.185,526800
2017-05-26,0.18100000000000002,0.183,0.18100000000000002,0.183,1235800
2017-05-29,0.184,0.187,0.184,0.187,101300
2017-05-31,0.18600000000000003,0.18600000000000003,0.183,0.183,952200
2017-06-01,0.187,0.187,0.182,0.183,1063600
2017-06-02,0.182,0.185,0.18100000000000002,0.185,633900
2017-06-05,0.18100000000000002,0.185,0.18100000000000002,0.185,668600
2017-06-06,0.185,0.207,0.182,0.20199999999999999,33469100
2017-06-07,0.201,0.204,0.191,0.198,20887800
2017-06-08,0.198,0.203,0.19699999999999998,0.198,1154800
2017-06-09,0.19699999999999998,0.19899999999999998,0.193,0.19899999999999998,324200
2017-06-12,0.198,0.22399999999999998,0.193,0.22,32253500
2017-06-13,0.21899999999999997,0.223,0.205,0.209,8103900
2017-06-14,0.207,0.217,0.207,0.213,1479000
2017-06-15,0.21100000000000002,0.213,0.207,0.213,1094000
2017-06-16,0.21,0.23800000000000002,0.21,0.225,13675300
2017-06-19,0.225,0.23199999999999998,0.22,0.225,14728800
2017-06-20,0.231,0.23199999999999998,0.222,0.22899999999999998,1013000
2017-06-21,0.22899999999999998,0.235,0.222,0.22899999999999998,1276400
2017-06-22,0.22699999999999998,0.22699999999999998,0.214,0.217,19165700
2017-06-23,0.225,0.23199999999999998,0.22,0.228,10312200
2017-06-26,0.223,0.228,0.207,0.20800000000000002,17149900
2017-06-27,0.20800000000000002,0.214,0.166,0.183,14506000
2017-06-28,0.183,0.192,0.171,0.175,4578700
2017-06-29,0.175,0.17800000000000002,0.166,0.171,6847800
2017-06-30,0.17300000000000001,0.182,0.16899999999999998,0.17800000000000002,6888300
2017-07-03,0.17600000000000002,0.182,0.172,0.175,2127300
2017-07-04,0.175,0.175,0.16899999999999998,0.174,4923100
2017-07-05,0.172,0.172,0.163,0.17,1742300
2017-07-06,0.168,0.172,0.16399999999999998,0.171,1681600
2017-07-07,0.174,0.177,0.17,0.175,1681600
2017-07-10,0.171,0.171,0.16,0.165,3302300
2017-07-11,0.161,0.165,0.161,0.165,6077900
2017-07-12,0.171,0.171,0.166,0.168,425500
2017-07-13,0.163,0.166,0.161,0.166,9279000
2017-07-14,0.168,0.172,0.163,0.168,6199500
2017-07-17,0.17800000000000002,0.17800000000000002,0.16399999999999998,0.168,830600
2017-07-18,0.162,0.165,0.16,0.16399999999999998,3221300
2017-07-19,0.16399999999999998,0.17,0.163,0.17,506500
2017-07-20,0.17,0.175,0.16699999999999998,0.16699999999999998,2674300
2017-07-21,0.166,0.168,0.165,0.16699999999999998,486200
2017-07-24,0.16399999999999998,0.16399999999999998,0.16399999999999998,0.16399999999999998,364700
2017-07-25,0.161,0.16399999999999998,0.161,0.16399999999999998,1154800
2017-07-26,0.16399999999999998,0.166,0.16399999999999998,0.166,222900
2017-07-27,0.162,0.16899999999999998,0.161,0.16899999999999998,567300
2017-07-28,0.16899999999999998,0.174,0.163,0.163,7415100
2017-07-31,0.166,0.166,0.163,0.163,243100
2017-08-01,0.16699999999999998,0.168,0.163,0.16699999999999998,4264700
2017-08-02,0.16399999999999998,0.16899999999999998,0.16,0.168,7739200
2017-08-03,0.16899999999999998,0.16899999999999998,0.161,0.166,425500
2017-08-04,0.162,0.166,0.162,0.166,2350100
2017-08-07,0.166,0.168,0.166,0.168,810400
2017-08-08,0.166,0.166,0.158,0.158,1499200
2017-08-09,0.156,0.162,0.14300000000000002,0.152,21313300
2017-08-10,0.152,0.156,0.14400000000000002,0.14400000000000002,607800
2017-08-11,0.14400000000000002,0.14400000000000002,0.14400000000000002,0.14400000000000002,567300
2017-08-14,0.149,0.149,0.138,0.146,11870000
2017-08-15,0.138,0.156,0.129,0.155,14587000
2017-08-16,0.139,0.147,0.138,0.141,1256100
2017-08-17,0.14,0.14,0.134,0.136,1357400
2017-08-18,0.142,0.15,0.142,0.15,587500
2017-08-21,0.156,0.165,0.13699999999999998,0.154,50912800
2017-08-22,0.157,0.166,0.145,0.163,15053000
2017-08-24,0.159,0.163,0.157,0.16,547000
2017-08-25,0.153,0.159,0.15,0.159,1154800
2017-08-29,0.151,0.163,0.14300000000000002,0.153,15478400
2017-08-30,0.153,0.162,0.151,0.153,5956400
2017-08-31,0.149,0.17,0.149,0.159,46719000
2017-09-01,0.162,0.166,0.157,0.165,9967800
2017-09-04,0.159,0.162,0.157,0.162,7941800
2017-09-05,0.157,0.162,0.154,0.162,11061800
2017-09-06,0.16399999999999998,0.165,0.162,0.165,101300
2017-09-07,0.157,0.16399999999999998,0.157,0.163,1803100
2017-09-08,0.158,0.158,0.156,0.156,2147500
2017-09-11,0.154,0.154,0.154,0.154,222900
2017-09-12,0.154,0.157,0.153,0.154,364700
2017-09-13,0.151,0.168,0.151,0.163,1560000
2017-09-14,0.161,0.161,0.154,0.161,680700
2017-09-15,0.154,0.154,0.153,0.154,2248800
2017-09-18,0.153,0.16699999999999998,0.153,0.161,5490400
2017-09-19,0.158,0.158,0.158,0.158,1357400
2017-09-20,0.157,0.158,0.153,0.155,1762600
2017-09-21,0.155,0.159,0.155,0.159,1874000
2017-09-22,0.159,0.159,0.14400000000000002,0.156,39871188
2017-09-25,0.155,0.16399999999999998,0.155,0.16,7313770
2017-09-26,0.158,0.172,0.154,0.168,4477405
2017-09-27,0.168,0.17,0.16399999999999998,0.16399999999999998,3910132
2017-09-28,0.162,0.166,0.162,0.166,506494
2017-09-29,0.16699999999999998,0.168,0.161,0.161,3363119
2017-10-03,0.161,0.16699999999999998,0.158,0.16399999999999998,871169
2017-10-04,0.158,0.163,0.158,0.163,2046235
2017-10-06,0.159,0.165,0.152,0.163,3768314
2017-10-09,0.16,0.161,0.157,0.158,3876906
2017-10-10,0.158,0.163,0.158,0.163,121559
2017-10-11,0.163,0.165,0.152,0.162,5774029
2017-10-12,0.162,0.166,0.16,0.16399999999999998,9684161
2017-10-13,0.16399999999999998,0.16399999999999998,0.161,0.161,1701819
2017-10-16,0.161,0.161,0.159,0.16399999999999998,526754
2017-10-17,0.165,0.166,0.159,0.162,972468
2017-10-18,0.162,0.17,0.162,0.168,1620780
2017-10-19,0.162,0.166,0.161,0.166,3059222
2017-10-20,0.16,0.165,0.158,0.165,30376120
2017-10-23,0.165,0.165,0.163,0.16399999999999998,2370391
2017-10-24,0.161,0.161,0.158,0.158,617922
2017-10-25,0.157,0.168,0.156,0.16399999999999998,3221300
2017-10-26,0.163,0.19399999999999998,0.162,0.177,40884176
2017-10-27,0.174,0.187,0.16899999999999998,0.183,16737086
2017-10-30,0.183,0.183,0.171,0.179,14971955
2017-10-31,0.174,0.17800000000000002,0.17300000000000001,0.17800000000000002,8286238
2017-11-01,0.175,0.183,0.175,0.18,1499222
2017-11-02,0.179,0.18,0.179,0.179,425455
2017-11-03,0.17600000000000002,0.17600000000000002,0.174,0.175,790130
2017-11-06,0.17600000000000002,0.17800000000000002,0.17600000000000002,0.17800000000000002,776624
2017-11-07,0.17300000000000001,0.17300000000000001,0.172,0.177,162078
2017-11-08,0.172,0.18,0.171,0.17800000000000002,3454287
2017-11-09,0.17300000000000001,0.175,0.172,0.172,911689
2017-11-10,0.174,0.174,0.17,0.174,668572
2017-11-13,0.17,0.17800000000000002,0.17,0.177,222857
2017-11-14,0.177,0.177,0.159,0.174,18476892
2017-11-15,0.174,0.18600000000000003,0.165,0.171,22447804
2017-11-16,0.172,0.175,0.165,0.168,6381821
2017-11-17,0.165,0.171,0.163,0.16699999999999998,1651170
2017-11-20,0.16399999999999998,0.16699999999999998,0.16399999999999998,0.16699999999999998,425455
2017-11-21,0.16699999999999998,0.16699999999999998,0.158,0.165,1899352
2017-11-22,0.163,0.166,0.163,0.166,243117
2017-11-23,0.162,0.165,0.159,0.165,2613508
2017-11-24,0.161,0.163,0.159,0.163,5591691
2017-11-27,0.158,0.162,0.14300000000000002,0.14800000000000002,8326757
2017-11-28,0.14300000000000002,0.14800000000000002,0.138,0.14800000000000002,2735066
2017-11-29,0.138,0.14300000000000002,0.136,0.141,3788573
2017-11-30,0.139,0.141,0.134,0.138,6280523
2017-12-01,0.132,0.138,0.132,0.139,2654027
2017-12-04,0.132,0.138,0.131,0.13699999999999998,1357403
2017-12-05,0.135,0.138,0.132,0.13699999999999998,11487278
2017-12-06,0.139,0.14400000000000002,0.134,0.141,5085197
2017-12-07,0.14300000000000002,0.147,0.13699999999999998,0.13699999999999998,6847796
2017-12-08,0.133,0.133,0.132,0.132,972468
2017-12-11,0.131,0.131,0.125,0.128,648312
2017-12-12,0.131,0.131,0.128,0.135,182338
2017-12-13,0.128,0.13699999999999998,0.128,0.13699999999999998,334286
2017-12-15,0.128,0.129,0.124,0.126,1600520
2017-12-18,0.131,0.131,0.131,0.131,0
2017-12-19,0.129,0.13,0.128,0.128,0
2017-12-20,0.113,0.11699999999999999,0.11,0.11599999999999999,5875328
2017-12-21,0.115,0.11699999999999999,0.115,0.124,668572
2017-12-27,0.11199999999999999,0.121,0.11199999999999999,0.12,1296624
2017-12-28,0.12,0.13,0.12,0.13,2836365
2017-12-29,0.11800000000000001,0.13,0.11800000000000001,0.13,1276364
2018-01-02,0.131,0.131,0.129,0.129,0
2018-01-03,0.13,0.13,0.12,0.13,952208
2018-01-04,0.128,0.13,0.125,0.13,405195
2018-01-05,0.126,0.13,0.126,0.13,202598
2018-01-08,0.126,0.127,0.12300000000000001,0.127,1119351
2018-01-09,0.124,0.128,0.124,0.128,1114286
2018-01-10,0.12300000000000001,0.124,0.11800000000000001,0.12300000000000001,7192211
2018-01-11,0.12300000000000001,0.146,0.12,0.142,144664752
2018-01-12,0.147,0.154,0.13,0.132,6199484
2018-01-15,0.131,0.133,0.129,0.133,1316884
2018-01-16,0.13699999999999998,0.13699999999999998,0.13699999999999998,0.13699999999999998,20260
2018-01-17,0.13699999999999998,0.13699999999999998,0.127,0.136,1276364
2018-01-18,0.13,0.13,0.126,0.126,2107014
2018-01-19,0.126,0.13,0.124,0.129,648312
2018-01-23,0.124,0.128,0.124,0.128,688832
2018-01-24,0.133,0.138,0.124,0.126,2704677
2018-01-25,0.125,0.133,0.125,0.131,1704048
2018-01-26,0.127,0.128,0.127,0.127,1641040
2018-01-29,0.127,0.127,0.12300000000000001,0.127,1458702
2018-01-30,0.12300000000000001,0.126,0.12300000000000001,0.126,1256105
2018-01-31,0.122,0.126,0.122,0.125,506494
2018-02-01,0.12300000000000001,0.12300000000000001,0.11900000000000001,0.122,15255592
2018-02-02,0.11800000000000001,0.12300000000000001,0.11800000000000001,0.122,3687275
2018-02-05,0.11900000000000001,0.12,0.11199999999999999,0.11800000000000001,4923119
2018-02-06,0.11199999999999999,0.11599999999999999,0.111,0.113,19935594
2018-02-07,0.11800000000000001,0.11800000000000001,0.109,0.111,2643978
2018-02-08,0.114,0.114,0.11199999999999999,0.114,2350131
2018-02-09,0.11199999999999999,0.11199999999999999,0.10800000000000001,0.11199999999999999,2056365
2018-02-12,0.11,0.11,0.11,0.11,40520
2018-02-13,0.113,0.115,0.113,0.113,709091
2018-02-14,0.11199999999999999,0.11199999999999999,0.11,0.11,1114286
2018-02-15,0.11,0.11699999999999999,0.11,0.114,263377
2018-02-20,0.114,0.11699999999999999,0.114,0.11699999999999999,1418183
2018-02-21,0.11699999999999999,0.11800000000000001,0.11599999999999999,0.11800000000000001,3484677
2018-02-22,0.11800000000000001,0.12300000000000001,0.11800000000000001,0.12300000000000001,2572988
2018-02-23,0.128,0.136,0.127,0.128,16927020
2018-02-26,0.13,0.133,0.129,0.131,2160000
2018-02-27,0.13,0.133,0.128,0.13,740000
2018-02-28,0.128,0.132,0.128,0.132,240000
2018-03-01,0.134,0.135,0.129,0.129,820000
2018-03-02,0.127,0.13,0.125,0.129,1570000
2018-03-05,0.13,0.13,0.125,0.129,1492000
2018-03-06,0.12300000000000001,0.13,0.12300000000000001,0.13,340000
2018-03-07,0.127,0.13,0.125,0.13,205000
2018-03-08,0.13,0.136,0.12300000000000001,0.126,17406664
2018-03-09,0.129,0.175,0.126,0.14400000000000002,130800000
2018-03-12,0.14800000000000002,0.154,0.13699999999999998,0.14,46080000
2018-03-13,0.529,0.544,0.506,0.514,2607350
2018-03-14,0.495,0.635,0.495,0.593,15692470
2018-03-15,0.593,0.597,0.5589999999999999,0.586,2533240
2018-03-16,0.57,0.57,0.5589999999999999,0.563,6744710
2018-03-19,0.54,0.5670000000000001,0.54,0.563,848380
2018-03-20,0.5670000000000001,0.5670000000000001,0.552,0.563,947650
2018-03-21,0.552,0.627,0.54,0.593,2583530
2018-03-22,0.586,0.586,0.563,0.57,386470
2018-03-23,0.54,0.601,0.54,0.5589999999999999,4256470
2018-03-26,0.574,0.574,0.5479999999999999,0.563,121760
2018-03-27,0.5589999999999999,0.5589999999999999,0.5589999999999999,0.563,211760
2018-03-28,0.521,0.574,0.499,0.514,3806470
2018-03-29,0.491,0.506,0.45299999999999996,0.506,8338560
2018-04-03,0.484,0.51,0.48,0.51,2308240
2018-04-04,0.51,0.529,0.491,0.514,5018830
2018-04-06,0.525,0.586,0.525,0.574,10928830
2018-04-09,0.5670000000000001,0.616,0.5589999999999999,0.601,9419830
2018-04-10,0.601,0.627,0.586,0.623,8790890
2018-04-11,0.635,0.703,0.623,0.68,11598090
2018-04-12,0.71,0.71,0.6609999999999999,0.672,5086990
2018-04-13,0.688,0.688,0.62,0.631,3126180
2018-04-16,0.627,0.627,0.597,0.62,1434710
2018-04-17,0.604,0.616,0.57,0.616,29271100
2018-04-18,0.593,0.623,0.574,0.612,28429430
2018-04-19,0.612,0.627,0.593,0.612,4388830
2018-04-20,0.612,0.616,0.604,0.612,8883530
2018-04-23,0.604,0.612,0.604,0.612,1185880
2018-04-24,0.62,0.638,0.604,0.604,1201770
2018-04-25,0.601,0.62,0.593,0.62,10368530
2018-04-26,0.62,0.627,0.597,0.612,2265880
2018-04-27,0.612,0.623,0.604,0.616,1085290
2018-04-30,0.612,0.62,0.612,0.62,1625290
2018-05-02,0.62,0.635,0.616,0.627,502940
2018-05-03,0.616,0.623,0.612,0.623,3102350
2018-05-04,0.623,0.623,0.616,0.623,1498240
2018-05-07,0.616,0.623,0.616,0.623,1302350
2018-05-08,0.623,0.627,0.612,0.623,1111770
2018-05-09,0.62,0.623,0.608,0.608,799410
2018-05-10,0.604,0.608,0.597,0.601,370590
2018-05-11,0.604,0.608,0.529,0.544,489710
2018-05-14,0.544,0.555,0.544,0.552,238240
2018-05-15,0.552,0.5670000000000001,0.544,0.5670000000000001,158820
2018-05-16,0.5670000000000001,0.5670000000000001,0.5670000000000001,0.5670000000000001,21180
2018-05-17,0.5589999999999999,0.5589999999999999,0.529,0.555,190590
2018-05-18,0.5479999999999999,0.552,0.5479999999999999,0.552,148240
2018-05-21,0.502,0.544,0.502,0.544,164120
2018-05-23,0.499,0.518,0.499,0.506,487060
2018-05-24,0.51,0.51,0.51,0.51,15880
2018-05-25,0.514,0.514,0.51,0.514,204490
2018-05-28,0.514,0.514,0.514,0.514,0
2018-05-29,0.518,0.518,0.518,0.518,10590
2018-05-30,0.136,0.136,0.135,0.51,0
2018-05-31,0.514,0.514,0.51,0.514,68820
2018-06-01,0.502,0.502,0.499,0.514,158820
2018-06-04,0.514,0.514,0.514,0.514,0
2018-06-05,0.495,0.506,0.491,0.502,360000
2018-06-06,0.499,0.499,0.491,0.502,58240
2018-06-07,0.502,0.502,0.491,0.491,333530
2018-06-08,0.48700000000000004,0.491,0.484,0.491,370590
2018-06-11,0.484,0.484,0.484,0.484,142940
2018-06-12,0.127,0.128,0.127,0.484,0
2018-06-13,0.47200000000000003,0.47200000000000003,0.47200000000000003,0.47200000000000003,105880
2018-06-14,0.491,0.495,0.491,0.491,391760
2018-06-15,0.563,0.563,0.491,0.491,10590
2018-06-19,0.491,0.491,0.491,0.491,26470
2018-06-20,0.45299999999999996,0.47200000000000003,0.45299999999999996,0.484,26470
2018-06-21,0.484,0.484,0.484,0.484,26470
2018-06-22,0.491,0.491,0.48700000000000004,0.491,270000
2018-06-25,0.47200000000000003,0.47200000000000003,0.47200000000000003,0.47200000000000003,52940
2018-06-26,0.47200000000000003,0.47200000000000003,0.446,0.45,968820
2018-06-27,0.41600000000000004,0.41600000000000004,0.408,0.41600000000000004,1662350
2018-06-28,0.40399999999999997,0.40399999999999997,0.40399999999999997,0.41600000000000004,21180
2018-06-29,0.484,0.48700000000000004,0.48,0.45299999999999996,84710
2018-07-03,0.45299999999999996,0.45299999999999996,0.45299999999999996,0.45299999999999996,0
2018-07-04,0.389,0.48,0.389,0.419,21180
2018-07-05,0.389,0.431,0.389,0.431,52940
2018-07-06,0.397,0.42700000000000005,0.397,0.42700000000000005,37060
2018-07-09,0.385,0.385,0.382,0.382,79410
2018-07-10,0.397,0.397,0.397,0.397,158820
2018-07-11,0.389,0.41200000000000003,0.366,0.41200000000000003,1535300
2018-07-12,0.382,0.389,0.382,0.389,265590
2018-07-13,0.37799999999999995,0.37799999999999995,0.37799999999999995,0.37799999999999995,5290
2018-07-16,0.37799999999999995,0.37799999999999995,0.37799999999999995,0.37799999999999995,42350
2018-07-17,0.37799999999999995,0.37799999999999995,0.37799999999999995,0.37799999999999995,15880
2018-07-18,0.366,0.366,0.321,0.355,52940
2018-07-19,0.321,0.37,0.321,0.35100000000000003,211760
2018-07-20,0.35100000000000003,0.35100000000000003,0.35100000000000003,0.35100000000000003,0
2018-07-23,0.34,0.344,0.34,0.344,50290
2018-07-24,0.344,0.355,0.344,0.363,31760
2018-07-25,0.37799999999999995,0.41200000000000003,0.363,0.408,132350
2018-07-26,0.4,0.40399999999999997,0.4,0.40399999999999997,52940
2018-07-27,0.419,0.42700000000000005,0.419,0.419,375880
2018-07-30,0.419,0.419,0.419,0.419,0
2018-07-31,0.419,0.419,0.419,0.419,0
2018-08-01,0.431,0.431,0.363,0.374,47650
2018-08-02,0.419,0.423,0.419,0.423,174710
2018-08-03,0.42700000000000005,0.446,0.42700000000000005,0.434,142940
2018-08-06,0.39299999999999996,0.45299999999999996,0.37799999999999995,0.45299999999999996,741180
2018-08-07,0.389,0.491,0.389,0.48,545290
2018-08-08,0.45299999999999996,0.484,0.41600000000000004,0.484,174710
2018-08-09,0.484,0.484,0.45299999999999996,0.457,317650
2018-08-10,0.442,0.457,0.431,0.457,169410
2018-08-13,0.457,0.457,0.457,0.45299999999999996,15880
2018-08-14,0.431,0.461,0.431,0.461,74120
2018-08-15,0.423,0.465,0.423,0.45299999999999996,95290
2018-08-16,0.434,0.45299999999999996,0.434,0.45299999999999996,58240
2018-08-17,0.419,0.45299999999999996,0.408,0.45299999999999996,222350
2018-08-20,0.45,0.45,0.45,0.45,5290
2018-08-21,0.45,0.465,0.45,0.465,58240
2018-08-22,0.419,0.461,0.419,0.461,58240
2018-08-23,0.419,0.47200000000000003,0.419,0.47200000000000003,889410
2018-08-24,0.47200000000000003,0.54,0.47200000000000003,0.499,3610590
2018-08-27,0.499,0.518,0.48,0.514,3674120
2018-08-28,0.484,0.51,0.484,0.502,2387650
2018-08-29,0.491,0.499,0.484,0.495,2392940
2018-08-30,0.48700000000000004,0.51,0.47200000000000003,0.502,2790000
2018-08-31,0.461,0.461,0.461,0.47200000000000003,10590
2018-09-03,0.457,0.457,0.45,0.45,52940
2018-09-04,0.434,0.43799999999999994,0.434,0.434,180000
2018-09-05,0.423,0.423,0.423,0.423,95290
2018-09-06,0.423,0.423,0.423,0.423,42350
2018-09-07,0.11199999999999999,0.11199999999999999,0.11199999999999999,0.423,0
2018-09-10,0.41600000000000004,0.423,0.382,0.40399999999999997,174710
2018-09-11,0.106,0.106,0.106,0.4,0
2018-09-12,0.4,0.4,0.4,0.4,0
2018-09-13,0.37799999999999995,0.37799999999999995,0.37799999999999995,0.4,15880
2018-09-14,0.4,0.4,0.4,0.41600000000000004,5290
2018-09-17,0.385,0.385,0.385,0.385,74120
2018-09-18,0.382,0.382,0.37799999999999995,0.37799999999999995,121760
2018-09-19,0.37799999999999995,0.37799999999999995,0.37799999999999995,0.37799999999999995,0
2018-09-20,0.37799999999999995,0.37799999999999995,0.37799999999999995,0.37799999999999995,0
2018-09-21,0.40399999999999997,0.41200000000000003,0.397,0.397,105880
2018-09-24,0.10300000000000001,0.105,0.102,0.397,0
2018-09-26,0.397,0.397,0.397,0.397,5290
2018-09-27,0.382,0.389,0.382,0.389,238240
2018-09-28,0.40399999999999997,0.40399999999999997,0.40399999999999997,0.40399999999999997,5290
2018-10-02,0.40399999999999997,0.40399999999999997,0.40399999999999997,0.40399999999999997,0
2018-10-03,0.41600000000000004,0.446,0.41600000000000004,0.446,21180
2018-10-04,0.419,0.419,0.419,0.419,79410
2018-10-05,0.382,0.382,0.37799999999999995,0.41600000000000004,10590
2018-10-08,0.37799999999999995,0.37799999999999995,0.37799999999999995,0.389,10590
2018-10-09,0.355,0.363,0.35100000000000003,0.363,105880
2018-10-10,0.39299999999999996,0.563,0.37799999999999995,0.389,921180
2018-10-11,0.382,0.382,0.374,0.374,116470
2018-10-12,0.366,0.389,0.366,0.389,31760
2018-10-15,0.423,0.423,0.423,0.423,10590
2018-10-16,0.111,0.111,0.10800000000000001,0.408,0
2018-10-18,0.107,0.107,0.105,0.40399999999999997,0
2018-10-19,0.4,0.4,0.4,0.4,116470
2018-10-22,0.4,0.41200000000000003,0.37799999999999995,0.37799999999999995,222350
2018-10-23,0.4,0.4,0.37799999999999995,0.382,52940
2018-10-24,0.40399999999999997,0.40399999999999997,0.40399999999999997,0.397,5290
2018-10-25,0.397,0.397,0.397,0.397,0
2018-10-26,0.10400000000000001,0.10400000000000001,0.10300000000000001,0.389,0
2018-10-29,0.389,0.389,0.389,0.389,349410
2018-10-30,0.1,0.1,0.1,0.37799999999999995,0
2018-10-31,0.374,0.385,0.359,0.385,164120
2018-11-01,0.10300000000000001,0.10300000000000001,0.102,0.385,0
2018-11-02,0.39299999999999996,0.39299999999999996,0.39299999999999996,0.39299999999999996,21180
2018-11-05,0.359,0.37799999999999995,0.359,0.37799999999999995,201180
2018-11-06,0.359,0.37799999999999995,0.359,0.37,26470
2018-11-07,0.363,0.446,0.363,0.397,3044120
2018-11-08,0.397,0.397,0.397,0.397,0
2018-11-09,0.41600000000000004,0.42700000000000005,0.4,0.41600000000000004,3515300
2018-11-12,0.434,0.465,0.408,0.419,2964710
2018-11-13,0.41600000000000004,0.431,0.41200000000000003,0.423,2848240
2018-11-14,0.42700000000000005,0.434,0.419,0.42700000000000005,3345880
2018-11-15,0.42700000000000005,0.434,0.40399999999999997,0.423,87350
2018-11-16,0.419,0.442,0.419,0.43799999999999994,3536470
2018-11-19,0.434,0.434,0.434,0.434,0
2018-11-20,0.41200000000000003,0.431,0.41200000000000003,0.42700000000000005,95290
2018-11-21,0.42700000000000005,0.42700000000000005,0.42700000000000005,0.42700000000000005,0
2018-11-22,0.419,0.434,0.40399999999999997,0.41200000000000003,619410
2018-11-23,0.40399999999999997,0.408,0.389,0.389,2731770
2018-11-26,0.389,0.41600000000000004,0.389,0.41600000000000004,185290
2018-11-27,0.408,0.41200000000000003,0.408,0.408,656470
2018-11-28,0.41200000000000003,0.41200000000000003,0.385,0.408,1021770
2018-11-29,0.40399999999999997,0.40399999999999997,0.40399999999999997,0.40399999999999997,0
2018-11-30,0.41200000000000003,0.41200000000000003,0.4,0.4,296470
2018-12-03,0.389,0.40399999999999997,0.389,0.40399999999999997,37060
2018-12-04,0.389,0.408,0.389,0.4,37060
2018-12-05,0.4,0.4,0.4,0.4,0
2018-12-06,0.382,0.382,0.374,0.374,15880
2018-12-07,0.374,0.374,0.374,0.374,0
2018-12-10,0.37,0.37,0.37,0.37,0
2018-12-11,0.37,0.37,0.366,0.366,42350
2018-12-12,0.41200000000000003,0.41200000000000003,0.41200000000000003,0.408,79410
2018-12-13,0.40399999999999997,0.40399999999999997,0.40399999999999997,0.397,79410
2018-12-14,0.397,0.45299999999999996,0.397,0.45299999999999996,307060
2018-12-17,0.45,0.45,0.45,0.45,0
2018-12-18,0.389,0.389,0.389,0.42700000000000005,21180
2018-12-19,0.42700000000000005,0.434,0.42700000000000005,0.431,5214710
2018-12-20,0.39299999999999996,0.408,0.39299999999999996,0.408,132350
2018-12-21,0.408,0.518,0.408,0.43799999999999994,9770300
2018-12-24,0.41600000000000004,0.41600000000000004,0.41200000000000003,0.446,63530
2018-12-27,0.446,0.446,0.446,0.446,5290
2018-12-28,0.41600000000000004,0.41600000000000004,0.41200000000000003,0.41200000000000003,10590
2018-12-31,0.446,0.446,0.446,0.446,0
2019-01-02,0.434,0.434,0.434,0.434,174710
2019-01-03,0.41200000000000003,0.41200000000000003,0.408,0.408,47650
2019-01-04,0.408,0.408,0.374,0.385,370590
2019-01-07,0.382,0.382,0.344,0.366,571760
2019-01-08,0.374,0.374,0.37,0.374,111180
2019-01-09,0.374,0.374,0.374,0.37,211760
2019-01-10,0.374,0.374,0.37,0.37,95290
2019-01-11,0.37,0.37,0.37,0.37,0
2019-01-14,0.363,0.363,0.359,0.359,26470
2019-01-15,0.408,0.408,0.408,0.408,5290
2019-01-16,0.408,0.408,0.408,0.408,0
2019-01-17,0.40399999999999997,0.40399999999999997,0.40399999999999997,0.40399999999999997,0
2019-01-18,0.389,0.4,0.389,0.4,693530
2019-01-21,0.389,0.389,0.389,0.389,0
2019-01-22,0.374,0.374,0.374,0.385,5290
2019-01-23,0.37799999999999995,0.37799999999999995,0.37799999999999995,0.37799999999999995,0
2019-01-24,0.374,0.397,0.366,0.397,397060
2019-01-25,0.40399999999999997,0.40399999999999997,0.40399999999999997,0.39299999999999996,5290
2019-01-28,0.385,0.385,0.385,0.385,42350
2019-01-29,0.385,0.385,0.385,0.385,0
2019-01-30,0.385,0.385,0.385,0.385,0
2019-01-31,0.385,0.385,0.385,0.385,0
2019-02-01,0.382,0.385,0.382,0.382,63530
2019-02-04,0.382,0.382,0.382,0.382,0
2019-02-08,0.272,0.359,0.272,0.359,37060
2019-02-11,0.34,0.348,0.34,0.348,74120
2019-02-12,0.348,0.348,0.348,0.348,0
2019-02-13,0.348,0.35100000000000003,0.34,0.34,285880
2019-02-14,0.332,0.355,0.332,0.355,52940
2019-02-15,0.355,0.363,0.355,0.366,2805880
2019-02-18,0.366,0.366,0.366,0.366,0
2019-02-19,0.363,0.41600000000000004,0.363,0.41600000000000004,709410
2019-02-20,0.37799999999999995,0.40399999999999997,0.37799999999999995,0.40399999999999997,243530
2019-02-21,0.37799999999999995,0.385,0.344,0.385,31760
2019-02-22,0.359,0.385,0.344,0.385,3160590
2019-02-25,0.382,0.42700000000000005,0.37799999999999995,0.423,2644410
2019-02-26,0.434,0.45299999999999996,0.389,0.45,2183820
2019-02-27,0.446,0.45,0.41600000000000004,0.45,116470
2019-02-28,0.45,0.47600000000000003,0.446,0.465,1164710
2019-03-01,0.47600000000000003,0.491,0.446,0.484,1514120
2019-03-04,0.446,0.51,0.446,0.51,291180
2019-03-05,0.521,0.521,0.47200000000000003,0.491,1683530
2019-03-06,0.47200000000000003,0.491,0.47200000000000003,0.48700000000000004,190590
2019-03-07,0.465,0.47600000000000003,0.465,0.47600000000000003,21180
2019-03-08,0.457,0.457,0.434,0.434,142940
2019-03-11,0.41600000000000004,0.45299999999999996,0.41600000000000004,0.45299999999999996,95290
2019-03-12,0.45299999999999996,0.47200000000000003,0.45299999999999996,0.46799999999999997,31760
2019-03-13,0.465,0.465,0.465,0.465,0
2019-03-14,0.465,0.465,0.465,0.465,0
2019-03-15,0.419,0.457,0.419,0.457,68820
2019-03-18,0.434,0.434,0.4,0.41200000000000003,74120
2019-03-19,0.41200000000000003,0.41200000000000003,0.408,0.408,74120
2019-03-20,0.408,0.408,0.408,0.408,0
2019-03-21,0.40399999999999997,0.40399999999999997,0.348,0.37,142940
2019-03-22,0.374,0.389,0.374,0.389,243530
2019-03-25,0.389,0.389,0.389,0.389,0
2019-03-26,0.389,0.389,0.389,0.389,0
2019-03-27,0.355,0.355,0.348,0.35100000000000003,63530
2019-03-28,0.35100000000000003,0.389,0.35100000000000003,0.374,13685300
2019-03-29,0.37,0.37,0.295,0.37,712060
2019-04-01,0.37,0.374,0.37,0.374,26470
2019-04-02,0.325,0.355,0.325,0.355,21180
2019-04-03,0.344,0.344,0.34,0.344,317650
2019-04-04,0.321,0.37799999999999995,0.302,0.37799999999999995,317650
2019-04-08,0.37799999999999995,0.37799999999999995,0.37799999999999995,0.37799999999999995,264710
2019-04-09,0.374,0.374,0.374,0.374,0
2019-04-10,0.37799999999999995,0.37799999999999995,0.37799999999999995,0.37799999999999995,24877070
2019-04-11,0.37799999999999995,0.37799999999999995,0.359,0.359,7088830
2019-04-12,0.317,0.321,0.298,0.298,5365590
2019-04-15,0.298,0.317,0.298,0.31,4759410
2019-04-16,0.298,0.363,0.298,0.336,2276470
2019-04-17,0.35100000000000003,0.37,0.344,0.363,4600590
2019-04-18,0.325,0.355,0.325,0.355,322940
2019-04-23,0.355,0.355,0.355,0.355,0
2019-04-24,0.325,0.32899999999999996,0.306,0.321,100590
2019-04-25,0.321,0.34,0.321,0.32899999999999996,137650
2019-04-26,0.34,0.366,0.325,0.325,7448830
2019-04-29,0.336,0.35100000000000003,0.336,0.348,1821180
2019-04-30,0.344,0.344,0.344,0.344,0
2019-05-02,0.355,0.355,0.355,0.355,990000
2019-05-03,0.355,0.355,0.348,0.348,2996470
2019-05-06,0.317,0.317,0.287,0.298,3340590
2019-05-07,0.306,0.317,0.298,0.298,111180
2019-05-08,0.298,0.314,0.29100000000000004,0.29100000000000004,121760
2019-05-09,0.302,0.314,0.302,0.31,481760
2019-05-10,0.302,0.302,0.302,0.302,0
2019-05-14,0.295,0.295,0.276,0.276,52940
2019-05-15,0.287,0.287,0.287,0.287,0
2019-05-16,0.287,0.298,0.287,0.298,10590
2019-05-17,0.28,0.28,0.253,0.28,211760
2019-05-20,0.264,0.268,0.253,0.268,31760
2019-05-21,0.249,0.268,0.249,0.268,90000
2019-05-22,0.268,0.28300000000000003,0.268,0.28,31760
2019-05-23,0.28,0.298,0.28,0.298,1021770
2019-05-24,0.298,0.298,0.272,0.272,1170000
2019-05-27,0.28300000000000003,0.295,0.28300000000000003,0.29100000000000004,2927650
2019-05-28,0.29100000000000004,0.29100000000000004,0.29100000000000004,0.29100000000000004,0
2019-05-29,0.264,0.29100000000000004,0.264,0.29100000000000004,1127650
2019-05-30,0.287,0.287,0.287,0.287,0
2019-05-31,0.272,0.276,0.264,0.264,614120
2019-06-03,0.295,0.34,0.28300000000000003,0.336,7152360
2019-06-04,0.336,0.336,0.295,0.298,465880
2019-06-05,0.306,0.332,0.306,0.332,1667650
2019-06-06,0.306,0.306,0.298,0.298,148240
2019-06-10,0.298,0.31,0.298,0.302,95290
2019-06-11,0.321,0.321,0.302,0.314,2011770
2019-06-12,0.306,0.306,0.306,0.306,0
2019-06-13,0.302,0.31,0.295,0.298,2362500
2019-06-14,0.302,0.321,0.302,0.314,2059410
2019-06-17,0.321,0.321,0.287,0.314,1503530
2019-06-18,0.298,0.306,0.298,0.298,4547650
2019-06-19,0.321,0.321,0.302,0.314,979410
2019-06-20,0.314,0.336,0.306,0.314,682940
2019-06-21,0.306,0.317,0.302,0.302,142940
2019-06-24,0.321,0.321,0.314,0.314,502940
2019-06-25,0.302,0.306,0.302,0.302,1651770
2019-06-26,0.302,0.302,0.302,0.302,0
2019-06-27,0.298,0.31,0.298,0.31,868240
2019-06-28,0.295,0.302,0.28300000000000003,0.302,63530
2019-07-02,0.302,0.302,0.302,0.302,0
2019-07-03,0.302,0.321,0.298,0.298,95290
2019-07-04,0.302,0.306,0.302,0.306,667060
2019-07-05,0.302,0.302,0.298,0.302,439410
2019-07-08,0.31,0.325,0.31,0.321,1228240
2019-07-09,0.31,0.314,0.298,0.314,2514710
2019-07-10,0.31,0.31,0.298,0.298,111180
2019-07-11,0.298,0.321,0.298,0.321,42350
2019-07-12,0.298,0.298,0.298,0.306,10590
2019-07-15,0.298,0.298,0.29100000000000004,0.298,185290
2019-07-16,0.306,0.306,0.29100000000000004,0.29100000000000004,190590
2019-07-17,0.302,0.302,0.287,0.302,37060
2019-07-18,0.298,0.314,0.298,0.31,1879410
2019-07-19,0.29100000000000004,0.302,0.28300000000000003,0.295,926470
2019-07-22,0.28300000000000003,0.28300000000000003,0.28300000000000003,0.28300000000000003,42350
2019-07-23,0.298,0.302,0.298,0.302,794120
2019-07-24,0.295,0.295,0.295,0.295,0
2019-07-25,0.295,0.295,0.295,0.295,0
2019-07-26,0.295,0.295,0.295,0.295,0
2019-07-29,0.28300000000000003,0.295,0.28300000000000003,0.295,95290
2019-07-30,0.298,0.298,0.295,0.295,1381770
2019-07-31,0.298,0.302,0.298,0.302,1598820
2019-08-01,0.287,0.31,0.287,0.31,2922350
2019-08-02,0.306,0.31,0.306,0.306,63530
2019-08-05,0.29100000000000004,0.302,0.29100000000000004,0.298,248820
2019-08-06,0.298,0.298,0.298,0.298,0
2019-08-07,0.29100000000000004,0.29100000000000004,0.29100000000000004,0.29100000000000004,10590
2019-08-08,0.29100000000000004,0.29100000000000004,0.29100000000000004,0.29100000000000004,0
2019-08-09,0.28,0.28,0.28,0.28,10590
2019-08-12,0.28,0.28,0.28,0.28,0
2019-08-13,0.28,0.28,0.264,0.264,132350
2019-08-14,0.264,0.264,0.264,0.264,0
2019-08-15,0.257,0.295,0.257,0.29100000000000004,2628530
2019-08-16,0.272,0.29100000000000004,0.272,0.287,1111770
2019-08-19,0.295,0.302,0.28300000000000003,0.295,1016470
2019-08-20,0.295,0.306,0.28300000000000003,0.287,6225890
2019-08-21,0.28300000000000003,0.302,0.264,0.264,428820
2019-08-22,0.264,0.264,0.264,0.264,0
2019-08-23,0.264,0.264,0.264,0.264,1138240
2019-08-26,0.264,0.264,0.264,0.264,0
2019-08-27,0.257,0.264,0.253,0.264,90000
2019-08-28,0.07,0.07,0.07,0.264,380
2019-08-29,0.264,0.264,0.264,0.264,0
2019-08-30,0.257,0.264,0.253,0.264,2652350
2019-09-02,0.264,0.264,0.264,0.264,0
2019-09-03,0.264,0.264,0.264,0.264,0
2019-09-04,0.264,0.264,0.264,0.264,28540
2019-09-05,0.264,0.264,0.264,0.264,0
2019-09-06,0.249,0.261,0.249,0.261,804710
2019-09-09,0.261,0.261,0.261,0.261,68820
2019-09-10,0.268,0.268,0.264,0.264,270000
2019-09-11,0.261,0.261,0.261,0.264,37060
2019-09-12,0.28300000000000003,0.28300000000000003,0.272,0.28,238240
2019-09-13,0.28,0.28,0.28,0.28,0
2019-09-16,0.28,0.28,0.28,0.28,0
2019-09-17,0.268,0.276,0.261,0.276,974120
2019-09-18,0.276,0.276,0.276,0.276,0
2019-09-19,0.28,0.306,0.261,0.28300000000000003,4637650
2019-09-20,0.28300000000000003,0.298,0.261,0.272,3854120
2019-09-23,0.264,0.264,0.264,0.264,84710
2019-09-24,0.264,0.264,0.24600000000000002,0.24600000000000002,5214710
2019-09-25,0.264,0.268,0.24600000000000002,0.24600000000000002,2498820
2019-09-26,0.249,0.257,0.24600000000000002,0.24600000000000002,227650
2019-09-27,0.249,0.257,0.249,0.257,15880
2019-09-30,0.253,0.264,0.253,0.264,1376470
2019-10-02,0.264,0.264,0.264,0.264,0
2019-10-03,0.264,0.264,0.264,0.264,0
2019-10-04,0.23399999999999999,0.253,0.23,0.253,153530
2019-10-08,0.24600000000000002,0.24600000000000002,0.24600000000000002,0.24600000000000002,1000590
2019-10-09,0.23800000000000002,0.23800000000000002,0.223,0.23800000000000002,344120
2019-10-10,0.23800000000000002,0.23800000000000002,0.23800000000000002,0.23800000000000002,0
2019-10-11,0.23800000000000002,0.23800000000000002,0.23800000000000002,0.23800000000000002,0
2019-10-14,0.24600000000000002,0.253,0.24600000000000002,0.253,21180
2019-10-15,0.253,0.253,0.253,0.253,0
2019-10-16,0.253,0.253,0.253,0.253,0
2019-10-17,0.253,0.253,0.253,0.253,0
2019-10-18,0.249,0.261,0.23399999999999999,0.24600000000000002,5235880
2019-10-21,0.24600000000000002,0.24600000000000002,0.24600000000000002,0.24600000000000002,0
2019-10-22,0.23800000000000002,0.249,0.23800000000000002,0.249,31760
2019-10-23,0.249,0.268,0.23800000000000002,0.253,1082650
2019-10-24,0.23800000000000002,0.28300000000000003,0.23,0.24600000000000002,3960000
2019-10-25,0.24600000000000002,0.24600000000000002,0.24600000000000002,0.24600000000000002,0
2019-10-28,0.23399999999999999,0.249,0.23399999999999999,0.249,21180
2019-10-29,0.24600000000000002,0.24600000000000002,0.24600000000000002,0.24600000000000002,0
2019-10-30,0.22699999999999998,0.253,0.22699999999999998,0.249,2430000
2019-10-31,0.23800000000000002,0.24600000000000002,0.23800000000000002,0.24600000000000002,111180
2019-11-01,0.24600000000000002,0.24600000000000002,0.24600000000000002,0.24600000000000002,0
2019-11-04,0.253,0.253,0.253,0.249,1217650
2019-11-05,0.24600000000000002,0.249,0.24600000000000002,0.249,1678240
2019-11-06,0.23399999999999999,0.23399999999999999,0.22699999999999998,0.23399999999999999,518820
2019-11-07,0.23800000000000002,0.23800000000000002,0.23800000000000002,0.23800000000000002,2647060
2019-11-08,0.23800000000000002,0.23800000000000002,0.23800000000000002,0.23800000000000002,0
2019-11-11,0.23,0.23,0.21899999999999997,0.21899999999999997,105880
2019-11-12,0.21899999999999997,0.21899999999999997,0.21899999999999997,0.21899999999999997,0
2019-11-13,0.21899999999999997,0.21899999999999997,0.21899999999999997,0.21899999999999997,0
2019-11-14,0.215,0.264,0.212,0.264,1794710
2019-11-15,0.22699999999999998,0.23800000000000002,0.223,0.23399999999999999,2968680
2019-11-18,0.23399999999999999,0.23399999999999999,0.23399999999999999,0.23399999999999999,0
2019-11-19,0.23,0.23,0.23,0.23,26470
2019-11-20,0.23,0.23,0.23,0.23,0
2019-11-21,0.21899999999999997,0.21899999999999997,0.21899999999999997,0.21899999999999997,5290
2019-11-22,0.22699999999999998,0.22699999999999998,0.223,0.223,5717650
2019-11-25,0.22699999999999998,0.23800000000000002,0.22699999999999998,0.23800000000000002,1196470
2019-11-26,0.23800000000000002,0.23800000000000002,0.23800000000000002,0.23800000000000002,0
2019-11-27,0.23800000000000002,0.23800000000000002,0.23800000000000002,0.23800000000000002,0
2019-11-28,0.23800000000000002,0.23800000000000002,0.23800000000000002,0.23800000000000002,0
2019-11-29,0.23800000000000002,0.23800000000000002,0.23800000000000002,0.23800000000000002,0
2019-12-02,0.23800000000000002,0.23800000000000002,0.23800000000000002,0.23800000000000002,0
2019-12-03,0.253,0.253,0.253,0.253,926470
2019-12-04,0.21899999999999997,0.276,0.212,0.253,14034710
2019-12-05,0.253,0.264,0.249,0.249,7951770
2019-12-06,0.253,0.257,0.2,0.215,8359420
2019-12-09,0.212,0.23399999999999999,0.212,0.23399999999999999,1122350
2019-12-10,0.212,0.223,0.204,0.204,1937650
2019-12-11,0.20800000000000002,0.21899999999999997,0.20800000000000002,0.21899999999999997,3462350
2019-12-12,0.223,0.223,0.223,0.223,3123530
2019-12-13,0.22699999999999998,0.23399999999999999,0.22699999999999998,0.22699999999999998,8655890
2019-12-16,0.21899999999999997,0.22699999999999998,0.21899999999999997,0.22699999999999998,68820
2019-12-17,0.23,0.23800000000000002,0.2,0.2,1942940
2019-12-18,0.2,0.2,0.196,0.196,1805290
2019-12-19,0.20800000000000002,0.22699999999999998,0.18899999999999997,0.223,4965880
2019-12-20,0.215,0.22699999999999998,0.196,0.223,6575300
2019-12-23,0.223,0.223,0.21899999999999997,0.223,2064710
2019-12-24,0.21899999999999997,0.21899999999999997,0.21899999999999997,0.21899999999999997,0
2019-12-27,0.223,0.23399999999999999,0.223,0.23399999999999999,2091180
2019-12-30,0.23399999999999999,0.23399999999999999,0.212,0.223,4187650
2019-12-31,0.212,0.212,0.204,0.204,79410
2020-01-02,0.215,0.22699999999999998,0.215,0.21899999999999997,1890000
2020-01-03,0.223,0.23,0.215,0.23,1003240
2020-01-06,0.23,0.23800000000000002,0.215,0.23,1565740
2020-01-07,0.21899999999999997,0.23,0.21899999999999997,0.23,7083530
2020-01-08,0.22699999999999998,0.23,0.21899999999999997,0.21899999999999997,2535880
2020-01-09,0.223,0.23,0.215,0.23,4261770
2020-01-10,0.22699999999999998,0.23,0.21899999999999997,0.23,1826470
2020-01-13,0.22699999999999998,0.268,0.22699999999999998,0.24600000000000002,508240
2020-01-14,0.22699999999999998,0.249,0.22699999999999998,0.249,31760
2020-01-15,0.23,0.24600000000000002,0.23,0.24600000000000002,1482350
2020-01-16,0.242,0.24600000000000002,0.242,0.24600000000000002,95290
2020-01-17,0.24600000000000002,0.24600000000000002,0.24600000000000002,0.24600000000000002,0
2020-01-20,0.23800000000000002,0.242,0.23800000000000002,0.23800000000000002,148240
2020-01-21,0.23399999999999999,0.23399999999999999,0.23399999999999999,0.23399999999999999,47650
2020-01-22,0.23399999999999999,0.23399999999999999,0.23399999999999999,0.23399999999999999,37060
2020-01-23,0.23399999999999999,0.23399999999999999,0.23399999999999999,0.23399999999999999,0
2020-01-24,0.23,0.23,0.23,0.23,0
2020-01-29,0.23,0.23,0.23,0.23,0
2020-01-30,0.23,0.23800000000000002,0.22699999999999998,0.22699999999999998,9105890
2020-01-31,0.23800000000000002,0.242,0.23800000000000002,0.242,577060
2020-02-03,0.212,0.212,0.20800000000000002,0.212,26470
2020-02-04,0.196,0.196,0.196,0.2,21180
2020-02-05,0.2,0.212,0.2,0.212,1482350
2020-02-06,0.204,0.20800000000000002,0.204,0.204,1244120
2020-02-07,0.204,0.20800000000000002,0.204,0.20800000000000002,142940
2020-02-10,0.23,0.23,0.23,0.23,217060
2020-02-11,0.20800000000000002,0.215,0.20800000000000002,0.215,979410
2020-02-12,0.20800000000000002,0.212,0.204,0.20800000000000002,1170000
2020-02-13,0.204,0.22699999999999998,0.2,0.22699999999999998,1826470
2020-02-14,0.215,0.22699999999999998,0.215,0.22699999999999998,227650
2020-02-17,0.22699999999999998,0.22699999999999998,0.22699999999999998,0.22699999999999998,0
2020-02-18,0.223,0.223,0.21899999999999997,0.21899999999999997,1911180
2020-02-19,0.223,0.22699999999999998,0.215,0.215,1037650
2020-02-20,0.215,0.215,0.215,0.215,0
2020-02-21,0.212,0.212,0.20800000000000002,0.212,259410
2020-02-24,0.204,0.212,0.204,0.212,31760
2020-02-25,0.212,0.212,0.212,0.212,0
2020-02-26,0.20800000000000002,0.20800000000000002,0.18899999999999997,0.2,1193820
2020-02-27,0.196,0.212,0.18899999999999997,0.193,540000
2020-02-28,0.20800000000000002,0.212,0.20800000000000002,0.20800000000000002,2038240
2020-03-02,0.20800000000000002,0.20800000000000002,0.20800000000000002,0.20800000000000002,0
2020-03-03,0.193,0.21899999999999997,0.18899999999999997,0.20800000000000002,884120
2020-03-04,0.18899999999999997,0.18899999999999997,0.159,0.159,7342940
2020-03-05,0.159,0.185,0.159,0.17,6217940
2020-03-06,0.162,0.17,0.159,0.159,9015890
2020-03-09,0.162,0.166,0.159,0.162,6331770
2020-03-10,0.17800000000000002,0.215,0.162,0.193,28058840
2020-03-11,0.204,0.20800000000000002,0.17,0.18100000000000002,9381180
2020-03-12,0.18100000000000002,0.196,0.166,0.18899999999999997,7141770
2020-03-13,0.18899999999999997,0.193,0.174,0.193,8460000
2020-03-16,0.193,0.212,0.174,0.174,14426480
2020-03-17,0.174,0.18100000000000002,0.166,0.17,8846470
2020-03-18,0.174,0.193,0.166,0.166,8158240
2020-03-19,0.17,0.174,0.162,0.17,3832940
2020-03-20,0.174,0.185,0.162,0.166,11072650
2020-03-23,0.162,0.17,0.159,0.17,2120300
2020-03-24,0.166,0.17,0.162,0.17,1858240
2020-03-25,0.17,0.17800000000000002,0.166,0.166,6114710
2020-03-26,0.166,0.174,0.162,0.17,2043530
2020-03-27,0.17,0.17800000000000002,0.17,0.17,15998830
2020-03-30,0.166,0.17800000000000002,0.166,0.166,847060
2020-03-31,0.166,0.174,0.166,0.166,3287650
2020-04-01,0.162,0.17,0.162,0.166,2170590
2020-04-02,0.17,0.17,0.162,0.17,217060
2020-04-03,0.17,0.17,0.151,0.166,5447650
2020-04-06,0.166,0.174,0.162,0.17,4415300
2020-04-07,0.152,0.198,0.152,0.18899999999999997,1699940
2020-04-08,0.19,0.2,0.168,0.179,1450000
2020-04-09,0.19,0.19,0.18,0.185,2405000
2020-04-14,0.18,0.204,0.18,0.184,41620000
2020-04-15,0.192,0.192,0.162,0.162,5005000
2020-04-16,0.166,0.172,0.165,0.166,1585000
2020-04-17,0.166,0.16899999999999998,0.16399999999999998,0.168,540000
2020-04-20,0.168,0.16899999999999998,0.168,0.16899999999999998,325000
2020-04-21,0.166,0.172,0.16399999999999998,0.16899999999999998,400000
2020-04-22,0.16899999999999998,0.18,0.158,0.163,7743750
2020-04-23,0.161,0.175,0.16,0.175,2545000
2020-04-24,0.177,0.18,0.171,0.171,642500
2020-04-27,0.16899999999999998,0.2,0.168,0.192,60158752
2020-04-28,0.195,0.20800000000000002,0.18899999999999997,0.18899999999999997,21880000
2020-04-29,0.172,0.20199999999999999,0.172,0.183,25910000
2020-05-04,0.17600000000000002,0.19,0.163,0.184,2175000
2020-05-05,0.185,0.195,0.185,0.188,8088750
2020-05-06,0.18899999999999997,0.198,0.179,0.179,28010000
2020-05-07,0.187,0.19399999999999998,0.17600000000000002,0.19,6255000
2020-05-08,0.195,0.198,0.195,0.198,170000
2020-05-11,0.19699999999999998,0.19699999999999998,0.187,0.19399999999999998,600000
2020-05-12,0.19699999999999998,0.19699999999999998,0.19,0.193,685000
2020-05-13,0.187,0.188,0.162,0.162,3250000
2020-05-14,0.188,0.19,0.165,0.166,1980000
2020-05-15,0.16,0.166,0.155,0.158,290000
2020-05-18,0.156,0.175,0.156,0.17300000000000001,1157500
2020-05-19,0.17,0.171,0.163,0.163,430000
2020-05-20,0.16899999999999998,0.17,0.159,0.168,1820000
2020-05-21,0.162,0.174,0.16,0.16,10320000
2020-05-22,0.16399999999999998,0.168,0.16,0.165,3470000
2020-05-25,0.165,0.17,0.161,0.161,9030000
2020-05-26,0.16399999999999998,0.172,0.161,0.163,26190000
2020-05-27,0.16399999999999998,0.16699999999999998,0.163,0.163,8945000
2020-05-28,0.16399999999999998,0.166,0.163,0.165,11810000
2020-05-29,0.163,0.16699999999999998,0.163,0.165,9750000
2020-06-01,0.165,0.166,0.16399999999999998,0.166,15650000
2020-06-02,0.165,0.165,0.165,0.165,7650000
2020-06-03,0.168,0.168,0.165,0.165,4475000
2020-06-04,0.165,0.166,0.165,0.165,2170000
2020-06-05,0.165,0.175,0.165,0.168,7660000
2020-06-08,0.168,0.171,0.16399999999999998,0.168,10020000
2020-06-09,0.168,0.16899999999999998,0.168,0.168,850000
2020-06-10,0.16399999999999998,0.165,0.16,0.16399999999999998,770000
2020-06-11,0.16399999999999998,0.16399999999999998,0.16399999999999998,0.16399999999999998,50000
2020-06-12,0.17,0.174,0.159,0.163,5350000
2020-06-15,0.161,0.16699999999999998,0.16,0.166,135000
2020-06-16,0.163,0.16699999999999998,0.163,0.16699999999999998,585000
2020-06-17,0.166,0.175,0.166,0.171,565000
2020-06-18,0.172,0.172,0.161,0.168,890000
2020-06-19,0.17,0.172,0.17,0.171,210000
2020-06-22,0.165,0.165,0.165,0.165,170000
2020-06-23,0.16399999999999998,0.172,0.16399999999999998,0.172,380000
2020-06-24,0.172,0.18,0.166,0.177,7630000
2020-06-26,0.177,0.184,0.177,0.183,4663750
2020-06-29,0.187,0.188,0.179,0.188,3460000
2020-06-30,0.188,0.188,0.17300000000000001,0.174,3920000
2020-07-02,0.174,0.182,0.174,0.18,3165000
2020-07-03,0.182,0.182,0.18100000000000002,0.18100000000000002,760000
2020-07-06,0.18100000000000002,0.183,0.171,0.183,660000
2020-07-07,0.17600000000000002,0.183,0.17600000000000002,0.183,65000
2020-07-08,0.17600000000000002,0.188,0.17600000000000002,0.184,5150000
2020-07-09,0.17800000000000002,0.184,0.175,0.182,1190000
2020-07-10,0.17600000000000002,0.18,0.17600000000000002,0.18,60000
2020-07-13,0.17800000000000002,0.17800000000000002,0.17300000000000001,0.177,600000
2020-07-14,0.17600000000000002,0.177,0.17,0.17300000000000001,900000
2020-07-15,0.171,0.174,0.17,0.171,780000
2020-07-16,0.171,0.172,0.16699999999999998,0.17600000000000002,920000
2020-07-17,0.174,0.174,0.16399999999999998,0.166,1040000
2020-07-20,0.166,0.17300000000000001,0.159,0.165,2676250
2020-07-21,0.159,0.162,0.159,0.16,1090000
2020-07-22,0.155,0.162,0.152,0.155,1257500
2020-07-23,0.155,0.16899999999999998,0.153,0.16399999999999998,195000
2020-07-24,0.16,0.16899999999999998,0.158,0.162,12030000
2020-07-27,0.16399999999999998,0.16399999999999998,0.16,0.163,1740000
2020-07-28,0.16399999999999998,0.16399999999999998,0.163,0.163,435000
2020-07-29,0.163,0.163,0.163,0.163,160000
2020-07-30,0.161,0.161,0.161,0.159,100000
2020-07-31,0.165,0.165,0.163,0.165,60000
2020-08-03,0.16399999999999998,0.16399999999999998,0.162,0.162,780000
2020-08-04,0.16,0.16399999999999998,0.16,0.162,150000
2020-08-05,0.16,0.165,0.16,0.165,398710
2020-08-07,0.165,0.165,0.155,0.155,260000
2020-08-10,0.16899999999999998,0.16899999999999998,0.156,0.163,40000
2020-08-12,0.16,0.16,0.16,0.16,90000
2020-08-13,0.16399999999999998,0.188,0.16399999999999998,0.179,19610000
2020-08-14,0.17,0.17800000000000002,0.161,0.174,8810000
2020-08-17,0.179,0.179,0.16399999999999998,0.17600000000000002,7025000
2020-08-18,0.174,0.177,0.17300000000000001,0.174,6840000
2020-08-19,0.17600000000000002,0.17600000000000002,0.175,0.17600000000000002,3150000
2020-08-20,0.17600000000000002,0.17600000000000002,0.171,0.174,7285000
2020-08-21,0.175,0.175,0.172,0.17300000000000001,6115000
2020-08-24,0.174,0.174,0.17,0.17300000000000001,6395000
2020-08-25,0.17,0.17600000000000002,0.17,0.17600000000000002,6800000
