Date,Open,High,Low,Close,Volume
2012-09-27,17.84,18.02,17.84,18.0,397540
2012-09-28,17.96,18.02,17.96,18.0,65000
2012-10-03,18.0,18.14,18.0,18.06,1237500
2012-10-04,18.04,18.04,17.8,18.0,420000
2012-10-05,18.0,18.0,17.74,17.82,722555
2012-10-08,17.78,17.82,17.66,17.7,513680
2012-10-09,17.66,17.88,17.62,17.74,282704
2012-10-10,17.74,17.86,17.58,17.74,579121
2012-10-11,17.7,17.7,17.56,17.66,927500
2012-10-12,17.64,17.72,17.54,17.72,285000
2012-10-15,17.66,17.78,17.6,17.78,226000
2012-10-16,17.78,17.88,17.66,17.88,407500
2012-10-17,17.98,17.98,17.86,17.92,305000
2012-10-18,17.9,17.98,17.78,17.98,1070000
2012-10-19,17.82,18.0,17.82,18.0,37500
2012-10-22,17.88,17.9,17.74,17.8,220000
2012-10-24,17.7,18.0,17.7,18.0,377500
2012-10-25,18.0,18.0,17.8,17.94,205960
2012-10-26,17.96,17.96,17.66,17.72,994922
2012-10-29,17.66,17.72,17.2,17.46,1368242
2012-10-30,17.46,17.48,17.36,17.48,217500
2012-10-31,17.5,17.62,17.42,17.54,486000
2012-11-01,17.54,17.64,17.48,17.6,495000
2012-11-02,17.76,17.82,17.7,17.72,1590000
2012-11-05,17.8,17.82,17.68,17.68,2891012
2012-11-06,17.66,17.7,17.58,17.68,337500
2012-11-07,17.6,17.7,17.54,17.66,732562
2012-11-08,17.3,17.44,17.24,17.36,1343584
2012-11-09,17.3,17.5,17.3,17.46,150000
2012-11-12,17.4,17.44,17.32,17.42,442500
2012-11-13,17.4,17.4,17.28,17.32,206000
2012-11-14,17.32,17.46,17.32,17.46,220000
2012-11-15,17.38,17.5,17.38,17.44,170000
2012-11-16,17.44,17.46,17.4,17.46,92500
2012-11-19,17.4,17.6,17.4,17.54,270948
2012-11-20,17.62,17.62,17.5,17.52,139000
2012-11-21,17.58,17.7,17.5,17.66,382500
2012-11-22,17.68,17.82,17.64,17.8,539000
2012-11-23,17.8,17.9,17.74,17.88,489000
2012-11-26,17.94,17.96,17.86,17.94,485000
2012-11-27,17.7,17.96,17.7,17.82,826520
2012-11-28,17.72,17.92,17.7,17.76,787500
2012-11-29,17.7,17.82,17.7,17.82,567817
2012-11-30,17.84,17.9,17.74,17.84,435000
2012-12-03,17.84,17.9,17.82,17.9,360785
2012-12-04,17.84,17.9,17.8,17.9,307500
2012-12-05,17.9,17.96,17.84,17.88,675054
2012-12-06,17.9,17.96,17.84,17.9,286880
2012-12-07,17.88,17.88,17.8,17.86,270800
2012-12-10,17.94,17.94,17.7,17.82,454500
2012-12-11,17.82,17.84,17.66,17.8,1562500
2012-12-12,17.78,17.8,17.68,17.8,505500
2012-12-13,17.8,17.8,17.68,17.76,892500
2012-12-14,17.72,17.8,17.68,17.74,772500
2012-12-17,17.74,17.76,17.6,17.68,242500
2012-12-18,17.78,17.78,17.66,17.7,117500
2012-12-19,17.72,17.72,17.66,17.7,412500
2012-12-20,17.68,17.78,17.64,17.7,353400
2012-12-21,17.68,17.8,17.64,17.7,815000
2012-12-24,17.68,17.7,17.66,17.7,105000
2012-12-27,17.78,17.78,17.66,17.68,517500
2012-12-28,17.7,17.88,17.68,17.86,930400
2012-12-31,17.86,17.86,17.76,17.82,40000
2013-01-02,17.88,18.0,17.84,18.0,462000
2013-01-03,17.98,17.98,17.86,17.98,481838
2013-01-04,17.94,18.0,17.92,18.0,852554
2013-01-07,18.0,18.0,17.96,17.98,417500
2013-01-08,17.96,17.98,17.88,17.9,345000
2013-01-09,17.92,18.0,17.9,18.0,397486
2013-01-10,18.0,18.16,17.98,18.06,1305200
2013-01-11,18.1,18.16,18.02,18.1,592500
2013-01-14,18.1,18.16,18.04,18.16,732500
2013-01-15,18.16,18.18,18.0,18.14,695755
2013-01-16,18.12,18.4,17.98,18.32,1669699
2013-01-17,18.24,18.6,18.24,18.4,881600
2013-01-18,18.52,18.6,18.4,18.54,490000
2013-01-21,18.56,18.6,18.5,18.5,267500
2013-01-22,18.58,18.62,18.5,18.56,730000
2013-01-23,18.54,18.6,18.44,18.54,322500
2013-01-24,18.5,18.72,18.5,18.62,1375000
2013-01-25,18.64,18.78,18.58,18.7,1226283
2013-01-28,18.78,18.9,18.78,18.86,2275000
2013-01-29,18.86,18.88,18.8,18.86,250000
2013-01-30,18.9,18.96,18.86,18.96,715000
2013-01-31,18.96,19.5,18.82,18.92,1217419
2013-02-01,18.9,19.08,18.9,19.08,572500
2013-02-04,19.14,19.2,19.08,19.12,515000
2013-02-05,19.0,19.1,18.66,18.78,770052
2013-02-06,18.86,19.1,18.78,19.06,417500
2013-02-07,19.04,19.06,18.88,18.96,417500
2013-02-08,18.9,19.08,18.9,19.06,234500
2013-02-14,19.08,19.16,19.04,19.14,373400
2013-02-15,19.06,19.16,19.0,19.14,247000
2013-02-18,19.1,19.2,19.1,19.16,277500
2013-02-19,19.2,19.28,19.14,19.2,623755
2013-02-20,19.24,19.4,19.2,19.4,537500
2013-02-21,19.24,19.32,19.0,19.1,701000
2013-02-22,19.0,19.38,18.82,19.18,650000
2013-02-25,19.1,19.24,18.86,19.16,642749
2013-02-26,18.98,19.2,18.9,19.08,782500
2013-02-27,19.1,19.1,18.92,19.0,566000
2013-02-28,19.1,19.18,19.04,19.1,477300
2013-03-01,19.02,19.26,19.02,19.2,290250
2013-03-04,19.2,19.2,18.82,19.0,475000
2013-03-05,19.02,19.02,18.88,18.92,312551
2013-03-06,19.0,19.16,18.84,19.0,354185
2013-03-07,19.0,19.3,19.0,19.28,476249
2013-03-08,19.28,19.58,19.1,19.48,812500
2013-03-11,19.5,19.7,19.5,19.66,684400
2013-03-12,19.56,19.68,19.32,19.56,995000
2013-03-13,19.56,19.62,19.1,19.3,310500
2013-03-14,19.22,19.22,18.9,18.98,377500
2013-03-15,19.0,19.02,18.8,18.86,705000
2013-03-18,18.78,18.78,18.38,18.72,700000
2013-03-19,18.7,18.7,18.0,18.52,157500
2013-03-20,18.42,18.78,18.42,18.64,321710
2013-03-21,18.5,18.72,18.5,18.66,210460
2013-03-22,18.56,18.8,18.56,18.7,192500
2013-03-25,18.82,18.82,18.5,18.72,515244
2013-03-26,18.56,18.7,18.34,18.62,794500
2013-03-27,18.68,18.8,18.66,18.72,246038
2013-03-28,18.72,18.94,18.68,18.9,428540
2013-04-02,18.72,18.86,18.62,18.86,468000
2013-04-03,18.86,19.0,18.86,18.9,138250
2013-04-05,18.52,18.72,18.52,18.68,297552
2013-04-08,18.5,18.68,18.4,18.6,90000
2013-04-09,18.56,18.98,18.56,18.82,255000
2013-04-10,18.4,18.4,18.22,18.36,230000
2013-04-11,18.38,18.38,18.26,18.34,302500
2013-04-12,18.32,18.4,18.32,18.4,126750
2013-04-15,18.34,18.42,18.2,18.22,202500
2013-04-16,18.12,18.2,18.0,18.2,416667
2013-04-17,18.2,18.32,18.14,18.2,87500
2013-04-18,18.2,18.32,18.16,18.26,172500
2013-04-19,18.34,18.48,18.28,18.4,209017
2013-04-22,18.44,18.46,18.34,18.4,229500
2013-04-23,18.4,18.48,18.4,18.46,197500
2013-04-24,18.5,18.6,18.42,18.6,357000
2013-04-25,18.58,18.74,18.58,18.7,207500
2013-04-26,18.72,18.8,18.72,18.8,265000
2013-04-29,18.86,18.94,18.76,18.86,167500
2013-04-30,18.86,18.9,18.7,18.7,217500
2013-05-02,18.7,18.88,18.6,18.88,321833
2013-05-03,18.9,18.9,18.6,18.86,610000
2013-05-06,18.98,19.0,18.84,18.88,102551
2013-05-07,18.9,19.0,18.74,18.9,117500
2013-05-08,18.9,19.0,18.82,18.9,215000
2013-05-09,18.98,19.0,18.84,18.9,82500
2013-05-10,18.88,19.0,18.88,18.96,120000
2013-05-13,18.96,19.0,18.84,19.0,95000
2013-05-14,19.0,19.0,18.9,18.94,217000
2013-05-15,19.0,19.0,18.9,18.98,90000
2013-05-16,18.98,19.0,18.88,18.9,80000
2013-05-20,19.06,19.08,18.96,19.02,275000
2013-05-21,18.96,19.16,18.96,19.1,365500
2013-05-22,19.2,19.4,19.08,19.4,345000
2013-05-23,19.2,19.24,19.18,19.2,412500
2013-05-24,19.2,19.24,19.1,19.16,105000
2013-05-27,19.16,19.3,19.16,19.26,145000
2013-05-28,19.32,19.38,19.14,19.28,152500
2013-05-29,19.3,19.4,19.1,19.12,630000
2013-05-30,19.06,19.14,18.88,18.94,499000
2013-05-31,19.1,19.12,18.8,18.9,480000
2013-06-03,18.88,19.3,18.5,18.76,512503
2013-06-04,18.76,18.76,18.54,18.68,312545
2013-06-05,18.54,18.7,18.04,18.28,745056
2013-06-06,18.1,18.18,18.0,18.04,615000
2013-06-07,18.16,18.28,17.88,18.04,462500
2013-06-10,18.22,18.22,17.9,18.0,230000
2013-06-11,18.1,18.16,17.8,17.86,232783
2013-06-13,17.86,17.9,17.56,17.82,455002
2013-06-14,17.82,17.96,17.78,17.9,322500
2013-06-17,17.9,18.38,17.9,18.38,112500
2013-06-18,18.38,18.6,18.3,18.58,120000
2013-06-19,18.6,18.6,18.38,18.5,105000
2013-06-20,18.36,18.36,18.06,18.22,140000
2013-06-21,18.0,18.26,17.72,18.0,220784
2013-06-24,17.72,18.26,17.7,17.78,205000
2013-06-25,17.78,18.0,17.54,17.9,213508
2013-06-26,17.9,18.18,17.8,18.18,122500
2013-06-27,18.38,18.4,18.16,18.32,85404
2013-06-28,18.38,18.38,18.24,18.3,82500
2013-07-02,18.34,18.34,18.3,18.32,175249
2013-07-03,18.2,18.36,18.08,18.26,240000
2013-07-04,18.26,18.38,18.14,18.28,95053
2013-07-05,18.32,18.44,18.16,18.44,347500
2013-07-08,18.18,18.18,18.0,18.14,80000
2013-07-09,18.14,18.36,18.14,18.34,62500
2013-07-10,18.32,18.42,18.2,18.4,50000
2013-07-11,18.4,18.7,18.4,18.68,224014
2013-07-12,18.6,18.72,18.36,18.62,225000
2013-07-15,18.56,18.6,18.3,18.6,95000
2013-07-16,18.5,18.5,18.32,18.5,55000
2013-07-17,18.5,18.6,18.44,18.58,47500
2013-07-18,18.54,18.6,18.32,18.58,27500
2013-07-19,18.54,18.54,18.34,18.46,80000
2013-07-22,18.46,18.5,18.0,18.5,197500
2013-07-23,18.5,18.62,18.4,18.58,217500
2013-07-24,18.5,18.5,18.32,18.36,415000
2013-07-25,18.36,18.56,18.3,18.46,220000
2013-07-26,18.48,18.48,18.28,18.36,105000
2013-07-29,18.2,18.24,18.12,18.18,262500
2013-07-30,18.28,18.28,18.18,18.2,74500
2013-07-31,18.26,18.26,17.98,18.04,314291
2013-08-01,18.1,18.1,17.94,17.98,500000
2013-08-02,18.04,18.1,17.94,17.98,570000
2013-08-05,18.0,18.02,17.88,17.94,962554
2013-08-06,17.9,17.94,17.86,17.86,312500
2013-08-07,17.92,17.92,17.8,17.88,237500
2013-08-08,18.36,18.36,17.84,17.92,194717
2013-08-09,17.9,17.9,17.84,17.9,97500
2013-08-12,17.9,18.02,17.84,17.9,539000
2013-08-13,17.94,17.98,17.88,17.96,737500
2013-08-15,18.06,18.2,17.84,17.88,400000
2013-08-16,17.88,17.88,17.62,17.76,499116
2013-08-19,17.98,17.98,17.6,17.7,222500
2013-08-20,17.7,17.72,17.56,17.66,275000
2013-08-21,17.66,17.66,17.44,17.56,277500
2013-08-22,17.56,17.56,17.4,17.5,267500
2013-08-23,17.62,17.74,17.44,17.68,210000
2013-08-26,17.72,17.86,17.7,17.84,85000
2013-08-27,17.58,17.82,17.58,17.78,175500
2013-08-28,17.62,17.62,17.44,17.56,82500
2013-08-29,17.4,17.64,17.4,17.62,220000
2013-08-30,17.62,17.78,17.52,17.74,95000
2013-09-02,17.88,18.04,17.76,18.04,165000
2013-09-03,18.04,18.14,18.04,18.12,172500
2013-09-04,18.04,18.16,17.96,18.12,180601
2013-09-05,18.2,18.28,18.08,18.24,237500
2013-09-06,18.18,18.24,18.1,18.24,490000
2013-09-09,18.24,18.34,18.24,18.3,160000
2013-09-10,18.3,18.38,18.28,18.38,678323
2013-09-11,18.22,18.28,18.1,18.14,122500
2013-09-12,18.0,18.24,17.9,18.18,113136
2013-09-13,18.18,18.18,18.0,18.16,102500
2013-09-16,18.16,18.18,18.0,18.16,145000
2013-09-17,18.04,18.16,18.04,18.16,61500
2013-09-18,18.18,18.3,18.04,18.28,177500
2013-09-19,18.36,18.38,18.22,18.32,325000
2013-09-23,18.28,18.28,18.2,18.28,77500
2013-09-24,18.22,18.38,17.96,18.3,192500
2013-09-25,18.2,18.26,18.16,18.26,112500
2013-09-26,18.1,18.22,18.08,18.22,632500
2013-09-27,18.2,18.3,18.14,18.24,300000
2013-09-30,18.12,18.12,17.96,18.0,572000
2013-10-02,18.2,18.2,18.0,18.12,2977500
2013-10-03,18.2,18.26,18.12,18.26,103500
2013-10-04,18.18,18.22,18.02,18.18,265918
2013-10-07,18.18,18.2,18.02,18.16,137542
2013-10-08,18.1,18.1,18.0,18.0,670000
2013-10-09,18.04,18.04,17.96,18.0,75000
2013-10-10,18.0,18.0,17.86,17.9,265000
2013-10-11,18.0,18.02,17.96,18.0,232500
2013-10-15,18.08,18.08,17.9,17.98,332500
2013-10-16,17.96,17.96,17.78,17.82,398000
2013-10-17,17.82,17.88,17.66,17.74,457500
2013-10-18,17.82,17.82,17.64,17.68,574600
2013-10-21,17.68,17.72,17.64,17.72,400000
2013-10-22,17.64,17.86,17.62,17.8,342500
2013-10-23,17.8,17.86,17.68,17.72,247500
2013-10-24,17.66,17.72,17.64,17.7,240000
2013-10-25,17.7,17.7,17.52,17.62,345000
2013-10-28,17.62,17.64,17.6,17.6,159540
2013-10-29,17.56,17.56,17.46,17.52,700000
2013-10-30,17.54,17.6,17.48,17.54,410000
2013-10-31,17.46,17.62,17.38,17.48,648500
2013-11-01,17.46,17.5,17.38,17.4,602500
2013-11-04,17.4,17.58,17.38,17.56,2652500
2013-11-05,17.5,17.58,17.44,17.5,2806559
2013-11-06,17.48,17.64,17.48,17.64,300000
2013-11-07,17.62,17.64,17.56,17.62,245111
2013-11-08,17.56,17.56,17.46,17.52,2103500
2013-11-11,17.52,17.74,17.44,17.74,217500
2013-11-12,17.7,17.7,17.42,17.5,265000
2013-11-13,17.42,17.44,17.36,17.4,245000
2013-11-14,17.4,17.56,17.34,17.44,342500
2013-11-15,17.44,17.66,17.44,17.66,172500
2013-11-18,17.78,18.0,17.68,17.94,712500
2013-11-19,17.9,17.9,17.7,17.9,252500
2013-11-20,17.8,17.96,17.8,17.94,121000
2013-11-21,17.94,17.94,17.7,17.72,337500
2013-11-22,17.8,17.8,17.68,17.78,373516
2013-11-25,17.78,17.78,17.52,17.58,441460
2013-11-26,17.58,17.58,17.38,17.46,401280
2013-11-27,17.48,17.5,17.42,17.42,682500
2013-11-28,17.5,17.54,17.48,17.5,282700
2013-11-29,17.5,17.56,17.4,17.56,465000
2013-12-02,17.56,17.7,17.56,17.7,200000
2013-12-03,17.66,17.76,17.46,17.72,940918
2013-12-04,17.72,17.72,17.46,17.72,240055
2013-12-05,17.62,17.68,17.46,17.66,162500
2013-12-06,17.64,17.7,17.58,17.6,90110
2013-12-09,17.6,17.6,17.46,17.56,180000
2013-12-10,17.54,17.6,17.4,17.54,352000
2013-12-11,17.4,17.54,17.4,17.48,115500
2013-12-12,17.44,17.56,17.4,17.44,172500
2013-12-13,17.4,17.48,17.4,17.46,85000
2013-12-16,17.56,17.56,17.38,17.46,182500
2013-12-17,17.48,17.48,17.4,17.4,100669
2013-12-18,17.4,17.46,17.32,17.4,327500
2013-12-19,17.52,17.52,17.28,17.38,412500
2013-12-20,17.4,17.44,17.3,17.42,172500
2013-12-23,17.32,17.5,17.3,17.42,60000
2013-12-24,17.38,17.42,17.34,17.4,104312
2013-12-27,17.42,17.5,17.4,17.4,40000
2013-12-30,17.48,17.5,17.4,17.4,67604
2013-12-31,17.4,17.5,17.4,17.5,12500
2014-01-02,17.5,17.5,17.34,17.44,172500
2014-01-03,17.38,17.38,17.24,17.34,220000
2014-01-06,17.38,17.38,17.28,17.28,115056
2014-01-07,17.3,17.34,17.26,17.3,180000
2014-01-08,17.26,17.26,17.14,17.2,305113
2014-01-09,17.3,17.3,17.14,17.26,162500
2014-01-10,17.3,17.4,17.28,17.4,82500
2014-01-13,17.4,17.4,17.1,17.2,337500
2014-01-14,17.16,17.22,17.1,17.18,115000
2014-01-15,17.14,17.22,17.06,17.22,140000
2014-01-16,17.28,17.28,17.12,17.18,125000
2014-01-17,17.18,17.18,16.82,17.0,722500
2014-01-20,16.98,17.0,16.86,16.88,140000
2014-01-21,16.86,16.86,16.66,16.7,593000
2014-01-22,16.66,16.72,16.62,16.7,655000
2014-01-23,16.7,16.8,16.5,16.7,461000
2014-01-24,16.62,16.68,16.54,16.62,122500
2014-01-27,16.5,16.5,16.2,16.3,360000
2014-01-28,16.3,16.3,16.0,16.14,225000
2014-01-29,16.24,16.24,16.14,16.22,102500
2014-01-30,16.22,16.28,15.94,16.04,505000
2014-02-04,16.0,16.02,15.9,15.96,541965
2014-02-05,15.98,15.98,15.86,15.92,246677
2014-02-06,16.18,16.3,16.0,16.02,72560
2014-02-07,16.04,16.16,16.0,16.14,110981
2014-02-10,16.12,16.28,16.0,16.08,167620
2014-02-11,16.12,16.14,16.06,16.08,152500
2014-02-12,16.22,16.54,16.22,16.54,265000
2014-02-13,16.58,16.72,16.46,16.64,255000
2014-02-14,16.64,16.64,16.44,16.5,292500
2014-02-17,16.5,16.58,16.44,16.5,285000
2014-02-18,16.5,16.52,16.22,16.4,833500
2014-02-19,16.38,16.4,16.18,16.22,235000
2014-02-20,16.32,16.32,16.0,16.1,217500
2014-02-21,16.18,16.18,16.0,16.12,802500
2014-02-24,16.02,16.12,16.0,16.1,50000
2014-02-25,16.1,16.18,16.08,16.18,287500
2014-02-26,16.18,16.26,16.06,16.12,250918
2014-02-27,16.16,16.32,16.08,16.32,326891
2014-02-28,16.36,16.6,16.36,16.46,105000
2014-03-03,16.3,16.42,16.3,16.4,77500
2014-03-04,16.38,16.5,16.36,16.36,47500
2014-03-05,16.42,16.46,16.3,16.38,262559
2014-03-06,16.4,16.54,15.98,16.5,581642
2014-03-07,16.5,16.52,16.36,16.44,440119
2014-03-10,16.4,16.4,16.0,16.12,205000
2014-03-11,16.08,16.14,15.82,16.0,1384314
2014-03-12,16.06,16.06,15.84,15.98,692500
2014-03-13,15.88,16.14,15.88,16.04,350000
2014-03-14,15.94,16.14,15.82,16.14,534500
2014-03-17,15.98,16.18,15.98,16.12,60803
2014-03-18,16.12,16.2,16.1,16.14,97642
2014-03-19,16.16,16.16,15.94,15.94,522500
2014-03-20,15.92,16.02,15.9,15.98,899167
2014-03-21,16.02,16.32,12.3,16.16,595000
2014-03-24,16.2,16.36,16.1,16.3,217500
2014-03-25,16.3,16.34,16.14,16.3,1355000
2014-03-26,16.34,16.5,16.28,16.34,305000
2014-03-27,16.3,16.54,16.26,16.54,212500
2014-03-28,16.48,16.68,16.34,16.62,1072500
2014-03-31,16.66,16.72,16.62,16.7,128500
2014-04-01,16.72,16.96,16.7,16.96,1283322
2014-04-02,16.98,17.18,16.94,17.14,195000
2014-04-03,17.28,17.46,17.06,17.3,507556
2014-04-04,17.34,17.44,17.3,17.32,142019
2014-04-07,17.32,17.36,17.12,17.34,227613
2014-04-08,17.36,17.4,17.2,17.4,214750
2014-04-09,16.94,17.0,16.72,16.94,261500
2014-04-10,16.94,17.12,16.8,17.1,502500
2014-04-11,17.1,17.16,16.96,17.02,135000
2014-04-14,16.96,17.18,16.84,17.1,225000
2014-04-15,17.08,17.14,17.02,17.06,47500
2014-04-16,17.0,17.36,16.92,17.24,322500
2014-04-17,17.32,17.36,16.94,17.04,363460
2014-04-22,17.12,17.24,17.0,17.16,382500
2014-04-23,17.2,17.2,16.9,17.14,1322500
2014-04-24,17.2,17.28,17.14,17.2,347000
2014-04-25,17.22,17.22,16.88,17.08,870000
2014-04-28,17.04,17.32,17.04,17.32,299500
2014-04-29,17.3,17.38,17.3,17.38,140000
2014-04-30,17.36,17.36,17.14,17.2,202500
2014-05-02,17.22,17.38,17.02,17.32,130000
2014-05-05,17.1,17.24,17.1,17.24,209622
2014-05-07,17.14,17.18,17.08,17.16,155057
2014-05-08,17.22,17.28,17.18,17.26,207500
2014-05-09,17.26,17.32,17.26,17.26,277612
2014-05-12,17.32,17.36,17.2,17.24,880000
2014-05-13,17.38,17.38,17.12,17.26,800000
2014-05-14,17.36,17.36,17.16,17.26,80300
2014-05-15,17.34,17.34,17.18,17.22,1480000
2014-05-16,17.28,17.3,17.14,17.16,158000
2014-05-19,17.24,17.24,17.1,17.18,87500
2014-05-20,17.18,17.22,17.1,17.16,257266
2014-05-21,17.1,17.2,17.1,17.14,85100
2014-05-22,17.14,17.2,17.12,17.14,170000
2014-05-23,17.14,17.2,17.1,17.14,534739
2014-05-26,17.16,17.16,17.12,17.16,40000
2014-05-27,17.16,17.22,17.14,17.22,109622
2014-05-28,17.22,17.36,17.16,17.34,402500
2014-05-29,17.36,17.42,17.32,17.32,92500
2014-05-30,17.38,17.5,17.36,17.48,207500
2014-06-03,17.52,17.6,17.28,17.58,144952
2014-06-04,17.52,17.58,17.52,17.58,95000
2014-06-05,17.56,17.56,17.5,17.52,62555
2014-06-06,17.5,17.5,17.42,17.48,62500
2014-06-09,17.52,17.54,17.36,17.44,430131
2014-06-10,17.44,17.56,17.32,17.44,443990
2014-06-11,17.42,17.48,17.36,17.44,210000
2014-06-12,17.4,17.5,17.22,17.5,1070000
2014-06-13,17.5,17.68,17.4,17.66,807348
2014-06-16,17.54,17.64,17.4,17.54,227500
2014-06-17,17.54,17.54,17.36,17.44,795000
2014-06-18,17.46,17.5,17.38,17.5,339500
2014-06-19,17.42,17.58,17.38,17.48,127500
2014-06-20,17.52,17.66,17.5,17.62,129000
2014-06-23,17.58,17.7,17.36,17.5,596315
2014-06-24,17.38,17.52,17.38,17.5,62500
2014-06-25,17.5,17.56,17.5,17.56,40000
2014-06-26,17.54,17.64,17.48,17.62,230000
2014-06-27,17.6,17.7,17.36,17.7,467180
2014-06-30,17.7,17.88,17.6,17.86,710000
2014-07-02,17.96,18.08,17.86,18.08,832211
2014-07-03,18.1,18.16,18.08,18.16,290000
2014-07-04,18.14,18.2,17.94,18.18,426358
2014-07-07,18.18,18.18,18.04,18.08,37500
2014-07-08,18.02,18.08,17.96,18.08,77771
2014-07-09,18.08,18.08,17.82,17.84,87500
2014-07-10,17.84,17.86,17.8,17.86,32500
2014-07-11,17.94,18.18,17.9,18.08,132500
2014-07-14,18.04,18.06,17.9,17.94,142761
2014-07-15,17.92,18.06,17.92,18.04,65000
2014-07-16,18.04,18.14,18.04,18.14,171342
2014-07-17,18.14,18.16,17.96,18.12,165000
2014-07-18,17.98,18.1,17.98,18.1,67500
2014-07-21,18.02,18.1,18.0,18.08,140000
2014-07-22,18.08,18.16,18.08,18.1,67259
2014-07-23,18.08,18.18,18.02,18.18,122500
2014-07-24,18.16,18.2,18.16,18.2,122500
2014-07-25,18.2,18.2,18.16,18.16,20000
2014-07-28,18.16,18.18,18.12,18.18,111436
2014-07-29,18.16,18.38,18.14,18.34,322500
2014-07-30,18.34,18.56,18.34,18.54,527500
2014-07-31,18.54,18.6,18.4,18.6,482548
2014-08-01,18.52,18.66,18.44,18.6,292499
2014-08-04,18.56,18.6,18.46,18.48,352499
2014-08-05,18.44,18.5,18.4,18.48,180052
2014-08-06,18.42,18.54,18.18,18.52,517500
2014-08-07,18.52,18.56,18.38,18.54,117764
2014-08-08,18.5,18.5,18.28,18.42,177500
2014-08-11,18.5,18.5,18.42,18.5,105000
2014-08-12,18.5,18.62,18.5,18.62,487500
2014-08-13,18.6,18.66,18.52,18.66,97500
2014-08-14,18.66,18.7,18.64,18.68,254816
2014-08-15,18.72,18.76,18.52,18.74,470000
2014-08-18,18.64,18.92,18.64,18.9,345000
2014-08-19,18.9,19.1,18.9,19.06,297500
2014-08-20,19.08,19.3,19.08,19.3,552500
2014-08-21,19.26,19.4,19.14,19.3,755000
2014-08-22,19.34,19.38,19.24,19.34,796466
2014-08-25,19.38,19.42,18.48,19.38,380000
2014-08-26,19.3,19.4,19.26,19.34,152500
2014-08-27,19.32,19.36,19.26,19.28,242393
2014-08-28,19.28,19.34,19.08,19.1,295000
2014-08-29,19.08,19.3,19.0,19.26,407500
2014-09-01,19.2,19.28,19.1,19.26,537500
2014-09-02,19.22,19.34,19.22,19.3,317500
2014-09-03,19.32,19.44,19.32,19.44,546050
2014-09-04,19.44,19.54,19.32,19.52,314767
2014-09-05,19.56,19.78,19.48,19.72,957749
2014-09-08,19.78,19.78,19.6,19.62,210000
2014-09-10,19.36,19.58,19.16,19.3,732500
2014-09-11,19.6,19.6,19.3,19.4,83500
2014-09-12,19.34,19.44,19.28,19.36,217500
2014-09-15,19.28,19.4,18.98,19.4,265000
2014-09-16,19.3,19.44,19.2,19.42,385000
2014-09-17,19.42,19.42,19.32,19.4,330000
2014-09-18,19.3,19.3,19.02,19.28,570000
2014-09-19,19.28,19.3,18.96,19.24,677341
2014-09-22,19.2,19.22,18.98,19.22,1180000
2014-09-23,19.28,19.28,19.0,19.24,1860000
2014-09-24,19.2,19.32,19.04,19.28,673000
2014-09-25,19.28,19.46,19.1,19.42,505622
2014-09-26,19.3,19.5,19.3,19.5,636248
2014-09-29,19.28,19.28,19.0,19.06,813748
2014-09-30,19.0,19.0,18.6,18.72,1189370
2014-10-03,18.58,18.72,18.26,18.7,765248
2014-10-06,18.62,18.9,18.62,18.78,385000
2014-10-07,18.72,19.06,18.72,19.0,277551
2014-10-08,19.1,19.1,18.92,19.02,172500
2014-10-09,18.9,19.18,18.9,19.14,290256
2014-10-10,18.86,18.86,18.24,18.8,927500
2014-10-13,18.68,19.0,18.68,19.0,97500
2014-10-14,18.96,19.04,18.88,19.0,233000
2014-10-15,18.96,19.06,18.88,19.0,105029
2014-10-16,18.76,18.96,18.76,18.78,157500
2014-10-17,18.84,18.9,18.4,18.58,551212
2014-10-20,18.76,18.86,18.66,18.66,177500
2014-10-21,18.74,18.76,18.54,18.66,206736
2014-10-22,18.8,18.98,18.72,18.96,162500
2014-10-23,18.98,19.12,18.92,19.08,120000
2014-10-24,19.0,19.1,18.8,19.0,155515
2014-10-27,18.98,19.0,18.82,19.0,50000
2014-10-28,18.96,19.04,18.84,19.04,85120
2014-10-29,18.98,19.08,18.9,18.94,82980
2014-10-30,18.92,18.94,18.8,18.84,270387
2014-10-31,18.86,19.0,18.74,18.8,292500
2014-11-03,18.86,18.96,18.78,18.86,260000
2014-11-04,18.9,19.06,18.9,19.0,462500
2014-11-05,18.9,18.92,18.84,18.88,28291
2014-11-06,18.82,18.92,18.78,18.78,85928
2014-11-07,18.72,18.86,18.7,18.72,430363
2014-11-10,18.98,19.1,18.9,18.94,242997
2014-11-11,19.0,19.06,19.0,19.0,345200
2014-11-12,19.0,19.1,18.98,19.02,549291
2014-11-13,19.04,19.24,18.96,18.98,690000
2014-11-14,19.02,19.36,19.02,19.34,157500
2014-11-17,19.34,19.34,19.08,19.24,165000
2014-11-18,19.3,19.4,19.22,19.26,112500
2014-11-19,19.26,19.4,19.16,19.24,100000
2014-11-20,19.18,19.18,19.08,19.08,157500
2014-11-21,19.02,19.1,19.02,19.1,5000
2014-11-24,19.22,19.28,19.2,19.2,139500
2014-11-25,19.24,19.3,19.2,19.2,41974
2014-11-26,19.2,19.36,19.16,19.28,187500
2014-11-27,19.26,19.4,19.16,19.36,182500
2014-11-28,19.4,19.5,19.3,19.44,692500
2014-12-01,19.32,19.4,19.16,19.38,273004
2014-12-02,19.3,19.4,19.1,19.38,145000
2014-12-03,19.42,19.6,19.28,19.28,120050
2014-12-04,19.24,19.26,19.12,19.26,283323
2014-12-05,19.3,19.3,19.16,19.24,135355
2014-12-08,19.24,19.34,18.56,19.2,331771
2014-12-09,19.0,19.0,18.88,19.0,220000
2014-12-10,18.88,19.0,18.8,18.8,177500
2014-12-11,18.7,18.8,18.58,18.76,252500
2014-12-12,18.7,18.7,18.6,18.68,106769
2014-12-15,18.58,18.58,18.2,18.5,483561
2014-12-16,18.5,18.5,18.3,18.34,127500
2014-12-17,18.28,18.28,18.12,18.2,167500
2014-12-18,18.26,18.3,18.2,18.22,453428
2014-12-19,18.22,18.3,18.16,18.2,329260
2014-12-22,18.38,18.48,18.2,18.24,192926
2014-12-23,18.3,18.4,18.24,18.26,175000
2014-12-24,18.3,18.32,18.26,18.32,57500
2014-12-29,18.3,18.5,18.3,18.42,177500
2014-12-30,18.48,18.48,18.34,18.42,45000
2014-12-31,18.26,18.5,18.26,18.48,231900
2015-01-02,18.5,18.5,18.3,18.48,195000
2015-01-05,18.42,18.48,18.36,18.42,32500
2015-01-06,18.4,18.4,18.18,18.28,117553
2015-01-07,18.26,18.36,18.2,18.36,80000
2015-01-08,18.4,18.46,18.34,18.46,181504
2015-01-09,18.48,18.62,18.46,18.54,322500
2015-01-12,18.54,18.66,18.52,18.62,197000
2015-01-13,18.6,18.66,18.6,18.66,160000
2015-01-14,18.64,18.78,18.56,18.76,130000
2015-01-15,18.76,18.76,18.6,18.76,210000
2015-01-16,18.72,18.78,18.4,18.74,669441
2015-01-17,18.8,18.8,18.8,18.8,0
2015-01-19,18.76,18.76,18.6,18.66,60000
2015-01-20,18.64,18.74,18.64,18.74,67500
2015-01-21,18.62,18.74,18.62,18.7,87500
2015-01-22,18.7,18.7,18.54,18.62,117500
2015-01-23,18.68,18.88,18.6,18.88,327411
2015-01-26,18.9,18.9,18.78,18.86,32500
2015-01-27,18.84,18.86,18.78,18.84,201193
2015-01-28,18.78,18.88,18.74,18.88,654000
2015-01-29,18.88,18.88,18.76,18.86,337000
2015-01-30,18.84,18.96,18.84,18.96,230000
2015-02-02,18.84,19.0,18.84,18.94,366000
2015-02-03,18.94,18.94,18.8,18.82,285000
2015-02-04,18.86,18.94,18.78,18.84,867655
2015-02-05,18.96,19.02,18.84,18.98,1170000
2015-02-06,19.06,19.18,18.84,19.16,787960
2015-02-09,19.14,19.18,19.08,19.18,170000
2015-02-10,19.16,19.18,19.16,19.18,75000
2015-02-11,19.0,19.2,19.0,19.16,172500
2015-02-12,19.2,19.22,18.82,19.16,377500
2015-02-13,19.16,19.22,19.04,19.06,657500
2015-02-16,19.04,19.24,19.04,19.2,657396
2015-02-17,19.22,19.32,19.2,19.32,117500
2015-02-18,19.36,19.48,19.36,19.48,208000
2015-02-23,19.58,19.58,19.38,19.56,277500
2015-02-24,19.54,19.6,19.4,19.54,327028
2015-02-25,19.5,19.58,19.5,19.58,109500
2015-02-26,19.56,19.6,19.52,19.56,81100
2015-02-27,19.52,19.58,19.4,19.58,137500
2015-03-02,19.6,19.7,19.4,19.7,140000
2015-03-03,19.7,19.74,19.62,19.68,285266
2015-03-04,19.66,19.8,19.66,19.74,435049
2015-03-05,19.76,19.76,19.44,19.58,492800
2015-03-06,19.6,19.6,18.96,19.5,155451
2015-03-09,19.42,19.56,19.42,19.46,70000
2015-03-10,19.44,19.48,19.36,19.44,317500
2015-03-11,19.36,19.38,19.3,19.34,105000
2015-03-12,19.38,19.38,19.26,19.3,240000
2015-03-13,19.4,19.4,19.24,19.3,352500
2015-03-16,19.38,19.38,19.14,19.22,252500
2015-03-17,19.22,19.28,19.14,19.18,319214
2015-03-18,19.12,19.4,19.12,19.36,125000
2015-03-19,19.42,19.58,19.36,19.48,670000
2015-03-20,19.5,19.5,19.18,19.38,1115000
2015-03-23,19.4,19.44,19.16,19.32,832500
2015-03-24,19.34,19.44,19.3,19.44,155000
2015-03-25,19.44,19.54,19.3,19.5,177267
2015-03-26,19.5,19.64,19.5,19.64,312500
2015-03-27,19.6,19.66,19.6,19.64,305000
2015-03-30,19.7,19.74,19.68,19.72,185000
2015-03-31,19.8,19.92,19.76,19.9,404419
2015-04-01,19.86,19.96,19.8,19.96,307000
2015-04-02,19.98,19.98,19.8,19.86,592000
2015-04-08,19.92,20.2,19.92,19.98,420898
2015-04-09,20.05,20.3,19.86,20.3,800000
2015-04-10,20.2,20.35,20.1,20.35,669400
2015-04-13,20.4,20.55,20.25,20.55,815000
2015-04-14,20.45,20.7,20.35,20.65,567500
2015-04-15,20.2,20.2,19.96,19.96,357500
2015-04-16,19.94,19.96,19.64,19.86,250000
2015-04-17,19.8,20.0,19.8,19.88,127049
2015-04-20,19.82,19.84,19.4,19.42,270000
2015-04-21,19.48,19.8,19.48,19.72,100000
2015-04-22,19.76,19.78,19.54,19.6,258570
2015-04-23,19.6,19.7,19.6,19.64,115000
2015-04-24,19.6,19.66,19.54,19.64,711171
2015-04-27,19.8,19.8,19.52,19.66,839281
2015-04-28,19.74,19.74,19.52,19.54,432500
2015-04-29,19.52,19.68,19.52,19.6,240000
2015-04-30,19.64,19.76,19.56,19.62,262500
2015-05-04,19.62,19.68,19.58,19.6,1204122
2015-05-05,19.92,19.92,19.52,19.64,424500
2015-05-06,19.6,19.68,19.44,19.6,337549
2015-05-07,19.54,19.66,19.5,19.5,147500
2015-05-08,19.5,19.66,19.5,19.62,154147
2015-05-11,19.64,19.72,19.6,19.72,263500
2015-05-12,19.74,19.74,19.6,19.64,140000
2015-05-13,19.6,19.6,19.4,19.42,145000
2015-05-14,19.42,19.5,19.42,19.42,80500
2015-05-15,19.42,19.64,19.4,19.54,215000
2015-05-18,19.52,19.64,19.52,19.56,97500
2015-05-19,19.42,19.68,19.4,19.6,45666
2015-05-20,19.58,19.64,19.5,19.64,204786
2015-05-21,19.6,19.7,19.5,19.56,367500
2015-05-22,19.66,19.78,19.62,19.64,465000
2015-05-26,19.7,19.88,19.68,19.84,625008
2015-05-27,19.96,20.2,19.76,20.15,785000
2015-05-28,20.15,20.15,19.74,19.8,165000
2015-05-29,19.74,19.76,19.7,19.7,145000
2015-06-01,19.64,19.78,19.62,19.64,205802
2015-06-02,19.64,19.64,19.52,19.6,500000
2015-06-03,19.6,19.66,19.5,19.52,672111
2015-06-04,19.54,19.54,19.14,19.34,177550
2015-06-05,19.3,19.4,19.14,19.18,240375
2015-06-08,19.18,19.18,18.8,18.82,677500
2015-06-09,18.76,19.0,18.72,18.76,287500
2015-06-10,18.66,18.78,18.38,18.6,318860
2015-06-11,18.6,18.6,18.56,18.56,165000
2015-06-12,18.5,18.62,18.5,18.56,250000
2015-06-15,18.56,18.56,18.38,18.42,435000
2015-06-16,18.4,18.4,18.1,18.12,693890
2015-06-17,18.34,18.4,18.22,18.24,575389
2015-06-18,18.4,18.4,18.2,18.24,592500
2015-06-19,18.4,18.94,18.38,18.58,402500
2015-06-22,18.56,18.62,18.46,18.54,330000
2015-06-23,18.58,19.0,18.44,18.64,486250
2015-06-24,18.68,18.68,18.44,18.52,247500
2015-06-25,18.42,18.6,18.42,18.52,336000
2015-06-26,18.52,18.52,18.12,18.18,557500
2015-06-29,18.04,18.06,17.62,17.9,1005000
2015-06-30,17.9,18.24,17.9,18.2,237500
2015-07-02,18.24,18.4,18.24,18.34,385404
2015-07-03,18.46,18.46,18.1,18.24,195000
2015-07-06,18.18,18.36,17.88,18.08,515054
2015-07-07,18.02,18.18,17.84,18.14,655000
2015-07-08,18.14,18.14,17.02,17.3,906383
2015-07-09,17.2,17.8,17.16,17.7,442500
2015-07-10,17.8,18.0,17.8,18.0,200000
2015-07-13,18.0,18.16,17.9,18.06,832500
2015-07-14,18.18,18.28,18.1,18.18,395000
2015-07-15,18.3,18.3,18.1,18.16,105000
2015-07-16,18.04,18.2,18.04,18.16,185000
2015-07-17,18.3,18.38,18.24,18.28,367500
2015-07-20,18.42,18.42,18.22,18.38,533000
2015-07-21,18.46,18.52,18.4,18.5,167500
2015-07-22,18.44,18.44,18.36,18.42,520000
2015-07-23,18.34,18.5,18.28,18.48,690000
2015-07-24,18.5,18.5,18.32,18.48,290000
2015-07-27,18.4,18.4,17.96,18.06,857500
2015-07-28,18.2,18.2,17.7,18.06,308845
2015-07-29,18.0,18.3,17.92,18.3,332500
2015-07-30,18.2,18.32,18.12,18.26,202500
2015-07-31,18.16,18.28,18.08,18.22,350000
2015-08-03,18.08,18.08,17.82,17.92,609591
2015-08-04,17.9,17.98,17.66,17.66,974585
2015-08-05,17.74,17.82,17.54,17.58,729305
2015-08-06,17.7,17.7,17.34,17.4,2246000
2015-08-07,17.38,17.66,17.38,17.5,1713997
2015-08-10,17.5,17.5,17.3,17.42,397500
2015-08-11,17.58,17.58,17.44,17.5,130000
2015-08-12,17.4,17.5,17.3,17.38,222500
2015-08-13,17.28,17.3,17.1,17.22,561454
2015-08-14,17.26,17.9,17.1,17.24,469020
2015-08-17,17.2,17.22,17.06,17.12,540000
2015-08-18,17.2,17.3,16.96,16.98,335000
2015-08-19,16.94,17.2,16.82,16.9,435000
2015-08-20,16.84,16.94,16.6,16.84,406533
2015-08-21,16.64,16.76,16.22,16.7,778500
2015-08-24,16.4,16.4,15.38,15.46,1385000
2015-08-25,15.22,15.76,14.94,15.42,1268000
2015-08-26,15.5,15.5,15.14,15.22,576027
2015-08-27,15.4,15.66,15.38,15.66,520000
2015-08-28,15.8,15.8,15.66,15.66,485350
2015-08-31,15.68,15.76,15.5,15.7,522500
2015-09-01,15.7,15.72,15.52,15.54,547500
2015-09-02,15.46,15.46,15.32,15.4,450000
2015-09-04,15.5,15.5,15.18,15.2,2070564
2015-09-07,15.16,15.4,15.06,15.2,839746
2015-09-08,15.24,15.74,15.08,15.72,889119
2015-09-09,15.6,16.08,15.6,16.0,317500
2015-09-10,15.92,15.92,15.6,15.8,422500
2015-09-11,15.9,16.0,15.6,15.88,317500
2015-09-14,15.8,15.9,15.6,15.9,280000
2015-09-15,15.8,15.8,15.5,15.6,802500
2015-09-16,15.6,16.26,15.54,15.92,517500
2015-09-17,15.88,16.0,15.64,15.94,367500
2015-09-18,15.8,16.18,15.8,16.12,1599104
2015-09-21,16.06,16.2,16.06,16.14,385000
2015-09-22,16.08,16.44,16.08,16.4,1185000
2015-09-23,16.26,16.34,15.82,16.06,1762500
2015-09-24,16.12,16.12,15.6,15.66,402692
2015-09-25,15.68,15.94,15.68,15.84,1442500
2015-09-29,15.5,15.62,15.12,15.6,1085000
2015-09-30,15.78,16.02,15.68,15.94,595000
2015-10-02,16.04,16.36,16.04,16.34,602500
2015-10-05,16.44,16.5,16.34,16.38,255000
2015-10-06,16.48,16.54,16.12,16.34,690559
2015-10-07,16.4,16.4,16.24,16.36,771500
2015-10-08,16.5,16.5,16.38,16.48,342533
2015-10-09,16.62,16.68,16.48,16.58,361000
2015-10-12,16.48,16.66,16.44,16.62,465000
2015-10-13,16.64,16.64,16.38,16.42,307500
2015-10-14,16.44,16.56,16.4,16.52,1334467
2015-10-15,16.72,16.76,16.48,16.74,360700
2015-10-16,16.76,16.94,16.76,16.92,380700
2015-10-19,16.8,16.8,16.42,16.52,3462500
2015-10-20,16.5,16.5,16.24,16.36,1210675
2015-10-22,16.4,16.82,16.4,16.78,453218
2015-10-23,16.9,17.06,16.9,17.04,2055000
2015-10-26,17.2,17.2,16.86,16.96,465000
2015-10-27,16.94,17.02,16.8,17.02,582500
2015-10-28,16.88,16.96,16.78,16.84,670000
2015-10-29,16.86,16.98,16.7,16.8,1117500
2015-10-30,16.86,16.98,16.8,16.8,975000
2015-11-02,16.82,16.82,16.02,16.44,322500
2015-11-03,16.68,16.68,16.38,16.44,439427
2015-11-04,16.6,16.8,16.46,16.6,945058
2015-11-05,16.66,16.66,16.56,16.6,132500
2015-11-06,16.62,16.62,16.32,16.36,86420
2015-11-09,16.2,16.34,16.2,16.34,405000
2015-11-10,16.28,16.28,16.0,16.14,470000
2015-11-11,16.0,16.2,15.98,16.04,173080
2015-11-12,16.04,16.28,16.04,16.28,640226
2015-11-13,16.1,16.18,16.04,16.14,373000
2015-11-16,15.88,15.92,15.82,15.88,230000
2015-11-17,15.9,16.3,15.9,16.22,182500
2015-11-18,16.18,16.2,16.04,16.14,937500
2015-11-19,16.24,16.34,16.24,16.28,287500
2015-11-20,16.3,16.38,16.26,16.38,120000
2015-11-23,16.32,16.4,16.28,16.4,42500
2015-11-24,16.36,16.4,16.3,16.38,317500
2015-11-25,16.36,16.36,16.3,16.3,267500
2015-11-26,16.3,16.34,16.06,16.06,176087
2015-11-27,16.2,16.2,15.94,16.02,1844000
2015-11-30,16.02,16.08,15.8,15.84,2190000
2015-12-01,15.86,16.16,15.86,16.1,6206514
2015-12-02,16.38,16.38,16.28,16.38,212500
2015-12-03,16.22,16.28,16.06,16.06,6822939
2015-12-04,15.92,16.2,15.92,16.14,3560000
2015-12-07,16.24,16.28,16.1,16.14,952117
2015-12-08,16.06,16.06,15.8,15.9,233715
2015-12-09,15.8,15.9,15.8,15.86,165000
2015-12-10,15.72,15.98,15.7,15.76,313000
2015-12-11,15.8,15.92,15.58,15.68,100500
2015-12-14,15.62,15.68,15.52,15.64,175000
2015-12-15,15.54,15.66,15.38,15.4,398000
2015-12-16,15.58,15.58,15.5,15.54,72500
2015-12-17,15.5,15.62,15.44,15.62,295000
2015-12-18,15.58,15.62,15.5,15.54,117500
2015-12-21,15.4,15.58,15.4,15.56,107500
2015-12-22,15.52,15.64,15.42,15.5,487500
2015-12-23,15.7,15.86,15.7,15.82,107439
2015-12-24,15.86,15.9,15.8,15.88,292500
2015-12-28,15.8,15.8,15.78,15.8,47500
2015-12-29,15.72,15.86,15.72,15.8,972500
2015-12-30,15.9,15.9,15.8,15.84,290000
2015-12-31,15.8,15.88,15.8,15.84,119000
2016-01-04,15.9,15.9,15.52,15.66,45000
2016-01-05,15.48,15.54,15.38,15.44,248500
2016-01-06,15.44,15.44,15.34,15.42,87563
2016-01-07,15.32,15.32,15.0,15.04,1265000
2016-01-08,15.02,15.06,14.98,15.04,212954
2016-01-11,14.86,15.0,14.7,14.76,340400
2016-01-12,14.76,14.76,14.5,14.54,425000
2016-01-13,14.7,14.76,14.54,14.56,532128
2016-01-14,14.5,14.5,14.06,14.18,913500
2016-01-15,14.18,14.3,14.1,14.28,246615
2016-01-18,14.06,14.16,14.04,14.06,2094325
2016-01-19,14.02,14.02,13.7,13.86,511000
2016-01-20,13.82,13.86,13.62,13.78,285000
2016-01-21,13.72,13.82,13.14,13.2,2703000
2016-01-22,13.48,13.54,13.2,13.4,455000
2016-01-25,13.5,13.72,13.44,13.66,140000
2016-01-26,13.46,13.78,13.46,13.64,270000
2016-01-27,13.76,13.84,13.44,13.82,807275
2016-01-28,13.72,13.74,13.52,13.68,383000
2016-01-29,13.64,13.78,13.48,13.78,1072500
2016-02-01,13.78,13.78,13.58,13.62,685000
2016-02-02,13.62,13.66,13.6,13.62,406500
2016-02-03,13.6,13.6,13.22,13.34,597263
2016-02-04,13.4,13.94,13.18,13.86,656652
2016-02-05,13.94,14.04,13.84,14.0,808001
2016-02-11,13.68,13.78,13.32,13.5,445000
2016-02-12,13.6,13.6,13.34,13.4,322500
2016-02-15,13.68,13.7,13.44,13.68,315000
2016-02-16,13.7,13.94,13.52,13.8,355000
2016-02-17,13.96,13.96,13.52,13.54,367500
2016-02-18,13.66,13.86,13.56,13.72,1468500
2016-02-19,13.74,14.0,13.7,14.0,215000
2016-02-22,14.0,14.34,14.0,14.3,270000
2016-02-23,14.42,14.42,14.06,14.26,273250
2016-02-24,14.38,14.38,14.14,14.2,205000
2016-02-25,14.28,14.28,13.9,14.06,280000
2016-02-26,14.12,14.22,13.92,14.18,325000
2016-02-29,14.06,14.14,14.02,14.06,317500
2016-03-01,14.12,14.3,14.1,14.18,241565
2016-03-02,14.28,14.5,14.26,14.42,1662257
2016-03-03,14.42,14.72,14.42,14.52,462816
2016-03-04,14.72,14.72,14.5,14.64,233499
2016-03-07,14.64,14.82,14.6,14.64,221192
2016-03-08,14.54,14.54,14.4,14.46,352500
2016-03-09,14.32,14.92,14.32,14.76,246869
2016-03-10,14.8,14.8,14.64,14.66,611398
2016-03-11,14.56,14.78,14.5,14.7,547500
2016-03-14,14.7,14.9,14.6,14.88,430583
2016-03-15,14.8,14.8,14.58,14.7,791741
2016-03-16,14.7,14.76,14.64,14.68,328250
2016-03-17,14.8,14.92,14.78,14.9,1041500
2016-03-18,14.98,15.02,14.74,14.92,1565000
2016-03-21,14.92,15.0,14.78,14.8,1182217
2016-03-22,14.98,15.0,14.74,14.84,1326000
2016-03-23,14.84,14.9,14.78,14.88,1712500
2016-03-24,14.8,14.92,14.78,14.8,817500
2016-03-29,14.78,14.78,14.66,14.72,471350
2016-03-30,14.72,14.98,14.7,14.9,940000
2016-03-31,14.98,15.2,14.88,15.12,2886465
2016-04-01,15.16,15.2,15.0,15.1,1577500
2016-04-05,15.06,15.1,14.84,15.0,1183125
2016-04-06,14.96,15.04,14.92,15.04,2087565
2016-04-07,15.14,15.2,15.02,15.18,1313500
2016-04-08,15.1,15.12,15.0,15.1,7424540
2016-04-11,15.12,15.28,14.98,15.26,265000
2016-04-12,15.28,15.44,15.24,15.44,515000
2016-04-13,14.9,15.06,14.82,15.04,840190
2016-04-14,15.12,15.26,14.92,15.2,1237266
2016-04-15,15.18,15.34,15.08,15.34,589294
2016-04-18,15.2,15.2,15.1,15.2,415000
2016-04-19,15.28,15.28,15.08,15.16,252912
2016-04-20,15.12,15.24,15.12,15.18,1269103
2016-04-21,15.24,15.42,15.24,15.34,416097
2016-04-22,15.18,15.3,15.12,15.24,625000
2016-04-25,15.16,15.22,15.08,15.2,590000
2016-04-26,15.16,15.16,15.0,15.14,420000
2016-04-27,15.06,15.18,15.06,15.12,577500
2016-04-28,15.2,15.46,15.2,15.26,883500
2016-04-29,14.96,15.18,14.96,15.14,587500
2016-05-03,15.1,15.1,15.0,15.02,334500
2016-05-04,14.9,14.98,14.8,14.92,282500
2016-05-05,14.84,14.98,14.84,14.92,400596
2016-05-06,14.84,14.84,14.58,14.7,431837
2016-05-09,14.72,14.9,14.62,14.74,245142
2016-05-10,14.8,14.8,14.6,14.68,625000
2016-05-11,14.68,14.74,14.58,14.62,744532
2016-05-12,14.66,14.68,14.28,14.36,685000
2016-05-13,14.36,14.38,14.08,14.34,597500
2016-05-16,14.24,14.36,14.16,14.24,1787500
2016-05-17,14.28,14.42,14.24,14.36,1321872
2016-05-18,14.3,14.54,14.3,14.46,340000
2016-05-19,14.46,14.62,14.42,14.44,960000
2016-05-20,14.52,14.6,14.4,14.48,687500
2016-05-23,14.44,14.5,14.28,14.42,800000
2016-05-24,14.46,14.5,14.34,14.36,385000
2016-05-25,14.44,14.72,14.44,14.6,1394241
2016-05-26,14.66,14.74,14.6,14.74,174500
2016-05-27,14.74,14.92,14.74,14.92,167038
2016-05-30,14.92,14.98,14.86,14.92,82500
2016-05-31,14.9,15.16,14.9,15.04,235000
2016-06-01,15.0,15.16,15.0,15.1,160000
2016-06-02,15.1,15.16,15.08,15.12,132500
2016-06-03,15.12,15.26,15.12,15.26,786984
2016-06-06,15.26,15.5,15.24,15.5,1492500
2016-06-07,15.54,15.6,15.5,15.56,380500
2016-06-08,15.58,15.64,15.5,15.62,562500
2016-06-10,15.48,15.56,15.44,15.44,401485
2016-06-13,15.36,15.46,14.98,15.06,574677
2016-06-14,15.02,15.1,14.96,15.02,533662
2016-06-15,14.98,15.12,14.9,15.12,388500
2016-06-16,15.04,15.04,14.8,14.96,550000
2016-06-17,15.0,15.0,14.7,14.78,1361000
2016-06-20,14.9,15.04,14.88,15.04,521250
2016-06-21,15.08,15.12,15.0,15.08,700000
2016-06-22,15.02,15.28,15.02,15.26,920000
2016-06-23,15.22,15.3,15.22,15.3,72331
2016-06-24,15.12,15.32,14.64,15.0,648890
2016-06-27,14.88,15.08,14.82,15.06,840270
2016-06-28,14.88,15.06,14.84,14.94,590000
2016-06-29,15.0,15.1,14.94,15.06,544237
2016-06-30,15.14,15.34,15.1,15.32,879676
2016-07-04,15.42,15.78,15.42,15.74,681666
2016-07-05,15.64,15.66,15.44,15.5,213784
2016-07-06,15.48,15.52,15.26,15.46,430258
2016-07-07,15.46,15.66,15.4,15.56,559304
2016-07-08,15.46,15.5,15.32,15.44,152353
2016-07-11,15.58,15.8,15.58,15.7,212094
2016-07-12,15.72,15.84,15.6,15.8,325000
2016-07-13,15.7,15.88,15.7,15.82,360000
2016-07-14,15.76,15.92,15.7,15.92,375000
2016-07-15,15.92,16.1,15.92,16.02,559954
2016-07-18,16.04,16.2,15.9,16.14,424884
2016-07-19,16.3,16.3,16.0,16.1,810500
2016-07-20,16.02,16.4,16.02,16.32,442500
2016-07-21,16.38,16.64,16.3,16.48,406047
2016-07-22,16.38,16.44,16.08,16.34,367500
2016-07-25,16.48,16.48,16.18,16.2,50000
2016-07-26,16.2,16.4,16.14,16.28,1129551
2016-07-27,16.4,16.5,16.16,16.26,567500
2016-07-28,16.28,16.34,16.18,16.26,790000
2016-07-29,16.18,16.3,16.1,16.14,582500
2016-08-01,16.2,16.26,15.8,16.12,1073803
2016-08-03,15.9,16.02,15.74,15.92,624583
2016-08-04,15.98,16.0,15.9,15.94,240328
2016-08-05,15.94,16.04,15.94,16.02,494353
2016-08-08,16.04,16.2,16.04,16.18,644087
2016-08-09,16.22,16.26,16.12,16.24,200000
2016-08-10,16.3,16.3,16.2,16.26,417500
2016-08-11,16.2,16.2,16.14,16.18,210034
2016-08-12,16.22,16.3,16.2,16.28,505000
2016-08-15,16.28,16.38,16.28,16.34,622500
2016-08-16,16.36,16.36,16.2,16.32,1588402
2016-08-17,16.36,16.38,16.16,16.26,4905000
2016-08-18,16.26,16.26,15.76,15.92,1975105
2016-08-19,15.86,15.86,15.16,15.24,2116866
2016-08-22,15.18,15.3,15.08,15.12,978160
2016-08-23,15.2,15.38,15.2,15.34,702500
2016-08-24,15.34,15.36,15.18,15.3,555000
2016-08-25,15.26,15.36,15.1,15.32,470000
2016-08-26,15.36,15.48,15.36,15.4,452500
2016-08-29,15.38,15.38,15.22,15.24,605000
2016-08-30,15.32,15.4,15.26,15.36,387828
2016-08-31,15.34,15.36,15.28,15.32,620000
2016-09-01,15.3,15.42,15.2,15.38,899500
2016-09-02,15.38,15.42,15.34,15.36,787500
2016-09-05,15.42,15.66,15.4,15.62,272752
2016-09-06,15.5,15.66,15.46,15.66,537087
2016-09-07,15.5,15.5,15.4,15.5,1019035
2016-09-08,15.5,15.76,15.44,15.72,1237500
2016-09-09,15.74,15.74,15.58,15.64,1365000
2016-09-12,15.42,15.42,15.28,15.36,1192820
2016-09-13,15.4,15.42,15.22,15.26,2065000
2016-09-14,15.26,15.3,15.2,15.24,178402
2016-09-15,15.24,15.3,15.12,15.28,492500
2016-09-19,15.26,15.46,15.2,15.36,650387
2016-09-20,15.44,15.44,15.22,15.36,3450000
2016-09-21,15.34,15.34,15.22,15.28,3568902
2016-09-22,15.28,15.44,15.28,15.34,610378
2016-09-23,15.28,15.38,15.28,15.32,1977500
2016-09-26,15.24,15.26,15.16,15.18,545000
2016-09-27,15.12,15.2,15.1,15.16,541647
2016-09-28,15.16,15.22,15.1,15.2,797500
2016-09-29,15.22,15.32,15.12,15.2,202992
2016-09-30,15.12,15.18,15.0,15.08,1851017
2016-10-03,15.18,15.3,15.12,15.2,289200
2016-10-04,15.16,15.26,15.02,15.26,167500
2016-10-05,15.22,15.26,15.12,15.22,252758
2016-10-06,15.2,15.34,15.06,15.3,280000
2016-10-07,15.26,15.32,15.08,15.18,520330
2016-10-11,15.2,15.2,14.92,15.0,1320000
2016-10-12,14.98,14.98,14.88,14.92,555000
2016-10-13,14.9,14.92,14.8,14.84,483750
2016-10-14,14.84,15.0,14.84,14.9,3957910
2016-10-17,14.86,14.94,14.72,14.84,992719
2016-10-18,14.84,14.9,14.84,14.88,130000
2016-10-19,14.88,14.9,14.82,14.84,100000
2016-10-20,14.98,14.98,14.82,14.9,301503
2016-10-24,14.88,14.88,14.76,14.82,950000
2016-10-25,14.78,14.92,14.76,14.9,1072500
2016-10-26,14.8,14.9,14.78,14.78,692500
2016-10-27,14.76,14.8,14.5,14.56,3203750
2016-10-28,14.56,14.6,14.5,14.56,1172500
2016-10-31,14.54,14.56,14.48,14.52,665000
2016-11-01,14.5,14.72,14.5,14.62,622819
2016-11-02,14.56,14.56,14.4,14.46,365156
2016-11-03,14.44,14.46,14.34,14.4,287538
2016-11-04,14.38,14.44,14.36,14.4,472500
2016-11-07,14.34,14.4,14.28,14.4,652750
2016-11-08,14.4,14.42,14.3,14.38,302500
2016-11-09,14.4,14.42,14.16,14.26,415500
2016-11-10,14.4,14.5,14.3,14.42,527500
2016-11-11,14.12,14.14,13.98,13.98,1019937
2016-11-14,13.92,13.92,13.72,13.74,522500
2016-11-15,13.7,13.8,13.64,13.7,555000
2016-11-16,13.7,13.82,13.66,13.68,902500
2016-11-17,13.7,13.8,13.62,13.74,245000
2016-11-18,13.74,13.88,13.68,13.86,336312
2016-11-21,13.86,13.94,13.76,13.82,410500
2016-11-22,13.84,13.9,13.76,13.84,1172700
2016-11-23,13.84,13.88,13.82,13.82,410000
2016-11-24,13.76,13.8,13.72,13.74,232500
2016-11-25,13.74,13.8,13.72,13.74,262500
2016-11-28,13.7,13.76,13.56,13.7,485500
2016-11-29,13.7,13.7,13.54,13.6,877500
2016-11-30,13.68,13.7,13.58,13.64,997694
2016-12-01,13.8,13.8,13.6,13.74,405000
2016-12-02,13.72,13.74,13.64,13.7,317500
2016-12-05,13.68,13.68,13.54,13.58,443289
2016-12-06,13.56,13.66,13.56,13.62,572500
2016-12-07,13.64,13.66,13.58,13.6,532549
2016-12-08,13.64,13.72,13.62,13.72,2093320
2016-12-09,13.68,13.68,13.56,13.6,5854328
2016-12-12,13.6,13.66,13.52,13.52,514130
2016-12-13,13.52,13.54,13.32,13.38,655000
2016-12-14,13.48,13.5,13.38,13.42,367500
2016-12-15,13.4,13.42,13.32,13.34,218300
2016-12-16,13.3,13.34,13.24,13.3,750934
2016-12-19,13.22,13.28,13.1,13.18,903401
2016-12-20,13.18,13.18,13.1,13.14,305000
2016-12-21,13.16,13.22,13.1,13.18,224205
2016-12-22,13.18,13.18,13.08,13.14,545724
2016-12-23,13.14,13.18,13.08,13.14,185000
2016-12-28,13.12,13.12,12.98,13.02,953890
2016-12-29,13.1,13.12,13.04,13.06,140000
2016-12-30,13.2,13.38,13.2,13.34,407500
2017-01-03,13.3,13.56,13.3,13.5,501550
2017-01-04,13.6,13.64,13.44,13.5,500549
2017-01-05,13.5,13.62,13.5,13.56,944766
2017-01-06,13.6,13.62,13.52,13.58,1718668
2017-01-09,13.68,13.68,13.64,13.68,227947
2017-01-10,13.68,13.7,13.66,13.7,694750
2017-01-11,13.78,13.8,13.76,13.78,617051
2017-01-12,13.78,13.8,13.74,13.78,1312500
2017-01-13,13.8,13.86,13.74,13.78,1612500
2017-01-16,13.78,13.8,13.58,13.74,710960
2017-01-17,13.76,13.8,13.76,13.78,720000
2017-01-18,13.8,13.92,13.8,13.9,1422500
2017-01-19,13.86,13.86,13.68,13.78,930054
2017-01-20,13.7,13.84,13.66,13.72,1771965
2017-01-23,13.7,13.78,13.52,13.64,700841
2017-01-24,13.62,13.68,13.58,13.64,227411
2017-01-25,13.68,13.74,13.64,13.68,337500
2017-01-26,13.72,13.8,13.6,13.74,1535500
2017-01-27,13.7,13.78,13.64,13.7,687500
2017-02-01,13.74,13.8,13.6,13.72,1822500
2017-02-02,13.72,13.82,13.66,13.72,661085
2017-02-03,13.72,13.78,13.66,13.7,504137
2017-02-06,13.7,13.72,13.6,13.7,427500
2017-02-07,13.66,13.8,13.62,13.74,652824
2017-02-08,13.74,13.84,13.7,13.8,1642500
2017-02-09,13.76,13.84,13.74,13.76,1395000
2017-02-10,13.8,13.96,13.8,13.94,950508
2017-02-13,13.94,14.08,13.92,14.06,410220
2017-02-14,14.08,14.16,14.06,14.14,781171
2017-02-15,14.14,14.3,14.14,14.24,1130930
2017-02-16,14.3,14.3,14.2,14.24,159205
2017-02-17,14.2,14.22,14.14,14.2,330000
2017-02-20,14.14,14.22,14.1,14.18,175000
2017-02-21,14.24,14.24,14.1,14.1,225000
2017-02-22,14.1,14.26,14.06,14.18,819000
2017-02-23,14.14,14.3,14.12,14.28,355281
2017-02-24,14.26,14.3,14.22,14.3,495000
2017-02-27,14.28,14.32,14.26,14.32,210000
2017-02-28,14.28,14.32,14.14,14.22,626395
2017-03-01,14.2,14.26,14.1,14.2,838895
2017-03-02,14.2,14.26,14.16,14.24,862500
2017-03-03,14.2,14.22,13.9,14.1,1351280
2017-03-06,14.1,14.16,14.02,14.1,407500
2017-03-07,14.1,14.1,14.06,14.08,295347
2017-03-08,14.06,14.1,13.92,14.0,748550
2017-03-09,14.0,14.0,13.86,13.96,983000
2017-03-10,13.96,14.02,13.92,14.0,335900
2017-03-13,14.02,14.2,14.0,14.14,459825
2017-03-14,14.1,14.18,14.02,14.18,172500
2017-03-15,14.1,14.14,14.0,14.06,401401
2017-03-16,14.08,14.22,13.8,13.96,2053335
2017-03-17,13.9,13.92,13.56,13.64,2634675
2017-03-20,13.58,13.66,13.46,13.66,1134000
2017-03-21,13.66,13.66,13.52,13.56,369936
2017-03-22,13.52,13.56,13.38,13.44,1201400
2017-03-23,13.44,13.58,13.2,13.3,4045933
2017-03-24,13.36,13.46,13.3,13.42,1187500
2017-03-27,13.46,13.46,13.32,13.36,1325000
2017-03-28,13.32,13.56,13.32,13.52,800222
2017-03-29,13.52,13.52,13.38,13.44,1184735
2017-03-30,13.42,13.46,13.32,13.38,1984436
2017-03-31,13.42,14.0,13.38,13.48,1458750
2017-04-03,13.56,13.64,13.46,13.56,894033
2017-04-05,13.62,13.66,13.54,13.6,1039452
2017-04-06,13.6,13.6,13.5,13.52,645291
2017-04-07,13.56,13.56,13.46,13.48,1124975
2017-04-10,13.5,13.56,13.44,13.52,1482862
2017-04-11,13.38,13.42,13.22,13.26,967500
2017-04-12,13.32,13.32,13.16,13.18,935000
2017-04-13,13.18,13.34,13.18,13.3,1688925
2017-04-18,13.3,13.3,13.12,13.16,622500
2017-04-19,13.12,13.12,12.92,13.0,1631160
2017-04-20,13.02,13.06,13.0,13.06,1360890
2017-04-21,13.18,13.18,13.0,13.04,1704916
2017-04-24,13.04,13.12,13.0,13.1,1473695
2017-04-25,13.12,13.18,13.1,13.14,802500
2017-04-26,13.2,13.44,13.18,13.28,812500
2017-04-27,13.26,13.36,13.12,13.26,352500
2017-04-28,13.28,13.28,13.16,13.2,347500
2017-05-02,13.24,13.24,13.1,13.14,532500
2017-05-04,13.16,13.16,13.04,13.12,511856
2017-05-05,13.14,13.14,13.02,13.1,501231
2017-05-08,13.1,13.12,13.04,13.06,630000
2017-05-09,13.06,13.16,13.0,13.12,812876
2017-05-10,13.22,13.28,13.12,13.14,1616936
2017-05-11,13.24,13.28,13.14,13.22,1589221
2017-05-12,13.24,13.36,13.24,13.36,989460
2017-05-15,13.4,13.4,13.28,13.32,1137500
2017-05-16,13.32,13.34,13.16,13.24,1292500
2017-05-17,13.28,13.38,13.22,13.34,1180000
2017-05-18,13.3,13.34,13.24,13.3,1731160
2017-05-19,13.34,13.38,13.24,13.34,2108428
2017-05-22,13.4,13.66,13.34,13.62,4501134
2017-05-23,13.66,13.88,13.66,13.8,3578000
2017-05-24,13.76,13.84,13.68,13.84,1932500
2017-05-25,13.84,13.98,13.8,13.9,2261185
2017-05-26,13.94,13.98,13.82,13.9,1317500
2017-05-29,13.92,13.92,13.86,13.9,884871
2017-05-31,13.86,13.9,13.66,13.72,1611000
2017-06-01,13.76,13.82,13.7,13.8,828918
2017-06-02,13.8,13.86,13.8,13.84,1658374
2017-06-05,13.86,13.94,13.74,13.76,555344
2017-06-06,13.78,13.96,13.78,13.94,1952000
2017-06-07,13.96,13.96,13.86,13.9,1667851
2017-06-08,13.92,14.08,13.9,14.06,3260000
2017-06-09,14.06,14.06,13.92,13.98,1392500
2017-06-12,13.98,13.98,13.82,13.86,947160
2017-06-13,13.86,13.88,13.8,13.84,765928
2017-06-14,13.8,13.86,13.8,13.82,840928
2017-06-15,13.74,13.74,13.62,13.68,850000
2017-06-16,13.7,13.9,13.7,13.84,511083
2017-06-19,13.84,13.86,13.76,13.78,1017500
2017-06-20,13.82,13.86,13.7,13.72,1663700
2017-06-21,13.7,13.7,13.58,13.62,1735000
2017-06-22,13.66,13.7,13.6,13.64,1308057
2017-06-23,13.64,13.64,13.58,13.6,1601924
2017-06-26,13.6,13.7,13.58,13.7,1265424
2017-06-27,13.7,13.76,13.64,13.68,992500
2017-06-28,13.7,13.72,13.6,13.64,1775000
2017-06-29,13.66,13.68,13.62,13.64,2867500
2017-06-30,13.6,13.7,13.6,13.66,2416000
2017-07-03,13.66,13.76,13.66,13.7,1782497
2017-07-04,13.68,13.78,13.62,13.66,1786640
2017-07-05,13.66,13.74,13.62,13.72,2110468
2017-07-06,13.7,13.92,13.7,13.84,2242500
2017-07-07,13.76,13.8,13.74,13.78,741355
2017-07-10,13.76,13.8,13.74,13.76,1262879
2017-07-11,13.74,13.8,13.74,13.78,1714610
2017-07-12,13.8,13.84,13.76,13.8,1112140
2017-07-13,13.8,13.92,13.8,13.9,2180912
2017-07-14,13.9,13.94,13.86,13.94,546500
2017-07-17,13.94,13.94,13.86,13.88,819514
2017-07-18,13.84,13.88,13.84,13.88,680000
2017-07-19,13.92,14.14,13.92,14.02,2858157
2017-07-20,14.02,14.1,13.96,14.04,2460200
2017-07-21,14.1,14.1,13.9,13.92,911500
2017-07-24,13.92,14.04,13.86,13.94,1495447
2017-07-25,13.94,13.94,13.88,13.92,1209500
2017-07-26,13.88,13.9,13.82,13.86,2100220
2017-07-27,13.86,13.86,13.82,13.82,930000
2017-07-28,13.82,13.88,13.82,13.82,1232633
2017-07-31,13.8,13.88,13.8,13.86,1446630
2017-08-01,13.88,13.96,13.84,13.92,1293490
2017-08-02,13.94,14.0,13.86,14.0,1925000
2017-08-03,14.0,14.02,13.92,13.96,920759
2017-08-04,13.98,13.98,13.92,13.94,560928
2017-08-07,13.96,14.04,13.94,14.04,832919
2017-08-08,14.0,14.04,13.96,14.0,1314336
2017-08-09,14.0,14.3,13.98,14.24,2535000
2017-08-10,14.24,14.24,13.98,14.1,2093528
2017-08-11,13.96,14.04,13.84,13.94,3909180
2017-08-14,13.96,14.0,13.88,14.0,865862
2017-08-15,14.02,14.04,13.9,13.94,992500
2017-08-16,13.94,14.1,13.9,14.02,1891160
2017-08-17,13.88,14.06,13.84,13.92,2928428
2017-08-18,13.84,13.96,13.8,13.9,1795000
2017-08-21,13.82,13.94,13.82,13.88,1172500
2017-08-22,13.88,13.92,13.88,13.9,1125000
2017-08-24,13.9,13.92,13.84,13.88,3494257
2017-08-25,13.84,13.9,13.84,13.9,1555000
2017-08-28,13.94,13.94,13.88,13.92,2097500
2017-08-29,13.94,13.96,13.88,13.88,1935000
2017-08-30,13.9,13.94,13.84,13.9,4509242
2017-08-31,14.02,14.16,13.96,14.12,4635000
2017-09-01,14.1,14.16,14.06,14.08,1732500
2017-09-04,14.1,14.16,14.06,14.1,1977500
2017-09-05,14.08,14.14,14.04,14.1,1540000
2017-09-06,13.98,13.98,13.86,13.9,2102500
2017-09-07,13.9,13.94,13.86,13.9,3069350
2017-09-08,13.9,14.0,13.9,13.98,1895928
2017-09-11,13.98,14.08,13.96,14.0,2190225
2017-09-12,14.0,14.06,13.98,14.0,1415037
2017-09-13,13.9,14.08,13.9,14.02,995000
2017-09-14,14.04,14.16,14.0,14.14,3281358
2017-09-15,14.16,14.24,13.7,13.96,19898564
2017-09-18,14.0,14.08,13.9,13.94,5308920
2017-09-19,14.0,14.0,13.86,13.94,3474558
2017-09-20,14.0,14.0,13.88,13.9,3663389
2017-09-21,13.88,13.88,13.8,13.82,953500
2017-09-22,13.8,13.8,13.68,13.72,1705000
2017-09-25,13.76,13.76,13.5,13.56,1391000
2017-09-26,13.52,13.56,13.46,13.46,2578900
2017-09-27,13.48,13.58,13.48,13.54,1801600
2017-09-28,13.56,13.56,13.5,13.54,1068671
2017-09-29,13.52,13.56,13.48,13.54,2647795
2017-10-03,13.56,13.62,13.54,13.62,2730070
2017-10-04,13.64,13.72,13.64,13.72,2387624
2017-10-06,13.74,13.76,13.68,13.7,2188369
2017-10-09,13.7,13.7,13.54,13.58,460000
2017-10-10,13.58,13.64,13.46,13.56,1185581
2017-10-11,13.58,13.62,13.52,13.56,487500
2017-10-12,13.58,13.64,13.52,13.56,1417100
2017-10-13,13.54,13.62,13.52,13.6,966000
2017-10-16,13.62,13.7,13.6,13.68,742500
2017-10-17,13.62,13.68,13.5,13.66,1027722
2017-10-18,13.64,13.7,13.58,13.62,438436
2017-10-19,13.68,13.7,13.52,13.58,967500
2017-10-20,13.58,13.68,13.58,13.68,797500
2017-10-23,13.68,13.74,13.56,13.6,742500
2017-10-24,13.58,13.62,13.54,13.6,957500
2017-10-25,13.66,13.66,13.5,13.56,1313499
2017-10-26,13.52,13.58,13.5,13.52,1650901
2017-10-27,13.52,13.54,13.48,13.52,2216617
2017-10-30,13.54,13.54,13.46,13.46,1252500
2017-10-31,13.5,13.58,13.44,13.48,1610000
2017-11-01,13.52,13.52,13.44,13.48,1346000
2017-11-02,13.5,13.5,13.4,13.44,1455000
2017-11-03,13.5,13.52,13.42,13.5,1910548
2017-11-06,13.52,13.52,13.36,13.42,1188500
2017-11-07,13.5,13.5,13.44,13.48,723156
2017-11-08,13.52,13.52,13.42,13.48,797500
2017-11-09,13.48,13.6,13.4,13.48,1170000
2017-11-10,13.38,13.4,13.26,13.3,2566202
2017-11-13,13.3,13.32,13.12,13.14,2199361
2017-11-14,13.2,13.2,13.0,13.06,3795000
2017-11-15,13.04,13.08,12.88,13.0,2520000
2017-11-16,13.0,13.0,12.86,12.9,1640769
2017-11-17,12.96,13.0,12.88,12.94,1020000
2017-11-20,12.96,13.0,12.78,12.82,2631500
2017-11-21,12.9,12.9,12.7,12.76,2165000
2017-11-22,12.76,12.8,12.74,12.76,3549784
2017-11-23,12.76,12.8,12.68,12.8,2822000
2017-11-24,12.82,12.88,12.8,12.86,1692500
2017-11-27,12.86,12.88,12.72,12.86,2570000
2017-11-28,12.82,12.9,12.78,12.86,1785000
2017-11-29,12.86,12.94,12.66,12.74,2175999
2017-11-30,12.78,12.8,12.64,12.72,3957703
2017-12-01,12.8,13.0,12.74,12.96,3728007
2017-12-04,12.96,13.0,12.8,12.86,2527500
2017-12-05,12.86,13.7,12.8,12.84,2945071
2017-12-06,12.88,12.88,12.5,12.52,7561150
2017-12-07,12.62,12.62,12.3,12.34,6987508
2017-12-08,12.42,12.42,12.18,12.26,8529165
2017-12-11,12.22,12.26,12.18,12.2,3159662
2017-12-12,12.26,12.26,12.16,12.2,2615000
2017-12-13,12.22,12.4,12.22,12.38,21118450
2017-12-14,12.38,12.58,12.38,12.48,7782500
2017-12-15,12.54,12.68,12.42,12.6,6617430
2017-12-18,12.62,12.64,12.56,12.6,3582500
2017-12-19,12.62,12.62,12.34,12.38,6602500
2017-12-20,12.38,12.44,12.2,12.22,8054831
2017-12-21,12.18,12.36,12.0,12.06,13121000
2017-12-22,12.14,12.18,12.08,12.18,3614862
2017-12-27,12.22,12.4,12.16,12.2,2845370
2017-12-28,12.2,12.3,12.18,12.22,3570000
2017-12-29,12.18,12.26,12.02,12.16,7746000
2018-01-02,12.2,12.38,12.2,12.28,2795040
2018-01-03,12.36,12.54,12.3,12.52,4268500
2018-01-04,12.52,12.64,12.5,12.6,6530999
2018-01-05,12.68,13.04,12.66,12.8,9283568
2018-01-08,12.96,13.34,12.92,13.28,11505640
2018-01-09,13.2,13.4,13.2,13.36,9987816
2018-01-10,13.38,13.38,13.26,13.32,3520500
2018-01-11,13.34,13.34,13.18,13.24,2225999
2018-01-12,13.3,13.3,13.16,13.18,1766665
2018-01-15,13.24,13.24,13.14,13.16,2305000
2018-01-16,13.2,13.34,13.1,13.32,2623500
2018-01-17,13.32,13.34,13.16,13.3,1557500
2018-01-18,13.32,13.32,13.14,13.26,1677500
2018-01-19,13.26,13.4,13.24,13.4,1673093
2018-01-22,13.4,13.46,13.32,13.36,4374296
2018-01-23,13.42,13.6,13.36,13.5,2672966
2018-01-24,13.5,13.56,13.36,13.44,1945000
2018-01-25,13.46,13.54,13.4,13.48,772500
2018-01-26,13.44,13.68,13.44,13.6,1782500
2018-01-29,13.58,13.66,13.5,13.56,2645000
2018-01-30,13.52,13.58,13.44,13.52,1792500
2018-01-31,13.48,13.5,13.32,13.42,1089000
2018-02-01,13.36,13.5,13.36,13.48,1172500
2018-02-02,13.4,13.4,13.3,13.4,587500
2018-02-05,13.1,13.28,13.04,13.26,992560
2018-02-06,13.0,13.06,12.72,12.96,4900474
2018-02-07,13.0,13.04,12.72,12.8,2973074
2018-02-08,12.8,12.98,12.76,12.92,2413040
2018-02-09,12.68,12.8,12.6,12.8,2744500
2018-02-12,12.8,12.88,12.76,12.86,690237
2018-02-13,12.96,12.96,12.72,12.74,1212500
2018-02-14,12.78,12.86,12.72,12.82,975000
2018-02-15,12.86,12.94,12.8,12.84,368000
2018-02-20,12.96,12.96,12.84,12.92,955000
2018-02-21,12.84,12.96,12.84,12.88,1707500
2018-02-22,12.92,12.94,12.84,12.9,1875000
2018-02-23,12.98,13.24,12.98,13.22,1875000
2018-02-26,13.38,13.52,13.2,13.5,1267500
2018-02-27,13.48,13.56,13.42,13.48,900000
2018-02-28,13.42,13.6,13.26,13.58,964827
2018-03-01,13.4,13.52,13.4,13.5,2885000
2018-03-02,13.4,13.5,13.3,13.48,278340
2018-03-05,13.42,13.56,13.2,13.2,903048
2018-03-06,13.3,13.4,13.08,13.26,596000
2018-03-07,13.16,13.38,13.16,13.22,602862
2018-03-08,13.22,13.38,13.2,13.34,397500
2018-03-09,13.34,13.6,13.34,13.54,3490000
2018-03-12,13.56,13.74,13.46,13.7,1659165
2018-03-13,13.7,13.7,13.54,13.7,1025935
2018-03-14,13.52,13.6,13.42,13.52,927502
2018-03-15,13.5,13.76,13.38,13.68,2417500
2018-03-16,13.64,13.94,13.64,13.88,4585727
2018-03-19,13.88,14.04,13.78,13.92,1760477
2018-03-20,13.8,13.92,13.78,13.86,1591554
2018-03-21,13.84,13.9,13.72,13.82,1168525
2018-03-22,13.84,13.86,13.64,13.76,1433962
2018-03-23,13.5,13.72,13.36,13.72,1900000
2018-03-26,13.5,13.6,13.48,13.58,604500
2018-03-27,13.66,13.76,13.48,13.52,1457500
2018-03-28,13.44,13.6,13.4,13.5,3292500
2018-03-29,13.42,13.44,13.3,13.44,1110000
2018-04-03,13.46,13.48,13.28,13.36,1564354
2018-04-04,13.32,13.32,13.14,13.26,1180000
2018-04-06,13.3,13.54,13.14,13.54,1815553
2018-04-09,13.56,13.6,13.38,13.54,1400000
2018-04-10,13.6,13.66,13.44,13.66,1840140
2018-04-11,13.44,13.56,13.34,13.5,1200971
2018-04-12,13.34,13.5,13.18,13.24,757500
2018-04-13,13.5,13.52,13.22,13.38,1055326
2018-04-16,13.28,13.3,13.06,13.3,639970
2018-04-17,13.24,13.26,12.94,12.94,885000
2018-04-18,13.0,13.1,12.96,13.1,1707500
2018-04-19,13.12,13.2,13.0,13.2,2322500
2018-04-20,13.0,13.12,13.0,13.12,515000
2018-04-23,13.12,13.12,12.96,13.06,367530
2018-04-24,13.04,13.08,12.98,13.0,710000
2018-04-25,12.96,12.96,12.82,12.9,1071988
2018-04-26,12.9,12.9,12.74,12.8,1233710
2018-04-27,12.84,12.86,12.82,12.86,665000
2018-04-30,12.84,13.28,12.82,13.28,2580489
2018-05-02,13.26,13.26,13.02,13.22,495772
2018-05-03,13.02,13.02,12.74,12.92,2408785
2018-05-04,13.1,13.12,12.78,12.84,1005537
2018-05-07,12.82,12.82,12.72,12.82,517500
2018-05-08,12.9,13.08,12.9,13.08,926713
2018-05-09,13.0,13.0,12.92,12.98,1050000
2018-05-10,12.98,13.08,12.94,12.98,830000
2018-05-11,13.06,13.32,13.06,13.26,3317500
2018-05-14,13.28,13.42,13.28,13.38,1929460
2018-05-15,13.32,13.54,13.22,13.46,1442500
2018-05-16,13.32,13.38,13.2,13.3,675000
2018-05-17,13.3,13.5,13.08,13.08,1200000
2018-05-18,13.02,13.38,13.02,13.32,773513
2018-05-21,13.3,13.38,13.26,13.28,1232500
2018-05-23,13.18,13.34,13.16,13.26,525830
2018-05-24,13.24,13.32,13.18,13.24,1371000
2018-05-25,13.3,13.36,13.24,13.24,747500
2018-05-28,13.24,13.4,13.22,13.36,1456988
2018-05-29,13.38,13.4,13.3,13.36,1160686
2018-05-30,13.3,13.36,13.22,13.26,1232500
2018-05-31,13.3,13.44,13.28,13.4,2085000
2018-06-01,13.3,13.5,13.24,13.42,1550000
2018-06-04,13.54,13.54,13.42,13.5,540000
2018-06-05,13.5,13.8,13.48,13.72,2363733
2018-06-06,13.7,13.9,13.7,13.9,6905000
2018-06-07,13.9,14.0,13.86,14.0,2362568
2018-06-08,14.0,14.04,13.88,14.0,1703793
2018-06-11,14.04,14.04,13.88,13.92,3237503
2018-06-12,14.0,14.08,13.96,14.04,1367828
2018-06-13,14.1,14.26,14.04,14.2,2467500
2018-06-14,14.2,14.24,14.08,14.2,1717500
2018-06-15,14.2,14.26,14.14,14.14,1117266
2018-06-19,14.14,14.3,13.92,14.08,3168850
2018-06-20,14.1,14.28,14.0,14.28,2360830
2018-06-21,14.3,14.36,14.2,14.3,2720490
2018-06-22,14.12,14.28,14.12,14.28,2530000
2018-06-25,14.28,14.28,13.94,14.0,3147420
2018-06-26,13.92,13.92,13.64,13.76,1755000
2018-06-27,13.76,14.14,13.7,13.8,1352500
2018-06-28,13.76,13.94,13.76,13.9,1644204
2018-06-29,13.9,14.06,13.86,13.96,2002775
2018-07-03,13.96,14.28,13.8,14.22,2282500
2018-07-04,14.14,14.16,13.94,14.04,985500
2018-07-05,14.04,14.04,13.84,13.84,4440353
2018-07-06,13.92,14.1,13.76,13.98,1375500
2018-07-09,13.98,14.2,13.98,14.04,450161
2018-07-10,14.2,14.26,14.08,14.16,970000
2018-07-11,14.1,14.1,13.76,13.82,1060000
2018-07-12,13.76,14.0,13.7,13.98,822500
2018-07-13,14.08,14.08,13.88,13.88,1519453
2018-07-16,13.84,13.88,13.74,13.8,380000
2018-07-17,13.74,14.0,13.74,13.98,837500
2018-07-18,14.04,14.06,13.98,14.02,1062322
2018-07-19,14.02,14.02,13.92,13.98,259000
2018-07-20,13.98,14.12,13.84,14.1,1252500
2018-07-23,14.0,14.02,13.68,13.8,4458500
2018-07-24,13.88,13.9,13.64,13.84,3572500
2018-07-25,13.8,13.9,13.78,13.88,1092500
2018-07-26,13.84,13.98,13.84,13.98,467500
2018-07-27,13.96,14.06,13.94,14.06,540000
2018-07-30,13.78,14.08,13.72,14.06,660000
2018-07-31,14.04,14.12,13.88,14.1,1297500
2018-08-01,14.1,14.1,13.92,13.96,937700
2018-08-02,13.94,14.0,13.74,13.8,320000
2018-08-03,13.92,13.98,13.8,13.98,3000353
2018-08-06,13.92,13.92,13.78,13.82,232744
2018-08-07,13.88,14.16,13.88,14.16,890449
2018-08-08,14.16,14.2,14.0,14.1,1635000
2018-08-09,14.1,14.18,14.1,14.14,458437
2018-08-10,14.2,14.44,14.16,14.42,1456500
2018-08-13,14.36,14.36,14.18,14.32,255000
2018-08-14,14.28,14.36,14.28,14.32,546371
2018-08-15,14.26,14.5,14.26,14.32,1717000
2018-08-16,14.26,14.52,14.26,14.48,1951382
2018-08-17,14.54,14.64,14.42,14.48,1472574
2018-08-20,14.5,14.52,14.3,14.48,986528
2018-08-21,14.54,14.7,14.42,14.7,3577948
2018-08-22,14.72,14.72,14.34,14.56,712500
2018-08-23,14.66,14.66,14.2,14.46,1162500
2018-08-24,14.3,14.48,14.24,14.44,473850
2018-08-27,14.36,14.56,14.36,14.5,437500
2018-08-28,14.5,14.52,14.42,14.5,138025
2018-08-29,14.5,14.54,14.48,14.52,247500
2018-08-30,14.54,14.54,14.46,14.5,1127500
2018-08-31,14.42,14.42,14.3,14.3,692500
2018-09-03,14.24,14.3,14.24,14.28,826771
2018-09-04,14.3,14.36,14.2,14.22,1166795
2018-09-05,13.94,14.08,13.48,13.5,1385281
2018-09-06,13.6,13.74,13.42,13.58,504545
2018-09-07,13.66,13.7,13.42,13.54,445713
2018-09-10,13.6,13.6,13.24,13.26,4207500
2018-09-11,13.24,13.38,13.1,13.32,1441227
2018-09-12,13.32,13.32,13.16,13.3,977500
2018-09-13,13.32,13.42,13.24,13.3,872790
2018-09-14,13.34,13.74,13.34,13.54,960000
2018-09-17,13.46,13.62,13.34,13.38,255000
2018-09-18,13.34,13.6,13.34,13.6,1107500
2018-09-19,13.6,13.62,13.46,13.62,989500
2018-09-20,13.56,13.88,13.54,13.74,648440
2018-09-21,13.76,14.6,13.76,14.6,1620779
2018-09-24,14.4,14.4,13.8,13.86,537850
2018-09-26,13.84,14.44,13.84,14.18,844735
2018-09-27,14.04,14.04,13.86,13.98,272500
2018-09-28,13.84,13.94,13.78,13.84,790486
2018-10-02,13.9,13.9,13.18,13.48,1979033
2018-10-03,13.5,13.78,13.5,13.78,770000
2018-10-04,13.54,13.74,13.5,13.5,799411
2018-10-05,13.5,13.66,13.24,13.24,817500
2018-10-08,13.22,13.48,13.22,13.4,667788
2018-10-09,13.42,13.6,13.36,13.6,728310
2018-10-10,13.56,13.72,13.46,13.54,1922500
2018-10-11,13.26,13.26,12.86,13.06,1822818
2018-10-12,13.0,13.0,12.82,13.0,824120
2018-10-15,12.82,12.98,12.82,12.94,792500
2018-10-16,12.84,12.96,12.8,12.9,1156500
2018-10-18,13.0,13.36,13.0,13.22,694120
2018-10-19,13.1,13.2,12.94,13.2,594638
2018-10-22,13.2,13.2,13.04,13.18,707500
2018-10-23,13.16,13.18,12.92,13.1,355000
2018-10-24,13.0,13.18,12.98,13.18,603226
2018-10-25,13.1,13.16,12.78,13.16,907500
2018-10-26,12.92,13.08,12.8,12.92,407500
2018-10-29,12.8,12.96,12.78,12.78,605325
2018-10-30,12.76,12.8,12.6,12.66,1415032
2018-10-31,12.7,12.74,12.62,12.62,2020958
2018-11-01,12.7,12.9,12.7,12.88,895000
2018-11-02,12.84,13.44,12.82,13.28,1788769
2018-11-05,13.28,13.28,13.1,13.18,1095232
2018-11-06,13.18,13.3,13.18,13.28,692500
2018-11-07,13.26,13.42,13.26,13.4,1747892
2018-11-08,13.36,13.54,13.3,13.34,274173
2018-11-09,13.34,13.34,12.96,13.08,320000
2018-11-12,13.0,13.2,12.94,13.2,322500
2018-11-13,13.0,13.26,12.92,13.22,440000
2018-11-14,13.3,13.38,13.26,13.34,215000
2018-11-15,13.36,13.44,13.3,13.38,852500
2018-11-16,13.26,13.44,13.22,13.4,200000
2018-11-19,13.46,13.6,13.32,13.58,955000
2018-11-20,13.5,13.58,13.32,13.5,371572
2018-11-21,13.26,13.54,13.2,13.52,1247700
2018-11-22,13.42,13.52,13.32,13.52,210000
2018-11-23,13.36,13.38,13.22,13.28,471316
2018-11-26,13.38,13.6,13.34,13.6,735000
2018-11-27,13.6,13.6,13.42,13.48,770000
2018-11-28,13.52,13.52,13.32,13.32,1210575
2018-11-29,13.38,13.38,13.22,13.24,727885
2018-11-30,13.26,13.26,13.12,13.12,922500
2018-12-03,13.36,13.38,13.14,13.22,802500
2018-12-04,13.12,13.2,12.96,13.08,1591783
2018-12-05,12.96,13.04,12.88,13.0,2685303
2018-12-06,12.98,12.98,12.78,12.9,1506500
2018-12-07,13.0,13.04,12.84,12.9,1794100
2018-12-10,12.8,12.84,12.7,12.8,580000
2018-12-11,12.74,12.86,12.74,12.8,162500
2018-12-12,12.9,12.94,12.84,12.86,387487
2018-12-13,12.94,12.98,12.84,12.88,744225
2018-12-14,12.9,13.0,12.9,12.94,810000
2018-12-17,12.98,13.0,12.96,12.96,2945000
2018-12-18,12.98,12.98,12.9,12.98,412500
2018-12-19,13.04,13.04,12.94,12.96,176647
2018-12-20,13.02,13.02,12.84,12.9,315000
2018-12-21,12.88,13.1,12.74,13.1,4707500
2018-12-24,12.9,12.9,12.7,12.78,1119520
2018-12-27,12.76,12.9,12.62,12.78,622053
2018-12-28,12.86,12.86,12.68,12.82,130264
2018-12-31,12.82,13.06,12.74,13.06,540000
2019-01-02,12.96,12.96,12.6,12.68,842500
2019-01-03,12.68,12.68,12.5,12.6,496309
2019-01-04,12.6,12.74,12.6,12.7,592811
2019-01-07,12.82,12.84,12.76,12.84,462500
2019-01-08,12.8,13.16,12.8,13.06,927493
2019-01-09,13.1,13.28,13.08,13.14,14425500
2019-01-10,13.2,13.26,13.06,13.22,685747
2019-01-11,13.24,13.34,13.2,13.3,840500
2019-01-14,13.24,13.28,13.16,13.26,352500
2019-01-15,13.3,13.46,13.26,13.4,768298
2019-01-16,13.48,13.6,13.42,13.56,1005000
2019-01-17,13.7,13.72,13.56,13.64,617500
2019-01-18,13.68,13.78,13.12,13.7,1151500
2019-01-21,13.7,13.72,13.5,13.5,440000
2019-01-22,13.5,13.6,13.48,13.56,550000
2019-01-23,13.42,13.68,13.4,13.58,1217500
2019-01-24,13.7,13.72,13.6,13.72,1372365
2019-01-25,13.76,13.92,13.76,13.9,4135000
2019-01-28,13.9,13.98,13.7,13.84,2835757
2019-01-29,13.78,13.94,13.76,13.9,482500
2019-01-30,13.9,14.0,13.9,13.92,415000
2019-01-31,13.9,14.1,13.9,14.0,3865000
2019-02-01,14.0,14.1,13.88,13.92,1332500
2019-02-04,13.92,13.94,13.82,13.88,655000
2019-02-08,13.7,13.98,13.68,13.9,1988000
2019-02-11,13.92,14.02,13.9,13.92,797500
2019-02-12,13.92,14.04,13.92,14.02,556775
2019-02-13,13.98,14.06,13.96,13.98,825000
2019-02-14,13.98,14.08,13.98,14.06,688060
2019-02-15,14.0,14.0,13.86,13.94,417500
2019-02-18,13.96,14.02,13.78,13.84,1572500
2019-02-19,13.78,13.98,13.78,13.88,472500
2019-02-20,14.04,14.14,13.98,14.04,2972500
2019-02-21,14.16,14.46,13.94,14.38,2567436
2019-02-22,14.4,14.46,14.34,14.4,1913182
2019-02-25,14.42,14.5,14.4,14.46,1612500
2019-02-26,14.42,14.52,14.36,14.44,1804430
2019-02-27,14.4,14.42,14.32,14.38,1937805
2019-02-28,14.32,14.42,14.3,14.34,3115500
2019-03-01,14.3,14.44,14.3,14.44,536000
2019-03-04,14.42,14.5,14.38,14.48,868321
2019-03-05,14.4,14.48,14.36,14.4,871207
2019-03-06,14.46,14.48,14.38,14.42,472500
2019-03-07,14.42,14.46,14.34,14.38,314840
2019-03-08,14.38,14.44,14.12,14.2,629061
2019-03-11,14.14,14.28,14.14,14.22,461348
2019-03-12,14.28,14.42,14.28,14.38,432674
2019-03-13,14.4,14.42,14.26,14.42,827500
2019-03-14,14.46,14.56,14.32,14.4,1442500
2019-03-15,14.46,14.96,14.46,14.66,3219541
2019-03-18,14.8,15.06,14.8,15.0,1275000
2019-03-19,15.12,15.58,15.12,15.56,2592500
2019-03-20,15.6,15.62,15.44,15.62,1297568
2019-03-21,15.7,15.7,15.52,15.6,545779
2019-03-22,15.64,15.76,15.48,15.6,1041575
2019-03-25,15.3,15.5,15.12,15.42,900000
2019-03-26,15.42,15.52,15.28,15.34,458500
2019-03-27,15.46,15.46,15.22,15.3,462500
2019-03-28,15.36,15.54,15.3,15.54,590000
2019-03-29,15.64,15.78,15.56,15.7,627500
2019-04-01,15.7,16.04,15.7,16.0,1172500
2019-04-02,16.0,16.02,15.84,15.98,1003500
2019-04-03,15.98,16.2,15.98,16.2,1144526
2019-04-04,16.14,16.34,16.06,16.26,492500
2019-04-08,16.22,16.22,15.82,16.0,1325546
2019-04-09,16.0,16.06,15.96,16.04,980000
2019-04-10,15.64,15.94,15.64,15.74,4490000
2019-04-11,15.7,15.78,15.62,15.66,1030093
2019-04-12,15.74,16.04,15.74,15.88,1366796
2019-04-15,15.94,15.94,15.72,15.8,417900
2019-04-16,15.72,15.96,15.72,15.82,744000
2019-04-17,15.9,15.9,15.82,15.82,106551
2019-04-18,15.84,15.86,15.7,15.8,307098
2019-04-23,15.7,15.92,15.7,15.88,367500
2019-04-24,15.88,15.88,15.74,15.86,295000
2019-04-25,15.76,15.88,15.76,15.8,242500
2019-04-26,15.76,15.8,15.72,15.78,1380330
2019-04-29,15.74,15.74,15.56,15.68,600000
2019-04-30,15.6,15.64,15.52,15.54,315287
2019-05-02,15.58,15.68,15.58,15.64,542830
2019-05-03,15.8,15.82,15.58,15.74,344645
2019-05-06,15.5,15.74,15.22,15.3,2440584
2019-05-07,15.4,15.48,15.3,15.46,652500
2019-05-08,15.38,15.44,15.18,15.24,1909878
2019-05-09,15.1,15.18,14.78,14.86,1243380
2019-05-10,15.0,15.08,14.84,14.94,513358
2019-05-14,14.8,14.8,14.62,14.8,802500
2019-05-15,14.8,14.96,14.8,14.96,325000
2019-05-16,14.88,15.08,14.88,15.04,272500
2019-05-17,15.04,15.1,14.92,15.04,504590
2019-05-20,15.08,15.08,14.92,15.02,124590
2019-05-21,14.9,15.08,14.88,15.0,596000
2019-05-22,15.0,15.1,14.98,15.06,145162
2019-05-23,15.0,15.02,14.86,14.9,1450760
2019-05-24,14.8,14.92,14.5,14.78,1347932
2019-05-27,14.7,14.88,14.68,14.72,299341
2019-05-28,14.8,14.86,14.78,14.84,680000
2019-05-29,14.8,14.8,14.72,14.74,292824
2019-05-30,14.7,14.86,14.7,14.86,660000
2019-05-31,14.86,14.92,14.74,14.8,1947500
2019-06-03,14.8,14.84,14.74,14.8,937500
2019-06-04,14.9,14.96,14.82,14.92,162662
2019-06-05,15.0,15.08,15.0,15.08,340262
2019-06-06,15.08,15.26,15.08,15.22,315000
2019-06-10,15.3,15.42,15.22,15.38,569200
2019-06-11,15.38,15.38,15.18,15.26,1798893
2019-06-12,15.16,15.16,14.94,14.96,1148600
2019-06-13,14.8,14.86,14.68,14.84,560000
2019-06-14,14.84,14.84,14.62,14.68,327500
2019-06-17,14.6,14.86,14.56,14.8,227743
2019-06-18,14.72,14.82,14.72,14.78,534160
2019-06-19,14.86,14.98,14.86,14.96,681680
2019-06-20,14.96,14.98,14.9,14.92,609500
2019-06-21,14.92,14.96,14.8,14.8,1060000
2019-06-24,14.82,14.86,14.8,14.8,284683
2019-06-25,14.86,14.92,14.76,14.76,697500
2019-06-26,14.7,14.72,14.54,14.56,945000
2019-06-27,14.72,14.72,14.64,14.68,364800
2019-06-28,14.78,14.8,14.66,14.8,607000
2019-07-02,15.0,15.0,14.88,14.96,2360647
2019-07-03,14.88,15.02,14.88,14.92,1865000
2019-07-04,14.9,15.04,14.9,14.92,1091347
2019-07-05,14.92,14.98,14.88,14.94,388622
2019-07-08,14.88,14.88,14.7,14.7,608664
2019-07-09,14.88,14.88,14.66,14.7,345830
2019-07-10,14.72,14.8,14.58,14.72,620000
2019-07-11,14.68,14.8,14.66,14.66,880432
2019-07-12,14.72,14.76,14.68,14.68,552500
2019-07-15,14.78,14.78,14.5,14.58,559325
2019-07-16,14.66,14.66,14.5,14.64,400000
2019-07-17,14.6,14.64,14.58,14.58,530000
2019-07-18,14.44,14.6,14.44,14.6,655896
2019-07-19,14.56,14.8,14.56,14.72,1054476
2019-07-22,14.72,14.72,14.58,14.7,625500
2019-07-23,14.8,14.8,14.62,14.68,960000
2019-07-24,14.76,14.88,14.62,14.68,717500
2019-07-25,14.64,14.74,14.52,14.62,557500
2019-07-26,14.52,14.62,14.48,14.58,465000
2019-07-29,14.46,14.46,14.2,14.22,575000
2019-07-30,14.3,14.3,14.18,14.26,492500
2019-07-31,14.2,14.28,14.0,14.0,1022500
2019-08-01,13.92,13.92,13.72,13.82,925000
2019-08-02,13.7,13.7,13.32,13.42,1457500
2019-08-05,13.22,13.26,13.0,13.1,557500
2019-08-06,12.82,13.0,12.72,13.0,940309
2019-08-07,13.0,13.16,12.94,13.16,526061
2019-08-08,13.16,13.48,13.02,13.4,675430
2019-08-09,13.5,13.5,12.96,13.0,1121874
2019-08-12,12.64,12.8,12.32,12.36,3283500
2019-08-13,12.24,12.32,12.02,12.04,1788500
2019-08-14,12.14,12.36,12.06,12.22,1368812
2019-08-15,12.1,12.48,12.1,12.44,1445000
2019-08-16,12.34,12.68,12.26,12.66,1606000
2019-08-19,12.66,12.8,12.64,12.7,1602500
2019-08-20,12.7,12.74,12.64,12.7,734093
2019-08-21,12.7,12.8,12.68,12.78,246845
2019-08-22,12.74,12.74,12.42,12.5,679949
2019-08-23,12.4,12.46,12.32,12.38,765000
2019-08-26,12.16,12.22,11.96,12.2,797912
2019-08-27,12.2,12.2,12.12,12.2,660156
2019-08-28,12.12,12.26,12.1,12.16,449020
2019-08-29,12.12,12.18,12.06,12.18,594000
2019-08-30,12.38,12.38,12.0,12.0,1442500
2019-09-02,11.92,11.96,11.82,11.88,715000
2019-09-03,11.92,11.96,11.88,11.92,435321
2019-09-04,11.78,12.28,11.68,12.08,2067583
2019-09-05,12.06,12.06,11.86,11.98,760000
2019-09-06,12.02,12.12,12.0,12.1,804347
2019-09-09,12.14,12.2,12.0,12.06,430000
2019-09-10,12.12,12.12,11.98,12.04,580000
2019-09-11,12.18,12.28,12.04,12.16,472500
2019-09-12,12.28,12.42,12.22,12.3,412500
2019-09-13,12.46,12.46,12.2,12.3,311081
2019-09-16,12.32,12.32,12.16,12.2,367500
2019-09-17,12.14,12.14,11.96,12.02,1047500
2019-09-18,12.0,12.06,11.94,11.94,352500
2019-09-19,11.94,11.94,11.8,11.82,302500
2019-09-20,11.76,11.82,11.68,11.68,1411292
2019-09-23,11.8,11.8,11.42,11.52,785965
2019-09-24,11.62,11.62,11.42,11.44,707500
2019-09-25,11.4,11.44,11.24,11.28,980000
2019-09-26,11.4,11.4,11.28,11.34,367500
2019-09-27,11.32,11.4,11.28,11.32,185000
2019-09-30,11.28,11.46,11.28,11.46,1515000
2019-10-02,11.4,11.5,11.3,11.42,540000
2019-10-03,11.42,11.52,11.36,11.48,1151662
2019-10-04,11.4,11.64,11.4,11.48,788297
2019-10-08,11.46,11.46,11.2,11.28,1301275
2019-10-09,11.2,11.2,11.08,11.08,968259
2019-10-10,11.08,11.2,11.02,11.04,820000
2019-10-11,11.1,11.32,11.04,11.2,1406222
2019-10-14,11.32,11.4,11.22,11.32,467972
2019-10-15,11.38,11.38,11.24,11.3,275913
2019-10-16,11.38,11.38,11.24,11.32,985000
2019-10-17,11.4,11.66,11.4,11.5,645262
2019-10-18,11.42,11.58,11.4,11.48,540000
2019-10-21,11.38,11.56,11.38,11.44,583196
2019-10-22,11.44,11.54,11.38,11.54,312000
2019-10-23,11.54,11.62,11.4,11.44,712500
2019-10-24,11.38,11.58,11.34,11.52,631998
2019-10-25,11.52,11.54,11.44,11.5,502500
2019-10-28,11.58,11.64,11.56,11.6,437028
2019-10-29,11.6,11.6,11.48,11.54,376102
2019-10-30,11.5,11.54,11.44,11.52,378486
2019-10-31,11.54,11.6,11.44,11.6,1011500
2019-11-01,11.58,11.62,11.54,11.6,581238
2019-11-04,11.6,11.74,11.6,11.62,1732848
2019-11-05,11.6,11.74,11.54,11.68,1517697
2019-11-06,11.68,11.76,11.62,11.74,915000
2019-11-07,11.72,11.76,11.62,11.74,446946
2019-11-08,11.74,11.86,11.64,11.7,1315000
2019-11-11,11.7,11.7,11.3,11.38,2365000
2019-11-12,11.36,11.42,11.22,11.32,3607160
2019-11-13,11.3,11.3,11.02,11.08,2470900
2019-11-14,11.0,11.14,10.9,10.92,2321224
2019-11-15,10.94,11.08,10.84,11.02,1492500
2019-11-18,11.1,11.2,11.08,11.2,1141012
2019-11-19,11.1,11.38,11.06,11.36,1359000
2019-11-20,11.28,11.4,11.22,11.32,1240000
2019-11-21,11.2,11.28,11.1,11.2,2002500
2019-11-22,11.14,11.32,11.12,11.32,717500
2019-11-25,11.2,11.46,11.2,11.4,1104660
2019-11-26,11.42,11.44,11.38,11.44,1735000
2019-11-27,11.46,11.54,11.42,11.52,1097500
2019-11-28,11.42,11.56,11.42,11.48,1072053
2019-11-29,11.52,11.52,11.26,11.38,1545000
2019-12-02,11.36,11.4,11.22,11.4,2258929
2019-12-03,11.3,11.38,11.14,11.38,2155360
2019-12-04,11.2,11.28,11.12,11.2,787887
2019-12-05,11.22,11.34,11.22,11.32,434500
2019-12-06,11.24,11.38,11.22,11.34,420415
2019-12-09,11.34,11.4,11.3,11.4,427425
2019-12-10,11.32,11.36,11.3,11.3,372500
2019-12-11,11.3,11.38,11.3,11.3,745713
2019-12-12,11.36,11.4,11.32,11.34,1532500
2019-12-13,11.44,11.62,11.44,11.58,1636537
2019-12-16,11.56,11.6,11.48,11.5,336835
2019-12-17,11.48,11.62,11.46,11.6,1530000
2019-12-18,11.54,11.64,11.54,11.6,1105000
2019-12-19,11.52,11.54,11.48,11.52,797600
2019-12-20,11.48,11.54,11.34,11.46,1351270
2019-12-23,11.46,11.48,11.4,11.4,377208
2019-12-24,11.4,11.44,11.38,11.4,455126
2019-12-27,11.4,11.54,11.38,11.54,1325840
2019-12-30,11.54,11.64,11.52,11.62,1147800
2019-12-31,11.6,11.66,11.58,11.66,611962
2020-01-02,11.68,11.78,11.6,11.74,1232970
2020-01-03,11.8,11.82,11.7,11.72,1057800
2020-01-06,11.7,11.7,11.54,11.6,427583
2020-01-07,11.64,11.64,11.54,11.54,688600
2020-01-08,11.44,11.5,11.34,11.42,619099
2020-01-09,11.5,11.64,11.46,11.58,1437500
2020-01-10,11.54,11.6,11.52,11.58,1104269
2020-01-13,11.6,11.88,11.6,11.88,1062350
2020-01-14,11.88,12.0,11.88,11.96,881000
2020-01-15,11.94,12.02,11.84,11.98,903500
2020-01-16,12.04,12.08,11.96,12.04,835000
2020-01-17,12.06,12.2,12.06,12.14,790000
2020-01-20,12.14,12.24,12.02,12.02,997500
2020-01-21,12.0,12.0,11.64,11.7,1142855
2020-01-22,11.78,11.84,11.7,11.74,2753195
2020-01-23,11.7,11.74,11.58,11.64,499923
2020-01-24,11.6,11.62,11.58,11.58,102986
2020-01-29,11.3,11.3,11.1,11.2,968524
2020-01-30,11.24,11.24,11.08,11.12,700500
2020-01-31,11.1,11.18,11.06,11.06,952698
2020-02-03,11.06,11.06,10.88,10.96,1074671
2020-02-04,11.02,11.12,10.96,11.08,889390
2020-02-05,11.1,11.26,11.1,11.14,686150
2020-02-06,11.22,11.5,11.22,11.44,877500
2020-02-07,11.44,11.44,11.36,11.4,295236
2020-02-10,11.3,11.38,11.26,11.38,457740
2020-02-11,11.38,11.54,11.38,11.42,1147991
2020-02-12,11.5,11.52,11.38,11.5,901500
2020-02-13,11.52,11.54,11.44,11.5,965200
2020-02-14,11.52,11.64,11.5,11.58,951400
2020-02-17,11.6,11.7,11.6,11.64,242500
2020-02-18,11.62,11.62,11.5,11.54,462905
2020-02-19,11.5,11.56,11.5,11.54,377500
2020-02-20,11.54,11.58,11.46,11.54,537500
2020-02-21,11.5,11.5,11.34,11.36,284348
2020-02-24,11.32,11.32,11.18,11.24,498200
2020-02-25,11.2,11.24,11.18,11.24,1771576
2020-02-26,11.2,11.24,11.18,11.2,515500
2020-02-27,11.2,11.28,11.06,11.1,1180300
2020-02-28,11.04,11.1,10.9,10.92,1827662
2020-03-02,10.98,11.16,10.96,11.12,1030328
2020-03-03,11.16,11.16,11.0,11.0,1302500
2020-03-04,10.96,11.04,10.94,11.02,1150089
2020-03-05,11.02,11.18,11.0,11.16,905006
2020-03-06,11.04,11.1,10.84,10.92,1263894
2020-03-09,10.86,10.86,10.34,10.38,2027640
2020-03-10,10.38,10.46,10.26,10.4,960140
2020-03-11,10.48,10.52,10.36,10.46,1238740
2020-03-12,10.4,10.4,10.02,10.02,1799170
2020-03-13,9.8,9.88,9.3,9.65,3714186
2020-03-16,9.65,9.65,9.17,9.18,1663216
2020-03-17,9.18,9.34,9.03,9.05,1889856
2020-03-18,9.05,9.06,8.2,8.53,1703100
2020-03-19,8.69,8.69,7.83,7.86,1920000
2020-03-20,7.99,8.09,7.85,7.9,5365955
2020-03-23,7.66,7.68,7.42,7.56,2400705
2020-03-24,7.75,7.93,7.68,7.86,1215000
2020-03-25,8.1,8.2,8.01,8.13,2242500
2020-03-26,8.13,8.13,7.87,7.98,3549566
2020-03-27,8.06,8.1,8.01,8.02,2380523
2020-03-30,7.9,7.91,7.76,7.77,2763350
2020-03-31,7.89,7.98,7.87,7.93,2034000
2020-04-01,7.93,8.06,7.88,7.96,1981917
2020-04-02,7.89,7.95,7.78,7.94,2422725
2020-04-03,7.99,7.99,7.79,7.87,2514359
2020-04-06,7.98,8.39,7.97,8.38,2901450
2020-04-07,8.11,8.32,8.1,8.32,3797256
2020-04-08,8.3,8.3,8.16,8.2,1082000
2020-04-09,8.32,8.48,8.24,8.48,1685035
2020-04-14,8.46,8.66,8.4,8.64,3292775
2020-04-15,8.71,8.71,8.44,8.6,2180800
2020-04-16,8.45,8.49,8.32,8.43,1257500
2020-04-17,8.5,8.71,8.5,8.67,1873900
2020-04-20,8.52,8.67,8.52,8.6,619000
2020-04-21,8.45,8.45,8.34,8.34,1010470
2020-04-22,8.25,8.29,8.0,8.25,1370180
2020-04-23,8.26,8.33,8.19,8.26,933277
2020-04-24,8.2,8.24,8.14,8.18,475000
2020-04-27,8.18,8.33,8.15,8.3,544100
2020-04-28,8.3,8.41,8.24,8.41,697500
2020-04-29,8.41,8.53,8.33,8.48,862500
2020-05-04,8.28,8.38,8.05,8.13,965822
2020-05-05,8.08,8.18,8.08,8.15,600000
2020-05-06,8.18,8.32,8.18,8.25,1128504
2020-05-07,8.23,8.26,8.16,8.2,383296
2020-05-08,8.26,8.44,8.19,8.43,1025729
2020-05-11,8.43,8.57,8.38,8.52,1079810
2020-05-12,8.63,8.63,8.22,8.27,1078216
2020-05-13,8.3,8.31,8.12,8.2,1642500
2020-05-14,8.26,8.26,8.01,8.07,1086305
2020-05-15,8.07,8.12,7.91,7.98,1661646
2020-05-18,7.93,8.03,7.9,8.02,587500
2020-05-19,8.09,8.3,8.09,8.23,2450000
2020-05-20,8.17,8.2,8.13,8.14,670000
2020-05-21,8.14,8.14,7.99,8.05,1204000
2020-05-22,7.95,7.95,7.36,7.43,3832922
2020-05-25,7.4,7.47,7.18,7.28,2481500
2020-05-26,7.32,7.5,7.32,7.45,1012500
2020-05-27,7.45,7.45,7.28,7.31,643168
2020-05-28,7.31,7.39,7.19,7.23,1320000
2020-05-29,7.2,7.26,7.13,7.2,1405000
2020-06-01,7.25,7.46,7.2,7.42,1500500
2020-06-02,7.45,7.63,7.45,7.59,1717500
2020-06-03,7.67,7.77,7.55,7.62,1693629
2020-06-04,7.7,7.7,7.54,7.62,1062500
2020-06-05,7.67,8.08,7.67,8.08,1653951
2020-06-08,8.17,8.29,8.02,8.18,1958300
2020-06-10,8.28,8.42,8.12,8.23,3774175
2020-06-11,8.23,8.23,7.78,7.91,2085000
2020-06-12,7.77,7.88,7.68,7.88,2450710
2020-06-15,7.86,7.88,7.66,7.71,2144010
2020-06-16,7.84,7.84,7.69,7.73,1530232
2020-06-17,7.75,7.75,7.61,7.74,3670000
2020-06-18,7.76,7.79,7.63,7.74,862500
2020-06-19,7.75,7.99,7.66,7.98,1976988
2020-06-22,7.97,7.98,7.8,7.85,837815
2020-06-23,7.91,7.91,7.7,7.81,734625
2020-06-24,7.85,7.85,7.64,7.64,722500
2020-06-26,7.66,7.7,7.53,7.56,685116
2020-06-29,7.59,7.62,7.28,7.36,3317700
2020-06-30,7.4,7.44,7.32,7.39,1743000
2020-07-02,7.39,7.64,7.39,7.6,3883198
2020-07-03,7.61,7.75,7.53,7.55,1505000
2020-07-06,7.69,8.02,7.56,8.0,4423120
2020-07-07,8.13,8.18,7.8,7.84,4016398
2020-07-08,7.94,7.94,7.69,7.78,1781388
2020-07-09,7.82,7.85,7.67,7.69,1358750
2020-07-10,7.66,7.66,7.52,7.53,944500
2020-07-13,7.6,7.63,7.56,7.6,901350
2020-07-14,7.6,7.6,7.46,7.52,838000
2020-07-15,7.59,7.63,7.4,7.41,1164246
2020-07-16,7.51,7.54,7.35,7.36,846962
2020-07-17,7.37,7.43,7.2,7.22,1571240
2020-07-20,7.22,7.25,7.12,7.19,1556870
2020-07-21,7.2,7.22,7.16,7.18,662500
2020-07-22,7.22,7.22,7.13,7.13,1023122
2020-07-23,7.14,7.14,7.01,7.01,1915000
2020-07-24,7.03,7.03,6.89,6.93,950000
2020-07-27,6.9,7.01,6.88,6.93,1080010
2020-07-28,6.89,7.04,6.89,6.94,2412500
2020-07-29,6.94,6.94,6.86,6.88,684200
2020-07-30,6.92,6.99,6.9,6.91,880000
2020-07-31,6.9,6.99,6.86,6.86,1170487
2020-08-03,6.9,6.94,6.76,6.8,1483286
2020-08-04,6.83,6.97,6.8,6.87,1867731
2020-08-05,6.86,6.96,6.86,6.93,1687798
2020-08-06,6.92,6.97,6.79,6.83,890000
2020-08-07,6.8,6.85,6.75,6.77,1084089
2020-08-10,6.75,6.81,6.73,6.76,1277500
2020-08-11,6.73,6.87,6.73,6.82,675000
2020-08-12,6.8,6.97,6.8,6.97,2642809
2020-08-13,6.96,7.1,6.95,7.03,2257992
2020-08-14,7.01,7.03,6.94,6.94,1702500
2020-08-17,6.9,7.07,6.9,7.0,1367500
2020-08-18,6.99,7.03,6.95,6.96,1080900
2020-08-19,6.94,7.02,6.94,6.98,321574
2020-08-20,6.98,7.0,6.86,6.89,1893300
2020-08-21,6.83,6.97,6.83,6.91,708648
2020-08-24,6.91,7.08,6.91,7.05,6591567
2020-08-25,7.02,7.1,7.02,7.07,4330000
