Date,Open,High,Low,Close,Volume
2012-11-07,0.33,0.36,0.32,0.35,132160
2012-11-08,0.33,0.33,0.33,0.33,94400
2012-11-09,0.34,0.35,0.34,0.35,66080
2012-11-13,0.37,0.37,0.36,0.37,320960
2012-11-14,0.37,0.37,0.37,0.37,47200
2012-11-16,0.38,0.4,0.38,0.38,585280
2012-11-19,0.36,0.39,0.36,0.38,122720
2012-11-20,0.4,0.4,0.39,0.39,226560
2012-11-21,0.4,0.4,0.38,0.38,302080
2012-11-22,0.38,0.39,0.38,0.39,604160
2012-11-23,0.38,0.38,0.38,0.38,811840
2012-11-27,0.38,0.39,0.38,0.38,424800
2012-11-28,0.38,0.38,0.38,0.38,245440
2012-11-29,0.38,0.38,0.38,0.38,283200
2012-12-04,0.36,0.36,0.35,0.36,283200
2012-12-05,0.38,0.38,0.38,0.38,122720
2012-12-10,0.34,0.34,0.34,0.37,141600
2012-12-11,0.35,0.35,0.35,0.36,141600
2012-12-17,0.36,0.36,0.36,0.36,198240
2012-12-18,0.36,0.36,0.36,0.36,94400
2012-12-20,0.36,0.36,0.36,0.36,9440
2012-12-28,0.38,0.39,0.38,0.38,151040
2012-12-31,0.35,0.38,0.35,0.38,18880
2013-01-02,0.35,0.35,0.35,0.35,9440
2013-01-03,0.35,0.35,0.35,0.35,66080
2013-01-04,0.38,0.38,0.38,0.38,141600
2013-01-07,0.38,0.38,0.38,0.38,1028960
2013-01-09,0.36,0.36,0.36,0.36,47200
2013-01-10,0.36,0.36,0.36,0.36,320960
2013-01-11,0.36,0.37,0.36,0.37,47200
2013-01-14,0.38,0.49,0.38,0.42,4351838
2013-01-15,0.4,0.42,0.4,0.42,415360
2013-01-17,0.42,0.46,0.42,0.44,453120
2013-01-18,0.44,0.46,0.44,0.44,1755839
2013-01-21,0.44,0.44,0.44,0.44,47200
2013-01-22,0.44,0.52,0.44,0.5,3001919
2013-01-23,0.5,0.7,0.5,0.62,5881117
2013-01-24,0.58,0.58,0.51,0.53,5173118
2013-01-25,0.51,0.62,0.49,0.56,12716939
2013-01-28,0.57,0.58,0.51,0.54,1793599
2013-01-29,0.55,0.55,0.53,0.54,169920
2013-01-30,0.57,0.57,0.53,0.55,500320
2013-01-31,0.52,0.55,0.52,0.55,132160
2013-02-01,0.55,0.56,0.55,0.55,6730717
2013-02-04,0.55,0.62,0.55,0.6,7480380
2013-02-05,0.61,0.61,0.61,0.6,3473920
2013-02-06,0.6,0.61,0.57,0.59,4002560
2013-02-07,0.59,0.59,0.59,0.59,236000
2013-02-08,0.61,0.61,0.58,0.61,434240
2013-02-14,0.61,0.64,0.61,0.63,3369250
2013-02-15,0.64,0.64,0.61,0.63,1066720
2013-02-18,0.63,0.63,0.6,0.6,830720
2013-02-19,0.6,0.62,0.59,0.59,1538720
2013-02-20,0.6,0.61,0.59,0.61,1746400
2013-02-21,0.59,0.61,0.59,0.61,472000
2013-02-22,0.63,0.63,0.61,0.61,1132800
2013-02-25,0.63,0.63,0.61,0.62,1076160
2013-02-26,0.6,0.63,0.6,0.62,3011360
2013-02-27,0.62,0.62,0.62,0.62,94400
2013-02-28,0.63,0.63,0.62,0.63,1010080
2013-03-01,0.63,0.63,0.59,0.61,6749460
2013-03-04,0.61,0.62,0.59,0.59,1676990
2013-03-05,0.59,0.62,0.59,0.6,2822560
2013-03-06,0.6,0.61,0.6,0.61,3796770
2013-03-07,0.62,0.73,0.61,0.72,9071840
2013-03-08,0.72,0.72,0.68,0.7,3596640
2013-03-11,0.72,0.77,0.71,0.75,4616160
2013-03-12,0.86,0.86,0.75,0.75,2384000
2013-03-13,0.78,0.8,0.75,0.75,768000
2013-03-14,0.76,0.76,0.76,0.76,144000
2013-03-15,0.75,0.8,0.75,0.8,179600
2013-03-18,0.8,0.8,0.7,0.79,1000000
2013-03-19,0.78,0.79,0.72,0.75,7657200
2013-03-20,0.79,0.79,0.73,0.75,408000
2013-03-21,0.73,0.87,0.73,0.8,2296000
2013-03-22,0.8,0.89,0.8,0.86,3192000
2013-03-25,0.87,0.95,0.86,0.94,4462780
2013-03-26,0.96,1.05,0.96,1.02,7408000
2013-03-27,1.02,1.12,1.0,1.11,6325890
2013-03-28,1.11,1.12,1.06,1.11,2368000
2013-04-02,1.12,1.12,1.05,1.05,1581890
2013-04-03,1.04,1.09,1.02,1.02,1400000
2013-04-05,0.99,0.99,0.94,0.95,1936000
2013-04-08,0.95,1.04,0.93,0.97,1011560
2013-04-09,0.97,0.99,0.97,0.99,216000
2013-04-10,0.99,1.1,0.99,1.09,2904000
2013-04-11,1.11,1.2,1.11,1.16,1288000
2013-04-12,1.2,1.33,1.19,1.32,6640000
2013-04-15,1.34,1.48,1.34,1.48,9904000
2013-04-16,1.43,1.59,1.4,1.57,6512800
2013-04-17,1.53,1.59,1.43,1.43,3472000
2013-04-18,1.43,1.51,1.41,1.48,4073600
2013-04-19,1.45,1.56,1.38,1.5,11876000
2013-04-22,1.48,1.56,1.48,1.54,3893600
2013-04-23,1.54,1.55,1.53,1.55,328000
2013-04-24,1.55,1.56,1.53,1.55,1959080
2013-04-25,1.54,1.59,1.54,1.57,3490400
2013-04-26,1.57,1.6,1.52,1.57,3606400
2013-04-29,1.54,1.57,1.53,1.57,676800
2013-04-30,1.57,1.58,1.52,1.54,1349600
2013-05-02,1.52,1.52,1.32,1.32,4095960
2013-05-03,1.32,1.41,1.32,1.37,2423940
2013-05-06,1.39,1.52,1.39,1.51,4039200
2013-05-07,1.51,1.62,1.51,1.57,5440000
2013-05-08,1.57,1.65,1.55,1.56,5600800
2013-05-09,1.55,1.61,1.54,1.55,1744640
2013-05-10,1.55,1.56,1.51,1.55,928000
2013-05-13,1.57,1.63,1.54,1.57,1416000
2013-05-14,1.57,1.61,1.55,1.57,2184000
2013-05-15,1.55,1.58,1.54,1.55,1024000
2013-05-16,1.51,1.56,1.51,1.56,1320000
2013-05-20,1.57,1.57,1.54,1.56,448000
2013-05-21,1.56,1.57,1.54,1.56,297600
2013-05-22,1.56,1.56,1.51,1.55,588000
2013-05-23,1.51,1.55,1.51,1.54,1841660
2013-05-24,1.51,1.57,1.5,1.55,2080000
2013-05-27,1.55,1.61,1.55,1.61,1038400
2013-05-28,1.62,1.76,1.6,1.74,8880800
2013-05-29,1.76,1.76,1.68,1.71,2924800
2013-05-30,1.72,1.73,1.68,1.69,1990240
2013-05-31,1.7,1.73,1.69,1.69,6706000
2013-06-03,1.74,1.85,1.7,1.73,5132000
2013-06-04,1.73,1.75,1.71,1.71,1048000
2013-06-05,1.7,1.7,1.59,1.65,2520000
2013-06-06,1.55,1.66,1.55,1.65,528000
2013-06-07,1.71,1.77,1.67,1.73,6704000
2013-07-11,3.0,3.0,2.05,2.13,62996000
2013-07-12,2.16,2.4,2.16,2.29,38080000
2013-07-15,2.31,2.33,2.17,2.23,14960000
2013-07-16,2.22,2.27,2.17,2.21,5963200
2013-07-17,2.21,2.31,2.21,2.25,10004000
2013-07-18,2.25,2.27,2.17,2.17,5860000
2013-07-19,2.2,2.21,2.09,2.1,8148000
2013-07-22,2.15,2.21,2.08,2.11,10186400
2013-07-23,2.15,2.2,2.08,2.17,13710400
2013-07-24,2.17,2.23,2.15,2.21,4821600
2013-07-25,2.23,2.35,2.15,2.35,13134360
2013-07-26,2.33,2.65,2.33,2.48,52024000
2013-07-29,2.5,2.57,2.48,2.52,11729600
2013-07-30,2.52,2.54,2.37,2.47,14098400
2013-07-31,2.48,2.54,2.43,2.5,6084000
2013-08-01,2.5,2.54,2.48,2.52,5392000
2013-08-02,2.52,2.58,2.49,2.52,9444000
2013-08-05,2.52,2.59,2.48,2.56,8680000
2013-08-06,2.54,2.83,2.54,2.81,41604000
2013-08-07,2.83,3.17,2.77,3.1,47519928
2013-08-08,3.15,3.38,3.12,3.16,36806000
2013-08-09,3.2,3.31,3.15,3.27,10596110
2013-08-12,3.28,3.38,3.16,3.23,13543200
2013-08-13,3.25,3.25,3.19,3.21,7599500
2013-08-15,3.23,3.42,3.18,3.39,17567200
2013-08-16,3.31,3.52,3.28,3.48,14176800
2013-08-19,3.52,3.52,3.4,3.4,12546000
2013-08-20,3.4,3.58,3.4,3.44,16880000
2013-08-21,3.5,3.56,3.42,3.51,12136800
2013-08-22,3.48,3.57,3.47,3.52,10277600
2013-08-23,3.52,3.58,3.51,3.52,5488000
2013-08-26,3.57,3.81,3.52,3.75,28312380
2013-08-27,3.79,3.98,3.75,3.98,22966000
2013-08-28,3.95,4.33,3.92,4.02,43608000
2013-08-29,4.05,4.18,3.64,3.98,43620000
2013-08-30,4.0,4.0,3.75,3.84,11252000
2013-09-02,3.7,3.94,3.48,3.52,32160800
2013-09-03,3.48,3.79,3.45,3.74,38630408
2013-09-04,3.74,3.83,3.6,3.62,15372000
2013-09-05,3.61,3.73,3.61,3.65,8348000
2013-09-06,3.65,3.85,3.65,3.85,22282400
2013-09-09,3.89,4.1,3.89,4.01,34019200
2013-09-10,4.05,4.08,3.95,3.97,12084000
2013-09-11,3.95,4.09,3.88,4.02,13232000
2013-09-12,4.03,4.08,4.0,4.05,10204000
2013-09-13,4.08,4.08,3.92,3.98,4996000
2013-09-16,3.98,4.08,3.98,4.0,10388000
2013-09-17,3.98,4.01,3.85,3.89,9982000
2013-09-18,3.85,3.9,3.7,3.75,12828000
2013-09-19,3.8,3.88,3.75,3.78,6148000
2013-09-23,3.7,3.83,3.7,3.8,3684000
2013-09-24,3.75,3.79,3.65,3.68,5940000
2013-09-25,3.68,3.8,3.68,3.7,6439500
2013-09-26,3.7,3.73,3.54,3.59,9760000
2013-09-27,3.59,3.69,3.52,3.65,8832000
2013-09-30,3.65,3.77,3.64,3.64,5112440
2013-10-02,3.65,3.85,3.65,3.77,8648000
2013-10-03,3.78,3.88,3.78,3.83,8379700
2013-10-04,3.83,3.95,3.81,3.87,9121600
2013-10-07,3.92,3.95,3.83,3.86,5176000
2013-10-08,3.86,3.9,3.77,3.86,5188000
2013-10-09,3.81,3.86,3.77,3.82,3580000
2013-10-10,3.85,4.5,3.8,4.5,52916000
2013-10-11,4.59,4.76,4.45,4.61,44298400
2013-10-15,4.63,4.95,4.53,4.88,23792000
2013-10-16,4.92,6.01,4.75,5.7,62117200
2013-10-17,5.85,6.39,5.78,5.98,37821000
2013-10-18,5.93,7.15,5.63,6.7,192256400
2013-10-21,6.82,7.07,6.55,6.67,32745200
2013-10-22,6.65,6.65,6.22,6.28,25146000
2013-10-23,6.3,6.57,6.17,6.25,20280000
2013-10-24,6.35,6.4,6.1,6.25,9766000
2013-10-25,6.31,6.48,6.24,6.25,8820000
2013-10-28,6.3,6.41,6.12,6.13,10336000
2013-10-29,6.15,6.2,5.35,5.42,37744000
2013-10-30,5.49,5.94,5.49,5.93,19944000
2013-10-31,5.92,5.92,5.69,5.78,7660000
2013-11-01,5.8,6.12,5.73,6.04,13025000
2013-11-04,6.1,6.18,5.82,5.98,8892000
2013-11-05,6.0,6.06,5.86,6.0,4716000
2013-11-06,6.0,6.08,5.91,5.93,4428000
2013-11-07,6.02,6.02,5.8,5.84,4148000
2013-11-12,5.45,5.84,5.34,5.79,37930800
2013-11-13,5.71,6.51,5.68,6.29,27800000
2013-11-14,6.4,6.47,6.1,6.33,12594990
2013-11-15,6.33,6.83,6.33,6.6,24862800
2013-11-18,6.76,6.77,6.52,6.67,10521870
2013-11-19,6.67,6.88,6.5,6.74,12742620
2013-11-20,6.8,6.8,6.6,6.68,6573420
2013-11-21,6.68,6.74,6.55,6.62,4960000
2013-11-22,6.61,6.73,6.33,6.35,10176000
2013-11-25,6.32,6.65,6.19,6.35,9696000
2013-11-26,6.4,6.43,6.1,6.24,9426030
2013-11-27,6.26,6.39,6.2,6.25,5496000
2013-11-28,6.27,6.41,6.23,6.37,7006510
2013-11-29,6.35,6.43,6.25,6.33,3648000
2013-12-02,6.26,6.37,6.24,6.3,4552350
2013-12-03,6.3,6.31,6.14,6.29,6629600
2013-12-04,6.23,6.94,6.19,6.6,32020000
2013-12-05,6.6,6.84,6.53,6.73,13161790
2013-12-06,6.74,6.84,6.56,6.58,10470930
2013-12-09,6.63,6.78,6.34,6.46,7672000
2013-12-10,6.55,6.55,6.3,6.41,4469000
2013-12-11,6.4,6.4,6.15,6.2,6116000
2013-12-12,6.2,6.42,6.2,6.27,5096000
2013-12-13,6.28,6.3,6.1,6.21,4694100
2013-12-16,6.21,6.26,5.99,6.02,5621430
2013-12-17,6.14,6.18,5.94,6.06,5577400
2013-12-18,6.01,6.06,5.65,5.81,9876000
2013-12-19,5.89,5.94,5.66,5.7,5728000
2013-12-20,5.7,5.8,5.21,5.51,17828580
2013-12-23,5.55,6.23,5.52,6.13,12620370
2013-12-24,6.15,6.28,6.0,6.14,4268000
2013-12-27,6.17,6.17,5.89,6.0,3009580
2013-12-30,5.96,6.32,5.9,6.29,5480000
2013-12-31,6.3,6.3,6.08,6.19,2670000
2014-01-02,6.11,6.53,6.11,6.42,13440000
2014-01-03,6.42,6.49,6.25,6.32,6731920
2014-01-06,6.21,6.34,6.06,6.1,5924000
2014-01-07,6.15,6.49,6.14,6.48,11932000
2014-01-08,6.55,6.64,6.4,6.5,11525600
2014-01-09,6.5,6.53,6.39,6.45,7413190
2014-01-10,6.44,6.53,6.31,6.41,3868000
2014-01-13,6.5,6.6,6.4,6.48,5541880
2014-01-14,6.4,7.05,6.4,6.99,27556840
2014-01-15,7.15,7.22,6.9,7.02,19740000
2014-01-16,7.05,7.05,6.67,6.72,7156000
2014-01-17,6.65,7.0,6.55,6.91,8756000
2014-01-20,6.91,7.14,6.85,6.95,16061100
2014-01-21,6.96,6.96,6.76,6.81,6665590
2014-01-22,6.95,6.95,6.66,6.68,5024000
2014-01-23,6.65,6.75,6.35,6.73,6640000
2014-01-24,6.73,6.73,6.32,6.33,5658400
2014-01-27,6.0,6.14,5.63,6.01,19064890
2014-01-28,6.01,6.18,5.94,6.02,2845440
2014-01-29,6.13,6.14,6.01,6.14,4363420
2014-01-30,6.0,6.05,5.9,6.03,3112000
2014-02-04,5.95,6.0,5.74,5.83,6196000
2014-02-05,5.91,5.96,5.35,5.55,15184000
2014-02-06,5.64,5.8,5.51,5.76,6744000
2014-02-07,5.8,5.88,5.65,5.79,4985470
2014-02-10,5.79,6.05,5.76,5.95,6432000
2014-02-11,6.04,6.1,6.0,6.06,4400000
2014-02-12,6.02,6.09,5.85,5.93,4370400
2014-02-13,5.93,5.95,5.76,5.78,1944000
2014-02-14,5.79,5.97,5.79,5.82,2212000
2014-02-17,5.85,5.95,5.71,5.75,2628000
2014-02-18,5.73,5.94,5.7,5.85,2042000
2014-02-19,5.9,5.9,5.7,5.75,2500000
2014-02-20,5.75,5.76,5.63,5.7,1356000
2014-02-21,5.79,5.79,5.65,5.68,800000
2014-02-24,5.74,5.79,5.55,5.73,1608000
2014-02-25,5.74,6.0,5.64,5.7,5023840
2014-02-26,5.88,5.89,5.71,5.76,2900000
2014-02-27,5.75,5.94,5.73,5.89,4400000
2014-02-28,5.94,6.61,5.89,6.45,15252000
2014-03-03,6.45,6.48,6.27,6.34,5552000
2014-03-04,6.27,6.28,5.94,6.2,5663430
2014-03-05,6.22,6.43,6.2,6.26,2496000
2014-03-06,6.25,6.26,6.07,6.13,1987860
2014-03-07,6.18,6.3,6.14,6.2,4861530
2014-03-10,6.2,6.24,6.08,6.15,2718400
2014-03-11,6.06,6.19,6.05,6.15,2400000
2014-03-12,6.04,6.08,5.92,5.97,4648000
2014-03-13,5.97,6.04,5.81,5.9,2997860
2014-03-14,5.9,5.9,5.58,5.71,6996000
2014-03-17,5.64,5.95,5.58,5.8,3112000
2014-03-18,5.92,5.93,5.8,5.91,2472000
2014-03-19,5.93,6.13,5.92,5.98,2680000
2014-03-20,6.09,6.09,5.83,5.89,1495030
2014-03-21,5.95,6.03,5.78,5.95,5798280
2014-03-24,6.0,6.07,5.95,5.95,2184000
2014-03-25,5.9,5.93,5.8,5.82,2916000
2014-03-26,5.82,5.84,5.55,5.61,4392000
2014-03-27,5.6,5.61,5.23,5.4,11600000
2014-03-28,5.4,5.58,5.24,5.5,2052000
2014-03-31,5.51,5.87,5.5,5.67,2775000
2014-04-01,5.67,5.81,5.64,5.73,3772000
2014-04-02,5.8,6.2,5.73,6.08,20000000
2014-04-03,6.09,6.3,6.05,6.1,9441930
2014-04-04,6.11,6.25,6.11,6.2,5676000
2014-04-07,6.2,6.25,6.0,6.11,4788350
2014-04-08,6.15,6.15,5.9,6.0,3800000
2014-04-09,6.0,6.13,5.96,6.12,2184000
2014-04-10,6.19,6.25,6.06,6.2,6512000
2014-04-11,6.25,6.45,6.22,6.34,7601000
2014-04-14,6.34,6.43,5.94,6.12,6025000
2014-04-15,6.12,6.22,5.94,6.06,3544000
2014-04-16,6.1,6.16,5.95,5.98,3912000
2014-04-17,6.08,6.1,6.0,6.02,1286000
2014-04-22,6.15,6.46,6.1,6.43,11582420
2014-04-24,6.35,7.32,6.35,6.83,180411616
2014-04-25,6.89,7.16,6.63,6.7,27532000
2014-04-28,6.7,6.7,6.19,6.2,15640000
2014-04-29,6.2,6.42,5.59,5.85,31168000
2014-04-30,5.93,6.08,5.76,5.85,11680000
2014-05-02,5.86,6.08,5.86,5.96,6325200
2014-05-05,6.09,6.25,5.91,6.14,10504000
2014-05-07,6.15,6.35,6.05,6.23,11986400
2014-05-08,6.23,6.25,5.88,5.9,8784000
2014-05-09,5.9,6.13,5.9,5.9,5990000
2014-05-12,6.04,6.04,5.88,5.89,5520000
2014-05-13,5.97,6.02,5.82,5.94,5526290
2014-05-14,6.0,6.17,5.9,6.08,4999470
2014-05-15,6.08,6.2,6.03,6.19,7249600
2014-05-16,6.2,6.31,6.11,6.18,4796000
2014-05-19,6.11,6.2,6.05,6.11,3464000
2014-05-20,6.18,6.18,6.06,6.13,5620000
2014-05-21,6.13,6.15,5.93,5.94,5136000
2014-05-22,5.9,6.12,5.9,6.0,7540000
2014-05-23,6.05,6.1,5.95,5.99,4497600
2014-05-26,6.04,6.05,5.88,5.92,5028510
2014-05-27,6.16,6.23,6.03,6.03,8306300
2014-05-28,6.09,6.09,5.92,5.95,7220400
2014-05-29,5.97,5.97,5.89,5.95,4372000
2014-05-30,5.95,6.19,5.91,6.09,11750050
2014-06-03,6.1,6.1,5.89,5.93,9956000
2014-06-04,5.95,5.95,5.87,5.9,4176000
2014-06-05,5.94,6.01,5.86,5.91,6560000
2014-06-06,5.95,5.95,5.88,5.9,3060000
2014-06-09,5.92,5.92,5.8,5.84,4128000
2014-06-10,5.84,5.84,5.61,5.65,7744000
2014-06-11,5.63,5.8,5.6,5.75,3730000
2014-06-12,5.75,5.85,5.71,5.73,5524000
2014-06-13,5.74,5.87,5.74,5.77,7387510
2014-06-16,5.7,5.85,5.26,5.7,852000
2014-06-17,5.77,5.77,5.52,5.56,1850000
2014-06-18,5.55,5.58,5.4,5.57,3080000
2014-06-19,5.66,5.84,5.54,5.65,4271540
2014-06-20,5.8,5.83,5.5,5.51,2666400
2014-06-23,5.58,5.64,5.49,5.58,1550080
2014-06-24,5.58,5.69,5.53,5.56,1896850
2014-06-25,5.59,5.7,5.56,5.63,2024000
2014-06-26,5.68,5.84,5.65,5.82,3092000
2014-06-27,5.84,5.91,5.82,5.86,2956000
2014-06-30,5.82,6.02,5.82,5.9,1510000
2014-07-02,5.9,6.1,5.9,6.09,6514000
2014-07-03,6.1,6.28,6.1,6.23,4536000
2014-07-04,6.23,6.36,6.23,6.3,7536000
2014-07-07,6.31,6.36,6.14,6.14,2868000
2014-07-08,6.1,6.2,6.07,6.1,4272000
2014-07-09,6.12,6.15,5.84,5.87,5722000
2014-07-10,5.9,5.98,5.76,5.93,1830060
2014-07-11,5.93,5.93,5.7,5.76,3578000
2014-07-14,5.8,5.8,5.64,5.73,3164000
2014-07-15,5.79,5.99,5.77,5.78,3658000
2014-07-16,5.8,5.85,5.65,5.67,3378060
2014-07-17,5.67,5.69,5.5,5.55,4728000
2014-07-18,5.5,5.57,5.41,5.46,3220000
2014-07-21,5.59,5.61,5.5,5.51,1923200
2014-07-22,5.51,5.52,5.36,5.42,3848230
2014-07-23,5.43,5.49,5.42,5.42,2320000
2014-07-24,5.43,5.43,5.18,5.28,7502000
2014-07-25,5.3,5.3,4.91,5.04,12446000
2014-07-28,5.0,5.38,5.0,5.35,5830760
2014-07-29,5.3,5.45,5.2,5.33,3436000
2014-07-30,5.32,5.32,5.15,5.26,4042000
2014-07-31,5.3,5.35,5.26,5.3,3038000
2014-08-01,5.25,5.29,5.08,5.12,2230000
2014-08-04,5.19,5.19,5.06,5.08,2148000
2014-08-05,5.08,5.15,5.05,5.06,1970000
2014-08-06,5.03,5.08,4.99,5.02,2384000
2014-08-07,5.0,5.04,4.75,4.78,7770000
2014-08-08,4.77,4.82,4.37,4.68,10241000
2014-08-11,4.68,4.8,4.61,4.78,2066000
2014-08-12,4.88,4.88,4.65,4.69,3380000
2014-08-13,4.69,4.69,4.47,4.56,3726000
2014-08-14,4.5,4.92,4.5,4.85,5557070
2014-08-15,4.84,4.89,4.6,4.64,4412500
2014-08-18,4.76,4.76,4.65,4.68,1510000
2014-08-19,4.68,4.9,4.68,4.87,3402000
2014-08-20,4.87,4.94,4.76,4.93,4028000
2014-08-21,4.93,4.94,4.83,4.89,1730000
2014-08-22,4.99,4.99,4.9,4.93,1692210
2014-08-25,4.93,4.93,4.78,4.82,2224000
2014-08-26,4.88,4.9,4.75,4.81,2064000
2014-08-27,4.79,4.86,4.68,4.75,3396020
2014-08-28,4.7,4.76,4.68,4.76,2009700
2014-08-29,4.65,4.76,4.65,4.74,1699520
2014-09-01,4.78,4.78,4.66,4.71,2932000
2014-09-02,4.68,4.92,4.65,4.89,2534000
2014-09-03,4.89,4.93,4.78,4.91,2626000
2014-09-04,4.95,5.06,4.84,5.06,4808000
2014-09-05,5.03,5.1,4.94,5.01,2354370
2014-09-08,4.98,5.03,4.85,4.96,2817750
2014-09-10,4.93,5.02,4.93,4.99,5072000
2014-09-11,5.04,5.05,4.91,4.96,8360000
2014-09-12,4.96,4.96,4.79,4.8,3300000
2014-09-15,4.8,4.8,4.68,4.68,3444000
2014-09-16,4.68,4.76,4.53,4.65,2256700
2014-09-17,4.64,4.65,3.97,4.18,17069390
2014-09-18,4.2,4.3,4.16,4.18,4910340
2014-09-19,4.18,4.26,4.15,4.16,4976000
2014-09-22,4.17,4.17,3.94,3.99,7166370
2014-09-23,4.0,4.0,3.67,3.74,7256000
2014-09-24,3.74,3.79,3.64,3.73,3658160
2014-09-25,3.75,3.75,3.5,3.54,6210000
2014-09-26,3.48,3.7,3.4,3.59,5826000
2014-09-29,3.58,3.72,3.38,3.43,5232000
2014-09-30,3.39,3.4,3.18,3.25,7238000
2014-10-03,3.2,3.29,3.05,3.25,7038000
2014-10-06,3.3,3.78,3.3,3.7,9522030
2014-10-07,3.7,3.97,3.64,3.86,8606000
2014-10-08,3.81,3.84,3.67,3.72,5068000
2014-10-09,3.76,3.79,3.51,3.53,5614000
2014-10-10,3.52,3.52,3.37,3.4,3096000
2014-10-13,3.44,3.5,3.35,3.49,2004000
2014-10-14,3.5,3.5,3.4,3.48,2172000
2014-10-15,3.43,3.67,3.43,3.63,3431480
2014-10-16,3.5,3.71,3.5,3.63,3290340
2014-10-17,3.52,3.8,3.52,3.66,6218000
2014-10-20,3.67,3.72,3.6,3.62,4637330
2014-10-21,3.67,3.7,3.42,3.52,2963160
2014-10-22,3.52,3.52,3.41,3.41,5718000
2014-10-23,3.4,3.48,3.3,3.38,2912000
2014-10-24,3.33,3.39,3.2,3.23,8032000
2014-10-27,3.27,3.27,3.15,3.21,3065930
2014-10-28,3.2,3.28,3.17,3.26,2660000
2014-10-29,3.27,3.42,3.27,3.35,3304000
2014-10-30,3.35,3.4,3.28,3.34,1967780
2014-10-31,3.34,3.4,3.23,3.34,3610000
2014-11-03,3.4,3.4,3.3,3.34,2853660
2014-11-04,3.29,3.49,3.29,3.44,2516000
2014-11-05,3.44,3.44,3.33,3.34,3326000
2014-11-06,3.32,3.46,3.32,3.45,3023370
2014-11-07,3.45,3.52,3.4,3.48,3482000
2014-11-10,3.49,3.6,3.4,3.58,5224000
2014-11-11,3.55,3.6,3.46,3.48,2835680
2014-11-12,3.56,3.56,3.42,3.5,1692000
2014-11-13,3.48,3.53,3.4,3.44,2180000
2014-11-14,3.42,3.51,3.42,3.46,1864000
2014-11-17,3.49,4.34,3.49,4.09,20140250
2014-11-18,4.03,4.35,4.0,4.23,14934000
2014-11-19,4.24,4.69,4.1,4.64,16220970
2014-11-20,4.74,5.08,4.74,4.92,32833000
2014-11-21,4.95,5.35,4.77,5.04,21038000
2014-11-24,5.0,5.13,4.81,4.95,10853000
2014-11-25,4.97,5.01,4.63,4.71,12016110
2014-11-26,4.79,4.86,4.56,4.74,13422890
2014-11-27,4.74,4.78,4.58,4.68,5010000
2014-11-28,4.63,4.67,4.43,4.51,5008000
2014-12-01,4.5,4.53,4.14,4.28,9869470
2014-12-02,4.39,4.39,4.2,4.34,6088740
2014-12-03,4.39,4.49,4.23,4.27,3396000
2014-12-04,4.27,4.34,4.2,4.25,3944000
2014-12-05,4.25,4.31,4.1,4.22,5434890
2014-12-08,4.22,4.24,3.85,4.01,6353620
2014-12-09,4.02,4.09,3.9,4.07,2994000
2014-12-10,4.1,4.28,4.03,4.2,5472000
2014-12-11,4.2,4.2,4.02,4.09,2173690
2014-12-12,4.1,4.15,4.03,4.07,2658000
2014-12-15,4.06,4.2,3.99,4.1,3494000
2014-12-16,3.91,4.15,3.91,4.03,2795070
2014-12-17,3.96,4.05,3.36,3.37,20476000
2014-12-18,3.47,3.65,3.4,3.47,17417050
2014-12-19,3.45,3.62,3.45,3.51,8492240
2014-12-22,3.5,3.51,3.36,3.49,11839690
2014-12-23,3.5,3.9,3.43,3.74,6043180
2014-12-24,3.74,3.74,3.63,3.68,1776000
2014-12-29,3.76,3.79,3.58,3.65,4219200
2014-12-30,3.61,3.9,3.61,3.78,1964000
2014-12-31,3.79,3.87,3.75,3.77,1598000
2015-01-02,3.78,3.85,3.76,3.8,1870000
2015-01-05,3.85,4.23,3.81,4.06,8184980
2015-01-06,4.1,4.1,3.97,4.0,5070000
2015-01-07,3.94,4.1,3.91,4.0,1880000
2015-01-08,4.05,4.14,4.0,4.09,2437120
2015-01-09,4.1,4.44,4.08,4.41,9402000
2015-01-12,4.35,4.63,4.35,4.41,9670000
2015-01-13,4.41,4.6,4.37,4.58,7443150
2015-01-14,4.58,4.7,4.55,4.62,5124000
2015-01-15,4.62,4.62,4.35,4.4,7794000
2015-01-16,4.5,4.5,4.31,4.35,3176920
2015-01-17,3.34,3.34,3.34,3.34,0
2015-01-19,4.26,4.45,4.18,4.26,4360000
2015-01-20,4.32,4.32,4.15,4.21,3964000
2015-01-21,4.2,4.4,4.15,4.33,1758000
2015-01-22,4.45,4.45,4.25,4.35,2347000
2015-01-23,4.36,4.38,4.2,4.23,4935110
2015-01-26,4.23,4.38,4.19,4.27,1857000
2015-01-27,4.38,4.55,4.26,4.53,6244080
2015-01-28,4.56,4.59,4.4,4.5,3896000
2015-01-29,4.45,4.5,4.32,4.32,2342000
2015-01-30,4.35,4.44,4.25,4.32,2820000
2015-02-02,4.26,4.28,4.18,4.27,964000
2015-02-03,4.26,4.37,4.2,4.33,906000
2015-02-04,4.48,4.48,4.28,4.33,992000
2015-02-05,4.4,4.43,4.25,4.32,1086800
2015-02-06,4.28,4.37,4.27,4.36,806000
2015-02-09,4.36,4.38,4.23,4.26,541720
2015-02-10,4.26,4.33,4.25,4.31,1230000
2015-02-11,4.32,4.37,4.2,4.24,1390980
2015-02-12,4.24,4.34,4.2,4.28,582000
2015-02-13,4.34,4.87,4.31,4.87,15141770
2015-02-16,4.94,5.28,4.79,4.91,10905240
2015-02-17,4.96,5.16,4.95,5.07,4694000
2015-02-18,5.07,5.13,5.05,5.11,2265140
2015-02-23,5.08,5.11,4.68,4.73,5664000
2015-02-24,4.73,4.78,4.56,4.75,2221960
2015-02-25,4.71,4.79,4.63,4.68,2222000
2015-02-26,4.74,4.76,4.65,4.72,1038000
2015-02-27,4.72,4.84,4.54,4.58,4366390
2015-03-02,4.6,4.64,4.4,4.43,2494000
2015-03-03,4.44,4.52,4.38,4.43,1002000
2015-03-04,4.45,4.55,4.4,4.51,2257130
2015-03-05,4.5,4.62,4.48,4.6,1792000
2015-03-06,4.69,4.7,4.55,4.61,1041590
2015-03-09,4.66,4.67,4.51,4.52,720000
2015-03-10,4.5,4.58,4.43,4.46,1111120
2015-03-11,4.48,4.48,4.3,4.42,1796000
2015-03-12,4.48,4.49,4.4,4.46,1094000
2015-03-13,4.5,4.5,4.38,4.48,1075970
2015-03-16,4.42,4.47,4.35,4.36,1082640
2015-03-17,4.34,4.4,4.3,4.33,1941950
2015-03-18,4.34,4.48,4.34,4.46,1539030
2015-03-19,4.58,4.8,4.5,4.68,5872000
2015-03-20,4.71,4.72,4.5,4.59,1770430
2015-03-23,4.47,4.65,4.47,4.48,1869850
2015-03-24,4.46,4.5,4.43,4.45,1787720
2015-03-25,4.38,4.46,4.35,4.39,3322000
2015-03-26,4.34,4.39,4.25,4.29,2942000
2015-03-27,4.29,4.33,4.14,4.16,4250180
2015-03-30,4.25,4.3,4.14,4.18,4605380
2015-03-31,4.17,4.18,4.0,4.14,2328000
2015-04-01,4.06,4.3,4.06,4.11,6207330
2015-04-02,4.2,4.28,4.11,4.27,3956000
2015-04-08,4.3,4.48,4.22,4.33,6558000
2015-04-09,4.4,4.49,4.25,4.47,7264000
2015-04-10,4.55,4.56,4.35,4.53,4306000
2015-04-13,4.49,5.05,4.49,4.87,12447600
2015-04-14,4.9,5.0,4.83,4.84,8891060
2015-04-15,4.87,4.88,4.53,4.64,5638880
2015-04-16,4.69,4.77,4.6,4.7,2675060
2015-04-17,4.7,4.93,4.7,4.88,7438000
2015-04-20,4.82,4.86,4.58,4.62,4668000
2015-04-21,4.62,4.8,4.6,4.67,3428400
2015-04-22,4.67,4.73,4.56,4.6,2648000
2015-04-23,4.68,4.68,4.45,4.49,3706000
2015-04-24,4.49,4.54,4.32,4.38,5252000
2015-04-27,4.5,4.53,4.32,4.33,4916000
2015-04-28,4.34,4.45,4.28,4.35,3646000
2015-04-29,4.31,4.59,4.31,4.52,3668000
2015-04-30,4.45,4.55,4.4,4.53,4092000
2015-05-04,4.55,4.68,4.53,4.58,2893380
2015-05-05,4.53,4.54,4.31,4.4,2198000
2015-05-06,4.4,4.5,4.38,4.43,2140000
2015-05-07,4.38,4.44,4.32,4.39,1573200
2015-05-08,4.45,4.57,4.4,4.49,3790000
2015-05-11,4.52,4.53,4.4,4.5,2168000
2015-05-12,4.54,4.8,4.45,4.8,6880000
2015-05-13,4.84,4.84,4.67,4.8,3847060
2015-05-14,4.83,4.84,4.73,4.84,2940000
2015-05-15,4.84,4.98,4.73,4.94,4629840
2015-05-18,4.95,5.6,4.85,5.59,19293820
2015-05-19,5.67,6.0,5.15,5.5,23928000
2015-05-20,5.5,5.5,5.1,5.34,6622000
2015-05-21,5.4,5.5,5.22,5.49,4360000
2015-05-22,5.5,5.55,5.35,5.5,5504000
2015-05-26,5.51,5.6,5.2,5.28,8846000
2015-05-27,5.39,5.39,5.1,5.19,8408130
2015-05-28,5.2,5.28,5.01,5.08,4532000
2015-05-29,5.2,5.5,4.97,5.38,7382000
2015-06-01,5.3,5.41,5.19,5.3,3252000
2015-06-02,5.22,5.28,5.17,5.24,2468000
2015-06-03,5.18,5.23,5.07,5.16,46450000
2015-06-04,5.13,5.27,5.06,5.1,4010800
2015-06-05,5.1,5.15,4.82,5.0,5166000
2015-06-08,5.1,5.1,4.87,5.0,2671380
2015-06-09,5.03,5.03,4.73,4.77,6096000
2015-06-10,4.77,4.85,4.62,4.73,3040000
2015-06-11,4.78,4.82,4.74,4.81,1288440
2015-06-12,4.73,4.82,4.73,4.79,1800000
2015-06-15,4.79,4.81,4.54,4.55,3906000
2015-06-16,4.58,4.58,4.3,4.45,3540000
2015-06-17,4.65,4.72,4.45,4.67,3052000
2015-06-18,4.68,4.76,4.5,4.56,1868000
2015-06-19,4.7,4.7,4.48,4.53,2482630
2015-06-22,4.6,4.6,4.38,4.4,2032000
2015-06-23,4.5,4.58,4.34,4.58,3720000
2015-06-24,4.5,4.69,4.5,4.52,3186000
2015-06-25,4.52,4.63,4.41,4.52,4104000
2015-06-26,4.52,4.56,4.45,4.51,2694000
2015-06-29,4.52,4.55,4.13,4.22,4346000
2015-06-30,4.23,4.35,4.15,4.26,2032000
2015-07-02,4.31,4.43,4.22,4.26,3914000
2015-07-03,4.26,4.26,3.88,4.0,4380356
2015-07-06,4.0,4.09,3.19,3.59,6148000
2015-07-07,3.62,3.89,3.35,3.36,9986000
2015-07-08,3.2,3.61,2.88,3.45,9656000
2015-07-09,3.44,3.8,3.37,3.66,11842000
2015-07-10,3.75,4.09,3.75,3.92,5846000
2015-07-13,4.1,4.2,3.98,4.05,4052390
2015-07-14,4.1,4.6,4.09,4.51,8857000
2015-07-15,4.5,4.7,4.37,4.4,5883800
2015-07-16,4.41,4.47,4.3,4.42,1622000
2015-07-17,4.4,4.69,4.4,4.6,2481359
2015-07-20,4.63,4.76,4.49,4.52,1916440
2015-07-21,4.7,4.7,4.35,4.41,3358000
2015-07-22,4.36,4.42,4.1,4.18,5292000
2015-07-23,4.25,4.36,4.14,4.33,3087376
2015-07-24,4.31,4.31,4.17,4.2,1334000
2015-07-27,4.18,4.19,3.86,3.89,4198000
2015-07-28,4.2,4.2,3.9,4.02,1174000
2015-07-29,4.1,4.13,4.03,4.08,1191468
2015-07-30,4.1,4.15,4.06,4.1,898000
2015-07-31,4.16,4.2,4.07,4.19,702000
2015-08-03,4.2,4.25,4.04,4.12,1328000
2015-08-04,4.2,4.32,4.16,4.27,1528000
2015-08-05,4.29,4.37,4.22,4.28,1014000
2015-08-06,4.36,4.36,4.28,4.33,1392000
2015-08-07,4.33,4.36,4.2,4.3,1024000
2015-08-10,4.3,4.51,4.3,4.49,1912000
2015-08-11,4.6,4.6,4.43,4.45,2436000
2015-08-12,4.44,4.44,4.3,4.36,1090000
2015-08-13,4.36,4.4,4.17,4.24,1649064
2015-08-14,4.24,4.35,4.2,4.25,1240000
2015-08-17,4.2,4.26,4.13,4.2,930000
2015-08-18,4.25,4.34,4.12,4.18,674000
2015-08-19,4.2,4.2,4.05,4.15,900000
2015-08-20,4.16,4.16,3.98,4.02,2244000
2015-08-21,3.9,3.96,3.69,3.82,2620000
2015-08-24,3.63,3.68,3.17,3.24,4694000
2015-08-25,3.17,3.69,3.06,3.2,4316000
2015-08-26,3.2,3.4,3.13,3.2,3068000
2015-08-27,3.35,3.39,3.17,3.34,4810000
2015-08-28,3.4,3.4,3.2,3.28,3056000
2015-08-31,3.28,3.34,3.0,3.27,3210000
2015-09-01,3.27,3.35,3.15,3.23,2280000
2015-09-02,3.18,3.32,3.1,3.28,1370000
2015-09-04,3.35,3.35,3.23,3.29,1444000
2015-09-07,3.3,3.41,3.22,3.33,760000
2015-09-08,3.36,3.75,3.3,3.73,3920000
2015-09-09,3.8,3.9,3.74,3.81,2086000
2015-09-10,3.8,3.88,3.68,3.87,1966000
2015-09-11,3.92,4.22,3.89,4.01,4154000
2015-09-14,4.15,4.15,3.98,4.01,786000
2015-09-15,4.01,4.1,3.78,3.81,1298000
2015-09-16,3.9,3.96,3.75,3.88,1348440
2015-09-17,3.95,4.06,3.91,3.93,1364000
2015-09-18,4.05,4.1,3.97,4.01,848000
2015-09-21,4.0,4.08,3.94,3.99,648000
2015-09-22,4.09,4.09,4.0,4.01,426000
2015-09-23,4.0,4.02,3.75,3.89,1537160
2015-09-24,3.95,3.95,3.8,3.88,672000
2015-09-25,3.89,3.94,3.85,3.9,778000
2015-09-29,3.8,4.18,3.8,4.0,2596060
2015-09-30,4.08,4.12,4.0,4.02,3180000
2015-10-02,4.16,4.16,4.04,4.04,974000
2015-10-05,4.1,4.18,4.03,4.06,850000
2015-10-06,4.14,4.15,4.1,4.13,1404000
2015-10-07,4.15,4.52,4.15,4.45,6124100
2015-10-08,4.46,4.5,4.32,4.49,2497200
2015-10-09,4.58,4.6,4.35,4.35,2668000
2015-10-12,4.41,4.41,4.23,4.27,2034000
2015-10-13,4.31,4.32,4.02,4.05,3530000
2015-10-14,3.97,4.19,3.97,4.16,1708000
2015-10-15,4.16,4.29,4.1,4.15,2312000
2015-10-16,4.2,4.21,4.01,4.13,1744000
2015-10-19,4.15,4.15,4.0,4.03,1882000
2015-10-20,3.98,4.0,3.89,3.94,1660200
2015-10-22,4.02,4.11,3.95,4.09,1022400
2015-10-23,4.12,4.13,4.04,4.13,884000
2015-10-26,4.13,4.16,4.05,4.07,544000
2015-10-27,4.09,4.09,3.96,4.02,990000
2015-10-28,4.03,4.03,3.95,3.99,634000
2015-10-29,4.09,4.09,3.94,3.95,1008400
2015-10-30,3.96,3.99,3.85,3.88,1442000
2015-11-02,3.9,3.99,3.87,3.96,2420000
2015-11-03,4.04,4.06,3.95,4.03,1626000
2015-11-04,4.08,4.08,3.95,4.04,1094320
2015-11-05,4.07,4.07,3.93,3.97,506000
2015-11-06,4.04,4.04,3.95,4.0,622000
2015-11-09,3.98,3.98,3.9,3.92,552000
2015-11-10,3.92,3.93,3.8,3.88,1186000
2015-11-11,3.93,3.93,3.86,3.87,308000
2015-11-12,3.88,3.9,3.82,3.89,516000
2015-11-13,3.88,3.88,3.72,3.79,876000
2015-11-16,3.8,3.8,3.68,3.7,1687958
2015-11-17,3.73,3.78,3.7,3.76,932000
2015-11-18,3.81,3.98,3.8,3.83,870000
2015-11-19,3.9,3.9,3.72,3.82,594000
2015-11-20,3.85,3.85,3.72,3.8,1091359
2015-11-23,3.84,3.87,3.74,3.75,594000
2015-11-24,3.79,3.79,3.69,3.73,748000
2015-11-25,3.68,3.8,3.62,3.73,788000
2015-11-26,3.73,3.75,3.62,3.67,701909
2015-11-27,3.7,3.74,3.58,3.61,636000
2015-11-30,3.71,3.71,3.6,3.68,978000
2015-12-01,3.72,3.72,3.65,3.68,640000
2015-12-02,3.7,3.76,3.65,3.74,1004000
2015-12-03,3.79,3.79,3.7,3.76,410000
2015-12-04,3.78,3.78,3.69,3.75,1034000
2015-12-07,3.81,3.81,3.61,3.65,996000
2015-12-08,3.69,3.69,3.4,3.47,1865760
2015-12-09,3.47,3.47,3.3,3.38,1562000
2015-12-10,3.4,3.46,3.34,3.38,2234000
2015-12-11,3.48,3.48,3.33,3.38,646000
2015-12-14,3.3,3.4,3.29,3.32,816981
2015-12-15,3.34,3.43,3.32,3.36,746000
2015-12-16,3.4,3.41,3.35,3.38,474000
2015-12-17,3.38,3.42,3.33,3.34,786000
2015-12-18,3.43,3.43,3.19,3.33,1040000
2015-12-21,3.39,3.4,3.34,3.38,1088000
2015-12-22,3.4,3.4,3.35,3.4,1012000
2015-12-23,3.42,3.45,3.4,3.43,1484000
2015-12-24,3.44,3.46,3.44,3.45,778000
2015-12-28,3.48,3.58,3.45,3.46,5072000
2015-12-29,3.5,3.51,3.46,3.47,1650000
2015-12-30,3.52,3.52,3.45,3.47,866000
2015-12-31,3.48,3.48,3.34,3.35,594000
2016-01-04,3.36,3.36,3.25,3.28,798000
2016-01-05,3.36,3.36,3.22,3.25,949160
2016-01-06,3.29,3.29,3.12,3.17,1054000
2016-01-07,3.13,3.13,2.99,3.0,6964000
2016-01-08,3.03,3.03,2.73,2.78,4370000
2016-01-11,2.77,2.77,2.55,2.6,3910000
2016-01-12,2.53,2.62,2.52,2.56,1568000
2016-01-13,2.58,2.7,2.56,2.58,1822000
2016-01-14,2.52,2.56,2.47,2.53,2094000
2016-01-15,2.56,2.56,2.47,2.49,2382000
2016-01-18,2.45,2.77,2.43,2.65,2426000
2016-01-19,2.75,2.75,2.52,2.54,1556000
2016-01-20,2.54,2.54,2.2,2.31,2681101
2016-01-21,2.43,2.43,2.06,2.2,2848000
2016-01-22,2.17,2.25,1.96,2.05,4586000
2016-01-25,2.03,2.14,2.02,2.05,1322000
2016-01-26,2.02,2.05,1.92,1.92,2482000
2016-01-27,1.97,1.97,1.54,1.7,18182000
2016-01-28,1.72,1.78,1.63,1.72,6076000
2016-01-29,1.69,1.94,1.68,1.83,5352001
2016-02-01,1.85,2.12,1.82,2.07,9574000
2016-02-02,2.1,2.14,1.99,2.03,3738000
2016-02-03,2.01,2.01,1.89,1.96,2592000
2016-02-04,1.94,1.97,1.75,1.81,3236000
2016-02-05,1.9,1.9,1.69,1.76,4338000
2016-02-11,1.59,1.7,1.59,1.65,2190000
2016-02-12,1.64,1.64,1.52,1.53,4218000
2016-02-15,1.59,1.66,1.55,1.65,7326000
2016-02-16,1.65,2.14,1.64,2.12,19518314
2016-02-17,2.16,2.27,2.0,2.05,13024000
2016-02-18,2.12,2.15,2.05,2.08,4502000
2016-02-19,2.01,2.07,1.96,1.98,2756000
2016-02-22,2.05,2.05,1.82,1.92,5938000
2016-02-23,1.98,1.98,1.8,1.86,3816000
2016-02-24,1.84,1.85,1.76,1.83,3672000
2016-02-25,1.85,1.86,1.75,1.78,3512000
2016-02-26,1.8,1.95,1.8,1.89,12387194
2016-02-29,1.86,1.94,1.82,1.88,3664000
2016-03-01,1.82,1.88,1.78,1.83,2934000
2016-03-02,1.89,1.93,1.83,1.88,4102052
2016-03-03,1.9,1.92,1.85,1.87,2826000
2016-03-04,1.85,1.95,1.85,1.95,2930000
2016-03-07,2.0,2.3,1.98,2.14,21080000
2016-03-08,2.12,2.15,1.98,2.09,5625160
2016-03-09,2.03,2.17,2.01,2.03,4542000
2016-03-10,2.07,2.07,1.98,2.01,2170000
2016-03-11,1.97,2.09,1.94,2.08,2856000
2016-03-14,2.09,2.22,2.04,2.13,5398600
2016-03-15,2.16,2.25,2.08,2.11,3026000
2016-03-16,2.08,2.16,2.03,2.06,2182000
2016-03-17,2.11,2.11,2.04,2.04,1196000
2016-03-18,2.06,2.15,1.98,2.12,6827731
2016-03-21,2.1,2.27,2.03,2.19,9062000
2016-03-22,2.2,2.2,2.05,2.07,4204000
2016-03-23,2.05,2.09,1.88,1.9,10560000
2016-03-24,1.88,1.95,1.86,1.94,2824000
2016-03-29,1.91,1.98,1.81,1.82,5250000
2016-03-30,1.85,1.89,1.79,1.83,4650000
2016-03-31,1.85,1.85,1.75,1.79,2660000
2016-04-01,1.8,1.85,1.73,1.77,2948672
2016-04-05,1.74,1.74,1.53,1.54,17798000
2016-04-06,1.55,1.64,1.55,1.58,7334000
2016-04-07,1.58,1.6,1.51,1.55,5547144
2016-04-08,1.55,1.62,1.51,1.6,7022000
2016-04-11,1.57,1.65,1.55,1.57,4308000
2016-04-12,1.59,1.62,1.55,1.58,3616242
2016-04-13,1.61,1.64,1.6,1.63,3008000
2016-04-14,1.66,2.15,1.65,2.11,43828000
2016-04-15,2.11,2.13,1.83,1.9,17853160
2016-04-18,1.85,1.87,1.77,1.85,5657160
2016-04-19,1.86,1.93,1.8,1.84,7172000
2016-04-20,1.85,1.85,1.78,1.79,3150778
2016-04-21,1.82,1.88,1.8,1.86,5206000
2016-04-22,1.83,1.83,1.8,1.82,1692000
2016-04-25,1.82,1.86,1.79,1.81,2732000
2016-04-26,1.82,1.84,1.76,1.79,2865700
2016-04-27,1.81,1.82,1.76,1.77,1588000
2016-04-28,1.79,1.8,1.66,1.71,5316000
2016-04-29,1.72,1.72,1.64,1.67,3760000
2016-05-03,1.65,1.93,1.65,1.71,12790000
2016-05-04,1.73,1.74,1.69,1.71,3913160
2016-05-05,1.73,1.8,1.69,1.73,3520000
2016-05-06,1.73,1.73,1.66,1.67,4151160
2016-05-09,1.7,1.7,1.67,1.68,2020000
2016-05-10,1.67,1.7,1.65,1.67,3248000
2016-05-11,1.7,1.79,1.7,1.7,4302000
2016-05-12,1.73,1.73,1.65,1.66,2722000
2016-05-13,1.68,1.68,1.61,1.64,2480000
2016-05-16,1.64,1.68,1.62,1.64,1380000
2016-05-17,1.65,1.69,1.62,1.68,1776000
2016-05-18,1.69,1.73,1.65,1.69,1872000
2016-05-19,1.68,1.75,1.67,1.71,3127272
2016-05-20,1.71,1.75,1.67,1.68,1356000
2016-05-23,1.7,1.7,1.65,1.67,1144000
2016-05-24,1.66,1.69,1.65,1.68,806000
2016-05-25,1.68,1.7,1.65,1.67,1716000
2016-05-26,1.69,1.7,1.66,1.67,682000
2016-05-27,1.66,1.68,1.63,1.64,3114000
2016-05-30,1.64,1.67,1.63,1.64,2294800
2016-05-31,1.65,1.69,1.64,1.69,5484000
2016-06-01,1.69,1.73,1.67,1.69,3028000
2016-06-02,1.71,1.71,1.66,1.7,1754000
2016-06-03,1.68,1.77,1.68,1.75,7851702
2016-06-06,1.77,1.82,1.75,1.79,5808000
2016-06-07,1.8,1.8,1.69,1.73,5498752
2016-06-08,1.72,1.75,1.7,1.71,1129160
2016-06-10,1.71,1.73,1.64,1.67,2570000
2016-06-13,1.64,1.64,1.53,1.55,5678000
2016-06-14,1.54,1.66,1.54,1.59,6960040
2016-06-15,1.57,1.65,1.57,1.6,4208000
2016-06-16,1.59,1.61,1.56,1.57,2881966
2016-06-17,1.61,1.61,1.57,1.59,1851352
2016-06-20,1.61,1.62,1.58,1.59,846000
2016-06-21,1.58,1.6,1.57,1.57,1402000
2016-06-22,1.57,1.6,1.56,1.57,1786000
2016-06-23,1.59,1.59,1.55,1.56,2104000
2016-06-24,1.57,1.57,1.34,1.45,16336000
2016-06-27,1.41,1.48,1.41,1.47,2162000
2016-06-28,1.42,1.48,1.42,1.46,2060000
2016-06-29,1.49,1.49,1.42,1.43,2620000
2016-06-30,1.46,1.46,1.4,1.44,3132000
2016-07-04,1.44,1.47,1.42,1.45,2224000
2016-07-05,1.45,1.46,1.44,1.46,692000
2016-07-06,1.43,1.46,1.42,1.46,1694000
2016-07-07,1.46,1.46,1.42,1.43,1674000
2016-07-08,1.43,1.44,1.39,1.39,1071000
2016-07-11,1.4,1.46,1.39,1.41,1982000
2016-07-12,1.41,1.46,1.41,1.45,4918000
2016-07-13,1.47,1.55,1.45,1.52,4612000
2016-07-14,1.54,1.54,1.48,1.52,1404000
2016-07-15,1.51,1.52,1.5,1.51,956000
2016-07-18,1.52,1.64,1.49,1.61,6442000
2016-07-19,1.61,1.7,1.59,1.66,8402000
2016-07-20,1.67,1.81,1.67,1.71,10839000
2016-07-21,1.72,1.75,1.68,1.68,2784000
2016-07-22,1.7,1.71,1.68,1.69,1982000
2016-07-25,1.71,1.73,1.67,1.7,864000
2016-07-26,1.74,1.83,1.7,1.79,11056000
2016-07-27,1.8,1.81,1.73,1.74,2820000
2016-07-28,1.76,1.76,1.68,1.69,1423480
2016-07-29,1.69,1.7,1.62,1.63,2462400
2016-08-01,1.65,1.67,1.6,1.65,1574000
2016-08-03,1.65,1.65,1.63,1.64,1420000
2016-08-04,1.64,1.66,1.61,1.62,2377200
2016-08-05,1.63,1.68,1.63,1.67,2402000
2016-08-08,1.7,1.71,1.69,1.7,3626000
2016-08-09,1.7,1.72,1.69,1.71,1918000
2016-08-10,1.7,1.73,1.65,1.69,1926000
2016-08-11,1.7,1.71,1.66,1.68,948000
2016-08-12,1.68,1.68,1.64,1.65,1198000
2016-08-15,1.65,1.75,1.65,1.7,2134000
2016-08-16,1.7,1.92,1.7,1.84,23654000
2016-08-17,1.84,1.86,1.73,1.77,10471200
2016-08-18,1.77,1.8,1.75,1.75,2732001
2016-08-19,1.75,1.8,1.75,1.78,7400000
2016-08-22,1.79,1.92,1.76,1.8,17374000
2016-08-23,1.84,1.84,1.78,1.8,3222000
2016-08-24,1.8,1.81,1.77,1.78,3222000
2016-08-25,1.8,1.82,1.78,1.78,2571190
2016-08-26,1.8,1.81,1.76,1.81,1690000
2016-08-29,1.81,1.88,1.8,1.81,7480000
2016-08-30,1.82,1.86,1.8,1.84,4038000
2016-08-31,1.87,1.88,1.82,1.82,4488000
2016-09-01,1.98,2.04,1.93,1.99,36695480
2016-09-02,2.01,2.41,2.01,2.4,61493000
2016-09-05,2.45,2.5,2.33,2.36,32064000
2016-09-06,2.36,2.41,2.28,2.32,13504000
2016-09-07,2.31,2.62,2.31,2.57,37179000
2016-09-08,2.57,2.82,2.52,2.73,35049160
2016-09-09,2.72,2.82,2.58,2.6,22494000
2016-09-12,2.53,2.53,2.36,2.44,27962002
2016-09-13,2.48,2.56,2.36,2.45,28724000
2016-09-14,2.48,2.7,2.41,2.7,24878000
2016-09-15,2.7,3.0,2.68,2.9,57914000
2016-09-19,2.9,2.96,2.78,2.87,23956000
2016-09-20,2.84,2.94,2.75,2.88,14922000
2016-09-21,2.9,3.1,2.87,3.01,31822000
2016-09-22,3.05,3.19,2.78,2.82,43858000
2016-09-23,2.85,2.91,2.78,2.87,11630000
2016-09-26,2.81,2.87,2.61,2.62,18602000
2016-09-27,2.64,2.81,2.5,2.76,19997750
2016-09-28,2.81,2.83,2.72,2.77,8000000
2016-09-29,2.8,2.8,2.63,2.72,8194000
2016-09-30,2.63,2.71,2.6,2.62,8854800
2016-10-03,2.7,2.73,2.58,2.61,8454000
2016-10-04,2.63,2.66,2.49,2.6,12500000
2016-10-05,2.6,2.6,2.52,2.54,8789160
2016-10-06,2.55,2.75,2.53,2.72,22112000
2016-10-07,2.75,2.86,2.72,2.82,16316000
2016-10-11,2.82,2.86,2.67,2.75,10982000
2016-10-12,2.74,2.75,2.68,2.71,6110000
2016-10-13,2.69,2.72,2.53,2.6,9136000
2016-10-14,2.6,2.65,2.47,2.63,12236000
2016-10-17,2.63,2.63,2.48,2.52,9264000
2016-10-18,2.49,2.56,2.47,2.51,7884040
2016-10-19,2.5,2.51,2.35,2.48,11452000
2016-10-20,2.48,2.58,2.48,2.56,5699000
2016-10-24,2.53,2.58,2.46,2.48,8000000
2016-10-25,2.45,2.5,2.4,2.44,5700000
2016-10-26,2.41,2.52,2.4,2.46,9576000
2016-10-27,2.48,2.48,2.41,2.44,6280000
2016-10-28,2.44,2.46,2.37,2.41,7548000
2016-10-31,2.36,2.41,2.35,2.37,5825160
2016-11-01,2.4,2.5,2.36,2.44,8192000
2016-11-02,2.42,2.45,2.38,2.38,3454000
2016-11-03,2.38,2.47,2.35,2.42,4516000
2016-11-04,2.41,2.42,2.35,2.36,3176000
2016-11-07,2.38,2.41,2.35,2.38,4538000
2016-11-08,2.41,2.54,2.4,2.51,9324000
2016-11-09,2.56,2.56,2.21,2.33,29402000
2016-11-10,2.4,2.44,2.36,2.4,8356000
2016-11-11,2.39,2.39,2.31,2.35,5260000
2016-11-14,2.35,2.35,2.27,2.31,7498000
2016-11-15,2.28,2.34,2.23,2.27,4810000
2016-11-16,2.29,2.3,2.21,2.23,4748000
2016-11-17,2.22,2.32,2.2,2.29,7420000
2016-11-18,2.3,2.4,2.3,2.35,8188000
2016-11-21,2.35,2.45,2.32,2.44,7890000
2016-11-22,2.45,2.49,2.4,2.44,6048000
2016-11-23,2.44,2.45,2.37,2.38,2124000
2016-11-24,2.39,2.39,2.35,2.38,1685000
2016-11-25,2.36,2.38,2.31,2.32,3187150
2016-11-28,2.32,2.4,2.3,2.36,3208000
2016-11-29,2.38,2.43,2.35,2.39,3792320
2016-11-30,2.42,2.42,2.35,2.38,2332550
2016-12-01,2.37,2.47,2.37,2.42,5166750
2016-12-02,2.43,2.43,2.33,2.35,4554000
2016-12-05,2.36,2.39,2.27,2.3,4324000
2016-12-06,2.36,2.37,2.27,2.29,3496000
2016-12-07,2.29,2.35,2.26,2.32,3790000
2016-12-08,2.36,2.36,2.24,2.25,3654000
2016-12-09,2.25,2.25,2.07,2.16,9784320
2016-12-12,2.21,2.21,2.09,2.1,3860000
2016-12-13,2.1,2.15,2.06,2.12,2904000
2016-12-14,2.18,2.18,2.06,2.09,4238000
2016-12-15,2.08,2.09,1.99,2.0,7708700
2016-12-16,2.01,2.07,2.0,2.02,6918000
2016-12-19,2.02,2.07,1.99,2.0,2839192
2016-12-20,2.01,2.02,1.93,1.97,5280250
2016-12-21,1.97,1.98,1.85,1.9,6243000
2016-12-22,1.92,1.92,1.86,1.9,3022000
2016-12-23,1.88,1.91,1.87,1.91,1754000
2016-12-28,1.9,1.91,1.87,1.89,1454000
2016-12-29,1.9,1.9,1.86,1.88,1170000
2016-12-30,1.89,1.98,1.89,1.94,4687760
2017-01-03,1.92,1.96,1.89,1.94,2131600
2017-01-04,1.93,1.94,1.89,1.9,1784000
2017-01-05,1.9,1.96,1.89,1.93,3732100
2017-01-06,1.93,1.95,1.89,1.9,2501107
2017-01-09,1.9,1.94,1.89,1.93,2542000
2017-01-10,1.95,2.26,1.92,2.21,25406000
2017-01-11,2.23,2.36,2.2,2.24,17034000
2017-01-12,2.24,2.24,2.1,2.14,5062384
2017-01-13,2.14,2.14,2.09,2.1,1914000
2017-01-16,2.08,2.32,2.08,2.29,15912000
2017-01-17,2.29,2.34,2.25,2.28,5190000
2017-01-18,2.31,2.39,2.29,2.32,5940000
2017-01-19,2.32,2.32,2.28,2.29,2956000
2017-01-20,2.3,2.3,2.2,2.23,3954519
2017-01-23,2.23,2.29,2.2,2.24,3278000
2017-01-24,2.22,2.33,2.22,2.32,3618000
2017-01-25,2.34,2.34,2.26,2.3,2088000
2017-01-26,2.28,2.33,2.23,2.25,3146000
2017-01-27,2.28,2.28,2.24,2.26,775589
2017-02-01,2.28,2.28,2.22,2.23,2163192
2017-02-02,2.24,2.38,2.24,2.35,10069192
2017-02-03,2.36,2.37,2.28,2.3,3572800
2017-02-06,2.31,2.32,2.24,2.25,4620000
2017-02-07,2.23,2.27,2.21,2.25,4626000
2017-02-08,2.24,2.26,2.2,2.24,3278024
2017-02-09,2.25,2.32,2.22,2.23,5265902
2017-02-10,2.24,2.25,2.2,2.2,2868000
2017-02-13,2.23,2.26,2.2,2.23,1712000
2017-02-14,2.24,2.43,2.24,2.4,26970984
2017-02-15,2.43,2.44,2.34,2.38,7814000
2017-02-16,2.36,2.54,2.35,2.44,15082856
2017-02-17,2.43,2.59,2.4,2.52,18916500
2017-02-20,2.5,2.65,2.49,2.61,14886000
2017-02-21,2.63,2.63,2.43,2.45,11737606
2017-02-22,2.47,2.53,2.46,2.49,6398000
2017-02-23,2.49,2.53,2.46,2.49,3064816
2017-02-24,2.49,2.5,2.4,2.41,4700000
2017-02-27,2.4,2.46,2.37,2.4,5684020
2017-02-28,2.37,2.4,2.32,2.34,3840000
2017-03-01,2.34,2.4,2.34,2.39,4944000
2017-03-02,2.39,2.42,2.36,2.39,6504000
2017-03-03,2.38,2.38,2.34,2.34,3063928
2017-03-06,2.38,2.38,2.27,2.31,4928000
2017-03-07,2.32,2.46,2.29,2.43,11346000
2017-03-08,2.42,2.43,2.38,2.38,5122000
2017-03-09,2.38,2.4,2.32,2.37,5510000
2017-03-10,2.37,2.45,2.37,2.44,4284000
2017-03-13,2.44,2.51,2.4,2.48,7120000
2017-03-14,2.5,2.5,2.43,2.46,3294000
2017-03-15,2.47,2.53,2.42,2.45,5656000
2017-03-16,2.46,2.51,2.46,2.48,3984000
2017-03-17,2.48,2.56,2.45,2.51,12288000
2017-03-20,2.54,2.74,2.53,2.71,26900000
2017-03-21,2.71,2.72,2.63,2.63,6784000
2017-03-22,2.58,2.6,2.54,2.58,8160000
2017-03-23,2.61,2.65,2.54,2.55,7612000
2017-03-24,2.55,2.56,2.5,2.51,4778000
2017-03-27,2.51,2.53,2.4,2.43,7104000
2017-03-28,2.44,2.53,2.43,2.5,9184000
2017-03-29,2.5,2.63,2.5,2.59,12592000
2017-03-30,2.61,2.65,2.54,2.64,8404000
2017-03-31,2.62,2.67,2.55,2.63,9598000
2017-04-03,2.5,2.52,2.29,2.39,28266000
2017-04-05,2.37,2.39,2.33,2.38,10344000
2017-04-06,2.36,2.37,2.23,2.27,15876000
2017-04-07,2.25,2.25,2.13,2.24,12896000
2017-04-10,2.24,2.32,2.18,2.2,10149121
2017-04-11,2.19,2.23,2.15,2.17,6674000
2017-04-12,2.17,2.19,2.1,2.13,6592000
2017-04-13,2.13,2.15,2.1,2.15,6238000
2017-04-18,2.15,2.15,1.98,2.0,10246000
2017-04-19,2.0,2.1,1.95,2.07,11073000
2017-04-20,2.06,2.06,1.98,2.01,4722000
2017-04-21,2.04,2.06,2.01,2.03,3658000
2017-04-24,2.04,2.04,1.95,1.99,2118000
2017-04-25,2.01,2.04,1.99,2.03,1886000
2017-04-26,2.07,2.07,2.03,2.05,4188000
2017-04-27,2.07,2.07,1.99,2.03,3094000
2017-04-28,2.03,2.05,2.0,2.01,2108100
2017-05-02,2.01,2.09,2.01,2.04,2726000
2017-05-04,2.06,2.07,2.01,2.03,3010000
2017-05-05,2.03,2.04,1.98,1.99,4588000
2017-05-08,2.01,2.05,1.96,2.0,9875000
2017-05-09,2.03,2.03,1.99,2.01,4067000
2017-05-10,2.02,2.06,2.02,2.03,4692000
2017-05-11,2.02,2.03,2.0,2.01,1574000
2017-05-12,1.99,2.03,1.98,1.99,7626000
2017-05-15,2.01,2.01,1.82,1.85,15906000
2017-05-16,1.86,1.96,1.86,1.92,6298000
2017-05-17,1.9,1.93,1.87,1.91,2498000
2017-05-18,1.89,1.9,1.86,1.88,4450000
2017-05-19,1.86,1.91,1.86,1.9,1542000
2017-05-22,1.89,1.93,1.88,1.9,3730000
2017-05-23,1.9,2.04,1.9,2.03,12254000
2017-05-24,2.03,2.05,1.96,1.97,4003000
2017-05-25,1.98,2.07,1.98,2.04,6579700
2017-05-26,2.07,2.07,2.0,2.01,1548000
2017-05-29,2.0,2.06,2.0,2.0,2218000
2017-05-31,2.01,2.03,1.99,2.01,1670000
2017-06-01,2.01,2.01,1.96,1.96,2046000
2017-06-02,1.97,1.97,1.93,1.93,2002000
2017-06-05,1.93,1.96,1.84,1.89,8268100
2017-06-06,1.89,1.9,1.86,1.88,2288000
2017-06-07,1.88,1.97,1.87,1.94,3328000
2017-06-08,1.92,2.04,1.92,1.97,6354000
2017-06-09,1.97,1.99,1.89,1.91,4242000
2017-06-12,1.91,1.92,1.86,1.87,2524000
2017-06-13,1.88,1.91,1.87,1.89,3798000
2017-06-14,1.89,1.9,1.86,1.89,3000000
2017-06-15,1.86,1.89,1.84,1.85,2654000
2017-06-16,1.85,1.88,1.84,1.87,2631800
2017-06-19,1.87,1.89,1.85,1.85,1373800
2017-06-20,1.86,1.86,1.83,1.84,3593700
2017-06-21,1.83,1.84,1.76,1.79,10398000
2017-06-22,1.79,1.81,1.75,1.81,2548000
2017-06-23,1.8,1.86,1.78,1.85,3424000
2017-06-26,1.82,1.86,1.82,1.85,820000
2017-06-27,1.85,1.86,1.77,1.79,1822000
2017-06-28,1.78,1.79,1.75,1.77,2062000
2017-06-29,1.78,1.79,1.75,1.79,1988000
2017-06-30,1.79,1.79,1.7,1.72,5558000
2017-07-03,1.71,1.72,1.63,1.68,5244000
2017-07-04,1.68,1.74,1.67,1.73,3552000
2017-07-05,1.72,1.73,1.68,1.7,2240000
2017-07-06,1.7,1.84,1.7,1.83,5958000
2017-07-07,1.83,1.91,1.83,1.88,5644000
2017-07-10,1.88,1.95,1.87,1.88,4434000
2017-07-11,1.88,1.88,1.81,1.83,2922000
2017-07-12,1.84,1.85,1.79,1.8,2350000
2017-07-13,1.8,1.83,1.75,1.77,4244000
2017-07-14,1.79,1.8,1.77,1.79,1176000
2017-07-17,1.79,1.79,1.76,1.78,1668000
2017-07-18,1.78,1.78,1.75,1.75,2000000
2017-07-19,1.74,1.78,1.74,1.76,2192000
2017-07-20,1.76,1.78,1.74,1.75,2132400
2017-07-21,1.76,1.76,1.73,1.76,1516000
2017-07-24,1.77,1.77,1.72,1.75,1924000
2017-07-25,1.75,1.77,1.74,1.76,976000
2017-07-26,1.75,1.87,1.75,1.87,6266000
2017-07-27,1.86,1.86,1.79,1.79,2510000
2017-07-28,1.79,1.81,1.77,1.77,1270000
2017-07-31,1.75,1.78,1.75,1.77,1818000
2017-08-01,1.77,1.78,1.75,1.77,1746000
2017-08-02,1.8,1.85,1.77,1.81,2820000
2017-08-03,1.82,1.84,1.8,1.8,1314000
2017-08-04,1.79,1.8,1.78,1.78,782000
2017-08-07,1.78,1.81,1.78,1.8,1050000
2017-08-08,1.83,2.01,1.79,2.01,22236000
2017-08-09,1.99,2.1,1.96,2.07,18126000
2017-08-10,2.07,2.07,1.88,1.94,10352000
2017-08-11,1.89,1.92,1.8,1.82,6362000
2017-08-14,1.85,1.89,1.85,1.86,1790000
2017-08-15,1.86,1.88,1.82,1.84,2220000
2017-08-16,1.85,1.89,1.85,1.85,1558000
2017-08-17,1.85,1.86,1.83,1.83,1066000
2017-08-18,1.8,1.83,1.78,1.83,2506000
2017-08-21,1.8,1.84,1.79,1.82,1556100
2017-08-22,1.81,1.82,1.79,1.81,1386000
2017-08-24,1.83,1.89,1.8,1.86,2902900
2017-08-25,1.87,1.93,1.86,1.9,3742200
2017-08-28,1.93,1.93,1.82,1.84,3368700
2017-08-29,1.83,1.85,1.81,1.83,3156000
2017-08-30,1.84,1.84,1.81,1.82,3057100
2017-08-31,1.83,1.92,1.81,1.89,5544000
2017-09-01,1.76,1.78,1.67,1.67,26178000
2017-09-04,1.66,1.66,1.57,1.65,10515000
2017-09-05,1.65,1.68,1.53,1.6,15690000
2017-09-06,1.6,1.6,1.48,1.49,21542000
2017-09-07,1.52,1.56,1.3,1.33,39392000
2017-09-08,1.33,1.39,1.09,1.11,173684000
2017-09-11,1.16,1.22,1.13,1.2,64330000
2017-09-12,1.13,1.16,1.02,1.06,75503200
2017-09-13,1.06,1.14,1.03,1.1,29302000
2017-09-14,1.12,1.14,1.08,1.09,11594000
2017-09-15,1.08,1.11,1.07,1.08,9546000
2017-09-18,1.08,1.14,1.08,1.11,15444000
2017-09-19,1.14,1.14,1.09,1.11,7596000
2017-09-20,1.09,1.11,1.09,1.11,6221000
2017-09-21,1.11,1.12,1.09,1.1,6377000
2017-09-22,1.09,1.1,1.09,1.1,4494000
2017-09-25,1.09,1.09,1.06,1.07,6482000
2017-09-26,1.06,1.07,1.03,1.07,4530000
2017-09-27,1.08,1.1,1.08,1.1,4618000
2017-09-28,1.08,1.09,1.08,1.09,2432000
2017-09-29,1.08,1.09,1.07,1.09,2030200
2017-10-03,1.09,1.09,1.07,1.08,2690000
2017-10-04,1.09,1.1,1.09,1.1,2868000
2017-10-06,1.1,1.1,1.07,1.07,3164000
2017-10-09,1.07,1.08,1.07,1.08,1910000
2017-10-10,1.08,1.09,1.06,1.08,2542000
2017-10-11,1.08,1.08,1.05,1.06,4238000
2017-10-12,1.05,1.07,1.04,1.06,2090000
2017-10-13,1.06,1.06,1.04,1.04,4742000
2017-10-16,1.04,1.06,1.04,1.05,2432000
2017-10-17,1.04,1.05,1.03,1.04,2422000
2017-10-18,1.04,1.1,1.03,1.09,7064000
2017-10-19,1.1,1.23,1.09,1.13,47938000
2017-10-20,1.15,1.19,1.15,1.17,10888400
2017-10-23,1.17,1.17,1.13,1.14,4586000
2017-10-24,1.13,1.14,1.1,1.12,4168000
2017-10-25,1.11,1.11,1.06,1.08,7254000
2017-10-26,1.08,1.09,1.06,1.07,2620000
2017-10-27,1.08,1.09,1.06,1.07,3269700
2017-10-30,1.07,1.07,1.06,1.07,2762000
2017-10-31,1.06,1.09,1.05,1.07,4136000
2017-11-01,1.08,1.08,1.05,1.05,4322000
2017-11-02,1.06,1.12,1.05,1.09,6996000
2017-11-03,1.09,1.1,1.07,1.08,2344000
2017-11-06,1.07,1.08,1.06,1.07,2088000
2017-11-07,1.08,1.08,1.05,1.06,2906000
2017-11-08,1.06,1.07,1.03,1.05,7463000
2017-11-09,1.05,1.05,1.02,1.04,9634000
2017-11-10,1.04,1.04,1.03,1.03,1832000
2017-11-13,1.03,1.04,1.02,1.04,2904000
2017-11-14,1.02,1.02,0.91,0.93,24518000
2017-11-15,0.94,0.94,0.88,0.91,11580000
2017-11-16,0.9,0.94,0.9,0.92,6508000
2017-11-17,0.92,0.96,0.9,0.93,4814000
2017-11-20,0.93,0.94,0.91,0.92,2670000
2017-11-21,0.91,0.92,0.86,0.86,10528000
2017-11-22,0.85,0.9,0.85,0.88,4720000
2017-11-23,0.9,0.93,0.88,0.9,1422000
2017-11-24,0.88,0.94,0.84,0.94,8495300
2017-11-27,0.93,1.04,0.93,1.02,14840000
2017-11-28,1.02,1.02,0.95,0.96,5168000
2017-11-29,0.98,0.99,0.95,0.98,7494000
2017-11-30,0.98,0.98,0.91,0.91,13312000
2017-12-01,0.91,0.93,0.87,0.87,7249300
2017-12-04,0.87,0.91,0.87,0.88,2886000
2017-12-05,0.87,0.9,0.87,0.87,2267700
2017-12-06,0.87,0.88,0.82,0.84,5402000
2017-12-07,0.84,0.86,0.83,0.83,1800000
2017-12-08,0.83,0.85,0.81,0.83,2952000
2017-12-11,0.81,0.92,0.81,0.91,10240000
2017-12-12,0.92,0.93,0.87,0.92,2484000
2017-12-13,0.92,0.94,0.9,0.92,4926000
2017-12-14,0.91,0.93,0.9,0.91,2936000
2017-12-15,0.91,0.97,0.89,0.95,6726000
2017-12-18,0.99,1.04,0.9,0.96,283202496
2017-12-19,0.94,0.97,0.93,0.94,4320000
2017-12-20,0.94,0.94,0.92,0.93,3334000
2017-12-21,0.93,0.94,0.92,0.93,2612000
2017-12-22,0.94,0.94,0.92,0.93,2334000
2017-12-27,0.93,0.93,0.9,0.91,3508000
2017-12-28,0.9,0.93,0.9,0.9,2580000
2017-12-29,0.9,0.92,0.89,0.89,7377400
2018-01-02,0.89,0.89,0.86,0.88,5842000
2018-01-03,0.88,0.88,0.86,0.86,6026000
2018-01-04,0.87,0.92,0.87,0.9,7204000
2018-01-05,0.89,0.94,0.86,0.91,15172000
2018-01-08,0.9,0.92,0.9,0.91,3692000
2018-01-09,0.91,0.92,0.9,0.9,3152000
2018-01-10,0.91,0.95,0.91,0.94,29904000
2018-01-11,0.94,0.96,0.93,0.94,4492000
2018-01-12,0.94,0.94,0.91,0.92,2680000
2018-01-15,0.92,0.92,0.9,0.9,3706000
2018-01-16,0.9,0.91,0.88,0.88,4696000
2018-01-17,0.9,0.91,0.88,0.89,4490000
2018-01-18,0.89,0.91,0.88,0.89,4506000
2018-01-19,0.89,0.89,0.88,0.89,1941000
2018-01-22,0.88,0.9,0.88,0.9,3106000
2018-01-23,0.9,0.92,0.88,0.9,4806000
2018-01-24,0.9,0.91,0.88,0.89,6154000
2018-01-25,0.9,0.92,0.9,0.91,3212000
2018-01-26,0.9,0.92,0.88,0.88,9244000
2018-01-29,0.88,0.9,0.88,0.89,4608000
2018-01-30,0.88,0.9,0.87,0.87,3378000
2018-01-31,0.87,0.89,0.86,0.88,2758000
2018-02-01,0.9,0.9,0.87,0.87,2032000
2018-02-02,0.87,0.98,0.87,0.92,11902000
2018-02-05,0.89,0.92,0.88,0.9,2126000
2018-02-06,0.88,0.91,0.86,0.91,7148000
2018-02-07,0.91,0.95,0.88,0.93,8514000
2018-02-08,0.92,0.97,0.92,0.93,10080000
2018-02-09,0.91,0.91,0.88,0.9,5342000
2018-02-12,0.9,0.9,0.88,0.89,1414000
2018-02-13,0.9,0.92,0.88,0.9,2510000
2018-02-14,0.9,0.9,0.89,0.89,1062000
2018-02-15,0.89,0.94,0.88,0.9,3668000
2018-02-20,0.9,0.91,0.86,0.89,5104000
2018-02-21,0.88,0.9,0.88,0.89,568000
2018-02-22,0.89,0.89,0.87,0.89,5098000
2018-02-23,0.89,0.89,0.88,0.88,3246000
2018-02-26,0.88,0.94,0.88,0.92,11086000
2018-02-27,0.92,0.95,0.9,0.9,3136000
2018-02-28,0.9,0.92,0.9,0.92,774000
2018-03-01,0.92,0.92,0.9,0.9,798000
2018-03-02,0.92,0.92,0.9,0.9,546000
2018-03-05,0.89,0.91,0.89,0.9,1020000
2018-03-06,0.91,0.91,0.89,0.9,976000
2018-03-07,0.89,0.91,0.88,0.91,2372000
2018-03-08,0.9,0.91,0.9,0.91,472000
2018-03-09,0.89,0.92,0.89,0.9,1452000
2018-03-12,0.9,0.93,0.89,0.92,9366000
2018-03-13,0.91,0.92,0.9,0.91,2310000
2018-03-14,0.91,0.92,0.89,0.91,5236000
2018-03-15,0.91,1.02,0.91,1.0,31238000
2018-03-16,1.0,1.11,0.96,1.05,28142000
2018-03-19,1.04,1.15,1.04,1.1,22750000
2018-03-20,1.1,1.17,1.06,1.14,17382000
2018-03-21,1.15,1.16,0.94,0.97,29906500
2018-03-22,0.97,1.01,0.94,0.96,8012300
2018-03-23,0.92,0.99,0.92,0.97,9862500
2018-03-26,0.98,0.98,0.92,0.98,8634500
2018-03-27,0.99,1.01,0.94,0.95,6452000
2018-03-28,0.94,0.94,0.92,0.92,3360000
2018-03-29,0.93,0.97,0.9,0.92,5631000
2018-04-03,0.91,0.92,0.88,0.91,3565600
2018-04-04,0.91,0.91,0.89,0.89,2386000
2018-04-06,0.9,0.9,0.88,0.89,2890000
2018-04-09,0.89,0.91,0.88,0.9,1018000
2018-04-10,0.9,0.91,0.88,0.9,1658000
2018-04-11,0.9,0.9,0.89,0.89,1870000
2018-04-12,0.89,0.89,0.88,0.88,3242000
2018-04-13,0.89,0.9,0.88,0.89,3606000
2018-04-16,0.89,0.91,0.89,0.89,7128000
2018-04-17,0.9,0.93,0.89,0.92,3772000
2018-04-18,0.92,0.93,0.9,0.91,1380000
2018-04-19,0.91,1.02,0.91,1.0,13280000
2018-04-20,1.04,1.04,0.96,1.01,13090000
2018-04-23,1.01,1.02,0.97,0.97,2230000
2018-04-24,0.98,0.98,0.94,0.95,2042000
2018-04-25,0.95,0.95,0.93,0.93,1612000
2018-04-26,0.94,0.95,0.92,0.93,2506000
2018-04-27,0.93,0.98,0.93,0.95,2806000
2018-04-30,0.94,0.96,0.94,0.94,1720000
2018-05-02,0.96,0.98,0.96,0.98,1830000
2018-05-03,0.96,0.98,0.94,0.97,1974000
2018-05-04,0.95,0.97,0.94,0.94,2370000
2018-05-07,0.96,1.02,0.94,0.95,9256000
2018-05-08,0.95,0.96,0.94,0.94,1310000
2018-05-09,0.96,0.97,0.94,0.94,1354000
2018-05-10,0.94,0.95,0.93,0.94,1350000
2018-05-11,0.94,0.94,0.93,0.93,644000
2018-05-14,0.94,0.94,0.93,0.93,616000
2018-05-15,0.93,1.0,0.92,0.96,3066000
2018-05-16,0.94,0.98,0.94,0.94,1562000
2018-05-17,0.94,0.96,0.94,0.94,972000
2018-05-18,0.94,0.94,0.92,0.93,6654000
2018-05-21,0.93,0.95,0.92,0.93,1478000
2018-05-23,0.93,0.94,0.91,0.92,3084000
2018-05-24,0.91,0.96,0.9,0.91,4180000
2018-05-25,0.91,0.91,0.89,0.9,1806000
2018-05-28,0.9,0.95,0.9,0.91,4584000
2018-05-29,0.9,0.94,0.9,0.9,2906000
2018-05-30,0.89,0.9,0.89,0.9,842000
2018-05-31,0.9,0.9,0.89,0.89,1898000
2018-06-01,0.89,0.9,0.88,0.89,1982000
2018-06-04,0.88,0.89,0.87,0.88,2170000
2018-06-05,0.88,0.89,0.88,0.88,2260000
2018-06-06,0.88,0.9,0.88,0.89,2320000
2018-06-07,0.9,0.9,0.89,0.9,1690000
2018-06-08,0.88,0.9,0.88,0.9,924000
2018-06-11,0.9,0.91,0.88,0.89,3192000
2018-06-12,0.89,0.9,0.86,0.87,3484000
2018-06-13,0.86,0.88,0.86,0.87,1088000
2018-06-14,0.87,0.88,0.87,0.88,1356000
2018-06-15,0.88,0.9,0.87,0.89,1452000
2018-06-19,0.9,0.9,0.84,0.85,1902000
2018-06-20,0.84,0.9,0.84,0.87,1890000
2018-06-21,0.85,0.87,0.85,0.85,2508000
2018-06-22,0.85,0.85,0.83,0.84,1720000
2018-06-25,0.83,0.83,0.79,0.8,2694000
2018-06-26,0.75,0.78,0.67,0.78,7694000
2018-06-27,0.76,0.83,0.74,0.74,2702000
2018-06-28,0.71,0.78,0.71,0.73,3676000
2018-06-29,0.71,0.79,0.71,0.75,5194000
2018-07-03,0.72,0.77,0.67,0.7,4296500
2018-07-04,0.69,0.72,0.69,0.71,2160000
2018-07-05,0.7,0.72,0.69,0.69,1857400
2018-07-06,0.69,0.7,0.65,0.69,2848000
2018-07-09,0.7,0.72,0.69,0.7,1754000
2018-07-10,0.7,0.78,0.7,0.71,6066000
2018-07-11,0.7,0.73,0.7,0.71,1986000
2018-07-12,0.71,0.73,0.71,0.72,3082600
2018-07-13,0.72,0.73,0.72,0.72,2032000
2018-07-16,0.71,0.73,0.71,0.72,1154000
2018-07-17,0.74,0.74,0.72,0.73,356000
2018-07-18,0.74,0.78,0.74,0.74,2506000
2018-07-19,0.79,0.8,0.76,0.79,2938000
2018-07-20,0.77,0.8,0.76,0.78,1198000
2018-07-23,0.77,0.8,0.76,0.78,1720000
2018-07-24,0.8,0.85,0.79,0.8,5682000
2018-07-25,0.83,0.85,0.8,0.81,3548000
2018-07-26,0.83,0.83,0.79,0.8,1020000
2018-07-27,0.8,0.8,0.78,0.8,1134000
2018-07-30,0.79,0.83,0.78,0.81,1316000
2018-07-31,0.79,0.81,0.78,0.8,704000
2018-08-01,0.8,0.82,0.79,0.82,1238000
2018-08-02,0.8,0.8,0.78,0.8,884000
2018-08-03,0.78,0.8,0.78,0.8,618000
2018-08-06,0.78,0.79,0.76,0.77,856000
2018-08-07,0.77,0.77,0.73,0.77,826000
2018-08-08,0.76,0.79,0.76,0.79,1078000
2018-08-09,0.78,0.8,0.77,0.79,740000
2018-08-10,0.78,0.8,0.78,0.8,1100000
2018-08-13,0.8,0.8,0.78,0.8,1476000
2018-08-14,0.8,0.81,0.78,0.8,6958000
2018-08-15,0.8,0.84,0.79,0.83,9648000
2018-08-16,0.8,0.81,0.79,0.81,516000
2018-08-17,0.8,0.81,0.77,0.78,2216000
2018-08-20,0.77,0.81,0.77,0.79,5486000
2018-08-21,0.81,0.83,0.81,0.82,3184000
2018-08-22,0.81,0.83,0.8,0.8,756000
2018-08-23,0.8,0.81,0.79,0.81,518000
2018-08-24,0.82,0.83,0.81,0.83,2098000
2018-08-27,0.84,0.84,0.8,0.81,5074000
2018-08-28,0.81,0.85,0.8,0.83,3575200
2018-08-29,0.82,0.87,0.81,0.85,3958000
2018-08-30,0.9,0.97,0.9,0.95,64444000
2018-08-31,0.95,0.95,0.86,0.87,4924000
2018-09-03,0.87,0.9,0.82,0.83,2996000
2018-09-04,0.84,0.86,0.82,0.84,2182000
2018-09-05,0.83,0.85,0.8,0.8,1290000
2018-09-06,0.8,0.83,0.78,0.82,2122000
2018-09-07,0.8,0.83,0.8,0.82,1254000
2018-09-10,0.81,0.83,0.79,0.82,1876000
2018-09-11,0.82,0.83,0.81,0.82,932000
2018-09-12,0.8,0.83,0.78,0.81,1430000
2018-09-13,0.81,0.84,0.8,0.81,1080000
2018-09-14,0.81,0.82,0.79,0.81,1354000
2018-09-17,0.8,0.81,0.79,0.79,572000
2018-09-18,0.79,0.82,0.79,0.82,766000
2018-09-19,0.82,0.83,0.81,0.81,1486000
2018-09-20,0.82,0.82,0.81,0.82,444000
2018-09-21,0.81,0.81,0.75,0.76,20916600
2018-09-24,0.77,0.84,0.75,0.79,5980000
2018-09-26,0.78,0.81,0.78,0.8,404000
2018-09-27,0.8,0.8,0.78,0.8,1102000
2018-09-28,0.79,0.81,0.79,0.79,950000
2018-10-02,0.78,0.8,0.75,0.76,1046000
2018-10-03,0.77,0.88,0.77,0.88,7926000
2018-10-04,0.88,0.93,0.85,0.91,17244000
2018-10-05,0.91,1.02,0.89,1.0,26112000
2018-10-08,1.01,1.07,0.94,0.95,9840000
2018-10-09,0.97,1.0,0.94,1.0,4688000
2018-10-10,1.0,1.02,0.97,1.01,8132000
2018-10-11,0.97,0.98,0.92,0.97,6534000
2018-10-12,0.97,1.0,0.97,0.99,2534000
2018-10-15,0.97,1.0,0.94,0.99,2154000
2018-10-16,1.01,1.03,0.97,1.0,6158000
2018-10-18,1.0,1.01,0.91,0.96,3700000
2018-10-19,0.98,0.98,0.94,0.97,1282000
2018-10-22,0.98,0.98,0.92,0.94,3126000
2018-10-23,0.94,0.97,0.9,0.93,2996000
2018-10-24,0.94,0.94,0.88,0.9,13790000
2018-10-25,0.87,0.89,0.85,0.89,1054000
2018-10-26,0.9,0.92,0.85,0.9,2138000
2018-10-29,0.9,0.92,0.87,0.91,810000
2018-10-30,0.88,0.93,0.88,0.9,1598000
2018-10-31,0.91,0.96,0.91,0.96,7434000
2018-11-01,0.93,0.97,0.92,0.94,2018000
2018-11-02,0.95,0.97,0.93,0.95,16818000
2018-11-05,0.97,0.97,0.94,0.96,754000
2018-11-06,0.96,0.97,0.94,0.97,1726000
2018-11-07,0.97,1.0,0.95,0.98,17371700
2018-11-08,0.99,0.99,0.95,0.98,30570000
2018-11-09,0.97,1.01,0.96,1.0,13698000
2018-11-12,1.0,1.01,0.96,0.98,2758000
2018-11-13,0.97,1.0,0.96,0.99,1630000
2018-11-14,1.0,1.02,0.98,1.01,5462000
2018-11-15,1.01,1.04,0.99,1.01,5163900
2018-11-16,1.01,1.01,0.99,1.0,1838000
2018-11-19,1.0,1.01,0.97,0.98,1613300
2018-11-20,0.98,1.0,0.96,0.98,2580000
2018-11-21,0.97,0.99,0.96,0.98,1886000
2018-11-22,0.97,1.0,0.96,0.98,450000
2018-11-23,0.99,0.99,0.96,0.97,1236000
2018-11-26,0.97,0.98,0.96,0.97,778000
2018-11-27,0.98,0.98,0.95,0.97,2472000
2018-11-28,0.95,0.98,0.94,0.96,6416000
2018-11-29,0.96,0.97,0.93,0.97,1348000
2018-11-30,0.98,0.98,0.94,0.97,2319900
2018-12-03,0.98,0.98,0.95,0.96,512000
2018-12-04,0.97,0.98,0.96,0.96,1004000
2018-12-05,0.96,0.97,0.95,0.97,568000
2018-12-06,0.97,0.98,0.94,0.96,4624000
2018-12-07,0.96,0.96,0.93,0.94,1538000
2018-12-10,0.95,0.96,0.93,0.95,714000
2018-12-11,0.94,0.96,0.94,0.95,406000
2018-12-12,0.94,0.96,0.94,0.95,982000
2018-12-13,0.95,0.98,0.95,0.98,5832000
2018-12-14,0.97,0.98,0.95,0.95,1472000
2018-12-17,0.96,0.97,0.93,0.95,5392000
2018-12-18,0.96,0.96,0.93,0.96,8754000
2018-12-19,0.96,0.98,0.94,0.96,2664000
2018-12-20,0.98,0.98,0.94,0.97,1342000
2018-12-21,0.96,0.97,0.95,0.96,30810000
2018-12-24,0.97,0.98,0.95,0.97,562000
2018-12-27,0.96,0.98,0.94,0.95,2908000
2018-12-28,0.95,0.96,0.95,0.95,538000
2018-12-31,0.96,1.0,0.96,0.99,3600000
2019-01-02,0.98,0.99,0.95,0.98,2554000
2019-01-03,0.96,0.96,0.95,0.96,600000
2019-01-04,0.96,0.97,0.95,0.95,11484000
2019-01-07,0.97,0.97,0.94,0.95,1108000
2019-01-08,0.95,0.96,0.94,0.95,1604000
2019-01-09,0.95,0.97,0.94,0.97,17616000
2019-01-10,0.97,1.0,0.96,0.97,4243200
2019-01-11,0.98,0.98,0.95,0.95,2872000
2019-01-14,0.96,0.96,0.95,0.95,584000
2019-01-15,0.95,0.97,0.95,0.96,706000
2019-01-16,0.96,0.97,0.95,0.96,840000
2019-01-17,0.96,0.97,0.95,0.95,1442000
2019-01-18,0.96,0.97,0.93,0.94,4136000
2019-01-21,0.95,0.95,0.88,0.9,5278000
2019-01-22,0.9,0.92,0.89,0.91,1322000
2019-01-23,0.91,0.93,0.89,0.9,3426000
2019-01-24,0.9,0.93,0.9,0.91,1458000
2019-01-25,0.92,0.96,0.92,0.95,2628000
2019-01-28,0.93,0.98,0.93,0.98,2382000
2019-01-29,0.98,0.99,0.96,0.98,1642000
2019-01-30,0.96,0.98,0.96,0.97,2371600
2019-01-31,0.98,0.99,0.95,0.96,1048000
2019-02-01,0.95,0.97,0.95,0.97,978000
2019-02-04,0.95,0.97,0.94,0.97,538000
2019-02-08,0.95,0.97,0.95,0.96,952000
2019-02-11,0.95,0.96,0.95,0.95,324000
2019-02-12,0.96,0.97,0.94,0.94,2326000
2019-02-13,0.95,0.97,0.94,0.96,3974000
2019-02-14,0.97,0.97,0.94,0.95,3044000
2019-02-15,0.95,0.97,0.93,0.97,7804000
2019-02-18,0.97,1.04,0.96,1.0,8660000
2019-02-19,1.0,1.02,0.98,0.99,3070000
2019-02-20,0.99,1.0,0.97,0.98,2832000
2019-02-21,0.98,1.0,0.96,0.99,4522000
2019-02-22,0.99,1.04,0.99,1.02,11472000
2019-02-25,1.02,1.05,1.01,1.03,7716000
2019-02-26,1.04,1.04,1.0,1.02,2372000
2019-02-27,1.01,1.02,0.98,1.0,2582000
2019-02-28,1.0,1.0,0.98,0.98,810000
2019-03-01,0.99,0.99,0.96,0.96,3378000
2019-03-04,0.96,0.99,0.96,0.97,3154000
2019-03-05,0.96,0.97,0.95,0.96,2832000
2019-03-06,0.96,0.97,0.95,0.97,2004000
2019-03-07,0.96,0.97,0.95,0.97,924000
2019-03-08,0.96,0.97,0.95,0.96,2092000
2019-03-11,0.96,0.98,0.96,0.98,1356000
2019-03-12,0.96,0.98,0.96,0.97,1424000
2019-03-13,0.96,0.98,0.96,0.97,860000
2019-03-14,0.96,0.99,0.96,0.98,3042000
2019-03-15,0.98,0.99,0.97,0.98,1798000
2019-03-18,0.99,0.99,0.94,0.98,4450000
2019-03-19,0.96,0.97,0.91,0.96,9084000
2019-03-20,0.95,0.99,0.94,0.98,2972000
2019-03-21,0.98,1.03,0.98,1.02,7958000
2019-03-22,1.02,1.04,0.98,1.02,4248000
2019-03-25,1.01,1.01,0.98,1.0,1586000
2019-03-26,1.0,1.03,0.98,1.03,2414000
2019-03-27,1.03,1.03,0.99,1.02,3470000
2019-03-28,1.02,1.04,1.0,1.04,6514000
2019-03-29,1.03,1.04,1.01,1.03,4074000
2019-04-01,1.04,1.22,1.04,1.14,23892000
2019-04-02,1.17,1.33,1.15,1.32,34306000
2019-04-03,1.32,1.43,1.27,1.41,42664000
2019-04-04,1.43,1.44,1.36,1.43,18160000
2019-04-08,1.4,1.5,1.4,1.48,15069600
2019-04-09,1.51,1.52,1.47,1.5,16258000
2019-04-10,1.5,1.7,1.48,1.69,33236000
2019-04-11,1.69,1.69,1.5,1.53,19998000
2019-04-12,1.55,1.65,1.54,1.58,21674000
2019-04-15,1.57,1.63,1.46,1.51,14386000
2019-04-16,1.54,1.54,1.48,1.52,17498000
2019-04-17,1.51,1.53,1.4,1.4,14372000
2019-04-18,1.43,1.48,1.41,1.47,12402000
2019-04-23,1.5,1.55,1.46,1.48,13128000
2019-04-24,1.7,1.85,1.48,1.52,136248000
2019-04-25,1.54,1.63,1.46,1.62,32200000
2019-04-26,1.61,1.67,1.57,1.63,38668000
2019-04-29,1.63,1.7,1.59,1.64,14312000
2019-04-30,1.62,1.65,1.55,1.64,17902000
2019-05-02,1.62,1.72,1.6,1.68,21569000
2019-05-03,1.67,1.69,1.63,1.64,7284000
2019-05-06,1.6,1.6,1.49,1.56,15692000
2019-05-07,1.56,1.56,1.48,1.48,13684000
2019-05-08,1.45,1.55,1.45,1.51,10844000
2019-05-09,1.51,1.51,1.43,1.5,5730000
2019-05-10,1.5,1.66,1.49,1.65,28920000
2019-05-14,1.54,1.6,1.53,1.58,12772000
2019-05-15,1.58,1.64,1.57,1.64,8294400
2019-05-16,1.62,1.63,1.59,1.62,3058000
2019-05-17,1.63,1.79,1.62,1.64,52774000
2019-05-20,1.66,1.66,1.56,1.61,7660000
2019-05-21,1.6,1.64,1.6,1.63,10784000
2019-05-22,1.62,1.74,1.62,1.72,19538000
2019-05-23,1.71,1.72,1.67,1.69,5526000
2019-05-24,1.69,1.7,1.66,1.68,8570000
2019-05-27,1.66,1.66,1.56,1.61,9672000
2019-05-28,1.6,1.62,1.58,1.61,2222000
2019-05-29,1.58,1.62,1.57,1.6,3896000
2019-05-30,1.59,1.67,1.59,1.67,4410000
2019-05-31,1.65,1.74,1.63,1.72,11744000
2019-06-03,1.7,1.77,1.65,1.65,9938000
2019-06-04,1.65,1.67,1.64,1.65,3296000
2019-06-05,1.68,1.68,1.63,1.64,4054000
2019-06-06,1.65,1.69,1.62,1.66,5174000
2019-06-10,1.67,1.69,1.65,1.67,3170000
2019-06-11,1.69,1.69,1.63,1.66,3180000
2019-06-12,1.66,1.66,1.6,1.61,3444000
2019-06-13,1.61,1.64,1.59,1.63,2668000
2019-06-14,1.64,1.65,1.57,1.6,3504000
2019-06-17,1.6,1.61,1.59,1.6,1144000
2019-06-18,1.59,1.61,1.57,1.6,2606000
2019-06-19,1.6,1.62,1.59,1.61,8086000
2019-06-20,1.6,1.66,1.6,1.61,2310000
2019-06-21,1.62,1.62,1.58,1.58,4888000
2019-06-24,1.58,1.6,1.58,1.59,944000
2019-06-25,1.58,1.59,1.52,1.54,2230000
2019-06-26,1.57,1.57,1.55,1.56,822000
2019-06-27,1.57,1.58,1.54,1.57,988000
2019-06-28,1.54,1.65,1.52,1.62,3796000
2019-07-02,1.63,1.67,1.62,1.63,5660000
2019-07-03,1.62,1.64,1.6,1.63,2512000
2019-07-04,1.63,1.64,1.59,1.61,1416000
2019-07-05,1.6,1.6,1.56,1.58,1736000
2019-07-08,1.57,1.59,1.55,1.58,1200000
2019-07-09,1.53,1.54,1.26,1.42,24390000
2019-07-10,1.38,1.45,1.35,1.44,8228000
2019-07-11,1.46,1.47,1.4,1.41,4344000
2019-07-12,1.4,1.41,1.31,1.36,8596000
2019-07-15,1.28,1.34,1.25,1.29,5496000
2019-07-16,1.3,1.35,1.29,1.32,6186000
2019-07-17,1.28,1.35,1.27,1.34,6322000
2019-07-18,1.33,1.33,1.28,1.3,1322000
2019-07-19,1.28,1.31,1.27,1.27,1850000
2019-07-22,1.27,1.3,1.24,1.24,2272000
2019-07-23,1.26,1.27,1.15,1.21,10392000
2019-07-24,1.19,1.21,1.15,1.2,5188000
2019-07-25,1.26,1.31,1.24,1.25,4956000
2019-07-26,1.24,1.25,1.19,1.22,4684000
2019-07-29,1.21,1.25,1.19,1.21,2634000
2019-07-30,1.2,1.29,1.2,1.24,3500000
2019-07-31,1.23,1.26,1.23,1.26,1342000
2019-08-01,1.26,1.26,1.21,1.23,2892000
2019-08-02,1.2,1.21,1.17,1.19,3122000
2019-08-05,1.17,1.2,1.03,1.07,7136000
2019-08-06,1.07,1.09,0.97,1.07,4450000
2019-08-07,1.07,1.07,1.01,1.03,2612000
2019-08-08,1.05,1.09,1.05,1.07,1190100
2019-08-09,1.1,1.14,1.08,1.14,1714000
2019-08-12,1.13,1.18,1.11,1.14,3056000
2019-08-13,1.11,1.12,1.05,1.08,1944000
2019-08-14,1.08,1.1,1.03,1.05,1100000
2019-08-15,1.02,1.05,0.99,1.04,2156000
2019-08-16,1.05,1.06,1.02,1.03,1268000
2019-08-19,1.04,1.08,1.04,1.06,1008000
2019-08-20,1.07,1.14,1.05,1.11,3244000
2019-08-21,1.1,1.14,1.08,1.08,1434000
2019-08-22,1.08,1.1,1.07,1.07,621100
2019-08-23,1.07,1.1,1.07,1.1,3744000
2019-08-26,1.05,1.05,0.98,1.01,5322600
2019-08-27,1.05,1.08,1.01,1.03,4862000
2019-08-28,1.04,1.04,1.02,1.03,854000
2019-08-29,1.02,1.04,1.01,1.02,580000
2019-08-30,1.05,1.07,0.99,1.06,4578000
2019-09-02,1.05,1.05,1.02,1.02,360000
2019-09-03,1.05,1.05,1.02,1.03,674000
2019-09-04,1.04,1.09,1.02,1.07,2866000
2019-09-05,1.06,1.27,1.06,1.23,10554000
2019-09-06,1.23,1.28,1.2,1.2,4828000
2019-09-09,1.2,1.21,1.14,1.16,1876000
2019-09-10,1.14,1.29,1.14,1.25,4376000
2019-09-11,1.27,1.3,1.24,1.25,4972000
2019-09-12,1.28,1.34,1.26,1.28,4192000
2019-09-13,1.32,1.34,1.25,1.3,3890000
2019-09-16,1.3,1.32,1.26,1.3,2814000
2019-09-17,1.3,1.3,1.25,1.27,1848000
2019-09-18,1.28,1.29,1.25,1.26,1306000
2019-09-19,1.27,1.28,1.24,1.27,1670000
2019-09-20,1.25,1.32,1.22,1.32,8820000
2019-09-23,1.3,1.3,1.23,1.26,9136000
2019-09-24,1.24,1.27,1.23,1.26,910000
2019-09-25,1.24,1.26,1.22,1.23,1092000
2019-09-26,1.23,1.23,1.19,1.22,3030000
2019-09-27,1.23,1.23,1.19,1.21,1862000
2019-09-30,1.22,1.26,1.21,1.25,1716000
2019-10-02,1.22,1.23,1.2,1.21,328000
2019-10-03,1.17,1.2,1.16,1.17,1044000
2019-10-04,1.2,1.24,1.2,1.21,1734000
2019-10-08,1.2,1.2,1.15,1.18,6896000
2019-10-09,1.17,1.18,1.13,1.16,3966000
2019-10-10,1.14,1.17,1.12,1.16,2282000
2019-10-11,1.13,1.2,1.12,1.2,3546000
2019-10-14,1.2,1.22,1.18,1.2,1128000
2019-10-15,1.2,1.2,1.18,1.19,242000
2019-10-16,1.2,1.2,1.17,1.18,490000
2019-10-17,1.18,1.19,1.16,1.17,402000
2019-10-18,1.18,1.23,1.18,1.22,1544000
2019-10-21,1.21,1.22,1.19,1.19,538000
2019-10-22,1.2,1.2,1.16,1.19,420000
2019-10-23,1.18,1.2,1.17,1.2,534000
2019-10-24,1.18,1.21,1.17,1.2,1464000
2019-10-25,1.19,1.2,1.18,1.19,468000
2019-10-28,1.18,1.19,1.16,1.18,770000
2019-10-29,1.19,1.19,1.1,1.17,2478000
2019-10-30,1.14,1.18,1.11,1.18,1526000
2019-10-31,1.14,1.22,1.14,1.22,1718000
2019-11-01,1.22,1.22,1.18,1.2,444000
2019-11-04,1.18,1.2,1.17,1.18,820000
2019-11-05,1.18,1.18,1.14,1.18,1506000
2019-11-06,1.18,1.18,1.15,1.16,354000
2019-11-07,1.16,1.17,1.15,1.16,932000
2019-11-08,1.14,1.17,1.14,1.16,532000
2019-11-11,1.15,1.17,1.14,1.14,1200000
2019-11-12,1.16,1.16,1.14,1.15,594000
2019-11-13,1.15,1.15,1.11,1.14,5408800
2019-11-14,1.14,1.14,1.06,1.09,1242000
2019-11-15,1.12,1.12,1.07,1.08,1274000
2019-11-18,1.07,1.1,1.07,1.08,1512000
2019-11-19,1.06,1.11,1.05,1.09,490000
2019-11-20,1.09,1.1,1.09,1.09,180000
2019-11-21,1.08,1.09,1.06,1.07,1296000
2019-11-22,1.07,1.08,1.05,1.05,436000
2019-11-25,1.05,1.06,1.02,1.03,1149000
2019-11-26,1.04,1.04,1.0,1.03,2911000
2019-11-27,1.03,1.04,1.01,1.03,538000
2019-11-28,1.01,1.02,1.0,1.02,674000
2019-11-29,1.0,1.02,1.0,1.01,10038000
2019-12-02,1.02,1.03,0.98,0.98,1534000
2019-12-03,0.99,1.02,0.96,1.01,22680000
2019-12-04,1.01,1.02,1.0,1.0,1996000
2019-12-05,1.0,1.02,0.98,0.98,660000
2019-12-06,1.0,1.05,0.99,1.05,6096000
2019-12-09,1.04,1.06,1.04,1.04,3610000
2019-12-10,1.03,1.05,1.0,1.01,730000
2019-12-11,1.0,1.03,1.0,1.01,358000
2019-12-12,1.01,1.02,1.0,1.01,360000
2019-12-13,1.02,1.06,1.02,1.05,4972000
2019-12-16,1.07,1.08,1.05,1.06,592000
2019-12-17,1.06,1.07,1.04,1.04,1744000
2019-12-18,1.04,1.04,1.01,1.01,2578000
2019-12-19,1.02,1.04,1.02,1.03,1628000
2019-12-20,1.03,1.06,1.02,1.02,5142000
2019-12-23,1.02,1.03,1.0,1.01,768000
2019-12-24,1.02,1.03,1.01,1.03,122000
2019-12-27,1.01,1.04,1.01,1.02,580000
2019-12-30,1.03,1.07,1.03,1.06,3726000
2019-12-31,1.05,1.13,1.04,1.09,10812000
2020-01-02,1.08,1.12,1.08,1.11,978000
2020-01-03,1.11,1.11,1.07,1.08,1666000
2020-01-06,1.07,1.08,1.06,1.06,566000
2020-01-07,1.06,1.08,1.05,1.05,2364000
2020-01-08,1.04,1.08,1.0,1.08,1680000
2020-01-09,1.07,1.08,1.06,1.06,9262000
2020-01-10,1.06,1.08,1.06,1.06,1470000
2020-01-13,1.06,1.08,1.06,1.08,1536000
2020-01-14,1.07,1.08,1.06,1.06,1546000
2020-01-15,1.05,1.08,1.05,1.06,696000
2020-01-16,1.06,1.08,1.05,1.07,836000
2020-01-17,1.09,1.09,1.04,1.06,1844000
2020-01-20,1.04,1.06,1.04,1.05,168000
2020-01-21,1.03,1.04,1.01,1.02,1614000
2020-01-22,1.02,1.03,1.0,1.02,1232000
2020-01-23,1.02,1.02,0.97,0.99,1098000
2020-01-24,0.99,1.0,0.99,1.0,170000
2020-01-29,0.96,0.98,0.93,0.97,1942000
2020-01-30,0.95,0.95,0.88,0.92,2196000
2020-01-31,0.89,0.95,0.85,0.95,2950000
2020-02-03,0.94,0.94,0.88,0.93,1248000
2020-02-04,0.93,0.95,0.87,0.91,1976000
2020-02-05,0.9,0.9,0.87,0.88,754000
2020-02-06,0.9,0.91,0.9,0.9,842000
2020-02-07,0.89,0.92,0.88,0.9,692000
2020-02-10,0.88,0.89,0.87,0.89,1602000
2020-02-11,0.88,0.9,0.86,0.88,2462000
2020-02-12,0.89,0.91,0.89,0.9,2604000
2020-02-13,0.89,0.9,0.89,0.89,226000
2020-02-14,0.89,0.9,0.88,0.89,1038000
2020-02-17,0.89,0.91,0.89,0.91,524000
2020-02-18,0.91,0.93,0.9,0.92,1688000
2020-02-19,0.92,0.93,0.9,0.92,522000
2020-02-20,0.91,0.93,0.9,0.92,1186000
2020-02-21,0.91,0.92,0.82,0.92,16392000
2020-02-24,0.89,0.89,0.87,0.87,790000
2020-02-25,0.89,0.9,0.89,0.9,252000
2020-02-26,0.87,0.88,0.86,0.88,690000
2020-02-27,0.9,0.9,0.86,0.87,1468000
2020-02-28,0.86,0.87,0.82,0.87,1454000
2020-03-02,0.83,0.87,0.83,0.84,738000
2020-03-03,0.85,0.88,0.85,0.86,166000
2020-03-04,0.84,0.86,0.83,0.85,234000
2020-03-05,0.85,0.86,0.85,0.86,90000
2020-03-06,0.83,0.85,0.82,0.83,652000
2020-03-09,0.82,0.82,0.74,0.77,2192000
2020-03-10,0.77,0.86,0.74,0.85,3490000
2020-03-11,0.83,0.83,0.8,0.81,378000
2020-03-12,0.79,0.79,0.75,0.78,996000
2020-03-13,0.75,0.79,0.65,0.79,4936000
2020-03-16,0.72,0.77,0.71,0.77,1016000
2020-03-17,0.72,0.77,0.7,0.77,888000
2020-03-18,0.78,0.78,0.69,0.71,1468000
2020-03-19,0.68,0.68,0.59,0.61,5594000
2020-03-20,0.65,0.68,0.61,0.67,2162000
2020-03-23,0.66,0.66,0.59,0.6,1366000
2020-03-24,0.62,0.67,0.61,0.65,2270000
2020-03-25,0.68,0.68,0.63,0.67,1618000
2020-03-26,0.65,0.67,0.64,0.65,500000
2020-03-27,0.65,0.66,0.62,0.65,1382000
2020-03-30,0.62,0.62,0.6,0.62,928000
2020-03-31,0.62,0.63,0.6,0.63,1032000
2020-04-01,0.61,0.62,0.58,0.6,1850000
2020-04-02,0.6,0.62,0.58,0.61,1732000
2020-04-03,0.59,0.59,0.55,0.58,3266000
2020-04-06,0.56,0.59,0.56,0.58,692000
2020-04-07,0.58,0.61,0.57,0.58,1870000
2020-04-08,0.56,0.58,0.54,0.57,2626000
2020-04-09,0.57,0.6,0.56,0.58,2398000
2020-04-14,0.56,0.58,0.55,0.57,3198000
2020-04-15,0.55,0.56,0.54,0.54,3486000
2020-04-16,0.54,0.54,0.495,0.5,9090000
2020-04-17,0.5,0.54,0.5,0.53,1932000
2020-04-20,0.52,0.53,0.5,0.51,3890000
2020-04-21,0.51,0.52,0.49,0.52,2460000
2020-04-22,0.5,0.51,0.495,0.5,776000
2020-04-23,0.52,0.52,0.47,0.495,3948000
2020-04-24,0.51,0.51,0.495,0.51,3146000
2020-04-27,0.51,0.52,0.5,0.52,322000
2020-04-28,0.53,0.68,0.53,0.67,12880000
2020-04-29,0.68,0.8,0.67,0.69,11364000
2020-05-04,0.7,0.71,0.62,0.63,1882800
2020-05-05,0.65,0.67,0.64,0.66,1728000
2020-05-06,0.67,0.73,0.67,0.69,2532000
2020-05-07,0.7,0.7,0.64,0.66,2040000
2020-05-08,0.65,0.66,0.62,0.65,1794000
2020-05-11,0.66,0.68,0.62,0.63,2744000
2020-05-12,0.63,0.64,0.61,0.62,2596000
2020-05-13,0.62,0.62,0.6,0.61,322000
2020-05-14,0.6,0.61,0.59,0.61,910000
2020-05-15,0.6,0.62,0.59,0.61,1340000
2020-05-18,0.61,0.65,0.6,0.62,3008000
2020-05-19,0.64,0.68,0.63,0.66,3646000
2020-05-20,0.66,0.66,0.62,0.62,1002000
2020-05-21,0.6,0.65,0.6,0.62,1062000
2020-05-22,0.61,0.62,0.6,0.61,1002000
2020-05-25,0.6,0.6,0.58,0.6,358000
2020-05-26,0.6,0.61,0.57,0.59,1314000
2020-05-27,0.59,0.59,0.58,0.59,462000
2020-05-28,0.59,0.59,0.57,0.59,1082000
2020-05-29,0.58,0.62,0.58,0.61,803687
2020-06-01,0.62,0.62,0.59,0.6,828000
2020-06-02,0.6,0.6,0.57,0.58,9392000
2020-06-03,0.59,0.59,0.57,0.59,7774000
2020-06-04,0.59,0.6,0.57,0.57,10732000
2020-06-05,0.58,0.59,0.57,0.58,10832000
2020-06-08,0.58,0.58,0.57,0.58,6312000
2020-06-09,0.58,0.59,0.57,0.59,10368000
2020-06-10,0.59,0.6,0.58,0.59,10590000
2020-06-11,0.58,0.59,0.57,0.59,5076000
2020-06-12,0.58,0.58,0.56,0.58,6018000
2020-06-15,0.58,0.58,0.57,0.58,2496000
2020-06-16,0.58,0.58,0.57,0.58,1898000
2020-06-17,0.58,0.58,0.57,0.58,514000
2020-06-18,0.57,0.58,0.56,0.57,2086000
2020-06-19,0.57,0.58,0.57,0.57,1376000
2020-06-22,0.57,0.58,0.56,0.57,3248000
2020-06-23,0.58,0.58,0.57,0.58,608000
2020-06-24,0.58,0.58,0.57,0.57,1262000
2020-06-26,0.57,0.58,0.57,0.58,790000
2020-06-29,0.58,0.58,0.57,0.57,1232000
2020-06-30,0.57,0.58,0.57,0.57,1948000
2020-07-02,0.57,0.58,0.56,0.57,5631000
2020-07-03,0.57,0.57,0.56,0.57,760000
2020-07-06,0.57,0.58,0.56,0.57,2744000
2020-07-07,0.57,0.58,0.56,0.57,6942000
2020-07-08,0.56,0.57,0.56,0.57,4924000
2020-07-09,0.57,0.57,0.56,0.56,5518000
2020-07-10,0.56,0.57,0.56,0.56,728000
2020-07-13,0.56,0.56,0.485,0.55,29208000
2020-07-14,0.53,0.54,0.51,0.52,3168000
2020-07-15,0.52,0.53,0.5,0.52,7372000
2020-07-16,0.52,0.54,0.51,0.53,8632000
2020-07-17,0.52,0.53,0.51,0.52,676000
2020-07-20,0.5,0.52,0.5,0.51,1600000
2020-07-21,0.51,0.52,0.5,0.51,1078000
2020-07-22,0.51,0.52,0.51,0.51,582000
2020-07-23,0.5,0.51,0.49,0.5,3971988
2020-07-24,0.5,0.5,0.49,0.5,2369000
2020-07-27,0.49,0.49,0.47,0.47,3678000
2020-07-28,0.47,0.49,0.47,0.49,1786000
2020-07-29,0.49,0.495,0.475,0.49,1816000
2020-07-30,0.485,0.49,0.485,0.49,2158000
2020-07-31,0.49,0.49,0.475,0.48,2598000
2020-08-03,0.485,0.485,0.47,0.47,3004000
2020-08-04,0.475,0.475,0.47,0.47,590000
2020-08-05,0.475,0.52,0.47,0.51,3060000
2020-08-06,0.5,0.5,0.49,0.495,538000
2020-08-07,0.495,0.51,0.49,0.495,614000
2020-08-10,0.495,0.58,0.495,0.53,8074000
2020-08-11,0.55,0.55,0.51,0.53,2080000
2020-08-12,0.53,0.53,0.51,0.52,1610000
2020-08-13,0.53,0.58,0.53,0.56,5950000
2020-08-14,0.56,0.56,0.54,0.55,1670000
2020-08-17,0.56,0.56,0.54,0.54,1482000
2020-08-18,0.53,0.55,0.53,0.54,288000
2020-08-19,0.54,0.55,0.53,0.54,2774000
2020-08-20,0.53,0.54,0.53,0.54,516000
2020-08-21,0.53,0.54,0.53,0.53,1304000
2020-08-24,0.53,0.56,0.53,0.55,1164000
2020-08-25,0.55,0.56,0.55,0.56,622000
